0
SECTION
2
ENTITIES
0
LINE
8
perfiles
10
69.756003
20
40.877101
30
0.0
11
69.756003
21
38.977101
31
0.0
0
LINE
8
perfiles
10
69.756003
20
38.977101
30
0.0
11
49.956003
21
38.977101
31
0.0
0
LINE
8
perfiles
10
49.956003
20
38.977101
30
0.0
11
49.956003
21
40.877101
31
0.0
0
ARC
8
perfiles
10
49.456003
20
40.877101
30
0.0
40
0.500000
50
0.000000
51
90.000000
0
LINE
8
perfiles
10
49.456003
20
41.377101
30
0.0
11
40.956003
21
41.377101
31
0.0
0
ARC
8
perfiles
10
40.956003
20
40.377101
30
0.0
40
1.000000
50
90.000000
51
180.000000
0
LINE
8
perfiles
10
39.956003
20
40.377101
30
0.0
11
39.956003
21
40.045319
31
0.0
0
ARC
8
perfiles
10
39.556003
20
40.045319
30
0.0
40
0.400000
50
218.499950
51
0.000000
0
ARC
8
perfiles
10
41.356003
20
41.477101
30
0.0
40
2.700000
50
180.000000
51
218.499950
0
LINE
8
perfiles
10
38.656003
20
41.477101
30
0.0
11
38.656003
21
46.177101
31
0.0
0
LINE
8
perfiles
10
38.656003
20
46.177101
30
0.0
11
42.856003
21
46.177101
31
0.0
0
ARC
8
perfiles
10
42.856003
20
46.677101
30
0.0
40
0.500000
50
270.000000
51
0.000000
0
LINE
8
perfiles
10
43.356003
20
46.677101
30
0.0
11
43.356003
21
51.227101
31
0.0
0
ARC
8
perfiles
10
42.856003
20
51.227101
30
0.0
40
0.500000
50
0.000000
51
153.638076
0
LINE
8
perfiles
10
42.407999
20
51.449121
30
0.0
11
41.506003
21
49.629025
31
0.0
0
LINE
8
perfiles
10
41.506003
20
49.629025
30
0.0
11
42.006003
21
49.340349
31
0.0
0
LINE
8
perfiles
10
42.006003
20
49.340349
30
0.0
11
42.006003
21
47.477101
31
0.0
0
LINE
8
perfiles
10
42.006003
20
47.477101
30
0.0
11
37.356003
21
47.477101
31
0.0
0
LINE
8
perfiles
10
37.356003
20
47.477101
30
0.0
11
37.356003
21
41.477101
31
0.0
0
ARC
8
perfiles
10
41.356003
20
41.477101
30
0.0
40
4.000000
50
180.000000
51
270.000000
0
LINE
8
perfiles
10
41.356003
20
37.477101
30
0.0
11
42.456003
21
37.477101
31
0.0
0
ARC
8
perfiles
10
42.456003
20
37.977101
30
0.0
40
0.500000
50
270.000000
51
0.000000
0
LINE
8
perfiles
10
42.956003
20
37.977101
30
0.0
11
42.956003
21
38.177101
31
0.0
0
ARC
8
perfiles
10
42.456003
20
38.177101
30
0.0
40
0.500000
50
0.000000
51
90.000000
0
LINE
8
perfiles
10
42.456003
20
38.677101
30
0.0
11
41.256003
21
38.677101
31
0.0
0
LINE
8
perfiles
10
41.256003
20
38.677101
30
0.0
11
41.256003
21
39.977101
31
0.0
0
LINE
8
perfiles
10
41.256003
20
39.977101
30
0.0
11
48.656003
21
39.977101
31
0.0
0
LINE
8
perfiles
10
48.656003
20
39.977101
30
0.0
11
48.656003
21
38.677101
31
0.0
0
LINE
8
perfiles
10
48.656003
20
38.677101
30
0.0
11
47.456003
21
38.677101
31
0.0
0
ARC
8
perfiles
10
47.456003
20
38.177101
30
0.0
40
0.500000
50
90.000000
51
180.000000
0
LINE
8
perfiles
10
46.956003
20
38.177101
30
0.0
11
46.956003
21
37.977101
31
0.0
0
ARC
8
perfiles
10
47.456003
20
37.977101
30
0.0
40
0.500000
50
180.000000
51
270.000000
0
LINE
8
perfiles
10
47.456003
20
37.477101
30
0.0
11
72.256003
21
37.477101
31
0.0
0
ARC
8
perfiles
10
72.256003
20
37.977101
30
0.0
40
0.500000
50
270.000000
51
0.000000
0
LINE
8
perfiles
10
72.756003
20
37.977101
30
0.0
11
72.756003
21
38.177101
31
0.0
0
ARC
8
perfiles
10
72.256003
20
38.177101
30
0.0
40
0.500000
50
0.000000
51
90.000000
0
LINE
8
perfiles
10
72.256003
20
38.677101
30
0.0
11
71.056003
21
38.677101
31
0.0
0
LINE
8
perfiles
10
71.056003
20
38.677101
30
0.0
11
71.056003
21
39.977101
31
0.0
0
LINE
8
perfiles
10
71.056003
20
39.977101
30
0.0
11
78.456003
21
39.977101
31
0.0
0
LINE
8
perfiles
10
78.456003
20
39.977101
30
0.0
11
78.456003
21
38.677101
31
0.0
0
LINE
8
perfiles
10
78.456003
20
38.677101
30
0.0
11
77.256003
21
38.677101
31
0.0
0
ARC
8
perfiles
10
77.256003
20
38.177101
30
0.0
40
0.500000
50
90.000000
51
180.000000
0
LINE
8
perfiles
10
76.756003
20
38.177101
30
0.0
11
76.756003
21
37.977101
31
0.0
0
ARC
8
perfiles
10
77.256003
20
37.977101
30
0.0
40
0.500000
50
180.000000
51
270.000000
0
LINE
8
perfiles
10
77.256003
20
37.477101
30
0.0
11
78.356003
21
37.477101
31
0.0
0
ARC
8
perfiles
10
78.356003
20
41.477101
30
0.0
40
4.000000
50
270.000000
51
0.000000
0
LINE
8
perfiles
10
82.356003
20
41.477101
30
0.0
11
82.356003
21
47.477101
31
0.0
0
LINE
8
perfiles
10
82.356003
20
47.477101
30
0.0
11
77.706003
21
47.477101
31
0.0
0
LINE
8
perfiles
10
77.706003
20
47.477101
30
0.0
11
77.706003
21
49.340349
31
0.0
0
LINE
8
perfiles
10
77.706003
20
49.340349
30
0.0
11
78.206003
21
49.629025
31
0.0
0
LINE
8
perfiles
10
78.206003
20
49.629025
30
0.0
11
77.304006
21
51.449121
31
0.0
0
ARC
8
perfiles
10
76.856003
20
51.227101
30
0.0
40
0.500000
50
26.361924
51
180.000000
0
LINE
8
perfiles
10
76.356003
20
51.227101
30
0.0
11
76.356003
21
46.677101
31
0.0
0
ARC
8
perfiles
10
76.856003
20
46.677101
30
0.0
40
0.500000
50
180.000000
51
270.000000
0
LINE
8
perfiles
10
76.856003
20
46.177101
30
0.0
11
81.056003
21
46.177101
31
0.0
0
LINE
8
perfiles
10
81.056003
20
46.177101
30
0.0
11
81.056003
21
41.477101
31
0.0
0
ARC
8
perfiles
10
78.356003
20
41.477101
30
0.0
40
2.700000
50
321.500050
51
0.000000
0
ARC
8
perfiles
10
80.156003
20
40.045319
30
0.0
40
0.400000
50
180.000000
51
321.500050
0
LINE
8
perfiles
10
79.756003
20
40.045319
30
0.0
11
79.756003
21
40.377101
31
0.0
0
ARC
8
perfiles
10
78.756003
20
40.377101
30
0.0
40
1.000000
50
0.000000
51
90.000000
0
LINE
8
perfiles
10
78.756003
20
41.377101
30
0.0
11
70.256003
21
41.377101
31
0.0
0
ARC
8
perfiles
10
70.256003
20
40.877101
30
0.0
40
0.500000
50
90.000000
51
180.000000
0
ATTDEF
8
0
10
0.000000
20
0.000000
30
0.0
40
3.5
1

3

2
PANE_WIDTH:0
70
0
0
ATTDEF
8
0
10
0.000000
20
0.000000
30
0.0
40
3.5
1

3

2
MIN_VETRO:0
70
0
0
ATTDEF
8
0
10
0.000000
20
0.000000
30
0.0
40
3.5
1

3

2
MAX_VETRO:0
70
0
0
ATTDEF
8
0
10
0.000000
20
0.000000
30
0.0
40
3.5
1

3

2
JX:0
70
0
0
ATTDEF
8
0
10
0.000000
20
0.000000
30
0.0
40
3.5
1

3

2
WX:0
70
0
0
ATTDEF
8
0
10
0.000000
20
0.000000
30
0.0
40
3.5
1

3

2
JY:0
70
0
0
ATTDEF
8
0
10
0.000000
20
0.000000
30
0.0
40
3.5
1

3

2
WY:0
70
0
0
ATTDEF
8
0
10
0.000000
20
0.000000
30
0.0
40
3.5
1

3

2
DESC:Complemento puerta v
70
0
0
ATTDEF
8
0
10
0.000000
20
0.000000
30
0.0
40
3.5
1

3

2
DENS:0.3483
70
0
0
ATTDEF
8
0
10
0.000000
20
0.000000
30
0.0
40
3.5
1

3

2
TDEV:18.65
70
0
0
ATTDEF
8
0
10
0.000000
20
0.000000
30
0.0
40
3.5
1

3

2
TDEV2:0
70
0
0
ATTDEF
8
0
10
0.000000
20
0.000000
30
0.0
40
3.5
1

3

2
TDEV3:0
70
0
0
ATTDEF
8
0
10
0.000000
20
0.000000
30
0.0
40
3.5
1

3

2
TDEV4:0
70
0
0
ATTDEF
8
0
10
0.000000
20
0.000000
30
0.0
40
3.5
1

3

2
TDEV5:0
70
0
0
ATTDEF
8
0
10
0.000000
20
0.000000
30
0.0
40
3.5
1

3

2
PANE_WIDTH:0
70
0
0
ATTDEF
8
0
10
0.000000
20
0.000000
30
0.0
40
3.5
1

3

2
MIN_VETRO:0
70
0
0
ATTDEF
8
0
10
0.000000
20
0.000000
30
0.0
40
3.5
1

3

2
MAX_VETRO:0
70
0
0
ATTDEF
8
0
10
0.000000
20
0.000000
30
0.0
40
3.5
1

3

2
JX:0
70
0
0
ATTDEF
8
0
10
0.000000
20
0.000000
30
0.0
40
3.5
1

3

2
WX:0
70
0
0
ATTDEF
8
0
10
0.000000
20
0.000000
30
0.0
40
3.5
1

3

2
JY:0
70
0
0
ATTDEF
8
0
10
0.000000
20
0.000000
30
0.0
40
3.5
1

3

2
WY:0
70
0
0
ENDSEC
0
EOF
