0
SECTION
2
ENTITIES
0
LINE
8
00_ALUMINIO
10
41.274002
20
18.254098
30
0.0
11
41.274002
21
12.954098
31
0.0
0
ARC
8
00_ALUMINIO
10
41.574002
20
12.954098
30
0.0
40
0.300000
50
180.000000
51
270.000000
0
LINE
8
00_ALUMINIO
10
41.574002
20
12.654098
30
0.0
11
46.524002
21
12.654098
31
0.0
0
ARC
8
00_ALUMINIO
10
46.524002
20
10.554098
30
0.0
40
2.100000
50
41.810315
51
90.000000
0
ARC
8
00_ALUMINIO
10
48.312856
20
12.154098
30
0.0
40
0.300000
50
221.810315
51
270.000000
0
LINE
8
00_ALUMINIO
10
48.312856
20
11.854098
30
0.0
11
55.835147
21
11.854098
31
0.0
0
ARC
8
00_ALUMINIO
10
55.835147
20
12.154098
30
0.0
40
0.300000
50
270.000000
51
318.189685
0
ARC
8
00_ALUMINIO
10
57.624002
20
10.554098
30
0.0
40
2.100000
50
90.000000
51
138.189685
0
LINE
8
00_ALUMINIO
10
57.624002
20
12.654098
30
0.0
11
62.574002
21
12.654098
31
0.0
0
ARC
8
00_ALUMINIO
10
62.574002
20
12.954098
30
0.0
40
0.300000
50
270.000000
51
0.000000
0
LINE
8
00_ALUMINIO
10
62.874002
20
12.954098
30
0.0
11
62.874002
21
18.254098
31
0.0
0
ARC
8
00_ALUMINIO
10
62.574002
20
18.254098
30
0.0
40
0.300000
50
0.000000
51
90.000000
0
LINE
8
00_ALUMINIO
10
62.574002
20
18.554098
30
0.0
11
52.374002
21
18.554098
31
0.0
0
LINE
8
00_ALUMINIO
10
52.374002
20
18.554098
30
0.0
11
52.074002
21
18.854098
31
0.0
0
LINE
8
00_ALUMINIO
10
52.074002
20
18.854098
30
0.0
11
51.774002
21
18.554098
31
0.0
0
LINE
8
00_ALUMINIO
10
51.774002
20
18.554098
30
0.0
11
41.574002
21
18.554098
31
0.0
0
ARC
8
00_ALUMINIO
10
41.574002
20
18.254098
30
0.0
40
0.300000
50
90.000000
51
180.000000
0
ARC
8
00_ALUMINIO
10
61.374002
20
35.054098
30
0.0
40
0.300000
50
90.000000
51
180.000000
0
LINE
8
00_ALUMINIO
10
61.074002
20
35.054098
30
0.0
11
61.074002
21
33.654098
31
0.0
0
ARC
8
00_ALUMINIO
10
61.374002
20
33.654098
30
0.0
40
0.300000
50
180.000000
51
270.000000
0
LINE
8
00_ALUMINIO
10
61.374002
20
33.354098
30
0.0
11
62.574002
21
33.354098
31
0.0
0
ARC
8
00_ALUMINIO
10
62.574002
20
33.054098
30
0.0
40
0.300000
50
0.000000
51
90.000000
0
LINE
8
00_ALUMINIO
10
62.874002
20
33.054098
30
0.0
11
62.874002
21
30.954098
31
0.0
0
ARC
8
00_ALUMINIO
10
62.574002
20
30.954098
30
0.0
40
0.300000
50
270.000000
51
0.000000
0
LINE
8
00_ALUMINIO
10
62.574002
20
30.654098
30
0.0
11
61.674002
21
30.654098
31
0.0
0
ARC
8
00_ALUMINIO
10
61.674002
20
30.354098
30
0.0
40
0.300000
50
90.000000
51
180.000000
0
LINE
8
00_ALUMINIO
10
61.374002
20
30.354098
30
0.0
11
61.374002
21
29.654098
31
0.0
0
ARC
8
00_ALUMINIO
10
61.674002
20
29.654098
30
0.0
40
0.300000
50
180.000000
51
270.000000
0
LINE
8
00_ALUMINIO
10
61.674002
20
29.354098
30
0.0
11
62.574002
21
29.354098
31
0.0
0
ARC
8
00_ALUMINIO
10
62.574002
20
29.054098
30
0.0
40
0.300000
50
0.000000
51
90.000000
0
LINE
8
00_ALUMINIO
10
62.874002
20
29.054098
30
0.0
11
62.874002
21
20.854098
31
0.0
0
ARC
8
00_ALUMINIO
10
62.374002
20
20.854098
30
0.0
40
0.500000
50
270.000000
51
0.000000
0
LINE
8
00_ALUMINIO
10
62.374002
20
20.354098
30
0.0
11
41.774002
21
20.354098
31
0.0
0
ARC
8
00_ALUMINIO
10
41.774002
20
20.854098
30
0.0
40
0.500000
50
180.000000
51
270.000000
0
LINE
8
00_ALUMINIO
10
41.274002
20
20.854098
30
0.0
11
41.274002
21
29.054098
31
0.0
0
ARC
8
00_ALUMINIO
10
41.574002
20
29.054098
30
0.0
40
0.300000
50
90.000000
51
180.000000
0
LINE
8
00_ALUMINIO
10
41.574002
20
29.354098
30
0.0
11
42.474002
21
29.354098
31
0.0
0
ARC
8
00_ALUMINIO
10
42.474002
20
29.654098
30
0.0
40
0.300000
50
270.000000
51
0.000000
0
LINE
8
00_ALUMINIO
10
42.774002
20
29.654098
30
0.0
11
42.774002
21
30.354098
31
0.0
0
ARC
8
00_ALUMINIO
10
42.474002
20
30.354098
30
0.0
40
0.300000
50
0.000000
51
90.000000
0
LINE
8
00_ALUMINIO
10
42.474002
20
30.654098
30
0.0
11
41.574002
21
30.654098
31
0.0
0
ARC
8
00_ALUMINIO
10
41.574002
20
30.954098
30
0.0
40
0.300000
50
180.000000
51
270.000000
0
LINE
8
00_ALUMINIO
10
41.274002
20
30.954098
30
0.0
11
41.274002
21
33.054098
31
0.0
0
ARC
8
00_ALUMINIO
10
41.574002
20
33.054098
30
0.0
40
0.300000
50
90.000000
51
180.000000
0
LINE
8
00_ALUMINIO
10
41.574002
20
33.354098
30
0.0
11
42.774002
21
33.354098
31
0.0
0
ARC
8
00_ALUMINIO
10
42.774002
20
33.654098
30
0.0
40
0.300000
50
270.000000
51
0.000000
0
LINE
8
00_ALUMINIO
10
43.074002
20
33.654098
30
0.0
11
43.074002
21
35.054098
31
0.0
0
ARC
8
00_ALUMINIO
10
42.774002
20
35.054098
30
0.0
40
0.300000
50
0.000000
51
90.000000
0
LINE
8
00_ALUMINIO
10
42.774002
20
35.354098
30
0.0
11
39.974002
21
35.354098
31
0.0
0
ARC
8
00_ALUMINIO
10
39.974002
20
34.854098
30
0.0
40
0.500000
50
90.000000
51
180.000000
0
LINE
8
00_ALUMINIO
10
39.474002
20
34.854098
30
0.0
11
39.474002
21
7.354098
31
0.0
0
ARC
8
00_ALUMINIO
10
39.974002
20
7.354098
30
0.0
40
0.500000
50
180.000000
51
270.000000
0
LINE
8
00_ALUMINIO
10
39.974002
20
6.854098
30
0.0
11
42.024002
21
6.854098
31
0.0
0
ARC
8
00_ALUMINIO
10
42.024002
20
7.154098
30
0.0
40
0.300000
50
270.000000
51
0.000000
0
LINE
8
00_ALUMINIO
10
42.324002
20
7.154098
30
0.0
11
42.324002
21
7.554098
31
0.0
0
ARC
8
00_ALUMINIO
10
42.024002
20
7.554098
30
0.0
40
0.300000
50
0.000000
51
90.000000
0
LINE
8
00_ALUMINIO
10
42.024002
20
7.854098
30
0.0
11
41.374002
21
7.854098
31
0.0
0
ARC
8
00_ALUMINIO
10
41.374002
20
8.154098
30
0.0
40
0.300000
50
180.000000
51
270.000000
0
LINE
8
00_ALUMINIO
10
41.074002
20
8.154098
30
0.0
11
41.074002
21
10.554098
31
0.0
0
ARC
8
00_ALUMINIO
10
41.374002
20
10.554098
30
0.0
40
0.300000
50
90.000000
51
180.000000
0
LINE
8
00_ALUMINIO
10
41.374002
20
10.854098
30
0.0
11
46.524002
21
10.854098
31
0.0
0
ARC
8
00_ALUMINIO
10
46.524002
20
10.554098
30
0.0
40
0.300000
50
0.000000
51
90.000000
0
LINE
8
00_ALUMINIO
10
46.824002
20
10.554098
30
0.0
11
46.824002
21
8.154098
31
0.0
0
ARC
8
00_ALUMINIO
10
46.524002
20
8.154098
30
0.0
40
0.300000
50
270.000000
51
0.000000
0
LINE
8
00_ALUMINIO
10
46.524002
20
7.854098
30
0.0
11
46.124002
21
7.854098
31
0.0
0
ARC
8
00_ALUMINIO
10
46.124002
20
7.554098
30
0.0
40
0.300000
50
90.000000
51
180.000000
0
LINE
8
00_ALUMINIO
10
45.824002
20
7.554098
30
0.0
11
45.824002
21
7.154098
31
0.0
0
ARC
8
00_ALUMINIO
10
46.124002
20
7.154098
30
0.0
40
0.300000
50
180.000000
51
270.000000
0
LINE
8
00_ALUMINIO
10
46.124002
20
6.854098
30
0.0
11
47.109790
21
6.854098
31
0.0
0
LINE
8
00_ALUMINIO
10
47.109790
20
6.854098
30
0.0
11
48.753815
21
8.813371
31
0.0
0
ARC
8
00_ALUMINIO
10
48.524002
20
9.006207
30
0.0
40
0.300000
50
320.000000
51
0.000000
0
LINE
8
00_ALUMINIO
10
48.824002
20
9.006207
30
0.0
11
48.824002
21
9.554098
31
0.0
0
ARC
8
00_ALUMINIO
10
49.124002
20
9.554098
30
0.0
40
0.300000
50
90.000000
51
180.000000
0
LINE
8
00_ALUMINIO
10
49.124002
20
9.854098
30
0.0
11
51.774002
21
9.854098
31
0.0
0
LINE
8
00_ALUMINIO
10
51.774002
20
9.854098
30
0.0
11
52.074002
21
10.154098
31
0.0
0
LINE
8
00_ALUMINIO
10
52.074002
20
10.154098
30
0.0
11
52.374002
21
9.854098
31
0.0
0
LINE
8
00_ALUMINIO
10
52.374002
20
9.854098
30
0.0
11
55.024002
21
9.854098
31
0.0
0
ARC
8
00_ALUMINIO
10
55.024002
20
9.554098
30
0.0
40
0.300000
50
0.000000
51
90.000000
0
LINE
8
00_ALUMINIO
10
55.324002
20
9.554098
30
0.0
11
55.324002
21
9.006207
31
0.0
0
ARC
8
00_ALUMINIO
10
55.624002
20
9.006207
30
0.0
40
0.300000
50
180.000000
51
220.000000
0
LINE
8
00_ALUMINIO
10
55.394188
20
8.813371
30
0.0
11
57.038213
21
6.854098
31
0.0
0
LINE
8
00_ALUMINIO
10
57.038213
20
6.854098
30
0.0
11
58.024002
21
6.854098
31
0.0
0
ARC
8
00_ALUMINIO
10
58.024002
20
7.154098
30
0.0
40
0.300000
50
270.000000
51
0.000000
0
LINE
8
00_ALUMINIO
10
58.324002
20
7.154098
30
0.0
11
58.324002
21
7.554098
31
0.0
0
ARC
8
00_ALUMINIO
10
58.024002
20
7.554098
30
0.0
40
0.300000
50
0.000000
51
90.000000
0
LINE
8
00_ALUMINIO
10
58.024002
20
7.854098
30
0.0
11
57.624002
21
7.854098
31
0.0
0
ARC
8
00_ALUMINIO
10
57.624002
20
8.154098
30
0.0
40
0.300000
50
180.000000
51
270.000000
0
LINE
8
00_ALUMINIO
10
57.324002
20
8.154098
30
0.0
11
57.324002
21
10.554098
31
0.0
0
ARC
8
00_ALUMINIO
10
57.624002
20
10.554098
30
0.0
40
0.300000
50
90.000000
51
180.000000
0
LINE
8
00_ALUMINIO
10
57.624002
20
10.854098
30
0.0
11
62.774002
21
10.854098
31
0.0
0
ARC
8
00_ALUMINIO
10
62.774002
20
10.554098
30
0.0
40
0.300000
50
0.000000
51
90.000000
0
LINE
8
00_ALUMINIO
10
63.074002
20
10.554098
30
0.0
11
63.074002
21
8.154098
31
0.0
0
ARC
8
00_ALUMINIO
10
62.774002
20
8.154098
30
0.0
40
0.300000
50
270.000000
51
0.000000
0
LINE
8
00_ALUMINIO
10
62.774002
20
7.854098
30
0.0
11
62.124002
21
7.854098
31
0.0
0
ARC
8
00_ALUMINIO
10
62.124002
20
7.554098
30
0.0
40
0.300000
50
90.000000
51
180.000000
0
LINE
8
00_ALUMINIO
10
61.824002
20
7.554098
30
0.0
11
61.824002
21
7.154098
31
0.0
0
ARC
8
00_ALUMINIO
10
62.124002
20
7.154098
30
0.0
40
0.300000
50
180.000000
51
270.000000
0
LINE
8
00_ALUMINIO
10
62.124002
20
6.854098
30
0.0
11
64.174002
21
6.854098
31
0.0
0
ARC
8
00_ALUMINIO
10
64.174002
20
7.354098
30
0.0
40
0.500000
50
270.000000
51
0.000000
0
LINE
8
00_ALUMINIO
10
64.674002
20
7.354098
30
0.0
11
64.674002
21
34.854098
31
0.0
0
ARC
8
00_ALUMINIO
10
64.174002
20
34.854098
30
0.0
40
0.500000
50
0.000000
51
90.000000
0
LINE
8
00_ALUMINIO
10
64.174002
20
35.354098
30
0.0
11
61.374002
21
35.354098
31
0.0
0
ATTDEF
8
0
10
0.000000
20
0.000000
30
0.0
40
3.5
1

3

2
PANE_WIDTH:0
70
0
0
ATTDEF
8
0
10
0.000000
20
0.000000
30
0.0
40
3.5
1

3

2
MIN_VETRO:0
70
0
0
ATTDEF
8
0
10
0.000000
20
0.000000
30
0.0
40
3.5
1

3

2
MAX_VETRO:0
70
0
0
ATTDEF
8
0
10
0.000000
20
0.000000
30
0.0
40
3.5
1

3

2
JX:0
70
0
0
ATTDEF
8
0
10
0.000000
20
0.000000
30
0.0
40
3.5
1

3

2
WX:0
70
0
0
ATTDEF
8
0
10
0.000000
20
0.000000
30
0.0
40
3.5
1

3

2
JY:0
70
0
0
ATTDEF
8
0
10
0.000000
20
0.000000
30
0.0
40
3.5
1

3

2
WY:0
70
0
0
ATTDEF
8
0
10
0.000000
20
0.000000
30
0.0
40
3.5
1

3

2
DESC:Hoja lateral
70
0
0
ATTDEF
8
0
10
0.000000
20
0.000000
30
0.0
40
3.5
1

3

2
DENS:0.5562
70
0
0
ATTDEF
8
0
10
0.000000
20
0.000000
30
0.0
40
3.5
1

3

2
TDEV:22.95
70
0
0
ATTDEF
8
0
10
0.000000
20
0.000000
30
0.0
40
3.5
1

3

2
TDEV2:0
70
0
0
ATTDEF
8
0
10
0.000000
20
0.000000
30
0.0
40
3.5
1

3

2
TDEV3:0
70
0
0
ATTDEF
8
0
10
0.000000
20
0.000000
30
0.0
40
3.5
1

3

2
TDEV4:0
70
0
0
ATTDEF
8
0
10
0.000000
20
0.000000
30
0.0
40
3.5
1

3

2
TDEV5:0
70
0
0
ATTDEF
8
0
10
0.000000
20
0.000000
30
0.0
40
3.5
1

3

2
PANE_WIDTH:0
70
0
0
ATTDEF
8
0
10
0.000000
20
0.000000
30
0.0
40
3.5
1

3

2
MIN_VETRO:0
70
0
0
ATTDEF
8
0
10
0.000000
20
0.000000
30
0.0
40
3.5
1

3

2
MAX_VETRO:0
70
0
0
ATTDEF
8
0
10
0.000000
20
0.000000
30
0.0
40
3.5
1

3

2
JX:0
70
0
0
ATTDEF
8
0
10
0.000000
20
0.000000
30
0.0
40
3.5
1

3

2
WX:0
70
0
0
ATTDEF
8
0
10
0.000000
20
0.000000
30
0.0
40
3.5
1

3

2
JY:0
70
0
0
ATTDEF
8
0
10
0.000000
20
0.000000
30
0.0
40
3.5
1

3

2
WY:0
70
0
0
ENDSEC
0
EOF
