0
SECTION
2
ENTITIES
0
ARC
8
00_ALUMINIO
10
18.131900
20
30.136632
30
0.0
40
1.000000
50
90.000000
51
180.000000
0
LINE
8
00_ALUMINIO
10
18.131900
20
31.136632
30
0.0
11
44.931900
21
31.136632
31
0.0
0
ARC
8
00_ALUMINIO
10
44.931900
20
30.636632
30
0.0
40
0.500000
50
0.000000
51
90.000000
0
LINE
8
00_ALUMINIO
10
45.431900
20
30.636632
30
0.0
11
45.431900
21
29.136632
31
0.0
0
LINE
8
00_ALUMINIO
10
45.431900
20
29.136632
30
0.0
11
45.200706
21
29.136632
31
0.0
0
ARC
8
00_ALUMINIO
10
45.200706
20
28.936632
30
0.0
40
0.200000
50
90.000000
51
196.699244
0
LINE
8
00_ALUMINIO
10
45.009141
20
28.879162
30
0.0
11
45.331900
21
27.803299
31
0.0
0
LINE
8
00_ALUMINIO
10
45.331900
20
27.803299
30
0.0
11
45.331900
21
27.136632
31
0.0
0
LINE
8
00_ALUMINIO
10
45.331900
20
27.136632
30
0.0
11
45.200706
21
27.136632
31
0.0
0
ARC
8
00_ALUMINIO
10
45.200706
20
26.936632
30
0.0
40
0.200000
50
90.000000
51
196.699244
0
LINE
8
00_ALUMINIO
10
45.009141
20
26.879162
30
0.0
11
45.310813
21
25.873588
31
0.0
0
ARC
8
00_ALUMINIO
10
44.831900
20
25.729914
30
0.0
40
0.500000
50
0.000000
51
16.699244
0
LINE
8
00_ALUMINIO
10
45.331900
20
25.729914
30
0.0
11
45.331900
21
16.636632
31
0.0
0
ARC
8
00_ALUMINIO
10
46.331900
20
16.636632
30
0.0
40
1.000000
50
180.000000
51
270.000000
0
LINE
8
00_ALUMINIO
10
46.331900
20
15.636632
30
0.0
11
50.631900
21
15.636632
31
0.0
0
ARC
8
00_ALUMINIO
10
50.631900
20
15.336632
30
0.0
40
0.300000
50
0.000000
51
90.000000
0
LINE
8
00_ALUMINIO
10
50.931900
20
15.336632
30
0.0
11
50.931900
21
14.436632
31
0.0
0
ARC
8
00_ALUMINIO
10
51.931900
20
14.436632
30
0.0
40
1.000000
50
180.000000
51
270.000000
0
LINE
8
00_ALUMINIO
10
51.931900
20
13.436632
30
0.0
11
71.931900
21
13.436632
31
0.0
0
ARC
8
00_ALUMINIO
10
71.931900
20
14.436632
30
0.0
40
1.000000
50
270.000000
51
0.000000
0
LINE
8
00_ALUMINIO
10
72.931900
20
14.436632
30
0.0
11
72.931900
21
15.336632
31
0.0
0
ARC
8
00_ALUMINIO
10
73.231900
20
15.336632
30
0.0
40
0.300000
50
90.000000
51
180.000000
0
LINE
8
00_ALUMINIO
10
73.231900
20
15.636632
30
0.0
11
77.531900
21
15.636632
31
0.0
0
ARC
8
00_ALUMINIO
10
77.531900
20
16.636632
30
0.0
40
1.000000
50
270.000000
51
0.000000
0
LINE
8
00_ALUMINIO
10
78.531900
20
16.636632
30
0.0
11
78.531900
21
17.136632
31
0.0
0
ARC
8
00_ALUMINIO
10
79.031900
20
17.136632
30
0.0
40
0.500000
50
90.000000
51
180.000000
0
LINE
8
00_ALUMINIO
10
79.031900
20
17.636632
30
0.0
11
83.231900
21
17.636632
31
0.0
0
ARC
8
00_ALUMINIO
10
83.231900
20
17.336632
30
0.0
40
0.300000
50
0.000000
51
90.000000
0
LINE
8
00_ALUMINIO
10
83.531900
20
17.336632
30
0.0
11
83.531900
21
16.436632
31
0.0
0
ARC
8
00_ALUMINIO
10
83.231900
20
16.436632
30
0.0
40
0.300000
50
270.000000
51
0.000000
0
LINE
8
00_ALUMINIO
10
83.231900
20
16.136632
30
0.0
11
81.331900
21
16.136632
31
0.0
0
ARC
8
00_ALUMINIO
10
81.331900
20
15.836632
30
0.0
40
0.300000
50
90.000000
51
180.000000
0
LINE
8
00_ALUMINIO
10
81.031900
20
15.836632
30
0.0
11
81.031900
21
13.436632
31
0.0
0
ARC
8
00_ALUMINIO
10
81.331900
20
13.436632
30
0.0
40
0.300000
50
180.000000
51
270.000000
0
LINE
8
00_ALUMINIO
10
81.331900
20
13.136632
30
0.0
11
100.731900
21
13.136632
31
0.0
0
ARC
8
00_ALUMINIO
10
100.731900
20
13.436632
30
0.0
40
0.300000
50
270.000000
51
0.000000
0
LINE
8
00_ALUMINIO
10
101.031900
20
13.436632
30
0.0
11
101.031900
21
15.836632
31
0.0
0
ARC
8
00_ALUMINIO
10
100.731900
20
15.836632
30
0.0
40
0.300000
50
0.000000
51
90.000000
0
LINE
8
00_ALUMINIO
10
100.731900
20
16.136632
30
0.0
11
98.831900
21
16.136632
31
0.0
0
ARC
8
00_ALUMINIO
10
98.831900
20
16.436632
30
0.0
40
0.300000
50
180.000000
51
270.000000
0
LINE
8
00_ALUMINIO
10
98.531900
20
16.436632
30
0.0
11
98.531900
21
17.336632
31
0.0
0
ARC
8
00_ALUMINIO
10
98.831900
20
17.336632
30
0.0
40
0.300000
50
90.000000
51
180.000000
0
LINE
8
00_ALUMINIO
10
98.831900
20
17.636632
30
0.0
11
102.331900
21
17.636632
31
0.0
0
ARC
8
00_ALUMINIO
10
102.331900
20
18.136632
30
0.0
40
0.500000
50
270.000000
51
0.000000
0
LINE
8
00_ALUMINIO
10
102.831900
20
18.136632
30
0.0
11
102.831900
21
20.136632
31
0.0
0
ARC
8
00_ALUMINIO
10
103.831900
20
20.136632
30
0.0
40
1.000000
50
90.000000
51
180.000000
0
LINE
8
00_ALUMINIO
10
103.831900
20
21.136632
30
0.0
11
106.231900
21
21.136632
31
0.0
0
ARC
8
00_ALUMINIO
10
106.231900
20
20.636632
30
0.0
40
0.500000
50
0.000000
51
90.000000
0
LINE
8
00_ALUMINIO
10
106.731900
20
20.636632
30
0.0
11
106.731900
21
18.636632
31
0.0
0
ARC
8
00_ALUMINIO
10
106.181900
20
18.636632
30
0.0
40
0.550000
50
180.000000
51
0.000000
0
LINE
8
00_ALUMINIO
10
105.631900
20
18.636632
30
0.0
11
105.631900
21
19.636632
31
0.0
0
ARC
8
00_ALUMINIO
10
105.331900
20
19.636632
30
0.0
40
0.300000
50
0.000000
51
90.000000
0
LINE
8
00_ALUMINIO
10
105.331900
20
19.936632
30
0.0
11
104.731900
21
19.936632
31
0.0
0
ARC
8
00_ALUMINIO
10
104.731900
20
19.636632
30
0.0
40
0.300000
50
90.000000
51
180.000000
0
LINE
8
00_ALUMINIO
10
104.431900
20
19.636632
30
0.0
11
104.431900
21
12.636632
31
0.0
0
ARC
8
00_ALUMINIO
10
104.731900
20
12.636632
30
0.0
40
0.300000
50
180.000000
51
270.000000
0
LINE
8
00_ALUMINIO
10
104.731900
20
12.336632
30
0.0
11
105.331900
21
12.336632
31
0.0
0
ARC
8
00_ALUMINIO
10
105.331900
20
12.636632
30
0.0
40
0.300000
50
270.000000
51
0.000000
0
LINE
8
00_ALUMINIO
10
105.631900
20
12.636632
30
0.0
11
105.631900
21
13.636632
31
0.0
0
ARC
8
00_ALUMINIO
10
106.181900
20
13.636632
30
0.0
40
0.550000
50
0.000000
51
180.000000
0
LINE
8
00_ALUMINIO
10
106.731900
20
13.636632
30
0.0
11
106.731900
21
11.636632
31
0.0
0
ARC
8
00_ALUMINIO
10
106.231900
20
11.636632
30
0.0
40
0.500000
50
270.000000
51
0.000000
0
LINE
8
00_ALUMINIO
10
106.231900
20
11.136632
30
0.0
11
18.131900
21
11.136632
31
0.0
0
ARC
8
00_ALUMINIO
10
18.131900
20
12.136632
30
0.0
40
1.000000
50
180.000000
51
270.000000
0
LINE
8
00_ALUMINIO
10
17.131900
20
12.136632
30
0.0
11
17.131900
21
30.136632
31
0.0
0
ARC
8
00_ALUMINIO
10
22.631900
20
28.436632
30
0.0
40
0.500000
50
90.000000
51
180.000000
0
LINE
8
00_ALUMINIO
10
22.131900
20
28.436632
30
0.0
11
22.131900
21
13.836632
31
0.0
0
ARC
8
00_ALUMINIO
10
22.631900
20
13.836632
30
0.0
40
0.500000
50
180.000000
51
270.000000
0
LINE
8
00_ALUMINIO
10
22.631900
20
13.336632
30
0.0
11
26.931900
21
13.336632
31
0.0
0
ARC
8
00_ALUMINIO
10
26.931900
20
13.836632
30
0.0
40
0.500000
50
270.000000
51
0.000000
0
LINE
8
00_ALUMINIO
10
27.431900
20
13.836632
30
0.0
11
27.431900
21
14.709973
31
0.0
0
ARC
8
00_ALUMINIO
10
26.931900
20
14.709973
30
0.0
40
0.500000
50
0.000000
51
62.046813
0
ARC
8
00_ALUMINIO
10
28.431900
20
17.536632
30
0.0
40
2.700000
50
147.202832
51
242.046813
0
ARC
8
00_ALUMINIO
10
26.414476
20
18.836632
30
0.0
40
0.300000
50
90.000000
51
147.202832
0
LINE
8
00_ALUMINIO
10
26.414476
20
19.136632
30
0.0
11
27.336455
21
19.136632
31
0.0
0
ARC
8
00_ALUMINIO
10
27.336455
20
18.836632
30
0.0
40
0.300000
50
310.119167
51
90.000000
0
ARC
8
00_ALUMINIO
10
28.431900
20
17.536632
30
0.0
40
1.400000
50
130.119167
51
159.426879
0
LINE
8
00_ALUMINIO
10
27.121186
20
18.028595
30
0.0
11
26.909411
21
18.028595
31
0.0
0
ARC
8
00_ALUMINIO
10
28.431900
20
17.536632
30
0.0
40
1.600000
50
162.092741
51
197.907259
0
LINE
8
00_ALUMINIO
10
26.909411
20
17.044669
30
0.0
11
27.121186
21
17.044669
31
0.0
0
ARC
8
00_ALUMINIO
10
28.431900
20
17.536632
30
0.0
40
1.400000
50
200.573121
51
249.426879
0
LINE
8
00_ALUMINIO
10
27.939936
20
16.225918
30
0.0
11
27.939936
21
16.014143
31
0.0
0
ARC
8
00_ALUMINIO
10
28.431900
20
17.536632
30
0.0
40
1.600000
50
252.092741
51
287.907259
0
LINE
8
00_ALUMINIO
10
28.923863
20
16.014143
30
0.0
11
28.923863
21
16.225918
31
0.0
0
ARC
8
00_ALUMINIO
10
28.431900
20
17.536632
30
0.0
40
1.400000
50
290.573121
51
339.426879
0
LINE
8
00_ALUMINIO
10
29.742614
20
17.044669
30
0.0
11
29.954389
21
17.044669
31
0.0
0
ARC
8
00_ALUMINIO
10
28.431900
20
17.536632
30
0.0
40
1.600000
50
342.092741
51
17.907259
0
LINE
8
00_ALUMINIO
10
29.954389
20
18.028595
30
0.0
11
29.742614
21
18.028595
31
0.0
0
ARC
8
00_ALUMINIO
10
28.431900
20
17.536632
30
0.0
40
1.400000
50
20.573121
51
49.880833
0
ARC
8
00_ALUMINIO
10
29.527345
20
18.836632
30
0.0
40
0.300000
50
90.000000
51
229.880833
0
LINE
8
00_ALUMINIO
10
29.527345
20
19.136632
30
0.0
11
30.449324
21
19.136632
31
0.0
0
ARC
8
00_ALUMINIO
10
30.449324
20
18.836632
30
0.0
40
0.300000
50
32.797168
51
90.000000
0
ARC
8
00_ALUMINIO
10
28.431900
20
17.536632
30
0.0
40
2.700000
50
297.953187
51
32.797168
0
ARC
8
00_ALUMINIO
10
29.931900
20
14.709973
30
0.0
40
0.500000
50
117.953187
51
180.000000
0
LINE
8
00_ALUMINIO
10
29.431900
20
14.709973
30
0.0
11
29.431900
21
13.836632
31
0.0
0
ARC
8
00_ALUMINIO
10
29.931900
20
13.836632
30
0.0
40
0.500000
50
180.000000
51
270.000000
0
LINE
8
00_ALUMINIO
10
29.931900
20
13.336632
30
0.0
11
42.231900
21
13.336632
31
0.0
0
ARC
8
00_ALUMINIO
10
42.231900
20
13.836632
30
0.0
40
0.500000
50
270.000000
51
0.000000
0
LINE
8
00_ALUMINIO
10
42.731900
20
13.836632
30
0.0
11
42.731900
21
28.436632
31
0.0
0
ARC
8
00_ALUMINIO
10
42.231900
20
28.436632
30
0.0
40
0.500000
50
0.000000
51
90.000000
0
LINE
8
00_ALUMINIO
10
42.231900
20
28.936632
30
0.0
11
35.931900
21
28.936632
31
0.0
0
ARC
8
00_ALUMINIO
10
35.931900
20
28.436632
30
0.0
40
0.500000
50
90.000000
51
180.000000
0
LINE
8
00_ALUMINIO
10
35.431900
20
28.436632
30
0.0
11
35.431900
21
27.563291
31
0.0
0
ARC
8
00_ALUMINIO
10
35.931900
20
27.563291
30
0.0
40
0.500000
50
180.000000
51
242.046813
0
ARC
8
00_ALUMINIO
10
34.431900
20
24.736632
30
0.0
40
2.700000
50
327.202832
51
62.046813
0
ARC
8
00_ALUMINIO
10
36.449324
20
23.436632
30
0.0
40
0.300000
50
270.000000
51
327.202832
0
LINE
8
00_ALUMINIO
10
36.449324
20
23.136632
30
0.0
11
35.527345
21
23.136632
31
0.0
0
ARC
8
00_ALUMINIO
10
35.527345
20
23.436632
30
0.0
40
0.300000
50
130.119167
51
270.000000
0
ARC
8
00_ALUMINIO
10
34.431900
20
24.736632
30
0.0
40
1.400000
50
310.119167
51
339.426879
0
LINE
8
00_ALUMINIO
10
35.742614
20
24.244669
30
0.0
11
35.954389
21
24.244669
31
0.0
0
ARC
8
00_ALUMINIO
10
34.431900
20
24.736632
30
0.0
40
1.600000
50
342.092741
51
17.907259
0
LINE
8
00_ALUMINIO
10
35.954389
20
25.228595
30
0.0
11
35.742614
21
25.228595
31
0.0
0
ARC
8
00_ALUMINIO
10
34.431900
20
24.736632
30
0.0
40
1.400000
50
20.573121
51
69.426879
0
LINE
8
00_ALUMINIO
10
34.923863
20
26.047346
30
0.0
11
34.923863
21
26.259121
31
0.0
0
ARC
8
00_ALUMINIO
10
34.431900
20
24.736632
30
0.0
40
1.600000
50
72.092741
51
107.907259
0
LINE
8
00_ALUMINIO
10
33.939936
20
26.259121
30
0.0
11
33.939936
21
26.047346
31
0.0
0
ARC
8
00_ALUMINIO
10
34.431900
20
24.736632
30
0.0
40
1.400000
50
110.573121
51
159.426879
0
LINE
8
00_ALUMINIO
10
33.121186
20
25.228595
30
0.0
11
32.909411
21
25.228595
31
0.0
0
ARC
8
00_ALUMINIO
10
34.431900
20
24.736632
30
0.0
40
1.600000
50
162.092741
51
197.907259
0
LINE
8
00_ALUMINIO
10
32.909411
20
24.244669
30
0.0
11
33.121186
21
24.244669
31
0.0
0
ARC
8
00_ALUMINIO
10
34.431900
20
24.736632
30
0.0
40
1.400000
50
200.573121
51
229.880833
0
ARC
8
00_ALUMINIO
10
33.336455
20
23.436632
30
0.0
40
0.300000
50
270.000000
51
49.880833
0
LINE
8
00_ALUMINIO
10
33.336455
20
23.136632
30
0.0
11
32.414476
21
23.136632
31
0.0
0
ARC
8
00_ALUMINIO
10
32.414476
20
23.436632
30
0.0
40
0.300000
50
212.797168
51
270.000000
0
ARC
8
00_ALUMINIO
10
34.431900
20
24.736632
30
0.0
40
2.700000
50
117.953187
51
212.797168
0
ARC
8
00_ALUMINIO
10
32.931900
20
27.563291
30
0.0
40
0.500000
50
297.953187
51
0.000000
0
LINE
8
00_ALUMINIO
10
33.431900
20
27.563291
30
0.0
11
33.431900
21
28.436632
31
0.0
0
ARC
8
00_ALUMINIO
10
32.931900
20
28.436632
30
0.0
40
0.500000
50
0.000000
51
90.000000
0
LINE
8
00_ALUMINIO
10
32.931900
20
28.936632
30
0.0
11
22.631900
21
28.936632
31
0.0
0
ATTDEF
8
0
10
0.000000
20
0.000000
30
0.0
40
3.5
1

3

2
PANE_WIDTH:0
70
0
0
ATTDEF
8
0
10
0.000000
20
0.000000
30
0.0
40
3.5
1

3

2
MIN_VETRO:0
70
0
0
ATTDEF
8
0
10
0.000000
20
0.000000
30
0.0
40
3.5
1

3

2
MAX_VETRO:0
70
0
0
ATTDEF
8
0
10
0.000000
20
0.000000
30
0.0
40
3.5
1

3

2
JX:0
70
0
0
ATTDEF
8
0
10
0.000000
20
0.000000
30
0.0
40
3.5
1

3

2
WX:0
70
0
0
ATTDEF
8
0
10
0.000000
20
0.000000
30
0.0
40
3.5
1

3

2
JY:0
70
0
0
ATTDEF
8
0
10
0.000000
20
0.000000
30
0.0
40
3.5
1

3

2
WY:0
70
0
0
ATTDEF
8
0
10
0.000000
20
0.000000
30
0.0
40
3.5
1

3

2
DESC:Hoja central con refuerzo
70
0
0
ATTDEF
8
0
10
0.000000
20
0.000000
30
0.0
40
3.5
1

3

2
DENS:1.2852
70
0
0
ATTDEF
8
0
10
0.000000
20
0.000000
30
0.0
40
3.5
1

3

2
TDEV:37.58
70
0
0
ATTDEF
8
0
10
0.000000
20
0.000000
30
0.0
40
3.5
1

3

2
TDEV2:0
70
0
0
ATTDEF
8
0
10
0.000000
20
0.000000
30
0.0
40
3.5
1

3

2
TDEV3:0
70
0
0
ATTDEF
8
0
10
0.000000
20
0.000000
30
0.0
40
3.5
1

3

2
TDEV4:0
70
0
0
ATTDEF
8
0
10
0.000000
20
0.000000
30
0.0
40
3.5
1

3

2
TDEV5:0
70
0
0
ATTDEF
8
0
10
0.000000
20
0.000000
30
0.0
40
3.5
1

3

2
PANE_WIDTH:0
70
0
0
ATTDEF
8
0
10
0.000000
20
0.000000
30
0.0
40
3.5
1

3

2
MIN_VETRO:0
70
0
0
ATTDEF
8
0
10
0.000000
20
0.000000
30
0.0
40
3.5
1

3

2
MAX_VETRO:0
70
0
0
ATTDEF
8
0
10
0.000000
20
0.000000
30
0.0
40
3.5
1

3

2
JX:0
70
0
0
ATTDEF
8
0
10
0.000000
20
0.000000
30
0.0
40
3.5
1

3

2
WX:0
70
0
0
ATTDEF
8
0
10
0.000000
20
0.000000
30
0.0
40
3.5
1

3

2
JY:0
70
0
0
ATTDEF
8
0
10
0.000000
20
0.000000
30
0.0
40
3.5
1

3

2
WY:0
70
0
0
ENDSEC
0
EOF
