0
SECTION
2
ENTITIES
0
LINE
8
0
10
3060.951431
20
1249.184759
30
0.0
11
3062.094407
21
1250.327734
31
0.0
0
LINE
8
0
10
3060.754239
20
1246.742503
30
0.0
11
3063.618153
21
1249.606416
31
0.0
0
LINE
8
0
10
3064.114497
20
1250.102761
30
0.0
11
3066.367157
21
1252.355421
31
0.0
0
LINE
8
0
10
3063.962221
20
1247.705421
30
0.0
11
3066.347232
21
1250.090431
31
0.0
0
LINE
8
0
10
3066.682421
20
1250.425620
30
0.0
11
3068.612221
21
1252.355421
31
0.0
0
LINE
8
0
10
3068.957285
20
1250.455421
30
0.0
11
3070.857285
21
1252.355421
31
0.0
0
LINE
8
0
10
3071.202349
20
1250.455421
30
0.0
11
3073.102349
21
1252.355421
31
0.0
0
LINE
8
0
10
3073.447413
20
1250.455421
30
0.0
11
3075.347413
21
1252.355421
31
0.0
0
LINE
8
0
10
3075.692477
20
1250.455421
30
0.0
11
3077.592441
21
1252.355385
31
0.0
0
LINE
8
0
10
3077.243874
20
1249.761754
30
0.0
11
3078.622717
21
1251.140596
31
0.0
0
LINE
8
0
10
3078.107249
20
1248.380065
30
0.0
11
3079.486092
21
1249.758907
31
0.0
0
LINE
8
0
10
3079.677669
20
1247.705421
30
0.0
11
3082.592573
21
1250.620324
31
0.0
0
LINE
8
0
10
3081.233691
20
1247.016378
30
0.0
11
3082.347733
21
1248.130421
31
0.0
0
LINE
8
0
10
3061.587456
20
1246.690419
30
0.0
11
3060.722454
21
1247.555421
31
0.0
0
LINE
8
0
10
3063.010769
20
1247.512169
30
0.0
11
3062.022501
21
1248.500437
31
0.0
0
LINE
8
0
10
3060.767518
20
1249.755421
30
0.0
11
3060.692863
21
1249.830075
31
0.0
0
LINE
8
0
10
3061.287880
20
1249.235059
30
0.0
11
3060.792863
21
1249.730075
31
0.0
0
LINE
8
0
10
3064.935659
20
1247.832344
30
0.0
11
3062.912723
21
1249.855279
31
0.0
0
LINE
8
0
10
3065.799380
20
1249.213686
30
0.0
11
3064.420538
21
1250.592528
31
0.0
0
LINE
8
0
10
3066.804970
20
1250.453160
30
0.0
11
3065.283913
21
1251.974217
31
0.0
0
LINE
8
0
10
3069.047774
20
1250.455421
30
0.0
11
3067.147774
21
1252.355421
31
0.0
0
LINE
8
0
10
3071.292838
20
1250.455421
30
0.0
11
3069.392838
21
1252.355421
31
0.0
0
LINE
8
0
10
3073.537902
20
1250.455421
30
0.0
11
3071.637902
21
1252.355421
31
0.0
0
LINE
8
0
10
3075.782966
20
1250.455421
30
0.0
11
3073.882966
21
1252.355421
31
0.0
0
LINE
8
0
10
3081.785876
20
1246.697574
30
0.0
11
3076.128030
21
1252.355421
31
0.0
0
LINE
8
0
10
3081.588741
20
1249.139773
30
0.0
11
3080.726740
21
1250.001774
31
0.0
0
LINE
8
0
10
3082.692863
20
1250.280716
30
0.0
11
3082.218158
21
1250.755421
31
0.0
0
ARC
8
0
10
3076.533268
20
1249.955421
30
0.0
40
0.500000
50
32.000000
51
90.000000
0
LINE
8
0
10
3076.957293
20
1250.220380
30
0.0
11
3078.440692
21
1247.846445
31
0.0
0
ARC
8
0
10
3078.695106
20
1248.005421
30
0.0
40
0.300000
50
212.000000
51
270.000000
0
LINE
8
0
10
3078.695106
20
1247.705421
30
0.0
11
3079.718696
21
1247.705421
31
0.0
0
ARC
8
0
10
3079.718696
20
1246.505421
30
0.0
40
1.200000
50
60.000000
51
90.000000
0
LINE
8
0
10
3080.318696
20
1247.544651
30
0.0
11
3081.962478
21
1246.595613
31
0.0
0
ARC
8
0
10
3082.112478
20
1246.855421
30
0.0
40
0.300000
50
240.000000
51
270.000000
0
LINE
8
0
10
3082.112478
20
1246.555421
30
0.0
11
3082.292863
21
1246.555421
31
0.0
0
ARC
8
0
10
3082.292863
20
1246.955421
30
0.0
40
0.400000
50
270.000000
51
0.000000
0
LINE
8
0
10
3082.692863
20
1246.955421
30
0.0
11
3082.692863
21
1247.555421
31
0.0
0
LINE
8
0
10
3082.692863
20
1247.555421
30
0.0
11
3082.592863
21
1247.555421
31
0.0
0
LINE
8
0
10
3082.592863
20
1247.555421
30
0.0
11
3082.592863
21
1247.930421
31
0.0
0
ARC
8
0
10
3082.392863
20
1247.930421
30
0.0
40
0.200000
50
0.000000
51
90.000000
0
LINE
8
0
10
3082.392863
20
1248.130421
30
0.0
11
3082.233336
21
1248.130421
31
0.0
0
ARC
8
0
10
3081.942863
20
1248.655421
30
0.0
40
0.600000
50
61.044976
51
298.955024
0
LINE
8
0
10
3082.233336
20
1249.180421
30
0.0
11
3082.392863
21
1249.180421
31
0.0
0
ARC
8
0
10
3082.392863
20
1249.380421
30
0.0
40
0.200000
50
270.000000
51
0.000000
0
LINE
8
0
10
3082.592863
20
1249.380421
30
0.0
11
3082.592863
21
1249.755421
31
0.0
0
LINE
8
0
10
3082.592863
20
1249.755421
30
0.0
11
3082.692863
21
1249.755421
31
0.0
0
LINE
8
0
10
3082.692863
20
1249.755421
30
0.0
11
3082.692863
21
1250.355421
31
0.0
0
ARC
8
0
10
3082.292863
20
1250.355421
30
0.0
40
0.400000
50
0.000000
51
90.000000
0
LINE
8
0
10
3082.292863
20
1250.755421
30
0.0
11
3082.112478
21
1250.755421
31
0.0
0
ARC
8
0
10
3082.112478
20
1250.455421
30
0.0
40
0.300000
50
90.000000
51
120.000000
0
LINE
8
0
10
3081.962478
20
1250.715228
30
0.0
11
3080.318696
21
1249.766190
31
0.0
0
ARC
8
0
10
3079.718696
20
1250.805421
30
0.0
40
1.200000
50
270.000000
51
300.000000
0
LINE
8
0
10
3079.718696
20
1249.605421
30
0.0
11
3079.692863
21
1249.605421
31
0.0
0
ARC
8
0
10
3079.692863
20
1249.805421
30
0.0
40
0.200000
50
212.000000
51
270.000000
0
LINE
8
0
10
3079.523253
20
1249.699437
30
0.0
11
3078.010480
21
1252.120380
31
0.0
0
ARC
8
0
10
3077.586456
20
1251.855421
30
0.0
40
0.500000
50
32.000000
51
90.000000
0
LINE
8
0
10
3077.586456
20
1252.355421
30
0.0
11
3071.692863
21
1252.355421
31
0.0
0
LINE
8
0
10
3071.692863
20
1252.355421
30
0.0
11
3065.799270
21
1252.355421
31
0.0
0
ARC
8
0
10
3065.799270
20
1251.855421
30
0.0
40
0.500000
50
90.000000
51
148.000000
0
LINE
8
0
10
3065.375246
20
1252.120380
30
0.0
11
3063.862472
21
1249.699437
31
0.0
0
ARC
8
0
10
3063.692863
20
1249.805421
30
0.0
40
0.200000
50
270.000000
51
328.000000
0
LINE
8
0
10
3063.692863
20
1249.605421
30
0.0
11
3063.667030
21
1249.605421
31
0.0
0
ARC
8
0
10
3063.667030
20
1250.805421
30
0.0
40
1.200000
50
240.000000
51
270.000000
0
LINE
8
0
10
3063.067030
20
1249.766190
30
0.0
11
3061.423247
21
1250.715228
31
0.0
0
ARC
8
0
10
3061.273247
20
1250.455421
30
0.0
40
0.300000
50
60.000000
51
90.000000
0
LINE
8
0
10
3061.273247
20
1250.755421
30
0.0
11
3061.092863
21
1250.755421
31
0.0
0
ARC
8
0
10
3061.092863
20
1250.355421
30
0.0
40
0.400000
50
90.000000
51
180.000000
0
LINE
8
0
10
3060.692863
20
1250.355421
30
0.0
11
3060.692863
21
1249.755421
31
0.0
0
LINE
8
0
10
3060.692863
20
1249.755421
30
0.0
11
3060.792863
21
1249.755421
31
0.0
0
LINE
8
0
10
3060.792863
20
1249.755421
30
0.0
11
3060.792863
21
1249.380421
31
0.0
0
ARC
8
0
10
3060.992863
20
1249.380421
30
0.0
40
0.200000
50
180.000000
51
270.000000
0
LINE
8
0
10
3060.992863
20
1249.180421
30
0.0
11
3061.152389
21
1249.180421
31
0.0
0
ARC
8
0
10
3061.442863
20
1248.655421
30
0.0
40
0.600000
50
241.044976
51
118.955024
0
LINE
8
0
10
3061.152389
20
1248.130421
30
0.0
11
3060.992863
21
1248.130421
31
0.0
0
ARC
8
0
10
3060.992863
20
1247.930421
30
0.0
40
0.200000
50
90.000000
51
180.000000
0
LINE
8
0
10
3060.792863
20
1247.930421
30
0.0
11
3060.792863
21
1247.555421
31
0.0
0
LINE
8
0
10
3060.792863
20
1247.555421
30
0.0
11
3060.692863
21
1247.555421
31
0.0
0
LINE
8
0
10
3060.692863
20
1247.555421
30
0.0
11
3060.692863
21
1246.955421
31
0.0
0
ARC
8
0
10
3061.092863
20
1246.955421
30
0.0
40
0.400000
50
180.000000
51
270.000000
0
LINE
8
0
10
3061.092863
20
1246.555421
30
0.0
11
3061.273247
21
1246.555421
31
0.0
0
ARC
8
0
10
3061.273247
20
1246.855421
30
0.0
40
0.300000
50
270.000000
51
300.000000
0
LINE
8
0
10
3061.423247
20
1246.595613
30
0.0
11
3063.067030
21
1247.544651
31
0.0
0
ARC
8
0
10
3063.667030
20
1246.505421
30
0.0
40
1.200000
50
90.000000
51
120.000000
0
LINE
8
0
10
3063.667030
20
1247.705421
30
0.0
11
3064.690619
21
1247.705421
31
0.0
0
ARC
8
0
10
3064.690619
20
1248.005421
30
0.0
40
0.300000
50
270.000000
51
328.000000
0
LINE
8
0
10
3064.945033
20
1247.846445
30
0.0
11
3066.428433
21
1250.220380
31
0.0
0
ARC
8
0
10
3066.852457
20
1249.955421
30
0.0
40
0.500000
50
90.000000
51
148.000000
0
LINE
8
0
10
3066.852457
20
1250.455421
30
0.0
11
3071.692863
21
1250.455421
31
0.0
0
LINE
8
0
10
3071.692863
20
1250.455421
30
0.0
11
3076.533268
21
1250.455421
31
0.0
0
LINE
8
0
10
3059.692863
20
1241.190998
30
0.0
11
3060.565052
21
1242.063187
31
0.0
0
LINE
8
0
10
3059.692863
20
1238.945934
30
0.0
11
3059.731414
21
1238.984485
31
0.0
0
LINE
8
0
10
3061.014308
20
1240.267380
30
0.0
11
3061.992538
21
1241.245609
31
0.0
0
LINE
8
0
10
3059.792863
20
1239.045934
30
0.0
11
3060.259969
21
1239.513040
31
0.0
0
LINE
8
0
10
3061.828253
20
1238.836261
30
0.0
11
3063.807744
21
1240.815752
31
0.0
0
LINE
8
0
10
3063.259553
20
1238.022496
30
0.0
11
3064.700416
21
1239.463359
31
0.0
0
LINE
8
0
10
3064.151458
20
1236.669337
30
0.0
11
3065.642887
21
1238.160767
31
0.0
0
LINE
8
0
10
3065.711670
20
1235.984485
30
0.0
11
3067.711670
21
1237.984485
31
0.0
0
LINE
8
0
10
3067.956734
20
1235.984485
30
0.0
11
3069.956734
21
1237.984485
31
0.0
0
LINE
8
0
10
3070.201798
20
1235.984485
30
0.0
11
3072.201798
21
1237.984485
31
0.0
0
LINE
8
0
10
3072.446862
20
1235.984485
30
0.0
11
3074.446862
21
1237.984485
31
0.0
0
LINE
8
0
10
3074.691926
20
1235.984485
30
0.0
11
3076.691926
21
1237.984485
31
0.0
0
LINE
8
0
10
3076.936990
20
1235.984485
30
0.0
11
3083.136990
21
1242.184485
31
0.0
0
LINE
8
0
10
3081.859294
20
1238.661725
30
0.0
11
3082.723566
21
1239.525997
31
0.0
0
LINE
8
0
10
3083.467024
20
1238.024391
30
0.0
11
3083.652957
21
1238.210324
31
0.0
0
LINE
8
0
10
3060.962183
20
1238.335435
30
0.0
11
3059.826749
21
1239.470869
31
0.0
0
LINE
8
0
10
3065.558197
20
1235.984485
30
0.0
11
3059.697495
21
1241.845187
31
0.0
0
LINE
8
0
10
3067.803261
20
1235.984485
30
0.0
11
3065.579727
21
1238.208019
31
0.0
0
LINE
8
0
10
3065.433420
20
1238.354326
30
0.0
11
3062.603261
21
1241.184485
31
0.0
0
LINE
8
0
10
3070.048325
20
1235.984485
30
0.0
11
3068.048325
21
1237.984485
31
0.0
0
LINE
8
0
10
3072.293389
20
1235.984485
30
0.0
11
3070.293389
21
1237.984485
31
0.0
0
LINE
8
0
10
3074.538453
20
1235.984485
30
0.0
11
3072.538453
21
1237.984485
31
0.0
0
LINE
8
0
10
3076.783517
20
1235.984485
30
0.0
11
3074.783517
21
1237.984485
31
0.0
0
LINE
8
0
10
3078.874556
20
1236.138510
30
0.0
11
3077.028581
21
1237.984485
31
0.0
0
LINE
8
0
10
3079.772385
20
1237.485745
30
0.0
11
3078.332738
21
1238.925393
31
0.0
0
LINE
8
0
10
3080.682369
20
1238.820825
30
0.0
11
3079.221578
21
1240.281616
31
0.0
0
LINE
8
0
10
3083.608930
20
1238.139329
30
0.0
11
3080.563773
21
1241.184485
31
0.0
0
LINE
8
0
10
3083.383837
20
1240.609485
30
0.0
11
3082.256425
21
1241.736897
31
0.0
0
ARC
8
0
10
3078.513584
20
1236.484485
30
0.0
40
0.500000
50
270.000000
51
326.610000
0
LINE
8
0
10
3078.513584
20
1235.984485
30
0.0
11
3071.692863
21
1235.984485
31
0.0
0
LINE
8
0
10
3071.692863
20
1235.984485
30
0.0
11
3064.872141
21
1235.984485
31
0.0
0
ARC
8
0
10
3064.872141
20
1236.484485
30
0.0
40
0.500000
50
213.390000
51
270.000000
0
LINE
8
0
10
3064.454669
20
1236.209318
30
0.0
11
3062.824166
21
1238.683046
31
0.0
0
ARC
8
0
10
3062.264448
20
1238.314120
30
0.0
40
0.670365
50
33.390000
51
120.039706
0
LINE
8
0
10
3061.928864
20
1238.894441
30
0.0
11
3060.397713
21
1238.009016
31
0.0
0
LINE
8
0
10
3060.301743
20
1237.984485
30
0.0
11
3060.397713
21
1238.009016
31
0.0
0
LINE
8
0
10
3060.301743
20
1237.984485
30
0.0
11
3060.092863
21
1237.984485
31
0.0
0
ARC
8
0
10
3060.092863
20
1238.384485
30
0.0
40
0.400000
50
180.000000
51
270.000000
0
LINE
8
0
10
3059.692863
20
1238.384485
30
0.0
11
3059.692863
21
1238.984485
31
0.0
0
LINE
8
0
10
3059.692863
20
1238.984485
30
0.0
11
3059.792863
21
1238.984485
31
0.0
0
LINE
8
0
10
3059.792863
20
1238.984485
30
0.0
11
3059.792863
21
1239.359485
31
0.0
0
ARC
8
0
10
3059.992863
20
1239.359485
30
0.0
40
0.200000
50
90.000000
51
180.000000
0
LINE
8
0
10
3059.992863
20
1239.559485
30
0.0
11
3060.152389
21
1239.559485
31
0.0
0
ARC
8
0
10
3060.442863
20
1240.084485
30
0.0
40
0.600000
50
241.044976
51
0.000000
0
ARC
8
0
10
3060.442863
20
1240.084485
30
0.0
40
0.600000
50
0.000000
51
118.955024
0
LINE
8
0
10
3060.152389
20
1240.609485
30
0.0
11
3059.992863
21
1240.609485
31
0.0
0
ARC
8
0
10
3059.992863
20
1240.809485
30
0.0
40
0.200000
50
180.000000
51
270.000000
0
LINE
8
0
10
3059.792863
20
1240.809485
30
0.0
11
3059.792863
21
1241.184485
31
0.0
0
LINE
8
0
10
3059.792863
20
1241.184485
30
0.0
11
3059.692863
21
1241.184485
31
0.0
0
LINE
8
0
10
3059.692863
20
1241.184485
30
0.0
11
3059.692863
21
1241.784485
31
0.0
0
ARC
8
0
10
3060.092863
20
1241.784485
30
0.0
40
0.400000
50
90.000000
51
180.000000
0
LINE
8
0
10
3060.092863
20
1242.184485
30
0.0
11
3060.301743
21
1242.184485
31
0.0
0
LINE
8
0
10
3060.397713
20
1242.159955
30
0.0
11
3060.301743
21
1242.184485
31
0.0
0
LINE
8
0
10
3060.397713
20
1242.159955
30
0.0
11
3061.898752
21
1241.291942
31
0.0
0
ARC
8
0
10
3062.299232
20
1241.984485
30
0.0
40
0.800000
50
239.960294
51
270.000000
0
LINE
8
0
10
3062.299232
20
1241.184485
30
0.0
11
3063.032178
21
1241.184485
31
0.0
0
ARC
8
0
10
3063.032178
20
1240.184485
30
0.0
40
1.000000
50
33.240000
51
90.000000
0
LINE
8
0
10
3063.868560
20
1240.732633
30
0.0
11
3065.373504
21
1238.436338
31
0.0
0
ARC
8
0
10
3066.209886
20
1238.984485
30
0.0
40
1.000000
50
213.240000
51
270.000000
0
LINE
8
0
10
3066.209886
20
1237.984485
30
0.0
11
3071.692863
21
1237.984485
31
0.0
0
LINE
8
0
10
3071.692863
20
1237.984485
30
0.0
11
3077.025279
21
1237.984485
31
0.0
0
LINE
8
0
10
3077.025279
20
1237.984485
30
0.0
11
3077.175840
21
1237.984485
31
0.0
0
ARC
8
0
10
3077.175840
20
1238.984485
30
0.0
40
1.000000
50
270.000000
51
326.760000
0
LINE
8
0
10
3078.012222
20
1238.436338
30
0.0
11
3079.517165
21
1240.732633
31
0.0
0
ARC
8
0
10
3080.353547
20
1240.184485
30
0.0
40
1.000000
50
90.000000
51
146.760000
0
LINE
8
0
10
3080.353547
20
1241.184485
30
0.0
11
3081.086493
21
1241.184485
31
0.0
0
ARC
8
0
10
3081.086493
20
1241.984485
30
0.0
40
0.800000
50
270.000000
51
300.039706
0
LINE
8
0
10
3081.486973
20
1241.291942
30
0.0
11
3082.988012
21
1242.159955
31
0.0
0
LINE
8
0
10
3083.083983
20
1242.184485
30
0.0
11
3082.988012
21
1242.159955
31
0.0
0
LINE
8
0
10
3083.083983
20
1242.184485
30
0.0
11
3083.292863
21
1242.184485
31
0.0
0
ARC
8
0
10
3083.292863
20
1241.784485
30
0.0
40
0.400000
50
0.000000
51
90.000000
0
LINE
8
0
10
3083.692863
20
1241.784485
30
0.0
11
3083.692863
21
1241.184485
31
0.0
0
LINE
8
0
10
3083.692863
20
1241.184485
30
0.0
11
3083.592863
21
1241.184485
31
0.0
0
LINE
8
0
10
3083.592863
20
1241.184485
30
0.0
11
3083.592863
21
1240.809485
31
0.0
0
ARC
8
0
10
3083.392863
20
1240.809485
30
0.0
40
0.200000
50
270.000000
51
0.000000
0
LINE
8
0
10
3083.392863
20
1240.609485
30
0.0
11
3083.233336
21
1240.609485
31
0.0
0
ARC
8
0
10
3082.942863
20
1240.084485
30
0.0
40
0.600000
50
61.044976
51
180.000000
0
ARC
8
0
10
3082.942863
20
1240.084485
30
0.0
40
0.600000
50
180.000000
51
298.955024
0
LINE
8
0
10
3083.233336
20
1239.559485
30
0.0
11
3083.392863
21
1239.559485
31
0.0
0
ARC
8
0
10
3083.392863
20
1239.359485
30
0.0
40
0.200000
50
0.000000
51
90.000000
0
LINE
8
0
10
3083.592863
20
1239.359485
30
0.0
11
3083.592863
21
1238.984485
31
0.0
0
LINE
8
0
10
3083.592863
20
1238.984485
30
0.0
11
3083.692863
21
1238.984485
31
0.0
0
LINE
8
0
10
3083.692863
20
1238.984485
30
0.0
11
3083.692863
21
1238.384485
31
0.0
0
ARC
8
0
10
3083.292863
20
1238.384485
30
0.0
40
0.400000
50
270.000000
51
0.000000
0
LINE
8
0
10
3083.292863
20
1237.984485
30
0.0
11
3083.083983
21
1237.984485
31
0.0
0
LINE
8
0
10
3082.988012
20
1238.009016
30
0.0
11
3083.083983
21
1237.984485
31
0.0
0
LINE
8
0
10
3082.988012
20
1238.009016
30
0.0
11
3081.456862
21
1238.894441
31
0.0
0
ARC
8
0
10
3081.121277
20
1238.314120
30
0.0
40
0.670365
50
59.960294
51
146.610000
0
LINE
8
0
10
3080.561560
20
1238.683046
30
0.0
11
3078.931056
21
1236.209318
31
0.0
0
ARC
8
0
10
3058.192863
20
1246.371936
30
0.0
40
0.500000
50
293.578179
51
0.000000
0
ARC
8
0
10
3058.592863
20
1245.455421
30
0.0
40
0.500000
50
113.578178
51
180.000000
0
LINE
8
0
10
3058.092863
20
1245.455421
30
0.0
11
3058.092863
21
1242.434485
31
0.0
0
ARC
8
0
10
3057.592863
20
1242.434485
30
0.0
40
0.500000
50
270.000000
51
0.000000
0
LINE
8
0
10
3057.592863
20
1241.934485
30
0.0
11
3041.342863
21
1241.934485
31
0.0
0
ARC
8
0
10
3041.342863
20
1242.234485
30
0.0
40
0.300000
50
180.000000
51
270.000000
0
LINE
8
0
10
3041.042863
20
1242.234485
30
0.0
11
3041.042863
21
1251.091932
31
0.0
0
ARC
8
0
10
3041.342863
20
1251.091932
30
0.0
40
0.300000
50
90.000000
51
180.000000
0
LINE
8
0
10
3041.342863
20
1251.391932
30
0.0
11
3042.083418
21
1251.391932
31
0.0
0
ARC
8
0
10
3042.083418
20
1251.091932
30
0.0
40
0.300000
50
44.256558
51
90.000000
0
ARC
8
0
10
3044.590196
20
1253.534485
30
0.0
40
3.200000
50
224.256558
51
251.491372
0
LINE
8
0
10
3043.574364
20
1250.500003
30
0.0
11
3043.669598
21
1250.484485
31
0.0
0
LINE
8
0
10
3043.669598
20
1250.484485
30
0.0
11
3047.902486
21
1250.484485
31
0.0
0
ARC
8
0
10
3047.902486
20
1250.784485
30
0.0
40
0.300000
50
270.000000
51
297.767570
0
LINE
8
0
10
3048.042252
20
1250.519032
30
0.0
11
3048.425605
21
1250.720874
31
0.0
0
ARC
8
0
10
3048.565371
20
1250.455421
30
0.0
40
0.300000
50
90.000000
51
117.767570
0
LINE
8
0
10
3048.565371
20
1250.755421
30
0.0
11
3058.392863
21
1250.755421
31
0.0
0
ARC
8
0
10
3058.392863
20
1250.455421
30
0.0
40
0.300000
50
0.000000
51
90.000000
0
LINE
8
0
10
3058.692863
20
1250.455421
30
0.0
11
3058.692863
21
1246.371936
31
0.0
0
LINE
8
0
10
3039.492863
20
1241.934485
30
0.0
11
3015.492863
21
1241.934485
31
0.0
0
LINE
8
0
10
3015.492863
20
1241.934485
30
0.0
11
3015.492863
21
1250.934485
31
0.0
0
LINE
8
0
10
3015.492863
20
1250.934485
30
0.0
11
3016.692863
21
1250.934485
31
0.0
0
ARC
8
0
10
3016.692863
20
1251.234485
30
0.0
40
0.300000
50
270.000000
51
0.000000
0
LINE
8
0
10
3016.992863
20
1251.234485
30
0.0
11
3016.992863
21
1251.634485
31
0.0
0
ARC
8
0
10
3016.692863
20
1251.634485
30
0.0
40
0.300000
50
0.000000
51
90.000000
0
LINE
8
0
10
3016.692863
20
1251.934485
30
0.0
11
3015.792863
21
1251.934485
31
0.0
0
ARC
8
0
10
3015.792863
20
1252.234485
30
0.0
40
0.300000
50
180.000000
51
270.000000
0
LINE
8
0
10
3015.492863
20
1252.234485
30
0.0
11
3015.492863
21
1252.834485
31
0.0
0
ARC
8
0
10
3015.792863
20
1252.834485
30
0.0
40
0.300000
50
90.000000
51
180.000000
0
LINE
8
0
10
3015.792863
20
1253.134485
30
0.0
11
3026.948417
21
1253.134485
31
0.0
0
ARC
8
0
10
3026.948417
20
1252.834485
30
0.0
40
0.300000
50
24.102346
51
90.000000
0
LINE
8
0
10
3027.222262
20
1252.956996
30
0.0
11
3028.047670
21
1251.111975
31
0.0
0
ARC
8
0
10
3028.321516
20
1251.234485
30
0.0
40
0.300000
50
204.102346
51
270.000000
0
LINE
8
0
10
3028.321516
20
1250.934485
30
0.0
11
3039.492863
21
1250.934485
31
0.0
0
LINE
8
0
10
3039.492863
20
1250.934485
30
0.0
11
3039.492863
21
1241.934485
31
0.0
0
ARC
8
0
10
3059.352923
20
1236.034485
30
0.0
40
0.500000
50
270.000000
51
326.019223
0
ARC
8
0
10
3060.389455
20
1235.335842
30
0.0
40
0.750000
50
106.997055
51
146.019223
0
LINE
8
0
10
3060.170213
20
1236.053082
30
0.0
11
3060.588596
21
1236.258291
31
0.0
0
ARC
8
0
10
3061.706897
20
1234.600158
30
0.0
40
2.000000
50
51.805773
51
123.997055
0
ARC
8
0
10
3063.252720
20
1236.564956
30
0.0
40
0.500000
50
231.805773
51
271.623749
0
LINE
8
0
10
3063.266888
20
1236.065157
30
0.0
11
3063.923509
21
1236.083770
31
0.0
0
ARC
8
0
10
3063.920124
20
1236.383795
30
0.0
40
0.300000
50
271.133979
51
18.251415
0
LINE
8
0
10
3064.205032
20
1236.477751
30
0.0
11
3062.140744
21
1239.144192
31
0.0
0
ARC
8
0
10
3062.025597
20
1239.055048
30
0.0
40
0.145621
50
37.746080
51
182.000000
0
LINE
8
0
10
3061.880065
20
1239.049966
30
0.0
11
3061.885495
21
1238.894479
31
0.0
0
ARC
8
0
10
3061.685617
20
1238.887499
30
0.0
40
0.200000
50
308.823976
51
2.000000
0
LINE
8
0
10
3061.811003
20
1238.731684
30
0.0
11
3060.167833
21
1237.409409
31
0.0
0
ARC
8
0
10
3059.979754
20
1237.643132
30
0.0
40
0.300000
50
283.127121
51
308.823976
0
LINE
8
0
10
3060.047888
20
1237.350972
30
0.0
11
3059.692863
21
1237.255421
31
0.0
0
ARC
8
0
10
3059.692863
20
1237.555421
30
0.0
40
0.300000
50
90.000000
51
270.000000
0
LINE
8
0
10
3059.692863
20
1237.855421
30
0.0
11
3059.692863
21
1242.355421
31
0.0
0
ARC
8
0
10
3059.892863
20
1242.355421
30
0.0
40
0.200000
50
90.000000
51
180.000000
0
LINE
8
0
10
3059.892863
20
1242.555421
30
0.0
11
3059.960751
21
1242.555421
31
0.0
0
ARC
8
0
10
3059.960751
20
1242.255421
30
0.0
40
0.300000
50
58.619868
51
90.000000
0
LINE
8
0
10
3060.116966
20
1242.511540
30
0.0
11
3061.792959
21
1241.489307
31
0.0
0
ARC
8
0
10
3061.992863
20
1241.483117
30
0.0
40
0.200000
50
178.226373
51
0.000000
0
LINE
8
0
10
3062.192863
20
1241.483117
30
0.0
11
3062.192863
21
1242.558119
31
0.0
0
ARC
8
0
10
3061.192863
20
1242.558119
30
0.0
40
1.000000
50
0.000000
51
58.619868
0
LINE
8
0
10
3061.713576
20
1243.411850
30
0.0
11
3061.004495
21
1243.844338
31
0.0
0
ARC
8
0
10
3061.160709
20
1244.100457
30
0.0
40
0.300000
50
121.380132
51
238.619868
0
LINE
8
0
10
3061.004495
20
1244.356577
30
0.0
11
3062.713576
21
1245.398991
31
0.0
0
ARC
8
0
10
3062.192863
20
1246.252722
30
0.0
40
1.000000
50
301.380132
51
0.000000
0
LINE
8
0
10
3063.192863
20
1247.327724
30
0.0
11
3063.192863
21
1246.252722
31
0.0
0
ARC
8
0
10
3062.992863
20
1247.327724
30
0.0
40
0.200000
50
0.000000
51
181.773628
0
LINE
8
0
10
3061.116966
20
1246.299301
30
0.0
11
3062.792959
21
1247.321534
31
0.0
0
ARC
8
0
10
3060.960751
20
1246.555421
30
0.0
40
0.300000
50
270.000000
51
301.380132
0
LINE
8
0
10
3060.892863
20
1246.255421
30
0.0
11
3060.960751
21
1246.255421
31
0.0
0
ARC
8
0
10
3060.892863
20
1246.455421
30
0.0
40
0.200000
50
180.000000
51
270.000000
0
LINE
8
0
10
3060.692863
20
1250.955421
30
0.0
11
3060.692863
21
1246.455421
31
0.0
0
ARC
8
0
10
3060.692863
20
1251.255421
30
0.0
40
0.300000
50
90.000000
51
270.000000
0
LINE
8
0
10
3061.047888
20
1251.459870
30
0.0
11
3060.692863
21
1251.555421
31
0.0
0
ARC
8
0
10
3060.979754
20
1251.167709
30
0.0
40
0.300000
50
51.176024
51
76.872879
0
LINE
8
0
10
3062.811003
20
1250.079157
30
0.0
11
3061.167833
21
1251.401432
31
0.0
0
ARC
8
0
10
3062.685617
20
1249.923342
30
0.0
40
0.200000
50
358.000000
51
51.176024
0
LINE
8
0
10
3062.880065
20
1249.760875
30
0.0
11
3062.885495
21
1249.916362
31
0.0
0
ARC
8
0
10
3063.025597
20
1249.755793
30
0.0
40
0.145621
50
178.000000
51
322.253920
0
LINE
8
0
10
3065.205032
20
1252.333090
30
0.0
11
3063.140744
21
1249.666649
31
0.0
0
ARC
8
0
10
3064.920124
20
1252.427046
30
0.0
40
0.300000
50
341.748585
51
88.866021
0
LINE
8
0
10
3064.266888
20
1252.745684
30
0.0
11
3064.923509
21
1252.727071
31
0.0
0
ARC
8
0
10
3064.252720
20
1252.245885
30
0.0
40
0.500000
50
88.376251
51
128.194227
0
ARC
8
0
10
3062.706897
20
1254.210683
30
0.0
40
2.000000
50
236.002945
51
308.194227
0
LINE
8
0
10
3061.170213
20
1252.757759
30
0.0
11
3061.588596
21
1252.552551
31
0.0
0
ARC
8
0
10
3061.389455
20
1253.474999
30
0.0
40
0.750000
50
209.713468
51
253.002945
0
ARC
8
0
10
3060.303811
20
1252.855421
30
0.0
40
0.500000
50
29.713468
51
90.000000
0
LINE
8
0
10
3060.303811
20
1253.355421
30
0.0
11
3059.192863
21
1253.355421
31
0.0
0
ARC
8
0
10
3059.192863
20
1252.855421
30
0.0
40
0.500000
50
90.000000
51
180.000000
0
ARC
8
0
10
3058.192863
20
1252.855421
30
0.0
40
0.500000
50
270.000000
51
0.000000
0
LINE
8
0
10
3058.192863
20
1252.355421
30
0.0
11
3055.454777
21
1252.355421
31
0.0
0
LINE
8
0
10
3055.454777
20
1252.355421
30
0.0
11
3055.366909
21
1252.267553
31
0.0
0
ARC
8
0
10
3055.154777
20
1252.479685
30
0.0
40
0.300000
50
225.000000
51
315.000000
0
LINE
8
0
10
3054.942645
20
1252.267553
30
0.0
11
3054.854777
21
1252.355421
31
0.0
0
LINE
8
0
10
3054.854777
20
1252.355421
30
0.0
11
3052.192863
21
1252.355421
31
0.0
0
ARC
8
0
10
3052.192863
20
1252.855421
30
0.0
40
0.500000
50
180.000000
51
270.000000
0
LINE
8
0
10
3051.692863
20
1252.855421
30
0.0
11
3051.692863
21
1254.234485
31
0.0
0
ARC
8
0
10
3051.192863
20
1254.234485
30
0.0
40
0.500000
50
0.000000
51
90.000000
0
LINE
8
0
10
3051.192863
20
1254.734485
30
0.0
11
3044.381442
21
1254.734485
31
0.0
0
ARC
8
0
10
3044.381442
20
1254.434485
30
0.0
40
0.300000
50
90.000000
51
217.464043
0
ARC
8
0
10
3042.793971
20
1253.217959
30
0.0
40
1.700000
50
14.967045
51
37.464043
0
ARC
8
0
10
3044.726121
20
1253.734485
30
0.0
40
0.300000
50
194.967045
51
270.000000
0
LINE
8
0
10
3044.726121
20
1253.434485
30
0.0
11
3047.692428
21
1253.434485
31
0.0
0
ARC
8
0
10
3047.692428
20
1252.934485
30
0.0
40
0.500000
50
0.000000
51
90.000000
0
LINE
8
0
10
3048.192428
20
1252.934485
30
0.0
11
3048.192428
21
1252.584485
31
0.0
0
ARC
8
0
10
3047.692428
20
1252.584485
30
0.0
40
0.500000
50
270.000000
51
0.000000
0
LINE
8
0
10
3047.692428
20
1252.084485
30
0.0
11
3043.983978
21
1252.084485
31
0.0
0
ARC
8
0
10
3043.983978
20
1252.384485
30
0.0
40
0.300000
50
242.204228
51
270.000000
0
ARC
8
0
10
3044.590196
20
1253.534485
30
0.0
40
1.600000
50
216.523595
51
242.204228
0
ARC
8
0
10
3041.697193
20
1251.391932
30
0.0
40
2.000000
50
36.523595
51
90.000000
0
LINE
8
0
10
3041.697193
20
1253.391932
30
0.0
11
3035.688532
21
1253.391932
31
0.0
0
ARC
8
0
10
3035.688532
20
1251.391932
30
0.0
40
2.000000
50
90.000000
51
143.476405
0
ARC
8
0
10
3032.795530
20
1253.534485
30
0.0
40
1.600000
50
297.795773
51
323.476405
0
ARC
8
0
10
3033.401748
20
1252.384485
30
0.0
40
0.300000
50
270.000000
51
297.795773
0
LINE
8
0
10
3033.401748
20
1252.084485
30
0.0
11
3029.692863
21
1252.084485
31
0.0
0
ARC
8
0
10
3029.692863
20
1252.584485
30
0.0
40
0.500000
50
180.000000
51
270.000000
0
LINE
8
0
10
3029.192863
20
1252.584485
30
0.0
11
3029.192863
21
1252.934485
31
0.0
0
ARC
8
0
10
3029.692863
20
1252.934485
30
0.0
40
0.500000
50
90.000000
51
180.000000
0
LINE
8
0
10
3029.692863
20
1253.434485
30
0.0
11
3032.659605
21
1253.434485
31
0.0
0
ARC
8
0
10
3032.659605
20
1253.734485
30
0.0
40
0.300000
50
270.000000
51
345.032955
0
ARC
8
0
10
3034.591754
20
1253.217959
30
0.0
40
1.700000
50
142.535957
51
165.032955
0
ARC
8
0
10
3033.004284
20
1254.434485
30
0.0
40
0.300000
50
322.535957
51
90.000000
0
LINE
8
0
10
3033.004284
20
1254.734485
30
0.0
11
3026.494342
21
1254.734485
31
0.0
0
LINE
8
0
10
3026.494342
20
1254.734485
30
0.0
11
3026.495047
21
1259.984962
31
0.0
0
LINE
8
0
10
3026.495047
20
1259.984962
30
0.0
11
3021.244049
21
1259.985147
31
0.0
0
ARC
8
0
10
3021.244039
20
1259.685147
30
0.0
40
0.300000
50
89.997982
51
179.997982
0
LINE
8
0
10
3020.944039
20
1259.685158
30
0.0
11
3020.943914
21
1258.335147
31
0.0
0
ARC
8
0
10
3021.443914
20
1258.335147
30
0.0
40
0.500000
50
180.000000
51
270.000000
0
LINE
8
0
10
3021.443914
20
1257.835147
30
0.0
11
3022.243907
21
1257.835147
31
0.0
0
ARC
8
0
10
3022.243907
20
1258.135147
30
0.0
40
0.300000
50
270.000000
51
359.962457
0
LINE
8
0
10
3022.543907
20
1258.134950
30
0.0
11
3022.543993
21
1258.385118
31
0.0
0
LINE
8
0
10
3022.543993
20
1258.385118
30
0.0
11
3024.993914
21
1258.385032
31
0.0
0
LINE
8
0
10
3024.993914
20
1258.385032
30
0.0
11
3024.993914
21
1256.135075
31
0.0
0
ARC
8
0
10
3024.693914
20
1256.135075
30
0.0
40
0.300000
50
270.000000
51
0.000000
0
LINE
8
0
10
3024.693914
20
1255.835075
30
0.0
11
3022.544126
21
1255.835075
31
0.0
0
LINE
8
0
10
3022.544126
20
1255.835075
30
0.0
11
3020.642551
21
1254.734167
31
0.0
0
LINE
8
0
10
3020.642551
20
1254.734167
30
0.0
11
3015.592863
21
1254.735148
31
0.0
0
LINE
8
0
10
3015.592863
20
1254.735148
30
0.0
11
3015.592863
21
1255.665068
31
0.0
0
LINE
8
0
10
3015.592863
20
1255.665068
30
0.0
11
3013.792863
21
1255.182759
31
0.0
0
LINE
8
0
10
3013.792863
20
1255.182759
30
0.0
11
3013.792863
21
1236.034485
31
0.0
0
ARC
8
0
10
3014.292863
20
1236.034485
30
0.0
40
0.500000
50
180.000000
51
270.000000
0
LINE
8
0
10
3014.292863
20
1235.534485
30
0.0
11
3016.792863
21
1235.534485
31
0.0
0
ARC
8
0
10
3016.792863
20
1236.034485
30
0.0
40
0.500000
50
270.000000
51
0.000000
0
LINE
8
0
10
3017.292863
20
1236.034485
30
0.0
11
3017.292863
21
1236.734485
31
0.0
0
ARC
8
0
10
3016.992863
20
1236.734485
30
0.0
40
0.300000
50
0.000000
51
90.000000
0
LINE
8
0
10
3016.992863
20
1237.034485
30
0.0
11
3015.592863
21
1237.034485
31
0.0
0
ARC
8
0
10
3015.592863
20
1237.334485
30
0.0
40
0.300000
50
180.000000
51
270.000000
0
LINE
8
0
10
3015.292863
20
1237.334485
30
0.0
11
3015.292863
21
1240.234485
31
0.0
0
ARC
8
0
10
3015.592863
20
1240.234485
30
0.0
40
0.300000
50
90.000000
51
180.000000
0
LINE
8
0
10
3015.592863
20
1240.534485
30
0.0
11
3039.192863
21
1240.534485
31
0.0
0
ARC
8
0
10
3039.192863
20
1240.234485
30
0.0
40
0.300000
50
0.000000
51
90.000000
0
LINE
8
0
10
3039.492863
20
1240.234485
30
0.0
11
3039.492863
21
1235.834485
31
0.0
0
ARC
8
0
10
3039.792863
20
1235.834485
30
0.0
40
0.300000
50
180.000000
51
270.000000
0
LINE
8
0
10
3039.792863
20
1235.534485
30
0.0
11
3040.742863
21
1235.534485
31
0.0
0
ARC
8
0
10
3040.742863
20
1235.834485
30
0.0
40
0.300000
50
270.000000
51
0.000000
0
LINE
8
0
10
3041.042863
20
1235.834485
30
0.0
11
3041.042863
21
1240.234485
31
0.0
0
ARC
8
0
10
3041.342863
20
1240.234485
30
0.0
40
0.300000
50
90.000000
51
180.000000
0
LINE
8
0
10
3041.342863
20
1240.534485
30
0.0
11
3057.692863
21
1240.534485
31
0.0
0
ARC
8
0
10
3057.692863
20
1240.234485
30
0.0
40
0.300000
50
0.000000
51
90.000000
0
LINE
8
0
10
3057.992863
20
1240.234485
30
0.0
11
3057.992863
21
1237.334485
31
0.0
0
ARC
8
0
10
3057.692863
20
1237.334485
30
0.0
40
0.300000
50
270.000000
51
0.000000
0
LINE
8
0
10
3057.692863
20
1237.034485
30
0.0
11
3056.492863
21
1237.034485
31
0.0
0
ARC
8
0
10
3056.492863
20
1236.734485
30
0.0
40
0.300000
50
90.000000
51
180.000000
0
LINE
8
0
10
3056.192863
20
1236.734485
30
0.0
11
3056.192863
21
1236.034485
31
0.0
0
ARC
8
0
10
3056.692863
20
1236.034485
30
0.0
40
0.500000
50
180.000000
51
270.000000
0
LINE
8
0
10
3056.692863
20
1235.534485
30
0.0
11
3059.352923
21
1235.534485
31
0.0
0
ARC
8
0
10
3085.192863
20
1246.371936
30
0.0
40
0.500000
50
180.000000
51
246.421822
0
LINE
8
0
10
3084.692863
20
1246.371936
30
0.0
11
3084.692863
21
1250.455421
31
0.0
0
ARC
8
0
10
3084.992863
20
1250.455421
30
0.0
40
0.300000
50
90.000000
51
180.000000
0
LINE
8
0
10
3084.992863
20
1250.755421
30
0.0
11
3094.820355
21
1250.755421
31
0.0
0
ARC
8
0
10
3094.820355
20
1250.455421
30
0.0
40
0.300000
50
62.232430
51
90.000000
0
LINE
8
0
10
3094.960121
20
1250.720874
30
0.0
11
3095.343474
21
1250.519032
31
0.0
0
ARC
8
0
10
3095.483240
20
1250.784485
30
0.0
40
0.300000
50
242.232430
51
270.000000
0
LINE
8
0
10
3095.483240
20
1250.484485
30
0.0
11
3099.716127
21
1250.484485
31
0.0
0
LINE
8
0
10
3099.716127
20
1250.484485
30
0.0
11
3099.811362
21
1250.500003
31
0.0
0
ARC
8
0
10
3098.795530
20
1253.534485
30
0.0
40
3.200000
50
288.508628
51
315.743442
0
ARC
8
0
10
3101.302307
20
1251.091932
30
0.0
40
0.300000
50
90.000000
51
135.743442
0
LINE
8
0
10
3101.302307
20
1251.391932
30
0.0
11
3102.042863
21
1251.391932
31
0.0
0
ARC
8
0
10
3102.042863
20
1251.091932
30
0.0
40
0.300000
50
0.000000
51
90.000000
0
LINE
8
0
10
3102.342863
20
1251.091932
30
0.0
11
3102.342863
21
1242.234485
31
0.0
0
ARC
8
0
10
3102.042863
20
1242.234485
30
0.0
40
0.300000
50
270.000000
51
0.000000
0
LINE
8
0
10
3102.042863
20
1241.934485
30
0.0
11
3085.792863
21
1241.934485
31
0.0
0
ARC
8
0
10
3085.792863
20
1242.434485
30
0.0
40
0.500000
50
180.000000
51
270.000000
0
LINE
8
0
10
3085.292863
20
1242.434485
30
0.0
11
3085.292863
21
1245.455421
31
0.0
0
ARC
8
0
10
3084.792863
20
1245.455421
30
0.0
40
0.500000
50
0.000000
51
66.421822
0
LINE
8
0
10
3127.892863
20
1241.934485
30
0.0
11
3103.892863
21
1241.934485
31
0.0
0
LINE
8
0
10
3103.892863
20
1241.934485
30
0.0
11
3103.892863
21
1250.934485
31
0.0
0
LINE
8
0
10
3103.892863
20
1250.934485
30
0.0
11
3115.064210
21
1250.934485
31
0.0
0
ARC
8
0
10
3115.064210
20
1251.234485
30
0.0
40
0.300000
50
270.000000
51
335.897654
0
LINE
8
0
10
3115.338055
20
1251.111975
30
0.0
11
3116.163463
21
1252.956996
31
0.0
0
ARC
8
0
10
3116.437309
20
1252.834485
30
0.0
40
0.300000
50
90.000000
51
155.897654
0
LINE
8
0
10
3116.437309
20
1253.134485
30
0.0
11
3127.592863
21
1253.134485
31
0.0
0
ARC
8
0
10
3127.592863
20
1252.834485
30
0.0
40
0.300000
50
0.000000
51
90.000000
0
LINE
8
0
10
3127.892863
20
1252.834485
30
0.0
11
3127.892863
21
1252.234485
31
0.0
0
ARC
8
0
10
3127.592863
20
1252.234485
30
0.0
40
0.300000
50
270.000000
51
0.000000
0
LINE
8
0
10
3127.592863
20
1251.934485
30
0.0
11
3126.692863
21
1251.934485
31
0.0
0
ARC
8
0
10
3126.692863
20
1251.634485
30
0.0
40
0.300000
50
90.000000
51
180.000000
0
LINE
8
0
10
3126.392863
20
1251.634485
30
0.0
11
3126.392863
21
1251.234485
31
0.0
0
ARC
8
0
10
3126.692863
20
1251.234485
30
0.0
40
0.300000
50
180.000000
51
270.000000
0
LINE
8
0
10
3126.692863
20
1250.934485
30
0.0
11
3127.892863
21
1250.934485
31
0.0
0
LINE
8
0
10
3127.892863
20
1250.934485
30
0.0
11
3127.892863
21
1241.934485
31
0.0
0
ARC
8
0
10
3084.032802
20
1236.034485
30
0.0
40
0.500000
50
213.980777
51
270.000000
0
LINE
8
0
10
3086.692863
20
1235.534485
30
0.0
11
3084.032802
21
1235.534485
31
0.0
0
ARC
8
0
10
3086.692863
20
1236.034485
30
0.0
40
0.500000
50
270.000000
51
0.000000
0
LINE
8
0
10
3087.192863
20
1236.734485
30
0.0
11
3087.192863
21
1236.034485
31
0.0
0
ARC
8
0
10
3086.892863
20
1236.734485
30
0.0
40
0.300000
50
0.000000
51
90.000000
0
LINE
8
0
10
3085.692863
20
1237.034485
30
0.0
11
3086.892863
21
1237.034485
31
0.0
0
ARC
8
0
10
3085.692863
20
1237.334485
30
0.0
40
0.300000
50
180.000000
51
270.000000
0
LINE
8
0
10
3085.392863
20
1240.234485
30
0.0
11
3085.392863
21
1237.334485
31
0.0
0
ARC
8
0
10
3085.692863
20
1240.234485
30
0.0
40
0.300000
50
90.000000
51
180.000000
0
LINE
8
0
10
3102.042863
20
1240.534485
30
0.0
11
3085.692863
21
1240.534485
31
0.0
0
ARC
8
0
10
3102.042863
20
1240.234485
30
0.0
40
0.300000
50
0.000000
51
90.000000
0
LINE
8
0
10
3102.342863
20
1235.834485
30
0.0
11
3102.342863
21
1240.234485
31
0.0
0
ARC
8
0
10
3102.642863
20
1235.834485
30
0.0
40
0.300000
50
180.000000
51
270.000000
0
LINE
8
0
10
3103.592863
20
1235.534485
30
0.0
11
3102.642863
21
1235.534485
31
0.0
0
ARC
8
0
10
3103.592863
20
1235.834485
30
0.0
40
0.300000
50
270.000000
51
0.000000
0
LINE
8
0
10
3103.892863
20
1240.234485
30
0.0
11
3103.892863
21
1235.834485
31
0.0
0
ARC
8
0
10
3104.192863
20
1240.234485
30
0.0
40
0.300000
50
90.000000
51
180.000000
0
LINE
8
0
10
3127.792863
20
1240.534485
30
0.0
11
3104.192863
21
1240.534485
31
0.0
0
ARC
8
0
10
3127.792863
20
1240.234485
30
0.0
40
0.300000
50
0.000000
51
90.000000
0
LINE
8
0
10
3128.092863
20
1237.334485
30
0.0
11
3128.092863
21
1240.234485
31
0.0
0
ARC
8
0
10
3127.792863
20
1237.334485
30
0.0
40
0.300000
50
270.000000
51
0.000000
0
LINE
8
0
10
3126.392863
20
1237.034485
30
0.0
11
3127.792863
21
1237.034485
31
0.0
0
ARC
8
0
10
3126.392863
20
1236.734485
30
0.0
40
0.300000
50
90.000000
51
180.000000
0
LINE
8
0
10
3126.092863
20
1236.034485
30
0.0
11
3126.092863
21
1236.734485
31
0.0
0
ARC
8
0
10
3126.592863
20
1236.034485
30
0.0
40
0.500000
50
180.000000
51
270.000000
0
LINE
8
0
10
3129.092863
20
1235.534485
30
0.0
11
3126.592863
21
1235.534485
31
0.0
0
ARC
8
0
10
3129.092863
20
1236.034485
30
0.0
40
0.500000
50
270.000000
51
0.000000
0
LINE
8
0
10
3129.592863
20
1255.182759
30
0.0
11
3129.592863
21
1236.034485
31
0.0
0
LINE
8
0
10
3127.792863
20
1255.665068
30
0.0
11
3129.592863
21
1255.182759
31
0.0
0
LINE
8
0
10
3127.792863
20
1254.735148
30
0.0
11
3127.792863
21
1255.665068
31
0.0
0
LINE
8
0
10
3122.743174
20
1254.734167
30
0.0
11
3127.792863
21
1254.735148
31
0.0
0
LINE
8
0
10
3120.841600
20
1255.835075
30
0.0
11
3122.743174
21
1254.734167
31
0.0
0
LINE
8
0
10
3118.691812
20
1255.835075
30
0.0
11
3120.841600
21
1255.835075
31
0.0
0
ARC
8
0
10
3118.691812
20
1256.135075
30
0.0
40
0.300000
50
180.000000
51
270.000000
0
LINE
8
0
10
3118.391812
20
1258.385032
30
0.0
11
3118.391812
21
1256.135075
31
0.0
0
LINE
8
0
10
3120.841732
20
1258.385118
30
0.0
11
3118.391812
21
1258.385032
31
0.0
0
LINE
8
0
10
3120.841819
20
1258.134950
30
0.0
11
3120.841732
21
1258.385118
31
0.0
0
ARC
8
0
10
3121.141819
20
1258.135147
30
0.0
40
0.300000
50
180.037543
51
270.000000
0
LINE
8
0
10
3121.941812
20
1257.835147
30
0.0
11
3121.141819
21
1257.835147
31
0.0
0
ARC
8
0
10
3121.941812
20
1258.335147
30
0.0
40
0.500000
50
270.000000
51
0.000000
0
LINE
8
0
10
3122.441687
20
1259.685158
30
0.0
11
3122.441812
21
1258.335147
31
0.0
0
ARC
8
0
10
3122.141687
20
1259.685147
30
0.0
40
0.300000
50
0.002018
51
90.002018
0
LINE
8
0
10
3116.890679
20
1259.984962
30
0.0
11
3122.141676
21
1259.985147
31
0.0
0
LINE
8
0
10
3116.891384
20
1254.734485
30
0.0
11
3116.890679
21
1259.984962
31
0.0
0
LINE
8
0
10
3110.381442
20
1254.734485
30
0.0
11
3116.891384
21
1254.734485
31
0.0
0
ARC
8
0
10
3110.381442
20
1254.434485
30
0.0
40
0.300000
50
90.000000
51
217.464043
0
ARC
8
0
10
3108.793971
20
1253.217959
30
0.0
40
1.700000
50
14.967045
51
37.464043
0
ARC
8
0
10
3110.726121
20
1253.734485
30
0.0
40
0.300000
50
194.967045
51
270.000000
0
LINE
8
0
10
3113.692863
20
1253.434485
30
0.0
11
3110.726121
21
1253.434485
31
0.0
0
ARC
8
0
10
3113.692863
20
1252.934485
30
0.0
40
0.500000
50
0.000000
51
90.000000
0
LINE
8
0
10
3114.192863
20
1252.584485
30
0.0
11
3114.192863
21
1252.934485
31
0.0
0
ARC
8
0
10
3113.692863
20
1252.584485
30
0.0
40
0.500000
50
270.000000
51
0.000000
0
LINE
8
0
10
3109.983978
20
1252.084485
30
0.0
11
3113.692863
21
1252.084485
31
0.0
0
ARC
8
0
10
3109.983978
20
1252.384485
30
0.0
40
0.300000
50
242.204228
51
270.000000
0
ARC
8
0
10
3110.590196
20
1253.534485
30
0.0
40
1.600000
50
216.523595
51
242.204228
0
ARC
8
0
10
3107.697193
20
1251.391932
30
0.0
40
2.000000
50
36.523595
51
90.000000
0
LINE
8
0
10
3101.688532
20
1253.391932
30
0.0
11
3107.697193
21
1253.391932
31
0.0
0
ARC
8
0
10
3101.688532
20
1251.391932
30
0.0
40
2.000000
50
90.000000
51
143.476405
0
ARC
8
0
10
3098.795530
20
1253.534485
30
0.0
40
1.600000
50
297.795773
51
323.476405
0
ARC
8
0
10
3099.401748
20
1252.384485
30
0.0
40
0.300000
50
270.000000
51
297.795773
0
LINE
8
0
10
3095.693297
20
1252.084485
30
0.0
11
3099.401748
21
1252.084485
31
0.0
0
ARC
8
0
10
3095.693297
20
1252.584485
30
0.0
40
0.500000
50
180.000000
51
270.000000
0
LINE
8
0
10
3095.193297
20
1252.934485
30
0.0
11
3095.193297
21
1252.584485
31
0.0
0
ARC
8
0
10
3095.693297
20
1252.934485
30
0.0
40
0.500000
50
90.000000
51
180.000000
0
LINE
8
0
10
3098.659605
20
1253.434485
30
0.0
11
3095.693297
21
1253.434485
31
0.0
0
ARC
8
0
10
3098.659605
20
1253.734485
30
0.0
40
0.300000
50
270.000000
51
345.032955
0
ARC
8
0
10
3100.591754
20
1253.217959
30
0.0
40
1.700000
50
142.535957
51
165.032955
0
ARC
8
0
10
3099.004284
20
1254.434485
30
0.0
40
0.300000
50
322.535957
51
90.000000
0
LINE
8
0
10
3092.192863
20
1254.734485
30
0.0
11
3099.004284
21
1254.734485
31
0.0
0
ARC
8
0
10
3092.192863
20
1254.234485
30
0.0
40
0.500000
50
90.000000
51
180.000000
0
LINE
8
0
10
3091.692863
20
1252.855421
30
0.0
11
3091.692863
21
1254.234485
31
0.0
0
ARC
8
0
10
3091.192863
20
1252.855421
30
0.0
40
0.500000
50
270.000000
51
0.000000
0
LINE
8
0
10
3088.530948
20
1252.355421
30
0.0
11
3091.192863
21
1252.355421
31
0.0
0
LINE
8
0
10
3088.443080
20
1252.267553
30
0.0
11
3088.530948
21
1252.355421
31
0.0
0
ARC
8
0
10
3088.230948
20
1252.479685
30
0.0
40
0.300000
50
225.000000
51
315.000000
0
LINE
8
0
10
3087.930948
20
1252.355421
30
0.0
11
3088.018816
21
1252.267553
31
0.0
0
LINE
8
0
10
3085.192863
20
1252.355421
30
0.0
11
3087.930948
21
1252.355421
31
0.0
0
ARC
8
0
10
3085.192863
20
1252.855421
30
0.0
40
0.500000
50
180.000000
51
270.000000
0
ARC
8
0
10
3084.192863
20
1252.855421
30
0.0
40
0.500000
50
0.000000
51
90.000000
0
LINE
8
0
10
3083.081914
20
1253.355421
30
0.0
11
3084.192863
21
1253.355421
31
0.0
0
ARC
8
0
10
3083.081914
20
1252.855421
30
0.0
40
0.500000
50
90.000000
51
150.286532
0
ARC
8
0
10
3081.996271
20
1253.474999
30
0.0
40
0.750000
50
286.997055
51
330.286532
0
LINE
8
0
10
3082.215513
20
1252.757759
30
0.0
11
3081.797129
21
1252.552551
31
0.0
0
ARC
8
0
10
3080.678829
20
1254.210683
30
0.0
40
2.000000
50
231.805773
51
303.997055
0
ARC
8
0
10
3079.133006
20
1252.245885
30
0.0
40
0.500000
50
51.805773
51
91.623749
0
LINE
8
0
10
3079.118838
20
1252.745684
30
0.0
11
3078.462216
21
1252.727071
31
0.0
0
ARC
8
0
10
3078.465601
20
1252.427046
30
0.0
40
0.300000
50
91.133979
51
198.251415
0
LINE
8
0
10
3078.180694
20
1252.333090
30
0.0
11
3080.244981
21
1249.666649
31
0.0
0
ARC
8
0
10
3080.360128
20
1249.755793
30
0.0
40
0.145621
50
217.746080
51
2.000000
0
LINE
8
0
10
3080.505660
20
1249.760875
30
0.0
11
3080.500231
21
1249.916362
31
0.0
0
ARC
8
0
10
3080.700109
20
1249.923342
30
0.0
40
0.200000
50
128.823976
51
182.000000
0
LINE
8
0
10
3080.574723
20
1250.079157
30
0.0
11
3082.217892
21
1251.401432
31
0.0
0
ARC
8
0
10
3082.405971
20
1251.167709
30
0.0
40
0.300000
50
103.127121
51
128.823976
0
LINE
8
0
10
3082.337838
20
1251.459870
30
0.0
11
3082.692863
21
1251.555421
31
0.0
0
ARC
8
0
10
3082.692863
20
1251.255421
30
0.0
40
0.300000
50
270.000000
51
90.000000
0
LINE
8
0
10
3082.692863
20
1250.955421
30
0.0
11
3082.692863
21
1246.455421
31
0.0
0
ARC
8
0
10
3082.492863
20
1246.455421
30
0.0
40
0.200000
50
270.000000
51
0.000000
0
LINE
8
0
10
3082.492863
20
1246.255421
30
0.0
11
3082.424974
21
1246.255421
31
0.0
0
ARC
8
0
10
3082.424974
20
1246.555421
30
0.0
40
0.300000
50
238.619868
51
270.000000
0
LINE
8
0
10
3082.268760
20
1246.299301
30
0.0
11
3080.592767
21
1247.321534
31
0.0
0
ARC
8
0
10
3080.392863
20
1247.327724
30
0.0
40
0.200000
50
358.226373
51
180.000000
0
LINE
8
0
10
3080.192863
20
1247.327724
30
0.0
11
3080.192863
21
1246.252722
31
0.0
0
ARC
8
0
10
3081.192863
20
1246.252722
30
0.0
40
1.000000
50
180.000000
51
238.619868
0
LINE
8
0
10
3082.381230
20
1244.356577
30
0.0
11
3080.672149
21
1245.398991
31
0.0
0
ARC
8
0
10
3082.225016
20
1244.100457
30
0.0
40
0.300000
50
301.380132
51
58.619868
0
LINE
8
0
10
3081.672149
20
1243.411850
30
0.0
11
3082.381230
21
1243.844338
31
0.0
0
ARC
8
0
10
3082.192863
20
1242.558119
30
0.0
40
1.000000
50
121.380132
51
180.000000
0
LINE
8
0
10
3081.192863
20
1241.483117
30
0.0
11
3081.192863
21
1242.558119
31
0.0
0
ARC
8
0
10
3081.392863
20
1241.483117
30
0.0
40
0.200000
50
180.000000
51
1.773627
0
LINE
8
0
10
3083.268760
20
1242.511540
30
0.0
11
3081.592767
21
1241.489307
31
0.0
0
ARC
8
0
10
3083.424974
20
1242.255421
30
0.0
40
0.300000
50
90.000000
51
121.380132
0
LINE
8
0
10
3083.492863
20
1242.555421
30
0.0
11
3083.424974
21
1242.555421
31
0.0
0
ARC
8
0
10
3083.492863
20
1242.355421
30
0.0
40
0.200000
50
0.000000
51
90.000000
0
LINE
8
0
10
3083.692863
20
1237.855421
30
0.0
11
3083.692863
21
1242.355421
31
0.0
0
ARC
8
0
10
3083.692863
20
1237.555421
30
0.0
40
0.300000
50
270.000000
51
90.000000
0
LINE
8
0
10
3083.337838
20
1237.350972
30
0.0
11
3083.692863
21
1237.255421
31
0.0
0
ARC
8
0
10
3083.405971
20
1237.643132
30
0.0
40
0.300000
50
231.176024
51
256.872879
0
LINE
8
0
10
3081.574723
20
1238.731684
30
0.0
11
3083.217892
21
1237.409409
31
0.0
0
ARC
8
0
10
3081.700109
20
1238.887499
30
0.0
40
0.200000
50
178.000000
51
231.176024
0
LINE
8
0
10
3081.505660
20
1239.049966
30
0.0
11
3081.500231
21
1238.894479
31
0.0
0
ARC
8
0
10
3081.360128
20
1239.055048
30
0.0
40
0.145621
50
358.000000
51
142.253920
0
LINE
8
0
10
3079.180694
20
1236.477751
30
0.0
11
3081.244981
21
1239.144192
31
0.0
0
ARC
8
0
10
3079.465601
20
1236.383795
30
0.0
40
0.300000
50
161.748585
51
268.866021
0
LINE
8
0
10
3080.118838
20
1236.065157
30
0.0
11
3079.462216
21
1236.083770
31
0.0
0
ARC
8
0
10
3080.133006
20
1236.564956
30
0.0
40
0.500000
50
268.376251
51
308.194227
0
ARC
8
0
10
3081.678829
20
1234.600158
30
0.0
40
2.000000
50
56.002945
51
128.194227
0
LINE
8
0
10
3083.215513
20
1236.053082
30
0.0
11
3082.797129
21
1236.258291
31
0.0
0
ARC
8
0
10
3082.996271
20
1235.335842
30
0.0
40
0.750000
50
33.980777
51
73.002945
0
ATTDEF
8
0
10
0.000000
20
0.000000
30
0.0
40
3.5
1

3

2
PANE_WIDTH:0
70
0
0
ATTDEF
8
0
10
0.000000
20
0.000000
30
0.0
40
3.5
1

3

2
MIN_VETRO:0
70
0
0
ATTDEF
8
0
10
0.000000
20
0.000000
30
0.0
40
3.5
1

3

2
MAX_VETRO:0
70
0
0
ATTDEF
8
0
10
0.000000
20
0.000000
30
0.0
40
3.5
1

3

2
JX:0
70
0
0
ATTDEF
8
0
10
0.000000
20
0.000000
30
0.0
40
3.5
1

3

2
WX:0
70
0
0
ATTDEF
8
0
10
0.000000
20
0.000000
30
0.0
40
3.5
1

3

2
JY:0
70
0
0
ATTDEF
8
0
10
0.000000
20
0.000000
30
0.0
40
3.5
1

3

2
WY:0
70
0
0
ATTDEF
8
0
10
0.000000
20
0.000000
30
0.0
40
3.5
1

3

2
DESC:Marco p/hoja y fijo c/carril A.Inox
70
0
0
ATTDEF
8
0
10
0.000000
20
0.000000
30
0.0
40
3.5
1

3

2
DENS:1.7876
70
0
0
ATTDEF
8
0
10
0.000000
20
0.000000
30
0.0
40
3.5
1

3

2
TDEV:70.77
70
0
0
ATTDEF
8
0
10
0.000000
20
0.000000
30
0.0
40
3.5
1

3

2
TDEV2:0
70
0
0
ATTDEF
8
0
10
0.000000
20
0.000000
30
0.0
40
3.5
1

3

2
TDEV3:0
70
0
0
ATTDEF
8
0
10
0.000000
20
0.000000
30
0.0
40
3.5
1

3

2
TDEV4:0
70
0
0
ATTDEF
8
0
10
0.000000
20
0.000000
30
0.0
40
3.5
1

3

2
TDEV5:0
70
0
0
ATTDEF
8
0
10
0.000000
20
0.000000
30
0.0
40
3.5
1

3

2
PANE_WIDTH:0
70
0
0
ATTDEF
8
0
10
0.000000
20
0.000000
30
0.0
40
3.5
1

3

2
MIN_VETRO:0
70
0
0
ATTDEF
8
0
10
0.000000
20
0.000000
30
0.0
40
3.5
1

3

2
MAX_VETRO:0
70
0
0
ATTDEF
8
0
10
0.000000
20
0.000000
30
0.0
40
3.5
1

3

2
JX:0
70
0
0
ATTDEF
8
0
10
0.000000
20
0.000000
30
0.0
40
3.5
1

3

2
WX:0
70
0
0
ATTDEF
8
0
10
0.000000
20
0.000000
30
0.0
40
3.5
1

3

2
JY:0
70
0
0
ATTDEF
8
0
10
0.000000
20
0.000000
30
0.0
40
3.5
1

3

2
WY:0
70
0
0
ENDSEC
0
EOF
