0
SECTION
2
ENTITIES
0
LINE
8
00_POLIAMIDAS
10
3044.566608
20
1223.394829
30
0.0
11
3045.264278
21
1224.092499
31
0.0
0
LINE
8
00_POLIAMIDAS
10
3044.666608
20
1221.249765
30
0.0
11
3044.905132
21
1221.488289
31
0.0
0
LINE
8
00_POLIAMIDAS
10
3045.793820
20
1222.376977
30
0.0
11
3046.687019
21
1223.270176
31
0.0
0
LINE
8
00_POLIAMIDAS
10
3046.049851
20
1220.387943
30
0.0
11
3051.775196
21
1226.113289
31
0.0
0
LINE
8
00_POLIAMIDAS
10
3052.020260
20
1224.113289
30
0.0
11
3054.020260
21
1226.113289
31
0.0
0
LINE
8
00_POLIAMIDAS
10
3054.265324
20
1224.113289
30
0.0
11
3056.265324
21
1226.113289
31
0.0
0
LINE
8
00_POLIAMIDAS
10
3056.510388
20
1224.113289
30
0.0
11
3058.510388
21
1226.113289
31
0.0
0
LINE
8
00_POLIAMIDAS
10
3058.755452
20
1224.113289
30
0.0
11
3060.755452
21
1226.113289
31
0.0
0
LINE
8
00_POLIAMIDAS
10
3061.000516
20
1224.113289
30
0.0
11
3063.000516
21
1226.113289
31
0.0
0
LINE
8
00_POLIAMIDAS
10
3062.847866
20
1223.715574
30
0.0
11
3064.287865
21
1225.155574
31
0.0
0
LINE
8
00_POLIAMIDAS
10
3049.050391
20
1207.673035
30
0.0
11
3050.105307
21
1208.727952
31
0.0
0
LINE
8
00_POLIAMIDAS
10
3063.738289
20
1222.360934
30
0.0
11
3065.179770
21
1223.802415
31
0.0
0
LINE
8
00_POLIAMIDAS
10
3048.733010
20
1205.110590
30
0.0
11
3051.657727
21
1208.035307
31
0.0
0
LINE
8
00_POLIAMIDAS
10
3064.691414
20
1221.068994
30
0.0
11
3067.504701
21
1223.882282
31
0.0
0
LINE
8
00_POLIAMIDAS
10
3051.972322
20
1206.104838
30
0.0
11
3053.278597
21
1207.411113
31
0.0
0
LINE
8
00_POLIAMIDAS
10
3066.558781
20
1220.691297
30
0.0
11
3067.425641
21
1221.558157
31
0.0
0
LINE
8
00_POLIAMIDAS
10
3052.835706
20
1204.723158
30
0.0
11
3054.141955
21
1206.029407
31
0.0
0
LINE
8
00_POLIAMIDAS
10
3068.025836
20
1219.913289
30
0.0
11
3068.566608
21
1220.454061
31
0.0
0
LINE
8
00_POLIAMIDAS
10
3053.699091
20
1203.341479
30
0.0
11
3055.024250
21
1204.666639
31
0.0
0
LINE
8
00_POLIAMIDAS
10
3055.387954
20
1202.785278
30
0.0
11
3057.187964
21
1204.585288
31
0.0
0
LINE
8
00_POLIAMIDAS
10
3059.589509
20
1206.986833
30
0.0
11
3060.622243
21
1208.019568
31
0.0
0
LINE
8
00_POLIAMIDAS
10
3057.633018
20
1202.785278
30
0.0
11
3064.083056
21
1209.235317
31
0.0
0
LINE
8
00_POLIAMIDAS
10
3062.779105
20
1205.686302
30
0.0
11
3063.651330
21
1206.558526
31
0.0
0
LINE
8
00_POLIAMIDAS
10
3049.152719
20
1205.035291
30
0.0
11
3048.566608
21
1205.621401
31
0.0
0
LINE
8
00_POLIAMIDAS
10
3050.603050
20
1205.830024
30
0.0
11
3049.731330
21
1206.701743
31
0.0
0
LINE
8
00_POLIAMIDAS
10
3055.892859
20
1202.785278
30
0.0
11
3049.738293
21
1208.939845
31
0.0
0
LINE
8
00_POLIAMIDAS
10
3058.137923
20
1202.785278
30
0.0
11
3056.337913
21
1204.585288
31
0.0
0
LINE
8
00_POLIAMIDAS
10
3059.585132
20
1203.583134
30
0.0
11
3058.278904
21
1204.889362
31
0.0
0
LINE
8
00_POLIAMIDAS
10
3060.448516
20
1204.964814
30
0.0
11
3059.142263
21
1206.271067
31
0.0
0
LINE
8
00_POLIAMIDAS
10
3045.400747
20
1220.012583
30
0.0
11
3044.566608
21
1220.846722
31
0.0
0
LINE
8
00_POLIAMIDAS
10
3061.423094
20
1206.235300
30
0.0
11
3060.009409
21
1207.648985
31
0.0
0
LINE
8
00_POLIAMIDAS
10
3045.089676
20
1222.568718
30
0.0
11
3044.666608
21
1222.991786
31
0.0
0
LINE
8
00_POLIAMIDAS
10
3046.824832
20
1220.833562
30
0.0
11
3045.872038
21
1221.786356
31
0.0
0
LINE
8
00_POLIAMIDAS
10
3064.556690
20
1205.346768
30
0.0
11
3061.836532
21
1208.066926
31
0.0
0
LINE
8
00_POLIAMIDAS
10
3048.653898
20
1221.249560
30
0.0
11
3046.559597
21
1223.343861
31
0.0
0
LINE
8
00_POLIAMIDAS
10
3064.418474
20
1207.730048
30
0.0
11
3063.276848
21
1208.871674
31
0.0
0
LINE
8
00_POLIAMIDAS
10
3049.550385
20
1222.598137
30
0.0
11
3048.109440
21
1224.039082
31
0.0
0
LINE
8
00_POLIAMIDAS
10
3050.481728
20
1223.911858
30
0.0
11
3049.001345
21
1225.392241
31
0.0
0
LINE
8
00_POLIAMIDAS
10
3052.525361
20
1224.113289
30
0.0
11
3050.525361
21
1226.113289
31
0.0
0
LINE
8
00_POLIAMIDAS
10
3054.770425
20
1224.113289
30
0.0
11
3052.770425
21
1226.113289
31
0.0
0
LINE
8
00_POLIAMIDAS
10
3057.015489
20
1224.113289
30
0.0
11
3055.015489
21
1226.113289
31
0.0
0
LINE
8
00_POLIAMIDAS
10
3059.260553
20
1224.113289
30
0.0
11
3057.260553
21
1226.113289
31
0.0
0
LINE
8
00_POLIAMIDAS
10
3061.505617
20
1224.113289
30
0.0
11
3059.505617
21
1226.113289
31
0.0
0
LINE
8
00_POLIAMIDAS
10
3067.950553
20
1219.913418
30
0.0
11
3061.750681
21
1226.113289
31
0.0
0
LINE
8
00_POLIAMIDAS
10
3067.555527
20
1222.553508
30
0.0
11
3066.694989
21
1223.414045
31
0.0
0
LINE
8
00_POLIAMIDAS
10
3068.557927
20
1223.796171
30
0.0
11
3068.249491
21
1224.104608
31
0.0
0
ARC
8
00_POLIAMIDAS
10
3063.387330
20
1225.613289
30
0.0
40
0.500000
50
33.390000
51
90.000000
0
LINE
8
00_POLIAMIDAS
10
3063.387330
20
1226.113289
30
0.0
11
3056.566608
21
1226.113289
31
0.0
0
LINE
8
00_POLIAMIDAS
10
3056.566608
20
1226.113289
30
0.0
11
3049.745887
21
1226.113289
31
0.0
0
ARC
8
00_POLIAMIDAS
10
3049.745887
20
1225.613289
30
0.0
40
0.500000
50
90.000000
51
146.610000
0
LINE
8
00_POLIAMIDAS
10
3049.328415
20
1225.888456
30
0.0
11
3047.697911
21
1223.414729
31
0.0
0
ARC
8
00_POLIAMIDAS
10
3047.138194
20
1223.783654
30
0.0
40
0.670365
50
239.960294
51
326.610000
0
LINE
8
00_POLIAMIDAS
10
3046.802609
20
1223.203333
30
0.0
11
3045.271459
21
1224.088759
31
0.0
0
LINE
8
00_POLIAMIDAS
10
3045.271459
20
1224.088759
30
0.0
11
3045.175488
21
1224.113289
31
0.0
0
LINE
8
00_POLIAMIDAS
10
3045.175488
20
1224.113289
30
0.0
11
3044.966608
21
1224.113289
31
0.0
0
ARC
8
00_POLIAMIDAS
10
3044.966608
20
1223.713289
30
0.0
40
0.400000
50
90.000000
51
180.000000
0
LINE
8
00_POLIAMIDAS
10
3044.566608
20
1223.713289
30
0.0
11
3044.566608
21
1223.113289
31
0.0
0
LINE
8
00_POLIAMIDAS
10
3044.566608
20
1223.113289
30
0.0
11
3044.666608
21
1223.113289
31
0.0
0
LINE
8
00_POLIAMIDAS
10
3044.666608
20
1223.113289
30
0.0
11
3044.666608
21
1222.738289
31
0.0
0
ARC
8
00_POLIAMIDAS
10
3044.866608
20
1222.738289
30
0.0
40
0.200000
50
180.000000
51
270.000000
0
LINE
8
00_POLIAMIDAS
10
3044.866608
20
1222.538289
30
0.0
11
3045.026135
21
1222.538289
31
0.0
0
ARC
8
00_POLIAMIDAS
10
3045.316608
20
1222.013289
30
0.0
40
0.600000
50
0.000000
51
118.955024
0
ARC
8
00_POLIAMIDAS
10
3045.316608
20
1222.013289
30
0.0
40
0.600000
50
241.044976
51
0.000000
0
LINE
8
00_POLIAMIDAS
10
3045.026135
20
1221.488289
30
0.0
11
3044.866608
21
1221.488289
31
0.0
0
ARC
8
00_POLIAMIDAS
10
3044.866608
20
1221.288289
30
0.0
40
0.200000
50
90.000000
51
180.000000
0
LINE
8
00_POLIAMIDAS
10
3044.666608
20
1221.288289
30
0.0
11
3044.666608
21
1220.913289
31
0.0
0
LINE
8
00_POLIAMIDAS
10
3044.666608
20
1220.913289
30
0.0
11
3044.566608
21
1220.913289
31
0.0
0
LINE
8
00_POLIAMIDAS
10
3044.566608
20
1220.913289
30
0.0
11
3044.566608
21
1220.313289
31
0.0
0
ARC
8
00_POLIAMIDAS
10
3044.966608
20
1220.313289
30
0.0
40
0.400000
50
180.000000
51
270.000000
0
LINE
8
00_POLIAMIDAS
10
3044.966608
20
1219.913289
30
0.0
11
3045.175488
21
1219.913289
31
0.0
0
LINE
8
00_POLIAMIDAS
10
3045.175488
20
1219.913289
30
0.0
11
3045.271459
21
1219.937819
31
0.0
0
LINE
8
00_POLIAMIDAS
10
3045.271459
20
1219.937819
30
0.0
11
3046.772498
21
1220.805832
31
0.0
0
ARC
8
00_POLIAMIDAS
10
3047.172978
20
1220.113289
30
0.0
40
0.800000
50
90.000000
51
120.039706
0
LINE
8
00_POLIAMIDAS
10
3047.172978
20
1220.913289
30
0.0
11
3047.905924
21
1220.913289
31
0.0
0
ARC
8
00_POLIAMIDAS
10
3047.905924
20
1221.913289
30
0.0
40
1.000000
50
270.000000
51
326.760000
0
LINE
8
00_POLIAMIDAS
10
3048.742306
20
1221.365141
30
0.0
11
3050.247250
21
1223.661436
31
0.0
0
ARC
8
00_POLIAMIDAS
10
3051.083631
20
1223.113289
30
0.0
40
1.000000
50
90.000000
51
146.760000
0
LINE
8
00_POLIAMIDAS
10
3051.083631
20
1224.113289
30
0.0
11
3056.566608
21
1224.113289
31
0.0
0
LINE
8
00_POLIAMIDAS
10
3056.566608
20
1224.113289
30
0.0
11
3061.899025
21
1224.113289
31
0.0
0
LINE
8
00_POLIAMIDAS
10
3061.899025
20
1224.113289
30
0.0
11
3062.049585
21
1224.113289
31
0.0
0
ARC
8
00_POLIAMIDAS
10
3062.049585
20
1223.113289
30
0.0
40
1.000000
50
33.240000
51
90.000000
0
LINE
8
00_POLIAMIDAS
10
3062.885967
20
1223.661436
30
0.0
11
3064.390911
21
1221.365141
31
0.0
0
ARC
8
00_POLIAMIDAS
10
3065.227293
20
1221.913289
30
0.0
40
1.000000
50
213.240000
51
270.000000
0
LINE
8
00_POLIAMIDAS
10
3065.227293
20
1220.913289
30
0.0
11
3065.960239
21
1220.913289
31
0.0
0
ARC
8
00_POLIAMIDAS
10
3065.960239
20
1220.113289
30
0.0
40
0.800000
50
59.960294
51
90.000000
0
LINE
8
00_POLIAMIDAS
10
3066.360719
20
1220.805832
30
0.0
11
3067.861758
21
1219.937819
31
0.0
0
LINE
8
00_POLIAMIDAS
10
3067.861758
20
1219.937819
30
0.0
11
3067.957729
21
1219.913289
31
0.0
0
LINE
8
00_POLIAMIDAS
10
3067.957729
20
1219.913289
30
0.0
11
3068.166608
21
1219.913289
31
0.0
0
ARC
8
00_POLIAMIDAS
10
3068.166608
20
1220.313289
30
0.0
40
0.400000
50
270.000000
51
0.000000
0
LINE
8
00_POLIAMIDAS
10
3068.566608
20
1220.313289
30
0.0
11
3068.566608
21
1220.913289
31
0.0
0
LINE
8
00_POLIAMIDAS
10
3068.566608
20
1220.913289
30
0.0
11
3068.466608
21
1220.913289
31
0.0
0
LINE
8
00_POLIAMIDAS
10
3068.466608
20
1220.913289
30
0.0
11
3068.466608
21
1221.288289
31
0.0
0
ARC
8
00_POLIAMIDAS
10
3068.266608
20
1221.288289
30
0.0
40
0.200000
50
0.000000
51
90.000000
0
LINE
8
00_POLIAMIDAS
10
3068.266608
20
1221.488289
30
0.0
11
3068.107082
21
1221.488289
31
0.0
0
ARC
8
00_POLIAMIDAS
10
3067.816608
20
1222.013289
30
0.0
40
0.600000
50
180.000000
51
298.955024
0
ARC
8
00_POLIAMIDAS
10
3067.816608
20
1222.013289
30
0.0
40
0.600000
50
61.044976
51
180.000000
0
LINE
8
00_POLIAMIDAS
10
3068.107082
20
1222.538289
30
0.0
11
3068.266608
21
1222.538289
31
0.0
0
ARC
8
00_POLIAMIDAS
10
3068.266608
20
1222.738289
30
0.0
40
0.200000
50
270.000000
51
0.000000
0
LINE
8
00_POLIAMIDAS
10
3068.466608
20
1222.738289
30
0.0
11
3068.466608
21
1223.113289
31
0.0
0
LINE
8
00_POLIAMIDAS
10
3068.466608
20
1223.113289
30
0.0
11
3068.566608
21
1223.113289
31
0.0
0
LINE
8
00_POLIAMIDAS
10
3068.566608
20
1223.113289
30
0.0
11
3068.566608
21
1223.713289
31
0.0
0
ARC
8
00_POLIAMIDAS
10
3068.166608
20
1223.713289
30
0.0
40
0.400000
50
0.000000
51
90.000000
0
LINE
8
00_POLIAMIDAS
10
3068.166608
20
1224.113289
30
0.0
11
3067.957729
21
1224.113289
31
0.0
0
LINE
8
00_POLIAMIDAS
10
3067.957729
20
1224.113289
30
0.0
11
3067.861758
21
1224.088759
31
0.0
0
LINE
8
00_POLIAMIDAS
10
3067.861758
20
1224.088759
30
0.0
11
3066.330608
21
1223.203333
31
0.0
0
ARC
8
00_POLIAMIDAS
10
3065.995023
20
1223.783654
30
0.0
40
0.670365
50
213.390000
51
300.039706
0
LINE
8
00_POLIAMIDAS
10
3065.435305
20
1223.414729
30
0.0
11
3063.804802
21
1225.888456
31
0.0
0
LINE
8
00_POLIAMIDAS
10
3056.566608
20
1202.785278
30
0.0
11
3058.864845
21
1202.785278
31
0.0
0
ARC
8
00_POLIAMIDAS
10
3058.864845
20
1203.185281
30
0.0
40
0.400002
50
270.000000
51
327.999547
0
LINE
8
00_POLIAMIDAS
10
3059.204064
20
1202.973309
30
0.0
11
3061.183670
21
1206.141285
31
0.0
0
ARC
8
00_POLIAMIDAS
10
3061.353280
20
1206.035299
30
0.0
40
0.200001
50
90.000000
51
147.999547
0
LINE
8
00_POLIAMIDAS
10
3061.353280
20
1206.235300
30
0.0
11
3061.613842
21
1206.235300
31
0.0
0
ARC
8
00_POLIAMIDAS
10
3061.613842
20
1205.435295
30
0.0
40
0.800005
50
60.000304
51
90.000000
0
LINE
8
00_POLIAMIDAS
10
3062.013841
20
1206.128122
30
0.0
11
3063.860292
21
1205.062086
31
0.0
0
ARC
8
00_POLIAMIDAS
10
3063.960292
20
1205.235292
30
0.0
40
0.200001
50
240.000304
51
270.000000
0
LINE
8
00_POLIAMIDAS
10
3063.960292
20
1205.035291
30
0.0
11
3064.166606
21
1205.035291
31
0.0
0
ARC
8
00_POLIAMIDAS
10
3064.166606
20
1205.435294
30
0.0
40
0.400002
50
270.000000
51
0.000000
0
LINE
8
00_POLIAMIDAS
10
3064.566608
20
1205.435294
30
0.0
11
3064.566608
21
1206.035299
31
0.0
0
LINE
8
00_POLIAMIDAS
10
3064.566608
20
1206.035299
30
0.0
11
3064.466710
21
1206.035299
31
0.0
0
LINE
8
00_POLIAMIDAS
10
3064.466710
20
1206.035299
30
0.0
11
3064.466710
21
1206.410300
31
0.0
0
ARC
8
00_POLIAMIDAS
10
3064.266709
20
1206.410300
30
0.0
40
0.200001
50
0.000000
51
90.000000
0
LINE
8
00_POLIAMIDAS
10
3064.266709
20
1206.610301
30
0.0
11
3064.107127
21
1206.610301
31
0.0
0
ARC
8
00_POLIAMIDAS
10
3063.816651
20
1207.135304
30
0.0
40
0.600004
50
180.000000
51
298.955054
0
ARC
8
00_POLIAMIDAS
10
3063.816651
20
1207.135304
30
0.0
40
0.600004
50
61.044946
51
180.000000
0
LINE
8
00_POLIAMIDAS
10
3064.107127
20
1207.660307
30
0.0
11
3064.266709
21
1207.660307
31
0.0
0
ARC
8
00_POLIAMIDAS
10
3064.266709
20
1207.860308
30
0.0
40
0.200001
50
270.000000
51
0.000000
0
LINE
8
00_POLIAMIDAS
10
3064.466710
20
1207.860308
30
0.0
11
3064.466710
21
1208.235309
31
0.0
0
LINE
8
00_POLIAMIDAS
10
3064.466710
20
1208.235309
30
0.0
11
3064.566608
21
1208.235309
31
0.0
0
LINE
8
00_POLIAMIDAS
10
3064.566608
20
1208.235309
30
0.0
11
3064.566608
21
1208.835314
31
0.0
0
ARC
8
00_POLIAMIDAS
10
3064.166606
20
1208.835314
30
0.0
40
0.400002
50
0.000000
51
90.000000
0
LINE
8
00_POLIAMIDAS
10
3064.166606
20
1209.235317
30
0.0
11
3063.960292
21
1209.235317
31
0.0
0
ARC
8
00_POLIAMIDAS
10
3063.960292
20
1209.035316
30
0.0
40
0.200001
50
90.000000
51
119.999696
0
LINE
8
00_POLIAMIDAS
10
3063.860292
20
1209.208522
30
0.0
11
3062.013840
21
1208.142486
31
0.0
0
ARC
8
00_POLIAMIDAS
10
3061.613841
20
1208.835312
30
0.0
40
0.800005
50
270.000000
51
299.999696
0
LINE
8
00_POLIAMIDAS
10
3061.613841
20
1208.035307
30
0.0
11
3060.798969
21
1208.035307
31
0.0
0
ARC
8
00_POLIAMIDAS
10
3060.798969
20
1207.035302
30
0.0
40
1.000006
50
90.000000
51
148.000809
0
LINE
8
00_POLIAMIDAS
10
3059.950909
20
1207.565212
30
0.0
11
3058.206400
21
1204.773327
31
0.0
0
ARC
8
00_POLIAMIDAS
10
3057.867176
20
1204.985291
30
0.0
40
0.400002
50
270.000000
51
328.000809
0
LINE
8
00_POLIAMIDAS
10
3057.867176
20
1204.585288
30
0.0
11
3056.566608
21
1204.585288
31
0.0
0
LINE
8
00_POLIAMIDAS
10
3056.566608
20
1204.585288
30
0.0
11
3055.266041
21
1204.585288
31
0.0
0
ARC
8
00_POLIAMIDAS
10
3055.266041
20
1204.985291
30
0.0
40
0.400002
50
211.999191
51
270.000000
0
LINE
8
00_POLIAMIDAS
10
3054.926817
20
1204.773327
30
0.0
11
3053.182308
21
1207.565212
31
0.0
0
ARC
8
00_POLIAMIDAS
10
3052.334248
20
1207.035302
30
0.0
40
1.000006
50
31.999191
51
90.000000
0
LINE
8
00_POLIAMIDAS
10
3052.334248
20
1208.035307
30
0.0
11
3051.519376
21
1208.035307
31
0.0
0
ARC
8
00_POLIAMIDAS
10
3051.519376
20
1208.835312
30
0.0
40
0.800005
50
240.000304
51
270.000000
0
LINE
8
00_POLIAMIDAS
10
3051.119377
20
1208.142486
30
0.0
11
3049.272925
21
1209.208522
31
0.0
0
ARC
8
00_POLIAMIDAS
10
3049.172925
20
1209.035316
30
0.0
40
0.200001
50
60.000304
51
90.000000
0
LINE
8
00_POLIAMIDAS
10
3049.172925
20
1209.235317
30
0.0
11
3048.966611
21
1209.235317
31
0.0
0
ARC
8
00_POLIAMIDAS
10
3048.966611
20
1208.835314
30
0.0
40
0.400002
50
90.000000
51
180.000000
0
LINE
8
00_POLIAMIDAS
10
3048.566608
20
1208.835314
30
0.0
11
3048.566608
21
1208.235309
31
0.0
0
LINE
8
00_POLIAMIDAS
10
3048.566608
20
1208.235309
30
0.0
11
3048.666506
21
1208.235309
31
0.0
0
LINE
8
00_POLIAMIDAS
10
3048.666506
20
1208.235309
30
0.0
11
3048.666506
21
1207.860308
31
0.0
0
ARC
8
00_POLIAMIDAS
10
3048.866508
20
1207.860308
30
0.0
40
0.200001
50
180.000000
51
270.000000
0
LINE
8
00_POLIAMIDAS
10
3048.866508
20
1207.660307
30
0.0
11
3049.026090
21
1207.660307
31
0.0
0
ARC
8
00_POLIAMIDAS
10
3049.316566
20
1207.135304
30
0.0
40
0.600004
50
0.000000
51
118.955054
0
ARC
8
00_POLIAMIDAS
10
3049.316566
20
1207.135304
30
0.0
40
0.600004
50
241.044946
51
0.000000
0
LINE
8
00_POLIAMIDAS
10
3049.026090
20
1206.610301
30
0.0
11
3048.866508
21
1206.610301
31
0.0
0
ARC
8
00_POLIAMIDAS
10
3048.866508
20
1206.410300
30
0.0
40
0.200001
50
90.000000
51
180.000000
0
LINE
8
00_POLIAMIDAS
10
3048.666506
20
1206.410300
30
0.0
11
3048.666506
21
1206.035299
31
0.0
0
LINE
8
00_POLIAMIDAS
10
3048.666506
20
1206.035299
30
0.0
11
3048.566608
21
1206.035299
31
0.0
0
LINE
8
00_POLIAMIDAS
10
3048.566608
20
1206.035299
30
0.0
11
3048.566608
21
1205.435294
31
0.0
0
ARC
8
00_POLIAMIDAS
10
3048.966611
20
1205.435294
30
0.0
40
0.400002
50
180.000000
51
270.000000
0
LINE
8
00_POLIAMIDAS
10
3048.966611
20
1205.035291
30
0.0
11
3049.172925
21
1205.035291
31
0.0
0
ARC
8
00_POLIAMIDAS
10
3049.172925
20
1205.235292
30
0.0
40
0.200001
50
270.000000
51
299.999696
0
LINE
8
00_POLIAMIDAS
10
3049.272925
20
1205.062086
30
0.0
11
3051.119376
21
1206.128122
31
0.0
0
ARC
8
00_POLIAMIDAS
10
3051.519375
20
1205.435295
30
0.0
40
0.800005
50
90.000000
51
119.999696
0
LINE
8
00_POLIAMIDAS
10
3051.519375
20
1206.235300
30
0.0
11
3051.779937
21
1206.235300
31
0.0
0
ARC
8
00_POLIAMIDAS
10
3051.779937
20
1206.035299
30
0.0
40
0.200001
50
32.000453
51
90.000000
0
LINE
8
00_POLIAMIDAS
10
3051.949547
20
1206.141285
30
0.0
11
3053.929152
21
1202.973309
31
0.0
0
ARC
8
00_POLIAMIDAS
10
3054.268372
20
1203.185281
30
0.0
40
0.400002
50
212.000453
51
270.000000
0
LINE
8
00_POLIAMIDAS
10
3054.268372
20
1202.785278
30
0.0
11
3056.566608
21
1202.785278
31
0.0
0
LINE
8
00_ALUMINIO
10
3067.187322
20
1211.265528
30
0.0
11
3066.306252
21
1210.728140
31
0.0
0
ARC
8
00_ALUMINIO
10
3066.566608
20
1210.301274
30
0.0
40
0.500000
50
121.380132
51
180.000000
0
LINE
8
00_ALUMINIO
10
3066.066608
20
1210.301274
30
0.0
11
3066.066608
21
1202.434160
31
0.0
0
ARC
8
00_ALUMINIO
10
3066.566608
20
1202.434160
30
0.0
40
0.500000
50
180.000000
51
270.000000
0
LINE
8
00_ALUMINIO
10
3066.566608
20
1201.934160
30
0.0
11
3067.166608
21
1201.934160
31
0.0
0
ARC
8
00_ALUMINIO
10
3067.166608
20
1200.934160
30
0.0
40
1.000000
50
0.000000
51
90.000000
0
LINE
8
00_ALUMINIO
10
3068.166608
20
1200.934160
30
0.0
11
3068.166608
21
1198.534160
31
0.0
0
ARC
8
00_ALUMINIO
10
3068.666608
20
1198.534160
30
0.0
40
0.500000
50
180.000000
51
270.000000
0
LINE
8
00_ALUMINIO
10
3068.666608
20
1198.034160
30
0.0
11
3072.766608
21
1198.034160
31
0.0
0
ARC
8
00_ALUMINIO
10
3072.766608
20
1198.534160
30
0.0
40
0.500000
50
270.000000
51
0.000000
0
LINE
8
00_ALUMINIO
10
3073.266608
20
1198.534160
30
0.0
11
3073.266608
21
1223.634160
31
0.0
0
ARC
8
00_ALUMINIO
10
3072.766608
20
1223.634160
30
0.0
40
0.500000
50
0.000000
51
90.000000
0
LINE
8
00_ALUMINIO
10
3072.766608
20
1224.134160
30
0.0
11
3070.566608
21
1224.134160
31
0.0
0
ARC
8
00_ALUMINIO
10
3070.566608
20
1223.634160
30
0.0
40
0.500000
50
90.000000
51
180.000000
0
LINE
8
00_ALUMINIO
10
3070.066608
20
1223.634160
30
0.0
11
3070.066608
21
1218.752294
31
0.0
0
ARC
8
00_ALUMINIO
10
3069.066608
20
1218.752294
30
0.0
40
1.000000
50
270.000000
51
0.000000
0
LINE
8
00_ALUMINIO
10
3069.066608
20
1217.752294
30
0.0
11
3068.166608
21
1217.752294
31
0.0
0
ARC
8
00_ALUMINIO
10
3068.166608
20
1217.252294
30
0.0
40
0.500000
50
90.000000
51
180.000000
0
LINE
8
00_ALUMINIO
10
3067.666608
20
1217.252294
30
0.0
11
3067.666608
21
1212.119259
31
0.0
0
ARC
8
00_ALUMINIO
10
3066.666608
20
1212.119259
30
0.0
40
1.000000
50
301.380132
51
0.000000
0
ARC
8
00_ALUMINIO
10
3064.566608
20
1213.334160
30
0.0
40
2.700000
50
71.790043
51
136.863441
0
ARC
8
00_ALUMINIO
10
3065.566608
20
1216.373897
30
0.0
40
0.500000
50
251.790043
51
0.000000
0
LINE
8
00_ALUMINIO
10
3066.066608
20
1216.373897
30
0.0
11
3066.066608
21
1220.624597
31
0.0
0
ARC
8
00_ALUMINIO
10
3066.266608
20
1220.624597
30
0.0
40
0.200000
50
358.226373
51
180.000000
0
LINE
8
00_ALUMINIO
10
3066.466513
20
1220.618407
30
0.0
11
3068.142506
21
1219.596174
31
0.0
0
ARC
8
00_ALUMINIO
10
3068.298720
20
1219.852294
30
0.0
40
0.300000
50
238.619868
51
270.000000
0
LINE
8
00_ALUMINIO
10
3068.298720
20
1219.552294
30
0.0
11
3068.366608
21
1219.552294
31
0.0
0
ARC
8
00_ALUMINIO
10
3068.366608
20
1219.752294
30
0.0
40
0.200000
50
270.000000
51
0.000000
0
LINE
8
00_ALUMINIO
10
3068.566608
20
1219.752294
30
0.0
11
3068.566608
21
1224.252294
31
0.0
0
ARC
8
00_ALUMINIO
10
3068.566608
20
1224.552294
30
0.0
40
0.300000
50
270.000000
51
108.658900
0
LINE
8
00_ALUMINIO
10
3068.470628
20
1224.836526
30
0.0
11
3068.186396
21
1224.740546
31
0.0
0
ARC
8
00_ALUMINIO
10
3068.282376
20
1224.456314
30
0.0
40
0.300000
50
108.658900
51
130.482877
0
LINE
8
00_ALUMINIO
10
3068.087610
20
1224.684494
30
0.0
11
3066.483408
21
1223.315205
31
0.0
0
ARC
8
00_ALUMINIO
10
3066.613252
20
1223.163085
30
0.0
40
0.200000
50
130.482877
51
183.658900
0
LINE
8
00_ALUMINIO
10
3066.413660
20
1223.150321
30
0.0
11
3066.423589
21
1222.995057
31
0.0
0
ARC
8
00_ALUMINIO
10
3066.278265
20
1222.985764
30
0.0
40
0.145621
50
223.978161
51
3.658900
0
LINE
8
00_ALUMINIO
10
3066.173475
20
1222.884647
30
0.0
11
3065.713308
21
1223.361528
31
0.0
0
LINE
8
00_ALUMINIO
10
3065.670694
20
1223.417592
30
0.0
11
3065.713308
21
1223.361528
31
0.0
0
LINE
8
00_ALUMINIO
10
3065.670694
20
1223.417592
30
0.0
11
3064.246990
21
1225.834791
31
0.0
0
ARC
8
00_ALUMINIO
10
3064.505485
20
1225.987042
30
0.0
40
0.300000
50
90.000000
51
210.497622
0
LINE
8
00_ALUMINIO
10
3064.505485
20
1226.287042
30
0.0
11
3065.194282
21
1226.287042
31
0.0
0
ARC
8
00_ALUMINIO
10
3065.194282
20
1225.787042
30
0.0
40
0.500000
50
46.465725
51
90.000000
0
ARC
8
00_ALUMINIO
10
3066.916253
20
1227.599448
30
0.0
40
2.000000
50
226.465725
51
316.077973
0
LINE
8
00_ALUMINIO
10
3068.356822
20
1226.212090
30
0.0
11
3068.399253
21
1226.260095
31
0.0
0
ARC
8
00_ALUMINIO
10
3068.554625
20
1226.134160
30
0.0
40
0.200000
50
90.000000
51
140.973978
0
LINE
8
00_ALUMINIO
10
3068.554625
20
1226.334160
30
0.0
11
3072.166608
21
1226.334160
31
0.0
0
ARC
8
00_ALUMINIO
10
3072.166608
20
1227.334160
30
0.0
40
1.000000
50
270.000000
51
0.000000
0
LINE
8
00_ALUMINIO
10
3073.166608
20
1227.334160
30
0.0
11
3073.166608
21
1236.456796
31
0.0
0
LINE
8
00_ALUMINIO
10
3073.179261
20
1236.543000
30
0.0
11
3073.166608
21
1236.456796
31
0.0
0
LINE
8
00_ALUMINIO
10
3073.179261
20
1236.543000
30
0.0
11
3073.489368
21
1237.576690
31
0.0
0
ARC
8
00_ALUMINIO
10
3073.297802
20
1237.634160
30
0.0
40
0.200000
50
343.300756
51
90.000000
0
LINE
8
00_ALUMINIO
10
3073.297802
20
1237.834160
30
0.0
11
3073.166608
21
1237.834160
31
0.0
0
LINE
8
00_ALUMINIO
10
3073.166608
20
1237.834160
30
0.0
11
3073.166608
21
1238.500827
31
0.0
0
LINE
8
00_ALUMINIO
10
3073.166608
20
1238.500827
30
0.0
11
3073.489368
21
1239.576690
31
0.0
0
ARC
8
00_ALUMINIO
10
3073.297802
20
1239.634160
30
0.0
40
0.200000
50
343.300756
51
90.000000
0
LINE
8
00_ALUMINIO
10
3073.297802
20
1239.834160
30
0.0
11
3073.066608
21
1239.834160
31
0.0
0
LINE
8
00_ALUMINIO
10
3073.066608
20
1239.834160
30
0.0
11
3073.066608
21
1241.334160
31
0.0
0
ARC
8
00_ALUMINIO
10
3073.566608
20
1241.334160
30
0.0
40
0.500000
50
90.000000
51
180.000000
0
LINE
8
00_ALUMINIO
10
3073.566608
20
1241.834160
30
0.0
11
3074.626068
21
1241.834160
31
0.0
0
ARC
8
00_ALUMINIO
10
3074.626068
20
1242.834160
30
0.0
40
1.000000
50
270.000000
51
286.000000
0
LINE
8
00_ALUMINIO
10
3074.901705
20
1241.872898
30
0.0
11
3081.336148
21
1243.717945
31
0.0
0
ARC
8
00_ALUMINIO
10
3082.163060
20
1240.834160
30
0.0
40
3.000000
50
90.000000
51
106.000000
0
LINE
8
00_ALUMINIO
10
3082.163060
20
1243.834160
30
0.0
11
3082.963992
21
1243.834160
31
0.0
0
ARC
8
00_ALUMINIO
10
3082.963992
20
1240.834160
30
0.0
40
3.000000
50
73.000000
51
90.000000
0
LINE
8
00_ALUMINIO
10
3083.841107
20
1243.703074
30
0.0
11
3099.058980
21
1239.050504
31
0.0
0
ARC
8
00_ALUMINIO
10
3098.766608
20
1238.094199
30
0.0
40
1.000000
50
0.000000
51
73.000000
0
LINE
8
00_ALUMINIO
10
3099.766608
20
1238.094199
30
0.0
11
3099.766608
21
1235.334160
31
0.0
0
ARC
8
00_ALUMINIO
10
3099.266608
20
1235.334160
30
0.0
40
0.500000
50
251.725361
51
0.000000
0
ARC
8
00_ALUMINIO
10
3168.182811
20
1444.027318
30
0.0
40
220.277791
50
247.447482
51
251.725361
0
ARC
8
00_ALUMINIO
10
3082.549055
20
1237.823944
30
0.0
40
3.000000
50
67.447482
51
106.000000
0
LINE
8
00_ALUMINIO
10
3081.722143
20
1240.707729
30
0.0
11
3076.939696
21
1239.336385
31
0.0
0
ARC
8
00_ALUMINIO
10
3077.766608
20
1236.452599
30
0.0
40
3.000000
50
106.000000
51
180.000000
0
LINE
8
00_ALUMINIO
10
3074.766608
20
1236.452599
30
0.0
11
3074.766608
21
1197.834160
31
0.0
0
ARC
8
00_ALUMINIO
10
3072.766608
20
1197.834160
30
0.0
40
2.000000
50
270.000000
51
0.000000
0
LINE
8
00_ALUMINIO
10
3072.766608
20
1195.834160
30
0.0
11
3064.866608
21
1195.834160
31
0.0
0
ARC
8
00_ALUMINIO
10
3064.866608
20
1196.134160
30
0.0
40
0.300000
50
180.000000
51
270.000000
0
LINE
8
00_ALUMINIO
10
3064.566608
20
1196.134160
30
0.0
11
3064.566608
21
1197.034160
31
0.0
0
ARC
8
00_ALUMINIO
10
3064.866608
20
1197.034160
30
0.0
40
0.300000
50
90.000000
51
180.000000
0
LINE
8
00_ALUMINIO
10
3064.866608
20
1197.334160
30
0.0
11
3066.266608
21
1197.334160
31
0.0
0
ARC
8
00_ALUMINIO
10
3066.266608
20
1197.634160
30
0.0
40
0.300000
50
270.000000
51
0.000000
0
LINE
8
00_ALUMINIO
10
3066.566608
20
1197.634160
30
0.0
11
3066.566608
21
1200.034160
31
0.0
0
ARC
8
00_ALUMINIO
10
3066.266608
20
1200.034160
30
0.0
40
0.300000
50
0.000000
51
90.000000
0
LINE
8
00_ALUMINIO
10
3066.266608
20
1200.334160
30
0.0
11
3064.566608
21
1200.334160
31
0.0
0
ARC
8
00_ALUMINIO
10
3064.566608
20
1200.834160
30
0.0
40
0.500000
50
180.000000
51
270.000000
0
LINE
8
00_ALUMINIO
10
3064.066608
20
1200.834160
30
0.0
11
3064.066608
21
1202.096285
31
0.0
0
ARC
8
00_ALUMINIO
10
3064.366608
20
1202.096285
30
0.0
40
0.300000
50
119.439232
51
180.000000
0
ARC
8
00_ALUMINIO
10
3064.071708
20
1202.618811
30
0.0
40
0.300000
50
299.439232
51
53.438974
0
LINE
8
00_ALUMINIO
10
3064.250412
20
1202.859778
30
0.0
11
3063.993967
21
1203.049960
31
0.0
0
ARC
8
00_ALUMINIO
10
3062.802610
20
1201.443514
30
0.0
40
2.000000
50
53.438974
51
142.581803
0
ARC
8
00_ALUMINIO
10
3060.817056
20
1202.962585
30
0.0
40
0.500000
50
270.000000
51
322.581803
0
LINE
8
00_ALUMINIO
10
3060.817056
20
1202.462585
30
0.0
11
3060.128259
21
1202.462585
31
0.0
0
ARC
8
00_ALUMINIO
10
3060.128259
20
1202.762585
30
0.0
40
0.300000
50
149.797281
51
270.000000
0
LINE
8
00_ALUMINIO
10
3059.868984
20
1202.913503
30
0.0
11
3061.462803
21
1205.651659
31
0.0
0
ARC
8
00_ALUMINIO
10
3061.722078
20
1205.500740
30
0.0
40
0.300000
50
121.250113
51
149.797281
0
LINE
8
00_ALUMINIO
10
3061.566445
20
1205.757214
30
0.0
11
3062.202720
21
1206.143316
31
0.0
0
ARC
8
00_ALUMINIO
10
3062.278265
20
1206.018824
30
0.0
40
0.145621
50
356.341100
51
121.250113
0
LINE
8
00_ALUMINIO
10
3062.423589
20
1206.009531
30
0.0
11
3062.413660
21
1205.854266
31
0.0
0
ARC
8
00_ALUMINIO
10
3062.613252
20
1205.841503
30
0.0
40
0.200000
50
176.341100
51
229.517123
0
LINE
8
00_ALUMINIO
10
3062.483408
20
1205.689383
30
0.0
11
3064.087610
21
1204.320094
31
0.0
0
ARC
8
00_ALUMINIO
10
3064.282376
20
1204.548274
30
0.0
40
0.300000
50
229.517123
51
251.341100
0
LINE
8
00_ALUMINIO
10
3064.186396
20
1204.264042
30
0.0
11
3064.470628
21
1204.168062
31
0.0
0
ARC
8
00_ALUMINIO
10
3064.566608
20
1204.452294
30
0.0
40
0.300000
50
251.341100
51
90.000000
0
LINE
8
00_ALUMINIO
10
3064.566608
20
1204.752294
30
0.0
11
3064.566608
21
1209.252294
31
0.0
0
ARC
8
00_ALUMINIO
10
3064.366608
20
1209.252294
30
0.0
40
0.200000
50
0.000000
51
90.000000
0
LINE
8
00_ALUMINIO
10
3064.366608
20
1209.452294
30
0.0
11
3064.298720
21
1209.452294
31
0.0
0
ARC
8
00_ALUMINIO
10
3064.298720
20
1209.152294
30
0.0
40
0.300000
50
90.000000
51
121.380132
0
LINE
8
00_ALUMINIO
10
3064.142506
20
1209.408413
30
0.0
11
3062.466513
21
1208.386180
31
0.0
0
ARC
8
00_ALUMINIO
10
3062.266608
20
1208.379990
30
0.0
40
0.200000
50
180.000000
51
1.773627
0
LINE
8
00_ALUMINIO
10
3062.066608
20
1208.379990
30
0.0
11
3062.066608
21
1209.689257
31
0.0
0
ARC
8
00_ALUMINIO
10
3063.066608
20
1209.689257
30
0.0
40
1.000000
50
121.380132
51
180.000000
0
LINE
8
00_ALUMINIO
10
3062.545895
20
1210.542989
30
0.0
11
3062.621236
21
1210.588942
31
0.0
0
ARC
8
00_ALUMINIO
10
3062.360879
20
1211.015807
30
0.0
40
0.500000
50
301.380132
51
46.426040
0
ARC
8
00_ALUMINIO
10
3064.566608
20
1213.334160
30
0.0
40
2.700000
50
223.136559
51
226.426040
0
ARC
8
00_ALUMINIO
10
3062.961211
20
1211.829933
30
0.0
40
0.500000
50
120.000000
51
223.136559
0
LINE
8
00_ALUMINIO
10
3062.711211
20
1212.262946
30
0.0
11
3062.979158
21
1212.417645
31
0.0
0
ARC
8
00_ALUMINIO
10
3063.229158
20
1211.984632
30
0.0
40
0.500000
50
45.257523
51
120.000000
0
ARC
8
00_ALUMINIO
10
3064.566608
20
1213.334160
30
0.0
40
1.400000
50
225.257523
51
249.426879
0
LINE
8
00_ALUMINIO
10
3064.074645
20
1212.023446
30
0.0
11
3064.074645
21
1211.811671
31
0.0
0
ARC
8
00_ALUMINIO
10
3064.566608
20
1213.334160
30
0.0
40
1.600000
50
252.092741
51
287.907259
0
LINE
8
00_ALUMINIO
10
3065.058572
20
1211.811671
30
0.0
11
3065.058572
21
1212.023446
31
0.0
0
ARC
8
00_ALUMINIO
10
3064.566608
20
1213.334160
30
0.0
40
1.400000
50
290.573121
51
339.426879
0
LINE
8
00_ALUMINIO
10
3065.877323
20
1212.842196
30
0.0
11
3066.089097
21
1212.842196
31
0.0
0
ARC
8
00_ALUMINIO
10
3064.566608
20
1213.334160
30
0.0
40
1.600000
50
342.092741
51
17.907259
0
LINE
8
00_ALUMINIO
10
3066.089097
20
1213.826123
30
0.0
11
3065.877323
21
1213.826123
31
0.0
0
ARC
8
00_ALUMINIO
10
3064.566608
20
1213.334160
30
0.0
40
1.400000
50
20.573121
51
69.426879
0
LINE
8
00_ALUMINIO
10
3065.058572
20
1214.644874
30
0.0
11
3065.058572
21
1214.856649
31
0.0
0
ARC
8
00_ALUMINIO
10
3064.566608
20
1213.334160
30
0.0
40
1.600000
50
72.092741
51
107.907259
0
LINE
8
00_ALUMINIO
10
3064.074645
20
1214.856649
30
0.0
11
3064.074645
21
1214.644874
31
0.0
0
ARC
8
00_ALUMINIO
10
3064.566608
20
1213.334160
30
0.0
40
1.400000
50
110.573121
51
134.742477
0
ARC
8
00_ALUMINIO
10
3063.229158
20
1214.683688
30
0.0
40
0.500000
50
240.000000
51
314.742477
0
LINE
8
00_ALUMINIO
10
3062.979158
20
1214.250675
30
0.0
11
3062.711211
21
1214.405374
31
0.0
0
ARC
8
00_ALUMINIO
10
3062.961211
20
1214.838387
30
0.0
40
0.500000
50
136.863441
51
240.000000
0
LINE
8
00_ALUMINIO
10
3045.466519
20
1212.119251
30
0.0
11
3045.466519
21
1217.252285
31
0.0
0
ARC
8
00_ALUMINIO
10
3044.966519
20
1217.252285
30
0.0
40
0.500000
50
0.000000
51
90.000000
0
LINE
8
00_ALUMINIO
10
3044.966519
20
1217.752285
30
0.0
11
3044.066519
21
1217.752285
31
0.0
0
ARC
8
00_ALUMINIO
10
3044.066519
20
1218.752285
30
0.0
40
1.000000
50
180.000000
51
270.000000
0
LINE
8
00_ALUMINIO
10
3043.066519
20
1218.752285
30
0.0
11
3043.066519
21
1223.634151
31
0.0
0
ARC
8
00_ALUMINIO
10
3042.566519
20
1223.634151
30
0.0
40
0.500000
50
0.000000
51
90.000000
0
LINE
8
00_ALUMINIO
10
3042.566519
20
1224.134151
30
0.0
11
3040.366519
21
1224.134151
31
0.0
0
ARC
8
00_ALUMINIO
10
3040.366519
20
1223.634151
30
0.0
40
0.500000
50
90.000000
51
180.000000
0
LINE
8
00_ALUMINIO
10
3039.866519
20
1223.634151
30
0.0
11
3039.866519
21
1198.534151
31
0.0
0
ARC
8
00_ALUMINIO
10
3040.366519
20
1198.534151
30
0.0
40
0.500000
50
180.000000
51
270.000000
0
LINE
8
00_ALUMINIO
10
3040.366519
20
1198.034151
30
0.0
11
3044.466519
21
1198.034151
31
0.0
0
ARC
8
00_ALUMINIO
10
3044.466519
20
1198.534151
30
0.0
40
0.500000
50
270.000000
51
0.000000
0
LINE
8
00_ALUMINIO
10
3044.966519
20
1198.534151
30
0.0
11
3044.966519
21
1200.934151
31
0.0
0
ARC
8
00_ALUMINIO
10
3045.966519
20
1200.934151
30
0.0
40
1.000000
50
90.000000
51
180.000000
0
LINE
8
00_ALUMINIO
10
3045.966519
20
1201.934151
30
0.0
11
3046.566519
21
1201.934151
31
0.0
0
ARC
8
00_ALUMINIO
10
3046.566519
20
1202.434151
30
0.0
40
0.500000
50
270.000000
51
0.000000
0
LINE
8
00_ALUMINIO
10
3047.066519
20
1202.434151
30
0.0
11
3047.066519
21
1210.301265
31
0.0
0
ARC
8
00_ALUMINIO
10
3046.566519
20
1210.301265
30
0.0
40
0.500000
50
0.000000
51
58.619868
0
LINE
8
00_ALUMINIO
10
3046.826876
20
1210.728131
30
0.0
11
3045.945806
21
1211.265519
31
0.0
0
ARC
8
00_ALUMINIO
10
3046.466519
20
1212.119251
30
0.0
40
1.000000
50
180.000000
51
238.619868
0
ARC
8
00_ALUMINIO
10
3050.282994
20
1201.899896
30
0.0
40
1.800000
50
35.720390
51
94.979327
0
LINE
8
00_ALUMINIO
10
3050.126761
20
1203.693103
30
0.0
11
3048.945450
21
1203.148760
31
0.0
0
ARC
8
00_ALUMINIO
10
3049.066519
20
1202.874275
30
0.0
40
0.300000
50
113.801236
51
240.000000
0
ARC
8
00_ALUMINIO
10
3048.766519
20
1202.354660
30
0.0
40
0.300000
50
0.000000
51
60.000000
0
LINE
8
00_ALUMINIO
10
3049.066519
20
1202.354660
30
0.0
11
3049.066519
21
1200.834151
31
0.0
0
ARC
8
00_ALUMINIO
10
3048.566519
20
1200.834151
30
0.0
40
0.500000
50
270.000000
51
0.000000
0
LINE
8
00_ALUMINIO
10
3048.566519
20
1200.334151
30
0.0
11
3046.866519
21
1200.334151
31
0.0
0
ARC
8
00_ALUMINIO
10
3046.866519
20
1200.034151
30
0.0
40
0.300000
50
90.000000
51
180.000000
0
LINE
8
00_ALUMINIO
10
3046.566519
20
1200.034151
30
0.0
11
3046.566519
21
1197.634151
31
0.0
0
ARC
8
00_ALUMINIO
10
3046.866519
20
1197.634151
30
0.0
40
0.300000
50
180.000000
51
270.000000
0
LINE
8
00_ALUMINIO
10
3046.866519
20
1197.334151
30
0.0
11
3048.266519
21
1197.334151
31
0.0
0
ARC
8
00_ALUMINIO
10
3048.266519
20
1197.034151
30
0.0
40
0.300000
50
0.000000
51
90.000000
0
LINE
8
00_ALUMINIO
10
3048.566519
20
1197.034151
30
0.0
11
3048.566519
21
1196.134151
31
0.0
0
ARC
8
00_ALUMINIO
10
3048.266519
20
1196.134151
30
0.0
40
0.300000
50
270.000000
51
0.000000
0
LINE
8
00_ALUMINIO
10
3048.266519
20
1195.834151
30
0.0
11
3040.366519
21
1195.834151
31
0.0
0
ARC
8
00_ALUMINIO
10
3040.366519
20
1197.834151
30
0.0
40
2.000000
50
180.000000
51
270.000000
0
LINE
8
00_ALUMINIO
10
3038.366519
20
1197.834151
30
0.0
11
3038.366519
21
1241.334151
31
0.0
0
ARC
8
00_ALUMINIO
10
3038.866519
20
1241.334151
30
0.0
40
0.500000
50
90.000000
51
180.000000
0
LINE
8
00_ALUMINIO
10
3038.866519
20
1241.834151
30
0.0
11
3039.566519
21
1241.834151
31
0.0
0
ARC
8
00_ALUMINIO
10
3039.566519
20
1241.334151
30
0.0
40
0.500000
50
0.000000
51
90.000000
0
LINE
8
00_ALUMINIO
10
3040.066519
20
1241.334151
30
0.0
11
3040.066519
21
1239.834151
31
0.0
0
LINE
8
00_ALUMINIO
10
3040.066519
20
1239.834151
30
0.0
11
3039.835325
21
1239.834151
31
0.0
0
ARC
8
00_ALUMINIO
10
3039.835325
20
1239.634151
30
0.0
40
0.200000
50
90.000000
51
196.699244
0
LINE
8
00_ALUMINIO
10
3039.643760
20
1239.576682
30
0.0
11
3039.966519
21
1238.500818
31
0.0
0
LINE
8
00_ALUMINIO
10
3039.966519
20
1238.500818
30
0.0
11
3039.966519
21
1237.834151
31
0.0
0
LINE
8
00_ALUMINIO
10
3039.966519
20
1237.834151
30
0.0
11
3039.835325
21
1237.834151
31
0.0
0
ARC
8
00_ALUMINIO
10
3039.835325
20
1237.634151
30
0.0
40
0.200000
50
90.000000
51
196.699244
0
LINE
8
00_ALUMINIO
10
3039.643760
20
1237.576682
30
0.0
11
3039.953867
21
1236.542992
31
0.0
0
LINE
8
00_ALUMINIO
10
3039.966519
20
1236.456787
30
0.0
11
3039.953867
21
1236.542992
31
0.0
0
LINE
8
00_ALUMINIO
10
3039.966519
20
1236.456787
30
0.0
11
3039.966519
21
1227.334151
31
0.0
0
ARC
8
00_ALUMINIO
10
3040.966519
20
1227.334151
30
0.0
40
1.000000
50
180.000000
51
270.000000
0
LINE
8
00_ALUMINIO
10
3040.966519
20
1226.334151
30
0.0
11
3044.566519
21
1226.334151
31
0.0
0
ARC
8
00_ALUMINIO
10
3045.066519
20
1226.334151
30
0.0
40
0.500000
50
180.000000
51
245.923642
0
LINE
8
00_ALUMINIO
10
3044.862542
20
1225.877650
30
0.0
11
3046.126761
21
1225.311467
31
0.0
0
ARC
8
00_ALUMINIO
10
3046.282994
20
1227.104674
30
0.0
40
1.800000
50
265.020673
51
324.279610
0
LINE
8
00_ALUMINIO
10
3047.744371
20
1226.053779
30
0.0
11
3048.797166
21
1226.023935
31
0.0
0
LINE
8
00_ALUMINIO
10
3048.797166
20
1226.023935
30
0.0
11
3048.807418
21
1226.023601
31
0.0
0
ARC
8
00_ALUMINIO
10
3048.793781
20
1225.723911
30
0.0
40
0.300000
50
341.748585
51
87.394587
0
LINE
8
00_ALUMINIO
10
3049.078688
20
1225.629955
30
0.0
11
3047.014401
21
1222.963513
31
0.0
0
ARC
8
00_ALUMINIO
10
3046.899254
20
1223.052657
30
0.0
40
0.145621
50
178.000000
51
322.253920
0
LINE
8
00_ALUMINIO
10
3046.753722
20
1223.057739
30
0.0
11
3046.759151
21
1223.213226
31
0.0
0
ARC
8
00_ALUMINIO
10
3046.559273
20
1223.220206
30
0.0
40
0.200000
50
358.000000
51
56.740496
0
LINE
8
00_ALUMINIO
10
3046.668960
20
1223.387445
30
0.0
11
3045.130252
21
1224.348993
31
0.0
0
ARC
8
00_ALUMINIO
10
3044.853411
20
1224.464573
30
0.0
40
0.300000
50
337.339688
51
73.000000
0
LINE
8
00_ALUMINIO
10
3044.941122
20
1224.751465
30
0.0
11
3044.566519
21
1224.852285
31
0.0
0
ARC
8
00_ALUMINIO
10
3044.566519
20
1224.552285
30
0.0
40
0.300000
50
90.000002
51
246.421819
0
ARC
8
00_ALUMINIO
10
3044.366519
20
1224.094027
30
0.0
40
0.200000
50
0.000000
51
66.421821
0
LINE
8
00_ALUMINIO
10
3044.566519
20
1224.094027
30
0.0
11
3044.566519
21
1219.752285
31
0.0
0
ARC
8
00_ALUMINIO
10
3044.766519
20
1219.752285
30
0.0
40
0.200000
50
180.000000
51
270.000000
0
LINE
8
00_ALUMINIO
10
3044.766519
20
1219.552285
30
0.0
11
3044.834408
21
1219.552285
31
0.0
0
ARC
8
00_ALUMINIO
10
3044.834408
20
1219.852285
30
0.0
40
0.300000
50
270.000000
51
301.380132
0
LINE
8
00_ALUMINIO
10
3044.990622
20
1219.596165
30
0.0
11
3046.666615
21
1220.618398
31
0.0
0
ARC
8
00_ALUMINIO
10
3046.866519
20
1220.624589
30
0.0
40
0.200000
50
0.000000
51
181.773628
0
LINE
8
00_ALUMINIO
10
3047.066519
20
1220.624589
30
0.0
11
3047.066519
21
1216.373888
31
0.0
0
ARC
8
00_ALUMINIO
10
3047.566519
20
1216.373888
30
0.0
40
0.500000
50
180.000000
51
288.209957
0
ARC
8
00_ALUMINIO
10
3048.566519
20
1213.334151
30
0.0
40
2.700000
50
43.136559
51
108.209957
0
ARC
8
00_ALUMINIO
10
3050.171917
20
1214.838378
30
0.0
40
0.500000
50
300.000000
51
43.136559
0
LINE
8
00_ALUMINIO
10
3050.421917
20
1214.405365
30
0.0
11
3050.153970
21
1214.250666
31
0.0
0
ARC
8
00_ALUMINIO
10
3049.903970
20
1214.683679
30
0.0
40
0.500000
50
225.257523
51
300.000000
0
ARC
8
00_ALUMINIO
10
3048.566519
20
1213.334151
30
0.0
40
1.400000
50
45.257523
51
69.426879
0
LINE
8
00_ALUMINIO
10
3049.058483
20
1214.644865
30
0.0
11
3049.058483
21
1214.856640
31
0.0
0
ARC
8
00_ALUMINIO
10
3048.566519
20
1213.334151
30
0.0
40
1.600000
50
72.092741
51
107.907259
0
LINE
8
00_ALUMINIO
10
3048.074556
20
1214.856640
30
0.0
11
3048.074556
21
1214.644865
31
0.0
0
ARC
8
00_ALUMINIO
10
3048.566519
20
1213.334151
30
0.0
40
1.400000
50
110.573121
51
159.426879
0
LINE
8
00_ALUMINIO
10
3047.255805
20
1213.826115
30
0.0
11
3047.044030
21
1213.826115
31
0.0
0
ARC
8
00_ALUMINIO
10
3048.566519
20
1213.334151
30
0.0
40
1.600000
50
162.092741
51
197.907259
0
LINE
8
00_ALUMINIO
10
3047.044030
20
1212.842188
30
0.0
11
3047.255805
21
1212.842188
31
0.0
0
ARC
8
00_ALUMINIO
10
3048.566519
20
1213.334151
30
0.0
40
1.400000
50
200.573121
51
249.426879
0
LINE
8
00_ALUMINIO
10
3048.074556
20
1212.023437
30
0.0
11
3048.074556
21
1211.811662
31
0.0
0
ARC
8
00_ALUMINIO
10
3048.566519
20
1213.334151
30
0.0
40
1.600000
50
252.092741
51
287.907259
0
LINE
8
00_ALUMINIO
10
3049.058483
20
1211.811662
30
0.0
11
3049.058483
21
1212.023437
31
0.0
0
ARC
8
00_ALUMINIO
10
3048.566519
20
1213.334151
30
0.0
40
1.400000
50
290.573121
51
314.742477
0
ARC
8
00_ALUMINIO
10
3049.903970
20
1211.984623
30
0.0
40
0.500000
50
60.000000
51
134.742477
0
LINE
8
00_ALUMINIO
10
3050.153970
20
1212.417636
30
0.0
11
3050.421917
21
1212.262937
31
0.0
0
ARC
8
00_ALUMINIO
10
3050.171917
20
1211.829924
30
0.0
40
0.500000
50
316.863441
51
60.000000
0
ARC
8
00_ALUMINIO
10
3048.566519
20
1213.334151
30
0.0
40
2.700000
50
313.573960
51
316.863441
0
ARC
8
00_ALUMINIO
10
3050.772248
20
1211.015799
30
0.0
40
0.500000
50
133.573960
51
238.619868
0
LINE
8
00_ALUMINIO
10
3050.511891
20
1210.588933
30
0.0
11
3050.587233
21
1210.542980
31
0.0
0
ARC
8
00_ALUMINIO
10
3050.066519
20
1209.689249
30
0.0
40
1.000000
50
0.000000
51
58.619868
0
LINE
8
00_ALUMINIO
10
3051.066519
20
1209.689249
30
0.0
11
3051.066519
21
1208.379981
31
0.0
0
ARC
8
00_ALUMINIO
10
3050.866519
20
1208.379981
30
0.0
40
0.200000
50
178.226372
51
0.000000
0
LINE
8
00_ALUMINIO
10
3050.666615
20
1208.386171
30
0.0
11
3048.990622
21
1209.408404
31
0.0
0
ARC
8
00_ALUMINIO
10
3048.834408
20
1209.152285
30
0.0
40
0.300000
50
58.619868
51
90.000000
0
LINE
8
00_ALUMINIO
10
3048.834408
20
1209.452285
30
0.0
11
3048.766519
21
1209.452285
31
0.0
0
ARC
8
00_ALUMINIO
10
3048.766519
20
1209.252285
30
0.0
40
0.200000
50
90.000000
51
180.000000
0
LINE
8
00_ALUMINIO
10
3048.566519
20
1209.252285
30
0.0
11
3048.566519
21
1204.910542
31
0.0
0
ARC
8
00_ALUMINIO
10
3048.366519
20
1204.910542
30
0.0
40
0.200000
50
293.578179
51
0.000000
0
ARC
8
00_ALUMINIO
10
3048.566519
20
1204.452285
30
0.0
40
0.300000
50
113.578178
51
270.000000
0
LINE
8
00_ALUMINIO
10
3048.566519
20
1204.152285
30
0.0
11
3048.941122
21
1204.253105
31
0.0
0
ARC
8
00_ALUMINIO
10
3048.853411
20
1204.539996
30
0.0
40
0.300000
50
287.000000
51
22.660312
0
LINE
8
00_ALUMINIO
10
3049.130252
20
1204.655576
30
0.0
11
3050.661512
21
1205.612471
31
0.0
0
ARC
8
00_ALUMINIO
10
3050.559273
20
1205.784364
30
0.0
40
0.200000
50
300.743548
51
2.000000
0
LINE
8
00_ALUMINIO
10
3050.759151
20
1205.791344
30
0.0
11
3050.753722
21
1205.946831
31
0.0
0
ARC
8
00_ALUMINIO
10
3050.899254
20
1205.951913
30
0.0
40
0.145621
50
37.746080
51
182.000000
0
LINE
8
00_ALUMINIO
10
3051.014401
20
1206.041056
30
0.0
11
3053.078688
21
1203.374615
31
0.0
0
ARC
8
00_ALUMINIO
10
3052.793781
20
1203.280659
30
0.0
40
0.300000
50
271.133979
51
18.251415
0
LINE
8
00_ALUMINIO
10
3052.797166
20
1202.980635
30
0.0
11
3051.744371
21
1202.950791
31
0.0
0
ATTDEF
8
0
10
0.000000
20
0.000000
30
0.0
40
3.5
1

3

2
PANE_WIDTH:0
70
0
0
ATTDEF
8
0
10
0.000000
20
0.000000
30
0.0
40
3.5
1

3

2
MIN_VETRO:0
70
0
0
ATTDEF
8
0
10
0.000000
20
0.000000
30
0.0
40
3.5
1

3

2
MAX_VETRO:0
70
0
0
ATTDEF
8
0
10
0.000000
20
0.000000
30
0.0
40
3.5
1

3

2
JX:0
70
0
0
ATTDEF
8
0
10
0.000000
20
0.000000
30
0.0
40
3.5
1

3

2
WX:0
70
0
0
ATTDEF
8
0
10
0.000000
20
0.000000
30
0.0
40
3.5
1

3

2
JY:0
70
0
0
ATTDEF
8
0
10
0.000000
20
0.000000
30
0.0
40
3.5
1

3

2
WY:0
70
0
0
ATTDEF
8
0
10
0.000000
20
0.000000
30
0.0
40
3.5
1

3

2
DESC:Hoja lateral ventana
70
0
0
ATTDEF
8
0
10
0.000000
20
0.000000
30
0.0
40
3.5
1

3

2
DENS:1.3684
70
0
0
ATTDEF
8
0
10
0.000000
20
0.000000
30
0.0
40
3.5
1

3

2
TDEV:48.26
70
0
0
ATTDEF
8
0
10
0.000000
20
0.000000
30
0.0
40
3.5
1

3

2
TDEV2:0
70
0
0
ATTDEF
8
0
10
0.000000
20
0.000000
30
0.0
40
3.5
1

3

2
TDEV3:0
70
0
0
ATTDEF
8
0
10
0.000000
20
0.000000
30
0.0
40
3.5
1

3

2
TDEV4:0
70
0
0
ATTDEF
8
0
10
0.000000
20
0.000000
30
0.0
40
3.5
1

3

2
TDEV5:0
70
0
0
ATTDEF
8
0
10
0.000000
20
0.000000
30
0.0
40
3.5
1

3

2
PANE_WIDTH:0
70
0
0
ATTDEF
8
0
10
0.000000
20
0.000000
30
0.0
40
3.5
1

3

2
MIN_VETRO:0
70
0
0
ATTDEF
8
0
10
0.000000
20
0.000000
30
0.0
40
3.5
1

3

2
MAX_VETRO:0
70
0
0
ATTDEF
8
0
10
0.000000
20
0.000000
30
0.0
40
3.5
1

3

2
JX:0
70
0
0
ATTDEF
8
0
10
0.000000
20
0.000000
30
0.0
40
3.5
1

3

2
WX:0
70
0
0
ATTDEF
8
0
10
0.000000
20
0.000000
30
0.0
40
3.5
1

3

2
JY:0
70
0
0
ATTDEF
8
0
10
0.000000
20
0.000000
30
0.0
40
3.5
1

3

2
WY:0
70
0
0
ENDSEC
0
EOF
