0
SECTION
2
ENTITIES
0
LINE
8
0
10
2996.629223
20
1248.645144
30
0.0
11
2998.129223
21
1248.243220
31
0.0
0
ARC
8
0
10
2997.844523
20
1247.180702
30
0.0
40
1.100000
50
0.000000
51
75.000000
0
LINE
8
0
10
2998.944523
20
1247.180702
30
0.0
11
2998.944523
21
1247.032626
31
0.0
0
ARC
8
0
10
2999.244523
20
1247.032626
30
0.0
40
0.300000
50
180.000000
51
270.000000
0
LINE
8
0
10
2999.244523
20
1246.732626
30
0.0
11
3000.845431
21
1246.732626
31
0.0
0
ARC
8
0
10
3000.845431
20
1245.632626
30
0.0
40
1.100000
50
4.096044
51
90.000000
0
ARC
8
0
10
3002.241855
20
1245.732626
30
0.0
40
0.300000
50
183.711761
51
270.000000
0
LINE
8
0
10
3002.241855
20
1245.432626
30
0.0
11
3005.044523
21
1245.432626
31
0.0
0
ARC
8
0
10
3005.044523
20
1245.132626
30
0.0
40
0.300000
50
0.000000
51
90.000000
0
LINE
8
0
10
3005.344523
20
1245.132626
30
0.0
11
3005.344523
21
1244.932626
31
0.0
0
ARC
8
0
10
3005.044523
20
1244.932626
30
0.0
40
0.300000
50
270.000000
51
0.000000
0
LINE
8
0
10
3005.044523
20
1244.632626
30
0.0
11
3002.241855
21
1244.632626
31
0.0
0
ARC
8
0
10
3002.241855
20
1245.732626
30
0.0
40
1.100000
50
184.096044
51
270.000000
0
ARC
8
0
10
3000.845431
20
1245.632626
30
0.0
40
0.300000
50
4.096044
51
90.000000
0
LINE
8
0
10
3000.845431
20
1245.932626
30
0.0
11
2998.644523
21
1245.932626
31
0.0
0
ARC
8
0
10
2998.644523
20
1246.432626
30
0.0
40
0.500000
50
180.000000
51
270.000000
0
LINE
8
0
10
2998.144523
20
1246.432626
30
0.0
11
2998.144523
21
1247.180702
31
0.0
0
ARC
8
0
10
2997.844523
20
1247.180702
30
0.0
40
0.300000
50
0.000000
51
75.000000
0
LINE
8
0
10
2997.922168
20
1247.470480
30
0.0
11
2996.422168
21
1247.872403
31
0.0
0
ARC
8
0
10
2996.344523
20
1247.582626
30
0.0
40
0.300000
50
75.000000
51
105.000000
0
LINE
8
0
10
2996.266877
20
1247.872403
30
0.0
11
2994.766877
21
1247.470480
31
0.0
0
ARC
8
0
10
2994.844523
20
1247.180702
30
0.0
40
0.300000
50
105.000000
51
180.000000
0
LINE
8
0
10
2994.544523
20
1247.180702
30
0.0
11
2994.544523
21
1246.432626
31
0.0
0
ARC
8
0
10
2994.044523
20
1246.432626
30
0.0
40
0.500000
50
270.000000
51
0.000000
0
LINE
8
0
10
2994.044523
20
1245.932626
30
0.0
11
2991.843614
21
1245.932626
31
0.0
0
ARC
8
0
10
2991.843614
20
1245.632626
30
0.0
40
0.300000
50
90.000000
51
175.903956
0
ARC
8
0
10
2990.447190
20
1245.732626
30
0.0
40
1.100000
50
270.000000
51
355.903956
0
LINE
8
0
10
2990.447190
20
1244.632626
30
0.0
11
2987.644523
21
1244.632626
31
0.0
0
ARC
8
0
10
2987.644523
20
1244.932626
30
0.0
40
0.300000
50
180.000000
51
270.000000
0
LINE
8
0
10
2987.344523
20
1244.932626
30
0.0
11
2987.344523
21
1245.132626
31
0.0
0
ARC
8
0
10
2987.644523
20
1245.132626
30
0.0
40
0.300000
50
90.000000
51
180.000000
0
LINE
8
0
10
2987.644523
20
1245.432626
30
0.0
11
2990.447190
21
1245.432626
31
0.0
0
ARC
8
0
10
2990.447190
20
1245.732626
30
0.0
40
0.300000
50
270.000000
51
355.903956
0
ARC
8
0
10
2991.843614
20
1245.632626
30
0.0
40
1.100000
50
90.000000
51
175.903956
0
LINE
8
0
10
2991.843614
20
1246.732626
30
0.0
11
2993.444523
21
1246.732626
31
0.0
0
ARC
8
0
10
2993.444523
20
1247.032626
30
0.0
40
0.300000
50
270.000000
51
0.000000
0
LINE
8
0
10
2993.744523
20
1247.032626
30
0.0
11
2993.744523
21
1247.180702
31
0.0
0
ARC
8
0
10
2994.844523
20
1247.180702
30
0.0
40
1.100000
50
105.000000
51
180.000000
0
LINE
8
0
10
2994.559822
20
1248.243220
30
0.0
11
2996.059822
21
1248.645144
31
0.0
0
ARC
8
0
10
2996.344523
20
1247.582626
30
0.0
40
1.100000
50
75.000000
51
105.000000
0
ATTDEF
8
0
10
0.000000
20
0.000000
30
0.0
40
3.5
1

3

2
PANE_WIDTH:0
70
0
0
ATTDEF
8
0
10
0.000000
20
0.000000
30
0.0
40
3.5
1

3

2
MIN_VETRO:0
70
0
0
ATTDEF
8
0
10
0.000000
20
0.000000
30
0.0
40
3.5
1

3

2
MAX_VETRO:0
70
0
0
ATTDEF
8
0
10
0.000000
20
0.000000
30
0.0
40
3.5
1

3

2
JX:0
70
0
0
ATTDEF
8
0
10
0.000000
20
0.000000
30
0.0
40
3.5
1

3

2
WX:0
70
0
0
ATTDEF
8
0
10
0.000000
20
0.000000
30
0.0
40
3.5
1

3

2
JY:0
70
0
0
ATTDEF
8
0
10
0.000000
20
0.000000
30
0.0
40
3.5
1

3

2
WY:0
70
0
0
ATTDEF
8
0
10
0.000000
20
0.000000
30
0.0
40
3.5
1

3

2
DESC:Carril rodadura Inox
70
0
0
ATTDEF
8
0
10
0.000000
20
0.000000
30
0.0
40
3.5
1

3

2
DENS:0
70
0
0
ATTDEF
8
0
10
0.000000
20
0.000000
30
0.0
40
3.5
1

3

2
TDEV:0
70
0
0
ATTDEF
8
0
10
0.000000
20
0.000000
30
0.0
40
3.5
1

3

2
TDEV2:0
70
0
0
ATTDEF
8
0
10
0.000000
20
0.000000
30
0.0
40
3.5
1

3

2
TDEV3:0
70
0
0
ATTDEF
8
0
10
0.000000
20
0.000000
30
0.0
40
3.5
1

3

2
TDEV4:0
70
0
0
ATTDEF
8
0
10
0.000000
20
0.000000
30
0.0
40
3.5
1

3

2
TDEV5:0
70
0
0
ATTDEF
8
0
10
0.000000
20
0.000000
30
0.0
40
3.5
1

3

2
PANE_WIDTH:0
70
0
0
ATTDEF
8
0
10
0.000000
20
0.000000
30
0.0
40
3.5
1

3

2
MIN_VETRO:0
70
0
0
ATTDEF
8
0
10
0.000000
20
0.000000
30
0.0
40
3.5
1

3

2
MAX_VETRO:0
70
0
0
ATTDEF
8
0
10
0.000000
20
0.000000
30
0.0
40
3.5
1

3

2
JX:0
70
0
0
ATTDEF
8
0
10
0.000000
20
0.000000
30
0.0
40
3.5
1

3

2
WX:0
70
0
0
ATTDEF
8
0
10
0.000000
20
0.000000
30
0.0
40
3.5
1

3

2
JY:0
70
0
0
ATTDEF
8
0
10
0.000000
20
0.000000
30
0.0
40
3.5
1

3

2
WY:0
70
0
0
ENDSEC
0
EOF
