0
SECTION
2
ENTITIES
0
ARC
8
0
10
173.801238
20
7.265252
30
0.0
40
0.500000
50
90.000000
51
247.975687
0
ARC
8
0
10
173.501238
20
6.523632
30
0.0
40
0.300000
50
360.000000
51
67.975687
0
LINE
8
0
10
173.801238
20
6.523632
30
0.0
11
173.801238
21
5.205762
31
0.0
0
ARC
8
0
10
173.471238
20
5.205762
30
0.0
40
0.330000
50
270.000000
51
360.000000
0
LINE
8
0
10
173.471238
20
4.875762
30
0.0
11
170.789898
21
4.875762
31
0.0
0
ARC
8
0
10
170.789898
20
5.875762
30
0.0
40
1.000000
50
195.001154
51
270.000000
0
LINE
8
0
10
169.823978
20
5.616924
30
0.0
11
168.366121
21
11.057280
31
0.0
0
ARC
8
0
10
170.297962
20
11.574957
30
0.0
40
2.000000
50
180.000000
51
195.001154
0
LINE
8
0
10
168.297962
20
11.574957
30
0.0
11
168.297962
21
16.016145
31
0.0
0
ARC
8
0
10
169.297962
20
16.016145
30
0.0
40
1.000000
50
90.000000
51
180.000000
0
LINE
8
0
10
169.297962
20
17.016145
30
0.0
11
169.797962
21
17.016145
31
0.0
0
ARC
8
0
10
169.797962
20
16.016145
30
0.0
40
1.000000
50
360.000000
51
90.000000
0
LINE
8
0
10
170.797962
20
16.016145
30
0.0
11
170.797962
21
15.816145
31
0.0
0
ARC
8
0
10
170.497962
20
15.816145
30
0.0
40
0.300000
50
270.000000
51
360.000000
0
LINE
8
0
10
170.497962
20
15.516145
30
0.0
11
170.097962
21
15.516145
31
0.0
0
ARC
8
0
10
170.097962
20
15.216145
30
0.0
40
0.300000
50
90.000000
51
180.000000
0
LINE
8
0
10
169.797962
20
15.216145
30
0.0
11
169.797962
21
12.315244
31
0.0
0
ARC
8
0
10
170.097962
20
12.315244
30
0.0
40
0.300000
50
180.000000
51
270.000000
0
LINE
8
0
10
170.097962
20
12.015244
30
0.0
11
172.001238
21
12.015244
31
0.0
0
ARC
8
0
10
172.001238
20
12.315244
30
0.0
40
0.300000
50
270.000000
51
360.000000
0
LINE
8
0
10
172.301238
20
12.315244
30
0.0
11
172.301238
21
14.338559
31
0.0
0
ARC
8
0
10
172.001238
20
14.338559
30
0.0
40
0.300000
50
360.000000
51
45.000000
0
LINE
8
0
10
172.213370
20
14.550691
30
0.0
11
172.041263
21
14.722798
31
0.0
0
ARC
8
0
10
172.253395
20
14.934930
30
0.0
40
0.300000
50
135.000000
51
225.000000
0
LINE
8
0
10
172.041263
20
15.147062
30
0.0
11
172.116999
21
15.222798
31
0.0
0
ARC
8
0
10
171.904866
20
15.434930
30
0.0
40
0.300000
50
315.000000
51
45.000000
0
LINE
8
0
10
172.116999
20
15.647062
30
0.0
11
172.041263
21
15.722798
31
0.0
0
ARC
8
0
10
172.253395
20
15.934930
30
0.0
40
0.300000
50
135.000000
51
225.000000
0
LINE
8
0
10
172.041263
20
16.147062
30
0.0
11
172.116999
21
16.222798
31
0.0
0
ARC
8
0
10
171.904866
20
16.434930
30
0.0
40
0.300000
50
315.000000
51
45.000000
0
LINE
8
0
10
172.116999
20
16.647062
30
0.0
11
172.041263
21
16.722798
31
0.0
0
ARC
8
0
10
172.253395
20
16.934930
30
0.0
40
0.300000
50
135.000000
51
225.000000
0
LINE
8
0
10
172.041263
20
17.147062
30
0.0
11
172.213370
21
17.319169
31
0.0
0
ARC
8
0
10
172.001238
20
17.531301
30
0.0
40
0.300000
50
315.000000
51
360.000000
0
LINE
8
0
10
172.301238
20
17.531301
30
0.0
11
172.301238
21
18.016206
31
0.0
0
ARC
8
0
10
172.801238
20
18.016206
30
0.0
40
0.500000
50
90.000000
51
180.000000
0
LINE
8
0
10
172.801251
20
18.516206
30
0.0
11
185.751239
21
18.515843
31
0.0
0
ARC
8
0
10
185.751478
20
18.016081
30
0.0
40
0.499761
50
360.000000
51
90.000000
0
LINE
8
0
10
186.251239
20
18.015843
30
0.0
11
186.251239
21
14.515606
31
0.0
0
ARC
8
0
10
185.751531
20
14.515314
30
0.0
40
0.499708
50
270.000000
51
360.000000
0
LINE
8
0
10
185.751239
20
14.015606
30
0.0
11
174.951125
21
14.015148
31
0.0
0
LINE
8
0
10
174.951125
20
14.015148
30
0.0
11
174.551231
21
14.246019
31
0.0
0
ARC
8
0
10
174.301238
20
13.813002
30
0.0
40
0.500000
50
60.000882
51
180.000000
0
LINE
8
0
10
173.801238
20
13.813002
30
0.0
11
173.801238
21
12.006864
31
0.0
0
ARC
8
0
10
173.501238
20
12.006864
30
0.0
40
0.300000
50
292.024313
51
360.000000
0
ARC
8
0
10
173.801238
20
11.265244
30
0.0
40
0.500000
50
112.024313
51
270.000000
0
LINE
8
0
10
173.801238
20
10.765244
30
0.0
11
175.301225
21
10.765244
31
0.0
0
ARC
8
0
10
175.301225
20
11.065244
30
0.0
40
0.300000
50
270.000000
51
360.000000
0
LINE
8
0
10
175.601225
20
11.065244
30
0.0
11
175.601225
21
11.209082
31
0.0
0
ARC
8
0
10
175.901225
20
11.209082
30
0.0
40
0.300000
50
55.444057
51
180.000000
0
LINE
8
0
10
176.071389
20
11.456154
30
0.0
11
177.171401
21
10.698554
31
0.0
0
ARC
8
0
10
177.001238
20
10.451482
30
0.0
40
0.300000
50
360.000000
51
55.444057
0
LINE
8
0
10
177.301238
20
10.451482
30
0.0
11
177.301238
21
10.265241
31
0.0
0
ARC
8
0
10
177.001238
20
10.265241
30
0.0
40
0.300000
50
270.000000
51
360.000000
0
LINE
8
0
10
177.001238
20
9.965241
30
0.0
11
173.851238
21
9.965241
31
0.0
0
ARC
8
0
10
173.851238
20
9.665241
30
0.0
40
0.300000
50
90.000000
51
180.000000
0
LINE
8
0
10
173.551238
20
9.665241
30
0.0
11
173.551238
21
8.865247
31
0.0
0
ARC
8
0
10
173.851238
20
8.865247
30
0.0
40
0.300000
50
180.000000
51
270.000000
0
LINE
8
0
10
173.851238
20
8.565247
30
0.0
11
177.001238
21
8.565247
31
0.0
0
ARC
8
0
10
177.001238
20
8.265247
30
0.0
40
0.300000
50
360.000000
51
90.000000
0
LINE
8
0
10
177.301238
20
8.265247
30
0.0
11
177.301238
21
8.079007
31
0.0
0
ARC
8
0
10
177.001238
20
8.079007
30
0.0
40
0.300000
50
304.555943
51
360.000000
0
LINE
8
0
10
177.171401
20
7.831935
30
0.0
11
176.071389
21
7.074335
31
0.0
0
ARC
8
0
10
175.901225
20
7.321407
30
0.0
40
0.300000
50
180.000000
51
304.555943
0
LINE
8
0
10
175.601225
20
7.321407
30
0.0
11
175.601225
21
7.465244
31
0.0
0
ARC
8
0
10
175.301225
20
7.465244
30
0.0
40
0.300000
50
360.000000
51
90.000000
0
LINE
8
0
10
175.301225
20
7.765244
30
0.0
11
173.801238
21
7.765244
31
0.0
0
ARC
8
0
10
172.001238
20
6.675762
30
0.0
40
0.300000
50
270.000000
51
360.000000
0
LINE
8
0
10
172.001238
20
6.375762
30
0.0
11
171.403747
21
6.375762
31
0.0
0
ARC
8
0
10
171.403747
20
6.675762
30
0.0
40
0.300000
50
195.001154
51
270.000000
0
LINE
8
0
10
171.113971
20
6.598111
30
0.0
11
170.165493
21
10.137593
31
0.0
0
ARC
8
0
10
170.455269
20
10.215244
30
0.0
40
0.300000
50
90.000000
51
195.001154
0
LINE
8
0
10
170.455269
20
10.515244
30
0.0
11
172.001238
21
10.515244
31
0.0
0
ARC
8
0
10
172.001238
20
10.215244
30
0.0
40
0.300000
50
360.000000
51
90.000000
0
LINE
8
0
10
172.301238
20
10.215244
30
0.0
11
172.301238
21
6.675762
31
0.0
0
LINE
8
0
10
178.226259
20
15.515288
30
0.0
11
174.101250
21
15.515113
31
0.0
0
ARC
8
0
10
174.101238
20
15.815113
30
0.0
40
0.300000
50
180.000000
51
270.000000
0
LINE
8
0
10
173.801238
20
15.815113
30
0.0
11
173.801238
21
16.716145
31
0.0
0
ARC
8
0
10
174.101238
20
16.716145
30
0.0
40
0.300000
50
90.000000
51
180.000000
0
LINE
8
0
10
174.101245
20
17.016145
30
0.0
11
178.226254
21
17.016038
31
0.0
0
ARC
8
0
10
178.226246
20
16.716038
30
0.0
40
0.300000
50
360.000000
51
90.000000
0
LINE
8
0
10
178.526246
20
16.716038
30
0.0
11
178.526246
21
15.815288
31
0.0
0
ARC
8
0
10
178.226246
20
15.815288
30
0.0
40
0.300000
50
270.000000
51
360.000000
0
ARC
8
0
10
180.326246
20
16.715983
30
0.0
40
0.300000
50
90.000000
51
180.000000
0
LINE
8
0
10
180.326254
20
17.015983
30
0.0
11
184.451246
21
17.015876
31
0.0
0
ARC
8
0
10
184.451239
20
16.715876
30
0.0
40
0.300000
50
360.000000
51
90.000000
0
LINE
8
0
10
184.751239
20
16.715876
30
0.0
11
184.751239
21
15.815552
31
0.0
0
ARC
8
0
10
184.451239
20
15.815552
30
0.0
40
0.300000
50
270.000000
51
360.000000
0
LINE
8
0
10
184.451251
20
15.515552
30
0.0
11
180.326259
21
15.515377
31
0.0
0
ARC
8
0
10
180.326246
20
15.815377
30
0.0
40
0.300000
50
180.000000
51
270.000000
0
LINE
8
0
10
180.026246
20
15.815377
30
0.0
11
180.026246
21
16.715983
31
0.0
0
ATTDEF
8
0
10
0.000000
20
0.000000
30
0.0
40
3.5
1

3

2
PANE_WIDTH:0
70
0
0
ATTDEF
8
0
10
0.000000
20
0.000000
30
0.0
40
3.5
1

3

2
MIN_VETRO:0
70
0
0
ATTDEF
8
0
10
0.000000
20
0.000000
30
0.0
40
3.5
1

3

2
MAX_VETRO:0
70
0
0
ATTDEF
8
0
10
0.000000
20
0.000000
30
0.0
40
3.5
1

3

2
JX:0
70
0
0
ATTDEF
8
0
10
0.000000
20
0.000000
30
0.0
40
3.5
1

3

2
WX:0
70
0
0
ATTDEF
8
0
10
0.000000
20
0.000000
30
0.0
40
3.5
1

3

2
JY:0
70
0
0
ATTDEF
8
0
10
0.000000
20
0.000000
30
0.0
40
3.5
1

3

2
WY:0
70
0
0
ATTDEF
8
0
10
0.000000
20
0.000000
30
0.0
40
3.5
1

3

2
DESC:Suplemento aislante de marco
70
0
0
ATTDEF
8
0
10
0.000000
20
0.000000
30
0.0
40
3.5
1

3

2
DENS:0
70
0
0
ATTDEF
8
0
10
0.000000
20
0.000000
30
0.0
40
3.5
1

3

2
TDEV:0
70
0
0
ATTDEF
8
0
10
0.000000
20
0.000000
30
0.0
40
3.5
1

3

2
TDEV2:0
70
0
0
ATTDEF
8
0
10
0.000000
20
0.000000
30
0.0
40
3.5
1

3

2
TDEV3:0
70
0
0
ATTDEF
8
0
10
0.000000
20
0.000000
30
0.0
40
3.5
1

3

2
TDEV4:0
70
0
0
ATTDEF
8
0
10
0.000000
20
0.000000
30
0.0
40
3.5
1

3

2
TDEV5:0
70
0
0
ATTDEF
8
0
10
0.000000
20
0.000000
30
0.0
40
3.5
1

3

2
PANE_WIDTH:0
70
0
0
ATTDEF
8
0
10
0.000000
20
0.000000
30
0.0
40
3.5
1

3

2
MIN_VETRO:0
70
0
0
ATTDEF
8
0
10
0.000000
20
0.000000
30
0.0
40
3.5
1

3

2
MAX_VETRO:0
70
0
0
ATTDEF
8
0
10
0.000000
20
0.000000
30
0.0
40
3.5
1

3

2
JX:0
70
0
0
ATTDEF
8
0
10
0.000000
20
0.000000
30
0.0
40
3.5
1

3

2
WX:0
70
0
0
ATTDEF
8
0
10
0.000000
20
0.000000
30
0.0
40
3.5
1

3

2
JY:0
70
0
0
ATTDEF
8
0
10
0.000000
20
0.000000
30
0.0
40
3.5
1

3

2
WY:0
70
0
0
ATTDEF
8
0
10
186.251239
20
18.015842
30
0.0
40
3.5
1

3

2
HC_START
70
0
0
ATTDEF
8
0
10
168.297962
20
16.016145
30
0.0
40
3.5
1

3

2
HC_END
70
0
0
ATTDEF
8
0
10
168.297962
20
18.516206
30
0.0
40
3.5
1

3

2
FP_LCS_ORIG
70
0
0
ATTDEF
8
0
10
168.297962
20
8.516206
30
0.0
40
3.5
1

3

2
FP_LCS_HOT
70
0
0
ATTDEF
8
0
10
178.297962
20
18.516206
30
0.0
40
3.5
1

3

2
FP_LCS_INTERN
70
0
0
ENDSEC
0
EOF
