0
SECTION
2
ENTITIES
0
LINE
8
0
10
2526.835109
20
1238.075610
30
0.0
11
2528.376536
21
1239.015768
31
0.0
0
ARC
8
0
10
2527.855822
20
1239.869499
30
0.0
40
1.000000
50
301.380132
51
0.000000
0
LINE
8
0
10
2528.855822
20
1239.869499
30
0.0
11
2528.855822
21
1241.061634
31
0.0
0
ARC
8
0
10
2528.655822
20
1241.061634
30
0.0
40
0.200000
50
0.000000
51
163.047211
0
ARC
8
0
10
2528.273204
20
1241.178267
30
0.0
40
0.200000
50
301.380132
51
343.047211
0
LINE
8
0
10
2528.377347
20
1241.007521
30
0.0
11
2526.779925
21
1240.033211
31
0.0
0
ARC
8
0
10
2526.623711
20
1240.289330
30
0.0
40
0.300000
50
270.000000
51
301.380132
0
LINE
8
0
10
2526.623711
20
1239.989330
30
0.0
11
2526.555822
21
1239.989330
31
0.0
0
ARC
8
0
10
2526.555822
20
1240.189330
30
0.0
40
0.200000
50
180.000000
51
270.000000
0
LINE
8
0
10
2526.355822
20
1240.189330
30
0.0
11
2526.355822
21
1244.531073
31
0.0
0
ARC
8
0
10
2526.155822
20
1244.531073
30
0.0
40
0.200000
50
0.000000
51
66.421822
0
ARC
8
0
10
2526.355822
20
1244.989330
30
0.0
40
0.300000
50
90.000000
51
246.421822
0
LINE
8
0
10
2526.355822
20
1245.289330
30
0.0
11
2526.732149
21
1245.185234
31
0.0
0
ARC
8
0
10
2526.641937
20
1244.899118
30
0.0
40
0.300000
50
357.325828
51
72.500000
0
ARC
8
0
10
2527.141393
20
1244.875790
30
0.0
40
0.200000
50
177.325828
51
237.498474
0
LINE
8
0
10
2527.033928
20
1244.707115
30
0.0
11
2528.389522
21
1243.843456
31
0.0
0
ARC
8
0
10
2528.282058
20
1243.674780
30
0.0
40
0.200000
50
339.172413
51
57.498474
0
ARC
8
0
10
2528.655920
20
1243.532557
30
0.0
40
0.200000
50
159.172413
51
321.753920
0
LINE
8
0
10
2528.812992
20
1243.408749
30
0.0
11
2530.849958
21
1245.992992
31
0.0
0
ARC
8
0
10
2530.692886
20
1246.116800
30
0.0
40
0.200000
50
321.753920
51
355.858276
0
ARC
8
0
10
2530.593147
20
1246.124022
30
0.0
40
0.300000
50
355.858276
51
86.894587
0
LINE
8
0
10
2530.609399
20
1246.423582
30
0.0
11
2530.599150
21
1246.424006
31
0.0
0
LINE
8
0
10
2530.599150
20
1246.424006
30
0.0
11
2529.649180
21
1246.459234
31
0.0
0
ARC
8
0
10
2529.641768
20
1246.259371
30
0.0
40
0.200000
50
87.876251
51
140.681121
0
ARC
8
0
10
2528.094505
20
1247.526643
30
0.0
40
1.800000
50
266.364699
51
320.681121
0
ARC
8
0
10
2527.999397
20
1246.029661
30
0.0
40
0.300000
50
245.406671
51
266.364699
0
LINE
8
0
10
2527.874545
20
1245.756876
30
0.0
11
2526.669771
21
1246.239857
31
0.0
0
ARC
8
0
10
2526.855822
20
1246.703953
30
0.0
40
0.500000
50
180.000000
51
248.154667
0
LINE
8
0
10
2526.355822
20
1246.703953
30
0.0
11
2525.655822
21
1246.703953
31
0.0
0
ARC
8
0
10
2525.655822
20
1247.203953
30
0.0
40
0.500000
50
180.000000
51
270.000000
0
LINE
8
0
10
2525.155822
20
1247.203953
30
0.0
11
2525.155822
21
1251.203953
31
0.0
0
ARC
8
0
10
2524.655822
20
1251.203953
30
0.0
40
0.500000
50
0.000000
51
90.000000
0
LINE
8
0
10
2524.655822
20
1251.703953
30
0.0
11
2522.562929
21
1251.703953
31
0.0
0
ARC
8
0
10
2522.562929
20
1251.203953
30
0.0
40
0.500000
50
90.000000
51
135.000000
0
LINE
8
0
10
2522.209376
20
1251.557506
30
0.0
11
2521.502269
21
1250.850399
31
0.0
0
ARC
8
0
10
2521.855822
20
1250.496846
30
0.0
40
0.500000
50
135.000000
51
180.000000
0
LINE
8
0
10
2521.355822
20
1250.496846
30
0.0
11
2521.355822
21
1249.703953
31
0.0
0
LINE
8
0
10
2521.355822
20
1249.703953
30
0.0
11
2523.055822
21
1249.703953
31
0.0
0
ARC
8
0
10
2523.055822
20
1249.403953
30
0.0
40
0.300000
50
0.000000
51
90.000000
0
LINE
8
0
10
2523.355822
20
1249.403953
30
0.0
11
2523.355822
21
1247.003953
31
0.0
0
ARC
8
0
10
2523.055822
20
1247.003953
30
0.0
40
0.300000
50
270.000000
51
0.000000
0
LINE
8
0
10
2523.055822
20
1246.703953
30
0.0
11
2505.655822
21
1246.703953
31
0.0
0
ARC
8
0
10
2505.655822
20
1247.003953
30
0.0
40
0.300000
50
180.000000
51
270.000000
0
LINE
8
0
10
2505.355822
20
1247.003953
30
0.0
11
2505.355822
21
1249.403953
31
0.0
0
ARC
8
0
10
2505.655822
20
1249.403953
30
0.0
40
0.300000
50
90.000000
51
180.000000
0
LINE
8
0
10
2505.655822
20
1249.703953
30
0.0
11
2507.355822
21
1249.703953
31
0.0
0
LINE
8
0
10
2507.355822
20
1249.703953
30
0.0
11
2507.355822
21
1250.496846
31
0.0
0
ARC
8
0
10
2506.855822
20
1250.496846
30
0.0
40
0.500000
50
0.000000
51
45.000000
0
LINE
8
0
10
2507.209376
20
1250.850399
30
0.0
11
2506.502269
21
1251.557506
31
0.0
0
ARC
8
0
10
2506.148715
20
1251.203953
30
0.0
40
0.500000
50
45.000000
51
90.000000
0
LINE
8
0
10
2506.148715
20
1251.703953
30
0.0
11
2504.355822
21
1251.703953
31
0.0
0
ARC
8
0
10
2504.355822
20
1251.203953
30
0.0
40
0.500000
50
90.000000
51
180.000000
0
LINE
8
0
10
2503.855822
20
1251.203953
30
0.0
11
2503.855822
21
1172.703953
31
0.0
0
ARC
8
0
10
2504.355822
20
1172.703953
30
0.0
40
0.500000
50
180.000000
51
270.000000
0
LINE
8
0
10
2504.355822
20
1172.203953
30
0.0
11
2507.655822
21
1172.203953
31
0.0
0
ARC
8
0
10
2507.655822
20
1172.703953
30
0.0
40
0.500000
50
270.000000
51
0.000000
0
LINE
8
0
10
2508.155822
20
1172.703953
30
0.0
11
2508.155822
21
1174.553953
31
0.0
0
ARC
8
0
10
2507.655822
20
1174.553953
30
0.0
40
0.500000
50
0.000000
51
90.000000
0
LINE
8
0
10
2507.655822
20
1175.053953
30
0.0
11
2506.955822
21
1175.053953
31
0.0
0
LINE
8
0
10
2506.955822
20
1175.053953
30
0.0
11
2506.955822
21
1174.103953
31
0.0
0
ARC
8
0
10
2506.655822
20
1174.103953
30
0.0
40
0.300000
50
270.000000
51
0.000000
0
LINE
8
0
10
2506.655822
20
1173.803953
30
0.0
11
2505.855822
21
1173.803953
31
0.0
0
ARC
8
0
10
2505.855822
20
1174.303953
30
0.0
40
0.500000
50
180.000000
51
270.000000
0
LINE
8
0
10
2505.355822
20
1174.303953
30
0.0
11
2505.355822
21
1179.303953
31
0.0
0
ARC
8
0
10
2505.855822
20
1179.303953
30
0.0
40
0.500000
50
90.000000
51
180.000000
0
LINE
8
0
10
2505.855822
20
1179.803953
30
0.0
11
2506.655822
21
1179.803953
31
0.0
0
ARC
8
0
10
2506.655822
20
1179.503953
30
0.0
40
0.300000
50
0.000000
51
90.000000
0
LINE
8
0
10
2506.955822
20
1179.503953
30
0.0
11
2506.955822
21
1178.553953
31
0.0
0
LINE
8
0
10
2506.955822
20
1178.553953
30
0.0
11
2507.655822
21
1178.553953
31
0.0
0
ARC
8
0
10
2507.655822
20
1179.053953
30
0.0
40
0.500000
50
270.000000
51
0.000000
0
LINE
8
0
10
2508.155822
20
1179.053953
30
0.0
11
2508.155822
21
1180.903953
31
0.0
0
ARC
8
0
10
2507.655822
20
1180.903953
30
0.0
40
0.500000
50
0.000000
51
90.000000
0
LINE
8
0
10
2507.655822
20
1181.403953
30
0.0
11
2506.355822
21
1181.403953
31
0.0
0
ARC
8
0
10
2506.355822
20
1181.703953
30
0.0
40
0.300000
50
180.000000
51
270.000000
0
LINE
8
0
10
2506.055822
20
1181.703953
30
0.0
11
2506.055822
21
1192.203953
31
0.0
0
ARC
8
0
10
2507.055822
20
1192.203953
30
0.0
40
1.000000
50
90.000000
51
180.000000
0
LINE
8
0
10
2507.055822
20
1193.203953
30
0.0
11
2526.355822
21
1193.203953
31
0.0
0
LINE
8
0
10
2526.355822
20
1193.203953
30
0.0
11
2527.874545
21
1193.812793
31
0.0
0
ARC
8
0
10
2527.999397
20
1193.540007
30
0.0
40
0.300000
50
93.635301
51
114.593329
0
ARC
8
0
10
2528.094505
20
1192.043026
30
0.0
40
1.800000
50
39.318879
51
93.635301
0
ARC
8
0
10
2529.641768
20
1193.310297
30
0.0
40
0.200000
50
219.318879
51
272.123749
0
LINE
8
0
10
2529.649180
20
1193.110435
30
0.0
11
2530.599150
21
1193.145663
31
0.0
0
LINE
8
0
10
2530.599150
20
1193.145663
30
0.0
11
2530.609399
21
1193.146087
31
0.0
0
ARC
8
0
10
2530.593147
20
1193.445646
30
0.0
40
0.300000
50
273.105413
51
4.141724
0
ARC
8
0
10
2530.692886
20
1193.452869
30
0.0
40
0.200000
50
4.141724
51
38.246080
0
LINE
8
0
10
2530.849958
20
1193.576677
30
0.0
11
2528.812992
21
1196.160919
31
0.0
0
ARC
8
0
10
2528.655920
20
1196.037111
30
0.0
40
0.200000
50
38.246080
51
200.827587
0
ARC
8
0
10
2528.282058
20
1195.894888
30
0.0
40
0.200000
50
302.501526
51
20.827587
0
LINE
8
0
10
2528.389522
20
1195.726213
30
0.0
11
2527.033928
21
1194.862553
31
0.0
0
ARC
8
0
10
2527.141393
20
1194.693878
30
0.0
40
0.200000
50
122.501526
51
182.674172
0
ARC
8
0
10
2526.641937
20
1194.670550
30
0.0
40
0.300000
50
287.500000
51
2.674172
0
LINE
8
0
10
2526.732149
20
1194.384435
30
0.0
11
2526.355822
21
1194.280338
31
0.0
0
ARC
8
0
10
2526.355822
20
1194.580338
30
0.0
40
0.300000
50
113.578178
51
270.000000
0
ARC
8
0
10
2526.155822
20
1195.038596
30
0.0
40
0.200000
50
293.578179
51
0.000000
0
LINE
8
0
10
2526.355822
20
1195.038596
30
0.0
11
2526.355822
21
1199.380338
31
0.0
0
ARC
8
0
10
2526.555822
20
1199.380338
30
0.0
40
0.200000
50
90.000000
51
180.000000
0
LINE
8
0
10
2526.555822
20
1199.580338
30
0.0
11
2526.623711
21
1199.580338
31
0.0
0
ARC
8
0
10
2526.623711
20
1199.280338
30
0.0
40
0.300000
50
58.619868
51
90.000000
0
LINE
8
0
10
2526.779925
20
1199.536458
30
0.0
11
2528.377347
21
1198.562147
31
0.0
0
ARC
8
0
10
2528.273204
20
1198.391401
30
0.0
40
0.200000
50
16.952789
51
58.619868
0
ARC
8
0
10
2528.655822
20
1198.508034
30
0.0
40
0.200000
50
196.952789
51
0.000000
0
LINE
8
0
10
2528.855822
20
1198.508034
30
0.0
11
2528.855822
21
1199.700169
31
0.0
0
ARC
8
0
10
2527.855822
20
1199.700169
30
0.0
40
1.000000
50
0.000000
51
58.619868
0
LINE
8
0
10
2528.376536
20
1200.553900
30
0.0
11
2526.835109
21
1201.494058
31
0.0
0
ARC
8
0
10
2527.355822
20
1202.347790
30
0.0
40
1.000000
50
180.000000
51
238.619868
0
LINE
8
0
10
2526.355822
20
1202.347790
30
0.0
11
2526.355822
21
1237.221879
31
0.0
0
ARC
8
0
10
2527.355822
20
1237.221879
30
0.0
40
1.000000
50
121.380132
51
180.000000
0
ARC
8
0
10
2577.855822
20
1269.003953
30
0.0
40
0.500000
50
90.000000
51
180.000000
0
LINE
8
0
10
2577.355822
20
1269.003953
30
0.0
11
2577.355822
21
1263.703953
31
0.0
0
ARC
8
0
10
2576.355822
20
1263.703953
30
0.0
40
1.000000
50
270.000000
51
0.000000
0
LINE
8
0
10
2576.355822
20
1262.703953
30
0.0
11
2575.255822
21
1262.703953
31
0.0
0
ARC
8
0
10
2575.255822
20
1262.403953
30
0.0
40
0.300000
50
90.000000
51
180.000000
0
LINE
8
0
10
2574.955822
20
1262.403953
30
0.0
11
2574.955822
21
1242.203953
31
0.0
0
ARC
8
0
10
2574.455822
20
1242.203953
30
0.0
40
0.500000
50
270.000000
51
0.000000
0
LINE
8
0
10
2574.455822
20
1241.703953
30
0.0
11
2573.655822
21
1241.703953
31
0.0
0
ARC
8
0
10
2573.655822
20
1242.203953
30
0.0
40
0.500000
50
180.000000
51
270.000000
0
LINE
8
0
10
2573.155822
20
1242.203953
30
0.0
11
2573.155822
21
1244.703953
31
0.0
0
LINE
8
0
10
2573.155822
20
1244.703953
30
0.0
11
2563.155822
21
1244.703953
31
0.0
0
LINE
8
0
10
2563.155822
20
1244.703953
30
0.0
11
2563.155822
21
1195.403953
31
0.0
0
LINE
8
0
10
2563.155822
20
1195.403953
30
0.0
11
2573.155822
21
1195.403953
31
0.0
0
LINE
8
0
10
2573.155822
20
1195.403953
30
0.0
11
2573.155822
21
1202.203953
31
0.0
0
ARC
8
0
10
2574.155822
20
1202.203953
30
0.0
40
1.000000
50
90.000000
51
180.000000
0
LINE
8
0
10
2574.155822
20
1203.203953
30
0.0
11
2581.655822
21
1203.203953
31
0.0
0
LINE
8
0
10
2581.655822
20
1203.203953
30
0.0
11
2581.655822
21
1269.003953
31
0.0
0
ARC
8
0
10
2581.155822
20
1269.003953
30
0.0
40
0.500000
50
0.000000
51
90.000000
0
LINE
8
0
10
2581.155822
20
1269.503953
30
0.0
11
2577.855822
21
1269.503953
31
0.0
0
LINE
8
0
10
2506.055822
20
1244.703953
30
0.0
11
2506.055822
21
1195.403953
31
0.0
0
LINE
8
0
10
2506.055822
20
1195.403953
30
0.0
11
2512.755822
21
1195.403953
31
0.0
0
LINE
8
0
10
2512.755822
20
1195.403953
30
0.0
11
2512.755822
21
1197.403953
31
0.0
0
ARC
8
0
10
2513.255822
20
1197.403953
30
0.0
40
0.500000
50
90.000000
51
180.000000
0
LINE
8
0
10
2513.255822
20
1197.903953
30
0.0
11
2514.055822
21
1197.903953
31
0.0
0
ARC
8
0
10
2514.055822
20
1197.403953
30
0.0
40
0.500000
50
0.000000
51
90.000000
0
LINE
8
0
10
2514.555822
20
1197.403953
30
0.0
11
2514.555822
21
1195.403953
31
0.0
0
LINE
8
0
10
2514.555822
20
1195.403953
30
0.0
11
2524.555822
21
1195.403953
31
0.0
0
LINE
8
0
10
2524.555822
20
1195.403953
30
0.0
11
2524.555822
21
1244.703953
31
0.0
0
LINE
8
0
10
2524.555822
20
1244.703953
30
0.0
11
2514.555822
21
1244.703953
31
0.0
0
LINE
8
0
10
2514.555822
20
1244.703953
30
0.0
11
2514.555822
21
1242.703953
31
0.0
0
ARC
8
0
10
2514.055822
20
1242.703953
30
0.0
40
0.500000
50
270.000000
51
0.000000
0
LINE
8
0
10
2514.055822
20
1242.203953
30
0.0
11
2513.255822
21
1242.203953
31
0.0
0
ARC
8
0
10
2513.255822
20
1242.703953
30
0.0
40
0.500000
50
180.000000
51
270.000000
0
LINE
8
0
10
2512.755822
20
1242.703953
30
0.0
11
2512.755822
21
1244.703953
31
0.0
0
LINE
8
0
10
2512.755822
20
1244.703953
30
0.0
11
2506.055822
21
1244.703953
31
0.0
0
LINE
8
0
10
2527.130087
20
1242.953462
30
0.0
11
2527.969027
21
1243.792401
31
0.0
0
LINE
8
0
10
2526.775642
20
1240.353953
30
0.0
11
2532.875642
21
1246.453953
31
0.0
0
LINE
8
0
10
2529.987650
20
1241.320896
30
0.0
11
2530.842832
21
1242.176079
31
0.0
0
LINE
8
0
10
2533.320706
20
1244.653953
30
0.0
11
2535.120706
21
1246.453953
31
0.0
0
LINE
8
0
10
2535.565770
20
1244.653953
30
0.0
11
2537.365770
21
1246.453953
31
0.0
0
LINE
8
0
10
2537.810834
20
1244.653953
30
0.0
11
2539.610834
21
1246.453953
31
0.0
0
LINE
8
0
10
2540.055898
20
1244.653953
30
0.0
11
2541.855898
21
1246.453953
31
0.0
0
LINE
8
0
10
2542.300962
20
1244.653953
30
0.0
11
2544.100962
21
1246.453953
31
0.0
0
LINE
8
0
10
2544.546026
20
1244.653953
30
0.0
11
2546.346026
21
1246.453953
31
0.0
0
LINE
8
0
10
2546.791090
20
1244.653953
30
0.0
11
2548.591090
21
1246.453953
31
0.0
0
LINE
8
0
10
2549.036154
20
1244.653953
30
0.0
11
2550.836154
21
1246.453953
31
0.0
0
LINE
8
0
10
2551.281218
20
1244.653953
30
0.0
11
2553.081218
21
1246.453953
31
0.0
0
LINE
8
0
10
2553.526282
20
1244.653953
30
0.0
11
2555.326282
21
1246.453953
31
0.0
0
LINE
8
0
10
2555.423308
20
1244.305914
30
0.0
11
2556.906931
21
1245.789537
31
0.0
0
LINE
8
0
10
2556.345054
20
1242.982596
30
0.0
11
2557.790862
21
1244.428404
31
0.0
0
LINE
8
0
10
2557.242297
20
1241.634776
30
0.0
11
2559.086969
21
1243.479448
31
0.0
0
LINE
8
0
10
2559.081658
20
1241.229073
30
0.0
11
2560.031823
21
1242.179238
31
0.0
0
LINE
8
0
10
2560.780537
20
1242.927952
30
0.0
11
2561.255822
21
1243.403236
31
0.0
0
LINE
8
0
10
2560.542032
20
1240.444382
30
0.0
11
2561.324392
21
1241.226742
31
0.0
0
LINE
8
0
10
2526.822533
20
1197.744627
30
0.0
11
2527.820478
21
1198.742572
31
0.0
0
LINE
8
0
10
2526.579597
20
1195.256627
30
0.0
11
2529.637827
21
1198.314857
31
0.0
0
LINE
8
0
10
2529.443795
20
1195.875761
30
0.0
11
2530.889603
21
1197.321569
31
0.0
0
LINE
8
0
10
2530.327726
20
1194.514627
30
0.0
11
2531.773533
21
1195.960435
31
0.0
0
LINE
8
0
10
2531.317839
20
1193.259677
30
0.0
11
2532.991388
21
1194.933226
31
0.0
0
LINE
8
0
10
2533.418942
20
1193.115716
30
0.0
11
2535.218942
21
1194.915716
31
0.0
0
LINE
8
0
10
2535.664006
20
1193.115716
30
0.0
11
2537.464006
21
1194.915716
31
0.0
0
LINE
8
0
10
2537.909070
20
1193.115716
30
0.0
11
2539.709070
21
1194.915716
31
0.0
0
LINE
8
0
10
2540.154134
20
1193.115716
30
0.0
11
2541.954134
21
1194.915716
31
0.0
0
LINE
8
0
10
2542.399198
20
1193.115716
30
0.0
11
2544.199198
21
1194.915716
31
0.0
0
LINE
8
0
10
2544.644262
20
1193.115716
30
0.0
11
2546.444262
21
1194.915716
31
0.0
0
LINE
8
0
10
2546.889326
20
1193.115716
30
0.0
11
2548.689326
21
1194.915716
31
0.0
0
LINE
8
0
10
2549.134390
20
1193.115716
30
0.0
11
2550.934390
21
1194.915716
31
0.0
0
LINE
8
0
10
2551.379454
20
1193.115716
30
0.0
11
2553.179454
21
1194.915716
31
0.0
0
LINE
8
0
10
2553.624518
20
1193.115716
30
0.0
11
2558.824518
21
1198.315716
31
0.0
0
LINE
8
0
10
2555.870486
20
1193.116620
30
0.0
11
2557.597722
21
1194.843856
31
0.0
0
LINE
8
0
10
2560.568415
20
1197.814548
30
0.0
11
2561.355822
21
1198.601956
31
0.0
0
LINE
8
0
10
2558.869248
20
1196.115381
30
0.0
11
2560.006989
21
1197.253123
31
0.0
0
LINE
8
0
10
2560.393028
20
1195.394098
30
0.0
11
2561.255822
21
1196.256892
31
0.0
0
LINE
8
0
10
2527.068579
20
1195.247583
30
0.0
11
2526.355822
21
1195.960340
31
0.0
0
LINE
8
0
10
2531.280571
20
1193.280655
30
0.0
11
2530.848461
21
1193.712765
31
0.0
0
LINE
8
0
10
2526.818681
20
1197.742546
30
0.0
11
2526.455822
21
1198.105404
31
0.0
0
LINE
8
0
10
2528.503181
20
1196.058045
30
0.0
11
2527.632652
21
1196.928574
31
0.0
0
LINE
8
0
10
2533.690575
20
1193.115716
30
0.0
11
2528.388292
21
1198.417998
31
0.0
0
LINE
8
0
10
2535.935639
20
1193.115716
30
0.0
11
2534.135639
21
1194.915716
31
0.0
0
LINE
8
0
10
2538.180703
20
1193.115716
30
0.0
11
2536.380703
21
1194.915716
31
0.0
0
LINE
8
0
10
2540.425767
20
1193.115716
30
0.0
11
2538.625767
21
1194.915716
31
0.0
0
LINE
8
0
10
2542.670831
20
1193.115716
30
0.0
11
2540.870831
21
1194.915716
31
0.0
0
LINE
8
0
10
2544.915895
20
1193.115716
30
0.0
11
2543.115895
21
1194.915716
31
0.0
0
LINE
8
0
10
2547.160959
20
1193.115716
30
0.0
11
2545.360959
21
1194.915716
31
0.0
0
LINE
8
0
10
2549.406023
20
1193.115716
30
0.0
11
2547.606023
21
1194.915716
31
0.0
0
LINE
8
0
10
2551.651087
20
1193.115716
30
0.0
11
2549.851087
21
1194.915716
31
0.0
0
LINE
8
0
10
2553.896151
20
1193.115716
30
0.0
11
2552.096151
21
1194.915716
31
0.0
0
LINE
8
0
10
2556.107277
20
1193.149653
30
0.0
11
2554.341215
21
1194.915716
31
0.0
0
LINE
8
0
10
2557.227788
20
1194.274207
30
0.0
11
2555.781980
21
1195.720015
31
0.0
0
LINE
8
0
10
2558.111718
20
1195.635340
30
0.0
11
2556.665910
21
1197.081148
31
0.0
0
LINE
8
0
10
2560.776405
20
1195.215718
30
0.0
11
2557.738421
21
1198.253701
31
0.0
0
LINE
8
0
10
2560.443770
20
1197.793417
30
0.0
11
2559.641450
21
1198.595737
31
0.0
0
LINE
8
0
10
2526.863490
20
1240.353953
30
0.0
11
2526.355822
21
1240.861621
31
0.0
0
LINE
8
0
10
2528.335635
20
1241.126872
30
0.0
11
2527.531450
21
1241.931057
31
0.0
0
LINE
8
0
10
2530.254477
20
1241.453093
30
0.0
11
2527.837949
21
1243.869622
31
0.0
0
LINE
8
0
10
2531.210460
20
1242.742175
30
0.0
11
2529.764652
21
1244.187983
31
0.0
0
LINE
8
0
10
2532.097120
20
1244.100578
30
0.0
11
2530.648582
21
1245.549117
31
0.0
0
LINE
8
0
10
2533.788810
20
1244.653953
30
0.0
11
2531.988810
21
1246.453953
31
0.0
0
LINE
8
0
10
2536.033874
20
1244.653953
30
0.0
11
2534.233874
21
1246.453953
31
0.0
0
LINE
8
0
10
2538.278938
20
1244.653953
30
0.0
11
2536.478938
21
1246.453953
31
0.0
0
LINE
8
0
10
2540.524002
20
1244.653953
30
0.0
11
2538.724002
21
1246.453953
31
0.0
0
LINE
8
0
10
2542.769066
20
1244.653953
30
0.0
11
2540.969066
21
1246.453953
31
0.0
0
LINE
8
0
10
2545.014130
20
1244.653953
30
0.0
11
2543.214130
21
1246.453953
31
0.0
0
LINE
8
0
10
2547.259194
20
1244.653953
30
0.0
11
2545.459194
21
1246.453953
31
0.0
0
LINE
8
0
10
2549.504258
20
1244.653953
30
0.0
11
2547.704258
21
1246.453953
31
0.0
0
LINE
8
0
10
2551.749322
20
1244.653953
30
0.0
11
2549.949322
21
1246.453953
31
0.0
0
LINE
8
0
10
2553.994387
20
1244.653953
30
0.0
11
2552.194387
21
1246.453953
31
0.0
0
LINE
8
0
10
2560.316273
20
1240.577130
30
0.0
11
2554.439451
21
1246.453953
31
0.0
0
LINE
8
0
10
2560.280419
20
1242.858049
30
0.0
11
2559.493076
21
1243.645391
31
0.0
0
LINE
8
0
10
2561.347260
20
1244.036271
30
0.0
11
2561.038141
21
1244.345391
31
0.0
0
ARC
8
0
10
2555.823908
20
1245.253953
30
0.0
40
1.200000
50
33.000000
51
90.000000
0
LINE
8
0
10
2555.823908
20
1246.453953
30
0.0
11
2531.887736
21
1246.453953
31
0.0
0
ARC
8
0
10
2531.887736
20
1245.253953
30
0.0
40
1.200000
50
90.000000
51
147.000000
0
LINE
8
0
10
2530.881332
20
1245.907520
30
0.0
11
2529.377796
21
1243.592277
31
0.0
0
ARC
8
0
10
2529.125088
20
1243.753953
30
0.0
40
0.300000
50
270.000000
51
327.390000
0
LINE
8
0
10
2529.125088
20
1243.453953
30
0.0
11
2528.870719
21
1243.453953
31
0.0
0
ARC
8
0
10
2528.870719
20
1244.653953
30
0.0
40
1.200000
50
239.496833
51
270.000000
0
LINE
8
0
10
2528.261616
20
1243.620031
30
0.0
11
2527.086300
21
1244.312433
31
0.0
0
ARC
8
0
10
2526.934024
20
1244.053953
30
0.0
40
0.300000
50
59.496833
51
90.000000
0
LINE
8
0
10
2526.934024
20
1244.353953
30
0.0
11
2526.755822
21
1244.353953
31
0.0
0
ARC
8
0
10
2526.755822
20
1243.953953
30
0.0
40
0.400000
50
90.000000
51
180.000000
0
LINE
8
0
10
2526.355822
20
1243.953953
30
0.0
11
2526.355822
21
1243.553953
31
0.0
0
ARC
8
0
10
2526.455822
20
1243.553953
30
0.0
40
0.100000
50
180.000000
51
270.000000
0
LINE
8
0
10
2526.455822
20
1243.453953
30
0.0
11
2526.455822
21
1243.178953
31
0.0
0
ARC
8
0
10
2526.755822
20
1243.178953
30
0.0
40
0.300000
50
180.000000
51
270.000000
0
LINE
8
0
10
2526.755822
20
1242.878953
30
0.0
11
2526.815348
21
1242.878953
31
0.0
0
ARC
8
0
10
2527.105822
20
1242.353953
30
0.0
40
0.600000
50
241.044976
51
118.955024
0
LINE
8
0
10
2526.815348
20
1241.828953
30
0.0
11
2526.755822
21
1241.828953
31
0.0
0
ARC
8
0
10
2526.755822
20
1241.528953
30
0.0
40
0.300000
50
90.000000
51
180.000000
0
LINE
8
0
10
2526.455822
20
1241.528953
30
0.0
11
2526.455822
21
1241.253953
31
0.0
0
ARC
8
0
10
2526.455822
20
1241.153953
30
0.0
40
0.100000
50
90.000000
51
180.000000
0
LINE
8
0
10
2526.355822
20
1241.153953
30
0.0
11
2526.355822
21
1240.753953
31
0.0
0
ARC
8
0
10
2526.755822
20
1240.753953
30
0.0
40
0.400000
50
180.000000
51
270.000000
0
LINE
8
0
10
2526.755822
20
1240.353953
30
0.0
11
2526.934157
21
1240.353953
31
0.0
0
ARC
8
0
10
2526.934157
20
1240.653953
30
0.0
40
0.300000
50
270.000000
51
300.455827
0
LINE
8
0
10
2527.086219
20
1240.395347
30
0.0
11
2528.264828
21
1241.088377
31
0.0
0
ARC
8
0
10
2528.873077
20
1240.053953
30
0.0
40
1.200000
50
90.000000
51
120.455827
0
LINE
8
0
10
2528.873077
20
1241.253953
30
0.0
11
2529.592450
21
1241.253953
31
0.0
0
ARC
8
0
10
2529.592450
20
1242.453953
30
0.0
40
1.200000
50
270.000000
51
327.000000
0
LINE
8
0
10
2530.598854
20
1241.800386
30
0.0
11
2532.037982
21
1244.016447
31
0.0
0
ARC
8
0
10
2533.212120
20
1243.253953
30
0.0
40
1.400000
50
90.000000
51
147.000000
0
LINE
8
0
10
2533.212120
20
1244.653953
30
0.0
11
2554.499524
21
1244.653953
31
0.0
0
ARC
8
0
10
2554.499524
20
1243.253953
30
0.0
40
1.400000
50
33.000000
51
90.000000
0
LINE
8
0
10
2555.673663
20
1244.016447
30
0.0
11
2557.112790
21
1241.800386
31
0.0
0
ARC
8
0
10
2558.119195
20
1242.453953
30
0.0
40
1.200000
50
213.000000
51
270.000000
0
LINE
8
0
10
2558.119195
20
1241.253953
30
0.0
11
2558.838568
21
1241.253953
31
0.0
0
ARC
8
0
10
2558.838568
20
1240.053953
30
0.0
40
1.200000
50
59.544173
51
90.000000
0
LINE
8
0
10
2559.446816
20
1241.088377
30
0.0
11
2560.625425
21
1240.395347
31
0.0
0
ARC
8
0
10
2560.777487
20
1240.653953
30
0.0
40
0.300000
50
239.544173
51
270.000000
0
LINE
8
0
10
2560.777487
20
1240.353953
30
0.0
11
2560.955822
21
1240.353953
31
0.0
0
ARC
8
0
10
2560.955822
20
1240.753953
30
0.0
40
0.400000
50
270.000000
51
0.000000
0
LINE
8
0
10
2561.355822
20
1240.753953
30
0.0
11
2561.355822
21
1241.153953
31
0.0
0
ARC
8
0
10
2561.255822
20
1241.153953
30
0.0
40
0.100000
50
0.000000
51
90.000000
0
LINE
8
0
10
2561.255822
20
1241.253953
30
0.0
11
2561.255822
21
1241.528953
31
0.0
0
ARC
8
0
10
2560.955822
20
1241.528953
30
0.0
40
0.300000
50
0.000000
51
90.000000
0
LINE
8
0
10
2560.955822
20
1241.828953
30
0.0
11
2560.896296
21
1241.828953
31
0.0
0
ARC
8
0
10
2560.605822
20
1242.353953
30
0.0
40
0.600000
50
61.044976
51
298.955024
0
LINE
8
0
10
2560.896296
20
1242.878953
30
0.0
11
2560.955822
21
1242.878953
31
0.0
0
ARC
8
0
10
2560.955822
20
1243.178953
30
0.0
40
0.300000
50
270.000000
51
0.000000
0
LINE
8
0
10
2561.255822
20
1243.178953
30
0.0
11
2561.255822
21
1243.453953
31
0.0
0
ARC
8
0
10
2561.255822
20
1243.553953
30
0.0
40
0.100000
50
270.000000
51
0.000000
0
LINE
8
0
10
2561.355822
20
1243.553953
30
0.0
11
2561.355822
21
1243.953953
31
0.0
0
ARC
8
0
10
2560.955822
20
1243.953953
30
0.0
40
0.400000
50
0.000000
51
90.000000
0
LINE
8
0
10
2560.955822
20
1244.353953
30
0.0
11
2560.777620
21
1244.353953
31
0.0
0
ARC
8
0
10
2560.777620
20
1244.053953
30
0.0
40
0.300000
50
90.000000
51
120.503167
0
LINE
8
0
10
2560.625345
20
1244.312433
30
0.0
11
2559.450028
21
1243.620031
31
0.0
0
ARC
8
0
10
2558.840925
20
1244.653953
30
0.0
40
1.200000
50
270.000000
51
300.503167
0
LINE
8
0
10
2558.840925
20
1243.453953
30
0.0
11
2558.586556
21
1243.453953
31
0.0
0
ARC
8
0
10
2558.586556
20
1243.753953
30
0.0
40
0.300000
50
212.610000
51
270.000000
0
LINE
8
0
10
2558.333849
20
1243.592277
30
0.0
11
2556.830313
21
1245.907520
31
0.0
0
LINE
8
0
10
2560.876536
20
1238.075610
30
0.0
11
2559.335109
21
1239.015768
31
0.0
0
ARC
8
0
10
2559.855822
20
1239.869499
30
0.0
40
1.000000
50
180.000000
51
238.619868
0
LINE
8
0
10
2558.855822
20
1239.869499
30
0.0
11
2558.855822
21
1241.061634
31
0.0
0
ARC
8
0
10
2559.055822
20
1241.061634
30
0.0
40
0.200000
50
16.952789
51
180.000000
0
ARC
8
0
10
2559.438440
20
1241.178267
30
0.0
40
0.200000
50
196.952789
51
238.619868
0
LINE
8
0
10
2559.334298
20
1241.007521
30
0.0
11
2560.931719
21
1240.033211
31
0.0
0
ARC
8
0
10
2561.087933
20
1240.289330
30
0.0
40
0.300000
50
238.619868
51
270.000000
0
LINE
8
0
10
2561.087933
20
1239.989330
30
0.0
11
2561.155822
21
1239.989330
31
0.0
0
ARC
8
0
10
2561.155822
20
1240.189330
30
0.0
40
0.200000
50
270.000000
51
0.000000
0
LINE
8
0
10
2561.355822
20
1240.189330
30
0.0
11
2561.355822
21
1244.531073
31
0.0
0
ARC
8
0
10
2561.555822
20
1244.531073
30
0.0
40
0.200000
50
113.578178
51
180.000000
0
ARC
8
0
10
2561.355822
20
1244.989330
30
0.0
40
0.300000
50
293.578179
51
90.000000
0
LINE
8
0
10
2561.355822
20
1245.289330
30
0.0
11
2560.979495
21
1245.185234
31
0.0
0
ARC
8
0
10
2561.069707
20
1244.899118
30
0.0
40
0.300000
50
107.500000
51
182.674172
0
ARC
8
0
10
2560.570252
20
1244.875790
30
0.0
40
0.200000
50
302.501526
51
2.674172
0
LINE
8
0
10
2560.677716
20
1244.707115
30
0.0
11
2559.322122
21
1243.843456
31
0.0
0
ARC
8
0
10
2559.429586
20
1243.674780
30
0.0
40
0.200000
50
122.501526
51
200.827587
0
ARC
8
0
10
2559.055724
20
1243.532557
30
0.0
40
0.200000
50
218.246080
51
20.827587
0
LINE
8
0
10
2558.898653
20
1243.408749
30
0.0
11
2556.861687
21
1245.992992
31
0.0
0
ARC
8
0
10
2557.018759
20
1246.116800
30
0.0
40
0.200000
50
184.141724
51
218.246080
0
ARC
8
0
10
2557.118497
20
1246.124022
30
0.0
40
0.300000
50
93.105413
51
184.141724
0
LINE
8
0
10
2557.102245
20
1246.423582
30
0.0
11
2557.112494
21
1246.424006
31
0.0
0
LINE
8
0
10
2557.112494
20
1246.424006
30
0.0
11
2558.062464
21
1246.459234
31
0.0
0
ARC
8
0
10
2558.069876
20
1246.259371
30
0.0
40
0.200000
50
39.318879
51
92.123749
0
ARC
8
0
10
2559.617139
20
1247.526643
30
0.0
40
1.800000
50
219.318879
51
273.635301
0
ARC
8
0
10
2559.712247
20
1246.029661
30
0.0
40
0.300000
50
273.635301
51
294.593329
0
LINE
8
0
10
2559.837100
20
1245.756876
30
0.0
11
2561.041873
21
1246.239857
31
0.0
0
ARC
8
0
10
2560.855822
20
1246.703953
30
0.0
40
0.500000
50
291.845333
51
0.000000
0
LINE
8
0
10
2561.355822
20
1246.703953
30
0.0
11
2572.455822
21
1246.703953
31
0.0
0
ARC
8
0
10
2572.455822
20
1247.203953
30
0.0
40
0.500000
50
270.000000
51
0.000000
0
LINE
8
0
10
2572.955822
20
1247.203953
30
0.0
11
2572.955822
21
1262.462333
31
0.0
0
ARC
8
0
10
2572.655822
20
1262.462333
30
0.0
40
0.300000
50
0.000000
51
67.975687
0
ARC
8
0
10
2572.955822
20
1263.203953
30
0.0
40
0.500000
50
180.000000
51
247.975687
0
LINE
8
0
10
2572.455822
20
1263.203953
30
0.0
11
2572.455822
21
1264.953953
31
0.0
0
ARC
8
0
10
2572.955822
20
1264.953953
30
0.0
40
0.500000
50
90.000000
51
180.000000
0
LINE
8
0
10
2572.955822
20
1265.453953
30
0.0
11
2573.655822
21
1265.453953
31
0.0
0
LINE
8
0
10
2573.655822
20
1265.453953
30
0.0
11
2573.655822
21
1264.603953
31
0.0
0
ARC
8
0
10
2573.955822
20
1264.603953
30
0.0
40
0.300000
50
180.000000
51
270.000000
0
LINE
8
0
10
2573.955822
20
1264.303953
30
0.0
11
2575.455822
21
1264.303953
31
0.0
0
ARC
8
0
10
2575.455822
20
1264.603953
30
0.0
40
0.300000
50
270.000000
51
0.000000
0
LINE
8
0
10
2575.755822
20
1264.603953
30
0.0
11
2575.755822
21
1269.803953
31
0.0
0
ARC
8
0
10
2575.455822
20
1269.803953
30
0.0
40
0.300000
50
0.000000
51
90.000000
0
LINE
8
0
10
2575.455822
20
1270.103953
30
0.0
11
2573.955822
21
1270.103953
31
0.0
0
ARC
8
0
10
2573.955822
20
1269.803953
30
0.0
40
0.300000
50
90.000000
51
180.000000
0
LINE
8
0
10
2573.655822
20
1269.803953
30
0.0
11
2573.655822
21
1268.953953
31
0.0
0
LINE
8
0
10
2573.655822
20
1268.953953
30
0.0
11
2572.955822
21
1268.953953
31
0.0
0
ARC
8
0
10
2572.955822
20
1269.453953
30
0.0
40
0.500000
50
180.000000
51
270.000000
0
LINE
8
0
10
2572.455822
20
1269.453953
30
0.0
11
2572.455822
21
1271.203953
31
0.0
0
ARC
8
0
10
2572.955822
20
1271.203953
30
0.0
40
0.500000
50
90.000000
51
180.000000
0
LINE
8
0
10
2572.955822
20
1271.703953
30
0.0
11
2583.355822
21
1271.703953
31
0.0
0
ARC
8
0
10
2583.355822
20
1271.203953
30
0.0
40
0.500000
50
0.000000
51
90.000000
0
LINE
8
0
10
2583.855822
20
1271.203953
30
0.0
11
2583.855822
21
1202.203953
31
0.0
0
ARC
8
0
10
2582.855822
20
1202.203953
30
0.0
40
1.000000
50
270.000000
51
0.000000
0
LINE
8
0
10
2582.855822
20
1201.203953
30
0.0
11
2576.155822
21
1201.203953
31
0.0
0
ARC
8
0
10
2576.155822
20
1200.203953
30
0.0
40
1.000000
50
90.000000
51
180.000000
0
LINE
8
0
10
2575.155822
20
1200.203953
30
0.0
11
2575.155822
21
1190.703953
31
0.0
0
ARC
8
0
10
2574.655822
20
1190.703953
30
0.0
40
0.500000
50
270.000000
51
0.000000
0
LINE
8
0
10
2574.655822
20
1190.203953
30
0.0
11
2573.655822
21
1190.203953
31
0.0
0
ARC
8
0
10
2573.655822
20
1190.703953
30
0.0
40
0.500000
50
180.000000
51
270.000000
0
LINE
8
0
10
2573.155822
20
1190.703953
30
0.0
11
2573.155822
21
1192.703953
31
0.0
0
ARC
8
0
10
2572.655822
20
1192.703953
30
0.0
40
0.500000
50
0.000000
51
90.000000
0
LINE
8
0
10
2572.655822
20
1193.203953
30
0.0
11
2561.355822
21
1193.203953
31
0.0
0
LINE
8
0
10
2561.355822
20
1193.203953
30
0.0
11
2559.837100
21
1193.812793
31
0.0
0
ARC
8
0
10
2559.712247
20
1193.540007
30
0.0
40
0.300000
50
65.406671
51
86.364699
0
ARC
8
0
10
2559.617139
20
1192.043026
30
0.0
40
1.800000
50
86.364699
51
140.681121
0
ARC
8
0
10
2558.069876
20
1193.310297
30
0.0
40
0.200000
50
267.876251
51
320.681121
0
LINE
8
0
10
2558.062464
20
1193.110435
30
0.0
11
2557.112494
21
1193.145663
31
0.0
0
LINE
8
0
10
2557.112494
20
1193.145663
30
0.0
11
2557.102245
21
1193.146087
31
0.0
0
ARC
8
0
10
2557.118497
20
1193.445646
30
0.0
40
0.300000
50
175.858276
51
266.894588
0
ARC
8
0
10
2557.018759
20
1193.452869
30
0.0
40
0.200000
50
141.753920
51
175.858276
0
LINE
8
0
10
2556.861687
20
1193.576677
30
0.0
11
2558.898653
21
1196.160919
31
0.0
0
ARC
8
0
10
2559.055724
20
1196.037111
30
0.0
40
0.200000
50
339.172413
51
141.753920
0
ARC
8
0
10
2559.429586
20
1195.894888
30
0.0
40
0.200000
50
159.172413
51
237.498474
0
LINE
8
0
10
2559.322122
20
1195.726213
30
0.0
11
2560.677716
21
1194.862553
31
0.0
0
ARC
8
0
10
2560.570252
20
1194.693878
30
0.0
40
0.200000
50
357.325828
51
57.498474
0
ARC
8
0
10
2561.069707
20
1194.670550
30
0.0
40
0.300000
50
177.325828
51
252.500000
0
LINE
8
0
10
2560.979495
20
1194.384435
30
0.0
11
2561.355822
21
1194.280338
31
0.0
0
ARC
8
0
10
2561.355822
20
1194.580338
30
0.0
40
0.300000
50
270.000000
51
66.421822
0
ARC
8
0
10
2561.555822
20
1195.038596
30
0.0
40
0.200000
50
180.000000
51
246.421822
0
LINE
8
0
10
2561.355822
20
1195.038596
30
0.0
11
2561.355822
21
1199.380338
31
0.0
0
ARC
8
0
10
2561.155822
20
1199.380338
30
0.0
40
0.200000
50
0.000000
51
90.000000
0
LINE
8
0
10
2561.155822
20
1199.580338
30
0.0
11
2561.087933
21
1199.580338
31
0.0
0
ARC
8
0
10
2561.087933
20
1199.280338
30
0.0
40
0.300000
50
90.000000
51
121.380132
0
LINE
8
0
10
2560.931719
20
1199.536458
30
0.0
11
2559.334298
21
1198.562147
31
0.0
0
ARC
8
0
10
2559.438440
20
1198.391401
30
0.0
40
0.200000
50
121.380132
51
163.047211
0
ARC
8
0
10
2559.055822
20
1198.508034
30
0.0
40
0.200000
50
180.000000
51
343.047211
0
LINE
8
0
10
2558.855822
20
1198.508034
30
0.0
11
2558.855822
21
1199.700169
31
0.0
0
ARC
8
0
10
2559.855822
20
1199.700169
30
0.0
40
1.000000
50
121.380132
51
180.000000
0
LINE
8
0
10
2559.335109
20
1200.553900
30
0.0
11
2560.876536
21
1201.494058
31
0.0
0
ARC
8
0
10
2560.355822
20
1202.347790
30
0.0
40
1.000000
50
301.380132
51
0.000000
0
LINE
8
0
10
2561.355822
20
1202.347790
30
0.0
11
2561.355822
21
1237.221879
31
0.0
0
ARC
8
0
10
2560.355822
20
1237.221879
30
0.0
40
1.000000
50
0.000000
51
58.619868
0
ARC
8
0
10
2555.823908
20
1194.315716
30
0.0
40
1.200000
50
270.000000
51
327.000000
0
LINE
8
0
10
2555.823908
20
1193.115716
30
0.0
11
2531.887736
21
1193.115716
31
0.0
0
ARC
8
0
10
2531.887736
20
1194.315716
30
0.0
40
1.200000
50
213.000000
51
270.000000
0
LINE
8
0
10
2530.881332
20
1193.662149
30
0.0
11
2529.377796
21
1195.977391
31
0.0
0
ARC
8
0
10
2529.125088
20
1195.815716
30
0.0
40
0.300000
50
32.610000
51
90.000000
0
LINE
8
0
10
2529.125088
20
1196.115716
30
0.0
11
2528.870719
21
1196.115716
31
0.0
0
ARC
8
0
10
2528.870719
20
1194.915716
30
0.0
40
1.200000
50
90.000000
51
120.503167
0
LINE
8
0
10
2528.261616
20
1195.949637
30
0.0
11
2527.086300
21
1195.257235
31
0.0
0
ARC
8
0
10
2526.934024
20
1195.515716
30
0.0
40
0.300000
50
270.000000
51
300.503167
0
LINE
8
0
10
2526.934024
20
1195.215716
30
0.0
11
2526.755822
21
1195.215716
31
0.0
0
ARC
8
0
10
2526.755822
20
1195.615716
30
0.0
40
0.400000
50
180.000000
51
270.000000
0
LINE
8
0
10
2526.355822
20
1195.615716
30
0.0
11
2526.355822
21
1196.015716
31
0.0
0
ARC
8
0
10
2526.455822
20
1196.015716
30
0.0
40
0.100000
50
90.000000
51
180.000000
0
LINE
8
0
10
2526.455822
20
1196.115716
30
0.0
11
2526.455822
21
1196.390716
31
0.0
0
ARC
8
0
10
2526.755822
20
1196.390716
30
0.0
40
0.300000
50
90.000000
51
180.000000
0
LINE
8
0
10
2526.755822
20
1196.690716
30
0.0
11
2526.815348
21
1196.690716
31
0.0
0
ARC
8
0
10
2527.105822
20
1197.215716
30
0.0
40
0.600000
50
241.044976
51
118.955024
0
LINE
8
0
10
2526.815348
20
1197.740716
30
0.0
11
2526.755822
21
1197.740716
31
0.0
0
ARC
8
0
10
2526.755822
20
1198.040716
30
0.0
40
0.300000
50
180.000000
51
270.000000
0
LINE
8
0
10
2526.455822
20
1198.040716
30
0.0
11
2526.455822
21
1198.315716
31
0.0
0
ARC
8
0
10
2526.455822
20
1198.415716
30
0.0
40
0.100000
50
180.000000
51
270.000000
0
LINE
8
0
10
2526.355822
20
1198.415716
30
0.0
11
2526.355822
21
1198.815716
31
0.0
0
ARC
8
0
10
2526.755822
20
1198.815716
30
0.0
40
0.400000
50
90.000000
51
180.000000
0
LINE
8
0
10
2526.755822
20
1199.215716
30
0.0
11
2526.934157
21
1199.215716
31
0.0
0
ARC
8
0
10
2526.934157
20
1198.915716
30
0.0
40
0.300000
50
59.544173
51
90.000000
0
LINE
8
0
10
2527.086219
20
1199.174322
30
0.0
11
2528.264828
21
1198.481291
31
0.0
0
ARC
8
0
10
2528.873077
20
1199.515716
30
0.0
40
1.200000
50
239.544173
51
270.000000
0
LINE
8
0
10
2528.873077
20
1198.315716
30
0.0
11
2529.592450
21
1198.315716
31
0.0
0
ARC
8
0
10
2529.592450
20
1197.115716
30
0.0
40
1.200000
50
33.000000
51
90.000000
0
LINE
8
0
10
2530.598854
20
1197.769282
30
0.0
11
2532.037982
21
1195.553221
31
0.0
0
ARC
8
0
10
2533.212120
20
1196.315716
30
0.0
40
1.400000
50
213.000000
51
270.000000
0
LINE
8
0
10
2533.212120
20
1194.915716
30
0.0
11
2554.499524
21
1194.915716
31
0.0
0
ARC
8
0
10
2554.499524
20
1196.315716
30
0.0
40
1.400000
50
270.000000
51
327.000000
0
LINE
8
0
10
2555.673663
20
1195.553221
30
0.0
11
2557.112790
21
1197.769282
31
0.0
0
ARC
8
0
10
2558.119195
20
1197.115716
30
0.0
40
1.200000
50
90.000000
51
147.000000
0
LINE
8
0
10
2558.119195
20
1198.315716
30
0.0
11
2558.838568
21
1198.315716
31
0.0
0
ARC
8
0
10
2558.838568
20
1199.515716
30
0.0
40
1.200000
50
270.000000
51
300.455827
0
LINE
8
0
10
2559.446816
20
1198.481291
30
0.0
11
2560.625425
21
1199.174322
31
0.0
0
ARC
8
0
10
2560.777487
20
1198.915716
30
0.0
40
0.300000
50
90.000000
51
120.455827
0
LINE
8
0
10
2560.777487
20
1199.215716
30
0.0
11
2560.955822
21
1199.215716
31
0.0
0
ARC
8
0
10
2560.955822
20
1198.815716
30
0.0
40
0.400000
50
0.000000
51
90.000000
0
LINE
8
0
10
2561.355822
20
1198.815716
30
0.0
11
2561.355822
21
1198.415716
31
0.0
0
ARC
8
0
10
2561.255822
20
1198.415716
30
0.0
40
0.100000
50
270.000000
51
0.000000
0
LINE
8
0
10
2561.255822
20
1198.315716
30
0.0
11
2561.255822
21
1198.040716
31
0.0
0
ARC
8
0
10
2560.955822
20
1198.040716
30
0.0
40
0.300000
50
270.000000
51
0.000000
0
LINE
8
0
10
2560.955822
20
1197.740716
30
0.0
11
2560.896296
21
1197.740716
31
0.0
0
ARC
8
0
10
2560.605822
20
1197.215716
30
0.0
40
0.600000
50
61.044976
51
298.955024
0
LINE
8
0
10
2560.896296
20
1196.690716
30
0.0
11
2560.955822
21
1196.690716
31
0.0
0
ARC
8
0
10
2560.955822
20
1196.390716
30
0.0
40
0.300000
50
0.000000
51
90.000000
0
LINE
8
0
10
2561.255822
20
1196.390716
30
0.0
11
2561.255822
21
1196.115716
31
0.0
0
ARC
8
0
10
2561.255822
20
1196.015716
30
0.0
40
0.100000
50
0.000000
51
90.000000
0
LINE
8
0
10
2561.355822
20
1196.015716
30
0.0
11
2561.355822
21
1195.615716
31
0.0
0
ARC
8
0
10
2560.955822
20
1195.615716
30
0.0
40
0.400000
50
270.000000
51
0.000000
0
LINE
8
0
10
2560.955822
20
1195.215716
30
0.0
11
2560.777620
21
1195.215716
31
0.0
0
ARC
8
0
10
2560.777620
20
1195.515716
30
0.0
40
0.300000
50
239.496833
51
270.000000
0
LINE
8
0
10
2560.625345
20
1195.257235
30
0.0
11
2559.450028
21
1195.949637
31
0.0
0
ARC
8
0
10
2558.840925
20
1194.915716
30
0.0
40
1.200000
50
59.496833
51
90.000000
0
LINE
8
0
10
2558.840925
20
1196.115716
30
0.0
11
2558.586556
21
1196.115716
31
0.0
0
ARC
8
0
10
2558.586556
20
1195.815716
30
0.0
40
0.300000
50
90.000000
51
147.390000
0
LINE
8
0
10
2558.333849
20
1195.977391
30
0.0
11
2556.830313
21
1193.662149
31
0.0
0
ATTDEF
8
0
10
0.000000
20
0.000000
30
0.0
40
3.5
1

3

2
PANE_WIDTH:0
70
0
0
ATTDEF
8
0
10
0.000000
20
0.000000
30
0.0
40
3.5
1

3

2
MIN_VETRO:0
70
0
0
ATTDEF
8
0
10
0.000000
20
0.000000
30
0.0
40
3.5
1

3

2
MAX_VETRO:0
70
0
0
ATTDEF
8
0
10
0.000000
20
0.000000
30
0.0
40
3.5
1

3

2
JX:0
70
0
0
ATTDEF
8
0
10
0.000000
20
0.000000
30
0.0
40
3.5
1

3

2
WX:0
70
0
0
ATTDEF
8
0
10
0.000000
20
0.000000
30
0.0
40
3.5
1

3

2
JY:0
70
0
0
ATTDEF
8
0
10
0.000000
20
0.000000
30
0.0
40
3.5
1

3

2
WY:0
70
0
0
ATTDEF
8
0
10
0.000000
20
0.000000
30
0.0
40
3.5
1

3

2
DESC:Hoja apert.interior
70
0
0
ATTDEF
8
0
10
0.000000
20
0.000000
30
0.0
40
3.5
1

3

2
DENS:2.5318
70
0
0
ATTDEF
8
0
10
0.000000
20
0.000000
30
0.0
40
3.5
1

3

2
TDEV:84.44
70
0
0
ATTDEF
8
0
10
0.000000
20
0.000000
30
0.0
40
3.5
1

3

2
TDEV2:0
70
0
0
ATTDEF
8
0
10
0.000000
20
0.000000
30
0.0
40
3.5
1

3

2
TDEV3:0
70
0
0
ATTDEF
8
0
10
0.000000
20
0.000000
30
0.0
40
3.5
1

3

2
TDEV4:0
70
0
0
ATTDEF
8
0
10
0.000000
20
0.000000
30
0.0
40
3.5
1

3

2
TDEV5:0
70
0
0
ATTDEF
8
0
10
0.000000
20
0.000000
30
0.0
40
3.5
1

3

2
PANE_WIDTH:0
70
0
0
ATTDEF
8
0
10
0.000000
20
0.000000
30
0.0
40
3.5
1

3

2
MIN_VETRO:0
70
0
0
ATTDEF
8
0
10
0.000000
20
0.000000
30
0.0
40
3.5
1

3

2
MAX_VETRO:0
70
0
0
ATTDEF
8
0
10
0.000000
20
0.000000
30
0.0
40
3.5
1

3

2
JX:0
70
0
0
ATTDEF
8
0
10
0.000000
20
0.000000
30
0.0
40
3.5
1

3

2
WX:0
70
0
0
ATTDEF
8
0
10
0.000000
20
0.000000
30
0.0
40
3.5
1

3

2
JY:0
70
0
0
ATTDEF
8
0
10
0.000000
20
0.000000
30
0.0
40
3.5
1

3

2
WY:0
70
0
0
ENDSEC
0
EOF
