0
SECTION
2
ENTITIES
0
LINE
8
0
10
2569.777721
20
1223.787036
30
0.0
11
2569.777721
21
1216.787036
31
0.0
0
ARC
8
0
10
2568.777721
20
1216.787036
30
0.0
40
1.000000
50
270.000000
51
0.000000
0
LINE
8
0
10
2568.777721
20
1215.787036
30
0.0
11
2562.277721
21
1215.787036
31
0.0
0
ARC
8
0
10
2562.277721
20
1214.787036
30
0.0
40
1.000000
50
90.000000
51
180.000000
0
LINE
8
0
10
2561.277721
20
1214.787036
30
0.0
11
2561.277721
21
1212.287036
31
0.0
0
ARC
8
0
10
2562.277721
20
1212.287036
30
0.0
40
1.000000
50
180.000000
51
270.000000
0
LINE
8
0
10
2562.277721
20
1211.287036
30
0.0
11
2563.977721
21
1211.287036
31
0.0
0
ARC
8
0
10
2563.977721
20
1211.787036
30
0.0
40
0.500000
50
270.000000
51
0.000000
0
LINE
8
0
10
2564.477721
20
1211.787036
30
0.0
11
2564.477721
21
1212.187036
31
0.0
0
ARC
8
0
10
2563.977721
20
1212.187036
30
0.0
40
0.500000
50
0.000000
51
90.000000
0
LINE
8
0
10
2563.977721
20
1212.687036
30
0.0
11
2563.077721
21
1212.687036
31
0.0
0
ARC
8
0
10
2563.077721
20
1212.987036
30
0.0
40
0.300000
50
180.000000
51
270.000000
0
LINE
8
0
10
2562.777721
20
1212.987036
30
0.0
11
2562.777721
21
1213.987036
31
0.0
0
ARC
8
0
10
2563.077721
20
1213.987036
30
0.0
40
0.300000
50
90.000000
51
180.000000
0
LINE
8
0
10
2563.077721
20
1214.287036
30
0.0
11
2569.977721
21
1214.287036
31
0.0
0
ARC
8
0
10
2569.977721
20
1213.987036
30
0.0
40
0.300000
50
0.000000
51
90.000000
0
LINE
8
0
10
2570.277721
20
1213.987036
30
0.0
11
2570.277721
21
1212.987036
31
0.0
0
ARC
8
0
10
2569.977721
20
1212.987036
30
0.0
40
0.300000
50
270.000000
51
0.000000
0
LINE
8
0
10
2569.977721
20
1212.687036
30
0.0
11
2569.077721
21
1212.687036
31
0.0
0
ARC
8
0
10
2569.077721
20
1212.187036
30
0.0
40
0.500000
50
90.000000
51
180.000000
0
LINE
8
0
10
2568.577721
20
1212.187036
30
0.0
11
2568.577721
21
1211.787036
31
0.0
0
ARC
8
0
10
2569.077721
20
1211.787036
30
0.0
40
0.500000
50
180.000000
51
270.000000
0
LINE
8
0
10
2569.077721
20
1211.287036
30
0.0
11
2571.277721
21
1211.287036
31
0.0
0
ARC
8
0
10
2571.277721
20
1211.787036
30
0.0
40
0.500000
50
270.000000
51
0.000000
0
LINE
8
0
10
2571.777721
20
1211.787036
30
0.0
11
2571.777721
21
1226.787036
31
0.0
0
ARC
8
0
10
2571.277721
20
1226.787036
30
0.0
40
0.500000
50
0.000000
51
90.000000
0
LINE
8
0
10
2571.277721
20
1227.287036
30
0.0
11
2569.643746
21
1227.287036
31
0.0
0
ARC
8
0
10
2569.643746
20
1226.787036
30
0.0
40
0.500000
50
90.000000
51
150.000000
0
ARC
8
0
10
2568.777721
20
1227.287036
30
0.0
40
0.500000
50
180.000000
51
330.000000
0
LINE
8
0
10
2568.277721
20
1227.287036
30
0.0
11
2568.277721
21
1231.787036
31
0.0
0
ARC
8
0
10
2567.777721
20
1231.787036
30
0.0
40
0.500000
50
0.000000
51
90.000000
0
LINE
8
0
10
2567.777721
20
1232.287036
30
0.0
11
2566.077721
21
1232.287036
31
0.0
0
ARC
8
0
10
2566.077721
20
1231.987036
30
0.0
40
0.300000
50
90.000000
51
180.000000
0
LINE
8
0
10
2565.777721
20
1231.987036
30
0.0
11
2565.777721
21
1228.009642
31
0.0
0
ARC
8
0
10
2564.777721
20
1228.009642
30
0.0
40
1.000000
50
260.000000
51
0.000000
0
LINE
8
0
10
2564.604073
20
1227.024835
30
0.0
11
2557.690897
21
1228.243814
31
0.0
0
ARC
8
0
10
2557.777721
20
1228.736218
30
0.0
40
0.500000
50
180.000000
51
260.000000
0
LINE
8
0
10
2557.277721
20
1228.736218
30
0.0
11
2557.277721
21
1231.987036
31
0.0
0
ARC
8
0
10
2556.977721
20
1231.987036
30
0.0
40
0.300000
50
0.000000
51
90.000000
0
LINE
8
0
10
2556.977721
20
1232.287036
30
0.0
11
2555.277721
21
1232.287036
31
0.0
0
ARC
8
0
10
2555.277721
20
1231.787036
30
0.0
40
0.500000
50
90.000000
51
180.000000
0
LINE
8
0
10
2554.777721
20
1231.787036
30
0.0
11
2554.777721
21
1227.146182
31
0.0
0
ARC
8
0
10
2555.277721
20
1227.146182
30
0.0
40
0.500000
50
180.000000
51
260.000000
0
LINE
8
0
10
2555.190897
20
1226.653778
30
0.0
11
2558.141153
21
1226.133569
31
0.0
0
LINE
8
0
10
2558.141153
20
1226.133569
30
0.0
11
2558.474635
21
1226.367075
31
0.0
0
ARC
8
0
10
2558.646708
20
1226.121330
30
0.0
40
0.300000
50
35.000000
51
125.000000
0
LINE
8
0
10
2558.892454
20
1226.293403
30
0.0
11
2559.125961
21
1225.959920
31
0.0
0
LINE
8
0
10
2559.125961
20
1225.959920
30
0.0
11
2565.777721
21
1224.787036
31
0.0
0
LINE
8
0
10
2565.777721
20
1224.787036
30
0.0
11
2568.777721
21
1224.787036
31
0.0
0
ARC
8
0
10
2568.777721
20
1223.787036
30
0.0
40
1.000000
50
0.000000
51
90.000000
0
ATTDEF
8
0
10
0.000000
20
0.000000
30
0.0
40
3.5
1

3

2
PANE_WIDTH:0
70
0
0
ATTDEF
8
0
10
0.000000
20
0.000000
30
0.0
40
3.5
1

3

2
MIN_VETRO:0
70
0
0
ATTDEF
8
0
10
0.000000
20
0.000000
30
0.0
40
3.5
1

3

2
MAX_VETRO:0
70
0
0
ATTDEF
8
0
10
0.000000
20
0.000000
30
0.0
40
3.5
1

3

2
JX:0
70
0
0
ATTDEF
8
0
10
0.000000
20
0.000000
30
0.0
40
3.5
1

3

2
WX:0
70
0
0
ATTDEF
8
0
10
0.000000
20
0.000000
30
0.0
40
3.5
1

3

2
JY:0
70
0
0
ATTDEF
8
0
10
0.000000
20
0.000000
30
0.0
40
3.5
1

3

2
WY:0
70
0
0
ATTDEF
8
0
10
0.000000
20
0.000000
30
0.0
40
3.5
1

3

2
DESC:Remate inferior zocalo
70
0
0
ATTDEF
8
0
10
0.000000
20
0.000000
30
0.0
40
3.5
1

3

2
DENS:0.2862
70
0
0
ATTDEF
8
0
10
0.000000
20
0.000000
30
0.0
40
3.5
1

3

2
TDEV:10.92
70
0
0
ATTDEF
8
0
10
0.000000
20
0.000000
30
0.0
40
3.5
1

3

2
TDEV2:0
70
0
0
ATTDEF
8
0
10
0.000000
20
0.000000
30
0.0
40
3.5
1

3

2
TDEV3:0
70
0
0
ATTDEF
8
0
10
0.000000
20
0.000000
30
0.0
40
3.5
1

3

2
TDEV4:0
70
0
0
ATTDEF
8
0
10
0.000000
20
0.000000
30
0.0
40
3.5
1

3

2
TDEV5:0
70
0
0
ATTDEF
8
0
10
0.000000
20
0.000000
30
0.0
40
3.5
1

3

2
PANE_WIDTH:0
70
0
0
ATTDEF
8
0
10
0.000000
20
0.000000
30
0.0
40
3.5
1

3

2
MIN_VETRO:0
70
0
0
ATTDEF
8
0
10
0.000000
20
0.000000
30
0.0
40
3.5
1

3

2
MAX_VETRO:0
70
0
0
ATTDEF
8
0
10
0.000000
20
0.000000
30
0.0
40
3.5
1

3

2
JX:0
70
0
0
ATTDEF
8
0
10
0.000000
20
0.000000
30
0.0
40
3.5
1

3

2
WX:0
70
0
0
ATTDEF
8
0
10
0.000000
20
0.000000
30
0.0
40
3.5
1

3

2
JY:0
70
0
0
ATTDEF
8
0
10
0.000000
20
0.000000
30
0.0
40
3.5
1

3

2
WY:0
70
0
0
ENDSEC
0
EOF
