0
SECTION
2
ENTITIES
0
LINE
8
0
10
2566.966502
20
1248.298410
30
0.0
11
2566.678634
21
1248.010542
31
0.0
0
ARC
8
0
10
2566.466502
20
1248.222674
30
0.0
40
0.300000
50
225.000000
51
315.000000
0
LINE
8
0
10
2566.254370
20
1248.010542
30
0.0
11
2565.966502
21
1248.298410
31
0.0
0
LINE
8
0
10
2565.966502
20
1248.298410
30
0.0
11
2557.766502
21
1248.298410
31
0.0
0
ARC
8
0
10
2557.766502
20
1248.598410
30
0.0
40
0.300000
50
180.000000
51
270.000000
0
LINE
8
0
10
2557.466502
20
1248.598410
30
0.0
11
2557.466502
21
1250.998410
31
0.0
0
ARC
8
0
10
2557.766502
20
1250.998410
30
0.0
40
0.300000
50
90.000000
51
180.000000
0
LINE
8
0
10
2557.766502
20
1251.298410
30
0.0
11
2559.466502
21
1251.298410
31
0.0
0
LINE
8
0
10
2559.466502
20
1251.298410
30
0.0
11
2559.466502
21
1252.091303
31
0.0
0
ARC
8
0
10
2558.966502
20
1252.091303
30
0.0
40
0.500000
50
0.000000
51
45.000000
0
LINE
8
0
10
2559.320055
20
1252.444856
30
0.0
11
2558.612948
21
1253.151963
31
0.0
0
ARC
8
0
10
2558.259395
20
1252.798410
30
0.0
40
0.500000
50
45.000000
51
90.000000
0
LINE
8
0
10
2558.259395
20
1253.298410
30
0.0
11
2556.166502
21
1253.298410
31
0.0
0
ARC
8
0
10
2556.166502
20
1252.798410
30
0.0
40
0.500000
50
90.000000
51
180.000000
0
LINE
8
0
10
2555.666502
20
1252.798410
30
0.0
11
2555.666502
21
1248.798410
31
0.0
0
ARC
8
0
10
2555.166502
20
1248.798410
30
0.0
40
0.500000
50
270.000000
51
0.000000
0
LINE
8
0
10
2555.166502
20
1248.298410
30
0.0
11
2554.466502
21
1248.298410
31
0.0
0
ARC
8
0
10
2553.966502
20
1248.298410
30
0.0
40
0.500000
50
291.845333
51
0.000000
0
LINE
8
0
10
2554.152553
20
1247.834314
30
0.0
11
2552.947779
21
1247.351333
31
0.0
0
ARC
8
0
10
2552.822927
20
1247.624118
30
0.0
40
0.300000
50
273.635301
51
294.593329
0
ARC
8
0
10
2552.727819
20
1249.121100
30
0.0
40
1.800000
50
219.318879
51
273.635301
0
ARC
8
0
10
2551.180556
20
1247.853828
30
0.0
40
0.200000
50
39.318879
51
92.123749
0
LINE
8
0
10
2551.173144
20
1248.053691
30
0.0
11
2550.223174
21
1248.018463
31
0.0
0
LINE
8
0
10
2550.223174
20
1248.018463
30
0.0
11
2550.212925
21
1248.018039
31
0.0
0
ARC
8
0
10
2550.229177
20
1247.718479
30
0.0
40
0.300000
50
93.105413
51
184.141724
0
ARC
8
0
10
2550.129438
20
1247.711257
30
0.0
40
0.200000
50
184.141724
51
218.246080
0
LINE
8
0
10
2549.972366
20
1247.587449
30
0.0
11
2552.009332
21
1245.003206
31
0.0
0
ARC
8
0
10
2552.166404
20
1245.127014
30
0.0
40
0.200000
50
218.246080
51
20.827587
0
ARC
8
0
10
2552.540266
20
1245.269237
30
0.0
40
0.200000
50
122.501526
51
200.827587
0
LINE
8
0
10
2552.432801
20
1245.437913
30
0.0
11
2553.788396
21
1246.301572
31
0.0
0
ARC
8
0
10
2553.680931
20
1246.470248
30
0.0
40
0.200000
50
302.501526
51
2.674172
0
ARC
8
0
10
2554.180387
20
1246.493576
30
0.0
40
0.300000
50
107.500000
51
182.674172
0
LINE
8
0
10
2554.090175
20
1246.779691
30
0.0
11
2554.466502
21
1246.883787
31
0.0
0
ARC
8
0
10
2554.466502
20
1246.583787
30
0.0
40
0.300000
50
293.578179
51
90.000000
0
ARC
8
0
10
2554.666502
20
1246.125530
30
0.0
40
0.200000
50
113.578178
51
180.000000
0
LINE
8
0
10
2554.466502
20
1246.125530
30
0.0
11
2554.466502
21
1241.783787
31
0.0
0
ARC
8
0
10
2554.266502
20
1241.783787
30
0.0
40
0.200000
50
270.000000
51
0.000000
0
LINE
8
0
10
2554.266502
20
1241.583787
30
0.0
11
2554.198613
21
1241.583787
31
0.0
0
ARC
8
0
10
2554.198613
20
1241.883787
30
0.0
40
0.300000
50
238.619868
51
270.000000
0
LINE
8
0
10
2554.042399
20
1241.627668
30
0.0
11
2552.444977
21
1242.601978
31
0.0
0
ARC
8
0
10
2552.549120
20
1242.772724
30
0.0
40
0.200000
50
196.952789
51
238.619868
0
ARC
8
0
10
2552.166502
20
1242.656091
30
0.0
40
0.200000
50
16.952789
51
180.000000
0
LINE
8
0
10
2551.966502
20
1242.656091
30
0.0
11
2551.966502
21
1241.463956
31
0.0
0
ARC
8
0
10
2552.966502
20
1241.463956
30
0.0
40
1.000000
50
180.000000
51
238.619868
0
LINE
8
0
10
2552.445788
20
1240.610225
30
0.0
11
2553.987215
21
1239.670067
31
0.0
0
ARC
8
0
10
2553.466502
20
1238.816336
30
0.0
40
1.000000
50
0.000000
51
58.619868
0
LINE
8
0
10
2554.466502
20
1238.816336
30
0.0
11
2554.466502
21
1208.780484
31
0.0
0
ARC
8
0
10
2553.466502
20
1208.780484
30
0.0
40
1.000000
50
301.380132
51
0.000000
0
LINE
8
0
10
2553.987215
20
1207.926752
30
0.0
11
2552.445788
21
1206.986595
31
0.0
0
ARC
8
0
10
2552.966502
20
1206.132863
30
0.0
40
1.000000
50
121.380132
51
180.000000
0
LINE
8
0
10
2551.966502
20
1206.132863
30
0.0
11
2551.966502
21
1204.940729
31
0.0
0
ARC
8
0
10
2552.166502
20
1204.940729
30
0.0
40
0.200000
50
180.000000
51
343.047211
0
ARC
8
0
10
2552.549120
20
1204.824095
30
0.0
40
0.200000
50
121.380132
51
163.047211
0
LINE
8
0
10
2552.444977
20
1204.994841
30
0.0
11
2554.042399
21
1205.969152
31
0.0
0
ARC
8
0
10
2554.198613
20
1205.713032
30
0.0
40
0.300000
50
90.000000
51
121.380132
0
LINE
8
0
10
2554.198613
20
1206.013032
30
0.0
11
2554.266502
21
1206.013032
31
0.0
0
ARC
8
0
10
2554.266502
20
1205.813032
30
0.0
40
0.200000
50
0.000000
51
90.000000
0
LINE
8
0
10
2554.466502
20
1205.813032
30
0.0
11
2554.466502
21
1201.471290
31
0.0
0
ARC
8
0
10
2554.666502
20
1201.471290
30
0.0
40
0.200000
50
180.000000
51
246.421822
0
ARC
8
0
10
2554.466502
20
1201.013032
30
0.0
40
0.300000
50
270.000000
51
66.421822
0
LINE
8
0
10
2554.466502
20
1200.713032
30
0.0
11
2554.090175
21
1200.817129
31
0.0
0
ARC
8
0
10
2554.180387
20
1201.103244
30
0.0
40
0.300000
50
177.325828
51
252.500000
0
ARC
8
0
10
2553.680931
20
1201.126572
30
0.0
40
0.200000
50
357.325828
51
57.498474
0
LINE
8
0
10
2553.788396
20
1201.295248
30
0.0
11
2552.432801
21
1202.158907
31
0.0
0
ARC
8
0
10
2552.540266
20
1202.327582
30
0.0
40
0.200000
50
159.172413
51
237.498474
0
ARC
8
0
10
2552.166404
20
1202.469805
30
0.0
40
0.200000
50
339.172413
51
141.753920
0
LINE
8
0
10
2552.009332
20
1202.593613
30
0.0
11
2549.972366
21
1200.009371
31
0.0
0
ARC
8
0
10
2550.129438
20
1199.885563
30
0.0
40
0.200000
50
141.753920
51
175.858276
0
ARC
8
0
10
2550.229177
20
1199.878340
30
0.0
40
0.300000
50
175.858276
51
266.894588
0
LINE
8
0
10
2550.212925
20
1199.578781
30
0.0
11
2550.223174
21
1199.578357
31
0.0
0
LINE
8
0
10
2550.223174
20
1199.578357
30
0.0
11
2551.173144
21
1199.543129
31
0.0
0
ARC
8
0
10
2551.180556
20
1199.742991
30
0.0
40
0.200000
50
267.876251
51
320.681121
0
ARC
8
0
10
2552.727819
20
1198.475720
30
0.0
40
1.800000
50
86.364699
51
140.681121
0
ARC
8
0
10
2552.822927
20
1199.972701
30
0.0
40
0.300000
50
65.406671
51
86.364699
0
LINE
8
0
10
2552.947779
20
1200.245487
30
0.0
11
2554.152553
21
1199.762506
31
0.0
0
ARC
8
0
10
2553.966502
20
1199.298410
30
0.0
40
0.500000
50
0.000000
51
68.154667
0
LINE
8
0
10
2554.466502
20
1199.298410
30
0.0
11
2559.266502
21
1199.298410
31
0.0
0
ARC
8
0
10
2559.266502
20
1198.798410
30
0.0
40
0.500000
50
0.000000
51
90.000000
0
LINE
8
0
10
2559.766502
20
1198.798410
30
0.0
11
2559.766502
21
1196.798410
31
0.0
0
ARC
8
0
10
2560.266502
20
1196.798410
30
0.0
40
0.500000
50
180.000000
51
270.000000
0
LINE
8
0
10
2560.266502
20
1196.298410
30
0.0
11
2560.866502
21
1196.298410
31
0.0
0
ARC
8
0
10
2560.866502
20
1196.798410
30
0.0
40
0.500000
50
270.000000
51
0.000000
0
LINE
8
0
10
2561.366502
20
1196.798410
30
0.0
11
2561.366502
21
1198.798410
31
0.0
0
ARC
8
0
10
2561.866502
20
1198.798410
30
0.0
40
0.500000
50
90.000000
51
180.000000
0
LINE
8
0
10
2561.866502
20
1199.298410
30
0.0
11
2571.066502
21
1199.298410
31
0.0
0
ARC
8
0
10
2571.066502
20
1198.798410
30
0.0
40
0.500000
50
0.000000
51
90.000000
0
LINE
8
0
10
2571.566502
20
1198.798410
30
0.0
11
2571.566502
21
1196.798410
31
0.0
0
ARC
8
0
10
2572.066502
20
1196.798410
30
0.0
40
0.500000
50
180.000000
51
270.000000
0
LINE
8
0
10
2572.066502
20
1196.298410
30
0.0
11
2572.666502
21
1196.298410
31
0.0
0
ARC
8
0
10
2572.666502
20
1196.798410
30
0.0
40
0.500000
50
270.000000
51
0.000000
0
LINE
8
0
10
2573.166502
20
1196.798410
30
0.0
11
2573.166502
21
1198.798410
31
0.0
0
ARC
8
0
10
2573.666502
20
1198.798410
30
0.0
40
0.500000
50
90.000000
51
180.000000
0
LINE
8
0
10
2573.666502
20
1199.298410
30
0.0
11
2576.466502
21
1199.298410
31
0.0
0
ARC
8
0
10
2576.466502
20
1199.798410
30
0.0
40
0.500000
50
270.000000
51
0.000000
0
LINE
8
0
10
2576.966502
20
1199.798410
30
0.0
11
2576.966502
21
1252.798410
31
0.0
0
ARC
8
0
10
2576.466502
20
1252.798410
30
0.0
40
0.500000
50
0.000000
51
90.000000
0
LINE
8
0
10
2576.466502
20
1253.298410
30
0.0
11
2574.673609
21
1253.298410
31
0.0
0
ARC
8
0
10
2574.673609
20
1252.798410
30
0.0
40
0.500000
50
90.000000
51
135.000000
0
LINE
8
0
10
2574.320055
20
1253.151963
30
0.0
11
2573.612948
21
1252.444856
31
0.0
0
ARC
8
0
10
2573.966502
20
1252.091303
30
0.0
40
0.500000
50
135.000000
51
180.000000
0
LINE
8
0
10
2573.466502
20
1252.091303
30
0.0
11
2573.466502
21
1251.298410
31
0.0
0
LINE
8
0
10
2573.466502
20
1251.298410
30
0.0
11
2575.166502
21
1251.298410
31
0.0
0
ARC
8
0
10
2575.166502
20
1250.998410
30
0.0
40
0.300000
50
0.000000
51
90.000000
0
LINE
8
0
10
2575.466502
20
1250.998410
30
0.0
11
2575.466502
21
1248.598410
31
0.0
0
ARC
8
0
10
2575.166502
20
1248.598410
30
0.0
40
0.300000
50
270.000000
51
0.000000
0
LINE
8
0
10
2575.166502
20
1248.298410
30
0.0
11
2566.966502
21
1248.298410
31
0.0
0
ARC
8
0
10
2574.266502
20
1201.798410
30
0.0
40
0.500000
50
270.000000
51
0.000000
0
LINE
8
0
10
2574.766502
20
1201.798410
30
0.0
11
2574.766502
21
1245.998410
31
0.0
0
ARC
8
0
10
2574.466502
20
1245.998410
30
0.0
40
0.300000
50
0.000000
51
90.000000
0
LINE
8
0
10
2574.466502
20
1246.298410
30
0.0
11
2556.566502
21
1246.298410
31
0.0
0
ARC
8
0
10
2556.566502
20
1245.998410
30
0.0
40
0.300000
50
90.000000
51
180.000000
0
LINE
8
0
10
2556.266502
20
1245.998410
30
0.0
11
2556.266502
21
1201.598410
31
0.0
0
ARC
8
0
10
2556.566502
20
1201.598410
30
0.0
40
0.300000
50
180.000000
51
270.000000
0
LINE
8
0
10
2556.566502
20
1201.298410
30
0.0
11
2565.966502
21
1201.298410
31
0.0
0
LINE
8
0
10
2565.966502
20
1201.298410
30
0.0
11
2566.254370
21
1201.010542
31
0.0
0
ARC
8
0
10
2566.466502
20
1201.222674
30
0.0
40
0.300000
50
225.000000
51
315.000000
0
LINE
8
0
10
2566.678634
20
1201.010542
30
0.0
11
2566.966502
21
1201.298410
31
0.0
0
LINE
8
0
10
2566.966502
20
1201.298410
30
0.0
11
2574.266502
21
1201.298410
31
0.0
0
LINE
8
0
10
2519.712389
20
1244.516020
30
0.0
11
2520.767283
21
1245.570913
31
0.0
0
LINE
8
0
10
2519.547939
20
1242.106506
30
0.0
11
2525.489843
21
1248.048410
31
0.0
0
LINE
8
0
10
2522.534907
20
1242.848410
30
0.0
11
2524.873147
21
1245.186650
31
0.0
0
LINE
8
0
10
2525.854130
20
1246.167632
30
0.0
11
2527.734907
21
1248.048410
31
0.0
0
LINE
8
0
10
2528.179971
20
1246.248410
30
0.0
11
2529.979971
21
1248.048410
31
0.0
0
LINE
8
0
10
2530.425035
20
1246.248410
30
0.0
11
2532.225035
21
1248.048410
31
0.0
0
LINE
8
0
10
2532.670099
20
1246.248410
30
0.0
11
2534.470099
21
1248.048410
31
0.0
0
LINE
8
0
10
2534.915163
20
1246.248410
30
0.0
11
2536.715163
21
1248.048410
31
0.0
0
LINE
8
0
10
2537.160227
20
1246.248410
30
0.0
11
2538.960227
21
1248.048410
31
0.0
0
LINE
8
0
10
2539.405291
20
1246.248410
30
0.0
11
2541.205291
21
1248.048410
31
0.0
0
LINE
8
0
10
2541.650355
20
1246.248410
30
0.0
11
2543.450355
21
1248.048410
31
0.0
0
LINE
8
0
10
2543.895419
20
1246.248410
30
0.0
11
2545.695419
21
1248.048410
31
0.0
0
LINE
8
0
10
2546.140483
20
1246.248410
30
0.0
11
2547.940483
21
1248.048410
31
0.0
0
LINE
8
0
10
2548.237264
20
1246.100127
30
0.0
11
2549.808213
21
1247.671075
31
0.0
0
LINE
8
0
10
2549.260259
20
1244.878057
30
0.0
11
2550.706067
21
1246.323865
31
0.0
0
LINE
8
0
10
2550.144189
20
1243.516924
30
0.0
11
2551.676400
21
1245.049134
31
0.0
0
LINE
8
0
10
2551.720739
20
1242.848410
30
0.0
11
2554.464140
21
1245.591811
31
0.0
0
LINE
8
0
10
2553.340069
20
1242.222675
30
0.0
11
2554.347056
21
1243.229662
31
0.0
0
LINE
8
0
10
2519.790673
20
1204.183151
30
0.0
11
2520.837726
21
1205.230205
31
0.0
0
LINE
8
0
10
2519.601432
20
1201.748847
30
0.0
11
2522.600996
21
1204.748410
31
0.0
0
LINE
8
0
10
2522.496058
20
1202.398409
30
0.0
11
2523.941866
21
1203.844216
31
0.0
0
LINE
8
0
10
2523.379989
20
1201.037275
30
0.0
11
2524.825797
21
1202.483083
31
0.0
0
LINE
8
0
10
2524.335751
20
1199.747973
30
0.0
11
2525.979046
21
1201.391268
31
0.0
0
LINE
8
0
10
2526.381252
20
1199.548410
30
0.0
11
2528.181252
21
1201.348410
31
0.0
0
LINE
8
0
10
2528.626316
20
1199.548410
30
0.0
11
2530.426316
21
1201.348410
31
0.0
0
LINE
8
0
10
2530.871380
20
1199.548410
30
0.0
11
2532.671380
21
1201.348410
31
0.0
0
LINE
8
0
10
2533.116444
20
1199.548410
30
0.0
11
2534.916444
21
1201.348410
31
0.0
0
LINE
8
0
10
2535.361508
20
1199.548410
30
0.0
11
2537.161508
21
1201.348410
31
0.0
0
LINE
8
0
10
2537.606572
20
1199.548410
30
0.0
11
2539.406572
21
1201.348410
31
0.0
0
LINE
8
0
10
2539.851636
20
1199.548410
30
0.0
11
2541.651636
21
1201.348410
31
0.0
0
LINE
8
0
10
2542.096700
20
1199.548410
30
0.0
11
2543.896700
21
1201.348410
31
0.0
0
LINE
8
0
10
2544.341764
20
1199.548410
30
0.0
11
2546.141764
21
1201.348410
31
0.0
0
LINE
8
0
10
2546.586828
20
1199.548410
30
0.0
11
2551.786828
21
1204.748410
31
0.0
0
LINE
8
0
10
2548.831892
20
1199.548410
30
0.0
11
2550.983229
21
1201.699747
31
0.0
0
LINE
8
0
10
2553.485742
20
1204.202260
30
0.0
11
2554.466502
21
1205.183020
31
0.0
0
LINE
8
0
10
2551.831892
20
1202.548410
30
0.0
11
2553.162652
21
1203.879169
31
0.0
0
LINE
8
0
10
2553.410342
20
1201.881795
30
0.0
11
2554.366165
21
1202.837619
31
0.0
0
LINE
8
0
10
2520.467100
20
1201.849063
30
0.0
11
2519.566502
21
1202.749660
31
0.0
0
LINE
8
0
10
2525.012816
20
1199.548410
30
0.0
11
2523.113325
21
1201.447901
31
0.0
0
LINE
8
0
10
2520.322200
20
1204.239026
30
0.0
11
2519.466502
21
1205.094724
31
0.0
0
LINE
8
0
10
2522.012816
20
1202.548410
30
0.0
11
2520.807118
21
1203.754108
31
0.0
0
LINE
8
0
10
2527.257880
20
1199.548410
30
0.0
11
2522.057880
21
1204.748410
31
0.0
0
LINE
8
0
10
2529.502944
20
1199.548410
30
0.0
11
2527.702944
21
1201.348410
31
0.0
0
LINE
8
0
10
2531.748008
20
1199.548410
30
0.0
11
2529.948008
21
1201.348410
31
0.0
0
LINE
8
0
10
2533.993073
20
1199.548410
30
0.0
11
2532.193073
21
1201.348410
31
0.0
0
LINE
8
0
10
2536.238137
20
1199.548410
30
0.0
11
2534.438137
21
1201.348410
31
0.0
0
LINE
8
0
10
2538.483201
20
1199.548410
30
0.0
11
2536.683201
21
1201.348410
31
0.0
0
LINE
8
0
10
2540.728265
20
1199.548410
30
0.0
11
2538.928265
21
1201.348410
31
0.0
0
LINE
8
0
10
2542.973329
20
1199.548410
30
0.0
11
2541.173329
21
1201.348410
31
0.0
0
LINE
8
0
10
2545.218393
20
1199.548410
30
0.0
11
2543.418393
21
1201.348410
31
0.0
0
LINE
8
0
10
2547.463457
20
1199.548410
30
0.0
11
2545.663457
21
1201.348410
31
0.0
0
LINE
8
0
10
2549.542905
20
1199.714026
30
0.0
11
2547.881903
21
1201.375027
31
0.0
0
LINE
8
0
10
2550.518251
20
1200.983744
30
0.0
11
2549.072443
21
1202.429551
31
0.0
0
LINE
8
0
10
2551.402182
20
1202.344877
30
0.0
11
2549.956374
21
1203.790685
31
0.0
0
LINE
8
0
10
2554.281206
20
1201.710916
30
0.0
11
2551.243713
21
1204.748410
31
0.0
0
LINE
8
0
10
2554.063777
20
1204.173410
30
0.0
11
2553.039676
21
1205.197511
31
0.0
0
LINE
8
0
10
2520.537333
20
1242.189982
30
0.0
11
2519.568588
21
1243.158727
31
0.0
0
LINE
8
0
10
2522.123969
20
1242.848410
30
0.0
11
2520.750616
21
1244.221762
31
0.0
0
LINE
8
0
10
2520.489854
20
1244.482524
30
0.0
11
2519.466502
21
1245.505877
31
0.0
0
LINE
8
0
10
2523.754050
20
1243.463392
30
0.0
11
2522.169033
21
1245.048410
31
0.0
0
LINE
8
0
10
2524.637981
20
1244.824526
30
0.0
11
2523.192173
21
1246.270334
31
0.0
0
LINE
8
0
10
2525.638049
20
1246.069522
30
0.0
11
2524.083122
21
1247.624449
31
0.0
0
LINE
8
0
10
2527.704225
20
1246.248410
30
0.0
11
2525.904225
21
1248.048410
31
0.0
0
LINE
8
0
10
2529.949289
20
1246.248410
30
0.0
11
2528.149289
21
1248.048410
31
0.0
0
LINE
8
0
10
2532.194353
20
1246.248410
30
0.0
11
2530.394353
21
1248.048410
31
0.0
0
LINE
8
0
10
2534.439417
20
1246.248410
30
0.0
11
2532.639417
21
1248.048410
31
0.0
0
LINE
8
0
10
2536.684481
20
1246.248410
30
0.0
11
2534.884481
21
1248.048410
31
0.0
0
LINE
8
0
10
2538.929545
20
1246.248410
30
0.0
11
2537.129545
21
1248.048410
31
0.0
0
LINE
8
0
10
2541.174609
20
1246.248410
30
0.0
11
2539.374609
21
1248.048410
31
0.0
0
LINE
8
0
10
2543.419673
20
1246.248410
30
0.0
11
2541.619673
21
1248.048410
31
0.0
0
LINE
8
0
10
2545.664737
20
1246.248410
30
0.0
11
2543.864737
21
1248.048410
31
0.0
0
LINE
8
0
10
2551.309801
20
1242.848410
30
0.0
11
2549.223407
21
1244.934804
31
0.0
0
LINE
8
0
10
2547.952221
20
1246.205990
30
0.0
11
2546.109801
21
1248.048410
31
0.0
0
LINE
8
0
10
2554.343466
20
1242.059809
30
0.0
11
2548.354865
21
1248.048410
31
0.0
0
LINE
8
0
10
2554.159991
20
1244.488349
30
0.0
11
2553.110159
21
1245.538181
31
0.0
0
ARC
8
0
10
2524.998416
20
1200.748410
30
0.0
40
1.200000
50
213.000000
51
270.000000
0
LINE
8
0
10
2524.998416
20
1199.548410
30
0.0
11
2548.934588
21
1199.548410
31
0.0
0
ARC
8
0
10
2548.934588
20
1200.748410
30
0.0
40
1.200000
50
270.000000
51
327.000000
0
LINE
8
0
10
2549.940992
20
1200.094843
30
0.0
11
2551.444528
21
1202.410085
31
0.0
0
ARC
8
0
10
2551.697236
20
1202.248410
30
0.0
40
0.300000
50
90.000000
51
147.390000
0
LINE
8
0
10
2551.697236
20
1202.548410
30
0.0
11
2551.951605
21
1202.548410
31
0.0
0
ARC
8
0
10
2551.951605
20
1201.348410
30
0.0
40
1.200000
50
59.496833
51
90.000000
0
LINE
8
0
10
2552.560708
20
1202.382331
30
0.0
11
2553.736024
21
1201.689929
31
0.0
0
ARC
8
0
10
2553.888300
20
1201.948410
30
0.0
40
0.300000
50
239.496833
51
270.000000
0
LINE
8
0
10
2553.888300
20
1201.648410
30
0.0
11
2554.066502
21
1201.648410
31
0.0
0
ARC
8
0
10
2554.066502
20
1202.048410
30
0.0
40
0.400000
50
270.000000
51
0.000000
0
LINE
8
0
10
2554.466502
20
1202.048410
30
0.0
11
2554.466502
21
1202.448410
31
0.0
0
ARC
8
0
10
2554.366502
20
1202.448410
30
0.0
40
0.100000
50
0.000000
51
90.000000
0
LINE
8
0
10
2554.366502
20
1202.548410
30
0.0
11
2554.366502
21
1202.823410
31
0.0
0
ARC
8
0
10
2554.066502
20
1202.823410
30
0.0
40
0.300000
50
0.000000
51
90.000000
0
LINE
8
0
10
2554.066502
20
1203.123410
30
0.0
11
2554.006976
21
1203.123410
31
0.0
0
ARC
8
0
10
2553.716502
20
1203.648410
30
0.0
40
0.600000
50
61.044976
51
298.955024
0
LINE
8
0
10
2554.006976
20
1204.173410
30
0.0
11
2554.066502
21
1204.173410
31
0.0
0
ARC
8
0
10
2554.066502
20
1204.473410
30
0.0
40
0.300000
50
270.000000
51
0.000000
0
LINE
8
0
10
2554.366502
20
1204.473410
30
0.0
11
2554.366502
21
1204.748410
31
0.0
0
ARC
8
0
10
2554.366502
20
1204.848410
30
0.0
40
0.100000
50
270.000000
51
0.000000
0
LINE
8
0
10
2554.466502
20
1204.848410
30
0.0
11
2554.466502
21
1205.248410
31
0.0
0
ARC
8
0
10
2554.066502
20
1205.248410
30
0.0
40
0.400000
50
0.000000
51
90.000000
0
LINE
8
0
10
2554.066502
20
1205.648410
30
0.0
11
2553.888167
21
1205.648410
31
0.0
0
ARC
8
0
10
2553.888167
20
1205.348410
30
0.0
40
0.300000
50
90.000000
51
120.455827
0
LINE
8
0
10
2553.736105
20
1205.607016
30
0.0
11
2552.557496
21
1204.913986
31
0.0
0
ARC
8
0
10
2551.949247
20
1205.948410
30
0.0
40
1.200000
50
270.000000
51
300.455827
0
LINE
8
0
10
2551.949247
20
1204.748410
30
0.0
11
2551.229874
21
1204.748410
31
0.0
0
ARC
8
0
10
2551.229874
20
1203.548410
30
0.0
40
1.200000
50
90.000000
51
147.000000
0
LINE
8
0
10
2550.223470
20
1204.201977
30
0.0
11
2548.784342
21
1201.985915
31
0.0
0
ARC
8
0
10
2547.610204
20
1202.748410
30
0.0
40
1.400000
50
270.000000
51
327.000000
0
LINE
8
0
10
2547.610204
20
1201.348410
30
0.0
11
2526.322800
21
1201.348410
31
0.0
0
ARC
8
0
10
2526.322800
20
1202.748410
30
0.0
40
1.400000
50
213.000000
51
270.000000
0
LINE
8
0
10
2525.148661
20
1201.985915
30
0.0
11
2523.709534
21
1204.201977
31
0.0
0
ARC
8
0
10
2522.703129
20
1203.548410
30
0.0
40
1.200000
50
33.000000
51
90.000000
0
LINE
8
0
10
2522.703129
20
1204.748410
30
0.0
11
2521.983756
21
1204.748410
31
0.0
0
ARC
8
0
10
2521.983756
20
1205.948410
30
0.0
40
1.200000
50
239.544173
51
270.000000
0
LINE
8
0
10
2521.375508
20
1204.913986
30
0.0
11
2520.196899
21
1205.607016
31
0.0
0
ARC
8
0
10
2520.044837
20
1205.348410
30
0.0
40
0.300000
50
59.544173
51
90.000000
0
LINE
8
0
10
2520.044837
20
1205.648410
30
0.0
11
2519.866502
21
1205.648410
31
0.0
0
ARC
8
0
10
2519.866502
20
1205.248410
30
0.0
40
0.400000
50
90.000000
51
180.000000
0
LINE
8
0
10
2519.466502
20
1205.248410
30
0.0
11
2519.466502
21
1204.848410
31
0.0
0
ARC
8
0
10
2519.566502
20
1204.848410
30
0.0
40
0.100000
50
180.000000
51
270.000000
0
LINE
8
0
10
2519.566502
20
1204.748410
30
0.0
11
2519.566502
21
1204.473410
31
0.0
0
ARC
8
0
10
2519.866502
20
1204.473410
30
0.0
40
0.300000
50
180.000000
51
270.000000
0
LINE
8
0
10
2519.866502
20
1204.173410
30
0.0
11
2519.926028
21
1204.173410
31
0.0
0
ARC
8
0
10
2520.216502
20
1203.648410
30
0.0
40
0.600000
50
241.044976
51
118.955024
0
LINE
8
0
10
2519.926028
20
1203.123410
30
0.0
11
2519.866502
21
1203.123410
31
0.0
0
ARC
8
0
10
2519.866502
20
1202.823410
30
0.0
40
0.300000
50
90.000000
51
180.000000
0
LINE
8
0
10
2519.566502
20
1202.823410
30
0.0
11
2519.566502
21
1202.548410
31
0.0
0
ARC
8
0
10
2519.566502
20
1202.448410
30
0.0
40
0.100000
50
90.000000
51
180.000000
0
LINE
8
0
10
2519.466502
20
1202.448410
30
0.0
11
2519.466502
21
1202.048410
31
0.0
0
ARC
8
0
10
2519.866502
20
1202.048410
30
0.0
40
0.400000
50
180.000000
51
270.000000
0
LINE
8
0
10
2519.866502
20
1201.648410
30
0.0
11
2520.044703
21
1201.648410
31
0.0
0
ARC
8
0
10
2520.044703
20
1201.948410
30
0.0
40
0.300000
50
270.000000
51
300.503167
0
LINE
8
0
10
2520.196979
20
1201.689929
30
0.0
11
2521.372295
21
1202.382331
31
0.0
0
ARC
8
0
10
2521.981399
20
1201.348410
30
0.0
40
1.200000
50
90.000000
51
120.503167
0
LINE
8
0
10
2521.981399
20
1202.548410
30
0.0
11
2522.235768
21
1202.548410
31
0.0
0
ARC
8
0
10
2522.235768
20
1202.248410
30
0.0
40
0.300000
50
32.610000
51
90.000000
0
LINE
8
0
10
2522.488475
20
1202.410085
30
0.0
11
2523.992011
21
1200.094843
31
0.0
0
ARC
8
0
10
2524.998416
20
1246.848410
30
0.0
40
1.200000
50
90.000000
51
147.000000
0
LINE
8
0
10
2524.998416
20
1248.048410
30
0.0
11
2548.934588
21
1248.048410
31
0.0
0
ARC
8
0
10
2548.934588
20
1246.848410
30
0.0
40
1.200000
50
33.000000
51
90.000000
0
LINE
8
0
10
2549.940992
20
1247.501977
30
0.0
11
2551.444528
21
1245.186734
31
0.0
0
ARC
8
0
10
2551.697236
20
1245.348410
30
0.0
40
0.300000
50
212.610000
51
270.000000
0
LINE
8
0
10
2551.697236
20
1245.048410
30
0.0
11
2551.951605
21
1245.048410
31
0.0
0
ARC
8
0
10
2551.951605
20
1246.248410
30
0.0
40
1.200000
50
270.000000
51
300.503167
0
LINE
8
0
10
2552.560708
20
1245.214489
30
0.0
11
2553.736024
21
1245.906890
31
0.0
0
ARC
8
0
10
2553.888300
20
1245.648410
30
0.0
40
0.300000
50
90.000000
51
120.503167
0
LINE
8
0
10
2553.888300
20
1245.948410
30
0.0
11
2554.066502
21
1245.948410
31
0.0
0
ARC
8
0
10
2554.066502
20
1245.548410
30
0.0
40
0.400000
50
0.000000
51
90.000000
0
LINE
8
0
10
2554.466502
20
1245.548410
30
0.0
11
2554.466502
21
1245.148410
31
0.0
0
ARC
8
0
10
2554.366502
20
1245.148410
30
0.0
40
0.100000
50
270.000000
51
0.000000
0
LINE
8
0
10
2554.366502
20
1245.048410
30
0.0
11
2554.366502
21
1244.773410
31
0.0
0
ARC
8
0
10
2554.066502
20
1244.773410
30
0.0
40
0.300000
50
270.000000
51
0.000000
0
LINE
8
0
10
2554.066502
20
1244.473410
30
0.0
11
2554.006976
21
1244.473410
31
0.0
0
ARC
8
0
10
2553.716502
20
1243.948410
30
0.0
40
0.600000
50
61.044976
51
298.955024
0
LINE
8
0
10
2554.006976
20
1243.423410
30
0.0
11
2554.066502
21
1243.423410
31
0.0
0
ARC
8
0
10
2554.066502
20
1243.123410
30
0.0
40
0.300000
50
0.000000
51
90.000000
0
LINE
8
0
10
2554.366502
20
1243.123410
30
0.0
11
2554.366502
21
1242.848410
31
0.0
0
ARC
8
0
10
2554.366502
20
1242.748410
30
0.0
40
0.100000
50
0.000000
51
90.000000
0
LINE
8
0
10
2554.466502
20
1242.748410
30
0.0
11
2554.466502
21
1242.348410
31
0.0
0
ARC
8
0
10
2554.066502
20
1242.348410
30
0.0
40
0.400000
50
270.000000
51
0.000000
0
LINE
8
0
10
2554.066502
20
1241.948410
30
0.0
11
2553.888167
21
1241.948410
31
0.0
0
ARC
8
0
10
2553.888167
20
1242.248410
30
0.0
40
0.300000
50
239.544173
51
270.000000
0
LINE
8
0
10
2553.736105
20
1241.989804
30
0.0
11
2552.557496
21
1242.682834
31
0.0
0
ARC
8
0
10
2551.949247
20
1241.648410
30
0.0
40
1.200000
50
59.544173
51
90.000000
0
LINE
8
0
10
2551.949247
20
1242.848410
30
0.0
11
2551.229874
21
1242.848410
31
0.0
0
ARC
8
0
10
2551.229874
20
1244.048410
30
0.0
40
1.200000
50
213.000000
51
270.000000
0
LINE
8
0
10
2550.223470
20
1243.394843
30
0.0
11
2548.784342
21
1245.610904
31
0.0
0
ARC
8
0
10
2547.610204
20
1244.848410
30
0.0
40
1.400000
50
33.000000
51
90.000000
0
LINE
8
0
10
2547.610204
20
1246.248410
30
0.0
11
2526.322800
21
1246.248410
31
0.0
0
ARC
8
0
10
2526.322800
20
1244.848410
30
0.0
40
1.400000
50
90.000000
51
147.000000
0
LINE
8
0
10
2525.148661
20
1245.610904
30
0.0
11
2523.709534
21
1243.394843
31
0.0
0
ARC
8
0
10
2522.703129
20
1244.048410
30
0.0
40
1.200000
50
270.000000
51
327.000000
0
LINE
8
0
10
2522.703129
20
1242.848410
30
0.0
11
2521.983756
21
1242.848410
31
0.0
0
ARC
8
0
10
2521.983756
20
1241.648410
30
0.0
40
1.200000
50
90.000000
51
120.455827
0
LINE
8
0
10
2521.375508
20
1242.682834
30
0.0
11
2520.196899
21
1241.989804
31
0.0
0
ARC
8
0
10
2520.044837
20
1242.248410
30
0.0
40
0.300000
50
270.000000
51
300.455827
0
LINE
8
0
10
2520.044837
20
1241.948410
30
0.0
11
2519.866502
21
1241.948410
31
0.0
0
ARC
8
0
10
2519.866502
20
1242.348410
30
0.0
40
0.400000
50
180.000000
51
270.000000
0
LINE
8
0
10
2519.466502
20
1242.348410
30
0.0
11
2519.466502
21
1242.748410
31
0.0
0
ARC
8
0
10
2519.566502
20
1242.748410
30
0.0
40
0.100000
50
90.000000
51
180.000000
0
LINE
8
0
10
2519.566502
20
1242.848410
30
0.0
11
2519.566502
21
1243.123410
31
0.0
0
ARC
8
0
10
2519.866502
20
1243.123410
30
0.0
40
0.300000
50
90.000000
51
180.000000
0
LINE
8
0
10
2519.866502
20
1243.423410
30
0.0
11
2519.926028
21
1243.423410
31
0.0
0
ARC
8
0
10
2520.216502
20
1243.948410
30
0.0
40
0.600000
50
241.044976
51
118.955024
0
LINE
8
0
10
2519.926028
20
1244.473410
30
0.0
11
2519.866502
21
1244.473410
31
0.0
0
ARC
8
0
10
2519.866502
20
1244.773410
30
0.0
40
0.300000
50
180.000000
51
270.000000
0
LINE
8
0
10
2519.566502
20
1244.773410
30
0.0
11
2519.566502
21
1245.048410
31
0.0
0
ARC
8
0
10
2519.566502
20
1245.148410
30
0.0
40
0.100000
50
180.000000
51
270.000000
0
LINE
8
0
10
2519.466502
20
1245.148410
30
0.0
11
2519.466502
21
1245.548410
31
0.0
0
ARC
8
0
10
2519.866502
20
1245.548410
30
0.0
40
0.400000
50
90.000000
51
180.000000
0
LINE
8
0
10
2519.866502
20
1245.948410
30
0.0
11
2520.044703
21
1245.948410
31
0.0
0
ARC
8
0
10
2520.044703
20
1245.648410
30
0.0
40
0.300000
50
59.496833
51
90.000000
0
LINE
8
0
10
2520.196979
20
1245.906890
30
0.0
11
2521.372295
21
1245.214489
31
0.0
0
ARC
8
0
10
2521.981399
20
1246.248410
30
0.0
40
1.200000
50
239.496833
51
270.000000
0
LINE
8
0
10
2521.981399
20
1245.048410
30
0.0
11
2522.235768
21
1245.048410
31
0.0
0
ARC
8
0
10
2522.235768
20
1245.348410
30
0.0
40
0.300000
50
270.000000
51
327.390000
0
LINE
8
0
10
2522.488475
20
1245.186734
30
0.0
11
2523.992011
21
1247.501977
31
0.0
0
ARC
8
0
10
2524.998416
20
1200.748410
30
0.0
40
1.200000
50
213.000000
51
270.000000
0
LINE
8
0
10
2524.998416
20
1199.548410
30
0.0
11
2548.934588
21
1199.548410
31
0.0
0
ARC
8
0
10
2548.934588
20
1200.748410
30
0.0
40
1.200000
50
270.000000
51
327.000000
0
LINE
8
0
10
2549.940992
20
1200.094843
30
0.0
11
2551.444528
21
1202.410085
31
0.0
0
ARC
8
0
10
2551.697236
20
1202.248410
30
0.0
40
0.300000
50
90.000000
51
147.390000
0
LINE
8
0
10
2551.697236
20
1202.548410
30
0.0
11
2551.951605
21
1202.548410
31
0.0
0
ARC
8
0
10
2551.951605
20
1201.348410
30
0.0
40
1.200000
50
59.496833
51
90.000000
0
LINE
8
0
10
2552.560708
20
1202.382331
30
0.0
11
2553.736024
21
1201.689929
31
0.0
0
ARC
8
0
10
2553.888300
20
1201.948410
30
0.0
40
0.300000
50
239.496833
51
270.000000
0
LINE
8
0
10
2553.888300
20
1201.648410
30
0.0
11
2554.066502
21
1201.648410
31
0.0
0
ARC
8
0
10
2554.066502
20
1202.048410
30
0.0
40
0.400000
50
270.000000
51
0.000000
0
LINE
8
0
10
2554.466502
20
1202.048410
30
0.0
11
2554.466502
21
1202.448410
31
0.0
0
ARC
8
0
10
2554.366502
20
1202.448410
30
0.0
40
0.100000
50
0.000000
51
90.000000
0
LINE
8
0
10
2554.366502
20
1202.548410
30
0.0
11
2554.366502
21
1202.823410
31
0.0
0
ARC
8
0
10
2554.066502
20
1202.823410
30
0.0
40
0.300000
50
0.000000
51
90.000000
0
LINE
8
0
10
2554.066502
20
1203.123410
30
0.0
11
2554.006976
21
1203.123410
31
0.0
0
ARC
8
0
10
2553.716502
20
1203.648410
30
0.0
40
0.600000
50
61.044976
51
298.955024
0
LINE
8
0
10
2554.006976
20
1204.173410
30
0.0
11
2554.066502
21
1204.173410
31
0.0
0
ARC
8
0
10
2554.066502
20
1204.473410
30
0.0
40
0.300000
50
270.000000
51
0.000000
0
LINE
8
0
10
2554.366502
20
1204.473410
30
0.0
11
2554.366502
21
1204.748410
31
0.0
0
ARC
8
0
10
2554.366502
20
1204.848410
30
0.0
40
0.100000
50
270.000000
51
0.000000
0
LINE
8
0
10
2554.466502
20
1204.848410
30
0.0
11
2554.466502
21
1205.248410
31
0.0
0
ARC
8
0
10
2554.066502
20
1205.248410
30
0.0
40
0.400000
50
0.000000
51
90.000000
0
LINE
8
0
10
2554.066502
20
1205.648410
30
0.0
11
2553.888167
21
1205.648410
31
0.0
0
ARC
8
0
10
2553.888167
20
1205.348410
30
0.0
40
0.300000
50
90.000000
51
120.455827
0
LINE
8
0
10
2553.736105
20
1205.607016
30
0.0
11
2552.557496
21
1204.913986
31
0.0
0
ARC
8
0
10
2551.949247
20
1205.948410
30
0.0
40
1.200000
50
270.000000
51
300.455827
0
LINE
8
0
10
2551.949247
20
1204.748410
30
0.0
11
2551.229874
21
1204.748410
31
0.0
0
ARC
8
0
10
2551.229874
20
1203.548410
30
0.0
40
1.200000
50
90.000000
51
147.000000
0
LINE
8
0
10
2550.223470
20
1204.201977
30
0.0
11
2548.784342
21
1201.985915
31
0.0
0
ARC
8
0
10
2547.610204
20
1202.748410
30
0.0
40
1.400000
50
270.000000
51
327.000000
0
LINE
8
0
10
2547.610204
20
1201.348410
30
0.0
11
2526.322800
21
1201.348410
31
0.0
0
ARC
8
0
10
2526.322800
20
1202.748410
30
0.0
40
1.400000
50
213.000000
51
270.000000
0
LINE
8
0
10
2525.148661
20
1201.985915
30
0.0
11
2523.709534
21
1204.201977
31
0.0
0
ARC
8
0
10
2522.703129
20
1203.548410
30
0.0
40
1.200000
50
33.000000
51
90.000000
0
LINE
8
0
10
2522.703129
20
1204.748410
30
0.0
11
2521.983756
21
1204.748410
31
0.0
0
ARC
8
0
10
2521.983756
20
1205.948410
30
0.0
40
1.200000
50
239.544173
51
270.000000
0
LINE
8
0
10
2521.375508
20
1204.913986
30
0.0
11
2520.196899
21
1205.607016
31
0.0
0
ARC
8
0
10
2520.044837
20
1205.348410
30
0.0
40
0.300000
50
59.544173
51
90.000000
0
LINE
8
0
10
2520.044837
20
1205.648410
30
0.0
11
2519.866502
21
1205.648410
31
0.0
0
ARC
8
0
10
2519.866502
20
1205.248410
30
0.0
40
0.400000
50
90.000000
51
180.000000
0
LINE
8
0
10
2519.466502
20
1205.248410
30
0.0
11
2519.466502
21
1204.848410
31
0.0
0
ARC
8
0
10
2519.566502
20
1204.848410
30
0.0
40
0.100000
50
180.000000
51
270.000000
0
LINE
8
0
10
2519.566502
20
1204.748410
30
0.0
11
2519.566502
21
1204.473410
31
0.0
0
ARC
8
0
10
2519.866502
20
1204.473410
30
0.0
40
0.300000
50
180.000000
51
270.000000
0
LINE
8
0
10
2519.866502
20
1204.173410
30
0.0
11
2519.926028
21
1204.173410
31
0.0
0
ARC
8
0
10
2520.216502
20
1203.648410
30
0.0
40
0.600000
50
241.044976
51
118.955024
0
LINE
8
0
10
2519.926028
20
1203.123410
30
0.0
11
2519.866502
21
1203.123410
31
0.0
0
ARC
8
0
10
2519.866502
20
1202.823410
30
0.0
40
0.300000
50
90.000000
51
180.000000
0
LINE
8
0
10
2519.566502
20
1202.823410
30
0.0
11
2519.566502
21
1202.548410
31
0.0
0
ARC
8
0
10
2519.566502
20
1202.448410
30
0.0
40
0.100000
50
90.000000
51
180.000000
0
LINE
8
0
10
2519.466502
20
1202.448410
30
0.0
11
2519.466502
21
1202.048410
31
0.0
0
ARC
8
0
10
2519.866502
20
1202.048410
30
0.0
40
0.400000
50
180.000000
51
270.000000
0
LINE
8
0
10
2519.866502
20
1201.648410
30
0.0
11
2520.044703
21
1201.648410
31
0.0
0
ARC
8
0
10
2520.044703
20
1201.948410
30
0.0
40
0.300000
50
270.000000
51
300.503167
0
LINE
8
0
10
2520.196979
20
1201.689929
30
0.0
11
2521.372295
21
1202.382331
31
0.0
0
ARC
8
0
10
2521.981399
20
1201.348410
30
0.0
40
1.200000
50
90.000000
51
120.503167
0
LINE
8
0
10
2521.981399
20
1202.548410
30
0.0
11
2522.235768
21
1202.548410
31
0.0
0
ARC
8
0
10
2522.235768
20
1202.248410
30
0.0
40
0.300000
50
32.610000
51
90.000000
0
LINE
8
0
10
2522.488475
20
1202.410085
30
0.0
11
2523.992011
21
1200.094843
31
0.0
0
LINE
8
0
10
2506.966502
20
1248.298410
30
0.0
11
2507.254370
21
1248.010542
31
0.0
0
ARC
8
0
10
2507.466502
20
1248.222674
30
0.0
40
0.300000
50
225.000000
51
315.000000
0
LINE
8
0
10
2507.678634
20
1248.010542
30
0.0
11
2507.966502
21
1248.298410
31
0.0
0
LINE
8
0
10
2507.966502
20
1248.298410
30
0.0
11
2516.166502
21
1248.298410
31
0.0
0
ARC
8
0
10
2516.166502
20
1248.598410
30
0.0
40
0.300000
50
270.000000
51
0.000000
0
LINE
8
0
10
2516.466502
20
1248.598410
30
0.0
11
2516.466502
21
1250.998410
31
0.0
0
ARC
8
0
10
2516.166502
20
1250.998410
30
0.0
40
0.300000
50
0.000000
51
90.000000
0
LINE
8
0
10
2516.166502
20
1251.298410
30
0.0
11
2514.466502
21
1251.298410
31
0.0
0
LINE
8
0
10
2514.466502
20
1251.298410
30
0.0
11
2514.466502
21
1252.091303
31
0.0
0
ARC
8
0
10
2514.966502
20
1252.091303
30
0.0
40
0.500000
50
135.000000
51
180.000000
0
LINE
8
0
10
2514.612948
20
1252.444856
30
0.0
11
2515.320055
21
1253.151963
31
0.0
0
ARC
8
0
10
2515.673609
20
1252.798410
30
0.0
40
0.500000
50
90.000000
51
135.000000
0
LINE
8
0
10
2515.673609
20
1253.298410
30
0.0
11
2517.766502
21
1253.298410
31
0.0
0
ARC
8
0
10
2517.766502
20
1252.798410
30
0.0
40
0.500000
50
0.000000
51
90.000000
0
LINE
8
0
10
2518.266502
20
1252.798410
30
0.0
11
2518.266502
21
1248.798410
31
0.0
0
ARC
8
0
10
2518.766502
20
1248.798410
30
0.0
40
0.500000
50
180.000000
51
270.000000
0
LINE
8
0
10
2518.766502
20
1248.298410
30
0.0
11
2519.466502
21
1248.298410
31
0.0
0
ARC
8
0
10
2519.966502
20
1248.298410
30
0.0
40
0.500000
50
180.000000
51
248.154667
0
LINE
8
0
10
2519.780451
20
1247.834314
30
0.0
11
2520.985224
21
1247.351333
31
0.0
0
ARC
8
0
10
2521.110077
20
1247.624118
30
0.0
40
0.300000
50
245.406671
51
266.364699
0
ARC
8
0
10
2521.205185
20
1249.121100
30
0.0
40
1.800000
50
266.364699
51
320.681121
0
ARC
8
0
10
2522.752448
20
1247.853828
30
0.0
40
0.200000
50
87.876251
51
140.681121
0
LINE
8
0
10
2522.759859
20
1248.053691
30
0.0
11
2523.709830
21
1248.018463
31
0.0
0
LINE
8
0
10
2523.709830
20
1248.018463
30
0.0
11
2523.720078
21
1248.018039
31
0.0
0
ARC
8
0
10
2523.703827
20
1247.718479
30
0.0
40
0.300000
50
355.858276
51
86.894587
0
ARC
8
0
10
2523.803565
20
1247.711257
30
0.0
40
0.200000
50
321.753920
51
355.858276
0
LINE
8
0
10
2523.960637
20
1247.587449
30
0.0
11
2521.923671
21
1245.003206
31
0.0
0
ARC
8
0
10
2521.766600
20
1245.127014
30
0.0
40
0.200000
50
159.172413
51
321.753920
0
ARC
8
0
10
2521.392738
20
1245.269237
30
0.0
40
0.200000
50
339.172413
51
57.498474
0
LINE
8
0
10
2521.500202
20
1245.437913
30
0.0
11
2520.144608
21
1246.301572
31
0.0
0
ARC
8
0
10
2520.252072
20
1246.470248
30
0.0
40
0.200000
50
177.325828
51
237.498474
0
ARC
8
0
10
2519.752617
20
1246.493576
30
0.0
40
0.300000
50
357.325828
51
72.500000
0
LINE
8
0
10
2519.842829
20
1246.779691
30
0.0
11
2519.466502
21
1246.883787
31
0.0
0
ARC
8
0
10
2519.466502
20
1246.583787
30
0.0
40
0.300000
50
90.000000
51
246.421822
0
ARC
8
0
10
2519.266502
20
1246.125530
30
0.0
40
0.200000
50
0.000000
51
66.421822
0
LINE
8
0
10
2519.466502
20
1246.125530
30
0.0
11
2519.466502
21
1241.783787
31
0.0
0
ARC
8
0
10
2519.666502
20
1241.783787
30
0.0
40
0.200000
50
180.000000
51
270.000000
0
LINE
8
0
10
2519.666502
20
1241.583787
30
0.0
11
2519.734391
21
1241.583787
31
0.0
0
ARC
8
0
10
2519.734391
20
1241.883787
30
0.0
40
0.300000
50
270.000000
51
301.380132
0
LINE
8
0
10
2519.890605
20
1241.627668
30
0.0
11
2521.488026
21
1242.601978
31
0.0
0
ARC
8
0
10
2521.383884
20
1242.772724
30
0.0
40
0.200000
50
301.380132
51
343.047211
0
ARC
8
0
10
2521.766502
20
1242.656091
30
0.0
40
0.200000
50
0.000000
51
163.047211
0
LINE
8
0
10
2521.966502
20
1242.656091
30
0.0
11
2521.966502
21
1241.463956
31
0.0
0
ARC
8
0
10
2520.966502
20
1241.463956
30
0.0
40
1.000000
50
301.380132
51
0.000000
0
LINE
8
0
10
2521.487215
20
1240.610225
30
0.0
11
2519.945788
21
1239.670067
31
0.0
0
ARC
8
0
10
2520.466502
20
1238.816336
30
0.0
40
1.000000
50
121.380132
51
180.000000
0
LINE
8
0
10
2519.466502
20
1238.816336
30
0.0
11
2519.466502
21
1208.780484
31
0.0
0
ARC
8
0
10
2520.466502
20
1208.780484
30
0.0
40
1.000000
50
180.000000
51
238.619868
0
LINE
8
0
10
2519.945788
20
1207.926752
30
0.0
11
2521.487215
21
1206.986595
31
0.0
0
ARC
8
0
10
2520.966502
20
1206.132863
30
0.0
40
1.000000
50
0.000000
51
58.619868
0
LINE
8
0
10
2521.966502
20
1206.132863
30
0.0
11
2521.966502
21
1204.940729
31
0.0
0
ARC
8
0
10
2521.766502
20
1204.940729
30
0.0
40
0.200000
50
196.952789
51
0.000000
0
ARC
8
0
10
2521.383884
20
1204.824095
30
0.0
40
0.200000
50
16.952789
51
58.619868
0
LINE
8
0
10
2521.488026
20
1204.994841
30
0.0
11
2519.890605
21
1205.969152
31
0.0
0
ARC
8
0
10
2519.734391
20
1205.713032
30
0.0
40
0.300000
50
58.619868
51
90.000000
0
LINE
8
0
10
2519.734391
20
1206.013032
30
0.0
11
2519.666502
21
1206.013032
31
0.0
0
ARC
8
0
10
2519.666502
20
1205.813032
30
0.0
40
0.200000
50
90.000000
51
180.000000
0
LINE
8
0
10
2519.466502
20
1205.813032
30
0.0
11
2519.466502
21
1201.471290
31
0.0
0
ARC
8
0
10
2519.266502
20
1201.471290
30
0.0
40
0.200000
50
293.578179
51
0.000000
0
ARC
8
0
10
2519.466502
20
1201.013032
30
0.0
40
0.300000
50
113.578178
51
270.000000
0
LINE
8
0
10
2519.466502
20
1200.713032
30
0.0
11
2519.842829
21
1200.817129
31
0.0
0
ARC
8
0
10
2519.752617
20
1201.103244
30
0.0
40
0.300000
50
287.500000
51
2.674172
0
ARC
8
0
10
2520.252072
20
1201.126572
30
0.0
40
0.200000
50
122.501526
51
182.674172
0
LINE
8
0
10
2520.144608
20
1201.295248
30
0.0
11
2521.500202
21
1202.158907
31
0.0
0
ARC
8
0
10
2521.392738
20
1202.327582
30
0.0
40
0.200000
50
302.501526
51
20.827587
0
ARC
8
0
10
2521.766600
20
1202.469805
30
0.0
40
0.200000
50
38.246080
51
200.827587
0
LINE
8
0
10
2521.923671
20
1202.593613
30
0.0
11
2523.960637
21
1200.009371
31
0.0
0
ARC
8
0
10
2523.803565
20
1199.885563
30
0.0
40
0.200000
50
4.141724
51
38.246080
0
ARC
8
0
10
2523.703827
20
1199.878340
30
0.0
40
0.300000
50
273.105413
51
4.141724
0
LINE
8
0
10
2523.720078
20
1199.578781
30
0.0
11
2523.709830
21
1199.578357
31
0.0
0
LINE
8
0
10
2523.709830
20
1199.578357
30
0.0
11
2522.759859
21
1199.543129
31
0.0
0
ARC
8
0
10
2522.752448
20
1199.742991
30
0.0
40
0.200000
50
219.318879
51
272.123749
0
ARC
8
0
10
2521.205185
20
1198.475720
30
0.0
40
1.800000
50
39.318879
51
93.635301
0
ARC
8
0
10
2521.110077
20
1199.972701
30
0.0
40
0.300000
50
93.635301
51
114.593329
0
LINE
8
0
10
2520.985224
20
1200.245487
30
0.0
11
2519.780451
21
1199.762506
31
0.0
0
ARC
8
0
10
2519.966502
20
1199.298410
30
0.0
40
0.500000
50
111.845333
51
180.000000
0
LINE
8
0
10
2519.466502
20
1199.298410
30
0.0
11
2514.666502
21
1199.298410
31
0.0
0
ARC
8
0
10
2514.666502
20
1198.798410
30
0.0
40
0.500000
50
90.000000
51
180.000000
0
LINE
8
0
10
2514.166502
20
1198.798410
30
0.0
11
2514.166502
21
1196.798410
31
0.0
0
ARC
8
0
10
2513.666502
20
1196.798410
30
0.0
40
0.500000
50
270.000000
51
0.000000
0
LINE
8
0
10
2513.666502
20
1196.298410
30
0.0
11
2513.066502
21
1196.298410
31
0.0
0
ARC
8
0
10
2513.066502
20
1196.798410
30
0.0
40
0.500000
50
180.000000
51
270.000000
0
LINE
8
0
10
2512.566502
20
1196.798410
30
0.0
11
2512.566502
21
1198.798410
31
0.0
0
ARC
8
0
10
2512.066502
20
1198.798410
30
0.0
40
0.500000
50
0.000000
51
90.000000
0
LINE
8
0
10
2512.066502
20
1199.298410
30
0.0
11
2502.866502
21
1199.298410
31
0.0
0
ARC
8
0
10
2502.866502
20
1198.798410
30
0.0
40
0.500000
50
90.000000
51
180.000000
0
LINE
8
0
10
2502.366502
20
1198.798410
30
0.0
11
2502.366502
21
1196.798410
31
0.0
0
ARC
8
0
10
2501.866502
20
1196.798410
30
0.0
40
0.500000
50
270.000000
51
0.000000
0
LINE
8
0
10
2501.866502
20
1196.298410
30
0.0
11
2501.266502
21
1196.298410
31
0.0
0
ARC
8
0
10
2501.266502
20
1196.798410
30
0.0
40
0.500000
50
180.000000
51
270.000000
0
LINE
8
0
10
2500.766502
20
1196.798410
30
0.0
11
2500.766502
21
1198.798410
31
0.0
0
ARC
8
0
10
2500.266502
20
1198.798410
30
0.0
40
0.500000
50
0.000000
51
90.000000
0
LINE
8
0
10
2500.266502
20
1199.298410
30
0.0
11
2497.466502
21
1199.298410
31
0.0
0
ARC
8
0
10
2497.466502
20
1199.798410
30
0.0
40
0.500000
50
180.000000
51
270.000000
0
LINE
8
0
10
2496.966502
20
1199.798410
30
0.0
11
2496.966502
21
1252.798410
31
0.0
0
ARC
8
0
10
2497.466502
20
1252.798410
30
0.0
40
0.500000
50
90.000000
51
180.000000
0
LINE
8
0
10
2497.466502
20
1253.298410
30
0.0
11
2499.259395
21
1253.298410
31
0.0
0
ARC
8
0
10
2499.259395
20
1252.798410
30
0.0
40
0.500000
50
45.000000
51
90.000000
0
LINE
8
0
10
2499.612948
20
1253.151963
30
0.0
11
2500.320055
21
1252.444856
31
0.0
0
ARC
8
0
10
2499.966502
20
1252.091303
30
0.0
40
0.500000
50
0.000000
51
45.000000
0
LINE
8
0
10
2500.466502
20
1252.091303
30
0.0
11
2500.466502
21
1251.298410
31
0.0
0
LINE
8
0
10
2500.466502
20
1251.298410
30
0.0
11
2498.766502
21
1251.298410
31
0.0
0
ARC
8
0
10
2498.766502
20
1250.998410
30
0.0
40
0.300000
50
90.000000
51
180.000000
0
LINE
8
0
10
2498.466502
20
1250.998410
30
0.0
11
2498.466502
21
1248.598410
31
0.0
0
ARC
8
0
10
2498.766502
20
1248.598410
30
0.0
40
0.300000
50
180.000000
51
270.000000
0
LINE
8
0
10
2498.766502
20
1248.298410
30
0.0
11
2506.966502
21
1248.298410
31
0.0
0
ARC
8
0
10
2499.666502
20
1201.798410
30
0.0
40
0.500000
50
180.000000
51
270.000000
0
LINE
8
0
10
2499.166502
20
1201.798410
30
0.0
11
2499.166502
21
1245.998410
31
0.0
0
ARC
8
0
10
2499.466502
20
1245.998410
30
0.0
40
0.300000
50
90.000000
51
180.000000
0
LINE
8
0
10
2499.466502
20
1246.298410
30
0.0
11
2517.366502
21
1246.298410
31
0.0
0
ARC
8
0
10
2517.366502
20
1245.998410
30
0.0
40
0.300000
50
0.000000
51
90.000000
0
LINE
8
0
10
2517.666502
20
1245.998410
30
0.0
11
2517.666502
21
1201.598410
31
0.0
0
ARC
8
0
10
2517.366502
20
1201.598410
30
0.0
40
0.300000
50
270.000000
51
0.000000
0
LINE
8
0
10
2517.366502
20
1201.298410
30
0.0
11
2507.966502
21
1201.298410
31
0.0
0
LINE
8
0
10
2507.966502
20
1201.298410
30
0.0
11
2507.678634
21
1201.010542
31
0.0
0
ARC
8
0
10
2507.466502
20
1201.222674
30
0.0
40
0.300000
50
225.000000
51
315.000000
0
LINE
8
0
10
2507.254370
20
1201.010542
30
0.0
11
2506.966502
21
1201.298410
31
0.0
0
LINE
8
0
10
2506.966502
20
1201.298410
30
0.0
11
2499.666502
21
1201.298410
31
0.0
0
LINE
8
0
10
2553.340069
20
1205.374144
30
0.0
11
2554.347056
21
1204.367158
31
0.0
0
LINE
8
0
10
2551.720739
20
1204.748410
30
0.0
11
2554.464140
21
1202.005009
31
0.0
0
LINE
8
0
10
2550.144189
20
1204.079896
30
0.0
11
2551.676400
21
1202.547685
31
0.0
0
LINE
8
0
10
2549.260259
20
1202.718762
30
0.0
11
2550.706067
21
1201.272954
31
0.0
0
LINE
8
0
10
2548.237264
20
1201.496693
30
0.0
11
2549.808213
21
1199.925744
31
0.0
0
LINE
8
0
10
2546.140483
20
1201.348410
30
0.0
11
2547.940483
21
1199.548410
31
0.0
0
LINE
8
0
10
2543.895419
20
1201.348410
30
0.0
11
2545.695419
21
1199.548410
31
0.0
0
LINE
8
0
10
2541.650355
20
1201.348410
30
0.0
11
2543.450355
21
1199.548410
31
0.0
0
LINE
8
0
10
2539.405291
20
1201.348410
30
0.0
11
2541.205291
21
1199.548410
31
0.0
0
LINE
8
0
10
2537.160227
20
1201.348410
30
0.0
11
2538.960227
21
1199.548410
31
0.0
0
LINE
8
0
10
2534.915163
20
1201.348410
30
0.0
11
2536.715163
21
1199.548410
31
0.0
0
LINE
8
0
10
2532.670099
20
1201.348410
30
0.0
11
2534.470099
21
1199.548410
31
0.0
0
LINE
8
0
10
2530.425035
20
1201.348410
30
0.0
11
2532.225035
21
1199.548410
31
0.0
0
LINE
8
0
10
2528.179971
20
1201.348410
30
0.0
11
2529.979971
21
1199.548410
31
0.0
0
LINE
8
0
10
2522.534907
20
1204.748410
30
0.0
11
2524.873147
21
1202.410170
31
0.0
0
LINE
8
0
10
2525.854130
20
1201.429187
30
0.0
11
2527.734907
21
1199.548410
31
0.0
0
LINE
8
0
10
2519.547939
20
1205.490314
30
0.0
11
2525.489843
21
1199.548410
31
0.0
0
LINE
8
0
10
2519.712389
20
1203.080799
30
0.0
11
2520.767283
21
1202.025906
31
0.0
0
LINE
8
0
10
2554.159991
20
1203.108471
30
0.0
11
2553.110159
21
1202.058639
31
0.0
0
LINE
8
0
10
2554.343466
20
1205.537011
30
0.0
11
2548.354865
21
1199.548410
31
0.0
0
LINE
8
0
10
2551.309801
20
1204.748410
30
0.0
11
2549.223407
21
1202.662016
31
0.0
0
LINE
8
0
10
2547.952221
20
1201.390830
30
0.0
11
2546.109801
21
1199.548410
31
0.0
0
LINE
8
0
10
2545.664737
20
1201.348410
30
0.0
11
2543.864737
21
1199.548410
31
0.0
0
LINE
8
0
10
2543.419673
20
1201.348410
30
0.0
11
2541.619673
21
1199.548410
31
0.0
0
LINE
8
0
10
2541.174609
20
1201.348410
30
0.0
11
2539.374609
21
1199.548410
31
0.0
0
LINE
8
0
10
2538.929545
20
1201.348410
30
0.0
11
2537.129545
21
1199.548410
31
0.0
0
LINE
8
0
10
2536.684481
20
1201.348410
30
0.0
11
2534.884481
21
1199.548410
31
0.0
0
LINE
8
0
10
2534.439417
20
1201.348410
30
0.0
11
2532.639417
21
1199.548410
31
0.0
0
LINE
8
0
10
2532.194353
20
1201.348410
30
0.0
11
2530.394353
21
1199.548410
31
0.0
0
LINE
8
0
10
2529.949289
20
1201.348410
30
0.0
11
2528.149289
21
1199.548410
31
0.0
0
LINE
8
0
10
2527.704225
20
1201.348410
30
0.0
11
2525.904225
21
1199.548410
31
0.0
0
LINE
8
0
10
2525.638049
20
1201.527297
30
0.0
11
2524.083122
21
1199.972371
31
0.0
0
LINE
8
0
10
2524.637981
20
1202.772294
30
0.0
11
2523.192173
21
1201.326486
31
0.0
0
LINE
8
0
10
2523.754050
20
1204.133427
30
0.0
11
2522.169033
21
1202.548410
31
0.0
0
LINE
8
0
10
2522.123969
20
1204.748410
30
0.0
11
2520.750616
21
1203.375057
31
0.0
0
LINE
8
0
10
2520.489854
20
1203.114295
30
0.0
11
2519.466502
21
1202.090943
31
0.0
0
LINE
8
0
10
2520.537333
20
1205.406838
30
0.0
11
2519.568588
21
1204.438093
31
0.0
0
ATTDEF
8
0
10
0.000000
20
0.000000
30
0.0
40
3.5
1

3

2
PANE_WIDTH:0
70
0
0
ATTDEF
8
0
10
0.000000
20
0.000000
30
0.0
40
3.5
1

3

2
MIN_VETRO:0
70
0
0
ATTDEF
8
0
10
0.000000
20
0.000000
30
0.0
40
3.5
1

3

2
MAX_VETRO:0
70
0
0
ATTDEF
8
0
10
0.000000
20
0.000000
30
0.0
40
3.5
1

3

2
JX:0
70
0
0
ATTDEF
8
0
10
0.000000
20
0.000000
30
0.0
40
3.5
1

3

2
WX:0
70
0
0
ATTDEF
8
0
10
0.000000
20
0.000000
30
0.0
40
3.5
1

3

2
JY:0
70
0
0
ATTDEF
8
0
10
0.000000
20
0.000000
30
0.0
40
3.5
1

3

2
WY:0
70
0
0
ATTDEF
8
0
10
0.000000
20
0.000000
30
0.0
40
3.5
1

3

2
DESC:Complem.hoja zocalo 150 dob.junquillo
70
0
0
ATTDEF
8
0
10
0.000000
20
0.000000
30
0.0
40
3.5
1

3

2
DENS:2.0458
70
0
0
ATTDEF
8
0
10
0.000000
20
0.000000
30
0.0
40
3.5
1

3

2
TDEV:67.22
70
0
0
ATTDEF
8
0
10
0.000000
20
0.000000
30
0.0
40
3.5
1

3

2
TDEV2:0
70
0
0
ATTDEF
8
0
10
0.000000
20
0.000000
30
0.0
40
3.5
1

3

2
TDEV3:0
70
0
0
ATTDEF
8
0
10
0.000000
20
0.000000
30
0.0
40
3.5
1

3

2
TDEV4:0
70
0
0
ATTDEF
8
0
10
0.000000
20
0.000000
30
0.0
40
3.5
1

3

2
TDEV5:0
70
0
0
ATTDEF
8
0
10
0.000000
20
0.000000
30
0.0
40
3.5
1

3

2
PANE_WIDTH:0
70
0
0
ATTDEF
8
0
10
0.000000
20
0.000000
30
0.0
40
3.5
1

3

2
MIN_VETRO:0
70
0
0
ATTDEF
8
0
10
0.000000
20
0.000000
30
0.0
40
3.5
1

3

2
MAX_VETRO:0
70
0
0
ATTDEF
8
0
10
0.000000
20
0.000000
30
0.0
40
3.5
1

3

2
JX:0
70
0
0
ATTDEF
8
0
10
0.000000
20
0.000000
30
0.0
40
3.5
1

3

2
WX:0
70
0
0
ATTDEF
8
0
10
0.000000
20
0.000000
30
0.0
40
3.5
1

3

2
JY:0
70
0
0
ATTDEF
8
0
10
0.000000
20
0.000000
30
0.0
40
3.5
1

3

2
WY:0
70
0
0
ENDSEC
0
EOF
