0
SECTION
2
ENTITIES
0
ARC
8
0
10
2545.693312
20
1178.148996
30
0.0
40
1.200000
50
90.000000
51
147.000000
0
LINE
8
0
10
2545.693312
20
1179.348996
30
0.0
11
2548.661398
21
1179.348996
31
0.0
0
ARC
8
0
10
2548.661398
20
1179.848996
30
0.0
40
0.500000
50
270.000000
51
360.000000
0
LINE
8
0
10
2549.161398
20
1179.848996
30
0.0
11
2549.161398
21
1182.448996
31
0.0
0
ARC
8
0
10
2549.461398
20
1182.448996
30
0.0
40
0.300000
50
90.000000
51
180.000000
0
LINE
8
0
10
2549.461398
20
1182.748996
30
0.0
11
2550.361398
21
1182.748996
31
0.0
0
LINE
8
0
10
2550.361398
20
1182.748996
30
0.0
11
2550.711398
21
1182.748996
31
0.0
0
ARC
8
0
10
2550.711398
20
1181.748996
30
0.0
40
1.000000
50
360.000000
51
90.000000
0
ARC
8
0
10
2551.511398
20
1181.748996
30
0.0
40
0.200000
50
270.000000
51
360.000000
0
LINE
8
0
10
2551.511398
20
1181.548996
30
0.0
11
2550.661398
21
1181.548996
31
0.0
0
ARC
8
0
10
2550.661398
20
1181.248996
30
0.0
40
0.300000
50
90.000000
51
180.000000
0
LINE
8
0
10
2550.361398
20
1181.248996
30
0.0
11
2550.361398
21
1179.848996
31
0.0
0
ARC
8
0
10
2550.861398
20
1179.848996
30
0.0
40
0.500000
50
180.000000
51
270.000000
0
LINE
8
0
10
2550.861398
20
1179.348996
30
0.0
11
2556.661398
21
1179.348996
31
0.0
0
ARC
8
0
10
2556.661398
20
1179.848996
30
0.0
40
0.500000
50
270.000000
51
360.000000
0
LINE
8
0
10
2557.161398
20
1179.848996
30
0.0
11
2557.161398
21
1183.598996
31
0.0
0
ARC
8
0
10
2557.661398
20
1183.598996
30
0.0
40
0.500000
50
90.000000
51
180.000000
0
LINE
8
0
10
2557.661398
20
1184.098996
30
0.0
11
2558.854291
21
1184.098996
31
0.0
0
ARC
8
0
10
2558.854291
20
1183.598996
30
0.0
40
0.500000
50
45.000000
51
90.000000
0
LINE
8
0
10
2559.207845
20
1183.952550
30
0.0
11
2559.914952
21
1183.245443
31
0.0
0
ARC
8
0
10
2559.561398
20
1182.891890
30
0.0
40
0.500000
50
360.000000
51
45.000000
0
LINE
8
0
10
2560.061398
20
1182.891890
30
0.0
11
2560.061398
21
1182.398996
31
0.0
0
ARC
8
0
10
2559.761398
20
1182.398996
30
0.0
40
0.300000
50
270.000000
51
360.000000
0
LINE
8
0
10
2559.761398
20
1182.098996
30
0.0
11
2558.961398
21
1182.098996
31
0.0
0
ARC
8
0
10
2558.961398
20
1181.798996
30
0.0
40
0.300000
50
90.000000
51
180.000000
0
LINE
8
0
10
2558.661398
20
1181.798996
30
0.0
11
2558.661398
21
1179.848996
31
0.0
0
ARC
8
0
10
2559.161398
20
1179.848996
30
0.0
40
0.500000
50
180.000000
51
270.000000
0
LINE
8
0
10
2559.161398
20
1179.348996
30
0.0
11
2564.161398
21
1179.348996
31
0.0
0
ARC
8
0
10
2564.161398
20
1179.848996
30
0.0
40
0.500000
50
270.000000
51
360.000000
0
LINE
8
0
10
2564.661398
20
1179.848996
30
0.0
11
2564.661398
21
1181.798996
31
0.0
0
ARC
8
0
10
2564.361398
20
1181.798996
30
0.0
40
0.300000
50
360.000000
51
90.000000
0
LINE
8
0
10
2564.361398
20
1182.098996
30
0.0
11
2563.561398
21
1182.098996
31
0.0
0
ARC
8
0
10
2563.561398
20
1182.398996
30
0.0
40
0.300000
50
180.000000
51
270.000000
0
LINE
8
0
10
2563.261398
20
1182.398996
30
0.0
11
2563.261398
21
1182.891890
31
0.0
0
ARC
8
0
10
2563.761398
20
1182.891890
30
0.0
40
0.500000
50
135.000000
51
180.000000
0
LINE
8
0
10
2563.407845
20
1183.245443
30
0.0
11
2564.114952
21
1183.952550
31
0.0
0
ARC
8
0
10
2564.468505
20
1183.598996
30
0.0
40
0.500000
50
90.000000
51
135.000000
0
LINE
8
0
10
2564.468505
20
1184.098996
30
0.0
11
2565.661398
21
1184.098996
31
0.0
0
ARC
8
0
10
2565.661398
20
1183.598996
30
0.0
40
0.500000
50
360.000000
51
90.000000
0
LINE
8
0
10
2566.161398
20
1183.598996
30
0.0
11
2566.161398
21
1179.848996
31
0.0
0
ARC
8
0
10
2566.661398
20
1179.848996
30
0.0
40
0.500000
50
180.000000
51
270.000000
0
LINE
8
0
10
2566.661398
20
1179.348996
30
0.0
11
2569.629484
21
1179.348996
31
0.0
0
ARC
8
0
10
2569.629484
20
1178.148996
30
0.0
40
1.200000
50
33.000000
51
90.000000
0
LINE
8
0
10
2570.635889
20
1178.802563
30
0.0
11
2572.139425
21
1176.487321
31
0.0
0
ARC
8
0
10
2572.392132
20
1176.648996
30
0.0
40
0.300000
50
212.610000
51
270.000000
0
LINE
8
0
10
2572.392132
20
1176.348996
30
0.0
11
2572.446592
21
1176.348996
31
0.0
0
LINE
8
0
10
2572.446592
20
1176.348996
30
0.0
11
2572.646501
21
1176.348996
31
0.0
0
ARC
8
0
10
2572.646501
20
1177.548996
30
0.0
40
1.200000
50
270.000000
51
300.503167
0
LINE
8
0
10
2573.255604
20
1176.515075
30
0.0
11
2574.430921
21
1177.207477
31
0.0
0
ARC
8
0
10
2574.583196
20
1176.948996
30
0.0
40
0.300000
50
90.000000
51
120.503167
0
LINE
8
0
10
2574.583196
20
1177.248996
30
0.0
11
2574.761398
21
1177.248996
31
0.0
0
ARC
8
0
10
2574.761398
20
1176.848996
30
0.0
40
0.400000
50
360.000000
51
90.000000
0
LINE
8
0
10
2575.161398
20
1176.848996
30
0.0
11
2575.161398
21
1176.448996
31
0.0
0
ARC
8
0
10
2575.061398
20
1176.448996
30
0.0
40
0.100000
50
270.000000
51
360.000000
0
LINE
8
0
10
2575.061398
20
1176.348996
30
0.0
11
2575.061398
21
1176.073996
31
0.0
0
ARC
8
0
10
2574.761398
20
1176.073996
30
0.0
40
0.300000
50
270.000000
51
360.000000
0
LINE
8
0
10
2574.761398
20
1175.773996
30
0.0
11
2574.701872
21
1175.773996
31
0.0
0
ARC
8
0
10
2574.411398
20
1175.248996
30
0.0
40
0.600000
50
61.044976
51
298.955024
0
LINE
8
0
10
2574.701872
20
1174.723996
30
0.0
11
2574.761398
21
1174.723996
31
0.0
0
ARC
8
0
10
2574.761398
20
1174.423996
30
0.0
40
0.300000
50
360.000000
51
90.000000
0
LINE
8
0
10
2575.061398
20
1174.423996
30
0.0
11
2575.061398
21
1174.148996
31
0.0
0
ARC
8
0
10
2575.061398
20
1174.048996
30
0.0
40
0.100000
50
360.000000
51
90.000000
0
LINE
8
0
10
2575.161398
20
1174.048996
30
0.0
11
2575.161398
21
1173.648996
31
0.0
0
ARC
8
0
10
2574.761398
20
1173.648996
30
0.0
40
0.400000
50
270.000000
51
360.000000
0
LINE
8
0
10
2574.761398
20
1173.248996
30
0.0
11
2574.583063
21
1173.248996
31
0.0
0
ARC
8
0
10
2574.583063
20
1173.548996
30
0.0
40
0.300000
50
239.544173
51
270.000000
0
LINE
8
0
10
2574.431001
20
1173.290390
30
0.0
11
2573.252392
21
1173.983421
31
0.0
0
ARC
8
0
10
2572.644144
20
1172.948996
30
0.0
40
1.200000
50
59.544173
51
90.000000
0
LINE
8
0
10
2572.644144
20
1174.148996
30
0.0
11
2571.924771
21
1174.148996
31
0.0
0
ARC
8
0
10
2571.924771
20
1175.348996
30
0.0
40
1.200000
50
213.000000
51
270.000000
0
LINE
8
0
10
2570.918366
20
1174.695430
30
0.0
11
2569.349357
21
1177.111491
31
0.0
0
ARC
8
0
10
2568.175218
20
1176.348996
30
0.0
40
1.400000
50
33.000000
51
90.000000
0
LINE
8
0
10
2568.175218
20
1177.748996
30
0.0
11
2549.161398
21
1177.748996
31
0.0
0
LINE
8
0
10
2549.161398
20
1177.748996
30
0.0
11
2547.147578
21
1177.748996
31
0.0
0
ARC
8
0
10
2547.147578
20
1176.348996
30
0.0
40
1.400000
50
90.000000
51
147.000000
0
LINE
8
0
10
2545.973439
20
1177.111491
30
0.0
11
2544.404430
21
1174.695430
31
0.0
0
ARC
8
0
10
2543.398026
20
1175.348996
30
0.0
40
1.200000
50
270.000000
51
327.000000
0
LINE
8
0
10
2543.398026
20
1174.148996
30
0.0
11
2542.878578
21
1174.148996
31
0.0
0
LINE
8
0
10
2542.878578
20
1174.148996
30
0.0
11
2542.678653
21
1174.148996
31
0.0
0
ARC
8
0
10
2542.678653
20
1172.948996
30
0.0
40
1.200000
50
90.000000
51
120.455827
0
LINE
8
0
10
2542.070404
20
1173.983421
30
0.0
11
2540.891795
21
1173.290390
31
0.0
0
ARC
8
0
10
2540.739733
20
1173.548996
30
0.0
40
0.300000
50
270.000000
51
300.455827
0
LINE
8
0
10
2540.739733
20
1173.248996
30
0.0
11
2540.561398
21
1173.248996
31
0.0
0
ARC
8
0
10
2540.561398
20
1173.648996
30
0.0
40
0.400000
50
180.000000
51
270.000000
0
LINE
8
0
10
2540.161398
20
1173.648996
30
0.0
11
2540.161398
21
1174.048996
31
0.0
0
ARC
8
0
10
2540.261398
20
1174.048996
30
0.0
40
0.100000
50
90.000000
51
180.000000
0
LINE
8
0
10
2540.261398
20
1174.148996
30
0.0
11
2540.261398
21
1174.423996
31
0.0
0
ARC
8
0
10
2540.561398
20
1174.423996
30
0.0
40
0.300000
50
90.000000
51
180.000000
0
LINE
8
0
10
2540.561398
20
1174.723996
30
0.0
11
2540.620924
21
1174.723996
31
0.0
0
ARC
8
0
10
2540.911398
20
1175.248996
30
0.0
40
0.600000
50
241.044976
51
118.955024
0
LINE
8
0
10
2540.620924
20
1175.773996
30
0.0
11
2540.561398
21
1175.773996
31
0.0
0
ARC
8
0
10
2540.561398
20
1176.073996
30
0.0
40
0.300000
50
180.000000
51
270.000000
0
LINE
8
0
10
2540.261398
20
1176.073996
30
0.0
11
2540.261398
21
1176.348996
31
0.0
0
ARC
8
0
10
2540.261398
20
1176.448996
30
0.0
40
0.100000
50
180.000000
51
270.000000
0
LINE
8
0
10
2540.161398
20
1176.448996
30
0.0
11
2540.161398
21
1176.848996
31
0.0
0
ARC
8
0
10
2540.561398
20
1176.848996
30
0.0
40
0.400000
50
90.000000
51
180.000000
0
LINE
8
0
10
2540.561398
20
1177.248996
30
0.0
11
2540.739600
21
1177.248996
31
0.0
0
ARC
8
0
10
2540.739600
20
1176.948996
30
0.0
40
0.300000
50
59.496833
51
90.000000
0
LINE
8
0
10
2540.891876
20
1177.207477
30
0.0
11
2542.067192
21
1176.515075
31
0.0
0
ARC
8
0
10
2542.676295
20
1177.548996
30
0.0
40
1.200000
50
239.496833
51
270.000000
0
LINE
8
0
10
2542.676295
20
1176.348996
30
0.0
11
2542.930664
21
1176.348996
31
0.0
0
ARC
8
0
10
2542.930664
20
1176.648996
30
0.0
40
0.300000
50
270.000000
51
327.390000
0
LINE
8
0
10
2543.183372
20
1176.487321
30
0.0
11
2544.686908
21
1178.802563
31
0.0
0
ARC
8
0
10
2569.624321
20
1161.022435
30
0.0
40
1.200000
50
270.000000
51
327.000000
0
LINE
8
0
10
2569.624321
20
1159.822435
30
0.0
11
2566.656235
21
1159.822435
31
0.0
0
LINE
8
0
10
2566.656235
20
1159.822435
30
0.0
11
2548.656235
21
1159.822435
31
0.0
0
LINE
8
0
10
2548.656235
20
1159.822435
30
0.0
11
2545.688149
21
1159.822435
31
0.0
0
ARC
8
0
10
2545.688149
20
1161.022435
30
0.0
40
1.200000
50
213.000000
51
270.000000
0
LINE
8
0
10
2544.681745
20
1160.368868
30
0.0
11
2543.178209
21
1162.684110
31
0.0
0
ARC
8
0
10
2542.925501
20
1162.522435
30
0.0
40
0.300000
50
32.610000
51
90.000000
0
LINE
8
0
10
2542.925501
20
1162.822435
30
0.0
11
2542.671041
21
1162.822435
31
0.0
0
ARC
8
0
10
2542.671041
20
1161.622435
30
0.0
40
1.200000
50
90.000000
51
121.006334
0
LINE
8
0
10
2542.052882
20
1162.650967
30
0.0
11
2540.886713
21
1161.963954
31
0.0
0
ARC
8
0
10
2540.734437
20
1162.222435
30
0.0
40
0.300000
50
270.000000
51
300.503167
0
LINE
8
0
10
2540.734437
20
1161.922435
30
0.0
11
2540.556235
21
1161.922435
31
0.0
0
ARC
8
0
10
2540.556235
20
1162.322435
30
0.0
40
0.400000
50
180.000000
51
270.000000
0
LINE
8
0
10
2540.156235
20
1162.322435
30
0.0
11
2540.156235
21
1162.722435
31
0.0
0
ARC
8
0
10
2540.256235
20
1162.722435
30
0.0
40
0.100000
50
90.000000
51
180.000000
0
LINE
8
0
10
2540.256235
20
1162.822435
30
0.0
11
2540.256235
21
1163.097435
31
0.0
0
ARC
8
0
10
2540.556235
20
1163.097435
30
0.0
40
0.300000
50
90.000000
51
180.000000
0
LINE
8
0
10
2540.556235
20
1163.397435
30
0.0
11
2540.615762
21
1163.397435
31
0.0
0
ARC
8
0
10
2540.906235
20
1163.922435
30
0.0
40
0.600000
50
241.044976
51
118.955024
0
LINE
8
0
10
2540.615762
20
1164.447435
30
0.0
11
2540.556235
21
1164.447435
31
0.0
0
ARC
8
0
10
2540.556235
20
1164.747435
30
0.0
40
0.300000
50
180.000000
51
270.000000
0
LINE
8
0
10
2540.256235
20
1164.747435
30
0.0
11
2540.256235
21
1165.022435
31
0.0
0
ARC
8
0
10
2540.256235
20
1165.122435
30
0.0
40
0.100000
50
180.000000
51
270.000000
0
LINE
8
0
10
2540.156235
20
1165.122435
30
0.0
11
2540.156235
21
1165.522435
31
0.0
0
ARC
8
0
10
2540.556235
20
1165.522435
30
0.0
40
0.400000
50
90.000000
51
180.000000
0
LINE
8
0
10
2540.556235
20
1165.922435
30
0.0
11
2540.734570
21
1165.922435
31
0.0
0
ARC
8
0
10
2540.734570
20
1165.622435
30
0.0
40
0.300000
50
59.544173
51
90.000000
0
LINE
8
0
10
2540.886632
20
1165.881041
30
0.0
11
2542.056956
21
1165.192882
31
0.0
0
ARC
8
0
10
2542.673415
20
1166.222435
30
0.0
40
1.200000
50
239.088345
51
270.000000
0
LINE
8
0
10
2542.673415
20
1165.022435
30
0.0
11
2543.392863
21
1165.022435
31
0.0
0
ARC
8
0
10
2543.392863
20
1163.822435
30
0.0
40
1.200000
50
33.000000
51
90.000000
0
LINE
8
0
10
2544.399268
20
1164.476001
30
0.0
11
2545.968276
21
1162.059940
31
0.0
0
ARC
8
0
10
2547.142415
20
1162.822435
30
0.0
40
1.400000
50
213.000000
51
270.000000
0
LINE
8
0
10
2547.142415
20
1161.422435
30
0.0
11
2549.256235
21
1161.422435
31
0.0
0
ARC
8
0
10
2549.256235
20
1161.922435
30
0.0
40
0.500000
50
270.000000
51
360.000000
0
LINE
8
0
10
2549.756235
20
1161.922435
30
0.0
11
2549.756235
21
1176.172435
31
0.0
0
ARC
8
0
10
2550.356235
20
1176.172435
30
0.0
40
0.600000
50
360.000000
51
180.000000
0
LINE
8
0
10
2550.956235
20
1176.172435
30
0.0
11
2550.956235
21
1161.922435
31
0.0
0
ARC
8
0
10
2551.456235
20
1161.922435
30
0.0
40
0.500000
50
180.000000
51
270.000000
0
LINE
8
0
10
2551.456235
20
1161.422435
30
0.0
11
2556.556235
21
1161.422435
31
0.0
0
ARC
8
0
10
2556.556235
20
1161.922435
30
0.0
40
0.500000
50
270.000000
51
360.000000
0
LINE
8
0
10
2557.056235
20
1161.922435
30
0.0
11
2557.056235
21
1176.172435
31
0.0
0
ARC
8
0
10
2557.656235
20
1176.172435
30
0.0
40
0.600000
50
360.000000
51
180.000000
0
LINE
8
0
10
2558.256235
20
1176.172435
30
0.0
11
2558.256235
21
1161.922435
31
0.0
0
ARC
8
0
10
2558.756235
20
1161.922435
30
0.0
40
0.500000
50
180.000000
51
270.000000
0
LINE
8
0
10
2558.756235
20
1161.422435
30
0.0
11
2563.956235
21
1161.422435
31
0.0
0
ARC
8
0
10
2563.956235
20
1161.922435
30
0.0
40
0.500000
50
270.000000
51
360.000000
0
LINE
8
0
10
2564.456235
20
1161.922435
30
0.0
11
2564.456235
21
1176.172435
31
0.0
0
ARC
8
0
10
2565.056235
20
1176.172435
30
0.0
40
0.600000
50
360.000000
51
180.000000
0
LINE
8
0
10
2565.656235
20
1176.172435
30
0.0
11
2565.656235
21
1161.922435
31
0.0
0
ARC
8
0
10
2566.156235
20
1161.922435
30
0.0
40
0.500000
50
180.000000
51
270.000000
0
LINE
8
0
10
2566.156235
20
1161.422435
30
0.0
11
2568.170056
21
1161.422435
31
0.0
0
ARC
8
0
10
2568.170056
20
1162.822435
30
0.0
40
1.400000
50
270.000000
51
327.000000
0
LINE
8
0
10
2569.344194
20
1162.059940
30
0.0
11
2570.913203
21
1164.476001
31
0.0
0
ARC
8
0
10
2571.919608
20
1163.822435
30
0.0
40
1.200000
50
90.000000
51
147.000000
0
LINE
8
0
10
2571.919608
20
1165.022435
30
0.0
11
2572.639056
21
1165.022435
31
0.0
0
ARC
8
0
10
2572.639056
20
1166.222435
30
0.0
40
1.200000
50
270.000000
51
300.911655
0
LINE
8
0
10
2573.255515
20
1165.192882
30
0.0
11
2574.425838
21
1165.881041
31
0.0
0
ARC
8
0
10
2574.577900
20
1165.622435
30
0.0
40
0.300000
50
90.000000
51
120.455827
0
LINE
8
0
10
2574.577900
20
1165.922435
30
0.0
11
2574.756235
21
1165.922435
31
0.0
0
ARC
8
0
10
2574.756235
20
1165.522435
30
0.0
40
0.400000
50
360.000000
51
90.000000
0
LINE
8
0
10
2575.156235
20
1165.522435
30
0.0
11
2575.156235
21
1165.122435
31
0.0
0
ARC
8
0
10
2575.056235
20
1165.122435
30
0.0
40
0.100000
50
270.000000
51
360.000000
0
LINE
8
0
10
2575.056235
20
1165.022435
30
0.0
11
2575.056235
21
1164.747435
31
0.0
0
ARC
8
0
10
2574.756235
20
1164.747435
30
0.0
40
0.300000
50
270.000000
51
360.000000
0
LINE
8
0
10
2574.756235
20
1164.447435
30
0.0
11
2574.696709
21
1164.447435
31
0.0
0
ARC
8
0
10
2574.406235
20
1163.922435
30
0.0
40
0.600000
50
61.044976
51
298.955024
0
LINE
8
0
10
2574.696709
20
1163.397435
30
0.0
11
2574.756235
21
1163.397435
31
0.0
0
ARC
8
0
10
2574.756235
20
1163.097435
30
0.0
40
0.300000
50
360.000000
51
90.000000
0
LINE
8
0
10
2575.056235
20
1163.097435
30
0.0
11
2575.056235
21
1162.822435
31
0.0
0
ARC
8
0
10
2575.056235
20
1162.722435
30
0.0
40
0.100000
50
360.000000
51
90.000000
0
LINE
8
0
10
2575.156235
20
1162.722435
30
0.0
11
2575.156235
21
1162.322435
31
0.0
0
ARC
8
0
10
2574.756235
20
1162.322435
30
0.0
40
0.400000
50
270.000000
51
360.000000
0
LINE
8
0
10
2574.756235
20
1161.922435
30
0.0
11
2574.578034
21
1161.922435
31
0.0
0
ARC
8
0
10
2574.578034
20
1162.222435
30
0.0
40
0.300000
50
239.496833
51
270.000000
0
LINE
8
0
10
2574.425758
20
1161.963954
30
0.0
11
2573.259589
21
1162.650967
31
0.0
0
ARC
8
0
10
2572.641430
20
1161.622435
30
0.0
40
1.200000
50
58.993666
51
90.000000
0
LINE
8
0
10
2572.641430
20
1162.822435
30
0.0
11
2572.386969
21
1162.822435
31
0.0
0
ARC
8
0
10
2572.386969
20
1162.522435
30
0.0
40
0.300000
50
90.000000
51
147.390000
0
LINE
8
0
10
2572.134262
20
1162.684110
30
0.0
11
2570.630726
21
1160.368868
31
0.0
0
LINE
8
0
10
2538.661398
20
1178.084113
30
0.0
11
2538.661398
21
1161.084113
31
0.0
0
LINE
8
0
10
2538.661398
20
1161.084113
30
0.0
11
2519.361398
21
1161.084113
31
0.0
0
LINE
8
0
10
2519.361398
20
1161.084113
30
0.0
11
2519.361398
21
1178.084113
31
0.0
0
LINE
8
0
10
2519.361398
20
1178.084113
30
0.0
11
2538.661398
21
1178.084113
31
0.0
0
ARC
8
0
10
2543.721255
20
1178.902747
30
0.0
40
0.500000
50
88.376251
51
128.194227
0
ARC
8
0
10
2542.175432
20
1180.867545
30
0.0
40
2.000000
50
236.002945
51
308.194227
0
LINE
8
0
10
2541.057132
20
1179.209413
30
0.0
11
2540.334851
21
1179.563677
31
0.0
0
LINE
8
0
10
2540.334851
20
1179.563677
30
0.0
11
2540.246779
21
1179.584113
31
0.0
0
LINE
8
0
10
2540.246779
20
1179.584113
30
0.0
11
2537.661398
21
1179.584113
31
0.0
0
LINE
8
0
10
2537.661398
20
1179.584113
30
0.0
11
2537.661398
21
1184.284113
31
0.0
0
ARC
8
0
10
2537.361398
20
1184.284113
30
0.0
40
0.300000
50
360.000000
51
90.000000
0
LINE
8
0
10
2537.361398
20
1184.584113
30
0.0
11
2535.068505
21
1184.584113
31
0.0
0
ARC
8
0
10
2535.068505
20
1184.084113
30
0.0
40
0.500000
50
90.000000
51
135.000000
0
LINE
8
0
10
2534.714952
20
1184.437666
30
0.0
11
2534.007845
21
1183.730560
31
0.0
0
ARC
8
0
10
2534.361398
20
1183.377006
30
0.0
40
0.500000
50
135.000000
51
180.000000
0
LINE
8
0
10
2533.861398
20
1183.377006
30
0.0
11
2533.861398
21
1182.584113
31
0.0
0
LINE
8
0
10
2533.861398
20
1182.584113
30
0.0
11
2535.861398
21
1182.584113
31
0.0
0
LINE
8
0
10
2535.861398
20
1182.584113
30
0.0
11
2535.861398
21
1179.584113
31
0.0
0
LINE
8
0
10
2535.861398
20
1179.584113
30
0.0
11
2519.861398
21
1179.584113
31
0.0
0
LINE
8
0
10
2519.861398
20
1179.584113
30
0.0
11
2519.861398
21
1182.584113
31
0.0
0
LINE
8
0
10
2519.861398
20
1182.584113
30
0.0
11
2521.861398
21
1182.584113
31
0.0
0
LINE
8
0
10
2521.861398
20
1182.584113
30
0.0
11
2521.861398
21
1183.377006
31
0.0
0
ARC
8
0
10
2521.361398
20
1183.377006
30
0.0
40
0.500000
50
360.000000
51
45.000000
0
LINE
8
0
10
2521.714952
20
1183.730560
30
0.0
11
2521.007845
21
1184.437666
31
0.0
0
ARC
8
0
10
2520.654291
20
1184.084113
30
0.0
40
0.500000
50
45.000000
51
90.000000
0
LINE
8
0
10
2520.654291
20
1184.584113
30
0.0
11
2519.485662
21
1184.584113
31
0.0
0
ARC
8
0
10
2519.485662
20
1184.284113
30
0.0
40
0.300000
50
90.000000
51
135.000000
0
LINE
8
0
10
2519.273530
20
1184.496245
30
0.0
11
2517.949266
21
1183.171981
31
0.0
0
ARC
8
0
10
2518.161398
20
1182.959849
30
0.0
40
0.300000
50
135.000000
51
180.000000
0
LINE
8
0
10
2517.861398
20
1182.959849
30
0.0
11
2517.861398
21
1121.208377
31
0.0
0
ARC
8
0
10
2518.161398
20
1121.208377
30
0.0
40
0.300000
50
180.000000
51
225.000000
0
LINE
8
0
10
2517.949266
20
1120.996245
30
0.0
11
2519.273530
21
1119.671981
31
0.0
0
ARC
8
0
10
2519.485662
20
1119.884113
30
0.0
40
0.300000
50
225.000000
51
270.000000
0
LINE
8
0
10
2519.485662
20
1119.584113
30
0.0
11
2520.961398
21
1119.584113
31
0.0
0
ARC
8
0
10
2520.961398
20
1120.084113
30
0.0
40
0.500000
50
270.000000
51
360.000000
0
LINE
8
0
10
2521.461398
20
1120.084113
30
0.0
11
2521.461398
21
1122.872591
31
0.0
0
ARC
8
0
10
2520.961398
20
1122.872591
30
0.0
40
0.500000
50
360.000000
51
180.000000
0
LINE
8
0
10
2520.461398
20
1122.872591
30
0.0
11
2520.461398
21
1120.884113
31
0.0
0
LINE
8
0
10
2520.461398
20
1120.884113
30
0.0
11
2519.899876
21
1120.884113
31
0.0
0
LINE
8
0
10
2519.899876
20
1120.884113
30
0.0
11
2519.161398
21
1121.622591
31
0.0
0
LINE
8
0
10
2519.161398
20
1121.622591
30
0.0
11
2519.161398
21
1129.122591
31
0.0
0
LINE
8
0
10
2519.161398
20
1129.122591
30
0.0
11
2520.461398
21
1129.122591
31
0.0
0
LINE
8
0
10
2520.461398
20
1129.122591
30
0.0
11
2520.461398
21
1127.872591
31
0.0
0
ARC
8
0
10
2520.961398
20
1127.872591
30
0.0
40
0.500000
50
180.000000
51
360.000000
0
LINE
8
0
10
2521.461398
20
1127.872591
30
0.0
11
2521.461398
21
1130.122591
31
0.0
0
ARC
8
0
10
2520.961398
20
1130.122591
30
0.0
40
0.500000
50
360.000000
51
90.000000
0
LINE
8
0
10
2520.961398
20
1130.622591
30
0.0
11
2519.361398
21
1130.622591
31
0.0
0
LINE
8
0
10
2519.361398
20
1130.622591
30
0.0
11
2519.361398
21
1154.584113
31
0.0
0
LINE
8
0
10
2519.361398
20
1154.584113
30
0.0
11
2523.861398
21
1154.584113
31
0.0
0
ARC
8
0
10
2523.861398
20
1155.084113
30
0.0
40
0.500000
50
270.000000
51
360.000000
0
LINE
8
0
10
2524.361398
20
1155.084113
30
0.0
11
2524.361398
21
1155.584113
31
0.0
0
ARC
8
0
10
2523.861398
20
1155.584113
30
0.0
40
0.500000
50
360.000000
51
90.000000
0
LINE
8
0
10
2523.861398
20
1156.084113
30
0.0
11
2519.361398
21
1156.084113
31
0.0
0
LINE
8
0
10
2519.361398
20
1156.084113
30
0.0
11
2519.361398
21
1159.584113
31
0.0
0
LINE
8
0
10
2519.361398
20
1159.584113
30
0.0
11
2535.861398
21
1159.584113
31
0.0
0
LINE
8
0
10
2535.861398
20
1159.584113
30
0.0
11
2535.861398
21
1157.984113
31
0.0
0
LINE
8
0
10
2535.861398
20
1157.984113
30
0.0
11
2536.161398
21
1157.984113
31
0.0
0
ARC
8
0
10
2536.161398
20
1158.284113
30
0.0
40
0.300000
50
270.000000
51
336.242263
0
LINE
8
0
10
2536.435975
20
1158.163252
30
0.0
11
2537.061398
21
1159.584113
31
0.0
0
LINE
8
0
10
2537.061398
20
1159.584113
30
0.0
11
2540.246779
21
1159.584113
31
0.0
0
LINE
8
0
10
2540.246779
20
1159.584113
30
0.0
11
2540.334851
21
1159.604549
31
0.0
0
LINE
8
0
10
2540.334851
20
1159.604549
30
0.0
11
2541.057132
21
1159.958813
31
0.0
0
ARC
8
0
10
2542.175432
20
1158.300681
30
0.0
40
2.000000
50
51.805773
51
123.997055
0
ARC
8
0
10
2543.721255
20
1160.265479
30
0.0
40
0.500000
50
231.805773
51
271.623749
0
LINE
8
0
10
2543.735423
20
1159.765679
30
0.0
11
2544.392045
21
1159.784293
31
0.0
0
ARC
8
0
10
2544.388660
20
1160.084317
30
0.0
40
0.300000
50
270.000000
51
18.251415
0
LINE
8
0
10
2544.673567
20
1160.178273
30
0.0
11
2542.609280
21
1162.844715
31
0.0
0
ARC
8
0
10
2542.494133
20
1162.755571
30
0.0
40
0.145621
50
37.746080
51
180.000000
0
LINE
8
0
10
2542.348601
20
1162.750489
30
0.0
11
2542.354030
21
1162.595002
31
0.0
0
ARC
8
0
10
2542.154152
20
1162.588022
30
0.0
40
0.200000
50
308.823976
51
360.000000
0
LINE
8
0
10
2542.279538
20
1162.432207
30
0.0
11
2540.636369
21
1161.109932
31
0.0
0
ARC
8
0
10
2540.448290
20
1161.343655
30
0.0
40
0.300000
50
283.127121
51
308.823976
0
LINE
8
0
10
2540.516423
20
1161.051494
30
0.0
11
2540.161398
21
1160.955943
31
0.0
0
ARC
8
0
10
2540.161398
20
1161.255943
30
0.0
40
0.300000
50
90.000000
51
270.000000
0
LINE
8
0
10
2540.161398
20
1161.555943
30
0.0
11
2540.161398
21
1166.055943
31
0.0
0
ARC
8
0
10
2540.361398
20
1166.055943
30
0.0
40
0.200000
50
90.000000
51
180.000000
0
LINE
8
0
10
2540.361398
20
1166.255943
30
0.0
11
2540.429287
21
1166.255943
31
0.0
0
ARC
8
0
10
2540.429287
20
1165.955943
30
0.0
40
0.300000
50
58.619868
51
90.000000
0
LINE
8
0
10
2540.585501
20
1166.212063
30
0.0
11
2542.261494
21
1165.189830
31
0.0
0
ARC
8
0
10
2542.461398
20
1165.183639
30
0.0
40
0.200000
50
180.000000
51
360.000000
0
LINE
8
0
10
2542.661398
20
1165.183639
30
0.0
11
2542.661398
21
1166.575558
31
0.0
0
ARC
8
0
10
2542.461398
20
1166.575558
30
0.0
40
0.200000
50
360.000000
51
60.000000
0
LINE
8
0
10
2542.561398
20
1166.748763
30
0.0
11
2540.511398
21
1167.932332
31
0.0
0
ARC
8
0
10
2540.861398
20
1168.538549
30
0.0
40
0.700000
50
180.000000
51
240.000000
0
LINE
8
0
10
2540.161398
20
1168.538549
30
0.0
11
2540.161398
21
1170.629677
31
0.0
0
ARC
8
0
10
2540.861398
20
1170.629677
30
0.0
40
0.700000
50
120.000000
51
180.000000
0
LINE
8
0
10
2540.511398
20
1171.235894
30
0.0
11
2542.561398
21
1172.419462
31
0.0
0
ARC
8
0
10
2542.461398
20
1172.592667
30
0.0
40
0.200000
50
300.000000
51
360.000000
0
LINE
8
0
10
2542.661398
20
1172.592667
30
0.0
11
2542.661398
21
1173.984586
31
0.0
0
ARC
8
0
10
2542.461398
20
1173.984586
30
0.0
40
0.200000
50
360.000000
51
180.000000
0
LINE
8
0
10
2542.261494
20
1173.978396
30
0.0
11
2540.585501
21
1172.956163
31
0.0
0
ARC
8
0
10
2540.429287
20
1173.212283
30
0.0
40
0.300000
50
270.000000
51
301.380132
0
LINE
8
0
10
2540.429287
20
1172.912283
30
0.0
11
2540.361398
21
1172.912283
31
0.0
0
ARC
8
0
10
2540.361398
20
1173.112283
30
0.0
40
0.200000
50
180.000000
51
270.000000
0
LINE
8
0
10
2540.161398
20
1173.112283
30
0.0
11
2540.161398
21
1177.612283
31
0.0
0
ARC
8
0
10
2540.161398
20
1177.912283
30
0.0
40
0.300000
50
90.000000
51
270.000000
0
LINE
8
0
10
2540.161398
20
1178.212283
30
0.0
11
2540.516423
21
1178.116732
31
0.0
0
ARC
8
0
10
2540.448290
20
1177.824571
30
0.0
40
0.300000
50
51.176024
51
76.872879
0
LINE
8
0
10
2540.636369
20
1178.058294
30
0.0
11
2542.279538
21
1176.736019
31
0.0
0
ARC
8
0
10
2542.154152
20
1176.580204
30
0.0
40
0.200000
50
360.000000
51
51.176024
0
LINE
8
0
10
2542.354030
20
1176.573224
30
0.0
11
2542.348601
21
1176.417737
31
0.0
0
ARC
8
0
10
2542.494133
20
1176.412655
30
0.0
40
0.145621
50
180.000000
51
322.253920
0
LINE
8
0
10
2542.609280
20
1176.323511
30
0.0
11
2544.673567
21
1178.989952
31
0.0
0
ARC
8
0
10
2544.388660
20
1179.083909
30
0.0
40
0.300000
50
341.748585
51
90.000000
0
LINE
8
0
10
2544.392045
20
1179.383933
30
0.0
11
2543.735423
21
1179.402547
31
0.0
0
LINE
8
0
10
2586.356235
20
1161.084113
30
0.0
11
2576.656235
21
1161.084113
31
0.0
0
LINE
8
0
10
2576.656235
20
1161.084113
30
0.0
11
2576.656235
21
1177.084113
31
0.0
0
LINE
8
0
10
2576.656235
20
1177.084113
30
0.0
11
2586.356235
21
1177.084113
31
0.0
0
LINE
8
0
10
2586.356235
20
1177.084113
30
0.0
11
2586.356235
21
1161.084113
31
0.0
0
LINE
8
0
10
2576.856235
20
1180.084113
30
0.0
11
2575.155522
21
1180.084113
31
0.0
0
ARC
8
0
10
2574.406234
20
1180.116791
30
0.0
40
0.750000
50
284.453618
51
357.502767
0
LINE
8
0
10
2574.593431
20
1179.390529
30
0.0
11
2574.185817
21
1179.161387
31
0.0
0
ARC
8
0
10
2573.142200
20
1180.867513
30
0.0
40
2.000000
50
231.805773
51
301.453618
0
ARC
8
0
10
2571.596377
20
1178.902715
30
0.0
40
0.500000
50
51.805773
51
91.623749
0
LINE
8
0
10
2571.582209
20
1179.402514
30
0.0
11
2570.925588
21
1179.383901
31
0.0
0
ARC
8
0
10
2570.928973
20
1179.083876
30
0.0
40
0.300000
50
92.605413
51
198.251415
0
LINE
8
0
10
2570.644065
20
1178.989920
30
0.0
11
2572.708353
21
1176.323479
31
0.0
0
ARC
8
0
10
2572.823500
20
1176.412623
30
0.0
40
0.145621
50
217.746080
51
360.000000
0
LINE
8
0
10
2572.969032
20
1176.417705
30
0.0
11
2572.963602
21
1176.573192
31
0.0
0
ARC
8
0
10
2573.163480
20
1176.580172
30
0.0
40
0.200000
50
128.823976
51
180.000000
0
LINE
8
0
10
2573.038094
20
1176.735987
30
0.0
11
2574.681264
21
1178.058262
31
0.0
0
ARC
8
0
10
2574.869343
20
1177.824539
30
0.0
40
0.300000
50
107.000000
51
128.823976
0
LINE
8
0
10
2574.781631
20
1178.111430
30
0.0
11
2575.156234
21
1178.212251
31
0.0
0
ARC
8
0
10
2575.156234
20
1177.912251
30
0.0
40
0.300000
50
270.000000
51
90.000000
0
LINE
8
0
10
2575.156234
20
1177.612251
30
0.0
11
2575.156234
21
1173.112251
31
0.0
0
ARC
8
0
10
2574.956234
20
1173.112251
30
0.0
40
0.200000
50
270.000000
51
360.000000
0
LINE
8
0
10
2574.956234
20
1172.912251
30
0.0
11
2574.888346
21
1172.912251
31
0.0
0
ARC
8
0
10
2574.888346
20
1173.212251
30
0.0
40
0.300000
50
238.619868
51
270.000000
0
LINE
8
0
10
2574.732131
20
1172.956131
30
0.0
11
2573.056138
21
1173.978364
31
0.0
0
ARC
8
0
10
2572.856234
20
1173.984554
30
0.0
40
0.200000
50
360.000000
51
180.000000
0
LINE
8
0
10
2572.656234
20
1173.984554
30
0.0
11
2572.656235
21
1172.592667
31
0.0
0
ARC
8
0
10
2572.856235
20
1172.592667
30
0.0
40
0.200000
50
180.000000
51
240.000000
0
LINE
8
0
10
2572.756235
20
1172.419462
30
0.0
11
2574.806235
21
1171.235894
31
0.0
0
ARC
8
0
10
2574.456235
20
1170.629677
30
0.0
40
0.700000
50
360.000000
51
60.000000
0
LINE
8
0
10
2575.156235
20
1170.629677
30
0.0
11
2575.156235
21
1168.538549
31
0.0
0
ARC
8
0
10
2574.456235
20
1168.538549
30
0.0
40
0.700000
50
300.000000
51
360.000000
0
LINE
8
0
10
2574.806235
20
1167.932332
30
0.0
11
2572.756235
21
1166.748763
31
0.0
0
ARC
8
0
10
2572.856235
20
1166.575558
30
0.0
40
0.200000
50
120.000000
51
180.000000
0
LINE
8
0
10
2572.656235
20
1166.575558
30
0.0
11
2572.656235
21
1165.183639
31
0.0
0
ARC
8
0
10
2572.856235
20
1165.183639
30
0.0
40
0.200000
50
180.000000
51
360.000000
0
LINE
8
0
10
2573.056139
20
1165.189830
30
0.0
11
2574.732132
21
1166.212063
31
0.0
0
ARC
8
0
10
2574.888347
20
1165.955943
30
0.0
40
0.300000
50
90.000000
51
121.380132
0
LINE
8
0
10
2574.888347
20
1166.255943
30
0.0
11
2574.956235
21
1166.255943
31
0.0
0
ARC
8
0
10
2574.956235
20
1166.055943
30
0.0
40
0.200000
50
360.000000
51
90.000000
0
LINE
8
0
10
2575.156235
20
1166.055943
30
0.0
11
2575.156235
21
1161.555943
31
0.0
0
ARC
8
0
10
2575.156235
20
1161.255943
30
0.0
40
0.300000
50
270.000000
51
90.000000
0
LINE
8
0
10
2575.156235
20
1160.955943
30
0.0
11
2574.801210
21
1161.051494
31
0.0
0
ARC
8
0
10
2574.869344
20
1161.343655
30
0.0
40
0.300000
50
231.176024
51
256.872879
0
LINE
8
0
10
2574.681265
20
1161.109932
30
0.0
11
2573.038095
21
1162.432207
31
0.0
0
ARC
8
0
10
2573.163481
20
1162.588022
30
0.0
40
0.200000
50
180.000000
51
231.176024
0
LINE
8
0
10
2572.963603
20
1162.595002
30
0.0
11
2572.969033
21
1162.750489
31
0.0
0
ARC
8
0
10
2572.823501
20
1162.755571
30
0.0
40
0.145621
50
360.000000
51
142.253920
0
LINE
8
0
10
2572.708354
20
1162.844715
30
0.0
11
2570.644066
21
1160.178273
31
0.0
0
ARC
8
0
10
2570.928974
20
1160.084317
30
0.0
40
0.300000
50
161.748585
51
270.000000
0
LINE
8
0
10
2570.925589
20
1159.784293
30
0.0
11
2571.582210
21
1159.765679
31
0.0
0
ARC
8
0
10
2571.596378
20
1160.265479
30
0.0
40
0.500000
50
268.376251
51
308.194227
0
ARC
8
0
10
2573.142201
20
1158.300681
30
0.0
40
2.000000
50
58.546382
51
128.194227
0
LINE
8
0
10
2574.185818
20
1160.006806
30
0.0
11
2574.949352
21
1159.655262
31
0.0
0
ARC
8
0
10
2574.786745
20
1159.182441
30
0.0
40
0.500000
50
23.757737
51
71.021540
0
LINE
8
0
10
2575.244374
20
1159.383876
30
0.0
11
2575.781658
21
1158.163252
31
0.0
0
ARC
8
0
10
2576.056235
20
1158.284113
30
0.0
40
0.300000
50
203.757737
51
270.000000
0
LINE
8
0
10
2576.056235
20
1157.984113
30
0.0
11
2576.356235
21
1157.984113
31
0.0
0
LINE
8
0
10
2576.356235
20
1157.984113
30
0.0
11
2576.356235
21
1159.584113
31
0.0
0
LINE
8
0
10
2576.356235
20
1159.584113
30
0.0
11
2586.356235
21
1159.584113
31
0.0
0
LINE
8
0
10
2586.356235
20
1159.584113
30
0.0
11
2586.356235
21
1156.705433
31
0.0
0
LINE
8
0
10
2586.356235
20
1156.705433
30
0.0
11
2585.734915
21
1156.084113
31
0.0
0
LINE
8
0
10
2585.734915
20
1156.084113
30
0.0
11
2583.856235
21
1156.084113
31
0.0
0
LINE
8
0
10
2583.856235
20
1156.084113
30
0.0
11
2583.856235
21
1155.791220
31
0.0
0
ARC
8
0
10
2584.356235
20
1155.791220
30
0.0
40
0.500000
50
180.000000
51
225.000000
0
LINE
8
0
10
2584.002682
20
1155.437666
30
0.0
11
2584.709789
21
1154.730560
31
0.0
0
ARC
8
0
10
2585.063342
20
1155.084113
30
0.0
40
0.500000
50
225.000000
51
270.000000
0
LINE
8
0
10
2585.063342
20
1154.584113
30
0.0
11
2586.231971
21
1154.584113
31
0.0
0
ARC
8
0
10
2586.231971
20
1154.884113
30
0.0
40
0.300000
50
270.000000
51
315.000000
0
LINE
8
0
10
2586.444103
20
1154.671981
30
0.0
11
2587.768367
21
1155.996245
31
0.0
0
ARC
8
0
10
2587.556235
20
1156.208377
30
0.0
40
0.300000
50
315.000000
51
360.000000
0
LINE
8
0
10
2587.856235
20
1156.208377
30
0.0
11
2587.856235
21
1221.081892
31
0.0
0
ARC
8
0
10
2587.356235
20
1221.081892
30
0.0
40
0.500000
50
360.000000
51
60.000000
0
LINE
8
0
10
2587.606235
20
1221.514904
30
0.0
11
2582.406235
21
1224.517126
31
0.0
0
ARC
8
0
10
2582.156235
20
1224.084113
30
0.0
40
0.500000
50
60.000000
51
90.000000
0
LINE
8
0
10
2582.156235
20
1224.584113
30
0.0
11
2580.656235
21
1224.584113
31
0.0
0
ARC
8
0
10
2580.656235
20
1224.084113
30
0.0
40
0.500000
50
90.000000
51
180.000000
0
LINE
8
0
10
2580.156235
20
1224.084113
30
0.0
11
2580.156235
21
1222.134113
31
0.0
0
ARC
8
0
10
2580.656235
20
1222.134113
30
0.0
40
0.500000
50
180.000000
51
270.000000
0
LINE
8
0
10
2580.656235
20
1221.634113
30
0.0
11
2581.356235
21
1221.634113
31
0.0
0
LINE
8
0
10
2581.356235
20
1221.634113
30
0.0
11
2581.356235
21
1223.084113
31
0.0
0
LINE
8
0
10
2581.356235
20
1223.084113
30
0.0
11
2581.888286
21
1223.084113
31
0.0
0
LINE
8
0
10
2581.888286
20
1223.084113
30
0.0
11
2586.106235
21
1220.648879
31
0.0
0
ARC
8
0
10
2585.956235
20
1220.389071
30
0.0
40
0.300000
50
360.000000
51
60.000000
0
LINE
8
0
10
2586.256235
20
1220.389071
30
0.0
11
2586.256235
21
1218.427489
31
0.0
0
LINE
8
0
10
2586.256235
20
1218.427489
30
0.0
11
2584.361491
21
1218.427489
31
0.0
0
LINE
8
0
10
2584.361491
20
1218.427489
30
0.0
11
2581.688286
21
1216.884113
31
0.0
0
LINE
8
0
10
2581.688286
20
1216.884113
30
0.0
11
2581.356235
21
1216.884113
31
0.0
0
LINE
8
0
10
2581.356235
20
1216.884113
30
0.0
11
2581.356235
21
1218.134113
31
0.0
0
LINE
8
0
10
2581.356235
20
1218.134113
30
0.0
11
2580.656235
21
1218.134113
31
0.0
0
ARC
8
0
10
2580.656235
20
1217.634113
30
0.0
40
0.500000
50
90.000000
51
180.000000
0
LINE
8
0
10
2580.156235
20
1217.634113
30
0.0
11
2580.156235
21
1216.084113
31
0.0
0
ARC
8
0
10
2580.656235
20
1216.084113
30
0.0
40
0.500000
50
180.000000
51
270.000000
0
LINE
8
0
10
2580.656235
20
1215.584113
30
0.0
11
2582.168671
21
1215.584113
31
0.0
0
ARC
8
0
10
2582.168671
20
1216.584113
30
0.0
40
1.000000
50
270.000000
51
300.000000
0
LINE
8
0
10
2582.668671
20
1215.718088
30
0.0
11
2583.106235
21
1215.970715
31
0.0
0
ARC
8
0
10
2583.256235
20
1215.710908
30
0.0
40
0.300000
50
360.000000
51
120.000000
0
LINE
8
0
10
2583.556235
20
1215.710908
30
0.0
11
2583.556235
21
1215.327489
31
0.0
0
LINE
8
0
10
2583.556235
20
1215.327489
30
0.0
11
2584.656235
21
1215.327489
31
0.0
0
LINE
8
0
10
2584.656235
20
1215.327489
30
0.0
11
2584.656235
21
1216.527489
31
0.0
0
LINE
8
0
10
2584.656235
20
1216.527489
30
0.0
11
2586.256235
21
1216.527489
31
0.0
0
LINE
8
0
10
2586.256235
20
1216.527489
30
0.0
11
2586.256235
21
1198.027489
31
0.0
0
LINE
8
0
10
2586.256235
20
1198.027489
30
0.0
11
2584.656235
21
1198.027489
31
0.0
0
LINE
8
0
10
2584.656235
20
1198.027489
30
0.0
11
2584.656235
21
1199.127489
31
0.0
0
LINE
8
0
10
2584.656235
20
1199.127489
30
0.0
11
2583.656235
21
1199.127489
31
0.0
0
ARC
8
0
10
2583.656235
20
1198.827489
30
0.0
40
0.300000
50
90.000000
51
180.000000
0
LINE
8
0
10
2583.356235
20
1198.827489
30
0.0
11
2583.356235
21
1196.927489
31
0.0
0
ARC
8
0
10
2583.856235
20
1196.927489
30
0.0
40
0.500000
50
180.000000
51
270.000000
0
LINE
8
0
10
2583.856235
20
1196.427489
30
0.0
11
2585.756235
21
1196.427489
31
0.0
0
ARC
8
0
10
2585.756235
20
1195.927489
30
0.0
40
0.500000
50
360.000000
51
90.000000
0
LINE
8
0
10
2586.256235
20
1195.927489
30
0.0
11
2586.256235
21
1186.263928
31
0.0
0
LINE
8
0
10
2586.256235
20
1186.263928
30
0.0
11
2586.040817
21
1179.069149
31
0.0
0
ARC
8
0
10
2585.541041
20
1179.084113
30
0.0
40
0.500000
50
270.000000
51
358.285023
0
LINE
8
0
10
2585.541041
20
1178.584113
30
0.0
11
2576.856235
21
1178.584113
31
0.0
0
LINE
8
0
10
2576.856235
20
1178.584113
30
0.0
11
2576.856235
21
1180.084113
31
0.0
0
ATTDEF
8
0
10
0.000000
20
0.000000
30
0.0
40
3.5
1

3

2
PANE_WIDTH:0
70
0
0
ATTDEF
8
0
10
0.000000
20
0.000000
30
0.0
40
3.5
1

3

2
MIN_VETRO:0
70
0
0
ATTDEF
8
0
10
0.000000
20
0.000000
30
0.0
40
3.5
1

3

2
MAX_VETRO:0
70
0
0
ATTDEF
8
0
10
0.000000
20
0.000000
30
0.0
40
3.5
1

3

2
JX:0
70
0
0
ATTDEF
8
0
10
0.000000
20
0.000000
30
0.0
40
3.5
1

3

2
WX:0
70
0
0
ATTDEF
8
0
10
0.000000
20
0.000000
30
0.0
40
3.5
1

3

2
JY:0
70
0
0
ATTDEF
8
0
10
0.000000
20
0.000000
30
0.0
40
3.5
1

3

2
WY:0
70
0
0
ATTDEF
8
0
10
0.000000
20
0.000000
30
0.0
40
3.5
1

3

2
DESC:Marco HO c/solape 35mm
70
0
0
ATTDEF
8
0
10
0.000000
20
0.000000
30
0.0
40
3.5
1

3

2
DENS:1.6805
70
0
0
ATTDEF
8
0
10
0.000000
20
0.000000
30
0.0
40
3.5
1

3

2
TDEV:61.05
70
0
0
ATTDEF
8
0
10
0.000000
20
0.000000
30
0.0
40
3.5
1

3

2
TDEV2:0
70
0
0
ATTDEF
8
0
10
0.000000
20
0.000000
30
0.0
40
3.5
1

3

2
TDEV3:0
70
0
0
ATTDEF
8
0
10
0.000000
20
0.000000
30
0.0
40
3.5
1

3

2
TDEV4:0
70
0
0
ATTDEF
8
0
10
0.000000
20
0.000000
30
0.0
40
3.5
1

3

2
TDEV5:0
70
0
0
ATTDEF
8
0
10
0.000000
20
0.000000
30
0.0
40
3.5
1

3

2
PANE_WIDTH:0
70
0
0
ATTDEF
8
0
10
0.000000
20
0.000000
30
0.0
40
3.5
1

3

2
MIN_VETRO:0
70
0
0
ATTDEF
8
0
10
0.000000
20
0.000000
30
0.0
40
3.5
1

3

2
MAX_VETRO:0
70
0
0
ATTDEF
8
0
10
0.000000
20
0.000000
30
0.0
40
3.5
1

3

2
JX:0
70
0
0
ATTDEF
8
0
10
0.000000
20
0.000000
30
0.0
40
3.5
1

3

2
WX:0
70
0
0
ATTDEF
8
0
10
0.000000
20
0.000000
30
0.0
40
3.5
1

3

2
JY:0
70
0
0
ATTDEF
8
0
10
0.000000
20
0.000000
30
0.0
40
3.5
1

3

2
WY:0
70
0
0
ATTDEF
8
0
10
2536.214952
20
1184.584113
30
0.0
40
3.5
1

3

2
VC_START
70
0
0
ATTDEF
8
0
10
2586.231971
20
1154.584113
30
0.0
40
3.5
1

3

2
VC_END
70
0
0
ATTDEF
8
0
10
2587.856235
20
1119.584113
30
0.0
40
3.5
1

3

2
FP_LCS_ORIG
70
0
0
ATTDEF
8
0
10
2577.856235
20
1119.584113
30
0.0
40
3.5
1

3

2
FP_LCS_HOT
70
0
0
ATTDEF
8
0
10
2587.856235
20
1129.584113
30
0.0
40
3.5
1

3

2
FP_LCS_INTERN
70
0
0
ENDSEC
0
EOF
