0
SECTION
2
ENTITIES
0
LINE
8
0
10
3361.171829
20
1274.384177
30
0.0
11
3355.971829
21
1274.384177
31
0.0
0
ARC
8
0
10
3355.971829
20
1273.884177
30
0.0
40
0.500000
50
90.000000
51
180.000000
0
LINE
8
0
10
3355.471829
20
1273.884177
30
0.0
11
3355.471829
21
1270.634180
31
0.0
0
ARC
8
0
10
3355.971829
20
1270.634180
30
0.0
40
0.500000
50
180.000000
51
270.000000
0
LINE
8
0
10
3355.971829
20
1270.134180
30
0.0
11
3361.171829
21
1270.134180
31
0.0
0
LINE
8
0
10
3361.171829
20
1270.134180
30
0.0
11
3366.371829
21
1270.134180
31
0.0
0
ARC
8
0
10
3366.371829
20
1270.634180
30
0.0
40
0.500000
50
270.000000
51
0.000000
0
LINE
8
0
10
3366.871829
20
1270.634180
30
0.0
11
3366.871829
21
1273.884177
31
0.0
0
ARC
8
0
10
3366.371829
20
1273.884177
30
0.0
40
0.500000
50
0.000000
51
90.000000
0
LINE
8
0
10
3366.371829
20
1274.384177
30
0.0
11
3361.171829
21
1274.384177
31
0.0
0
LINE
8
0
10
3361.171829
20
1438.384177
30
0.0
11
3354.155804
21
1438.384177
31
0.0
0
ARC
8
0
10
3354.155804
20
1436.884177
30
0.0
40
1.500000
50
90.000000
51
230.284863
0
ARC
8
0
10
3349.171829
20
1430.884177
30
0.0
40
6.300000
50
354.895694
51
50.284863
0
ARC
8
0
10
3354.002596
20
1430.452677
30
0.0
40
1.450000
50
174.895694
51
354.895694
0
ARC
8
0
10
3349.171829
20
1430.884177
30
0.0
40
3.400000
50
354.895694
51
275.104306
0
ARC
8
0
10
3349.603330
20
1426.053411
30
0.0
40
1.450000
50
275.104306
51
95.104306
0
ARC
8
0
10
3349.171829
20
1430.884177
30
0.0
40
6.300000
50
244.756218
51
275.104306
0
ARC
8
0
10
3346.271829
20
1424.733568
30
0.0
40
0.500000
50
64.756218
51
180.000000
0
LINE
8
0
10
3345.771829
20
1424.733568
30
0.0
11
3345.771829
21
1361.784787
31
0.0
0
ARC
8
0
10
3346.271829
20
1361.784787
30
0.0
40
0.500000
50
180.000000
51
295.243782
0
ARC
8
0
10
3349.171829
20
1355.634177
30
0.0
40
6.300000
50
39.895694
51
115.243782
0
ARC
8
0
10
3352.892814
20
1358.744928
30
0.0
40
1.450000
50
219.895694
51
39.895694
0
ARC
8
0
10
3349.171829
20
1355.634177
30
0.0
40
3.400000
50
39.895694
51
320.104295
0
ARC
8
0
10
3352.892814
20
1352.523426
30
0.0
40
1.450000
50
320.104324
51
140.104324
0
ARC
8
0
10
3349.171829
20
1355.634177
30
0.0
40
6.300000
50
244.756218
51
320.104306
0
ARC
8
0
10
3346.271829
20
1349.483568
30
0.0
40
0.500000
50
64.756218
51
180.000000
0
LINE
8
0
10
3345.771829
20
1349.483568
30
0.0
11
3345.771829
21
1286.534787
31
0.0
0
ARC
8
0
10
3346.271829
20
1286.534787
30
0.0
40
0.500000
50
180.000000
51
295.243782
0
ARC
8
0
10
3349.171829
20
1280.384177
30
0.0
40
6.300000
50
84.895694
51
115.243782
0
ARC
8
0
10
3349.603330
20
1285.214944
30
0.0
40
1.450000
50
264.895694
51
84.895694
0
ARC
8
0
10
3349.171829
20
1280.384177
30
0.0
40
3.400000
50
84.895694
51
5.104306
0
ARC
8
0
10
3354.002596
20
1280.815678
30
0.0
40
1.450000
50
5.104306
51
185.104306
0
ARC
8
0
10
3349.171829
20
1280.384177
30
0.0
40
6.300000
50
1.685392
51
5.104306
0
ARC
8
0
10
3342.873192
20
1280.291531
30
0.0
40
12.598978
50
0.421325
51
1.264066
0
LINE
8
0
10
3355.471829
20
1280.384177
30
0.0
11
3355.471829
21
1276.884180
31
0.0
0
ARC
8
0
10
3355.971829
20
1276.884180
30
0.0
40
0.500000
50
180.000000
51
270.000000
0
LINE
8
0
10
3355.971829
20
1276.384180
30
0.0
11
3361.171829
21
1276.384180
31
0.0
0
LINE
8
0
10
3361.171829
20
1276.384180
30
0.0
11
3366.371829
21
1276.384180
31
0.0
0
ARC
8
0
10
3366.371829
20
1276.884180
30
0.0
40
0.500000
50
270.000000
51
0.000000
0
LINE
8
0
10
3366.871829
20
1276.884180
30
0.0
11
3366.871829
21
1280.384177
31
0.0
0
ARC
8
0
10
3379.470466
20
1280.291531
30
0.0
40
12.598978
50
178.735934
51
179.578675
0
ARC
8
0
10
3373.171829
20
1280.384177
30
0.0
40
6.300000
50
174.895694
51
178.314608
0
ARC
8
0
10
3368.341062
20
1280.815678
30
0.0
40
1.450000
50
354.895694
51
174.895694
0
ARC
8
0
10
3373.171829
20
1280.384177
30
0.0
40
3.400000
50
174.895694
51
95.104306
0
ARC
8
0
10
3372.740329
20
1285.214944
30
0.0
40
1.450000
50
95.104306
51
275.104306
0
ARC
8
0
10
3373.171829
20
1280.384177
30
0.0
40
6.300000
50
64.756218
51
95.104306
0
ARC
8
0
10
3376.071829
20
1286.534787
30
0.0
40
0.500000
50
244.756218
51
0.000000
0
LINE
8
0
10
3376.571829
20
1286.534787
30
0.0
11
3376.571829
21
1349.483568
31
0.0
0
ARC
8
0
10
3376.071829
20
1349.483568
30
0.0
40
0.500000
50
0.000000
51
115.243782
0
ARC
8
0
10
3373.171829
20
1355.634177
30
0.0
40
6.300000
50
219.895694
51
295.243782
0
ARC
8
0
10
3369.450845
20
1352.523426
30
0.0
40
1.450000
50
39.895676
51
219.895676
0
ARC
8
0
10
3373.171829
20
1355.634177
30
0.0
40
3.400000
50
219.895705
51
140.104306
0
ARC
8
0
10
3369.450844
20
1358.744928
30
0.0
40
1.450000
50
140.104306
51
320.104306
0
ARC
8
0
10
3373.171829
20
1355.634177
30
0.0
40
6.300000
50
64.756218
51
140.104306
0
ARC
8
0
10
3376.071829
20
1361.784787
30
0.0
40
0.500000
50
244.756218
51
0.000000
0
LINE
8
0
10
3376.571829
20
1361.784787
30
0.0
11
3376.571829
21
1424.733568
31
0.0
0
ARC
8
0
10
3376.071829
20
1424.733568
30
0.0
40
0.500000
50
0.000000
51
115.243782
0
ARC
8
0
10
3373.171829
20
1430.884177
30
0.0
40
6.300000
50
264.895694
51
295.243782
0
ARC
8
0
10
3372.740329
20
1426.053411
30
0.0
40
1.450000
50
84.895694
51
264.895694
0
ARC
8
0
10
3373.171829
20
1430.884177
30
0.0
40
3.400000
50
264.895694
51
185.104306
0
ARC
8
0
10
3368.341062
20
1430.452677
30
0.0
40
1.450000
50
185.104306
51
5.104306
0
ARC
8
0
10
3373.171829
20
1430.884177
30
0.0
40
6.300000
50
129.715137
51
185.104306
0
ARC
8
0
10
3368.187855
20
1436.884177
30
0.0
40
1.500000
50
309.715137
51
90.000000
0
LINE
8
0
10
3368.187855
20
1438.384177
30
0.0
11
3361.171829
21
1438.384177
31
0.0
0
LINE
8
0
10
3361.171829
20
1268.134177
30
0.0
11
3353.489132
21
1268.134177
31
0.0
0
ARC
8
0
10
3353.489132
20
1268.634177
30
0.0
40
0.500000
50
180.000000
51
270.000000
0
LINE
8
0
10
3352.989132
20
1268.634177
30
0.0
11
3352.989132
21
1273.884177
31
0.0
0
ARC
8
0
10
3352.489132
20
1273.884177
30
0.0
40
0.500000
50
0.000000
51
90.000000
0
LINE
8
0
10
3352.489132
20
1274.384177
30
0.0
11
3345.971829
21
1274.384177
31
0.0
0
ARC
8
0
10
3345.971829
20
1273.884177
30
0.0
40
0.500000
50
90.000000
51
180.000000
0
LINE
8
0
10
3345.471829
20
1273.884177
30
0.0
11
3345.471829
21
1268.634177
31
0.0
0
ARC
8
0
10
3344.971829
20
1268.634177
30
0.0
40
0.500000
50
270.000000
51
0.000000
0
LINE
8
0
10
3344.971829
20
1268.134177
30
0.0
11
3339.421829
21
1268.134177
31
0.0
0
ARC
8
0
10
3339.421829
20
1268.634177
30
0.0
40
0.500000
50
180.000000
51
270.000000
0
LINE
8
0
10
3338.921829
20
1268.634177
30
0.0
11
3338.921829
21
1269.680802
31
0.0
0
ARC
8
0
10
3339.421829
20
1269.680802
30
0.0
40
0.500000
50
99.106133
51
180.000000
0
LINE
8
0
10
3339.342697
20
1270.174501
30
0.0
11
3341.969401
21
1270.545706
31
0.0
0
ARC
8
0
10
3341.871829
20
1271.540935
30
0.0
40
1.000000
50
275.599339
51
0.000000
0
LINE
8
0
10
3342.871829
20
1271.540935
30
0.0
11
3342.871829
21
1442.727422
31
0.0
0
ARC
8
0
10
3341.871829
20
1442.727422
30
0.0
40
1.000000
50
0.000000
51
84.400661
0
LINE
8
0
10
3341.969401
20
1443.722651
30
0.0
11
3339.342697
21
1444.093856
31
0.0
0
ARC
8
0
10
3339.421829
20
1444.587555
30
0.0
40
0.500000
50
180.000000
51
260.893867
0
LINE
8
0
10
3338.921829
20
1444.587555
30
0.0
11
3338.921829
21
1445.634177
31
0.0
0
ARC
8
0
10
3339.421829
20
1445.634177
30
0.0
40
0.500000
50
90.000000
51
180.000000
0
LINE
8
0
10
3339.421829
20
1446.134177
30
0.0
11
3344.971829
21
1446.134177
31
0.0
0
ARC
8
0
10
3344.971829
20
1445.634177
30
0.0
40
0.500000
50
0.000000
51
90.000000
0
LINE
8
0
10
3345.471829
20
1445.634177
30
0.0
11
3345.471829
21
1437.384177
31
0.0
0
ARC
8
0
10
3345.971829
20
1437.384177
30
0.0
40
0.500000
50
180.000000
51
270.000000
0
LINE
8
0
10
3345.971829
20
1436.884177
30
0.0
11
3348.537224
21
1436.884177
31
0.0
0
ARC
8
0
10
3348.537224
20
1437.884177
30
0.0
40
1.000000
50
270.000000
51
340.015388
0
LINE
8
0
10
3349.477008
20
1437.542410
30
0.0
11
3353.036723
21
1445.847076
31
0.0
0
ARC
8
0
10
3353.489132
20
1445.634177
30
0.0
40
0.500000
50
90.000000
51
154.798876
0
LINE
8
0
10
3353.489132
20
1446.134177
30
0.0
11
3360.921829
21
1446.134177
31
0.0
0
LINE
8
0
10
3360.921829
20
1446.134177
30
0.0
11
3361.171829
21
1445.934177
31
0.0
0
LINE
8
0
10
3361.171829
20
1445.934177
30
0.0
11
3361.421829
21
1446.134177
31
0.0
0
LINE
8
0
10
3361.421829
20
1446.134177
30
0.0
11
3368.854526
21
1446.134177
31
0.0
0
ARC
8
0
10
3368.854526
20
1445.634177
30
0.0
40
0.500000
50
25.201124
51
90.000000
0
LINE
8
0
10
3369.306936
20
1445.847076
30
0.0
11
3372.866650
21
1437.542410
31
0.0
0
ARC
8
0
10
3373.806435
20
1437.884177
30
0.0
40
1.000000
50
199.984612
51
270.000000
0
LINE
8
0
10
3373.806435
20
1436.884177
30
0.0
11
3376.371829
21
1436.884177
31
0.0
0
ARC
8
0
10
3376.371829
20
1437.384177
30
0.0
40
0.500000
50
270.000000
51
0.000000
0
LINE
8
0
10
3376.871829
20
1437.384177
30
0.0
11
3376.871829
21
1445.634177
31
0.0
0
ARC
8
0
10
3377.371829
20
1445.634177
30
0.0
40
0.500000
50
90.000000
51
180.000000
0
LINE
8
0
10
3377.371829
20
1446.134177
30
0.0
11
3382.921829
21
1446.134177
31
0.0
0
ARC
8
0
10
3382.921829
20
1445.634177
30
0.0
40
0.500000
50
0.000000
51
90.000000
0
LINE
8
0
10
3383.421829
20
1445.634177
30
0.0
11
3383.421829
21
1444.587555
31
0.0
0
ARC
8
0
10
3382.921829
20
1444.587555
30
0.0
40
0.500000
50
279.106133
51
0.000000
0
LINE
8
0
10
3383.000961
20
1444.093856
30
0.0
11
3380.374258
21
1443.722651
31
0.0
0
ARC
8
0
10
3380.471829
20
1442.727422
30
0.0
40
1.000000
50
95.599339
51
180.000000
0
LINE
8
0
10
3379.471829
20
1442.727422
30
0.0
11
3379.471829
21
1271.540935
31
0.0
0
ARC
8
0
10
3380.471829
20
1271.540935
30
0.0
40
1.000000
50
180.000000
51
264.400661
0
LINE
8
0
10
3380.374258
20
1270.545706
30
0.0
11
3383.000961
21
1270.174501
31
0.0
0
ARC
8
0
10
3382.921829
20
1269.680802
30
0.0
40
0.500000
50
0.000000
51
80.893867
0
LINE
8
0
10
3383.421829
20
1269.680802
30
0.0
11
3383.421829
21
1268.634177
31
0.0
0
ARC
8
0
10
3382.921829
20
1268.634177
30
0.0
40
0.500000
50
270.000000
51
0.000000
0
LINE
8
0
10
3382.921829
20
1268.134177
30
0.0
11
3377.371829
21
1268.134177
31
0.0
0
ARC
8
0
10
3377.371829
20
1268.634177
30
0.0
40
0.500000
50
180.000000
51
270.000000
0
LINE
8
0
10
3376.871829
20
1268.634177
30
0.0
11
3376.871829
21
1273.884177
31
0.0
0
ARC
8
0
10
3376.371829
20
1273.884177
30
0.0
40
0.500000
50
0.000000
51
90.000000
0
LINE
8
0
10
3376.371829
20
1274.384177
30
0.0
11
3369.854526
21
1274.384177
31
0.0
0
ARC
8
0
10
3369.854526
20
1273.884177
30
0.0
40
0.500000
50
90.000000
51
180.000000
0
LINE
8
0
10
3369.354526
20
1273.884177
30
0.0
11
3369.354526
21
1268.634177
31
0.0
0
ARC
8
0
10
3368.854526
20
1268.634177
30
0.0
40
0.500000
50
270.000000
51
0.000000
0
LINE
8
0
10
3368.854526
20
1268.134177
30
0.0
11
3361.171829
21
1268.134177
31
0.0
0
ATTDEF
8
0
10
3383.421829
20
1445.634177
30
0.0
40
3.5
1

3

2
HC_START
70
0
0
ATTDEF
8
0
10
3338.921829
20
1445.634177
30
0.0
40
3.5
1

3

2
HC_END
70
0
0
ATTDEF
8
0
10
3338.921829
20
1268.134177
30
0.0
40
3.5
1

3

2
FP_LCS_ORIG
70
0
0
ATTDEF
8
0
10
3338.921829
20
1278.134177
30
0.0
40
3.5
1

3

2
FP_LCS_HOT
70
0
0
ATTDEF
8
0
10
3348.921829
20
1268.134177
30
0.0
40
3.5
1

3

2
FP_LCS_INTERN
70
0
0
ATTDEF
8
0
10
0.000000
20
0.000000
30
0.0
40
3.5
1

3

2
PANE_WIDTH:0
70
0
0
ATTDEF
8
0
10
0.000000
20
0.000000
30
0.0
40
3.5
1

3

2
MIN_VETRO:0
70
0
0
ATTDEF
8
0
10
0.000000
20
0.000000
30
0.0
40
3.5
1

3

2
MAX_VETRO:0
70
0
0
ATTDEF
8
0
10
0.000000
20
0.000000
30
0.0
40
3.5
1

3

2
JX:0
70
0
0
ATTDEF
8
0
10
0.000000
20
0.000000
30
0.0
40
3.5
1

3

2
WX:0
70
0
0
ATTDEF
8
0
10
0.000000
20
0.000000
30
0.0
40
3.5
1

3

2
JY:0
70
0
0
ATTDEF
8
0
10
0.000000
20
0.000000
30
0.0
40
3.5
1

3

2
WY:0
70
0
0
ATTDEF
8
0
10
0.000000
20
0.000000
30
0.0
40
3.5
1

3

2
DESC:Camisa para 200mm.
70
0
0
ATTDEF
8
0
10
0.000000
20
0.000000
30
0.0
40
3.5
1

3

2
DENS:4.4118
70
0
0
ATTDEF
8
0
10
0.000000
20
0.000000
30
0.0
40
3.5
1

3

2
TDEV:105.37
70
0
0
ATTDEF
8
0
10
0.000000
20
0.000000
30
0.0
40
3.5
1

3

2
TDEV2:0
70
0
0
ATTDEF
8
0
10
0.000000
20
0.000000
30
0.0
40
3.5
1

3

2
TDEV3:0
70
0
0
ATTDEF
8
0
10
0.000000
20
0.000000
30
0.0
40
3.5
1

3

2
TDEV4:0
70
0
0
ATTDEF
8
0
10
0.000000
20
0.000000
30
0.0
40
3.5
1

3

2
TDEV5:0
70
0
0
ATTDEF
8
0
10
0.000000
20
0.000000
30
0.0
40
3.5
1

3

2
PANE_WIDTH:0
70
0
0
ATTDEF
8
0
10
0.000000
20
0.000000
30
0.0
40
3.5
1

3

2
MIN_VETRO:0
70
0
0
ATTDEF
8
0
10
0.000000
20
0.000000
30
0.0
40
3.5
1

3

2
MAX_VETRO:0
70
0
0
ATTDEF
8
0
10
0.000000
20
0.000000
30
0.0
40
3.5
1

3

2
JX:0
70
0
0
ATTDEF
8
0
10
0.000000
20
0.000000
30
0.0
40
3.5
1

3

2
WX:0
70
0
0
ATTDEF
8
0
10
0.000000
20
0.000000
30
0.0
40
3.5
1

3

2
JY:0
70
0
0
ATTDEF
8
0
10
0.000000
20
0.000000
30
0.0
40
3.5
1

3

2
WY:0
70
0
0
ENDSEC
0
EOF
