0
SECTION
2
ENTITIES
0
ARC
8
0
10
21.300630
20
61.401608
30
0.0
40
0.300000
50
120.000000
51
180.000000
0
LINE
8
0
10
21.150630
20
61.661416
30
0.0
11
21.300630
21
61.748018
31
0.0
0
ARC
8
0
10
21.200630
20
61.921223
30
0.0
40
0.200000
50
300.000000
51
60.000000
0
LINE
8
0
10
21.300630
20
62.094428
30
0.0
11
21.150630
21
62.181030
31
0.0
0
ARC
8
0
10
21.300870
20
62.440980
30
0.0
40
0.300243
50
180.000000
51
239.973890
0
LINE
8
0
10
21.000630
20
62.439592
30
0.0
11
21.000630
21
63.121223
31
0.0
0
ARC
8
0
10
19.500630
20
63.121223
30
0.0
40
1.500000
50
0.000000
51
90.000000
0
LINE
8
0
10
19.500630
20
64.621223
30
0.0
11
18.300630
21
64.621223
31
0.0
0
ARC
8
0
10
18.300630
20
63.121223
30
0.0
40
1.500000
50
90.000000
51
180.000000
0
LINE
8
0
10
16.800630
20
63.121223
30
0.0
11
16.800629
21
61.540838
31
0.0
0
ARC
8
0
10
16.500630
20
61.540838
30
0.0
40
0.300000
50
300.000000
51
0.000000
0
LINE
8
0
10
16.650630
20
61.281030
30
0.0
11
16.500630
21
61.194428
31
0.0
0
ARC
8
0
10
16.600630
20
61.021223
30
0.0
40
0.200000
50
120.000000
51
240.000000
0
LINE
8
0
10
16.500630
20
60.848018
30
0.0
11
16.650630
21
60.761416
31
0.0
0
ARC
8
0
10
16.500630
20
60.501608
30
0.0
40
0.300000
50
0.000000
51
60.000000
0
LINE
8
0
10
16.800629
20
60.501608
30
0.0
11
16.800629
21
59.740838
31
0.0
0
ARC
8
0
10
16.500630
20
59.740838
30
0.0
40
0.300000
50
300.000000
51
0.000000
0
LINE
8
0
10
16.650630
20
59.481030
30
0.0
11
16.500630
21
59.394428
31
0.0
0
ARC
8
0
10
16.600630
20
59.221223
30
0.0
40
0.200000
50
120.000000
51
240.000000
0
LINE
8
0
10
16.500630
20
59.048018
30
0.0
11
16.650630
21
58.961416
31
0.0
0
ARC
8
0
10
16.500630
20
58.701608
30
0.0
40
0.300000
50
0.000000
51
60.000000
0
LINE
8
0
10
16.800629
20
58.701608
30
0.0
11
16.800629
21
57.940838
31
0.0
0
ARC
8
0
10
16.500630
20
57.940838
30
0.0
40
0.300000
50
300.000000
51
0.000000
0
LINE
8
0
10
16.650630
20
57.681030
30
0.0
11
16.500630
21
57.594428
31
0.0
0
ARC
8
0
10
16.600630
20
57.421223
30
0.0
40
0.200000
50
120.000000
51
240.000000
0
LINE
8
0
10
16.500630
20
57.248018
30
0.0
11
16.650630
21
57.161416
31
0.0
0
ARC
8
0
10
16.500630
20
56.901608
30
0.0
40
0.300000
50
0.000000
51
60.000000
0
LINE
8
0
10
16.800629
20
56.901608
30
0.0
11
16.800629
21
56.140838
31
0.0
0
ARC
8
0
10
16.500630
20
56.140838
30
0.0
40
0.300000
50
300.000000
51
0.000000
0
LINE
8
0
10
16.650630
20
55.881030
30
0.0
11
16.500630
21
55.794428
31
0.0
0
ARC
8
0
10
16.600630
20
55.621223
30
0.0
40
0.200000
50
120.000000
51
240.000000
0
LINE
8
0
10
16.500630
20
55.448018
30
0.0
11
16.650630
21
55.361416
31
0.0
0
ARC
8
0
10
16.500630
20
55.101608
30
0.0
40
0.300000
50
0.000000
51
60.000000
0
LINE
8
0
10
16.800629
20
55.101608
30
0.0
11
16.800629
21
54.340838
31
0.0
0
ARC
8
0
10
16.500630
20
54.340838
30
0.0
40
0.300000
50
300.000000
51
0.000000
0
LINE
8
0
10
16.650630
20
54.081030
30
0.0
11
16.500630
21
53.994428
31
0.0
0
ARC
8
0
10
16.600630
20
53.821223
30
0.0
40
0.200000
50
120.000000
51
240.000000
0
LINE
8
0
10
16.500630
20
53.648018
30
0.0
11
16.650630
21
53.561416
31
0.0
0
ARC
8
0
10
16.500630
20
53.301608
30
0.0
40
0.300000
50
0.000000
51
60.000000
0
LINE
8
0
10
16.800629
20
53.301608
30
0.0
11
16.800629
21
52.540838
31
0.0
0
ARC
8
0
10
16.500630
20
52.540838
30
0.0
40
0.300000
50
300.000000
51
0.000000
0
LINE
8
0
10
16.650630
20
52.281030
30
0.0
11
16.500630
21
52.194428
31
0.0
0
ARC
8
0
10
16.600630
20
52.021223
30
0.0
40
0.200000
50
120.000000
51
240.000000
0
LINE
8
0
10
16.500630
20
51.848018
30
0.0
11
16.650630
21
51.761416
31
0.0
0
ARC
8
0
10
16.500630
20
51.501608
30
0.0
40
0.300000
50
341.287797
51
60.000000
0
LINE
8
0
10
16.784772
20
51.405364
30
0.0
11
15.600631
21
50.221223
31
0.0
0
LINE
8
0
10
15.600631
20
50.221223
30
0.0
11
13.900630
21
50.221223
31
0.0
0
LINE
8
0
10
13.900630
20
50.221223
30
0.0
11
13.900630
21
79.221223
31
0.0
0
ARC
8
0
10
12.900630
20
79.221223
30
0.0
40
1.000000
50
0.000000
51
90.000000
0
LINE
8
0
10
12.900630
20
80.221223
30
0.0
11
8.450630
21
80.221223
31
0.0
0
LINE
8
0
10
8.450630
20
80.221223
30
0.0
11
8.150630
21
80.521223
31
0.0
0
LINE
8
0
10
8.150630
20
80.521223
30
0.0
11
7.850630
21
80.221223
31
0.0
0
LINE
8
0
10
7.850630
20
80.221223
30
0.0
11
3.400630
21
80.221223
31
0.0
0
ARC
8
0
10
3.400630
20
79.221223
30
0.0
40
1.000000
50
90.000000
51
180.000000
0
LINE
8
0
10
2.400630
20
79.221223
30
0.0
11
2.400630
21
67.221223
31
0.0
0
LINE
8
0
10
2.400630
20
67.221223
30
0.0
11
-0.289370
21
67.221223
31
0.0
0
LINE
8
0
10
-0.289370
20
67.221223
30
0.0
11
-0.789370
21
67.721223
31
0.0
0
LINE
8
0
10
-0.789370
20
67.721223
30
0.0
11
-0.789370
21
68.221223
31
0.0
0
LINE
8
0
10
-0.789370
20
68.221223
30
0.0
11
0.210630
21
68.221223
31
0.0
0
LINE
8
0
10
0.210630
20
68.221223
30
0.0
11
0.210630
21
69.154435
31
0.0
0
LINE
8
0
10
0.210630
20
69.154435
30
0.0
11
-0.789199
21
70.151061
31
0.0
0
ARC
8
0
10
-0.489370
20
70.161200
30
0.0
40
0.300000
50
120.000000
51
181.936736
0
LINE
8
0
10
-0.639370
20
70.421007
30
0.0
11
-0.489370
21
70.507609
31
0.0
0
ARC
8
0
10
-0.589370
20
70.680814
30
0.0
40
0.200000
50
300.000000
51
60.000000
0
LINE
8
0
10
-0.489370
20
70.854019
30
0.0
11
-0.639370
21
70.940622
31
0.0
0
ARC
8
0
10
-0.489370
20
71.200429
30
0.0
40
0.300000
50
180.000000
51
240.000000
0
LINE
8
0
10
-0.789370
20
71.200429
30
0.0
11
-0.789370
21
71.561200
31
0.0
0
ARC
8
0
10
-0.489370
20
71.561200
30
0.0
40
0.300000
50
120.000000
51
180.000000
0
LINE
8
0
10
-0.639370
20
71.821007
30
0.0
11
-0.489370
21
71.907609
31
0.0
0
ARC
8
0
10
-0.589370
20
72.080814
30
0.0
40
0.200000
50
300.000000
51
60.000000
0
LINE
8
0
10
-0.489370
20
72.254019
30
0.0
11
-0.639370
21
72.340622
31
0.0
0
ARC
8
0
10
-0.489370
20
72.600429
30
0.0
40
0.300000
50
180.000000
51
240.000000
0
LINE
8
0
10
-0.789370
20
72.600429
30
0.0
11
-0.789370
21
72.961200
31
0.0
0
ARC
8
0
10
-0.489370
20
72.961200
30
0.0
40
0.300000
50
120.000000
51
180.000000
0
LINE
8
0
10
-0.639370
20
73.221007
30
0.0
11
-0.489370
21
73.307609
31
0.0
0
ARC
8
0
10
-0.589370
20
73.480814
30
0.0
40
0.200000
50
300.000000
51
60.000000
0
LINE
8
0
10
-0.489370
20
73.654019
30
0.0
11
-0.639370
21
73.740622
31
0.0
0
ARC
8
0
10
-0.489370
20
74.000429
30
0.0
40
0.300000
50
180.000000
51
240.000000
0
LINE
8
0
10
-0.789370
20
74.000429
30
0.0
11
-0.789370
21
74.221223
31
0.0
0
LINE
8
0
10
-0.789370
20
74.221223
30
0.0
11
0.210630
21
74.221223
31
0.0
0
LINE
8
0
10
0.210630
20
74.221223
30
0.0
11
0.210630
21
75.154435
31
0.0
0
LINE
8
0
10
0.210630
20
75.154435
30
0.0
11
-0.651385
21
76.013689
31
0.0
0
LINE
8
0
10
-0.639370
20
76.021007
30
0.0
11
-0.651385
21
76.013689
31
0.0
0
LINE
8
0
10
-0.639370
20
76.021007
30
0.0
11
-0.489370
21
76.107609
31
0.0
0
ARC
8
0
10
-0.589370
20
76.280814
30
0.0
40
0.200000
50
300.000000
51
60.000000
0
LINE
8
0
10
-0.489370
20
76.454019
30
0.0
11
-0.639370
21
76.540622
31
0.0
0
ARC
8
0
10
-0.489370
20
76.800429
30
0.0
40
0.300000
50
180.000000
51
240.000000
0
LINE
8
0
10
-0.789370
20
76.800429
30
0.0
11
-0.789370
21
77.161200
31
0.0
0
ARC
8
0
10
-0.489370
20
77.161200
30
0.0
40
0.300000
50
120.000000
51
180.000000
0
LINE
8
0
10
-0.639370
20
77.421007
30
0.0
11
-0.489370
21
77.507609
31
0.0
0
ARC
8
0
10
-0.589370
20
77.680814
30
0.0
40
0.200000
50
300.000000
51
60.000000
0
LINE
8
0
10
-0.489370
20
77.854019
30
0.0
11
-0.639370
21
77.940622
31
0.0
0
ARC
8
0
10
-0.489370
20
78.200429
30
0.0
40
0.300000
50
180.000000
51
240.000000
0
LINE
8
0
10
-0.789370
20
78.200429
30
0.0
11
-0.789370
21
78.661223
31
0.0
0
ARC
8
0
10
-2.349370
20
78.661223
30
0.0
40
1.560000
50
0.000000
51
172.310965
0
ARC
8
0
10
-4.192646
20
78.910085
30
0.0
40
0.300000
50
300.000000
51
352.310965
0
LINE
8
0
10
-4.042646
20
78.650277
30
0.0
11
-4.209370
21
78.554019
31
0.0
0
ARC
8
0
10
-4.109370
20
78.380814
30
0.0
40
0.200000
50
120.000000
51
240.000000
0
LINE
8
0
10
-4.209370
20
78.207609
30
0.0
11
-4.059370
21
78.121007
31
0.0
0
ARC
8
0
10
-4.209370
20
77.861200
30
0.0
40
0.300000
50
0.000000
51
60.000000
0
LINE
8
0
10
-3.909370
20
77.861200
30
0.0
11
-3.909370
21
77.500429
31
0.0
0
ARC
8
0
10
-4.209370
20
77.500429
30
0.0
40
0.300000
50
300.000000
51
0.000000
0
LINE
8
0
10
-4.059370
20
77.240622
30
0.0
11
-4.209370
21
77.154019
31
0.0
0
ARC
8
0
10
-4.109370
20
76.980814
30
0.0
40
0.200000
50
120.000000
51
240.000000
0
LINE
8
0
10
-4.209370
20
76.807609
30
0.0
11
-4.059370
21
76.721007
31
0.0
0
ARC
8
0
10
-4.209370
20
76.461200
30
0.0
40
0.300000
50
0.000000
51
60.000000
0
LINE
8
0
10
-3.909370
20
76.461200
30
0.0
11
-3.909370
21
76.151232
31
0.0
0
LINE
8
0
10
-3.909370
20
76.151232
30
0.0
11
-4.909370
21
75.154435
31
0.0
0
LINE
8
0
10
-4.909370
20
75.154435
30
0.0
11
-4.909370
21
74.221223
31
0.0
0
LINE
8
0
10
-4.909370
20
74.221223
30
0.0
11
-3.909370
21
74.221223
31
0.0
0
LINE
8
0
10
-3.909370
20
74.221223
30
0.0
11
-3.909370
21
73.300429
31
0.0
0
ARC
8
0
10
-4.209370
20
73.300429
30
0.0
40
0.300000
50
300.000000
51
0.000000
0
LINE
8
0
10
-4.059370
20
73.040622
30
0.0
11
-4.209370
21
72.954019
31
0.0
0
ARC
8
0
10
-4.109370
20
72.780814
30
0.0
40
0.200000
50
120.000000
51
240.000000
0
LINE
8
0
10
-4.209370
20
72.607609
30
0.0
11
-4.059370
21
72.521007
31
0.0
0
ARC
8
0
10
-4.209370
20
72.261200
30
0.0
40
0.300000
50
0.000000
51
60.000000
0
LINE
8
0
10
-3.909370
20
72.261200
30
0.0
11
-3.909370
21
71.900429
31
0.0
0
ARC
8
0
10
-4.209370
20
71.900429
30
0.0
40
0.300000
50
300.000000
51
0.000000
0
LINE
8
0
10
-4.059370
20
71.640622
30
0.0
11
-4.209370
21
71.554019
31
0.0
0
ARC
8
0
10
-4.109370
20
71.380814
30
0.0
40
0.200000
50
120.000000
51
240.000000
0
LINE
8
0
10
-4.209370
20
71.207609
30
0.0
11
-4.059370
21
71.121007
31
0.0
0
ARC
8
0
10
-4.209370
20
70.861200
30
0.0
40
0.300000
50
0.000000
51
60.000000
0
LINE
8
0
10
-3.909370
20
70.861200
30
0.0
11
-3.909370
21
70.151232
31
0.0
0
LINE
8
0
10
-3.909370
20
70.151232
30
0.0
11
-4.909370
21
69.154435
31
0.0
0
LINE
8
0
10
-4.909370
20
69.154435
30
0.0
11
-4.909370
21
68.221223
31
0.0
0
LINE
8
0
10
-4.909370
20
68.221223
30
0.0
11
-3.909370
21
68.221223
31
0.0
0
LINE
8
0
10
-3.909370
20
68.221223
30
0.0
11
-3.909370
21
67.721223
31
0.0
0
LINE
8
0
10
-3.909370
20
67.721223
30
0.0
11
-4.409370
21
67.221223
31
0.0
0
LINE
8
0
10
-4.409370
20
67.221223
30
0.0
11
-7.099370
21
67.221223
31
0.0
0
LINE
8
0
10
-7.099370
20
67.221223
30
0.0
11
-7.099370
21
101.721223
31
0.0
0
ARC
8
0
10
-6.599370
20
101.721223
30
0.0
40
0.500000
50
90.000000
51
180.000000
0
LINE
8
0
10
-6.599370
20
102.221223
30
0.0
11
9.600630
21
102.221223
31
0.0
0
ARC
8
0
10
9.600630
20
102.521223
30
0.0
40
0.300000
50
270.000000
51
0.000000
0
LINE
8
0
10
9.900630
20
102.521223
30
0.0
11
9.900630
21
291.721223
31
0.0
0
ARC
8
0
10
10.400630
20
291.721223
30
0.0
40
0.500000
50
90.000000
51
180.000000
0
LINE
8
0
10
10.400630
20
292.221223
30
0.0
11
27.400630
21
292.221223
31
0.0
0
ARC
8
0
10
27.400630
20
291.721223
30
0.0
40
0.500000
50
0.000000
51
90.000000
0
LINE
8
0
10
27.900630
20
291.721223
30
0.0
11
27.900630
21
102.521223
31
0.0
0
ARC
8
0
10
28.200630
20
102.521223
30
0.0
40
0.300000
50
180.000000
51
270.000000
0
LINE
8
0
10
28.200630
20
102.221223
30
0.0
11
44.400630
21
102.221223
31
0.0
0
ARC
8
0
10
44.400630
20
101.721223
30
0.0
40
0.500000
50
0.000000
51
90.000000
0
LINE
8
0
10
44.900630
20
101.721223
30
0.0
11
44.900630
21
67.221223
31
0.0
0
LINE
8
0
10
44.900630
20
67.221223
30
0.0
11
42.210630
21
67.221223
31
0.0
0
LINE
8
0
10
42.210630
20
67.221223
30
0.0
11
41.710630
21
67.721223
31
0.0
0
LINE
8
0
10
41.710630
20
67.721223
30
0.0
11
41.710630
21
68.221223
31
0.0
0
LINE
8
0
10
41.710630
20
68.221223
30
0.0
11
42.710630
21
68.221223
31
0.0
0
LINE
8
0
10
42.710630
20
68.221223
30
0.0
11
42.710630
21
69.154435
31
0.0
0
LINE
8
0
10
42.710630
20
69.154435
30
0.0
11
41.710630
21
70.151232
31
0.0
0
LINE
8
0
10
41.710630
20
70.151232
30
0.0
11
41.710630
21
70.861200
31
0.0
0
ARC
8
0
10
42.010630
20
70.861200
30
0.0
40
0.300000
50
120.000000
51
180.000000
0
LINE
8
0
10
41.860630
20
71.121007
30
0.0
11
42.010630
21
71.207609
31
0.0
0
ARC
8
0
10
41.910630
20
71.380814
30
0.0
40
0.200000
50
300.000000
51
60.000000
0
LINE
8
0
10
42.010630
20
71.554019
30
0.0
11
41.860630
21
71.640622
31
0.0
0
ARC
8
0
10
42.010630
20
71.900429
30
0.0
40
0.300000
50
180.000000
51
240.000000
0
LINE
8
0
10
41.710630
20
71.900429
30
0.0
11
41.710630
21
72.261200
31
0.0
0
ARC
8
0
10
42.010630
20
72.261200
30
0.0
40
0.300000
50
120.000000
51
180.000000
0
LINE
8
0
10
41.860630
20
72.521007
30
0.0
11
42.010630
21
72.607609
31
0.0
0
ARC
8
0
10
41.910630
20
72.780814
30
0.0
40
0.200000
50
300.000000
51
60.000000
0
LINE
8
0
10
42.010630
20
72.954019
30
0.0
11
41.860630
21
73.040622
31
0.0
0
ARC
8
0
10
42.010630
20
73.300429
30
0.0
40
0.300000
50
180.000000
51
240.000000
0
LINE
8
0
10
41.710630
20
73.300429
30
0.0
11
41.710630
21
74.221223
31
0.0
0
LINE
8
0
10
41.710630
20
74.221223
30
0.0
11
42.710630
21
74.221223
31
0.0
0
LINE
8
0
10
42.710630
20
74.221223
30
0.0
11
42.710630
21
75.154435
31
0.0
0
LINE
8
0
10
42.710630
20
75.154435
30
0.0
11
41.710630
21
76.151232
31
0.0
0
LINE
8
0
10
41.710630
20
76.151232
30
0.0
11
41.710630
21
76.461200
31
0.0
0
ARC
8
0
10
42.010630
20
76.461200
30
0.0
40
0.300000
50
120.000000
51
180.000000
0
LINE
8
0
10
41.860630
20
76.721007
30
0.0
11
42.010630
21
76.807609
31
0.0
0
ARC
8
0
10
41.910630
20
76.980814
30
0.0
40
0.200000
50
300.000000
51
60.000000
0
LINE
8
0
10
42.010630
20
77.154019
30
0.0
11
41.860630
21
77.240622
31
0.0
0
ARC
8
0
10
42.010630
20
77.500429
30
0.0
40
0.300000
50
180.000000
51
240.000000
0
LINE
8
0
10
41.710630
20
77.500429
30
0.0
11
41.710630
21
77.861200
31
0.0
0
ARC
8
0
10
42.010630
20
77.861200
30
0.0
40
0.300000
50
120.000000
51
180.000000
0
LINE
8
0
10
41.860630
20
78.121007
30
0.0
11
42.010630
21
78.207609
31
0.0
0
ARC
8
0
10
41.910630
20
78.380814
30
0.0
40
0.200000
50
300.000000
51
60.000000
0
LINE
8
0
10
42.010630
20
78.554019
30
0.0
11
41.843907
21
78.650277
31
0.0
0
ARC
8
0
10
41.993907
20
78.910085
30
0.0
40
0.300000
50
187.689035
51
240.000000
0
ARC
8
0
10
40.150630
20
78.661223
30
0.0
40
1.560000
50
7.689035
51
180.000000
0
LINE
8
0
10
38.590630
20
78.661223
30
0.0
11
38.590630
21
78.200429
31
0.0
0
ARC
8
0
10
38.290630
20
78.200429
30
0.0
40
0.300000
50
300.000000
51
0.000000
0
LINE
8
0
10
38.440630
20
77.940622
30
0.0
11
38.290630
21
77.854019
31
0.0
0
ARC
8
0
10
38.390630
20
77.680814
30
0.0
40
0.200000
50
120.000000
51
240.000000
0
LINE
8
0
10
38.290630
20
77.507609
30
0.0
11
38.440630
21
77.421007
31
0.0
0
ARC
8
0
10
38.290630
20
77.161200
30
0.0
40
0.300000
50
0.000000
51
60.000000
0
LINE
8
0
10
38.590630
20
77.161200
30
0.0
11
38.590630
21
76.800429
31
0.0
0
ARC
8
0
10
38.290630
20
76.800429
30
0.0
40
0.300000
50
300.000000
51
0.000000
0
LINE
8
0
10
38.440630
20
76.540622
30
0.0
11
38.290630
21
76.454019
31
0.0
0
ARC
8
0
10
38.390630
20
76.280814
30
0.0
40
0.200000
50
120.000000
51
240.000000
0
LINE
8
0
10
38.290630
20
76.107609
30
0.0
11
38.440630
21
76.021007
31
0.0
0
LINE
8
0
10
38.452646
20
76.013689
30
0.0
11
38.440630
21
76.021007
31
0.0
0
LINE
8
0
10
38.452646
20
76.013689
30
0.0
11
37.590630
21
75.154435
31
0.0
0
LINE
8
0
10
37.590630
20
75.154435
30
0.0
11
37.590630
21
74.221223
31
0.0
0
LINE
8
0
10
37.590630
20
74.221223
30
0.0
11
38.590630
21
74.221223
31
0.0
0
LINE
8
0
10
38.590630
20
74.221223
30
0.0
11
38.590630
21
74.000429
31
0.0
0
ARC
8
0
10
38.290630
20
74.000429
30
0.0
40
0.300000
50
300.000000
51
0.000000
0
LINE
8
0
10
38.440630
20
73.740622
30
0.0
11
38.290630
21
73.654019
31
0.0
0
ARC
8
0
10
38.390630
20
73.480814
30
0.0
40
0.200000
50
120.000000
51
240.000000
0
LINE
8
0
10
38.290630
20
73.307609
30
0.0
11
38.440630
21
73.221007
31
0.0
0
ARC
8
0
10
38.290630
20
72.961200
30
0.0
40
0.300000
50
0.000000
51
60.000000
0
LINE
8
0
10
38.590630
20
72.961200
30
0.0
11
38.590630
21
72.600429
31
0.0
0
ARC
8
0
10
38.290630
20
72.600429
30
0.0
40
0.300000
50
300.000000
51
0.000000
0
LINE
8
0
10
38.440630
20
72.340622
30
0.0
11
38.290630
21
72.254019
31
0.0
0
ARC
8
0
10
38.390630
20
72.080814
30
0.0
40
0.200000
50
120.000000
51
240.000000
0
LINE
8
0
10
38.290630
20
71.907609
30
0.0
11
38.440630
21
71.821007
31
0.0
0
ARC
8
0
10
38.290630
20
71.561200
30
0.0
40
0.300000
50
0.000000
51
60.000000
0
LINE
8
0
10
38.590630
20
71.561200
30
0.0
11
38.590630
21
71.200429
31
0.0
0
ARC
8
0
10
38.290630
20
71.200429
30
0.0
40
0.300000
50
300.000000
51
0.000000
0
LINE
8
0
10
38.440630
20
70.940622
30
0.0
11
38.290630
21
70.854019
31
0.0
0
ARC
8
0
10
38.390630
20
70.680814
30
0.0
40
0.200000
50
120.000000
51
240.000000
0
LINE
8
0
10
38.290630
20
70.507609
30
0.0
11
38.440630
21
70.421007
31
0.0
0
ARC
8
0
10
38.290630
20
70.161200
30
0.0
40
0.300000
50
358.063264
51
60.000000
0
LINE
8
0
10
38.590459
20
70.151061
30
0.0
11
37.590630
21
69.154435
31
0.0
0
LINE
8
0
10
37.590630
20
69.154435
30
0.0
11
37.590630
21
68.221223
31
0.0
0
LINE
8
0
10
37.590630
20
68.221223
30
0.0
11
38.590630
21
68.221223
31
0.0
0
LINE
8
0
10
38.590630
20
68.221223
30
0.0
11
38.590630
21
67.721223
31
0.0
0
LINE
8
0
10
38.590630
20
67.721223
30
0.0
11
38.090630
21
67.221223
31
0.0
0
LINE
8
0
10
38.090630
20
67.221223
30
0.0
11
35.400630
21
67.221223
31
0.0
0
LINE
8
0
10
35.400630
20
67.221223
30
0.0
11
35.400630
21
79.221223
31
0.0
0
ARC
8
0
10
34.400630
20
79.221223
30
0.0
40
1.000000
50
0.000000
51
90.000000
0
LINE
8
0
10
34.400630
20
80.221223
30
0.0
11
29.950630
21
80.221223
31
0.0
0
LINE
8
0
10
29.950630
20
80.221223
30
0.0
11
29.650630
21
80.521223
31
0.0
0
LINE
8
0
10
29.650630
20
80.521223
30
0.0
11
29.350630
21
80.221223
31
0.0
0
LINE
8
0
10
29.350630
20
80.221223
30
0.0
11
24.900630
21
80.221223
31
0.0
0
ARC
8
0
10
24.900630
20
79.221223
30
0.0
40
1.000000
50
90.000000
51
180.000000
0
LINE
8
0
10
23.900630
20
79.221223
30
0.0
11
23.900630
21
50.221223
31
0.0
0
LINE
8
0
10
23.900630
20
50.221223
30
0.0
11
22.200629
21
50.221223
31
0.0
0
LINE
8
0
10
22.200629
20
50.221223
30
0.0
11
21.000630
21
51.421222
31
0.0
0
LINE
8
0
10
21.000630
20
51.421222
30
0.0
11
21.000630
21
52.401608
31
0.0
0
ARC
8
0
10
21.300630
20
52.401608
30
0.0
40
0.300000
50
120.000000
51
180.000000
0
LINE
8
0
10
21.150630
20
52.661416
30
0.0
11
21.300630
21
52.748018
31
0.0
0
ARC
8
0
10
21.200630
20
52.921223
30
0.0
40
0.200000
50
300.000000
51
60.000000
0
LINE
8
0
10
21.300630
20
53.094428
30
0.0
11
21.150630
21
53.181030
31
0.0
0
ARC
8
0
10
21.300630
20
53.440838
30
0.0
40
0.300000
50
180.000000
51
240.000000
0
LINE
8
0
10
21.000630
20
53.440838
30
0.0
11
21.000630
21
54.201608
31
0.0
0
ARC
8
0
10
21.300630
20
54.201608
30
0.0
40
0.300000
50
120.000000
51
180.000000
0
LINE
8
0
10
21.150630
20
54.461416
30
0.0
11
21.300630
21
54.548018
31
0.0
0
ARC
8
0
10
21.200630
20
54.721223
30
0.0
40
0.200000
50
300.000000
51
60.000000
0
LINE
8
0
10
21.300630
20
54.894428
30
0.0
11
21.150630
21
54.981030
31
0.0
0
ARC
8
0
10
21.300630
20
55.240838
30
0.0
40
0.300000
50
180.000000
51
240.000000
0
LINE
8
0
10
21.000630
20
55.240838
30
0.0
11
21.000630
21
56.001608
31
0.0
0
ARC
8
0
10
21.300630
20
56.001608
30
0.0
40
0.300000
50
120.000000
51
180.000000
0
LINE
8
0
10
21.150630
20
56.261416
30
0.0
11
21.300630
21
56.348018
31
0.0
0
ARC
8
0
10
21.200630
20
56.521223
30
0.0
40
0.200000
50
300.000000
51
60.000000
0
LINE
8
0
10
21.300630
20
56.694428
30
0.0
11
21.150630
21
56.781030
31
0.0
0
ARC
8
0
10
21.300630
20
57.040838
30
0.0
40
0.300000
50
180.000000
51
240.000000
0
LINE
8
0
10
21.000630
20
57.040838
30
0.0
11
21.000630
21
57.801608
31
0.0
0
ARC
8
0
10
21.300630
20
57.801608
30
0.0
40
0.300000
50
120.000000
51
180.000000
0
LINE
8
0
10
21.150630
20
58.061416
30
0.0
11
21.300630
21
58.148018
31
0.0
0
ARC
8
0
10
21.200630
20
58.321223
30
0.0
40
0.200000
50
300.000000
51
60.000000
0
LINE
8
0
10
21.300630
20
58.494428
30
0.0
11
21.150630
21
58.581030
31
0.0
0
ARC
8
0
10
21.300630
20
58.840838
30
0.0
40
0.300000
50
180.000000
51
240.000000
0
LINE
8
0
10
21.000630
20
58.840838
30
0.0
11
21.000630
21
59.601608
31
0.0
0
ARC
8
0
10
21.300630
20
59.601608
30
0.0
40
0.300000
50
120.000000
51
180.000000
0
LINE
8
0
10
21.150630
20
59.861416
30
0.0
11
21.300630
21
59.948018
31
0.0
0
ARC
8
0
10
21.200630
20
60.121223
30
0.0
40
0.200000
50
300.000000
51
60.000000
0
LINE
8
0
10
21.300630
20
60.294428
30
0.0
11
21.150630
21
60.381030
31
0.0
0
ARC
8
0
10
21.300630
20
60.640838
30
0.0
40
0.300000
50
180.000000
51
240.000000
0
LINE
8
0
10
21.000630
20
60.640838
30
0.0
11
21.000630
21
61.401608
31
0.0
0
ARC
8
0
10
42.300630
20
83.021223
30
0.0
40
0.500000
50
270.000000
51
0.000000
0
LINE
8
0
10
42.800630
20
83.021223
30
0.0
11
42.800630
21
99.421223
31
0.0
0
ARC
8
0
10
42.300630
20
99.421223
30
0.0
40
0.500000
50
0.000000
51
90.000000
0
LINE
8
0
10
42.300630
20
99.921223
30
0.0
11
-4.499370
21
99.921223
31
0.0
0
ARC
8
0
10
-4.499370
20
99.421223
30
0.0
40
0.500000
50
90.000000
51
180.000000
0
LINE
8
0
10
-4.999370
20
99.421223
30
0.0
11
-4.999370
21
83.021223
31
0.0
0
ARC
8
0
10
-4.499370
20
83.021223
30
0.0
40
0.500000
50
180.000000
51
270.000000
0
LINE
8
0
10
-4.499370
20
82.521223
30
0.0
11
42.300630
21
82.521223
31
0.0
0
ARC
8
0
10
20.900630
20
68.221241
30
0.0
40
1.000000
50
270.000000
51
0.000000
0
LINE
8
0
10
21.900630
20
68.221241
30
0.0
11
21.900630
21
79.221241
31
0.0
0
ARC
8
0
10
20.900630
20
79.221241
30
0.0
40
1.000000
50
0.000000
51
90.000000
0
LINE
8
0
10
20.900630
20
80.221241
30
0.0
11
16.900630
21
80.221241
31
0.0
0
ARC
8
0
10
16.900630
20
79.221241
30
0.0
40
1.000000
50
90.000000
51
180.000000
0
LINE
8
0
10
15.900630
20
79.221241
30
0.0
11
15.900630
21
68.221241
31
0.0
0
ARC
8
0
10
16.900630
20
68.221241
30
0.0
40
1.000000
50
180.000000
51
270.000000
0
LINE
8
0
10
16.900630
20
67.221241
30
0.0
11
20.900630
21
67.221241
31
0.0
0
LINE
8
0
10
24.300630
20
160.021223
30
0.0
11
24.300630
21
161.421223
31
0.0
0
ARC
8
0
10
24.600630
20
161.421223
30
0.0
40
0.300000
50
90.000000
51
180.000000
0
LINE
8
0
10
24.600630
20
161.721223
30
0.0
11
25.300630
21
161.721223
31
0.0
0
LINE
8
0
10
25.300630
20
161.721223
30
0.0
11
25.300630
21
268.921223
31
0.0
0
ARC
8
0
10
25.000630
20
268.921223
30
0.0
40
0.300000
50
0.000000
51
90.000000
0
LINE
8
0
10
25.000630
20
269.221223
30
0.0
11
22.200630
21
269.221223
31
0.0
0
ARC
8
0
10
22.200630
20
269.521223
30
0.0
40
0.300000
50
180.000000
51
270.000000
0
LINE
8
0
10
21.900630
20
269.521223
30
0.0
11
21.900630
21
270.421223
31
0.0
0
ARC
8
0
10
22.200630
20
270.421223
30
0.0
40
0.300000
50
90.000000
51
180.000000
0
LINE
8
0
10
22.200630
20
270.721223
30
0.0
11
25.000630
21
270.721223
31
0.0
0
ARC
8
0
10
25.000630
20
271.021223
30
0.0
40
0.300000
50
270.000000
51
0.000000
0
LINE
8
0
10
25.300630
20
271.021223
30
0.0
11
25.300630
21
283.221223
31
0.0
0
ARC
8
0
10
24.800630
20
283.221223
30
0.0
40
0.500000
50
0.000000
51
90.000000
0
LINE
8
0
10
24.800630
20
283.721223
30
0.0
11
13.000630
21
283.721223
31
0.0
0
ARC
8
0
10
13.000630
20
283.221223
30
0.0
40
0.500000
50
90.000000
51
180.000000
0
LINE
8
0
10
12.500630
20
283.221223
30
0.0
11
12.500630
21
271.021223
31
0.0
0
ARC
8
0
10
12.800630
20
271.021223
30
0.0
40
0.300000
50
180.000000
51
270.000000
0
LINE
8
0
10
12.800630
20
270.721223
30
0.0
11
15.600630
21
270.721223
31
0.0
0
ARC
8
0
10
15.600630
20
270.421223
30
0.0
40
0.300000
50
0.000000
51
90.000000
0
LINE
8
0
10
15.900630
20
270.421223
30
0.0
11
15.900630
21
269.521223
31
0.0
0
ARC
8
0
10
15.600630
20
269.521223
30
0.0
40
0.300000
50
270.000000
51
0.000000
0
LINE
8
0
10
15.600630
20
269.221223
30
0.0
11
12.800630
21
269.221223
31
0.0
0
ARC
8
0
10
12.800630
20
268.921223
30
0.0
40
0.300000
50
90.000000
51
180.000000
0
LINE
8
0
10
12.500630
20
268.921223
30
0.0
11
12.500630
21
161.721223
31
0.0
0
LINE
8
0
10
12.500630
20
161.721223
30
0.0
11
13.200630
21
161.721223
31
0.0
0
ARC
8
0
10
13.200630
20
161.421223
30
0.0
40
0.300000
50
0.000000
51
90.000000
0
LINE
8
0
10
13.500630
20
161.421223
30
0.0
11
13.500630
21
160.021223
31
0.0
0
ARC
8
0
10
13.200630
20
160.021223
30
0.0
40
0.300000
50
270.000000
51
0.000000
0
LINE
8
0
10
13.200630
20
159.721223
30
0.0
11
12.500630
21
159.721223
31
0.0
0
LINE
8
0
10
12.500630
20
159.721223
30
0.0
11
12.500630
21
146.721223
31
0.0
0
LINE
8
0
10
12.500630
20
146.721223
30
0.0
11
13.200630
21
146.721223
31
0.0
0
ARC
8
0
10
13.200630
20
146.421223
30
0.0
40
0.300000
50
0.000000
51
90.000000
0
LINE
8
0
10
13.500630
20
146.421223
30
0.0
11
13.500630
21
145.021223
31
0.0
0
ARC
8
0
10
13.200630
20
145.021223
30
0.0
40
0.300000
50
270.000000
51
0.000000
0
LINE
8
0
10
13.200630
20
144.721223
30
0.0
11
12.500630
21
144.721223
31
0.0
0
LINE
8
0
10
12.500630
20
144.721223
30
0.0
11
12.500630
21
118.321223
31
0.0
0
ARC
8
0
10
12.800630
20
118.321223
30
0.0
40
0.300000
50
180.000000
51
270.000000
0
LINE
8
0
10
12.800630
20
118.021223
30
0.0
11
15.600630
21
118.021223
31
0.0
0
ARC
8
0
10
15.600630
20
117.721223
30
0.0
40
0.300000
50
0.000000
51
90.000000
0
LINE
8
0
10
15.900630
20
117.721223
30
0.0
11
15.900630
21
116.821223
31
0.0
0
ARC
8
0
10
15.600630
20
116.821223
30
0.0
40
0.300000
50
270.000000
51
0.000000
0
LINE
8
0
10
15.600630
20
116.521223
30
0.0
11
12.800630
21
116.521223
31
0.0
0
ARC
8
0
10
12.800630
20
116.221223
30
0.0
40
0.300000
50
90.000000
51
180.000000
0
LINE
8
0
10
12.500630
20
116.221223
30
0.0
11
12.500630
21
102.721223
31
0.0
0
ARC
8
0
10
13.000630
20
102.721223
30
0.0
40
0.500000
50
180.000000
51
270.000000
0
LINE
8
0
10
13.000630
20
102.221223
30
0.0
11
24.800630
21
102.221223
31
0.0
0
ARC
8
0
10
24.800630
20
102.721223
30
0.0
40
0.500000
50
270.000000
51
0.000000
0
LINE
8
0
10
25.300630
20
102.721223
30
0.0
11
25.300630
21
116.221223
31
0.0
0
ARC
8
0
10
25.000630
20
116.221223
30
0.0
40
0.300000
50
0.000000
51
90.000000
0
LINE
8
0
10
25.000630
20
116.521223
30
0.0
11
22.200630
21
116.521223
31
0.0
0
ARC
8
0
10
22.200630
20
116.821223
30
0.0
40
0.300000
50
180.000000
51
270.000000
0
LINE
8
0
10
21.900630
20
116.821223
30
0.0
11
21.900630
21
117.721223
31
0.0
0
ARC
8
0
10
22.200630
20
117.721223
30
0.0
40
0.300000
50
90.000000
51
180.000000
0
LINE
8
0
10
22.200630
20
118.021223
30
0.0
11
25.000630
21
118.021223
31
0.0
0
ARC
8
0
10
25.000630
20
118.321223
30
0.0
40
0.300000
50
270.000000
51
0.000000
0
LINE
8
0
10
25.300630
20
118.321223
30
0.0
11
25.300630
21
144.721223
31
0.0
0
LINE
8
0
10
25.300630
20
144.721223
30
0.0
11
24.600630
21
144.721223
31
0.0
0
ARC
8
0
10
24.600630
20
145.021223
30
0.0
40
0.300000
50
180.000000
51
270.000000
0
LINE
8
0
10
24.300630
20
145.021223
30
0.0
11
24.300630
21
146.421223
31
0.0
0
ARC
8
0
10
24.600630
20
146.421223
30
0.0
40
0.300000
50
90.000000
51
180.000000
0
LINE
8
0
10
24.600630
20
146.721223
30
0.0
11
25.300630
21
146.721223
31
0.0
0
LINE
8
0
10
25.300630
20
146.721223
30
0.0
11
25.300630
21
159.721223
31
0.0
0
LINE
8
0
10
25.300630
20
159.721223
30
0.0
11
24.600630
21
159.721223
31
0.0
0
ARC
8
0
10
24.600630
20
160.021223
30
0.0
40
0.300000
50
180.000000
51
270.000000
0
ATTDEF
8
0
10
-7.099370
20
67.221223
30
0.0
40
3.5
1

3

2
HC_START
70
0
0
ATTDEF
8
0
10
44.900630
20
67.221223
30
0.0
40
3.5
1

3

2
HC_END
70
0
0
ATTDEF
8
0
10
44.900630
20
50.221223
30
0.0
40
3.5
1

3

2
FP_LCS_ORIG
70
0
0
ATTDEF
8
0
10
44.900630
20
60.221223
30
0.0
40
3.5
1

3

2
FP_LCS_HOT
70
0
0
ATTDEF
8
0
10
34.900630
20
50.221223
30
0.0
40
3.5
1

3

2
FP_LCS_INTERN
70
0
0
ATTDEF
8
0
10
0.000000
20
0.000000
30
0.0
40
3.5
1

3

2
PANE_WIDTH:0
70
0
0
ATTDEF
8
0
10
0.000000
20
0.000000
30
0.0
40
3.5
1

3

2
MIN_VETRO:0
70
0
0
ATTDEF
8
0
10
0.000000
20
0.000000
30
0.0
40
3.5
1

3

2
MAX_VETRO:0
70
0
0
ATTDEF
8
0
10
0.000000
20
0.000000
30
0.0
40
3.5
1

3

2
JX:0
70
0
0
ATTDEF
8
0
10
0.000000
20
0.000000
30
0.0
40
3.5
1

3

2
WX:0
70
0
0
ATTDEF
8
0
10
0.000000
20
0.000000
30
0.0
40
3.5
1

3

2
JY:0
70
0
0
ATTDEF
8
0
10
0.000000
20
0.000000
30
0.0
40
3.5
1

3

2
WY:0
70
0
0
ATTDEF
8
0
10
0.000000
20
0.000000
30
0.0
40
3.5
1

3

2
DESC:MONTANTE T225
70
0
0
ATTDEF
8
0
10
0.000000
20
0.000000
30
0.0
40
3.5
1

3

2
DENS:4.7277
70
0
0
ATTDEF
8
0
10
0.000000
20
0.000000
30
0.0
40
3.5
1

3

2
TDEV:131.94
70
0
0
ATTDEF
8
0
10
0.000000
20
0.000000
30
0.0
40
3.5
1

3

2
TDEV2:0
70
0
0
ATTDEF
8
0
10
0.000000
20
0.000000
30
0.0
40
3.5
1

3

2
TDEV3:0
70
0
0
ATTDEF
8
0
10
0.000000
20
0.000000
30
0.0
40
3.5
1

3

2
TDEV4:0
70
0
0
ATTDEF
8
0
10
0.000000
20
0.000000
30
0.0
40
3.5
1

3

2
TDEV5:0
70
0
0
ATTDEF
8
0
10
0.000000
20
0.000000
30
0.0
40
3.5
1

3

2
PANE_WIDTH:0
70
0
0
ATTDEF
8
0
10
0.000000
20
0.000000
30
0.0
40
3.5
1

3

2
MIN_VETRO:0
70
0
0
ATTDEF
8
0
10
0.000000
20
0.000000
30
0.0
40
3.5
1

3

2
MAX_VETRO:0
70
0
0
ATTDEF
8
0
10
0.000000
20
0.000000
30
0.0
40
3.5
1

3

2
JX:0
70
0
0
ATTDEF
8
0
10
0.000000
20
0.000000
30
0.0
40
3.5
1

3

2
WX:0
70
0
0
ATTDEF
8
0
10
0.000000
20
0.000000
30
0.0
40
3.5
1

3

2
JY:0
70
0
0
ATTDEF
8
0
10
0.000000
20
0.000000
30
0.0
40
3.5
1

3

2
WY:0
70
0
0
ENDSEC
0
EOF
