0
SECTION
2
ENTITIES
0
LINE
8
0
10
3337.797671
20
1234.189050
30
0.0
11
3337.797671
21
1055.189059
31
0.0
0
LINE
8
0
10
3337.797671
20
1055.189059
30
0.0
11
3336.547671
21
1055.189059
31
0.0
0
LINE
8
0
10
3336.547671
20
1055.189059
30
0.0
11
3336.547671
21
1053.689059
31
0.0
0
LINE
8
0
10
3336.547671
20
1053.689059
30
0.0
11
3337.797671
21
1053.689059
31
0.0
0
LINE
8
0
10
3337.797671
20
1053.689059
30
0.0
11
3337.797671
21
1043.189068
31
0.0
0
ARC
8
0
10
3337.297671
20
1043.189068
30
0.0
40
0.500000
50
270.000000
51
0.000000
0
LINE
8
0
10
3337.297671
20
1042.689068
30
0.0
11
3292.297671
21
1042.689068
31
0.0
0
ARC
8
0
10
3292.297671
20
1043.189068
30
0.0
40
0.500000
50
180.000000
51
270.000000
0
LINE
8
0
10
3291.797671
20
1043.189068
30
0.0
11
3291.797671
21
1053.689059
31
0.0
0
LINE
8
0
10
3291.797671
20
1053.689059
30
0.0
11
3293.047671
21
1053.689059
31
0.0
0
LINE
8
0
10
3293.047671
20
1053.689059
30
0.0
11
3293.047671
21
1055.189059
31
0.0
0
LINE
8
0
10
3293.047671
20
1055.189059
30
0.0
11
3291.797671
21
1055.189059
31
0.0
0
LINE
8
0
10
3291.797671
20
1055.189059
30
0.0
11
3291.797671
21
1234.189050
31
0.0
0
LINE
8
0
10
3291.797671
20
1234.189050
30
0.0
11
3293.047671
21
1234.189050
31
0.0
0
LINE
8
0
10
3293.047671
20
1234.189050
30
0.0
11
3293.047671
21
1235.689059
31
0.0
0
LINE
8
0
10
3293.047671
20
1235.689059
30
0.0
11
3291.797671
21
1235.689059
31
0.0
0
LINE
8
0
10
3291.797671
20
1235.689059
30
0.0
11
3291.797671
21
1249.689059
31
0.0
0
ARC
8
0
10
3292.297671
20
1249.689059
30
0.0
40
0.500000
50
90.000000
51
180.000000
0
LINE
8
0
10
3292.297671
20
1250.189059
30
0.0
11
3299.597671
21
1250.189059
31
0.0
0
LINE
8
0
10
3299.597671
20
1250.189059
30
0.0
11
3300.697671
21
1246.689059
31
0.0
0
LINE
8
0
10
3300.697671
20
1246.689059
30
0.0
11
3301.797671
21
1246.689059
31
0.0
0
LINE
8
0
10
3301.797671
20
1246.689059
30
0.0
11
3301.797671
21
1250.189059
31
0.0
0
LINE
8
0
10
3301.797671
20
1250.189059
30
0.0
11
3327.797671
21
1250.189059
31
0.0
0
LINE
8
0
10
3327.797671
20
1250.189059
30
0.0
11
3327.797671
21
1246.689059
31
0.0
0
LINE
8
0
10
3327.797671
20
1246.689059
30
0.0
11
3328.897671
21
1246.689059
31
0.0
0
LINE
8
0
10
3328.897671
20
1246.689059
30
0.0
11
3329.997671
21
1250.189059
31
0.0
0
LINE
8
0
10
3329.997671
20
1250.189059
30
0.0
11
3337.297671
21
1250.189059
31
0.0
0
ARC
8
0
10
3337.297671
20
1249.689059
30
0.0
40
0.500000
50
0.000000
51
90.000000
0
LINE
8
0
10
3337.797671
20
1249.689059
30
0.0
11
3337.797671
21
1235.689059
31
0.0
0
LINE
8
0
10
3337.797671
20
1235.689059
30
0.0
11
3336.547671
21
1235.689054
31
0.0
0
LINE
8
0
10
3336.547671
20
1235.689054
30
0.0
11
3336.547681
21
1234.189054
31
0.0
0
LINE
8
0
10
3336.547681
20
1234.189054
30
0.0
11
3337.797671
21
1234.189050
31
0.0
0
LINE
8
0
10
3317.197672
20
1018.515845
30
0.0
11
3317.047672
21
1018.429242
31
0.0
0
ARC
8
0
10
3317.197672
20
1018.169435
30
0.0
40
0.300000
50
120.000000
51
180.000000
0
LINE
8
0
10
3316.897672
20
1018.169435
30
0.0
11
3316.897672
21
1017.408665
31
0.0
0
ARC
8
0
10
3317.197672
20
1017.408665
30
0.0
40
0.300000
50
180.000000
51
240.000000
0
LINE
8
0
10
3317.047672
20
1017.148857
30
0.0
11
3317.197672
21
1017.062255
31
0.0
0
ARC
8
0
10
3317.097672
20
1016.889050
30
0.0
40
0.200000
50
300.000000
51
60.000000
0
LINE
8
0
10
3317.197672
20
1016.715845
30
0.0
11
3317.047672
21
1016.629242
31
0.0
0
ARC
8
0
10
3317.197672
20
1016.369435
30
0.0
40
0.300000
50
120.000000
51
180.000000
0
LINE
8
0
10
3316.897672
20
1016.369435
30
0.0
11
3316.897672
21
1015.608665
31
0.0
0
ARC
8
0
10
3317.197672
20
1015.608665
30
0.0
40
0.300000
50
180.000000
51
240.000000
0
LINE
8
0
10
3317.047672
20
1015.348857
30
0.0
11
3317.197672
21
1015.262255
31
0.0
0
ARC
8
0
10
3317.097672
20
1015.089050
30
0.0
40
0.200000
50
300.000000
51
60.000000
0
LINE
8
0
10
3317.197672
20
1014.915845
30
0.0
11
3317.047672
21
1014.829242
31
0.0
0
ARC
8
0
10
3317.197672
20
1014.569435
30
0.0
40
0.300000
50
120.000000
51
180.000000
0
LINE
8
0
10
3316.897672
20
1014.569435
30
0.0
11
3316.897672
21
1013.808665
31
0.0
0
ARC
8
0
10
3317.197672
20
1013.808665
30
0.0
40
0.300000
50
180.000000
51
240.000000
0
LINE
8
0
10
3317.047672
20
1013.548857
30
0.0
11
3317.197672
21
1013.462255
31
0.0
0
ARC
8
0
10
3317.097672
20
1013.289050
30
0.0
40
0.200000
50
300.000000
51
60.000000
0
LINE
8
0
10
3317.197672
20
1013.115845
30
0.0
11
3317.047672
21
1013.029242
31
0.0
0
ARC
8
0
10
3317.197672
20
1012.769435
30
0.0
40
0.300000
50
120.000000
51
180.000000
0
LINE
8
0
10
3316.897672
20
1012.769435
30
0.0
11
3316.897672
21
1012.008665
31
0.0
0
ARC
8
0
10
3317.197672
20
1012.008665
30
0.0
40
0.300000
50
180.000000
51
240.000000
0
LINE
8
0
10
3317.047672
20
1011.748857
30
0.0
11
3317.197672
21
1011.662255
31
0.0
0
ARC
8
0
10
3317.097672
20
1011.489050
30
0.0
40
0.200000
50
300.000000
51
60.000000
0
LINE
8
0
10
3317.197672
20
1011.315845
30
0.0
11
3317.047672
21
1011.229242
31
0.0
0
ARC
8
0
10
3317.197672
20
1010.969435
30
0.0
40
0.300000
50
120.000000
51
198.712203
0
LINE
8
0
10
3316.913529
20
1010.873191
30
0.0
11
3318.097670
21
1009.689050
31
0.0
0
LINE
8
0
10
3318.097670
20
1009.689050
30
0.0
11
3319.797671
21
1009.689050
31
0.0
0
LINE
8
0
10
3319.797671
20
1009.689050
30
0.0
11
3319.797671
21
1038.689050
31
0.0
0
ARC
8
0
10
3320.797671
20
1038.689050
30
0.0
40
1.000000
50
90.000000
51
180.000000
0
LINE
8
0
10
3320.797671
20
1039.689050
30
0.0
11
3325.247671
21
1039.689050
31
0.0
0
LINE
8
0
10
3325.247671
20
1039.689050
30
0.0
11
3325.547671
21
1039.989050
31
0.0
0
LINE
8
0
10
3325.547671
20
1039.989050
30
0.0
11
3325.847671
21
1039.689050
31
0.0
0
LINE
8
0
10
3325.847671
20
1039.689050
30
0.0
11
3330.297671
21
1039.689050
31
0.0
0
ARC
8
0
10
3330.297671
20
1038.689050
30
0.0
40
1.000000
50
0.000000
51
90.000000
0
LINE
8
0
10
3331.297671
20
1038.689050
30
0.0
11
3331.297671
21
1026.689050
31
0.0
0
LINE
8
0
10
3331.297671
20
1026.689050
30
0.0
11
3333.987671
21
1026.689050
31
0.0
0
LINE
8
0
10
3333.987671
20
1026.689050
30
0.0
11
3334.487671
21
1027.189050
31
0.0
0
LINE
8
0
10
3334.487671
20
1027.189050
30
0.0
11
3334.487671
21
1027.689050
31
0.0
0
LINE
8
0
10
3334.487671
20
1027.689050
30
0.0
11
3333.487671
21
1027.689050
31
0.0
0
LINE
8
0
10
3333.487671
20
1027.689050
30
0.0
11
3333.487671
21
1028.622262
31
0.0
0
LINE
8
0
10
3333.487671
20
1028.622262
30
0.0
11
3334.487500
21
1029.618888
31
0.0
0
ARC
8
0
10
3334.187672
20
1029.629026
30
0.0
40
0.300000
50
358.063264
51
60.000000
0
LINE
8
0
10
3334.337671
20
1029.888834
30
0.0
11
3334.187672
21
1029.975436
31
0.0
0
ARC
8
0
10
3334.287672
20
1030.148641
30
0.0
40
0.200000
50
120.000000
51
240.000000
0
LINE
8
0
10
3334.187672
20
1030.321846
30
0.0
11
3334.337671
21
1030.408448
31
0.0
0
ARC
8
0
10
3334.187672
20
1030.668256
30
0.0
40
0.300000
50
300.000000
51
36.961974
0
ARC
8
0
10
3334.187672
20
1031.029026
30
0.0
40
0.300000
50
323.038026
51
60.000000
0
LINE
8
0
10
3334.337671
20
1031.288834
30
0.0
11
3334.187672
21
1031.375436
31
0.0
0
ARC
8
0
10
3334.287672
20
1031.548641
30
0.0
40
0.200000
50
120.000000
51
240.000000
0
LINE
8
0
10
3334.187672
20
1031.721846
30
0.0
11
3334.337671
21
1031.808448
31
0.0
0
ARC
8
0
10
3334.187672
20
1032.068256
30
0.0
40
0.300000
50
300.000000
51
36.961974
0
ARC
8
0
10
3334.187672
20
1032.429026
30
0.0
40
0.300000
50
323.038026
51
60.000000
0
LINE
8
0
10
3334.337671
20
1032.688834
30
0.0
11
3334.187672
21
1032.775436
31
0.0
0
ARC
8
0
10
3334.287672
20
1032.948641
30
0.0
40
0.200000
50
120.000000
51
240.000000
0
LINE
8
0
10
3334.187672
20
1033.121846
30
0.0
11
3334.337671
21
1033.208448
31
0.0
0
ARC
8
0
10
3334.187672
20
1033.468256
30
0.0
40
0.300000
50
300.000000
51
0.000000
0
LINE
8
0
10
3334.487671
20
1033.468256
30
0.0
11
3334.487671
21
1033.689050
31
0.0
0
LINE
8
0
10
3334.487671
20
1033.689050
30
0.0
11
3333.487671
21
1033.689050
31
0.0
0
LINE
8
0
10
3333.487671
20
1033.689050
30
0.0
11
3333.487671
21
1034.622262
31
0.0
0
LINE
8
0
10
3333.487671
20
1034.622262
30
0.0
11
3334.349687
21
1035.481516
31
0.0
0
LINE
8
0
10
3334.337671
20
1035.488834
30
0.0
11
3334.187672
21
1035.575436
31
0.0
0
ARC
8
0
10
3334.287672
20
1035.748641
30
0.0
40
0.200000
50
120.000000
51
240.000000
0
LINE
8
0
10
3334.187672
20
1035.921846
30
0.0
11
3334.337671
21
1036.008448
31
0.0
0
ARC
8
0
10
3334.187672
20
1036.268256
30
0.0
40
0.300000
50
300.000000
51
36.961974
0
ARC
8
0
10
3334.187672
20
1036.629026
30
0.0
40
0.300000
50
323.038026
51
60.000000
0
LINE
8
0
10
3334.337671
20
1036.888834
30
0.0
11
3334.187672
21
1036.975436
31
0.0
0
ARC
8
0
10
3334.287672
20
1037.148641
30
0.0
40
0.200000
50
120.000000
51
240.000000
0
LINE
8
0
10
3334.187672
20
1037.321846
30
0.0
11
3334.337671
21
1037.408448
31
0.0
0
ARC
8
0
10
3334.187672
20
1037.668256
30
0.0
40
0.300000
50
300.000000
51
0.000000
0
LINE
8
0
10
3334.487671
20
1037.668256
30
0.0
11
3334.487671
21
1038.129050
31
0.0
0
ARC
8
0
10
3336.047671
20
1038.129050
30
0.0
40
1.560000
50
7.689035
51
180.000000
0
ARC
8
0
10
3337.890948
20
1038.377911
30
0.0
40
0.300000
50
187.689035
51
240.000000
0
LINE
8
0
10
3337.740948
20
1038.118104
30
0.0
11
3337.907671
21
1038.021846
31
0.0
0
ARC
8
0
10
3337.807671
20
1037.848641
30
0.0
40
0.200000
50
300.000000
51
60.000000
0
LINE
8
0
10
3337.907671
20
1037.675436
30
0.0
11
3337.757671
21
1037.588834
31
0.0
0
ARC
8
0
10
3337.907671
20
1037.329026
30
0.0
40
0.300000
50
120.000000
51
216.961974
0
ARC
8
0
10
3337.907671
20
1036.968256
30
0.0
40
0.300000
50
143.038026
51
240.000000
0
LINE
8
0
10
3337.757671
20
1036.708448
30
0.0
11
3337.907671
21
1036.621846
31
0.0
0
ARC
8
0
10
3337.807671
20
1036.448641
30
0.0
40
0.200000
50
300.000000
51
60.000000
0
LINE
8
0
10
3337.907671
20
1036.275436
30
0.0
11
3337.757671
21
1036.188834
31
0.0
0
ARC
8
0
10
3337.907671
20
1035.929026
30
0.0
40
0.300000
50
120.000000
51
180.000000
0
LINE
8
0
10
3337.607671
20
1035.929026
30
0.0
11
3337.607671
21
1035.619058
31
0.0
0
LINE
8
0
10
3337.607671
20
1035.619058
30
0.0
11
3338.607671
21
1034.622262
31
0.0
0
LINE
8
0
10
3338.607671
20
1034.622262
30
0.0
11
3338.607671
21
1033.689050
31
0.0
0
LINE
8
0
10
3338.607671
20
1033.689050
30
0.0
11
3337.607671
21
1033.689050
31
0.0
0
LINE
8
0
10
3337.607671
20
1033.689050
30
0.0
11
3337.607671
21
1032.768256
31
0.0
0
ARC
8
0
10
3337.907671
20
1032.768256
30
0.0
40
0.300000
50
180.000000
51
240.000000
0
LINE
8
0
10
3337.757671
20
1032.508448
30
0.0
11
3337.907671
21
1032.421846
31
0.0
0
ARC
8
0
10
3337.807671
20
1032.248641
30
0.0
40
0.200000
50
300.000000
51
60.000000
0
LINE
8
0
10
3337.907671
20
1032.075436
30
0.0
11
3337.757671
21
1031.988834
31
0.0
0
ARC
8
0
10
3337.907671
20
1031.729026
30
0.0
40
0.300000
50
120.000000
51
216.961974
0
ARC
8
0
10
3337.907671
20
1031.368256
30
0.0
40
0.300000
50
143.038026
51
240.000000
0
LINE
8
0
10
3337.757671
20
1031.108448
30
0.0
11
3337.907671
21
1031.021846
31
0.0
0
ARC
8
0
10
3337.807671
20
1030.848641
30
0.0
40
0.200000
50
300.000000
51
60.000000
0
LINE
8
0
10
3337.907671
20
1030.675436
30
0.0
11
3337.757671
21
1030.588834
31
0.0
0
ARC
8
0
10
3337.907671
20
1030.329026
30
0.0
40
0.300000
50
120.000000
51
180.000000
0
LINE
8
0
10
3337.607671
20
1030.329026
30
0.0
11
3337.607671
21
1029.619058
31
0.0
0
LINE
8
0
10
3337.607671
20
1029.619058
30
0.0
11
3338.607671
21
1028.622262
31
0.0
0
LINE
8
0
10
3338.607671
20
1028.622262
30
0.0
11
3338.607671
21
1027.689050
31
0.0
0
LINE
8
0
10
3338.607671
20
1027.689050
30
0.0
11
3337.607671
21
1027.689050
31
0.0
0
LINE
8
0
10
3337.607671
20
1027.689050
30
0.0
11
3337.607671
21
1027.189050
31
0.0
0
LINE
8
0
10
3337.607671
20
1027.189050
30
0.0
11
3338.107671
21
1026.689050
31
0.0
0
LINE
8
0
10
3338.107671
20
1026.689050
30
0.0
11
3340.797671
21
1026.689050
31
0.0
0
LINE
8
0
10
3340.797671
20
1026.689050
30
0.0
11
3340.797671
21
1256.189059
31
0.0
0
ARC
8
0
10
3340.297671
20
1256.189059
30
0.0
40
0.500000
50
0.000000
51
90.000000
0
LINE
8
0
10
3340.297671
20
1256.689059
30
0.0
11
3289.297671
21
1256.689059
31
0.0
0
ARC
8
0
10
3289.297671
20
1256.189059
30
0.0
40
0.500000
50
90.000000
51
180.000000
0
LINE
8
0
10
3288.797671
20
1256.189059
30
0.0
11
3288.797671
21
1026.689050
31
0.0
0
LINE
8
0
10
3288.797671
20
1026.689050
30
0.0
11
3291.487671
21
1026.689050
31
0.0
0
LINE
8
0
10
3291.487671
20
1026.689050
30
0.0
11
3291.987671
21
1027.189050
31
0.0
0
LINE
8
0
10
3291.987671
20
1027.189050
30
0.0
11
3291.987671
21
1027.689050
31
0.0
0
LINE
8
0
10
3291.987671
20
1027.689050
30
0.0
11
3290.987671
21
1027.689050
31
0.0
0
LINE
8
0
10
3290.987671
20
1027.689050
30
0.0
11
3290.987671
21
1028.622262
31
0.0
0
LINE
8
0
10
3290.987671
20
1028.622262
30
0.0
11
3291.987671
21
1029.619058
31
0.0
0
LINE
8
0
10
3291.987671
20
1029.619058
30
0.0
11
3291.987671
21
1030.329026
31
0.0
0
ARC
8
0
10
3291.687672
20
1030.329026
30
0.0
40
0.300000
50
0.000000
51
60.000000
0
LINE
8
0
10
3291.837671
20
1030.588834
30
0.0
11
3291.687672
21
1030.675436
31
0.0
0
ARC
8
0
10
3291.787671
20
1030.848641
30
0.0
40
0.200000
50
120.000000
51
240.000000
0
LINE
8
0
10
3291.687672
20
1031.021846
30
0.0
11
3291.837671
21
1031.108448
31
0.0
0
ARC
8
0
10
3291.687672
20
1031.368256
30
0.0
40
0.300000
50
300.000000
51
36.961974
0
ARC
8
0
10
3291.687672
20
1031.729026
30
0.0
40
0.300000
50
323.038026
51
60.000000
0
LINE
8
0
10
3291.837671
20
1031.988834
30
0.0
11
3291.687672
21
1032.075436
31
0.0
0
ARC
8
0
10
3291.787671
20
1032.248641
30
0.0
40
0.200000
50
120.000000
51
240.000000
0
LINE
8
0
10
3291.687672
20
1032.421846
30
0.0
11
3291.837671
21
1032.508448
31
0.0
0
ARC
8
0
10
3291.687672
20
1032.768256
30
0.0
40
0.300000
50
300.000000
51
0.000000
0
LINE
8
0
10
3291.987671
20
1032.768256
30
0.0
11
3291.987671
21
1033.689050
31
0.0
0
LINE
8
0
10
3291.987671
20
1033.689050
30
0.0
11
3290.987671
21
1033.689050
31
0.0
0
LINE
8
0
10
3290.987671
20
1033.689050
30
0.0
11
3290.987671
21
1034.622262
31
0.0
0
LINE
8
0
10
3290.987671
20
1034.622262
30
0.0
11
3291.987671
21
1035.619058
31
0.0
0
LINE
8
0
10
3291.987671
20
1035.619058
30
0.0
11
3291.987671
21
1035.929026
31
0.0
0
ARC
8
0
10
3291.687672
20
1035.929026
30
0.0
40
0.300000
50
0.000000
51
60.000000
0
LINE
8
0
10
3291.837671
20
1036.188834
30
0.0
11
3291.687672
21
1036.275436
31
0.0
0
ARC
8
0
10
3291.787671
20
1036.448641
30
0.0
40
0.200000
50
120.000000
51
240.000000
0
LINE
8
0
10
3291.687672
20
1036.621846
30
0.0
11
3291.837671
21
1036.708448
31
0.0
0
ARC
8
0
10
3291.687672
20
1036.968256
30
0.0
40
0.300000
50
300.000000
51
36.961974
0
ARC
8
0
10
3291.687672
20
1037.329026
30
0.0
40
0.300000
50
323.038026
51
60.000000
0
LINE
8
0
10
3291.837671
20
1037.588834
30
0.0
11
3291.687672
21
1037.675436
31
0.0
0
ARC
8
0
10
3291.787671
20
1037.848641
30
0.0
40
0.200000
50
120.000000
51
240.000000
0
LINE
8
0
10
3291.687672
20
1038.021846
30
0.0
11
3291.854395
21
1038.118104
31
0.0
0
ARC
8
0
10
3291.704395
20
1038.377911
30
0.0
40
0.300000
50
300.000000
51
352.310965
0
ARC
8
0
10
3293.547671
20
1038.129050
30
0.0
40
1.560000
50
0.000000
51
172.310965
0
LINE
8
0
10
3295.107671
20
1038.129050
30
0.0
11
3295.107671
21
1037.668256
31
0.0
0
ARC
8
0
10
3295.407671
20
1037.668256
30
0.0
40
0.300000
50
180.000000
51
240.000000
0
LINE
8
0
10
3295.257671
20
1037.408448
30
0.0
11
3295.407671
21
1037.321846
31
0.0
0
ARC
8
0
10
3295.307671
20
1037.148641
30
0.0
40
0.200000
50
300.000000
51
60.000000
0
LINE
8
0
10
3295.407671
20
1036.975436
30
0.0
11
3295.257671
21
1036.888834
31
0.0
0
ARC
8
0
10
3295.407671
20
1036.629026
30
0.0
40
0.300000
50
120.000000
51
216.961974
0
ARC
8
0
10
3295.407671
20
1036.268256
30
0.0
40
0.300000
50
143.038026
51
240.000000
0
LINE
8
0
10
3295.257671
20
1036.008448
30
0.0
11
3295.407671
21
1035.921846
31
0.0
0
ARC
8
0
10
3295.307671
20
1035.748641
30
0.0
40
0.200000
50
300.000000
51
60.000000
0
LINE
8
0
10
3295.407671
20
1035.575436
30
0.0
11
3295.257671
21
1035.488834
31
0.0
0
LINE
8
0
10
3295.245656
20
1035.481516
30
0.0
11
3296.107671
21
1034.622262
31
0.0
0
LINE
8
0
10
3296.107671
20
1034.622262
30
0.0
11
3296.107671
21
1033.689050
31
0.0
0
LINE
8
0
10
3296.107671
20
1033.689050
30
0.0
11
3295.107671
21
1033.689050
31
0.0
0
LINE
8
0
10
3295.107671
20
1033.689050
30
0.0
11
3295.107671
21
1033.468256
31
0.0
0
ARC
8
0
10
3295.407671
20
1033.468256
30
0.0
40
0.300000
50
180.000000
51
240.000000
0
LINE
8
0
10
3295.257671
20
1033.208448
30
0.0
11
3295.407671
21
1033.121846
31
0.0
0
ARC
8
0
10
3295.307671
20
1032.948641
30
0.0
40
0.200000
50
300.000000
51
60.000000
0
LINE
8
0
10
3295.407671
20
1032.775436
30
0.0
11
3295.257671
21
1032.688834
31
0.0
0
ARC
8
0
10
3295.407671
20
1032.429026
30
0.0
40
0.300000
50
120.000000
51
216.961974
0
ARC
8
0
10
3295.407671
20
1032.068256
30
0.0
40
0.300000
50
143.038026
51
240.000000
0
LINE
8
0
10
3295.257671
20
1031.808448
30
0.0
11
3295.407671
21
1031.721846
31
0.0
0
ARC
8
0
10
3295.307671
20
1031.548641
30
0.0
40
0.200000
50
300.000000
51
60.000000
0
LINE
8
0
10
3295.407671
20
1031.375436
30
0.0
11
3295.257671
21
1031.288834
31
0.0
0
ARC
8
0
10
3295.407671
20
1031.029026
30
0.0
40
0.300000
50
120.000000
51
216.961974
0
ARC
8
0
10
3295.407671
20
1030.668256
30
0.0
40
0.300000
50
143.038026
51
240.000000
0
LINE
8
0
10
3295.257671
20
1030.408448
30
0.0
11
3295.407671
21
1030.321846
31
0.0
0
ARC
8
0
10
3295.307671
20
1030.148641
30
0.0
40
0.200000
50
300.000000
51
60.000000
0
LINE
8
0
10
3295.407671
20
1029.975436
30
0.0
11
3295.257671
21
1029.888834
31
0.0
0
ARC
8
0
10
3295.407671
20
1029.629026
30
0.0
40
0.300000
50
120.000000
51
181.936736
0
LINE
8
0
10
3295.107843
20
1029.618888
30
0.0
11
3296.107671
21
1028.622262
31
0.0
0
LINE
8
0
10
3296.107671
20
1028.622262
30
0.0
11
3296.107671
21
1027.689050
31
0.0
0
LINE
8
0
10
3296.107671
20
1027.689050
30
0.0
11
3295.107671
21
1027.689050
31
0.0
0
LINE
8
0
10
3295.107671
20
1027.689050
30
0.0
11
3295.107671
21
1027.189050
31
0.0
0
LINE
8
0
10
3295.107671
20
1027.189050
30
0.0
11
3295.607671
21
1026.689050
31
0.0
0
LINE
8
0
10
3295.607671
20
1026.689050
30
0.0
11
3298.297671
21
1026.689050
31
0.0
0
LINE
8
0
10
3298.297671
20
1026.689050
30
0.0
11
3298.297671
21
1038.689050
31
0.0
0
ARC
8
0
10
3299.297671
20
1038.689050
30
0.0
40
1.000000
50
90.000000
51
180.000000
0
LINE
8
0
10
3299.297671
20
1039.689050
30
0.0
11
3303.747671
21
1039.689050
31
0.0
0
LINE
8
0
10
3303.747671
20
1039.689050
30
0.0
11
3304.047671
21
1039.989050
31
0.0
0
LINE
8
0
10
3304.047671
20
1039.989050
30
0.0
11
3304.347671
21
1039.689050
31
0.0
0
LINE
8
0
10
3304.347671
20
1039.689050
30
0.0
11
3308.797671
21
1039.689050
31
0.0
0
ARC
8
0
10
3308.797671
20
1038.689050
30
0.0
40
1.000000
50
0.000000
51
90.000000
0
LINE
8
0
10
3309.797671
20
1038.689050
30
0.0
11
3309.797671
21
1009.689050
31
0.0
0
LINE
8
0
10
3309.797671
20
1009.689050
30
0.0
11
3311.497672
21
1009.689050
31
0.0
0
LINE
8
0
10
3311.497672
20
1009.689050
30
0.0
11
3312.697671
21
1010.889049
31
0.0
0
LINE
8
0
10
3312.697671
20
1010.889049
30
0.0
11
3312.697671
21
1011.869435
31
0.0
0
ARC
8
0
10
3312.397671
20
1011.869435
30
0.0
40
0.300000
50
0.000000
51
60.000000
0
LINE
8
0
10
3312.547671
20
1012.129242
30
0.0
11
3312.397671
21
1012.215845
31
0.0
0
ARC
8
0
10
3312.497671
20
1012.389050
30
0.0
40
0.200000
50
120.000000
51
240.000000
0
LINE
8
0
10
3312.397671
20
1012.562255
30
0.0
11
3312.547671
21
1012.648857
31
0.0
0
ARC
8
0
10
3312.397671
20
1012.908665
30
0.0
40
0.300000
50
300.000000
51
0.000000
0
LINE
8
0
10
3312.697671
20
1012.908665
30
0.0
11
3312.697671
21
1013.669435
31
0.0
0
ARC
8
0
10
3312.397671
20
1013.669435
30
0.0
40
0.300000
50
0.000000
51
60.000000
0
LINE
8
0
10
3312.547671
20
1013.929242
30
0.0
11
3312.397671
21
1014.015845
31
0.0
0
ARC
8
0
10
3312.497671
20
1014.189050
30
0.0
40
0.200000
50
120.000000
51
240.000000
0
LINE
8
0
10
3312.397671
20
1014.362255
30
0.0
11
3312.547671
21
1014.448857
31
0.0
0
ARC
8
0
10
3312.397671
20
1014.708665
30
0.0
40
0.300000
50
300.000000
51
0.000000
0
LINE
8
0
10
3312.697671
20
1014.708665
30
0.0
11
3312.697671
21
1015.469435
31
0.0
0
ARC
8
0
10
3312.397671
20
1015.469435
30
0.0
40
0.300000
50
0.000000
51
60.000000
0
LINE
8
0
10
3312.547671
20
1015.729242
30
0.0
11
3312.397671
21
1015.815845
31
0.0
0
ARC
8
0
10
3312.497671
20
1015.989050
30
0.0
40
0.200000
50
120.000000
51
240.000000
0
LINE
8
0
10
3312.397671
20
1016.162255
30
0.0
11
3312.547671
21
1016.248857
31
0.0
0
ARC
8
0
10
3312.397671
20
1016.508665
30
0.0
40
0.300000
50
300.000000
51
0.000000
0
LINE
8
0
10
3312.697671
20
1016.508665
30
0.0
11
3312.697671
21
1017.269435
31
0.0
0
ARC
8
0
10
3312.397671
20
1017.269435
30
0.0
40
0.300000
50
0.000000
51
60.000000
0
LINE
8
0
10
3312.547671
20
1017.529242
30
0.0
11
3312.397671
21
1017.615845
31
0.0
0
ARC
8
0
10
3312.497671
20
1017.789050
30
0.0
40
0.200000
50
120.000000
51
240.000000
0
LINE
8
0
10
3312.397671
20
1017.962255
30
0.0
11
3312.547671
21
1018.048857
31
0.0
0
ARC
8
0
10
3312.397671
20
1018.308665
30
0.0
40
0.300000
50
300.000000
51
0.000000
0
LINE
8
0
10
3312.697671
20
1018.308665
30
0.0
11
3312.697671
21
1019.069435
31
0.0
0
ARC
8
0
10
3312.397671
20
1019.069435
30
0.0
40
0.300000
50
0.000000
51
60.000000
0
LINE
8
0
10
3312.547671
20
1019.329242
30
0.0
11
3312.397671
21
1019.415845
31
0.0
0
ARC
8
0
10
3312.497671
20
1019.589050
30
0.0
40
0.200000
50
120.000000
51
240.000000
0
LINE
8
0
10
3312.397671
20
1019.762255
30
0.0
11
3312.547671
21
1019.848857
31
0.0
0
ARC
8
0
10
3312.397671
20
1020.108665
30
0.0
40
0.300000
50
300.000000
51
0.000000
0
LINE
8
0
10
3312.697671
20
1020.108665
30
0.0
11
3312.697671
21
1020.869435
31
0.0
0
ARC
8
0
10
3312.397671
20
1020.869435
30
0.0
40
0.300000
50
0.000000
51
60.000000
0
LINE
8
0
10
3312.547671
20
1021.129242
30
0.0
11
3312.397671
21
1021.215845
31
0.0
0
ARC
8
0
10
3312.497671
20
1021.389050
30
0.0
40
0.200000
50
120.000000
51
240.000000
0
LINE
8
0
10
3312.397671
20
1021.562255
30
0.0
11
3312.547671
21
1021.648857
31
0.0
0
ARC
8
0
10
3312.397431
20
1021.908807
30
0.0
40
0.300243
50
300.026110
51
0.000000
0
LINE
8
0
10
3312.697671
20
1021.907419
30
0.0
11
3312.697671
21
1022.589050
31
0.0
0
ARC
8
0
10
3314.197671
20
1022.589050
30
0.0
40
1.500000
50
90.000000
51
180.000000
0
LINE
8
0
10
3314.197671
20
1024.089050
30
0.0
11
3315.397672
21
1024.089050
31
0.0
0
ARC
8
0
10
3315.397672
20
1022.589050
30
0.0
40
1.500000
50
0.000000
51
90.000000
0
LINE
8
0
10
3316.897672
20
1022.589050
30
0.0
11
3316.897672
21
1021.008665
31
0.0
0
ARC
8
0
10
3317.197672
20
1021.008665
30
0.0
40
0.300000
50
180.000000
51
240.000000
0
LINE
8
0
10
3317.047672
20
1020.748857
30
0.0
11
3317.197672
21
1020.662255
31
0.0
0
ARC
8
0
10
3317.097672
20
1020.489050
30
0.0
40
0.200000
50
300.000000
51
60.000000
0
LINE
8
0
10
3317.197672
20
1020.315845
30
0.0
11
3317.047672
21
1020.229242
31
0.0
0
ARC
8
0
10
3317.197672
20
1019.969435
30
0.0
40
0.300000
50
120.000000
51
180.000000
0
LINE
8
0
10
3316.897672
20
1019.969435
30
0.0
11
3316.897672
21
1019.208665
31
0.0
0
ARC
8
0
10
3317.197672
20
1019.208665
30
0.0
40
0.300000
50
180.000000
51
240.000000
0
LINE
8
0
10
3317.047672
20
1018.948857
30
0.0
11
3317.197672
21
1018.862255
31
0.0
0
ARC
8
0
10
3317.097672
20
1018.689050
30
0.0
40
0.200000
50
300.000000
51
60.000000
0
ATTDEF
8
0
10
3288.797671
20
1026.689050
30
0.0
40
3.5
1

3

2
HC_START
70
0
0
ATTDEF
8
0
10
3340.797671
20
1026.689050
30
0.0
40
3.5
1

3

2
HC_END
70
0
0
ATTDEF
8
0
10
3340.797671
20
1256.689050
30
0.0
40
3.5
1

3

2
PTO_ANTA
70
0
0
ATTDEF
8
0
10
3340.797671
20
1009.689050
30
0.0
40
3.5
1

3

2
FRONT_VIEW
70
0
0
ATTDEF
8
0
10
3340.797671
20
1009.689050
30
0.0
40
3.5
1

3

2
OPTI:500.000000,1,0,3000.000000,6500.000000,500.000000,0,0.000000,0
70
0
0
ATTDEF
8
0
10
3340.797671
20
1009.689050
30
0.0
40
3.5
1

3

2
GLASS_MIN:0.000000
70
0
0
ATTDEF
8
0
10
3340.797671
20
1009.689050
30
0.0
40
3.5
1

3

2
GLASS_MAX:0.000000
70
0
0
ATTDEF
8
0
10
3340.797671
20
1009.689050
30
0.0
40
3.5
1

3

2
PTO_DIST|1|0.00|-21.00
70
0
0
ATTDEF
8
0
10
3340.797671
20
1009.689050
30
0.0
40
3.5
1

3

2
FP_LCS_ORIG
70
0
0
ATTDEF
8
0
10
3340.797671
20
1019.689050
30
0.0
40
3.5
1

3

2
FP_LCS_HOT
70
0
0
ATTDEF
8
0
10
3330.797671
20
1009.689050
30
0.0
40
3.5
1

3

2
FP_LCS_INTERN
70
0
0
ATTDEF
8
0
10
0.000000
20
0.000000
30
0.0
40
3.5
1

3

2
TDEV4:0
70
0
0
ATTDEF
8
0
10
0.000000
20
0.000000
30
0.0
40
3.5
1

3

2
TDEV5:0
70
0
0
ATTDEF
8
0
10
0.000000
20
0.000000
30
0.0
40
3.5
1

3

2
PANE_WIDTH:0
70
0
0
ATTDEF
8
0
10
0.000000
20
0.000000
30
0.0
40
3.5
1

3

2
MIN_VETRO:0
70
0
0
ATTDEF
8
0
10
0.000000
20
0.000000
30
0.0
40
3.5
1

3

2
MAX_VETRO:0
70
0
0
ATTDEF
8
0
10
0.000000
20
0.000000
30
0.0
40
3.5
1

3

2
JX:0
70
0
0
ATTDEF
8
0
10
0.000000
20
0.000000
30
0.0
40
3.5
1

3

2
WX:0
70
0
0
ATTDEF
8
0
10
0.000000
20
0.000000
30
0.0
40
3.5
1

3

2
JY:0
70
0
0
ATTDEF
8
0
10
0.000000
20
0.000000
30
0.0
40
3.5
1

3

2
WY:0
70
0
0
ATTDEF
8
0
10
0.000000
20
0.000000
30
0.0
40
3.5
1

3

2
DESC:Montante de 52x247(230)mm
70
0
0
ATTDEF
8
0
10
0.000000
20
0.000000
30
0.0
40
3.5
1

3

2
DENS:5.8023
70
0
0
ATTDEF
8
0
10
0.000000
20
0.000000
30
0.0
40
3.5
1

3

2
TDEV:127.35
70
0
0
ATTDEF
8
0
10
0.000000
20
0.000000
30
0.0
40
3.5
1

3

2
TDEV2:0
70
0
0
ATTDEF
8
0
10
0.000000
20
0.000000
30
0.0
40
3.5
1

3

2
TDEV3:0
70
0
0
ATTDEF
8
0
10
0.000000
20
0.000000
30
0.0
40
3.5
1

3

2
TDEV4:0
70
0
0
ATTDEF
8
0
10
0.000000
20
0.000000
30
0.0
40
3.5
1

3

2
TDEV5:0
70
0
0
ATTDEF
8
0
10
0.000000
20
0.000000
30
0.0
40
3.5
1

3

2
PANE_WIDTH:0
70
0
0
ATTDEF
8
0
10
0.000000
20
0.000000
30
0.0
40
3.5
1

3

2
MIN_VETRO:0
70
0
0
ATTDEF
8
0
10
0.000000
20
0.000000
30
0.0
40
3.5
1

3

2
MAX_VETRO:0
70
0
0
ATTDEF
8
0
10
0.000000
20
0.000000
30
0.0
40
3.5
1

3

2
JX:0
70
0
0
ATTDEF
8
0
10
0.000000
20
0.000000
30
0.0
40
3.5
1

3

2
WX:0
70
0
0
ATTDEF
8
0
10
0.000000
20
0.000000
30
0.0
40
3.5
1

3

2
JY:0
70
0
0
ATTDEF
8
0
10
0.000000
20
0.000000
30
0.0
40
3.5
1

3

2
WY:0
70
0
0
ENDSEC
0
EOF
