0
SECTION
2
ENTITIES
0
LINE
8
0
10
263.948623
20
-4.314176
30
0.0
11
266.747470
21
-4.314176
31
0.0
0
LINE
8
0
10
266.747470
20
-4.314176
30
0.0
11
266.747470
21
-7.914176
31
0.0
0
LINE
8
0
10
266.747470
20
-7.914176
30
0.0
11
187.547470
21
-7.914176
31
0.0
0
LINE
8
0
10
187.547470
20
-7.914176
30
0.0
11
187.547470
21
-4.314176
31
0.0
0
LINE
8
0
10
187.547470
20
-4.314176
30
0.0
11
190.346316
21
-4.314176
31
0.0
0
LINE
8
0
10
190.346316
20
-4.314176
30
0.0
11
190.346316
21
-2.914176
31
0.0
0
LINE
8
0
10
190.346316
20
-2.914176
30
0.0
11
187.547470
21
-2.914176
31
0.0
0
LINE
8
0
10
187.547470
20
-2.914176
30
0.0
11
187.547470
21
0.339414
31
0.0
0
LINE
8
0
10
187.547470
20
0.339414
30
0.0
11
188.274265
21
0.759029
31
0.0
0
LINE
8
0
10
188.274265
20
0.759029
30
0.0
11
187.547470
21
2.017875
31
0.0
0
LINE
8
0
10
187.547470
20
2.017875
30
0.0
11
187.547470
21
9.685824
31
0.0
0
LINE
8
0
10
187.547470
20
9.685824
30
0.0
11
186.147470
21
9.685824
31
0.0
0
LINE
8
0
10
186.147470
20
9.685824
30
0.0
11
186.147470
21
-8.314176
31
0.0
0
ARC
8
0
10
187.147470
20
-8.314176
30
0.0
40
1.000000
50
180.000000
51
270.000000
0
LINE
8
0
10
187.147470
20
-9.314176
30
0.0
11
267.147470
21
-9.314176
31
0.0
0
ARC
8
0
10
267.147470
20
-8.314176
30
0.0
40
1.000000
50
270.000000
51
0.000000
0
LINE
8
0
10
268.147470
20
-8.314176
30
0.0
11
268.147470
21
9.685824
31
0.0
0
LINE
8
0
10
268.147470
20
9.685824
30
0.0
11
266.747470
21
9.685824
31
0.0
0
LINE
8
0
10
266.747470
20
9.685824
30
0.0
11
266.747470
21
2.017875
31
0.0
0
LINE
8
0
10
266.747470
20
2.017875
30
0.0
11
266.020675
21
0.759029
31
0.0
0
LINE
8
0
10
266.020675
20
0.759029
30
0.0
11
266.747470
21
0.339414
31
0.0
0
LINE
8
0
10
266.747470
20
0.339414
30
0.0
11
266.747470
21
-2.914176
31
0.0
0
LINE
8
0
10
266.747470
20
-2.914176
30
0.0
11
263.948623
21
-2.914176
31
0.0
0
LINE
8
0
10
263.948623
20
-2.914176
30
0.0
11
263.948623
21
-4.314176
31
0.0
0
ATTDEF
8
0
10
186.147470
20
9.685824
30
0.0
40
3.5
1

3

2
HC_START
70
0
0
ATTDEF
8
0
10
268.147470
20
9.685824
30
0.0
40
3.5
1

3

2
HC_END
70
0
0
ATTDEF
8
0
10
268.147470
20
-9.314176
30
0.0
40
3.5
1

3

2
PTO_PRESS|1|19.00|-2.00
70
0
0
ATTDEF
8
0
10
268.147470
20
-9.314176
30
0.0
40
3.5
1

3

2
FRONT_VIEW
70
0
0
ATTDEF
8
0
10
268.147470
20
-9.314176
30
0.0
40
3.5
1

3

2
OPTI:500.000000,1,0,3000.000000,6500.000000,500.000000,0,0.000000,0
70
0
0
ATTDEF
8
0
10
268.147470
20
-9.314176
30
0.0
40
3.5
1

3

2
GLASS_MIN:0.000000
70
0
0
ATTDEF
8
0
10
268.147470
20
-9.314176
30
0.0
40
3.5
1

3

2
GLASS_MAX:0.000000
70
0
0
ATTDEF
8
0
10
268.147470
20
-9.314176
30
0.0
40
3.5
1

3

2
FP_LCS_ORIG
70
0
0
ATTDEF
8
0
10
268.147470
20
0.685824
30
0.0
40
3.5
1

3

2
FP_LCS_HOT
70
0
0
ATTDEF
8
0
10
258.147470
20
-9.314176
30
0.0
40
3.5
1

3

2
FP_LCS_INTERN
70
0
0
ATTDEF
8
0
10
0.000000
20
0.000000
30
0.0
40
3.5
1

3

2
TDEV4:0
70
0
0
ATTDEF
8
0
10
0.000000
20
0.000000
30
0.0
40
3.5
1

3

2
TDEV5:0
70
0
0
ATTDEF
8
0
10
0.000000
20
0.000000
30
0.0
40
3.5
1

3

2
PANE_WIDTH:0
70
0
0
ATTDEF
8
0
10
0.000000
20
0.000000
30
0.0
40
3.5
1

3

2
MIN_VETRO:0
70
0
0
ATTDEF
8
0
10
0.000000
20
0.000000
30
0.0
40
3.5
1

3

2
MAX_VETRO:0
70
0
0
ATTDEF
8
0
10
0.000000
20
0.000000
30
0.0
40
3.5
1

3

2
JX:0
70
0
0
ATTDEF
8
0
10
0.000000
20
0.000000
30
0.0
40
3.5
1

3

2
WX:0
70
0
0
ATTDEF
8
0
10
0.000000
20
0.000000
30
0.0
40
3.5
1

3

2
JY:0
70
0
0
ATTDEF
8
0
10
0.000000
20
0.000000
30
0.0
40
3.5
1

3

2
WY:0
70
0
0
ATTDEF
8
0
10
0.000000
20
0.000000
30
0.0
40
3.5
1

3

2
DESC:Tapeta de 82x19mm
70
0
0
ATTDEF
8
0
10
0.000000
20
0.000000
30
0.0
40
3.5
1

3

2
DENS:0.4671
70
0
0
ATTDEF
8
0
10
0.000000
20
0.000000
30
0.0
40
3.5
1

3

2
TDEV:24.88
70
0
0
ATTDEF
8
0
10
0.000000
20
0.000000
30
0.0
40
3.5
1

3

2
TDEV2:0
70
0
0
ATTDEF
8
0
10
0.000000
20
0.000000
30
0.0
40
3.5
1

3

2
TDEV3:0
70
0
0
ATTDEF
8
0
10
0.000000
20
0.000000
30
0.0
40
3.5
1

3

2
TDEV4:0
70
0
0
ATTDEF
8
0
10
0.000000
20
0.000000
30
0.0
40
3.5
1

3

2
TDEV5:0
70
0
0
ATTDEF
8
0
10
0.000000
20
0.000000
30
0.0
40
3.5
1

3

2
PANE_WIDTH:0
70
0
0
ATTDEF
8
0
10
0.000000
20
0.000000
30
0.0
40
3.5
1

3

2
MIN_VETRO:0
70
0
0
ATTDEF
8
0
10
0.000000
20
0.000000
30
0.0
40
3.5
1

3

2
MAX_VETRO:0
70
0
0
ATTDEF
8
0
10
0.000000
20
0.000000
30
0.0
40
3.5
1

3

2
JX:0
70
0
0
ATTDEF
8
0
10
0.000000
20
0.000000
30
0.0
40
3.5
1

3

2
WX:0
70
0
0
ATTDEF
8
0
10
0.000000
20
0.000000
30
0.0
40
3.5
1

3

2
JY:0
70
0
0
ATTDEF
8
0
10
0.000000
20
0.000000
30
0.0
40
3.5
1

3

2
WY:0
70
0
0
ENDSEC
0
EOF
