0
SECTION
2
ENTITIES
0
LINE
8
0
10
3303.876053
20
1204.450623
30
0.0
11
3303.876053
21
1205.672876
31
0.0
0
LINE
8
0
10
3303.876053
20
1205.672876
30
0.0
11
3304.776053
21
1205.672876
31
0.0
0
ARC
8
0
10
3304.776053
20
1205.772876
30
0.0
40
0.100000
50
270.000000
51
0.000000
0
LINE
8
0
10
3304.876053
20
1205.772876
30
0.0
11
3304.876053
21
1206.172876
31
0.0
0
LINE
8
0
10
3304.876053
20
1206.172876
30
0.0
11
3304.376053
21
1206.672876
31
0.0
0
LINE
8
0
10
3304.376053
20
1206.672876
30
0.0
11
3303.376053
21
1206.672876
31
0.0
0
ARC
8
0
10
3303.376053
20
1206.172876
30
0.0
40
0.500000
50
90.000000
51
180.000000
0
LINE
8
0
10
3302.876053
20
1206.172876
30
0.0
11
3302.876053
21
1204.272866
31
0.0
0
LINE
8
0
10
3302.876053
20
1204.272866
30
0.0
11
3301.956053
21
1204.272866
31
0.0
0
LINE
8
0
10
3301.956053
20
1204.272866
30
0.0
11
3301.956053
21
1204.822866
31
0.0
0
ARC
8
0
10
3301.706053
20
1204.822866
30
0.0
40
0.250000
50
0.000000
51
90.000000
0
LINE
8
0
10
3301.706053
20
1205.072866
30
0.0
11
3301.206053
21
1205.072866
31
0.0
0
ARC
8
0
10
3301.206053
20
1204.822866
30
0.0
40
0.250000
50
90.000000
51
180.000000
0
LINE
8
0
10
3300.956053
20
1204.822866
30
0.0
11
3300.956053
21
1204.522866
31
0.0
0
ARC
8
0
10
3300.706053
20
1204.522866
30
0.0
40
0.250000
50
270.000000
51
0.000000
0
LINE
8
0
10
3300.706053
20
1204.272866
30
0.0
11
3297.666053
21
1204.272866
31
0.0
0
LINE
8
0
10
3297.666053
20
1204.272866
30
0.0
11
3297.666053
21
1180.272866
31
0.0
0
LINE
8
0
10
3297.666053
20
1180.272866
30
0.0
11
3300.356053
21
1180.272866
31
0.0
0
LINE
8
0
10
3300.356053
20
1180.272866
30
0.0
11
3300.856053
21
1180.772866
31
0.0
0
LINE
8
0
10
3300.856053
20
1180.772866
30
0.0
11
3300.856053
21
1181.272866
31
0.0
0
LINE
8
0
10
3300.856053
20
1181.272866
30
0.0
11
3298.666053
21
1181.272866
31
0.0
0
LINE
8
0
10
3298.666053
20
1181.272866
30
0.0
11
3298.666053
21
1183.772866
31
0.0
0
LINE
8
0
10
3298.666053
20
1183.772866
30
0.0
11
3302.062499
21
1187.169313
31
0.0
0
ARC
8
0
10
3302.416053
20
1186.815760
30
0.0
40
0.500000
50
45.000000
51
135.000000
0
LINE
8
0
10
3302.769606
20
1187.169313
30
0.0
11
3306.166053
21
1183.772866
31
0.0
0
LINE
8
0
10
3306.166053
20
1183.772866
30
0.0
11
3306.166053
21
1181.272866
31
0.0
0
LINE
8
0
10
3306.166053
20
1181.272866
30
0.0
11
3303.976053
21
1181.272866
31
0.0
0
LINE
8
0
10
3303.976053
20
1181.272866
30
0.0
11
3303.976053
21
1180.772866
31
0.0
0
LINE
8
0
10
3303.976053
20
1180.772866
30
0.0
11
3304.476053
21
1180.272866
31
0.0
0
LINE
8
0
10
3304.476053
20
1180.272866
30
0.0
11
3307.166053
21
1180.272866
31
0.0
0
LINE
8
0
10
3307.166053
20
1180.272866
30
0.0
11
3307.166053
21
1204.272866
31
0.0
0
LINE
8
0
10
3307.166053
20
1204.272866
30
0.0
11
3304.076053
21
1204.272866
31
0.0
0
ARC
8
0
10
3304.076053
20
1204.472866
30
0.0
40
0.200000
50
180.000000
51
270.000000
0
LINE
8
0
10
3303.876053
20
1204.472866
30
0.0
11
3303.876053
21
1204.450623
31
0.0
0
LINE
8
0
10
3306.166053
20
1192.772866
30
0.0
11
3302.769606
21
1196.169313
31
0.0
0
ARC
8
0
10
3302.416053
20
1195.815760
30
0.0
40
0.500000
50
45.000000
51
135.000000
0
LINE
8
0
10
3302.062499
20
1196.169313
30
0.0
11
3298.666053
21
1192.772866
31
0.0
0
LINE
8
0
10
3298.666053
20
1192.772866
30
0.0
11
3298.666053
21
1185.428501
31
0.0
0
ARC
8
0
10
3298.766053
20
1185.428501
30
0.0
40
0.100000
50
180.000000
51
315.000000
0
LINE
8
0
10
3298.836764
20
1185.357791
30
0.0
11
3301.355393
21
1187.876420
31
0.0
0
ARC
8
0
10
3302.416053
20
1186.815760
30
0.0
40
1.500000
50
45.000000
51
135.000000
0
LINE
8
0
10
3303.476713
20
1187.876420
30
0.0
11
3305.995342
21
1185.357791
31
0.0
0
ARC
8
0
10
3306.066053
20
1185.428501
30
0.0
40
0.100000
50
225.000000
51
0.000000
0
LINE
8
0
10
3306.166053
20
1185.428501
30
0.0
11
3306.166053
21
1192.772866
31
0.0
0
LINE
8
0
10
3306.166053
20
1194.428501
30
0.0
11
3306.166053
21
1203.272866
31
0.0
0
LINE
8
0
10
3306.166053
20
1203.272866
30
0.0
11
3302.666053
21
1203.272866
31
0.0
0
LINE
8
0
10
3302.666053
20
1203.272866
30
0.0
11
3302.416053
21
1203.472863
31
0.0
0
LINE
8
0
10
3302.416053
20
1203.472863
30
0.0
11
3302.166053
21
1203.272866
31
0.0
0
LINE
8
0
10
3302.166053
20
1203.272866
30
0.0
11
3298.666053
21
1203.272866
31
0.0
0
LINE
8
0
10
3298.666053
20
1203.272866
30
0.0
11
3298.666053
21
1194.428501
31
0.0
0
ARC
8
0
10
3298.766053
20
1194.428501
30
0.0
40
0.100000
50
180.000000
51
315.000000
0
LINE
8
0
10
3298.836764
20
1194.357791
30
0.0
11
3301.355393
21
1196.876420
31
0.0
0
ARC
8
0
10
3302.416053
20
1195.815760
30
0.0
40
1.500000
50
45.000000
51
135.000000
0
LINE
8
0
10
3303.476713
20
1196.876420
30
0.0
11
3305.995342
21
1194.357791
31
0.0
0
ARC
8
0
10
3306.066053
20
1194.428501
30
0.0
40
0.100000
50
225.000000
51
0.000000
0
ATTDEF
8
0
10
0.000000
20
0.000000
30
0.0
40
3.5
1

3

2
PANE_WIDTH:0
70
0
0
ATTDEF
8
0
10
0.000000
20
0.000000
30
0.0
40
3.5
1

3

2
MIN_VETRO:0
70
0
0
ATTDEF
8
0
10
0.000000
20
0.000000
30
0.0
40
3.5
1

3

2
MAX_VETRO:0
70
0
0
ATTDEF
8
0
10
0.000000
20
0.000000
30
0.0
40
3.5
1

3

2
JX:0
70
0
0
ATTDEF
8
0
10
0.000000
20
0.000000
30
0.0
40
3.5
1

3

2
WX:0
70
0
0
ATTDEF
8
0
10
0.000000
20
0.000000
30
0.0
40
3.5
1

3

2
JY:0
70
0
0
ATTDEF
8
0
10
0.000000
20
0.000000
30
0.0
40
3.5
1

3

2
WY:0
70
0
0
ATTDEF
8
0
10
0.000000
20
0.000000
30
0.0
40
3.5
1

3

2
DESC:Reductor de galce 24mm
70
0
0
ATTDEF
8
0
10
0.000000
20
0.000000
30
0.0
40
3.5
1

3

2
DENS:0.2268
70
0
0
ATTDEF
8
0
10
0.000000
20
0.000000
30
0.0
40
3.5
1

3

2
TDEV:16.28
70
0
0
ATTDEF
8
0
10
0.000000
20
0.000000
30
0.0
40
3.5
1

3

2
TDEV2:0
70
0
0
ATTDEF
8
0
10
0.000000
20
0.000000
30
0.0
40
3.5
1

3

2
TDEV3:0
70
0
0
ATTDEF
8
0
10
0.000000
20
0.000000
30
0.0
40
3.5
1

3

2
TDEV4:0
70
0
0
ATTDEF
8
0
10
0.000000
20
0.000000
30
0.0
40
3.5
1

3

2
TDEV5:0
70
0
0
ATTDEF
8
0
10
0.000000
20
0.000000
30
0.0
40
3.5
1

3

2
PANE_WIDTH:0
70
0
0
ATTDEF
8
0
10
0.000000
20
0.000000
30
0.0
40
3.5
1

3

2
MIN_VETRO:0
70
0
0
ATTDEF
8
0
10
0.000000
20
0.000000
30
0.0
40
3.5
1

3

2
MAX_VETRO:0
70
0
0
ATTDEF
8
0
10
0.000000
20
0.000000
30
0.0
40
3.5
1

3

2
JX:0
70
0
0
ATTDEF
8
0
10
0.000000
20
0.000000
30
0.0
40
3.5
1

3

2
WX:0
70
0
0
ATTDEF
8
0
10
0.000000
20
0.000000
30
0.0
40
3.5
1

3

2
JY:0
70
0
0
ATTDEF
8
0
10
0.000000
20
0.000000
30
0.0
40
3.5
1

3

2
WY:0
70
0
0
ENDSEC
0
EOF
