0
SECTION
2
ENTITIES
0
LINE
8
0
10
224.500000
20
3.000000
30
0.0
11
45.500009
21
3.000000
31
0.0
0
LINE
8
0
10
45.500009
20
3.000000
30
0.0
11
45.500009
21
4.250000
31
0.0
0
LINE
8
0
10
45.500009
20
4.250000
30
0.0
11
44.000009
21
4.250000
31
0.0
0
LINE
8
0
10
44.000009
20
4.250000
30
0.0
11
44.000009
21
3.000000
31
0.0
0
LINE
8
0
10
44.000009
20
3.000000
30
0.0
11
33.500018
21
3.000000
31
0.0
0
ARC
8
0
10
33.500018
20
3.500000
30
0.0
40
0.500000
50
180.000000
51
270.000000
0
LINE
8
0
10
33.000018
20
3.500000
30
0.0
11
33.000018
21
48.500000
31
0.0
0
ARC
8
0
10
33.500018
20
48.500000
30
0.0
40
0.500000
50
90.000000
51
180.000000
0
LINE
8
0
10
33.500018
20
49.000000
30
0.0
11
44.000009
21
49.000000
31
0.0
0
LINE
8
0
10
44.000009
20
49.000000
30
0.0
11
44.000009
21
47.750000
31
0.0
0
LINE
8
0
10
44.000009
20
47.750000
30
0.0
11
45.500009
21
47.750000
31
0.0
0
LINE
8
0
10
45.500009
20
47.750000
30
0.0
11
45.500009
21
49.000000
31
0.0
0
LINE
8
0
10
45.500009
20
49.000000
30
0.0
11
224.500000
21
49.000000
31
0.0
0
LINE
8
0
10
224.500000
20
49.000000
30
0.0
11
224.500000
21
47.750000
31
0.0
0
LINE
8
0
10
224.500000
20
47.750000
30
0.0
11
226.000009
21
47.750000
31
0.0
0
LINE
8
0
10
226.000009
20
47.750000
30
0.0
11
226.000009
21
49.000000
31
0.0
0
LINE
8
0
10
226.000009
20
49.000000
30
0.0
11
240.000009
21
49.000000
31
0.0
0
ARC
8
0
10
240.000009
20
48.500000
30
0.0
40
0.500000
50
0.000000
51
90.000000
0
LINE
8
0
10
240.500009
20
48.500000
30
0.0
11
240.500009
21
41.200000
31
0.0
0
LINE
8
0
10
240.500009
20
41.200000
30
0.0
11
237.000009
21
40.100000
31
0.0
0
LINE
8
0
10
237.000009
20
40.100000
30
0.0
11
237.000009
21
39.000000
31
0.0
0
LINE
8
0
10
237.000009
20
39.000000
30
0.0
11
240.500009
21
39.000000
31
0.0
0
LINE
8
0
10
240.500009
20
39.000000
30
0.0
11
240.500009
21
13.000000
31
0.0
0
LINE
8
0
10
240.500009
20
13.000000
30
0.0
11
237.000009
21
13.000000
31
0.0
0
LINE
8
0
10
237.000009
20
13.000000
30
0.0
11
237.000009
21
11.900000
31
0.0
0
LINE
8
0
10
237.000009
20
11.900000
30
0.0
11
240.500009
21
10.800000
31
0.0
0
LINE
8
0
10
240.500009
20
10.800000
30
0.0
11
240.500009
21
3.500000
31
0.0
0
ARC
8
0
10
240.000009
20
3.500000
30
0.0
40
0.500000
50
270.000000
51
0.000000
0
LINE
8
0
10
240.000009
20
3.000000
30
0.0
11
226.000009
21
3.000000
31
0.0
0
LINE
8
0
10
226.000009
20
3.000000
30
0.0
11
226.000004
21
4.250000
31
0.0
0
LINE
8
0
10
226.000004
20
4.250000
30
0.0
11
224.500004
21
4.249990
31
0.0
0
LINE
8
0
10
224.500004
20
4.249990
30
0.0
11
224.500000
21
3.000000
31
0.0
0
LINE
8
0
10
8.826795
20
23.599999
30
0.0
11
8.740192
21
23.749999
31
0.0
0
ARC
8
0
10
8.480385
20
23.599999
30
0.0
40
0.300000
50
30.000000
51
90.000000
0
LINE
8
0
10
8.480385
20
23.899999
30
0.0
11
7.719615
21
23.899999
31
0.0
0
ARC
8
0
10
7.719615
20
23.599999
30
0.0
40
0.300000
50
90.000000
51
150.000000
0
LINE
8
0
10
7.459807
20
23.749999
30
0.0
11
7.373205
21
23.599999
31
0.0
0
ARC
8
0
10
7.200000
20
23.699999
30
0.0
40
0.200000
50
210.000000
51
330.000000
0
LINE
8
0
10
7.026795
20
23.599999
30
0.0
11
6.940192
21
23.749999
31
0.0
0
ARC
8
0
10
6.680385
20
23.599999
30
0.0
40
0.300000
50
30.000000
51
90.000000
0
LINE
8
0
10
6.680385
20
23.899999
30
0.0
11
5.919615
21
23.899999
31
0.0
0
ARC
8
0
10
5.919615
20
23.599999
30
0.0
40
0.300000
50
90.000000
51
150.000000
0
LINE
8
0
10
5.659807
20
23.749999
30
0.0
11
5.573205
21
23.599999
31
0.0
0
ARC
8
0
10
5.400000
20
23.699999
30
0.0
40
0.200000
50
210.000000
51
330.000000
0
LINE
8
0
10
5.226795
20
23.599999
30
0.0
11
5.140192
21
23.749999
31
0.0
0
ARC
8
0
10
4.880385
20
23.599999
30
0.0
40
0.300000
50
30.000000
51
90.000000
0
LINE
8
0
10
4.880385
20
23.899999
30
0.0
11
4.119615
21
23.899999
31
0.0
0
ARC
8
0
10
4.119615
20
23.599999
30
0.0
40
0.300000
50
90.000000
51
150.000000
0
LINE
8
0
10
3.859807
20
23.749999
30
0.0
11
3.773205
21
23.599999
31
0.0
0
ARC
8
0
10
3.600000
20
23.699999
30
0.0
40
0.200000
50
210.000000
51
330.000000
0
LINE
8
0
10
3.426795
20
23.599999
30
0.0
11
3.340192
21
23.749999
31
0.0
0
ARC
8
0
10
3.080385
20
23.599999
30
0.0
40
0.300000
50
30.000000
51
90.000000
0
LINE
8
0
10
3.080385
20
23.899999
30
0.0
11
2.319615
21
23.899999
31
0.0
0
ARC
8
0
10
2.319615
20
23.599999
30
0.0
40
0.300000
50
90.000000
51
150.000000
0
LINE
8
0
10
2.059807
20
23.749999
30
0.0
11
1.973205
21
23.599999
31
0.0
0
ARC
8
0
10
1.800000
20
23.699999
30
0.0
40
0.200000
50
210.000000
51
330.000000
0
LINE
8
0
10
1.626795
20
23.599999
30
0.0
11
1.540192
21
23.749999
31
0.0
0
ARC
8
0
10
1.280385
20
23.599999
30
0.0
40
0.300000
50
30.000000
51
108.712203
0
LINE
8
0
10
1.184141
20
23.884142
30
0.0
11
0.000000
21
22.700001
31
0.0
0
LINE
8
0
10
0.000000
20
22.700001
30
0.0
11
0.000000
21
21.000000
31
0.0
0
LINE
8
0
10
0.000000
20
21.000000
30
0.0
11
29.000000
21
21.000000
31
0.0
0
ARC
8
0
10
29.000000
20
20.000000
30
0.0
40
1.000000
50
0.000000
51
90.000000
0
LINE
8
0
10
30.000000
20
20.000000
30
0.0
11
30.000000
21
15.550000
31
0.0
0
LINE
8
0
10
30.000000
20
15.550000
30
0.0
11
30.300000
21
15.250000
31
0.0
0
LINE
8
0
10
30.300000
20
15.250000
30
0.0
11
30.000000
21
14.950000
31
0.0
0
LINE
8
0
10
30.000000
20
14.950000
30
0.0
11
30.000000
21
10.500000
31
0.0
0
ARC
8
0
10
29.000000
20
10.500000
30
0.0
40
1.000000
50
270.000000
51
0.000000
0
LINE
8
0
10
29.000000
20
9.500000
30
0.0
11
17.000000
21
9.500000
31
0.0
0
LINE
8
0
10
17.000000
20
9.500000
30
0.0
11
17.000000
21
6.810000
31
0.0
0
LINE
8
0
10
17.000000
20
6.810000
30
0.0
11
17.500000
21
6.310000
31
0.0
0
LINE
8
0
10
17.500000
20
6.310000
30
0.0
11
18.000000
21
6.310000
31
0.0
0
LINE
8
0
10
18.000000
20
6.310000
30
0.0
11
18.000000
21
7.310000
31
0.0
0
LINE
8
0
10
18.000000
20
7.310000
30
0.0
11
18.933212
21
7.310000
31
0.0
0
LINE
8
0
10
18.933212
20
7.310000
30
0.0
11
19.929838
21
6.310171
31
0.0
0
ARC
8
0
10
19.939976
20
6.609999
30
0.0
40
0.300000
50
268.063264
51
330.000000
0
LINE
8
0
10
20.199784
20
6.460000
30
0.0
11
20.286386
21
6.609999
31
0.0
0
ARC
8
0
10
20.459591
20
6.509999
30
0.0
40
0.200000
50
30.000000
51
150.000000
0
LINE
8
0
10
20.632796
20
6.609999
30
0.0
11
20.719398
21
6.460000
31
0.0
0
ARC
8
0
10
20.979206
20
6.609999
30
0.0
40
0.300000
50
210.000000
51
306.961974
0
ARC
8
0
10
21.339976
20
6.609999
30
0.0
40
0.300000
50
233.038026
51
330.000000
0
LINE
8
0
10
21.599784
20
6.460000
30
0.0
11
21.686386
21
6.609999
31
0.0
0
ARC
8
0
10
21.859591
20
6.509999
30
0.0
40
0.200000
50
30.000000
51
150.000000
0
LINE
8
0
10
22.032796
20
6.609999
30
0.0
11
22.119398
21
6.460000
31
0.0
0
ARC
8
0
10
22.379206
20
6.609999
30
0.0
40
0.300000
50
210.000000
51
306.961974
0
ARC
8
0
10
22.739976
20
6.609999
30
0.0
40
0.300000
50
233.038026
51
330.000000
0
LINE
8
0
10
22.999784
20
6.460000
30
0.0
11
23.086386
21
6.609999
31
0.0
0
ARC
8
0
10
23.259591
20
6.509999
30
0.0
40
0.200000
50
30.000000
51
150.000000
0
LINE
8
0
10
23.432796
20
6.609999
30
0.0
11
23.519398
21
6.460000
31
0.0
0
ARC
8
0
10
23.779206
20
6.609999
30
0.0
40
0.300000
50
210.000000
51
270.000000
0
LINE
8
0
10
23.779206
20
6.310000
30
0.0
11
24.000000
21
6.310000
31
0.0
0
LINE
8
0
10
24.000000
20
6.310000
30
0.0
11
24.000000
21
7.310000
31
0.0
0
LINE
8
0
10
24.000000
20
7.310000
30
0.0
11
24.933212
21
7.310000
31
0.0
0
LINE
8
0
10
24.933212
20
7.310000
30
0.0
11
25.792466
21
6.447984
31
0.0
0
LINE
8
0
10
25.799784
20
6.460000
30
0.0
11
25.886386
21
6.609999
31
0.0
0
ARC
8
0
10
26.059591
20
6.509999
30
0.0
40
0.200000
50
30.000000
51
150.000000
0
LINE
8
0
10
26.232796
20
6.609999
30
0.0
11
26.319398
21
6.460000
31
0.0
0
ARC
8
0
10
26.579206
20
6.609999
30
0.0
40
0.300000
50
210.000000
51
306.961974
0
ARC
8
0
10
26.939976
20
6.609999
30
0.0
40
0.300000
50
233.038026
51
330.000000
0
LINE
8
0
10
27.199784
20
6.460000
30
0.0
11
27.286386
21
6.609999
31
0.0
0
ARC
8
0
10
27.459591
20
6.509999
30
0.0
40
0.200000
50
30.000000
51
150.000000
0
LINE
8
0
10
27.632796
20
6.609999
30
0.0
11
27.719398
21
6.460000
31
0.0
0
ARC
8
0
10
27.979206
20
6.609999
30
0.0
40
0.300000
50
210.000000
51
270.000000
0
LINE
8
0
10
27.979206
20
6.310000
30
0.0
11
28.440000
21
6.310000
31
0.0
0
ARC
8
0
10
28.440000
20
4.750000
30
0.0
40
1.560000
50
277.689035
51
90.000000
0
ARC
8
0
10
28.688861
20
2.906723
30
0.0
40
0.300000
50
97.689035
51
150.000000
0
LINE
8
0
10
28.429054
20
3.056723
30
0.0
11
28.332796
21
2.890000
31
0.0
0
ARC
8
0
10
28.159591
20
2.990000
30
0.0
40
0.200000
50
210.000000
51
330.000000
0
LINE
8
0
10
27.986386
20
2.890000
30
0.0
11
27.899784
21
3.040000
31
0.0
0
ARC
8
0
10
27.639976
20
2.890000
30
0.0
40
0.300000
50
30.000000
51
126.961974
0
ARC
8
0
10
27.279206
20
2.890000
30
0.0
40
0.300000
50
53.038026
51
150.000000
0
LINE
8
0
10
27.019398
20
3.040000
30
0.0
11
26.932796
21
2.890000
31
0.0
0
ARC
8
0
10
26.759591
20
2.990000
30
0.0
40
0.200000
50
210.000000
51
330.000000
0
LINE
8
0
10
26.586386
20
2.890000
30
0.0
11
26.499784
21
3.040000
31
0.0
0
ARC
8
0
10
26.239976
20
2.890000
30
0.0
40
0.300000
50
30.000000
51
90.000000
0
LINE
8
0
10
26.239976
20
3.190000
30
0.0
11
25.930008
21
3.190000
31
0.0
0
LINE
8
0
10
25.930008
20
3.190000
30
0.0
11
24.933212
21
2.190000
31
0.0
0
LINE
8
0
10
24.933212
20
2.190000
30
0.0
11
24.000000
21
2.190000
31
0.0
0
LINE
8
0
10
24.000000
20
2.190000
30
0.0
11
24.000000
21
3.190000
31
0.0
0
LINE
8
0
10
24.000000
20
3.190000
30
0.0
11
23.079206
21
3.190000
31
0.0
0
ARC
8
0
10
23.079206
20
2.890000
30
0.0
40
0.300000
50
90.000000
51
150.000000
0
LINE
8
0
10
22.819398
20
3.040000
30
0.0
11
22.732796
21
2.890000
31
0.0
0
ARC
8
0
10
22.559591
20
2.990000
30
0.0
40
0.200000
50
210.000000
51
330.000000
0
LINE
8
0
10
22.386386
20
2.890000
30
0.0
11
22.299784
21
3.040000
31
0.0
0
ARC
8
0
10
22.039976
20
2.890000
30
0.0
40
0.300000
50
30.000000
51
126.961974
0
ARC
8
0
10
21.679206
20
2.890000
30
0.0
40
0.300000
50
53.038026
51
150.000000
0
LINE
8
0
10
21.419398
20
3.040000
30
0.0
11
21.332796
21
2.890000
31
0.0
0
ARC
8
0
10
21.159591
20
2.990000
30
0.0
40
0.200000
50
210.000000
51
330.000000
0
LINE
8
0
10
20.986386
20
2.890000
30
0.0
11
20.899784
21
3.040000
31
0.0
0
ARC
8
0
10
20.639976
20
2.890000
30
0.0
40
0.300000
50
30.000000
51
90.000000
0
LINE
8
0
10
20.639976
20
3.190000
30
0.0
11
19.930008
21
3.190000
31
0.0
0
LINE
8
0
10
19.930008
20
3.190000
30
0.0
11
18.933212
21
2.190000
31
0.0
0
LINE
8
0
10
18.933212
20
2.190000
30
0.0
11
18.000000
21
2.190000
31
0.0
0
LINE
8
0
10
18.000000
20
2.190000
30
0.0
11
18.000000
21
3.190000
31
0.0
0
LINE
8
0
10
18.000000
20
3.190000
30
0.0
11
17.500000
21
3.190000
31
0.0
0
LINE
8
0
10
17.500000
20
3.190000
30
0.0
11
17.000000
21
2.690000
31
0.0
0
LINE
8
0
10
17.000000
20
2.690000
30
0.0
11
17.000000
21
0.000000
31
0.0
0
LINE
8
0
10
17.000000
20
0.000000
30
0.0
11
246.500009
21
0.000000
31
0.0
0
ARC
8
0
10
246.500009
20
0.500000
30
0.0
40
0.500000
50
270.000000
51
0.000000
0
LINE
8
0
10
247.000009
20
0.500000
30
0.0
11
247.000009
21
51.500000
31
0.0
0
ARC
8
0
10
246.500009
20
51.500000
30
0.0
40
0.500000
50
0.000000
51
90.000000
0
LINE
8
0
10
246.500009
20
52.000000
30
0.0
11
17.000000
21
52.000000
31
0.0
0
LINE
8
0
10
17.000000
20
52.000000
30
0.0
11
17.000000
21
49.310000
31
0.0
0
LINE
8
0
10
17.000000
20
49.310000
30
0.0
11
17.500000
21
48.810000
31
0.0
0
LINE
8
0
10
17.500000
20
48.810000
30
0.0
11
18.000000
21
48.810000
31
0.0
0
LINE
8
0
10
18.000000
20
48.810000
30
0.0
11
18.000000
21
49.810000
31
0.0
0
LINE
8
0
10
18.000000
20
49.810000
30
0.0
11
18.933212
21
49.810000
31
0.0
0
LINE
8
0
10
18.933212
20
49.810000
30
0.0
11
19.930008
21
48.810000
31
0.0
0
LINE
8
0
10
19.930008
20
48.810000
30
0.0
11
20.639976
21
48.810000
31
0.0
0
ARC
8
0
10
20.639976
20
49.109999
30
0.0
40
0.300000
50
270.000000
51
330.000000
0
LINE
8
0
10
20.899784
20
48.960000
30
0.0
11
20.986386
21
49.109999
31
0.0
0
ARC
8
0
10
21.159591
20
49.010000
30
0.0
40
0.200000
50
30.000000
51
150.000000
0
LINE
8
0
10
21.332796
20
49.109999
30
0.0
11
21.419398
21
48.960000
31
0.0
0
ARC
8
0
10
21.679206
20
49.109999
30
0.0
40
0.300000
50
210.000000
51
306.961974
0
ARC
8
0
10
22.039976
20
49.109999
30
0.0
40
0.300000
50
233.038026
51
330.000000
0
LINE
8
0
10
22.299784
20
48.960000
30
0.0
11
22.386386
21
49.109999
31
0.0
0
ARC
8
0
10
22.559591
20
49.010000
30
0.0
40
0.200000
50
30.000000
51
150.000000
0
LINE
8
0
10
22.732796
20
49.109999
30
0.0
11
22.819398
21
48.960000
31
0.0
0
ARC
8
0
10
23.079206
20
49.109999
30
0.0
40
0.300000
50
210.000000
51
270.000000
0
LINE
8
0
10
23.079206
20
48.810000
30
0.0
11
24.000000
21
48.810000
31
0.0
0
LINE
8
0
10
24.000000
20
48.810000
30
0.0
11
24.000000
21
49.810000
31
0.0
0
LINE
8
0
10
24.000000
20
49.810000
30
0.0
11
24.933212
21
49.810000
31
0.0
0
LINE
8
0
10
24.933212
20
49.810000
30
0.0
11
25.930008
21
48.810000
31
0.0
0
LINE
8
0
10
25.930008
20
48.810000
30
0.0
11
26.239976
21
48.810000
31
0.0
0
ARC
8
0
10
26.239976
20
49.109999
30
0.0
40
0.300000
50
270.000000
51
330.000000
0
LINE
8
0
10
26.499784
20
48.960000
30
0.0
11
26.586386
21
49.109999
31
0.0
0
ARC
8
0
10
26.759591
20
49.010000
30
0.0
40
0.200000
50
30.000000
51
150.000000
0
LINE
8
0
10
26.932796
20
49.109999
30
0.0
11
27.019398
21
48.960000
31
0.0
0
ARC
8
0
10
27.279206
20
49.109999
30
0.0
40
0.300000
50
210.000000
51
306.961974
0
ARC
8
0
10
27.639976
20
49.109999
30
0.0
40
0.300000
50
233.038026
51
330.000000
0
LINE
8
0
10
27.899784
20
48.960000
30
0.0
11
27.986386
21
49.109999
31
0.0
0
ARC
8
0
10
28.159591
20
49.010000
30
0.0
40
0.200000
50
30.000000
51
150.000000
0
LINE
8
0
10
28.332796
20
49.109999
30
0.0
11
28.429054
21
48.943276
31
0.0
0
ARC
8
0
10
28.688861
20
49.093276
30
0.0
40
0.300000
50
210.000000
51
262.310965
0
ARC
8
0
10
28.440000
20
47.250000
30
0.0
40
1.560000
50
270.000000
51
82.310965
0
LINE
8
0
10
28.440000
20
45.690000
30
0.0
11
27.979206
21
45.690000
31
0.0
0
ARC
8
0
10
27.979206
20
45.390000
30
0.0
40
0.300000
50
90.000000
51
150.000000
0
LINE
8
0
10
27.719398
20
45.540000
30
0.0
11
27.632796
21
45.390000
31
0.0
0
ARC
8
0
10
27.459591
20
45.490000
30
0.0
40
0.200000
50
210.000000
51
330.000000
0
LINE
8
0
10
27.286386
20
45.390000
30
0.0
11
27.199784
21
45.540000
31
0.0
0
ARC
8
0
10
26.939976
20
45.390000
30
0.0
40
0.300000
50
30.000000
51
126.961974
0
ARC
8
0
10
26.579206
20
45.390000
30
0.0
40
0.300000
50
53.038026
51
150.000000
0
LINE
8
0
10
26.319398
20
45.540000
30
0.0
11
26.232796
21
45.390000
31
0.0
0
ARC
8
0
10
26.059591
20
45.490000
30
0.0
40
0.200000
50
210.000000
51
330.000000
0
LINE
8
0
10
25.886386
20
45.390000
30
0.0
11
25.799784
21
45.540000
31
0.0
0
LINE
8
0
10
25.792466
20
45.552015
30
0.0
11
24.933212
21
44.690000
31
0.0
0
LINE
8
0
10
24.933212
20
44.690000
30
0.0
11
24.000000
21
44.690000
31
0.0
0
LINE
8
0
10
24.000000
20
44.690000
30
0.0
11
24.000000
21
45.690000
31
0.0
0
LINE
8
0
10
24.000000
20
45.690000
30
0.0
11
23.779206
21
45.690000
31
0.0
0
ARC
8
0
10
23.779206
20
45.390000
30
0.0
40
0.300000
50
90.000000
51
150.000000
0
LINE
8
0
10
23.519398
20
45.540000
30
0.0
11
23.432796
21
45.390000
31
0.0
0
ARC
8
0
10
23.259591
20
45.490000
30
0.0
40
0.200000
50
210.000000
51
330.000000
0
LINE
8
0
10
23.086386
20
45.390000
30
0.0
11
22.999784
21
45.540000
31
0.0
0
ARC
8
0
10
22.739976
20
45.390000
30
0.0
40
0.300000
50
30.000000
51
126.961974
0
ARC
8
0
10
22.379206
20
45.390000
30
0.0
40
0.300000
50
53.038026
51
150.000000
0
LINE
8
0
10
22.119398
20
45.540000
30
0.0
11
22.032796
21
45.390000
31
0.0
0
ARC
8
0
10
21.859591
20
45.490000
30
0.0
40
0.200000
50
210.000000
51
330.000000
0
LINE
8
0
10
21.686386
20
45.390000
30
0.0
11
21.599784
21
45.540000
31
0.0
0
ARC
8
0
10
21.339976
20
45.390000
30
0.0
40
0.300000
50
30.000000
51
126.961974
0
ARC
8
0
10
20.979206
20
45.390000
30
0.0
40
0.300000
50
53.038026
51
150.000000
0
LINE
8
0
10
20.719398
20
45.540000
30
0.0
11
20.632796
21
45.390000
31
0.0
0
ARC
8
0
10
20.459591
20
45.490000
30
0.0
40
0.200000
50
210.000000
51
330.000000
0
LINE
8
0
10
20.286386
20
45.390000
30
0.0
11
20.199784
21
45.540000
31
0.0
0
ARC
8
0
10
19.939976
20
45.390000
30
0.0
40
0.300000
50
30.000000
51
91.936736
0
LINE
8
0
10
19.929838
20
45.689828
30
0.0
11
18.933212
21
44.690000
31
0.0
0
LINE
8
0
10
18.933212
20
44.690000
30
0.0
11
18.000000
21
44.690000
31
0.0
0
LINE
8
0
10
18.000000
20
44.690000
30
0.0
11
18.000000
21
45.690000
31
0.0
0
LINE
8
0
10
18.000000
20
45.690000
30
0.0
11
17.500000
21
45.690000
31
0.0
0
LINE
8
0
10
17.500000
20
45.690000
30
0.0
11
17.000000
21
45.190000
31
0.0
0
LINE
8
0
10
17.000000
20
45.190000
30
0.0
11
17.000000
21
42.500000
31
0.0
0
LINE
8
0
10
17.000000
20
42.500000
30
0.0
11
29.000000
21
42.500000
31
0.0
0
ARC
8
0
10
29.000000
20
41.500000
30
0.0
40
1.000000
50
0.000000
51
90.000000
0
LINE
8
0
10
30.000000
20
41.500000
30
0.0
11
30.000000
21
37.050000
31
0.0
0
LINE
8
0
10
30.000000
20
37.050000
30
0.0
11
30.300000
21
36.750000
31
0.0
0
LINE
8
0
10
30.300000
20
36.750000
30
0.0
11
30.000000
21
36.450000
31
0.0
0
LINE
8
0
10
30.000000
20
36.450000
30
0.0
11
30.000000
21
32.000000
31
0.0
0
ARC
8
0
10
29.000000
20
32.000000
30
0.0
40
1.000000
50
270.000000
51
0.000000
0
LINE
8
0
10
29.000000
20
31.000000
30
0.0
11
0.000000
21
31.000000
31
0.0
0
LINE
8
0
10
0.000000
20
31.000000
30
0.0
11
0.000000
21
29.299999
31
0.0
0
LINE
8
0
10
0.000000
20
29.299999
30
0.0
11
1.199999
21
28.100000
31
0.0
0
LINE
8
0
10
1.199999
20
28.100000
30
0.0
11
2.180385
21
28.100000
31
0.0
0
ARC
8
0
10
2.180385
20
28.400000
30
0.0
40
0.300000
50
270.000000
51
330.000000
0
LINE
8
0
10
2.440192
20
28.250000
30
0.0
11
2.526795
21
28.400000
31
0.0
0
ARC
8
0
10
2.700000
20
28.300000
30
0.0
40
0.200000
50
30.000000
51
150.000000
0
LINE
8
0
10
2.873205
20
28.400000
30
0.0
11
2.959807
21
28.250000
31
0.0
0
ARC
8
0
10
3.219615
20
28.400000
30
0.0
40
0.300000
50
210.000000
51
270.000000
0
LINE
8
0
10
3.219615
20
28.100000
30
0.0
11
3.980385
21
28.100000
31
0.0
0
ARC
8
0
10
3.980385
20
28.400000
30
0.0
40
0.300000
50
270.000000
51
330.000000
0
LINE
8
0
10
4.240192
20
28.250000
30
0.0
11
4.326795
21
28.400000
31
0.0
0
ARC
8
0
10
4.500000
20
28.300000
30
0.0
40
0.200000
50
30.000000
51
150.000000
0
LINE
8
0
10
4.673205
20
28.400000
30
0.0
11
4.759807
21
28.250000
31
0.0
0
ARC
8
0
10
5.019615
20
28.400000
30
0.0
40
0.300000
50
210.000000
51
270.000000
0
LINE
8
0
10
5.019615
20
28.100000
30
0.0
11
5.780385
21
28.100000
31
0.0
0
ARC
8
0
10
5.780385
20
28.400000
30
0.0
40
0.300000
50
270.000000
51
330.000000
0
LINE
8
0
10
6.040192
20
28.250000
30
0.0
11
6.126795
21
28.400000
31
0.0
0
ARC
8
0
10
6.300000
20
28.300000
30
0.0
40
0.200000
50
30.000000
51
150.000000
0
LINE
8
0
10
6.473205
20
28.400000
30
0.0
11
6.559807
21
28.250000
31
0.0
0
ARC
8
0
10
6.819615
20
28.400000
30
0.0
40
0.300000
50
210.000000
51
270.000000
0
LINE
8
0
10
6.819615
20
28.100000
30
0.0
11
7.580385
21
28.100000
31
0.0
0
ARC
8
0
10
7.580385
20
28.400000
30
0.0
40
0.300000
50
270.000000
51
330.000000
0
LINE
8
0
10
7.840192
20
28.250000
30
0.0
11
7.926795
21
28.400000
31
0.0
0
ARC
8
0
10
8.100000
20
28.300000
30
0.0
40
0.200000
50
30.000000
51
150.000000
0
LINE
8
0
10
8.273205
20
28.400000
30
0.0
11
8.359807
21
28.250000
31
0.0
0
ARC
8
0
10
8.619615
20
28.400000
30
0.0
40
0.300000
50
210.000000
51
270.000000
0
LINE
8
0
10
8.619615
20
28.100000
30
0.0
11
9.380385
21
28.100000
31
0.0
0
ARC
8
0
10
9.380385
20
28.400000
30
0.0
40
0.300000
50
270.000000
51
330.000000
0
LINE
8
0
10
9.640192
20
28.250000
30
0.0
11
9.726795
21
28.400000
31
0.0
0
ARC
8
0
10
9.900000
20
28.300000
30
0.0
40
0.200000
50
30.000000
51
150.000000
0
LINE
8
0
10
10.073205
20
28.400000
30
0.0
11
10.159807
21
28.250000
31
0.0
0
ARC
8
0
10
10.419615
20
28.400000
30
0.0
40
0.300000
50
210.000000
51
270.000000
0
LINE
8
0
10
10.419615
20
28.100000
30
0.0
11
11.180385
21
28.100000
31
0.0
0
ARC
8
0
10
11.180385
20
28.400000
30
0.0
40
0.300000
50
270.000000
51
330.000000
0
LINE
8
0
10
11.440192
20
28.250000
30
0.0
11
11.526795
21
28.400000
31
0.0
0
ARC
8
0
10
11.700000
20
28.300000
30
0.0
40
0.200000
50
30.000000
51
150.000000
0
LINE
8
0
10
11.873205
20
28.400000
30
0.0
11
11.959807
21
28.250000
31
0.0
0
ARC
8
0
10
12.219757
20
28.400240
30
0.0
40
0.300243
50
210.026110
51
270.000000
0
LINE
8
0
10
12.218369
20
28.100000
30
0.0
11
12.900000
21
28.100000
31
0.0
0
ARC
8
0
10
12.900000
20
26.600000
30
0.0
40
1.500000
50
0.000000
51
90.000000
0
LINE
8
0
10
14.400000
20
26.600000
30
0.0
11
14.400000
21
25.399999
31
0.0
0
ARC
8
0
10
12.900000
20
25.399999
30
0.0
40
1.500000
50
270.000000
51
0.000000
0
LINE
8
0
10
12.900000
20
23.899999
30
0.0
11
11.319615
21
23.899999
31
0.0
0
ARC
8
0
10
11.319615
20
23.599999
30
0.0
40
0.300000
50
90.000000
51
150.000000
0
LINE
8
0
10
11.059807
20
23.749999
30
0.0
11
10.973205
21
23.599999
31
0.0
0
ARC
8
0
10
10.800000
20
23.699999
30
0.0
40
0.200000
50
210.000000
51
330.000000
0
LINE
8
0
10
10.626795
20
23.599999
30
0.0
11
10.540192
21
23.749999
31
0.0
0
ARC
8
0
10
10.280385
20
23.599999
30
0.0
40
0.300000
50
30.000000
51
90.000000
0
LINE
8
0
10
10.280385
20
23.899999
30
0.0
11
9.519615
21
23.899999
31
0.0
0
ARC
8
0
10
9.519615
20
23.599999
30
0.0
40
0.300000
50
90.000000
51
150.000000
0
LINE
8
0
10
9.259807
20
23.749999
30
0.0
11
9.173205
21
23.599999
31
0.0
0
ARC
8
0
10
9.000000
20
23.699999
30
0.0
40
0.200000
50
210.000000
51
330.000000
0
ATTDEF
8
0
10
17.000000
20
52.000000
30
0.0
40
3.5
1

3

2
VC_START
70
0
0
ATTDEF
8
0
10
17.000000
20
0.000000
30
0.0
40
3.5
1

3

2
VC_END
70
0
0
ARC
8
0
10
239.000009
20
9.800000
30
0.0
40
0.500000
50
0.000000
51
90.000000
0
LINE
8
0
10
239.000009
20
10.300000
30
0.0
11
230.750009
21
10.300000
31
0.0
0
ARC
8
0
10
230.750009
20
10.800000
30
0.0
40
0.500000
50
180.000000
51
270.000000
0
LINE
8
0
10
230.250009
20
10.800000
30
0.0
11
230.250009
21
13.365394
31
0.0
0
ARC
8
0
10
231.250009
20
13.365394
30
0.0
40
1.000000
50
109.984612
51
180.000000
0
LINE
8
0
10
230.908241
20
14.305179
30
0.0
11
239.212908
21
17.864893
31
0.0
0
ARC
8
0
10
239.000009
20
18.317303
30
0.0
40
0.500000
50
295.201124
51
0.000000
0
LINE
8
0
10
239.500009
20
18.317303
30
0.0
11
239.500009
21
25.750000
31
0.0
0
LINE
8
0
10
239.500009
20
25.750000
30
0.0
11
239.300009
21
26.000000
31
0.0
0
LINE
8
0
10
239.300009
20
26.000000
30
0.0
11
239.500009
21
26.250000
31
0.0
0
LINE
8
0
10
239.500009
20
26.250000
30
0.0
11
239.500009
21
33.682697
31
0.0
0
ARC
8
0
10
239.000009
20
33.682697
30
0.0
40
0.500000
50
0.000000
51
64.798876
0
LINE
8
0
10
239.212908
20
34.135107
30
0.0
11
230.908241
21
37.694821
31
0.0
0
ARC
8
0
10
231.250009
20
38.634605
30
0.0
40
1.000000
50
180.000000
51
250.015388
0
LINE
8
0
10
230.250009
20
38.634605
30
0.0
11
230.250009
21
41.200000
31
0.0
0
ARC
8
0
10
230.750009
20
41.200000
30
0.0
40
0.500000
50
90.000000
51
180.000000
0
LINE
8
0
10
230.750009
20
41.700000
30
0.0
11
239.000009
21
41.700000
31
0.0
0
ARC
8
0
10
239.000009
20
42.200000
30
0.0
40
0.500000
50
270.000000
51
0.000000
0
LINE
8
0
10
239.500009
20
42.200000
30
0.0
11
239.500009
21
47.750000
31
0.0
0
ARC
8
0
10
239.000009
20
47.750000
30
0.0
40
0.500000
50
0.000000
51
90.000000
0
LINE
8
0
10
239.000009
20
48.250000
30
0.0
11
237.953387
21
48.250000
31
0.0
0
ARC
8
0
10
237.953387
20
47.750000
30
0.0
40
0.500000
50
90.000000
51
170.893867
0
LINE
8
0
10
237.459688
20
47.829132
30
0.0
11
237.088483
21
45.202429
31
0.0
0
ARC
8
0
10
236.093254
20
45.300000
30
0.0
40
1.000000
50
270.000000
51
354.400661
0
LINE
8
0
10
236.093254
20
44.300000
30
0.0
11
167.637390
21
44.300000
31
0.0
0
LINE
8
0
10
167.637390
20
44.300000
30
0.0
11
36.906767
21
44.300000
31
0.0
0
ARC
8
0
10
36.906767
20
45.300000
30
0.0
40
1.000000
50
185.599339
51
270.000000
0
LINE
8
0
10
35.911538
20
45.202429
30
0.0
11
35.540333
21
47.829132
31
0.0
0
ARC
8
0
10
35.046634
20
47.750000
30
0.0
40
0.500000
50
9.106133
51
90.000000
0
LINE
8
0
10
35.046634
20
48.250000
30
0.0
11
34.000009
21
48.250000
31
0.0
0
ARC
8
0
10
34.000009
20
47.750000
30
0.0
40
0.500000
50
90.000000
51
180.000000
0
LINE
8
0
10
33.500009
20
47.750000
30
0.0
11
33.500009
21
42.200000
31
0.0
0
ARC
8
0
10
34.000009
20
42.200000
30
0.0
40
0.500000
50
180.000000
51
270.000000
0
LINE
8
0
10
34.000009
20
41.700000
30
0.0
11
39.250009
21
41.700000
31
0.0
0
ARC
8
0
10
39.250009
20
41.200000
30
0.0
40
0.500000
50
0.000000
51
90.000000
0
LINE
8
0
10
39.750009
20
41.200000
30
0.0
11
39.750009
21
34.682697
31
0.0
0
ARC
8
0
10
39.250009
20
34.682697
30
0.0
40
0.500000
50
270.000000
51
0.000000
0
LINE
8
0
10
39.250009
20
34.182697
30
0.0
11
34.000009
21
34.182697
31
0.0
0
ARC
8
0
10
34.000009
20
33.682697
30
0.0
40
0.500000
50
90.000000
51
180.000000
0
LINE
8
0
10
33.500009
20
33.682697
30
0.0
11
33.500009
21
26.000000
31
0.0
0
LINE
8
0
10
33.500009
20
26.000000
30
0.0
11
33.500009
21
18.317303
31
0.0
0
ARC
8
0
10
34.000009
20
18.317303
30
0.0
40
0.500000
50
180.000000
51
270.000000
0
LINE
8
0
10
34.000009
20
17.817303
30
0.0
11
39.250009
21
17.817303
31
0.0
0
ARC
8
0
10
39.250009
20
17.317303
30
0.0
40
0.500000
50
0.000000
51
90.000000
0
LINE
8
0
10
39.750009
20
17.317303
30
0.0
11
39.750009
21
10.800000
31
0.0
0
ARC
8
0
10
39.250009
20
10.800000
30
0.0
40
0.500000
50
270.000000
51
0.000000
0
LINE
8
0
10
39.250009
20
10.300000
30
0.0
11
34.000009
21
10.300000
31
0.0
0
ARC
8
0
10
34.000009
20
9.800000
30
0.0
40
0.500000
50
90.000000
51
180.000000
0
LINE
8
0
10
33.500009
20
9.800000
30
0.0
11
33.500009
21
4.250000
31
0.0
0
ARC
8
0
10
34.000009
20
4.250000
30
0.0
40
0.500000
50
180.000000
51
270.000000
0
LINE
8
0
10
34.000009
20
3.750000
30
0.0
11
35.046634
21
3.750000
31
0.0
0
ARC
8
0
10
35.046634
20
4.250000
30
0.0
40
0.500000
50
270.000000
51
350.893867
0
LINE
8
0
10
35.540333
20
4.170868
30
0.0
11
35.911538
21
6.797571
31
0.0
0
ARC
8
0
10
36.906767
20
6.700000
30
0.0
40
1.000000
50
90.000000
51
174.400661
0
LINE
8
0
10
36.906767
20
7.700000
30
0.0
11
167.637390
21
7.700000
31
0.0
0
LINE
8
0
10
167.637390
20
7.700000
30
0.0
11
236.093254
21
7.700000
31
0.0
0
ARC
8
0
10
236.093254
20
6.700000
30
0.0
40
1.000000
50
5.599339
51
90.000000
0
LINE
8
0
10
237.088483
20
6.797571
30
0.0
11
237.459688
21
4.170868
31
0.0
0
ARC
8
0
10
237.953387
20
4.250000
30
0.0
40
0.500000
50
189.106133
51
270.000000
0
LINE
8
0
10
237.953387
20
3.750000
30
0.0
11
239.000009
21
3.750000
31
0.0
0
ARC
8
0
10
239.000009
20
4.250000
30
0.0
40
0.500000
50
270.000000
51
0.000000
0
LINE
8
0
10
239.500009
20
4.250000
30
0.0
11
239.500009
21
9.800000
31
0.0
0
ARC
8
0
10
45.750009
20
38.000000
30
0.0
40
6.300000
50
354.895694
51
25.243782
0
ARC
8
0
10
51.900619
20
40.900000
30
0.0
40
0.500000
50
90.000000
51
205.243782
0
LINE
8
0
10
51.900619
20
41.400000
30
0.0
11
128.849399
21
41.400000
31
0.0
0
ARC
8
0
10
128.849399
20
40.900000
30
0.0
40
0.500000
50
334.756218
51
90.000000
0
ARC
8
0
10
135.000009
20
38.000000
30
0.0
40
6.300000
50
154.756218
51
230.104306
0
ARC
8
0
10
131.889258
20
34.279015
30
0.0
40
1.450000
50
230.104306
51
50.104306
0
ARC
8
0
10
135.000009
20
38.000000
30
0.0
40
3.400000
50
309.895694
51
230.104306
0
ARC
8
0
10
138.110760
20
34.279015
30
0.0
40
1.450000
50
129.895694
51
309.895694
0
ARC
8
0
10
135.000009
20
38.000000
30
0.0
40
6.300000
50
309.895694
51
25.243782
0
ARC
8
0
10
141.150619
20
40.900000
30
0.0
40
0.500000
50
90.000000
51
205.243782
0
LINE
8
0
10
141.150619
20
41.400000
30
0.0
11
167.637390
21
41.400000
31
0.0
0
LINE
8
0
10
167.637390
20
41.400000
30
0.0
11
218.099399
21
41.400000
31
0.0
0
ARC
8
0
10
218.099399
20
40.900000
30
0.0
40
0.500000
50
334.756218
51
90.000000
0
ARC
8
0
10
224.250009
20
38.000000
30
0.0
40
6.300000
50
154.756218
51
185.104306
0
ARC
8
0
10
219.419242
20
37.568500
30
0.0
40
1.450000
50
185.104306
51
5.104306
0
ARC
8
0
10
224.250009
20
38.000000
30
0.0
40
3.400000
50
264.895694
51
185.104306
0
ARC
8
0
10
223.818509
20
33.169233
30
0.0
40
1.450000
50
84.895694
51
264.895694
0
ARC
8
0
10
224.250009
20
38.000000
30
0.0
40
6.300000
50
264.895694
51
320.284863
0
ARC
8
0
10
230.250009
20
33.016026
30
0.0
40
1.500000
50
0.000000
51
140.284863
0
LINE
8
0
10
231.750009
20
33.016026
30
0.0
11
231.750009
21
26.000000
31
0.0
0
LINE
8
0
10
231.750009
20
26.000000
30
0.0
11
231.750009
21
18.983974
31
0.0
0
ARC
8
0
10
230.250009
20
18.983974
30
0.0
40
1.500000
50
219.715137
51
0.000000
0
ARC
8
0
10
224.250009
20
14.000000
30
0.0
40
6.300000
50
39.715137
51
95.104306
0
ARC
8
0
10
223.818509
20
18.830767
30
0.0
40
1.450000
50
95.104306
51
275.104306
0
ARC
8
0
10
224.250009
20
14.000000
30
0.0
40
3.400000
50
174.895694
51
95.104306
0
ARC
8
0
10
219.419242
20
14.431500
30
0.0
40
1.450000
50
354.895694
51
174.895694
0
ARC
8
0
10
224.250009
20
14.000000
30
0.0
40
6.300000
50
174.895694
51
205.243782
0
ARC
8
0
10
218.099399
20
11.100000
30
0.0
40
0.500000
50
270.000000
51
25.243782
0
LINE
8
0
10
218.099399
20
10.600000
30
0.0
11
167.637390
21
10.600000
31
0.0
0
LINE
8
0
10
167.637390
20
10.600000
30
0.0
11
141.150619
21
10.600000
31
0.0
0
ARC
8
0
10
141.150619
20
11.100000
30
0.0
40
0.500000
50
154.756218
51
270.000000
0
ARC
8
0
10
135.000009
20
14.000000
30
0.0
40
6.300000
50
334.756218
51
50.104306
0
ARC
8
0
10
138.110760
20
17.720985
30
0.0
40
1.450000
50
50.104306
51
230.104306
0
ARC
8
0
10
135.000009
20
14.000000
30
0.0
40
3.400000
50
129.895694
51
50.104306
0
ARC
8
0
10
131.889258
20
17.720985
30
0.0
40
1.450000
50
309.895694
51
129.895694
0
ARC
8
0
10
135.000009
20
14.000000
30
0.0
40
6.300000
50
129.895694
51
205.243782
0
ARC
8
0
10
128.849399
20
11.100000
30
0.0
40
0.500000
50
270.000000
51
25.243782
0
LINE
8
0
10
128.849399
20
10.600000
30
0.0
11
51.900619
21
10.600000
31
0.0
0
ARC
8
0
10
51.900619
20
11.100000
30
0.0
40
0.500000
50
154.756218
51
270.000000
0
ARC
8
0
10
45.750009
20
14.000000
30
0.0
40
6.300000
50
334.756218
51
5.104306
0
ARC
8
0
10
50.580776
20
14.431500
30
0.0
40
1.450000
50
5.104306
51
185.104306
0
ARC
8
0
10
45.750009
20
14.000000
30
0.0
40
3.400000
50
84.895694
51
5.104306
0
ARC
8
0
10
46.181510
20
18.830767
30
0.0
40
1.450000
50
264.895694
51
84.895694
0
ARC
8
0
10
45.750009
20
14.000000
30
0.0
40
6.300000
50
84.895694
51
88.314608
0
ARC
8
0
10
45.657363
20
7.701363
30
0.0
40
12.598978
50
88.735934
51
89.578675
0
LINE
8
0
10
45.750009
20
20.300000
30
0.0
11
42.250012
21
20.300000
31
0.0
0
ARC
8
0
10
42.250012
20
20.800000
30
0.0
40
0.500000
50
180.000000
51
270.000000
0
LINE
8
0
10
41.750012
20
20.800000
30
0.0
11
41.750012
21
26.000000
31
0.0
0
LINE
8
0
10
41.750012
20
26.000000
30
0.0
11
41.750012
21
31.200000
31
0.0
0
ARC
8
0
10
42.250012
20
31.200000
30
0.0
40
0.500000
50
90.000000
51
180.000000
0
LINE
8
0
10
42.250012
20
31.700000
30
0.0
11
45.750009
21
31.700000
31
0.0
0
ARC
8
0
10
45.657363
20
44.298637
30
0.0
40
12.598978
50
270.421325
51
271.264066
0
ARC
8
0
10
45.750009
20
38.000000
30
0.0
40
6.300000
50
271.685392
51
275.104306
0
ARC
8
0
10
46.181510
20
33.169233
30
0.0
40
1.450000
50
275.104306
51
95.104306
0
ARC
8
0
10
45.750009
20
38.000000
30
0.0
40
3.400000
50
354.895694
51
275.104306
0
ARC
8
0
10
50.580776
20
37.568500
30
0.0
40
1.450000
50
174.895694
51
354.895694
0
LINE
8
0
10
39.750009
20
26.000000
30
0.0
11
39.750009
21
20.800000
31
0.0
0
ARC
8
0
10
39.250009
20
20.800000
30
0.0
40
0.500000
50
270.000000
51
0.000000
0
LINE
8
0
10
39.250009
20
20.300000
30
0.0
11
36.000012
21
20.300000
31
0.0
0
ARC
8
0
10
36.000012
20
20.800000
30
0.0
40
0.500000
50
180.000000
51
270.000000
0
LINE
8
0
10
35.500012
20
20.800000
30
0.0
11
35.500012
21
26.000000
31
0.0
0
LINE
8
0
10
35.500012
20
26.000000
30
0.0
11
35.500012
21
31.200000
31
0.0
0
ARC
8
0
10
36.000012
20
31.200000
30
0.0
40
0.500000
50
90.000000
51
180.000000
0
LINE
8
0
10
36.000012
20
31.700000
30
0.0
11
39.250009
21
31.700000
31
0.0
0
ARC
8
0
10
39.250009
20
31.200000
30
0.0
40
0.500000
50
0.000000
51
90.000000
0
LINE
8
0
10
39.750009
20
31.200000
30
0.0
11
39.750009
21
26.000000
31
0.0
0
ATTDEF
8
0
10
0.000000
20
0.000000
30
0.0
40
3.5
1

3

2
GLASS_MIN:0.000000
70
0
0
ATTDEF
8
0
10
0.000000
20
0.000000
30
0.0
40
3.5
1

3

2
GLASS_MAX:0.000000
70
0
0
ATTDEF
8
0
10
0.000000
20
0.000000
30
0.0
40
3.5
1

3

2
HW_START
70
0
0
ATTDEF
8
0
10
247.000009
20
52.000000
30
0.0
40
3.5
1

3

2
HW_END
70
0
0
ATTDEF
8
0
10
247.000000
20
0.000000
30
0.0
40
3.5
1

3

2
PTO_ANTA
70
0
0
ATTDEF
8
0
10
0.000000
20
0.000000
30
0.0
40
3.5
1

3

2
PTO_DIST|1|0.00|-21.00
70
0
0
ATTDEF
8
0
10
0.000000
20
0.000000
30
0.0
40
3.5
1

3

2
FP_LCS_ORIG
70
0
0
ATTDEF
8
0
10
10.000000
20
0.000000
30
0.0
40
3.5
1

3

2
FP_LCS_HOT
70
0
0
ATTDEF
8
0
10
0.000000
20
10.000000
30
0.0
40
3.5
1

3

2
FP_LCS_INTERN
70
0
0
ATTDEF
8
0
10
0.000000
20
0.000000
30
0.0
40
3.5
1

3

2
PANE_WIDTH:0
70
0
0
ATTDEF
8
0
10
0.000000
20
0.000000
30
0.0
40
3.5
1

3

2
MIN_VETRO:0
70
0
0
ATTDEF
8
0
10
0.000000
20
0.000000
30
0.0
40
3.5
1

3

2
MAX_VETRO:0
70
0
0
ATTDEF
8
0
10
0.000000
20
0.000000
30
0.0
40
3.5
1

3

2
JX:0
70
0
0
ATTDEF
8
0
10
0.000000
20
0.000000
30
0.0
40
3.5
1

3

2
WX:0
70
0
0
ATTDEF
8
0
10
0.000000
20
0.000000
30
0.0
40
3.5
1

3

2
JY:0
70
0
0
ATTDEF
8
0
10
0.000000
20
0.000000
30
0.0
40
3.5
1

3

2
WY:0
70
0
0
ATTDEF
8
0
10
0.000000
20
0.000000
30
0.0
40
3.5
1

3

2
DESC:COR-9809 - COR-9906
70
0
0
ATTDEF
8
0
10
0.000000
20
0.000000
30
0.0
40
3.5
1

3

2
DENS:0
70
0
0
ATTDEF
8
0
10
0.000000
20
0.000000
30
0.0
40
3.5
1

3

2
TDEV:0
70
0
0
ATTDEF
8
0
10
0.000000
20
0.000000
30
0.0
40
3.5
1

3

2
TDEV2:0
70
0
0
ATTDEF
8
0
10
0.000000
20
0.000000
30
0.0
40
3.5
1

3

2
TDEV3:0
70
0
0
ATTDEF
8
0
10
0.000000
20
0.000000
30
0.0
40
3.5
1

3

2
TDEV4:0
70
0
0
ATTDEF
8
0
10
0.000000
20
0.000000
30
0.0
40
3.5
1

3

2
TDEV5:0
70
0
0
ATTDEF
8
0
10
0.000000
20
0.000000
30
0.0
40
3.5
1

3

2
PANE_WIDTH:0
70
0
0
ATTDEF
8
0
10
0.000000
20
0.000000
30
0.0
40
3.5
1

3

2
MIN_VETRO:0
70
0
0
ATTDEF
8
0
10
0.000000
20
0.000000
30
0.0
40
3.5
1

3

2
MAX_VETRO:0
70
0
0
ATTDEF
8
0
10
0.000000
20
0.000000
30
0.0
40
3.5
1

3

2
JX:0
70
0
0
ATTDEF
8
0
10
0.000000
20
0.000000
30
0.0
40
3.5
1

3

2
WX:0
70
0
0
ATTDEF
8
0
10
0.000000
20
0.000000
30
0.0
40
3.5
1

3

2
JY:0
70
0
0
ATTDEF
8
0
10
0.000000
20
0.000000
30
0.0
40
3.5
1

3

2
WY:0
70
0
0
ENDSEC
0
EOF
