0
SECTION
2
ENTITIES
0
LINE
8
0
10
3391.588889
20
1260.175894
30
0.0
11
3391.588889
21
1264.463900
31
0.0
0
ARC
8
0
10
3394.588889
20
1264.463900
30
0.0
40
3.000000
50
166.418587
51
180.000000
0
LINE
8
0
10
3391.672777
20
1265.168380
30
0.0
11
3393.173484
21
1271.380374
31
0.0
0
ARC
8
0
10
3396.089595
20
1270.675894
30
0.0
40
3.000000
50
90.000000
51
166.418587
0
LINE
8
0
10
3396.089595
20
1273.675894
30
0.0
11
3402.036295
21
1273.675894
31
0.0
0
ARC
8
0
10
3402.036295
20
1270.675894
30
0.0
40
3.000000
50
0.000000
51
90.000000
0
LINE
8
0
10
3405.036295
20
1270.675894
30
0.0
11
3404.731370
21
1261.943985
31
0.0
0
LINE
8
0
10
3404.731370
20
1261.943985
30
0.0
11
3404.731065
21
1261.926535
31
0.0
0
LINE
8
0
10
3404.731065
20
1261.926535
30
0.0
11
3404.731065
21
1254.775894
31
0.0
0
ARC
8
0
10
3402.731065
20
1254.775894
30
0.0
40
2.000000
50
270.000000
51
0.000000
0
LINE
8
0
10
3402.731065
20
1252.775894
30
0.0
11
3393.588889
21
1252.775894
31
0.0
0
ARC
8
0
10
3393.588889
20
1254.775894
30
0.0
40
2.000000
50
180.000000
51
270.000000
0
LINE
8
0
10
3391.588889
20
1254.775894
30
0.0
11
3391.588889
21
1257.575894
31
0.0
0
ARC
8
0
10
3391.288889
20
1257.575894
30
0.0
40
0.300000
50
0.000000
51
90.000000
0
LINE
8
0
10
3391.288889
20
1257.875894
30
0.0
11
3387.436295
21
1257.875894
31
0.0
0
ARC
8
0
10
3387.436295
20
1257.675894
30
0.0
40
0.200000
50
90.000000
51
180.000000
0
LINE
8
0
10
3387.236295
20
1257.675894
30
0.0
11
3387.236295
21
1257.288361
31
0.0
0
ARC
8
0
10
3384.236295
20
1257.288361
30
0.0
40
3.000000
50
270.000000
51
0.000000
0
LINE
8
0
10
3384.236295
20
1254.288361
30
0.0
11
3378.739022
21
1254.288361
31
0.0
0
ARC
8
0
10
3378.739022
20
1254.788361
30
0.0
40
0.500000
50
172.206937
51
270.000000
0
ARC
8
0
10
3404.206507
20
1251.302891
30
0.0
40
26.204889
50
166.174108
51
172.206937
0
ARC
8
0
10
3379.836731
20
1257.033606
30
0.0
40
1.200000
50
95.523983
51
153.708445
0
LINE
8
0
10
3379.721216
20
1258.228033
30
0.0
11
3379.936731
21
1258.228033
31
0.0
0
ARC
8
0
10
3379.936731
20
1257.928033
30
0.0
40
0.300000
50
311.810315
51
90.000000
0
LINE
8
0
10
3380.136731
20
1257.704427
30
0.0
11
3380.136731
21
1256.933606
31
0.0
0
ARC
8
0
10
3380.136731
20
1256.433606
30
0.0
40
0.500000
50
4.486338
51
90.000000
0
ARC
8
0
10
3380.834586
20
1256.488361
30
0.0
40
0.200000
50
184.486338
51
270.000000
0
LINE
8
0
10
3380.834586
20
1256.288361
30
0.0
11
3383.236295
21
1256.288361
31
0.0
0
ARC
8
0
10
3383.236295
20
1258.288361
30
0.0
40
2.000000
50
270.000000
51
0.000000
0
LINE
8
0
10
3385.236295
20
1258.288361
30
0.0
11
3385.236295
21
1258.875894
31
0.0
0
ARC
8
0
10
3386.236295
20
1258.875894
30
0.0
40
1.000000
50
90.000000
51
180.000000
0
LINE
8
0
10
3386.236295
20
1259.875894
30
0.0
11
3391.288889
21
1259.875894
31
0.0
0
ARC
8
0
10
3391.288889
20
1260.175894
30
0.0
40
0.300000
50
270.000000
51
0.000000
0
LINE
8
0
10
3395.904743
20
1269.910720
30
0.0
11
3394.672777
21
1264.811145
31
0.0
0
ARC
8
0
10
3397.588889
20
1264.106665
30
0.0
40
3.000000
50
166.418587
51
180.000000
0
LINE
8
0
10
3394.588889
20
1264.106665
30
0.0
11
3394.588889
21
1256.875894
31
0.0
0
ARC
8
0
10
3395.588889
20
1256.875894
30
0.0
40
1.000000
50
180.000000
51
270.000000
0
LINE
8
0
10
3395.588889
20
1255.875894
30
0.0
11
3400.551950
21
1255.875894
31
0.0
0
ARC
8
0
10
3400.551950
20
1256.875894
30
0.0
40
1.000000
50
270.000000
51
358.000000
0
LINE
8
0
10
3401.551341
20
1256.840994
30
0.0
11
3401.998327
21
1269.640994
31
0.0
0
ARC
8
0
10
3400.998936
20
1269.675894
30
0.0
40
1.000000
50
358.000000
51
90.000000
0
LINE
8
0
10
3400.998936
20
1270.675894
30
0.0
11
3396.876780
21
1270.675894
31
0.0
0
ARC
8
0
10
3396.876780
20
1269.675894
30
0.0
40
1.000000
50
90.000000
51
166.418587
0
ATTDEF
8
0
10
0.000000
20
0.000000
30
0.0
40
3.5
1

3

2
PANE_WIDTH:0
70
0
0
ATTDEF
8
0
10
0.000000
20
0.000000
30
0.0
40
3.5
1

3

2
MIN_VETRO:0
70
0
0
ATTDEF
8
0
10
0.000000
20
0.000000
30
0.0
40
3.5
1

3

2
MAX_VETRO:0
70
0
0
ATTDEF
8
0
10
0.000000
20
0.000000
30
0.0
40
3.5
1

3

2
JX:0
70
0
0
ATTDEF
8
0
10
0.000000
20
0.000000
30
0.0
40
3.5
1

3

2
WX:0
70
0
0
ATTDEF
8
0
10
0.000000
20
0.000000
30
0.0
40
3.5
1

3

2
JY:0
70
0
0
ATTDEF
8
0
10
0.000000
20
0.000000
30
0.0
40
3.5
1

3

2
WY:0
70
0
0
ATTDEF
8
0
10
0.000000
20
0.000000
30
0.0
40
3.5
1

3

2
DESC:Cuelgue bastidor ST-52/SST-52
70
0
0
ATTDEF
8
0
10
0.000000
20
0.000000
30
0.0
40
3.5
1

3

2
DENS:0.5319
70
0
0
ATTDEF
8
0
10
0.000000
20
0.000000
30
0.0
40
3.5
1

3

2
TDEV:13.73
70
0
0
ATTDEF
8
0
10
0.000000
20
0.000000
30
0.0
40
3.5
1

3

2
TDEV2:0
70
0
0
ATTDEF
8
0
10
0.000000
20
0.000000
30
0.0
40
3.5
1

3

2
TDEV3:0
70
0
0
ATTDEF
8
0
10
0.000000
20
0.000000
30
0.0
40
3.5
1

3

2
TDEV4:0
70
0
0
ATTDEF
8
0
10
0.000000
20
0.000000
30
0.0
40
3.5
1

3

2
TDEV5:0
70
0
0
ATTDEF
8
0
10
0.000000
20
0.000000
30
0.0
40
3.5
1

3

2
PANE_WIDTH:0
70
0
0
ATTDEF
8
0
10
0.000000
20
0.000000
30
0.0
40
3.5
1

3

2
MIN_VETRO:0
70
0
0
ATTDEF
8
0
10
0.000000
20
0.000000
30
0.0
40
3.5
1

3

2
MAX_VETRO:0
70
0
0
ATTDEF
8
0
10
0.000000
20
0.000000
30
0.0
40
3.5
1

3

2
JX:0
70
0
0
ATTDEF
8
0
10
0.000000
20
0.000000
30
0.0
40
3.5
1

3

2
WX:0
70
0
0
ATTDEF
8
0
10
0.000000
20
0.000000
30
0.0
40
3.5
1

3

2
JY:0
70
0
0
ATTDEF
8
0
10
0.000000
20
0.000000
30
0.0
40
3.5
1

3

2
WY:0
70
0
0
ENDSEC
0
EOF
