0
SECTION
2
ENTITIES
0
ARC
8
0
10
3278.218772
20
1282.219364
30
0.0
40
0.500000
50
180.000000
51
264.400661
0
LINE
8
0
10
3277.718772
20
1282.219364
30
0.0
11
3277.718772
21
1283.265987
31
0.0
0
ARC
8
0
10
3278.218772
20
1283.265987
30
0.0
40
0.500000
50
90.000000
51
180.000000
0
LINE
8
0
10
3278.218772
20
1283.765987
30
0.0
11
3284.668772
21
1283.765987
31
0.0
0
ARC
8
0
10
3284.668772
20
1283.265987
30
0.0
40
0.500000
50
0.000000
51
90.000000
0
LINE
8
0
10
3285.168772
20
1283.265987
30
0.0
11
3285.168772
21
1275.015987
31
0.0
0
ARC
8
0
10
3285.668772
20
1275.015987
30
0.0
40
0.500000
50
180.000000
51
270.000000
0
LINE
8
0
10
3285.668772
20
1274.515987
30
0.0
11
3288.234166
21
1274.515987
31
0.0
0
ARC
8
0
10
3288.234166
20
1275.515987
30
0.0
40
1.000000
50
270.000000
51
340.015388
0
LINE
8
0
10
3289.173950
20
1275.174219
30
0.0
11
3292.733665
21
1283.478885
31
0.0
0
ARC
8
0
10
3293.186074
20
1283.265987
30
0.0
40
0.500000
50
90.000000
51
154.798876
0
LINE
8
0
10
3293.186074
20
1283.765987
30
0.0
11
3300.618772
21
1283.765987
31
0.0
0
LINE
8
0
10
3300.618772
20
1283.765987
30
0.0
11
3300.868772
21
1283.565987
31
0.0
0
LINE
8
0
10
3300.868772
20
1283.565987
30
0.0
11
3301.118772
21
1283.765987
31
0.0
0
LINE
8
0
10
3301.118772
20
1283.765987
30
0.0
11
3308.551469
21
1283.765987
31
0.0
0
ARC
8
0
10
3308.551469
20
1283.265987
30
0.0
40
0.500000
50
25.201124
51
90.000000
0
LINE
8
0
10
3309.003878
20
1283.478885
30
0.0
11
3312.563593
21
1275.174219
31
0.0
0
ARC
8
0
10
3313.503377
20
1275.515987
30
0.0
40
1.000000
50
199.984612
51
270.000000
0
LINE
8
0
10
3313.503377
20
1274.515987
30
0.0
11
3316.068772
21
1274.515987
31
0.0
0
ARC
8
0
10
3316.068772
20
1275.015987
30
0.0
40
0.500000
50
270.000000
51
0.000000
0
LINE
8
0
10
3316.568772
20
1275.015987
30
0.0
11
3316.568772
21
1283.265987
31
0.0
0
ARC
8
0
10
3317.068772
20
1283.265987
30
0.0
40
0.500000
50
90.000000
51
180.000000
0
LINE
8
0
10
3317.068772
20
1283.765987
30
0.0
11
3323.518772
21
1283.765987
31
0.0
0
ARC
8
0
10
3323.518772
20
1283.265987
30
0.0
40
0.500000
50
0.000000
51
90.000000
0
LINE
8
0
10
3324.018772
20
1283.265987
30
0.0
11
3324.018772
21
1282.219364
31
0.0
0
ARC
8
0
10
3323.518772
20
1282.219364
30
0.0
40
0.500000
50
275.599339
51
0.000000
0
LINE
8
0
10
3323.567557
20
1281.721750
30
0.0
11
3320.071200
21
1281.354460
31
0.0
0
ARC
8
0
10
3320.168772
20
1280.359231
30
0.0
40
1.000000
50
95.599339
51
180.000000
0
LINE
8
0
10
3319.168772
20
1280.359231
30
0.0
11
3319.168772
21
1203.472744
31
0.0
0
ARC
8
0
10
3320.168772
20
1203.472744
30
0.0
40
1.000000
50
180.000000
51
264.400661
0
LINE
8
0
10
3320.071200
20
1202.477516
30
0.0
11
3323.567557
21
1202.110226
31
0.0
0
ARC
8
0
10
3323.518772
20
1201.612612
30
0.0
40
0.500000
50
0.000000
51
84.400661
0
LINE
8
0
10
3324.018772
20
1201.612612
30
0.0
11
3324.018772
21
1200.565987
31
0.0
0
ARC
8
0
10
3323.518772
20
1200.565987
30
0.0
40
0.500000
50
270.000000
51
0.000000
0
LINE
8
0
10
3323.518772
20
1200.065987
30
0.0
11
3317.068772
21
1200.065987
31
0.0
0
ARC
8
0
10
3317.068772
20
1200.565987
30
0.0
40
0.500000
50
180.000000
51
270.000000
0
LINE
8
0
10
3316.568772
20
1200.565987
30
0.0
11
3316.568772
21
1205.815987
31
0.0
0
ARC
8
0
10
3316.068772
20
1205.815987
30
0.0
40
0.500000
50
0.000000
51
90.000000
0
LINE
8
0
10
3316.068772
20
1206.315987
30
0.0
11
3309.551469
21
1206.315987
31
0.0
0
ARC
8
0
10
3309.551469
20
1205.815987
30
0.0
40
0.500000
50
90.000000
51
180.000000
0
LINE
8
0
10
3309.051469
20
1205.815987
30
0.0
11
3309.051469
21
1200.565987
31
0.0
0
ARC
8
0
10
3308.551469
20
1200.565987
30
0.0
40
0.500000
50
270.000000
51
0.000000
0
LINE
8
0
10
3308.551469
20
1200.065987
30
0.0
11
3293.186074
21
1200.065987
31
0.0
0
ARC
8
0
10
3293.186074
20
1200.565987
30
0.0
40
0.500000
50
180.000000
51
270.000000
0
LINE
8
0
10
3292.686074
20
1200.565987
30
0.0
11
3292.686074
21
1205.815987
31
0.0
0
ARC
8
0
10
3292.186074
20
1205.815987
30
0.0
40
0.500000
50
0.000000
51
90.000000
0
LINE
8
0
10
3292.186074
20
1206.315987
30
0.0
11
3285.668772
21
1206.315987
31
0.0
0
ARC
8
0
10
3285.668772
20
1205.815987
30
0.0
40
0.500000
50
90.000000
51
180.000000
0
LINE
8
0
10
3285.168772
20
1205.815987
30
0.0
11
3285.168772
21
1200.565987
31
0.0
0
ARC
8
0
10
3284.668772
20
1200.565987
30
0.0
40
0.500000
50
270.000000
51
0.000000
0
LINE
8
0
10
3284.668772
20
1200.065987
30
0.0
11
3278.218772
21
1200.065987
31
0.0
0
ARC
8
0
10
3278.218772
20
1200.565987
30
0.0
40
0.500000
50
180.000000
51
270.000000
0
LINE
8
0
10
3277.718772
20
1200.565987
30
0.0
11
3277.718772
21
1201.612612
31
0.0
0
ARC
8
0
10
3278.218772
20
1201.612612
30
0.0
40
0.500000
50
95.599339
51
180.000000
0
LINE
8
0
10
3278.169986
20
1202.110226
30
0.0
11
3281.666343
21
1202.477516
31
0.0
0
ARC
8
0
10
3281.568772
20
1203.472744
30
0.0
40
1.000000
50
275.599339
51
0.000000
0
LINE
8
0
10
3282.568772
20
1203.472744
30
0.0
11
3282.568772
21
1280.359231
31
0.0
0
ARC
8
0
10
3281.568772
20
1280.359231
30
0.0
40
1.000000
50
0.000000
51
84.400661
0
LINE
8
0
10
3281.666343
20
1281.354460
30
0.0
11
3278.169986
21
1281.721750
31
0.0
0
ARC
8
0
10
3308.038005
20
1268.084486
30
0.0
40
1.450000
50
185.104306
51
5.104306
0
ARC
8
0
10
3312.868772
20
1268.515987
30
0.0
40
3.400000
50
264.895694
51
185.104306
0
ARC
8
0
10
3312.437271
20
1263.685220
30
0.0
40
1.450000
50
84.895694
51
264.895694
0
ARC
8
0
10
3312.868772
20
1268.515987
30
0.0
40
6.300000
50
264.895694
51
295.243782
0
ARC
8
0
10
3315.768772
20
1262.365377
30
0.0
40
0.500000
50
0.000000
51
115.243782
0
LINE
8
0
10
3316.268772
20
1262.365377
30
0.0
11
3316.268772
21
1218.466596
31
0.0
0
ARC
8
0
10
3315.768772
20
1218.466596
30
0.0
40
0.500000
50
244.756218
51
0.000000
0
ARC
8
0
10
3312.868772
20
1212.315987
30
0.0
40
6.300000
50
64.756218
51
95.104306
0
ARC
8
0
10
3312.437271
20
1217.146753
30
0.0
40
1.450000
50
95.104306
51
275.104306
0
ARC
8
0
10
3312.868772
20
1212.315987
30
0.0
40
3.400000
50
174.895694
51
95.104306
0
ARC
8
0
10
3308.038005
20
1212.747487
30
0.0
40
1.450000
50
354.895694
51
174.895694
0
ARC
8
0
10
3312.868772
20
1212.315987
30
0.0
40
6.300000
50
174.895694
51
178.314608
0
ARC
8
0
10
3319.167409
20
1212.223341
30
0.0
40
12.598978
50
178.735934
51
180.421325
0
LINE
8
0
10
3306.568772
20
1212.130695
30
0.0
11
3306.568772
21
1208.815989
31
0.0
0
ARC
8
0
10
3306.068772
20
1208.815989
30
0.0
40
0.500000
50
270.000000
51
0.000000
0
LINE
8
0
10
3306.068772
20
1208.315989
30
0.0
11
3295.668772
21
1208.315989
31
0.0
0
ARC
8
0
10
3295.668772
20
1208.815989
30
0.0
40
0.500000
50
180.000000
51
270.000000
0
LINE
8
0
10
3295.168772
20
1208.815989
30
0.0
11
3295.168772
21
1212.130695
31
0.0
0
ARC
8
0
10
3282.570134
20
1212.223341
30
0.0
40
12.598978
50
359.578675
51
1.264066
0
ARC
8
0
10
3288.868772
20
1212.315987
30
0.0
40
6.300000
50
1.685392
51
5.104306
0
ARC
8
0
10
3293.699538
20
1212.747487
30
0.0
40
1.450000
50
5.104306
51
185.104306
0
ARC
8
0
10
3288.868772
20
1212.315987
30
0.0
40
3.400000
50
84.895694
51
5.104306
0
ARC
8
0
10
3289.300272
20
1217.146753
30
0.0
40
1.450000
50
264.895694
51
84.895694
0
ARC
8
0
10
3288.868772
20
1212.315987
30
0.0
40
6.300000
50
84.895694
51
115.243782
0
ARC
8
0
10
3285.968772
20
1218.466596
30
0.0
40
0.500000
50
180.000000
51
295.243782
0
LINE
8
0
10
3285.468772
20
1218.466596
30
0.0
11
3285.468772
21
1262.365377
31
0.0
0
ARC
8
0
10
3285.968772
20
1262.365377
30
0.0
40
0.500000
50
64.756218
51
180.000000
0
ARC
8
0
10
3288.868772
20
1268.515987
30
0.0
40
6.300000
50
244.756218
51
275.104306
0
ARC
8
0
10
3289.300272
20
1263.685220
30
0.0
40
1.450000
50
275.104306
51
95.104306
0
ARC
8
0
10
3288.868772
20
1268.515987
30
0.0
40
3.400000
50
354.895694
51
275.104306
0
ARC
8
0
10
3293.699538
20
1268.084486
30
0.0
40
1.450000
50
174.895694
51
354.895694
0
ARC
8
0
10
3288.868772
20
1268.515987
30
0.0
40
6.300000
50
354.895694
51
50.284863
0
ARC
8
0
10
3293.852746
20
1274.515987
30
0.0
40
1.500000
50
90.000000
51
230.284863
0
LINE
8
0
10
3293.852746
20
1276.015987
30
0.0
11
3307.884797
21
1276.015987
31
0.0
0
ARC
8
0
10
3307.884797
20
1274.515987
30
0.0
40
1.500000
50
309.715137
51
90.000000
0
ARC
8
0
10
3312.868772
20
1268.515987
30
0.0
40
6.300000
50
129.715137
51
185.104306
0
LINE
8
0
10
3295.168772
20
1202.565989
30
0.0
11
3295.168772
21
1205.815987
31
0.0
0
ARC
8
0
10
3295.668772
20
1205.815987
30
0.0
40
0.500000
50
90.000000
51
180.000000
0
LINE
8
0
10
3295.668772
20
1206.315987
30
0.0
11
3306.068772
21
1206.315987
31
0.0
0
ARC
8
0
10
3306.068772
20
1205.815987
30
0.0
40
0.500000
50
0.000000
51
90.000000
0
LINE
8
0
10
3306.568772
20
1205.815987
30
0.0
11
3306.568772
21
1202.565989
31
0.0
0
ARC
8
0
10
3306.068772
20
1202.565989
30
0.0
40
0.500000
50
270.000000
51
0.000000
0
LINE
8
0
10
3306.068772
20
1202.065989
30
0.0
11
3295.668772
21
1202.065989
31
0.0
0
ARC
8
0
10
3295.668772
20
1202.565989
30
0.0
40
0.500000
50
180.000000
51
270.000000
0
ATTDEF
8
0
10
3324.018772
20
1282.742676
30
0.0
40
3.5
1

3

2
HC_START
70
0
0
ATTDEF
8
0
10
3277.718772
20
1282.742676
30
0.0
40
3.5
1

3

2
HC_END
70
0
0
ATTDEF
8
0
10
3277.718772
20
1200.065987
30
0.0
40
3.5
1

3

2
FP_LCS_ORIG
70
0
0
ATTDEF
8
0
10
3277.718772
20
1210.065987
30
0.0
40
3.5
1

3

2
FP_LCS_HOT
70
0
0
ATTDEF
8
0
10
3287.718772
20
1200.065987
30
0.0
40
3.5
1

3

2
FP_LCS_INTERN
70
0
0
ATTDEF
8
0
10
0.000000
20
0.000000
30
0.0
40
3.5
1

3

2
PANE_WIDTH:0
70
0
0
ATTDEF
8
0
10
0.000000
20
0.000000
30
0.0
40
3.5
1

3

2
MIN_VETRO:0
70
0
0
ATTDEF
8
0
10
0.000000
20
0.000000
30
0.0
40
3.5
1

3

2
MAX_VETRO:0
70
0
0
ATTDEF
8
0
10
0.000000
20
0.000000
30
0.0
40
3.5
1

3

2
JX:0
70
0
0
ATTDEF
8
0
10
0.000000
20
0.000000
30
0.0
40
3.5
1

3

2
WX:0
70
0
0
ATTDEF
8
0
10
0.000000
20
0.000000
30
0.0
40
3.5
1

3

2
JY:0
70
0
0
ATTDEF
8
0
10
0.000000
20
0.000000
30
0.0
40
3.5
1

3

2
WY:0
70
0
0
ATTDEF
8
0
10
0.000000
20
0.000000
30
0.0
40
3.5
1

3

2
DESC:Camisa para 105mm.
70
0
0
ATTDEF
8
0
10
0.000000
20
0.000000
30
0.0
40
3.5
1

3

2
DENS:2.6649
70
0
0
ATTDEF
8
0
10
0.000000
20
0.000000
30
0.0
40
3.5
1

3

2
TDEV:61.96
70
0
0
ATTDEF
8
0
10
0.000000
20
0.000000
30
0.0
40
3.5
1

3

2
TDEV2:0
70
0
0
ATTDEF
8
0
10
0.000000
20
0.000000
30
0.0
40
3.5
1

3

2
TDEV3:0
70
0
0
ATTDEF
8
0
10
0.000000
20
0.000000
30
0.0
40
3.5
1

3

2
TDEV4:0
70
0
0
ATTDEF
8
0
10
0.000000
20
0.000000
30
0.0
40
3.5
1

3

2
TDEV5:0
70
0
0
ATTDEF
8
0
10
0.000000
20
0.000000
30
0.0
40
3.5
1

3

2
PANE_WIDTH:0
70
0
0
ATTDEF
8
0
10
0.000000
20
0.000000
30
0.0
40
3.5
1

3

2
MIN_VETRO:0
70
0
0
ATTDEF
8
0
10
0.000000
20
0.000000
30
0.0
40
3.5
1

3

2
MAX_VETRO:0
70
0
0
ATTDEF
8
0
10
0.000000
20
0.000000
30
0.0
40
3.5
1

3

2
JX:0
70
0
0
ATTDEF
8
0
10
0.000000
20
0.000000
30
0.0
40
3.5
1

3

2
WX:0
70
0
0
ATTDEF
8
0
10
0.000000
20
0.000000
30
0.0
40
3.5
1

3

2
JY:0
70
0
0
ATTDEF
8
0
10
0.000000
20
0.000000
30
0.0
40
3.5
1

3

2
WY:0
70
0
0
ENDSEC
0
EOF
