0
SECTION
2
ENTITIES
0
ARC
8
0
10
20.074195
20
6.700000
30
0.0
40
0.300000
50
90.000000
51
217.852838
0
ARC
8
0
10
15.012376
20
3.504208
30
0.0
40
5.687742
50
324.223538
51
31.972167
0
ARC
8
0
10
19.220821
20
0.550000
30
0.0
40
0.550000
50
137.583333
51
317.583333
0
ARC
8
0
10
15.801290
20
3.266040
30
0.0
40
3.818429
50
322.110438
51
77.926068
0
LINE
8
0
10
16.600005
20
7.000000
30
0.0
11
20.074195
21
7.000000
31
0.0
0
ARC
8
0
10
20.074195
20
17.300000
30
0.0
40
0.300000
50
142.147162
51
270.000000
0
ARC
8
0
10
15.012376
20
20.495791
30
0.0
40
5.687742
50
328.027833
51
35.776462
0
ARC
8
0
10
19.220821
20
23.450000
30
0.0
40
0.550000
50
42.416667
51
222.416667
0
ARC
8
0
10
15.801290
20
20.733960
30
0.0
40
3.818429
50
282.073932
51
37.889562
0
LINE
8
0
10
16.600005
20
17.000000
30
0.0
11
20.074195
21
17.000000
31
0.0
0
ARC
8
0
10
30.074195
20
6.700000
30
0.0
40
0.300000
50
90.000000
51
217.852838
0
ARC
8
0
10
25.012376
20
3.504208
30
0.0
40
5.687742
50
324.223538
51
31.972167
0
ARC
8
0
10
29.220821
20
0.550000
30
0.0
40
0.550000
50
137.583333
51
317.583333
0
ARC
8
0
10
25.801290
20
3.266040
30
0.0
40
3.818429
50
322.110438
51
77.926068
0
LINE
8
0
10
26.600005
20
7.000000
30
0.0
11
30.074195
21
7.000000
31
0.0
0
ARC
8
0
10
30.074195
20
17.300000
30
0.0
40
0.300000
50
142.147162
51
270.000000
0
ARC
8
0
10
25.012376
20
20.495791
30
0.0
40
5.687742
50
328.027833
51
35.776462
0
ARC
8
0
10
29.220821
20
23.450000
30
0.0
40
0.550000
50
42.416667
51
222.416667
0
ARC
8
0
10
25.801290
20
20.733960
30
0.0
40
3.818429
50
282.073932
51
37.889562
0
LINE
8
0
10
26.600005
20
17.000000
30
0.0
11
30.074195
21
17.000000
31
0.0
0
ARC
8
0
10
40.074195
20
6.700000
30
0.0
40
0.300000
50
90.000000
51
217.852838
0
ARC
8
0
10
35.012376
20
3.504208
30
0.0
40
5.687742
50
324.223538
51
31.972167
0
ARC
8
0
10
39.220821
20
0.550000
30
0.0
40
0.550000
50
137.583333
51
317.583333
0
ARC
8
0
10
35.801290
20
3.266040
30
0.0
40
3.818429
50
322.110438
51
77.926068
0
LINE
8
0
10
36.600005
20
7.000000
30
0.0
11
40.074195
21
7.000000
31
0.0
0
ARC
8
0
10
40.074195
20
17.300000
30
0.0
40
0.300000
50
142.147162
51
270.000000
0
ARC
8
0
10
35.012376
20
20.495791
30
0.0
40
5.687742
50
328.027833
51
35.776462
0
ARC
8
0
10
39.220821
20
23.450000
30
0.0
40
0.550000
50
42.416667
51
222.416667
0
ARC
8
0
10
35.801290
20
20.733960
30
0.0
40
3.818429
50
282.073932
51
37.889562
0
LINE
8
0
10
36.600005
20
17.000000
30
0.0
11
40.074195
21
17.000000
31
0.0
0
LINE
8
0
10
29.450000
20
8.801358
30
0.0
11
29.450000
21
15.201358
31
0.0
0
ARC
8
0
10
29.750000
20
15.201358
30
0.0
40
0.300000
50
90.000000
51
180.000000
0
LINE
8
0
10
29.750000
20
15.501358
30
0.0
11
39.450000
21
15.501358
31
0.0
0
ARC
8
0
10
39.450000
20
15.001358
30
0.0
40
0.500000
50
0.000000
51
90.000000
0
LINE
8
0
10
39.950000
20
15.001358
30
0.0
11
39.950000
21
12.250000
31
0.0
0
LINE
8
0
10
39.950000
20
12.250000
30
0.0
11
40.249997
21
12.000000
31
0.0
0
LINE
8
0
10
40.249997
20
12.000000
30
0.0
11
39.950000
21
11.750000
31
0.0
0
LINE
8
0
10
39.950000
20
11.750000
30
0.0
11
39.950000
21
9.001358
31
0.0
0
ARC
8
0
10
39.450000
20
9.001358
30
0.0
40
0.500000
50
270.000000
51
0.000000
0
LINE
8
0
10
39.450000
20
8.501358
30
0.0
11
29.750000
21
8.501358
31
0.0
0
ARC
8
0
10
29.750000
20
8.801358
30
0.0
40
0.300000
50
180.000000
51
270.000000
0
ARC
8
0
10
53.999998
20
12.010279
30
0.0
40
0.200000
50
324.577352
51
35.420900
0
LINE
8
0
10
54.113837
20
11.857695
30
0.0
11
54.162978
21
11.894358
31
0.0
0
LINE
8
0
10
54.113837
20
11.857695
30
0.0
11
51.482682
21
10.958191
31
0.0
0
ARC
8
0
10
51.062151
20
12.188294
30
0.0
40
1.300000
50
274.415867
51
288.873845
0
ARC
8
0
10
47.374083
20
59.946102
30
0.0
40
49.200000
50
265.254864
51
274.415867
0
ARC
8
0
10
43.295541
20
12.010241
30
0.0
40
1.095541
50
90.000000
51
270.000000
0
ARC
8
0
10
47.374083
20
-35.925620
30
0.0
40
49.200000
50
85.583972
51
94.745136
0
ARC
8
0
10
51.062285
20
11.832177
30
0.0
40
1.300000
50
71.126913
51
85.583972
0
LINE
8
0
10
51.482800
20
13.062285
30
0.0
11
54.113837
21
12.162860
31
0.0
0
LINE
8
0
10
54.162982
20
12.126195
30
0.0
11
54.113837
21
12.162860
31
0.0
0
ARC
8
0
10
27.650000
20
15.201358
30
0.0
40
0.300000
50
0.000000
51
90.000000
0
LINE
8
0
10
27.950000
20
15.201358
30
0.0
11
27.950000
21
8.801358
31
0.0
0
ARC
8
0
10
27.650000
20
8.801358
30
0.0
40
0.300000
50
270.000000
51
0.000000
0
LINE
8
0
10
27.650000
20
8.501358
30
0.0
11
18.015007
21
8.501358
31
0.0
0
ARC
8
0
10
18.015007
20
8.801358
30
0.0
40
0.300000
50
157.500000
51
270.000000
0
LINE
8
0
10
17.737843
20
8.916163
30
0.0
11
18.734129
21
11.321411
31
0.0
0
ARC
8
0
10
17.071146
20
12.010241
30
0.0
40
1.800000
50
337.500000
51
22.500000
0
LINE
8
0
10
18.734129
20
12.699071
30
0.0
11
17.745202
21
15.086553
31
0.0
0
ARC
8
0
10
18.022365
20
15.201358
30
0.0
40
0.300000
50
90.000000
51
202.500000
0
LINE
8
0
10
18.022365
20
15.501358
30
0.0
11
27.650000
21
15.501358
31
0.0
0
ARC
8
0
10
48.300000
20
9.951364
30
0.0
40
0.249982
50
209.988832
51
330.002349
0
LINE
8
0
10
48.516496
20
9.826382
30
0.0
11
48.594204
21
9.960991
31
0.0
0
ARC
8
0
10
47.374083
20
59.946102
30
0.0
40
50.000000
50
271.398294
51
274.506051
0
ARC
8
0
10
51.184456
20
11.596013
30
0.0
40
1.500000
50
274.506051
51
288.873845
0
LINE
8
0
10
51.669684
20
10.176663
30
0.0
11
54.499998
21
11.144253
31
0.0
0
ARC
8
0
10
53.999998
20
12.010279
30
0.0
40
1.000000
50
299.999969
51
60.000031
0
LINE
8
0
10
54.499998
20
12.876305
30
0.0
11
51.669796
21
13.843814
31
0.0
0
ARC
8
0
10
51.184587
20
12.424458
30
0.0
40
1.500000
50
71.126913
51
85.493794
0
ARC
8
0
10
47.374083
20
-35.925620
30
0.0
40
50.000000
50
85.493794
51
88.601706
0
LINE
8
0
10
48.594204
20
14.059491
30
0.0
11
48.516496
21
14.194099
31
0.0
0
ARC
8
0
10
48.300000
20
14.069117
30
0.0
40
0.249982
50
29.997651
51
149.998311
0
LINE
8
0
10
48.083513
20
14.194115
30
0.0
11
48.012047
21
14.070310
31
0.0
0
ARC
8
0
10
47.374083
20
-35.925620
30
0.0
40
50.000000
50
89.268927
51
95.538610
0
ARC
8
0
10
42.500000
20
14.338615
30
0.0
40
0.500000
50
180.000000
51
275.538610
0
LINE
8
0
10
42.000000
20
14.338615
30
0.0
11
42.000000
21
16.701358
31
0.0
0
ARC
8
0
10
41.700000
20
16.701358
30
0.0
40
0.300000
50
0.000000
51
90.000000
0
LINE
8
0
10
41.700000
20
17.001358
30
0.0
11
12.300000
21
17.001358
31
0.0
0
ARC
8
0
10
12.300000
20
16.701358
30
0.0
40
0.300000
50
90.000000
51
180.000000
0
LINE
8
0
10
12.000000
20
16.701358
30
0.0
11
12.000000
21
14.911227
31
0.0
0
ARC
8
0
10
12.300000
20
14.911227
30
0.0
40
0.300000
50
180.000000
51
240.000122
0
LINE
8
0
10
12.150001
20
14.651419
30
0.0
11
13.000000
21
14.160674
31
0.0
0
ARC
8
0
10
13.150000
20
14.420482
30
0.0
40
0.300000
50
240.000122
51
0.000000
0
LINE
8
0
10
13.450000
20
14.420482
30
0.0
11
13.450004
21
15.501358
31
0.0
0
LINE
8
0
10
13.450004
20
15.501358
30
0.0
11
15.749342
21
15.501358
31
0.0
0
ARC
8
0
10
15.749342
20
15.201358
30
0.0
40
0.300000
50
22.500000
51
90.000000
0
LINE
8
0
10
16.026506
20
15.316163
30
0.0
11
17.348310
21
12.125046
31
0.0
0
ARC
8
0
10
17.071146
20
12.010241
30
0.0
40
0.300000
50
337.500000
51
22.500000
0
LINE
8
0
10
17.348310
20
11.895436
30
0.0
11
16.019147
21
8.686553
31
0.0
0
ARC
8
0
10
15.741983
20
8.801358
30
0.0
40
0.300000
50
270.000000
51
337.500000
0
LINE
8
0
10
15.741983
20
8.501358
30
0.0
11
13.450000
21
8.501358
31
0.0
0
LINE
8
0
10
13.450000
20
8.501358
30
0.0
11
13.450000
21
9.600000
31
0.0
0
ARC
8
0
10
13.150000
20
9.600000
30
0.0
40
0.300000
50
0.000000
51
119.999878
0
LINE
8
0
10
13.000000
20
9.859808
30
0.0
11
12.150001
21
9.369062
31
0.0
0
ARC
8
0
10
12.300000
20
9.109254
30
0.0
40
0.300000
50
119.999878
51
180.000000
0
LINE
8
0
10
12.000000
20
9.109254
30
0.0
11
12.000000
21
7.301358
31
0.0
0
ARC
8
0
10
12.300000
20
7.301358
30
0.0
40
0.300000
50
180.000000
51
270.000000
0
LINE
8
0
10
12.300000
20
7.001358
30
0.0
11
41.700000
21
7.001358
31
0.0
0
ARC
8
0
10
41.700000
20
7.301358
30
0.0
40
0.300000
50
270.000000
51
0.000000
0
LINE
8
0
10
42.000000
20
7.301358
30
0.0
11
42.000000
21
9.681867
31
0.0
0
ARC
8
0
10
42.500000
20
9.681867
30
0.0
40
0.500000
50
84.461390
51
180.000000
0
ARC
8
0
10
47.374083
20
59.946102
30
0.0
40
50.000000
50
264.461390
51
270.731073
0
LINE
8
0
10
48.012047
20
9.950172
30
0.0
11
48.083513
21
9.826367
31
0.0
0
ARC
8
0
10
7.220844
20
23.450000
30
0.0
40
0.550000
50
42.416667
51
222.416667
0
ARC
8
0
10
3.012399
20
20.495792
30
0.0
40
5.687742
50
328.027833
51
35.776462
0
ARC
8
0
10
8.074218
20
17.300000
30
0.0
40
0.300000
50
142.147162
51
270.000000
0
LINE
8
0
10
8.074218
20
17.000000
30
0.0
11
4.600028
21
17.000000
31
0.0
0
ARC
8
0
10
3.801313
20
20.733960
30
0.0
40
3.818429
50
282.073932
51
37.889562
0
ARC
8
0
10
8.074191
20
6.700000
30
0.0
40
0.300000
50
90.000000
51
217.852838
0
ARC
8
0
10
3.012371
20
3.504209
30
0.0
40
5.687742
50
324.223538
51
31.972167
0
ARC
8
0
10
7.220817
20
0.550000
30
0.0
40
0.550000
50
137.583333
51
317.583333
0
ARC
8
0
10
3.801285
20
3.266040
30
0.0
40
3.818429
50
322.110438
51
77.926068
0
LINE
8
0
10
4.600000
20
7.000000
30
0.0
11
8.074191
21
7.000000
31
0.0
0
ARC
8
0
10
5.071146
20
12.010241
30
0.0
40
1.800000
50
337.500000
51
359.674017
0
LINE
8
0
10
6.734129
20
11.321411
30
0.0
11
5.737843
21
8.916163
31
0.0
0
ARC
8
0
10
6.015007
20
8.801358
30
0.0
40
0.300000
50
157.500000
51
270.000000
0
LINE
8
0
10
6.015007
20
8.501358
30
0.0
11
9.450000
21
8.501358
31
0.0
0
ARC
8
0
10
9.450000
20
9.001358
30
0.0
40
0.500000
50
270.000000
51
0.000000
0
LINE
8
0
10
9.950000
20
9.001358
30
0.0
11
9.950000
21
11.750000
31
0.0
0
LINE
8
0
10
9.950000
20
11.750000
30
0.0
11
10.249997
21
12.000000
31
0.0
0
LINE
8
0
10
10.249997
20
12.000000
30
0.0
11
9.950000
21
12.250000
31
0.0
0
LINE
8
0
10
9.950000
20
12.250000
30
0.0
11
9.950000
21
14.998642
31
0.0
0
ARC
8
0
10
9.450000
20
14.998642
30
0.0
40
0.500000
50
0.000000
51
90.000000
0
LINE
8
0
10
9.450000
20
15.498642
30
0.0
11
6.015007
21
15.498642
31
0.0
0
ARC
8
0
10
6.015007
20
15.198642
30
0.0
40
0.300000
50
90.000000
51
202.500000
0
LINE
8
0
10
5.737843
20
15.083837
30
0.0
11
6.734129
21
12.678589
31
0.0
0
ARC
8
0
10
5.071146
20
11.989759
30
0.0
40
1.800000
50
0.325983
51
22.500000
0
ARC
8
0
10
1.150000
20
14.400000
30
0.0
40
0.300000
50
240.000122
51
0.000000
0
LINE
8
0
10
1.000001
20
14.140192
30
0.0
11
0.150001
21
14.630938
31
0.0
0
ARC
8
0
10
0.300000
20
14.890745
30
0.0
40
0.300000
50
180.000000
51
240.000118
0
LINE
8
0
10
0.000000
20
14.890745
30
0.0
11
0.000000
21
16.700000
31
0.0
0
ARC
8
0
10
0.300000
20
16.700000
30
0.0
40
0.300000
50
90.000000
51
180.000000
0
LINE
8
0
10
0.300000
20
17.000000
30
0.0
11
11.500000
21
17.000000
31
0.0
0
ARC
8
0
10
11.500000
20
16.500000
30
0.0
40
0.500000
50
0.000000
51
90.000000
0
LINE
8
0
10
12.000000
20
16.500000
30
0.0
11
12.000000
21
15.802716
31
0.0
0
ARC
8
0
10
11.700000
20
15.802716
30
0.0
40
0.300000
50
270.000000
51
0.000000
0
LINE
8
0
10
11.700000
20
15.502716
30
0.0
11
11.450000
21
15.502716
31
0.0
0
LINE
8
0
10
11.450000
20
15.502716
30
0.0
11
11.450000
21
14.301358
31
0.0
0
ARC
8
0
10
11.650000
20
14.301358
30
0.0
40
0.200000
50
180.000000
51
270.000000
0
LINE
8
0
10
11.659503
20
14.101584
30
0.0
11
13.750005
21
14.201019
31
0.0
0
LINE
8
0
10
13.750005
20
14.201019
30
0.0
11
13.750005
21
14.501358
31
0.0
0
ARC
8
0
10
14.050005
20
14.501358
30
0.0
40
0.300000
50
60.000000
51
180.000000
0
LINE
8
0
10
14.200005
20
14.761166
30
0.0
11
15.803284
21
13.835512
31
0.0
0
ARC
8
0
10
15.606568
20
13.494790
30
0.0
40
0.393432
50
272.700861
51
60.000000
0
LINE
8
0
10
15.625108
20
13.101795
30
0.0
11
13.256908
21
12.990078
31
0.0
0
ARC
8
0
10
13.735408
20
2.846749
30
0.0
40
10.154609
50
92.700861
51
101.144484
0
ARC
8
0
10
11.850000
20
12.417415
30
0.0
40
0.400000
50
101.144484
51
180.000000
0
LINE
8
0
10
11.450000
20
12.417415
30
0.0
11
11.450000
21
12.000000
31
0.0
0
LINE
8
0
10
11.450000
20
12.000000
30
0.0
11
11.450000
21
11.582586
31
0.0
0
ARC
8
0
10
11.850000
20
11.582586
30
0.0
40
0.400000
50
180.000000
51
258.855516
0
ARC
8
0
10
13.735408
20
21.153251
30
0.0
40
10.154609
50
258.855516
51
267.299139
0
LINE
8
0
10
13.256908
20
11.009922
30
0.0
11
15.625108
21
10.898205
31
0.0
0
ARC
8
0
10
15.606568
20
10.505210
30
0.0
40
0.393432
50
300.000000
51
87.299139
0
LINE
8
0
10
15.803284
20
10.164488
30
0.0
11
14.200005
21
9.238835
31
0.0
0
ARC
8
0
10
14.050005
20
9.498642
30
0.0
40
0.300000
50
180.000000
51
300.000000
0
LINE
8
0
10
13.750005
20
9.498642
30
0.0
11
13.750005
21
9.798981
31
0.0
0
LINE
8
0
10
13.750005
20
9.798981
30
0.0
11
11.659503
21
9.898416
31
0.0
0
ARC
8
0
10
11.650000
20
9.698642
30
0.0
40
0.200000
50
90.000000
51
180.000000
0
LINE
8
0
10
11.450000
20
9.698642
30
0.0
11
11.450000
21
8.497284
31
0.0
0
LINE
8
0
10
11.450000
20
8.497284
30
0.0
11
11.700000
21
8.497284
31
0.0
0
ARC
8
0
10
11.700000
20
8.197284
30
0.0
40
0.300000
50
0.000000
51
90.000000
0
LINE
8
0
10
12.000000
20
8.197284
30
0.0
11
12.000000
21
7.500000
31
0.0
0
ARC
8
0
10
11.500000
20
7.500000
30
0.0
40
0.500000
50
270.000000
51
0.000000
0
LINE
8
0
10
11.500000
20
7.000000
30
0.0
11
0.300000
21
7.000000
31
0.0
0
ARC
8
0
10
0.300000
20
7.300000
30
0.0
40
0.300000
50
180.000000
51
270.000000
0
LINE
8
0
10
0.000000
20
7.300000
30
0.0
11
0.000000
21
9.109255
31
0.0
0
ARC
8
0
10
0.300000
20
9.109255
30
0.0
40
0.300000
50
119.999882
51
180.000000
0
LINE
8
0
10
0.150001
20
9.369063
30
0.0
11
1.000001
21
9.859808
31
0.0
0
ARC
8
0
10
1.150000
20
9.600000
30
0.0
40
0.300000
50
0.000000
51
119.999878
0
LINE
8
0
10
1.450000
20
9.600000
30
0.0
11
1.450001
21
8.501358
31
0.0
0
LINE
8
0
10
1.450001
20
8.501358
30
0.0
11
3.741983
21
8.501358
31
0.0
0
ARC
8
0
10
3.741983
20
8.801358
30
0.0
40
0.300000
50
270.000000
51
337.500000
0
LINE
8
0
10
4.019147
20
8.686553
30
0.0
11
5.348310
21
11.895436
31
0.0
0
ARC
8
0
10
5.071146
20
12.010241
30
0.0
40
0.300000
50
337.500000
51
358.043734
0
ARC
8
0
10
5.071146
20
11.989759
30
0.0
40
0.300000
50
1.956266
51
22.500000
0
LINE
8
0
10
5.348310
20
12.104564
30
0.0
11
4.019147
21
15.313447
31
0.0
0
ARC
8
0
10
3.741983
20
15.198642
30
0.0
40
0.300000
50
22.500000
51
90.000000
0
LINE
8
0
10
3.741983
20
15.498642
30
0.0
11
1.450001
21
15.498642
31
0.0
0
LINE
8
0
10
1.450001
20
15.498642
30
0.0
11
1.450000
21
14.400000
31
0.0
0
ATTDEF
8
0
10
0.000000
20
0.000000
30
0.0
40
3.5
1

3

2
GLASS_MIN:0.000000
70
0
0
ATTDEF
8
0
10
0.000000
20
0.000000
30
0.0
40
3.5
1

3

2
GLASS_MAX:0.000000
70
0
0
ATTDEF
8
0
10
0.000000
20
0.000000
30
0.0
40
3.5
1

3

2
HW_START
70
0
0
ATTDEF
8
0
10
54.999998
20
24.000000
30
0.0
40
3.5
1

3

2
HW_END
70
0
0
ATTDEF
8
0
10
0.300000
20
17.000000
30
0.0
40
3.5
1

3

2
VC_START
70
0
0
ATTDEF
8
0
10
0.300000
20
7.000000
30
0.0
40
3.5
1

3

2
VC_END
70
0
0
ATTDEF
8
0
10
0.000000
20
0.000000
30
0.0
40
3.5
1

3

2
PTO_MNTTRV|1|42.00|0.00
70
0
0
ATTDEF
8
0
10
0.000000
20
0.000000
30
0.0
40
3.5
1

3

2
PTO_PRESS|1|0.00|-5.00
70
0
0
ATTDEF
8
0
10
0.000000
20
0.000000
30
0.0
40
3.5
1

3

2
FP_LCS_ORIG
70
0
0
ATTDEF
8
0
10
10.000000
20
0.000000
30
0.0
40
3.5
1

3

2
FP_LCS_HOT
70
0
0
ATTDEF
8
0
10
0.000000
20
10.000000
30
0.0
40
3.5
1

3

2
FP_LCS_INTERN
70
0
0
ATTDEF
8
0
10
0.000000
20
0.000000
30
0.0
40
3.5
1

3

2
PANE_WIDTH:0
70
0
0
ATTDEF
8
0
10
0.000000
20
0.000000
30
0.0
40
3.5
1

3

2
MIN_VETRO:0
70
0
0
ATTDEF
8
0
10
0.000000
20
0.000000
30
0.0
40
3.5
1

3

2
MAX_VETRO:0
70
0
0
ATTDEF
8
0
10
0.000000
20
0.000000
30
0.0
40
3.5
1

3

2
JX:0
70
0
0
ATTDEF
8
0
10
0.000000
20
0.000000
30
0.0
40
3.5
1

3

2
WX:0
70
0
0
ATTDEF
8
0
10
0.000000
20
0.000000
30
0.0
40
3.5
1

3

2
JY:0
70
0
0
ATTDEF
8
0
10
0.000000
20
0.000000
30
0.0
40
3.5
1

3

2
WY:0
70
0
0
ATTDEF
8
0
10
0.000000
20
0.000000
30
0.0
40
3.5
1

3

2
DESC:COR-9843 - COR-9842
70
0
0
ATTDEF
8
0
10
0.000000
20
0.000000
30
0.0
40
3.5
1

3

2
DENS:0
70
0
0
ATTDEF
8
0
10
0.000000
20
0.000000
30
0.0
40
3.5
1

3

2
TDEV:0
70
0
0
ATTDEF
8
0
10
0.000000
20
0.000000
30
0.0
40
3.5
1

3

2
TDEV2:0
70
0
0
ATTDEF
8
0
10
0.000000
20
0.000000
30
0.0
40
3.5
1

3

2
TDEV3:0
70
0
0
ATTDEF
8
0
10
0.000000
20
0.000000
30
0.0
40
3.5
1

3

2
TDEV4:0
70
0
0
ATTDEF
8
0
10
0.000000
20
0.000000
30
0.0
40
3.5
1

3

2
TDEV5:0
70
0
0
ATTDEF
8
0
10
0.000000
20
0.000000
30
0.0
40
3.5
1

3

2
PANE_WIDTH:0
70
0
0
ATTDEF
8
0
10
0.000000
20
0.000000
30
0.0
40
3.5
1

3

2
MIN_VETRO:0
70
0
0
ATTDEF
8
0
10
0.000000
20
0.000000
30
0.0
40
3.5
1

3

2
MAX_VETRO:0
70
0
0
ATTDEF
8
0
10
0.000000
20
0.000000
30
0.0
40
3.5
1

3

2
JX:0
70
0
0
ATTDEF
8
0
10
0.000000
20
0.000000
30
0.0
40
3.5
1

3

2
WX:0
70
0
0
ATTDEF
8
0
10
0.000000
20
0.000000
30
0.0
40
3.5
1

3

2
JY:0
70
0
0
ATTDEF
8
0
10
0.000000
20
0.000000
30
0.0
40
3.5
1

3

2
WY:0
70
0
0
ENDSEC
0
EOF
