0
SECTION
2
ENTITIES
0
LINE
8
0
10
5.000000
20
4.200000
30
0.0
11
5.000000
21
1.400000
31
0.0
0
LINE
8
0
10
5.000000
20
1.400000
30
0.0
11
1.400000
21
1.400000
31
0.0
0
LINE
8
0
10
1.400000
20
1.400000
30
0.0
11
1.400000
21
50.600000
31
0.0
0
LINE
8
0
10
1.400000
20
50.600000
30
0.0
11
5.000000
21
50.600000
31
0.0
0
LINE
8
0
10
5.000000
20
50.600000
30
0.0
11
5.000000
21
47.800000
31
0.0
0
LINE
8
0
10
5.000000
20
47.800000
30
0.0
11
6.400000
21
47.800000
31
0.0
0
LINE
8
0
10
6.400000
20
47.800000
30
0.0
11
6.400000
21
50.600000
31
0.0
0
LINE
8
0
10
6.400000
20
50.600000
30
0.0
11
9.653589
21
50.600000
31
0.0
0
LINE
8
0
10
9.653589
20
50.600000
30
0.0
11
10.073205
21
49.873205
31
0.0
0
LINE
8
0
10
10.073205
20
49.873205
30
0.0
11
11.332050
21
50.600000
31
0.0
0
LINE
8
0
10
11.332050
20
50.600000
30
0.0
11
19.000000
21
50.600000
31
0.0
0
LINE
8
0
10
19.000000
20
50.600000
30
0.0
11
19.000000
21
52.000000
31
0.0
0
LINE
8
0
10
19.000000
20
52.000000
30
0.0
11
1.000000
21
52.000000
31
0.0
0
ARC
8
0
10
1.000000
20
51.000000
30
0.0
40
1.000000
50
90.000000
51
180.000000
0
LINE
8
0
10
0.000000
20
51.000000
30
0.0
11
0.000000
21
1.000000
31
0.0
0
ARC
8
0
10
1.000000
20
1.000000
30
0.0
40
1.000000
50
180.000000
51
270.000000
0
LINE
8
0
10
1.000000
20
0.000000
30
0.0
11
19.000000
21
0.000000
31
0.0
0
LINE
8
0
10
19.000000
20
0.000000
30
0.0
11
19.000000
21
1.400000
31
0.0
0
LINE
8
0
10
19.000000
20
1.400000
30
0.0
11
11.332050
21
1.400000
31
0.0
0
LINE
8
0
10
11.332050
20
1.400000
30
0.0
11
10.073205
21
2.126795
31
0.0
0
LINE
8
0
10
10.073205
20
2.126795
30
0.0
11
9.653589
21
1.400000
31
0.0
0
LINE
8
0
10
9.653589
20
1.400000
30
0.0
11
6.400000
21
1.400000
31
0.0
0
LINE
8
0
10
6.400000
20
1.400000
30
0.0
11
6.400000
21
4.200000
31
0.0
0
LINE
8
0
10
6.400000
20
4.200000
30
0.0
11
5.000000
21
4.200000
31
0.0
0
ATTDEF
8
0
10
19.000000
20
52.000000
30
0.0
40
3.5
1

3

2
VC_START
70
0
0
ATTDEF
8
0
10
19.000000
20
0.000000
30
0.0
40
3.5
1

3

2
VC_END
70
0
0
LINE
8
0
10
13.500000
20
26.249964
30
0.0
11
13.500000
21
31.319668
31
0.0
0
ARC
8
0
10
13.800000
20
31.319666
30
0.0
40
0.300000
50
149.999911
51
180.000000
0
LINE
8
0
10
13.540192
20
31.469666
30
0.0
11
16.797919
21
39.964453
31
0.0
0
ARC
8
0
10
16.704549
20
40.000260
30
0.0
40
0.100000
50
339.018495
51
90.000000
0
LINE
8
0
10
16.704549
20
40.100260
30
0.0
11
14.499978
21
40.100260
31
0.0
0
ARC
8
0
10
14.499978
20
41.100238
30
0.0
40
0.999978
50
180.000000
51
270.000000
0
LINE
8
0
10
13.500000
20
41.100238
30
0.0
11
13.500000
21
46.801615
31
0.0
0
ARC
8
0
10
12.500461
20
46.801615
30
0.0
40
0.999539
50
360.000000
51
90.000000
0
LINE
8
0
10
12.500461
20
47.801154
30
0.0
11
7.000000
21
47.801154
31
0.0
0
ARC
8
0
10
7.000000
20
48.101154
30
0.0
40
0.300000
50
180.000000
51
270.000000
0
LINE
8
0
10
6.700000
20
48.101154
30
0.0
11
6.700000
21
49.033480
31
0.0
0
ARC
8
0
10
7.700000
20
49.033480
30
0.0
40
1.000000
50
99.019322
51
180.000000
0
LINE
8
0
10
7.543232
20
50.021115
30
0.0
11
9.300209
21
50.300000
31
0.0
0
LINE
8
0
10
9.300209
20
50.300000
30
0.0
11
10.000194
21
49.600016
31
0.0
0
LINE
8
0
10
10.000194
20
49.600016
30
0.0
11
11.212604
21
50.300000
31
0.0
0
LINE
8
0
10
11.212604
20
50.300000
30
0.0
11
18.500011
21
50.300000
31
0.0
0
ARC
8
0
10
18.500011
20
49.800011
30
0.0
40
0.499989
50
360.000000
51
90.000000
0
LINE
8
0
10
19.000000
20
49.800011
30
0.0
11
19.000000
21
47.610000
31
0.0
0
LINE
8
0
10
19.000000
20
47.610000
30
0.0
11
18.500000
21
47.110000
31
0.0
0
LINE
8
0
10
18.500000
20
47.110000
30
0.0
11
18.000000
21
47.110000
31
0.0
0
LINE
8
0
10
18.000000
20
47.110000
30
0.0
11
18.000000
21
49.000000
31
0.0
0
LINE
8
0
10
18.000000
20
49.000000
30
0.0
11
15.200000
21
49.000000
31
0.0
0
LINE
8
0
10
15.200000
20
49.000000
30
0.0
11
15.200000
21
41.600000
31
0.0
0
LINE
8
0
10
15.200000
20
41.600000
30
0.0
11
18.000000
21
41.600000
31
0.0
0
LINE
8
0
10
18.000000
20
41.600000
30
0.0
11
18.000000
21
43.990000
31
0.0
0
LINE
8
0
10
18.000000
20
43.990000
30
0.0
11
18.500000
21
43.990000
31
0.0
0
LINE
8
0
10
18.500000
20
43.990000
30
0.0
11
19.000000
21
43.490000
31
0.0
0
LINE
8
0
10
19.000000
20
43.490000
30
0.0
11
19.000000
21
40.100260
31
0.0
0
LINE
8
0
10
19.000000
20
40.100260
30
0.0
11
17.000000
21
30.804649
31
0.0
0
LINE
8
0
10
17.000000
20
30.804649
30
0.0
11
17.000000
21
21.195352
31
0.0
0
LINE
8
0
10
17.000000
20
21.195352
30
0.0
11
19.000000
21
11.899741
31
0.0
0
LINE
8
0
10
19.000000
20
11.899741
30
0.0
11
19.000000
21
8.510000
31
0.0
0
LINE
8
0
10
19.000000
20
8.510000
30
0.0
11
18.500000
21
8.010000
31
0.0
0
LINE
8
0
10
18.500000
20
8.010000
30
0.0
11
18.000000
21
8.010000
31
0.0
0
LINE
8
0
10
18.000000
20
8.010000
30
0.0
11
18.000000
21
10.400000
31
0.0
0
LINE
8
0
10
18.000000
20
10.400000
30
0.0
11
15.200000
21
10.400000
31
0.0
0
LINE
8
0
10
15.200000
20
10.400000
30
0.0
11
15.200000
21
3.000000
31
0.0
0
LINE
8
0
10
15.200000
20
3.000000
30
0.0
11
18.000000
21
3.000000
31
0.0
0
LINE
8
0
10
18.000000
20
3.000000
30
0.0
11
18.000000
21
4.890000
31
0.0
0
LINE
8
0
10
18.000000
20
4.890000
30
0.0
11
18.500000
21
4.890000
31
0.0
0
LINE
8
0
10
18.500000
20
4.890000
30
0.0
11
19.000000
21
4.390000
31
0.0
0
LINE
8
0
10
19.000000
20
4.390000
30
0.0
11
19.000000
21
2.199990
31
0.0
0
ARC
8
0
10
18.500011
20
2.199990
30
0.0
40
0.499989
50
270.000000
51
360.000000
0
LINE
8
0
10
18.500011
20
1.700000
30
0.0
11
11.212604
21
1.700000
31
0.0
0
LINE
8
0
10
11.212604
20
1.700000
30
0.0
11
10.000194
21
2.399985
31
0.0
0
LINE
8
0
10
10.000194
20
2.399985
30
0.0
11
9.300209
21
1.700000
31
0.0
0
LINE
8
0
10
9.300209
20
1.700000
30
0.0
11
7.543232
21
1.978886
31
0.0
0
ARC
8
0
10
7.700000
20
2.966521
30
0.0
40
1.000000
50
180.000000
51
260.980678
0
LINE
8
0
10
6.700000
20
2.966521
30
0.0
11
6.700000
21
3.898847
31
0.0
0
ARC
8
0
10
7.000000
20
3.898847
30
0.0
40
0.300000
50
90.000000
51
180.000000
0
LINE
8
0
10
7.000000
20
4.198847
30
0.0
11
12.500461
21
4.198847
31
0.0
0
ARC
8
0
10
12.500461
20
5.198386
30
0.0
40
0.999539
50
270.000000
51
360.000000
0
LINE
8
0
10
13.500000
20
5.198386
30
0.0
11
13.500000
21
10.899763
31
0.0
0
ARC
8
0
10
14.499978
20
10.899763
30
0.0
40
0.999978
50
90.000000
51
180.000000
0
LINE
8
0
10
14.499978
20
11.899741
30
0.0
11
16.704549
21
11.899741
31
0.0
0
ARC
8
0
10
16.704549
20
11.999741
30
0.0
40
0.100000
50
270.000000
51
20.981505
0
LINE
8
0
10
16.797919
20
12.035548
30
0.0
11
13.540192
21
20.530335
31
0.0
0
ARC
8
0
10
13.800000
20
20.680335
30
0.0
40
0.300000
50
180.000000
51
210.000089
0
LINE
8
0
10
13.500000
20
20.680333
30
0.0
11
13.500000
21
25.750037
31
0.0
0
LINE
8
0
10
13.500000
20
25.750037
30
0.0
11
13.699971
21
26.000000
31
0.0
0
LINE
8
0
10
13.699971
20
26.000000
30
0.0
11
13.500000
21
26.249964
31
0.0
0
ATTDEF
8
0
10
14.856307
20
50.300000
30
0.0
40
3.5
1

3

2
VC_START
70
0
0
ATTDEF
8
0
10
14.856307
20
1.700000
30
0.0
40
3.5
1

3

2
VC_END
70
0
0
ARC
8
0
10
32.834195
20
20.698642
30
0.0
40
0.300000
50
90.000000
51
217.852838
0
ARC
8
0
10
27.772376
20
17.502850
30
0.0
40
5.687742
50
324.223538
51
31.972167
0
ARC
8
0
10
31.980821
20
14.548642
30
0.0
40
0.550000
50
137.583333
51
317.583333
0
ARC
8
0
10
28.561290
20
17.264682
30
0.0
40
3.818429
50
322.110438
51
77.926068
0
LINE
8
0
10
29.360005
20
20.998642
30
0.0
11
32.834195
21
20.998642
31
0.0
0
ARC
8
0
10
32.834195
20
31.298642
30
0.0
40
0.300000
50
142.147162
51
270.000000
0
ARC
8
0
10
27.772376
20
34.494433
30
0.0
40
5.687742
50
328.027833
51
35.776462
0
ARC
8
0
10
31.980821
20
37.448642
30
0.0
40
0.550000
50
42.416667
51
222.416667
0
ARC
8
0
10
28.561290
20
34.732602
30
0.0
40
3.818429
50
282.073932
51
37.889562
0
LINE
8
0
10
29.360005
20
30.998642
30
0.0
11
32.834195
21
30.998642
31
0.0
0
ARC
8
0
10
42.834195
20
20.698642
30
0.0
40
0.300000
50
90.000000
51
217.852838
0
ARC
8
0
10
37.772376
20
17.502850
30
0.0
40
5.687742
50
324.223538
51
31.972167
0
ARC
8
0
10
41.980821
20
14.548642
30
0.0
40
0.550000
50
137.583333
51
317.583333
0
ARC
8
0
10
38.561290
20
17.264682
30
0.0
40
3.818429
50
322.110438
51
77.926068
0
LINE
8
0
10
39.360005
20
20.998642
30
0.0
11
42.834195
21
20.998642
31
0.0
0
ARC
8
0
10
42.834195
20
31.298642
30
0.0
40
0.300000
50
142.147162
51
270.000000
0
ARC
8
0
10
37.772376
20
34.494433
30
0.0
40
5.687742
50
328.027833
51
35.776462
0
ARC
8
0
10
41.980821
20
37.448642
30
0.0
40
0.550000
50
42.416667
51
222.416667
0
ARC
8
0
10
38.561290
20
34.732602
30
0.0
40
3.818429
50
282.073932
51
37.889562
0
LINE
8
0
10
39.360005
20
30.998642
30
0.0
11
42.834195
21
30.998642
31
0.0
0
ARC
8
0
10
52.834195
20
20.698642
30
0.0
40
0.300000
50
90.000000
51
217.852838
0
ARC
8
0
10
47.772376
20
17.502850
30
0.0
40
5.687742
50
324.223538
51
31.972167
0
ARC
8
0
10
51.980821
20
14.548642
30
0.0
40
0.550000
50
137.583333
51
317.583333
0
ARC
8
0
10
48.561290
20
17.264682
30
0.0
40
3.818429
50
322.110438
51
77.926068
0
LINE
8
0
10
49.360005
20
20.998642
30
0.0
11
52.834195
21
20.998642
31
0.0
0
ARC
8
0
10
52.834195
20
31.298642
30
0.0
40
0.300000
50
142.147162
51
270.000000
0
ARC
8
0
10
47.772376
20
34.494433
30
0.0
40
5.687742
50
328.027833
51
35.776462
0
ARC
8
0
10
51.980821
20
37.448642
30
0.0
40
0.550000
50
42.416667
51
222.416667
0
ARC
8
0
10
48.561290
20
34.732602
30
0.0
40
3.818429
50
282.073932
51
37.889562
0
LINE
8
0
10
49.360005
20
30.998642
30
0.0
11
52.834195
21
30.998642
31
0.0
0
LINE
8
0
10
42.210000
20
22.800000
30
0.0
11
42.210000
21
29.200000
31
0.0
0
ARC
8
0
10
42.510000
20
29.200000
30
0.0
40
0.300000
50
90.000000
51
180.000000
0
LINE
8
0
10
42.510000
20
29.500000
30
0.0
11
52.210000
21
29.500000
31
0.0
0
ARC
8
0
10
52.210000
20
29.000000
30
0.0
40
0.500000
50
360.000000
51
90.000000
0
LINE
8
0
10
52.710000
20
29.000000
30
0.0
11
52.710000
21
26.248642
31
0.0
0
LINE
8
0
10
52.710000
20
26.248642
30
0.0
11
53.009997
21
25.998642
31
0.0
0
LINE
8
0
10
53.009997
20
25.998642
30
0.0
11
52.710000
21
25.748642
31
0.0
0
LINE
8
0
10
52.710000
20
25.748642
30
0.0
11
52.710000
21
23.000000
31
0.0
0
ARC
8
0
10
52.210000
20
23.000000
30
0.0
40
0.500000
50
270.000000
51
360.000000
0
LINE
8
0
10
52.210000
20
22.500000
30
0.0
11
42.510000
21
22.500000
31
0.0
0
ARC
8
0
10
42.510000
20
22.800000
30
0.0
40
0.300000
50
180.000000
51
270.000000
0
ARC
8
0
10
66.759998
20
26.008921
30
0.0
40
0.200000
50
324.577352
51
35.420900
0
LINE
8
0
10
66.873837
20
25.856337
30
0.0
11
66.922978
21
25.893000
31
0.0
0
LINE
8
0
10
66.873837
20
25.856337
30
0.0
11
64.242682
21
24.956833
31
0.0
0
ARC
8
0
10
63.822151
20
26.186936
30
0.0
40
1.300000
50
274.415867
51
288.873845
0
ARC
8
0
10
60.134083
20
73.944744
30
0.0
40
49.200000
50
265.254864
51
274.415867
0
ARC
8
0
10
56.055541
20
26.008883
30
0.0
40
1.095541
50
90.000000
51
270.000000
0
ARC
8
0
10
60.134083
20
-21.926978
30
0.0
40
49.200000
50
85.583972
51
94.745136
0
ARC
8
0
10
63.822285
20
25.830819
30
0.0
40
1.300000
50
71.126913
51
85.583972
0
LINE
8
0
10
64.242800
20
27.060927
30
0.0
11
66.873837
21
26.161502
31
0.0
0
LINE
8
0
10
66.922982
20
26.124837
30
0.0
11
66.873837
21
26.161502
31
0.0
0
ARC
8
0
10
40.410000
20
29.200000
30
0.0
40
0.300000
50
360.000000
51
90.000000
0
LINE
8
0
10
40.710000
20
29.200000
30
0.0
11
40.710000
21
22.800000
31
0.0
0
ARC
8
0
10
40.410000
20
22.800000
30
0.0
40
0.300000
50
270.000000
51
360.000000
0
LINE
8
0
10
40.410000
20
22.500000
30
0.0
11
30.775007
21
22.500000
31
0.0
0
ARC
8
0
10
30.775007
20
22.800000
30
0.0
40
0.300000
50
157.500000
51
270.000000
0
LINE
8
0
10
30.497843
20
22.914805
30
0.0
11
31.494129
21
25.320053
31
0.0
0
ARC
8
0
10
29.831146
20
26.008883
30
0.0
40
1.800000
50
337.500000
51
22.500000
0
LINE
8
0
10
31.494129
20
26.697713
30
0.0
11
30.505202
21
29.085195
31
0.0
0
ARC
8
0
10
30.782365
20
29.200000
30
0.0
40
0.300000
50
90.000000
51
202.500000
0
LINE
8
0
10
30.782365
20
29.500000
30
0.0
11
40.410000
21
29.500000
31
0.0
0
ARC
8
0
10
61.060000
20
23.950006
30
0.0
40
0.249982
50
209.988832
51
330.002349
0
LINE
8
0
10
61.276496
20
23.825024
30
0.0
11
61.354204
21
23.959633
31
0.0
0
ARC
8
0
10
60.134083
20
73.944744
30
0.0
40
50.000000
50
271.398294
51
274.506051
0
ARC
8
0
10
63.944456
20
25.594655
30
0.0
40
1.500000
50
274.506051
51
288.873845
0
LINE
8
0
10
64.429684
20
24.175305
30
0.0
11
67.259998
21
25.142895
31
0.0
0
ARC
8
0
10
66.759998
20
26.008921
30
0.0
40
1.000000
50
299.999969
51
60.000031
0
LINE
8
0
10
67.259998
20
26.874947
30
0.0
11
64.429796
21
27.842456
31
0.0
0
ARC
8
0
10
63.944587
20
26.423100
30
0.0
40
1.500000
50
71.126913
51
85.493794
0
ARC
8
0
10
60.134083
20
-21.926978
30
0.0
40
50.000000
50
85.493794
51
88.601706
0
LINE
8
0
10
61.354204
20
28.058133
30
0.0
11
61.276496
21
28.192741
31
0.0
0
ARC
8
0
10
61.060000
20
28.067759
30
0.0
40
0.249982
50
29.997651
51
149.998311
0
LINE
8
0
10
60.843513
20
28.192757
30
0.0
11
60.772047
21
28.068952
31
0.0
0
ARC
8
0
10
60.134083
20
-21.926978
30
0.0
40
50.000000
50
89.268927
51
95.538610
0
ARC
8
0
10
55.260000
20
28.337257
30
0.0
40
0.500000
50
180.000000
51
275.538610
0
LINE
8
0
10
54.760000
20
28.337257
30
0.0
11
54.760000
21
30.700000
31
0.0
0
ARC
8
0
10
54.460000
20
30.700000
30
0.0
40
0.300000
50
360.000000
51
90.000000
0
LINE
8
0
10
54.460000
20
31.000000
30
0.0
11
25.060000
21
31.000000
31
0.0
0
ARC
8
0
10
25.060000
20
30.700000
30
0.0
40
0.300000
50
90.000000
51
180.000000
0
LINE
8
0
10
24.760000
20
30.700000
30
0.0
11
24.760000
21
28.909869
31
0.0
0
ARC
8
0
10
25.060000
20
28.909869
30
0.0
40
0.300000
50
180.000000
51
240.000122
0
LINE
8
0
10
24.910001
20
28.650061
30
0.0
11
25.760000
21
28.159316
31
0.0
0
ARC
8
0
10
25.910000
20
28.419124
30
0.0
40
0.300000
50
240.000122
51
360.000000
0
LINE
8
0
10
26.210000
20
28.419124
30
0.0
11
26.210004
21
29.500000
31
0.0
0
LINE
8
0
10
26.210004
20
29.500000
30
0.0
11
28.509342
21
29.500000
31
0.0
0
ARC
8
0
10
28.509342
20
29.200000
30
0.0
40
0.300000
50
22.500000
51
90.000000
0
LINE
8
0
10
28.786506
20
29.314805
30
0.0
11
30.108310
21
26.123688
31
0.0
0
ARC
8
0
10
29.831146
20
26.008883
30
0.0
40
0.300000
50
337.500000
51
22.500000
0
LINE
8
0
10
30.108310
20
25.894078
30
0.0
11
28.779147
21
22.685195
31
0.0
0
ARC
8
0
10
28.501983
20
22.800000
30
0.0
40
0.300000
50
270.000000
51
337.500000
0
LINE
8
0
10
28.501983
20
22.500000
30
0.0
11
26.210000
21
22.500000
31
0.0
0
LINE
8
0
10
26.210000
20
22.500000
30
0.0
11
26.210000
21
23.598642
31
0.0
0
ARC
8
0
10
25.910000
20
23.598642
30
0.0
40
0.300000
50
360.000000
51
119.999878
0
LINE
8
0
10
25.760000
20
23.858450
30
0.0
11
24.910001
21
23.367704
31
0.0
0
ARC
8
0
10
25.060000
20
23.107896
30
0.0
40
0.300000
50
119.999878
51
180.000000
0
LINE
8
0
10
24.760000
20
23.107896
30
0.0
11
24.760000
21
21.300000
31
0.0
0
ARC
8
0
10
25.060000
20
21.300000
30
0.0
40
0.300000
50
180.000000
51
270.000000
0
LINE
8
0
10
25.060000
20
21.000000
30
0.0
11
54.460000
21
21.000000
31
0.0
0
ARC
8
0
10
54.460000
20
21.300000
30
0.0
40
0.300000
50
270.000000
51
360.000000
0
LINE
8
0
10
54.760000
20
21.300000
30
0.0
11
54.760000
21
23.680509
31
0.0
0
ARC
8
0
10
55.260000
20
23.680509
30
0.0
40
0.500000
50
84.461390
51
180.000000
0
ARC
8
0
10
60.134083
20
73.944744
30
0.0
40
50.000000
50
264.461390
51
270.731073
0
LINE
8
0
10
60.772047
20
23.948814
30
0.0
11
60.843513
21
23.825009
31
0.0
0
ATTDEF
8
0
10
25.060000
20
31.000000
30
0.0
40
3.5
1

3

2
VC_START
70
0
0
ATTDEF
8
0
10
25.060000
20
21.000000
30
0.0
40
3.5
1

3

2
VC_END
70
0
0
LINE
8
0
10
72.760018
20
23.000000
30
0.0
11
83.760018
21
23.000000
31
0.0
0
ARC
8
0
10
83.760018
20
24.000000
30
0.0
40
1.000000
50
270.000000
51
360.000000
0
LINE
8
0
10
84.760018
20
24.000000
30
0.0
11
84.760018
21
28.000000
31
0.0
0
ARC
8
0
10
83.760018
20
28.000000
30
0.0
40
1.000000
50
360.000000
51
90.000000
0
LINE
8
0
10
83.760018
20
29.000000
30
0.0
11
72.760018
21
29.000000
31
0.0
0
ARC
8
0
10
72.760018
20
28.000000
30
0.0
40
1.000000
50
90.000000
51
180.000000
0
LINE
8
0
10
71.760018
20
28.000000
30
0.0
11
71.760018
21
24.000000
31
0.0
0
ARC
8
0
10
72.760018
20
24.000000
30
0.0
40
1.000000
50
180.000000
51
270.000000
0
LINE
8
0
10
238.060018
20
2.100000
30
0.0
11
238.060018
21
3.000000
31
0.0
0
LINE
8
0
10
238.060018
20
3.000000
30
0.0
11
240.060018
21
3.000000
31
0.0
0
ARC
8
0
10
240.060018
20
3.500000
30
0.0
40
0.500000
50
270.000000
51
360.000000
0
LINE
8
0
10
240.560018
20
3.500000
30
0.0
11
240.560018
21
10.800000
31
0.0
0
LINE
8
0
10
240.560018
20
10.800000
30
0.0
11
235.060018
21
11.900000
31
0.0
0
LINE
8
0
10
235.060018
20
11.900000
30
0.0
11
235.060018
21
13.000000
31
0.0
0
LINE
8
0
10
235.060018
20
13.000000
30
0.0
11
241.260018
21
13.000000
31
0.0
0
LINE
8
0
10
241.260018
20
13.000000
30
0.0
11
241.260018
21
39.000000
31
0.0
0
LINE
8
0
10
241.260018
20
39.000000
30
0.0
11
235.060018
21
39.000000
31
0.0
0
LINE
8
0
10
235.060018
20
39.000000
30
0.0
11
235.060018
21
40.100000
31
0.0
0
LINE
8
0
10
235.060018
20
40.100000
30
0.0
11
240.560018
21
41.200000
31
0.0
0
LINE
8
0
10
240.560018
20
41.200000
30
0.0
11
240.560018
21
48.500000
31
0.0
0
ARC
8
0
10
240.060018
20
48.500000
30
0.0
40
0.500000
50
360.000000
51
90.000000
0
LINE
8
0
10
240.060018
20
49.000000
30
0.0
11
238.060018
21
49.000000
31
0.0
0
LINE
8
0
10
238.060018
20
49.000000
30
0.0
11
238.060018
21
49.900000
31
0.0
0
LINE
8
0
10
238.060018
20
49.900000
30
0.0
11
224.060018
21
49.900000
31
0.0
0
LINE
8
0
10
224.060018
20
49.900000
30
0.0
11
224.060018
21
47.750000
31
0.0
0
LINE
8
0
10
224.060018
20
47.750000
30
0.0
11
222.560009
21
47.750000
31
0.0
0
LINE
8
0
10
222.560009
20
47.750000
30
0.0
11
222.560009
21
49.900000
31
0.0
0
LINE
8
0
10
222.560009
20
49.900000
30
0.0
11
99.560009
21
49.900000
31
0.0
0
LINE
8
0
10
99.560009
20
49.900000
30
0.0
11
99.560009
21
47.750000
31
0.0
0
LINE
8
0
10
99.560009
20
47.750000
30
0.0
11
98.060009
21
47.750000
31
0.0
0
LINE
8
0
10
98.060009
20
47.750000
30
0.0
11
98.060009
21
49.900000
31
0.0
0
LINE
8
0
10
98.060009
20
49.900000
30
0.0
11
90.060018
21
49.900000
31
0.0
0
LINE
8
0
10
90.060018
20
49.900000
30
0.0
11
90.060018
21
49.000000
31
0.0
0
LINE
8
0
10
90.060018
20
49.000000
30
0.0
11
87.560018
21
49.000000
31
0.0
0
ARC
8
0
10
87.560018
20
48.500000
30
0.0
40
0.500000
50
90.000000
51
180.000000
0
LINE
8
0
10
87.060018
20
48.500000
30
0.0
11
87.060018
21
3.500000
31
0.0
0
ARC
8
0
10
87.560018
20
3.500000
30
0.0
40
0.500000
50
180.000000
51
270.000000
0
LINE
8
0
10
87.560018
20
3.000000
30
0.0
11
90.060018
21
3.000000
31
0.0
0
LINE
8
0
10
90.060018
20
3.000000
30
0.0
11
90.060018
21
2.100000
31
0.0
0
LINE
8
0
10
90.060018
20
2.100000
30
0.0
11
98.060009
21
2.100000
31
0.0
0
LINE
8
0
10
98.060009
20
2.100000
30
0.0
11
98.060009
21
4.250000
31
0.0
0
LINE
8
0
10
98.060009
20
4.250000
30
0.0
11
99.560009
21
4.250000
31
0.0
0
LINE
8
0
10
99.560009
20
4.250000
30
0.0
11
99.560009
21
2.100000
31
0.0
0
LINE
8
0
10
99.560009
20
2.100000
30
0.0
11
222.560008
21
2.099985
31
0.0
0
LINE
8
0
10
222.560008
20
2.099985
30
0.0
11
222.560010
21
4.249975
31
0.0
0
LINE
8
0
10
222.560010
20
4.249975
30
0.0
11
224.060010
21
4.249985
31
0.0
0
LINE
8
0
10
224.060010
20
4.249985
30
0.0
11
224.060017
21
2.099985
31
0.0
0
LINE
8
0
10
224.060017
20
2.099985
30
0.0
11
238.060018
21
2.100000
31
0.0
0
LINE
8
0
10
81.692796
20
49.109999
30
0.0
11
81.779399
21
48.960000
31
0.0
0
ARC
8
0
10
82.039206
20
49.109999
30
0.0
40
0.300000
50
210.000000
51
270.000000
0
LINE
8
0
10
82.039206
20
48.810000
30
0.0
11
82.399976
21
48.810000
31
0.0
0
ARC
8
0
10
82.399976
20
49.109999
30
0.0
40
0.300000
50
270.000000
51
330.000000
0
LINE
8
0
10
82.659784
20
48.960000
30
0.0
11
82.746386
21
49.109999
31
0.0
0
ARC
8
0
10
82.919591
20
49.010000
30
0.0
40
0.200000
50
30.000000
51
150.000000
0
LINE
8
0
10
83.092796
20
49.109999
30
0.0
11
83.189054
21
48.943276
31
0.0
0
ARC
8
0
10
83.448861
20
49.093276
30
0.0
40
0.300000
50
210.000000
51
262.310965
0
ARC
8
0
10
83.200000
20
47.250000
30
0.0
40
1.560000
50
270.000000
51
82.310965
0
LINE
8
0
10
83.200000
20
45.690000
30
0.0
11
82.739206
21
45.690000
31
0.0
0
ARC
8
0
10
82.739206
20
45.390000
30
0.0
40
0.300000
50
90.000000
51
150.000000
0
LINE
8
0
10
82.479399
20
45.540000
30
0.0
11
82.392796
21
45.390000
31
0.0
0
ARC
8
0
10
82.219591
20
45.490000
30
0.0
40
0.200000
50
210.000000
51
330.000000
0
LINE
8
0
10
82.046386
20
45.390000
30
0.0
11
81.959784
21
45.540000
31
0.0
0
ARC
8
0
10
81.699976
20
45.390000
30
0.0
40
0.300000
50
30.000000
51
90.000000
0
LINE
8
0
10
81.699976
20
45.690000
30
0.0
11
81.339206
21
45.690000
31
0.0
0
ARC
8
0
10
81.339206
20
45.390000
30
0.0
40
0.300000
50
90.000000
51
150.000000
0
LINE
8
0
10
81.079399
20
45.540000
30
0.0
11
80.992796
21
45.390000
31
0.0
0
ARC
8
0
10
80.819591
20
45.490000
30
0.0
40
0.200000
50
210.000000
51
330.000000
0
LINE
8
0
10
80.646386
20
45.390000
30
0.0
11
80.559784
21
45.540000
31
0.0
0
LINE
8
0
10
80.552466
20
45.552015
30
0.0
11
79.693212
21
44.690000
31
0.0
0
LINE
8
0
10
79.693212
20
44.690000
30
0.0
11
78.760000
21
44.690000
31
0.0
0
LINE
8
0
10
78.760000
20
44.690000
30
0.0
11
78.760000
21
45.690000
31
0.0
0
LINE
8
0
10
78.760000
20
45.690000
30
0.0
11
78.539206
21
45.690000
31
0.0
0
ARC
8
0
10
78.539206
20
45.390000
30
0.0
40
0.300000
50
90.000000
51
150.000000
0
LINE
8
0
10
78.279399
20
45.540000
30
0.0
11
78.192796
21
45.390000
31
0.0
0
ARC
8
0
10
78.019591
20
45.490000
30
0.0
40
0.200000
50
210.000000
51
330.000000
0
LINE
8
0
10
77.846386
20
45.390000
30
0.0
11
77.759784
21
45.540000
31
0.0
0
ARC
8
0
10
77.499976
20
45.390000
30
0.0
40
0.300000
50
30.000000
51
90.000000
0
LINE
8
0
10
77.499976
20
45.690000
30
0.0
11
77.139206
21
45.690000
31
0.0
0
ARC
8
0
10
77.139206
20
45.390000
30
0.0
40
0.300000
50
90.000000
51
150.000000
0
LINE
8
0
10
76.879399
20
45.540000
30
0.0
11
76.792796
21
45.390000
31
0.0
0
ARC
8
0
10
76.619591
20
45.490000
30
0.0
40
0.200000
50
210.000000
51
330.000000
0
LINE
8
0
10
76.446386
20
45.390000
30
0.0
11
76.359784
21
45.540000
31
0.0
0
ARC
8
0
10
76.099976
20
45.390000
30
0.0
40
0.300000
50
30.000000
51
90.000000
0
LINE
8
0
10
76.099976
20
45.690000
30
0.0
11
75.739206
21
45.690000
31
0.0
0
ARC
8
0
10
75.739206
20
45.390000
30
0.0
40
0.300000
50
90.000000
51
150.000000
0
LINE
8
0
10
75.479399
20
45.540000
30
0.0
11
75.392796
21
45.390000
31
0.0
0
ARC
8
0
10
75.219591
20
45.490000
30
0.0
40
0.200000
50
210.000000
51
330.000000
0
LINE
8
0
10
75.046386
20
45.390000
30
0.0
11
74.959784
21
45.540000
31
0.0
0
ARC
8
0
10
74.699976
20
45.390000
30
0.0
40
0.300000
50
30.000000
51
91.936736
0
LINE
8
0
10
74.689838
20
45.689828
30
0.0
11
73.693212
21
44.690000
31
0.0
0
LINE
8
0
10
73.693212
20
44.690000
30
0.0
11
72.760000
21
44.690000
31
0.0
0
LINE
8
0
10
72.760000
20
44.690000
30
0.0
11
72.760000
21
45.690000
31
0.0
0
LINE
8
0
10
72.760000
20
45.690000
30
0.0
11
72.260000
21
45.690000
31
0.0
0
LINE
8
0
10
72.260000
20
45.690000
30
0.0
11
71.760000
21
45.190000
31
0.0
0
LINE
8
0
10
71.760000
20
45.190000
30
0.0
11
71.760000
21
42.500000
31
0.0
0
LINE
8
0
10
71.760000
20
42.500000
30
0.0
11
83.760000
21
42.500000
31
0.0
0
ARC
8
0
10
83.760000
20
41.500000
30
0.0
40
1.000000
50
360.000000
51
90.000000
0
LINE
8
0
10
84.760000
20
41.500000
30
0.0
11
84.760000
21
37.050000
31
0.0
0
LINE
8
0
10
84.760000
20
37.050000
30
0.0
11
85.060000
21
36.750000
31
0.0
0
LINE
8
0
10
85.060000
20
36.750000
30
0.0
11
84.760000
21
36.450000
31
0.0
0
LINE
8
0
10
84.760000
20
36.450000
30
0.0
11
84.760000
21
32.000000
31
0.0
0
ARC
8
0
10
83.760000
20
32.000000
30
0.0
40
1.000000
50
270.000000
51
360.000000
0
LINE
8
0
10
83.760000
20
31.000000
30
0.0
11
54.760000
21
31.000000
31
0.0
0
LINE
8
0
10
54.760000
20
31.000000
30
0.0
11
54.760000
21
29.299999
31
0.0
0
LINE
8
0
10
54.760000
20
29.299999
30
0.0
11
56.009999
21
28.050000
31
0.0
0
LINE
8
0
10
56.009999
20
28.050000
30
0.0
11
56.911517
21
28.050000
31
0.0
0
ARC
8
0
10
56.911517
20
28.350000
30
0.0
40
0.300000
50
270.000000
51
330.000000
0
LINE
8
0
10
57.171325
20
28.200000
30
0.0
11
57.286795
21
28.400000
31
0.0
0
ARC
8
0
10
57.460000
20
28.300000
30
0.0
40
0.200000
50
30.000000
51
150.000000
0
LINE
8
0
10
57.633205
20
28.400000
30
0.0
11
57.748675
21
28.200000
31
0.0
0
ARC
8
0
10
58.008482
20
28.350000
30
0.0
40
0.300000
50
210.000000
51
270.000000
0
LINE
8
0
10
58.008482
20
28.050000
30
0.0
11
58.711517
21
28.050000
31
0.0
0
ARC
8
0
10
58.711517
20
28.350000
30
0.0
40
0.300000
50
270.000000
51
330.000000
0
LINE
8
0
10
58.971325
20
28.200000
30
0.0
11
59.086795
21
28.400000
31
0.0
0
ARC
8
0
10
59.260000
20
28.300000
30
0.0
40
0.200000
50
30.000000
51
150.000000
0
LINE
8
0
10
59.433205
20
28.400000
30
0.0
11
59.548675
21
28.200000
31
0.0
0
ARC
8
0
10
59.808482
20
28.350000
30
0.0
40
0.300000
50
210.000000
51
270.000000
0
LINE
8
0
10
59.808482
20
28.050000
30
0.0
11
60.511517
21
28.050000
31
0.0
0
ARC
8
0
10
60.511517
20
28.350000
30
0.0
40
0.300000
50
270.000000
51
330.000000
0
LINE
8
0
10
60.771325
20
28.200000
30
0.0
11
60.886795
21
28.400000
31
0.0
0
ARC
8
0
10
61.060000
20
28.300000
30
0.0
40
0.200000
50
30.000000
51
150.000000
0
LINE
8
0
10
61.233205
20
28.400000
30
0.0
11
61.348675
21
28.200000
31
0.0
0
ARC
8
0
10
61.608482
20
28.350000
30
0.0
40
0.300000
50
210.000000
51
270.000000
0
LINE
8
0
10
61.608482
20
28.050000
30
0.0
11
62.311517
21
28.050000
31
0.0
0
ARC
8
0
10
62.311517
20
28.350000
30
0.0
40
0.300000
50
270.000000
51
330.000000
0
LINE
8
0
10
62.571325
20
28.200000
30
0.0
11
62.686795
21
28.400000
31
0.0
0
ARC
8
0
10
62.860000
20
28.300000
30
0.0
40
0.200000
50
30.000000
51
150.000000
0
LINE
8
0
10
63.033205
20
28.400000
30
0.0
11
63.148675
21
28.200000
31
0.0
0
ARC
8
0
10
63.408482
20
28.350000
30
0.0
40
0.300000
50
210.000000
51
270.000000
0
LINE
8
0
10
63.408482
20
28.050000
30
0.0
11
64.111517
21
28.050000
31
0.0
0
ARC
8
0
10
64.111517
20
28.350000
30
0.0
40
0.300000
50
270.000000
51
330.000000
0
LINE
8
0
10
64.371325
20
28.200000
30
0.0
11
64.486795
21
28.400000
31
0.0
0
ARC
8
0
10
64.660000
20
28.300000
30
0.0
40
0.200000
50
30.000000
51
150.000000
0
LINE
8
0
10
64.833205
20
28.400000
30
0.0
11
64.948675
21
28.200000
31
0.0
0
ARC
8
0
10
65.208482
20
28.350000
30
0.0
40
0.300000
50
210.000000
51
270.000000
0
LINE
8
0
10
65.208482
20
28.050000
30
0.0
11
65.911517
21
28.050000
31
0.0
0
ARC
8
0
10
65.911517
20
28.350000
30
0.0
40
0.300000
50
270.000000
51
330.000000
0
LINE
8
0
10
66.171325
20
28.200000
30
0.0
11
66.286795
21
28.400000
31
0.0
0
ARC
8
0
10
66.460000
20
28.300000
30
0.0
40
0.200000
50
30.000000
51
150.000000
0
LINE
8
0
10
66.633205
20
28.400000
30
0.0
11
66.719807
21
28.250000
31
0.0
0
ARC
8
0
10
66.979757
20
28.400240
30
0.0
40
0.300243
50
210.026110
51
270.000000
0
LINE
8
0
10
66.978369
20
28.100000
30
0.0
11
67.660000
21
28.100000
31
0.0
0
ARC
8
0
10
67.660000
20
26.600000
30
0.0
40
1.500000
50
360.000000
51
90.000000
0
LINE
8
0
10
69.160000
20
26.600000
30
0.0
11
69.160000
21
25.400000
31
0.0
0
ARC
8
0
10
67.660000
20
25.400000
30
0.0
40
1.500000
50
270.000000
51
360.000000
0
LINE
8
0
10
67.660000
20
23.900000
30
0.0
11
66.079615
21
23.899999
31
0.0
0
ARC
8
0
10
66.079615
20
23.599999
30
0.0
40
0.300000
50
90.000000
51
150.000000
0
LINE
8
0
10
65.819807
20
23.749999
30
0.0
11
65.733205
21
23.599999
31
0.0
0
ARC
8
0
10
65.560000
20
23.699999
30
0.0
40
0.200000
50
210.000000
51
330.000000
0
LINE
8
0
10
65.386795
20
23.599999
30
0.0
11
65.271325
21
23.799999
31
0.0
0
ARC
8
0
10
65.011517
20
23.649999
30
0.0
40
0.300000
50
30.000000
51
90.000000
0
LINE
8
0
10
65.011517
20
23.949999
30
0.0
11
64.308482
21
23.949999
31
0.0
0
ARC
8
0
10
64.308482
20
23.649999
30
0.0
40
0.300000
50
90.000000
51
150.000000
0
LINE
8
0
10
64.048675
20
23.799999
30
0.0
11
63.933205
21
23.599999
31
0.0
0
ARC
8
0
10
63.760000
20
23.699999
30
0.0
40
0.200000
50
210.000000
51
330.000000
0
LINE
8
0
10
63.586795
20
23.599999
30
0.0
11
63.471325
21
23.799999
31
0.0
0
ARC
8
0
10
63.211517
20
23.649999
30
0.0
40
0.300000
50
30.000000
51
90.000000
0
LINE
8
0
10
63.211517
20
23.949999
30
0.0
11
62.508482
21
23.949999
31
0.0
0
ARC
8
0
10
62.508482
20
23.649999
30
0.0
40
0.300000
50
90.000000
51
150.000000
0
LINE
8
0
10
62.248675
20
23.799999
30
0.0
11
62.133205
21
23.599999
31
0.0
0
ARC
8
0
10
61.960000
20
23.699999
30
0.0
40
0.200000
50
210.000000
51
330.000000
0
LINE
8
0
10
61.786795
20
23.599999
30
0.0
11
61.671325
21
23.799999
31
0.0
0
ARC
8
0
10
61.411517
20
23.649999
30
0.0
40
0.300000
50
30.000000
51
90.000000
0
LINE
8
0
10
61.411517
20
23.949999
30
0.0
11
60.708482
21
23.949999
31
0.0
0
ARC
8
0
10
60.708482
20
23.649999
30
0.0
40
0.300000
50
90.000000
51
150.000000
0
LINE
8
0
10
60.448675
20
23.799999
30
0.0
11
60.333205
21
23.599999
31
0.0
0
ARC
8
0
10
60.160000
20
23.699999
30
0.0
40
0.200000
50
210.000000
51
330.000000
0
LINE
8
0
10
59.986795
20
23.599999
30
0.0
11
59.871325
21
23.799999
31
0.0
0
ARC
8
0
10
59.611517
20
23.649999
30
0.0
40
0.300000
50
30.000000
51
90.000000
0
LINE
8
0
10
59.611517
20
23.949999
30
0.0
11
58.908482
21
23.949999
31
0.0
0
ARC
8
0
10
58.908482
20
23.649999
30
0.0
40
0.300000
50
90.000000
51
150.000000
0
LINE
8
0
10
58.648675
20
23.799999
30
0.0
11
58.533205
21
23.599999
31
0.0
0
ARC
8
0
10
58.360000
20
23.699999
30
0.0
40
0.200000
50
210.000000
51
330.000000
0
LINE
8
0
10
58.186795
20
23.599999
30
0.0
11
58.071325
21
23.799999
31
0.0
0
ARC
8
0
10
57.811517
20
23.649999
30
0.0
40
0.300000
50
30.000000
51
90.000000
0
LINE
8
0
10
57.811517
20
23.949999
30
0.0
11
57.108482
21
23.949999
31
0.0
0
ARC
8
0
10
57.108482
20
23.649999
30
0.0
40
0.300000
50
90.000000
51
150.000000
0
LINE
8
0
10
56.848675
20
23.799999
30
0.0
11
56.733205
21
23.599999
31
0.0
0
ARC
8
0
10
56.560000
20
23.699999
30
0.0
40
0.200000
50
210.000000
51
330.000000
0
LINE
8
0
10
56.386795
20
23.599999
30
0.0
11
56.235590
21
23.861894
31
0.0
0
ARC
8
0
10
56.082987
20
23.773788
30
0.0
40
0.176211
50
30.000000
51
135.000000
0
LINE
8
0
10
55.958387
20
23.898388
30
0.0
11
54.760000
21
22.700001
31
0.0
0
LINE
8
0
10
54.760000
20
22.700001
30
0.0
11
54.760000
21
21.000000
31
0.0
0
LINE
8
0
10
54.760000
20
21.000000
30
0.0
11
83.760000
21
21.000000
31
0.0
0
ARC
8
0
10
83.760000
20
20.000000
30
0.0
40
1.000000
50
360.000000
51
90.000000
0
LINE
8
0
10
84.760000
20
20.000000
30
0.0
11
84.760000
21
15.550000
31
0.0
0
LINE
8
0
10
84.760000
20
15.550000
30
0.0
11
85.060000
21
15.250000
31
0.0
0
LINE
8
0
10
85.060000
20
15.250000
30
0.0
11
84.760000
21
14.950000
31
0.0
0
LINE
8
0
10
84.760000
20
14.950000
30
0.0
11
84.760000
21
10.500000
31
0.0
0
ARC
8
0
10
83.760000
20
10.500000
30
0.0
40
1.000000
50
270.000000
51
360.000000
0
LINE
8
0
10
83.760000
20
9.500000
30
0.0
11
71.760000
21
9.500000
31
0.0
0
LINE
8
0
10
71.760000
20
9.500000
30
0.0
11
71.760000
21
6.810000
31
0.0
0
LINE
8
0
10
71.760000
20
6.810000
30
0.0
11
72.260000
21
6.310000
31
0.0
0
LINE
8
0
10
72.260000
20
6.310000
30
0.0
11
72.760000
21
6.310000
31
0.0
0
LINE
8
0
10
72.760000
20
6.310000
30
0.0
11
72.760000
21
7.310000
31
0.0
0
LINE
8
0
10
72.760000
20
7.310000
30
0.0
11
73.693212
21
7.310000
31
0.0
0
LINE
8
0
10
73.693212
20
7.310000
30
0.0
11
74.689838
21
6.310171
31
0.0
0
ARC
8
0
10
74.699976
20
6.609999
30
0.0
40
0.300000
50
268.063264
51
330.000000
0
LINE
8
0
10
74.959784
20
6.460000
30
0.0
11
75.046386
21
6.609999
31
0.0
0
ARC
8
0
10
75.219591
20
6.510000
30
0.0
40
0.200000
50
30.000000
51
150.000000
0
LINE
8
0
10
75.392796
20
6.609999
30
0.0
11
75.479399
21
6.460000
31
0.0
0
ARC
8
0
10
75.739206
20
6.609999
30
0.0
40
0.300000
50
210.000000
51
270.000000
0
LINE
8
0
10
75.739206
20
6.310000
30
0.0
11
76.099976
21
6.310000
31
0.0
0
ARC
8
0
10
76.099976
20
6.609999
30
0.0
40
0.300000
50
270.000000
51
330.000000
0
LINE
8
0
10
76.359784
20
6.460000
30
0.0
11
76.446386
21
6.609999
31
0.0
0
ARC
8
0
10
76.619591
20
6.510000
30
0.0
40
0.200000
50
30.000000
51
150.000000
0
LINE
8
0
10
76.792796
20
6.609999
30
0.0
11
76.879399
21
6.460000
31
0.0
0
ARC
8
0
10
77.139206
20
6.609999
30
0.0
40
0.300000
50
210.000000
51
270.000000
0
LINE
8
0
10
77.139206
20
6.310000
30
0.0
11
77.499976
21
6.310000
31
0.0
0
ARC
8
0
10
77.499976
20
6.609999
30
0.0
40
0.300000
50
270.000000
51
330.000000
0
LINE
8
0
10
77.759784
20
6.460000
30
0.0
11
77.846386
21
6.609999
31
0.0
0
ARC
8
0
10
78.019591
20
6.510000
30
0.0
40
0.200000
50
30.000000
51
150.000000
0
LINE
8
0
10
78.192796
20
6.609999
30
0.0
11
78.279399
21
6.460000
31
0.0
0
ARC
8
0
10
78.539206
20
6.609999
30
0.0
40
0.300000
50
210.000000
51
270.000000
0
LINE
8
0
10
78.539206
20
6.310000
30
0.0
11
78.760000
21
6.310000
31
0.0
0
LINE
8
0
10
78.760000
20
6.310000
30
0.0
11
78.760000
21
7.310000
31
0.0
0
LINE
8
0
10
78.760000
20
7.310000
30
0.0
11
79.693212
21
7.310000
31
0.0
0
LINE
8
0
10
79.693212
20
7.310000
30
0.0
11
80.552466
21
6.447984
31
0.0
0
LINE
8
0
10
80.559784
20
6.460000
30
0.0
11
80.646386
21
6.609999
31
0.0
0
ARC
8
0
10
80.819591
20
6.510000
30
0.0
40
0.200000
50
30.000000
51
150.000000
0
LINE
8
0
10
80.992796
20
6.609999
30
0.0
11
81.079399
21
6.460000
31
0.0
0
ARC
8
0
10
81.339206
20
6.609999
30
0.0
40
0.300000
50
210.000000
51
270.000000
0
LINE
8
0
10
81.339206
20
6.310000
30
0.0
11
81.699976
21
6.310000
31
0.0
0
ARC
8
0
10
81.699976
20
6.609999
30
0.0
40
0.300000
50
270.000000
51
330.000000
0
LINE
8
0
10
81.959784
20
6.460000
30
0.0
11
82.046386
21
6.609999
31
0.0
0
ARC
8
0
10
82.219591
20
6.510000
30
0.0
40
0.200000
50
30.000000
51
150.000000
0
LINE
8
0
10
82.392796
20
6.609999
30
0.0
11
82.479399
21
6.460000
31
0.0
0
ARC
8
0
10
82.739206
20
6.609999
30
0.0
40
0.300000
50
210.000000
51
270.000000
0
LINE
8
0
10
82.739206
20
6.310000
30
0.0
11
83.200000
21
6.310000
31
0.0
0
ARC
8
0
10
83.200000
20
4.750000
30
0.0
40
1.560000
50
277.689035
51
90.000000
0
ARC
8
0
10
83.448861
20
2.906723
30
0.0
40
0.300000
50
97.689035
51
150.000000
0
LINE
8
0
10
83.189054
20
3.056723
30
0.0
11
83.092796
21
2.890000
31
0.0
0
ARC
8
0
10
82.919591
20
2.990000
30
0.0
40
0.200000
50
210.000000
51
330.000000
0
LINE
8
0
10
82.746386
20
2.890000
30
0.0
11
82.659784
21
3.040000
31
0.0
0
ARC
8
0
10
82.399976
20
2.890000
30
0.0
40
0.300000
50
30.000000
51
90.000000
0
LINE
8
0
10
82.399976
20
3.190000
30
0.0
11
82.039206
21
3.190000
31
0.0
0
ARC
8
0
10
82.039206
20
2.890000
30
0.0
40
0.300000
50
90.000000
51
150.000000
0
LINE
8
0
10
81.779399
20
3.040000
30
0.0
11
81.692796
21
2.890000
31
0.0
0
ARC
8
0
10
81.519591
20
2.990000
30
0.0
40
0.200000
50
210.000000
51
330.000000
0
LINE
8
0
10
81.346386
20
2.890000
30
0.0
11
81.259784
21
3.040000
31
0.0
0
ARC
8
0
10
80.999976
20
2.890000
30
0.0
40
0.300000
50
30.000000
51
90.000000
0
LINE
8
0
10
80.999976
20
3.190000
30
0.0
11
80.690008
21
3.190000
31
0.0
0
LINE
8
0
10
80.690008
20
3.190000
30
0.0
11
79.693212
21
2.190000
31
0.0
0
LINE
8
0
10
79.693212
20
2.190000
30
0.0
11
78.760000
21
2.190000
31
0.0
0
LINE
8
0
10
78.760000
20
2.190000
30
0.0
11
78.760000
21
3.190000
31
0.0
0
LINE
8
0
10
78.760000
20
3.190000
30
0.0
11
77.839206
21
3.190000
31
0.0
0
ARC
8
0
10
77.839206
20
2.890000
30
0.0
40
0.300000
50
90.000000
51
150.000000
0
LINE
8
0
10
77.579399
20
3.040000
30
0.0
11
77.492796
21
2.890000
31
0.0
0
ARC
8
0
10
77.319591
20
2.990000
30
0.0
40
0.200000
50
210.000000
51
330.000000
0
LINE
8
0
10
77.146386
20
2.890000
30
0.0
11
77.059784
21
3.040000
31
0.0
0
ARC
8
0
10
76.799976
20
2.890000
30
0.0
40
0.300000
50
30.000000
51
90.000000
0
LINE
8
0
10
76.799976
20
3.190000
30
0.0
11
76.439206
21
3.190000
31
0.0
0
ARC
8
0
10
76.439206
20
2.890000
30
0.0
40
0.300000
50
90.000000
51
150.000000
0
LINE
8
0
10
76.179399
20
3.040000
30
0.0
11
76.092796
21
2.890000
31
0.0
0
ARC
8
0
10
75.919591
20
2.990000
30
0.0
40
0.200000
50
210.000000
51
330.000000
0
LINE
8
0
10
75.746386
20
2.890000
30
0.0
11
75.659784
21
3.040000
31
0.0
0
ARC
8
0
10
75.399976
20
2.890000
30
0.0
40
0.300000
50
30.000000
51
90.000000
0
LINE
8
0
10
75.399976
20
3.190000
30
0.0
11
74.690008
21
3.190000
31
0.0
0
LINE
8
0
10
74.690008
20
3.190000
30
0.0
11
73.693212
21
2.190000
31
0.0
0
LINE
8
0
10
73.693212
20
2.190000
30
0.0
11
72.760000
21
2.190000
31
0.0
0
LINE
8
0
10
72.760000
20
2.190000
30
0.0
11
72.760000
21
3.190000
31
0.0
0
LINE
8
0
10
72.760000
20
3.190000
30
0.0
11
72.260000
21
3.190000
31
0.0
0
LINE
8
0
10
72.260000
20
3.190000
30
0.0
11
71.760000
21
2.690000
31
0.0
0
LINE
8
0
10
71.760000
20
2.690000
30
0.0
11
71.760000
21
0.000000
31
0.0
0
LINE
8
0
10
71.760000
20
0.000000
30
0.0
11
246.260018
21
0.000000
31
0.0
0
ARC
8
0
10
246.260018
20
0.500000
30
0.0
40
0.500000
50
270.000000
51
360.000000
0
LINE
8
0
10
246.760018
20
0.500000
30
0.0
11
246.760018
21
51.500000
31
0.0
0
ARC
8
0
10
246.260018
20
51.500000
30
0.0
40
0.500000
50
360.000000
51
90.000000
0
LINE
8
0
10
246.260018
20
52.000000
30
0.0
11
71.760000
21
52.000000
31
0.0
0
LINE
8
0
10
71.760000
20
52.000000
30
0.0
11
71.760000
21
49.310000
31
0.0
0
LINE
8
0
10
71.760000
20
49.310000
30
0.0
11
72.260000
21
48.810000
31
0.0
0
LINE
8
0
10
72.260000
20
48.810000
30
0.0
11
72.760000
21
48.810000
31
0.0
0
LINE
8
0
10
72.760000
20
48.810000
30
0.0
11
72.760000
21
49.810000
31
0.0
0
LINE
8
0
10
72.760000
20
49.810000
30
0.0
11
73.693212
21
49.810000
31
0.0
0
LINE
8
0
10
73.693212
20
49.810000
30
0.0
11
74.690008
21
48.810000
31
0.0
0
LINE
8
0
10
74.690008
20
48.810000
30
0.0
11
75.399976
21
48.810000
31
0.0
0
ARC
8
0
10
75.399976
20
49.109999
30
0.0
40
0.300000
50
270.000000
51
330.000000
0
LINE
8
0
10
75.659784
20
48.960000
30
0.0
11
75.746386
21
49.109999
31
0.0
0
ARC
8
0
10
75.919591
20
49.010000
30
0.0
40
0.200000
50
30.000000
51
150.000000
0
LINE
8
0
10
76.092796
20
49.109999
30
0.0
11
76.179399
21
48.960000
31
0.0
0
ARC
8
0
10
76.439206
20
49.109999
30
0.0
40
0.300000
50
210.000000
51
270.000000
0
LINE
8
0
10
76.439206
20
48.810000
30
0.0
11
76.799976
21
48.810000
31
0.0
0
ARC
8
0
10
76.799976
20
49.109999
30
0.0
40
0.300000
50
270.000000
51
330.000000
0
LINE
8
0
10
77.059784
20
48.960000
30
0.0
11
77.146386
21
49.109999
31
0.0
0
ARC
8
0
10
77.319591
20
49.010000
30
0.0
40
0.200000
50
30.000000
51
150.000000
0
LINE
8
0
10
77.492796
20
49.109999
30
0.0
11
77.579399
21
48.960000
31
0.0
0
ARC
8
0
10
77.839206
20
49.109999
30
0.0
40
0.300000
50
210.000000
51
270.000000
0
LINE
8
0
10
77.839206
20
48.810000
30
0.0
11
78.760000
21
48.810000
31
0.0
0
LINE
8
0
10
78.760000
20
48.810000
30
0.0
11
78.760000
21
49.810000
31
0.0
0
LINE
8
0
10
78.760000
20
49.810000
30
0.0
11
79.693212
21
49.810000
31
0.0
0
LINE
8
0
10
79.693212
20
49.810000
30
0.0
11
80.690008
21
48.810000
31
0.0
0
LINE
8
0
10
80.690008
20
48.810000
30
0.0
11
80.999976
21
48.810000
31
0.0
0
ARC
8
0
10
80.999976
20
49.109999
30
0.0
40
0.300000
50
270.000000
51
330.000000
0
LINE
8
0
10
81.259784
20
48.960000
30
0.0
11
81.346386
21
49.109999
31
0.0
0
ARC
8
0
10
81.519591
20
49.010000
30
0.0
40
0.200000
50
30.000000
51
150.000000
0
ATTDEF
8
0
10
71.760000
20
52.000000
30
0.0
40
3.5
1

3

2
VC_START
70
0
0
ATTDEF
8
0
10
71.760000
20
0.000000
30
0.0
40
3.5
1

3

2
VC_END
70
0
0
ATTDEF
8
0
10
0.000000
20
0.000000
30
0.0
40
3.5
1

3

2
DENS:0.000000
70
0
0
ATTDEF
8
0
10
0.000000
20
0.000000
30
0.0
40
3.5
1

3

2
GLASS_MIN:0.000000
70
0
0
ATTDEF
8
0
10
0.000000
20
0.000000
30
0.0
40
3.5
1

3

2
GLASS_MAX:0.000000
70
0
0
ATTDEF
8
0
10
0.000000
20
0.000000
30
0.0
40
3.5
1

3

2
DESC:COR-9806 - COR-9843 - COR-9914 - COR-9143
70
0
0
ATTDEF
8
0
10
0.000000
20
0.000000
30
0.0
40
3.5
1

3

2
HW_START
70
0
0
ATTDEF
8
0
10
246.760018
20
52.000000
30
0.0
40
3.5
1

3

2
HW_END
70
0
0
ATTDEF
8
0
10
0.000000
20
0.000000
30
0.0
40
3.5
1

3

2
BL01:6500.000000,,1
70
0
0
ENDSEC
0
EOF
