0
SECTION
2
ENTITIES
0
LINE
8
0
10
5.000000
20
4.200000
30
0.0
11
5.000000
21
1.400000
31
0.0
0
LINE
8
0
10
5.000000
20
1.400000
30
0.0
11
1.400000
21
1.400000
31
0.0
0
LINE
8
0
10
1.400000
20
1.400000
30
0.0
11
1.400000
21
50.600000
31
0.0
0
LINE
8
0
10
1.400000
20
50.600000
30
0.0
11
5.000000
21
50.600000
31
0.0
0
LINE
8
0
10
5.000000
20
50.600000
30
0.0
11
5.000000
21
47.800000
31
0.0
0
LINE
8
0
10
5.000000
20
47.800000
30
0.0
11
6.400000
21
47.800000
31
0.0
0
LINE
8
0
10
6.400000
20
47.800000
30
0.0
11
6.400000
21
50.600000
31
0.0
0
LINE
8
0
10
6.400000
20
50.600000
30
0.0
11
9.653589
21
50.600000
31
0.0
0
LINE
8
0
10
9.653589
20
50.600000
30
0.0
11
10.073205
21
49.873205
31
0.0
0
LINE
8
0
10
10.073205
20
49.873205
30
0.0
11
11.332050
21
50.600000
31
0.0
0
LINE
8
0
10
11.332050
20
50.600000
30
0.0
11
19.000000
21
50.600000
31
0.0
0
LINE
8
0
10
19.000000
20
50.600000
30
0.0
11
19.000000
21
52.000000
31
0.0
0
LINE
8
0
10
19.000000
20
52.000000
30
0.0
11
1.000000
21
52.000000
31
0.0
0
ARC
8
0
10
1.000000
20
51.000000
30
0.0
40
1.000000
50
90.000000
51
180.000000
0
LINE
8
0
10
0.000000
20
51.000000
30
0.0
11
0.000000
21
1.000000
31
0.0
0
ARC
8
0
10
1.000000
20
1.000000
30
0.0
40
1.000000
50
180.000000
51
270.000000
0
LINE
8
0
10
1.000000
20
0.000000
30
0.0
11
19.000000
21
0.000000
31
0.0
0
LINE
8
0
10
19.000000
20
0.000000
30
0.0
11
19.000000
21
1.400000
31
0.0
0
LINE
8
0
10
19.000000
20
1.400000
30
0.0
11
11.332050
21
1.400000
31
0.0
0
LINE
8
0
10
11.332050
20
1.400000
30
0.0
11
10.073205
21
2.126795
31
0.0
0
LINE
8
0
10
10.073205
20
2.126795
30
0.0
11
9.653589
21
1.400000
31
0.0
0
LINE
8
0
10
9.653589
20
1.400000
30
0.0
11
6.400000
21
1.400000
31
0.0
0
LINE
8
0
10
6.400000
20
1.400000
30
0.0
11
6.400000
21
4.200000
31
0.0
0
LINE
8
0
10
6.400000
20
4.200000
30
0.0
11
5.000000
21
4.200000
31
0.0
0
ATTDEF
8
0
10
19.000000
20
52.000000
30
0.0
40
3.5
1

3

2
VC_START
70
0
0
ATTDEF
8
0
10
19.000000
20
0.000000
30
0.0
40
3.5
1

3

2
VC_END
70
0
0
LINE
8
0
10
13.500000
20
26.249964
30
0.0
11
13.500000
21
31.319668
31
0.0
0
ARC
8
0
10
13.800000
20
31.319666
30
0.0
40
0.300000
50
149.999911
51
180.000000
0
LINE
8
0
10
13.540192
20
31.469666
30
0.0
11
16.797919
21
39.964453
31
0.0
0
ARC
8
0
10
16.704549
20
40.000260
30
0.0
40
0.100000
50
339.018495
51
90.000000
0
LINE
8
0
10
16.704549
20
40.100260
30
0.0
11
14.499978
21
40.100260
31
0.0
0
ARC
8
0
10
14.499978
20
41.100238
30
0.0
40
0.999978
50
180.000000
51
270.000000
0
LINE
8
0
10
13.500000
20
41.100238
30
0.0
11
13.500000
21
46.801615
31
0.0
0
ARC
8
0
10
12.500461
20
46.801615
30
0.0
40
0.999539
50
360.000000
51
90.000000
0
LINE
8
0
10
12.500461
20
47.801154
30
0.0
11
7.000000
21
47.801154
31
0.0
0
ARC
8
0
10
7.000000
20
48.101154
30
0.0
40
0.300000
50
180.000000
51
270.000000
0
LINE
8
0
10
6.700000
20
48.101154
30
0.0
11
6.700000
21
49.033480
31
0.0
0
ARC
8
0
10
7.700000
20
49.033480
30
0.0
40
1.000000
50
99.019322
51
180.000000
0
LINE
8
0
10
7.543232
20
50.021115
30
0.0
11
9.300209
21
50.300000
31
0.0
0
LINE
8
0
10
9.300209
20
50.300000
30
0.0
11
10.000194
21
49.600016
31
0.0
0
LINE
8
0
10
10.000194
20
49.600016
30
0.0
11
11.212604
21
50.300000
31
0.0
0
LINE
8
0
10
11.212604
20
50.300000
30
0.0
11
18.500011
21
50.300000
31
0.0
0
ARC
8
0
10
18.500011
20
49.800011
30
0.0
40
0.499989
50
360.000000
51
90.000000
0
LINE
8
0
10
19.000000
20
49.800011
30
0.0
11
19.000000
21
47.610000
31
0.0
0
LINE
8
0
10
19.000000
20
47.610000
30
0.0
11
18.500000
21
47.110000
31
0.0
0
LINE
8
0
10
18.500000
20
47.110000
30
0.0
11
18.000000
21
47.110000
31
0.0
0
LINE
8
0
10
18.000000
20
47.110000
30
0.0
11
18.000000
21
49.000000
31
0.0
0
LINE
8
0
10
18.000000
20
49.000000
30
0.0
11
15.200000
21
49.000000
31
0.0
0
LINE
8
0
10
15.200000
20
49.000000
30
0.0
11
15.200000
21
41.600000
31
0.0
0
LINE
8
0
10
15.200000
20
41.600000
30
0.0
11
18.000000
21
41.600000
31
0.0
0
LINE
8
0
10
18.000000
20
41.600000
30
0.0
11
18.000000
21
43.990000
31
0.0
0
LINE
8
0
10
18.000000
20
43.990000
30
0.0
11
18.500000
21
43.990000
31
0.0
0
LINE
8
0
10
18.500000
20
43.990000
30
0.0
11
19.000000
21
43.490000
31
0.0
0
LINE
8
0
10
19.000000
20
43.490000
30
0.0
11
19.000000
21
40.100260
31
0.0
0
LINE
8
0
10
19.000000
20
40.100260
30
0.0
11
17.000000
21
30.804649
31
0.0
0
LINE
8
0
10
17.000000
20
30.804649
30
0.0
11
17.000000
21
21.195352
31
0.0
0
LINE
8
0
10
17.000000
20
21.195352
30
0.0
11
19.000000
21
11.899741
31
0.0
0
LINE
8
0
10
19.000000
20
11.899741
30
0.0
11
19.000000
21
8.510000
31
0.0
0
LINE
8
0
10
19.000000
20
8.510000
30
0.0
11
18.500000
21
8.010000
31
0.0
0
LINE
8
0
10
18.500000
20
8.010000
30
0.0
11
18.000000
21
8.010000
31
0.0
0
LINE
8
0
10
18.000000
20
8.010000
30
0.0
11
18.000000
21
10.400000
31
0.0
0
LINE
8
0
10
18.000000
20
10.400000
30
0.0
11
15.200000
21
10.400000
31
0.0
0
LINE
8
0
10
15.200000
20
10.400000
30
0.0
11
15.200000
21
3.000000
31
0.0
0
LINE
8
0
10
15.200000
20
3.000000
30
0.0
11
18.000000
21
3.000000
31
0.0
0
LINE
8
0
10
18.000000
20
3.000000
30
0.0
11
18.000000
21
4.890000
31
0.0
0
LINE
8
0
10
18.000000
20
4.890000
30
0.0
11
18.500000
21
4.890000
31
0.0
0
LINE
8
0
10
18.500000
20
4.890000
30
0.0
11
19.000000
21
4.390000
31
0.0
0
LINE
8
0
10
19.000000
20
4.390000
30
0.0
11
19.000000
21
2.199990
31
0.0
0
ARC
8
0
10
18.500011
20
2.199990
30
0.0
40
0.499989
50
270.000000
51
360.000000
0
LINE
8
0
10
18.500011
20
1.700000
30
0.0
11
11.212604
21
1.700000
31
0.0
0
LINE
8
0
10
11.212604
20
1.700000
30
0.0
11
10.000194
21
2.399985
31
0.0
0
LINE
8
0
10
10.000194
20
2.399985
30
0.0
11
9.300209
21
1.700000
31
0.0
0
LINE
8
0
10
9.300209
20
1.700000
30
0.0
11
7.543232
21
1.978886
31
0.0
0
ARC
8
0
10
7.700000
20
2.966521
30
0.0
40
1.000000
50
180.000000
51
260.980678
0
LINE
8
0
10
6.700000
20
2.966521
30
0.0
11
6.700000
21
3.898847
31
0.0
0
ARC
8
0
10
7.000000
20
3.898847
30
0.0
40
0.300000
50
90.000000
51
180.000000
0
LINE
8
0
10
7.000000
20
4.198847
30
0.0
11
12.500461
21
4.198847
31
0.0
0
ARC
8
0
10
12.500461
20
5.198386
30
0.0
40
0.999539
50
270.000000
51
360.000000
0
LINE
8
0
10
13.500000
20
5.198386
30
0.0
11
13.500000
21
10.899763
31
0.0
0
ARC
8
0
10
14.499978
20
10.899763
30
0.0
40
0.999978
50
90.000000
51
180.000000
0
LINE
8
0
10
14.499978
20
11.899741
30
0.0
11
16.704549
21
11.899741
31
0.0
0
ARC
8
0
10
16.704549
20
11.999741
30
0.0
40
0.100000
50
270.000000
51
20.981505
0
LINE
8
0
10
16.797919
20
12.035548
30
0.0
11
13.540192
21
20.530335
31
0.0
0
ARC
8
0
10
13.800000
20
20.680335
30
0.0
40
0.300000
50
180.000000
51
210.000089
0
LINE
8
0
10
13.500000
20
20.680333
30
0.0
11
13.500000
21
25.750037
31
0.0
0
LINE
8
0
10
13.500000
20
25.750037
30
0.0
11
13.699971
21
26.000000
31
0.0
0
LINE
8
0
10
13.699971
20
26.000000
30
0.0
11
13.500000
21
26.249964
31
0.0
0
ATTDEF
8
0
10
14.856307
20
50.300000
30
0.0
40
3.5
1

3

2
VC_START
70
0
0
ATTDEF
8
0
10
14.856307
20
1.700000
30
0.0
40
3.5
1

3

2
VC_END
70
0
0
ARC
8
0
10
60.759998
20
26.008921
30
0.0
40
0.200000
50
324.577352
51
35.420900
0
LINE
8
0
10
60.873837
20
25.856338
30
0.0
11
60.922978
21
25.893001
31
0.0
0
LINE
8
0
10
60.873837
20
25.856338
30
0.0
11
58.242682
21
24.956834
31
0.0
0
ARC
8
0
10
57.822150
20
26.186937
30
0.0
40
1.300000
50
274.415867
51
288.873845
0
ARC
8
0
10
54.134083
20
73.944744
30
0.0
40
49.200000
50
265.254864
51
274.415867
0
ARC
8
0
10
50.055541
20
26.008883
30
0.0
40
1.095541
50
90.000000
51
270.000000
0
ARC
8
0
10
54.134083
20
-21.926978
30
0.0
40
49.200000
50
85.583972
51
94.745136
0
ARC
8
0
10
57.822285
20
25.830819
30
0.0
40
1.300000
50
71.126913
51
85.583972
0
LINE
8
0
10
58.242800
20
27.060928
30
0.0
11
60.873837
21
26.161503
31
0.0
0
LINE
8
0
10
60.922981
20
26.124837
30
0.0
11
60.873837
21
26.161503
31
0.0
0
ARC
8
0
10
43.980844
20
37.450000
30
0.0
40
0.550000
50
42.416667
51
222.416667
0
ARC
8
0
10
39.772398
20
34.495792
30
0.0
40
5.687742
50
328.027833
51
35.776462
0
ARC
8
0
10
44.834217
20
31.300000
30
0.0
40
0.300000
50
142.147162
51
270.000000
0
LINE
8
0
10
44.834217
20
31.000000
30
0.0
11
41.360027
21
31.000000
31
0.0
0
ARC
8
0
10
40.561312
20
34.733960
30
0.0
40
3.818429
50
282.073932
51
37.889562
0
ARC
8
0
10
44.834190
20
20.700000
30
0.0
40
0.300000
50
90.000000
51
217.852838
0
ARC
8
0
10
39.772371
20
17.504209
30
0.0
40
5.687742
50
324.223538
51
31.972167
0
ARC
8
0
10
43.980816
20
14.550000
30
0.0
40
0.550000
50
137.583333
51
317.583333
0
ARC
8
0
10
40.561285
20
17.266040
30
0.0
40
3.818429
50
322.110438
51
77.926068
0
LINE
8
0
10
41.360000
20
21.000000
30
0.0
11
44.834190
21
21.000000
31
0.0
0
LINE
8
0
10
46.767777
20
22.500000
30
0.0
11
42.775006
21
22.500000
31
0.0
0
ARC
8
0
10
42.775006
20
22.800000
30
0.0
40
0.300000
50
157.500000
51
270.000000
0
LINE
8
0
10
42.497842
20
22.914805
30
0.0
11
43.494129
21
25.320053
31
0.0
0
ARC
8
0
10
41.831146
20
26.008883
30
0.0
40
1.800000
50
337.500000
51
22.500000
0
LINE
8
0
10
43.494129
20
26.697713
30
0.0
11
42.505201
21
29.085195
31
0.0
0
ARC
8
0
10
42.782365
20
29.200000
30
0.0
40
0.300000
50
90.000000
51
202.500000
0
LINE
8
0
10
42.782365
20
29.500000
30
0.0
11
46.767777
21
29.500000
31
0.0
0
ARC
8
0
10
46.767777
20
29.000000
30
0.0
40
0.500000
50
360.000000
51
90.000000
0
LINE
8
0
10
47.267777
20
29.000000
30
0.0
11
47.267777
21
26.248642
31
0.0
0
LINE
8
0
10
47.267777
20
26.248642
30
0.0
11
47.567774
21
25.998642
31
0.0
0
LINE
8
0
10
47.567774
20
25.998642
30
0.0
11
47.267777
21
25.748642
31
0.0
0
LINE
8
0
10
47.267777
20
25.748642
30
0.0
11
47.267777
21
23.000000
31
0.0
0
ARC
8
0
10
46.767777
20
23.000000
30
0.0
40
0.500000
50
270.000000
51
360.000000
0
LINE
8
0
10
40.501983
20
22.500000
30
0.0
11
38.210000
21
22.500000
31
0.0
0
LINE
8
0
10
38.210000
20
22.500000
30
0.0
11
38.210000
21
23.598642
31
0.0
0
ARC
8
0
10
37.910000
20
23.598642
30
0.0
40
0.300000
50
360.000000
51
119.999878
0
LINE
8
0
10
37.760000
20
23.858450
30
0.0
11
36.910000
21
23.367705
31
0.0
0
ARC
8
0
10
37.060000
20
23.107897
30
0.0
40
0.300000
50
119.999878
51
180.000000
0
LINE
8
0
10
36.760000
20
23.107897
30
0.0
11
36.760000
21
21.300000
31
0.0
0
ARC
8
0
10
37.060000
20
21.300000
30
0.0
40
0.300000
50
180.000000
51
270.000000
0
LINE
8
0
10
37.060000
20
21.000000
30
0.0
11
48.460000
21
21.000000
31
0.0
0
ARC
8
0
10
48.460000
20
21.300000
30
0.0
40
0.300000
50
270.000000
51
360.000000
0
LINE
8
0
10
48.760000
20
21.300000
30
0.0
11
48.760000
21
23.680509
31
0.0
0
ARC
8
0
10
49.260000
20
23.680509
30
0.0
40
0.500000
50
84.461390
51
180.000000
0
ARC
8
0
10
54.134083
20
73.944744
30
0.0
40
50.000000
50
264.461390
51
270.731073
0
LINE
8
0
10
54.772047
20
23.948814
30
0.0
11
54.843512
21
23.825009
31
0.0
0
ARC
8
0
10
55.060000
20
23.950007
30
0.0
40
0.249982
50
210.001689
51
330.002349
0
LINE
8
0
10
55.276496
20
23.825025
30
0.0
11
55.354204
21
23.959633
31
0.0
0
ARC
8
0
10
54.134083
20
73.944744
30
0.0
40
50.000000
50
271.398294
51
274.506051
0
ARC
8
0
10
57.944455
20
25.594656
30
0.0
40
1.500000
50
274.506051
51
288.873845
0
LINE
8
0
10
58.429684
20
24.175306
30
0.0
11
61.259998
21
25.142896
31
0.0
0
ARC
8
0
10
60.759998
20
26.008921
30
0.0
40
1.000000
50
299.999969
51
60.000031
0
LINE
8
0
10
61.259998
20
26.874947
30
0.0
11
58.429796
21
27.842457
31
0.0
0
ARC
8
0
10
57.944586
20
26.423101
30
0.0
40
1.500000
50
71.126913
51
85.493794
0
ARC
8
0
10
54.134083
20
-21.926978
30
0.0
40
50.000000
50
85.493794
51
88.601706
0
LINE
8
0
10
55.354204
20
28.058133
30
0.0
11
55.276496
21
28.192742
31
0.0
0
ARC
8
0
10
55.060000
20
28.067760
30
0.0
40
0.249982
50
29.997651
51
149.998311
0
LINE
8
0
10
54.843512
20
28.192757
30
0.0
11
54.772047
21
28.068952
31
0.0
0
ARC
8
0
10
54.134083
20
-21.926978
30
0.0
40
50.000000
50
89.268927
51
95.538610
0
ARC
8
0
10
49.260000
20
28.337257
30
0.0
40
0.500000
50
180.000000
51
275.538610
0
LINE
8
0
10
48.760000
20
28.337257
30
0.0
11
48.760000
21
30.700000
31
0.0
0
ARC
8
0
10
48.460000
20
30.700000
30
0.0
40
0.300000
50
360.000000
51
90.000000
0
LINE
8
0
10
48.460000
20
31.000000
30
0.0
11
37.060000
21
31.000000
31
0.0
0
ARC
8
0
10
37.060000
20
30.700000
30
0.0
40
0.300000
50
90.000000
51
180.000000
0
LINE
8
0
10
36.760000
20
30.700000
30
0.0
11
36.760000
21
28.909869
31
0.0
0
ARC
8
0
10
37.060000
20
28.909869
30
0.0
40
0.300000
50
180.000000
51
240.000122
0
LINE
8
0
10
36.910000
20
28.650062
30
0.0
11
37.760000
21
28.159316
31
0.0
0
ARC
8
0
10
37.910000
20
28.419124
30
0.0
40
0.300000
50
240.000122
51
360.000000
0
LINE
8
0
10
38.210000
20
28.419124
30
0.0
11
38.210004
21
29.500000
31
0.0
0
LINE
8
0
10
38.210004
20
29.500000
30
0.0
11
40.509342
21
29.500000
31
0.0
0
ARC
8
0
10
40.509342
20
29.200000
30
0.0
40
0.300000
50
22.500000
51
90.000000
0
LINE
8
0
10
40.786505
20
29.314805
30
0.0
11
42.108309
21
26.123688
31
0.0
0
ARC
8
0
10
41.831146
20
26.008883
30
0.0
40
0.300000
50
337.500000
51
22.500000
0
LINE
8
0
10
42.108309
20
25.894078
30
0.0
11
40.779147
21
22.685195
31
0.0
0
ARC
8
0
10
40.501983
20
22.800000
30
0.0
40
0.300000
50
270.000000
51
337.500000
0
ARC
8
0
10
31.980844
20
37.450000
30
0.0
40
0.550000
50
42.416667
51
222.416667
0
ARC
8
0
10
27.772399
20
34.495792
30
0.0
40
5.687742
50
328.027833
51
35.776462
0
ARC
8
0
10
32.834218
20
31.300000
30
0.0
40
0.300000
50
142.147162
51
270.000000
0
LINE
8
0
10
32.834218
20
31.000000
30
0.0
11
29.360028
21
31.000000
31
0.0
0
ARC
8
0
10
28.561313
20
34.733960
30
0.0
40
3.818429
50
282.073932
51
37.889562
0
ARC
8
0
10
32.834191
20
20.700000
30
0.0
40
0.300000
50
90.000000
51
217.852838
0
ARC
8
0
10
27.772371
20
17.504209
30
0.0
40
5.687742
50
324.223538
51
31.972167
0
ARC
8
0
10
31.980817
20
14.550000
30
0.0
40
0.550000
50
137.583333
51
317.583333
0
ARC
8
0
10
28.561285
20
17.266040
30
0.0
40
3.818429
50
322.110438
51
77.926068
0
LINE
8
0
10
29.360000
20
21.000000
30
0.0
11
32.834191
21
21.000000
31
0.0
0
ARC
8
0
10
29.831146
20
26.010241
30
0.0
40
1.800000
50
337.500000
51
359.674017
0
LINE
8
0
10
31.494129
20
25.321411
30
0.0
11
30.497843
21
22.916163
31
0.0
0
ARC
8
0
10
30.775007
20
22.801358
30
0.0
40
0.300000
50
157.500000
51
270.000000
0
LINE
8
0
10
30.775007
20
22.501358
30
0.0
11
34.210000
21
22.501358
31
0.0
0
ARC
8
0
10
34.210000
20
23.001358
30
0.0
40
0.500000
50
270.000000
51
360.000000
0
LINE
8
0
10
34.710000
20
23.001358
30
0.0
11
34.710000
21
25.750000
31
0.0
0
LINE
8
0
10
34.710000
20
25.750000
30
0.0
11
35.009997
21
26.000000
31
0.0
0
LINE
8
0
10
35.009997
20
26.000000
30
0.0
11
34.710000
21
26.250000
31
0.0
0
LINE
8
0
10
34.710000
20
26.250000
30
0.0
11
34.710000
21
28.998642
31
0.0
0
ARC
8
0
10
34.210000
20
28.998642
30
0.0
40
0.500000
50
360.000000
51
90.000000
0
LINE
8
0
10
34.210000
20
29.498642
30
0.0
11
30.775007
21
29.498642
31
0.0
0
ARC
8
0
10
30.775007
20
29.198642
30
0.0
40
0.300000
50
90.000000
51
202.500000
0
LINE
8
0
10
30.497843
20
29.083837
30
0.0
11
31.494129
21
26.678589
31
0.0
0
ARC
8
0
10
29.831146
20
25.989759
30
0.0
40
1.800000
50
0.325983
51
22.500000
0
ARC
8
0
10
25.910000
20
28.400000
30
0.0
40
0.300000
50
240.000122
51
360.000000
0
LINE
8
0
10
25.760001
20
28.140192
30
0.0
11
24.910001
21
28.630938
31
0.0
0
ARC
8
0
10
25.060000
20
28.890745
30
0.0
40
0.300000
50
180.000000
51
240.000118
0
LINE
8
0
10
24.760000
20
28.890745
30
0.0
11
24.760000
21
30.700000
31
0.0
0
ARC
8
0
10
25.060000
20
30.700000
30
0.0
40
0.300000
50
90.000000
51
180.000000
0
LINE
8
0
10
25.060000
20
31.000000
30
0.0
11
36.260000
21
31.000000
31
0.0
0
ARC
8
0
10
36.260000
20
30.500000
30
0.0
40
0.500000
50
360.000000
51
90.000000
0
LINE
8
0
10
36.760000
20
30.500000
30
0.0
11
36.760000
21
29.802716
31
0.0
0
ARC
8
0
10
36.460000
20
29.802716
30
0.0
40
0.300000
50
270.000000
51
360.000000
0
LINE
8
0
10
36.460000
20
29.502716
30
0.0
11
36.210000
21
29.502716
31
0.0
0
LINE
8
0
10
36.210000
20
29.502716
30
0.0
11
36.210000
21
28.301358
31
0.0
0
ARC
8
0
10
36.410000
20
28.301358
30
0.0
40
0.200000
50
180.000000
51
270.000000
0
LINE
8
0
10
36.419503
20
28.101584
30
0.0
11
38.510005
21
28.201019
31
0.0
0
LINE
8
0
10
38.510005
20
28.201019
30
0.0
11
38.510005
21
28.501358
31
0.0
0
ARC
8
0
10
38.810005
20
28.501358
30
0.0
40
0.300000
50
60.000000
51
180.000000
0
LINE
8
0
10
38.960005
20
28.761166
30
0.0
11
40.563284
21
27.835512
31
0.0
0
ARC
8
0
10
40.366568
20
27.494790
30
0.0
40
0.393432
50
272.700861
51
60.000000
0
LINE
8
0
10
40.385108
20
27.101795
30
0.0
11
38.016908
21
26.990078
31
0.0
0
ARC
8
0
10
38.495408
20
16.846749
30
0.0
40
10.154609
50
92.700861
51
101.144484
0
ARC
8
0
10
36.610000
20
26.417415
30
0.0
40
0.400000
50
101.144484
51
180.000000
0
LINE
8
0
10
36.210000
20
26.417415
30
0.0
11
36.210000
21
26.000000
31
0.0
0
LINE
8
0
10
36.210000
20
26.000000
30
0.0
11
36.210000
21
25.582586
31
0.0
0
ARC
8
0
10
36.610000
20
25.582586
30
0.0
40
0.400000
50
180.000000
51
258.855516
0
ARC
8
0
10
38.495408
20
35.153251
30
0.0
40
10.154609
50
258.855516
51
267.299139
0
LINE
8
0
10
38.016908
20
25.009922
30
0.0
11
40.385108
21
24.898205
31
0.0
0
ARC
8
0
10
40.366568
20
24.505210
30
0.0
40
0.393432
50
300.000000
51
87.299139
0
LINE
8
0
10
40.563284
20
24.164488
30
0.0
11
38.960005
21
23.238835
31
0.0
0
ARC
8
0
10
38.810005
20
23.498642
30
0.0
40
0.300000
50
180.000000
51
300.000000
0
LINE
8
0
10
38.510005
20
23.498642
30
0.0
11
38.510005
21
23.798981
31
0.0
0
LINE
8
0
10
38.510005
20
23.798981
30
0.0
11
36.419503
21
23.898416
31
0.0
0
ARC
8
0
10
36.410000
20
23.698642
30
0.0
40
0.200000
50
90.000000
51
180.000000
0
LINE
8
0
10
36.210000
20
23.698642
30
0.0
11
36.210000
21
22.497284
31
0.0
0
LINE
8
0
10
36.210000
20
22.497284
30
0.0
11
36.460000
21
22.497284
31
0.0
0
ARC
8
0
10
36.460000
20
22.197284
30
0.0
40
0.300000
50
360.000000
51
90.000000
0
LINE
8
0
10
36.760000
20
22.197284
30
0.0
11
36.760000
21
21.500000
31
0.0
0
ARC
8
0
10
36.260000
20
21.500000
30
0.0
40
0.500000
50
270.000000
51
360.000000
0
LINE
8
0
10
36.260000
20
21.000000
30
0.0
11
25.060000
21
21.000000
31
0.0
0
ARC
8
0
10
25.060000
20
21.300000
30
0.0
40
0.300000
50
180.000000
51
270.000000
0
LINE
8
0
10
24.760000
20
21.300000
30
0.0
11
24.760000
21
23.109255
31
0.0
0
ARC
8
0
10
25.060000
20
23.109255
30
0.0
40
0.300000
50
119.999882
51
180.000000
0
LINE
8
0
10
24.910001
20
23.369063
30
0.0
11
25.760001
21
23.859808
31
0.0
0
ARC
8
0
10
25.910000
20
23.600000
30
0.0
40
0.300000
50
360.000000
51
119.999878
0
LINE
8
0
10
26.210000
20
23.600000
30
0.0
11
26.210001
21
22.501358
31
0.0
0
LINE
8
0
10
26.210001
20
22.501358
30
0.0
11
28.501983
21
22.501358
31
0.0
0
ARC
8
0
10
28.501983
20
22.801358
30
0.0
40
0.300000
50
270.000000
51
337.500000
0
LINE
8
0
10
28.779147
20
22.686553
30
0.0
11
30.108310
21
25.895436
31
0.0
0
ARC
8
0
10
29.831146
20
26.010241
30
0.0
40
0.300000
50
337.500000
51
358.043734
0
ARC
8
0
10
29.831146
20
25.989759
30
0.0
40
0.300000
50
1.956266
51
22.500000
0
LINE
8
0
10
30.108310
20
26.104564
30
0.0
11
28.779147
21
29.313447
31
0.0
0
ARC
8
0
10
28.501983
20
29.198642
30
0.0
40
0.300000
50
22.500000
51
90.000000
0
LINE
8
0
10
28.501983
20
29.498642
30
0.0
11
26.210001
21
29.498642
31
0.0
0
LINE
8
0
10
26.210001
20
29.498642
30
0.0
11
26.210000
21
28.400000
31
0.0
0
ATTDEF
8
0
10
25.060000
20
31.000000
30
0.0
40
3.5
1

3

2
VC_START
70
0
0
ATTDEF
8
0
10
25.060000
20
21.000000
30
0.0
40
3.5
1

3

2
VC_END
70
0
0
LINE
8
0
10
234.760019
20
49.000000
30
0.0
11
218.760019
21
49.000000
31
0.0
0
LINE
8
0
10
218.760019
20
49.000000
30
0.0
11
218.760019
21
47.750000
31
0.0
0
LINE
8
0
10
218.760019
20
47.750000
30
0.0
11
217.260009
21
47.750000
31
0.0
0
LINE
8
0
10
217.260009
20
47.750000
30
0.0
11
217.260009
21
49.000000
31
0.0
0
LINE
8
0
10
217.260009
20
49.000000
30
0.0
11
94.260009
21
49.000000
31
0.0
0
LINE
8
0
10
94.260009
20
49.000000
30
0.0
11
94.260009
21
47.750000
31
0.0
0
LINE
8
0
10
94.260009
20
47.750000
30
0.0
11
92.760009
21
47.750000
31
0.0
0
LINE
8
0
10
92.760009
20
47.750000
30
0.0
11
92.760009
21
49.000000
31
0.0
0
LINE
8
0
10
92.760009
20
49.000000
30
0.0
11
82.260019
21
49.000000
31
0.0
0
ARC
8
0
10
82.260019
20
48.500000
30
0.0
40
0.500000
50
90.000000
51
180.000000
0
LINE
8
0
10
81.760019
20
48.500000
30
0.0
11
81.760019
21
3.500000
31
0.0
0
ARC
8
0
10
82.260019
20
3.500000
30
0.0
40
0.500000
50
180.000000
51
270.000000
0
LINE
8
0
10
82.260019
20
3.000000
30
0.0
11
92.760009
21
3.000000
31
0.0
0
LINE
8
0
10
92.760009
20
3.000000
30
0.0
11
92.760009
21
4.250000
31
0.0
0
LINE
8
0
10
92.760009
20
4.250000
30
0.0
11
94.260009
21
4.250000
31
0.0
0
LINE
8
0
10
94.260009
20
4.250000
30
0.0
11
94.260009
21
3.000000
31
0.0
0
LINE
8
0
10
94.260009
20
3.000000
30
0.0
11
217.260009
21
3.000000
31
0.0
0
LINE
8
0
10
217.260009
20
3.000000
30
0.0
11
217.260014
21
4.249990
31
0.0
0
LINE
8
0
10
217.260014
20
4.249990
30
0.0
11
218.760014
21
4.250000
31
0.0
0
LINE
8
0
10
218.760014
20
4.250000
30
0.0
11
218.760019
21
3.000000
31
0.0
0
LINE
8
0
10
218.760019
20
3.000000
30
0.0
11
234.760019
21
3.000000
31
0.0
0
ARC
8
0
10
234.760019
20
3.500000
30
0.0
40
0.500000
50
270.000000
51
360.000000
0
LINE
8
0
10
235.260019
20
3.500000
30
0.0
11
235.260019
21
10.800000
31
0.0
0
LINE
8
0
10
235.260019
20
10.800000
30
0.0
11
229.760019
21
11.900000
31
0.0
0
LINE
8
0
10
229.760019
20
11.900000
30
0.0
11
229.760019
21
13.000000
31
0.0
0
LINE
8
0
10
229.760019
20
13.000000
30
0.0
11
235.260019
21
13.000000
31
0.0
0
LINE
8
0
10
235.260019
20
13.000000
30
0.0
11
235.260019
21
39.000000
31
0.0
0
LINE
8
0
10
235.260019
20
39.000000
30
0.0
11
229.760019
21
39.000000
31
0.0
0
LINE
8
0
10
229.760019
20
39.000000
30
0.0
11
229.760019
21
40.100000
31
0.0
0
LINE
8
0
10
229.760019
20
40.100000
30
0.0
11
235.260019
21
41.200000
31
0.0
0
LINE
8
0
10
235.260019
20
41.200000
30
0.0
11
235.260019
21
48.500000
31
0.0
0
ARC
8
0
10
234.760019
20
48.500000
30
0.0
40
0.500000
50
360.000000
51
90.000000
0
ARC
8
0
10
71.499977
20
45.390000
30
0.0
40
0.300000
50
30.000000
51
90.000000
0
LINE
8
0
10
71.759784
20
45.540000
30
0.0
11
71.846387
21
45.390000
31
0.0
0
ARC
8
0
10
72.019591
20
45.490000
30
0.0
40
0.200000
50
210.000000
51
330.000000
0
LINE
8
0
10
72.192796
20
45.390000
30
0.0
11
72.279399
21
45.540000
31
0.0
0
ARC
8
0
10
72.539206
20
45.390000
30
0.0
40
0.300000
50
90.000000
51
150.000000
0
LINE
8
0
10
72.539206
20
45.690000
30
0.0
11
72.760000
21
45.690000
31
0.0
0
LINE
8
0
10
72.760000
20
45.690000
30
0.0
11
72.760000
21
44.690000
31
0.0
0
LINE
8
0
10
72.760000
20
44.690000
30
0.0
11
73.693212
21
44.690000
31
0.0
0
LINE
8
0
10
73.693212
20
44.690000
30
0.0
11
74.552466
21
45.552015
31
0.0
0
LINE
8
0
10
74.559784
20
45.540000
30
0.0
11
74.646387
21
45.390000
31
0.0
0
ARC
8
0
10
74.819591
20
45.490000
30
0.0
40
0.200000
50
210.000000
51
330.000000
0
LINE
8
0
10
74.992796
20
45.390000
30
0.0
11
75.079399
21
45.540000
31
0.0
0
ARC
8
0
10
75.339206
20
45.390000
30
0.0
40
0.300000
50
90.000000
51
150.000000
0
LINE
8
0
10
75.339206
20
45.690000
30
0.0
11
75.699977
21
45.690000
31
0.0
0
ARC
8
0
10
75.699977
20
45.390000
30
0.0
40
0.300000
50
30.000000
51
90.000000
0
LINE
8
0
10
75.959784
20
45.540000
30
0.0
11
76.046387
21
45.390000
31
0.0
0
ARC
8
0
10
76.219591
20
45.490000
30
0.0
40
0.200000
50
210.000000
51
330.000000
0
LINE
8
0
10
76.392796
20
45.390000
30
0.0
11
76.479399
21
45.540000
31
0.0
0
ARC
8
0
10
76.739206
20
45.390000
30
0.0
40
0.300000
50
90.000000
51
150.000000
0
LINE
8
0
10
76.739206
20
45.690000
30
0.0
11
77.200000
21
45.690000
31
0.0
0
ARC
8
0
10
77.200000
20
47.250000
30
0.0
40
1.560000
50
270.000000
51
82.310965
0
ARC
8
0
10
77.448862
20
49.093276
30
0.0
40
0.300000
50
210.000000
51
262.310965
0
LINE
8
0
10
77.189054
20
48.943276
30
0.0
11
77.092796
21
49.110000
31
0.0
0
ARC
8
0
10
76.919591
20
49.010000
30
0.0
40
0.200000
50
30.000000
51
150.000000
0
LINE
8
0
10
76.746387
20
49.110000
30
0.0
11
76.659784
21
48.960000
31
0.0
0
ARC
8
0
10
76.399977
20
49.110000
30
0.0
40
0.300000
50
270.000000
51
330.000000
0
LINE
8
0
10
76.399977
20
48.810000
30
0.0
11
76.039206
21
48.810000
31
0.0
0
ARC
8
0
10
76.039206
20
49.110000
30
0.0
40
0.300000
50
210.000000
51
270.000000
0
LINE
8
0
10
75.779399
20
48.960000
30
0.0
11
75.692796
21
49.110000
31
0.0
0
ARC
8
0
10
75.519591
20
49.010000
30
0.0
40
0.200000
50
30.000000
51
150.000000
0
LINE
8
0
10
75.346387
20
49.110000
30
0.0
11
75.259784
21
48.960000
31
0.0
0
ARC
8
0
10
74.999977
20
49.110000
30
0.0
40
0.300000
50
270.000000
51
330.000000
0
LINE
8
0
10
74.999977
20
48.810000
30
0.0
11
74.690009
21
48.810000
31
0.0
0
LINE
8
0
10
74.690009
20
48.810000
30
0.0
11
73.693212
21
49.810000
31
0.0
0
LINE
8
0
10
73.693212
20
49.810000
30
0.0
11
72.760000
21
49.810000
31
0.0
0
LINE
8
0
10
72.760000
20
49.810000
30
0.0
11
72.760000
21
48.810000
31
0.0
0
LINE
8
0
10
72.760000
20
48.810000
30
0.0
11
71.839206
21
48.810000
31
0.0
0
ARC
8
0
10
71.839206
20
49.110000
30
0.0
40
0.300000
50
210.000000
51
270.000000
0
LINE
8
0
10
71.579399
20
48.960000
30
0.0
11
71.492796
21
49.110000
31
0.0
0
ARC
8
0
10
71.319591
20
49.010000
30
0.0
40
0.200000
50
30.000000
51
150.000000
0
LINE
8
0
10
71.146387
20
49.110000
30
0.0
11
71.059784
21
48.960000
31
0.0
0
ARC
8
0
10
70.799977
20
49.110000
30
0.0
40
0.300000
50
270.000000
51
330.000000
0
LINE
8
0
10
70.799977
20
48.810000
30
0.0
11
70.439206
21
48.810000
31
0.0
0
ARC
8
0
10
70.439206
20
49.110000
30
0.0
40
0.300000
50
210.000000
51
270.000000
0
LINE
8
0
10
70.179399
20
48.960000
30
0.0
11
70.092796
21
49.110000
31
0.0
0
ARC
8
0
10
69.919591
20
49.010000
30
0.0
40
0.200000
50
30.000000
51
150.000000
0
LINE
8
0
10
69.746387
20
49.110000
30
0.0
11
69.659784
21
48.960000
31
0.0
0
ARC
8
0
10
69.399977
20
49.110000
30
0.0
40
0.300000
50
270.000000
51
330.000000
0
LINE
8
0
10
69.399977
20
48.810000
30
0.0
11
68.690009
21
48.810000
31
0.0
0
LINE
8
0
10
68.690009
20
48.810000
30
0.0
11
67.693212
21
49.810000
31
0.0
0
LINE
8
0
10
67.693212
20
49.810000
30
0.0
11
66.760000
21
49.810000
31
0.0
0
LINE
8
0
10
66.760000
20
49.810000
30
0.0
11
66.760000
21
48.810000
31
0.0
0
LINE
8
0
10
66.760000
20
48.810000
30
0.0
11
66.260000
21
48.810000
31
0.0
0
LINE
8
0
10
66.260000
20
48.810000
30
0.0
11
65.760000
21
49.310000
31
0.0
0
LINE
8
0
10
65.760000
20
49.310000
30
0.0
11
65.760000
21
52.000000
31
0.0
0
LINE
8
0
10
65.760000
20
52.000000
30
0.0
11
240.260019
21
52.000000
31
0.0
0
ARC
8
0
10
240.260019
20
51.500000
30
0.0
40
0.500000
50
360.000000
51
90.000000
0
LINE
8
0
10
240.760019
20
51.500000
30
0.0
11
240.760019
21
0.500000
31
0.0
0
ARC
8
0
10
240.260019
20
0.500000
30
0.0
40
0.500000
50
270.000000
51
360.000000
0
LINE
8
0
10
240.260019
20
0.000000
30
0.0
11
65.760000
21
0.000000
31
0.0
0
LINE
8
0
10
65.760000
20
0.000000
30
0.0
11
65.760000
21
2.690000
31
0.0
0
LINE
8
0
10
65.760000
20
2.690000
30
0.0
11
66.260000
21
3.190000
31
0.0
0
LINE
8
0
10
66.260000
20
3.190000
30
0.0
11
66.760000
21
3.190000
31
0.0
0
LINE
8
0
10
66.760000
20
3.190000
30
0.0
11
66.760000
21
2.190000
31
0.0
0
LINE
8
0
10
66.760000
20
2.190000
30
0.0
11
67.693212
21
2.190000
31
0.0
0
LINE
8
0
10
67.693212
20
2.190000
30
0.0
11
68.690009
21
3.190000
31
0.0
0
LINE
8
0
10
68.690009
20
3.190000
30
0.0
11
69.399977
21
3.190000
31
0.0
0
ARC
8
0
10
69.399977
20
2.890000
30
0.0
40
0.300000
50
30.000000
51
90.000000
0
LINE
8
0
10
69.659784
20
3.040000
30
0.0
11
69.746387
21
2.890000
31
0.0
0
ARC
8
0
10
69.919591
20
2.990000
30
0.0
40
0.200000
50
210.000000
51
330.000000
0
LINE
8
0
10
70.092796
20
2.890000
30
0.0
11
70.179399
21
3.040000
31
0.0
0
ARC
8
0
10
70.439206
20
2.890000
30
0.0
40
0.300000
50
90.000000
51
150.000000
0
LINE
8
0
10
70.439206
20
3.190000
30
0.0
11
70.799977
21
3.190000
31
0.0
0
ARC
8
0
10
70.799977
20
2.890000
30
0.0
40
0.300000
50
30.000000
51
90.000000
0
LINE
8
0
10
71.059784
20
3.040000
30
0.0
11
71.146387
21
2.890000
31
0.0
0
ARC
8
0
10
71.319591
20
2.990000
30
0.0
40
0.200000
50
210.000000
51
330.000000
0
LINE
8
0
10
71.492796
20
2.890000
30
0.0
11
71.579399
21
3.040000
31
0.0
0
ARC
8
0
10
71.839206
20
2.890000
30
0.0
40
0.300000
50
90.000000
51
150.000000
0
LINE
8
0
10
71.839206
20
3.190000
30
0.0
11
72.760000
21
3.190000
31
0.0
0
LINE
8
0
10
72.760000
20
3.190000
30
0.0
11
72.760000
21
2.190000
31
0.0
0
LINE
8
0
10
72.760000
20
2.190000
30
0.0
11
73.693212
21
2.190000
31
0.0
0
LINE
8
0
10
73.693212
20
2.190000
30
0.0
11
74.690009
21
3.190000
31
0.0
0
LINE
8
0
10
74.690009
20
3.190000
30
0.0
11
74.999977
21
3.190000
31
0.0
0
ARC
8
0
10
74.999977
20
2.890000
30
0.0
40
0.300000
50
30.000000
51
90.000000
0
LINE
8
0
10
75.259784
20
3.040000
30
0.0
11
75.346387
21
2.890000
31
0.0
0
ARC
8
0
10
75.519591
20
2.990000
30
0.0
40
0.200000
50
210.000000
51
330.000000
0
LINE
8
0
10
75.692796
20
2.890000
30
0.0
11
75.779399
21
3.040000
31
0.0
0
ARC
8
0
10
76.039206
20
2.890000
30
0.0
40
0.300000
50
90.000000
51
150.000000
0
LINE
8
0
10
76.039206
20
3.190000
30
0.0
11
76.399977
21
3.190000
31
0.0
0
ARC
8
0
10
76.399977
20
2.890000
30
0.0
40
0.300000
50
30.000000
51
90.000000
0
LINE
8
0
10
76.659784
20
3.040000
30
0.0
11
76.746387
21
2.890000
31
0.0
0
ARC
8
0
10
76.919591
20
2.990000
30
0.0
40
0.200000
50
210.000000
51
330.000000
0
LINE
8
0
10
77.092796
20
2.890000
30
0.0
11
77.189054
21
3.056724
31
0.0
0
ARC
8
0
10
77.448862
20
2.906724
30
0.0
40
0.300000
50
97.689035
51
150.000000
0
ARC
8
0
10
77.200000
20
4.750000
30
0.0
40
1.560000
50
277.689035
51
90.000000
0
LINE
8
0
10
77.200000
20
6.310000
30
0.0
11
76.739206
21
6.310000
31
0.0
0
ARC
8
0
10
76.739206
20
6.610000
30
0.0
40
0.300000
50
210.000000
51
270.000000
0
LINE
8
0
10
76.479399
20
6.460000
30
0.0
11
76.392796
21
6.610000
31
0.0
0
ARC
8
0
10
76.219591
20
6.510000
30
0.0
40
0.200000
50
30.000000
51
150.000000
0
LINE
8
0
10
76.046387
20
6.610000
30
0.0
11
75.959784
21
6.460000
31
0.0
0
ARC
8
0
10
75.699977
20
6.610000
30
0.0
40
0.300000
50
270.000000
51
330.000000
0
LINE
8
0
10
75.699977
20
6.310000
30
0.0
11
75.339206
21
6.310000
31
0.0
0
ARC
8
0
10
75.339206
20
6.610000
30
0.0
40
0.300000
50
210.000000
51
270.000000
0
LINE
8
0
10
75.079399
20
6.460000
30
0.0
11
74.992796
21
6.610000
31
0.0
0
ARC
8
0
10
74.819591
20
6.510000
30
0.0
40
0.200000
50
30.000000
51
150.000000
0
LINE
8
0
10
74.646387
20
6.610000
30
0.0
11
74.559784
21
6.460000
31
0.0
0
LINE
8
0
10
74.552466
20
6.447985
30
0.0
11
73.693212
21
7.310000
31
0.0
0
LINE
8
0
10
73.693212
20
7.310000
30
0.0
11
72.760000
21
7.310000
31
0.0
0
LINE
8
0
10
72.760000
20
7.310000
30
0.0
11
72.760000
21
6.310000
31
0.0
0
LINE
8
0
10
72.760000
20
6.310000
30
0.0
11
72.539206
21
6.310000
31
0.0
0
ARC
8
0
10
72.539206
20
6.610000
30
0.0
40
0.300000
50
210.000000
51
270.000000
0
LINE
8
0
10
72.279399
20
6.460000
30
0.0
11
72.192796
21
6.610000
31
0.0
0
ARC
8
0
10
72.019591
20
6.510000
30
0.0
40
0.200000
50
30.000000
51
150.000000
0
LINE
8
0
10
71.846387
20
6.610000
30
0.0
11
71.759784
21
6.460000
31
0.0
0
ARC
8
0
10
71.499977
20
6.610000
30
0.0
40
0.300000
50
270.000000
51
330.000000
0
LINE
8
0
10
71.499977
20
6.310000
30
0.0
11
71.139206
21
6.310000
31
0.0
0
ARC
8
0
10
71.139206
20
6.610000
30
0.0
40
0.300000
50
210.000000
51
270.000000
0
LINE
8
0
10
70.879399
20
6.460000
30
0.0
11
70.792796
21
6.610000
31
0.0
0
ARC
8
0
10
70.619591
20
6.510000
30
0.0
40
0.200000
50
30.000000
51
150.000000
0
LINE
8
0
10
70.446387
20
6.610000
30
0.0
11
70.359784
21
6.460000
31
0.0
0
ARC
8
0
10
70.099977
20
6.610000
30
0.0
40
0.300000
50
270.000000
51
330.000000
0
LINE
8
0
10
70.099977
20
6.310000
30
0.0
11
69.739206
21
6.310000
31
0.0
0
ARC
8
0
10
69.739206
20
6.610000
30
0.0
40
0.300000
50
210.000000
51
270.000000
0
LINE
8
0
10
69.479399
20
6.460000
30
0.0
11
69.392796
21
6.610000
31
0.0
0
ARC
8
0
10
69.219591
20
6.510000
30
0.0
40
0.200000
50
30.000000
51
150.000000
0
LINE
8
0
10
69.046387
20
6.610000
30
0.0
11
68.959784
21
6.460000
31
0.0
0
ARC
8
0
10
68.699977
20
6.610000
30
0.0
40
0.300000
50
268.063264
51
330.000000
0
LINE
8
0
10
68.689838
20
6.310171
30
0.0
11
67.693212
21
7.310000
31
0.0
0
LINE
8
0
10
67.693212
20
7.310000
30
0.0
11
66.760000
21
7.310000
31
0.0
0
LINE
8
0
10
66.760000
20
7.310000
30
0.0
11
66.760000
21
6.310000
31
0.0
0
LINE
8
0
10
66.760000
20
6.310000
30
0.0
11
66.260000
21
6.310000
31
0.0
0
LINE
8
0
10
66.260000
20
6.310000
30
0.0
11
65.760000
21
6.810000
31
0.0
0
LINE
8
0
10
65.760000
20
6.810000
30
0.0
11
65.760000
21
9.500000
31
0.0
0
LINE
8
0
10
65.760000
20
9.500000
30
0.0
11
77.760000
21
9.500000
31
0.0
0
ARC
8
0
10
77.760000
20
10.500000
30
0.0
40
1.000000
50
270.000000
51
360.000000
0
LINE
8
0
10
78.760000
20
10.500000
30
0.0
11
78.760000
21
14.950000
31
0.0
0
LINE
8
0
10
78.760000
20
14.950000
30
0.0
11
79.060000
21
15.250000
31
0.0
0
LINE
8
0
10
79.060000
20
15.250000
30
0.0
11
78.760000
21
15.550000
31
0.0
0
LINE
8
0
10
78.760000
20
15.550000
30
0.0
11
78.760000
21
20.000000
31
0.0
0
ARC
8
0
10
77.760000
20
20.000000
30
0.0
40
1.000000
50
360.000000
51
90.000000
0
LINE
8
0
10
77.760000
20
21.000000
30
0.0
11
48.760000
21
21.000000
31
0.0
0
LINE
8
0
10
48.760000
20
21.000000
30
0.0
11
48.760000
21
22.700001
31
0.0
0
LINE
8
0
10
48.760000
20
22.700001
30
0.0
11
49.944141
21
23.884142
31
0.0
0
ARC
8
0
10
50.040385
20
23.600000
30
0.0
40
0.300000
50
30.000000
51
108.712203
0
LINE
8
0
10
50.300193
20
23.749999
30
0.0
11
50.386795
21
23.600000
31
0.0
0
ARC
8
0
10
50.560000
20
23.700000
30
0.0
40
0.200000
50
210.000000
51
330.000000
0
LINE
8
0
10
50.733205
20
23.600000
30
0.0
11
50.819808
21
23.749999
31
0.0
0
ARC
8
0
10
51.079615
20
23.600000
30
0.0
40
0.300000
50
90.000000
51
150.000000
0
LINE
8
0
10
51.079615
20
23.899999
30
0.0
11
51.840385
21
23.899999
31
0.0
0
ARC
8
0
10
51.840385
20
23.600000
30
0.0
40
0.300000
50
30.000000
51
90.000000
0
LINE
8
0
10
52.100193
20
23.749999
30
0.0
11
52.186795
21
23.600000
31
0.0
0
ARC
8
0
10
52.360000
20
23.700000
30
0.0
40
0.200000
50
210.000000
51
330.000000
0
LINE
8
0
10
52.533205
20
23.600000
30
0.0
11
52.619808
21
23.749999
31
0.0
0
ARC
8
0
10
52.879615
20
23.600000
30
0.0
40
0.300000
50
90.000000
51
150.000000
0
LINE
8
0
10
52.879615
20
23.899999
30
0.0
11
53.640385
21
23.899999
31
0.0
0
ARC
8
0
10
53.640385
20
23.600000
30
0.0
40
0.300000
50
30.000000
51
90.000000
0
LINE
8
0
10
53.900193
20
23.749999
30
0.0
11
53.986795
21
23.600000
31
0.0
0
ARC
8
0
10
54.160000
20
23.700000
30
0.0
40
0.200000
50
210.000000
51
330.000000
0
LINE
8
0
10
54.333205
20
23.600000
30
0.0
11
54.419808
21
23.749999
31
0.0
0
ARC
8
0
10
54.679615
20
23.600000
30
0.0
40
0.300000
50
90.000000
51
150.000000
0
LINE
8
0
10
54.679615
20
23.899999
30
0.0
11
55.440385
21
23.899999
31
0.0
0
ARC
8
0
10
55.440385
20
23.600000
30
0.0
40
0.300000
50
30.000000
51
90.000000
0
LINE
8
0
10
55.700193
20
23.749999
30
0.0
11
55.786795
21
23.600000
31
0.0
0
ARC
8
0
10
55.960000
20
23.700000
30
0.0
40
0.200000
50
210.000000
51
330.000000
0
LINE
8
0
10
56.133205
20
23.600000
30
0.0
11
56.219808
21
23.749999
31
0.0
0
ARC
8
0
10
56.479615
20
23.600000
30
0.0
40
0.300000
50
90.000000
51
150.000000
0
LINE
8
0
10
56.479615
20
23.899999
30
0.0
11
57.240385
21
23.899999
31
0.0
0
ARC
8
0
10
57.240385
20
23.600000
30
0.0
40
0.300000
50
30.000000
51
90.000000
0
LINE
8
0
10
57.500193
20
23.749999
30
0.0
11
57.586795
21
23.600000
31
0.0
0
ARC
8
0
10
57.760000
20
23.700000
30
0.0
40
0.200000
50
210.000000
51
330.000000
0
LINE
8
0
10
57.933205
20
23.600000
30
0.0
11
58.019808
21
23.749999
31
0.0
0
ARC
8
0
10
58.279615
20
23.600000
30
0.0
40
0.300000
50
90.000000
51
150.000000
0
LINE
8
0
10
58.279615
20
23.899999
30
0.0
11
59.040385
21
23.899999
31
0.0
0
ARC
8
0
10
59.040385
20
23.600000
30
0.0
40
0.300000
50
30.000000
51
90.000000
0
LINE
8
0
10
59.300193
20
23.749999
30
0.0
11
59.386795
21
23.600000
31
0.0
0
ARC
8
0
10
59.560000
20
23.700000
30
0.0
40
0.200000
50
210.000000
51
330.000000
0
LINE
8
0
10
59.733205
20
23.600000
30
0.0
11
59.819808
21
23.749999
31
0.0
0
ARC
8
0
10
60.079615
20
23.600000
30
0.0
40
0.300000
50
90.000000
51
150.000000
0
LINE
8
0
10
60.079615
20
23.899999
30
0.0
11
61.660000
21
23.900000
31
0.0
0
ARC
8
0
10
61.660000
20
25.400000
30
0.0
40
1.500000
50
270.000000
51
360.000000
0
LINE
8
0
10
63.160000
20
25.400000
30
0.0
11
63.160000
21
26.600000
31
0.0
0
ARC
8
0
10
61.660000
20
26.600000
30
0.0
40
1.500000
50
360.000000
51
90.000000
0
LINE
8
0
10
61.660000
20
28.100000
30
0.0
11
60.978369
21
28.100000
31
0.0
0
ARC
8
0
10
60.979757
20
28.400240
30
0.0
40
0.300243
50
210.026110
51
270.000000
0
LINE
8
0
10
60.719808
20
28.250000
30
0.0
11
60.633205
21
28.400000
31
0.0
0
ARC
8
0
10
60.460000
20
28.300000
30
0.0
40
0.200000
50
30.000000
51
150.000000
0
LINE
8
0
10
60.286795
20
28.400000
30
0.0
11
60.200193
21
28.250000
31
0.0
0
ARC
8
0
10
59.940385
20
28.400000
30
0.0
40
0.300000
50
270.000000
51
330.000000
0
LINE
8
0
10
59.940385
20
28.100000
30
0.0
11
59.179615
21
28.100000
31
0.0
0
ARC
8
0
10
59.179615
20
28.400000
30
0.0
40
0.300000
50
210.000000
51
270.000000
0
LINE
8
0
10
58.919808
20
28.250000
30
0.0
11
58.833205
21
28.400000
31
0.0
0
ARC
8
0
10
58.660000
20
28.300000
30
0.0
40
0.200000
50
30.000000
51
150.000000
0
LINE
8
0
10
58.486795
20
28.400000
30
0.0
11
58.400193
21
28.250000
31
0.0
0
ARC
8
0
10
58.140385
20
28.400000
30
0.0
40
0.300000
50
270.000000
51
330.000000
0
LINE
8
0
10
58.140385
20
28.100000
30
0.0
11
57.379615
21
28.100000
31
0.0
0
ARC
8
0
10
57.379615
20
28.400000
30
0.0
40
0.300000
50
210.000000
51
270.000000
0
LINE
8
0
10
57.119808
20
28.250000
30
0.0
11
57.033205
21
28.400000
31
0.0
0
ARC
8
0
10
56.860000
20
28.300000
30
0.0
40
0.200000
50
30.000000
51
150.000000
0
LINE
8
0
10
56.686795
20
28.400000
30
0.0
11
56.600193
21
28.250000
31
0.0
0
ARC
8
0
10
56.340385
20
28.400000
30
0.0
40
0.300000
50
270.000000
51
330.000000
0
LINE
8
0
10
56.340385
20
28.100000
30
0.0
11
55.579615
21
28.100000
31
0.0
0
ARC
8
0
10
55.579615
20
28.400000
30
0.0
40
0.300000
50
210.000000
51
270.000000
0
LINE
8
0
10
55.319808
20
28.250000
30
0.0
11
55.233205
21
28.400000
31
0.0
0
ARC
8
0
10
55.060000
20
28.300000
30
0.0
40
0.200000
50
30.000000
51
150.000000
0
LINE
8
0
10
54.886795
20
28.400000
30
0.0
11
54.800193
21
28.250000
31
0.0
0
ARC
8
0
10
54.540385
20
28.400000
30
0.0
40
0.300000
50
270.000000
51
330.000000
0
LINE
8
0
10
54.540385
20
28.100000
30
0.0
11
53.779615
21
28.100000
31
0.0
0
ARC
8
0
10
53.779615
20
28.400000
30
0.0
40
0.300000
50
210.000000
51
270.000000
0
LINE
8
0
10
53.519808
20
28.250000
30
0.0
11
53.433205
21
28.400000
31
0.0
0
ARC
8
0
10
53.260000
20
28.300000
30
0.0
40
0.200000
50
30.000000
51
150.000000
0
LINE
8
0
10
53.086795
20
28.400000
30
0.0
11
53.000193
21
28.250000
31
0.0
0
ARC
8
0
10
52.740385
20
28.400000
30
0.0
40
0.300000
50
270.000000
51
330.000000
0
LINE
8
0
10
52.740385
20
28.100000
30
0.0
11
51.979615
21
28.100000
31
0.0
0
ARC
8
0
10
51.979615
20
28.400000
30
0.0
40
0.300000
50
210.000000
51
270.000000
0
LINE
8
0
10
51.719808
20
28.250000
30
0.0
11
51.633205
21
28.400000
31
0.0
0
ARC
8
0
10
51.460000
20
28.300000
30
0.0
40
0.200000
50
30.000000
51
150.000000
0
LINE
8
0
10
51.286795
20
28.400000
30
0.0
11
51.200193
21
28.250000
31
0.0
0
ARC
8
0
10
50.940385
20
28.400000
30
0.0
40
0.300000
50
270.000000
51
330.000000
0
LINE
8
0
10
50.940385
20
28.100000
30
0.0
11
49.959999
21
28.100000
31
0.0
0
LINE
8
0
10
49.959999
20
28.100000
30
0.0
11
48.760000
21
29.299999
31
0.0
0
LINE
8
0
10
48.760000
20
29.299999
30
0.0
11
48.760000
21
31.000000
31
0.0
0
LINE
8
0
10
48.760000
20
31.000000
30
0.0
11
77.760000
21
31.000000
31
0.0
0
ARC
8
0
10
77.760000
20
32.000000
30
0.0
40
1.000000
50
270.000000
51
360.000000
0
LINE
8
0
10
78.760000
20
32.000000
30
0.0
11
78.760000
21
36.450000
31
0.0
0
LINE
8
0
10
78.760000
20
36.450000
30
0.0
11
79.060000
21
36.750000
31
0.0
0
LINE
8
0
10
79.060000
20
36.750000
30
0.0
11
78.760000
21
37.050000
31
0.0
0
LINE
8
0
10
78.760000
20
37.050000
30
0.0
11
78.760000
21
41.500000
31
0.0
0
ARC
8
0
10
77.760000
20
41.500000
30
0.0
40
1.000000
50
360.000000
51
90.000000
0
LINE
8
0
10
77.760000
20
42.500000
30
0.0
11
65.760000
21
42.500000
31
0.0
0
LINE
8
0
10
65.760000
20
42.500000
30
0.0
11
65.760000
21
45.190000
31
0.0
0
LINE
8
0
10
65.760000
20
45.190000
30
0.0
11
66.260000
21
45.690000
31
0.0
0
LINE
8
0
10
66.260000
20
45.690000
30
0.0
11
66.760000
21
45.690000
31
0.0
0
LINE
8
0
10
66.760000
20
45.690000
30
0.0
11
66.760000
21
44.690000
31
0.0
0
LINE
8
0
10
66.760000
20
44.690000
30
0.0
11
67.693212
21
44.690000
31
0.0
0
LINE
8
0
10
67.693212
20
44.690000
30
0.0
11
68.689838
21
45.689829
31
0.0
0
ARC
8
0
10
68.699977
20
45.390000
30
0.0
40
0.300000
50
30.000000
51
91.936736
0
LINE
8
0
10
68.959784
20
45.540000
30
0.0
11
69.046387
21
45.390000
31
0.0
0
ARC
8
0
10
69.219591
20
45.490000
30
0.0
40
0.200000
50
210.000000
51
330.000000
0
LINE
8
0
10
69.392796
20
45.390000
30
0.0
11
69.479399
21
45.540000
31
0.0
0
ARC
8
0
10
69.739206
20
45.390000
30
0.0
40
0.300000
50
90.000000
51
150.000000
0
LINE
8
0
10
69.739206
20
45.690000
30
0.0
11
70.099977
21
45.690000
31
0.0
0
ARC
8
0
10
70.099977
20
45.390000
30
0.0
40
0.300000
50
30.000000
51
90.000000
0
LINE
8
0
10
70.359784
20
45.540000
30
0.0
11
70.446387
21
45.390000
31
0.0
0
ARC
8
0
10
70.619591
20
45.490000
30
0.0
40
0.200000
50
210.000000
51
330.000000
0
LINE
8
0
10
70.792796
20
45.390000
30
0.0
11
70.879399
21
45.540000
31
0.0
0
ARC
8
0
10
71.139206
20
45.390000
30
0.0
40
0.300000
50
90.000000
51
150.000000
0
LINE
8
0
10
71.139206
20
45.690000
30
0.0
11
71.499977
21
45.690000
31
0.0
0
ATTDEF
8
0
10
65.760000
20
52.000000
30
0.0
40
3.5
1

3

2
VC_START
70
0
0
ATTDEF
8
0
10
65.760000
20
0.000000
30
0.0
40
3.5
1

3

2
VC_END
70
0
0
ATTDEF
8
0
10
0.000000
20
0.000000
30
0.0
40
3.5
1

3

2
DENS:0.000000
70
0
0
ATTDEF
8
0
10
0.000000
20
0.000000
30
0.0
40
3.5
1

3

2
GLASS_MIN:0.000000
70
0
0
ATTDEF
8
0
10
0.000000
20
0.000000
30
0.0
40
3.5
1

3

2
GLASS_MAX:0.000000
70
0
0
ATTDEF
8
0
10
0.000000
20
0.000000
30
0.0
40
3.5
1

3

2
DESC:COR-9807 - COR-9842 - COR-9841 - COR-9914 - COR-9143
70
0
0
ATTDEF
8
0
10
0.000000
20
0.000000
30
0.0
40
3.5
1

3

2
HW_START
70
0
0
ATTDEF
8
0
10
240.760019
20
52.000000
30
0.0
40
3.5
1

3

2
HW_END
70
0
0
ATTDEF
8
0
10
0.000000
20
0.000000
30
0.0
40
3.5
1

3

2
BL01:6500.000000,,1
70
0
0
ENDSEC
0
EOF
