0
SECTION
2
ENTITIES
0
LINE
8
0
10
5.000000
20
4.200000
30
0.0
11
5.000000
21
1.400000
31
0.0
0
LINE
8
0
10
5.000000
20
1.400000
30
0.0
11
1.400000
21
1.400000
31
0.0
0
LINE
8
0
10
1.400000
20
1.400000
30
0.0
11
1.400000
21
50.600000
31
0.0
0
LINE
8
0
10
1.400000
20
50.600000
30
0.0
11
5.000000
21
50.600000
31
0.0
0
LINE
8
0
10
5.000000
20
50.600000
30
0.0
11
5.000000
21
47.800000
31
0.0
0
LINE
8
0
10
5.000000
20
47.800000
30
0.0
11
6.400000
21
47.800000
31
0.0
0
LINE
8
0
10
6.400000
20
47.800000
30
0.0
11
6.400000
21
50.600000
31
0.0
0
LINE
8
0
10
6.400000
20
50.600000
30
0.0
11
9.653589
21
50.600000
31
0.0
0
LINE
8
0
10
9.653589
20
50.600000
30
0.0
11
10.073205
21
49.873205
31
0.0
0
LINE
8
0
10
10.073205
20
49.873205
30
0.0
11
11.332050
21
50.600000
31
0.0
0
LINE
8
0
10
11.332050
20
50.600000
30
0.0
11
19.000000
21
50.600000
31
0.0
0
LINE
8
0
10
19.000000
20
50.600000
30
0.0
11
19.000000
21
52.000000
31
0.0
0
LINE
8
0
10
19.000000
20
52.000000
30
0.0
11
1.000000
21
52.000000
31
0.0
0
ARC
8
0
10
1.000000
20
51.000000
30
0.0
40
1.000000
50
90.000000
51
180.000000
0
LINE
8
0
10
0.000000
20
51.000000
30
0.0
11
0.000000
21
1.000000
31
0.0
0
ARC
8
0
10
1.000000
20
1.000000
30
0.0
40
1.000000
50
180.000000
51
270.000000
0
LINE
8
0
10
1.000000
20
0.000000
30
0.0
11
19.000000
21
0.000000
31
0.0
0
LINE
8
0
10
19.000000
20
0.000000
30
0.0
11
19.000000
21
1.400000
31
0.0
0
LINE
8
0
10
19.000000
20
1.400000
30
0.0
11
11.332050
21
1.400000
31
0.0
0
LINE
8
0
10
11.332050
20
1.400000
30
0.0
11
10.073205
21
2.126795
31
0.0
0
LINE
8
0
10
10.073205
20
2.126795
30
0.0
11
9.653589
21
1.400000
31
0.0
0
LINE
8
0
10
9.653589
20
1.400000
30
0.0
11
6.400000
21
1.400000
31
0.0
0
LINE
8
0
10
6.400000
20
1.400000
30
0.0
11
6.400000
21
4.200000
31
0.0
0
LINE
8
0
10
6.400000
20
4.200000
30
0.0
11
5.000000
21
4.200000
31
0.0
0
ATTDEF
8
0
10
19.000000
20
52.000000
30
0.0
40
3.5
1

3

2
VC_START
70
0
0
ATTDEF
8
0
10
19.000000
20
0.000000
30
0.0
40
3.5
1

3

2
VC_END
70
0
0
LINE
8
0
10
13.500000
20
26.249964
30
0.0
11
13.500000
21
31.319668
31
0.0
0
ARC
8
0
10
13.800000
20
31.319666
30
0.0
40
0.300000
50
149.999911
51
180.000000
0
LINE
8
0
10
13.540192
20
31.469666
30
0.0
11
16.797919
21
39.964453
31
0.0
0
ARC
8
0
10
16.704549
20
40.000260
30
0.0
40
0.100000
50
339.018495
51
90.000000
0
LINE
8
0
10
16.704549
20
40.100260
30
0.0
11
14.499978
21
40.100260
31
0.0
0
ARC
8
0
10
14.499978
20
41.100238
30
0.0
40
0.999978
50
180.000000
51
270.000000
0
LINE
8
0
10
13.500000
20
41.100238
30
0.0
11
13.500000
21
46.801615
31
0.0
0
ARC
8
0
10
12.500461
20
46.801615
30
0.0
40
0.999539
50
360.000000
51
90.000000
0
LINE
8
0
10
12.500461
20
47.801154
30
0.0
11
7.000000
21
47.801154
31
0.0
0
ARC
8
0
10
7.000000
20
48.101154
30
0.0
40
0.300000
50
180.000000
51
270.000000
0
LINE
8
0
10
6.700000
20
48.101154
30
0.0
11
6.700000
21
49.033480
31
0.0
0
ARC
8
0
10
7.700000
20
49.033480
30
0.0
40
1.000000
50
99.019322
51
180.000000
0
LINE
8
0
10
7.543232
20
50.021115
30
0.0
11
9.300209
21
50.300000
31
0.0
0
LINE
8
0
10
9.300209
20
50.300000
30
0.0
11
10.000194
21
49.600016
31
0.0
0
LINE
8
0
10
10.000194
20
49.600016
30
0.0
11
11.212604
21
50.300000
31
0.0
0
LINE
8
0
10
11.212604
20
50.300000
30
0.0
11
18.500011
21
50.300000
31
0.0
0
ARC
8
0
10
18.500011
20
49.800011
30
0.0
40
0.499989
50
360.000000
51
90.000000
0
LINE
8
0
10
19.000000
20
49.800011
30
0.0
11
19.000000
21
47.610000
31
0.0
0
LINE
8
0
10
19.000000
20
47.610000
30
0.0
11
18.500000
21
47.110000
31
0.0
0
LINE
8
0
10
18.500000
20
47.110000
30
0.0
11
18.000000
21
47.110000
31
0.0
0
LINE
8
0
10
18.000000
20
47.110000
30
0.0
11
18.000000
21
49.000000
31
0.0
0
LINE
8
0
10
18.000000
20
49.000000
30
0.0
11
15.200000
21
49.000000
31
0.0
0
LINE
8
0
10
15.200000
20
49.000000
30
0.0
11
15.200000
21
41.600000
31
0.0
0
LINE
8
0
10
15.200000
20
41.600000
30
0.0
11
18.000000
21
41.600000
31
0.0
0
LINE
8
0
10
18.000000
20
41.600000
30
0.0
11
18.000000
21
43.990000
31
0.0
0
LINE
8
0
10
18.000000
20
43.990000
30
0.0
11
18.500000
21
43.990000
31
0.0
0
LINE
8
0
10
18.500000
20
43.990000
30
0.0
11
19.000000
21
43.490000
31
0.0
0
LINE
8
0
10
19.000000
20
43.490000
30
0.0
11
19.000000
21
40.100260
31
0.0
0
LINE
8
0
10
19.000000
20
40.100260
30
0.0
11
17.000000
21
30.804649
31
0.0
0
LINE
8
0
10
17.000000
20
30.804649
30
0.0
11
17.000000
21
21.195352
31
0.0
0
LINE
8
0
10
17.000000
20
21.195352
30
0.0
11
19.000000
21
11.899741
31
0.0
0
LINE
8
0
10
19.000000
20
11.899741
30
0.0
11
19.000000
21
8.510000
31
0.0
0
LINE
8
0
10
19.000000
20
8.510000
30
0.0
11
18.500000
21
8.010000
31
0.0
0
LINE
8
0
10
18.500000
20
8.010000
30
0.0
11
18.000000
21
8.010000
31
0.0
0
LINE
8
0
10
18.000000
20
8.010000
30
0.0
11
18.000000
21
10.400000
31
0.0
0
LINE
8
0
10
18.000000
20
10.400000
30
0.0
11
15.200000
21
10.400000
31
0.0
0
LINE
8
0
10
15.200000
20
10.400000
30
0.0
11
15.200000
21
3.000000
31
0.0
0
LINE
8
0
10
15.200000
20
3.000000
30
0.0
11
18.000000
21
3.000000
31
0.0
0
LINE
8
0
10
18.000000
20
3.000000
30
0.0
11
18.000000
21
4.890000
31
0.0
0
LINE
8
0
10
18.000000
20
4.890000
30
0.0
11
18.500000
21
4.890000
31
0.0
0
LINE
8
0
10
18.500000
20
4.890000
30
0.0
11
19.000000
21
4.390000
31
0.0
0
LINE
8
0
10
19.000000
20
4.390000
30
0.0
11
19.000000
21
2.199990
31
0.0
0
ARC
8
0
10
18.500011
20
2.199990
30
0.0
40
0.499989
50
270.000000
51
360.000000
0
LINE
8
0
10
18.500011
20
1.700000
30
0.0
11
11.212604
21
1.700000
31
0.0
0
LINE
8
0
10
11.212604
20
1.700000
30
0.0
11
10.000194
21
2.399985
31
0.0
0
LINE
8
0
10
10.000194
20
2.399985
30
0.0
11
9.300209
21
1.700000
31
0.0
0
LINE
8
0
10
9.300209
20
1.700000
30
0.0
11
7.543232
21
1.978886
31
0.0
0
ARC
8
0
10
7.700000
20
2.966521
30
0.0
40
1.000000
50
180.000000
51
260.980678
0
LINE
8
0
10
6.700000
20
2.966521
30
0.0
11
6.700000
21
3.898847
31
0.0
0
ARC
8
0
10
7.000000
20
3.898847
30
0.0
40
0.300000
50
90.000000
51
180.000000
0
LINE
8
0
10
7.000000
20
4.198847
30
0.0
11
12.500461
21
4.198847
31
0.0
0
ARC
8
0
10
12.500461
20
5.198386
30
0.0
40
0.999539
50
270.000000
51
360.000000
0
LINE
8
0
10
13.500000
20
5.198386
30
0.0
11
13.500000
21
10.899763
31
0.0
0
ARC
8
0
10
14.499978
20
10.899763
30
0.0
40
0.999978
50
90.000000
51
180.000000
0
LINE
8
0
10
14.499978
20
11.899741
30
0.0
11
16.704549
21
11.899741
31
0.0
0
ARC
8
0
10
16.704549
20
11.999741
30
0.0
40
0.100000
50
270.000000
51
20.981505
0
LINE
8
0
10
16.797919
20
12.035548
30
0.0
11
13.540192
21
20.530335
31
0.0
0
ARC
8
0
10
13.800000
20
20.680335
30
0.0
40
0.300000
50
180.000000
51
210.000089
0
LINE
8
0
10
13.500000
20
20.680333
30
0.0
11
13.500000
21
25.750037
31
0.0
0
LINE
8
0
10
13.500000
20
25.750037
30
0.0
11
13.699971
21
26.000000
31
0.0
0
LINE
8
0
10
13.699971
20
26.000000
30
0.0
11
13.500000
21
26.249964
31
0.0
0
ATTDEF
8
0
10
14.856307
20
50.300000
30
0.0
40
3.5
1

3

2
VC_START
70
0
0
ATTDEF
8
0
10
14.856307
20
1.700000
30
0.0
40
3.5
1

3

2
VC_END
70
0
0
ARC
8
0
10
38.834199
20
20.702716
30
0.0
40
0.300000
50
90.000000
51
217.852838
0
ARC
8
0
10
33.772380
20
17.506924
30
0.0
40
5.687742
50
324.223538
51
31.972167
0
ARC
8
0
10
37.980825
20
14.552716
30
0.0
40
0.550000
50
137.583333
51
317.583333
0
ARC
8
0
10
34.561294
20
17.268756
30
0.0
40
3.818429
50
322.110438
51
77.926068
0
LINE
8
0
10
35.360009
20
21.002716
30
0.0
11
38.834199
21
21.002716
31
0.0
0
ARC
8
0
10
38.834199
20
31.302716
30
0.0
40
0.300000
50
142.147162
51
270.000000
0
ARC
8
0
10
33.772380
20
34.498507
30
0.0
40
5.687742
50
328.027833
51
35.776462
0
ARC
8
0
10
37.980825
20
37.452716
30
0.0
40
0.550000
50
42.416667
51
222.416667
0
ARC
8
0
10
34.561294
20
34.736676
30
0.0
40
3.818429
50
282.073932
51
37.889562
0
LINE
8
0
10
35.360009
20
31.002716
30
0.0
11
38.834199
21
31.002716
31
0.0
0
ARC
8
0
10
48.834199
20
20.702716
30
0.0
40
0.300000
50
90.000000
51
217.852838
0
ARC
8
0
10
43.772380
20
17.506924
30
0.0
40
5.687742
50
324.223538
51
31.972167
0
ARC
8
0
10
47.980825
20
14.552716
30
0.0
40
0.550000
50
137.583333
51
317.583333
0
ARC
8
0
10
44.561294
20
17.268756
30
0.0
40
3.818429
50
322.110438
51
77.926068
0
LINE
8
0
10
45.360009
20
21.002716
30
0.0
11
48.834199
21
21.002716
31
0.0
0
ARC
8
0
10
48.834199
20
31.302716
30
0.0
40
0.300000
50
142.147162
51
270.000000
0
ARC
8
0
10
43.772380
20
34.498507
30
0.0
40
5.687742
50
328.027833
51
35.776462
0
ARC
8
0
10
47.980825
20
37.452716
30
0.0
40
0.550000
50
42.416667
51
222.416667
0
ARC
8
0
10
44.561294
20
34.736676
30
0.0
40
3.818429
50
282.073932
51
37.889562
0
LINE
8
0
10
45.360009
20
31.002716
30
0.0
11
48.834199
21
31.002716
31
0.0
0
ARC
8
0
10
58.834199
20
20.702716
30
0.0
40
0.300000
50
90.000000
51
217.852838
0
ARC
8
0
10
53.772380
20
17.506924
30
0.0
40
5.687742
50
324.223538
51
31.972167
0
ARC
8
0
10
57.980825
20
14.552716
30
0.0
40
0.550000
50
137.583333
51
317.583333
0
ARC
8
0
10
54.561294
20
17.268756
30
0.0
40
3.818429
50
322.110438
51
77.926068
0
LINE
8
0
10
55.360009
20
21.002716
30
0.0
11
58.834199
21
21.002716
31
0.0
0
ARC
8
0
10
58.834199
20
31.302716
30
0.0
40
0.300000
50
142.147162
51
270.000000
0
ARC
8
0
10
53.772380
20
34.498507
30
0.0
40
5.687742
50
328.027833
51
35.776462
0
ARC
8
0
10
57.980825
20
37.452716
30
0.0
40
0.550000
50
42.416667
51
222.416667
0
ARC
8
0
10
54.561294
20
34.736676
30
0.0
40
3.818429
50
282.073932
51
37.889562
0
LINE
8
0
10
55.360009
20
31.002716
30
0.0
11
58.834199
21
31.002716
31
0.0
0
LINE
8
0
10
48.210004
20
22.804074
30
0.0
11
48.210004
21
29.204074
31
0.0
0
ARC
8
0
10
48.510004
20
29.204074
30
0.0
40
0.300000
50
90.000000
51
180.000000
0
LINE
8
0
10
48.510004
20
29.504074
30
0.0
11
58.210004
21
29.504074
31
0.0
0
ARC
8
0
10
58.210004
20
29.004074
30
0.0
40
0.500000
50
360.000000
51
90.000000
0
LINE
8
0
10
58.710004
20
29.004074
30
0.0
11
58.710004
21
26.252716
31
0.0
0
LINE
8
0
10
58.710004
20
26.252716
30
0.0
11
59.010001
21
26.002716
31
0.0
0
LINE
8
0
10
59.010001
20
26.002716
30
0.0
11
58.710004
21
25.752716
31
0.0
0
LINE
8
0
10
58.710004
20
25.752716
30
0.0
11
58.710004
21
23.004074
31
0.0
0
ARC
8
0
10
58.210004
20
23.004074
30
0.0
40
0.500000
50
270.000000
51
360.000000
0
LINE
8
0
10
58.210004
20
22.504074
30
0.0
11
48.510004
21
22.504074
31
0.0
0
ARC
8
0
10
48.510004
20
22.804074
30
0.0
40
0.300000
50
180.000000
51
270.000000
0
ARC
8
0
10
72.760002
20
26.012995
30
0.0
40
0.200000
50
324.577352
51
35.420900
0
LINE
8
0
10
72.873841
20
25.860411
30
0.0
11
72.922982
21
25.897074
31
0.0
0
LINE
8
0
10
72.873841
20
25.860411
30
0.0
11
70.242686
21
24.960907
31
0.0
0
ARC
8
0
10
69.822155
20
26.191010
30
0.0
40
1.300000
50
274.415867
51
288.873845
0
ARC
8
0
10
66.134087
20
73.948818
30
0.0
40
49.200000
50
265.254864
51
274.415867
0
ARC
8
0
10
62.055545
20
26.012957
30
0.0
40
1.095541
50
90.000000
51
270.000000
0
ARC
8
0
10
66.134087
20
-21.922904
30
0.0
40
49.200000
50
85.583972
51
94.745136
0
ARC
8
0
10
69.822289
20
25.834893
30
0.0
40
1.300000
50
71.126913
51
85.583972
0
LINE
8
0
10
70.242804
20
27.065001
30
0.0
11
72.873841
21
26.165576
31
0.0
0
LINE
8
0
10
72.922986
20
26.128911
30
0.0
11
72.873841
21
26.165576
31
0.0
0
ARC
8
0
10
46.410004
20
29.204074
30
0.0
40
0.300000
50
360.000000
51
90.000000
0
LINE
8
0
10
46.710004
20
29.204074
30
0.0
11
46.710004
21
22.804074
31
0.0
0
ARC
8
0
10
46.410004
20
22.804074
30
0.0
40
0.300000
50
270.000000
51
360.000000
0
LINE
8
0
10
46.410004
20
22.504074
30
0.0
11
36.775011
21
22.504074
31
0.0
0
ARC
8
0
10
36.775011
20
22.804074
30
0.0
40
0.300000
50
157.500000
51
270.000000
0
LINE
8
0
10
36.497847
20
22.918879
30
0.0
11
37.494133
21
25.324127
31
0.0
0
ARC
8
0
10
35.831150
20
26.012957
30
0.0
40
1.800000
50
337.500000
51
22.500000
0
LINE
8
0
10
37.494133
20
26.701787
30
0.0
11
36.505206
21
29.089269
31
0.0
0
ARC
8
0
10
36.782369
20
29.204074
30
0.0
40
0.300000
50
90.000000
51
202.500000
0
LINE
8
0
10
36.782369
20
29.504074
30
0.0
11
46.410004
21
29.504074
31
0.0
0
ARC
8
0
10
67.060004
20
23.954080
30
0.0
40
0.249982
50
209.988832
51
330.002349
0
LINE
8
0
10
67.276500
20
23.829098
30
0.0
11
67.354208
21
23.963707
31
0.0
0
ARC
8
0
10
66.134087
20
73.948818
30
0.0
40
50.000000
50
271.398294
51
274.506051
0
ARC
8
0
10
69.944460
20
25.598729
30
0.0
40
1.500000
50
274.506051
51
288.873845
0
LINE
8
0
10
70.429688
20
24.179379
30
0.0
11
73.260002
21
25.146969
31
0.0
0
ARC
8
0
10
72.760002
20
26.012995
30
0.0
40
1.000000
50
299.999969
51
60.000031
0
LINE
8
0
10
73.260002
20
26.879021
30
0.0
11
70.429800
21
27.846530
31
0.0
0
ARC
8
0
10
69.944591
20
26.427174
30
0.0
40
1.500000
50
71.126913
51
85.493794
0
ARC
8
0
10
66.134087
20
-21.922904
30
0.0
40
50.000000
50
85.493794
51
88.601706
0
LINE
8
0
10
67.354208
20
28.062207
30
0.0
11
67.276500
21
28.196815
31
0.0
0
ARC
8
0
10
67.060004
20
28.071833
30
0.0
40
0.249982
50
29.997651
51
149.998311
0
LINE
8
0
10
66.843517
20
28.196831
30
0.0
11
66.772051
21
28.073026
31
0.0
0
ARC
8
0
10
66.134087
20
-21.922904
30
0.0
40
50.000000
50
89.268927
51
95.538610
0
ARC
8
0
10
61.260004
20
28.341331
30
0.0
40
0.500000
50
180.000000
51
275.538610
0
LINE
8
0
10
60.760004
20
28.341331
30
0.0
11
60.760004
21
30.704074
31
0.0
0
ARC
8
0
10
60.460004
20
30.704074
30
0.0
40
0.300000
50
360.000000
51
90.000000
0
LINE
8
0
10
60.460004
20
31.004074
30
0.0
11
31.060004
21
31.004074
31
0.0
0
ARC
8
0
10
31.060004
20
30.704074
30
0.0
40
0.300000
50
90.000000
51
180.000000
0
LINE
8
0
10
30.760004
20
30.704074
30
0.0
11
30.760004
21
28.913943
31
0.0
0
ARC
8
0
10
31.060004
20
28.913943
30
0.0
40
0.300000
50
180.000000
51
240.000122
0
LINE
8
0
10
30.910005
20
28.654135
30
0.0
11
31.760004
21
28.163390
31
0.0
0
ARC
8
0
10
31.910004
20
28.423198
30
0.0
40
0.300000
50
240.000122
51
360.000000
0
LINE
8
0
10
32.210004
20
28.423198
30
0.0
11
32.210008
21
29.504074
31
0.0
0
LINE
8
0
10
32.210008
20
29.504074
30
0.0
11
34.509346
21
29.504074
31
0.0
0
ARC
8
0
10
34.509346
20
29.204074
30
0.0
40
0.300000
50
22.500000
51
90.000000
0
LINE
8
0
10
34.786510
20
29.318879
30
0.0
11
36.108314
21
26.127762
31
0.0
0
ARC
8
0
10
35.831150
20
26.012957
30
0.0
40
0.300000
50
337.500000
51
22.500000
0
LINE
8
0
10
36.108314
20
25.898152
30
0.0
11
34.779151
21
22.689269
31
0.0
0
ARC
8
0
10
34.501987
20
22.804074
30
0.0
40
0.300000
50
270.000000
51
337.500000
0
LINE
8
0
10
34.501987
20
22.504074
30
0.0
11
32.210004
21
22.504074
31
0.0
0
LINE
8
0
10
32.210004
20
22.504074
30
0.0
11
32.210004
21
23.602716
31
0.0
0
ARC
8
0
10
31.910004
20
23.602716
30
0.0
40
0.300000
50
360.000000
51
119.999878
0
LINE
8
0
10
31.760004
20
23.862524
30
0.0
11
30.910005
21
23.371778
31
0.0
0
ARC
8
0
10
31.060004
20
23.111970
30
0.0
40
0.300000
50
119.999878
51
180.000000
0
LINE
8
0
10
30.760004
20
23.111970
30
0.0
11
30.760004
21
21.304074
31
0.0
0
ARC
8
0
10
31.060004
20
21.304074
30
0.0
40
0.300000
50
180.000000
51
270.000000
0
LINE
8
0
10
31.060004
20
21.004074
30
0.0
11
60.460004
21
21.004074
31
0.0
0
ARC
8
0
10
60.460004
20
21.304074
30
0.0
40
0.300000
50
270.000000
51
360.000000
0
LINE
8
0
10
60.760004
20
21.304074
30
0.0
11
60.760004
21
23.684583
31
0.0
0
ARC
8
0
10
61.260004
20
23.684583
30
0.0
40
0.500000
50
84.461390
51
180.000000
0
ARC
8
0
10
66.134087
20
73.948818
30
0.0
40
50.000000
50
264.461390
51
270.731073
0
LINE
8
0
10
66.772051
20
23.952888
30
0.0
11
66.843517
21
23.829083
31
0.0
0
LINE
8
0
10
24.760000
20
23.111971
30
0.0
11
24.760004
21
21.302716
31
0.0
0
ARC
8
0
10
25.060004
20
21.302716
30
0.0
40
0.300000
50
180.000000
51
270.000000
0
LINE
8
0
10
25.060004
20
21.002716
30
0.0
11
30.260004
21
21.002716
31
0.0
0
ARC
8
0
10
30.260004
20
21.502716
30
0.0
40
0.500000
50
270.000000
51
360.000000
0
LINE
8
0
10
30.760004
20
21.502716
30
0.0
11
30.760004
21
22.200000
31
0.0
0
ARC
8
0
10
30.460004
20
22.200000
30
0.0
40
0.300000
50
360.000000
51
90.000000
0
LINE
8
0
10
30.460004
20
22.500000
30
0.0
11
30.210004
21
22.500000
31
0.0
0
LINE
8
0
10
30.210004
20
22.500000
30
0.0
11
30.210004
21
23.701358
31
0.0
0
ARC
8
0
10
30.410004
20
23.701358
30
0.0
40
0.200000
50
90.000000
51
180.000000
0
LINE
8
0
10
30.410004
20
23.901358
30
0.0
11
32.510009
21
23.901358
31
0.0
0
LINE
8
0
10
32.510009
20
23.901358
30
0.0
11
32.510009
21
23.501358
31
0.0
0
ARC
8
0
10
32.810009
20
23.501358
30
0.0
40
0.300000
50
180.000000
51
300.000000
0
LINE
8
0
10
32.960009
20
23.241550
30
0.0
11
34.563288
21
24.167204
31
0.0
0
ARC
8
0
10
34.366572
20
24.507926
30
0.0
40
0.393432
50
300.000000
51
90.000000
0
LINE
8
0
10
34.366572
20
24.901358
30
0.0
11
30.410004
21
24.901358
31
0.0
0
ARC
8
0
10
30.410004
20
25.101358
30
0.0
40
0.200000
50
180.000000
51
270.000000
0
LINE
8
0
10
30.210004
20
25.101358
30
0.0
11
30.210004
21
26.901358
31
0.0
0
ARC
8
0
10
30.410004
20
26.901358
30
0.0
40
0.200000
50
90.000000
51
180.000000
0
LINE
8
0
10
30.410004
20
27.101358
30
0.0
11
34.366572
21
27.101358
31
0.0
0
ARC
8
0
10
34.366572
20
27.494790
30
0.0
40
0.393432
50
270.000000
51
60.000000
0
LINE
8
0
10
34.563288
20
27.835512
30
0.0
11
32.960009
21
28.761166
31
0.0
0
ARC
8
0
10
32.810009
20
28.501358
30
0.0
40
0.300000
50
60.000000
51
180.000000
0
LINE
8
0
10
32.510009
20
28.501358
30
0.0
11
32.510009
21
28.101358
31
0.0
0
LINE
8
0
10
32.510009
20
28.101358
30
0.0
11
30.410004
21
28.101358
31
0.0
0
ARC
8
0
10
30.410004
20
28.301358
30
0.0
40
0.200000
50
180.000000
51
270.000000
0
LINE
8
0
10
30.210004
20
28.301358
30
0.0
11
30.210004
21
29.502716
31
0.0
0
LINE
8
0
10
30.210004
20
29.502716
30
0.0
11
30.460004
21
29.502716
31
0.0
0
ARC
8
0
10
30.460004
20
29.802716
30
0.0
40
0.300000
50
270.000000
51
360.000000
0
LINE
8
0
10
30.760004
20
29.802716
30
0.0
11
30.760004
21
30.500000
31
0.0
0
ARC
8
0
10
30.260004
20
30.500000
30
0.0
40
0.500000
50
360.000000
51
90.000000
0
LINE
8
0
10
30.260004
20
31.000000
30
0.0
11
25.060004
21
31.000000
31
0.0
0
ARC
8
0
10
25.060004
20
30.700000
30
0.0
40
0.300000
50
90.000000
51
180.000000
0
LINE
8
0
10
24.760004
20
30.700000
30
0.0
11
24.760000
21
28.890745
31
0.0
0
ARC
8
0
10
25.060000
20
28.890745
30
0.0
40
0.300000
50
180.000000
51
240.000120
0
LINE
8
0
10
24.910001
20
28.630937
30
0.0
11
25.760001
21
28.140192
31
0.0
0
ARC
8
0
10
25.910000
20
28.400000
30
0.0
40
0.300000
50
240.000122
51
360.000000
0
LINE
8
0
10
26.210000
20
28.400000
30
0.0
11
26.210005
21
29.500000
31
0.0
0
LINE
8
0
10
26.210005
20
29.500000
30
0.0
11
28.710004
21
29.500000
31
0.0
0
LINE
8
0
10
28.710004
20
29.500000
30
0.0
11
28.710004
21
22.502716
31
0.0
0
LINE
8
0
10
28.710004
20
22.502716
30
0.0
11
26.210005
21
22.502716
31
0.0
0
LINE
8
0
10
26.210005
20
22.502716
30
0.0
11
26.210000
21
23.602716
31
0.0
0
ARC
8
0
10
25.910000
20
23.602716
30
0.0
40
0.300000
50
360.000000
51
119.999878
0
LINE
8
0
10
25.760001
20
23.862524
30
0.0
11
24.910001
21
23.371779
31
0.0
0
ARC
8
0
10
25.060000
20
23.111971
30
0.0
40
0.300000
50
119.999878
51
180.000000
0
ATTDEF
8
0
10
27.660004
20
31.000000
30
0.0
40
3.5
1

3

2
VC_START
70
0
0
ATTDEF
8
0
10
27.660004
20
21.002716
30
0.0
40
3.5
1

3

2
VC_END
70
0
0
LINE
8
0
10
78.760018
20
23.000000
30
0.0
11
89.760018
21
23.000000
31
0.0
0
ARC
8
0
10
89.760018
20
24.000000
30
0.0
40
1.000000
50
270.000000
51
360.000000
0
LINE
8
0
10
90.760018
20
24.000000
30
0.0
11
90.760018
21
28.000000
31
0.0
0
ARC
8
0
10
89.760018
20
28.000000
30
0.0
40
1.000000
50
360.000000
51
90.000000
0
LINE
8
0
10
89.760018
20
29.000000
30
0.0
11
78.760018
21
29.000000
31
0.0
0
ARC
8
0
10
78.760018
20
28.000000
30
0.0
40
1.000000
50
90.000000
51
180.000000
0
LINE
8
0
10
77.760018
20
28.000000
30
0.0
11
77.760018
21
24.000000
31
0.0
0
ARC
8
0
10
78.760018
20
24.000000
30
0.0
40
1.000000
50
180.000000
51
270.000000
0
LINE
8
0
10
244.060018
20
2.100000
30
0.0
11
244.060018
21
3.000000
31
0.0
0
LINE
8
0
10
244.060018
20
3.000000
30
0.0
11
246.060018
21
3.000000
31
0.0
0
ARC
8
0
10
246.060018
20
3.500000
30
0.0
40
0.500000
50
270.000000
51
360.000000
0
LINE
8
0
10
246.560018
20
3.500000
30
0.0
11
246.560018
21
10.800000
31
0.0
0
LINE
8
0
10
246.560018
20
10.800000
30
0.0
11
241.060018
21
11.900000
31
0.0
0
LINE
8
0
10
241.060018
20
11.900000
30
0.0
11
241.060018
21
13.000000
31
0.0
0
LINE
8
0
10
241.060018
20
13.000000
30
0.0
11
247.260018
21
13.000000
31
0.0
0
LINE
8
0
10
247.260018
20
13.000000
30
0.0
11
247.260018
21
39.000000
31
0.0
0
LINE
8
0
10
247.260018
20
39.000000
30
0.0
11
241.060018
21
39.000000
31
0.0
0
LINE
8
0
10
241.060018
20
39.000000
30
0.0
11
241.060018
21
40.100000
31
0.0
0
LINE
8
0
10
241.060018
20
40.100000
30
0.0
11
246.560018
21
41.200000
31
0.0
0
LINE
8
0
10
246.560018
20
41.200000
30
0.0
11
246.560018
21
48.500000
31
0.0
0
ARC
8
0
10
246.060018
20
48.500000
30
0.0
40
0.500000
50
360.000000
51
90.000000
0
LINE
8
0
10
246.060018
20
49.000000
30
0.0
11
244.060018
21
49.000000
31
0.0
0
LINE
8
0
10
244.060018
20
49.000000
30
0.0
11
244.060018
21
49.900000
31
0.0
0
LINE
8
0
10
244.060018
20
49.900000
30
0.0
11
230.060018
21
49.900000
31
0.0
0
LINE
8
0
10
230.060018
20
49.900000
30
0.0
11
230.060018
21
47.750000
31
0.0
0
LINE
8
0
10
230.060018
20
47.750000
30
0.0
11
228.560009
21
47.750000
31
0.0
0
LINE
8
0
10
228.560009
20
47.750000
30
0.0
11
228.560009
21
49.900000
31
0.0
0
LINE
8
0
10
228.560009
20
49.900000
30
0.0
11
105.560009
21
49.900000
31
0.0
0
LINE
8
0
10
105.560009
20
49.900000
30
0.0
11
105.560009
21
47.750000
31
0.0
0
LINE
8
0
10
105.560009
20
47.750000
30
0.0
11
104.060009
21
47.750000
31
0.0
0
LINE
8
0
10
104.060009
20
47.750000
30
0.0
11
104.060009
21
49.900000
31
0.0
0
LINE
8
0
10
104.060009
20
49.900000
30
0.0
11
96.060018
21
49.900000
31
0.0
0
LINE
8
0
10
96.060018
20
49.900000
30
0.0
11
96.060018
21
49.000000
31
0.0
0
LINE
8
0
10
96.060018
20
49.000000
30
0.0
11
93.560018
21
49.000000
31
0.0
0
ARC
8
0
10
93.560018
20
48.500000
30
0.0
40
0.500000
50
90.000000
51
180.000000
0
LINE
8
0
10
93.060018
20
48.500000
30
0.0
11
93.060018
21
3.500000
31
0.0
0
ARC
8
0
10
93.560018
20
3.500000
30
0.0
40
0.500000
50
180.000000
51
270.000000
0
LINE
8
0
10
93.560018
20
3.000000
30
0.0
11
96.060018
21
3.000000
31
0.0
0
LINE
8
0
10
96.060018
20
3.000000
30
0.0
11
96.060018
21
2.100000
31
0.0
0
LINE
8
0
10
96.060018
20
2.100000
30
0.0
11
104.060009
21
2.100000
31
0.0
0
LINE
8
0
10
104.060009
20
2.100000
30
0.0
11
104.060009
21
4.250000
31
0.0
0
LINE
8
0
10
104.060009
20
4.250000
30
0.0
11
105.560009
21
4.250000
31
0.0
0
LINE
8
0
10
105.560009
20
4.250000
30
0.0
11
105.560009
21
2.100000
31
0.0
0
LINE
8
0
10
105.560009
20
2.100000
30
0.0
11
228.560008
21
2.099985
31
0.0
0
LINE
8
0
10
228.560008
20
2.099985
30
0.0
11
228.560010
21
4.249975
31
0.0
0
LINE
8
0
10
228.560010
20
4.249975
30
0.0
11
230.060010
21
4.249985
31
0.0
0
LINE
8
0
10
230.060010
20
4.249985
30
0.0
11
230.060017
21
2.099985
31
0.0
0
LINE
8
0
10
230.060017
20
2.099985
30
0.0
11
244.060018
21
2.100000
31
0.0
0
LINE
8
0
10
87.692796
20
49.109999
30
0.0
11
87.779399
21
48.960000
31
0.0
0
ARC
8
0
10
88.039206
20
49.109999
30
0.0
40
0.300000
50
210.000000
51
270.000000
0
LINE
8
0
10
88.039206
20
48.810000
30
0.0
11
88.399976
21
48.810000
31
0.0
0
ARC
8
0
10
88.399976
20
49.109999
30
0.0
40
0.300000
50
270.000000
51
330.000000
0
LINE
8
0
10
88.659784
20
48.960000
30
0.0
11
88.746386
21
49.109999
31
0.0
0
ARC
8
0
10
88.919591
20
49.010000
30
0.0
40
0.200000
50
30.000000
51
150.000000
0
LINE
8
0
10
89.092796
20
49.109999
30
0.0
11
89.189054
21
48.943276
31
0.0
0
ARC
8
0
10
89.448861
20
49.093276
30
0.0
40
0.300000
50
210.000000
51
262.310965
0
ARC
8
0
10
89.200000
20
47.250000
30
0.0
40
1.560000
50
270.000000
51
82.310965
0
LINE
8
0
10
89.200000
20
45.690000
30
0.0
11
88.739206
21
45.690000
31
0.0
0
ARC
8
0
10
88.739206
20
45.390000
30
0.0
40
0.300000
50
90.000000
51
150.000000
0
LINE
8
0
10
88.479399
20
45.540000
30
0.0
11
88.392796
21
45.390000
31
0.0
0
ARC
8
0
10
88.219591
20
45.490000
30
0.0
40
0.200000
50
210.000000
51
330.000000
0
LINE
8
0
10
88.046386
20
45.390000
30
0.0
11
87.959784
21
45.540000
31
0.0
0
ARC
8
0
10
87.699976
20
45.390000
30
0.0
40
0.300000
50
30.000000
51
90.000000
0
LINE
8
0
10
87.699976
20
45.690000
30
0.0
11
87.339206
21
45.690000
31
0.0
0
ARC
8
0
10
87.339206
20
45.390000
30
0.0
40
0.300000
50
90.000000
51
150.000000
0
LINE
8
0
10
87.079399
20
45.540000
30
0.0
11
86.992796
21
45.390000
31
0.0
0
ARC
8
0
10
86.819591
20
45.490000
30
0.0
40
0.200000
50
210.000000
51
330.000000
0
LINE
8
0
10
86.646386
20
45.390000
30
0.0
11
86.559784
21
45.540000
31
0.0
0
LINE
8
0
10
86.552466
20
45.552015
30
0.0
11
85.693212
21
44.690000
31
0.0
0
LINE
8
0
10
85.693212
20
44.690000
30
0.0
11
84.760000
21
44.690000
31
0.0
0
LINE
8
0
10
84.760000
20
44.690000
30
0.0
11
84.760000
21
45.690000
31
0.0
0
LINE
8
0
10
84.760000
20
45.690000
30
0.0
11
84.539206
21
45.690000
31
0.0
0
ARC
8
0
10
84.539206
20
45.390000
30
0.0
40
0.300000
50
90.000000
51
150.000000
0
LINE
8
0
10
84.279399
20
45.540000
30
0.0
11
84.192796
21
45.390000
31
0.0
0
ARC
8
0
10
84.019591
20
45.490000
30
0.0
40
0.200000
50
210.000000
51
330.000000
0
LINE
8
0
10
83.846386
20
45.390000
30
0.0
11
83.759784
21
45.540000
31
0.0
0
ARC
8
0
10
83.499976
20
45.390000
30
0.0
40
0.300000
50
30.000000
51
90.000000
0
LINE
8
0
10
83.499976
20
45.690000
30
0.0
11
83.139206
21
45.690000
31
0.0
0
ARC
8
0
10
83.139206
20
45.390000
30
0.0
40
0.300000
50
90.000000
51
150.000000
0
LINE
8
0
10
82.879399
20
45.540000
30
0.0
11
82.792796
21
45.390000
31
0.0
0
ARC
8
0
10
82.619591
20
45.490000
30
0.0
40
0.200000
50
210.000000
51
330.000000
0
LINE
8
0
10
82.446386
20
45.390000
30
0.0
11
82.359784
21
45.540000
31
0.0
0
ARC
8
0
10
82.099976
20
45.390000
30
0.0
40
0.300000
50
30.000000
51
90.000000
0
LINE
8
0
10
82.099976
20
45.690000
30
0.0
11
81.739206
21
45.690000
31
0.0
0
ARC
8
0
10
81.739206
20
45.390000
30
0.0
40
0.300000
50
90.000000
51
150.000000
0
LINE
8
0
10
81.479399
20
45.540000
30
0.0
11
81.392796
21
45.390000
31
0.0
0
ARC
8
0
10
81.219591
20
45.490000
30
0.0
40
0.200000
50
210.000000
51
330.000000
0
LINE
8
0
10
81.046386
20
45.390000
30
0.0
11
80.959784
21
45.540000
31
0.0
0
ARC
8
0
10
80.699976
20
45.390000
30
0.0
40
0.300000
50
30.000000
51
91.936736
0
LINE
8
0
10
80.689838
20
45.689828
30
0.0
11
79.693212
21
44.690000
31
0.0
0
LINE
8
0
10
79.693212
20
44.690000
30
0.0
11
78.760000
21
44.690000
31
0.0
0
LINE
8
0
10
78.760000
20
44.690000
30
0.0
11
78.760000
21
45.690000
31
0.0
0
LINE
8
0
10
78.760000
20
45.690000
30
0.0
11
78.260000
21
45.690000
31
0.0
0
LINE
8
0
10
78.260000
20
45.690000
30
0.0
11
77.760000
21
45.190000
31
0.0
0
LINE
8
0
10
77.760000
20
45.190000
30
0.0
11
77.760000
21
42.500000
31
0.0
0
LINE
8
0
10
77.760000
20
42.500000
30
0.0
11
89.760000
21
42.500000
31
0.0
0
ARC
8
0
10
89.760000
20
41.500000
30
0.0
40
1.000000
50
360.000000
51
90.000000
0
LINE
8
0
10
90.760000
20
41.500000
30
0.0
11
90.760000
21
37.050000
31
0.0
0
LINE
8
0
10
90.760000
20
37.050000
30
0.0
11
91.060000
21
36.750000
31
0.0
0
LINE
8
0
10
91.060000
20
36.750000
30
0.0
11
90.760000
21
36.450000
31
0.0
0
LINE
8
0
10
90.760000
20
36.450000
30
0.0
11
90.760000
21
32.000000
31
0.0
0
ARC
8
0
10
89.760000
20
32.000000
30
0.0
40
1.000000
50
270.000000
51
360.000000
0
LINE
8
0
10
89.760000
20
31.000000
30
0.0
11
60.760000
21
31.000000
31
0.0
0
LINE
8
0
10
60.760000
20
31.000000
30
0.0
11
60.760000
21
29.299999
31
0.0
0
LINE
8
0
10
60.760000
20
29.299999
30
0.0
11
62.009999
21
28.050000
31
0.0
0
LINE
8
0
10
62.009999
20
28.050000
30
0.0
11
62.911517
21
28.050000
31
0.0
0
ARC
8
0
10
62.911517
20
28.350000
30
0.0
40
0.300000
50
270.000000
51
330.000000
0
LINE
8
0
10
63.171325
20
28.200000
30
0.0
11
63.286795
21
28.400000
31
0.0
0
ARC
8
0
10
63.460000
20
28.300000
30
0.0
40
0.200000
50
30.000000
51
150.000000
0
LINE
8
0
10
63.633205
20
28.400000
30
0.0
11
63.748675
21
28.200000
31
0.0
0
ARC
8
0
10
64.008482
20
28.350000
30
0.0
40
0.300000
50
210.000000
51
270.000000
0
LINE
8
0
10
64.008482
20
28.050000
30
0.0
11
64.711517
21
28.050000
31
0.0
0
ARC
8
0
10
64.711517
20
28.350000
30
0.0
40
0.300000
50
270.000000
51
330.000000
0
LINE
8
0
10
64.971325
20
28.200000
30
0.0
11
65.086795
21
28.400000
31
0.0
0
ARC
8
0
10
65.260000
20
28.300000
30
0.0
40
0.200000
50
30.000000
51
150.000000
0
LINE
8
0
10
65.433205
20
28.400000
30
0.0
11
65.548675
21
28.200000
31
0.0
0
ARC
8
0
10
65.808482
20
28.350000
30
0.0
40
0.300000
50
210.000000
51
270.000000
0
LINE
8
0
10
65.808482
20
28.050000
30
0.0
11
66.511517
21
28.050000
31
0.0
0
ARC
8
0
10
66.511517
20
28.350000
30
0.0
40
0.300000
50
270.000000
51
330.000000
0
LINE
8
0
10
66.771325
20
28.200000
30
0.0
11
66.886795
21
28.400000
31
0.0
0
ARC
8
0
10
67.060000
20
28.300000
30
0.0
40
0.200000
50
30.000000
51
150.000000
0
LINE
8
0
10
67.233205
20
28.400000
30
0.0
11
67.348675
21
28.200000
31
0.0
0
ARC
8
0
10
67.608482
20
28.350000
30
0.0
40
0.300000
50
210.000000
51
270.000000
0
LINE
8
0
10
67.608482
20
28.050000
30
0.0
11
68.311517
21
28.050000
31
0.0
0
ARC
8
0
10
68.311517
20
28.350000
30
0.0
40
0.300000
50
270.000000
51
330.000000
0
LINE
8
0
10
68.571325
20
28.200000
30
0.0
11
68.686795
21
28.400000
31
0.0
0
ARC
8
0
10
68.860000
20
28.300000
30
0.0
40
0.200000
50
30.000000
51
150.000000
0
LINE
8
0
10
69.033205
20
28.400000
30
0.0
11
69.148675
21
28.200000
31
0.0
0
ARC
8
0
10
69.408482
20
28.350000
30
0.0
40
0.300000
50
210.000000
51
270.000000
0
LINE
8
0
10
69.408482
20
28.050000
30
0.0
11
70.111517
21
28.050000
31
0.0
0
ARC
8
0
10
70.111517
20
28.350000
30
0.0
40
0.300000
50
270.000000
51
330.000000
0
LINE
8
0
10
70.371325
20
28.200000
30
0.0
11
70.486795
21
28.400000
31
0.0
0
ARC
8
0
10
70.660000
20
28.300000
30
0.0
40
0.200000
50
30.000000
51
150.000000
0
LINE
8
0
10
70.833205
20
28.400000
30
0.0
11
70.948675
21
28.200000
31
0.0
0
ARC
8
0
10
71.208482
20
28.350000
30
0.0
40
0.300000
50
210.000000
51
270.000000
0
LINE
8
0
10
71.208482
20
28.050000
30
0.0
11
71.911517
21
28.050000
31
0.0
0
ARC
8
0
10
71.911517
20
28.350000
30
0.0
40
0.300000
50
270.000000
51
330.000000
0
LINE
8
0
10
72.171325
20
28.200000
30
0.0
11
72.286795
21
28.400000
31
0.0
0
ARC
8
0
10
72.460000
20
28.300000
30
0.0
40
0.200000
50
30.000000
51
150.000000
0
LINE
8
0
10
72.633205
20
28.400000
30
0.0
11
72.719807
21
28.250000
31
0.0
0
ARC
8
0
10
72.979757
20
28.400240
30
0.0
40
0.300243
50
210.026110
51
270.000000
0
LINE
8
0
10
72.978369
20
28.100000
30
0.0
11
73.660000
21
28.100000
31
0.0
0
ARC
8
0
10
73.660000
20
26.600000
30
0.0
40
1.500000
50
360.000000
51
90.000000
0
LINE
8
0
10
75.160000
20
26.600000
30
0.0
11
75.160000
21
25.400000
31
0.0
0
ARC
8
0
10
73.660000
20
25.400000
30
0.0
40
1.500000
50
270.000000
51
360.000000
0
LINE
8
0
10
73.660000
20
23.900000
30
0.0
11
72.079615
21
23.899999
31
0.0
0
ARC
8
0
10
72.079615
20
23.599999
30
0.0
40
0.300000
50
90.000000
51
150.000000
0
LINE
8
0
10
71.819807
20
23.749999
30
0.0
11
71.733205
21
23.599999
31
0.0
0
ARC
8
0
10
71.560000
20
23.699999
30
0.0
40
0.200000
50
210.000000
51
330.000000
0
LINE
8
0
10
71.386795
20
23.599999
30
0.0
11
71.271325
21
23.799999
31
0.0
0
ARC
8
0
10
71.011517
20
23.649999
30
0.0
40
0.300000
50
30.000000
51
90.000000
0
LINE
8
0
10
71.011517
20
23.949999
30
0.0
11
70.308482
21
23.949999
31
0.0
0
ARC
8
0
10
70.308482
20
23.649999
30
0.0
40
0.300000
50
90.000000
51
150.000000
0
LINE
8
0
10
70.048675
20
23.799999
30
0.0
11
69.933205
21
23.599999
31
0.0
0
ARC
8
0
10
69.760000
20
23.699999
30
0.0
40
0.200000
50
210.000000
51
330.000000
0
LINE
8
0
10
69.586795
20
23.599999
30
0.0
11
69.471325
21
23.799999
31
0.0
0
ARC
8
0
10
69.211517
20
23.649999
30
0.0
40
0.300000
50
30.000000
51
90.000000
0
LINE
8
0
10
69.211517
20
23.949999
30
0.0
11
68.508482
21
23.949999
31
0.0
0
ARC
8
0
10
68.508482
20
23.649999
30
0.0
40
0.300000
50
90.000000
51
150.000000
0
LINE
8
0
10
68.248675
20
23.799999
30
0.0
11
68.133205
21
23.599999
31
0.0
0
ARC
8
0
10
67.960000
20
23.699999
30
0.0
40
0.200000
50
210.000000
51
330.000000
0
LINE
8
0
10
67.786795
20
23.599999
30
0.0
11
67.671325
21
23.799999
31
0.0
0
ARC
8
0
10
67.411517
20
23.649999
30
0.0
40
0.300000
50
30.000000
51
90.000000
0
LINE
8
0
10
67.411517
20
23.949999
30
0.0
11
66.708482
21
23.949999
31
0.0
0
ARC
8
0
10
66.708482
20
23.649999
30
0.0
40
0.300000
50
90.000000
51
150.000000
0
LINE
8
0
10
66.448675
20
23.799999
30
0.0
11
66.333205
21
23.599999
31
0.0
0
ARC
8
0
10
66.160000
20
23.699999
30
0.0
40
0.200000
50
210.000000
51
330.000000
0
LINE
8
0
10
65.986795
20
23.599999
30
0.0
11
65.871325
21
23.799999
31
0.0
0
ARC
8
0
10
65.611517
20
23.649999
30
0.0
40
0.300000
50
30.000000
51
90.000000
0
LINE
8
0
10
65.611517
20
23.949999
30
0.0
11
64.908482
21
23.949999
31
0.0
0
ARC
8
0
10
64.908482
20
23.649999
30
0.0
40
0.300000
50
90.000000
51
150.000000
0
LINE
8
0
10
64.648675
20
23.799999
30
0.0
11
64.533205
21
23.599999
31
0.0
0
ARC
8
0
10
64.360000
20
23.699999
30
0.0
40
0.200000
50
210.000000
51
330.000000
0
LINE
8
0
10
64.186795
20
23.599999
30
0.0
11
64.071325
21
23.799999
31
0.0
0
ARC
8
0
10
63.811517
20
23.649999
30
0.0
40
0.300000
50
30.000000
51
90.000000
0
LINE
8
0
10
63.811517
20
23.949999
30
0.0
11
63.108482
21
23.949999
31
0.0
0
ARC
8
0
10
63.108482
20
23.649999
30
0.0
40
0.300000
50
90.000000
51
150.000000
0
LINE
8
0
10
62.848675
20
23.799999
30
0.0
11
62.733205
21
23.599999
31
0.0
0
ARC
8
0
10
62.560000
20
23.699999
30
0.0
40
0.200000
50
210.000000
51
330.000000
0
LINE
8
0
10
62.386795
20
23.599999
30
0.0
11
62.235590
21
23.861894
31
0.0
0
ARC
8
0
10
62.082987
20
23.773788
30
0.0
40
0.176211
50
30.000000
51
135.000000
0
LINE
8
0
10
61.958387
20
23.898388
30
0.0
11
60.760000
21
22.700001
31
0.0
0
LINE
8
0
10
60.760000
20
22.700001
30
0.0
11
60.760000
21
21.000000
31
0.0
0
LINE
8
0
10
60.760000
20
21.000000
30
0.0
11
89.760000
21
21.000000
31
0.0
0
ARC
8
0
10
89.760000
20
20.000000
30
0.0
40
1.000000
50
360.000000
51
90.000000
0
LINE
8
0
10
90.760000
20
20.000000
30
0.0
11
90.760000
21
15.550000
31
0.0
0
LINE
8
0
10
90.760000
20
15.550000
30
0.0
11
91.060000
21
15.250000
31
0.0
0
LINE
8
0
10
91.060000
20
15.250000
30
0.0
11
90.760000
21
14.950000
31
0.0
0
LINE
8
0
10
90.760000
20
14.950000
30
0.0
11
90.760000
21
10.500000
31
0.0
0
ARC
8
0
10
89.760000
20
10.500000
30
0.0
40
1.000000
50
270.000000
51
360.000000
0
LINE
8
0
10
89.760000
20
9.500000
30
0.0
11
77.760000
21
9.500000
31
0.0
0
LINE
8
0
10
77.760000
20
9.500000
30
0.0
11
77.760000
21
6.810000
31
0.0
0
LINE
8
0
10
77.760000
20
6.810000
30
0.0
11
78.260000
21
6.310000
31
0.0
0
LINE
8
0
10
78.260000
20
6.310000
30
0.0
11
78.760000
21
6.310000
31
0.0
0
LINE
8
0
10
78.760000
20
6.310000
30
0.0
11
78.760000
21
7.310000
31
0.0
0
LINE
8
0
10
78.760000
20
7.310000
30
0.0
11
79.693212
21
7.310000
31
0.0
0
LINE
8
0
10
79.693212
20
7.310000
30
0.0
11
80.689838
21
6.310171
31
0.0
0
ARC
8
0
10
80.699976
20
6.609999
30
0.0
40
0.300000
50
268.063264
51
330.000000
0
LINE
8
0
10
80.959784
20
6.460000
30
0.0
11
81.046386
21
6.609999
31
0.0
0
ARC
8
0
10
81.219591
20
6.510000
30
0.0
40
0.200000
50
30.000000
51
150.000000
0
LINE
8
0
10
81.392796
20
6.609999
30
0.0
11
81.479399
21
6.460000
31
0.0
0
ARC
8
0
10
81.739206
20
6.609999
30
0.0
40
0.300000
50
210.000000
51
270.000000
0
LINE
8
0
10
81.739206
20
6.310000
30
0.0
11
82.099976
21
6.310000
31
0.0
0
ARC
8
0
10
82.099976
20
6.609999
30
0.0
40
0.300000
50
270.000000
51
330.000000
0
LINE
8
0
10
82.359784
20
6.460000
30
0.0
11
82.446386
21
6.609999
31
0.0
0
ARC
8
0
10
82.619591
20
6.510000
30
0.0
40
0.200000
50
30.000000
51
150.000000
0
LINE
8
0
10
82.792796
20
6.609999
30
0.0
11
82.879399
21
6.460000
31
0.0
0
ARC
8
0
10
83.139206
20
6.609999
30
0.0
40
0.300000
50
210.000000
51
270.000000
0
LINE
8
0
10
83.139206
20
6.310000
30
0.0
11
83.499976
21
6.310000
31
0.0
0
ARC
8
0
10
83.499976
20
6.609999
30
0.0
40
0.300000
50
270.000000
51
330.000000
0
LINE
8
0
10
83.759784
20
6.460000
30
0.0
11
83.846386
21
6.609999
31
0.0
0
ARC
8
0
10
84.019591
20
6.510000
30
0.0
40
0.200000
50
30.000000
51
150.000000
0
LINE
8
0
10
84.192796
20
6.609999
30
0.0
11
84.279399
21
6.460000
31
0.0
0
ARC
8
0
10
84.539206
20
6.609999
30
0.0
40
0.300000
50
210.000000
51
270.000000
0
LINE
8
0
10
84.539206
20
6.310000
30
0.0
11
84.760000
21
6.310000
31
0.0
0
LINE
8
0
10
84.760000
20
6.310000
30
0.0
11
84.760000
21
7.310000
31
0.0
0
LINE
8
0
10
84.760000
20
7.310000
30
0.0
11
85.693212
21
7.310000
31
0.0
0
LINE
8
0
10
85.693212
20
7.310000
30
0.0
11
86.552466
21
6.447984
31
0.0
0
LINE
8
0
10
86.559784
20
6.460000
30
0.0
11
86.646386
21
6.609999
31
0.0
0
ARC
8
0
10
86.819591
20
6.510000
30
0.0
40
0.200000
50
30.000000
51
150.000000
0
LINE
8
0
10
86.992796
20
6.609999
30
0.0
11
87.079399
21
6.460000
31
0.0
0
ARC
8
0
10
87.339206
20
6.609999
30
0.0
40
0.300000
50
210.000000
51
270.000000
0
LINE
8
0
10
87.339206
20
6.310000
30
0.0
11
87.699976
21
6.310000
31
0.0
0
ARC
8
0
10
87.699976
20
6.609999
30
0.0
40
0.300000
50
270.000000
51
330.000000
0
LINE
8
0
10
87.959784
20
6.460000
30
0.0
11
88.046386
21
6.609999
31
0.0
0
ARC
8
0
10
88.219591
20
6.510000
30
0.0
40
0.200000
50
30.000000
51
150.000000
0
LINE
8
0
10
88.392796
20
6.609999
30
0.0
11
88.479399
21
6.460000
31
0.0
0
ARC
8
0
10
88.739206
20
6.609999
30
0.0
40
0.300000
50
210.000000
51
270.000000
0
LINE
8
0
10
88.739206
20
6.310000
30
0.0
11
89.200000
21
6.310000
31
0.0
0
ARC
8
0
10
89.200000
20
4.750000
30
0.0
40
1.560000
50
277.689035
51
90.000000
0
ARC
8
0
10
89.448861
20
2.906723
30
0.0
40
0.300000
50
97.689035
51
150.000000
0
LINE
8
0
10
89.189054
20
3.056723
30
0.0
11
89.092796
21
2.890000
31
0.0
0
ARC
8
0
10
88.919591
20
2.990000
30
0.0
40
0.200000
50
210.000000
51
330.000000
0
LINE
8
0
10
88.746386
20
2.890000
30
0.0
11
88.659784
21
3.040000
31
0.0
0
ARC
8
0
10
88.399976
20
2.890000
30
0.0
40
0.300000
50
30.000000
51
90.000000
0
LINE
8
0
10
88.399976
20
3.190000
30
0.0
11
88.039206
21
3.190000
31
0.0
0
ARC
8
0
10
88.039206
20
2.890000
30
0.0
40
0.300000
50
90.000000
51
150.000000
0
LINE
8
0
10
87.779399
20
3.040000
30
0.0
11
87.692796
21
2.890000
31
0.0
0
ARC
8
0
10
87.519591
20
2.990000
30
0.0
40
0.200000
50
210.000000
51
330.000000
0
LINE
8
0
10
87.346386
20
2.890000
30
0.0
11
87.259784
21
3.040000
31
0.0
0
ARC
8
0
10
86.999976
20
2.890000
30
0.0
40
0.300000
50
30.000000
51
90.000000
0
LINE
8
0
10
86.999976
20
3.190000
30
0.0
11
86.690008
21
3.190000
31
0.0
0
LINE
8
0
10
86.690008
20
3.190000
30
0.0
11
85.693212
21
2.190000
31
0.0
0
LINE
8
0
10
85.693212
20
2.190000
30
0.0
11
84.760000
21
2.190000
31
0.0
0
LINE
8
0
10
84.760000
20
2.190000
30
0.0
11
84.760000
21
3.190000
31
0.0
0
LINE
8
0
10
84.760000
20
3.190000
30
0.0
11
83.839206
21
3.190000
31
0.0
0
ARC
8
0
10
83.839206
20
2.890000
30
0.0
40
0.300000
50
90.000000
51
150.000000
0
LINE
8
0
10
83.579399
20
3.040000
30
0.0
11
83.492796
21
2.890000
31
0.0
0
ARC
8
0
10
83.319591
20
2.990000
30
0.0
40
0.200000
50
210.000000
51
330.000000
0
LINE
8
0
10
83.146386
20
2.890000
30
0.0
11
83.059784
21
3.040000
31
0.0
0
ARC
8
0
10
82.799976
20
2.890000
30
0.0
40
0.300000
50
30.000000
51
90.000000
0
LINE
8
0
10
82.799976
20
3.190000
30
0.0
11
82.439206
21
3.190000
31
0.0
0
ARC
8
0
10
82.439206
20
2.890000
30
0.0
40
0.300000
50
90.000000
51
150.000000
0
LINE
8
0
10
82.179399
20
3.040000
30
0.0
11
82.092796
21
2.890000
31
0.0
0
ARC
8
0
10
81.919591
20
2.990000
30
0.0
40
0.200000
50
210.000000
51
330.000000
0
LINE
8
0
10
81.746386
20
2.890000
30
0.0
11
81.659784
21
3.040000
31
0.0
0
ARC
8
0
10
81.399976
20
2.890000
30
0.0
40
0.300000
50
30.000000
51
90.000000
0
LINE
8
0
10
81.399976
20
3.190000
30
0.0
11
80.690008
21
3.190000
31
0.0
0
LINE
8
0
10
80.690008
20
3.190000
30
0.0
11
79.693212
21
2.190000
31
0.0
0
LINE
8
0
10
79.693212
20
2.190000
30
0.0
11
78.760000
21
2.190000
31
0.0
0
LINE
8
0
10
78.760000
20
2.190000
30
0.0
11
78.760000
21
3.190000
31
0.0
0
LINE
8
0
10
78.760000
20
3.190000
30
0.0
11
78.260000
21
3.190000
31
0.0
0
LINE
8
0
10
78.260000
20
3.190000
30
0.0
11
77.760000
21
2.690000
31
0.0
0
LINE
8
0
10
77.760000
20
2.690000
30
0.0
11
77.760000
21
0.000000
31
0.0
0
LINE
8
0
10
77.760000
20
0.000000
30
0.0
11
252.260018
21
0.000000
31
0.0
0
ARC
8
0
10
252.260018
20
0.500000
30
0.0
40
0.500000
50
270.000000
51
360.000000
0
LINE
8
0
10
252.760018
20
0.500000
30
0.0
11
252.760018
21
51.500000
31
0.0
0
ARC
8
0
10
252.260018
20
51.500000
30
0.0
40
0.500000
50
360.000000
51
90.000000
0
LINE
8
0
10
252.260018
20
52.000000
30
0.0
11
77.760000
21
52.000000
31
0.0
0
LINE
8
0
10
77.760000
20
52.000000
30
0.0
11
77.760000
21
49.310000
31
0.0
0
LINE
8
0
10
77.760000
20
49.310000
30
0.0
11
78.260000
21
48.810000
31
0.0
0
LINE
8
0
10
78.260000
20
48.810000
30
0.0
11
78.760000
21
48.810000
31
0.0
0
LINE
8
0
10
78.760000
20
48.810000
30
0.0
11
78.760000
21
49.810000
31
0.0
0
LINE
8
0
10
78.760000
20
49.810000
30
0.0
11
79.693212
21
49.810000
31
0.0
0
LINE
8
0
10
79.693212
20
49.810000
30
0.0
11
80.690008
21
48.810000
31
0.0
0
LINE
8
0
10
80.690008
20
48.810000
30
0.0
11
81.399976
21
48.810000
31
0.0
0
ARC
8
0
10
81.399976
20
49.109999
30
0.0
40
0.300000
50
270.000000
51
330.000000
0
LINE
8
0
10
81.659784
20
48.960000
30
0.0
11
81.746386
21
49.109999
31
0.0
0
ARC
8
0
10
81.919591
20
49.010000
30
0.0
40
0.200000
50
30.000000
51
150.000000
0
LINE
8
0
10
82.092796
20
49.109999
30
0.0
11
82.179399
21
48.960000
31
0.0
0
ARC
8
0
10
82.439206
20
49.109999
30
0.0
40
0.300000
50
210.000000
51
270.000000
0
LINE
8
0
10
82.439206
20
48.810000
30
0.0
11
82.799976
21
48.810000
31
0.0
0
ARC
8
0
10
82.799976
20
49.109999
30
0.0
40
0.300000
50
270.000000
51
330.000000
0
LINE
8
0
10
83.059784
20
48.960000
30
0.0
11
83.146386
21
49.109999
31
0.0
0
ARC
8
0
10
83.319591
20
49.010000
30
0.0
40
0.200000
50
30.000000
51
150.000000
0
LINE
8
0
10
83.492796
20
49.109999
30
0.0
11
83.579399
21
48.960000
31
0.0
0
ARC
8
0
10
83.839206
20
49.109999
30
0.0
40
0.300000
50
210.000000
51
270.000000
0
LINE
8
0
10
83.839206
20
48.810000
30
0.0
11
84.760000
21
48.810000
31
0.0
0
LINE
8
0
10
84.760000
20
48.810000
30
0.0
11
84.760000
21
49.810000
31
0.0
0
LINE
8
0
10
84.760000
20
49.810000
30
0.0
11
85.693212
21
49.810000
31
0.0
0
LINE
8
0
10
85.693212
20
49.810000
30
0.0
11
86.690008
21
48.810000
31
0.0
0
LINE
8
0
10
86.690008
20
48.810000
30
0.0
11
86.999976
21
48.810000
31
0.0
0
ARC
8
0
10
86.999976
20
49.109999
30
0.0
40
0.300000
50
270.000000
51
330.000000
0
LINE
8
0
10
87.259784
20
48.960000
30
0.0
11
87.346386
21
49.109999
31
0.0
0
ARC
8
0
10
87.519591
20
49.010000
30
0.0
40
0.200000
50
30.000000
51
150.000000
0
ATTDEF
8
0
10
77.760000
20
52.000000
30
0.0
40
3.5
1

3

2
VC_START
70
0
0
ATTDEF
8
0
10
77.760000
20
0.000000
30
0.0
40
3.5
1

3

2
VC_END
70
0
0
ATTDEF
8
0
10
0.000000
20
0.000000
30
0.0
40
3.5
1

3

2
DENS:0.000000
70
0
0
ATTDEF
8
0
10
0.000000
20
0.000000
30
0.0
40
3.5
1

3

2
GLASS_MIN:0.000000
70
0
0
ATTDEF
8
0
10
0.000000
20
0.000000
30
0.0
40
3.5
1

3

2
GLASS_MAX:0.000000
70
0
0
ATTDEF
8
0
10
0.000000
20
0.000000
30
0.0
40
3.5
1

3

2
DESC:COR-9806 - COR-9840 - COR-9843 - COR-9914 - COR-9143
70
0
0
ATTDEF
8
0
10
0.000000
20
0.000000
30
0.0
40
3.5
1

3

2
HW_START
70
0
0
ATTDEF
8
0
10
252.760018
20
52.000000
30
0.0
40
3.5
1

3

2
HW_END
70
0
0
ATTDEF
8
0
10
0.000000
20
0.000000
30
0.0
40
3.5
1

3

2
BL01:6500.000000,,1
70
0
0
ENDSEC
0
EOF
