0
SECTION
2
ENTITIES
0
LINE
8
0
10
1.400000
20
1.700000
30
0.0
11
1.400000
21
50.900000
31
0.0
0
LINE
8
0
10
1.400000
20
50.900000
30
0.0
11
4.653590
21
50.900000
31
0.0
0
LINE
8
0
10
4.653590
20
50.900000
30
0.0
11
5.073205
21
50.173205
31
0.0
0
LINE
8
0
10
5.073205
20
50.173205
30
0.0
11
6.332051
21
50.900000
31
0.0
0
LINE
8
0
10
6.332051
20
50.900000
30
0.0
11
14.000000
21
50.900000
31
0.0
0
LINE
8
0
10
14.000000
20
50.900000
30
0.0
11
14.000000
21
52.300000
31
0.0
0
LINE
8
0
10
14.000000
20
52.300000
30
0.0
11
1.000000
21
52.300000
31
0.0
0
ARC
8
0
10
1.000000
20
51.300000
30
0.0
40
1.000000
50
90.000000
51
180.000000
0
LINE
8
0
10
0.000000
20
51.300000
30
0.0
11
0.000000
21
1.300000
31
0.0
0
ARC
8
0
10
1.000000
20
1.300000
30
0.0
40
1.000000
50
180.000000
51
270.000000
0
LINE
8
0
10
1.000000
20
0.300000
30
0.0
11
14.000000
21
0.300000
31
0.0
0
LINE
8
0
10
14.000000
20
0.300000
30
0.0
11
14.000000
21
1.700000
31
0.0
0
LINE
8
0
10
14.000000
20
1.700000
30
0.0
11
6.332051
21
1.700000
31
0.0
0
LINE
8
0
10
6.332051
20
1.700000
30
0.0
11
5.073205
21
2.426795
31
0.0
0
LINE
8
0
10
5.073205
20
2.426795
30
0.0
11
4.653590
21
1.700000
31
0.0
0
LINE
8
0
10
4.653590
20
1.700000
30
0.0
11
1.400000
21
1.700000
31
0.0
0
ATTDEF
8
0
10
14.000000
20
52.300000
30
0.0
40
3.5
1

3

2
VC_START
70
0
0
ATTDEF
8
0
10
14.000000
20
0.300000
30
0.0
40
3.5
1

3

2
VC_END
70
0
0
LINE
8
0
10
8.500000
20
26.249964
30
0.0
11
8.500000
21
31.319668
31
0.0
0
ARC
8
0
10
8.800000
20
31.319666
30
0.0
40
0.300000
50
149.999911
51
180.000000
0
LINE
8
0
10
8.540192
20
31.469666
30
0.0
11
11.797919
21
39.964453
31
0.0
0
ARC
8
0
10
11.704549
20
40.000260
30
0.0
40
0.100000
50
339.018495
51
90.000000
0
LINE
8
0
10
11.704549
20
40.100260
30
0.0
11
9.499978
21
40.100260
31
0.0
0
ARC
8
0
10
9.499978
20
41.100238
30
0.0
40
0.999978
50
180.000000
51
270.000000
0
LINE
8
0
10
8.500000
20
41.100238
30
0.0
11
8.500000
21
46.801615
31
0.0
0
ARC
8
0
10
7.500461
20
46.801615
30
0.0
40
0.999539
50
0.000000
51
90.000000
0
LINE
8
0
10
7.500461
20
47.801154
30
0.0
11
2.000000
21
47.801154
31
0.0
0
ARC
8
0
10
2.000000
20
48.101154
30
0.0
40
0.300000
50
180.000000
51
270.000000
0
LINE
8
0
10
1.700000
20
48.101154
30
0.0
11
1.700000
21
49.033480
31
0.0
0
ARC
8
0
10
2.700000
20
49.033480
30
0.0
40
1.000000
50
99.019322
51
180.000000
0
LINE
8
0
10
2.543232
20
50.021115
30
0.0
11
4.300209
21
50.300000
31
0.0
0
LINE
8
0
10
4.300209
20
50.300000
30
0.0
11
5.000194
21
49.600016
31
0.0
0
LINE
8
0
10
5.000194
20
49.600016
30
0.0
11
6.212604
21
50.300000
31
0.0
0
LINE
8
0
10
6.212604
20
50.300000
30
0.0
11
13.500011
21
50.300000
31
0.0
0
ARC
8
0
10
13.500011
20
49.800011
30
0.0
40
0.499989
50
0.000000
51
90.000000
0
LINE
8
0
10
14.000000
20
49.800011
30
0.0
11
14.000000
21
47.610000
31
0.0
0
LINE
8
0
10
14.000000
20
47.610000
30
0.0
11
13.500000
21
47.110000
31
0.0
0
LINE
8
0
10
13.500000
20
47.110000
30
0.0
11
13.000000
21
47.110000
31
0.0
0
LINE
8
0
10
13.000000
20
47.110000
30
0.0
11
13.000000
21
49.000000
31
0.0
0
LINE
8
0
10
13.000000
20
49.000000
30
0.0
11
10.200000
21
49.000000
31
0.0
0
LINE
8
0
10
10.200000
20
49.000000
30
0.0
11
10.200000
21
41.600000
31
0.0
0
LINE
8
0
10
10.200000
20
41.600000
30
0.0
11
13.000000
21
41.600000
31
0.0
0
LINE
8
0
10
13.000000
20
41.600000
30
0.0
11
13.000000
21
43.990000
31
0.0
0
LINE
8
0
10
13.000000
20
43.990000
30
0.0
11
13.500000
21
43.990000
31
0.0
0
LINE
8
0
10
13.500000
20
43.990000
30
0.0
11
14.000000
21
43.490000
31
0.0
0
LINE
8
0
10
14.000000
20
43.490000
30
0.0
11
14.000000
21
40.100260
31
0.0
0
LINE
8
0
10
14.000000
20
40.100260
30
0.0
11
12.000000
21
30.804649
31
0.0
0
LINE
8
0
10
12.000000
20
30.804649
30
0.0
11
12.000000
21
21.195352
31
0.0
0
LINE
8
0
10
12.000000
20
21.195352
30
0.0
11
14.000000
21
11.899741
31
0.0
0
LINE
8
0
10
14.000000
20
11.899741
30
0.0
11
14.000000
21
8.510000
31
0.0
0
LINE
8
0
10
14.000000
20
8.510000
30
0.0
11
13.500000
21
8.010000
31
0.0
0
LINE
8
0
10
13.500000
20
8.010000
30
0.0
11
13.000000
21
8.010000
31
0.0
0
LINE
8
0
10
13.000000
20
8.010000
30
0.0
11
13.000000
21
10.400000
31
0.0
0
LINE
8
0
10
13.000000
20
10.400000
30
0.0
11
10.200000
21
10.400000
31
0.0
0
LINE
8
0
10
10.200000
20
10.400000
30
0.0
11
10.200000
21
3.000000
31
0.0
0
LINE
8
0
10
10.200000
20
3.000000
30
0.0
11
13.000000
21
3.000000
31
0.0
0
LINE
8
0
10
13.000000
20
3.000000
30
0.0
11
13.000000
21
4.890000
31
0.0
0
LINE
8
0
10
13.000000
20
4.890000
30
0.0
11
13.500000
21
4.890000
31
0.0
0
LINE
8
0
10
13.500000
20
4.890000
30
0.0
11
14.000000
21
4.390000
31
0.0
0
LINE
8
0
10
14.000000
20
4.390000
30
0.0
11
14.000000
21
2.199990
31
0.0
0
ARC
8
0
10
13.500011
20
2.199990
30
0.0
40
0.499989
50
270.000000
51
0.000000
0
LINE
8
0
10
13.500011
20
1.700000
30
0.0
11
6.212604
21
1.700000
31
0.0
0
LINE
8
0
10
6.212604
20
1.700000
30
0.0
11
5.000194
21
2.399985
31
0.0
0
LINE
8
0
10
5.000194
20
2.399985
30
0.0
11
4.300209
21
1.700000
31
0.0
0
LINE
8
0
10
4.300209
20
1.700000
30
0.0
11
2.543232
21
1.978886
31
0.0
0
ARC
8
0
10
2.700000
20
2.966521
30
0.0
40
1.000000
50
180.000000
51
260.980678
0
LINE
8
0
10
1.700000
20
2.966521
30
0.0
11
1.700000
21
3.898847
31
0.0
0
ARC
8
0
10
2.000000
20
3.898847
30
0.0
40
0.300000
50
90.000000
51
180.000000
0
LINE
8
0
10
2.000000
20
4.198847
30
0.0
11
7.500461
21
4.198847
31
0.0
0
ARC
8
0
10
7.500461
20
5.198386
30
0.0
40
0.999539
50
270.000000
51
0.000000
0
LINE
8
0
10
8.500000
20
5.198386
30
0.0
11
8.500000
21
10.899763
31
0.0
0
ARC
8
0
10
9.499978
20
10.899763
30
0.0
40
0.999978
50
90.000000
51
180.000000
0
LINE
8
0
10
9.499978
20
11.899741
30
0.0
11
11.704549
21
11.899741
31
0.0
0
ARC
8
0
10
11.704549
20
11.999741
30
0.0
40
0.100000
50
270.000000
51
20.981505
0
LINE
8
0
10
11.797919
20
12.035548
30
0.0
11
8.540192
21
20.530335
31
0.0
0
ARC
8
0
10
8.800000
20
20.680335
30
0.0
40
0.300000
50
180.000000
51
210.000089
0
LINE
8
0
10
8.500000
20
20.680333
30
0.0
11
8.500000
21
25.750037
31
0.0
0
LINE
8
0
10
8.500000
20
25.750037
30
0.0
11
8.699971
21
26.000000
31
0.0
0
LINE
8
0
10
8.699971
20
26.000000
30
0.0
11
8.500000
21
26.249964
31
0.0
0
ATTDEF
8
0
10
9.856307
20
50.300000
30
0.0
40
3.5
1

3

2
VC_START
70
0
0
ATTDEF
8
0
10
9.856307
20
1.700000
30
0.0
40
3.5
1

3

2
VC_END
70
0
0
ARC
8
0
10
27.834195
20
20.698642
30
0.0
40
0.300000
50
90.000000
51
217.852838
0
ARC
8
0
10
22.772376
20
17.502850
30
0.0
40
5.687742
50
324.223538
51
31.972167
0
ARC
8
0
10
26.980821
20
14.548642
30
0.0
40
0.550000
50
137.583333
51
317.583333
0
ARC
8
0
10
23.561290
20
17.264682
30
0.0
40
3.818429
50
322.110438
51
77.926068
0
LINE
8
0
10
24.360005
20
20.998642
30
0.0
11
27.834195
21
20.998642
31
0.0
0
ARC
8
0
10
27.834195
20
31.298642
30
0.0
40
0.300000
50
142.147162
51
270.000000
0
ARC
8
0
10
22.772376
20
34.494433
30
0.0
40
5.687742
50
328.027833
51
35.776462
0
ARC
8
0
10
26.980821
20
37.448642
30
0.0
40
0.550000
50
42.416667
51
222.416667
0
ARC
8
0
10
23.561290
20
34.732602
30
0.0
40
3.818429
50
282.073932
51
37.889562
0
LINE
8
0
10
24.360005
20
30.998642
30
0.0
11
27.834195
21
30.998642
31
0.0
0
ARC
8
0
10
37.834195
20
20.698642
30
0.0
40
0.300000
50
90.000000
51
217.852838
0
ARC
8
0
10
32.772376
20
17.502850
30
0.0
40
5.687742
50
324.223538
51
31.972167
0
ARC
8
0
10
36.980821
20
14.548642
30
0.0
40
0.550000
50
137.583333
51
317.583333
0
ARC
8
0
10
33.561290
20
17.264682
30
0.0
40
3.818429
50
322.110438
51
77.926068
0
LINE
8
0
10
34.360005
20
20.998642
30
0.0
11
37.834195
21
20.998642
31
0.0
0
ARC
8
0
10
37.834195
20
31.298642
30
0.0
40
0.300000
50
142.147162
51
270.000000
0
ARC
8
0
10
32.772376
20
34.494433
30
0.0
40
5.687742
50
328.027833
51
35.776462
0
ARC
8
0
10
36.980821
20
37.448642
30
0.0
40
0.550000
50
42.416667
51
222.416667
0
ARC
8
0
10
33.561290
20
34.732602
30
0.0
40
3.818429
50
282.073932
51
37.889562
0
LINE
8
0
10
34.360005
20
30.998642
30
0.0
11
37.834195
21
30.998642
31
0.0
0
ARC
8
0
10
47.834195
20
20.698642
30
0.0
40
0.300000
50
90.000000
51
217.852838
0
ARC
8
0
10
42.772376
20
17.502850
30
0.0
40
5.687742
50
324.223538
51
31.972167
0
ARC
8
0
10
46.980821
20
14.548642
30
0.0
40
0.550000
50
137.583333
51
317.583333
0
ARC
8
0
10
43.561290
20
17.264682
30
0.0
40
3.818429
50
322.110438
51
77.926068
0
LINE
8
0
10
44.360005
20
20.998642
30
0.0
11
47.834195
21
20.998642
31
0.0
0
ARC
8
0
10
47.834195
20
31.298642
30
0.0
40
0.300000
50
142.147162
51
270.000000
0
ARC
8
0
10
42.772376
20
34.494433
30
0.0
40
5.687742
50
328.027833
51
35.776462
0
ARC
8
0
10
46.980821
20
37.448642
30
0.0
40
0.550000
50
42.416667
51
222.416667
0
ARC
8
0
10
43.561290
20
34.732602
30
0.0
40
3.818429
50
282.073932
51
37.889562
0
LINE
8
0
10
44.360005
20
30.998642
30
0.0
11
47.834195
21
30.998642
31
0.0
0
LINE
8
0
10
37.210000
20
22.800000
30
0.0
11
37.210000
21
29.200000
31
0.0
0
ARC
8
0
10
37.510000
20
29.200000
30
0.0
40
0.300000
50
90.000000
51
180.000000
0
LINE
8
0
10
37.510000
20
29.500000
30
0.0
11
47.210000
21
29.500000
31
0.0
0
ARC
8
0
10
47.210000
20
29.000000
30
0.0
40
0.500000
50
0.000000
51
90.000000
0
LINE
8
0
10
47.710000
20
29.000000
30
0.0
11
47.710000
21
26.248642
31
0.0
0
LINE
8
0
10
47.710000
20
26.248642
30
0.0
11
48.009997
21
25.998642
31
0.0
0
LINE
8
0
10
48.009997
20
25.998642
30
0.0
11
47.710000
21
25.748642
31
0.0
0
LINE
8
0
10
47.710000
20
25.748642
30
0.0
11
47.710000
21
23.000000
31
0.0
0
ARC
8
0
10
47.210000
20
23.000000
30
0.0
40
0.500000
50
270.000000
51
0.000000
0
LINE
8
0
10
47.210000
20
22.500000
30
0.0
11
37.510000
21
22.500000
31
0.0
0
ARC
8
0
10
37.510000
20
22.800000
30
0.0
40
0.300000
50
180.000000
51
270.000000
0
ARC
8
0
10
61.759998
20
26.008921
30
0.0
40
0.200000
50
324.577352
51
35.420900
0
LINE
8
0
10
61.873837
20
25.856337
30
0.0
11
61.922978
21
25.893000
31
0.0
0
LINE
8
0
10
61.873837
20
25.856337
30
0.0
11
59.242682
21
24.956833
31
0.0
0
ARC
8
0
10
58.822151
20
26.186936
30
0.0
40
1.300000
50
274.415867
51
288.873845
0
ARC
8
0
10
55.134083
20
73.944744
30
0.0
40
49.200000
50
265.254864
51
274.415867
0
ARC
8
0
10
51.055541
20
26.008883
30
0.0
40
1.095541
50
90.000000
51
270.000000
0
ARC
8
0
10
55.134083
20
-21.926978
30
0.0
40
49.200000
50
85.583972
51
94.745136
0
ARC
8
0
10
58.822285
20
25.830819
30
0.0
40
1.300000
50
71.126913
51
85.583972
0
LINE
8
0
10
59.242800
20
27.060927
30
0.0
11
61.873837
21
26.161502
31
0.0
0
LINE
8
0
10
61.922982
20
26.124837
30
0.0
11
61.873837
21
26.161502
31
0.0
0
ARC
8
0
10
35.410000
20
29.200000
30
0.0
40
0.300000
50
0.000000
51
90.000000
0
LINE
8
0
10
35.710000
20
29.200000
30
0.0
11
35.710000
21
22.800000
31
0.0
0
ARC
8
0
10
35.410000
20
22.800000
30
0.0
40
0.300000
50
270.000000
51
0.000000
0
LINE
8
0
10
35.410000
20
22.500000
30
0.0
11
25.775007
21
22.500000
31
0.0
0
ARC
8
0
10
25.775007
20
22.800000
30
0.0
40
0.300000
50
157.500000
51
270.000000
0
LINE
8
0
10
25.497843
20
22.914805
30
0.0
11
26.494129
21
25.320053
31
0.0
0
ARC
8
0
10
24.831146
20
26.008883
30
0.0
40
1.800000
50
337.500000
51
22.500000
0
LINE
8
0
10
26.494129
20
26.697713
30
0.0
11
25.505202
21
29.085195
31
0.0
0
ARC
8
0
10
25.782365
20
29.200000
30
0.0
40
0.300000
50
90.000000
51
202.500000
0
LINE
8
0
10
25.782365
20
29.500000
30
0.0
11
35.410000
21
29.500000
31
0.0
0
ARC
8
0
10
56.060000
20
23.950006
30
0.0
40
0.249982
50
209.988832
51
330.002349
0
LINE
8
0
10
56.276496
20
23.825024
30
0.0
11
56.354204
21
23.959633
31
0.0
0
ARC
8
0
10
55.134083
20
73.944744
30
0.0
40
50.000000
50
271.398294
51
274.506051
0
ARC
8
0
10
58.944456
20
25.594655
30
0.0
40
1.500000
50
274.506051
51
288.873845
0
LINE
8
0
10
59.429684
20
24.175305
30
0.0
11
62.259998
21
25.142895
31
0.0
0
ARC
8
0
10
61.759998
20
26.008921
30
0.0
40
1.000000
50
299.999969
51
60.000031
0
LINE
8
0
10
62.259998
20
26.874947
30
0.0
11
59.429796
21
27.842456
31
0.0
0
ARC
8
0
10
58.944587
20
26.423100
30
0.0
40
1.500000
50
71.126913
51
85.493794
0
ARC
8
0
10
55.134083
20
-21.926978
30
0.0
40
50.000000
50
85.493794
51
88.601706
0
LINE
8
0
10
56.354204
20
28.058133
30
0.0
11
56.276496
21
28.192741
31
0.0
0
ARC
8
0
10
56.060000
20
28.067759
30
0.0
40
0.249982
50
29.997651
51
149.998311
0
LINE
8
0
10
55.843513
20
28.192757
30
0.0
11
55.772047
21
28.068952
31
0.0
0
ARC
8
0
10
55.134083
20
-21.926978
30
0.0
40
50.000000
50
89.268927
51
95.538610
0
ARC
8
0
10
50.260000
20
28.337257
30
0.0
40
0.500000
50
180.000000
51
275.538610
0
LINE
8
0
10
49.760000
20
28.337257
30
0.0
11
49.760000
21
30.700000
31
0.0
0
ARC
8
0
10
49.460000
20
30.700000
30
0.0
40
0.300000
50
0.000000
51
90.000000
0
LINE
8
0
10
49.460000
20
31.000000
30
0.0
11
20.060000
21
31.000000
31
0.0
0
ARC
8
0
10
20.060000
20
30.700000
30
0.0
40
0.300000
50
90.000000
51
180.000000
0
LINE
8
0
10
19.760000
20
30.700000
30
0.0
11
19.760000
21
28.909869
31
0.0
0
ARC
8
0
10
20.060000
20
28.909869
30
0.0
40
0.300000
50
180.000000
51
240.000122
0
LINE
8
0
10
19.910001
20
28.650061
30
0.0
11
20.760000
21
28.159316
31
0.0
0
ARC
8
0
10
20.910000
20
28.419124
30
0.0
40
0.300000
50
240.000122
51
0.000000
0
LINE
8
0
10
21.210000
20
28.419124
30
0.0
11
21.210004
21
29.500000
31
0.0
0
LINE
8
0
10
21.210004
20
29.500000
30
0.0
11
23.509342
21
29.500000
31
0.0
0
ARC
8
0
10
23.509342
20
29.200000
30
0.0
40
0.300000
50
22.500000
51
90.000000
0
LINE
8
0
10
23.786506
20
29.314805
30
0.0
11
25.108310
21
26.123688
31
0.0
0
ARC
8
0
10
24.831146
20
26.008883
30
0.0
40
0.300000
50
337.500000
51
22.500000
0
LINE
8
0
10
25.108310
20
25.894078
30
0.0
11
23.779147
21
22.685195
31
0.0
0
ARC
8
0
10
23.501983
20
22.800000
30
0.0
40
0.300000
50
270.000000
51
337.500000
0
LINE
8
0
10
23.501983
20
22.500000
30
0.0
11
21.210000
21
22.500000
31
0.0
0
LINE
8
0
10
21.210000
20
22.500000
30
0.0
11
21.210000
21
23.598642
31
0.0
0
ARC
8
0
10
20.910000
20
23.598642
30
0.0
40
0.300000
50
0.000000
51
119.999878
0
LINE
8
0
10
20.760000
20
23.858450
30
0.0
11
19.910001
21
23.367704
31
0.0
0
ARC
8
0
10
20.060000
20
23.107896
30
0.0
40
0.300000
50
119.999878
51
180.000000
0
LINE
8
0
10
19.760000
20
23.107896
30
0.0
11
19.760000
21
21.300000
31
0.0
0
ARC
8
0
10
20.060000
20
21.300000
30
0.0
40
0.300000
50
180.000000
51
270.000000
0
LINE
8
0
10
20.060000
20
21.000000
30
0.0
11
49.460000
21
21.000000
31
0.0
0
ARC
8
0
10
49.460000
20
21.300000
30
0.0
40
0.300000
50
270.000000
51
0.000000
0
LINE
8
0
10
49.760000
20
21.300000
30
0.0
11
49.760000
21
23.680509
31
0.0
0
ARC
8
0
10
50.260000
20
23.680509
30
0.0
40
0.500000
50
84.461390
51
180.000000
0
ARC
8
0
10
55.134083
20
73.944744
30
0.0
40
50.000000
50
264.461390
51
270.731073
0
LINE
8
0
10
55.772047
20
23.948814
30
0.0
11
55.843513
21
23.825009
31
0.0
0
ATTDEF
8
0
10
20.060000
20
31.000000
30
0.0
40
3.5
1

3

2
VC_START
70
0
0
ATTDEF
8
0
10
20.060000
20
21.000000
30
0.0
40
3.5
1

3

2
VC_END
70
0
0
LINE
8
0
10
64.160000
20
25.400000
30
0.0
11
64.160000
21
26.600000
31
0.0
0
ARC
8
0
10
62.574247
20
26.511864
30
0.0
40
1.588201
50
3.181243
51
90.513978
0
LINE
8
0
10
62.560000
20
28.100000
30
0.0
11
61.079615
21
28.100001
31
0.0
0
ARC
8
0
10
61.079615
20
28.400000
30
0.0
40
0.300000
50
210.000000
51
270.000000
0
LINE
8
0
10
60.819808
20
28.250000
30
0.0
11
60.733205
21
28.400000
31
0.0
0
ARC
8
0
10
60.560000
20
28.300000
30
0.0
40
0.200000
50
30.000000
51
150.000000
0
LINE
8
0
10
60.386796
20
28.400000
30
0.0
11
60.300193
21
28.250000
31
0.0
0
ARC
8
0
10
60.040386
20
28.400000
30
0.0
40
0.300000
50
270.000000
51
330.000000
0
LINE
8
0
10
60.040386
20
28.100001
30
0.0
11
59.279615
21
28.100001
31
0.0
0
ARC
8
0
10
59.279615
20
28.400000
30
0.0
40
0.300000
50
210.000000
51
270.000000
0
LINE
8
0
10
59.019808
20
28.250000
30
0.0
11
58.933205
21
28.400000
31
0.0
0
ARC
8
0
10
58.760000
20
28.300000
30
0.0
40
0.200000
50
30.000000
51
150.000000
0
LINE
8
0
10
58.586796
20
28.400000
30
0.0
11
58.500193
21
28.250000
31
0.0
0
ARC
8
0
10
58.240386
20
28.400000
30
0.0
40
0.300000
50
270.000000
51
330.000000
0
LINE
8
0
10
58.240386
20
28.100001
30
0.0
11
57.479615
21
28.100001
31
0.0
0
ARC
8
0
10
57.479615
20
28.400000
30
0.0
40
0.300000
50
210.000000
51
270.000000
0
LINE
8
0
10
57.219808
20
28.250000
30
0.0
11
57.133205
21
28.400000
31
0.0
0
ARC
8
0
10
56.960000
20
28.300000
30
0.0
40
0.200000
50
30.000000
51
150.000000
0
LINE
8
0
10
56.786796
20
28.400000
30
0.0
11
56.700193
21
28.250000
31
0.0
0
ARC
8
0
10
56.440386
20
28.400000
30
0.0
40
0.300000
50
270.000000
51
330.000000
0
LINE
8
0
10
56.440386
20
28.100001
30
0.0
11
55.679615
21
28.100001
31
0.0
0
ARC
8
0
10
55.679615
20
28.400000
30
0.0
40
0.300000
50
210.000000
51
270.000000
0
LINE
8
0
10
55.419808
20
28.250000
30
0.0
11
55.333205
21
28.400000
31
0.0
0
ARC
8
0
10
55.160000
20
28.300000
30
0.0
40
0.200000
50
30.000000
51
150.000000
0
LINE
8
0
10
54.986796
20
28.400000
30
0.0
11
54.900193
21
28.250000
31
0.0
0
ARC
8
0
10
54.640386
20
28.400000
30
0.0
40
0.300000
50
270.000000
51
330.000000
0
LINE
8
0
10
54.640386
20
28.100001
30
0.0
11
53.879615
21
28.100001
31
0.0
0
ARC
8
0
10
53.879615
20
28.400000
30
0.0
40
0.300000
50
210.000000
51
270.000000
0
LINE
8
0
10
53.619808
20
28.250000
30
0.0
11
53.533205
21
28.400000
31
0.0
0
ARC
8
0
10
53.360000
20
28.300000
30
0.0
40
0.200000
50
30.000000
51
150.000000
0
LINE
8
0
10
53.186796
20
28.400000
30
0.0
11
53.100193
21
28.250000
31
0.0
0
ARC
8
0
10
52.840386
20
28.400000
30
0.0
40
0.300000
50
270.000000
51
330.000000
0
LINE
8
0
10
52.840386
20
28.100001
30
0.0
11
52.079615
21
28.100001
31
0.0
0
ARC
8
0
10
52.079615
20
28.400000
30
0.0
40
0.300000
50
210.000000
51
270.000000
0
LINE
8
0
10
51.819808
20
28.250000
30
0.0
11
51.733205
21
28.400000
31
0.0
0
ARC
8
0
10
51.560000
20
28.300000
30
0.0
40
0.200000
50
30.000000
51
150.000000
0
LINE
8
0
10
51.386796
20
28.400000
30
0.0
11
51.300193
21
28.250000
31
0.0
0
ARC
8
0
10
51.040386
20
28.400000
30
0.0
40
0.300000
50
270.000000
51
330.000000
0
LINE
8
0
10
51.040386
20
28.100001
30
0.0
11
50.959999
21
28.100001
31
0.0
0
LINE
8
0
10
50.959999
20
28.100001
30
0.0
11
49.760000
21
29.299999
31
0.0
0
LINE
8
0
10
49.760000
20
29.299999
30
0.0
11
49.760000
21
31.000000
31
0.0
0
LINE
8
0
10
49.760000
20
31.000000
30
0.0
11
63.160000
21
31.000000
31
0.0
0
ARC
8
0
10
63.160000
20
32.000000
30
0.0
40
1.000000
50
270.000000
51
0.000000
0
LINE
8
0
10
64.160000
20
32.000000
30
0.0
11
64.160000
21
35.300000
31
0.0
0
LINE
8
0
10
64.160000
20
35.300000
30
0.0
11
64.460000
21
35.600000
31
0.0
0
LINE
8
0
10
64.460000
20
35.600000
30
0.0
11
64.160000
21
35.900000
31
0.0
0
LINE
8
0
10
64.160000
20
35.900000
30
0.0
11
64.160000
21
39.200000
31
0.0
0
ARC
8
0
10
62.660000
20
39.200000
30
0.0
40
1.500000
50
0.000000
51
90.000000
0
LINE
8
0
10
62.660000
20
40.700000
30
0.0
11
62.260000
21
40.700000
31
0.0
0
ARC
8
0
10
62.260000
20
40.200000
30
0.0
40
0.500000
50
90.000000
51
180.000000
0
LINE
8
0
10
61.760000
20
40.200000
30
0.0
11
61.760000
21
39.400000
31
0.0
0
LINE
8
0
10
61.760000
20
39.400000
30
0.0
11
60.560000
21
39.400000
31
0.0
0
ARC
8
0
10
60.560000
20
39.700000
30
0.0
40
0.300000
50
180.000000
51
270.000000
0
LINE
8
0
10
60.260000
20
39.700000
30
0.0
11
60.260000
21
45.190000
31
0.0
0
LINE
8
0
10
60.260000
20
45.190000
30
0.0
11
60.760000
21
45.690000
31
0.0
0
LINE
8
0
10
60.760000
20
45.690000
30
0.0
11
61.260000
21
45.690000
31
0.0
0
LINE
8
0
10
61.260000
20
45.690000
30
0.0
11
61.260000
21
42.200000
31
0.0
0
LINE
8
0
10
61.260000
20
42.200000
30
0.0
11
64.160000
21
42.200000
31
0.0
0
LINE
8
0
10
64.160000
20
42.200000
30
0.0
11
64.160000
21
46.150000
31
0.0
0
LINE
8
0
10
64.160000
20
46.150000
30
0.0
11
64.460000
21
46.450000
31
0.0
0
LINE
8
0
10
64.460000
20
46.450000
30
0.0
11
64.160000
21
46.750000
31
0.0
0
LINE
8
0
10
64.160000
20
46.750000
30
0.0
11
64.160000
21
50.700000
31
0.0
0
LINE
8
0
10
64.160000
20
50.700000
30
0.0
11
61.260000
21
50.700000
31
0.0
0
LINE
8
0
10
61.260000
20
50.700000
30
0.0
11
61.260000
21
48.810000
31
0.0
0
LINE
8
0
10
61.260000
20
48.810000
30
0.0
11
60.760000
21
48.810000
31
0.0
0
LINE
8
0
10
60.760000
20
48.810000
30
0.0
11
60.260000
21
49.310000
31
0.0
0
LINE
8
0
10
60.260000
20
49.310000
30
0.0
11
60.260000
21
52.000000
31
0.0
0
LINE
8
0
10
60.260000
20
52.000000
30
0.0
11
82.259991
21
52.000000
31
0.0
0
ARC
8
0
10
82.259991
20
51.500000
30
0.0
40
0.500000
50
0.000000
51
90.000000
0
LINE
8
0
10
82.759991
20
51.500000
30
0.0
11
82.759991
21
0.500000
31
0.0
0
ARC
8
0
10
82.259991
20
0.500000
30
0.0
40
0.500000
50
270.000000
51
0.000000
0
LINE
8
0
10
82.259991
20
0.000000
30
0.0
11
60.260000
21
0.000000
31
0.0
0
LINE
8
0
10
60.260000
20
0.000000
30
0.0
11
60.260000
21
2.690000
31
0.0
0
LINE
8
0
10
60.260000
20
2.690000
30
0.0
11
60.760000
21
3.190000
31
0.0
0
LINE
8
0
10
60.760000
20
3.190000
30
0.0
11
61.260000
21
3.190000
31
0.0
0
LINE
8
0
10
61.260000
20
3.190000
30
0.0
11
61.260000
21
1.300000
31
0.0
0
LINE
8
0
10
61.260000
20
1.300000
30
0.0
11
64.160000
21
1.300000
31
0.0
0
LINE
8
0
10
64.160000
20
1.300000
30
0.0
11
64.160000
21
5.250000
31
0.0
0
LINE
8
0
10
64.160000
20
5.250000
30
0.0
11
64.460000
21
5.550000
31
0.0
0
LINE
8
0
10
64.460000
20
5.550000
30
0.0
11
64.160000
21
5.850000
31
0.0
0
LINE
8
0
10
64.160000
20
5.850000
30
0.0
11
64.160000
21
9.800000
31
0.0
0
LINE
8
0
10
64.160000
20
9.800000
30
0.0
11
61.260000
21
9.800000
31
0.0
0
LINE
8
0
10
61.260000
20
9.800000
30
0.0
11
61.260000
21
6.310000
31
0.0
0
LINE
8
0
10
61.260000
20
6.310000
30
0.0
11
60.760000
21
6.310000
31
0.0
0
LINE
8
0
10
60.760000
20
6.310000
30
0.0
11
60.260000
21
6.810000
31
0.0
0
LINE
8
0
10
60.260000
20
6.810000
30
0.0
11
60.260000
21
12.300000
31
0.0
0
ARC
8
0
10
60.560000
20
12.300000
30
0.0
40
0.300000
50
90.000000
51
180.000000
0
LINE
8
0
10
60.560000
20
12.600000
30
0.0
11
61.760000
21
12.600000
31
0.0
0
LINE
8
0
10
61.760000
20
12.600000
30
0.0
11
61.760000
21
11.800000
31
0.0
0
ARC
8
0
10
62.260406
20
11.800405
30
0.0
40
0.500405
50
180.000000
51
270.000000
0
LINE
8
0
10
62.260000
20
11.300000
30
0.0
11
62.660000
21
11.300000
31
0.0
0
ARC
8
0
10
62.660000
20
12.800000
30
0.0
40
1.500000
50
270.000000
51
0.000000
0
LINE
8
0
10
64.160000
20
12.800000
30
0.0
11
64.160000
21
16.100000
31
0.0
0
LINE
8
0
10
64.160000
20
16.100000
30
0.0
11
64.460000
21
16.400000
31
0.0
0
LINE
8
0
10
64.460000
20
16.400000
30
0.0
11
64.160000
21
16.700000
31
0.0
0
LINE
8
0
10
64.160000
20
16.700000
30
0.0
11
64.160000
21
20.000000
31
0.0
0
ARC
8
0
10
63.160000
20
20.000000
30
0.0
40
1.000000
50
0.000000
51
90.000000
0
LINE
8
0
10
63.160000
20
21.000000
30
0.0
11
49.760000
21
21.000000
31
0.0
0
LINE
8
0
10
49.760000
20
21.000000
30
0.0
11
49.760000
21
22.700001
31
0.0
0
LINE
8
0
10
49.760000
20
22.700001
30
0.0
11
50.959999
21
23.900000
31
0.0
0
LINE
8
0
10
50.959999
20
23.900000
30
0.0
11
51.940386
21
23.900000
31
0.0
0
ARC
8
0
10
51.940386
20
23.600000
30
0.0
40
0.300000
50
30.000000
51
90.000000
0
LINE
8
0
10
52.200193
20
23.750000
30
0.0
11
52.286796
21
23.600000
31
0.0
0
ARC
8
0
10
52.460000
20
23.700000
30
0.0
40
0.200000
50
210.000000
51
330.000000
0
LINE
8
0
10
52.633205
20
23.600000
30
0.0
11
52.719808
21
23.750000
31
0.0
0
ARC
8
0
10
52.979615
20
23.600000
30
0.0
40
0.300000
50
90.000000
51
150.000000
0
LINE
8
0
10
52.979615
20
23.900000
30
0.0
11
53.740386
21
23.900000
31
0.0
0
ARC
8
0
10
53.740386
20
23.600000
30
0.0
40
0.300000
50
30.000000
51
90.000000
0
LINE
8
0
10
54.000193
20
23.750000
30
0.0
11
54.086796
21
23.600000
31
0.0
0
ARC
8
0
10
54.260000
20
23.700000
30
0.0
40
0.200000
50
210.000000
51
330.000000
0
LINE
8
0
10
54.433205
20
23.600000
30
0.0
11
54.519808
21
23.750000
31
0.0
0
ARC
8
0
10
54.779615
20
23.600000
30
0.0
40
0.300000
50
90.000000
51
150.000000
0
LINE
8
0
10
54.779615
20
23.900000
30
0.0
11
55.540386
21
23.900000
31
0.0
0
ARC
8
0
10
55.540386
20
23.600000
30
0.0
40
0.300000
50
30.000000
51
90.000000
0
LINE
8
0
10
55.800193
20
23.750000
30
0.0
11
55.886796
21
23.600000
31
0.0
0
ARC
8
0
10
56.060000
20
23.700000
30
0.0
40
0.200000
50
210.000000
51
330.000000
0
LINE
8
0
10
56.233205
20
23.600000
30
0.0
11
56.319808
21
23.750000
31
0.0
0
ARC
8
0
10
56.579615
20
23.600000
30
0.0
40
0.300000
50
90.000000
51
150.000000
0
LINE
8
0
10
56.579615
20
23.900000
30
0.0
11
57.340386
21
23.900000
31
0.0
0
ARC
8
0
10
57.340386
20
23.600000
30
0.0
40
0.300000
50
30.000000
51
90.000000
0
LINE
8
0
10
57.600193
20
23.750000
30
0.0
11
57.686796
21
23.600000
31
0.0
0
ARC
8
0
10
57.860000
20
23.700000
30
0.0
40
0.200000
50
210.000000
51
330.000000
0
LINE
8
0
10
58.033205
20
23.600000
30
0.0
11
58.119808
21
23.750000
31
0.0
0
ARC
8
0
10
58.379615
20
23.600000
30
0.0
40
0.300000
50
90.000000
51
150.000000
0
LINE
8
0
10
58.379615
20
23.900000
30
0.0
11
59.140386
21
23.900000
31
0.0
0
ARC
8
0
10
59.140386
20
23.600000
30
0.0
40
0.300000
50
30.000000
51
90.000000
0
LINE
8
0
10
59.400193
20
23.750000
30
0.0
11
59.486796
21
23.600000
31
0.0
0
ARC
8
0
10
59.660000
20
23.700000
30
0.0
40
0.200000
50
210.000000
51
330.000000
0
LINE
8
0
10
59.833205
20
23.600000
30
0.0
11
59.919808
21
23.750000
31
0.0
0
ARC
8
0
10
60.179615
20
23.600000
30
0.0
40
0.300000
50
90.000000
51
150.000000
0
LINE
8
0
10
60.179615
20
23.900000
30
0.0
11
60.940386
21
23.900000
31
0.0
0
ARC
8
0
10
60.940386
20
23.600000
30
0.0
40
0.300000
50
30.000000
51
90.000000
0
LINE
8
0
10
61.200193
20
23.750000
30
0.0
11
61.286796
21
23.600000
31
0.0
0
ARC
8
0
10
61.460000
20
23.700000
30
0.0
40
0.200000
50
210.000000
51
330.000000
0
LINE
8
0
10
61.633205
20
23.600000
30
0.0
11
61.719808
21
23.750000
31
0.0
0
ARC
8
0
10
61.979757
20
23.599760
30
0.0
40
0.300243
50
90.000000
51
149.973890
0
LINE
8
0
10
61.981145
20
23.900000
30
0.0
11
62.560000
21
23.900000
31
0.0
0
ARC
8
0
10
62.574247
20
25.488136
30
0.0
40
1.588201
50
269.486022
51
356.818757
0
LINE
8
0
10
66.260000
20
2.400001
30
0.0
11
66.260000
21
49.599999
31
0.0
0
ARC
8
0
10
66.560001
20
49.599999
30
0.0
40
0.300001
50
90.000000
51
180.000000
0
LINE
8
0
10
66.560000
20
49.900000
30
0.0
11
79.459991
21
49.900000
31
0.0
0
ARC
8
0
10
79.459991
20
49.600000
30
0.0
40
0.300000
50
0.000000
51
90.000000
0
LINE
8
0
10
79.759991
20
49.600000
30
0.0
11
79.759991
21
35.900000
31
0.0
0
LINE
8
0
10
79.759991
20
35.900000
30
0.0
11
80.059991
21
35.600000
31
0.0
0
LINE
8
0
10
80.059991
20
35.600000
30
0.0
11
79.759991
21
35.300000
31
0.0
0
LINE
8
0
10
79.759991
20
35.300000
30
0.0
11
79.759991
21
16.700000
31
0.0
0
LINE
8
0
10
79.759991
20
16.700000
30
0.0
11
80.059991
21
16.400000
31
0.0
0
LINE
8
0
10
80.059991
20
16.400000
30
0.0
11
79.759991
21
16.100000
31
0.0
0
LINE
8
0
10
79.759991
20
16.100000
30
0.0
11
79.759991
21
2.400000
31
0.0
0
ARC
8
0
10
79.459991
20
2.400000
30
0.0
40
0.300000
50
270.000000
51
0.000000
0
LINE
8
0
10
79.459991
20
2.100000
30
0.0
11
66.560000
21
2.100000
31
0.0
0
ARC
8
0
10
66.560001
20
2.400001
30
0.0
40
0.300001
50
180.000000
51
270.000000
0
ATTDEF
8
0
10
60.260000
20
52.000000
30
0.0
40
3.5
1

3

2
VC_START
70
0
0
ATTDEF
8
0
10
60.260000
20
0.000000
30
0.0
40
3.5
1

3

2
VC_END
70
0
0
ATTDEF
8
0
10
0.000000
20
0.000000
30
0.0
40
3.5
1

3

2
GLASS_MIN:0.000000
70
0
0
ATTDEF
8
0
10
0.000000
20
0.000000
30
0.0
40
3.5
1

3

2
GLASS_MAX:0.000000
70
0
0
ATTDEF
8
0
10
0.000000
20
0.000000
30
0.0
40
3.5
1

3

2
HW_START
70
0
0
ATTDEF
8
0
10
82.759991
20
52.300000
30
0.0
40
3.5
1

3

2
HW_END
70
0
0
ATTDEF
8
0
10
0.000000
20
0.000000
30
0.0
40
3.5
1

3

2
PANE_WIDTH:0
70
0
0
ATTDEF
8
0
10
0.000000
20
0.000000
30
0.0
40
3.5
1

3

2
MIN_VETRO:0
70
0
0
ATTDEF
8
0
10
0.000000
20
0.000000
30
0.0
40
3.5
1

3

2
MAX_VETRO:0
70
0
0
ATTDEF
8
0
10
0.000000
20
0.000000
30
0.0
40
3.5
1

3

2
JX:0
70
0
0
ATTDEF
8
0
10
0.000000
20
0.000000
30
0.0
40
3.5
1

3

2
WX:0
70
0
0
ATTDEF
8
0
10
0.000000
20
0.000000
30
0.0
40
3.5
1

3

2
JY:0
70
0
0
ATTDEF
8
0
10
0.000000
20
0.000000
30
0.0
40
3.5
1

3

2
WY:0
70
0
0
ATTDEF
8
0
10
0.000000
20
0.000000
30
0.0
40
3.5
1

3

2
DESC:COR-9861 - COR-9843 - COR-9914 - COR-9142
70
0
0
ATTDEF
8
0
10
0.000000
20
0.000000
30
0.0
40
3.5
1

3

2
DENS:0
70
0
0
ATTDEF
8
0
10
0.000000
20
0.000000
30
0.0
40
3.5
1

3

2
TDEV:0
70
0
0
ATTDEF
8
0
10
0.000000
20
0.000000
30
0.0
40
3.5
1

3

2
TDEV2:0
70
0
0
ATTDEF
8
0
10
0.000000
20
0.000000
30
0.0
40
3.5
1

3

2
TDEV3:0
70
0
0
ATTDEF
8
0
10
0.000000
20
0.000000
30
0.0
40
3.5
1

3

2
TDEV4:0
70
0
0
ATTDEF
8
0
10
0.000000
20
0.000000
30
0.0
40
3.5
1

3

2
TDEV5:0
70
0
0
ATTDEF
8
0
10
0.000000
20
0.000000
30
0.0
40
3.5
1

3

2
PANE_WIDTH:0
70
0
0
ATTDEF
8
0
10
0.000000
20
0.000000
30
0.0
40
3.5
1

3

2
MIN_VETRO:0
70
0
0
ATTDEF
8
0
10
0.000000
20
0.000000
30
0.0
40
3.5
1

3

2
MAX_VETRO:0
70
0
0
ATTDEF
8
0
10
0.000000
20
0.000000
30
0.0
40
3.5
1

3

2
JX:0
70
0
0
ATTDEF
8
0
10
0.000000
20
0.000000
30
0.0
40
3.5
1

3

2
WX:0
70
0
0
ATTDEF
8
0
10
0.000000
20
0.000000
30
0.0
40
3.5
1

3

2
JY:0
70
0
0
ATTDEF
8
0
10
0.000000
20
0.000000
30
0.0
40
3.5
1

3

2
WY:0
70
0
0
ENDSEC
0
EOF
