0
SECTION
2
ENTITIES
0
LINE
8
0
10
1.400000
20
1.700000
30
0.0
11
1.400000
21
50.900000
31
0.0
0
LINE
8
0
10
1.400000
20
50.900000
30
0.0
11
4.653590
21
50.900000
31
0.0
0
LINE
8
0
10
4.653590
20
50.900000
30
0.0
11
5.073205
21
50.173205
31
0.0
0
LINE
8
0
10
5.073205
20
50.173205
30
0.0
11
6.332051
21
50.900000
31
0.0
0
LINE
8
0
10
6.332051
20
50.900000
30
0.0
11
14.000000
21
50.900000
31
0.0
0
LINE
8
0
10
14.000000
20
50.900000
30
0.0
11
14.000000
21
52.300000
31
0.0
0
LINE
8
0
10
14.000000
20
52.300000
30
0.0
11
1.000000
21
52.300000
31
0.0
0
ARC
8
0
10
1.000000
20
51.300000
30
0.0
40
1.000000
50
90.000000
51
180.000000
0
LINE
8
0
10
0.000000
20
51.300000
30
0.0
11
0.000000
21
1.300000
31
0.0
0
ARC
8
0
10
1.000000
20
1.300000
30
0.0
40
1.000000
50
180.000000
51
270.000000
0
LINE
8
0
10
1.000000
20
0.300000
30
0.0
11
14.000000
21
0.300000
31
0.0
0
LINE
8
0
10
14.000000
20
0.300000
30
0.0
11
14.000000
21
1.700000
31
0.0
0
LINE
8
0
10
14.000000
20
1.700000
30
0.0
11
6.332051
21
1.700000
31
0.0
0
LINE
8
0
10
6.332051
20
1.700000
30
0.0
11
5.073205
21
2.426795
31
0.0
0
LINE
8
0
10
5.073205
20
2.426795
30
0.0
11
4.653590
21
1.700000
31
0.0
0
LINE
8
0
10
4.653590
20
1.700000
30
0.0
11
1.400000
21
1.700000
31
0.0
0
ATTDEF
8
0
10
14.000000
20
52.300000
30
0.0
40
3.5
1

3

2
VC_START
70
0
0
ATTDEF
8
0
10
14.000000
20
0.300000
30
0.0
40
3.5
1

3

2
VC_END
70
0
0
LINE
8
0
10
8.500000
20
26.249964
30
0.0
11
8.500000
21
31.319668
31
0.0
0
ARC
8
0
10
8.800000
20
31.319666
30
0.0
40
0.300000
50
149.999911
51
180.000000
0
LINE
8
0
10
8.540192
20
31.469666
30
0.0
11
11.797919
21
39.964453
31
0.0
0
ARC
8
0
10
11.704549
20
40.000260
30
0.0
40
0.100000
50
339.018495
51
90.000000
0
LINE
8
0
10
11.704549
20
40.100260
30
0.0
11
9.499978
21
40.100260
31
0.0
0
ARC
8
0
10
9.499978
20
41.100238
30
0.0
40
0.999978
50
180.000000
51
270.000000
0
LINE
8
0
10
8.500000
20
41.100238
30
0.0
11
8.500000
21
46.801615
31
0.0
0
ARC
8
0
10
7.500461
20
46.801615
30
0.0
40
0.999539
50
0.000000
51
90.000000
0
LINE
8
0
10
7.500461
20
47.801154
30
0.0
11
2.000000
21
47.801154
31
0.0
0
ARC
8
0
10
2.000000
20
48.101154
30
0.0
40
0.300000
50
180.000000
51
270.000000
0
LINE
8
0
10
1.700000
20
48.101154
30
0.0
11
1.700000
21
49.033480
31
0.0
0
ARC
8
0
10
2.700000
20
49.033480
30
0.0
40
1.000000
50
99.019322
51
180.000000
0
LINE
8
0
10
2.543232
20
50.021115
30
0.0
11
4.300209
21
50.300000
31
0.0
0
LINE
8
0
10
4.300209
20
50.300000
30
0.0
11
5.000194
21
49.600016
31
0.0
0
LINE
8
0
10
5.000194
20
49.600016
30
0.0
11
6.212604
21
50.300000
31
0.0
0
LINE
8
0
10
6.212604
20
50.300000
30
0.0
11
13.500011
21
50.300000
31
0.0
0
ARC
8
0
10
13.500011
20
49.800011
30
0.0
40
0.499989
50
0.000000
51
90.000000
0
LINE
8
0
10
14.000000
20
49.800011
30
0.0
11
14.000000
21
47.610000
31
0.0
0
LINE
8
0
10
14.000000
20
47.610000
30
0.0
11
13.500000
21
47.110000
31
0.0
0
LINE
8
0
10
13.500000
20
47.110000
30
0.0
11
13.000000
21
47.110000
31
0.0
0
LINE
8
0
10
13.000000
20
47.110000
30
0.0
11
13.000000
21
49.000000
31
0.0
0
LINE
8
0
10
13.000000
20
49.000000
30
0.0
11
10.200000
21
49.000000
31
0.0
0
LINE
8
0
10
10.200000
20
49.000000
30
0.0
11
10.200000
21
41.600000
31
0.0
0
LINE
8
0
10
10.200000
20
41.600000
30
0.0
11
13.000000
21
41.600000
31
0.0
0
LINE
8
0
10
13.000000
20
41.600000
30
0.0
11
13.000000
21
43.990000
31
0.0
0
LINE
8
0
10
13.000000
20
43.990000
30
0.0
11
13.500000
21
43.990000
31
0.0
0
LINE
8
0
10
13.500000
20
43.990000
30
0.0
11
14.000000
21
43.490000
31
0.0
0
LINE
8
0
10
14.000000
20
43.490000
30
0.0
11
14.000000
21
40.100260
31
0.0
0
LINE
8
0
10
14.000000
20
40.100260
30
0.0
11
12.000000
21
30.804649
31
0.0
0
LINE
8
0
10
12.000000
20
30.804649
30
0.0
11
12.000000
21
21.195352
31
0.0
0
LINE
8
0
10
12.000000
20
21.195352
30
0.0
11
14.000000
21
11.899741
31
0.0
0
LINE
8
0
10
14.000000
20
11.899741
30
0.0
11
14.000000
21
8.510000
31
0.0
0
LINE
8
0
10
14.000000
20
8.510000
30
0.0
11
13.500000
21
8.010000
31
0.0
0
LINE
8
0
10
13.500000
20
8.010000
30
0.0
11
13.000000
21
8.010000
31
0.0
0
LINE
8
0
10
13.000000
20
8.010000
30
0.0
11
13.000000
21
10.400000
31
0.0
0
LINE
8
0
10
13.000000
20
10.400000
30
0.0
11
10.200000
21
10.400000
31
0.0
0
LINE
8
0
10
10.200000
20
10.400000
30
0.0
11
10.200000
21
3.000000
31
0.0
0
LINE
8
0
10
10.200000
20
3.000000
30
0.0
11
13.000000
21
3.000000
31
0.0
0
LINE
8
0
10
13.000000
20
3.000000
30
0.0
11
13.000000
21
4.890000
31
0.0
0
LINE
8
0
10
13.000000
20
4.890000
30
0.0
11
13.500000
21
4.890000
31
0.0
0
LINE
8
0
10
13.500000
20
4.890000
30
0.0
11
14.000000
21
4.390000
31
0.0
0
LINE
8
0
10
14.000000
20
4.390000
30
0.0
11
14.000000
21
2.199990
31
0.0
0
ARC
8
0
10
13.500011
20
2.199990
30
0.0
40
0.499989
50
270.000000
51
0.000000
0
LINE
8
0
10
13.500011
20
1.700000
30
0.0
11
6.212604
21
1.700000
31
0.0
0
LINE
8
0
10
6.212604
20
1.700000
30
0.0
11
5.000194
21
2.399985
31
0.0
0
LINE
8
0
10
5.000194
20
2.399985
30
0.0
11
4.300209
21
1.700000
31
0.0
0
LINE
8
0
10
4.300209
20
1.700000
30
0.0
11
2.543232
21
1.978886
31
0.0
0
ARC
8
0
10
2.700000
20
2.966521
30
0.0
40
1.000000
50
180.000000
51
260.980678
0
LINE
8
0
10
1.700000
20
2.966521
30
0.0
11
1.700000
21
3.898847
31
0.0
0
ARC
8
0
10
2.000000
20
3.898847
30
0.0
40
0.300000
50
90.000000
51
180.000000
0
LINE
8
0
10
2.000000
20
4.198847
30
0.0
11
7.500461
21
4.198847
31
0.0
0
ARC
8
0
10
7.500461
20
5.198386
30
0.0
40
0.999539
50
270.000000
51
0.000000
0
LINE
8
0
10
8.500000
20
5.198386
30
0.0
11
8.500000
21
10.899763
31
0.0
0
ARC
8
0
10
9.499978
20
10.899763
30
0.0
40
0.999978
50
90.000000
51
180.000000
0
LINE
8
0
10
9.499978
20
11.899741
30
0.0
11
11.704549
21
11.899741
31
0.0
0
ARC
8
0
10
11.704549
20
11.999741
30
0.0
40
0.100000
50
270.000000
51
20.981505
0
LINE
8
0
10
11.797919
20
12.035548
30
0.0
11
8.540192
21
20.530335
31
0.0
0
ARC
8
0
10
8.800000
20
20.680335
30
0.0
40
0.300000
50
180.000000
51
210.000089
0
LINE
8
0
10
8.500000
20
20.680333
30
0.0
11
8.500000
21
25.750037
31
0.0
0
LINE
8
0
10
8.500000
20
25.750037
30
0.0
11
8.699971
21
26.000000
31
0.0
0
LINE
8
0
10
8.699971
20
26.000000
30
0.0
11
8.500000
21
26.249964
31
0.0
0
ATTDEF
8
0
10
9.856307
20
50.300000
30
0.0
40
3.5
1

3

2
VC_START
70
0
0
ATTDEF
8
0
10
9.856307
20
1.700000
30
0.0
40
3.5
1

3

2
VC_END
70
0
0
ARC
8
0
10
33.834199
20
20.702716
30
0.0
40
0.300000
50
90.000000
51
217.852838
0
ARC
8
0
10
28.772380
20
17.506924
30
0.0
40
5.687742
50
324.223538
51
31.972167
0
ARC
8
0
10
32.980825
20
14.552716
30
0.0
40
0.550000
50
137.583333
51
317.583333
0
ARC
8
0
10
29.561294
20
17.268756
30
0.0
40
3.818429
50
322.110438
51
77.926068
0
LINE
8
0
10
30.360009
20
21.002716
30
0.0
11
33.834199
21
21.002716
31
0.0
0
ARC
8
0
10
33.834199
20
31.302716
30
0.0
40
0.300000
50
142.147162
51
270.000000
0
ARC
8
0
10
28.772380
20
34.498507
30
0.0
40
5.687742
50
328.027833
51
35.776462
0
ARC
8
0
10
32.980825
20
37.452716
30
0.0
40
0.550000
50
42.416667
51
222.416667
0
ARC
8
0
10
29.561294
20
34.736676
30
0.0
40
3.818429
50
282.073932
51
37.889562
0
LINE
8
0
10
30.360009
20
31.002716
30
0.0
11
33.834199
21
31.002716
31
0.0
0
ARC
8
0
10
43.834199
20
20.702716
30
0.0
40
0.300000
50
90.000000
51
217.852838
0
ARC
8
0
10
38.772380
20
17.506924
30
0.0
40
5.687742
50
324.223538
51
31.972167
0
ARC
8
0
10
42.980825
20
14.552716
30
0.0
40
0.550000
50
137.583333
51
317.583333
0
ARC
8
0
10
39.561294
20
17.268756
30
0.0
40
3.818429
50
322.110438
51
77.926068
0
LINE
8
0
10
40.360009
20
21.002716
30
0.0
11
43.834199
21
21.002716
31
0.0
0
ARC
8
0
10
43.834199
20
31.302716
30
0.0
40
0.300000
50
142.147162
51
270.000000
0
ARC
8
0
10
38.772380
20
34.498507
30
0.0
40
5.687742
50
328.027833
51
35.776462
0
ARC
8
0
10
42.980825
20
37.452716
30
0.0
40
0.550000
50
42.416667
51
222.416667
0
ARC
8
0
10
39.561294
20
34.736676
30
0.0
40
3.818429
50
282.073932
51
37.889562
0
LINE
8
0
10
40.360009
20
31.002716
30
0.0
11
43.834199
21
31.002716
31
0.0
0
ARC
8
0
10
53.834199
20
20.702716
30
0.0
40
0.300000
50
90.000000
51
217.852838
0
ARC
8
0
10
48.772380
20
17.506924
30
0.0
40
5.687742
50
324.223538
51
31.972167
0
ARC
8
0
10
52.980825
20
14.552716
30
0.0
40
0.550000
50
137.583333
51
317.583333
0
ARC
8
0
10
49.561294
20
17.268756
30
0.0
40
3.818429
50
322.110438
51
77.926068
0
LINE
8
0
10
50.360009
20
21.002716
30
0.0
11
53.834199
21
21.002716
31
0.0
0
ARC
8
0
10
53.834199
20
31.302716
30
0.0
40
0.300000
50
142.147162
51
270.000000
0
ARC
8
0
10
48.772380
20
34.498507
30
0.0
40
5.687742
50
328.027833
51
35.776462
0
ARC
8
0
10
52.980825
20
37.452716
30
0.0
40
0.550000
50
42.416667
51
222.416667
0
ARC
8
0
10
49.561294
20
34.736676
30
0.0
40
3.818429
50
282.073932
51
37.889562
0
LINE
8
0
10
50.360009
20
31.002716
30
0.0
11
53.834199
21
31.002716
31
0.0
0
LINE
8
0
10
43.210004
20
22.804074
30
0.0
11
43.210004
21
29.204074
31
0.0
0
ARC
8
0
10
43.510004
20
29.204074
30
0.0
40
0.300000
50
90.000000
51
180.000000
0
LINE
8
0
10
43.510004
20
29.504074
30
0.0
11
53.210004
21
29.504074
31
0.0
0
ARC
8
0
10
53.210004
20
29.004074
30
0.0
40
0.500000
50
0.000000
51
90.000000
0
LINE
8
0
10
53.710004
20
29.004074
30
0.0
11
53.710004
21
26.252716
31
0.0
0
LINE
8
0
10
53.710004
20
26.252716
30
0.0
11
54.010001
21
26.002716
31
0.0
0
LINE
8
0
10
54.010001
20
26.002716
30
0.0
11
53.710004
21
25.752716
31
0.0
0
LINE
8
0
10
53.710004
20
25.752716
30
0.0
11
53.710004
21
23.004074
31
0.0
0
ARC
8
0
10
53.210004
20
23.004074
30
0.0
40
0.500000
50
270.000000
51
0.000000
0
LINE
8
0
10
53.210004
20
22.504074
30
0.0
11
43.510004
21
22.504074
31
0.0
0
ARC
8
0
10
43.510004
20
22.804074
30
0.0
40
0.300000
50
180.000000
51
270.000000
0
ARC
8
0
10
67.760002
20
26.012995
30
0.0
40
0.200000
50
324.577352
51
35.420900
0
LINE
8
0
10
67.873841
20
25.860411
30
0.0
11
67.922982
21
25.897074
31
0.0
0
LINE
8
0
10
67.873841
20
25.860411
30
0.0
11
65.242686
21
24.960907
31
0.0
0
ARC
8
0
10
64.822155
20
26.191010
30
0.0
40
1.300000
50
274.415867
51
288.873845
0
ARC
8
0
10
61.134087
20
73.948818
30
0.0
40
49.200000
50
265.254864
51
274.415867
0
ARC
8
0
10
57.055545
20
26.012957
30
0.0
40
1.095541
50
90.000000
51
270.000000
0
ARC
8
0
10
61.134087
20
-21.922904
30
0.0
40
49.200000
50
85.583972
51
94.745136
0
ARC
8
0
10
64.822289
20
25.834893
30
0.0
40
1.300000
50
71.126913
51
85.583972
0
LINE
8
0
10
65.242804
20
27.065001
30
0.0
11
67.873841
21
26.165576
31
0.0
0
LINE
8
0
10
67.922986
20
26.128911
30
0.0
11
67.873841
21
26.165576
31
0.0
0
ARC
8
0
10
41.410004
20
29.204074
30
0.0
40
0.300000
50
0.000000
51
90.000000
0
LINE
8
0
10
41.710004
20
29.204074
30
0.0
11
41.710004
21
22.804074
31
0.0
0
ARC
8
0
10
41.410004
20
22.804074
30
0.0
40
0.300000
50
270.000000
51
0.000000
0
LINE
8
0
10
41.410004
20
22.504074
30
0.0
11
31.775011
21
22.504074
31
0.0
0
ARC
8
0
10
31.775011
20
22.804074
30
0.0
40
0.300000
50
157.500000
51
270.000000
0
LINE
8
0
10
31.497847
20
22.918879
30
0.0
11
32.494133
21
25.324127
31
0.0
0
ARC
8
0
10
30.831150
20
26.012957
30
0.0
40
1.800000
50
337.500000
51
22.500000
0
LINE
8
0
10
32.494133
20
26.701787
30
0.0
11
31.505206
21
29.089269
31
0.0
0
ARC
8
0
10
31.782369
20
29.204074
30
0.0
40
0.300000
50
90.000000
51
202.500000
0
LINE
8
0
10
31.782369
20
29.504074
30
0.0
11
41.410004
21
29.504074
31
0.0
0
ARC
8
0
10
62.060004
20
23.954080
30
0.0
40
0.249982
50
209.988832
51
330.002349
0
LINE
8
0
10
62.276500
20
23.829098
30
0.0
11
62.354208
21
23.963707
31
0.0
0
ARC
8
0
10
61.134087
20
73.948818
30
0.0
40
50.000000
50
271.398294
51
274.506051
0
ARC
8
0
10
64.944460
20
25.598729
30
0.0
40
1.500000
50
274.506051
51
288.873845
0
LINE
8
0
10
65.429688
20
24.179379
30
0.0
11
68.260002
21
25.146969
31
0.0
0
ARC
8
0
10
67.760002
20
26.012995
30
0.0
40
1.000000
50
299.999969
51
60.000031
0
LINE
8
0
10
68.260002
20
26.879021
30
0.0
11
65.429800
21
27.846530
31
0.0
0
ARC
8
0
10
64.944591
20
26.427174
30
0.0
40
1.500000
50
71.126913
51
85.493794
0
ARC
8
0
10
61.134087
20
-21.922904
30
0.0
40
50.000000
50
85.493794
51
88.601706
0
LINE
8
0
10
62.354208
20
28.062207
30
0.0
11
62.276500
21
28.196815
31
0.0
0
ARC
8
0
10
62.060004
20
28.071833
30
0.0
40
0.249982
50
29.997651
51
149.998311
0
LINE
8
0
10
61.843517
20
28.196831
30
0.0
11
61.772051
21
28.073026
31
0.0
0
ARC
8
0
10
61.134087
20
-21.922904
30
0.0
40
50.000000
50
89.268927
51
95.538610
0
ARC
8
0
10
56.260004
20
28.341331
30
0.0
40
0.500000
50
180.000000
51
275.538610
0
LINE
8
0
10
55.760004
20
28.341331
30
0.0
11
55.760004
21
30.704074
31
0.0
0
ARC
8
0
10
55.460004
20
30.704074
30
0.0
40
0.300000
50
0.000000
51
90.000000
0
LINE
8
0
10
55.460004
20
31.004074
30
0.0
11
26.060004
21
31.004074
31
0.0
0
ARC
8
0
10
26.060004
20
30.704074
30
0.0
40
0.300000
50
90.000000
51
180.000000
0
LINE
8
0
10
25.760004
20
30.704074
30
0.0
11
25.760004
21
28.913943
31
0.0
0
ARC
8
0
10
26.060004
20
28.913943
30
0.0
40
0.300000
50
180.000000
51
240.000122
0
LINE
8
0
10
25.910005
20
28.654135
30
0.0
11
26.760004
21
28.163390
31
0.0
0
ARC
8
0
10
26.910004
20
28.423198
30
0.0
40
0.300000
50
240.000122
51
0.000000
0
LINE
8
0
10
27.210004
20
28.423198
30
0.0
11
27.210008
21
29.504074
31
0.0
0
LINE
8
0
10
27.210008
20
29.504074
30
0.0
11
29.509346
21
29.504074
31
0.0
0
ARC
8
0
10
29.509346
20
29.204074
30
0.0
40
0.300000
50
22.500000
51
90.000000
0
LINE
8
0
10
29.786510
20
29.318879
30
0.0
11
31.108314
21
26.127762
31
0.0
0
ARC
8
0
10
30.831150
20
26.012957
30
0.0
40
0.300000
50
337.500000
51
22.500000
0
LINE
8
0
10
31.108314
20
25.898152
30
0.0
11
29.779151
21
22.689269
31
0.0
0
ARC
8
0
10
29.501987
20
22.804074
30
0.0
40
0.300000
50
270.000000
51
337.500000
0
LINE
8
0
10
29.501987
20
22.504074
30
0.0
11
27.210004
21
22.504074
31
0.0
0
LINE
8
0
10
27.210004
20
22.504074
30
0.0
11
27.210004
21
23.602716
31
0.0
0
ARC
8
0
10
26.910004
20
23.602716
30
0.0
40
0.300000
50
0.000000
51
119.999878
0
LINE
8
0
10
26.760004
20
23.862524
30
0.0
11
25.910005
21
23.371778
31
0.0
0
ARC
8
0
10
26.060004
20
23.111970
30
0.0
40
0.300000
50
119.999878
51
180.000000
0
LINE
8
0
10
25.760004
20
23.111970
30
0.0
11
25.760004
21
21.304074
31
0.0
0
ARC
8
0
10
26.060004
20
21.304074
30
0.0
40
0.300000
50
180.000000
51
270.000000
0
LINE
8
0
10
26.060004
20
21.004074
30
0.0
11
55.460004
21
21.004074
31
0.0
0
ARC
8
0
10
55.460004
20
21.304074
30
0.0
40
0.300000
50
270.000000
51
0.000000
0
LINE
8
0
10
55.760004
20
21.304074
30
0.0
11
55.760004
21
23.684583
31
0.0
0
ARC
8
0
10
56.260004
20
23.684583
30
0.0
40
0.500000
50
84.461390
51
180.000000
0
ARC
8
0
10
61.134087
20
73.948818
30
0.0
40
50.000000
50
264.461390
51
270.731073
0
LINE
8
0
10
61.772051
20
23.952888
30
0.0
11
61.843517
21
23.829083
31
0.0
0
LINE
8
0
10
19.760000
20
23.111971
30
0.0
11
19.760004
21
21.302716
31
0.0
0
ARC
8
0
10
20.060004
20
21.302716
30
0.0
40
0.300000
50
180.000000
51
270.000000
0
LINE
8
0
10
20.060004
20
21.002716
30
0.0
11
25.260004
21
21.002716
31
0.0
0
ARC
8
0
10
25.260004
20
21.502716
30
0.0
40
0.500000
50
270.000000
51
0.000000
0
LINE
8
0
10
25.760004
20
21.502716
30
0.0
11
25.760004
21
22.200000
31
0.0
0
ARC
8
0
10
25.460004
20
22.200000
30
0.0
40
0.300000
50
0.000000
51
90.000000
0
LINE
8
0
10
25.460004
20
22.500000
30
0.0
11
25.210004
21
22.500000
31
0.0
0
LINE
8
0
10
25.210004
20
22.500000
30
0.0
11
25.210004
21
23.701358
31
0.0
0
ARC
8
0
10
25.410004
20
23.701358
30
0.0
40
0.200000
50
90.000000
51
180.000000
0
LINE
8
0
10
25.410004
20
23.901358
30
0.0
11
27.510009
21
23.901358
31
0.0
0
LINE
8
0
10
27.510009
20
23.901358
30
0.0
11
27.510009
21
23.501358
31
0.0
0
ARC
8
0
10
27.810009
20
23.501358
30
0.0
40
0.300000
50
180.000000
51
300.000000
0
LINE
8
0
10
27.960009
20
23.241550
30
0.0
11
29.563288
21
24.167204
31
0.0
0
ARC
8
0
10
29.366572
20
24.507926
30
0.0
40
0.393432
50
300.000000
51
90.000000
0
LINE
8
0
10
29.366572
20
24.901358
30
0.0
11
25.410004
21
24.901358
31
0.0
0
ARC
8
0
10
25.410004
20
25.101358
30
0.0
40
0.200000
50
180.000000
51
270.000000
0
LINE
8
0
10
25.210004
20
25.101358
30
0.0
11
25.210004
21
26.901358
31
0.0
0
ARC
8
0
10
25.410004
20
26.901358
30
0.0
40
0.200000
50
90.000000
51
180.000000
0
LINE
8
0
10
25.410004
20
27.101358
30
0.0
11
29.366572
21
27.101358
31
0.0
0
ARC
8
0
10
29.366572
20
27.494790
30
0.0
40
0.393432
50
270.000000
51
60.000000
0
LINE
8
0
10
29.563288
20
27.835512
30
0.0
11
27.960009
21
28.761166
31
0.0
0
ARC
8
0
10
27.810009
20
28.501358
30
0.0
40
0.300000
50
60.000000
51
180.000000
0
LINE
8
0
10
27.510009
20
28.501358
30
0.0
11
27.510009
21
28.101358
31
0.0
0
LINE
8
0
10
27.510009
20
28.101358
30
0.0
11
25.410004
21
28.101358
31
0.0
0
ARC
8
0
10
25.410004
20
28.301358
30
0.0
40
0.200000
50
180.000000
51
270.000000
0
LINE
8
0
10
25.210004
20
28.301358
30
0.0
11
25.210004
21
29.502716
31
0.0
0
LINE
8
0
10
25.210004
20
29.502716
30
0.0
11
25.460004
21
29.502716
31
0.0
0
ARC
8
0
10
25.460004
20
29.802716
30
0.0
40
0.300000
50
270.000000
51
0.000000
0
LINE
8
0
10
25.760004
20
29.802716
30
0.0
11
25.760004
21
30.500000
31
0.0
0
ARC
8
0
10
25.260004
20
30.500000
30
0.0
40
0.500000
50
0.000000
51
90.000000
0
LINE
8
0
10
25.260004
20
31.000000
30
0.0
11
20.060004
21
31.000000
31
0.0
0
ARC
8
0
10
20.060004
20
30.700000
30
0.0
40
0.300000
50
90.000000
51
180.000000
0
LINE
8
0
10
19.760004
20
30.700000
30
0.0
11
19.760000
21
28.890745
31
0.0
0
ARC
8
0
10
20.060000
20
28.890745
30
0.0
40
0.300000
50
180.000000
51
240.000120
0
LINE
8
0
10
19.910001
20
28.630937
30
0.0
11
20.760001
21
28.140192
31
0.0
0
ARC
8
0
10
20.910000
20
28.400000
30
0.0
40
0.300000
50
240.000122
51
0.000000
0
LINE
8
0
10
21.210000
20
28.400000
30
0.0
11
21.210005
21
29.500000
31
0.0
0
LINE
8
0
10
21.210005
20
29.500000
30
0.0
11
23.710004
21
29.500000
31
0.0
0
LINE
8
0
10
23.710004
20
29.500000
30
0.0
11
23.710004
21
22.502716
31
0.0
0
LINE
8
0
10
23.710004
20
22.502716
30
0.0
11
21.210005
21
22.502716
31
0.0
0
LINE
8
0
10
21.210005
20
22.502716
30
0.0
11
21.210000
21
23.602716
31
0.0
0
ARC
8
0
10
20.910000
20
23.602716
30
0.0
40
0.300000
50
0.000000
51
119.999878
0
LINE
8
0
10
20.760001
20
23.862524
30
0.0
11
19.910001
21
23.371779
31
0.0
0
ARC
8
0
10
20.060000
20
23.111971
30
0.0
40
0.300000
50
119.999878
51
180.000000
0
ATTDEF
8
0
10
22.660004
20
31.000000
30
0.0
40
3.5
1

3

2
VC_START
70
0
0
ATTDEF
8
0
10
22.660004
20
21.002716
30
0.0
40
3.5
1

3

2
VC_END
70
0
0
LINE
8
0
10
266.060000
20
27.000000
30
0.0
11
266.060000
21
25.000000
31
0.0
0
ARC
8
0
10
266.660000
20
25.000000
30
0.0
40
0.600000
50
180.000000
51
280.000000
0
LINE
8
0
10
266.764189
20
24.409116
30
0.0
11
268.824204
21
24.772352
31
0.0
0
ARC
8
0
10
268.933070
20
24.154946
30
0.0
40
0.626931
50
0.000000
51
100.000000
0
LINE
8
0
10
269.560000
20
24.154946
30
0.0
11
269.560000
21
2.400000
31
0.0
0
ARC
8
0
10
269.260000
20
2.400000
30
0.0
40
0.300000
50
270.000000
51
0.000000
0
LINE
8
0
10
269.260000
20
2.100000
30
0.0
11
255.060000
21
2.100000
31
0.0
0
LINE
8
0
10
255.060000
20
2.100000
30
0.0
11
255.060000
21
4.250000
31
0.0
0
LINE
8
0
10
255.060000
20
4.250000
30
0.0
11
253.560000
21
4.250000
31
0.0
0
LINE
8
0
10
253.560000
20
4.250000
30
0.0
11
253.560000
21
2.200000
31
0.0
0
LINE
8
0
10
253.560000
20
2.200000
30
0.0
11
84.760000
21
2.200000
31
0.0
0
LINE
8
0
10
84.760000
20
2.200000
30
0.0
11
84.760000
21
4.250000
31
0.0
0
LINE
8
0
10
84.760000
20
4.250000
30
0.0
11
83.260000
21
4.250000
31
0.0
0
LINE
8
0
10
83.260000
20
4.250000
30
0.0
11
83.260000
21
2.200000
31
0.0
0
LINE
8
0
10
83.260000
20
2.200000
30
0.0
11
72.560000
21
2.200000
31
0.0
0
ARC
8
0
10
72.560001
20
2.500001
30
0.0
40
0.300001
50
180.000000
51
270.000000
0
LINE
8
0
10
72.260000
20
2.500002
30
0.0
11
72.260000
21
49.499999
31
0.0
0
ARC
8
0
10
72.560001
20
49.500000
30
0.0
40
0.300001
50
90.000000
51
180.000000
0
LINE
8
0
10
72.560000
20
49.800000
30
0.0
11
83.260000
21
49.800000
31
0.0
0
LINE
8
0
10
83.260000
20
49.800000
30
0.0
11
83.260000
21
47.750000
31
0.0
0
LINE
8
0
10
83.260000
20
47.750000
30
0.0
11
84.760000
21
47.750000
31
0.0
0
LINE
8
0
10
84.760000
20
47.750000
30
0.0
11
84.760000
21
49.800000
31
0.0
0
LINE
8
0
10
84.760000
20
49.800000
30
0.0
11
253.560000
21
49.800000
31
0.0
0
LINE
8
0
10
253.560000
20
49.800000
30
0.0
11
253.560000
21
47.750000
31
0.0
0
LINE
8
0
10
253.560000
20
47.750000
30
0.0
11
255.060000
21
47.750000
31
0.0
0
LINE
8
0
10
255.060000
20
47.750000
30
0.0
11
255.060000
21
49.900000
31
0.0
0
LINE
8
0
10
255.060000
20
49.900000
30
0.0
11
269.260000
21
49.900000
31
0.0
0
ARC
8
0
10
269.260000
20
49.600000
30
0.0
40
0.300000
50
0.000000
51
90.000000
0
LINE
8
0
10
269.560000
20
49.600000
30
0.0
11
269.560000
21
27.845055
31
0.0
0
ARC
8
0
10
268.932939
20
27.845116
30
0.0
40
0.627062
50
260.014290
51
0.000000
0
LINE
8
0
10
268.824204
20
27.227554
30
0.0
11
266.764189
21
27.590885
31
0.0
0
ARC
8
0
10
266.660000
20
27.000000
30
0.0
40
0.600000
50
80.000000
51
180.000000
0
LINE
8
0
10
55.760000
20
22.700001
30
0.0
11
57.009999
21
23.950000
31
0.0
0
LINE
8
0
10
57.009999
20
23.950000
30
0.0
11
57.969253
21
23.950000
31
0.0
0
ARC
8
0
10
57.969253
20
23.750000
30
0.0
40
0.200000
50
30.000000
51
90.000000
0
LINE
8
0
10
58.142458
20
23.850000
30
0.0
11
58.286795
21
23.600000
31
0.0
0
ARC
8
0
10
58.460000
20
23.700000
30
0.0
40
0.200000
50
210.000000
51
330.000000
0
LINE
8
0
10
58.633205
20
23.600000
30
0.0
11
58.777543
21
23.850000
31
0.0
0
ARC
8
0
10
58.950748
20
23.750000
30
0.0
40
0.200000
50
90.000000
51
150.000000
0
LINE
8
0
10
58.950748
20
23.950000
30
0.0
11
59.769253
21
23.950000
31
0.0
0
ARC
8
0
10
59.769253
20
23.750000
30
0.0
40
0.200000
50
30.000000
51
90.000000
0
LINE
8
0
10
59.942458
20
23.850000
30
0.0
11
60.086795
21
23.600000
31
0.0
0
ARC
8
0
10
60.260000
20
23.700000
30
0.0
40
0.200000
50
210.000000
51
330.000000
0
LINE
8
0
10
60.433205
20
23.600000
30
0.0
11
60.577543
21
23.850000
31
0.0
0
ARC
8
0
10
60.750748
20
23.750000
30
0.0
40
0.200000
50
90.000000
51
150.000000
0
LINE
8
0
10
60.750748
20
23.950000
30
0.0
11
61.569253
21
23.950000
31
0.0
0
ARC
8
0
10
61.569253
20
23.750000
30
0.0
40
0.200000
50
30.000000
51
90.000000
0
LINE
8
0
10
61.742458
20
23.850000
30
0.0
11
61.886795
21
23.600000
31
0.0
0
ARC
8
0
10
62.060000
20
23.700000
30
0.0
40
0.200000
50
210.000000
51
330.000000
0
LINE
8
0
10
62.233205
20
23.600000
30
0.0
11
62.377543
21
23.850000
31
0.0
0
ARC
8
0
10
62.550748
20
23.750000
30
0.0
40
0.200000
50
90.000000
51
150.000000
0
LINE
8
0
10
62.550748
20
23.950000
30
0.0
11
63.369253
21
23.950000
31
0.0
0
ARC
8
0
10
63.369253
20
23.750000
30
0.0
40
0.200000
50
30.000000
51
90.000000
0
LINE
8
0
10
63.542458
20
23.850000
30
0.0
11
63.686795
21
23.600000
31
0.0
0
ARC
8
0
10
63.860000
20
23.700000
30
0.0
40
0.200000
50
210.000000
51
330.000000
0
LINE
8
0
10
64.033205
20
23.600000
30
0.0
11
64.177543
21
23.850000
31
0.0
0
ARC
8
0
10
64.350748
20
23.750000
30
0.0
40
0.200000
50
90.000000
51
150.000000
0
LINE
8
0
10
64.350748
20
23.950000
30
0.0
11
65.169253
21
23.950000
31
0.0
0
ARC
8
0
10
65.169253
20
23.750000
30
0.0
40
0.200000
50
30.000000
51
90.000000
0
LINE
8
0
10
65.342458
20
23.850000
30
0.0
11
65.486795
21
23.600000
31
0.0
0
ARC
8
0
10
65.660000
20
23.700000
30
0.0
40
0.200000
50
210.000000
51
330.000000
0
LINE
8
0
10
65.833205
20
23.600000
30
0.0
11
65.977543
21
23.850000
31
0.0
0
ARC
8
0
10
66.150748
20
23.750000
30
0.0
40
0.200000
50
90.000000
51
150.000000
0
LINE
8
0
10
66.150748
20
23.950000
30
0.0
11
66.969253
21
23.950000
31
0.0
0
ARC
8
0
10
66.969253
20
23.750000
30
0.0
40
0.200000
50
30.000000
51
90.000000
0
LINE
8
0
10
67.142458
20
23.850000
30
0.0
11
67.286795
21
23.600000
31
0.0
0
ARC
8
0
10
67.460000
20
23.700000
30
0.0
40
0.200000
50
210.000000
51
330.000000
0
LINE
8
0
10
67.633205
20
23.600000
30
0.0
11
67.719808
21
23.750000
31
0.0
0
ARC
8
0
10
67.979757
20
23.599760
30
0.0
40
0.300243
50
90.000000
51
149.973890
0
LINE
8
0
10
67.981145
20
23.900000
30
0.0
11
68.560000
21
23.900000
31
0.0
0
ARC
8
0
10
68.574247
20
25.488137
30
0.0
40
1.588201
50
269.486022
51
356.818757
0
LINE
8
0
10
70.160000
20
25.400000
30
0.0
11
70.160000
21
26.600001
31
0.0
0
ARC
8
0
10
68.574247
20
26.511864
30
0.0
40
1.588201
50
3.181243
51
90.513978
0
LINE
8
0
10
68.560000
20
28.100001
30
0.0
11
67.079615
21
28.100001
31
0.0
0
ARC
8
0
10
67.079615
20
28.400001
30
0.0
40
0.300000
50
210.000000
51
270.000000
0
LINE
8
0
10
66.819808
20
28.250001
30
0.0
11
66.733205
21
28.400001
31
0.0
0
ARC
8
0
10
66.560000
20
28.300001
30
0.0
40
0.200000
50
30.000000
51
150.000000
0
LINE
8
0
10
66.386795
20
28.400001
30
0.0
11
66.242458
21
28.150000
31
0.0
0
ARC
8
0
10
66.069253
20
28.250000
30
0.0
40
0.200000
50
270.000000
51
330.000000
0
LINE
8
0
10
66.069253
20
28.050000
30
0.0
11
65.250748
21
28.050000
31
0.0
0
ARC
8
0
10
65.250748
20
28.250000
30
0.0
40
0.200000
50
210.000000
51
270.000000
0
LINE
8
0
10
65.077543
20
28.150000
30
0.0
11
64.933205
21
28.400001
31
0.0
0
ARC
8
0
10
64.760000
20
28.300001
30
0.0
40
0.200000
50
30.000000
51
150.000000
0
LINE
8
0
10
64.586795
20
28.400001
30
0.0
11
64.442458
21
28.150000
31
0.0
0
ARC
8
0
10
64.269253
20
28.250000
30
0.0
40
0.200000
50
270.000000
51
330.000000
0
LINE
8
0
10
64.269253
20
28.050000
30
0.0
11
63.450748
21
28.050000
31
0.0
0
ARC
8
0
10
63.450748
20
28.250000
30
0.0
40
0.200000
50
210.000000
51
270.000000
0
LINE
8
0
10
63.277543
20
28.150000
30
0.0
11
63.133205
21
28.400001
31
0.0
0
ARC
8
0
10
62.960000
20
28.300001
30
0.0
40
0.200000
50
30.000000
51
150.000000
0
LINE
8
0
10
62.786795
20
28.400001
30
0.0
11
62.642458
21
28.150000
31
0.0
0
ARC
8
0
10
62.469253
20
28.250000
30
0.0
40
0.200000
50
270.000000
51
330.000000
0
LINE
8
0
10
62.469253
20
28.050000
30
0.0
11
61.650748
21
28.050000
31
0.0
0
ARC
8
0
10
61.650748
20
28.250000
30
0.0
40
0.200000
50
210.000000
51
270.000000
0
LINE
8
0
10
61.477543
20
28.150000
30
0.0
11
61.333205
21
28.400001
31
0.0
0
ARC
8
0
10
61.160000
20
28.300001
30
0.0
40
0.200000
50
30.000000
51
150.000000
0
LINE
8
0
10
60.986795
20
28.400001
30
0.0
11
60.842458
21
28.150000
31
0.0
0
ARC
8
0
10
60.669253
20
28.250000
30
0.0
40
0.200000
50
270.000000
51
330.000000
0
LINE
8
0
10
60.669253
20
28.050000
30
0.0
11
59.850748
21
28.050000
31
0.0
0
ARC
8
0
10
59.850748
20
28.250000
30
0.0
40
0.200000
50
210.000000
51
270.000000
0
LINE
8
0
10
59.677543
20
28.150000
30
0.0
11
59.533205
21
28.400001
31
0.0
0
ARC
8
0
10
59.360000
20
28.300001
30
0.0
40
0.200000
50
30.000000
51
150.000000
0
LINE
8
0
10
59.186795
20
28.400001
30
0.0
11
59.042458
21
28.150000
31
0.0
0
ARC
8
0
10
58.869253
20
28.250000
30
0.0
40
0.200000
50
270.000000
51
330.000000
0
LINE
8
0
10
58.869253
20
28.050000
30
0.0
11
58.050748
21
28.050000
31
0.0
0
ARC
8
0
10
58.050748
20
28.250000
30
0.0
40
0.200000
50
210.000000
51
270.000000
0
LINE
8
0
10
57.877543
20
28.150000
30
0.0
11
57.733205
21
28.400001
31
0.0
0
ARC
8
0
10
57.560000
20
28.300001
30
0.0
40
0.200000
50
30.000000
51
150.000000
0
LINE
8
0
10
57.386795
20
28.400001
30
0.0
11
57.242458
21
28.150000
31
0.0
0
ARC
8
0
10
57.069253
20
28.250000
30
0.0
40
0.200000
50
270.000000
51
330.000000
0
LINE
8
0
10
57.069253
20
28.050000
30
0.0
11
57.009999
21
28.050000
31
0.0
0
LINE
8
0
10
57.009999
20
28.050000
30
0.0
11
55.760000
21
29.299999
31
0.0
0
LINE
8
0
10
55.760000
20
29.299999
30
0.0
11
55.760000
21
31.000000
31
0.0
0
LINE
8
0
10
55.760000
20
31.000000
30
0.0
11
69.160000
21
31.000000
31
0.0
0
ARC
8
0
10
69.160000
20
32.000000
30
0.0
40
1.000000
50
270.000000
51
0.000000
0
LINE
8
0
10
70.160000
20
32.000000
30
0.0
11
70.160000
21
35.300000
31
0.0
0
LINE
8
0
10
70.160000
20
35.300000
30
0.0
11
70.460000
21
35.600000
31
0.0
0
LINE
8
0
10
70.460000
20
35.600000
30
0.0
11
70.160000
21
35.900000
31
0.0
0
LINE
8
0
10
70.160000
20
35.900000
30
0.0
11
70.160000
21
39.200000
31
0.0
0
ARC
8
0
10
68.660000
20
39.200000
30
0.0
40
1.500000
50
0.000000
51
90.000000
0
LINE
8
0
10
68.660000
20
40.700000
30
0.0
11
68.260000
21
40.700000
31
0.0
0
ARC
8
0
10
68.260000
20
40.200000
30
0.0
40
0.500000
50
90.000000
51
180.000000
0
LINE
8
0
10
67.760000
20
40.200000
30
0.0
11
67.760000
21
39.400000
31
0.0
0
LINE
8
0
10
67.760000
20
39.400000
30
0.0
11
66.560000
21
39.400000
31
0.0
0
ARC
8
0
10
66.560000
20
39.700000
30
0.0
40
0.300000
50
180.000000
51
270.000000
0
LINE
8
0
10
66.260000
20
39.700000
30
0.0
11
66.260000
21
45.190000
31
0.0
0
LINE
8
0
10
66.260000
20
45.190000
30
0.0
11
66.760000
21
45.690000
31
0.0
0
LINE
8
0
10
66.760000
20
45.690000
30
0.0
11
67.260000
21
45.690000
31
0.0
0
LINE
8
0
10
67.260000
20
45.690000
30
0.0
11
67.260000
21
42.200000
31
0.0
0
LINE
8
0
10
67.260000
20
42.200000
30
0.0
11
70.160000
21
42.200000
31
0.0
0
LINE
8
0
10
70.160000
20
42.200000
30
0.0
11
70.160000
21
46.150000
31
0.0
0
LINE
8
0
10
70.160000
20
46.150000
30
0.0
11
70.460000
21
46.450000
31
0.0
0
LINE
8
0
10
70.460000
20
46.450000
30
0.0
11
70.160000
21
46.750000
31
0.0
0
LINE
8
0
10
70.160000
20
46.750000
30
0.0
11
70.160000
21
50.700000
31
0.0
0
LINE
8
0
10
70.160000
20
50.700000
30
0.0
11
67.260000
21
50.700000
31
0.0
0
LINE
8
0
10
67.260000
20
50.700000
30
0.0
11
67.260000
21
48.810000
31
0.0
0
LINE
8
0
10
67.260000
20
48.810000
30
0.0
11
66.760000
21
48.810000
31
0.0
0
LINE
8
0
10
66.760000
20
48.810000
30
0.0
11
66.260000
21
49.310000
31
0.0
0
LINE
8
0
10
66.260000
20
49.310000
30
0.0
11
66.260000
21
52.000000
31
0.0
0
LINE
8
0
10
66.260000
20
52.000000
30
0.0
11
271.560000
21
52.000000
31
0.0
0
ARC
8
0
10
271.560000
20
51.500000
30
0.0
40
0.500000
50
0.000000
51
90.000000
0
LINE
8
0
10
272.060000
20
51.500000
30
0.0
11
272.060000
21
0.500000
31
0.0
0
ARC
8
0
10
271.560000
20
0.500000
30
0.0
40
0.500000
50
270.000000
51
0.000000
0
LINE
8
0
10
271.560000
20
0.000000
30
0.0
11
66.260000
21
0.000000
31
0.0
0
LINE
8
0
10
66.260000
20
0.000000
30
0.0
11
66.260000
21
2.690000
31
0.0
0
LINE
8
0
10
66.260000
20
2.690000
30
0.0
11
66.760000
21
3.190000
31
0.0
0
LINE
8
0
10
66.760000
20
3.190000
30
0.0
11
67.260000
21
3.190000
31
0.0
0
LINE
8
0
10
67.260000
20
3.190000
30
0.0
11
67.260000
21
1.300000
31
0.0
0
LINE
8
0
10
67.260000
20
1.300000
30
0.0
11
70.160000
21
1.300000
31
0.0
0
LINE
8
0
10
70.160000
20
1.300000
30
0.0
11
70.160000
21
5.250000
31
0.0
0
LINE
8
0
10
70.160000
20
5.250000
30
0.0
11
70.460000
21
5.550000
31
0.0
0
LINE
8
0
10
70.460000
20
5.550000
30
0.0
11
70.160000
21
5.850000
31
0.0
0
LINE
8
0
10
70.160000
20
5.850000
30
0.0
11
70.160000
21
9.800000
31
0.0
0
LINE
8
0
10
70.160000
20
9.800000
30
0.0
11
67.260000
21
9.800000
31
0.0
0
LINE
8
0
10
67.260000
20
9.800000
30
0.0
11
67.260000
21
6.310000
31
0.0
0
LINE
8
0
10
67.260000
20
6.310000
30
0.0
11
66.760000
21
6.310000
31
0.0
0
LINE
8
0
10
66.760000
20
6.310000
30
0.0
11
66.260000
21
6.810000
31
0.0
0
LINE
8
0
10
66.260000
20
6.810000
30
0.0
11
66.260000
21
12.300000
31
0.0
0
ARC
8
0
10
66.560000
20
12.300000
30
0.0
40
0.300000
50
90.000000
51
180.000000
0
LINE
8
0
10
66.560000
20
12.600000
30
0.0
11
67.760000
21
12.600000
31
0.0
0
LINE
8
0
10
67.760000
20
12.600000
30
0.0
11
67.760000
21
11.800000
31
0.0
0
ARC
8
0
10
68.260406
20
11.800406
30
0.0
40
0.500405
50
180.000000
51
270.000000
0
LINE
8
0
10
68.260000
20
11.300000
30
0.0
11
68.660000
21
11.300000
31
0.0
0
ARC
8
0
10
68.660000
20
12.800000
30
0.0
40
1.500000
50
270.000000
51
0.000000
0
LINE
8
0
10
70.160000
20
12.800000
30
0.0
11
70.160000
21
16.100000
31
0.0
0
LINE
8
0
10
70.160000
20
16.100000
30
0.0
11
70.460000
21
16.400000
31
0.0
0
LINE
8
0
10
70.460000
20
16.400000
30
0.0
11
70.160000
21
16.700000
31
0.0
0
LINE
8
0
10
70.160000
20
16.700000
30
0.0
11
70.160000
21
20.000000
31
0.0
0
ARC
8
0
10
69.160000
20
20.000000
30
0.0
40
1.000000
50
0.000000
51
90.000000
0
LINE
8
0
10
69.160000
20
21.000000
30
0.0
11
55.760000
21
21.000000
31
0.0
0
LINE
8
0
10
55.760000
20
21.000000
30
0.0
11
55.760000
21
22.700001
31
0.0
0
ATTDEF
8
0
10
66.260000
20
52.000000
30
0.0
40
3.5
1

3

2
VC_START
70
0
0
ATTDEF
8
0
10
66.260000
20
0.000000
30
0.0
40
3.5
1

3

2
VC_END
70
0
0
ATTDEF
8
0
10
0.000000
20
0.000000
30
0.0
40
3.5
1

3

2
GLASS_MIN:0.000000
70
0
0
ATTDEF
8
0
10
0.000000
20
0.000000
30
0.0
40
3.5
1

3

2
GLASS_MAX:0.000000
70
0
0
ATTDEF
8
0
10
0.000000
20
0.000000
30
0.0
40
3.5
1

3

2
HW_START
70
0
0
ATTDEF
8
0
10
272.060000
20
52.300000
30
0.0
40
3.5
1

3

2
HW_END
70
0
0
ATTDEF
8
0
10
0.000000
20
0.000000
30
0.0
40
3.5
1

3

2
PANE_WIDTH:0
70
0
0
ATTDEF
8
0
10
0.000000
20
0.000000
30
0.0
40
3.5
1

3

2
MIN_VETRO:0
70
0
0
ATTDEF
8
0
10
0.000000
20
0.000000
30
0.0
40
3.5
1

3

2
MAX_VETRO:0
70
0
0
ATTDEF
8
0
10
0.000000
20
0.000000
30
0.0
40
3.5
1

3

2
JX:0
70
0
0
ATTDEF
8
0
10
0.000000
20
0.000000
30
0.0
40
3.5
1

3

2
WX:0
70
0
0
ATTDEF
8
0
10
0.000000
20
0.000000
30
0.0
40
3.5
1

3

2
JY:0
70
0
0
ATTDEF
8
0
10
0.000000
20
0.000000
30
0.0
40
3.5
1

3

2
WY:0
70
0
0
ATTDEF
8
0
10
0.000000
20
0.000000
30
0.0
40
3.5
1

3

2
DESC:COR-9858 - COR-9840 - COR-9843 - COR-9914 - COR-9142
70
0
0
ATTDEF
8
0
10
0.000000
20
0.000000
30
0.0
40
3.5
1

3

2
DENS:0
70
0
0
ATTDEF
8
0
10
0.000000
20
0.000000
30
0.0
40
3.5
1

3

2
TDEV:0
70
0
0
ATTDEF
8
0
10
0.000000
20
0.000000
30
0.0
40
3.5
1

3

2
TDEV2:0
70
0
0
ATTDEF
8
0
10
0.000000
20
0.000000
30
0.0
40
3.5
1

3

2
TDEV3:0
70
0
0
ATTDEF
8
0
10
0.000000
20
0.000000
30
0.0
40
3.5
1

3

2
TDEV4:0
70
0
0
ATTDEF
8
0
10
0.000000
20
0.000000
30
0.0
40
3.5
1

3

2
TDEV5:0
70
0
0
ATTDEF
8
0
10
0.000000
20
0.000000
30
0.0
40
3.5
1

3

2
PANE_WIDTH:0
70
0
0
ATTDEF
8
0
10
0.000000
20
0.000000
30
0.0
40
3.5
1

3

2
MIN_VETRO:0
70
0
0
ATTDEF
8
0
10
0.000000
20
0.000000
30
0.0
40
3.5
1

3

2
MAX_VETRO:0
70
0
0
ATTDEF
8
0
10
0.000000
20
0.000000
30
0.0
40
3.5
1

3

2
JX:0
70
0
0
ATTDEF
8
0
10
0.000000
20
0.000000
30
0.0
40
3.5
1

3

2
WX:0
70
0
0
ATTDEF
8
0
10
0.000000
20
0.000000
30
0.0
40
3.5
1

3

2
JY:0
70
0
0
ATTDEF
8
0
10
0.000000
20
0.000000
30
0.0
40
3.5
1

3

2
WY:0
70
0
0
ENDSEC
0
EOF
