0
SECTION
2
ENTITIES
0
LINE
8
0
10
1.400000
20
1.700000
30
0.0
11
1.400000
21
50.900000
31
0.0
0
LINE
8
0
10
1.400000
20
50.900000
30
0.0
11
4.653590
21
50.900000
31
0.0
0
LINE
8
0
10
4.653590
20
50.900000
30
0.0
11
5.073205
21
50.173205
31
0.0
0
LINE
8
0
10
5.073205
20
50.173205
30
0.0
11
6.332051
21
50.900000
31
0.0
0
LINE
8
0
10
6.332051
20
50.900000
30
0.0
11
14.000000
21
50.900000
31
0.0
0
LINE
8
0
10
14.000000
20
50.900000
30
0.0
11
14.000000
21
52.300000
31
0.0
0
LINE
8
0
10
14.000000
20
52.300000
30
0.0
11
1.000000
21
52.300000
31
0.0
0
ARC
8
0
10
1.000000
20
51.300000
30
0.0
40
1.000000
50
90.000000
51
180.000000
0
LINE
8
0
10
0.000000
20
51.300000
30
0.0
11
0.000000
21
1.300000
31
0.0
0
ARC
8
0
10
1.000000
20
1.300000
30
0.0
40
1.000000
50
180.000000
51
270.000000
0
LINE
8
0
10
1.000000
20
0.300000
30
0.0
11
14.000000
21
0.300000
31
0.0
0
LINE
8
0
10
14.000000
20
0.300000
30
0.0
11
14.000000
21
1.700000
31
0.0
0
LINE
8
0
10
14.000000
20
1.700000
30
0.0
11
6.332051
21
1.700000
31
0.0
0
LINE
8
0
10
6.332051
20
1.700000
30
0.0
11
5.073205
21
2.426795
31
0.0
0
LINE
8
0
10
5.073205
20
2.426795
30
0.0
11
4.653590
21
1.700000
31
0.0
0
LINE
8
0
10
4.653590
20
1.700000
30
0.0
11
1.400000
21
1.700000
31
0.0
0
ATTDEF
8
0
10
14.000000
20
52.300000
30
0.0
40
3.5
1

3

2
VC_START
70
0
0
ATTDEF
8
0
10
14.000000
20
0.300000
30
0.0
40
3.5
1

3

2
VC_END
70
0
0
LINE
8
0
10
8.500000
20
26.249964
30
0.0
11
8.500000
21
31.319668
31
0.0
0
ARC
8
0
10
8.800000
20
31.319666
30
0.0
40
0.300000
50
149.999911
51
180.000000
0
LINE
8
0
10
8.540192
20
31.469666
30
0.0
11
11.797919
21
39.964453
31
0.0
0
ARC
8
0
10
11.704549
20
40.000260
30
0.0
40
0.100000
50
339.018495
51
90.000000
0
LINE
8
0
10
11.704549
20
40.100260
30
0.0
11
9.499978
21
40.100260
31
0.0
0
ARC
8
0
10
9.499978
20
41.100238
30
0.0
40
0.999978
50
180.000000
51
270.000000
0
LINE
8
0
10
8.500000
20
41.100238
30
0.0
11
8.500000
21
46.801615
31
0.0
0
ARC
8
0
10
7.500461
20
46.801615
30
0.0
40
0.999539
50
0.000000
51
90.000000
0
LINE
8
0
10
7.500461
20
47.801154
30
0.0
11
2.000000
21
47.801154
31
0.0
0
ARC
8
0
10
2.000000
20
48.101154
30
0.0
40
0.300000
50
180.000000
51
270.000000
0
LINE
8
0
10
1.700000
20
48.101154
30
0.0
11
1.700000
21
49.033480
31
0.0
0
ARC
8
0
10
2.700000
20
49.033480
30
0.0
40
1.000000
50
99.019322
51
180.000000
0
LINE
8
0
10
2.543232
20
50.021115
30
0.0
11
4.300209
21
50.300000
31
0.0
0
LINE
8
0
10
4.300209
20
50.300000
30
0.0
11
5.000194
21
49.600016
31
0.0
0
LINE
8
0
10
5.000194
20
49.600016
30
0.0
11
6.212604
21
50.300000
31
0.0
0
LINE
8
0
10
6.212604
20
50.300000
30
0.0
11
13.500011
21
50.300000
31
0.0
0
ARC
8
0
10
13.500011
20
49.800011
30
0.0
40
0.499989
50
0.000000
51
90.000000
0
LINE
8
0
10
14.000000
20
49.800011
30
0.0
11
14.000000
21
47.610000
31
0.0
0
LINE
8
0
10
14.000000
20
47.610000
30
0.0
11
13.500000
21
47.110000
31
0.0
0
LINE
8
0
10
13.500000
20
47.110000
30
0.0
11
13.000000
21
47.110000
31
0.0
0
LINE
8
0
10
13.000000
20
47.110000
30
0.0
11
13.000000
21
49.000000
31
0.0
0
LINE
8
0
10
13.000000
20
49.000000
30
0.0
11
10.200000
21
49.000000
31
0.0
0
LINE
8
0
10
10.200000
20
49.000000
30
0.0
11
10.200000
21
41.600000
31
0.0
0
LINE
8
0
10
10.200000
20
41.600000
30
0.0
11
13.000000
21
41.600000
31
0.0
0
LINE
8
0
10
13.000000
20
41.600000
30
0.0
11
13.000000
21
43.990000
31
0.0
0
LINE
8
0
10
13.000000
20
43.990000
30
0.0
11
13.500000
21
43.990000
31
0.0
0
LINE
8
0
10
13.500000
20
43.990000
30
0.0
11
14.000000
21
43.490000
31
0.0
0
LINE
8
0
10
14.000000
20
43.490000
30
0.0
11
14.000000
21
40.100260
31
0.0
0
LINE
8
0
10
14.000000
20
40.100260
30
0.0
11
12.000000
21
30.804649
31
0.0
0
LINE
8
0
10
12.000000
20
30.804649
30
0.0
11
12.000000
21
21.195352
31
0.0
0
LINE
8
0
10
12.000000
20
21.195352
30
0.0
11
14.000000
21
11.899741
31
0.0
0
LINE
8
0
10
14.000000
20
11.899741
30
0.0
11
14.000000
21
8.510000
31
0.0
0
LINE
8
0
10
14.000000
20
8.510000
30
0.0
11
13.500000
21
8.010000
31
0.0
0
LINE
8
0
10
13.500000
20
8.010000
30
0.0
11
13.000000
21
8.010000
31
0.0
0
LINE
8
0
10
13.000000
20
8.010000
30
0.0
11
13.000000
21
10.400000
31
0.0
0
LINE
8
0
10
13.000000
20
10.400000
30
0.0
11
10.200000
21
10.400000
31
0.0
0
LINE
8
0
10
10.200000
20
10.400000
30
0.0
11
10.200000
21
3.000000
31
0.0
0
LINE
8
0
10
10.200000
20
3.000000
30
0.0
11
13.000000
21
3.000000
31
0.0
0
LINE
8
0
10
13.000000
20
3.000000
30
0.0
11
13.000000
21
4.890000
31
0.0
0
LINE
8
0
10
13.000000
20
4.890000
30
0.0
11
13.500000
21
4.890000
31
0.0
0
LINE
8
0
10
13.500000
20
4.890000
30
0.0
11
14.000000
21
4.390000
31
0.0
0
LINE
8
0
10
14.000000
20
4.390000
30
0.0
11
14.000000
21
2.199990
31
0.0
0
ARC
8
0
10
13.500011
20
2.199990
30
0.0
40
0.499989
50
270.000000
51
0.000000
0
LINE
8
0
10
13.500011
20
1.700000
30
0.0
11
6.212604
21
1.700000
31
0.0
0
LINE
8
0
10
6.212604
20
1.700000
30
0.0
11
5.000194
21
2.399985
31
0.0
0
LINE
8
0
10
5.000194
20
2.399985
30
0.0
11
4.300209
21
1.700000
31
0.0
0
LINE
8
0
10
4.300209
20
1.700000
30
0.0
11
2.543232
21
1.978886
31
0.0
0
ARC
8
0
10
2.700000
20
2.966521
30
0.0
40
1.000000
50
180.000000
51
260.980678
0
LINE
8
0
10
1.700000
20
2.966521
30
0.0
11
1.700000
21
3.898847
31
0.0
0
ARC
8
0
10
2.000000
20
3.898847
30
0.0
40
0.300000
50
90.000000
51
180.000000
0
LINE
8
0
10
2.000000
20
4.198847
30
0.0
11
7.500461
21
4.198847
31
0.0
0
ARC
8
0
10
7.500461
20
5.198386
30
0.0
40
0.999539
50
270.000000
51
0.000000
0
LINE
8
0
10
8.500000
20
5.198386
30
0.0
11
8.500000
21
10.899763
31
0.0
0
ARC
8
0
10
9.499978
20
10.899763
30
0.0
40
0.999978
50
90.000000
51
180.000000
0
LINE
8
0
10
9.499978
20
11.899741
30
0.0
11
11.704549
21
11.899741
31
0.0
0
ARC
8
0
10
11.704549
20
11.999741
30
0.0
40
0.100000
50
270.000000
51
20.981505
0
LINE
8
0
10
11.797919
20
12.035548
30
0.0
11
8.540192
21
20.530335
31
0.0
0
ARC
8
0
10
8.800000
20
20.680335
30
0.0
40
0.300000
50
180.000000
51
210.000089
0
LINE
8
0
10
8.500000
20
20.680333
30
0.0
11
8.500000
21
25.750037
31
0.0
0
LINE
8
0
10
8.500000
20
25.750037
30
0.0
11
8.699971
21
26.000000
31
0.0
0
LINE
8
0
10
8.699971
20
26.000000
30
0.0
11
8.500000
21
26.249964
31
0.0
0
ATTDEF
8
0
10
9.856307
20
50.300000
30
0.0
40
3.5
1

3

2
VC_START
70
0
0
ATTDEF
8
0
10
9.856307
20
1.700000
30
0.0
40
3.5
1

3

2
VC_END
70
0
0
ARC
8
0
10
39.834195
20
20.700000
30
0.0
40
0.300000
50
90.000000
51
217.852838
0
ARC
8
0
10
34.772376
20
17.504208
30
0.0
40
5.687742
50
324.223538
51
31.972167
0
ARC
8
0
10
38.980821
20
14.550000
30
0.0
40
0.550000
50
137.583333
51
317.583333
0
ARC
8
0
10
35.561290
20
17.266040
30
0.0
40
3.818429
50
322.110438
51
77.926068
0
LINE
8
0
10
36.360005
20
21.000000
30
0.0
11
39.834195
21
21.000000
31
0.0
0
ARC
8
0
10
39.834195
20
31.300000
30
0.0
40
0.300000
50
142.147162
51
270.000000
0
ARC
8
0
10
34.772376
20
34.495791
30
0.0
40
5.687742
50
328.027833
51
35.776462
0
ARC
8
0
10
38.980821
20
37.450000
30
0.0
40
0.550000
50
42.416667
51
222.416667
0
ARC
8
0
10
35.561290
20
34.733960
30
0.0
40
3.818429
50
282.073932
51
37.889562
0
LINE
8
0
10
36.360005
20
31.000000
30
0.0
11
39.834195
21
31.000000
31
0.0
0
ARC
8
0
10
49.834195
20
20.700000
30
0.0
40
0.300000
50
90.000000
51
217.852838
0
ARC
8
0
10
44.772376
20
17.504208
30
0.0
40
5.687742
50
324.223538
51
31.972167
0
ARC
8
0
10
48.980821
20
14.550000
30
0.0
40
0.550000
50
137.583333
51
317.583333
0
ARC
8
0
10
45.561290
20
17.266040
30
0.0
40
3.818429
50
322.110438
51
77.926068
0
LINE
8
0
10
46.360005
20
21.000000
30
0.0
11
49.834195
21
21.000000
31
0.0
0
ARC
8
0
10
49.834195
20
31.300000
30
0.0
40
0.300000
50
142.147162
51
270.000000
0
ARC
8
0
10
44.772376
20
34.495791
30
0.0
40
5.687742
50
328.027833
51
35.776462
0
ARC
8
0
10
48.980821
20
37.450000
30
0.0
40
0.550000
50
42.416667
51
222.416667
0
ARC
8
0
10
45.561290
20
34.733960
30
0.0
40
3.818429
50
282.073932
51
37.889562
0
LINE
8
0
10
46.360005
20
31.000000
30
0.0
11
49.834195
21
31.000000
31
0.0
0
ARC
8
0
10
59.834195
20
20.700000
30
0.0
40
0.300000
50
90.000000
51
217.852838
0
ARC
8
0
10
54.772376
20
17.504208
30
0.0
40
5.687742
50
324.223538
51
31.972167
0
ARC
8
0
10
58.980821
20
14.550000
30
0.0
40
0.550000
50
137.583333
51
317.583333
0
ARC
8
0
10
55.561290
20
17.266040
30
0.0
40
3.818429
50
322.110438
51
77.926068
0
LINE
8
0
10
56.360005
20
21.000000
30
0.0
11
59.834195
21
21.000000
31
0.0
0
ARC
8
0
10
59.834195
20
31.300000
30
0.0
40
0.300000
50
142.147162
51
270.000000
0
ARC
8
0
10
54.772376
20
34.495791
30
0.0
40
5.687742
50
328.027833
51
35.776462
0
ARC
8
0
10
58.980821
20
37.450000
30
0.0
40
0.550000
50
42.416667
51
222.416667
0
ARC
8
0
10
55.561290
20
34.733960
30
0.0
40
3.818429
50
282.073932
51
37.889562
0
LINE
8
0
10
56.360005
20
31.000000
30
0.0
11
59.834195
21
31.000000
31
0.0
0
LINE
8
0
10
49.210000
20
22.801358
30
0.0
11
49.210000
21
29.201358
31
0.0
0
ARC
8
0
10
49.510000
20
29.201358
30
0.0
40
0.300000
50
90.000000
51
180.000000
0
LINE
8
0
10
49.510000
20
29.501358
30
0.0
11
59.210000
21
29.501358
31
0.0
0
ARC
8
0
10
59.210000
20
29.001358
30
0.0
40
0.500000
50
0.000000
51
90.000000
0
LINE
8
0
10
59.710000
20
29.001358
30
0.0
11
59.710000
21
26.250000
31
0.0
0
LINE
8
0
10
59.710000
20
26.250000
30
0.0
11
60.009997
21
26.000000
31
0.0
0
LINE
8
0
10
60.009997
20
26.000000
30
0.0
11
59.710000
21
25.750000
31
0.0
0
LINE
8
0
10
59.710000
20
25.750000
30
0.0
11
59.710000
21
23.001358
31
0.0
0
ARC
8
0
10
59.210000
20
23.001358
30
0.0
40
0.500000
50
270.000000
51
0.000000
0
LINE
8
0
10
59.210000
20
22.501358
30
0.0
11
49.510000
21
22.501358
31
0.0
0
ARC
8
0
10
49.510000
20
22.801358
30
0.0
40
0.300000
50
180.000000
51
270.000000
0
ARC
8
0
10
73.759998
20
26.010279
30
0.0
40
0.200000
50
324.577352
51
35.420900
0
LINE
8
0
10
73.873837
20
25.857695
30
0.0
11
73.922978
21
25.894358
31
0.0
0
LINE
8
0
10
73.873837
20
25.857695
30
0.0
11
71.242682
21
24.958191
31
0.0
0
ARC
8
0
10
70.822151
20
26.188294
30
0.0
40
1.300000
50
274.415867
51
288.873845
0
ARC
8
0
10
67.134083
20
73.946102
30
0.0
40
49.200000
50
265.254864
51
274.415867
0
ARC
8
0
10
63.055541
20
26.010241
30
0.0
40
1.095541
50
90.000000
51
270.000000
0
ARC
8
0
10
67.134083
20
-21.925620
30
0.0
40
49.200000
50
85.583972
51
94.745136
0
ARC
8
0
10
70.822285
20
25.832177
30
0.0
40
1.300000
50
71.126913
51
85.583972
0
LINE
8
0
10
71.242800
20
27.062285
30
0.0
11
73.873837
21
26.162860
31
0.0
0
LINE
8
0
10
73.922982
20
26.126195
30
0.0
11
73.873837
21
26.162860
31
0.0
0
ARC
8
0
10
47.410000
20
29.201358
30
0.0
40
0.300000
50
0.000000
51
90.000000
0
LINE
8
0
10
47.710000
20
29.201358
30
0.0
11
47.710000
21
22.801358
31
0.0
0
ARC
8
0
10
47.410000
20
22.801358
30
0.0
40
0.300000
50
270.000000
51
0.000000
0
LINE
8
0
10
47.410000
20
22.501358
30
0.0
11
37.775007
21
22.501358
31
0.0
0
ARC
8
0
10
37.775007
20
22.801358
30
0.0
40
0.300000
50
157.500000
51
270.000000
0
LINE
8
0
10
37.497843
20
22.916163
30
0.0
11
38.494129
21
25.321411
31
0.0
0
ARC
8
0
10
36.831146
20
26.010241
30
0.0
40
1.800000
50
337.500000
51
22.500000
0
LINE
8
0
10
38.494129
20
26.699071
30
0.0
11
37.505202
21
29.086553
31
0.0
0
ARC
8
0
10
37.782365
20
29.201358
30
0.0
40
0.300000
50
90.000000
51
202.500000
0
LINE
8
0
10
37.782365
20
29.501358
30
0.0
11
47.410000
21
29.501358
31
0.0
0
ARC
8
0
10
68.060000
20
23.951364
30
0.0
40
0.249982
50
209.988832
51
330.002349
0
LINE
8
0
10
68.276496
20
23.826382
30
0.0
11
68.354204
21
23.960991
31
0.0
0
ARC
8
0
10
67.134083
20
73.946102
30
0.0
40
50.000000
50
271.398294
51
274.506051
0
ARC
8
0
10
70.944456
20
25.596013
30
0.0
40
1.500000
50
274.506051
51
288.873845
0
LINE
8
0
10
71.429684
20
24.176663
30
0.0
11
74.259998
21
25.144253
31
0.0
0
ARC
8
0
10
73.759998
20
26.010279
30
0.0
40
1.000000
50
299.999969
51
60.000031
0
LINE
8
0
10
74.259998
20
26.876305
30
0.0
11
71.429796
21
27.843814
31
0.0
0
ARC
8
0
10
70.944587
20
26.424458
30
0.0
40
1.500000
50
71.126913
51
85.493794
0
ARC
8
0
10
67.134083
20
-21.925620
30
0.0
40
50.000000
50
85.493794
51
88.601706
0
LINE
8
0
10
68.354204
20
28.059491
30
0.0
11
68.276496
21
28.194099
31
0.0
0
ARC
8
0
10
68.060000
20
28.069117
30
0.0
40
0.249982
50
29.997651
51
149.998311
0
LINE
8
0
10
67.843513
20
28.194115
30
0.0
11
67.772047
21
28.070310
31
0.0
0
ARC
8
0
10
67.134083
20
-21.925620
30
0.0
40
50.000000
50
89.268927
51
95.538610
0
ARC
8
0
10
62.260000
20
28.338615
30
0.0
40
0.500000
50
180.000000
51
275.538610
0
LINE
8
0
10
61.760000
20
28.338615
30
0.0
11
61.760000
21
30.701358
31
0.0
0
ARC
8
0
10
61.460000
20
30.701358
30
0.0
40
0.300000
50
0.000000
51
90.000000
0
LINE
8
0
10
61.460000
20
31.001358
30
0.0
11
32.060000
21
31.001358
31
0.0
0
ARC
8
0
10
32.060000
20
30.701358
30
0.0
40
0.300000
50
90.000000
51
180.000000
0
LINE
8
0
10
31.760000
20
30.701358
30
0.0
11
31.760000
21
28.911227
31
0.0
0
ARC
8
0
10
32.060000
20
28.911227
30
0.0
40
0.300000
50
180.000000
51
240.000122
0
LINE
8
0
10
31.910001
20
28.651419
30
0.0
11
32.760000
21
28.160674
31
0.0
0
ARC
8
0
10
32.910000
20
28.420482
30
0.0
40
0.300000
50
240.000122
51
0.000000
0
LINE
8
0
10
33.210000
20
28.420482
30
0.0
11
33.210004
21
29.501358
31
0.0
0
LINE
8
0
10
33.210004
20
29.501358
30
0.0
11
35.509342
21
29.501358
31
0.0
0
ARC
8
0
10
35.509342
20
29.201358
30
0.0
40
0.300000
50
22.500000
51
90.000000
0
LINE
8
0
10
35.786506
20
29.316163
30
0.0
11
37.108310
21
26.125046
31
0.0
0
ARC
8
0
10
36.831146
20
26.010241
30
0.0
40
0.300000
50
337.500000
51
22.500000
0
LINE
8
0
10
37.108310
20
25.895436
30
0.0
11
35.779147
21
22.686553
31
0.0
0
ARC
8
0
10
35.501983
20
22.801358
30
0.0
40
0.300000
50
270.000000
51
337.500000
0
LINE
8
0
10
35.501983
20
22.501358
30
0.0
11
33.210000
21
22.501358
31
0.0
0
LINE
8
0
10
33.210000
20
22.501358
30
0.0
11
33.210000
21
23.600000
31
0.0
0
ARC
8
0
10
32.910000
20
23.600000
30
0.0
40
0.300000
50
0.000000
51
119.999878
0
LINE
8
0
10
32.760000
20
23.859808
30
0.0
11
31.910001
21
23.369062
31
0.0
0
ARC
8
0
10
32.060000
20
23.109254
30
0.0
40
0.300000
50
119.999878
51
180.000000
0
LINE
8
0
10
31.760000
20
23.109254
30
0.0
11
31.760000
21
21.301358
31
0.0
0
ARC
8
0
10
32.060000
20
21.301358
30
0.0
40
0.300000
50
180.000000
51
270.000000
0
LINE
8
0
10
32.060000
20
21.001358
30
0.0
11
61.460000
21
21.001358
31
0.0
0
ARC
8
0
10
61.460000
20
21.301358
30
0.0
40
0.300000
50
270.000000
51
0.000000
0
LINE
8
0
10
61.760000
20
21.301358
30
0.0
11
61.760000
21
23.681867
31
0.0
0
ARC
8
0
10
62.260000
20
23.681867
30
0.0
40
0.500000
50
84.461390
51
180.000000
0
ARC
8
0
10
67.134083
20
73.946102
30
0.0
40
50.000000
50
264.461390
51
270.731073
0
LINE
8
0
10
67.772047
20
23.950172
30
0.0
11
67.843513
21
23.826367
31
0.0
0
ARC
8
0
10
26.980844
20
37.450000
30
0.0
40
0.550000
50
42.416667
51
222.416667
0
ARC
8
0
10
22.772399
20
34.495792
30
0.0
40
5.687742
50
328.027833
51
35.776462
0
ARC
8
0
10
27.834218
20
31.300000
30
0.0
40
0.300000
50
142.147162
51
270.000000
0
LINE
8
0
10
27.834218
20
31.000000
30
0.0
11
24.360028
21
31.000000
31
0.0
0
ARC
8
0
10
23.561313
20
34.733960
30
0.0
40
3.818429
50
282.073932
51
37.889562
0
ARC
8
0
10
27.834191
20
20.700000
30
0.0
40
0.300000
50
90.000000
51
217.852838
0
ARC
8
0
10
22.772371
20
17.504209
30
0.0
40
5.687742
50
324.223538
51
31.972167
0
ARC
8
0
10
26.980817
20
14.550000
30
0.0
40
0.550000
50
137.583333
51
317.583333
0
ARC
8
0
10
23.561285
20
17.266040
30
0.0
40
3.818429
50
322.110438
51
77.926068
0
LINE
8
0
10
24.360000
20
21.000000
30
0.0
11
27.834191
21
21.000000
31
0.0
0
ARC
8
0
10
24.831146
20
26.010241
30
0.0
40
1.800000
50
337.500000
51
359.674017
0
LINE
8
0
10
26.494129
20
25.321411
30
0.0
11
25.497843
21
22.916163
31
0.0
0
ARC
8
0
10
25.775007
20
22.801358
30
0.0
40
0.300000
50
157.500000
51
270.000000
0
LINE
8
0
10
25.775007
20
22.501358
30
0.0
11
29.210000
21
22.501358
31
0.0
0
ARC
8
0
10
29.210000
20
23.001358
30
0.0
40
0.500000
50
270.000000
51
0.000000
0
LINE
8
0
10
29.710000
20
23.001358
30
0.0
11
29.710000
21
25.750000
31
0.0
0
LINE
8
0
10
29.710000
20
25.750000
30
0.0
11
30.009997
21
26.000000
31
0.0
0
LINE
8
0
10
30.009997
20
26.000000
30
0.0
11
29.710000
21
26.250000
31
0.0
0
LINE
8
0
10
29.710000
20
26.250000
30
0.0
11
29.710000
21
28.998642
31
0.0
0
ARC
8
0
10
29.210000
20
28.998642
30
0.0
40
0.500000
50
0.000000
51
90.000000
0
LINE
8
0
10
29.210000
20
29.498642
30
0.0
11
25.775007
21
29.498642
31
0.0
0
ARC
8
0
10
25.775007
20
29.198642
30
0.0
40
0.300000
50
90.000000
51
202.500000
0
LINE
8
0
10
25.497843
20
29.083837
30
0.0
11
26.494129
21
26.678589
31
0.0
0
ARC
8
0
10
24.831146
20
25.989759
30
0.0
40
1.800000
50
0.325983
51
22.500000
0
ARC
8
0
10
20.910000
20
28.400000
30
0.0
40
0.300000
50
240.000122
51
0.000000
0
LINE
8
0
10
20.760001
20
28.140192
30
0.0
11
19.910001
21
28.630938
31
0.0
0
ARC
8
0
10
20.060000
20
28.890745
30
0.0
40
0.300000
50
180.000000
51
240.000118
0
LINE
8
0
10
19.760000
20
28.890745
30
0.0
11
19.760000
21
30.700000
31
0.0
0
ARC
8
0
10
20.060000
20
30.700000
30
0.0
40
0.300000
50
90.000000
51
180.000000
0
LINE
8
0
10
20.060000
20
31.000000
30
0.0
11
31.260000
21
31.000000
31
0.0
0
ARC
8
0
10
31.260000
20
30.500000
30
0.0
40
0.500000
50
0.000000
51
90.000000
0
LINE
8
0
10
31.760000
20
30.500000
30
0.0
11
31.760000
21
29.802716
31
0.0
0
ARC
8
0
10
31.460000
20
29.802716
30
0.0
40
0.300000
50
270.000000
51
0.000000
0
LINE
8
0
10
31.460000
20
29.502716
30
0.0
11
31.210000
21
29.502716
31
0.0
0
LINE
8
0
10
31.210000
20
29.502716
30
0.0
11
31.210000
21
28.301358
31
0.0
0
ARC
8
0
10
31.410000
20
28.301358
30
0.0
40
0.200000
50
180.000000
51
270.000000
0
LINE
8
0
10
31.419503
20
28.101584
30
0.0
11
33.510005
21
28.201019
31
0.0
0
LINE
8
0
10
33.510005
20
28.201019
30
0.0
11
33.510005
21
28.501358
31
0.0
0
ARC
8
0
10
33.810005
20
28.501358
30
0.0
40
0.300000
50
60.000000
51
180.000000
0
LINE
8
0
10
33.960005
20
28.761166
30
0.0
11
35.563284
21
27.835512
31
0.0
0
ARC
8
0
10
35.366568
20
27.494790
30
0.0
40
0.393432
50
272.700861
51
60.000000
0
LINE
8
0
10
35.385108
20
27.101795
30
0.0
11
33.016908
21
26.990078
31
0.0
0
ARC
8
0
10
33.495408
20
16.846749
30
0.0
40
10.154609
50
92.700861
51
101.144484
0
ARC
8
0
10
31.610000
20
26.417415
30
0.0
40
0.400000
50
101.144484
51
180.000000
0
LINE
8
0
10
31.210000
20
26.417415
30
0.0
11
31.210000
21
26.000000
31
0.0
0
LINE
8
0
10
31.210000
20
26.000000
30
0.0
11
31.210000
21
25.582586
31
0.0
0
ARC
8
0
10
31.610000
20
25.582586
30
0.0
40
0.400000
50
180.000000
51
258.855516
0
ARC
8
0
10
33.495408
20
35.153251
30
0.0
40
10.154609
50
258.855516
51
267.299139
0
LINE
8
0
10
33.016908
20
25.009922
30
0.0
11
35.385108
21
24.898205
31
0.0
0
ARC
8
0
10
35.366568
20
24.505210
30
0.0
40
0.393432
50
300.000000
51
87.299139
0
LINE
8
0
10
35.563284
20
24.164488
30
0.0
11
33.960005
21
23.238835
31
0.0
0
ARC
8
0
10
33.810005
20
23.498642
30
0.0
40
0.300000
50
180.000000
51
300.000000
0
LINE
8
0
10
33.510005
20
23.498642
30
0.0
11
33.510005
21
23.798981
31
0.0
0
LINE
8
0
10
33.510005
20
23.798981
30
0.0
11
31.419503
21
23.898416
31
0.0
0
ARC
8
0
10
31.410000
20
23.698642
30
0.0
40
0.200000
50
90.000000
51
180.000000
0
LINE
8
0
10
31.210000
20
23.698642
30
0.0
11
31.210000
21
22.497284
31
0.0
0
LINE
8
0
10
31.210000
20
22.497284
30
0.0
11
31.460000
21
22.497284
31
0.0
0
ARC
8
0
10
31.460000
20
22.197284
30
0.0
40
0.300000
50
0.000000
51
90.000000
0
LINE
8
0
10
31.760000
20
22.197284
30
0.0
11
31.760000
21
21.500000
31
0.0
0
ARC
8
0
10
31.260000
20
21.500000
30
0.0
40
0.500000
50
270.000000
51
0.000000
0
LINE
8
0
10
31.260000
20
21.000000
30
0.0
11
20.060000
21
21.000000
31
0.0
0
ARC
8
0
10
20.060000
20
21.300000
30
0.0
40
0.300000
50
180.000000
51
270.000000
0
LINE
8
0
10
19.760000
20
21.300000
30
0.0
11
19.760000
21
23.109255
31
0.0
0
ARC
8
0
10
20.060000
20
23.109255
30
0.0
40
0.300000
50
119.999882
51
180.000000
0
LINE
8
0
10
19.910001
20
23.369063
30
0.0
11
20.760001
21
23.859808
31
0.0
0
ARC
8
0
10
20.910000
20
23.600000
30
0.0
40
0.300000
50
0.000000
51
119.999878
0
LINE
8
0
10
21.210000
20
23.600000
30
0.0
11
21.210001
21
22.501358
31
0.0
0
LINE
8
0
10
21.210001
20
22.501358
30
0.0
11
23.501983
21
22.501358
31
0.0
0
ARC
8
0
10
23.501983
20
22.801358
30
0.0
40
0.300000
50
270.000000
51
337.500000
0
LINE
8
0
10
23.779147
20
22.686553
30
0.0
11
25.108310
21
25.895436
31
0.0
0
ARC
8
0
10
24.831146
20
26.010241
30
0.0
40
0.300000
50
337.500000
51
358.043734
0
ARC
8
0
10
24.831146
20
25.989759
30
0.0
40
0.300000
50
1.956266
51
22.500000
0
LINE
8
0
10
25.108310
20
26.104564
30
0.0
11
23.779147
21
29.313447
31
0.0
0
ARC
8
0
10
23.501983
20
29.198642
30
0.0
40
0.300000
50
22.500000
51
90.000000
0
LINE
8
0
10
23.501983
20
29.498642
30
0.0
11
21.210001
21
29.498642
31
0.0
0
LINE
8
0
10
21.210001
20
29.498642
30
0.0
11
21.210000
21
28.400000
31
0.0
0
ATTDEF
8
0
10
20.060000
20
31.000000
30
0.0
40
3.5
1

3

2
VC_START
70
0
0
ATTDEF
8
0
10
20.060000
20
21.000000
30
0.0
40
3.5
1

3

2
VC_END
70
0
0
LINE
8
0
10
202.864189
20
27.590885
30
0.0
11
204.924204
21
27.227648
31
0.0
0
ARC
8
0
10
205.033069
20
27.845054
30
0.0
40
0.626931
50
260.000000
51
0.000000
0
LINE
8
0
10
205.660000
20
27.845054
30
0.0
11
205.660000
21
49.600000
31
0.0
0
ARC
8
0
10
205.360000
20
49.600000
30
0.0
40
0.300000
50
0.000000
51
90.000000
0
LINE
8
0
10
205.360000
20
49.900000
30
0.0
11
191.160000
21
49.900000
31
0.0
0
LINE
8
0
10
191.160000
20
49.900000
30
0.0
11
191.160000
21
47.750000
31
0.0
0
LINE
8
0
10
191.160000
20
47.750000
30
0.0
11
189.660000
21
47.750000
31
0.0
0
LINE
8
0
10
189.660000
20
47.750000
30
0.0
11
189.660000
21
49.900000
31
0.0
0
LINE
8
0
10
189.660000
20
49.900000
30
0.0
11
96.760000
21
49.900000
31
0.0
0
LINE
8
0
10
96.760000
20
49.900000
30
0.0
11
96.760000
21
47.750000
31
0.0
0
LINE
8
0
10
96.760000
20
47.750000
30
0.0
11
95.260000
21
47.750000
31
0.0
0
LINE
8
0
10
95.260000
20
47.750000
30
0.0
11
95.260000
21
49.900000
31
0.0
0
LINE
8
0
10
95.260000
20
49.900000
30
0.0
11
84.560000
21
49.900000
31
0.0
0
ARC
8
0
10
84.560000
20
49.599999
30
0.0
40
0.300001
50
90.000000
51
180.000000
0
LINE
8
0
10
84.260000
20
49.599999
30
0.0
11
84.260000
21
2.400001
31
0.0
0
ARC
8
0
10
84.560000
20
2.400001
30
0.0
40
0.300001
50
180.000000
51
270.000000
0
LINE
8
0
10
84.560000
20
2.100000
30
0.0
11
95.260000
21
2.100000
31
0.0
0
LINE
8
0
10
95.260000
20
2.100000
30
0.0
11
95.260000
21
4.250000
31
0.0
0
LINE
8
0
10
95.260000
20
4.250000
30
0.0
11
96.760000
21
4.250000
31
0.0
0
LINE
8
0
10
96.760000
20
4.250000
30
0.0
11
96.760000
21
2.100000
31
0.0
0
LINE
8
0
10
96.760000
20
2.100000
30
0.0
11
189.660000
21
2.100000
31
0.0
0
LINE
8
0
10
189.660000
20
2.100000
30
0.0
11
189.660000
21
4.250000
31
0.0
0
LINE
8
0
10
189.660000
20
4.250000
30
0.0
11
191.160000
21
4.250000
31
0.0
0
LINE
8
0
10
191.160000
20
4.250000
30
0.0
11
191.160000
21
2.100000
31
0.0
0
LINE
8
0
10
191.160000
20
2.100000
30
0.0
11
205.360000
21
2.100000
31
0.0
0
ARC
8
0
10
205.360000
20
2.400000
30
0.0
40
0.300000
50
270.000000
51
0.000000
0
LINE
8
0
10
205.660000
20
2.400000
30
0.0
11
205.660000
21
24.154945
31
0.0
0
ARC
8
0
10
205.032938
20
24.154884
30
0.0
40
0.627062
50
0.000000
51
99.985710
0
LINE
8
0
10
204.924204
20
24.772447
30
0.0
11
202.864189
21
24.409115
31
0.0
0
ARC
8
0
10
202.760000
20
25.000000
30
0.0
40
0.600000
50
180.000000
51
280.000000
0
LINE
8
0
10
202.160000
20
25.000000
30
0.0
11
202.160000
21
27.000000
31
0.0
0
ARC
8
0
10
202.760000
20
27.000000
30
0.0
40
0.600000
50
80.000000
51
180.000000
0
LINE
8
0
10
79.760000
20
23.000000
30
0.0
11
81.160000
21
23.000000
31
0.0
0
ARC
8
0
10
81.160000
20
24.000000
30
0.0
40
1.000000
50
270.000000
51
0.000000
0
LINE
8
0
10
82.160000
20
24.000000
30
0.0
11
82.160000
21
28.000000
31
0.0
0
ARC
8
0
10
81.160000
20
28.000000
30
0.0
40
1.000000
50
0.000000
51
90.000000
0
LINE
8
0
10
81.160000
20
29.000000
30
0.0
11
79.760000
21
29.000000
31
0.0
0
ARC
8
0
10
79.760000
20
28.000000
30
0.0
40
1.000000
50
90.000000
51
180.000000
0
LINE
8
0
10
78.760000
20
28.000000
30
0.0
11
78.760000
21
24.000000
31
0.0
0
ARC
8
0
10
79.760000
20
24.000000
30
0.0
40
1.000000
50
180.000000
51
270.000000
0
LINE
8
0
10
61.760000
20
22.700001
30
0.0
11
63.009999
21
23.950000
31
0.0
0
LINE
8
0
10
63.009999
20
23.950000
30
0.0
11
63.069252
21
23.950000
31
0.0
0
ARC
8
0
10
63.069252
20
23.750000
30
0.0
40
0.200000
50
30.000000
51
90.000000
0
LINE
8
0
10
63.242457
20
23.850000
30
0.0
11
63.386795
21
23.600000
31
0.0
0
ARC
8
0
10
63.560000
20
23.699999
30
0.0
40
0.200000
50
210.000000
51
330.000000
0
LINE
8
0
10
63.733205
20
23.600000
30
0.0
11
63.877542
21
23.850000
31
0.0
0
ARC
8
0
10
64.050747
20
23.750000
30
0.0
40
0.200000
50
90.000000
51
150.000000
0
LINE
8
0
10
64.050747
20
23.950000
30
0.0
11
64.869252
21
23.950000
31
0.0
0
ARC
8
0
10
64.869252
20
23.750000
30
0.0
40
0.200000
50
30.000000
51
90.000000
0
LINE
8
0
10
65.042457
20
23.850000
30
0.0
11
65.186795
21
23.600000
31
0.0
0
ARC
8
0
10
65.360000
20
23.699999
30
0.0
40
0.200000
50
210.000000
51
330.000000
0
LINE
8
0
10
65.533205
20
23.600000
30
0.0
11
65.677542
21
23.850000
31
0.0
0
ARC
8
0
10
65.850747
20
23.750000
30
0.0
40
0.200000
50
90.000000
51
150.000000
0
LINE
8
0
10
65.850747
20
23.950000
30
0.0
11
66.669252
21
23.950000
31
0.0
0
ARC
8
0
10
66.669252
20
23.750000
30
0.0
40
0.200000
50
30.000000
51
90.000000
0
LINE
8
0
10
66.842457
20
23.850000
30
0.0
11
66.986795
21
23.600000
31
0.0
0
ARC
8
0
10
67.160000
20
23.699999
30
0.0
40
0.200000
50
210.000000
51
330.000000
0
LINE
8
0
10
67.333205
20
23.600000
30
0.0
11
67.477542
21
23.850000
31
0.0
0
ARC
8
0
10
67.650747
20
23.750000
30
0.0
40
0.200000
50
90.000000
51
150.000000
0
LINE
8
0
10
67.650747
20
23.950000
30
0.0
11
68.469252
21
23.950000
31
0.0
0
ARC
8
0
10
68.469252
20
23.750000
30
0.0
40
0.200000
50
30.000000
51
90.000000
0
LINE
8
0
10
68.642457
20
23.850000
30
0.0
11
68.786795
21
23.600000
31
0.0
0
ARC
8
0
10
68.960000
20
23.699999
30
0.0
40
0.200000
50
210.000000
51
330.000000
0
LINE
8
0
10
69.133205
20
23.600000
30
0.0
11
69.277542
21
23.850000
31
0.0
0
ARC
8
0
10
69.450747
20
23.750000
30
0.0
40
0.200000
50
90.000000
51
150.000000
0
LINE
8
0
10
69.450747
20
23.950000
30
0.0
11
70.269252
21
23.950000
31
0.0
0
ARC
8
0
10
70.269252
20
23.750000
30
0.0
40
0.200000
50
30.000000
51
90.000000
0
LINE
8
0
10
70.442457
20
23.850000
30
0.0
11
70.586795
21
23.600000
31
0.0
0
ARC
8
0
10
70.760000
20
23.699999
30
0.0
40
0.200000
50
210.000000
51
330.000000
0
LINE
8
0
10
70.933205
20
23.600000
30
0.0
11
71.077542
21
23.850000
31
0.0
0
ARC
8
0
10
71.250747
20
23.750000
30
0.0
40
0.200000
50
90.000000
51
150.000000
0
LINE
8
0
10
71.250747
20
23.950000
30
0.0
11
72.069252
21
23.950000
31
0.0
0
ARC
8
0
10
72.069252
20
23.750000
30
0.0
40
0.200000
50
30.000000
51
90.000000
0
LINE
8
0
10
72.242457
20
23.850000
30
0.0
11
72.386795
21
23.600000
31
0.0
0
ARC
8
0
10
72.560000
20
23.699999
30
0.0
40
0.200000
50
210.000000
51
330.000000
0
LINE
8
0
10
72.733205
20
23.600000
30
0.0
11
72.819807
21
23.749999
31
0.0
0
ARC
8
0
10
73.079614
20
23.600000
30
0.0
40
0.300000
50
90.000000
51
150.000000
0
LINE
8
0
10
73.079614
20
23.899999
30
0.0
11
74.560000
21
23.900000
31
0.0
0
ARC
8
0
10
74.574247
20
25.488136
30
0.0
40
1.588201
50
269.486022
51
356.818757
0
LINE
8
0
10
76.160000
20
25.400000
30
0.0
11
76.160000
21
26.600000
31
0.0
0
ARC
8
0
10
74.574247
20
26.511863
30
0.0
40
1.588201
50
3.181243
51
90.513978
0
LINE
8
0
10
74.560000
20
28.100000
30
0.0
11
73.981144
21
28.100000
31
0.0
0
ARC
8
0
10
73.979757
20
28.400240
30
0.0
40
0.300243
50
210.026110
51
270.000000
0
LINE
8
0
10
73.719807
20
28.250000
30
0.0
11
73.633205
21
28.400000
31
0.0
0
ARC
8
0
10
73.460000
20
28.300000
30
0.0
40
0.200000
50
30.000000
51
150.000000
0
LINE
8
0
10
73.286795
20
28.400000
30
0.0
11
73.142457
21
28.150000
31
0.0
0
ARC
8
0
10
72.969252
20
28.250000
30
0.0
40
0.200000
50
270.000000
51
330.000000
0
LINE
8
0
10
72.969252
20
28.050000
30
0.0
11
72.150747
21
28.050000
31
0.0
0
ARC
8
0
10
72.150747
20
28.250000
30
0.0
40
0.200000
50
210.000000
51
270.000000
0
LINE
8
0
10
71.977542
20
28.150000
30
0.0
11
71.833205
21
28.400000
31
0.0
0
ARC
8
0
10
71.660000
20
28.300000
30
0.0
40
0.200000
50
30.000000
51
150.000000
0
LINE
8
0
10
71.486795
20
28.400000
30
0.0
11
71.342457
21
28.150000
31
0.0
0
ARC
8
0
10
71.169252
20
28.250000
30
0.0
40
0.200000
50
270.000000
51
330.000000
0
LINE
8
0
10
71.169252
20
28.050000
30
0.0
11
70.350747
21
28.050000
31
0.0
0
ARC
8
0
10
70.350747
20
28.250000
30
0.0
40
0.200000
50
210.000000
51
270.000000
0
LINE
8
0
10
70.177542
20
28.150000
30
0.0
11
70.033205
21
28.400000
31
0.0
0
ARC
8
0
10
69.860000
20
28.300000
30
0.0
40
0.200000
50
30.000000
51
150.000000
0
LINE
8
0
10
69.686795
20
28.400000
30
0.0
11
69.542457
21
28.150000
31
0.0
0
ARC
8
0
10
69.369252
20
28.250000
30
0.0
40
0.200000
50
270.000000
51
330.000000
0
LINE
8
0
10
69.369252
20
28.050000
30
0.0
11
68.550747
21
28.050000
31
0.0
0
ARC
8
0
10
68.550747
20
28.250000
30
0.0
40
0.200000
50
210.000000
51
270.000000
0
LINE
8
0
10
68.377542
20
28.150000
30
0.0
11
68.233205
21
28.400000
31
0.0
0
ARC
8
0
10
68.060000
20
28.300000
30
0.0
40
0.200000
50
30.000000
51
150.000000
0
LINE
8
0
10
67.886795
20
28.400000
30
0.0
11
67.742457
21
28.150000
31
0.0
0
ARC
8
0
10
67.569252
20
28.250000
30
0.0
40
0.200000
50
270.000000
51
330.000000
0
LINE
8
0
10
67.569252
20
28.050000
30
0.0
11
66.750747
21
28.050000
31
0.0
0
ARC
8
0
10
66.750747
20
28.250000
30
0.0
40
0.200000
50
210.000000
51
270.000000
0
LINE
8
0
10
66.577542
20
28.150000
30
0.0
11
66.433205
21
28.400000
31
0.0
0
ARC
8
0
10
66.260000
20
28.300000
30
0.0
40
0.200000
50
30.000000
51
150.000000
0
LINE
8
0
10
66.086795
20
28.400000
30
0.0
11
65.942457
21
28.150000
31
0.0
0
ARC
8
0
10
65.769252
20
28.250000
30
0.0
40
0.200000
50
270.000000
51
330.000000
0
LINE
8
0
10
65.769252
20
28.050000
30
0.0
11
64.950747
21
28.050000
31
0.0
0
ARC
8
0
10
64.950747
20
28.250000
30
0.0
40
0.200000
50
210.000000
51
270.000000
0
LINE
8
0
10
64.777542
20
28.150000
30
0.0
11
64.633205
21
28.400000
31
0.0
0
ARC
8
0
10
64.460000
20
28.300000
30
0.0
40
0.200000
50
30.000000
51
150.000000
0
LINE
8
0
10
64.286795
20
28.400000
30
0.0
11
64.142457
21
28.150000
31
0.0
0
ARC
8
0
10
63.969252
20
28.250000
30
0.0
40
0.200000
50
270.000000
51
330.000000
0
LINE
8
0
10
63.969252
20
28.050000
30
0.0
11
63.009999
21
28.050000
31
0.0
0
LINE
8
0
10
63.009999
20
28.050000
30
0.0
11
61.760000
21
29.299999
31
0.0
0
LINE
8
0
10
61.760000
20
29.299999
30
0.0
11
61.760000
21
31.000000
31
0.0
0
LINE
8
0
10
61.760000
20
31.000000
30
0.0
11
81.160000
21
31.000000
31
0.0
0
ARC
8
0
10
81.160000
20
32.000000
30
0.0
40
1.000000
50
270.000000
51
0.000000
0
LINE
8
0
10
82.160000
20
32.000000
30
0.0
11
82.160000
21
35.300000
31
0.0
0
LINE
8
0
10
82.160000
20
35.300000
30
0.0
11
82.460000
21
35.600000
31
0.0
0
LINE
8
0
10
82.460000
20
35.600000
30
0.0
11
82.160000
21
35.900000
31
0.0
0
LINE
8
0
10
82.160000
20
35.900000
30
0.0
11
82.160000
21
39.200000
31
0.0
0
ARC
8
0
10
80.660000
20
39.200000
30
0.0
40
1.500000
50
0.000000
51
90.000000
0
LINE
8
0
10
80.660000
20
40.700000
30
0.0
11
80.260000
21
40.700000
31
0.0
0
ARC
8
0
10
80.260405
20
40.199595
30
0.0
40
0.500405
50
90.000000
51
180.000000
0
LINE
8
0
10
79.760000
20
40.200000
30
0.0
11
79.760000
21
39.400000
31
0.0
0
LINE
8
0
10
79.760000
20
39.400000
30
0.0
11
79.060000
21
39.400000
31
0.0
0
ARC
8
0
10
79.060000
20
39.700000
30
0.0
40
0.300000
50
180.000000
51
270.000000
0
LINE
8
0
10
78.760000
20
39.700000
30
0.0
11
78.760000
21
45.190000
31
0.0
0
LINE
8
0
10
78.760000
20
45.190000
30
0.0
11
79.260000
21
45.690000
31
0.0
0
LINE
8
0
10
79.260000
20
45.690000
30
0.0
11
79.760000
21
45.690000
31
0.0
0
LINE
8
0
10
79.760000
20
45.690000
30
0.0
11
79.760000
21
42.200000
31
0.0
0
LINE
8
0
10
79.760000
20
42.200000
30
0.0
11
82.160000
21
42.200000
31
0.0
0
LINE
8
0
10
82.160000
20
42.200000
30
0.0
11
82.160000
21
46.150000
31
0.0
0
LINE
8
0
10
82.160000
20
46.150000
30
0.0
11
82.460000
21
46.450000
31
0.0
0
LINE
8
0
10
82.460000
20
46.450000
30
0.0
11
82.160000
21
46.750000
31
0.0
0
LINE
8
0
10
82.160000
20
46.750000
30
0.0
11
82.160000
21
50.700000
31
0.0
0
LINE
8
0
10
82.160000
20
50.700000
30
0.0
11
79.760000
21
50.700000
31
0.0
0
LINE
8
0
10
79.760000
20
50.700000
30
0.0
11
79.760000
21
48.810000
31
0.0
0
LINE
8
0
10
79.760000
20
48.810000
30
0.0
11
79.260000
21
48.810000
31
0.0
0
LINE
8
0
10
79.260000
20
48.810000
30
0.0
11
78.760000
21
49.310000
31
0.0
0
LINE
8
0
10
78.760000
20
49.310000
30
0.0
11
78.760000
21
52.000000
31
0.0
0
LINE
8
0
10
78.760000
20
52.000000
30
0.0
11
207.260000
21
52.000000
31
0.0
0
ARC
8
0
10
207.260000
20
51.500000
30
0.0
40
0.500000
50
0.000000
51
90.000000
0
LINE
8
0
10
207.760000
20
51.500000
30
0.0
11
207.760000
21
0.500000
31
0.0
0
ARC
8
0
10
207.260000
20
0.500000
30
0.0
40
0.500000
50
270.000000
51
0.000000
0
LINE
8
0
10
207.260000
20
0.000000
30
0.0
11
78.760000
21
0.000000
31
0.0
0
LINE
8
0
10
78.760000
20
0.000000
30
0.0
11
78.760000
21
2.690000
31
0.0
0
LINE
8
0
10
78.760000
20
2.690000
30
0.0
11
79.260000
21
3.190000
31
0.0
0
LINE
8
0
10
79.260000
20
3.190000
30
0.0
11
79.760000
21
3.190000
31
0.0
0
LINE
8
0
10
79.760000
20
3.190000
30
0.0
11
79.760000
21
1.300000
31
0.0
0
LINE
8
0
10
79.760000
20
1.300000
30
0.0
11
82.160000
21
1.300000
31
0.0
0
LINE
8
0
10
82.160000
20
1.300000
30
0.0
11
82.160000
21
5.250000
31
0.0
0
LINE
8
0
10
82.160000
20
5.250000
30
0.0
11
82.460000
21
5.550000
31
0.0
0
LINE
8
0
10
82.460000
20
5.550000
30
0.0
11
82.160000
21
5.850000
31
0.0
0
LINE
8
0
10
82.160000
20
5.850000
30
0.0
11
82.160000
21
9.800000
31
0.0
0
LINE
8
0
10
82.160000
20
9.800000
30
0.0
11
79.760000
21
9.800000
31
0.0
0
LINE
8
0
10
79.760000
20
9.800000
30
0.0
11
79.760000
21
6.310000
31
0.0
0
LINE
8
0
10
79.760000
20
6.310000
30
0.0
11
79.260000
21
6.310000
31
0.0
0
LINE
8
0
10
79.260000
20
6.310000
30
0.0
11
78.760000
21
6.810000
31
0.0
0
LINE
8
0
10
78.760000
20
6.810000
30
0.0
11
78.760000
21
12.300000
31
0.0
0
ARC
8
0
10
79.060000
20
12.300000
30
0.0
40
0.300000
50
90.000000
51
180.000000
0
LINE
8
0
10
79.060000
20
12.600000
30
0.0
11
79.760000
21
12.600000
31
0.0
0
LINE
8
0
10
79.760000
20
12.600000
30
0.0
11
79.760000
21
11.800000
31
0.0
0
ARC
8
0
10
80.260000
20
11.800000
30
0.0
40
0.500000
50
180.000000
51
270.000000
0
LINE
8
0
10
80.260000
20
11.300000
30
0.0
11
80.660000
21
11.300000
31
0.0
0
ARC
8
0
10
80.660000
20
12.800000
30
0.0
40
1.500000
50
270.000000
51
0.000000
0
LINE
8
0
10
82.160000
20
12.800000
30
0.0
11
82.160000
21
16.100000
31
0.0
0
LINE
8
0
10
82.160000
20
16.100000
30
0.0
11
82.460000
21
16.400000
31
0.0
0
LINE
8
0
10
82.460000
20
16.400000
30
0.0
11
82.160000
21
16.700000
31
0.0
0
LINE
8
0
10
82.160000
20
16.700000
30
0.0
11
82.160000
21
20.000000
31
0.0
0
ARC
8
0
10
81.160000
20
20.000000
30
0.0
40
1.000000
50
0.000000
51
90.000000
0
LINE
8
0
10
81.160000
20
21.000000
30
0.0
11
61.760000
21
21.000000
31
0.0
0
LINE
8
0
10
61.760000
20
21.000000
30
0.0
11
61.760000
21
22.700001
31
0.0
0
ATTDEF
8
0
10
78.760000
20
52.000000
30
0.0
40
3.5
1

3

2
VC_START
70
0
0
ATTDEF
8
0
10
78.760000
20
0.000000
30
0.0
40
3.5
1

3

2
VC_END
70
0
0
ATTDEF
8
0
10
0.000000
20
0.000000
30
0.0
40
3.5
1

3

2
GLASS_MIN:0.000000
70
0
0
ATTDEF
8
0
10
0.000000
20
0.000000
30
0.0
40
3.5
1

3

2
GLASS_MAX:0.000000
70
0
0
ATTDEF
8
0
10
0.000000
20
0.000000
30
0.0
40
3.5
1

3

2
HW_START
70
0
0
ATTDEF
8
0
10
207.760000
20
52.300000
30
0.0
40
3.5
1

3

2
HW_END
70
0
0
ATTDEF
8
0
10
0.000000
20
0.000000
30
0.0
40
3.5
1

3

2
PANE_WIDTH:0
70
0
0
ATTDEF
8
0
10
0.000000
20
0.000000
30
0.0
40
3.5
1

3

2
MIN_VETRO:0
70
0
0
ATTDEF
8
0
10
0.000000
20
0.000000
30
0.0
40
3.5
1

3

2
MAX_VETRO:0
70
0
0
ATTDEF
8
0
10
0.000000
20
0.000000
30
0.0
40
3.5
1

3

2
JX:0
70
0
0
ATTDEF
8
0
10
0.000000
20
0.000000
30
0.0
40
3.5
1

3

2
WX:0
70
0
0
ATTDEF
8
0
10
0.000000
20
0.000000
30
0.0
40
3.5
1

3

2
JY:0
70
0
0
ATTDEF
8
0
10
0.000000
20
0.000000
30
0.0
40
3.5
1

3

2
WY:0
70
0
0
ATTDEF
8
0
10
0.000000
20
0.000000
30
0.0
40
3.5
1

3

2
DESC:COR-9865 - COR-9842 - COR-9843 - COR-9914 - COR-9142
70
0
0
ATTDEF
8
0
10
0.000000
20
0.000000
30
0.0
40
3.5
1

3

2
DENS:0
70
0
0
ATTDEF
8
0
10
0.000000
20
0.000000
30
0.0
40
3.5
1

3

2
TDEV:0
70
0
0
ATTDEF
8
0
10
0.000000
20
0.000000
30
0.0
40
3.5
1

3

2
TDEV2:0
70
0
0
ATTDEF
8
0
10
0.000000
20
0.000000
30
0.0
40
3.5
1

3

2
TDEV3:0
70
0
0
ATTDEF
8
0
10
0.000000
20
0.000000
30
0.0
40
3.5
1

3

2
TDEV4:0
70
0
0
ATTDEF
8
0
10
0.000000
20
0.000000
30
0.0
40
3.5
1

3

2
TDEV5:0
70
0
0
ATTDEF
8
0
10
0.000000
20
0.000000
30
0.0
40
3.5
1

3

2
PANE_WIDTH:0
70
0
0
ATTDEF
8
0
10
0.000000
20
0.000000
30
0.0
40
3.5
1

3

2
MIN_VETRO:0
70
0
0
ATTDEF
8
0
10
0.000000
20
0.000000
30
0.0
40
3.5
1

3

2
MAX_VETRO:0
70
0
0
ATTDEF
8
0
10
0.000000
20
0.000000
30
0.0
40
3.5
1

3

2
JX:0
70
0
0
ATTDEF
8
0
10
0.000000
20
0.000000
30
0.0
40
3.5
1

3

2
WX:0
70
0
0
ATTDEF
8
0
10
0.000000
20
0.000000
30
0.0
40
3.5
1

3

2
JY:0
70
0
0
ATTDEF
8
0
10
0.000000
20
0.000000
30
0.0
40
3.5
1

3

2
WY:0
70
0
0
ENDSEC
0
EOF
