0
SECTION
2
ENTITIES
0
LINE
8
0
10
93.105627
20
101.323105
30
0.0
11
93.105627
21
151.323105
31
0.0
0
LINE
8
0
10
93.105627
20
151.323105
30
0.0
11
108.105627
21
151.323105
31
0.0
0
LINE
8
0
10
108.105627
20
151.323105
30
0.0
11
108.105627
21
101.323105
31
0.0
0
LINE
8
0
10
108.105627
20
101.323105
30
0.0
11
93.105627
21
101.323105
31
0.0
0
ATTDEF
8
0
10
93.105627
20
101.323105
30
0.0
40
3.5
1

3

2
DESC:Vidrio sencillo esp. 15mm.
70
0
0
ATTDEF
8
0
10
93.105627
20
101.323105
30
0.0
40
3.5
1

3

2
DENS:0.000000
70
0
0
ATTDEF
8
0
10
93.105627
20
101.323105
30
0.0
40
3.5
1

3

2
TDEV:0.000000
70
0
0
ATTDEF
8
0
10
93.105627
20
101.323105
30
0.0
40
3.5
1

3

2
FRONT_VIEW
70
0
0
ATTDEF
8
0
10
93.105627
20
101.323105
30
0.0
40
3.5
1

3

2
BL01:6500.000000,,1
70
0
0
ATTDEF
8
0
10
93.105627
20
101.323105
30
0.0
40
3.5
1

3

2
OPTI:500.000000,1,0,3000.000000,6500.000000,500.000000,0,0.000000
70
0
0
ATTDEF
8
0
10
93.105627
20
101.323105
30
0.0
40
3.5
1

3

2
PANE_WIDTH:0.000000
70
0
0
ATTDEF
8
0
10
93.105627
20
101.323105
30
0.0
40
3.5
1

3

2
FP_LCS_ORIG
70
0
0
ATTDEF
8
0
10
103.105627
20
101.323105
30
0.0
40
3.5
1

3

2
FP_LCS_HOT
70
0
0
ATTDEF
8
0
10
93.105627
20
111.323105
30
0.0
40
3.5
1

3

2
FP_LCS_INTERN
70
0
0
ENDSEC
0
EOF
