0
SECTION
2
ENTITIES
0
LINE
8
0
10
0.000000
20
0.000000
30
0.0
11
0.000000
21
50.000000
31
0.0
0
LINE
8
0
10
1.000000
20
0.000000
30
0.0
11
1.000000
21
50.000000
31
0.0
0
LINE
8
0
10
2.000000
20
0.000000
30
0.0
11
2.000000
21
50.000000
31
0.0
0
LINE
8
0
10
3.000000
20
0.000000
30
0.0
11
3.000000
21
50.000000
31
0.0
0
LINE
8
0
10
4.000000
20
0.000000
30
0.0
11
4.000000
21
50.000000
31
0.0
0
LINE
8
0
10
5.000000
20
0.000000
30
0.0
11
5.000000
21
50.000000
31
0.0
0
LINE
8
0
10
6.000000
20
0.000000
30
0.0
11
6.000000
21
50.000000
31
0.0
0
LINE
8
0
10
7.000000
20
0.000000
30
0.0
11
7.000000
21
50.000000
31
0.0
0
LINE
8
0
10
8.000000
20
0.000000
30
0.0
11
8.000000
21
50.000000
31
0.0
0
LINE
8
0
10
9.000000
20
0.000000
30
0.0
11
9.000000
21
50.000000
31
0.0
0
LINE
8
0
10
10.000000
20
0.000000
30
0.0
11
10.000000
21
50.000000
31
0.0
0
LINE
8
0
10
11.000000
20
0.000000
30
0.0
11
11.000000
21
50.000000
31
0.0
0
LINE
8
0
10
12.000000
20
0.000000
30
0.0
11
12.000000
21
50.000000
31
0.0
0
LINE
8
0
10
13.000000
20
0.000000
30
0.0
11
13.000000
21
50.000000
31
0.0
0
LINE
8
0
10
14.000000
20
0.000000
30
0.0
11
14.000000
21
50.000000
31
0.0
0
LINE
8
0
10
15.000000
20
0.000000
30
0.0
11
15.000000
21
50.000000
31
0.0
0
LINE
8
0
10
16.000000
20
0.000000
30
0.0
11
16.000000
21
50.000000
31
0.0
0
LINE
8
0
10
17.000000
20
0.000000
30
0.0
11
17.000000
21
50.000000
31
0.0
0
LINE
8
0
10
18.000000
20
0.000000
30
0.0
11
18.000000
21
50.000000
31
0.0
0
LINE
8
0
10
19.000000
20
0.000000
30
0.0
11
19.000000
21
50.000000
31
0.0
0
LINE
8
0
10
20.000000
20
0.000000
30
0.0
11
20.000000
21
50.000000
31
0.0
0
LINE
8
0
10
21.000000
20
0.000000
30
0.0
11
21.000000
21
50.000000
31
0.0
0
LINE
8
0
10
22.000000
20
0.000000
30
0.0
11
22.000000
21
50.000000
31
0.0
0
LINE
8
0
10
23.000000
20
0.000000
30
0.0
11
23.000000
21
50.000000
31
0.0
0
LINE
8
0
10
24.000000
20
0.000000
30
0.0
11
24.000000
21
50.000000
31
0.0
0
LINE
8
0
10
25.000000
20
0.000000
30
0.0
11
25.000000
21
50.000000
31
0.0
0
LINE
8
0
10
26.000000
20
0.000000
30
0.0
11
26.000000
21
50.000000
31
0.0
0
LINE
8
0
10
27.000000
20
0.000000
30
0.0
11
27.000000
21
50.000000
31
0.0
0
LINE
8
0
10
28.000000
20
0.000000
30
0.0
11
28.000000
21
50.000000
31
0.0
0
LINE
8
0
10
29.000000
20
0.000000
30
0.0
11
29.000000
21
50.000000
31
0.0
0
LINE
8
0
10
30.000000
20
0.000000
30
0.0
11
30.000000
21
50.000000
31
0.0
0
LINE
8
0
10
31.000000
20
0.000000
30
0.0
11
31.000000
21
50.000000
31
0.0
0
LINE
8
0
10
0.000000
20
0.000000
30
0.0
11
31.000000
21
0.000000
31
0.0
0
ATTDEF
8
0
10
0.000000
20
0.000000
30
0.0
40
3.5
1

3

2
DENS:77.500000
70
0
0
ENDSEC
0
EOF
