0
SECTION
2
ENTITIES
0
LINE
8
0
10
13966.419736
20
4138.935333
30
0.0
11
13966.419736
21
4212.935333
31
0.0
0
LINE
8
0
10
13966.419736
20
4212.935333
30
0.0
11
13975.919736
21
4212.935333
31
0.0
0
ARC
8
0
10
13975.919736
20
4213.435333
30
0.0
40
0.500000
50
270.000000
51
0.000000
0
LINE
8
0
10
13976.419736
20
4213.435333
30
0.0
11
13976.419736
21
4213.935333
31
0.0
0
ARC
8
0
10
13975.919736
20
4213.935333
30
0.0
40
0.500000
50
0.000000
51
90.000000
0
LINE
8
0
10
13975.919736
20
4214.435333
30
0.0
11
13936.919736
21
4214.435333
31
0.0
0
ARC
8
0
10
13936.919736
20
4213.935333
30
0.0
40
0.500000
50
90.000000
51
180.000000
0
LINE
8
0
10
13936.419736
20
4213.935333
30
0.0
11
13936.419736
21
4213.435333
31
0.0
0
ARC
8
0
10
13936.919736
20
4213.435333
30
0.0
40
0.500000
50
180.000000
51
270.000000
0
LINE
8
0
10
13936.919736
20
4212.935333
30
0.0
11
13946.419736
21
4212.935333
31
0.0
0
LINE
8
0
10
13946.419736
20
4212.935333
30
0.0
11
13946.419736
21
4138.935333
31
0.0
0
LINE
8
0
10
13946.419736
20
4138.935333
30
0.0
11
13936.919736
21
4138.935333
31
0.0
0
ARC
8
0
10
13936.919736
20
4138.435333
30
0.0
40
0.500000
50
90.000000
51
180.000000
0
LINE
8
0
10
13936.419736
20
4138.435333
30
0.0
11
13936.419736
21
4137.935333
31
0.0
0
ARC
8
0
10
13936.919736
20
4137.935333
30
0.0
40
0.500000
50
180.000000
51
270.000000
0
LINE
8
0
10
13936.919736
20
4137.435333
30
0.0
11
13975.919736
21
4137.435333
31
0.0
0
ARC
8
0
10
13975.919736
20
4137.935333
30
0.0
40
0.500000
50
270.000000
51
0.000000
0
LINE
8
0
10
13976.419736
20
4137.935333
30
0.0
11
13976.419736
21
4138.435333
31
0.0
0
ARC
8
0
10
13975.919736
20
4138.435333
30
0.0
40
0.500000
50
0.000000
51
90.000000
0
LINE
8
0
10
13975.919736
20
4138.935333
30
0.0
11
13966.419736
21
4138.935333
31
0.0
0
LINE
8
0
10
13947.919736
20
4138.935333
30
0.0
11
13947.919736
21
4212.935333
31
0.0
0
LINE
8
0
10
13947.919736
20
4212.935333
30
0.0
11
13964.919736
21
4212.935333
31
0.0
0
LINE
8
0
10
13964.919736
20
4212.935333
30
0.0
11
13964.919736
21
4138.935333
31
0.0
0
LINE
8
0
10
13964.919736
20
4138.935333
30
0.0
11
13947.919736
21
4138.935333
31
0.0
0
ATTDEF
8
0
10
0.000000
20
0.000000
30
0.0
40
3.5
1

3

2
PANE_WIDTH:0
70
0
0
ATTDEF
8
0
10
0.000000
20
0.000000
30
0.0
40
3.5
1

3

2
MIN_VETRO:0
70
0
0
ATTDEF
8
0
10
0.000000
20
0.000000
30
0.0
40
3.5
1

3

2
MAX_VETRO:0
70
0
0
ATTDEF
8
0
10
0.000000
20
0.000000
30
0.0
40
3.5
1

3

2
JX:0
70
0
0
ATTDEF
8
0
10
0.000000
20
0.000000
30
0.0
40
3.5
1

3

2
WX:0
70
0
0
ATTDEF
8
0
10
0.000000
20
0.000000
30
0.0
40
3.5
1

3

2
JY:0
70
0
0
ATTDEF
8
0
10
0.000000
20
0.000000
30
0.0
40
3.5
1

3

2
WY:0
70
0
0
ATTDEF
8
0
10
0.000000
20
0.000000
30
0.0
40
3.5
1

3

2
DESC:Union de marcos tubu
70
0
0
ATTDEF
8
0
10
0.000000
20
0.000000
30
0.0
40
3.5
1

3

2
DENS:0.9261
70
0
0
ATTDEF
8
0
10
0.000000
20
0.000000
30
0.0
40
3.5
1

3

2
TDEV:45.53
70
0
0
ATTDEF
8
0
10
0.000000
20
0.000000
30
0.0
40
3.5
1

3

2
TDEV2:0
70
0
0
ATTDEF
8
0
10
0.000000
20
0.000000
30
0.0
40
3.5
1

3

2
TDEV3:0
70
0
0
ATTDEF
8
0
10
0.000000
20
0.000000
30
0.0
40
3.5
1

3

2
TDEV4:0
70
0
0
ATTDEF
8
0
10
0.000000
20
0.000000
30
0.0
40
3.5
1

3

2
TDEV5:0
70
0
0
ATTDEF
8
0
10
0.000000
20
0.000000
30
0.0
40
3.5
1

3

2
PANE_WIDTH:0
70
0
0
ATTDEF
8
0
10
0.000000
20
0.000000
30
0.0
40
3.5
1

3

2
MIN_VETRO:0
70
0
0
ATTDEF
8
0
10
0.000000
20
0.000000
30
0.0
40
3.5
1

3

2
MAX_VETRO:0
70
0
0
ATTDEF
8
0
10
0.000000
20
0.000000
30
0.0
40
3.5
1

3

2
JX:0
70
0
0
ATTDEF
8
0
10
0.000000
20
0.000000
30
0.0
40
3.5
1

3

2
WX:0
70
0
0
ATTDEF
8
0
10
0.000000
20
0.000000
30
0.0
40
3.5
1

3

2
JY:0
70
0
0
ATTDEF
8
0
10
0.000000
20
0.000000
30
0.0
40
3.5
1

3

2
WY:0
70
0
0
ENDSEC
0
EOF
