0
SECTION
2
ENTITIES
0
LINE
8
0
10
14506.932851
20
4637.499918
30
0.0
11
14506.117009
21
4636.228748
31
0.0
0
ARC
8
0
10
14506.285325
20
4636.120722
30
0.0
40
0.200000
50
147.307501
51
225.000000
0
LINE
8
0
10
14506.143904
20
4635.979301
30
0.0
11
14506.485325
21
4635.637879
31
0.0
0
LINE
8
0
10
14506.485325
20
4635.637879
30
0.0
11
14506.485325
21
4634.337915
31
0.0
0
LINE
8
0
10
14506.485325
20
4634.337915
30
0.0
11
14503.585325
21
4634.337915
31
0.0
0
LINE
8
0
10
14503.585325
20
4634.337915
30
0.0
11
14503.585325
21
4632.837879
31
0.0
0
LINE
8
0
10
14503.585325
20
4632.837879
30
0.0
11
14531.061476
21
4632.837879
31
0.0
0
LINE
8
0
10
14531.061476
20
4632.837879
30
0.0
11
14631.885325
21
4625.538122
31
0.0
0
LINE
8
0
10
14631.885325
20
4625.538122
30
0.0
11
14631.885325
21
4624.537879
31
0.0
0
LINE
8
0
10
14631.885325
20
4624.537879
30
0.0
11
14633.585325
21
4624.537879
31
0.0
0
LINE
8
0
10
14633.585325
20
4624.537879
30
0.0
11
14633.585325
21
4626.190521
31
0.0
0
ARC
8
0
10
14632.585325
20
4626.190521
30
0.0
40
1.000000
50
0.000000
51
83.000000
0
LINE
8
0
10
14632.707195
20
4627.183067
30
0.0
11
14533.885325
21
4634.337879
31
0.0
0
LINE
8
0
10
14533.885325
20
4634.337879
30
0.0
11
14527.385325
21
4634.337879
31
0.0
0
LINE
8
0
10
14527.385325
20
4634.337879
30
0.0
11
14527.385325
21
4635.837879
31
0.0
0
LINE
8
0
10
14527.385325
20
4635.837879
30
0.0
11
14527.726747
21
4636.179301
31
0.0
0
ARC
8
0
10
14527.585325
20
4636.320722
30
0.0
40
0.200000
50
315.000000
51
32.692499
0
LINE
8
0
10
14527.753642
20
4636.428748
30
0.0
11
14526.937800
21
4637.699918
31
0.0
0
ARC
8
0
10
14526.685325
20
4637.537879
30
0.0
40
0.300000
50
32.692499
51
180.000000
0
LINE
8
0
10
14526.385325
20
4637.537879
30
0.0
11
14526.385325
21
4634.337915
31
0.0
0
LINE
8
0
10
14526.385325
20
4634.337915
30
0.0
11
14507.485325
21
4634.337915
31
0.0
0
LINE
8
0
10
14507.485325
20
4634.337915
30
0.0
11
14507.485325
21
4637.337879
31
0.0
0
ARC
8
0
10
14507.185325
20
4637.337879
30
0.0
40
0.300000
50
0.000000
51
147.307501
0
ATTDEF
8
0
10
0.000000
20
0.000000
30
0.0
40
3.5
1

3

2
PANE_WIDTH:0
70
0
0
ATTDEF
8
0
10
0.000000
20
0.000000
30
0.0
40
3.5
1

3

2
MIN_VETRO:0
70
0
0
ATTDEF
8
0
10
0.000000
20
0.000000
30
0.0
40
3.5
1

3

2
MAX_VETRO:0
70
0
0
ATTDEF
8
0
10
0.000000
20
0.000000
30
0.0
40
3.5
1

3

2
JX:0
70
0
0
ATTDEF
8
0
10
0.000000
20
0.000000
30
0.0
40
3.5
1

3

2
WX:0
70
0
0
ATTDEF
8
0
10
0.000000
20
0.000000
30
0.0
40
3.5
1

3

2
JY:0
70
0
0
ATTDEF
8
0
10
0.000000
20
0.000000
30
0.0
40
3.5
1

3

2
WY:0
70
0
0
ATTDEF
8
0
10
0.000000
20
0.000000
30
0.0
40
3.5
1

3

2
DESC:Bandeja para compact
70
0
0
ATTDEF
8
0
10
0.000000
20
0.000000
30
0.0
40
3.5
1

3

2
DENS:0.6075
70
0
0
ATTDEF
8
0
10
0.000000
20
0.000000
30
0.0
40
3.5
1

3

2
TDEV:27.94
70
0
0
ATTDEF
8
0
10
0.000000
20
0.000000
30
0.0
40
3.5
1

3

2
TDEV2:0
70
0
0
ATTDEF
8
0
10
0.000000
20
0.000000
30
0.0
40
3.5
1

3

2
TDEV3:0
70
0
0
ATTDEF
8
0
10
0.000000
20
0.000000
30
0.0
40
3.5
1

3

2
TDEV4:0
70
0
0
ATTDEF
8
0
10
0.000000
20
0.000000
30
0.0
40
3.5
1

3

2
TDEV5:0
70
0
0
ATTDEF
8
0
10
0.000000
20
0.000000
30
0.0
40
3.5
1

3

2
PANE_WIDTH:0
70
0
0
ATTDEF
8
0
10
0.000000
20
0.000000
30
0.0
40
3.5
1

3

2
MIN_VETRO:0
70
0
0
ATTDEF
8
0
10
0.000000
20
0.000000
30
0.0
40
3.5
1

3

2
MAX_VETRO:0
70
0
0
ATTDEF
8
0
10
0.000000
20
0.000000
30
0.0
40
3.5
1

3

2
JX:0
70
0
0
ATTDEF
8
0
10
0.000000
20
0.000000
30
0.0
40
3.5
1

3

2
WX:0
70
0
0
ATTDEF
8
0
10
0.000000
20
0.000000
30
0.0
40
3.5
1

3

2
JY:0
70
0
0
ATTDEF
8
0
10
0.000000
20
0.000000
30
0.0
40
3.5
1

3

2
WY:0
70
0
0
ENDSEC
0
EOF
