0
SECTION
2
ENTITIES
0
ARC
8
0
10
14471.553043
20
4543.508082
30
0.0
40
0.300000
50
0.000000
51
146.926049
0
LINE
8
0
10
14471.301653
20
4543.671799
30
0.0
11
14470.153043
21
4541.908082
31
0.0
0
LINE
8
0
10
14470.153043
20
4541.908082
30
0.0
11
14470.653043
21
4541.408082
31
0.0
0
LINE
8
0
10
14470.653043
20
4541.408082
30
0.0
11
14470.653043
21
4539.808082
31
0.0
0
LINE
8
0
10
14470.653043
20
4539.808082
30
0.0
11
14463.353043
21
4539.808082
31
0.0
0
ARC
8
0
10
14463.353043
20
4535.808082
30
0.0
40
4.000000
50
90.000000
51
180.000000
0
LINE
8
0
10
14459.353043
20
4535.808082
30
0.0
11
14459.353043
21
4498.808082
31
0.0
0
ARC
8
0
10
14463.353043
20
4498.808082
30
0.0
40
4.000000
50
180.000000
51
270.000000
0
LINE
8
0
10
14463.353043
20
4494.808082
30
0.0
11
14464.353043
21
4494.808082
31
0.0
0
LINE
8
0
10
14464.353043
20
4494.808082
30
0.0
11
14464.353043
21
4496.108082
31
0.0
0
LINE
8
0
10
14464.353043
20
4496.108082
30
0.0
11
14463.353043
21
4496.108082
31
0.0
0
ARC
8
0
10
14463.353043
20
4498.808082
30
0.0
40
2.700000
50
180.000000
51
270.000000
0
LINE
8
0
10
14460.653043
20
4498.808082
30
0.0
11
14460.653043
21
4535.808082
31
0.0
0
ARC
8
0
10
14463.353043
20
4535.808082
30
0.0
40
2.700000
50
90.000000
51
180.000000
0
LINE
8
0
10
14463.353043
20
4538.508082
30
0.0
11
14536.353043
21
4538.508082
31
0.0
0
LINE
8
0
10
14536.353043
20
4538.508082
30
0.0
11
14536.353043
21
4539.808082
31
0.0
0
LINE
8
0
10
14536.353043
20
4539.808082
30
0.0
11
14528.653043
21
4539.808082
31
0.0
0
LINE
8
0
10
14528.653043
20
4539.808082
30
0.0
11
14528.653043
21
4541.408082
31
0.0
0
LINE
8
0
10
14528.653043
20
4541.408082
30
0.0
11
14529.153043
21
4541.908082
31
0.0
0
LINE
8
0
10
14529.153043
20
4541.908082
30
0.0
11
14528.004433
21
4543.671799
31
0.0
0
ARC
8
0
10
14527.753043
20
4543.508082
30
0.0
40
0.300000
50
33.073951
51
180.000000
0
LINE
8
0
10
14527.453043
20
4543.508082
30
0.0
11
14527.453043
21
4539.808082
31
0.0
0
LINE
8
0
10
14527.453043
20
4539.808082
30
0.0
11
14471.853043
21
4539.808082
31
0.0
0
LINE
8
0
10
14471.853043
20
4539.808082
30
0.0
11
14471.853043
21
4543.508082
31
0.0
0
ATTDEF
8
0
10
0.000000
20
0.000000
30
0.0
40
3.5
1

3

2
PANE_WIDTH:0
70
0
0
ATTDEF
8
0
10
0.000000
20
0.000000
30
0.0
40
3.5
1

3

2
MIN_VETRO:0
70
0
0
ATTDEF
8
0
10
0.000000
20
0.000000
30
0.0
40
3.5
1

3

2
MAX_VETRO:0
70
0
0
ATTDEF
8
0
10
0.000000
20
0.000000
30
0.0
40
3.5
1

3

2
JX:0
70
0
0
ATTDEF
8
0
10
0.000000
20
0.000000
30
0.0
40
3.5
1

3

2
WX:0
70
0
0
ATTDEF
8
0
10
0.000000
20
0.000000
30
0.0
40
3.5
1

3

2
JY:0
70
0
0
ATTDEF
8
0
10
0.000000
20
0.000000
30
0.0
40
3.5
1

3

2
WY:0
70
0
0
ATTDEF
8
0
10
0.000000
20
0.000000
30
0.0
40
3.5
1

3

2
DESC:Solape
70
0
0
ATTDEF
8
0
10
0.000000
20
0.000000
30
0.0
40
3.5
1

3

2
DENS:0.459
70
0
0
ATTDEF
8
0
10
0.000000
20
0.000000
30
0.0
40
3.5
1

3

2
TDEV:26.4
70
0
0
ATTDEF
8
0
10
0.000000
20
0.000000
30
0.0
40
3.5
1

3

2
TDEV2:0
70
0
0
ATTDEF
8
0
10
0.000000
20
0.000000
30
0.0
40
3.5
1

3

2
TDEV3:0
70
0
0
ATTDEF
8
0
10
0.000000
20
0.000000
30
0.0
40
3.5
1

3

2
TDEV4:0
70
0
0
ATTDEF
8
0
10
0.000000
20
0.000000
30
0.0
40
3.5
1

3

2
TDEV5:0
70
0
0
ATTDEF
8
0
10
0.000000
20
0.000000
30
0.0
40
3.5
1

3

2
PANE_WIDTH:0
70
0
0
ATTDEF
8
0
10
0.000000
20
0.000000
30
0.0
40
3.5
1

3

2
MIN_VETRO:0
70
0
0
ATTDEF
8
0
10
0.000000
20
0.000000
30
0.0
40
3.5
1

3

2
MAX_VETRO:0
70
0
0
ATTDEF
8
0
10
0.000000
20
0.000000
30
0.0
40
3.5
1

3

2
JX:0
70
0
0
ATTDEF
8
0
10
0.000000
20
0.000000
30
0.0
40
3.5
1

3

2
WX:0
70
0
0
ATTDEF
8
0
10
0.000000
20
0.000000
30
0.0
40
3.5
1

3

2
JY:0
70
0
0
ATTDEF
8
0
10
0.000000
20
0.000000
30
0.0
40
3.5
1

3

2
WY:0
70
0
0
ENDSEC
0
EOF
