0
SECTION
2
ENTITIES
0
LINE
8
00_POLIAMIDAS
10
251.914199
20
6.149701
30
0.0
11
252.783010
21
7.018512
31
0.0
0
LINE
8
00_POLIAMIDAS
10
251.895015
20
3.885452
30
0.0
11
251.959263
21
3.949701
31
0.0
0
LINE
8
00_POLIAMIDAS
10
253.222408
20
5.212846
30
0.0
11
254.206324
21
6.196762
31
0.0
0
LINE
8
00_POLIAMIDAS
10
251.995015
20
3.985452
30
0.0
11
252.481869
21
4.472307
31
0.0
0
LINE
8
00_POLIAMIDAS
10
254.090254
20
3.835627
30
0.0
11
256.204327
21
5.949701
31
0.0
0
LINE
8
00_POLIAMIDAS
10
251.561952
20
-0.937739
30
0.0
11
252.667730
21
0.168040
31
0.0
0
LINE
8
00_POLIAMIDAS
10
256.649391
20
4.149701
30
0.0
11
258.449391
21
5.949701
31
0.0
0
LINE
8
00_POLIAMIDAS
10
251.305747
20
-3.439007
30
0.0
11
254.282016
21
-0.462739
31
0.0
0
LINE
8
00_POLIAMIDAS
10
258.894455
20
4.149701
30
0.0
11
260.694455
21
5.949701
31
0.0
0
LINE
8
00_POLIAMIDAS
10
254.527080
20
-2.462739
30
0.0
11
256.061883
21
-0.927935
31
0.0
0
LINE
8
00_POLIAMIDAS
10
261.139519
20
4.149701
30
0.0
11
262.939519
21
5.949701
31
0.0
0
LINE
8
00_POLIAMIDAS
10
255.550452
20
-3.684430
30
0.0
11
256.986482
21
-2.248400
31
0.0
0
LINE
8
00_POLIAMIDAS
10
263.384583
20
4.149701
30
0.0
11
265.184583
21
5.949701
31
0.0
0
LINE
8
00_POLIAMIDAS
10
256.475051
20
-5.004895
30
0.0
11
258.129706
21
-3.350240
31
0.0
0
LINE
8
00_POLIAMIDAS
10
265.629647
20
4.149701
30
0.0
11
267.429647
21
5.949701
31
0.0
0
LINE
8
00_POLIAMIDAS
10
258.362272
20
-5.362739
30
0.0
11
260.362272
21
-3.362739
31
0.0
0
LINE
8
00_POLIAMIDAS
10
267.813278
20
4.088268
30
0.0
11
270.494524
21
6.769513
31
0.0
0
LINE
8
00_POLIAMIDAS
10
260.607336
20
-5.362739
30
0.0
11
262.607336
21
-3.362739
31
0.0
0
LINE
8
00_POLIAMIDAS
10
269.254495
20
3.284420
30
0.0
11
270.377228
21
4.407153
31
0.0
0
LINE
8
00_POLIAMIDAS
10
262.852400
20
-5.362739
30
0.0
11
267.752400
21
-0.462739
31
0.0
0
LINE
8
00_POLIAMIDAS
10
265.097464
20
-5.362739
30
0.0
11
266.988602
21
-3.471601
31
0.0
0
LINE
8
00_POLIAMIDAS
10
267.997464
20
-2.462739
30
0.0
11
271.024845
21
0.564642
31
0.0
0
LINE
8
00_POLIAMIDAS
10
269.652213
20
-3.053053
30
0.0
11
270.698881
21
-2.006386
31
0.0
0
LINE
8
00_POLIAMIDAS
10
252.528698
20
-3.173787
30
0.0
11
251.379431
21
-2.024520
31
0.0
0
LINE
8
00_POLIAMIDAS
10
256.962150
20
-5.362174
30
0.0
11
256.171842
21
-4.571867
31
0.0
0
LINE
8
00_POLIAMIDAS
10
254.062863
20
-2.462888
30
0.0
11
251.220971
21
0.379005
31
0.0
0
LINE
8
00_POLIAMIDAS
10
259.207778
20
-5.362739
30
0.0
11
254.307778
21
-0.462739
31
0.0
0
LINE
8
00_POLIAMIDAS
10
261.452842
20
-5.362739
30
0.0
11
259.452842
21
-3.362739
31
0.0
0
LINE
8
00_POLIAMIDAS
10
252.926417
20
3.163686
30
0.0
11
251.995015
21
4.095089
31
0.0
0
LINE
8
00_POLIAMIDAS
10
263.697906
20
-5.362739
30
0.0
11
261.697906
21
-3.362739
31
0.0
0
LINE
8
00_POLIAMIDAS
10
252.686932
20
5.648235
30
0.0
11
251.895015
21
6.440153
31
0.0
0
LINE
8
00_POLIAMIDAS
10
254.349731
20
3.985437
30
0.0
11
253.243549
21
5.091619
31
0.0
0
LINE
8
00_POLIAMIDAS
10
265.776569
20
-5.196338
30
0.0
11
263.942970
21
-3.362739
31
0.0
0
LINE
8
00_POLIAMIDAS
10
256.430530
20
4.149701
30
0.0
11
254.565179
21
6.015052
31
0.0
0
LINE
8
00_POLIAMIDAS
10
266.703732
20
-3.878437
30
0.0
11
265.267702
21
-2.442407
31
0.0
0
LINE
8
00_POLIAMIDAS
10
258.675594
20
4.149701
30
0.0
11
256.875594
21
5.949701
31
0.0
0
LINE
8
00_POLIAMIDAS
10
267.630202
20
-2.559843
30
0.0
11
266.192301
21
-1.121942
31
0.0
0
LINE
8
00_POLIAMIDAS
10
260.920658
20
4.149701
30
0.0
11
259.120658
21
5.949701
31
0.0
0
LINE
8
00_POLIAMIDAS
10
270.870898
20
-3.555475
30
0.0
11
267.778162
21
-0.462739
31
0.0
0
LINE
8
00_POLIAMIDAS
10
263.165722
20
4.149701
30
0.0
11
261.365722
21
5.949701
31
0.0
0
LINE
8
00_POLIAMIDAS
10
270.423608
20
-0.863121
30
0.0
11
269.513182
21
0.047306
31
0.0
0
LINE
8
00_POLIAMIDAS
10
265.410786
20
4.149701
30
0.0
11
263.610786
21
5.949701
31
0.0
0
LINE
8
00_POLIAMIDAS
10
267.681626
20
4.123925
30
0.0
11
265.855850
21
5.949701
31
0.0
0
LINE
8
00_POLIAMIDAS
10
270.495015
20
3.555601
30
0.0
11
269.576873
21
4.473742
31
0.0
0
LINE
8
00_POLIAMIDAS
10
269.169056
20
4.881560
30
0.0
11
267.973117
21
6.077499
31
0.0
0
LINE
8
00_POLIAMIDAS
10
270.395015
20
5.900665
30
0.0
11
269.397902
21
6.897778
31
0.0
0
ARC
8
00_POLIAMIDAS
10
268.308220
20
0.737261
30
0.0
40
1.200000
50
270.000000
51
300.000000
0
LINE
8
00_POLIAMIDAS
10
268.308220
20
-0.462739
30
0.0
11
266.810051
21
-0.462739
31
0.0
0
ARC
8
00_POLIAMIDAS
10
266.810051
20
-0.762739
30
0.0
40
0.300000
50
90.000000
51
145.000000
0
LINE
8
00_POLIAMIDAS
10
266.564305
20
-0.590666
30
0.0
11
264.921864
21
-2.936315
31
0.0
0
ARC
8
00_POLIAMIDAS
10
264.102712
20
-2.362739
30
0.0
40
1.000000
50
270.000000
51
325.000000
0
LINE
8
00_POLIAMIDAS
10
264.102712
20
-3.362739
30
0.0
11
258.287318
21
-3.362739
31
0.0
0
ARC
8
00_POLIAMIDAS
10
258.287318
20
-2.362739
30
0.0
40
1.000000
50
215.000000
51
270.000000
0
LINE
8
00_POLIAMIDAS
10
257.468166
20
-2.936315
30
0.0
11
255.825724
21
-0.590666
31
0.0
0
ARC
8
00_POLIAMIDAS
10
255.579979
20
-0.762739
30
0.0
40
0.300000
50
35.000000
51
90.000000
0
LINE
8
00_POLIAMIDAS
10
255.579979
20
-0.462739
30
0.0
11
254.081809
21
-0.462739
31
0.0
0
ARC
8
00_POLIAMIDAS
10
254.081809
20
0.737261
30
0.0
40
1.200000
50
240.000000
51
270.000000
0
LINE
8
00_POLIAMIDAS
10
253.481809
20
-0.301969
30
0.0
11
251.901425
21
0.610466
31
0.0
0
ARC
8
00_POLIAMIDAS
10
251.801425
20
0.437261
30
0.0
40
0.200000
50
60.000000
51
90.000000
0
LINE
8
00_POLIAMIDAS
10
251.801425
20
0.637261
30
0.0
11
251.595015
21
0.637261
31
0.0
0
ARC
8
00_POLIAMIDAS
10
251.595015
20
0.237261
30
0.0
40
0.400000
50
90.000000
51
180.000000
0
LINE
8
00_POLIAMIDAS
10
251.195015
20
0.237261
30
0.0
11
251.195015
21
-0.262739
31
0.0
0
ARC
8
00_POLIAMIDAS
10
251.295015
20
-0.262739
30
0.0
40
0.100000
50
180.000000
51
270.000000
0
LINE
8
00_POLIAMIDAS
10
251.295015
20
-0.362739
30
0.0
11
251.295015
21
-0.737739
31
0.0
0
ARC
8
00_POLIAMIDAS
10
251.495015
20
-0.737739
30
0.0
40
0.200000
50
180.000000
51
270.000000
0
LINE
8
00_POLIAMIDAS
10
251.495015
20
-0.937739
30
0.0
11
251.606821
21
-0.937739
31
0.0
0
LINE
8
00_POLIAMIDAS
10
251.606821
20
-0.937739
30
0.0
11
251.691369
21
-0.918989
31
0.0
0
ARC
8
00_POLIAMIDAS
10
251.945015
20
-1.462739
30
0.0
40
0.600000
50
0.000000
51
115.007833
0
ARC
8
00_POLIAMIDAS
10
251.945015
20
-1.462739
30
0.0
40
0.600000
50
244.992167
51
0.000000
0
LINE
8
00_POLIAMIDAS
10
251.691369
20
-2.006489
30
0.0
11
251.606821
21
-1.987739
31
0.0
0
LINE
8
00_POLIAMIDAS
10
251.606821
20
-1.987739
30
0.0
11
251.495015
21
-1.987739
31
0.0
0
ARC
8
00_POLIAMIDAS
10
251.495015
20
-2.187739
30
0.0
40
0.200000
50
90.000000
51
180.000000
0
LINE
8
00_POLIAMIDAS
10
251.295015
20
-2.187739
30
0.0
11
251.295015
21
-2.562739
31
0.0
0
ARC
8
00_POLIAMIDAS
10
251.295015
20
-2.662739
30
0.0
40
0.100000
50
90.000000
51
180.000000
0
LINE
8
00_POLIAMIDAS
10
251.195015
20
-2.662739
30
0.0
11
251.195015
21
-3.162739
31
0.0
0
ARC
8
00_POLIAMIDAS
10
251.595015
20
-3.162739
30
0.0
40
0.400000
50
180.000000
51
270.000000
0
LINE
8
00_POLIAMIDAS
10
251.595015
20
-3.562739
30
0.0
11
251.801425
21
-3.562739
31
0.0
0
ARC
8
00_POLIAMIDAS
10
251.801425
20
-3.362739
30
0.0
40
0.200000
50
270.000000
51
300.000000
0
LINE
8
00_POLIAMIDAS
10
251.901425
20
-3.535944
30
0.0
11
252.895015
21
-2.962294
31
0.0
0
LINE
8
00_POLIAMIDAS
10
252.895015
20
-2.962294
30
0.0
11
253.481809
21
-2.623508
31
0.0
0
ARC
8
00_POLIAMIDAS
10
254.081809
20
-3.662739
30
0.0
40
1.200000
50
90.000000
51
120.000000
0
LINE
8
00_POLIAMIDAS
10
254.081809
20
-2.462739
30
0.0
11
254.538844
21
-2.462739
31
0.0
0
ARC
8
00_POLIAMIDAS
10
254.538844
20
-2.762739
30
0.0
40
0.300000
50
35.000000
51
90.000000
0
LINE
8
00_POLIAMIDAS
10
254.784590
20
-2.590666
30
0.0
11
256.576324
21
-5.149527
31
0.0
0
ARC
8
00_POLIAMIDAS
10
256.985900
20
-4.862739
30
0.0
40
0.500000
50
215.000000
51
270.000000
0
LINE
8
00_POLIAMIDAS
10
256.985900
20
-5.362739
30
0.0
11
261.925071
21
-5.362739
31
0.0
0
LINE
8
00_POLIAMIDAS
10
261.925071
20
-5.362739
30
0.0
11
265.404129
21
-5.362739
31
0.0
0
ARC
8
00_POLIAMIDAS
10
265.404129
20
-4.862739
30
0.0
40
0.500000
50
270.000000
51
325.000000
0
LINE
8
00_POLIAMIDAS
10
265.813705
20
-5.149527
30
0.0
11
267.605439
21
-2.590666
31
0.0
0
ARC
8
00_POLIAMIDAS
10
267.851185
20
-2.762739
30
0.0
40
0.300000
50
90.000000
51
145.000000
0
LINE
8
00_POLIAMIDAS
10
267.851185
20
-2.462739
30
0.0
11
268.308220
21
-2.462739
31
0.0
0
ARC
8
00_POLIAMIDAS
10
268.308220
20
-3.662739
30
0.0
40
1.200000
50
60.000000
51
90.000000
0
LINE
8
00_POLIAMIDAS
10
268.908220
20
-2.623508
30
0.0
11
269.495015
21
-2.962294
31
0.0
0
LINE
8
00_POLIAMIDAS
10
269.495015
20
-2.962294
30
0.0
11
270.488604
21
-3.535944
31
0.0
0
ARC
8
00_POLIAMIDAS
10
270.588604
20
-3.362739
30
0.0
40
0.200000
50
240.000000
51
270.000000
0
LINE
8
00_POLIAMIDAS
10
270.588604
20
-3.562739
30
0.0
11
270.795015
21
-3.562739
31
0.0
0
ARC
8
00_POLIAMIDAS
10
270.795015
20
-3.162739
30
0.0
40
0.400000
50
270.000000
51
0.000000
0
LINE
8
00_POLIAMIDAS
10
271.195015
20
-3.162739
30
0.0
11
271.195015
21
-2.662739
31
0.0
0
ARC
8
00_POLIAMIDAS
10
271.095015
20
-2.662739
30
0.0
40
0.100000
50
0.000000
51
90.000000
0
LINE
8
00_POLIAMIDAS
10
271.095015
20
-2.562739
30
0.0
11
271.095015
21
-2.187739
31
0.0
0
ARC
8
00_POLIAMIDAS
10
270.895015
20
-2.187739
30
0.0
40
0.200000
50
0.000000
51
90.000000
0
LINE
8
00_POLIAMIDAS
10
270.895015
20
-1.987739
30
0.0
11
270.783208
21
-1.987739
31
0.0
0
LINE
8
00_POLIAMIDAS
10
270.783208
20
-1.987739
30
0.0
11
270.698660
21
-2.006489
31
0.0
0
ARC
8
00_POLIAMIDAS
10
270.445015
20
-1.462739
30
0.0
40
0.600000
50
180.000000
51
295.007833
0
ARC
8
00_POLIAMIDAS
10
270.445015
20
-1.462739
30
0.0
40
0.600000
50
64.992167
51
180.000000
0
LINE
8
00_POLIAMIDAS
10
270.698660
20
-0.918989
30
0.0
11
270.783208
21
-0.937739
31
0.0
0
LINE
8
00_POLIAMIDAS
10
270.783208
20
-0.937739
30
0.0
11
270.895015
21
-0.937739
31
0.0
0
ARC
8
00_POLIAMIDAS
10
270.895015
20
-0.737739
30
0.0
40
0.200000
50
270.000000
51
0.000000
0
LINE
8
00_POLIAMIDAS
10
271.095015
20
-0.737739
30
0.0
11
271.095015
21
-0.362739
31
0.0
0
ARC
8
00_POLIAMIDAS
10
271.095015
20
-0.262739
30
0.0
40
0.100000
50
270.000000
51
0.000000
0
LINE
8
00_POLIAMIDAS
10
271.195015
20
-0.262739
30
0.0
11
271.195015
21
0.237261
31
0.0
0
ARC
8
00_POLIAMIDAS
10
270.795015
20
0.237261
30
0.0
40
0.400000
50
0.000000
51
90.000000
0
LINE
8
00_POLIAMIDAS
10
270.795015
20
0.637261
30
0.0
11
270.588604
21
0.637261
31
0.0
0
ARC
8
00_POLIAMIDAS
10
270.588604
20
0.437261
30
0.0
40
0.200000
50
90.000000
51
120.000000
0
LINE
8
00_POLIAMIDAS
10
270.488604
20
0.610466
30
0.0
11
269.495015
21
0.036817
31
0.0
0
LINE
8
00_POLIAMIDAS
10
269.495015
20
0.036817
30
0.0
11
268.908220
21
-0.301969
31
0.0
0
ARC
8
00_ALUMINIO
10
253.494919
20
-0.150213
30
0.0
40
0.200000
50
193.622214
51
0.000000
0
LINE
8
00_ALUMINIO
10
253.694919
20
-0.150213
30
0.0
11
253.694919
21
1.035150
31
0.0
0
ARC
8
00_ALUMINIO
10
254.194919
20
1.035150
30
0.0
40
0.500000
50
150.000000
51
180.000000
0
LINE
8
00_ALUMINIO
10
253.761906
20
1.285150
30
0.0
11
254.327931
21
2.265535
31
0.0
0
ARC
8
00_ALUMINIO
10
253.894919
20
2.515535
30
0.0
40
0.500000
50
330.000000
51
0.000000
0
LINE
8
00_ALUMINIO
10
254.394919
20
2.515535
30
0.0
11
254.394919
21
3.700898
31
0.0
0
ARC
8
00_ALUMINIO
10
254.194919
20
3.700898
30
0.0
40
0.200000
50
0.000000
51
181.773628
0
LINE
8
00_ALUMINIO
10
253.995015
20
3.694708
30
0.0
11
252.319022
21
2.672475
31
0.0
0
ARC
8
00_ALUMINIO
10
252.162807
20
2.928594
30
0.0
40
0.300000
50
270.000000
51
301.380132
0
LINE
8
00_ALUMINIO
10
252.162807
20
2.628594
30
0.0
11
252.094919
21
2.628594
31
0.0
0
ARC
8
00_ALUMINIO
10
252.094919
20
2.828594
30
0.0
40
0.200000
50
180.000000
51
270.000000
0
LINE
8
00_ALUMINIO
10
251.894919
20
2.828594
30
0.0
11
251.894919
21
7.026202
31
0.0
0
ARC
8
00_ALUMINIO
10
251.594919
20
7.026202
30
0.0
40
0.300000
50
359.999997
51
53.130111
0
ARC
8
00_ALUMINIO
10
251.894919
20
7.426202
30
0.0
40
0.200000
50
89.999979
51
233.130120
0
LINE
8
00_ALUMINIO
10
251.894919
20
7.626202
30
0.0
11
252.167335
21
7.626202
31
0.0
0
ARC
8
00_ALUMINIO
10
252.167335
20
7.326202
30
0.0
40
0.300000
50
56.390972
51
90.000000
0
LINE
8
00_ALUMINIO
10
252.333392
20
7.576052
30
0.0
11
254.071907
21
6.420591
31
0.0
0
LINE
8
00_ALUMINIO
10
254.071907
20
6.420591
30
0.0
11
253.990515
21
6.184211
31
0.0
0
LINE
8
00_ALUMINIO
10
253.990515
20
6.184211
30
0.0
11
254.171786
21
6.121794
31
0.0
0
ARC
8
00_ALUMINIO
10
254.236900
20
6.310898
30
0.0
40
0.200000
50
251.000000
51
306.345783
0
LINE
8
00_ALUMINIO
10
254.355431
20
6.149807
30
0.0
11
257.218191
21
8.256237
31
0.0
0
ARC
8
00_ALUMINIO
10
256.921863
20
8.658965
30
0.0
40
0.500000
50
306.345783
51
94.840538
0
LINE
8
00_ALUMINIO
10
256.879671
20
9.157181
30
0.0
11
252.396074
21
8.777488
31
0.0
0
LINE
8
00_ALUMINIO
10
252.370759
20
8.776418
30
0.0
11
252.396074
21
8.777488
31
0.0
0
LINE
8
00_ALUMINIO
10
252.370759
20
8.776418
30
0.0
11
251.532679
21
8.776418
31
0.0
0
ARC
8
00_ALUMINIO
10
251.532679
20
9.076418
30
0.0
40
0.300000
50
180.000000
51
270.000000
0
LINE
8
00_ALUMINIO
10
251.232679
20
9.076418
30
0.0
11
251.232679
21
13.000871
31
0.0
0
LINE
8
00_ALUMINIO
10
251.232679
20
13.000871
30
0.0
11
252.204919
21
13.000871
31
0.0
0
ARC
8
00_ALUMINIO
10
252.204919
20
14.000871
30
0.0
40
1.000000
50
270.000000
51
0.000000
0
LINE
8
00_ALUMINIO
10
253.204919
20
14.000871
30
0.0
11
253.204919
21
26.300871
31
0.0
0
ARC
8
00_ALUMINIO
10
251.204919
20
26.300871
30
0.0
40
2.000000
50
0.000000
51
90.000000
0
LINE
8
00_ALUMINIO
10
251.204919
20
28.300871
30
0.0
11
243.327972
21
28.300871
31
0.0
0
ARC
8
00_ALUMINIO
10
243.327972
20
26.800871
30
0.0
40
1.500000
50
90.000000
51
180.000000
0
LINE
8
00_ALUMINIO
10
241.827972
20
26.800871
30
0.0
11
250.205689
21
26.800871
31
0.0
0
ARC
8
00_ALUMINIO
10
250.205689
20
25.800871
30
0.0
40
1.000000
50
0.000000
51
90.000000
0
LINE
8
00_ALUMINIO
10
251.205689
20
25.800871
30
0.0
11
251.205689
21
17.200871
31
0.0
0
ARC
8
00_ALUMINIO
10
250.705689
20
17.200871
30
0.0
40
0.500000
50
270.000000
51
0.000000
0
LINE
8
00_ALUMINIO
10
250.705689
20
16.700871
30
0.0
11
228.655701
21
16.700871
31
0.0
0
ARC
8
00_ALUMINIO
10
228.655701
20
18.700871
30
0.0
40
2.000000
50
179.987024
51
270.000000
0
LINE
8
00_ALUMINIO
10
226.655701
20
18.701324
30
0.0
11
226.657478
21
26.550928
31
0.0
0
ARC
8
00_ALUMINIO
10
226.907478
20
26.550871
30
0.0
40
0.250000
50
90.000000
51
179.987024
0
LINE
8
00_ALUMINIO
10
226.907478
20
26.800871
30
0.0
11
228.607539
21
26.800871
31
0.0
0
ARC
8
00_ALUMINIO
10
227.107539
20
26.800871
30
0.0
40
1.500000
50
0.000000
51
90.000000
0
LINE
8
00_ALUMINIO
10
227.107539
20
28.300871
30
0.0
11
225.354569
21
28.300871
31
0.0
0
ARC
8
00_ALUMINIO
10
225.354569
20
27.800871
30
0.0
40
0.500000
50
90.000000
51
180.000000
0
LINE
8
00_ALUMINIO
10
224.854569
20
27.800871
30
0.0
11
224.854569
21
-6.200240
31
0.0
0
ARC
8
00_ALUMINIO
10
225.354569
20
-6.200240
30
0.0
40
0.500000
50
180.000000
51
270.000000
0
LINE
8
00_ALUMINIO
10
225.354569
20
-6.700240
30
0.0
11
227.959949
21
-6.700240
31
0.0
0
ARC
8
00_ALUMINIO
10
227.959949
20
-6.200240
30
0.0
40
0.500000
50
270.000000
51
345.000000
0
LINE
8
00_ALUMINIO
10
228.442912
20
-6.329649
30
0.0
11
228.644347
21
-5.577885
31
0.0
0
ARC
8
00_ALUMINIO
10
228.354569
20
-5.500240
30
0.0
40
0.300000
50
345.000000
51
90.000000
0
LINE
8
00_ALUMINIO
10
228.354569
20
-5.200240
30
0.0
11
226.854569
21
-5.200240
31
0.0
0
ARC
8
00_ALUMINIO
10
226.854569
20
-4.900240
30
0.0
40
0.300000
50
180.000000
51
270.000000
0
LINE
8
00_ALUMINIO
10
226.554569
20
-4.900240
30
0.0
11
226.554569
21
-2.499129
31
0.0
0
ARC
8
00_ALUMINIO
10
226.854569
20
-2.499129
30
0.0
40
0.300000
50
90.000000
51
180.000000
0
LINE
8
00_ALUMINIO
10
226.854569
20
-2.199129
30
0.0
11
235.979744
21
-2.199129
31
0.0
0
LINE
8
00_ALUMINIO
10
235.979744
20
-2.199129
30
0.0
11
236.229744
21
-1.949129
31
0.0
0
LINE
8
00_ALUMINIO
10
236.229744
20
-1.949129
30
0.0
11
236.479744
21
-2.199129
31
0.0
0
LINE
8
00_ALUMINIO
10
236.479744
20
-2.199129
30
0.0
11
249.134919
21
-2.199129
31
0.0
0
ARC
8
00_ALUMINIO
10
249.134919
20
-2.499129
30
0.0
40
0.300000
50
0.000000
51
90.000000
0
LINE
8
00_ALUMINIO
10
249.434919
20
-2.499129
30
0.0
11
249.434919
21
-4.900240
31
0.0
0
ARC
8
00_ALUMINIO
10
249.134919
20
-4.900240
30
0.0
40
0.300000
50
270.000000
51
0.000000
0
LINE
8
00_ALUMINIO
10
249.134919
20
-5.200240
30
0.0
11
246.104919
21
-5.200240
31
0.0
0
ARC
8
00_ALUMINIO
10
246.104919
20
-5.500240
30
0.0
40
0.300000
50
90.000000
51
195.000000
0
LINE
8
00_ALUMINIO
10
245.815141
20
-5.577885
30
0.0
11
246.016576
21
-6.329649
31
0.0
0
ARC
8
00_ALUMINIO
10
246.499538
20
-6.200240
30
0.0
40
0.500000
50
195.000000
51
270.000000
0
LINE
8
00_ALUMINIO
10
246.499538
20
-6.700240
30
0.0
11
250.694919
21
-6.700240
31
0.0
0
ARC
8
00_ALUMINIO
10
250.694919
20
-6.200240
30
0.0
40
0.500000
50
270.000000
51
0.000000
0
LINE
8
00_ALUMINIO
10
251.194919
20
-6.200240
30
0.0
11
251.194919
21
-5.927830
31
0.0
0
ARC
8
00_ALUMINIO
10
251.494919
20
-5.927830
30
0.0
40
0.300000
50
106.235686
51
180.000000
0
LINE
8
00_ALUMINIO
10
251.411042
20
-5.639794
30
0.0
11
253.009650
21
-5.174275
31
0.0
0
ARC
8
00_ALUMINIO
10
253.093527
20
-5.462311
30
0.0
40
0.300000
50
48.000000
51
106.235686
0
LINE
8
00_ALUMINIO
10
253.294266
20
-5.239368
30
0.0
11
253.790376
21
-5.686067
31
0.0
0
ARC
8
00_ALUMINIO
10
253.991116
20
-5.463124
30
0.0
40
0.300000
50
228.000000
51
270.000000
0
LINE
8
00_ALUMINIO
10
253.991116
20
-5.763124
30
0.0
11
255.776259
21
-5.763124
31
0.0
0
ARC
8
00_ALUMINIO
10
255.776259
20
-5.463124
30
0.0
40
0.300000
50
270.000000
51
31.519182
0
LINE
8
00_ALUMINIO
10
256.031998
20
-5.306289
30
0.0
11
254.869725
21
-3.411056
31
0.0
0
ARC
8
00_ALUMINIO
10
254.613986
20
-3.567891
30
0.0
40
0.300000
50
31.519182
51
61.000000
0
LINE
8
00_ALUMINIO
10
254.759429
20
-3.305506
30
0.0
11
253.410984
21
-2.558050
31
0.0
0
ARC
8
00_ALUMINIO
10
253.314022
20
-2.732974
30
0.0
40
0.200000
50
61.000000
51
181.000000
0
LINE
8
00_ALUMINIO
10
253.114052
20
-2.736465
30
0.0
11
253.117386
21
-2.927436
31
0.0
0
ARC
8
00_ALUMINIO
10
252.917416
20
-2.930926
30
0.0
40
0.200000
50
308.940638
51
1.000000
0
LINE
8
00_ALUMINIO
10
253.043119
20
-3.086486
30
0.0
11
251.383184
21
-4.427830
31
0.0
0
LINE
8
00_ALUMINIO
10
251.383184
20
-4.427830
30
0.0
11
251.194919
21
-4.427830
31
0.0
0
ARC
8
00_ALUMINIO
10
251.194919
20
-4.127830
30
0.0
40
0.300000
50
90.000000
51
270.000000
0
LINE
8
00_ALUMINIO
10
251.194919
20
-3.827830
30
0.0
11
251.194919
21
0.672170
31
0.0
0
ARC
8
00_ALUMINIO
10
251.394919
20
0.672170
30
0.0
40
0.200000
50
90.000000
51
180.000000
0
LINE
8
00_ALUMINIO
10
251.394919
20
0.872170
30
0.0
11
251.462807
21
0.872170
31
0.0
0
ARC
8
00_ALUMINIO
10
251.462807
20
0.572170
30
0.0
40
0.300000
50
58.619868
51
90.000000
0
LINE
8
00_ALUMINIO
10
251.619022
20
0.828290
30
0.0
11
253.300545
21
-0.197316
31
0.0
0
ARC
8
00_ALUMINIO
10
246.303748
20
14.650871
30
0.0
40
0.250000
50
0.000000
51
90.000000
0
LINE
8
00_ALUMINIO
10
246.553748
20
14.650871
30
0.0
11
246.553748
21
13.200871
31
0.0
0
ARC
8
00_ALUMINIO
10
246.853748
20
13.200871
30
0.0
40
0.300000
50
180.000000
51
270.000000
0
LINE
8
00_ALUMINIO
10
246.853748
20
12.900871
30
0.0
11
247.399239
21
12.900871
31
0.0
0
ARC
8
00_ALUMINIO
10
247.399239
20
13.150871
30
0.0
40
0.250000
50
270.000000
51
333.434949
0
LINE
8
00_ALUMINIO
10
247.622846
20
13.039068
30
0.0
11
248.484649
21
14.762675
31
0.0
0
ARC
8
00_ALUMINIO
10
248.708256
20
14.650871
30
0.0
40
0.250000
50
90.000000
51
153.434949
0
LINE
8
00_ALUMINIO
10
248.708256
20
14.900871
30
0.0
11
249.184919
21
14.900871
31
0.0
0
ARC
8
00_ALUMINIO
10
249.184919
20
14.650871
30
0.0
40
0.250000
50
0.000000
51
90.000000
0
LINE
8
00_ALUMINIO
10
249.434919
20
14.650871
30
0.0
11
249.434919
21
-0.149129
31
0.0
0
ARC
8
00_ALUMINIO
10
249.184919
20
-0.149129
30
0.0
40
0.250000
50
270.000000
51
0.000000
0
LINE
8
00_ALUMINIO
10
249.184919
20
-0.399129
30
0.0
11
248.708256
21
-0.399129
31
0.0
0
ARC
8
00_ALUMINIO
10
248.708256
20
-0.149129
30
0.0
40
0.250000
50
206.565051
51
270.000000
0
LINE
8
00_ALUMINIO
10
248.484649
20
-0.260932
30
0.0
11
247.622846
21
1.462675
31
0.0
0
ARC
8
00_ALUMINIO
10
247.399239
20
1.350871
30
0.0
40
0.250000
50
26.565051
51
90.000000
0
LINE
8
00_ALUMINIO
10
247.399239
20
1.600871
30
0.0
11
246.803748
21
1.600871
31
0.0
0
ARC
8
00_ALUMINIO
10
246.803748
20
1.350871
30
0.0
40
0.250000
50
90.000000
51
180.000000
0
LINE
8
00_ALUMINIO
10
246.553748
20
1.350871
30
0.0
11
246.553748
21
-0.149129
31
0.0
0
ARC
8
00_ALUMINIO
10
246.303748
20
-0.149129
30
0.0
40
0.250000
50
270.000000
51
0.000000
0
LINE
8
00_ALUMINIO
10
246.303748
20
-0.399129
30
0.0
11
226.804569
21
-0.399129
31
0.0
0
ARC
8
00_ALUMINIO
10
226.804569
20
-0.149129
30
0.0
40
0.250000
50
180.000000
51
270.000000
0
LINE
8
00_ALUMINIO
10
226.554569
20
-0.149129
30
0.0
11
226.554569
21
14.650871
31
0.0
0
ARC
8
00_ALUMINIO
10
226.804569
20
14.650871
30
0.0
40
0.250000
50
90.000000
51
180.000000
0
LINE
8
00_ALUMINIO
10
226.804569
20
14.900871
30
0.0
11
246.303748
21
14.900871
31
0.0
0
ARC
8
00_ALUMINIO
10
275.864868
20
13.150871
30
0.0
40
0.250000
50
270.000000
51
0.000000
0
LINE
8
00_ALUMINIO
10
276.114868
20
13.150871
30
0.0
11
276.114868
21
14.650871
31
0.0
0
ARC
8
00_ALUMINIO
10
276.364868
20
14.650871
30
0.0
40
0.250000
50
90.000000
51
180.000000
0
LINE
8
00_ALUMINIO
10
276.364868
20
14.900871
30
0.0
11
295.864913
21
14.900871
31
0.0
0
ARC
8
00_ALUMINIO
10
295.864913
20
14.650871
30
0.0
40
0.250000
50
0.000000
51
90.000000
0
LINE
8
00_ALUMINIO
10
296.114913
20
14.650871
30
0.0
11
296.114913
21
-0.149129
31
0.0
0
ARC
8
00_ALUMINIO
10
295.864913
20
-0.149129
30
0.0
40
0.250000
50
270.000000
51
0.000000
0
LINE
8
00_ALUMINIO
10
295.864913
20
-0.399129
30
0.0
11
276.364868
21
-0.399129
31
0.0
0
ARC
8
00_ALUMINIO
10
276.364868
20
-0.149129
30
0.0
40
0.250000
50
180.000000
51
270.000000
0
LINE
8
00_ALUMINIO
10
276.114868
20
-0.149129
30
0.0
11
276.114868
21
1.350871
31
0.0
0
ARC
8
00_ALUMINIO
10
275.864868
20
1.350871
30
0.0
40
0.250000
50
0.000000
51
90.000000
0
LINE
8
00_ALUMINIO
10
275.864868
20
1.600871
30
0.0
11
275.269377
21
1.600871
31
0.0
0
ARC
8
00_ALUMINIO
10
275.269377
20
1.350871
30
0.0
40
0.250000
50
90.000000
51
153.434949
0
LINE
8
00_ALUMINIO
10
275.045770
20
1.462675
30
0.0
11
274.183967
21
-0.260932
31
0.0
0
ARC
8
00_ALUMINIO
10
273.960360
20
-0.149129
30
0.0
40
0.250000
50
270.000000
51
333.434949
0
LINE
8
00_ALUMINIO
10
273.960360
20
-0.399129
30
0.0
11
273.244919
21
-0.399129
31
0.0
0
ARC
8
00_ALUMINIO
10
273.244919
20
-0.149129
30
0.0
40
0.250000
50
180.000000
51
270.000000
0
LINE
8
00_ALUMINIO
10
272.994919
20
-0.149129
30
0.0
11
272.994919
21
14.650871
31
0.0
0
ARC
8
00_ALUMINIO
10
273.244919
20
14.650871
30
0.0
40
0.250000
50
90.000000
51
180.000000
0
LINE
8
00_ALUMINIO
10
273.244919
20
14.900871
30
0.0
11
273.962073
21
14.900871
31
0.0
0
ARC
8
00_ALUMINIO
10
273.962073
20
14.650871
30
0.0
40
0.250000
50
27.135140
51
90.000000
0
LINE
8
00_ALUMINIO
10
274.184557
20
14.764894
30
0.0
11
275.070180
21
13.036848
31
0.0
0
ARC
8
00_ALUMINIO
10
275.292663
20
13.150871
30
0.0
40
0.250000
50
207.135140
51
270.000000
0
LINE
8
00_ALUMINIO
10
275.292663
20
12.900871
30
0.0
11
275.864868
21
12.900871
31
0.0
0
ARC
8
00_ALUMINIO
10
268.894919
20
-0.150213
30
0.0
40
0.200000
50
180.000000
51
346.340018
0
LINE
8
00_ALUMINIO
10
269.089262
20
-0.197445
30
0.0
11
270.770816
21
0.828290
31
0.0
0
ARC
8
00_ALUMINIO
10
270.927030
20
0.572170
30
0.0
40
0.300000
50
90.000000
51
121.380132
0
LINE
8
00_ALUMINIO
10
270.927030
20
0.872170
30
0.0
11
270.994919
21
0.872170
31
0.0
0
ARC
8
00_ALUMINIO
10
270.994919
20
0.672170
30
0.0
40
0.200000
50
0.000000
51
90.000000
0
LINE
8
00_ALUMINIO
10
271.194919
20
0.672170
30
0.0
11
271.194919
21
-3.827830
31
0.0
0
ARC
8
00_ALUMINIO
10
271.194919
20
-4.127830
30
0.0
40
0.300000
50
270.000000
51
90.000000
0
LINE
8
00_ALUMINIO
10
271.194919
20
-4.427830
30
0.0
11
271.006654
21
-4.427830
31
0.0
0
LINE
8
00_ALUMINIO
10
271.006654
20
-4.427830
30
0.0
11
269.346718
21
-3.086486
31
0.0
0
ARC
8
00_ALUMINIO
10
269.472421
20
-2.930926
30
0.0
40
0.200000
50
179.000000
51
231.059362
0
LINE
8
00_ALUMINIO
10
269.272452
20
-2.927436
30
0.0
11
269.275785
21
-2.736465
31
0.0
0
ARC
8
00_ALUMINIO
10
269.075816
20
-2.732974
30
0.0
40
0.200000
50
359.000000
51
119.000000
0
LINE
8
00_ALUMINIO
10
268.978854
20
-2.558050
30
0.0
11
267.630409
21
-3.305506
31
0.0
0
ARC
8
00_ALUMINIO
10
267.775852
20
-3.567891
30
0.0
40
0.300000
50
119.000000
51
148.480818
0
LINE
8
00_ALUMINIO
10
267.520112
20
-3.411056
30
0.0
11
266.357839
21
-5.306289
31
0.0
0
ARC
8
00_ALUMINIO
10
266.613579
20
-5.463124
30
0.0
40
0.300000
50
148.480818
51
270.000000
0
LINE
8
00_ALUMINIO
10
266.613579
20
-5.763124
30
0.0
11
268.398722
21
-5.763124
31
0.0
0
ARC
8
00_ALUMINIO
10
268.398722
20
-5.463124
30
0.0
40
0.300000
50
270.000000
51
312.000000
0
LINE
8
00_ALUMINIO
10
268.599461
20
-5.686067
30
0.0
11
269.095571
21
-5.239368
31
0.0
0
ARC
8
00_ALUMINIO
10
269.296310
20
-5.462311
30
0.0
40
0.300000
50
73.764314
51
132.000000
0
LINE
8
00_ALUMINIO
10
269.380187
20
-5.174275
30
0.0
11
270.978795
21
-5.639794
31
0.0
0
ARC
8
00_ALUMINIO
10
270.894919
20
-5.927830
30
0.0
40
0.300000
50
0.000000
51
73.764314
0
LINE
8
00_ALUMINIO
10
271.194919
20
-5.927830
30
0.0
11
271.194919
21
-6.200240
31
0.0
0
ARC
8
00_ALUMINIO
10
271.694919
20
-6.200240
30
0.0
40
0.500000
50
180.000000
51
270.000000
0
LINE
8
00_ALUMINIO
10
271.694919
20
-6.700240
30
0.0
11
276.560299
21
-6.700240
31
0.0
0
ARC
8
00_ALUMINIO
10
276.560299
20
-6.200240
30
0.0
40
0.500000
50
270.000000
51
345.000000
0
LINE
8
00_ALUMINIO
10
277.043262
20
-6.329649
30
0.0
11
277.244696
21
-5.577885
31
0.0
0
ARC
8
00_ALUMINIO
10
276.954919
20
-5.500240
30
0.0
40
0.300000
50
345.000000
51
90.000000
0
LINE
8
00_ALUMINIO
10
276.954919
20
-5.200240
30
0.0
11
273.294919
21
-5.200240
31
0.0
0
ARC
8
00_ALUMINIO
10
273.294919
20
-4.900240
30
0.0
40
0.300000
50
180.000000
51
270.000000
0
LINE
8
00_ALUMINIO
10
272.994919
20
-4.900240
30
0.0
11
272.994919
21
-2.499129
31
0.0
0
ARC
8
00_ALUMINIO
10
273.294919
20
-2.499129
30
0.0
40
0.300000
50
90.000000
51
180.000000
0
LINE
8
00_ALUMINIO
10
273.294919
20
-2.199129
30
0.0
11
286.384916
21
-2.199129
31
0.0
0
LINE
8
00_ALUMINIO
10
286.384916
20
-2.199129
30
0.0
11
286.634916
21
-1.949129
31
0.0
0
LINE
8
00_ALUMINIO
10
286.634916
20
-1.949129
30
0.0
11
286.884916
21
-2.199129
31
0.0
0
LINE
8
00_ALUMINIO
10
286.884916
20
-2.199129
30
0.0
11
295.814913
21
-2.199129
31
0.0
0
ARC
8
00_ALUMINIO
10
295.814913
20
-2.499129
30
0.0
40
0.300000
50
0.000000
51
90.000000
0
LINE
8
00_ALUMINIO
10
296.114913
20
-2.499129
30
0.0
11
296.114913
21
-4.900240
31
0.0
0
ARC
8
00_ALUMINIO
10
295.814913
20
-4.900240
30
0.0
40
0.300000
50
270.000000
51
0.000000
0
LINE
8
00_ALUMINIO
10
295.814913
20
-5.200240
30
0.0
11
294.314913
21
-5.200240
31
0.0
0
ARC
8
00_ALUMINIO
10
294.314913
20
-5.500240
30
0.0
40
0.300000
50
90.000000
51
195.000000
0
LINE
8
00_ALUMINIO
10
294.025135
20
-5.577885
30
0.0
11
294.226569
21
-6.329649
31
0.0
0
ARC
8
00_ALUMINIO
10
294.709532
20
-6.200240
30
0.0
40
0.500000
50
195.000000
51
270.000000
0
LINE
8
00_ALUMINIO
10
294.709532
20
-6.700240
30
0.0
11
297.314913
21
-6.700240
31
0.0
0
ARC
8
00_ALUMINIO
10
297.314913
20
-6.200240
30
0.0
40
0.500000
50
270.000000
51
0.000000
0
LINE
8
00_ALUMINIO
10
297.814913
20
-6.200240
30
0.0
11
297.814913
21
25.300871
31
0.0
0
ARC
8
00_ALUMINIO
10
298.814913
20
25.300871
30
0.0
40
1.000000
50
90.000000
51
180.000000
0
LINE
8
00_ALUMINIO
10
298.814913
20
26.300871
30
0.0
11
304.914919
21
26.300871
31
0.0
0
ARC
8
00_ALUMINIO
10
304.914919
20
27.300871
30
0.0
40
1.000000
50
270.000000
51
0.000000
0
LINE
8
00_ALUMINIO
10
305.914919
20
27.300871
30
0.0
11
305.914919
21
47.800871
31
0.0
0
ARC
8
00_ALUMINIO
10
305.414919
20
47.800871
30
0.0
40
0.500000
50
0.000000
51
90.000000
0
LINE
8
00_ALUMINIO
10
305.414919
20
48.300871
30
0.0
11
301.914919
21
48.300871
31
0.0
0
ARC
8
00_ALUMINIO
10
301.914919
20
47.800871
30
0.0
40
0.500000
50
90.000000
51
180.000000
0
LINE
8
00_ALUMINIO
10
301.414919
20
47.800871
30
0.0
11
301.414919
21
46.006667
31
0.0
0
ARC
8
00_ALUMINIO
10
301.714919
20
46.006667
30
0.0
40
0.300000
50
180.000000
51
260.000000
0
LINE
8
00_ALUMINIO
10
301.662824
20
45.711225
30
0.0
11
302.262824
21
45.605429
31
0.0
0
ARC
8
00_ALUMINIO
10
302.314919
20
45.900871
30
0.0
40
0.300000
50
260.000000
51
0.000000
0
LINE
8
00_ALUMINIO
10
302.614919
20
45.900871
30
0.0
11
302.614919
21
46.850871
31
0.0
0
ARC
8
00_ALUMINIO
10
302.864919
20
46.850871
30
0.0
40
0.250000
50
90.000000
51
180.000000
0
LINE
8
00_ALUMINIO
10
302.864919
20
47.100871
30
0.0
11
303.864919
21
47.100871
31
0.0
0
ARC
8
00_ALUMINIO
10
303.864919
20
46.850871
30
0.0
40
0.250000
50
0.000000
51
90.000000
0
LINE
8
00_ALUMINIO
10
304.114919
20
46.850871
30
0.0
11
304.114919
21
39.850871
31
0.0
0
ARC
8
00_ALUMINIO
10
303.864919
20
39.850871
30
0.0
40
0.250000
50
270.000000
51
0.000000
0
LINE
8
00_ALUMINIO
10
303.864919
20
39.600871
30
0.0
11
302.864919
21
39.600871
31
0.0
0
ARC
8
00_ALUMINIO
10
302.864919
20
39.850871
30
0.0
40
0.250000
50
180.000000
51
270.000000
0
LINE
8
00_ALUMINIO
10
302.614919
20
39.850871
30
0.0
11
302.614919
21
40.800871
31
0.0
0
ARC
8
00_ALUMINIO
10
302.314919
20
40.800871
30
0.0
40
0.300000
50
0.000000
51
100.000000
0
LINE
8
00_ALUMINIO
10
302.262824
20
41.096314
30
0.0
11
301.662824
21
40.990517
31
0.0
0
ARC
8
00_ALUMINIO
10
301.714919
20
40.695075
30
0.0
40
0.300000
50
100.000000
51
180.000000
0
LINE
8
00_ALUMINIO
10
301.414919
20
40.695075
30
0.0
11
301.414919
21
36.300871
31
0.0
0
ARC
8
00_ALUMINIO
10
302.014919
20
36.300871
30
0.0
40
0.600000
50
180.000000
51
0.000000
0
LINE
8
00_ALUMINIO
10
302.614919
20
36.300871
30
0.0
11
302.614919
21
36.650871
31
0.0
0
ARC
8
00_ALUMINIO
10
302.864919
20
36.650871
30
0.0
40
0.250000
50
90.000000
51
180.000000
0
LINE
8
00_ALUMINIO
10
302.864919
20
36.900871
30
0.0
11
303.564919
21
36.900871
31
0.0
0
ARC
8
00_ALUMINIO
10
303.564919
20
36.650871
30
0.0
40
0.250000
50
0.000000
51
90.000000
0
LINE
8
00_ALUMINIO
10
303.814919
20
36.650871
30
0.0
11
303.814919
21
28.550871
31
0.0
0
ARC
8
00_ALUMINIO
10
303.564919
20
28.550871
30
0.0
40
0.250000
50
270.000000
51
0.000000
0
LINE
8
00_ALUMINIO
10
303.564919
20
28.300871
30
0.0
11
302.864919
21
28.300871
31
0.0
0
ARC
8
00_ALUMINIO
10
302.864919
20
28.550871
30
0.0
40
0.250000
50
180.000000
51
270.000000
0
LINE
8
00_ALUMINIO
10
302.614919
20
28.550871
30
0.0
11
302.614919
21
28.900871
31
0.0
0
ARC
8
00_ALUMINIO
10
302.014919
20
28.900871
30
0.0
40
0.600000
50
0.000000
51
180.000000
0
LINE
8
00_ALUMINIO
10
301.414919
20
28.900871
30
0.0
11
301.414919
21
28.550871
31
0.0
0
ARC
8
00_ALUMINIO
10
301.164919
20
28.550871
30
0.0
40
0.250000
50
270.000000
51
0.000000
0
LINE
8
00_ALUMINIO
10
301.164919
20
28.300871
30
0.0
11
295.561599
21
28.300871
31
0.0
0
ARC
8
00_ALUMINIO
10
295.561599
20
26.800871
30
0.0
40
1.500000
50
90.000000
51
180.000000
0
LINE
8
00_ALUMINIO
10
294.061599
20
26.800871
30
0.0
11
295.761659
21
26.800871
31
0.0
0
ARC
8
00_ALUMINIO
10
295.761659
20
26.550871
30
0.0
40
0.250000
50
0.013766
51
90.000000
0
LINE
8
00_ALUMINIO
10
296.011659
20
26.550931
30
0.0
11
296.013437
21
18.700871
31
0.0
0
ARC
8
00_ALUMINIO
10
294.013437
20
18.700871
30
0.0
40
2.000000
50
270.000000
51
0.000000
0
LINE
8
00_ALUMINIO
10
294.013437
20
16.700871
30
0.0
11
271.862835
21
16.700871
31
0.0
0
ARC
8
00_ALUMINIO
10
271.862835
20
17.200871
30
0.0
40
0.500000
50
180.000000
51
270.000000
0
LINE
8
00_ALUMINIO
10
271.362835
20
17.200871
30
0.0
11
271.362835
21
25.800871
31
0.0
0
ARC
8
00_ALUMINIO
10
272.362835
20
25.800871
30
0.0
40
1.000000
50
90.000000
51
180.000000
0
LINE
8
00_ALUMINIO
10
272.362835
20
26.800871
30
0.0
11
280.843003
21
26.800871
31
0.0
0
ARC
8
00_ALUMINIO
10
279.343003
20
26.800871
30
0.0
40
1.500000
50
0.000000
51
90.000000
0
LINE
8
00_ALUMINIO
10
279.343003
20
28.300871
30
0.0
11
271.364919
21
28.300871
31
0.0
0
ARC
8
00_ALUMINIO
10
271.364919
20
26.300871
30
0.0
40
2.000000
50
90.000000
51
180.000000
0
LINE
8
00_ALUMINIO
10
269.364919
20
26.300871
30
0.0
11
269.364919
21
14.000871
31
0.0
0
ARC
8
00_ALUMINIO
10
270.364919
20
14.000871
30
0.0
40
1.000000
50
180.000000
51
270.000000
0
LINE
8
00_ALUMINIO
10
270.364919
20
13.000871
30
0.0
11
271.194919
21
13.000871
31
0.0
0
LINE
8
00_ALUMINIO
10
271.194919
20
13.000871
30
0.0
11
271.194919
21
9.076418
31
0.0
0
ARC
8
00_ALUMINIO
10
270.894919
20
9.076418
30
0.0
40
0.300000
50
270.000000
51
0.000000
0
LINE
8
00_ALUMINIO
10
270.894919
20
8.776418
30
0.0
11
270.019078
21
8.776418
31
0.0
0
LINE
8
00_ALUMINIO
10
269.993763
20
8.777488
30
0.0
11
270.019078
21
8.776418
31
0.0
0
LINE
8
00_ALUMINIO
10
269.993763
20
8.777488
30
0.0
11
265.510166
21
9.157181
31
0.0
0
ARC
8
00_ALUMINIO
10
265.467975
20
8.658965
30
0.0
40
0.500000
50
85.159462
51
233.654217
0
LINE
8
00_ALUMINIO
10
265.171646
20
8.256237
30
0.0
11
268.034406
21
6.149807
31
0.0
0
ARC
8
00_ALUMINIO
10
268.152938
20
6.310898
30
0.0
40
0.200000
50
233.654217
51
289.000000
0
LINE
8
00_ALUMINIO
10
268.218051
20
6.121794
30
0.0
11
268.399323
21
6.184211
31
0.0
0
LINE
8
00_ALUMINIO
10
268.399323
20
6.184211
30
0.0
11
268.317931
21
6.420591
31
0.0
0
LINE
8
00_ALUMINIO
10
268.317931
20
6.420591
30
0.0
11
270.056446
21
7.576052
31
0.0
0
ARC
8
00_ALUMINIO
10
270.222503
20
7.326202
30
0.0
40
0.300000
50
90.000000
51
123.609028
0
LINE
8
00_ALUMINIO
10
270.222503
20
7.626202
30
0.0
11
270.494919
21
7.626202
31
0.0
0
ARC
8
00_ALUMINIO
10
270.494919
20
7.426202
30
0.0
40
0.200000
50
306.869887
51
90.000021
0
ARC
8
00_ALUMINIO
10
270.794919
20
7.026202
30
0.0
40
0.300000
50
126.869887
51
180.000000
0
LINE
8
00_ALUMINIO
10
270.494919
20
7.026202
30
0.0
11
270.494919
21
2.828594
31
0.0
0
ARC
8
00_ALUMINIO
10
270.294919
20
2.828594
30
0.0
40
0.200000
50
270.000000
51
0.000000
0
LINE
8
00_ALUMINIO
10
270.294919
20
2.628594
30
0.0
11
270.227030
21
2.628594
31
0.0
0
ARC
8
00_ALUMINIO
10
270.227030
20
2.928594
30
0.0
40
0.300000
50
238.619868
51
270.000000
0
LINE
8
00_ALUMINIO
10
270.070816
20
2.672475
30
0.0
11
268.394823
21
3.694708
31
0.0
0
ARC
8
00_ALUMINIO
10
268.194919
20
3.700898
30
0.0
40
0.200000
50
358.226373
51
180.000000
0
LINE
8
00_ALUMINIO
10
267.994919
20
3.700898
30
0.0
11
267.994919
21
2.515535
31
0.0
0
ARC
8
00_ALUMINIO
10
268.494919
20
2.515535
30
0.0
40
0.500000
50
180.000000
51
210.000000
0
LINE
8
00_ALUMINIO
10
268.061906
20
2.265535
30
0.0
11
268.627931
21
1.285150
31
0.0
0
ARC
8
00_ALUMINIO
10
268.194919
20
1.035150
30
0.0
40
0.500000
50
0.000000
51
30.000000
0
LINE
8
00_ALUMINIO
10
268.694919
20
1.035150
30
0.0
11
268.694919
21
-0.150213
31
0.0
0
LINE
8
00_POLIAMIDAS
10
269.887835
20
7.149701
30
0.0
11
270.095015
21
7.149701
31
0.0
0
ARC
8
00_POLIAMIDAS
10
270.095015
20
6.749701
30
0.0
40
0.400000
50
0.000000
51
90.000000
0
LINE
8
00_POLIAMIDAS
10
270.495015
20
6.749701
30
0.0
11
270.495015
21
6.149701
31
0.0
0
LINE
8
00_POLIAMIDAS
10
270.495015
20
6.149701
30
0.0
11
270.395015
21
6.149701
31
0.0
0
LINE
8
00_POLIAMIDAS
10
270.395015
20
6.149701
30
0.0
11
270.395015
21
5.774701
31
0.0
0
ARC
8
00_POLIAMIDAS
10
270.195015
20
5.774701
30
0.0
40
0.200000
50
270.000000
51
0.000000
0
LINE
8
00_POLIAMIDAS
10
270.195015
20
5.574701
30
0.0
11
270.083208
21
5.574701
31
0.0
0
LINE
8
00_POLIAMIDAS
10
269.998660
20
5.593451
30
0.0
11
270.083208
21
5.574701
31
0.0
0
ARC
8
00_POLIAMIDAS
10
269.745015
20
5.049701
30
0.0
40
0.600000
50
64.992167
51
295.007833
0
LINE
8
00_POLIAMIDAS
10
270.083208
20
4.524701
30
0.0
11
269.998660
21
4.505951
31
0.0
0
LINE
8
00_POLIAMIDAS
10
270.083208
20
4.524701
30
0.0
11
270.195015
21
4.524701
31
0.0
0
ARC
8
00_POLIAMIDAS
10
270.195015
20
4.324701
30
0.0
40
0.200000
50
0.000000
51
90.000000
0
LINE
8
00_POLIAMIDAS
10
270.395015
20
4.324701
30
0.0
11
270.395015
21
3.949701
31
0.0
0
LINE
8
00_POLIAMIDAS
10
270.395015
20
3.949701
30
0.0
11
270.495015
21
3.949701
31
0.0
0
LINE
8
00_POLIAMIDAS
10
270.495015
20
3.949701
30
0.0
11
270.495015
21
3.349701
31
0.0
0
ARC
8
00_POLIAMIDAS
10
270.095015
20
3.349701
30
0.0
40
0.400000
50
270.000000
51
0.000000
0
LINE
8
00_POLIAMIDAS
10
270.095015
20
2.949701
30
0.0
11
269.887835
21
2.949701
31
0.0
0
ARC
8
00_POLIAMIDAS
10
269.887835
20
3.149701
30
0.0
40
0.200000
50
240.000000
51
270.000000
0
LINE
8
00_POLIAMIDAS
10
269.787835
20
2.976496
30
0.0
11
268.034245
21
3.988931
31
0.0
0
ARC
8
00_POLIAMIDAS
10
267.434245
20
2.949701
30
0.0
40
1.200000
50
60.000000
51
90.000000
0
LINE
8
00_POLIAMIDAS
10
267.434245
20
4.149701
30
0.0
11
261.195015
21
4.149701
31
0.0
0
LINE
8
00_POLIAMIDAS
10
261.195015
20
4.149701
30
0.0
11
254.955784
21
4.149701
31
0.0
0
ARC
8
00_POLIAMIDAS
10
254.955784
20
2.949701
30
0.0
40
1.200000
50
90.000000
51
120.000000
0
LINE
8
00_POLIAMIDAS
10
254.355784
20
3.988931
30
0.0
11
252.602194
21
2.976496
31
0.0
0
ARC
8
00_POLIAMIDAS
10
252.502194
20
3.149701
30
0.0
40
0.200000
50
270.000000
51
300.000000
0
LINE
8
00_POLIAMIDAS
10
252.502194
20
2.949701
30
0.0
11
252.295015
21
2.949701
31
0.0
0
ARC
8
00_POLIAMIDAS
10
252.295015
20
3.349701
30
0.0
40
0.400000
50
180.000000
51
270.000000
0
LINE
8
00_POLIAMIDAS
10
251.895015
20
3.349701
30
0.0
11
251.895015
21
3.949701
31
0.0
0
LINE
8
00_POLIAMIDAS
10
251.895015
20
3.949701
30
0.0
11
251.995015
21
3.949701
31
0.0
0
LINE
8
00_POLIAMIDAS
10
251.995015
20
3.949701
30
0.0
11
251.995015
21
4.324701
31
0.0
0
ARC
8
00_POLIAMIDAS
10
252.195015
20
4.324701
30
0.0
40
0.200000
50
90.000000
51
180.000000
0
LINE
8
00_POLIAMIDAS
10
252.195015
20
4.524701
30
0.0
11
252.306821
21
4.524701
31
0.0
0
LINE
8
00_POLIAMIDAS
10
252.391369
20
4.505951
30
0.0
11
252.306821
21
4.524701
31
0.0
0
ARC
8
00_POLIAMIDAS
10
252.645015
20
5.049701
30
0.0
40
0.600000
50
244.992167
51
115.007833
0
LINE
8
00_POLIAMIDAS
10
252.306821
20
5.574701
30
0.0
11
252.391369
21
5.593451
31
0.0
0
LINE
8
00_POLIAMIDAS
10
252.306821
20
5.574701
30
0.0
11
252.195015
21
5.574701
31
0.0
0
ARC
8
00_POLIAMIDAS
10
252.195015
20
5.774701
30
0.0
40
0.200000
50
180.000000
51
270.000000
0
LINE
8
00_POLIAMIDAS
10
251.995015
20
5.774701
30
0.0
11
251.995015
21
6.149701
31
0.0
0
LINE
8
00_POLIAMIDAS
10
251.995015
20
6.149701
30
0.0
11
251.895015
21
6.149701
31
0.0
0
LINE
8
00_POLIAMIDAS
10
251.895015
20
6.149701
30
0.0
11
251.895015
21
6.749701
31
0.0
0
ARC
8
00_POLIAMIDAS
10
252.295015
20
6.749701
30
0.0
40
0.400000
50
90.000000
51
180.000000
0
LINE
8
00_POLIAMIDAS
10
252.295015
20
7.149701
30
0.0
11
252.502194
21
7.149701
31
0.0
0
ARC
8
00_POLIAMIDAS
10
252.502194
20
6.949701
30
0.0
40
0.200000
50
60.000000
51
90.000000
0
LINE
8
00_POLIAMIDAS
10
252.602194
20
7.122906
30
0.0
11
254.355784
21
6.110471
31
0.0
0
ARC
8
00_POLIAMIDAS
10
254.955784
20
7.149701
30
0.0
40
1.200000
50
240.000000
51
270.000000
0
LINE
8
00_POLIAMIDAS
10
254.955784
20
5.949701
30
0.0
11
261.195015
21
5.949701
31
0.0
0
LINE
8
00_POLIAMIDAS
10
261.195015
20
5.949701
30
0.0
11
267.434245
21
5.949701
31
0.0
0
ARC
8
00_POLIAMIDAS
10
267.434245
20
7.149701
30
0.0
40
1.200000
50
270.000000
51
300.000000
0
LINE
8
00_POLIAMIDAS
10
268.034245
20
6.110471
30
0.0
11
269.787835
21
7.122906
31
0.0
0
ARC
8
00_POLIAMIDAS
10
269.887835
20
6.949701
30
0.0
40
0.200000
50
90.000000
51
120.000000
0
ATTDEF
8
0
10
0.000000
20
0.000000
30
0.0
40
3.5
1

3

2
PANE_WIDTH:0
70
0
0
ATTDEF
8
0
10
0.000000
20
0.000000
30
0.0
40
3.5
1

3

2
MIN_VETRO:0
70
0
0
ATTDEF
8
0
10
0.000000
20
0.000000
30
0.0
40
3.5
1

3

2
MAX_VETRO:0
70
0
0
ATTDEF
8
0
10
0.000000
20
0.000000
30
0.0
40
3.5
1

3

2
JX:0
70
0
0
ATTDEF
8
0
10
0.000000
20
0.000000
30
0.0
40
3.5
1

3

2
WX:0
70
0
0
ATTDEF
8
0
10
0.000000
20
0.000000
30
0.0
40
3.5
1

3

2
JY:0
70
0
0
ATTDEF
8
0
10
0.000000
20
0.000000
30
0.0
40
3.5
1

3

2
WY:0
70
0
0
ATTDEF
8
0
10
0.000000
20
0.000000
30
0.0
40
3.5
1

3

2
DESC:Marco 55mm
70
0
0
ATTDEF
8
0
10
0.000000
20
0.000000
30
0.0
40
3.5
1

3

2
DENS:1.8602
70
0
0
ATTDEF
8
0
10
0.000000
20
0.000000
30
0.0
40
3.5
1

3

2
TDEV:67.75
70
0
0
ATTDEF
8
0
10
0.000000
20
0.000000
30
0.0
40
3.5
1

3

2
TDEV2:0
70
0
0
ATTDEF
8
0
10
0.000000
20
0.000000
30
0.0
40
3.5
1

3

2
TDEV3:0
70
0
0
ATTDEF
8
0
10
0.000000
20
0.000000
30
0.0
40
3.5
1

3

2
TDEV4:0
70
0
0
ATTDEF
8
0
10
0.000000
20
0.000000
30
0.0
40
3.5
1

3

2
TDEV5:0
70
0
0
ATTDEF
8
0
10
0.000000
20
0.000000
30
0.0
40
3.5
1

3

2
PANE_WIDTH:0
70
0
0
ATTDEF
8
0
10
0.000000
20
0.000000
30
0.0
40
3.5
1

3

2
MIN_VETRO:0
70
0
0
ATTDEF
8
0
10
0.000000
20
0.000000
30
0.0
40
3.5
1

3

2
MAX_VETRO:0
70
0
0
ATTDEF
8
0
10
0.000000
20
0.000000
30
0.0
40
3.5
1

3

2
JX:0
70
0
0
ATTDEF
8
0
10
0.000000
20
0.000000
30
0.0
40
3.5
1

3

2
WX:0
70
0
0
ATTDEF
8
0
10
0.000000
20
0.000000
30
0.0
40
3.5
1

3

2
JY:0
70
0
0
ATTDEF
8
0
10
0.000000
20
0.000000
30
0.0
40
3.5
1

3

2
WY:0
70
0
0
ENDSEC
0
EOF
