0
SECTION
2
ENTITIES
0
ARC
8
00_ALUMINIO
10
203.273432
20
-4.599079
30
0.0
40
0.250000
50
90.000000
51
160.000000
0
LINE
8
00_ALUMINIO
10
203.038509
20
-4.513573
30
0.0
11
202.321120
21
-6.484584
31
0.0
0
ARC
8
00_ALUMINIO
10
202.086197
20
-6.399079
30
0.0
40
0.250000
50
270.000000
51
340.000000
0
LINE
8
00_ALUMINIO
10
202.086197
20
-6.649079
30
0.0
11
201.739190
21
-6.649079
31
0.0
0
ARC
8
00_ALUMINIO
10
201.739190
20
-6.399079
30
0.0
40
0.250000
50
180.000000
51
270.000000
0
LINE
8
00_ALUMINIO
10
201.489190
20
-6.399079
30
0.0
11
201.489190
21
-4.399079
31
0.0
0
ARC
8
00_ALUMINIO
10
201.239190
20
-4.399079
30
0.0
40
0.250000
50
0.000000
51
90.000000
0
LINE
8
00_ALUMINIO
10
201.239190
20
-4.149079
30
0.0
11
200.239190
21
-4.149079
31
0.0
0
ARC
8
00_ALUMINIO
10
200.239190
20
-4.399079
30
0.0
40
0.250000
50
90.000000
51
180.000000
0
ARC
8
00_ALUMINIO
10
199.739190
20
-4.399079
30
0.0
40
0.250000
50
270.000000
51
0.000000
0
LINE
8
00_ALUMINIO
10
199.739190
20
-4.649079
30
0.0
11
198.869846
21
-4.649079
31
0.0
0
ARC
8
00_ALUMINIO
10
198.869846
20
-4.399079
30
0.0
40
0.250000
50
180.000000
51
270.000000
0
LINE
8
00_ALUMINIO
10
198.619846
20
-4.399079
30
0.0
11
198.619846
21
1.050921
31
0.0
0
ARC
8
00_ALUMINIO
10
198.119846
20
1.050921
30
0.0
40
0.500000
50
0.000000
51
90.000000
0
LINE
8
00_ALUMINIO
10
198.119846
20
1.550921
30
0.0
11
193.419846
21
1.550921
31
0.0
0
ARC
8
00_ALUMINIO
10
193.419846
20
1.050921
30
0.0
40
0.500000
50
90.000000
51
180.000000
0
LINE
8
00_ALUMINIO
10
192.919846
20
1.050921
30
0.0
11
192.919846
21
-3.749078
31
0.0
0
LINE
8
00_ALUMINIO
10
192.919846
20
-3.749078
30
0.0
11
192.919846
21
-5.849079
31
0.0
0
ARC
8
00_ALUMINIO
10
193.419846
20
-5.849079
30
0.0
40
0.500000
50
180.000000
51
270.000000
0
LINE
8
00_ALUMINIO
10
193.419846
20
-6.349079
30
0.0
11
194.618846
21
-6.349079
31
0.0
0
ARC
8
00_ALUMINIO
10
194.618846
20
-7.349079
30
0.0
40
1.000000
50
0.000000
51
90.000000
0
LINE
8
00_ALUMINIO
10
195.618846
20
-7.349079
30
0.0
11
195.618846
21
-9.399079
31
0.0
0
ARC
8
00_ALUMINIO
10
195.368846
20
-9.399079
30
0.0
40
0.250000
50
270.000000
51
0.000000
0
LINE
8
00_ALUMINIO
10
195.368846
20
-9.649079
30
0.0
11
194.368846
21
-9.649079
31
0.0
0
ARC
8
00_ALUMINIO
10
194.368846
20
-9.399079
30
0.0
40
0.250000
50
180.000000
51
270.000000
0
LINE
8
00_ALUMINIO
10
194.118846
20
-9.399079
30
0.0
11
194.118846
21
-8.849079
31
0.0
0
ARC
8
00_ALUMINIO
10
193.118846
20
-8.849079
30
0.0
40
1.000000
50
0.000000
51
90.000000
0
LINE
8
00_ALUMINIO
10
193.118846
20
-7.849079
30
0.0
11
191.369846
21
-7.849079
31
0.0
0
ARC
8
00_ALUMINIO
10
191.369846
20
-7.599079
30
0.0
40
0.250000
50
180.000000
51
270.000000
0
LINE
8
00_ALUMINIO
10
191.119846
20
-7.599079
30
0.0
11
191.119846
21
-5.249078
31
0.0
0
ARC
8
00_ALUMINIO
10
190.619846
20
-5.249078
30
0.0
40
0.500000
50
0.000000
51
90.000000
0
LINE
8
00_ALUMINIO
10
190.619846
20
-4.749078
30
0.0
11
187.619846
21
-4.749078
31
0.0
0
ARC
8
00_ALUMINIO
10
187.619846
20
-4.249078
30
0.0
40
0.500000
50
180.000000
51
270.000000
0
LINE
8
00_ALUMINIO
10
187.119846
20
-4.249078
30
0.0
11
187.119846
21
-3.249078
31
0.0
0
ARC
8
00_ALUMINIO
10
187.619846
20
-3.249078
30
0.0
40
0.500000
50
90.000000
51
180.000000
0
LINE
8
00_ALUMINIO
10
187.619846
20
-2.749078
30
0.0
11
190.819846
21
-2.749078
31
0.0
0
ARC
8
00_ALUMINIO
10
190.819846
20
-2.449078
30
0.0
40
0.300000
50
270.000000
51
0.000000
0
LINE
8
00_ALUMINIO
10
191.119846
20
-2.449078
30
0.0
11
191.119846
21
2.850921
31
0.0
0
ARC
8
00_ALUMINIO
10
191.619846
20
2.850921
30
0.0
40
0.500000
50
90.000000
51
180.000000
0
LINE
8
00_ALUMINIO
10
191.619846
20
3.350921
30
0.0
11
200.659407
21
3.350921
31
0.0
0
ARC
8
00_ALUMINIO
10
200.659407
20
2.850921
30
0.0
40
0.500000
50
15.000000
51
90.000000
0
LINE
8
00_ALUMINIO
10
201.142370
20
2.980331
30
0.0
11
201.343804
21
2.228567
31
0.0
0
ARC
8
00_ALUMINIO
10
201.054026
20
2.150921
30
0.0
40
0.300000
50
270.000000
51
15.000000
0
LINE
8
00_ALUMINIO
10
201.054026
20
1.850921
30
0.0
11
200.419846
21
1.850921
31
0.0
0
ARC
8
00_ALUMINIO
10
200.419846
20
1.550921
30
0.0
40
0.300000
50
90.000000
51
180.000000
0
LINE
8
00_ALUMINIO
10
200.119846
20
1.550921
30
0.0
11
200.119846
21
-1.849079
31
0.0
0
ARC
8
00_ALUMINIO
10
200.619846
20
-1.849079
30
0.0
40
0.500000
50
180.000000
51
270.000000
0
LINE
8
00_ALUMINIO
10
200.619846
20
-2.349079
30
0.0
11
206.119189
21
-2.349079
31
0.0
0
LINE
8
00_ALUMINIO
10
206.119189
20
-2.349079
30
0.0
11
206.369189
21
-2.599079
31
0.0
0
LINE
8
00_ALUMINIO
10
206.369189
20
-2.599079
30
0.0
11
206.619189
21
-2.349079
31
0.0
0
LINE
8
00_ALUMINIO
10
206.619189
20
-2.349079
30
0.0
11
213.119190
21
-2.349079
31
0.0
0
ARC
8
00_ALUMINIO
10
213.119190
20
-1.849079
30
0.0
40
0.500000
50
270.000000
51
0.000000
0
LINE
8
00_ALUMINIO
10
213.619190
20
-1.849079
30
0.0
11
213.619190
21
1.550921
31
0.0
0
ARC
8
00_ALUMINIO
10
213.319190
20
1.550921
30
0.0
40
0.300000
50
0.000000
51
90.000000
0
LINE
8
00_ALUMINIO
10
213.319190
20
1.850921
30
0.0
11
211.684351
21
1.850921
31
0.0
0
ARC
8
00_ALUMINIO
10
211.684351
20
2.150921
30
0.0
40
0.300000
50
165.000000
51
270.000000
0
LINE
8
00_ALUMINIO
10
211.394573
20
2.228567
30
0.0
11
211.596008
21
2.980331
31
0.0
0
ARC
8
00_ALUMINIO
10
212.078970
20
2.850921
30
0.0
40
0.500000
50
90.000000
51
165.000000
0
LINE
8
00_ALUMINIO
10
212.078970
20
3.350921
30
0.0
11
214.619190
21
3.350921
31
0.0
0
ARC
8
00_ALUMINIO
10
214.619190
20
2.850921
30
0.0
40
0.500000
50
0.000000
51
90.000000
0
LINE
8
00_ALUMINIO
10
215.119190
20
2.850921
30
0.0
11
215.119190
21
-4.149079
31
0.0
0
ARC
8
00_ALUMINIO
10
214.619190
20
-4.149079
30
0.0
40
0.500000
50
270.000000
51
0.000000
0
LINE
8
00_ALUMINIO
10
214.619190
20
-4.649079
30
0.0
11
213.869190
21
-4.649079
31
0.0
0
ARC
8
00_ALUMINIO
10
213.869190
20
-4.399079
30
0.0
40
0.250000
50
180.000000
51
270.000000
0
ARC
8
00_ALUMINIO
10
213.369190
20
-4.399079
30
0.0
40
0.250000
50
0.000000
51
90.000000
0
LINE
8
00_ALUMINIO
10
213.369190
20
-4.149079
30
0.0
11
211.439190
21
-4.149079
31
0.0
0
ARC
8
00_ALUMINIO
10
211.439190
20
-4.399079
30
0.0
40
0.250000
50
90.000000
51
180.000000
0
LINE
8
00_ALUMINIO
10
211.189190
20
-4.399079
30
0.0
11
211.189190
21
-6.399079
31
0.0
0
ARC
8
00_ALUMINIO
10
210.939190
20
-6.399079
30
0.0
40
0.250000
50
270.000000
51
0.000000
0
LINE
8
00_ALUMINIO
10
210.939190
20
-6.649079
30
0.0
11
210.592182
21
-6.649079
31
0.0
0
ARC
8
00_ALUMINIO
10
210.592182
20
-6.399079
30
0.0
40
0.250000
50
200.000000
51
270.000000
0
LINE
8
00_ALUMINIO
10
210.357259
20
-6.484584
30
0.0
11
209.639870
21
-4.513573
31
0.0
0
ARC
8
00_ALUMINIO
10
209.404947
20
-4.599079
30
0.0
40
0.250000
50
20.000000
51
90.000000
0
LINE
8
00_ALUMINIO
10
209.404947
20
-4.349079
30
0.0
11
203.273432
21
-4.349079
31
0.0
0
ATTDEF
8
0
10
0.000000
20
0.000000
30
0.0
40
3.5
1

3

2
PANE_WIDTH:0
70
0
0
ATTDEF
8
0
10
0.000000
20
0.000000
30
0.0
40
3.5
1

3

2
MIN_VETRO:0
70
0
0
ATTDEF
8
0
10
0.000000
20
0.000000
30
0.0
40
3.5
1

3

2
MAX_VETRO:0
70
0
0
ATTDEF
8
0
10
0.000000
20
0.000000
30
0.0
40
3.5
1

3

2
JX:0
70
0
0
ATTDEF
8
0
10
0.000000
20
0.000000
30
0.0
40
3.5
1

3

2
WX:0
70
0
0
ATTDEF
8
0
10
0.000000
20
0.000000
30
0.0
40
3.5
1

3

2
JY:0
70
0
0
ATTDEF
8
0
10
0.000000
20
0.000000
30
0.0
40
3.5
1

3

2
WY:0
70
0
0
ATTDEF
8
0
10
0.000000
20
0.000000
30
0.0
40
3.5
1

3

2
DESC:Acople para cerradura
70
0
0
ATTDEF
8
0
10
0.000000
20
0.000000
30
0.0
40
3.5
1

3

2
DENS:0.2862
70
0
0
ATTDEF
8
0
10
0.000000
20
0.000000
30
0.0
40
3.5
1

3

2
TDEV:12.15
70
0
0
ATTDEF
8
0
10
0.000000
20
0.000000
30
0.0
40
3.5
1

3

2
TDEV2:0
70
0
0
ATTDEF
8
0
10
0.000000
20
0.000000
30
0.0
40
3.5
1

3

2
TDEV3:0
70
0
0
ATTDEF
8
0
10
0.000000
20
0.000000
30
0.0
40
3.5
1

3

2
TDEV4:0
70
0
0
ATTDEF
8
0
10
0.000000
20
0.000000
30
0.0
40
3.5
1

3

2
TDEV5:0
70
0
0
ATTDEF
8
0
10
0.000000
20
0.000000
30
0.0
40
3.5
1

3

2
PANE_WIDTH:0
70
0
0
ATTDEF
8
0
10
0.000000
20
0.000000
30
0.0
40
3.5
1

3

2
MIN_VETRO:0
70
0
0
ATTDEF
8
0
10
0.000000
20
0.000000
30
0.0
40
3.5
1

3

2
MAX_VETRO:0
70
0
0
ATTDEF
8
0
10
0.000000
20
0.000000
30
0.0
40
3.5
1

3

2
JX:0
70
0
0
ATTDEF
8
0
10
0.000000
20
0.000000
30
0.0
40
3.5
1

3

2
WX:0
70
0
0
ATTDEF
8
0
10
0.000000
20
0.000000
30
0.0
40
3.5
1

3

2
JY:0
70
0
0
ATTDEF
8
0
10
0.000000
20
0.000000
30
0.0
40
3.5
1

3

2
WY:0
70
0
0
ENDSEC
0
EOF
