0
SECTION
2
ENTITIES
0
ARC
8
00_POLIAMIDAS
10
77.911663
20
-62.134356
30
0.0
40
0.500000
50
32.000000
51
90.000000
0
LINE
8
00_POLIAMIDAS
10
78.335687
20
-61.869397
30
0.0
11
79.819087
21
-64.243332
31
0.0
0
ARC
8
00_POLIAMIDAS
10
80.073501
20
-64.084356
30
0.0
40
0.300000
50
212.000000
51
270.000000
0
LINE
8
00_POLIAMIDAS
10
80.073501
20
-64.384356
30
0.0
11
81.097091
21
-64.384356
31
0.0
0
ARC
8
00_POLIAMIDAS
10
81.097091
20
-65.584356
30
0.0
40
1.200000
50
60.000000
51
90.000000
0
LINE
8
00_POLIAMIDAS
10
81.697091
20
-64.545126
30
0.0
11
83.340873
21
-65.494164
31
0.0
0
ARC
8
00_POLIAMIDAS
10
83.490873
20
-65.234356
30
0.0
40
0.300000
50
240.000000
51
270.000000
0
LINE
8
00_POLIAMIDAS
10
83.490873
20
-65.534356
30
0.0
11
83.671258
21
-65.534356
31
0.0
0
ARC
8
00_POLIAMIDAS
10
83.671258
20
-65.134356
30
0.0
40
0.400000
50
270.000000
51
0.000000
0
LINE
8
00_POLIAMIDAS
10
84.071258
20
-65.134356
30
0.0
11
84.071258
21
-64.534356
31
0.0
0
LINE
8
00_POLIAMIDAS
10
84.071258
20
-64.534356
30
0.0
11
83.971258
21
-64.534356
31
0.0
0
LINE
8
00_POLIAMIDAS
10
83.971258
20
-64.534356
30
0.0
11
83.971258
21
-64.159356
31
0.0
0
ARC
8
00_POLIAMIDAS
10
83.771258
20
-64.159356
30
0.0
40
0.200000
50
0.000000
51
90.000000
0
LINE
8
00_POLIAMIDAS
10
83.771258
20
-63.959356
30
0.0
11
83.611731
21
-63.959356
31
0.0
0
ARC
8
00_POLIAMIDAS
10
83.321258
20
-63.434356
30
0.0
40
0.600000
50
61.044976
51
298.955024
0
LINE
8
00_POLIAMIDAS
10
83.611731
20
-62.909356
30
0.0
11
83.771258
21
-62.909356
31
0.0
0
ARC
8
00_POLIAMIDAS
10
83.771258
20
-62.709356
30
0.0
40
0.200000
50
270.000000
51
0.000000
0
LINE
8
00_POLIAMIDAS
10
83.971258
20
-62.709356
30
0.0
11
83.971258
21
-62.334356
31
0.0
0
LINE
8
00_POLIAMIDAS
10
83.971258
20
-62.334356
30
0.0
11
84.071258
21
-62.334356
31
0.0
0
LINE
8
00_POLIAMIDAS
10
84.071258
20
-62.334356
30
0.0
11
84.071258
21
-61.734356
31
0.0
0
ARC
8
00_POLIAMIDAS
10
83.671258
20
-61.734356
30
0.0
40
0.400000
50
0.000000
51
90.000000
0
LINE
8
00_POLIAMIDAS
10
83.671258
20
-61.334356
30
0.0
11
83.490873
21
-61.334356
31
0.0
0
ARC
8
00_POLIAMIDAS
10
83.490873
20
-61.634356
30
0.0
40
0.300000
50
90.000000
51
120.000000
0
LINE
8
00_POLIAMIDAS
10
83.340873
20
-61.374549
30
0.0
11
81.697091
21
-62.323587
31
0.0
0
ARC
8
00_POLIAMIDAS
10
81.097091
20
-61.284356
30
0.0
40
1.200000
50
270.000000
51
300.000000
0
LINE
8
00_POLIAMIDAS
10
81.097091
20
-62.484356
30
0.0
11
81.071258
21
-62.484356
31
0.0
0
ARC
8
00_POLIAMIDAS
10
81.071258
20
-62.284356
30
0.0
40
0.200000
50
212.000000
51
270.000000
0
LINE
8
00_POLIAMIDAS
10
80.901648
20
-62.390340
30
0.0
11
79.388875
21
-59.969397
31
0.0
0
ARC
8
00_POLIAMIDAS
10
78.964851
20
-60.234356
30
0.0
40
0.500000
50
32.000000
51
90.000000
0
LINE
8
00_POLIAMIDAS
10
78.964851
20
-59.734356
30
0.0
11
73.071258
21
-59.734356
31
0.0
0
LINE
8
00_POLIAMIDAS
10
73.071258
20
-59.734356
30
0.0
11
67.177665
21
-59.734356
31
0.0
0
ARC
8
00_POLIAMIDAS
10
67.177665
20
-60.234356
30
0.0
40
0.500000
50
90.000000
51
148.000000
0
LINE
8
00_POLIAMIDAS
10
66.753641
20
-59.969397
30
0.0
11
65.240867
21
-62.390340
31
0.0
0
ARC
8
00_POLIAMIDAS
10
65.071258
20
-62.284356
30
0.0
40
0.200000
50
270.000000
51
328.000000
0
LINE
8
00_POLIAMIDAS
10
65.071258
20
-62.484356
30
0.0
11
65.045425
21
-62.484356
31
0.0
0
ARC
8
00_POLIAMIDAS
10
65.045425
20
-61.284356
30
0.0
40
1.200000
50
240.000000
51
270.000000
0
LINE
8
00_POLIAMIDAS
10
64.445425
20
-62.323587
30
0.0
11
62.801642
21
-61.374549
31
0.0
0
ARC
8
00_POLIAMIDAS
10
62.651642
20
-61.634356
30
0.0
40
0.300000
50
60.000000
51
90.000000
0
LINE
8
00_POLIAMIDAS
10
62.651642
20
-61.334356
30
0.0
11
62.471258
21
-61.334356
31
0.0
0
ARC
8
00_POLIAMIDAS
10
62.471258
20
-61.734356
30
0.0
40
0.400000
50
90.000000
51
180.000000
0
LINE
8
00_POLIAMIDAS
10
62.071258
20
-61.734356
30
0.0
11
62.071258
21
-62.334356
31
0.0
0
LINE
8
00_POLIAMIDAS
10
62.071258
20
-62.334356
30
0.0
11
62.171258
21
-62.334356
31
0.0
0
LINE
8
00_POLIAMIDAS
10
62.171258
20
-62.334356
30
0.0
11
62.171258
21
-62.709356
31
0.0
0
ARC
8
00_POLIAMIDAS
10
62.371258
20
-62.709356
30
0.0
40
0.200000
50
180.000000
51
270.000000
0
LINE
8
00_POLIAMIDAS
10
62.371258
20
-62.909356
30
0.0
11
62.530784
21
-62.909356
31
0.0
0
ARC
8
00_POLIAMIDAS
10
62.821258
20
-63.434356
30
0.0
40
0.600000
50
241.044976
51
118.955024
0
LINE
8
00_POLIAMIDAS
10
62.530784
20
-63.959356
30
0.0
11
62.371258
21
-63.959356
31
0.0
0
ARC
8
00_POLIAMIDAS
10
62.371258
20
-64.159356
30
0.0
40
0.200000
50
90.000000
51
180.000000
0
LINE
8
00_POLIAMIDAS
10
62.171258
20
-64.159356
30
0.0
11
62.171258
21
-64.534356
31
0.0
0
LINE
8
00_POLIAMIDAS
10
62.171258
20
-64.534356
30
0.0
11
62.071258
21
-64.534356
31
0.0
0
LINE
8
00_POLIAMIDAS
10
62.071258
20
-64.534356
30
0.0
11
62.071258
21
-65.134356
31
0.0
0
ARC
8
00_POLIAMIDAS
10
62.471258
20
-65.134356
30
0.0
40
0.400000
50
180.000000
51
270.000000
0
LINE
8
00_POLIAMIDAS
10
62.471258
20
-65.534356
30
0.0
11
62.651642
21
-65.534356
31
0.0
0
ARC
8
00_POLIAMIDAS
10
62.651642
20
-65.234356
30
0.0
40
0.300000
50
270.000000
51
300.000000
0
LINE
8
00_POLIAMIDAS
10
62.801642
20
-65.494164
30
0.0
11
64.445425
21
-64.545126
31
0.0
0
ARC
8
00_POLIAMIDAS
10
65.045425
20
-65.584356
30
0.0
40
1.200000
50
90.000000
51
120.000000
0
LINE
8
00_POLIAMIDAS
10
65.045425
20
-64.384356
30
0.0
11
66.069014
21
-64.384356
31
0.0
0
ARC
8
00_POLIAMIDAS
10
66.069014
20
-64.084356
30
0.0
40
0.300000
50
270.000000
51
328.000000
0
LINE
8
00_POLIAMIDAS
10
66.323428
20
-64.243332
30
0.0
11
67.806828
21
-61.869397
31
0.0
0
ARC
8
00_POLIAMIDAS
10
68.230852
20
-62.134356
30
0.0
40
0.500000
50
90.000000
51
148.000000
0
LINE
8
00_POLIAMIDAS
10
68.230852
20
-61.634356
30
0.0
11
73.071258
21
-61.634356
31
0.0
0
LINE
8
00_POLIAMIDAS
10
73.071258
20
-61.634356
30
0.0
11
77.911663
21
-61.634356
31
0.0
0
LINE
8
00_POLIAMIDAS
10
62.150766
20
-61.495013
30
0.0
11
62.231914
21
-61.413865
31
0.0
0
LINE
8
00_POLIAMIDAS
10
63.021933
20
-62.868910
30
0.0
11
63.888688
21
-62.002155
31
0.0
0
LINE
8
00_POLIAMIDAS
10
62.601551
20
-65.534356
30
0.0
11
68.401551
21
-59.734356
31
0.0
0
LINE
8
00_POLIAMIDAS
10
65.996615
20
-64.384356
30
0.0
11
66.632904
21
-63.748067
31
0.0
0
LINE
8
00_POLIAMIDAS
10
68.746615
20
-61.634356
30
0.0
11
70.646615
21
-59.734356
31
0.0
0
LINE
8
00_POLIAMIDAS
10
70.991679
20
-61.634356
30
0.0
11
72.891679
21
-59.734356
31
0.0
0
LINE
8
00_POLIAMIDAS
10
62.851220
20
-72.019879
30
0.0
11
63.759029
21
-71.112070
31
0.0
0
LINE
8
00_POLIAMIDAS
10
73.236743
20
-61.634356
30
0.0
11
75.136743
21
-59.734356
31
0.0
0
LINE
8
00_POLIAMIDAS
10
62.402914
20
-74.713249
30
0.0
11
65.447033
21
-71.669130
31
0.0
0
LINE
8
00_POLIAMIDAS
10
75.481807
20
-61.634356
30
0.0
11
77.381807
21
-59.734356
31
0.0
0
LINE
8
00_POLIAMIDAS
10
65.416696
20
-73.944531
30
0.0
11
66.795538
21
-72.565689
31
0.0
0
LINE
8
00_POLIAMIDAS
10
77.726871
20
-61.634356
30
0.0
11
79.390011
21
-59.971216
31
0.0
0
LINE
8
00_POLIAMIDAS
10
66.280071
20
-75.326220
30
0.0
11
67.658914
21
-73.947378
31
0.0
0
LINE
8
00_POLIAMIDAS
10
78.874544
20
-62.731747
30
0.0
11
80.253386
21
-61.352905
31
0.0
0
LINE
8
00_POLIAMIDAS
10
67.532225
20
-76.319130
30
0.0
11
69.432225
21
-74.419130
31
0.0
0
LINE
8
00_POLIAMIDAS
10
79.737919
20
-64.113436
30
0.0
11
81.407967
21
-62.443389
31
0.0
0
LINE
8
00_POLIAMIDAS
10
69.777289
20
-76.319130
30
0.0
11
71.677289
21
-74.419130
31
0.0
0
LINE
8
00_POLIAMIDAS
10
83.258804
20
-62.837615
30
0.0
11
84.071258
21
-62.025162
31
0.0
0
LINE
8
00_POLIAMIDAS
10
81.601092
20
-64.495328
30
0.0
11
82.724517
21
-63.371902
31
0.0
0
LINE
8
00_POLIAMIDAS
10
72.022353
20
-76.319130
30
0.0
11
73.922353
21
-74.419130
31
0.0
0
LINE
8
00_POLIAMIDAS
10
83.027973
20
-65.313511
30
0.0
11
83.971258
21
-64.370226
31
0.0
0
LINE
8
00_POLIAMIDAS
10
74.267417
20
-76.319130
30
0.0
11
76.167417
21
-74.419130
31
0.0
0
LINE
8
00_POLIAMIDAS
10
76.512481
20
-76.319130
30
0.0
11
81.164368
21
-71.667243
31
0.0
0
LINE
8
00_POLIAMIDAS
10
78.757545
20
-76.319130
30
0.0
11
80.048988
21
-75.027687
31
0.0
0
LINE
8
00_POLIAMIDAS
10
81.453420
20
-73.623255
30
0.0
11
84.071258
21
-71.005418
31
0.0
0
LINE
8
00_POLIAMIDAS
10
82.898313
20
-74.423426
30
0.0
11
83.971258
21
-73.350482
31
0.0
0
LINE
8
00_POLIAMIDAS
10
62.419158
20
-74.715723
30
0.0
11
62.074665
21
-74.371230
31
0.0
0
LINE
8
00_POLIAMIDAS
10
63.959150
20
-74.010651
30
0.0
11
63.099312
21
-73.150812
31
0.0
0
LINE
8
00_POLIAMIDAS
10
68.512694
20
-76.319130
30
0.0
11
62.720766
21
-70.527202
31
0.0
0
LINE
8
00_POLIAMIDAS
10
70.757758
20
-76.319130
30
0.0
11
68.857758
21
-74.419130
31
0.0
0
LINE
8
00_POLIAMIDAS
10
66.447769
20
-72.009142
30
0.0
11
66.110663
21
-71.672036
31
0.0
0
LINE
8
00_POLIAMIDAS
10
73.002822
20
-76.319130
30
0.0
11
71.102822
21
-74.419130
31
0.0
0
LINE
8
00_POLIAMIDAS
10
75.247886
20
-76.319130
30
0.0
11
73.347886
21
-74.419130
31
0.0
0
LINE
8
00_POLIAMIDAS
10
63.829491
20
-64.900735
30
0.0
11
62.949292
21
-64.020536
31
0.0
0
LINE
8
00_POLIAMIDAS
10
77.492950
20
-76.319130
30
0.0
11
75.592950
21
-74.419130
31
0.0
0
LINE
8
00_POLIAMIDAS
10
65.558176
20
-64.384356
30
0.0
11
62.508176
21
-61.334356
31
0.0
0
LINE
8
00_POLIAMIDAS
10
79.432753
20
-76.013870
30
0.0
11
77.838014
21
-74.419130
31
0.0
0
LINE
8
00_POLIAMIDAS
10
66.838280
20
-63.419397
30
0.0
11
65.459438
21
-62.040554
31
0.0
0
LINE
8
00_POLIAMIDAS
10
80.296128
20
-74.632181
30
0.0
11
78.917286
21
-73.253338
31
0.0
0
LINE
8
00_POLIAMIDAS
10
67.701655
20
-62.037708
30
0.0
11
66.322813
21
-60.658865
31
0.0
0
LINE
8
00_POLIAMIDAS
10
81.579283
20
-73.670272
30
0.0
11
79.780661
21
-71.871649
31
0.0
0
LINE
8
00_POLIAMIDAS
10
69.543368
20
-61.634356
30
0.0
11
67.643368
21
-59.734356
31
0.0
0
LINE
8
00_POLIAMIDAS
10
84.071258
20
-73.917182
30
0.0
11
83.371130
21
-73.217054
31
0.0
0
LINE
8
00_POLIAMIDAS
10
71.788432
20
-61.634356
30
0.0
11
69.888432
21
-59.734356
31
0.0
0
LINE
8
00_POLIAMIDAS
10
82.723334
20
-72.569258
30
0.0
11
81.674923
21
-71.520848
31
0.0
0
LINE
8
00_POLIAMIDAS
10
83.971258
20
-71.572118
30
0.0
11
83.098434
21
-70.699295
31
0.0
0
LINE
8
00_POLIAMIDAS
10
74.033496
20
-61.634356
30
0.0
11
72.133496
21
-59.734356
31
0.0
0
LINE
8
00_POLIAMIDAS
10
76.278560
20
-61.634356
30
0.0
11
74.378560
21
-59.734356
31
0.0
0
LINE
8
00_POLIAMIDAS
10
81.289082
20
-64.399814
30
0.0
11
76.623624
21
-59.734356
31
0.0
0
LINE
8
00_POLIAMIDAS
10
84.071258
20
-64.936926
30
0.0
11
83.140957
21
-64.006625
31
0.0
0
LINE
8
00_POLIAMIDAS
10
79.863854
20
-60.729522
30
0.0
11
78.868688
21
-59.734356
31
0.0
0
LINE
8
00_POLIAMIDAS
10
82.748989
20
-63.614657
30
0.0
11
81.535670
21
-62.401338
31
0.0
0
LINE
8
00_POLIAMIDAS
10
83.971258
20
-62.591862
30
0.0
11
82.968775
21
-61.589379
31
0.0
0
ARC
8
00_POLIAMIDAS
10
77.911663
20
-73.919130
30
0.0
40
0.500000
50
270.000000
51
328.000000
0
LINE
8
00_POLIAMIDAS
10
78.335687
20
-74.184090
30
0.0
11
79.819087
21
-71.810155
31
0.0
0
ARC
8
00_POLIAMIDAS
10
80.073501
20
-71.969130
30
0.0
40
0.300000
50
90.000000
51
148.000000
0
LINE
8
00_POLIAMIDAS
10
80.073501
20
-71.669130
30
0.0
11
81.097091
21
-71.669130
31
0.0
0
ARC
8
00_POLIAMIDAS
10
81.097091
20
-70.469130
30
0.0
40
1.200000
50
270.000000
51
300.000000
0
LINE
8
00_POLIAMIDAS
10
81.697091
20
-71.508361
30
0.0
11
83.340873
21
-70.559323
31
0.0
0
ARC
8
00_POLIAMIDAS
10
83.490873
20
-70.819130
30
0.0
40
0.300000
50
90.000000
51
120.000000
0
LINE
8
00_POLIAMIDAS
10
83.490873
20
-70.519130
30
0.0
11
83.671258
21
-70.519130
31
0.0
0
ARC
8
00_POLIAMIDAS
10
83.671258
20
-70.919130
30
0.0
40
0.400000
50
0.000000
51
90.000000
0
LINE
8
00_POLIAMIDAS
10
84.071258
20
-70.919130
30
0.0
11
84.071258
21
-71.519130
31
0.0
0
LINE
8
00_POLIAMIDAS
10
84.071258
20
-71.519130
30
0.0
11
83.971258
21
-71.519130
31
0.0
0
LINE
8
00_POLIAMIDAS
10
83.971258
20
-71.519130
30
0.0
11
83.971258
21
-71.894130
31
0.0
0
ARC
8
00_POLIAMIDAS
10
83.771258
20
-71.894130
30
0.0
40
0.200000
50
270.000000
51
0.000000
0
LINE
8
00_POLIAMIDAS
10
83.771258
20
-72.094130
30
0.0
11
83.611731
21
-72.094130
31
0.0
0
ARC
8
00_POLIAMIDAS
10
83.321258
20
-72.619130
30
0.0
40
0.600000
50
61.044976
51
298.955024
0
LINE
8
00_POLIAMIDAS
10
83.611731
20
-73.144130
30
0.0
11
83.771258
21
-73.144130
31
0.0
0
ARC
8
00_POLIAMIDAS
10
83.771258
20
-73.344130
30
0.0
40
0.200000
50
0.000000
51
90.000000
0
LINE
8
00_POLIAMIDAS
10
83.971258
20
-73.344130
30
0.0
11
83.971258
21
-73.719130
31
0.0
0
LINE
8
00_POLIAMIDAS
10
83.971258
20
-73.719130
30
0.0
11
84.071258
21
-73.719130
31
0.0
0
LINE
8
00_POLIAMIDAS
10
84.071258
20
-73.719130
30
0.0
11
84.071258
21
-74.319130
31
0.0
0
ARC
8
00_POLIAMIDAS
10
83.671258
20
-74.319130
30
0.0
40
0.400000
50
270.000000
51
0.000000
0
LINE
8
00_POLIAMIDAS
10
83.671258
20
-74.719130
30
0.0
11
83.490873
21
-74.719130
31
0.0
0
ARC
8
00_POLIAMIDAS
10
83.490873
20
-74.419130
30
0.0
40
0.300000
50
240.000000
51
270.000000
0
LINE
8
00_POLIAMIDAS
10
83.340873
20
-74.678938
30
0.0
11
81.697091
21
-73.729900
31
0.0
0
ARC
8
00_POLIAMIDAS
10
81.097091
20
-74.769130
30
0.0
40
1.200000
50
60.000000
51
90.000000
0
LINE
8
00_POLIAMIDAS
10
81.097091
20
-73.569130
30
0.0
11
81.071258
21
-73.569130
31
0.0
0
ARC
8
00_POLIAMIDAS
10
81.071258
20
-73.769130
30
0.0
40
0.200000
50
90.000000
51
148.000000
0
LINE
8
00_POLIAMIDAS
10
80.901648
20
-73.663147
30
0.0
11
79.388875
21
-76.084090
31
0.0
0
ARC
8
00_POLIAMIDAS
10
78.964851
20
-75.819130
30
0.0
40
0.500000
50
270.000000
51
328.000000
0
LINE
8
00_POLIAMIDAS
10
78.964851
20
-76.319130
30
0.0
11
73.071258
21
-76.319130
31
0.0
0
LINE
8
00_POLIAMIDAS
10
73.071258
20
-76.319130
30
0.0
11
67.177665
21
-76.319130
31
0.0
0
ARC
8
00_POLIAMIDAS
10
67.177665
20
-75.819130
30
0.0
40
0.500000
50
212.000000
51
270.000000
0
LINE
8
00_POLIAMIDAS
10
66.753641
20
-76.084090
30
0.0
11
65.240867
21
-73.663147
31
0.0
0
ARC
8
00_POLIAMIDAS
10
65.071258
20
-73.769130
30
0.0
40
0.200000
50
32.000000
51
90.000000
0
LINE
8
00_POLIAMIDAS
10
65.071258
20
-73.569130
30
0.0
11
65.045425
21
-73.569130
31
0.0
0
ARC
8
00_POLIAMIDAS
10
65.045425
20
-74.769130
30
0.0
40
1.200000
50
90.000000
51
120.000000
0
LINE
8
00_POLIAMIDAS
10
64.445425
20
-73.729900
30
0.0
11
62.801642
21
-74.678938
31
0.0
0
ARC
8
00_POLIAMIDAS
10
62.651642
20
-74.419130
30
0.0
40
0.300000
50
270.000000
51
300.000000
0
LINE
8
00_POLIAMIDAS
10
62.651642
20
-74.719130
30
0.0
11
62.471258
21
-74.719130
31
0.0
0
ARC
8
00_POLIAMIDAS
10
62.471258
20
-74.319130
30
0.0
40
0.400000
50
180.000000
51
270.000000
0
LINE
8
00_POLIAMIDAS
10
62.071258
20
-74.319130
30
0.0
11
62.071258
21
-73.719130
31
0.0
0
LINE
8
00_POLIAMIDAS
10
62.071258
20
-73.719130
30
0.0
11
62.171258
21
-73.719130
31
0.0
0
LINE
8
00_POLIAMIDAS
10
62.171258
20
-73.719130
30
0.0
11
62.171258
21
-73.344130
31
0.0
0
ARC
8
00_POLIAMIDAS
10
62.371258
20
-73.344130
30
0.0
40
0.200000
50
90.000000
51
180.000000
0
LINE
8
00_POLIAMIDAS
10
62.371258
20
-73.144130
30
0.0
11
62.530784
21
-73.144130
31
0.0
0
ARC
8
00_POLIAMIDAS
10
62.821258
20
-72.619130
30
0.0
40
0.600000
50
241.044976
51
118.955024
0
LINE
8
00_POLIAMIDAS
10
62.530784
20
-72.094130
30
0.0
11
62.371258
21
-72.094130
31
0.0
0
ARC
8
00_POLIAMIDAS
10
62.371258
20
-71.894130
30
0.0
40
0.200000
50
180.000000
51
270.000000
0
LINE
8
00_POLIAMIDAS
10
62.171258
20
-71.894130
30
0.0
11
62.171258
21
-71.519130
31
0.0
0
LINE
8
00_POLIAMIDAS
10
62.171258
20
-71.519130
30
0.0
11
62.071258
21
-71.519130
31
0.0
0
LINE
8
00_POLIAMIDAS
10
62.071258
20
-71.519130
30
0.0
11
62.071258
21
-70.919130
31
0.0
0
ARC
8
00_POLIAMIDAS
10
62.471258
20
-70.919130
30
0.0
40
0.400000
50
90.000000
51
180.000000
0
LINE
8
00_POLIAMIDAS
10
62.471258
20
-70.519130
30
0.0
11
62.651642
21
-70.519130
31
0.0
0
ARC
8
00_POLIAMIDAS
10
62.651642
20
-70.819130
30
0.0
40
0.300000
50
60.000000
51
90.000000
0
LINE
8
00_POLIAMIDAS
10
62.801642
20
-70.559323
30
0.0
11
64.445425
21
-71.508361
31
0.0
0
ARC
8
00_POLIAMIDAS
10
65.045425
20
-70.469130
30
0.0
40
1.200000
50
240.000000
51
270.000000
0
LINE
8
00_POLIAMIDAS
10
65.045425
20
-71.669130
30
0.0
11
66.069014
21
-71.669130
31
0.0
0
ARC
8
00_POLIAMIDAS
10
66.069014
20
-71.969130
30
0.0
40
0.300000
50
32.000000
51
90.000000
0
LINE
8
00_POLIAMIDAS
10
66.323428
20
-71.810155
30
0.0
11
67.806828
21
-74.184090
31
0.0
0
ARC
8
00_POLIAMIDAS
10
68.230852
20
-73.919130
30
0.0
40
0.500000
50
212.000000
51
270.000000
0
LINE
8
00_POLIAMIDAS
10
68.230852
20
-74.419130
30
0.0
11
73.071258
21
-74.419130
31
0.0
0
LINE
8
00_POLIAMIDAS
10
73.071258
20
-74.419130
30
0.0
11
77.911663
21
-74.419130
31
0.0
0
ARC
8
00_ALUMINIO
10
53.521258
20
-75.275232
30
0.0
40
0.250000
50
180.000000
51
270.000000
0
LINE
8
00_ALUMINIO
10
53.271258
20
-75.275232
30
0.0
11
53.271258
21
-54.276743
31
0.0
0
ARC
8
00_ALUMINIO
10
53.521258
20
-54.276743
30
0.0
40
0.250000
50
90.000000
51
180.000000
0
LINE
8
00_ALUMINIO
10
53.521258
20
-54.026743
30
0.0
11
60.121258
21
-54.026743
31
0.0
0
ARC
8
00_ALUMINIO
10
60.121258
20
-54.276743
30
0.0
40
0.250000
50
0.000000
51
90.000000
0
LINE
8
00_ALUMINIO
10
60.371258
20
-54.276743
30
0.0
11
60.371258
21
-59.093181
31
0.0
0
ARC
8
00_ALUMINIO
10
60.121258
20
-59.093181
30
0.0
40
0.250000
50
278.213211
51
0.000000
0
ARC
8
00_ALUMINIO
10
60.371258
20
-60.825232
30
0.0
40
1.500000
50
98.213211
51
168.463041
0
ARC
8
00_ALUMINIO
10
59.146513
20
-60.575232
30
0.0
40
0.250000
50
168.463041
51
270.000000
0
LINE
8
00_ALUMINIO
10
59.146513
20
-60.825232
30
0.0
11
60.121258
21
-60.825232
31
0.0
0
ARC
8
00_ALUMINIO
10
60.121258
20
-61.075232
30
0.0
40
0.250000
50
0.000000
51
90.000000
0
LINE
8
00_ALUMINIO
10
60.371258
20
-61.075232
30
0.0
11
60.371258
21
-75.275232
31
0.0
0
ARC
8
00_ALUMINIO
10
60.121258
20
-75.275232
30
0.0
40
0.250000
50
270.000000
51
0.000000
0
LINE
8
00_ALUMINIO
10
60.121258
20
-75.525232
30
0.0
11
53.521258
21
-75.525232
31
0.0
0
LINE
8
00_ALUMINIO
10
60.571258
20
-52.526743
30
0.0
11
60.271258
21
-52.826743
31
0.0
0
LINE
8
00_ALUMINIO
10
60.271258
20
-52.826743
30
0.0
11
59.971258
21
-52.526743
31
0.0
0
LINE
8
00_ALUMINIO
10
59.971258
20
-52.526743
30
0.0
11
59.671258
21
-52.826743
31
0.0
0
LINE
8
00_ALUMINIO
10
59.671258
20
-52.826743
30
0.0
11
59.371258
21
-52.526743
31
0.0
0
LINE
8
00_ALUMINIO
10
59.371258
20
-52.526743
30
0.0
11
59.071258
21
-52.826743
31
0.0
0
LINE
8
00_ALUMINIO
10
59.071258
20
-52.826743
30
0.0
11
58.771258
21
-52.526743
31
0.0
0
LINE
8
00_ALUMINIO
10
58.771258
20
-52.526743
30
0.0
11
58.471258
21
-52.826743
31
0.0
0
LINE
8
00_ALUMINIO
10
58.471258
20
-52.826743
30
0.0
11
58.171258
21
-52.526743
31
0.0
0
LINE
8
00_ALUMINIO
10
58.171258
20
-52.526743
30
0.0
11
57.871258
21
-52.826743
31
0.0
0
LINE
8
00_ALUMINIO
10
57.871258
20
-52.826743
30
0.0
11
57.571258
21
-52.526743
31
0.0
0
LINE
8
00_ALUMINIO
10
57.571258
20
-52.526743
30
0.0
11
57.271258
21
-52.826743
31
0.0
0
LINE
8
00_ALUMINIO
10
57.271258
20
-52.826743
30
0.0
11
56.971258
21
-52.526743
31
0.0
0
LINE
8
00_ALUMINIO
10
56.971258
20
-52.526743
30
0.0
11
56.671258
21
-52.826743
31
0.0
0
LINE
8
00_ALUMINIO
10
56.671258
20
-52.826743
30
0.0
11
56.371258
21
-52.526743
31
0.0
0
LINE
8
00_ALUMINIO
10
56.371258
20
-52.526743
30
0.0
11
56.071258
21
-52.826743
31
0.0
0
LINE
8
00_ALUMINIO
10
56.071258
20
-52.826743
30
0.0
11
55.771258
21
-52.526743
31
0.0
0
LINE
8
00_ALUMINIO
10
55.771258
20
-52.526743
30
0.0
11
55.471258
21
-52.826743
31
0.0
0
LINE
8
00_ALUMINIO
10
55.471258
20
-52.826743
30
0.0
11
55.171258
21
-52.526743
31
0.0
0
LINE
8
00_ALUMINIO
10
55.171258
20
-52.526743
30
0.0
11
54.871258
21
-52.826743
31
0.0
0
LINE
8
00_ALUMINIO
10
54.871258
20
-52.826743
30
0.0
11
54.571258
21
-52.526743
31
0.0
0
LINE
8
00_ALUMINIO
10
54.571258
20
-52.526743
30
0.0
11
54.271258
21
-52.826743
31
0.0
0
LINE
8
00_ALUMINIO
10
54.271258
20
-52.826743
30
0.0
11
53.971258
21
-52.526743
31
0.0
0
LINE
8
00_ALUMINIO
10
53.971258
20
-52.526743
30
0.0
11
53.521258
21
-52.526743
31
0.0
0
ARC
8
00_ALUMINIO
10
53.521258
20
-52.276743
30
0.0
40
0.250000
50
180.000000
51
270.000000
0
LINE
8
00_ALUMINIO
10
53.271258
20
-52.276743
30
0.0
11
53.271258
21
-48.176743
31
0.0
0
ARC
8
00_ALUMINIO
10
53.521258
20
-48.176743
30
0.0
40
0.250000
50
90.000000
51
180.000000
0
LINE
8
00_ALUMINIO
10
53.521258
20
-47.926743
30
0.0
11
53.771258
21
-47.926743
31
0.0
0
ARC
8
00_ALUMINIO
10
53.771258
20
-47.426743
30
0.0
40
0.500000
50
270.000000
51
0.000000
0
LINE
8
00_ALUMINIO
10
54.271258
20
-47.426743
30
0.0
11
54.271258
21
-46.926743
31
0.0
0
ARC
8
00_ALUMINIO
10
53.771258
20
-46.926743
30
0.0
40
0.500000
50
0.000000
51
90.000000
0
LINE
8
00_ALUMINIO
10
53.771258
20
-46.426743
30
0.0
11
52.271258
21
-46.426743
31
0.0
0
ARC
8
00_ALUMINIO
10
52.271258
20
-46.926743
30
0.0
40
0.500000
50
90.000000
51
180.000000
0
LINE
8
00_ALUMINIO
10
51.771258
20
-46.926743
30
0.0
11
51.771258
21
-77.276743
31
0.0
0
ARC
8
00_ALUMINIO
10
52.021258
20
-77.276743
30
0.0
40
0.250000
50
180.000000
51
270.000000
0
LINE
8
00_ALUMINIO
10
52.021258
20
-77.526743
30
0.0
11
53.021258
21
-77.526743
31
0.0
0
ARC
8
00_ALUMINIO
10
53.021258
20
-77.276743
30
0.0
40
0.250000
50
270.000000
51
0.000000
0
ARC
8
00_ALUMINIO
10
53.521258
20
-77.276743
30
0.0
40
0.250000
50
90.000000
51
180.000000
0
LINE
8
00_ALUMINIO
10
53.521258
20
-77.026743
30
0.0
11
60.121258
21
-77.026743
31
0.0
0
ARC
8
00_ALUMINIO
10
60.121258
20
-77.276743
30
0.0
40
0.250000
50
0.000000
51
90.000000
0
ARC
8
00_ALUMINIO
10
60.621258
20
-77.276743
30
0.0
40
0.250000
50
180.000000
51
270.000000
0
LINE
8
00_ALUMINIO
10
60.621258
20
-77.526743
30
0.0
11
61.821258
21
-77.526743
31
0.0
0
ARC
8
00_ALUMINIO
10
61.821258
20
-77.276743
30
0.0
40
0.250000
50
270.000000
51
0.000000
0
LINE
8
00_ALUMINIO
10
62.071258
20
-77.276743
30
0.0
11
62.071258
21
-77.054916
31
0.0
0
ARC
8
00_ALUMINIO
10
62.371258
20
-77.054916
30
0.0
40
0.300000
50
106.188403
51
180.000000
0
LINE
8
00_ALUMINIO
10
62.287619
20
-76.766811
30
0.0
11
63.844890
21
-76.314723
31
0.0
0
ARC
8
00_ALUMINIO
10
63.928529
20
-76.602828
30
0.0
40
0.300000
50
48.000000
51
106.188403
0
LINE
8
00_ALUMINIO
10
64.129268
20
-76.379885
30
0.0
11
64.388345
21
-76.613158
31
0.0
0
ARC
8
00_ALUMINIO
10
64.589084
20
-76.390215
30
0.0
40
0.300000
50
228.000000
51
270.000000
0
LINE
8
00_ALUMINIO
10
64.589084
20
-76.690215
30
0.0
11
65.953642
21
-76.690215
31
0.0
0
ARC
8
00_ALUMINIO
10
65.953642
20
-76.390215
30
0.0
40
0.300000
50
270.000000
51
28.143025
0
LINE
8
00_ALUMINIO
10
66.218174
20
-76.248713
30
0.0
11
65.124441
21
-74.204030
31
0.0
0
ARC
8
00_ALUMINIO
10
64.859909
20
-74.345533
30
0.0
40
0.300000
50
28.143025
51
61.000000
0
LINE
8
00_ALUMINIO
10
65.005352
20
-74.083147
30
0.0
11
64.287323
21
-73.685136
31
0.0
0
ARC
8
00_ALUMINIO
10
64.190361
20
-73.860060
30
0.0
40
0.200000
50
61.000000
51
181.000000
0
LINE
8
00_ALUMINIO
10
63.990391
20
-73.863551
30
0.0
11
63.993725
21
-74.054522
31
0.0
0
ARC
8
00_ALUMINIO
10
63.793755
20
-74.058012
30
0.0
40
0.200000
50
308.940638
51
1.000000
0
LINE
8
00_ALUMINIO
10
63.919458
20
-74.213572
30
0.0
11
62.259523
21
-75.554916
31
0.0
0
LINE
8
00_ALUMINIO
10
62.259523
20
-75.554916
30
0.0
11
62.071258
21
-75.554916
31
0.0
0
ARC
8
00_ALUMINIO
10
62.071258
20
-75.254916
30
0.0
40
0.300000
50
90.000000
51
270.000000
0
LINE
8
00_ALUMINIO
10
62.071258
20
-74.954916
30
0.0
11
62.071258
21
-70.454916
31
0.0
0
ARC
8
00_ALUMINIO
10
62.271258
20
-70.454916
30
0.0
40
0.200000
50
90.000000
51
180.000000
0
LINE
8
00_ALUMINIO
10
62.271258
20
-70.254916
30
0.0
11
62.339146
21
-70.254916
31
0.0
0
ARC
8
00_ALUMINIO
10
62.339146
20
-70.554916
30
0.0
40
0.300000
50
58.619868
51
90.000000
0
LINE
8
00_ALUMINIO
10
62.495360
20
-70.298796
30
0.0
11
64.176884
21
-71.324402
31
0.0
0
ARC
8
00_ALUMINIO
10
64.371258
20
-71.277299
30
0.0
40
0.200000
50
193.622214
51
0.000000
0
LINE
8
00_ALUMINIO
10
64.571258
20
-71.277299
30
0.0
11
64.571258
21
-69.372043
31
0.0
0
ARC
8
00_ALUMINIO
10
64.071258
20
-69.372043
30
0.0
40
0.500000
50
0.000000
51
60.000000
0
LINE
8
00_ALUMINIO
10
64.321258
20
-68.939030
30
0.0
11
63.191131
21
-68.286551
31
0.0
0
ARC
8
00_ALUMINIO
10
63.341131
20
-68.026743
30
0.0
40
0.300000
50
120.000000
51
240.000000
0
LINE
8
00_ALUMINIO
10
63.191131
20
-67.766936
30
0.0
11
64.321258
21
-67.114457
31
0.0
0
ARC
8
00_ALUMINIO
10
64.071258
20
-66.681444
30
0.0
40
0.500000
50
300.000000
51
0.000000
0
LINE
8
00_ALUMINIO
10
64.571258
20
-66.681444
30
0.0
11
64.571258
21
-64.776188
31
0.0
0
ARC
8
00_ALUMINIO
10
64.371258
20
-64.776188
30
0.0
40
0.200000
50
0.000000
51
166.377786
0
LINE
8
00_ALUMINIO
10
64.176884
20
-64.729084
30
0.0
11
62.495360
21
-65.754690
31
0.0
0
ARC
8
00_ALUMINIO
10
62.339146
20
-65.498571
30
0.0
40
0.300000
50
270.000000
51
301.380132
0
LINE
8
00_ALUMINIO
10
62.339146
20
-65.798571
30
0.0
11
62.271258
21
-65.798571
31
0.0
0
ARC
8
00_ALUMINIO
10
62.271258
20
-65.598571
30
0.0
40
0.200000
50
180.000000
51
270.000000
0
LINE
8
00_ALUMINIO
10
62.071258
20
-65.598571
30
0.0
11
62.071258
21
-61.098571
31
0.0
0
ARC
8
00_ALUMINIO
10
62.071258
20
-60.798571
30
0.0
40
0.300000
50
90.000000
51
270.000000
0
LINE
8
00_ALUMINIO
10
62.071258
20
-60.498571
30
0.0
11
62.259523
21
-60.498571
31
0.0
0
LINE
8
00_ALUMINIO
10
62.259523
20
-60.498571
30
0.0
11
63.919458
21
-61.839915
31
0.0
0
ARC
8
00_ALUMINIO
10
63.793755
20
-61.995474
30
0.0
40
0.200000
50
359.000000
51
51.059362
0
LINE
8
00_ALUMINIO
10
63.993725
20
-61.998965
30
0.0
11
63.990391
21
-62.189936
31
0.0
0
ARC
8
00_ALUMINIO
10
64.190361
20
-62.193426
30
0.0
40
0.200000
50
179.000000
51
299.000000
0
LINE
8
00_ALUMINIO
10
64.287323
20
-62.368350
30
0.0
11
65.005352
21
-61.970340
31
0.0
0
ARC
8
00_ALUMINIO
10
64.859909
20
-61.707954
30
0.0
40
0.300000
50
299.000000
51
331.856975
0
LINE
8
00_ALUMINIO
10
65.124441
20
-61.849456
30
0.0
11
66.218174
21
-59.804774
31
0.0
0
ARC
8
00_ALUMINIO
10
65.953642
20
-59.663272
30
0.0
40
0.300000
50
331.856975
51
90.000000
0
LINE
8
00_ALUMINIO
10
65.953642
20
-59.363272
30
0.0
11
64.589084
21
-59.363272
31
0.0
0
ARC
8
00_ALUMINIO
10
64.589084
20
-59.663272
30
0.0
40
0.300000
50
90.000000
51
132.000000
0
LINE
8
00_ALUMINIO
10
64.388345
20
-59.440328
30
0.0
11
64.129268
21
-59.673602
31
0.0
0
ARC
8
00_ALUMINIO
10
63.928529
20
-59.450658
30
0.0
40
0.300000
50
253.811597
51
312.000000
0
LINE
8
00_ALUMINIO
10
63.844890
20
-59.738763
30
0.0
11
62.287619
21
-59.286676
31
0.0
0
ARC
8
00_ALUMINIO
10
62.371258
20
-58.998571
30
0.0
40
0.300000
50
180.000000
51
253.811597
0
LINE
8
00_ALUMINIO
10
62.071258
20
-58.998571
30
0.0
11
62.071258
21
-53.026743
31
0.0
0
ARC
8
00_ALUMINIO
10
61.571258
20
-53.026743
30
0.0
40
0.500000
50
0.000000
51
90.000000
0
LINE
8
00_ALUMINIO
10
61.571258
20
-52.526743
30
0.0
11
61.171258
21
-52.526743
31
0.0
0
LINE
8
00_ALUMINIO
10
61.171258
20
-52.526743
30
0.0
11
60.871258
21
-52.826743
31
0.0
0
LINE
8
00_ALUMINIO
10
60.871258
20
-52.826743
30
0.0
11
60.571258
21
-52.526743
31
0.0
0
LINE
8
00_ALUMINIO
10
83.462814
20
-75.215382
30
0.0
11
82.223057
21
-74.213572
31
0.0
0
ARC
8
00_ALUMINIO
10
82.348760
20
-74.058012
30
0.0
40
0.200000
50
179.000000
51
231.059362
0
LINE
8
00_ALUMINIO
10
82.148791
20
-74.054522
30
0.0
11
82.152124
21
-73.863551
31
0.0
0
ARC
8
00_ALUMINIO
10
81.952154
20
-73.860060
30
0.0
40
0.200000
50
359.000000
51
119.000000
0
LINE
8
00_ALUMINIO
10
81.855193
20
-73.685136
30
0.0
11
81.137163
21
-74.083147
31
0.0
0
ARC
8
00_ALUMINIO
10
81.282606
20
-74.345533
30
0.0
40
0.300000
50
119.000000
51
151.856975
0
LINE
8
00_ALUMINIO
10
81.018074
20
-74.204030
30
0.0
11
79.924341
21
-76.248713
31
0.0
0
ARC
8
00_ALUMINIO
10
80.188873
20
-76.390215
30
0.0
40
0.300000
50
151.856975
51
270.000000
0
LINE
8
00_ALUMINIO
10
80.188873
20
-76.690215
30
0.0
11
81.553431
21
-76.690215
31
0.0
0
ARC
8
00_ALUMINIO
10
81.553431
20
-76.390215
30
0.0
40
0.300000
50
270.000000
51
312.000000
0
LINE
8
00_ALUMINIO
10
81.754170
20
-76.613158
30
0.0
11
82.013247
21
-76.379885
31
0.0
0
ARC
8
00_ALUMINIO
10
82.213986
20
-76.602828
30
0.0
40
0.300000
50
73.811597
51
132.000000
0
LINE
8
00_ALUMINIO
10
82.297625
20
-76.314723
30
0.0
11
83.854897
21
-76.766811
31
0.0
0
ARC
8
00_ALUMINIO
10
83.771258
20
-77.054916
30
0.0
40
0.300000
50
0.000000
51
73.811597
0
LINE
8
00_ALUMINIO
10
84.071258
20
-77.054916
30
0.0
11
84.071258
21
-77.276743
31
0.0
0
ARC
8
00_ALUMINIO
10
84.321258
20
-77.276743
30
0.0
40
0.250000
50
180.000000
51
270.000000
0
LINE
8
00_ALUMINIO
10
84.321258
20
-77.526743
30
0.0
11
85.821258
21
-77.526743
31
0.0
0
ARC
8
00_ALUMINIO
10
85.821258
20
-77.276743
30
0.0
40
0.250000
50
270.000000
51
0.000000
0
LINE
8
00_ALUMINIO
10
86.071258
20
-77.276743
30
0.0
11
86.071258
21
-77.226743
31
0.0
0
ARC
8
00_ALUMINIO
10
86.271258
20
-77.226743
30
0.0
40
0.200000
50
90.000000
51
180.000000
0
LINE
8
00_ALUMINIO
10
86.271258
20
-77.026743
30
0.0
11
90.571258
21
-77.026743
31
0.0
0
ARC
8
00_ALUMINIO
10
90.571258
20
-76.526743
30
0.0
40
0.500000
50
270.000000
51
0.000000
0
LINE
8
00_ALUMINIO
10
91.071258
20
-76.526743
30
0.0
11
91.071258
21
-75.276743
31
0.0
0
ARC
8
00_ALUMINIO
10
90.821258
20
-75.276743
30
0.0
40
0.250000
50
0.000000
51
90.000000
0
LINE
8
00_ALUMINIO
10
90.821258
20
-75.026743
30
0.0
11
86.321258
21
-75.026743
31
0.0
0
ARC
8
00_ALUMINIO
10
86.321258
20
-74.776743
30
0.0
40
0.250000
50
180.000000
51
270.000000
0
LINE
8
00_ALUMINIO
10
86.071258
20
-74.776743
30
0.0
11
86.071258
21
-67.026743
31
0.0
0
ARC
8
00_ALUMINIO
10
86.321258
20
-67.026743
30
0.0
40
0.250000
50
90.000000
51
180.000000
0
LINE
8
00_ALUMINIO
10
86.321258
20
-66.776743
30
0.0
11
131.321258
21
-66.776743
31
0.0
0
ARC
8
00_ALUMINIO
10
131.321258
20
-67.026743
30
0.0
40
0.250000
50
0.000000
51
90.000000
0
LINE
8
00_ALUMINIO
10
131.571258
20
-67.026743
30
0.0
11
131.571258
21
-74.776743
31
0.0
0
ARC
8
00_ALUMINIO
10
131.321258
20
-74.776743
30
0.0
40
0.250000
50
270.000000
51
0.000000
0
LINE
8
00_ALUMINIO
10
131.321258
20
-75.026743
30
0.0
11
126.821258
21
-75.026743
31
0.0
0
ARC
8
00_ALUMINIO
10
126.821258
20
-75.276743
30
0.0
40
0.250000
50
90.000000
51
180.000000
0
LINE
8
00_ALUMINIO
10
126.571258
20
-75.276743
30
0.0
11
126.571258
21
-76.776743
31
0.0
0
ARC
8
00_ALUMINIO
10
126.821258
20
-76.776743
30
0.0
40
0.250000
50
180.000000
51
270.000000
0
LINE
8
00_ALUMINIO
10
126.821258
20
-77.026743
30
0.0
11
131.571258
21
-77.026743
31
0.0
0
LINE
8
00_ALUMINIO
10
131.571258
20
-77.026743
30
0.0
11
131.571258
21
-77.226743
31
0.0
0
ARC
8
00_ALUMINIO
10
131.871258
20
-77.226743
30
0.0
40
0.300000
50
180.000000
51
270.000000
0
LINE
8
00_ALUMINIO
10
131.871258
20
-77.526743
30
0.0
11
133.271258
21
-77.526743
31
0.0
0
ARC
8
00_ALUMINIO
10
133.271258
20
-77.226743
30
0.0
40
0.300000
50
270.000000
51
0.000000
0
LINE
8
00_ALUMINIO
10
133.571258
20
-77.226743
30
0.0
11
133.571258
21
-77.026743
31
0.0
0
LINE
8
00_ALUMINIO
10
133.571258
20
-77.026743
30
0.0
11
271.521258
21
-77.026743
31
0.0
0
ARC
8
00_ALUMINIO
10
271.521258
20
-77.276743
30
0.0
40
0.250000
50
0.000000
51
90.000000
0
LINE
8
00_ALUMINIO
10
271.771258
20
-77.276743
30
0.0
11
271.771258
21
-84.576743
31
0.0
0
ARC
8
00_ALUMINIO
10
272.021258
20
-84.576743
30
0.0
40
0.250000
50
180.000000
51
270.000000
0
LINE
8
00_ALUMINIO
10
272.021258
20
-84.826743
30
0.0
11
273.221258
21
-84.826743
31
0.0
0
ARC
8
00_ALUMINIO
10
273.221258
20
-84.576743
30
0.0
40
0.250000
50
270.000000
51
0.000000
0
LINE
8
00_ALUMINIO
10
273.471258
20
-84.576743
30
0.0
11
273.471258
21
-82.276743
31
0.0
0
ARC
8
00_ALUMINIO
10
273.721258
20
-82.276743
30
0.0
40
0.250000
50
90.000000
51
180.000000
0
LINE
8
00_ALUMINIO
10
273.721258
20
-82.026743
30
0.0
11
279.521258
21
-82.026743
31
0.0
0
ARC
8
00_ALUMINIO
10
279.521258
20
-82.276743
30
0.0
40
0.250000
50
0.000000
51
90.000000
0
LINE
8
00_ALUMINIO
10
279.771258
20
-82.276743
30
0.0
11
279.771258
21
-84.576743
31
0.0
0
ARC
8
00_ALUMINIO
10
280.021258
20
-84.576743
30
0.0
40
0.250000
50
180.000000
51
270.000000
0
LINE
8
00_ALUMINIO
10
280.021258
20
-84.826743
30
0.0
11
281.271258
21
-84.826743
31
0.0
0
ARC
8
00_ALUMINIO
10
281.271258
20
-84.326743
30
0.0
40
0.500000
50
270.000000
51
0.000000
0
LINE
8
00_ALUMINIO
10
281.771258
20
-84.326743
30
0.0
11
281.771258
21
-69.649184
31
0.0
0
ARC
8
00_ALUMINIO
10
273.771258
20
-69.649184
30
0.0
40
8.000000
50
0.000000
51
84.500000
0
LINE
8
00_ALUMINIO
10
274.538024
20
-61.686014
30
0.0
11
179.558795
21
-52.540555
31
0.0
0
ARC
8
00_ALUMINIO
10
179.271258
20
-55.526743
30
0.0
40
3.000000
50
84.500000
51
90.000000
0
LINE
8
00_ALUMINIO
10
179.271258
20
-52.526743
30
0.0
11
91.248847
21
-52.526743
31
0.0
0
ARC
8
00_ALUMINIO
10
91.248847
20
-53.026743
30
0.0
40
0.500000
50
90.000000
51
135.000000
0
LINE
8
00_ALUMINIO
10
90.895294
20
-52.673190
30
0.0
11
87.733276
21
-55.835208
31
0.0
0
LINE
8
00_ALUMINIO
10
87.733276
20
-55.835208
30
0.0
11
87.733276
21
-56.188761
31
0.0
0
LINE
8
00_ALUMINIO
10
87.733276
20
-56.188761
30
0.0
11
87.379722
21
-56.188761
31
0.0
0
LINE
8
00_ALUMINIO
10
87.379722
20
-56.188761
30
0.0
11
84.397543
21
-59.170941
31
0.0
0
ARC
8
00_ALUMINIO
10
84.185411
20
-58.958809
30
0.0
40
0.300000
50
284.002547
51
315.000000
0
LINE
8
00_ALUMINIO
10
84.258001
20
-59.249894
30
0.0
11
82.297625
21
-59.738763
31
0.0
0
ARC
8
00_ALUMINIO
10
82.213986
20
-59.450658
30
0.0
40
0.300000
50
228.000000
51
286.188403
0
LINE
8
00_ALUMINIO
10
82.013247
20
-59.673602
30
0.0
11
81.754170
21
-59.440328
31
0.0
0
ARC
8
00_ALUMINIO
10
81.553431
20
-59.663272
30
0.0
40
0.300000
50
48.000000
51
90.000000
0
LINE
8
00_ALUMINIO
10
81.553431
20
-59.363272
30
0.0
11
80.188873
21
-59.363272
31
0.0
0
ARC
8
00_ALUMINIO
10
80.188873
20
-59.663272
30
0.0
40
0.300000
50
90.000000
51
208.143025
0
LINE
8
00_ALUMINIO
10
79.924341
20
-59.804774
30
0.0
11
81.018074
21
-61.849456
31
0.0
0
ARC
8
00_ALUMINIO
10
81.282606
20
-61.707954
30
0.0
40
0.300000
50
208.143025
51
241.000000
0
LINE
8
00_ALUMINIO
10
81.137163
20
-61.970340
30
0.0
11
81.855193
21
-62.368350
31
0.0
0
ARC
8
00_ALUMINIO
10
81.952154
20
-62.193426
30
0.0
40
0.200000
50
241.000000
51
1.000000
0
LINE
8
00_ALUMINIO
10
82.152124
20
-62.189936
30
0.0
11
82.148791
21
-61.998965
31
0.0
0
ARC
8
00_ALUMINIO
10
82.348760
20
-61.995474
30
0.0
40
0.200000
50
128.940638
51
181.000000
0
LINE
8
00_ALUMINIO
10
82.223057
20
-61.839915
30
0.0
11
83.462305
21
-60.838517
31
0.0
0
ARC
8
00_ALUMINIO
10
83.336604
20
-60.682956
30
0.0
40
0.200000
50
308.939991
51
13.568780
0
ARC
8
00_ALUMINIO
10
83.871253
20
-60.553921
30
0.0
40
0.350000
50
320.285909
51
193.568474
0
ARC
8
00_ALUMINIO
10
84.371258
20
-60.969247
30
0.0
40
0.300000
50
140.284863
51
180.000000
0
LINE
8
00_ALUMINIO
10
84.071258
20
-60.969247
30
0.0
11
84.071258
21
-65.598571
31
0.0
0
ARC
8
00_ALUMINIO
10
83.871258
20
-65.598571
30
0.0
40
0.200000
50
270.000000
51
0.000000
0
LINE
8
00_ALUMINIO
10
83.871258
20
-65.798571
30
0.0
11
83.803369
21
-65.798571
31
0.0
0
ARC
8
00_ALUMINIO
10
83.803369
20
-65.498571
30
0.0
40
0.300000
50
238.619868
51
270.000000
0
LINE
8
00_ALUMINIO
10
83.647155
20
-65.754690
30
0.0
11
81.965632
21
-64.729084
31
0.0
0
ARC
8
00_ALUMINIO
10
81.771258
20
-64.776188
30
0.0
40
0.200000
50
13.622214
51
180.000000
0
LINE
8
00_ALUMINIO
10
81.571258
20
-64.776188
30
0.0
11
81.571258
21
-66.681444
31
0.0
0
ARC
8
00_ALUMINIO
10
82.071258
20
-66.681444
30
0.0
40
0.500000
50
180.000000
51
240.000000
0
LINE
8
00_ALUMINIO
10
81.821258
20
-67.114457
30
0.0
11
82.951385
21
-67.766936
31
0.0
0
ARC
8
00_ALUMINIO
10
82.801385
20
-68.026743
30
0.0
40
0.300000
50
300.000000
51
60.000000
0
LINE
8
00_ALUMINIO
10
82.951385
20
-68.286551
30
0.0
11
81.821258
21
-68.939030
31
0.0
0
ARC
8
00_ALUMINIO
10
82.071258
20
-69.372043
30
0.0
40
0.500000
50
120.000000
51
180.000000
0
LINE
8
00_ALUMINIO
10
81.571258
20
-69.372043
30
0.0
11
81.571258
21
-71.277299
31
0.0
0
ARC
8
00_ALUMINIO
10
81.771258
20
-71.277299
30
0.0
40
0.200000
50
180.000000
51
346.377786
0
LINE
8
00_ALUMINIO
10
81.965632
20
-71.324402
30
0.0
11
83.647155
21
-70.298796
31
0.0
0
ARC
8
00_ALUMINIO
10
83.803369
20
-70.554916
30
0.0
40
0.300000
50
90.000000
51
121.380132
0
LINE
8
00_ALUMINIO
10
83.803369
20
-70.254916
30
0.0
11
83.871258
21
-70.254916
31
0.0
0
ARC
8
00_ALUMINIO
10
83.871258
20
-70.454916
30
0.0
40
0.200000
50
0.000000
51
90.000000
0
LINE
8
00_ALUMINIO
10
84.071258
20
-70.454916
30
0.0
11
84.071258
21
-75.084239
31
0.0
0
ARC
8
00_ALUMINIO
10
84.371258
20
-75.084239
30
0.0
40
0.300000
50
180.000000
51
219.715137
0
ARC
8
00_ALUMINIO
10
83.871253
20
-75.499566
30
0.0
40
0.350000
50
166.431526
51
39.714091
0
ARC
8
00_ALUMINIO
10
83.336604
20
-75.370531
30
0.0
40
0.200000
50
346.431220
51
51.060009
0
LINE
8
00_ALUMINIO
10
89.026655
20
-62.225084
30
0.0
11
88.758708
21
-62.379783
31
0.0
0
ARC
8
00_ALUMINIO
10
88.508708
20
-61.946770
30
0.0
40
0.500000
50
225.257523
51
300.000000
0
ARC
8
00_ALUMINIO
10
87.171258
20
-63.296298
30
0.0
40
1.400000
50
45.257523
51
69.426879
0
LINE
8
00_ALUMINIO
10
87.663221
20
-61.985584
30
0.0
11
87.663221
21
-61.773809
31
0.0
0
ARC
8
00_ALUMINIO
10
87.171258
20
-63.296298
30
0.0
40
1.600000
50
72.092741
51
107.907259
0
LINE
8
00_ALUMINIO
10
86.679294
20
-61.773809
30
0.0
11
86.679294
21
-61.985584
31
0.0
0
ARC
8
00_ALUMINIO
10
87.171258
20
-63.296298
30
0.0
40
1.400000
50
110.573121
51
159.426879
0
LINE
8
00_ALUMINIO
10
85.860543
20
-62.804334
30
0.0
11
85.648769
21
-62.804334
31
0.0
0
ARC
8
00_ALUMINIO
10
87.171258
20
-63.296298
30
0.0
40
1.600000
50
162.092741
51
197.907259
0
LINE
8
00_ALUMINIO
10
85.648769
20
-63.788261
30
0.0
11
85.860543
21
-63.788261
31
0.0
0
ARC
8
00_ALUMINIO
10
87.171258
20
-63.296298
30
0.0
40
1.400000
50
200.573121
51
249.426879
0
LINE
8
00_ALUMINIO
10
86.679294
20
-64.607012
30
0.0
11
86.679294
21
-64.818787
31
0.0
0
ARC
8
00_ALUMINIO
10
87.171258
20
-63.296298
30
0.0
40
1.600000
50
252.092741
51
287.907259
0
LINE
8
00_ALUMINIO
10
87.663221
20
-64.818787
30
0.0
11
87.663221
21
-64.607012
31
0.0
0
ARC
8
00_ALUMINIO
10
87.171258
20
-63.296298
30
0.0
40
1.400000
50
290.573121
51
314.742477
0
ARC
8
00_ALUMINIO
10
88.508708
20
-64.645826
30
0.0
40
0.500000
50
60.000000
51
134.742477
0
LINE
8
00_ALUMINIO
10
88.758708
20
-64.212813
30
0.0
11
89.026655
21
-64.367512
31
0.0
0
ARC
8
00_ALUMINIO
10
88.776655
20
-64.800525
30
0.0
40
0.500000
50
2.726204
51
60.000000
0
LINE
8
00_ALUMINIO
10
89.276089
20
-64.776743
30
0.0
11
132.571258
21
-64.776743
31
0.0
0
ARC
8
00_ALUMINIO
10
132.571258
20
-65.776743
30
0.0
40
1.000000
50
0.000000
51
90.000000
0
LINE
8
00_ALUMINIO
10
133.571258
20
-65.776743
30
0.0
11
133.571258
21
-74.776743
31
0.0
0
ARC
8
00_ALUMINIO
10
133.821258
20
-74.776743
30
0.0
40
0.250000
50
180.000000
51
270.000000
0
LINE
8
00_ALUMINIO
10
133.821258
20
-75.026743
30
0.0
11
272.971258
21
-75.026743
31
0.0
0
ARC
8
00_ALUMINIO
10
272.971258
20
-75.526743
30
0.0
40
0.500000
50
0.000000
51
90.000000
0
LINE
8
00_ALUMINIO
10
273.471258
20
-75.526743
30
0.0
11
273.471258
21
-79.776743
31
0.0
0
ARC
8
00_ALUMINIO
10
273.721258
20
-79.776743
30
0.0
40
0.250000
50
180.000000
51
270.000000
0
LINE
8
00_ALUMINIO
10
273.721258
20
-80.026743
30
0.0
11
279.521258
21
-80.026743
31
0.0
0
ARC
8
00_ALUMINIO
10
279.521258
20
-79.776743
30
0.0
40
0.250000
50
270.000000
51
0.000000
0
LINE
8
00_ALUMINIO
10
279.771258
20
-79.776743
30
0.0
11
279.771258
21
-69.466505
31
0.0
0
ARC
8
00_ALUMINIO
10
273.771258
20
-69.466505
30
0.0
40
6.000000
50
0.000000
51
5.573608
0
ARC
8
00_ALUMINIO
10
279.245255
20
-68.932321
30
0.0
40
0.500000
50
5.573608
51
149.257740
0
ARC
8
00_ALUMINIO
10
276.494933
20
-67.296554
30
0.0
40
2.700000
50
268.136559
51
329.257740
0
ARC
8
00_ALUMINIO
10
276.423395
20
-69.495391
30
0.0
40
0.500000
50
165.000000
51
268.136559
0
LINE
8
00_ALUMINIO
10
275.940432
20
-69.365981
30
0.0
11
276.020510
21
-69.067126
31
0.0
0
ARC
8
00_ALUMINIO
10
276.503473
20
-69.196535
30
0.0
40
0.500000
50
90.257523
51
165.000000
0
ARC
8
00_ALUMINIO
10
276.494933
20
-67.296554
30
0.0
40
1.400000
50
270.257523
51
294.426879
0
LINE
8
00_ALUMINIO
10
277.073878
20
-68.571240
30
0.0
11
277.223625
21
-68.720987
31
0.0
0
ARC
8
00_ALUMINIO
10
276.494933
20
-67.296554
30
0.0
40
1.600000
50
297.092741
51
332.907259
0
LINE
8
00_ALUMINIO
10
277.919366
20
-68.025246
30
0.0
11
277.769619
21
-67.875499
31
0.0
0
ARC
8
00_ALUMINIO
10
276.494933
20
-67.296554
30
0.0
40
1.400000
50
335.573121
51
24.426879
0
LINE
8
00_ALUMINIO
10
277.769619
20
-66.717610
30
0.0
11
277.919366
21
-66.567863
31
0.0
0
ARC
8
00_ALUMINIO
10
276.494933
20
-67.296554
30
0.0
40
1.600000
50
27.092741
51
62.907259
0
LINE
8
00_ALUMINIO
10
277.223625
20
-65.872122
30
0.0
11
277.073878
21
-66.021869
31
0.0
0
ARC
8
00_ALUMINIO
10
276.494933
20
-67.296554
30
0.0
40
1.400000
50
65.573121
51
114.426879
0
LINE
8
00_ALUMINIO
10
275.915989
20
-66.021869
30
0.0
11
275.766242
21
-65.872122
31
0.0
0
ARC
8
00_ALUMINIO
10
276.494933
20
-67.296554
30
0.0
40
1.600000
50
117.092741
51
152.907259
0
LINE
8
00_ALUMINIO
10
275.070501
20
-66.567863
30
0.0
11
275.220248
21
-66.717610
31
0.0
0
ARC
8
00_ALUMINIO
10
276.494933
20
-67.296554
30
0.0
40
1.400000
50
155.573121
51
179.742477
0
ARC
8
00_ALUMINIO
10
274.594953
20
-67.288015
30
0.0
40
0.500000
50
285.000000
51
359.742477
0
LINE
8
00_ALUMINIO
10
274.724362
20
-67.770977
30
0.0
11
274.425506
21
-67.851056
31
0.0
0
ARC
8
00_ALUMINIO
10
274.296097
20
-67.368093
30
0.0
40
0.500000
50
181.863441
51
285.000000
0
ARC
8
00_ALUMINIO
10
276.494933
20
-67.296554
30
0.0
40
2.700000
50
109.628322
51
181.863441
0
ARC
8
00_ALUMINIO
10
275.419998
20
-64.282501
30
0.0
40
0.500000
50
289.628322
51
84.500000
0
LINE
8
00_ALUMINIO
10
275.467921
20
-63.784803
30
0.0
11
179.462728
21
-54.540555
31
0.0
0
ARC
8
00_ALUMINIO
10
179.175191
20
-57.526743
30
0.0
40
3.000000
50
84.500000
51
90.000000
0
LINE
8
00_ALUMINIO
10
179.175191
20
-54.526743
30
0.0
11
92.077274
21
-54.526743
31
0.0
0
ARC
8
00_ALUMINIO
10
92.077274
20
-55.026743
30
0.0
40
0.500000
50
90.000000
51
135.000000
0
LINE
8
00_ALUMINIO
10
91.723721
20
-54.673190
30
0.0
11
86.220360
21
-60.176551
31
0.0
0
ARC
8
00_ALUMINIO
10
86.432492
20
-60.388683
30
0.0
40
0.300000
50
135.000000
51
284.256021
0
ARC
8
00_ALUMINIO
10
87.171258
20
-63.296298
30
0.0
40
2.700000
50
43.136559
51
104.256021
0
ARC
8
00_ALUMINIO
10
88.776655
20
-61.792071
30
0.0
40
0.500000
50
300.000000
51
43.136559
0
ATTDEF
8
0
10
0.000000
20
0.000000
30
0.0
40
3.5
1

3

2
PANE_WIDTH:0
70
0
0
ATTDEF
8
0
10
0.000000
20
0.000000
30
0.0
40
3.5
1

3

2
MIN_VETRO:0
70
0
0
ATTDEF
8
0
10
0.000000
20
0.000000
30
0.0
40
3.5
1

3

2
MAX_VETRO:0
70
0
0
ATTDEF
8
0
10
0.000000
20
0.000000
30
0.0
40
3.5
1

3

2
JX:0
70
0
0
ATTDEF
8
0
10
0.000000
20
0.000000
30
0.0
40
3.5
1

3

2
WX:0
70
0
0
ATTDEF
8
0
10
0.000000
20
0.000000
30
0.0
40
3.5
1

3

2
JY:0
70
0
0
ATTDEF
8
0
10
0.000000
20
0.000000
30
0.0
40
3.5
1

3

2
WY:0
70
0
0
ATTDEF
8
0
10
0.000000
20
0.000000
30
0.0
40
3.5
1

3

2
DESC:Suplemento de drenaje 230 mm
70
0
0
ATTDEF
8
0
10
0.000000
20
0.000000
30
0.0
40
3.5
1

3

2
DENS:3.1646
70
0
0
ATTDEF
8
0
10
0.000000
20
0.000000
30
0.0
40
3.5
1

3

2
TDEV:113.82
70
0
0
ATTDEF
8
0
10
0.000000
20
0.000000
30
0.0
40
3.5
1

3

2
TDEV2:0
70
0
0
ATTDEF
8
0
10
0.000000
20
0.000000
30
0.0
40
3.5
1

3

2
TDEV3:0
70
0
0
ATTDEF
8
0
10
0.000000
20
0.000000
30
0.0
40
3.5
1

3

2
TDEV4:0
70
0
0
ATTDEF
8
0
10
0.000000
20
0.000000
30
0.0
40
3.5
1

3

2
TDEV5:0
70
0
0
ATTDEF
8
0
10
0.000000
20
0.000000
30
0.0
40
3.5
1

3

2
PANE_WIDTH:0
70
0
0
ATTDEF
8
0
10
0.000000
20
0.000000
30
0.0
40
3.5
1

3

2
MIN_VETRO:0
70
0
0
ATTDEF
8
0
10
0.000000
20
0.000000
30
0.0
40
3.5
1

3

2
MAX_VETRO:0
70
0
0
ATTDEF
8
0
10
0.000000
20
0.000000
30
0.0
40
3.5
1

3

2
JX:0
70
0
0
ATTDEF
8
0
10
0.000000
20
0.000000
30
0.0
40
3.5
1

3

2
WX:0
70
0
0
ATTDEF
8
0
10
0.000000
20
0.000000
30
0.0
40
3.5
1

3

2
JY:0
70
0
0
ATTDEF
8
0
10
0.000000
20
0.000000
30
0.0
40
3.5
1

3

2
WY:0
70
0
0
ENDSEC
0
EOF
