0
SECTION
2
ENTITIES
0
ARC
8
0
10
3065.526282
20
1233.005744
30
0.0
40
0.600000
50
0.000000
51
180.000000
0
ARC
8
0
10
3065.526282
20
1233.005744
30
0.0
40
0.600000
50
180.000000
51
0.000000
0
ARC
8
0
10
3080.026282
20
1233.005744
30
0.0
40
0.600000
50
0.000000
51
180.000000
0
ARC
8
0
10
3080.026282
20
1233.005744
30
0.0
40
0.600000
50
180.000000
51
0.000000
0
ARC
8
0
10
3065.526282
20
1221.478938
30
0.0
40
0.600000
50
0.000000
51
180.000000
0
ARC
8
0
10
3065.526282
20
1221.478938
30
0.0
40
0.600000
50
180.000000
51
0.000000
0
ARC
8
0
10
3080.026282
20
1221.478938
30
0.0
40
0.600000
50
0.000000
51
180.000000
0
ARC
8
0
10
3080.026282
20
1221.478938
30
0.0
40
0.600000
50
180.000000
51
0.000000
0
LINE
8
0
10
3043.976329
20
1235.740964
30
0.0
11
3063.276329
21
1235.740964
31
0.0
0
LINE
8
0
10
3063.276329
20
1235.740964
30
0.0
11
3063.276329
21
1218.740964
31
0.0
0
LINE
8
0
10
3063.276329
20
1218.740964
30
0.0
11
3043.976329
21
1218.740964
31
0.0
0
LINE
8
0
10
3043.976329
20
1218.740964
30
0.0
11
3043.976329
21
1235.740964
31
0.0
0
LINE
8
0
10
3067.629630
20
1220.103560
30
0.0
11
3067.169462
21
1220.580441
31
0.0
0
ARC
8
0
10
3067.064673
20
1220.479324
30
0.0
40
0.145621
50
43.978161
51
180.000000
0
LINE
8
0
10
3066.919349
20
1220.470031
30
0.0
11
3066.929278
21
1220.314766
31
0.0
0
ARC
8
0
10
3066.729685
20
1220.302003
30
0.0
40
0.200000
50
310.482877
51
3.658900
0
LINE
8
0
10
3066.859529
20
1220.149883
30
0.0
11
3065.255327
21
1218.780594
31
0.0
0
ARC
8
0
10
3065.060561
20
1219.008774
30
0.0
40
0.300000
50
288.658900
51
310.482877
0
LINE
8
0
10
3065.156541
20
1218.724542
30
0.0
11
3064.872309
21
1218.628562
31
0.0
0
ARC
8
0
10
3064.776329
20
1218.912794
30
0.0
40
0.300000
50
90.000000
51
288.658900
0
LINE
8
0
10
3064.776329
20
1219.212794
30
0.0
11
3064.776329
21
1223.712794
31
0.0
0
ARC
8
0
10
3064.976329
20
1223.712794
30
0.0
40
0.200000
50
90.000000
51
180.000000
0
LINE
8
0
10
3064.976329
20
1223.912794
30
0.0
11
3065.044218
21
1223.912794
31
0.0
0
ARC
8
0
10
3065.044218
20
1223.612794
30
0.0
40
0.300000
50
58.619868
51
90.000000
0
LINE
8
0
10
3065.200432
20
1223.868913
30
0.0
11
3066.876425
21
1222.846680
31
0.0
0
ARC
8
0
10
3067.076329
20
1222.840490
30
0.0
40
0.200000
50
180.000000
51
0.000000
0
LINE
8
0
10
3067.276329
20
1222.840490
30
0.0
11
3067.276329
21
1224.247480
31
0.0
0
ARC
8
0
10
3067.076329
20
1224.247480
30
0.0
40
0.200000
50
0.000000
51
58.619868
0
LINE
8
0
10
3067.180472
20
1224.418227
30
0.0
11
3065.111829
21
1225.679947
31
0.0
0
ARC
8
0
10
3065.476329
20
1226.277559
30
0.0
40
0.700000
50
180.000000
51
238.619868
0
LINE
8
0
10
3064.776329
20
1226.277559
30
0.0
11
3064.776329
21
1226.740964
31
0.0
0
LINE
8
0
10
3064.776329
20
1226.740964
30
0.0
11
3065.276329
21
1227.240964
31
0.0
0
LINE
8
0
10
3065.276329
20
1227.240964
30
0.0
11
3064.776329
21
1227.740964
31
0.0
0
LINE
8
0
10
3064.776329
20
1227.740964
30
0.0
11
3064.776329
21
1228.204368
31
0.0
0
ARC
8
0
10
3065.476329
20
1228.204368
30
0.0
40
0.700000
50
121.380132
51
180.000000
0
LINE
8
0
10
3065.111829
20
1228.801980
30
0.0
11
3067.180472
21
1230.063700
31
0.0
0
ARC
8
0
10
3067.076329
20
1230.234447
30
0.0
40
0.200000
50
301.380132
51
0.000000
0
LINE
8
0
10
3067.276329
20
1230.234447
30
0.0
11
3067.276329
21
1231.641437
31
0.0
0
ARC
8
0
10
3067.076329
20
1231.641437
30
0.0
40
0.200000
50
0.000000
51
180.000000
0
LINE
8
0
10
3066.876425
20
1231.635247
30
0.0
11
3065.200432
21
1230.613014
31
0.0
0
ARC
8
0
10
3065.044218
20
1230.869133
30
0.0
40
0.300000
50
270.000000
51
301.380132
0
LINE
8
0
10
3065.044218
20
1230.569133
30
0.0
11
3064.976329
21
1230.569133
31
0.0
0
ARC
8
0
10
3064.976329
20
1230.769133
30
0.0
40
0.200000
50
180.000000
51
270.000000
0
LINE
8
0
10
3064.776329
20
1230.769133
30
0.0
11
3064.776329
21
1235.269133
31
0.0
0
ARC
8
0
10
3064.776329
20
1235.569133
30
0.0
40
0.300000
50
71.341100
51
270.000000
0
LINE
8
0
10
3064.872309
20
1235.853365
30
0.0
11
3065.156541
21
1235.757385
31
0.0
0
ARC
8
0
10
3065.060561
20
1235.473153
30
0.0
40
0.300000
50
49.517123
51
71.341100
0
LINE
8
0
10
3065.255327
20
1235.701333
30
0.0
11
3066.859529
21
1234.332044
31
0.0
0
ARC
8
0
10
3066.729685
20
1234.179924
30
0.0
40
0.200000
50
356.341100
51
49.517123
0
LINE
8
0
10
3066.929278
20
1234.167161
30
0.0
11
3066.919349
21
1234.011896
31
0.0
0
ARC
8
0
10
3067.064673
20
1234.002603
30
0.0
40
0.145621
50
180.000000
51
316.021839
0
LINE
8
0
10
3067.169462
20
1233.901486
30
0.0
11
3067.629630
21
1234.378368
31
0.0
0
LINE
8
0
10
3067.629630
20
1234.378368
30
0.0
11
3067.672243
21
1234.434432
31
0.0
0
LINE
8
0
10
3067.672243
20
1234.434432
30
0.0
11
3069.095947
21
1236.851631
31
0.0
0
ARC
8
0
10
3068.837452
20
1237.003882
30
0.0
40
0.300000
50
329.502378
51
90.000000
0
LINE
8
0
10
3068.837452
20
1237.303882
30
0.0
11
3068.148656
21
1237.303882
31
0.0
0
ARC
8
0
10
3068.148656
20
1236.803882
30
0.0
40
0.500000
50
90.000000
51
133.534275
0
ARC
8
0
10
3066.426685
20
1238.616288
30
0.0
40
2.000000
50
225.729847
51
313.534275
0
ARC
8
0
10
3064.890991
20
1237.040964
30
0.0
40
0.200000
50
45.729847
51
90.000000
0
LINE
8
0
10
3064.890991
20
1237.240964
30
0.0
11
3062.276329
21
1237.240964
31
0.0
0
LINE
8
0
10
3062.276329
20
1237.240964
30
0.0
11
3062.276329
21
1241.940964
31
0.0
0
ARC
8
0
10
3061.976329
20
1241.940964
30
0.0
40
0.300000
50
0.000000
51
90.000000
0
LINE
8
0
10
3061.976329
20
1242.240964
30
0.0
11
3059.683436
21
1242.240964
31
0.0
0
ARC
8
0
10
3059.683436
20
1241.740964
30
0.0
40
0.500000
50
90.000000
51
135.000000
0
LINE
8
0
10
3059.329882
20
1242.094517
30
0.0
11
3058.622776
21
1241.387410
31
0.0
0
ARC
8
0
10
3058.976329
20
1241.033857
30
0.0
40
0.500000
50
135.000000
51
180.000000
0
LINE
8
0
10
3058.476329
20
1241.033857
30
0.0
11
3058.476329
21
1240.240964
31
0.0
0
LINE
8
0
10
3058.476329
20
1240.240964
30
0.0
11
3060.476329
21
1240.240964
31
0.0
0
LINE
8
0
10
3060.476329
20
1240.240964
30
0.0
11
3060.476329
21
1237.240964
31
0.0
0
LINE
8
0
10
3060.476329
20
1237.240964
30
0.0
11
3044.476329
21
1237.240964
31
0.0
0
LINE
8
0
10
3044.476329
20
1237.240964
30
0.0
11
3044.476329
21
1240.240964
31
0.0
0
LINE
8
0
10
3044.476329
20
1240.240964
30
0.0
11
3046.476329
21
1240.240964
31
0.0
0
LINE
8
0
10
3046.476329
20
1240.240964
30
0.0
11
3046.476329
21
1241.033857
31
0.0
0
ARC
8
0
10
3045.976329
20
1241.033857
30
0.0
40
0.500000
50
0.000000
51
45.000000
0
LINE
8
0
10
3046.329882
20
1241.387410
30
0.0
11
3045.622776
21
1242.094517
31
0.0
0
ARC
8
0
10
3045.269222
20
1241.740964
30
0.0
40
0.500000
50
45.000000
51
90.000000
0
LINE
8
0
10
3045.269222
20
1242.240964
30
0.0
11
3044.100593
21
1242.240964
31
0.0
0
ARC
8
0
10
3044.100593
20
1241.940964
30
0.0
40
0.300000
50
90.000000
51
135.000000
0
LINE
8
0
10
3043.888461
20
1242.153096
30
0.0
11
3042.564197
21
1240.828831
31
0.0
0
ARC
8
0
10
3042.776329
20
1240.616699
30
0.0
40
0.300000
50
135.000000
51
180.000000
0
LINE
8
0
10
3042.476329
20
1240.616699
30
0.0
11
3042.476329
21
1213.865228
31
0.0
0
ARC
8
0
10
3042.776329
20
1213.865228
30
0.0
40
0.300000
50
180.000000
51
225.000000
0
LINE
8
0
10
3042.564197
20
1213.653096
30
0.0
11
3043.888461
21
1212.328831
31
0.0
0
ARC
8
0
10
3044.100593
20
1212.540964
30
0.0
40
0.300000
50
225.000000
51
270.000000
0
LINE
8
0
10
3044.100593
20
1212.240964
30
0.0
11
3045.269222
21
1212.240964
31
0.0
0
ARC
8
0
10
3045.269222
20
1212.740964
30
0.0
40
0.500000
50
270.000000
51
315.000000
0
LINE
8
0
10
3045.622776
20
1212.387410
30
0.0
11
3046.329882
21
1213.094517
31
0.0
0
ARC
8
0
10
3045.976329
20
1213.448070
30
0.0
40
0.500000
50
315.000000
51
0.000000
0
LINE
8
0
10
3046.476329
20
1213.448070
30
0.0
11
3046.476329
21
1214.240964
31
0.0
0
LINE
8
0
10
3046.476329
20
1214.240964
30
0.0
11
3044.476329
21
1214.240964
31
0.0
0
LINE
8
0
10
3044.476329
20
1214.240964
30
0.0
11
3044.476329
21
1217.240964
31
0.0
0
LINE
8
0
10
3044.476329
20
1217.240964
30
0.0
11
3060.476329
21
1217.240964
31
0.0
0
LINE
8
0
10
3060.476329
20
1217.240964
30
0.0
11
3060.476329
21
1214.240964
31
0.0
0
LINE
8
0
10
3060.476329
20
1214.240964
30
0.0
11
3058.476329
21
1214.240964
31
0.0
0
LINE
8
0
10
3058.476329
20
1214.240964
30
0.0
11
3058.476329
21
1213.448070
31
0.0
0
ARC
8
0
10
3058.976329
20
1213.448070
30
0.0
40
0.500000
50
180.000000
51
225.000000
0
LINE
8
0
10
3058.622776
20
1213.094517
30
0.0
11
3059.329882
21
1212.387410
31
0.0
0
ARC
8
0
10
3059.683436
20
1212.740964
30
0.0
40
0.500000
50
225.000000
51
270.000000
0
LINE
8
0
10
3059.683436
20
1212.240964
30
0.0
11
3061.976329
21
1212.240964
31
0.0
0
ARC
8
0
10
3061.976329
20
1212.540964
30
0.0
40
0.300000
50
270.000000
51
0.000000
0
LINE
8
0
10
3062.276329
20
1212.540964
30
0.0
11
3062.276329
21
1217.240964
31
0.0
0
LINE
8
0
10
3062.276329
20
1217.240964
30
0.0
11
3064.890991
21
1217.240964
31
0.0
0
ARC
8
0
10
3064.890991
20
1217.440964
30
0.0
40
0.200000
50
270.000000
51
314.270153
0
ARC
8
0
10
3066.426685
20
1215.865639
30
0.0
40
2.000000
50
46.465725
51
134.270153
0
ARC
8
0
10
3068.148656
20
1217.678045
30
0.0
40
0.500000
50
226.465725
51
270.000000
0
LINE
8
0
10
3068.148656
20
1217.178045
30
0.0
11
3068.837452
21
1217.178045
31
0.0
0
ARC
8
0
10
3068.837452
20
1217.478045
30
0.0
40
0.300000
50
270.000000
51
30.497622
0
LINE
8
0
10
3069.095947
20
1217.630296
30
0.0
11
3067.672243
21
1220.047495
31
0.0
0
LINE
8
0
10
3067.672243
20
1220.047495
30
0.0
11
3067.629630
21
1220.103560
31
0.0
0
LINE
8
0
10
3082.576329
20
1234.742341
30
0.0
11
3091.176329
21
1234.742341
31
0.0
0
ARC
8
0
10
3091.176329
20
1234.442341
30
0.0
40
0.300000
50
0.000000
51
90.000000
0
LINE
8
0
10
3091.476329
20
1234.442341
30
0.0
11
3091.476329
21
1220.042341
31
0.0
0
ARC
8
0
10
3091.176329
20
1220.042341
30
0.0
40
0.300000
50
270.000000
51
0.000000
0
LINE
8
0
10
3091.176329
20
1219.742341
30
0.0
11
3082.576329
21
1219.742341
31
0.0
0
ARC
8
0
10
3082.576329
20
1220.042341
30
0.0
40
0.300000
50
180.000000
51
270.000000
0
LINE
8
0
10
3082.276329
20
1220.042341
30
0.0
11
3082.276329
21
1234.442341
31
0.0
0
ARC
8
0
10
3082.576329
20
1234.442341
30
0.0
40
0.300000
50
90.000000
51
180.000000
0
LINE
8
0
10
3080.476329
20
1230.597305
30
0.0
11
3078.676232
21
1231.636592
31
0.0
0
LINE
8
0
10
3078.676232
20
1231.636592
30
0.0
11
3080.476329
21
1230.597305
31
0.0
0
ARC
8
0
10
3080.576329
20
1230.770510
30
0.0
40
0.200000
50
240.000000
51
0.000000
0
LINE
8
0
10
3080.776329
20
1230.770510
30
0.0
11
3080.776329
21
1235.270510
31
0.0
0
ARC
8
0
10
3080.776329
20
1235.570510
30
0.0
40
0.300000
50
270.000000
51
197.567725
0
LINE
8
0
10
3080.490321
20
1235.479961
30
0.0
11
3078.739556
21
1234.295872
31
0.0
0
ARC
8
0
10
3078.573845
20
1234.183890
30
0.0
40
0.200000
50
213.039809
51
34.049592
0
LINE
8
0
10
3078.406187
20
1234.074846
30
0.0
11
3076.448148
21
1236.897758
31
0.0
0
ARC
8
0
10
3076.737583
20
1236.976675
30
0.0
40
0.300000
50
90.000000
51
195.251415
0
LINE
8
0
10
3076.744788
20
1237.276588
30
0.0
11
3077.802819
21
1237.251169
31
0.0
0
LINE
8
0
10
3077.802819
20
1237.251169
30
0.0
11
3077.854832
21
1237.042556
31
0.0
0
LINE
8
0
10
3077.854832
20
1237.042556
30
0.0
11
3078.283088
21
1236.466326
31
0.0
0
ARC
8
0
10
3079.085698
20
1237.062830
30
0.0
40
1.000000
50
216.619865
51
303.109098
0
LINE
8
0
10
3079.631933
20
1236.225198
30
0.0
11
3080.549446
21
1236.823525
31
0.0
0
ARC
8
0
10
3080.276329
20
1237.242341
30
0.0
40
0.500000
50
303.109098
51
337.975687
0
ARC
8
0
10
3081.017949
20
1236.942341
30
0.0
40
0.300000
50
90.000000
51
157.975687
0
LINE
8
0
10
3081.017949
20
1237.242341
30
0.0
11
3081.976329
21
1237.242341
31
0.0
0
ARC
8
0
10
3081.976329
20
1236.742341
30
0.0
40
0.500000
50
0.000000
51
90.000000
0
LINE
8
0
10
3082.476329
20
1236.742341
30
0.0
11
3082.476329
21
1236.242341
31
0.0
0
LINE
8
0
10
3082.476329
20
1236.242341
30
0.0
11
3090.661134
21
1236.242341
31
0.0
0
ARC
8
0
10
3090.661134
20
1236.742341
30
0.0
40
0.500000
50
270.000000
51
358.285022
0
LINE
8
0
10
3091.160910
20
1236.727377
30
0.0
11
3091.475993
21
1247.250844
31
0.0
0
LINE
8
0
10
3091.475993
20
1247.250844
30
0.0
11
3091.476329
21
1247.273289
31
0.0
0
LINE
8
0
10
3091.476329
20
1247.273289
30
0.0
11
3091.476329
21
1259.697041
31
0.0
0
ARC
8
0
10
3091.176329
20
1259.697041
30
0.0
40
0.300000
50
0.000000
51
120.000000
0
LINE
8
0
10
3091.026329
20
1259.956849
30
0.0
11
3088.126329
21
1258.282533
31
0.0
0
ARC
8
0
10
3087.976329
20
1258.542341
30
0.0
40
0.300000
50
270.000000
51
300.000000
0
LINE
8
0
10
3087.976329
20
1258.242341
30
0.0
11
3086.276329
21
1258.242341
31
0.0
0
ARC
8
0
10
3086.276329
20
1258.742341
30
0.0
40
0.500000
50
180.000000
51
270.000000
0
LINE
8
0
10
3085.776329
20
1258.742341
30
0.0
11
3085.776329
21
1260.292341
31
0.0
0
ARC
8
0
10
3086.276329
20
1260.292341
30
0.0
40
0.500000
50
90.000000
51
180.000000
0
LINE
8
0
10
3086.276329
20
1260.792341
30
0.0
11
3086.976329
21
1260.792341
31
0.0
0
LINE
8
0
10
3086.976329
20
1260.792341
30
0.0
11
3086.976329
21
1259.542341
31
0.0
0
LINE
8
0
10
3086.976329
20
1259.542341
30
0.0
11
3087.308380
21
1259.542341
31
0.0
0
LINE
8
0
10
3087.308380
20
1259.542341
30
0.0
11
3091.326329
21
1261.862105
31
0.0
0
ARC
8
0
10
3091.176329
20
1262.121912
30
0.0
40
0.300000
50
300.000000
51
0.000000
0
LINE
8
0
10
3091.476329
20
1262.121912
30
0.0
11
3091.476329
21
1263.278239
31
0.0
0
ARC
8
0
10
3091.176329
20
1263.278239
30
0.0
40
0.300000
50
0.000000
51
60.000000
0
LINE
8
0
10
3091.326329
20
1263.538047
30
0.0
11
3087.508380
21
1265.742341
31
0.0
0
LINE
8
0
10
3087.508380
20
1265.742341
30
0.0
11
3086.976329
21
1265.742341
31
0.0
0
LINE
8
0
10
3086.976329
20
1265.742341
30
0.0
11
3086.976329
21
1264.292341
31
0.0
0
LINE
8
0
10
3086.976329
20
1264.292341
30
0.0
11
3086.276329
21
1264.292341
31
0.0
0
ARC
8
0
10
3086.276329
20
1264.792341
30
0.0
40
0.500000
50
180.000000
51
270.000000
0
LINE
8
0
10
3085.776329
20
1264.792341
30
0.0
11
3085.776329
21
1266.742341
31
0.0
0
ARC
8
0
10
3086.276329
20
1266.742341
30
0.0
40
0.500000
50
90.000000
51
180.000000
0
LINE
8
0
10
3086.276329
20
1267.242341
30
0.0
11
3087.776329
21
1267.242341
31
0.0
0
ARC
8
0
10
3087.776329
20
1266.742341
30
0.0
40
0.500000
50
60.000000
51
90.000000
0
LINE
8
0
10
3088.026329
20
1267.175353
30
0.0
11
3092.826329
21
1264.404072
31
0.0
0
ARC
8
0
10
3092.676329
20
1264.144264
30
0.0
40
0.300000
50
0.000000
51
60.000000
0
LINE
8
0
10
3092.976329
20
1264.144264
30
0.0
11
3092.976329
21
1190.340417
31
0.0
0
ARC
8
0
10
3092.676329
20
1190.340417
30
0.0
40
0.300000
50
300.000000
51
0.000000
0
LINE
8
0
10
3092.826329
20
1190.080609
30
0.0
11
3088.026329
21
1187.309328
31
0.0
0
ARC
8
0
10
3087.776329
20
1187.742341
30
0.0
40
0.500000
50
270.000000
51
300.000000
0
LINE
8
0
10
3087.776329
20
1187.242341
30
0.0
11
3086.276329
21
1187.242341
31
0.0
0
ARC
8
0
10
3086.276329
20
1187.742341
30
0.0
40
0.500000
50
180.000000
51
270.000000
0
LINE
8
0
10
3085.776329
20
1187.742341
30
0.0
11
3085.776329
21
1189.692341
31
0.0
0
ARC
8
0
10
3086.276329
20
1189.692341
30
0.0
40
0.500000
50
90.000000
51
180.000000
0
LINE
8
0
10
3086.276329
20
1190.192341
30
0.0
11
3086.976329
21
1190.192341
31
0.0
0
LINE
8
0
10
3086.976329
20
1190.192341
30
0.0
11
3086.976329
21
1188.742341
31
0.0
0
LINE
8
0
10
3086.976329
20
1188.742341
30
0.0
11
3087.508380
21
1188.742341
31
0.0
0
LINE
8
0
10
3087.508380
20
1188.742341
30
0.0
11
3091.326329
21
1190.946635
31
0.0
0
ARC
8
0
10
3091.176329
20
1191.206442
30
0.0
40
0.300000
50
300.000000
51
0.000000
0
LINE
8
0
10
3091.476329
20
1191.206442
30
0.0
11
3091.476329
21
1192.362769
31
0.0
0
ARC
8
0
10
3091.176329
20
1192.362769
30
0.0
40
0.300000
50
0.000000
51
60.000000
0
LINE
8
0
10
3091.326329
20
1192.622577
30
0.0
11
3087.308380
21
1194.942341
31
0.0
0
LINE
8
0
10
3087.308380
20
1194.942341
30
0.0
11
3086.976329
21
1194.942341
31
0.0
0
LINE
8
0
10
3086.976329
20
1194.942341
30
0.0
11
3086.976329
21
1193.692341
31
0.0
0
LINE
8
0
10
3086.976329
20
1193.692341
30
0.0
11
3086.276329
21
1193.692341
31
0.0
0
ARC
8
0
10
3086.276329
20
1194.192341
30
0.0
40
0.500000
50
180.000000
51
270.000000
0
LINE
8
0
10
3085.776329
20
1194.192341
30
0.0
11
3085.776329
21
1195.742341
31
0.0
0
ARC
8
0
10
3086.276329
20
1195.742341
30
0.0
40
0.500000
50
90.000000
51
180.000000
0
LINE
8
0
10
3086.276329
20
1196.242341
30
0.0
11
3087.976329
21
1196.242341
31
0.0
0
ARC
8
0
10
3087.976329
20
1195.942341
30
0.0
40
0.300000
50
60.000000
51
90.000000
0
LINE
8
0
10
3088.126329
20
1196.202148
30
0.0
11
3091.026329
21
1194.527832
31
0.0
0
ARC
8
0
10
3091.176329
20
1194.787640
30
0.0
40
0.300000
50
240.000000
51
0.000000
0
LINE
8
0
10
3091.476329
20
1194.787640
30
0.0
11
3091.476329
21
1207.211392
31
0.0
0
LINE
8
0
10
3091.476329
20
1207.211392
30
0.0
11
3091.475993
21
1207.233838
31
0.0
0
LINE
8
0
10
3091.475993
20
1207.233838
30
0.0
11
3091.160910
21
1217.757304
31
0.0
0
ARC
8
0
10
3090.661134
20
1217.742341
30
0.0
40
0.500000
50
1.714978
51
90.000000
0
LINE
8
0
10
3090.661134
20
1218.242341
30
0.0
11
3082.476329
21
1218.242341
31
0.0
0
LINE
8
0
10
3082.476329
20
1218.242341
30
0.0
11
3082.476329
21
1217.742341
31
0.0
0
ARC
8
0
10
3081.976329
20
1217.742341
30
0.0
40
0.500000
50
270.000000
51
0.000000
0
LINE
8
0
10
3081.976329
20
1217.242341
30
0.0
11
3081.017949
21
1217.242341
31
0.0
0
ARC
8
0
10
3081.017949
20
1217.542341
30
0.0
40
0.300000
50
202.024313
51
270.000000
0
ARC
8
0
10
3080.276329
20
1217.242341
30
0.0
40
0.500000
50
22.024313
51
56.890902
0
LINE
8
0
10
3080.549446
20
1217.661157
30
0.0
11
3079.631933
21
1218.259484
31
0.0
0
ARC
8
0
10
3079.085698
20
1217.421852
30
0.0
40
1.000000
50
56.890902
51
143.380135
0
LINE
8
0
10
3078.283088
20
1218.018355
30
0.0
11
3077.854832
21
1217.442125
31
0.0
0
LINE
8
0
10
3077.854832
20
1217.442125
30
0.0
11
3077.802819
21
1217.233512
31
0.0
0
LINE
8
0
10
3077.802819
20
1217.233512
30
0.0
11
3076.744788
21
1217.208093
31
0.0
0
ARC
8
0
10
3076.737583
20
1217.508006
30
0.0
40
0.300000
50
164.748585
51
270.000000
0
LINE
8
0
10
3076.448148
20
1217.586923
30
0.0
11
3078.406187
21
1220.409836
31
0.0
0
ARC
8
0
10
3078.573845
20
1220.300791
30
0.0
40
0.200000
50
325.950408
51
146.960191
0
LINE
8
0
10
3078.739556
20
1220.188809
30
0.0
11
3080.490321
21
1219.004721
31
0.0
0
ARC
8
0
10
3080.776329
20
1218.914171
30
0.0
40
0.300000
50
162.432275
51
90.000000
0
LINE
8
0
10
3080.776329
20
1219.214171
30
0.0
11
3080.776329
21
1223.714171
31
0.0
0
ARC
8
0
10
3080.576329
20
1223.714171
30
0.0
40
0.200000
50
0.000000
51
120.000000
0
LINE
8
0
10
3080.476329
20
1223.887376
30
0.0
11
3078.676232
21
1222.848090
31
0.0
0
ARC
8
0
10
3078.476329
20
1222.841867
30
0.0
40
0.200000
50
180.000000
51
0.000000
0
LINE
8
0
10
3078.276329
20
1222.841867
30
0.0
11
3078.276329
21
1224.233786
31
0.0
0
ARC
8
0
10
3078.476329
20
1224.233786
30
0.0
40
0.200000
50
120.000000
51
180.000000
0
LINE
8
0
10
3078.376329
20
1224.406991
30
0.0
11
3080.426329
21
1225.590559
31
0.0
0
ARC
8
0
10
3080.076329
20
1226.196777
30
0.0
40
0.700000
50
300.000000
51
0.000000
0
LINE
8
0
10
3080.776329
20
1226.196777
30
0.0
11
3080.776329
21
1228.287904
31
0.0
0
ARC
8
0
10
3080.076329
20
1228.287904
30
0.0
40
0.700000
50
0.000000
51
60.000000
0
LINE
8
0
10
3080.426329
20
1228.894122
30
0.0
11
3078.376329
21
1230.077690
31
0.0
0
ARC
8
0
10
3078.476329
20
1230.250895
30
0.0
40
0.200000
50
180.000000
51
240.000000
0
LINE
8
0
10
3078.276329
20
1230.250895
30
0.0
11
3078.276329
21
1231.642814
31
0.0
0
ARC
8
0
10
3078.476329
20
1231.642814
30
0.0
40
0.200000
50
0.000000
51
180.000000
0
LINE
8
0
10
3065.575934
20
1233.603686
30
0.0
11
3066.477071
21
1234.504822
31
0.0
0
LINE
8
0
10
3065.126208
20
1230.908896
30
0.0
11
3071.573056
21
1237.355744
31
0.0
0
LINE
8
0
10
3068.568422
20
1232.106045
30
0.0
11
3069.981269
21
1233.518892
31
0.0
0
LINE
8
0
10
3072.018121
20
1235.555744
30
0.0
11
3073.818120
21
1237.355744
31
0.0
0
LINE
8
0
10
3074.231906
20
1235.524465
30
0.0
11
3075.591176
21
1236.883735
31
0.0
0
LINE
8
0
10
3075.148320
20
1234.195815
30
0.0
11
3076.454560
21
1235.502055
31
0.0
0
LINE
8
0
10
3065.201506
20
1222.003938
30
0.0
11
3066.285936
21
1223.088367
31
0.0
0
LINE
8
0
10
3076.011679
20
1232.814110
30
0.0
11
3077.317944
21
1234.120376
31
0.0
0
LINE
8
0
10
3064.917013
20
1219.474380
30
0.0
11
3067.821569
21
1222.378936
31
0.0
0
LINE
8
0
10
3077.548378
20
1232.105745
30
0.0
11
3080.521189
21
1235.078556
31
0.0
0
LINE
8
0
10
3068.164391
20
1220.476694
30
0.0
11
3069.470659
21
1221.782962
31
0.0
0
LINE
8
0
10
3079.150853
20
1231.463156
30
0.0
11
3080.097707
21
1232.410010
31
0.0
0
LINE
8
0
10
3069.027775
20
1219.095014
30
0.0
11
3070.334017
21
1220.401256
31
0.0
0
LINE
8
0
10
3069.891160
20
1217.713335
30
0.0
11
3071.208826
21
1219.031001
31
0.0
0
LINE
8
0
10
3071.551827
20
1217.128938
30
0.0
11
3073.351826
21
1218.928937
31
0.0
0
LINE
8
0
10
3075.875463
20
1221.452574
30
0.0
11
3076.773885
21
1222.350996
31
0.0
0
LINE
8
0
10
3073.796891
20
1217.128938
30
0.0
11
3080.246891
21
1223.578938
31
0.0
0
LINE
8
0
10
3078.959718
20
1220.046701
30
0.0
11
3079.826273
21
1220.913256
31
0.0
0
LINE
8
0
10
3080.619471
20
1219.461390
30
0.0
11
3080.693783
21
1219.535702
31
0.0
0
LINE
8
0
10
3066.077858
20
1219.749376
30
0.0
11
3064.933347
21
1220.893886
31
0.0
0
LINE
8
0
10
3070.943360
20
1217.128938
30
0.0
11
3069.111885
21
1218.960413
31
0.0
0
LINE
8
0
10
3067.520916
20
1220.551382
30
0.0
11
3064.789932
21
1223.282366
31
0.0
0
LINE
8
0
10
3073.188424
20
1217.128938
30
0.0
11
3071.375723
21
1218.941639
31
0.0
0
LINE
8
0
10
3071.030090
20
1219.287272
30
0.0
11
3067.938426
21
1222.378936
31
0.0
0
LINE
8
0
10
3075.336095
20
1217.226331
30
0.0
11
3073.633489
21
1218.928937
31
0.0
0
LINE
8
0
10
3076.212398
20
1218.595092
30
0.0
11
3074.906165
21
1219.901325
31
0.0
0
LINE
8
0
10
3077.075782
20
1219.976772
30
0.0
11
3075.769524
21
1221.283030
31
0.0
0
LINE
8
0
10
3065.886723
20
1231.165831
30
0.0
11
3064.876226
21
1232.176328
31
0.0
0
LINE
8
0
10
3079.648690
20
1219.648928
30
0.0
11
3076.922405
21
1222.375213
31
0.0
0
LINE
8
0
10
3065.726138
20
1233.571480
30
0.0
11
3064.776329
21
1234.521289
31
0.0
0
LINE
8
0
10
3067.310043
20
1231.987575
30
0.0
11
3066.092019
21
1233.205599
31
0.0
0
LINE
8
0
10
3079.621163
20
1221.921519
30
0.0
11
3078.751640
21
1222.791042
31
0.0
0
LINE
8
0
10
3069.195521
20
1232.347161
30
0.0
11
3067.630892
21
1233.911790
31
0.0
0
LINE
8
0
10
3080.776235
20
1223.011511
30
0.0
11
3080.208808
21
1223.578938
31
0.0
0
LINE
8
0
10
3070.091862
20
1233.695884
30
0.0
11
3068.785613
21
1235.002133
31
0.0
0
LINE
8
0
10
3070.955220
20
1235.077590
30
0.0
11
3069.648997
21
1236.383813
31
0.0
0
LINE
8
0
10
3072.722130
20
1235.555744
30
0.0
11
3070.922131
21
1237.355744
31
0.0
0
LINE
8
0
10
3078.935380
20
1231.587558
30
0.0
11
3073.167195
21
1237.355744
31
0.0
0
LINE
8
0
10
3080.676338
20
1232.091664
30
0.0
11
3080.297474
21
1232.470528
31
0.0
0
LINE
8
0
10
3079.491067
20
1233.276935
30
0.0
11
3078.560505
21
1234.207497
31
0.0
0
LINE
8
0
10
3080.776235
20
1234.236831
30
0.0
11
3079.983825
21
1235.029241
31
0.0
0
LINE
8
0
10
3072.776282
20
1237.355744
30
0.0
11
3070.478059
21
1237.355744
31
0.0
0
ARC
8
0
10
3070.478059
20
1236.955744
30
0.0
40
0.400000
50
90.000000
51
147.999547
0
LINE
8
0
10
3070.138842
20
1237.167714
30
0.0
11
3068.159248
21
1233.999757
31
0.0
0
ARC
8
0
10
3067.989639
20
1234.105742
30
0.0
40
0.200000
50
270.000000
51
327.999547
0
LINE
8
0
10
3067.989639
20
1233.905742
30
0.0
11
3067.729078
21
1233.905742
31
0.0
0
ARC
8
0
10
3067.729078
20
1234.705742
30
0.0
40
0.800000
50
240.000304
51
270.000000
0
LINE
8
0
10
3067.329082
20
1234.012920
30
0.0
11
3065.482641
21
1235.078950
31
0.0
0
ARC
8
0
10
3065.382642
20
1234.905744
30
0.0
40
0.200000
50
60.000304
51
90.000000
0
LINE
8
0
10
3065.382642
20
1235.105744
30
0.0
11
3065.176329
21
1235.105744
31
0.0
0
ARC
8
0
10
3065.176329
20
1234.705744
30
0.0
40
0.400000
50
90.000000
51
180.000000
0
LINE
8
0
10
3064.776329
20
1234.705744
30
0.0
11
3064.776329
21
1234.105742
31
0.0
0
LINE
8
0
10
3064.776329
20
1234.105742
30
0.0
11
3064.876226
21
1234.105742
31
0.0
0
LINE
8
0
10
3064.876226
20
1234.105742
30
0.0
11
3064.876226
21
1233.730743
31
0.0
0
ARC
8
0
10
3065.076226
20
1233.730743
30
0.0
40
0.200000
50
180.000000
51
270.000000
0
LINE
8
0
10
3065.076226
20
1233.530743
30
0.0
11
3065.235808
21
1233.530743
31
0.0
0
ARC
8
0
10
3065.526282
20
1233.005744
30
0.0
40
0.600000
50
0.000000
51
118.955054
0
ARC
8
0
10
3065.526282
20
1233.005744
30
0.0
40
0.600000
50
241.044946
51
0.000000
0
LINE
8
0
10
3065.235808
20
1232.480744
30
0.0
11
3065.076226
21
1232.480744
31
0.0
0
ARC
8
0
10
3065.076226
20
1232.280744
30
0.0
40
0.200000
50
90.000000
51
180.000000
0
LINE
8
0
10
3064.876226
20
1232.280744
30
0.0
11
3064.876226
21
1231.905745
31
0.0
0
LINE
8
0
10
3064.876226
20
1231.905745
30
0.0
11
3064.776329
21
1231.905745
31
0.0
0
LINE
8
0
10
3064.776329
20
1231.905745
30
0.0
11
3064.776329
21
1231.305743
31
0.0
0
ARC
8
0
10
3065.176329
20
1231.305743
30
0.0
40
0.400000
50
180.000000
51
270.000000
0
LINE
8
0
10
3065.176329
20
1230.905743
30
0.0
11
3065.382642
21
1230.905743
31
0.0
0
ARC
8
0
10
3065.382642
20
1231.105743
30
0.0
40
0.200000
50
270.000000
51
299.999696
0
LINE
8
0
10
3065.482641
20
1230.932537
30
0.0
11
3067.329082
21
1231.998568
31
0.0
0
ARC
8
0
10
3067.729079
20
1231.305745
30
0.0
40
0.800000
50
90.000000
51
119.999696
0
LINE
8
0
10
3067.729079
20
1232.105745
30
0.0
11
3068.543946
21
1232.105745
31
0.0
0
ARC
8
0
10
3068.543946
20
1233.105745
30
0.0
40
1.000000
50
270.000000
51
328.000809
0
LINE
8
0
10
3069.392002
20
1232.575838
30
0.0
11
3071.136500
21
1235.367707
31
0.0
0
ARC
8
0
10
3071.475723
20
1235.155744
30
0.0
40
0.400000
50
90.000000
51
148.000809
0
LINE
8
0
10
3071.475723
20
1235.555744
30
0.0
11
3072.776282
21
1235.555744
31
0.0
0
LINE
8
0
10
3072.776282
20
1235.555744
30
0.0
11
3074.076842
21
1235.555744
31
0.0
0
ARC
8
0
10
3074.076842
20
1235.155744
30
0.0
40
0.400000
50
31.999191
51
90.000000
0
LINE
8
0
10
3074.416064
20
1235.367707
30
0.0
11
3076.160563
21
1232.575838
31
0.0
0
ARC
8
0
10
3077.008618
20
1233.105745
30
0.0
40
1.000000
50
211.999191
51
270.000000
0
LINE
8
0
10
3077.008618
20
1232.105745
30
0.0
11
3077.823486
21
1232.105745
31
0.0
0
ARC
8
0
10
3077.823486
20
1231.305745
30
0.0
40
0.800000
50
60.000304
51
90.000000
0
LINE
8
0
10
3078.223482
20
1231.998568
30
0.0
11
3080.069923
21
1230.932537
31
0.0
0
ARC
8
0
10
3080.169922
20
1231.105743
30
0.0
40
0.200000
50
240.000304
51
270.000000
0
LINE
8
0
10
3080.169922
20
1230.905743
30
0.0
11
3080.376235
21
1230.905743
31
0.0
0
ARC
8
0
10
3080.376235
20
1231.305743
30
0.0
40
0.400000
50
270.000000
51
0.000000
0
LINE
8
0
10
3080.776235
20
1231.305743
30
0.0
11
3080.776235
21
1231.905745
31
0.0
0
LINE
8
0
10
3080.776235
20
1231.905745
30
0.0
11
3080.676338
21
1231.905745
31
0.0
0
LINE
8
0
10
3080.676338
20
1231.905745
30
0.0
11
3080.676338
21
1232.280744
31
0.0
0
ARC
8
0
10
3080.476338
20
1232.280744
30
0.0
40
0.200000
50
0.000000
51
90.000000
0
LINE
8
0
10
3080.476338
20
1232.480744
30
0.0
11
3080.316756
21
1232.480744
31
0.0
0
ARC
8
0
10
3080.026282
20
1233.005744
30
0.0
40
0.600000
50
180.000000
51
298.955054
0
ARC
8
0
10
3080.026282
20
1233.005744
30
0.0
40
0.600000
50
61.044946
51
180.000000
0
LINE
8
0
10
3080.316756
20
1233.530743
30
0.0
11
3080.476338
21
1233.530743
31
0.0
0
ARC
8
0
10
3080.476338
20
1233.730743
30
0.0
40
0.200000
50
270.000000
51
0.000000
0
LINE
8
0
10
3080.676338
20
1233.730743
30
0.0
11
3080.676338
21
1234.105742
31
0.0
0
LINE
8
0
10
3080.676338
20
1234.105742
30
0.0
11
3080.776235
21
1234.105742
31
0.0
0
LINE
8
0
10
3080.776235
20
1234.105742
30
0.0
11
3080.776235
21
1234.705744
31
0.0
0
ARC
8
0
10
3080.376235
20
1234.705744
30
0.0
40
0.400000
50
0.000000
51
90.000000
0
LINE
8
0
10
3080.376235
20
1235.105744
30
0.0
11
3080.169922
21
1235.105744
31
0.0
0
ARC
8
0
10
3080.169922
20
1234.905744
30
0.0
40
0.200000
50
90.000000
51
119.999696
0
LINE
8
0
10
3080.069923
20
1235.078950
30
0.0
11
3078.223483
21
1234.012920
31
0.0
0
ARC
8
0
10
3077.823486
20
1234.705742
30
0.0
40
0.800000
50
270.000000
51
299.999696
0
LINE
8
0
10
3077.823486
20
1233.905742
30
0.0
11
3077.562925
21
1233.905742
31
0.0
0
ARC
8
0
10
3077.562925
20
1234.105742
30
0.0
40
0.200000
50
212.000453
51
270.000000
0
LINE
8
0
10
3077.393317
20
1233.999757
30
0.0
11
3075.413723
21
1237.167714
31
0.0
0
ARC
8
0
10
3075.074505
20
1236.955744
30
0.0
40
0.400000
50
32.000453
51
90.000000
0
LINE
8
0
10
3075.074505
20
1237.355744
30
0.0
11
3072.776282
21
1237.355744
31
0.0
0
LINE
8
0
10
3072.776282
20
1217.128938
30
0.0
11
3070.478059
21
1217.128938
31
0.0
0
ARC
8
0
10
3070.478059
20
1217.528938
30
0.0
40
0.400000
50
212.000453
51
270.000000
0
LINE
8
0
10
3070.138842
20
1217.316967
30
0.0
11
3068.159248
21
1220.484924
31
0.0
0
ARC
8
0
10
3067.989639
20
1220.378939
30
0.0
40
0.200000
50
32.000453
51
90.000000
0
LINE
8
0
10
3067.989639
20
1220.578939
30
0.0
11
3067.729078
21
1220.578939
31
0.0
0
ARC
8
0
10
3067.729078
20
1219.778939
30
0.0
40
0.800000
50
90.000000
51
119.999696
0
LINE
8
0
10
3067.329082
20
1220.471761
30
0.0
11
3065.482641
21
1219.405732
31
0.0
0
ARC
8
0
10
3065.382642
20
1219.578937
30
0.0
40
0.200000
50
270.000000
51
299.999696
0
LINE
8
0
10
3065.382642
20
1219.378937
30
0.0
11
3065.176329
21
1219.378937
31
0.0
0
ARC
8
0
10
3065.176329
20
1219.778937
30
0.0
40
0.400000
50
180.000000
51
270.000000
0
LINE
8
0
10
3064.776329
20
1219.778937
30
0.0
11
3064.776329
21
1220.378939
31
0.0
0
LINE
8
0
10
3064.776329
20
1220.378939
30
0.0
11
3064.876226
21
1220.378939
31
0.0
0
LINE
8
0
10
3064.876226
20
1220.378939
30
0.0
11
3064.876226
21
1220.753938
31
0.0
0
ARC
8
0
10
3065.076226
20
1220.753938
30
0.0
40
0.200000
50
90.000000
51
180.000000
0
LINE
8
0
10
3065.076226
20
1220.953938
30
0.0
11
3065.235808
21
1220.953938
31
0.0
0
ARC
8
0
10
3065.526282
20
1221.478938
30
0.0
40
0.600000
50
241.044946
51
0.000000
0
ARC
8
0
10
3065.526282
20
1221.478938
30
0.0
40
0.600000
50
0.000000
51
118.955054
0
LINE
8
0
10
3065.235808
20
1222.003938
30
0.0
11
3065.076226
21
1222.003938
31
0.0
0
ARC
8
0
10
3065.076226
20
1222.203938
30
0.0
40
0.200000
50
180.000000
51
270.000000
0
LINE
8
0
10
3064.876226
20
1222.203938
30
0.0
11
3064.876226
21
1222.578936
31
0.0
0
LINE
8
0
10
3064.876226
20
1222.578936
30
0.0
11
3064.776329
21
1222.578936
31
0.0
0
LINE
8
0
10
3064.776329
20
1222.578936
30
0.0
11
3064.776329
21
1223.178938
31
0.0
0
ARC
8
0
10
3065.176329
20
1223.178938
30
0.0
40
0.400000
50
90.000000
51
180.000000
0
LINE
8
0
10
3065.176329
20
1223.578938
30
0.0
11
3065.382642
21
1223.578938
31
0.0
0
ARC
8
0
10
3065.382642
20
1223.378938
30
0.0
40
0.200000
50
60.000304
51
90.000000
0
LINE
8
0
10
3065.482641
20
1223.552144
30
0.0
11
3067.329082
21
1222.486114
31
0.0
0
ARC
8
0
10
3067.729079
20
1223.178936
30
0.0
40
0.800000
50
240.000304
51
270.000000
0
LINE
8
0
10
3067.729079
20
1222.378936
30
0.0
11
3068.543946
21
1222.378936
31
0.0
0
ARC
8
0
10
3068.543946
20
1221.378936
30
0.0
40
1.000000
50
31.999191
51
90.000000
0
LINE
8
0
10
3069.392002
20
1221.908843
30
0.0
11
3071.136500
21
1219.116974
31
0.0
0
ARC
8
0
10
3071.475723
20
1219.328937
30
0.0
40
0.400000
50
211.999191
51
270.000000
0
LINE
8
0
10
3071.475723
20
1218.928937
30
0.0
11
3072.776282
21
1218.928937
31
0.0
0
LINE
8
0
10
3072.776282
20
1218.928937
30
0.0
11
3074.076842
21
1218.928937
31
0.0
0
ARC
8
0
10
3074.076842
20
1219.328937
30
0.0
40
0.400000
50
270.000000
51
328.000809
0
LINE
8
0
10
3074.416064
20
1219.116974
30
0.0
11
3076.160563
21
1221.908843
31
0.0
0
ARC
8
0
10
3077.008618
20
1221.378936
30
0.0
40
1.000000
50
90.000000
51
148.000809
0
LINE
8
0
10
3077.008618
20
1222.378936
30
0.0
11
3077.823486
21
1222.378936
31
0.0
0
ARC
8
0
10
3077.823486
20
1223.178936
30
0.0
40
0.800000
50
270.000000
51
299.999696
0
LINE
8
0
10
3078.223482
20
1222.486114
30
0.0
11
3080.069923
21
1223.552144
31
0.0
0
ARC
8
0
10
3080.169922
20
1223.378938
30
0.0
40
0.200000
50
90.000000
51
119.999696
0
LINE
8
0
10
3080.169922
20
1223.578938
30
0.0
11
3080.376235
21
1223.578938
31
0.0
0
ARC
8
0
10
3080.376235
20
1223.178938
30
0.0
40
0.400000
50
0.000000
51
90.000000
0
LINE
8
0
10
3080.776235
20
1223.178938
30
0.0
11
3080.776235
21
1222.578936
31
0.0
0
LINE
8
0
10
3080.776235
20
1222.578936
30
0.0
11
3080.676338
21
1222.578936
31
0.0
0
LINE
8
0
10
3080.676338
20
1222.578936
30
0.0
11
3080.676338
21
1222.203938
31
0.0
0
ARC
8
0
10
3080.476338
20
1222.203938
30
0.0
40
0.200000
50
270.000000
51
0.000000
0
LINE
8
0
10
3080.476338
20
1222.003938
30
0.0
11
3080.316756
21
1222.003938
31
0.0
0
ARC
8
0
10
3080.026282
20
1221.478938
30
0.0
40
0.600000
50
61.044946
51
180.000000
0
ARC
8
0
10
3080.026282
20
1221.478938
30
0.0
40
0.600000
50
180.000000
51
298.955054
0
LINE
8
0
10
3080.316756
20
1220.953938
30
0.0
11
3080.476338
21
1220.953938
31
0.0
0
ARC
8
0
10
3080.476338
20
1220.753938
30
0.0
40
0.200000
50
0.000000
51
90.000000
0
LINE
8
0
10
3080.676338
20
1220.753938
30
0.0
11
3080.676338
21
1220.378939
31
0.0
0
LINE
8
0
10
3080.676338
20
1220.378939
30
0.0
11
3080.776235
21
1220.378939
31
0.0
0
LINE
8
0
10
3080.776235
20
1220.378939
30
0.0
11
3080.776235
21
1219.778937
31
0.0
0
ARC
8
0
10
3080.376235
20
1219.778937
30
0.0
40
0.400000
50
270.000000
51
0.000000
0
LINE
8
0
10
3080.376235
20
1219.378937
30
0.0
11
3080.169922
21
1219.378937
31
0.0
0
ARC
8
0
10
3080.169922
20
1219.578937
30
0.0
40
0.200000
50
240.000304
51
270.000000
0
LINE
8
0
10
3080.069923
20
1219.405732
30
0.0
11
3078.223483
21
1220.471761
31
0.0
0
ARC
8
0
10
3077.823486
20
1219.778939
30
0.0
40
0.800000
50
60.000304
51
90.000000
0
LINE
8
0
10
3077.823486
20
1220.578939
30
0.0
11
3077.562925
21
1220.578939
31
0.0
0
ARC
8
0
10
3077.562925
20
1220.378939
30
0.0
40
0.200000
50
90.000000
51
147.999547
0
LINE
8
0
10
3077.393317
20
1220.484924
30
0.0
11
3075.413723
21
1217.316967
31
0.0
0
ARC
8
0
10
3075.074505
20
1217.528938
30
0.0
40
0.400000
50
270.000000
51
327.999547
0
LINE
8
0
10
3075.074505
20
1217.128938
30
0.0
11
3072.776282
21
1217.128938
31
0.0
0
ATTDEF
8
0
10
3060.829882
20
1242.240964
30
0.0
40
3.5
1

3

2
VC_START
70
0
0
ATTDEF
8
0
10
3060.829882
20
1212.240964
30
0.0
40
3.5
1

3

2
VC_END
70
0
0
ATTDEF
8
0
10
3092.976329
20
1187.242341
30
0.0
40
3.5
1

3

2
FP_LCS_ORIG
70
0
0
ATTDEF
8
0
10
3082.976329
20
1187.242341
30
0.0
40
3.5
1

3

2
FP_LCS_HOT
70
0
0
ATTDEF
8
0
10
3092.976329
20
1197.242341
30
0.0
40
3.5
1

3

2
FP_LCS_INTERN
70
0
0
ATTDEF
8
0
10
0.000000
20
0.000000
30
0.0
40
3.5
1

3

2
PANE_WIDTH:0
70
0
0
ATTDEF
8
0
10
0.000000
20
0.000000
30
0.0
40
3.5
1

3

2
MIN_VETRO:0
70
0
0
ATTDEF
8
0
10
0.000000
20
0.000000
30
0.0
40
3.5
1

3

2
MAX_VETRO:0
70
0
0
ATTDEF
8
0
10
0.000000
20
0.000000
30
0.0
40
3.5
1

3

2
JX:0
70
0
0
ATTDEF
8
0
10
0.000000
20
0.000000
30
0.0
40
3.5
1

3

2
WX:0
70
0
0
ATTDEF
8
0
10
0.000000
20
0.000000
30
0.0
40
3.5
1

3

2
JY:0
70
0
0
ATTDEF
8
0
10
0.000000
20
0.000000
30
0.0
40
3.5
1

3

2
WY:0
70
0
0
ATTDEF
8
0
10
0.000000
20
0.000000
30
0.0
40
3.5
1

3

2
DESC:Traves.achaflanado CC
70
0
0
ATTDEF
8
0
10
0.000000
20
0.000000
30
0.0
40
3.5
1

3

2
DENS:1.3164
70
0
0
ATTDEF
8
0
10
0.000000
20
0.000000
30
0.0
40
3.5
1

3

2
TDEV:55.43
70
0
0
ATTDEF
8
0
10
0.000000
20
0.000000
30
0.0
40
3.5
1

3

2
TDEV2:0
70
0
0
ATTDEF
8
0
10
0.000000
20
0.000000
30
0.0
40
3.5
1

3

2
TDEV3:0
70
0
0
ATTDEF
8
0
10
0.000000
20
0.000000
30
0.0
40
3.5
1

3

2
TDEV4:0
70
0
0
ATTDEF
8
0
10
0.000000
20
0.000000
30
0.0
40
3.5
1

3

2
TDEV5:0
70
0
0
ATTDEF
8
0
10
0.000000
20
0.000000
30
0.0
40
3.5
1

3

2
PANE_WIDTH:0
70
0
0
ATTDEF
8
0
10
0.000000
20
0.000000
30
0.0
40
3.5
1

3

2
MIN_VETRO:0
70
0
0
ATTDEF
8
0
10
0.000000
20
0.000000
30
0.0
40
3.5
1

3

2
MAX_VETRO:0
70
0
0
ATTDEF
8
0
10
0.000000
20
0.000000
30
0.0
40
3.5
1

3

2
JX:0
70
0
0
ATTDEF
8
0
10
0.000000
20
0.000000
30
0.0
40
3.5
1

3

2
WX:0
70
0
0
ATTDEF
8
0
10
0.000000
20
0.000000
30
0.0
40
3.5
1

3

2
JY:0
70
0
0
ATTDEF
8
0
10
0.000000
20
0.000000
30
0.0
40
3.5
1

3

2
WY:0
70
0
0
ENDSEC
0
EOF
