0
SECTION
2
ENTITIES
0
LINE
8
0
10
3028.982479
20
1211.499876
30
0.0
11
3030.053956
21
1211.499876
31
0.0
0
ARC
8
0
10
3030.053956
20
1211.999876
30
0.0
40
0.500000
50
270.000000
51
345.000000
0
LINE
8
0
10
3030.536919
20
1211.870467
30
0.0
11
3030.938843
21
1213.370467
31
0.0
0
ARC
8
0
10
3030.455880
20
1213.499876
30
0.0
40
0.500000
50
345.000000
51
90.000000
0
LINE
8
0
10
3030.455880
20
1213.999876
30
0.0
11
3030.248824
21
1213.999876
31
0.0
0
ARC
8
0
10
3030.248824
20
1213.499876
30
0.0
40
0.500000
50
90.000000
51
165.000000
0
LINE
8
0
10
3029.765862
20
1213.629286
30
0.0
11
3029.711403
21
1213.426042
31
0.0
0
ARC
8
0
10
3029.518217
20
1213.477806
30
0.0
40
0.200000
50
195.000000
51
345.000000
0
LINE
8
0
10
3029.325032
20
1213.426042
30
0.0
11
3028.962904
21
1214.777522
31
0.0
0
ARC
8
0
10
3028.673127
20
1214.699876
30
0.0
40
0.300000
50
15.000000
51
90.000000
0
LINE
8
0
10
3028.673127
20
1214.999876
30
0.0
11
3024.616777
21
1214.999876
31
0.0
0
ARC
8
0
10
3024.616777
20
1215.299876
30
0.0
40
0.300000
50
194.645902
51
270.000000
0
ARC
8
0
10
3215.892895
20
1265.287243
30
0.0
40
198.000000
50
181.068704
51
194.645902
0
ARC
8
0
10
3018.227285
20
1261.599876
30
0.0
40
0.300000
50
90.000000
51
180.000000
0
LINE
8
0
10
3018.227285
20
1261.899876
30
0.0
11
3019.150048
21
1261.899876
31
0.0
0
ARC
8
0
10
3019.150048
20
1261.599876
30
0.0
40
0.300000
50
0.000000
51
90.000000
0
LINE
8
0
10
3019.450048
20
1261.599876
30
0.0
11
3019.450048
21
1258.749876
31
0.0
0
ARC
8
0
10
3019.750048
20
1258.749876
30
0.0
40
0.300000
50
180.000000
51
270.000000
0
LINE
8
0
10
3019.750048
20
1258.449876
30
0.0
11
3020.161373
21
1258.449876
31
0.0
0
ARC
8
0
10
3020.161373
20
1258.949876
30
0.0
40
0.500000
50
270.000000
51
330.000000
0
LINE
8
0
10
3020.594386
20
1258.699876
30
0.0
11
3020.876742
21
1259.188931
31
0.0
0
ARC
8
0
10
3020.726085
20
1259.275913
30
0.0
40
0.173964
50
330.000000
51
90.000000
0
LINE
8
0
10
3020.726085
20
1259.449876
30
0.0
11
3020.450048
21
1259.449876
31
0.0
0
LINE
8
0
10
3020.450048
20
1259.449876
30
0.0
11
3020.450048
21
1261.599876
31
0.0
0
ARC
8
0
10
3020.750048
20
1261.599876
30
0.0
40
0.300000
50
90.000000
51
180.000000
0
LINE
8
0
10
3020.750048
20
1261.899876
30
0.0
11
3023.550048
21
1261.899876
31
0.0
0
ARC
8
0
10
3023.550048
20
1261.599876
30
0.0
40
0.300000
50
0.000000
51
90.000000
0
LINE
8
0
10
3023.850048
20
1261.599876
30
0.0
11
3023.850048
21
1260.649876
31
0.0
0
ARC
8
0
10
3024.350048
20
1260.649876
30
0.0
40
0.500000
50
180.000000
51
339.540952
0
LINE
8
0
10
3024.818510
20
1260.475107
30
0.0
11
3025.277248
21
1261.704738
31
0.0
0
ARC
8
0
10
3025.558325
20
1261.599876
30
0.0
40
0.300000
50
90.000000
51
159.540952
0
LINE
8
0
10
3025.558325
20
1261.899876
30
0.0
11
3028.150048
21
1261.899876
31
0.0
0
ARC
8
0
10
3028.150048
20
1261.599876
30
0.0
40
0.300000
50
0.000000
51
90.000000
0
LINE
8
0
10
3028.450048
20
1261.599876
30
0.0
11
3028.450048
21
1260.499876
31
0.0
0
ARC
8
0
10
3028.950048
20
1260.499876
30
0.0
40
0.500000
50
180.000000
51
270.000000
0
LINE
8
0
10
3028.950048
20
1259.999876
30
0.0
11
3037.450048
21
1259.999876
31
0.0
0
LINE
8
0
10
3037.450048
20
1259.999876
30
0.0
11
3038.950048
21
1259.999876
31
0.0
0
LINE
8
0
10
3038.950048
20
1259.999876
30
0.0
11
3046.450048
21
1259.999876
31
0.0
0
LINE
8
0
10
3046.450048
20
1259.999876
30
0.0
11
3047.650048
21
1259.999876
31
0.0
0
ARC
8
0
10
3047.650048
20
1260.299876
30
0.0
40
0.300000
50
270.000000
51
0.000000
0
LINE
8
0
10
3047.950048
20
1260.299876
30
0.0
11
3056.650048
21
1260.299876
31
0.0
0
ARC
8
0
10
3056.950048
20
1260.299876
30
0.0
40
0.300000
50
180.000000
51
270.000000
0
LINE
8
0
10
3056.950048
20
1259.999876
30
0.0
11
3058.350048
21
1259.999876
31
0.0
0
ARC
8
0
10
3058.350048
20
1260.299876
30
0.0
40
0.300000
50
270.000000
51
0.000000
0
LINE
8
0
10
3058.650048
20
1260.299876
30
0.0
11
3058.650048
21
1261.899876
31
0.0
0
LINE
8
0
10
3058.650048
20
1261.899876
30
0.0
11
3062.650048
21
1261.899876
31
0.0
0
ARC
8
0
10
3062.650048
20
1262.649876
30
0.0
40
0.750000
50
270.000000
51
90.000000
0
LINE
8
0
10
3062.650048
20
1263.399876
30
0.0
11
3056.950048
21
1263.399876
31
0.0
0
ARC
8
0
10
3056.950048
20
1263.099876
30
0.0
40
0.300000
50
90.000000
51
180.000000
0
LINE
8
0
10
3056.650048
20
1263.099876
30
0.0
11
3056.650048
21
1261.799876
31
0.0
0
LINE
8
0
10
3056.650048
20
1261.799876
30
0.0
11
3052.800048
21
1261.799876
31
0.0
0
LINE
8
0
10
3052.800048
20
1261.799876
30
0.0
11
3052.300048
21
1261.299876
31
0.0
0
LINE
8
0
10
3052.300048
20
1261.299876
30
0.0
11
3051.800048
21
1261.799876
31
0.0
0
LINE
8
0
10
3051.800048
20
1261.799876
30
0.0
11
3047.950048
21
1261.799876
31
0.0
0
LINE
8
0
10
3047.950048
20
1261.799876
30
0.0
11
3047.950048
21
1262.999876
31
0.0
0
ARC
8
0
10
3047.450048
20
1262.999876
30
0.0
40
0.500000
50
0.000000
51
90.000000
0
LINE
8
0
10
3047.450048
20
1263.499876
30
0.0
11
3045.200048
21
1263.499876
31
0.0
0
ARC
8
0
10
3045.252548
20
1262.949876
30
0.0
40
0.552500
50
95.452622
51
264.547378
0
LINE
8
0
10
3045.200048
20
1262.399876
30
0.0
11
3046.450048
21
1262.399876
31
0.0
0
LINE
8
0
10
3046.450048
20
1262.399876
30
0.0
11
3046.450048
21
1261.199876
31
0.0
0
LINE
8
0
10
3046.450048
20
1261.199876
30
0.0
11
3038.950048
21
1261.199876
31
0.0
0
LINE
8
0
10
3038.950048
20
1261.199876
30
0.0
11
3038.950048
21
1262.399876
31
0.0
0
LINE
8
0
10
3038.950048
20
1262.399876
30
0.0
11
3040.200048
21
1262.399876
31
0.0
0
ARC
8
0
10
3040.147548
20
1262.949876
30
0.0
40
0.552500
50
275.452622
51
84.547378
0
LINE
8
0
10
3040.200048
20
1263.499876
30
0.0
11
3037.450048
21
1263.499876
31
0.0
0
LINE
8
0
10
3037.450048
20
1263.499876
30
0.0
11
3036.200048
21
1263.499876
31
0.0
0
ARC
8
0
10
3036.252548
20
1262.949876
30
0.0
40
0.552500
50
95.452622
51
264.547378
0
LINE
8
0
10
3036.200048
20
1262.399876
30
0.0
11
3037.450048
21
1262.399876
31
0.0
0
LINE
8
0
10
3037.450048
20
1262.399876
30
0.0
11
3037.450048
21
1261.199876
31
0.0
0
LINE
8
0
10
3037.450048
20
1261.199876
30
0.0
11
3029.950048
21
1261.199876
31
0.0
0
LINE
8
0
10
3029.950048
20
1261.199876
30
0.0
11
3029.950048
21
1262.399876
31
0.0
0
LINE
8
0
10
3029.950048
20
1262.399876
30
0.0
11
3031.200048
21
1262.399876
31
0.0
0
ARC
8
0
10
3031.147548
20
1262.949876
30
0.0
40
0.552500
50
275.452622
51
84.547378
0
LINE
8
0
10
3031.200048
20
1263.499876
30
0.0
11
3016.400031
21
1263.499876
31
0.0
0
ARC
8
0
10
3016.400031
20
1262.999876
30
0.0
40
0.500000
50
90.000000
51
180.000000
0
ARC
8
0
10
3216.268109
20
1265.362586
30
0.0
40
200.381940
50
180.674383
51
194.982835
0
ARC
8
0
10
3022.988290
20
1213.635470
30
0.0
40
0.300000
50
194.982835
51
303.322263
0
ARC
8
0
10
3023.537637
20
1212.799876
30
0.0
40
0.700000
50
90.000000
51
123.322263
0
LINE
8
0
10
3023.537637
20
1213.499876
30
0.0
11
3027.832719
21
1213.499876
31
0.0
0
ARC
8
0
10
3027.832719
20
1213.199876
30
0.0
40
0.300000
50
15.000000
51
90.000000
0
LINE
8
0
10
3028.122497
20
1213.277522
30
0.0
11
3028.499516
21
1211.870467
31
0.0
0
ARC
8
0
10
3028.982479
20
1211.999876
30
0.0
40
0.500000
50
195.000000
51
270.000000
0
ATTDEF
8
0
10
3020.450048
20
1260.524876
30
0.0
40
3.5
1

3

2
HC_START
70
0
0
ATTDEF
8
0
10
3015.900048
20
1263.499876
30
0.0
40
3.5
1

3

2
HC_END
70
0
0
ATTDEF
8
0
10
3015.900048
20
1263.499876
30
0.0
40
3.5
1

3

2
FP_LCS_ORIG
70
0
0
ATTDEF
8
0
10
3015.900048
20
1253.499876
30
0.0
40
3.5
1

3

2
FP_LCS_HOT
70
0
0
ATTDEF
8
0
10
3025.900048
20
1263.499876
30
0.0
40
3.5
1

3

2
FP_LCS_INTERN
70
0
0
ATTDEF
8
0
10
0.000000
20
0.000000
30
0.0
40
3.5
1

3

2
TDEV5:0
70
0
0
ATTDEF
8
0
10
0.000000
20
0.000000
30
0.0
40
3.5
1

3

2
PANE_WIDTH:0
70
0
0
ATTDEF
8
0
10
0.000000
20
0.000000
30
0.0
40
3.5
1

3

2
MIN_VETRO:0
70
0
0
ATTDEF
8
0
10
0.000000
20
0.000000
30
0.0
40
3.5
1

3

2
MAX_VETRO:0
70
0
0
ATTDEF
8
0
10
0.000000
20
0.000000
30
0.0
40
3.5
1

3

2
JX:0
70
0
0
ATTDEF
8
0
10
0.000000
20
0.000000
30
0.0
40
3.5
1

3

2
WX:0
70
0
0
ATTDEF
8
0
10
0.000000
20
0.000000
30
0.0
40
3.5
1

3

2
JY:0
70
0
0
ATTDEF
8
0
10
0.000000
20
0.000000
30
0.0
40
3.5
1

3

2
WY:0
70
0
0
ATTDEF
8
0
10
0.000000
20
0.000000
30
0.0
40
3.5
1

3

2
DESC:Tapeta
70
0
0
ATTDEF
8
0
10
0.000000
20
0.000000
30
0.0
40
3.5
1

3

2
DENS:0.5481
70
0
0
ATTDEF
8
0
10
0.000000
20
0.000000
30
0.0
40
3.5
1

3

2
TDEV:24.89
70
0
0
ATTDEF
8
0
10
0.000000
20
0.000000
30
0.0
40
3.5
1

3

2
TDEV2:0
70
0
0
ATTDEF
8
0
10
0.000000
20
0.000000
30
0.0
40
3.5
1

3

2
TDEV3:0
70
0
0
ATTDEF
8
0
10
0.000000
20
0.000000
30
0.0
40
3.5
1

3

2
TDEV4:0
70
0
0
ATTDEF
8
0
10
0.000000
20
0.000000
30
0.0
40
3.5
1

3

2
TDEV5:0
70
0
0
ATTDEF
8
0
10
0.000000
20
0.000000
30
0.0
40
3.5
1

3

2
PANE_WIDTH:0
70
0
0
ATTDEF
8
0
10
0.000000
20
0.000000
30
0.0
40
3.5
1

3

2
MIN_VETRO:0
70
0
0
ATTDEF
8
0
10
0.000000
20
0.000000
30
0.0
40
3.5
1

3

2
MAX_VETRO:0
70
0
0
ATTDEF
8
0
10
0.000000
20
0.000000
30
0.0
40
3.5
1

3

2
JX:0
70
0
0
ATTDEF
8
0
10
0.000000
20
0.000000
30
0.0
40
3.5
1

3

2
WX:0
70
0
0
ATTDEF
8
0
10
0.000000
20
0.000000
30
0.0
40
3.5
1

3

2
JY:0
70
0
0
ATTDEF
8
0
10
0.000000
20
0.000000
30
0.0
40
3.5
1

3

2
WY:0
70
0
0
ENDSEC
0
EOF
