0
SECTION
2
ENTITIES
0
LINE
8
0
10
3016.594883
20
1238.791345
30
0.0
11
3016.594883
21
1237.991345
31
0.0
0
LINE
8
0
10
3016.594883
20
1237.991345
30
0.0
11
3017.194883
21
1237.991345
31
0.0
0
ARC
8
0
10
3017.194883
20
1240.991345
30
0.0
40
3.000000
50
270.000000
51
0.000000
0
LINE
8
0
10
3020.194883
20
1240.991345
30
0.0
11
3020.194883
21
1241.391345
31
0.0
0
ARC
8
0
10
3017.194883
20
1241.391345
30
0.0
40
3.000000
50
0.000000
51
61.755627
0
ARC
8
0
10
3017.494883
20
1245.691345
30
0.0
40
2.000000
50
304.045405
51
0.000000
0
LINE
8
0
10
3019.494883
20
1245.691345
30
0.0
11
3019.494883
21
1246.041345
31
0.0
0
ARC
8
0
10
3019.144883
20
1246.041345
30
0.0
40
0.350000
50
0.000000
51
180.000000
0
LINE
8
0
10
3018.794883
20
1246.041345
30
0.0
11
3018.794883
21
1245.691345
31
0.0
0
ARC
8
0
10
3017.494883
20
1245.691345
30
0.0
40
1.300000
50
270.000000
51
0.000000
0
LINE
8
0
10
3017.494883
20
1244.391345
30
0.0
11
3016.594883
21
1244.391345
31
0.0
0
LINE
8
0
10
3016.594883
20
1244.391345
30
0.0
11
3016.594883
21
1243.591345
31
0.0
0
LINE
8
0
10
3016.594883
20
1243.591345
30
0.0
11
3017.194883
21
1243.591345
31
0.0
0
ARC
8
0
10
3017.194883
20
1241.391345
30
0.0
40
2.200000
50
79.266123
51
90.000000
0
ARC
8
0
10
3017.894883
20
1243.477010
30
0.0
40
0.300000
50
337.537432
51
165.356559
0
ARC
8
0
10
3017.194883
20
1241.391345
30
0.0
40
2.200000
50
0.000000
51
63.627868
0
LINE
8
0
10
3019.394883
20
1241.391345
30
0.0
11
3019.394883
21
1240.991345
31
0.0
0
ARC
8
0
10
3017.194883
20
1240.991345
30
0.0
40
2.200000
50
270.000000
51
0.000000
0
ARC
8
0
10
3016.894883
20
1238.791345
30
0.0
40
0.300000
50
180.000000
51
0.000000
0
ARC
8
0
10
3007.344883
20
1237.191345
30
0.0
40
0.300000
50
180.000000
51
270.000000
0
LINE
8
0
10
3007.344883
20
1236.891345
30
0.0
11
3008.744883
21
1236.891345
31
0.0
0
ARC
8
0
10
3008.744883
20
1237.191345
30
0.0
40
0.300000
50
270.000000
51
0.000000
0
LINE
8
0
10
3009.044883
20
1237.191345
30
0.0
11
3009.044883
21
1237.791345
31
0.0
0
ARC
8
0
10
3009.344883
20
1237.791345
30
0.0
40
0.300000
50
90.000000
51
180.000000
0
LINE
8
0
10
3009.344883
20
1238.091345
30
0.0
11
3014.344883
21
1238.091345
31
0.0
0
ARC
8
0
10
3014.344883
20
1237.591345
30
0.0
40
0.500000
50
0.000000
51
90.000000
0
ARC
8
0
10
3015.344883
20
1237.591345
30
0.0
40
0.500000
50
180.000000
51
270.000000
0
LINE
8
0
10
3015.344883
20
1237.091345
30
0.0
11
3016.294883
21
1237.091345
31
0.0
0
ARC
8
0
10
3016.294883
20
1237.391345
30
0.0
40
0.300000
50
270.000000
51
0.000000
0
LINE
8
0
10
3016.594883
20
1237.391345
30
0.0
11
3016.594883
21
1244.391345
31
0.0
0
LINE
8
0
10
3016.594883
20
1244.391345
30
0.0
11
3013.326782
21
1244.391345
31
0.0
0
ARC
8
0
10
3013.326782
20
1244.109447
30
0.0
40
0.281899
50
90.000000
51
247.978425
0
LINE
8
0
10
3013.221083
20
1243.848115
30
0.0
11
3014.844883
21
1243.191345
31
0.0
0
LINE
8
0
10
3014.844883
20
1243.191345
30
0.0
11
3014.844883
21
1240.291345
31
0.0
0
ARC
8
0
10
3014.344883
20
1240.291345
30
0.0
40
0.500000
50
270.000000
51
0.000000
0
LINE
8
0
10
3014.344883
20
1239.791345
30
0.0
11
2972.294883
21
1239.791345
31
0.0
0
LINE
8
0
10
2972.294883
20
1239.791345
30
0.0
11
2972.294883
21
1240.191345
31
0.0
0
ARC
8
0
10
2971.294883
20
1240.191345
30
0.0
40
1.000000
50
0.000000
51
90.000000
0
LINE
8
0
10
2971.294883
20
1241.191345
30
0.0
11
2970.044883
21
1241.191345
31
0.0
0
ARC
8
0
10
2970.044883
20
1240.891345
30
0.0
40
0.300000
50
90.000000
51
180.000000
0
LINE
8
0
10
2969.744883
20
1240.891345
30
0.0
11
2969.244883
21
1239.591345
31
0.0
0
LINE
8
0
10
2969.244883
20
1239.591345
30
0.0
11
2969.744883
21
1239.591345
31
0.0
0
LINE
8
0
10
2969.744883
20
1239.591345
30
0.0
11
2969.744883
21
1235.441345
31
0.0
0
LINE
8
0
10
2969.744883
20
1235.441345
30
0.0
11
2968.644883
21
1235.441345
31
0.0
0
ARC
8
0
10
2968.644883
20
1234.441345
30
0.0
40
1.000000
50
90.000000
51
180.000000
0
LINE
8
0
10
2967.644883
20
1234.441345
30
0.0
11
2967.644883
21
1232.741345
31
0.0
0
ARC
8
0
10
2968.644883
20
1232.741345
30
0.0
40
1.000000
50
180.000000
51
270.000000
0
LINE
8
0
10
2968.644883
20
1231.741345
30
0.0
11
2969.744883
21
1231.741345
31
0.0
0
LINE
8
0
10
2969.744883
20
1231.741345
30
0.0
11
2969.744883
21
1229.291345
31
0.0
0
ARC
8
0
10
2970.744883
20
1229.291345
30
0.0
40
1.000000
50
180.000000
51
270.000000
0
LINE
8
0
10
2970.744883
20
1228.291345
30
0.0
11
2971.144883
21
1228.291345
31
0.0
0
ARC
8
0
10
2971.744883
20
1228.291345
30
0.0
40
0.600000
50
180.000000
51
0.000000
0
LINE
8
0
10
2972.344883
20
1228.291345
30
0.0
11
2976.144883
21
1228.291345
31
0.0
0
ARC
8
0
10
2976.744883
20
1228.291345
30
0.0
40
0.600000
50
180.000000
51
0.000000
0
LINE
8
0
10
2977.344883
20
1228.291345
30
0.0
11
2978.646998
21
1228.291345
31
0.0
0
ARC
8
0
10
2978.646998
20
1228.791345
30
0.0
40
0.500000
50
270.000000
51
55.000000
0
LINE
8
0
10
2978.933786
20
1229.200921
30
0.0
11
2977.311167
21
1230.337091
31
0.0
0
ARC
8
0
10
2977.139095
20
1230.091345
30
0.0
40
0.300000
50
55.000000
51
152.865451
0
LINE
8
0
10
2976.872113
20
1230.228170
30
0.0
11
2976.596998
21
1229.691345
31
0.0
0
LINE
8
0
10
2976.596998
20
1229.691345
30
0.0
11
2972.144883
21
1229.691345
31
0.0
0
ARC
8
0
10
2972.144883
20
1230.191345
30
0.0
40
0.500000
50
180.000000
51
270.000000
0
LINE
8
0
10
2971.644883
20
1230.191345
30
0.0
11
2971.644883
21
1237.791345
31
0.0
0
ARC
8
0
10
2971.944883
20
1237.791345
30
0.0
40
0.300000
50
90.000000
51
180.000000
0
LINE
8
0
10
2971.944883
20
1238.091345
30
0.0
11
2977.444883
21
1238.091345
31
0.0
0
ARC
8
0
10
2977.444883
20
1237.791345
30
0.0
40
0.300000
50
0.000000
51
90.000000
0
LINE
8
0
10
2977.744883
20
1237.791345
30
0.0
11
2977.744883
21
1237.391345
31
0.0
0
ARC
8
0
10
2978.044883
20
1237.391345
30
0.0
40
0.300000
50
180.000000
51
270.000000
0
LINE
8
0
10
2978.044883
20
1237.091345
30
0.0
11
2979.444883
21
1237.091345
31
0.0
0
ARC
8
0
10
2979.444883
20
1237.391345
30
0.0
40
0.300000
50
270.000000
51
0.000000
0
LINE
8
0
10
2979.744883
20
1237.391345
30
0.0
11
2979.744883
21
1237.791345
31
0.0
0
ARC
8
0
10
2980.044883
20
1237.791345
30
0.0
40
0.300000
50
90.000000
51
180.000000
0
LINE
8
0
10
2980.044883
20
1238.091345
30
0.0
11
2992.094883
21
1238.091345
31
0.0
0
ARC
8
0
10
2992.094883
20
1237.791345
30
0.0
40
0.300000
50
0.000000
51
90.000000
0
LINE
8
0
10
2992.394883
20
1237.791345
30
0.0
11
2992.394883
21
1237.541345
31
0.0
0
ARC
8
0
10
2992.694883
20
1237.541345
30
0.0
40
0.300000
50
180.000000
51
270.000000
0
LINE
8
0
10
2992.694883
20
1237.241345
30
0.0
11
2994.094883
21
1237.241345
31
0.0
0
ARC
8
0
10
2994.094883
20
1237.541345
30
0.0
40
0.300000
50
270.000000
51
0.000000
0
LINE
8
0
10
2994.394883
20
1237.541345
30
0.0
11
2994.394883
21
1237.791345
31
0.0
0
ARC
8
0
10
2994.694883
20
1237.791345
30
0.0
40
0.300000
50
90.000000
51
180.000000
0
LINE
8
0
10
2994.694883
20
1238.091345
30
0.0
11
3006.744883
21
1238.091345
31
0.0
0
ARC
8
0
10
3006.744883
20
1237.791345
30
0.0
40
0.300000
50
0.000000
51
90.000000
0
LINE
8
0
10
3007.044883
20
1237.791345
30
0.0
11
3007.044883
21
1237.191345
31
0.0
0
ATTDEF
8
0
10
2967.644883
20
1246.391345
30
0.0
40
3.5
1

3

2
FP_LCS_ORIG
70
0
0
ATTDEF
8
0
10
2967.644883
20
1236.391345
30
0.0
40
3.5
1

3

2
FP_LCS_HOT
70
0
0
ATTDEF
8
0
10
2977.644883
20
1246.391345
30
0.0
40
3.5
1

3

2
FP_LCS_INTERN
70
0
0
ATTDEF
8
0
10
0.000000
20
0.000000
30
0.0
40
3.5
1

3

2
PANE_WIDTH:0
70
0
0
ATTDEF
8
0
10
0.000000
20
0.000000
30
0.0
40
3.5
1

3

2
MIN_VETRO:0
70
0
0
ATTDEF
8
0
10
0.000000
20
0.000000
30
0.0
40
3.5
1

3

2
MAX_VETRO:0
70
0
0
ATTDEF
8
0
10
0.000000
20
0.000000
30
0.0
40
3.5
1

3

2
JX:0
70
0
0
ATTDEF
8
0
10
0.000000
20
0.000000
30
0.0
40
3.5
1

3

2
WX:0
70
0
0
ATTDEF
8
0
10
0.000000
20
0.000000
30
0.0
40
3.5
1

3

2
JY:0
70
0
0
ATTDEF
8
0
10
0.000000
20
0.000000
30
0.0
40
3.5
1

3

2
WY:0
70
0
0
ATTDEF
8
0
10
0.000000
20
0.000000
30
0.0
40
3.5
1

3

2
DESC:Aislante cruce 47mm
70
0
0
ATTDEF
8
0
10
0.000000
20
0.000000
30
0.0
40
3.5
1

3

2
DENS:0
70
0
0
ATTDEF
8
0
10
0.000000
20
0.000000
30
0.0
40
3.5
1

3

2
TDEV:0
70
0
0
ATTDEF
8
0
10
0.000000
20
0.000000
30
0.0
40
3.5
1

3

2
TDEV2:0
70
0
0
ATTDEF
8
0
10
0.000000
20
0.000000
30
0.0
40
3.5
1

3

2
TDEV3:0
70
0
0
ATTDEF
8
0
10
0.000000
20
0.000000
30
0.0
40
3.5
1

3

2
TDEV4:0
70
0
0
ATTDEF
8
0
10
0.000000
20
0.000000
30
0.0
40
3.5
1

3

2
TDEV5:0
70
0
0
ATTDEF
8
0
10
0.000000
20
0.000000
30
0.0
40
3.5
1

3

2
PANE_WIDTH:0
70
0
0
ATTDEF
8
0
10
0.000000
20
0.000000
30
0.0
40
3.5
1

3

2
MIN_VETRO:0
70
0
0
ATTDEF
8
0
10
0.000000
20
0.000000
30
0.0
40
3.5
1

3

2
MAX_VETRO:0
70
0
0
ATTDEF
8
0
10
0.000000
20
0.000000
30
0.0
40
3.5
1

3

2
JX:0
70
0
0
ATTDEF
8
0
10
0.000000
20
0.000000
30
0.0
40
3.5
1

3

2
WX:0
70
0
0
ATTDEF
8
0
10
0.000000
20
0.000000
30
0.0
40
3.5
1

3

2
JY:0
70
0
0
ATTDEF
8
0
10
0.000000
20
0.000000
30
0.0
40
3.5
1

3

2
WY:0
70
0
0
ENDSEC
0
EOF
