0
SECTION
2
ENTITIES
0
LINE
8
0
10
3074.192402
20
1239.975089
30
0.0
11
3074.688628
21
1240.471315
31
0.0
0
LINE
8
0
10
3074.192402
20
1237.730025
30
0.0
11
3076.172005
21
1239.709628
31
0.0
0
LINE
8
0
10
3074.292402
20
1235.584961
30
0.0
11
3081.944008
21
1243.236567
31
0.0
0
LINE
8
0
10
3074.292402
20
1233.339897
30
0.0
11
3076.692402
21
1235.739897
31
0.0
0
LINE
8
0
10
3082.189072
20
1241.236567
30
0.0
11
3084.189072
21
1243.236567
31
0.0
0
LINE
8
0
10
3074.192402
20
1230.994833
30
0.0
11
3076.692402
21
1233.494833
31
0.0
0
LINE
8
0
10
3083.934037
20
1240.736468
30
0.0
11
3086.434136
21
1243.236567
31
0.0
0
LINE
8
0
10
3074.192402
20
1228.749769
30
0.0
11
3076.889392
21
1231.446759
31
0.0
0
LINE
8
0
10
3087.079200
20
1241.636567
30
0.0
11
3088.679200
21
1243.236567
31
0.0
0
LINE
8
0
10
3083.934037
20
1238.491404
30
0.0
11
3085.434037
21
1239.991404
31
0.0
0
LINE
8
0
10
3076.847437
20
1229.159740
30
0.0
11
3078.263028
21
1230.575332
31
0.0
0
LINE
8
0
10
3089.324264
20
1241.636567
30
0.0
11
3090.924264
21
1243.236567
31
0.0
0
LINE
8
0
10
3083.934037
20
1236.246340
30
0.0
11
3085.434037
21
1237.746340
31
0.0
0
LINE
8
0
10
3077.969328
20
1228.036567
30
0.0
11
3079.969328
21
1230.036567
31
0.0
0
LINE
8
0
10
3091.569328
20
1241.636567
30
0.0
11
3093.169328
21
1243.236567
31
0.0
0
LINE
8
0
10
3083.934037
20
1234.001276
30
0.0
11
3085.434037
21
1235.501276
31
0.0
0
LINE
8
0
10
3079.892402
20
1227.714577
30
0.0
11
3081.868167
21
1229.690343
31
0.0
0
LINE
8
0
10
3092.634037
20
1240.456212
30
0.0
11
3095.414392
21
1243.236567
31
0.0
0
LINE
8
0
10
3083.934037
20
1231.756212
30
0.0
11
3085.434037
21
1233.256212
31
0.0
0
LINE
8
0
10
3080.459456
20
1226.036567
30
0.0
11
3082.459456
21
1228.036567
31
0.0
0
LINE
8
0
10
3095.859456
20
1241.436567
30
0.0
11
3097.659456
21
1243.236567
31
0.0
0
LINE
8
0
10
3083.934037
20
1229.511148
30
0.0
11
3085.434037
21
1231.011148
31
0.0
0
LINE
8
0
10
3092.634037
20
1238.211148
30
0.0
11
3094.134037
21
1239.711148
31
0.0
0
LINE
8
0
10
3082.704520
20
1226.036567
30
0.0
11
3085.434037
21
1228.766084
31
0.0
0
LINE
8
0
10
3097.042402
20
1240.374449
30
0.0
11
3099.904520
21
1243.236567
31
0.0
0
LINE
8
0
10
3092.634037
20
1235.966084
30
0.0
11
3094.134037
21
1237.466084
31
0.0
0
LINE
8
0
10
3084.949584
20
1226.036567
30
0.0
11
3086.549584
21
1227.636567
31
0.0
0
LINE
8
0
10
3099.949584
20
1241.036567
30
0.0
11
3102.149584
21
1243.236567
31
0.0
0
LINE
8
0
10
3092.634037
20
1233.721020
30
0.0
11
3094.134037
21
1235.221020
31
0.0
0
LINE
8
0
10
3097.042402
20
1238.129385
30
0.0
11
3099.042402
21
1240.129385
31
0.0
0
LINE
8
0
10
3087.194648
20
1226.036567
30
0.0
11
3088.794648
21
1227.636567
31
0.0
0
LINE
8
0
10
3102.194648
20
1241.036567
30
0.0
11
3104.394648
21
1243.236567
31
0.0
0
LINE
8
0
10
3092.634037
20
1231.475956
30
0.0
11
3099.042402
21
1237.884321
31
0.0
0
LINE
8
0
10
3089.439712
20
1226.036567
30
0.0
11
3091.039712
21
1227.636567
31
0.0
0
LINE
8
0
10
3104.884373
20
1241.481228
30
0.0
11
3105.592402
21
1242.189257
31
0.0
0
LINE
8
0
10
3092.634037
20
1229.230892
30
0.0
11
3095.776890
21
1232.373745
31
0.0
0
LINE
8
0
10
3096.938780
20
1233.535635
30
0.0
11
3100.089004
21
1236.685859
31
0.0
0
LINE
8
0
10
3091.684776
20
1226.036567
30
0.0
11
3094.899302
21
1229.251092
31
0.0
0
LINE
8
0
10
3099.834776
20
1234.186567
30
0.0
11
3102.334068
21
1236.685859
31
0.0
0
LINE
8
0
10
3102.079840
20
1234.186567
30
0.0
11
3104.579132
21
1236.685859
31
0.0
0
LINE
8
0
10
3104.324904
20
1234.186567
30
0.0
11
3106.824196
21
1236.685859
31
0.0
0
LINE
8
0
10
3107.342402
20
1237.204064
30
0.0
11
3108.174904
21
1238.036567
31
0.0
0
LINE
8
0
10
3106.956399
20
1234.572998
30
0.0
11
3109.192402
21
1236.809000
31
0.0
0
LINE
8
0
10
3108.350345
20
1233.721879
30
0.0
11
3109.192402
21
1234.563936
31
0.0
0
LINE
8
0
10
3075.400744
20
1228.387002
30
0.0
11
3074.192402
21
1229.595344
31
0.0
0
LINE
8
0
10
3077.996243
20
1228.036567
30
0.0
11
3074.192402
21
1231.840408
31
0.0
0
LINE
8
0
10
3082.241307
20
1226.036567
30
0.0
11
3074.292402
21
1233.985472
31
0.0
0
LINE
8
0
10
3084.486371
20
1226.036567
30
0.0
11
3082.486371
21
1228.036567
31
0.0
0
LINE
8
0
10
3076.692402
20
1233.830536
30
0.0
11
3074.292402
21
1236.230536
31
0.0
0
LINE
8
0
10
3081.892402
20
1228.630536
30
0.0
11
3080.486371
21
1230.036567
31
0.0
0
LINE
8
0
10
3086.731435
20
1226.036567
30
0.0
11
3083.934037
21
1228.833965
31
0.0
0
LINE
8
0
10
3076.692402
20
1236.075600
30
0.0
11
3074.192402
21
1238.575600
31
0.0
0
LINE
8
0
10
3088.976499
20
1226.036567
30
0.0
11
3087.376499
21
1227.636567
31
0.0
0
LINE
8
0
10
3077.581532
20
1237.431534
30
0.0
11
3074.544616
21
1240.468451
31
0.0
0
LINE
8
0
10
3085.434037
20
1229.579029
30
0.0
11
3083.934037
21
1231.079029
31
0.0
0
LINE
8
0
10
3091.221563
20
1226.036567
30
0.0
11
3089.621563
21
1227.636567
31
0.0
0
LINE
8
0
10
3078.903358
20
1238.354772
30
0.0
11
3077.458850
21
1239.799280
31
0.0
0
LINE
8
0
10
3085.434037
20
1231.824094
30
0.0
11
3083.934037
21
1233.324094
31
0.0
0
LINE
8
0
10
3093.466627
20
1226.036567
30
0.0
11
3091.866627
21
1227.636567
31
0.0
0
LINE
8
0
10
3079.792226
20
1239.710969
30
0.0
11
3078.347691
21
1241.155503
31
0.0
0
LINE
8
0
10
3085.434037
20
1234.069158
30
0.0
11
3083.934037
21
1235.569158
31
0.0
0
LINE
8
0
10
3094.539230
20
1227.209028
30
0.0
11
3092.634037
21
1229.114222
31
0.0
0
LINE
8
0
10
3080.684292
20
1241.063966
30
0.0
11
3079.236532
21
1242.511727
31
0.0
0
LINE
8
0
10
3085.434037
20
1236.314222
30
0.0
11
3083.934037
21
1237.814222
31
0.0
0
LINE
8
0
10
3094.875757
20
1229.117565
30
0.0
11
3092.634037
21
1231.359286
31
0.0
0
LINE
8
0
10
3082.756755
20
1241.236567
30
0.0
11
3080.756755
21
1243.236567
31
0.0
0
LINE
8
0
10
3085.434037
20
1238.559286
30
0.0
11
3083.934037
21
1240.059286
31
0.0
0
LINE
8
0
10
3095.214563
20
1231.023823
30
0.0
11
3092.634037
21
1233.604350
31
0.0
0
LINE
8
0
10
3085.434037
20
1240.804350
30
0.0
11
3083.001819
21
1243.236567
31
0.0
0
LINE
8
0
10
3095.913536
20
1232.569915
30
0.0
11
3092.634037
21
1235.849414
31
0.0
0
LINE
8
0
10
3086.846883
20
1241.636567
30
0.0
11
3085.246883
21
1243.236567
31
0.0
0
LINE
8
0
10
3097.095569
20
1233.632945
30
0.0
11
3095.292615
21
1235.435899
31
0.0
0
LINE
8
0
10
3089.091947
20
1241.636567
30
0.0
11
3087.491947
21
1243.236567
31
0.0
0
LINE
8
0
10
3094.134037
20
1236.594478
30
0.0
11
3092.634037
21
1238.094478
31
0.0
0
LINE
8
0
10
3098.800291
20
1234.173288
30
0.0
11
3096.740542
21
1236.233036
31
0.0
0
LINE
8
0
10
3091.337011
20
1241.636567
30
0.0
11
3089.737011
21
1243.236567
31
0.0
0
LINE
8
0
10
3094.134037
20
1238.839542
30
0.0
11
3092.634037
21
1240.339542
31
0.0
0
LINE
8
0
10
3101.032075
20
1234.186567
30
0.0
11
3097.042402
21
1238.176241
31
0.0
0
LINE
8
0
10
3094.134037
20
1241.084606
30
0.0
11
3091.982075
21
1243.236567
31
0.0
0
LINE
8
0
10
3103.277139
20
1234.186567
30
0.0
11
3100.777847
21
1236.685859
31
0.0
0
LINE
8
0
10
3096.027139
20
1241.436567
30
0.0
11
3094.227139
21
1243.236567
31
0.0
0
LINE
8
0
10
3099.042402
20
1238.421305
30
0.0
11
3097.042402
21
1240.421305
31
0.0
0
LINE
8
0
10
3105.408678
20
1234.300093
30
0.0
11
3103.022911
21
1236.685859
31
0.0
0
LINE
8
0
10
3099.042402
20
1240.666369
30
0.0
11
3096.472203
21
1243.236567
31
0.0
0
LINE
8
0
10
3107.317215
20
1234.636619
30
0.0
11
3105.267975
21
1236.685859
31
0.0
0
LINE
8
0
10
3100.917267
20
1241.036567
30
0.0
11
3098.717267
21
1243.236567
31
0.0
0
LINE
8
0
10
3109.192402
20
1235.006497
30
0.0
11
3107.321939
21
1236.876960
31
0.0
0
LINE
8
0
10
3103.124951
20
1241.073948
30
0.0
11
3100.962332
21
1243.236567
31
0.0
0
LINE
8
0
10
3109.192402
20
1237.251561
30
0.0
11
3108.407396
21
1238.036567
31
0.0
0
LINE
8
0
10
3104.948005
20
1241.495958
30
0.0
11
3103.207396
21
1243.236567
31
0.0
0
ARC
8
0
10
3092.434037
20
1227.836567
30
0.0
40
0.200000
50
270.000000
51
0.000000
0
LINE
8
0
10
3092.634037
20
1227.836567
30
0.0
11
3092.634037
21
1241.436567
31
0.0
0
ARC
8
0
10
3092.434037
20
1241.436567
30
0.0
40
0.200000
50
0.000000
51
90.000000
0
LINE
8
0
10
3092.434037
20
1241.636567
30
0.0
11
3085.634037
21
1241.636567
31
0.0
0
ARC
8
0
10
3085.634037
20
1241.436567
30
0.0
40
0.200000
50
90.000000
51
180.000000
0
LINE
8
0
10
3085.434037
20
1241.436567
30
0.0
11
3085.434037
21
1229.277174
31
0.0
0
LINE
8
0
10
3085.434037
20
1229.277174
30
0.0
11
3085.434037
21
1227.836567
31
0.0
0
ARC
8
0
10
3085.634037
20
1227.836567
30
0.0
40
0.200000
50
180.000000
51
270.000000
0
LINE
8
0
10
3085.634037
20
1227.636567
30
0.0
11
3092.434037
21
1227.636567
31
0.0
0
ARC
8
0
10
3107.892402
20
1234.433412
30
0.0
40
0.300000
50
0.000000
51
100.000002
0
LINE
8
0
10
3107.840307
20
1234.728854
30
0.0
11
3105.109481
21
1234.247336
31
0.0
0
ARC
8
0
10
3104.414888
20
1238.186567
30
0.0
40
4.000000
50
270.000000
51
280.000002
0
LINE
8
0
10
3104.414888
20
1234.186567
30
0.0
11
3099.125957
21
1234.186567
31
0.0
0
ARC
8
0
10
3099.125957
20
1230.186567
30
0.0
40
4.000000
50
90.000000
51
170.000000
0
LINE
8
0
10
3095.186726
20
1230.881160
30
0.0
11
3094.478202
21
1226.862919
31
0.0
0
ARC
8
0
10
3093.493394
20
1227.036567
30
0.0
40
1.000000
50
270.000000
51
350.000000
0
LINE
8
0
10
3093.493394
20
1226.036567
30
0.0
11
3080.392402
21
1226.036567
31
0.0
0
ARC
8
0
10
3080.392402
20
1226.536567
30
0.0
40
0.500000
50
180.000000
51
270.000000
0
LINE
8
0
10
3079.892402
20
1226.536567
30
0.0
11
3079.892402
21
1227.836567
31
0.0
0
ARC
8
0
10
3079.692402
20
1227.836567
30
0.0
40
0.200000
50
0.000000
51
90.000000
0
LINE
8
0
10
3079.692402
20
1228.036567
30
0.0
11
3077.392402
21
1228.036567
31
0.0
0
ARC
8
0
10
3077.392402
20
1228.536567
30
0.0
40
0.500000
50
180.000000
51
270.000000
0
LINE
8
0
10
3076.892402
20
1228.536567
30
0.0
11
3076.892402
21
1229.076246
31
0.0
0
ARC
8
0
10
3076.792402
20
1229.076246
30
0.0
40
0.100000
50
0.000000
51
120.039706
0
LINE
8
0
10
3076.742342
20
1229.162814
30
0.0
11
3074.897252
21
1228.095845
31
0.0
0
LINE
8
0
10
3074.801281
20
1228.071315
30
0.0
11
3074.897252
21
1228.095845
31
0.0
0
LINE
8
0
10
3074.801281
20
1228.071315
30
0.0
11
3074.592402
21
1228.071315
31
0.0
0
ARC
8
0
10
3074.592402
20
1228.471315
30
0.0
40
0.400000
50
180.000000
51
270.000000
0
LINE
8
0
10
3074.192402
20
1228.471315
30
0.0
11
3074.192402
21
1231.971315
31
0.0
0
LINE
8
0
10
3074.192402
20
1231.971315
30
0.0
11
3074.292402
21
1231.971315
31
0.0
0
LINE
8
0
10
3074.292402
20
1231.971315
30
0.0
11
3074.292402
21
1236.571315
31
0.0
0
LINE
8
0
10
3074.292402
20
1236.571315
30
0.0
11
3074.192402
21
1236.571315
31
0.0
0
LINE
8
0
10
3074.192402
20
1236.571315
30
0.0
11
3074.192402
21
1240.071315
31
0.0
0
ARC
8
0
10
3074.592402
20
1240.071315
30
0.0
40
0.400000
50
90.000000
51
180.000000
0
LINE
8
0
10
3074.592402
20
1240.471315
30
0.0
11
3074.801281
21
1240.471315
31
0.0
0
LINE
8
0
10
3074.897252
20
1240.446785
30
0.0
11
3074.801281
21
1240.471315
31
0.0
0
LINE
8
0
10
3074.897252
20
1240.446785
30
0.0
11
3076.571219
21
1239.478772
31
0.0
0
ARC
8
0
10
3076.971699
20
1240.171315
30
0.0
40
0.800000
50
239.960294
51
270.000000
0
LINE
8
0
10
3076.971699
20
1239.371315
30
0.0
11
3077.070322
21
1239.371315
31
0.0
0
ARC
8
0
10
3077.070322
20
1239.571315
30
0.0
40
0.200000
50
270.000000
51
326.760000
0
LINE
8
0
10
3077.237598
20
1239.461686
30
0.0
11
3079.415442
21
1242.784714
31
0.0
0
ARC
8
0
10
3080.251824
20
1242.236567
30
0.0
40
1.000000
50
90.000000
51
146.760000
0
LINE
8
0
10
3080.251824
20
1243.236567
30
0.0
11
3105.292402
21
1243.236567
31
0.0
0
ARC
8
0
10
3105.292402
20
1242.936567
30
0.0
40
0.300000
50
0.000000
51
90.000000
0
LINE
8
0
10
3105.592402
20
1242.936567
30
0.0
11
3105.592402
21
1241.883613
31
0.0
0
ARC
8
0
10
3105.292402
20
1241.883613
30
0.0
40
0.300000
50
283.033544
51
0.000000
0
LINE
8
0
10
3105.360058
20
1241.591342
30
0.0
11
3102.996855
21
1241.044296
31
0.0
0
LINE
8
0
10
3102.929198
20
1241.036567
30
0.0
11
3102.996855
21
1241.044296
31
0.0
0
LINE
8
0
10
3102.929198
20
1241.036567
30
0.0
11
3099.342402
21
1241.036567
31
0.0
0
ARC
8
0
10
3099.342402
20
1240.736567
30
0.0
40
0.300000
50
90.000000
51
180.000000
0
LINE
8
0
10
3099.042402
20
1240.736567
30
0.0
11
3099.042402
21
1237.185859
31
0.0
0
ARC
8
0
10
3099.542402
20
1237.185859
30
0.0
40
0.500000
50
180.000000
51
270.000000
0
LINE
8
0
10
3099.542402
20
1236.685859
30
0.0
11
3107.042402
21
1236.685859
31
0.0
0
ARC
8
0
10
3107.042402
20
1236.985859
30
0.0
40
0.300000
50
270.000000
51
0.000000
0
LINE
8
0
10
3107.342402
20
1236.985859
30
0.0
11
3107.342402
21
1237.836567
31
0.0
0
ARC
8
0
10
3107.542402
20
1237.836567
30
0.0
40
0.200000
50
90.000000
51
180.000000
0
LINE
8
0
10
3107.542402
20
1238.036567
30
0.0
11
3108.992402
21
1238.036567
31
0.0
0
ARC
8
0
10
3108.992402
20
1237.836567
30
0.0
40
0.200000
50
0.000000
51
90.000000
0
LINE
8
0
10
3109.192402
20
1237.836567
30
0.0
11
3109.192402
21
1233.786567
31
0.0
0
ARC
8
0
10
3108.992402
20
1233.786567
30
0.0
40
0.200000
50
270.000000
51
0.000000
0
LINE
8
0
10
3108.992402
20
1233.586567
30
0.0
11
3108.692402
21
1233.586567
31
0.0
0
ARC
8
0
10
3108.692402
20
1234.086567
30
0.0
40
0.500000
50
180.000000
51
270.000000
0
LINE
8
0
10
3108.192402
20
1234.086567
30
0.0
11
3108.192402
21
1234.433412
31
0.0
0
ARC
8
0
10
3096.742402
20
1236.555135
30
0.0
40
0.300000
50
290.519302
51
0.000000
0
LINE
8
0
10
3097.042402
20
1236.555135
30
0.0
11
3097.042402
21
1241.136567
31
0.0
0
ARC
8
0
10
3096.742402
20
1241.136567
30
0.0
40
0.300000
50
0.000000
51
90.000000
0
LINE
8
0
10
3096.742402
20
1241.436567
30
0.0
11
3094.434037
21
1241.436567
31
0.0
0
ARC
8
0
10
3094.434037
20
1241.136567
30
0.0
40
0.300000
50
90.000000
51
180.000000
0
LINE
8
0
10
3094.134037
20
1241.136567
30
0.0
11
3094.134037
21
1234.869247
31
0.0
0
ARC
8
0
10
3094.334037
20
1234.869247
30
0.0
40
0.200000
50
180.000000
51
315.660580
0
ARC
8
0
10
3099.125957
20
1230.186567
30
0.0
40
6.500000
50
110.519302
51
135.660580
0
LINE
8
0
10
3078.834849
20
1230.036567
30
0.0
11
3081.392402
21
1230.036567
31
0.0
0
ARC
8
0
10
3081.392402
20
1229.536567
30
0.0
40
0.500000
50
0.000000
51
90.000000
0
LINE
8
0
10
3081.892402
20
1229.536567
30
0.0
11
3081.892402
21
1228.536567
31
0.0
0
ARC
8
0
10
3082.392402
20
1228.536567
30
0.0
40
0.500000
50
180.000000
51
270.000000
0
LINE
8
0
10
3082.392402
20
1228.036567
30
0.0
11
3083.434037
21
1228.036567
31
0.0
0
ARC
8
0
10
3083.434037
20
1228.536567
30
0.0
40
0.500000
50
270.000000
51
0.000000
0
LINE
8
0
10
3083.934037
20
1228.536567
30
0.0
11
3083.934037
21
1240.736567
31
0.0
0
ARC
8
0
10
3083.434037
20
1240.736567
30
0.0
40
0.500000
50
0.000000
51
90.000000
0
LINE
8
0
10
3083.434037
20
1241.236567
30
0.0
11
3081.062194
21
1241.236567
31
0.0
0
ARC
8
0
10
3081.062194
20
1240.736567
30
0.0
40
0.500000
50
90.000000
51
146.760000
0
LINE
8
0
10
3080.644004
20
1241.010641
30
0.0
11
3078.910362
21
1238.365391
31
0.0
0
ARC
8
0
10
3077.070322
20
1239.571315
30
0.0
40
2.200000
50
281.209668
51
326.760000
0
ARC
8
0
10
3077.692402
20
1236.432364
30
0.0
40
1.000000
50
101.209667
51
180.000000
0
LINE
8
0
10
3076.692402
20
1236.432364
30
0.0
11
3076.692402
21
1232.042726
31
0.0
0
ARC
8
0
10
3077.692402
20
1232.042726
30
0.0
40
1.000000
50
180.000000
51
253.122731
0
ARC
8
0
10
3076.792402
20
1229.076246
30
0.0
40
2.100000
50
31.677244
51
73.122731
0
ARC
8
0
10
3078.834849
20
1230.336567
30
0.0
40
0.300000
50
211.677244
51
270.000000
0
ARC
8
0
10
3073.592402
20
1242.936392
30
0.0
40
0.300000
50
4.982745
51
90.000000
0
LINE
8
0
10
3073.592402
20
1243.236392
30
0.0
11
3067.991972
21
1243.236392
31
0.0
0
LINE
8
0
10
3067.991972
20
1243.236392
30
0.0
11
3067.991972
21
1247.986392
31
0.0
0
LINE
8
0
10
3067.991972
20
1247.986392
30
0.0
11
3069.891972
21
1247.986392
31
0.0
0
ARC
8
0
10
3069.891972
20
1247.486392
30
0.0
40
0.500000
50
0.000000
51
90.000000
0
LINE
8
0
10
3070.391972
20
1247.486392
30
0.0
11
3070.391972
21
1246.836392
31
0.0
0
LINE
8
0
10
3070.391972
20
1246.836392
30
0.0
11
3070.541972
21
1246.836392
31
0.0
0
ARC
8
0
10
3070.541972
20
1247.586392
30
0.0
40
0.750000
50
270.000000
51
0.000000
0
LINE
8
0
10
3071.291972
20
1247.586392
30
0.0
11
3071.291972
21
1248.586392
31
0.0
0
ARC
8
0
10
3070.291972
20
1248.586392
30
0.0
40
1.000000
50
0.000000
51
90.000000
0
LINE
8
0
10
3070.291972
20
1249.586392
30
0.0
11
3068.291972
21
1249.586392
31
0.0
0
ARC
8
0
10
3068.291972
20
1249.886392
30
0.0
40
0.300000
50
180.000000
51
270.000000
0
LINE
8
0
10
3067.991972
20
1249.886392
30
0.0
11
3067.991972
21
1250.536392
31
0.0
0
ARC
8
0
10
3068.291972
20
1250.536392
30
0.0
40
0.300000
50
90.000000
51
180.000000
0
LINE
8
0
10
3068.291972
20
1250.836392
30
0.0
11
3070.191972
21
1250.836392
31
0.0
0
ARC
8
0
10
3070.191972
20
1251.836392
30
0.0
40
1.000000
50
270.000000
51
0.000000
0
LINE
8
0
10
3071.191972
20
1251.836392
30
0.0
11
3071.191972
21
1252.836392
31
0.0
0
ARC
8
0
10
3070.691972
20
1252.836392
30
0.0
40
0.500000
50
0.000000
51
90.000000
0
LINE
8
0
10
3070.691972
20
1253.336392
30
0.0
11
3070.191972
21
1253.336392
31
0.0
0
ARC
8
0
10
3070.191972
20
1253.136392
30
0.0
40
0.200000
50
90.000000
51
180.000000
0
LINE
8
0
10
3069.991972
20
1253.136392
30
0.0
11
3069.991972
21
1252.236392
31
0.0
0
ARC
8
0
10
3069.791972
20
1252.236392
30
0.0
40
0.200000
50
270.000000
51
0.000000
0
LINE
8
0
10
3069.791972
20
1252.036392
30
0.0
11
3068.191972
21
1252.036392
31
0.0
0
ARC
8
0
10
3068.191972
20
1252.236392
30
0.0
40
0.200000
50
180.000000
51
270.000000
0
LINE
8
0
10
3067.991972
20
1252.236392
30
0.0
11
3067.991972
21
1257.836392
31
0.0
0
ARC
8
0
10
3068.191972
20
1257.836392
30
0.0
40
0.200000
50
90.000000
51
180.000000
0
LINE
8
0
10
3068.191972
20
1258.036392
30
0.0
11
3069.791972
21
1258.036392
31
0.0
0
ARC
8
0
10
3069.791972
20
1257.836392
30
0.0
40
0.200000
50
0.000000
51
90.000000
0
LINE
8
0
10
3069.991972
20
1257.836392
30
0.0
11
3069.991972
21
1256.986392
31
0.0
0
ARC
8
0
10
3070.191972
20
1256.986392
30
0.0
40
0.200000
50
180.000000
51
270.000000
0
LINE
8
0
10
3070.191972
20
1256.786392
30
0.0
11
3070.691972
21
1256.786392
31
0.0
0
ARC
8
0
10
3070.691972
20
1257.286392
30
0.0
40
0.500000
50
270.000000
51
0.000000
0
LINE
8
0
10
3071.191972
20
1257.286392
30
0.0
11
3071.191972
21
1258.736392
31
0.0
0
ARC
8
0
10
3070.691972
20
1258.736392
30
0.0
40
0.500000
50
0.000000
51
90.000000
0
LINE
8
0
10
3070.691972
20
1259.236392
30
0.0
11
3039.692404
21
1259.236392
31
0.0
0
ARC
8
0
10
3039.692404
20
1258.736392
30
0.0
40
0.500000
50
90.000000
51
180.000000
0
LINE
8
0
10
3039.192404
20
1258.736392
30
0.0
11
3039.192404
21
1209.036392
31
0.0
0
ARC
8
0
10
3039.692404
20
1209.036392
30
0.0
40
0.500000
50
180.000000
51
270.000000
0
LINE
8
0
10
3039.692404
20
1208.536392
30
0.0
11
3042.392404
21
1208.536392
31
0.0
0
ARC
8
0
10
3042.392404
20
1208.836392
30
0.0
40
0.300000
50
270.000000
51
0.000000
0
LINE
8
0
10
3042.692404
20
1208.836392
30
0.0
11
3042.692404
21
1209.599256
31
0.0
0
LINE
8
0
10
3042.692404
20
1209.599256
30
0.0
11
3042.679073
21
1209.671052
31
0.0
0
LINE
8
0
10
3042.679073
20
1209.671052
30
0.0
11
3042.241713
21
1210.808188
31
0.0
0
ARC
8
0
10
3042.055044
20
1210.736392
30
0.0
40
0.200000
50
21.037511
51
90.000000
0
LINE
8
0
10
3042.055044
20
1210.936392
30
0.0
11
3041.892404
21
1210.936392
31
0.0
0
ARC
8
0
10
3041.892404
20
1210.736392
30
0.0
40
0.200000
50
90.000000
51
180.000000
0
LINE
8
0
10
3041.692404
20
1210.736392
30
0.0
11
3041.692404
21
1209.836392
31
0.0
0
ARC
8
0
10
3041.492404
20
1209.836392
30
0.0
40
0.200000
50
270.000000
51
0.000000
0
LINE
8
0
10
3041.492404
20
1209.636392
30
0.0
11
3040.592404
21
1209.636392
31
0.0
0
ARC
8
0
10
3040.592404
20
1209.836392
30
0.0
40
0.200000
50
180.000000
51
270.000000
0
LINE
8
0
10
3040.392404
20
1209.836392
30
0.0
11
3040.392404
21
1215.536392
31
0.0
0
ARC
8
0
10
3040.592404
20
1215.536392
30
0.0
40
0.200000
50
90.000000
51
180.000000
0
LINE
8
0
10
3040.592404
20
1215.736392
30
0.0
11
3041.492404
21
1215.736392
31
0.0
0
ARC
8
0
10
3041.492404
20
1215.536392
30
0.0
40
0.200000
50
0.000000
51
90.000000
0
LINE
8
0
10
3041.692404
20
1215.536392
30
0.0
11
3041.692404
21
1214.636392
31
0.0
0
ARC
8
0
10
3041.892404
20
1214.636392
30
0.0
40
0.200000
50
180.000000
51
270.000000
0
LINE
8
0
10
3041.892404
20
1214.436392
30
0.0
11
3042.055044
21
1214.436392
31
0.0
0
ARC
8
0
10
3042.055044
20
1214.636392
30
0.0
40
0.200000
50
270.000000
51
338.962489
0
LINE
8
0
10
3042.241713
20
1214.564596
30
0.0
11
3042.679073
21
1215.701732
31
0.0
0
LINE
8
0
10
3042.679073
20
1215.701732
30
0.0
11
3042.692404
21
1215.773528
31
0.0
0
LINE
8
0
10
3042.692404
20
1215.773528
30
0.0
11
3042.692404
21
1217.836392
31
0.0
0
ARC
8
0
10
3042.492404
20
1217.836392
30
0.0
40
0.200000
50
0.000000
51
90.000000
0
LINE
8
0
10
3042.492404
20
1218.036392
30
0.0
11
3042.267408
21
1218.036392
31
0.0
0
ARC
8
0
10
3042.267408
20
1217.836392
30
0.0
40
0.200000
50
90.000000
51
165.000000
0
LINE
8
0
10
3042.074223
20
1217.888156
30
0.0
11
3042.015961
21
1217.670718
31
0.0
0
LINE
8
0
10
3042.015961
20
1217.670718
30
0.0
11
3041.882547
21
1217.670718
31
0.0
0
ARC
8
0
10
3041.882547
20
1217.559182
30
0.0
40
0.111536
50
90.000000
51
210.000000
0
LINE
8
0
10
3041.785955
20
1217.503414
30
0.0
11
3041.912433
21
1217.284347
31
0.0
0
LINE
8
0
10
3041.912433
20
1217.284347
30
0.0
11
3041.792404
21
1216.836392
31
0.0
0
LINE
8
0
10
3041.792404
20
1216.836392
30
0.0
11
3040.792404
21
1216.836392
31
0.0
0
LINE
8
0
10
3040.792404
20
1216.836392
30
0.0
11
3040.792404
21
1231.836392
31
0.0
0
LINE
8
0
10
3040.792404
20
1231.836392
30
0.0
11
3041.792404
21
1231.836392
31
0.0
0
LINE
8
0
10
3041.792404
20
1231.836392
30
0.0
11
3041.912433
21
1231.388437
31
0.0
0
LINE
8
0
10
3041.912433
20
1231.388437
30
0.0
11
3041.785955
21
1231.169370
31
0.0
0
ARC
8
0
10
3041.882547
20
1231.113602
30
0.0
40
0.111536
50
150.000000
51
270.000000
0
LINE
8
0
10
3041.882547
20
1231.002066
30
0.0
11
3042.015961
21
1231.002066
31
0.0
0
LINE
8
0
10
3042.015961
20
1231.002066
30
0.0
11
3042.074223
21
1230.784628
31
0.0
0
ARC
8
0
10
3042.267408
20
1230.836392
30
0.0
40
0.200000
50
195.000000
51
270.000000
0
LINE
8
0
10
3042.267408
20
1230.636392
30
0.0
11
3042.492404
21
1230.636392
31
0.0
0
ARC
8
0
10
3042.492404
20
1230.836392
30
0.0
40
0.200000
50
270.000000
51
0.000000
0
LINE
8
0
10
3042.692404
20
1230.836392
30
0.0
11
3042.692404
21
1231.436392
31
0.0
0
ARC
8
0
10
3042.892404
20
1231.436392
30
0.0
40
0.200000
50
90.000000
51
180.000000
0
LINE
8
0
10
3042.892404
20
1231.636392
30
0.0
11
3045.492404
21
1231.636392
31
0.0
0
ARC
8
0
10
3045.492404
20
1231.436392
30
0.0
40
0.200000
50
0.000000
51
90.000000
0
LINE
8
0
10
3045.692404
20
1231.436392
30
0.0
11
3045.692404
21
1226.236392
31
0.0
0
ARC
8
0
10
3045.892404
20
1226.236392
30
0.0
40
0.200000
50
180.000000
51
270.000000
0
LINE
8
0
10
3045.892404
20
1226.036392
30
0.0
11
3049.692404
21
1226.036392
31
0.0
0
LINE
8
0
10
3049.692404
20
1226.036392
30
0.0
11
3049.692404
21
1227.536392
31
0.0
0
LINE
8
0
10
3049.692404
20
1227.536392
30
0.0
11
3047.192404
21
1227.536392
31
0.0
0
LINE
8
0
10
3047.192404
20
1227.536392
30
0.0
11
3047.192404
21
1230.536392
31
0.0
0
LINE
8
0
10
3047.192404
20
1230.536392
30
0.0
11
3049.392404
21
1230.536392
31
0.0
0
ARC
8
0
10
3049.392404
20
1230.836392
30
0.0
40
0.300000
50
270.000000
51
0.000000
0
LINE
8
0
10
3049.692404
20
1230.836392
30
0.0
11
3049.692404
21
1231.436392
31
0.0
0
ARC
8
0
10
3049.992404
20
1231.436392
30
0.0
40
0.300000
50
90.000000
51
180.000000
0
LINE
8
0
10
3049.992404
20
1231.736392
30
0.0
11
3064.392404
21
1231.736392
31
0.0
0
ARC
8
0
10
3064.392404
20
1231.436392
30
0.0
40
0.300000
50
0.000000
51
90.000000
0
LINE
8
0
10
3064.692404
20
1231.436392
30
0.0
11
3064.692404
21
1230.836392
31
0.0
0
ARC
8
0
10
3064.992404
20
1230.836392
30
0.0
40
0.300000
50
180.000000
51
270.000000
0
LINE
8
0
10
3064.992404
20
1230.536392
30
0.0
11
3067.192404
21
1230.536392
31
0.0
0
LINE
8
0
10
3067.192404
20
1230.536392
30
0.0
11
3067.192404
21
1227.536392
31
0.0
0
LINE
8
0
10
3067.192404
20
1227.536392
30
0.0
11
3064.692404
21
1227.536392
31
0.0
0
LINE
8
0
10
3064.692404
20
1227.536392
30
0.0
11
3064.692404
21
1226.036392
31
0.0
0
LINE
8
0
10
3064.692404
20
1226.036392
30
0.0
11
3068.492404
21
1226.036392
31
0.0
0
ARC
8
0
10
3068.492404
20
1226.236392
30
0.0
40
0.200000
50
270.000000
51
0.000000
0
LINE
8
0
10
3068.692404
20
1226.236392
30
0.0
11
3068.692404
21
1230.936392
31
0.0
0
ARC
8
0
10
3069.192404
20
1230.936392
30
0.0
40
0.500000
50
90.000000
51
180.000000
0
LINE
8
0
10
3069.192404
20
1231.436392
30
0.0
11
3071.792402
21
1231.436392
31
0.0
0
ARC
8
0
10
3071.792402
20
1230.936392
30
0.0
40
0.500000
50
0.000000
51
90.000000
0
LINE
8
0
10
3072.292402
20
1230.936392
30
0.0
11
3072.292402
21
1226.536392
31
0.0
0
ARC
8
0
10
3072.792402
20
1226.536392
30
0.0
40
0.500000
50
180.000000
51
270.000000
0
LINE
8
0
10
3072.792402
20
1226.036392
30
0.0
11
3079.392402
21
1226.036392
31
0.0
0
ARC
8
0
10
3079.392402
20
1226.336392
30
0.0
40
0.300000
50
270.000000
51
0.000000
0
LINE
8
0
10
3079.692402
20
1226.336392
30
0.0
11
3079.692402
21
1227.536392
31
0.0
0
ARC
8
0
10
3079.392402
20
1227.536392
30
0.0
40
0.300000
50
0.000000
51
90.000000
0
LINE
8
0
10
3079.392402
20
1227.836392
30
0.0
11
3076.692402
21
1227.836392
31
0.0
0
LINE
8
0
10
3076.692402
20
1227.836392
30
0.0
11
3076.692402
21
1228.908696
31
0.0
0
ARC
8
0
10
3076.492402
20
1228.908696
30
0.0
40
0.200000
50
0.000000
51
181.773628
0
LINE
8
0
10
3076.292498
20
1228.902506
30
0.0
11
3074.616505
21
1227.880273
31
0.0
0
ARC
8
0
10
3074.460290
20
1228.136392
30
0.0
40
0.300000
50
270.000000
51
301.380132
0
LINE
8
0
10
3074.460290
20
1227.836392
30
0.0
11
3074.392402
21
1227.836392
31
0.0
0
ARC
8
0
10
3074.392402
20
1228.036392
30
0.0
40
0.200000
50
180.000000
51
270.000000
0
LINE
8
0
10
3074.192402
20
1228.036392
30
0.0
11
3074.192402
21
1240.736392
31
0.0
0
ARC
8
0
10
3074.192402
20
1241.036392
30
0.0
40
0.300000
50
90.000000
51
270.000000
0
LINE
8
0
10
3074.192402
20
1241.336392
30
0.0
11
3074.345313
21
1241.336392
31
0.0
0
LINE
8
0
10
3074.408165
20
1241.314172
30
0.0
11
3074.345313
21
1241.336392
31
0.0
0
LINE
8
0
10
3074.408165
20
1241.314172
30
0.0
11
3076.040602
21
1239.995048
31
0.0
0
ARC
8
0
10
3075.914899
20
1239.839489
30
0.0
40
0.200000
50
359.000000
51
51.059362
0
LINE
8
0
10
3076.114869
20
1239.835998
30
0.0
11
3076.111535
21
1239.645027
31
0.0
0
ARC
8
0
10
3076.311505
20
1239.641536
30
0.0
40
0.200000
50
179.000000
51
299.000000
0
LINE
8
0
10
3076.408467
20
1239.466612
30
0.0
11
3076.899779
21
1239.738951
31
0.0
0
ARC
8
0
10
3076.754337
20
1240.001337
30
0.0
40
0.300000
50
299.000000
51
330.141263
0
LINE
8
0
10
3077.014513
20
1239.851978
30
0.0
11
3078.871754
21
1243.087208
31
0.0
0
ARC
8
0
10
3078.611577
20
1243.236567
30
0.0
40
0.300000
50
330.141263
51
90.000000
0
LINE
8
0
10
3078.611577
20
1243.536567
30
0.0
11
3077.303509
21
1243.536567
31
0.0
0
ARC
8
0
10
3077.303509
20
1243.036567
30
0.0
40
0.500000
50
90.000000
51
145.141263
0
LINE
8
0
10
3076.893227
20
1243.322345
30
0.0
11
3076.449602
21
1242.685446
31
0.0
0
ARC
8
0
10
3075.629038
20
1243.257001
30
0.0
40
1.000000
50
252.000000
51
325.141263
0
LINE
8
0
10
3075.320021
20
1242.305944
30
0.0
11
3074.097429
21
1242.703188
31
0.0
0
ARC
8
0
10
3074.190134
20
1242.988505
30
0.0
40
0.300000
50
184.982745
51
252.000000
0
ARC
8
0
10
3067.891540
20
1233.736392
30
0.0
40
0.300000
50
180.000000
51
270.000000
0
LINE
8
0
10
3067.591540
20
1233.736392
30
0.0
11
3067.591540
21
1234.436392
31
0.0
0
ARC
8
0
10
3067.091540
20
1234.436392
30
0.0
40
0.500000
50
0.000000
51
90.000000
0
LINE
8
0
10
3067.091540
20
1234.936392
30
0.0
11
3066.091972
21
1234.936392
31
0.0
0
LINE
8
0
10
3066.091972
20
1234.936392
30
0.0
11
3066.091972
21
1233.436392
31
0.0
0
LINE
8
0
10
3066.091972
20
1233.436392
30
0.0
11
3042.291972
21
1233.436392
31
0.0
0
LINE
8
0
10
3042.291972
20
1233.436392
30
0.0
11
3042.291972
21
1236.136392
31
0.0
0
ARC
8
0
10
3041.991972
20
1236.136392
30
0.0
40
0.300000
50
0.000000
51
90.000000
0
LINE
8
0
10
3041.991972
20
1236.436392
30
0.0
11
3041.492404
21
1236.436392
31
0.0
0
ARC
8
0
10
3041.492404
20
1236.736392
30
0.0
40
0.300000
50
180.000000
51
270.000000
0
LINE
8
0
10
3041.192404
20
1236.736392
30
0.0
11
3041.192404
21
1253.936392
31
0.0
0
ARC
8
0
10
3041.492404
20
1253.936392
30
0.0
40
0.300000
50
90.000000
51
180.000000
0
LINE
8
0
10
3041.492404
20
1254.236392
30
0.0
11
3041.991972
21
1254.236392
31
0.0
0
ARC
8
0
10
3041.991972
20
1254.536392
30
0.0
40
0.300000
50
270.000000
51
0.000000
0
LINE
8
0
10
3042.291972
20
1254.536392
30
0.0
11
3042.291972
21
1257.236392
31
0.0
0
LINE
8
0
10
3042.291972
20
1257.236392
30
0.0
11
3066.091972
21
1257.236392
31
0.0
0
LINE
8
0
10
3066.091972
20
1257.236392
30
0.0
11
3066.091972
21
1241.636392
31
0.0
0
ARC
8
0
10
3066.391972
20
1241.636392
30
0.0
40
0.300000
50
180.000000
51
270.000000
0
LINE
8
0
10
3066.391972
20
1241.336392
30
0.0
11
3071.992402
21
1241.336392
31
0.0
0
ARC
8
0
10
3071.992402
20
1241.036392
30
0.0
40
0.300000
50
0.000000
51
90.000000
0
LINE
8
0
10
3072.292402
20
1241.036392
30
0.0
11
3072.292402
21
1233.936392
31
0.0
0
ARC
8
0
10
3071.792402
20
1233.936392
30
0.0
40
0.500000
50
270.000000
51
0.000000
0
LINE
8
0
10
3071.792402
20
1233.436392
30
0.0
11
3067.891540
21
1233.436392
31
0.0
0
ATTDEF
8
0
10
0.000000
20
0.000000
30
0.0
40
3.5
1

3

2
PANE_WIDTH:0
70
0
0
ATTDEF
8
0
10
0.000000
20
0.000000
30
0.0
40
3.5
1

3

2
MIN_VETRO:0
70
0
0
ATTDEF
8
0
10
0.000000
20
0.000000
30
0.0
40
3.5
1

3

2
MAX_VETRO:0
70
0
0
ATTDEF
8
0
10
0.000000
20
0.000000
30
0.0
40
3.5
1

3

2
JX:0
70
0
0
ATTDEF
8
0
10
0.000000
20
0.000000
30
0.0
40
3.5
1

3

2
WX:0
70
0
0
ATTDEF
8
0
10
0.000000
20
0.000000
30
0.0
40
3.5
1

3

2
JY:0
70
0
0
ATTDEF
8
0
10
0.000000
20
0.000000
30
0.0
40
3.5
1

3

2
WY:0
70
0
0
ATTDEF
8
0
10
0.000000
20
0.000000
30
0.0
40
3.5
1

3

2
DESC:Hoja ventana 38mm.
70
0
0
ATTDEF
8
0
10
0.000000
20
0.000000
30
0.0
40
3.5
1

3

2
DENS:1.2531
70
0
0
ATTDEF
8
0
10
0.000000
20
0.000000
30
0.0
40
3.5
1

3

2
TDEV:38.91
70
0
0
ATTDEF
8
0
10
0.000000
20
0.000000
30
0.0
40
3.5
1

3

2
TDEV2:0
70
0
0
ATTDEF
8
0
10
0.000000
20
0.000000
30
0.0
40
3.5
1

3

2
TDEV3:0
70
0
0
ATTDEF
8
0
10
0.000000
20
0.000000
30
0.0
40
3.5
1

3

2
TDEV4:0
70
0
0
ATTDEF
8
0
10
0.000000
20
0.000000
30
0.0
40
3.5
1

3

2
TDEV5:0
70
0
0
ATTDEF
8
0
10
0.000000
20
0.000000
30
0.0
40
3.5
1

3

2
PANE_WIDTH:0
70
0
0
ATTDEF
8
0
10
0.000000
20
0.000000
30
0.0
40
3.5
1

3

2
MIN_VETRO:0
70
0
0
ATTDEF
8
0
10
0.000000
20
0.000000
30
0.0
40
3.5
1

3

2
MAX_VETRO:0
70
0
0
ATTDEF
8
0
10
0.000000
20
0.000000
30
0.0
40
3.5
1

3

2
JX:0
70
0
0
ATTDEF
8
0
10
0.000000
20
0.000000
30
0.0
40
3.5
1

3

2
WX:0
70
0
0
ATTDEF
8
0
10
0.000000
20
0.000000
30
0.0
40
3.5
1

3

2
JY:0
70
0
0
ATTDEF
8
0
10
0.000000
20
0.000000
30
0.0
40
3.5
1

3

2
WY:0
70
0
0
ENDSEC
0
EOF
