0
SECTION
2
ENTITIES
0
ARC
8
0
10
50.169815
20
176.233295
30
0.0
40
0.283566
50
310.341960
51
49.658040
0
LINE
8
0
10
50.353381
20
176.449427
30
0.0
11
50.353381
21
177.869140
31
0.0
0
ARC
8
0
10
50.853381
20
177.869140
30
0.0
40
0.500000
50
113.578178
51
180.000000
0
ARC
8
0
10
51.053381
20
177.410883
30
0.0
40
1.000000
50
98.626927
51
113.578178
0
ARC
8
0
10
50.753381
20
179.388255
30
0.0
40
1.000000
50
278.626927
51
360.000000
0
LINE
8
0
10
51.753381
20
179.388255
30
0.0
11
51.753381
21
180.230720
31
0.0
0
ARC
8
0
10
52.753381
20
180.230720
30
0.0
40
1.000000
50
90.000000
51
180.000000
0
LINE
8
0
10
52.753381
20
181.230720
30
0.0
11
54.053381
21
181.230720
31
0.0
0
ARC
8
0
10
54.053381
20
180.930720
30
0.0
40
0.300000
50
360.000000
51
90.000000
0
LINE
8
0
10
54.353381
20
180.930720
30
0.0
11
54.353381
21
179.280317
31
0.0
0
ARC
8
0
10
53.853381
20
179.280317
30
0.0
40
0.500000
50
270.000000
51
360.000000
0
LINE
8
0
10
53.853381
20
178.780317
30
0.0
11
53.753381
21
178.780317
31
0.0
0
ARC
8
0
10
53.753381
20
177.880317
30
0.0
40
0.900000
50
90.000000
51
180.000000
0
ARC
8
0
10
53.153381
20
177.880317
30
0.0
40
0.300000
50
180.000000
51
270.000000
0
LINE
8
0
10
53.153381
20
177.580317
30
0.0
11
54.353381
21
177.580317
31
0.0
0
LINE
8
0
10
54.353381
20
177.580317
30
0.0
11
54.353381
21
176.152070
31
0.0
0
ARC
8
0
10
55.353381
20
176.152070
30
0.0
40
1.000000
50
180.000000
51
268.517853
0
LINE
8
0
10
55.327516
20
175.152404
30
0.0
11
55.566314
21
175.146226
31
0.0
0
ARC
8
0
10
55.553381
20
174.646393
30
0.0
40
0.500000
50
360.000000
51
88.517852
0
LINE
8
0
10
56.053381
20
174.646393
30
0.0
11
56.053381
21
157.114242
31
0.0
0
ARC
8
0
10
55.553381
20
157.114242
30
0.0
40
0.500000
50
271.482148
51
360.000000
0
LINE
8
0
10
55.566314
20
156.614409
30
0.0
11
55.327516
21
156.608231
31
0.0
0
ARC
8
0
10
55.353381
20
155.608565
30
0.0
40
1.000000
50
91.482148
51
180.000000
0
LINE
8
0
10
54.353381
20
155.608565
30
0.0
11
54.353381
21
154.280317
31
0.0
0
LINE
8
0
10
54.353381
20
154.280317
30
0.0
11
52.453381
21
154.280317
31
0.0
0
ARC
8
0
10
52.453381
20
153.980317
30
0.0
40
0.300000
50
90.000000
51
180.000000
0
LINE
8
0
10
52.153381
20
153.980317
30
0.0
11
52.153381
21
153.449752
31
0.0
0
LINE
8
0
10
52.153381
20
153.449752
30
0.0
11
51.053381
21
153.449752
31
0.0
0
ARC
8
0
10
51.053381
20
154.449752
30
0.0
40
1.000000
50
246.421822
51
270.000000
0
ARC
8
0
10
50.853381
20
153.991495
30
0.0
40
0.500000
50
180.000000
51
246.421822
0
LINE
8
0
10
50.353381
20
153.991495
30
0.0
11
50.353381
21
155.311208
31
0.0
0
ARC
8
0
10
50.169815
20
155.527340
30
0.0
40
0.283566
50
310.341960
51
49.658040
0
LINE
8
0
10
50.353381
20
155.743473
30
0.0
11
50.353381
21
157.130317
31
0.0
0
LINE
8
0
10
50.353381
20
157.130317
30
0.0
11
48.287648
21
156.666423
31
0.0
0
ARC
8
0
10
48.353381
20
156.373712
30
0.0
40
0.300000
50
102.656754
51
180.000000
0
LINE
8
0
10
48.053381
20
156.373712
30
0.0
11
48.053381
21
149.380317
31
0.0
0
ARC
8
0
10
48.353381
20
149.380317
30
0.0
40
0.300000
50
180.000000
51
270.000000
0
LINE
8
0
10
48.353381
20
149.080317
30
0.0
11
49.453381
21
149.080317
31
0.0
0
ARC
8
0
10
49.453381
20
149.380317
30
0.0
40
0.300000
50
270.000000
51
315.000000
0
LINE
8
0
10
49.665513
20
149.168185
30
0.0
11
50.577645
21
150.080317
31
0.0
0
LINE
8
0
10
50.577645
20
150.080317
30
0.0
11
50.577645
21
150.380317
31
0.0
0
ARC
8
0
10
50.277645
20
150.380317
30
0.0
40
0.300000
50
360.000000
51
90.000000
0
LINE
8
0
10
50.277645
20
150.680317
30
0.0
11
49.853812
21
150.680317
31
0.0
0
ARC
8
0
10
49.853812
20
150.980317
30
0.0
40
0.300000
50
180.000000
51
270.000000
0
LINE
8
0
10
49.553812
20
150.980317
30
0.0
11
49.553812
21
151.349752
31
0.0
0
ARC
8
0
10
49.853812
20
151.349752
30
0.0
40
0.300000
50
90.000000
51
180.000000
0
LINE
8
0
10
49.853812
20
151.649752
30
0.0
11
57.839680
21
151.649752
31
0.0
0
ARC
8
0
10
57.839680
20
151.349752
30
0.0
40
0.300000
50
360.000000
51
90.000000
0
LINE
8
0
10
58.139680
20
151.349752
30
0.0
11
58.139680
21
150.449752
31
0.0
0
ARC
8
0
10
58.439680
20
150.449752
30
0.0
40
0.300000
50
180.000000
51
270.000000
0
LINE
8
0
10
58.439680
20
150.149752
30
0.0
11
73.215167
21
150.149752
31
0.0
0
LINE
8
0
10
73.215167
20
150.149752
30
0.0
11
73.522917
21
150.457502
31
0.0
0
LINE
8
0
10
73.522917
20
150.457502
30
0.0
11
73.830667
21
150.149752
31
0.0
0
LINE
8
0
10
73.830667
20
150.149752
30
0.0
11
78.239680
21
150.149752
31
0.0
0
ARC
8
0
10
78.239680
20
150.649752
30
0.0
40
0.500000
50
270.000000
51
360.000000
0
LINE
8
0
10
78.739680
20
150.649752
30
0.0
11
78.739680
21
154.099752
31
0.0
0
LINE
8
0
10
78.739680
20
154.099752
30
0.0
11
79.107542
21
154.099752
31
0.0
0
ARC
8
0
10
79.603381
20
153.537042
30
0.0
40
0.750000
50
121.279632
51
131.385295
0
LINE
8
0
10
79.213970
20
154.178024
30
0.0
11
79.735829
21
154.495066
31
0.0
0
ARC
8
0
10
80.774259
20
152.785779
30
0.0
40
2.000000
50
50.215080
51
121.279632
0
ARC
8
0
10
82.374028
20
154.706909
30
0.0
40
0.500000
50
230.215080
51
270.000000
0
LINE
8
0
10
82.374028
20
154.206909
30
0.0
11
83.562825
21
154.206909
31
0.0
0
ARC
8
0
10
83.562825
20
154.506909
30
0.0
40
0.300000
50
270.000000
51
33.675648
0
LINE
8
0
10
83.812482
20
154.673256
30
0.0
11
82.339157
21
156.884449
31
0.0
0
ARC
8
0
10
82.089500
20
156.718101
30
0.0
40
0.300000
50
33.675648
51
66.045185
0
LINE
8
0
10
82.211305
20
156.992261
30
0.0
11
81.200849
21
157.441190
31
0.0
0
ARC
8
0
10
81.141725
20
157.308113
30
0.0
40
0.145621
50
66.045185
51
180.000000
0
LINE
8
0
10
80.996401
20
157.298820
30
0.0
11
81.006330
21
157.143555
31
0.0
0
ARC
8
0
10
80.806737
20
157.130792
30
0.0
40
0.200000
50
310.482877
51
3.658900
0
LINE
8
0
10
80.936581
20
156.978672
30
0.0
11
79.332379
21
155.609383
31
0.0
0
ARC
8
0
10
79.137613
20
155.837563
30
0.0
40
0.300000
50
288.658900
51
310.482877
0
LINE
8
0
10
79.233593
20
155.553331
30
0.0
11
78.949361
21
155.457351
31
0.0
0
ARC
8
0
10
78.853381
20
155.741583
30
0.0
40
0.300000
50
90.000000
51
288.658900
0
LINE
8
0
10
78.853381
20
156.041583
30
0.0
11
78.853381
21
160.541583
31
0.0
0
ARC
8
0
10
79.053381
20
160.541583
30
0.0
40
0.200000
50
90.000000
51
180.000000
0
LINE
8
0
10
79.053381
20
160.741583
30
0.0
11
79.121270
21
160.741583
31
0.0
0
ARC
8
0
10
79.121270
20
160.441583
30
0.0
40
0.300000
50
58.619868
51
90.000000
0
LINE
8
0
10
79.277484
20
160.697702
30
0.0
11
80.953477
21
159.675469
31
0.0
0
ARC
8
0
10
81.153381
20
159.669279
30
0.0
40
0.200000
50
180.000000
51
360.000000
0
LINE
8
0
10
81.353381
20
159.669279
30
0.0
11
81.353381
21
161.076269
31
0.0
0
ARC
8
0
10
81.153381
20
161.076269
30
0.0
40
0.200000
50
360.000000
51
58.619868
0
LINE
8
0
10
81.257524
20
161.247016
30
0.0
11
79.332667
21
162.421037
31
0.0
0
ARC
8
0
10
79.853381
20
163.274768
30
0.0
40
1.000000
50
180.000000
51
238.619868
0
LINE
8
0
10
78.853381
20
163.274768
30
0.0
11
78.853381
21
171.486835
31
0.0
0
ARC
8
0
10
79.853381
20
171.486835
30
0.0
40
1.000000
50
121.380132
51
180.000000
0
LINE
8
0
10
79.332667
20
172.340567
30
0.0
11
81.257524
21
173.514588
31
0.0
0
ARC
8
0
10
81.153381
20
173.685334
30
0.0
40
0.200000
50
301.380132
51
360.000000
0
LINE
8
0
10
81.353381
20
173.685334
30
0.0
11
81.353381
21
175.092325
31
0.0
0
ARC
8
0
10
81.153381
20
175.092325
30
0.0
40
0.200000
50
360.000000
51
180.000000
0
LINE
8
0
10
80.953477
20
175.086135
30
0.0
11
79.277484
21
174.063902
31
0.0
0
ARC
8
0
10
79.121270
20
174.320021
30
0.0
40
0.300000
50
270.000000
51
301.380132
0
LINE
8
0
10
79.121270
20
174.020021
30
0.0
11
79.053381
21
174.020021
31
0.0
0
ARC
8
0
10
79.053381
20
174.220021
30
0.0
40
0.200000
50
180.000000
51
270.000000
0
LINE
8
0
10
78.853381
20
174.220021
30
0.0
11
78.853381
21
178.720021
31
0.0
0
ARC
8
0
10
78.853381
20
179.020021
30
0.0
40
0.300000
50
71.341100
51
270.000000
0
LINE
8
0
10
78.949361
20
179.304253
30
0.0
11
79.233593
21
179.208273
31
0.0
0
ARC
8
0
10
79.137613
20
178.924041
30
0.0
40
0.300000
50
49.517123
51
71.341100
0
LINE
8
0
10
79.332379
20
179.152221
30
0.0
11
80.936581
21
177.782932
31
0.0
0
ARC
8
0
10
80.806737
20
177.630812
30
0.0
40
0.200000
50
356.341100
51
49.517123
0
LINE
8
0
10
81.006330
20
177.618049
30
0.0
11
80.996401
21
177.462784
31
0.0
0
ARC
8
0
10
81.141725
20
177.453491
30
0.0
40
0.145621
50
180.000000
51
293.954815
0
LINE
8
0
10
81.200849
20
177.320413
30
0.0
11
82.211305
21
177.769343
31
0.0
0
ARC
8
0
10
82.089500
20
178.043502
30
0.0
40
0.300000
50
293.954815
51
326.324352
0
LINE
8
0
10
82.339157
20
177.877155
30
0.0
11
83.812482
21
180.088348
31
0.0
0
ARC
8
0
10
83.562825
20
180.254695
30
0.0
40
0.300000
50
326.324352
51
90.000000
0
LINE
8
0
10
83.562825
20
180.554695
30
0.0
11
82.374028
21
180.554695
31
0.0
0
ARC
8
0
10
82.374028
20
180.054695
30
0.0
40
0.500000
50
90.000000
51
129.784920
0
ARC
8
0
10
80.774259
20
181.975825
30
0.0
40
2.000000
50
238.720368
51
309.784920
0
LINE
8
0
10
79.735829
20
180.266538
30
0.0
11
79.213970
21
180.583579
31
0.0
0
ARC
8
0
10
79.603381
20
181.224562
30
0.0
40
0.750000
50
222.935440
51
238.720368
0
LINE
8
0
10
79.054290
20
180.713682
30
0.0
11
78.672917
21
180.713682
31
0.0
0
LINE
8
0
10
78.672917
20
180.713682
30
0.0
11
78.672917
21
188.530720
31
0.0
0
ARC
8
0
10
78.472917
20
188.530720
30
0.0
40
0.200000
50
360.000000
51
90.000000
0
LINE
8
0
10
78.472917
20
188.730720
30
0.0
11
76.122917
21
188.730720
31
0.0
0
ARC
8
0
10
76.122917
20
188.530720
30
0.0
40
0.200000
50
90.000000
51
180.000000
0
LINE
8
0
10
75.922917
20
188.530720
30
0.0
11
75.922917
21
187.430720
31
0.0
0
ARC
8
0
10
76.122917
20
187.430720
30
0.0
40
0.200000
50
180.000000
51
270.000000
0
LINE
8
0
10
76.122917
20
187.230720
30
0.0
11
77.072917
21
187.230720
31
0.0
0
ARC
8
0
10
77.072917
20
187.030720
30
0.0
40
0.200000
50
360.000000
51
90.000000
0
LINE
8
0
10
77.272917
20
187.030720
30
0.0
11
77.272917
21
180.750147
31
0.0
0
ARC
8
0
10
76.972917
20
180.750147
30
0.0
40
0.300000
50
270.000000
51
360.000000
0
LINE
8
0
10
76.972917
20
180.450147
30
0.0
11
69.752917
21
180.450147
31
0.0
0
ARC
8
0
10
69.752917
20
180.750147
30
0.0
40
0.300000
50
180.000000
51
270.000000
0
LINE
8
0
10
69.452917
20
180.750147
30
0.0
11
69.452917
21
186.930720
31
0.0
0
ARC
8
0
10
69.752917
20
186.930720
30
0.0
40
0.300000
50
90.000000
51
180.000000
0
LINE
8
0
10
69.752917
20
187.230720
30
0.0
11
70.922917
21
187.230720
31
0.0
0
ARC
8
0
10
70.922917
20
187.430720
30
0.0
40
0.200000
50
270.000000
51
360.000000
0
LINE
8
0
10
71.122917
20
187.430720
30
0.0
11
71.122917
21
188.530720
31
0.0
0
ARC
8
0
10
70.922917
20
188.530720
30
0.0
40
0.200000
50
360.000000
51
90.000000
0
LINE
8
0
10
70.922917
20
188.730720
30
0.0
11
65.850742
21
188.730720
31
0.0
0
LINE
8
0
10
65.850742
20
188.730720
30
0.0
11
64.850742
21
187.730720
31
0.0
0
LINE
8
0
10
64.850742
20
187.730720
30
0.0
11
64.850742
21
186.730720
31
0.0
0
LINE
8
0
10
64.850742
20
186.730720
30
0.0
11
67.152917
21
186.730720
31
0.0
0
ARC
8
0
10
67.152917
20
186.430720
30
0.0
40
0.300000
50
360.000000
51
90.000000
0
LINE
8
0
10
67.452917
20
186.430720
30
0.0
11
67.452917
21
183.030720
31
0.0
0
ARC
8
0
10
67.152917
20
183.030720
30
0.0
40
0.300000
50
270.000000
51
360.000000
0
LINE
8
0
10
67.152917
20
182.730720
30
0.0
11
50.150742
21
182.730720
31
0.0
0
ARC
8
0
10
50.150742
20
183.030720
30
0.0
40
0.300000
50
180.000000
51
270.000000
0
LINE
8
0
10
49.850742
20
183.030720
30
0.0
11
49.850742
21
186.730720
31
0.0
0
LINE
8
0
10
49.850742
20
186.730720
30
0.0
11
50.850742
21
186.730720
31
0.0
0
LINE
8
0
10
50.850742
20
186.730720
30
0.0
11
50.850742
21
187.730720
31
0.0
0
LINE
8
0
10
50.850742
20
187.730720
30
0.0
11
49.850742
21
188.730720
31
0.0
0
LINE
8
0
10
49.850742
20
188.730720
30
0.0
11
48.353381
21
188.730720
31
0.0
0
ARC
8
0
10
48.353381
20
188.430720
30
0.0
40
0.300000
50
90.000000
51
180.000000
0
LINE
8
0
10
48.053381
20
188.430720
30
0.0
11
48.053381
21
185.130720
31
0.0
0
LINE
8
0
10
48.053381
20
185.130720
30
0.0
11
44.053381
21
185.130720
31
0.0
0
ARC
8
0
10
44.053381
20
184.830720
30
0.0
40
0.300000
50
90.000000
51
180.000000
0
LINE
8
0
10
43.753381
20
184.830720
30
0.0
11
43.753381
21
183.430720
31
0.0
0
ARC
8
0
10
44.053381
20
183.430720
30
0.0
40
0.300000
50
180.000000
51
270.000000
0
LINE
8
0
10
44.053381
20
183.130720
30
0.0
11
47.753381
21
183.130720
31
0.0
0
ARC
8
0
10
47.753381
20
182.830720
30
0.0
40
0.300000
50
360.000000
51
90.000000
0
LINE
8
0
10
48.053381
20
182.830720
30
0.0
11
48.053381
21
181.230720
31
0.0
0
ARC
8
0
10
48.553381
20
181.230720
30
0.0
40
0.500000
50
180.000000
51
270.000000
0
LINE
8
0
10
48.553381
20
180.730720
30
0.0
11
48.912550
21
180.730720
31
0.0
0
ARC
8
0
10
48.912550
20
180.230720
30
0.0
40
0.500000
50
301.756500
51
90.000000
0
LINE
8
0
10
49.175706
20
179.805574
30
0.0
11
48.763915
21
179.550686
31
0.0
0
ARC
8
0
10
49.553381
20
178.275247
30
0.0
40
1.500000
50
121.756500
51
180.000000
0
LINE
8
0
10
48.053381
20
178.275247
30
0.0
11
48.053381
21
175.386922
31
0.0
0
ARC
8
0
10
48.353381
20
175.386922
30
0.0
40
0.300000
50
180.000000
51
257.343246
0
LINE
8
0
10
48.287648
20
175.094212
30
0.0
11
50.353381
21
174.630317
31
0.0
0
LINE
8
0
10
50.353381
20
174.630317
30
0.0
11
50.353381
21
176.017162
31
0.0
0
ARC
8
0
10
56.153381
20
180.930720
30
0.0
40
0.300000
50
90.000000
51
180.000000
0
LINE
8
0
10
56.153381
20
181.230720
30
0.0
11
57.653381
21
181.230720
31
0.0
0
ARC
8
0
10
57.653381
20
180.730720
30
0.0
40
0.500000
50
360.000000
51
90.000000
0
LINE
8
0
10
58.153381
20
180.730720
30
0.0
11
58.153381
21
178.430720
31
0.0
0
ARC
8
0
10
59.153381
20
178.430720
30
0.0
40
1.000000
50
180.000000
51
270.000000
0
LINE
8
0
10
59.153381
20
177.430720
30
0.0
11
59.353381
21
177.430720
31
0.0
0
ARC
8
0
10
59.353381
20
177.730720
30
0.0
40
0.300000
50
270.000000
51
360.000000
0
LINE
8
0
10
59.653381
20
177.730720
30
0.0
11
59.653381
21
178.950147
31
0.0
0
LINE
8
0
10
59.653381
20
178.950147
30
0.0
11
61.653381
21
178.950147
31
0.0
0
LINE
8
0
10
61.653381
20
178.950147
30
0.0
11
61.653381
21
181.230720
31
0.0
0
LINE
8
0
10
61.653381
20
181.230720
30
0.0
11
67.652917
21
181.230720
31
0.0
0
ARC
8
0
10
67.652917
20
180.930720
30
0.0
40
0.300000
50
360.000000
51
90.000000
0
LINE
8
0
10
67.952917
20
180.930720
30
0.0
11
67.952917
21
179.250147
31
0.0
0
ARC
8
0
10
68.252917
20
179.250147
30
0.0
40
0.300000
50
180.000000
51
270.000000
0
LINE
8
0
10
68.252917
20
178.950147
30
0.0
11
73.215167
21
178.950147
31
0.0
0
LINE
8
0
10
73.215167
20
178.950147
30
0.0
11
73.522917
21
179.257897
31
0.0
0
LINE
8
0
10
73.522917
20
179.257897
30
0.0
11
73.830667
21
178.950147
31
0.0
0
LINE
8
0
10
73.830667
20
178.950147
30
0.0
11
77.253381
21
178.950147
31
0.0
0
LINE
8
0
10
77.253381
20
178.950147
30
0.0
11
77.253381
21
151.649752
31
0.0
0
LINE
8
0
10
77.253381
20
151.649752
30
0.0
11
59.653381
21
151.649752
31
0.0
0
LINE
8
0
10
59.653381
20
151.649752
30
0.0
11
59.653381
21
154.949752
31
0.0
0
LINE
8
0
10
59.653381
20
154.949752
30
0.0
11
59.153381
21
154.949752
31
0.0
0
ARC
8
0
10
59.153381
20
154.449752
30
0.0
40
0.500000
50
90.000000
51
180.000000
0
LINE
8
0
10
58.653381
20
154.449752
30
0.0
11
58.653381
21
153.949752
31
0.0
0
ARC
8
0
10
58.153381
20
153.949752
30
0.0
40
0.500000
50
270.000000
51
360.000000
0
LINE
8
0
10
58.153381
20
153.449752
30
0.0
11
56.153381
21
153.449752
31
0.0
0
ARC
8
0
10
56.153381
20
153.749752
30
0.0
40
0.300000
50
180.000000
51
270.000000
0
LINE
8
0
10
55.853381
20
153.749752
30
0.0
11
55.853381
21
154.828896
31
0.0
0
ARC
8
0
10
56.153381
20
154.828896
30
0.0
40
0.300000
50
90.000000
51
180.000000
0
LINE
8
0
10
56.153381
20
155.128896
30
0.0
11
56.553381
21
155.128896
31
0.0
0
ARC
8
0
10
56.553381
20
156.128896
30
0.0
40
1.000000
50
270.000000
51
360.000000
0
LINE
8
0
10
57.553381
20
156.128896
30
0.0
11
57.553381
21
175.134418
31
0.0
0
ARC
8
0
10
56.053381
20
175.134418
30
0.0
40
1.500000
50
360.000000
51
86.815261
0
ARC
8
0
10
56.153381
20
176.931638
30
0.0
40
0.300000
50
180.000000
51
266.815262
0
LINE
8
0
10
55.853381
20
176.931638
30
0.0
11
55.853381
21
180.930720
31
0.0
0
ARC
8
0
10
93.053381
20
173.743545
30
0.0
40
2.000000
50
299.026391
51
360.000000
0
LINE
8
0
10
95.053381
20
173.743545
30
0.0
11
95.053381
21
178.691851
31
0.0
0
ARC
8
0
10
95.553381
20
178.691851
30
0.0
40
0.500000
50
90.000000
51
180.000000
0
LINE
8
0
10
95.553381
20
179.191851
30
0.0
11
96.553381
21
179.191851
31
0.0
0
ARC
8
0
10
96.553381
20
178.691851
30
0.0
40
0.500000
50
360.000000
51
90.000000
0
LINE
8
0
10
97.053381
20
178.691851
30
0.0
11
97.053381
21
156.069752
31
0.0
0
ARC
8
0
10
96.553381
20
156.069752
30
0.0
40
0.500000
50
270.000000
51
360.000000
0
LINE
8
0
10
96.553381
20
155.569752
30
0.0
11
95.553381
21
155.569752
31
0.0
0
ARC
8
0
10
95.553381
20
156.069752
30
0.0
40
0.500000
50
180.000000
51
270.000000
0
LINE
8
0
10
95.053381
20
156.069752
30
0.0
11
95.053381
21
161.018059
31
0.0
0
ARC
8
0
10
93.053381
20
161.018059
30
0.0
40
2.000000
50
360.000000
51
60.973609
0
ARC
8
0
10
94.509018
20
163.641248
30
0.0
40
1.000000
50
180.000000
51
240.973609
0
LINE
8
0
10
93.509018
20
163.641248
30
0.0
11
93.509018
21
171.120356
31
0.0
0
ARC
8
0
10
94.509018
20
171.120356
30
0.0
40
1.000000
50
119.026391
51
180.000000
0
ARC
8
0
10
93.653381
20
179.020021
30
0.0
40
0.300000
50
270.000000
51
108.658900
0
LINE
8
0
10
93.557401
20
179.304253
30
0.0
11
93.273169
21
179.208273
31
0.0
0
ARC
8
0
10
93.369149
20
178.924041
30
0.0
40
0.300000
50
108.658900
51
130.482877
0
LINE
8
0
10
93.174383
20
179.152221
30
0.0
11
91.570181
21
177.782932
31
0.0
0
ARC
8
0
10
91.700025
20
177.630812
30
0.0
40
0.200000
50
130.482877
51
183.658900
0
LINE
8
0
10
91.500433
20
177.618049
30
0.0
11
91.510361
21
177.462784
31
0.0
0
ARC
8
0
10
91.365037
20
177.453491
30
0.0
40
0.145621
50
246.045185
51
360.000000
0
LINE
8
0
10
91.305913
20
177.320413
30
0.0
11
90.295457
21
177.769343
31
0.0
0
ARC
8
0
10
90.417262
20
178.043502
30
0.0
40
0.300000
50
213.675648
51
246.045185
0
LINE
8
0
10
90.167605
20
177.877155
30
0.0
11
88.694280
21
180.088348
31
0.0
0
ARC
8
0
10
88.943937
20
180.254695
30
0.0
40
0.300000
50
90.000000
51
213.675648
0
LINE
8
0
10
88.943937
20
180.554695
30
0.0
11
90.132734
21
180.554695
31
0.0
0
ARC
8
0
10
90.132734
20
180.054695
30
0.0
40
0.500000
50
50.215080
51
90.000000
0
ARC
8
0
10
91.732503
20
181.975825
30
0.0
40
2.000000
50
230.215080
51
301.279632
0
LINE
8
0
10
92.770933
20
180.266538
30
0.0
11
93.292793
21
180.583579
31
0.0
0
ARC
8
0
10
92.903381
20
181.224562
30
0.0
40
0.750000
50
301.279632
51
314.742236
0
LINE
8
0
10
93.431320
20
180.691851
30
0.0
11
96.453381
21
180.691851
31
0.0
0
ARC
8
0
10
96.453381
20
181.191851
30
0.0
40
0.500000
50
270.000000
51
360.000000
0
LINE
8
0
10
96.953381
20
181.191851
30
0.0
11
96.953381
21
187.730720
31
0.0
0
ARC
8
0
10
96.653381
20
187.730720
30
0.0
40
0.300000
50
360.000000
51
90.000000
0
LINE
8
0
10
96.653381
20
188.030720
30
0.0
11
93.953381
21
188.030720
31
0.0
0
ARC
8
0
10
93.953381
20
188.530720
30
0.0
40
0.500000
50
180.000000
51
270.000000
0
LINE
8
0
10
93.453381
20
188.530720
30
0.0
11
93.453381
21
190.230720
31
0.0
0
ARC
8
0
10
93.953381
20
190.230720
30
0.0
40
0.500000
50
90.000000
51
180.000000
0
LINE
8
0
10
93.953381
20
190.730720
30
0.0
11
94.753381
21
190.730720
31
0.0
0
LINE
8
0
10
94.753381
20
190.730720
30
0.0
11
94.753381
21
189.630720
31
0.0
0
LINE
8
0
10
94.753381
20
189.630720
30
0.0
11
96.953381
21
189.630720
31
0.0
0
LINE
8
0
10
96.953381
20
189.630720
30
0.0
11
96.953381
21
202.330720
31
0.0
0
ARC
8
0
10
96.653381
20
202.330720
30
0.0
40
0.300000
50
360.000000
51
90.000000
0
LINE
8
0
10
96.653381
20
202.630720
30
0.0
11
95.653381
21
202.630720
31
0.0
0
LINE
8
0
10
95.653381
20
202.630720
30
0.0
11
95.653381
21
201.330720
31
0.0
0
LINE
8
0
10
95.653381
20
201.330720
30
0.0
11
94.953381
21
201.330720
31
0.0
0
ARC
8
0
10
94.953381
20
201.830720
30
0.0
40
0.500000
50
180.000000
51
270.000000
0
LINE
8
0
10
94.453381
20
201.830720
30
0.0
11
94.453381
21
205.480720
31
0.0
0
ARC
8
0
10
94.953381
20
205.480720
30
0.0
40
0.500000
50
360.000000
51
180.000000
0
LINE
8
0
10
95.453381
20
205.480720
30
0.0
11
95.453381
21
204.430720
31
0.0
0
ARC
8
0
10
95.953381
20
204.430720
30
0.0
40
0.500000
50
180.000000
51
270.000000
0
LINE
8
0
10
95.953381
20
203.930720
30
0.0
11
96.753381
21
203.930720
31
0.0
0
ARC
8
0
10
96.753381
20
204.430720
30
0.0
40
0.500000
50
270.000000
51
360.000000
0
LINE
8
0
10
97.253381
20
204.430720
30
0.0
11
97.253381
21
210.930720
31
0.0
0
ARC
8
0
10
96.753381
20
210.930720
30
0.0
40
0.500000
50
360.000000
51
90.000000
0
LINE
8
0
10
96.753381
20
211.430720
30
0.0
11
95.953381
21
211.430720
31
0.0
0
ARC
8
0
10
95.953381
20
210.930720
30
0.0
40
0.500000
50
90.000000
51
180.000000
0
LINE
8
0
10
95.453381
20
210.930720
30
0.0
11
95.453381
21
210.480720
31
0.0
0
ARC
8
0
10
94.953381
20
210.480720
30
0.0
40
0.500000
50
180.000000
51
360.000000
0
LINE
8
0
10
94.453381
20
210.480720
30
0.0
11
94.453381
21
212.430720
31
0.0
0
ARC
8
0
10
94.753381
20
212.430720
30
0.0
40
0.300000
50
90.000000
51
180.000000
0
LINE
8
0
10
94.753381
20
212.730720
30
0.0
11
97.953381
21
212.730720
31
0.0
0
ARC
8
0
10
97.953381
20
212.230720
30
0.0
40
0.500000
50
360.000000
51
90.000000
0
LINE
8
0
10
98.453381
20
212.230720
30
0.0
11
98.453381
21
149.380317
31
0.0
0
ARC
8
0
10
98.153381
20
149.380317
30
0.0
40
0.300000
50
270.000000
51
360.000000
0
LINE
8
0
10
98.153381
20
149.080317
30
0.0
11
96.077214
21
149.080317
31
0.0
0
ARC
8
0
10
96.077214
20
149.380317
30
0.0
40
0.300000
50
225.000000
51
270.000000
0
LINE
8
0
10
95.865082
20
149.168185
30
0.0
11
94.952950
21
150.080317
31
0.0
0
LINE
8
0
10
94.952950
20
150.080317
30
0.0
11
94.952950
21
150.380317
31
0.0
0
ARC
8
0
10
95.252950
20
150.380317
30
0.0
40
0.300000
50
90.000000
51
180.000000
0
LINE
8
0
10
95.252950
20
150.680317
30
0.0
11
96.652950
21
150.680317
31
0.0
0
ARC
8
0
10
96.652950
20
150.980317
30
0.0
40
0.300000
50
270.000000
51
360.000000
0
LINE
8
0
10
96.952950
20
150.980317
30
0.0
11
96.952950
21
153.769752
31
0.0
0
ARC
8
0
10
96.652950
20
153.769752
30
0.0
40
0.300000
50
360.000000
51
90.000000
0
LINE
8
0
10
96.652950
20
154.069752
30
0.0
11
93.431320
21
154.069752
31
0.0
0
ARC
8
0
10
92.903381
20
153.537042
30
0.0
40
0.750000
50
45.257764
51
58.720368
0
LINE
8
0
10
93.292793
20
154.178024
30
0.0
11
92.770933
21
154.495066
31
0.0
0
ARC
8
0
10
91.732503
20
152.785779
30
0.0
40
2.000000
50
58.720368
51
129.784920
0
ARC
8
0
10
90.132734
20
154.706909
30
0.0
40
0.500000
50
270.000000
51
309.784920
0
LINE
8
0
10
90.132734
20
154.206909
30
0.0
11
88.943937
21
154.206909
31
0.0
0
ARC
8
0
10
88.943937
20
154.506909
30
0.0
40
0.300000
50
146.324352
51
270.000000
0
LINE
8
0
10
88.694280
20
154.673256
30
0.0
11
90.167605
21
156.884449
31
0.0
0
ARC
8
0
10
90.417262
20
156.718101
30
0.0
40
0.300000
50
113.954815
51
146.324352
0
LINE
8
0
10
90.295457
20
156.992261
30
0.0
11
91.305913
21
157.441190
31
0.0
0
ARC
8
0
10
91.365037
20
157.308113
30
0.0
40
0.145621
50
360.000000
51
113.954815
0
LINE
8
0
10
91.510361
20
157.298820
30
0.0
11
91.500433
21
157.143555
31
0.0
0
ARC
8
0
10
91.700025
20
157.130792
30
0.0
40
0.200000
50
176.341100
51
229.517123
0
LINE
8
0
10
91.570181
20
156.978672
30
0.0
11
93.174383
21
155.609383
31
0.0
0
ARC
8
0
10
93.369149
20
155.837563
30
0.0
40
0.300000
50
229.517123
51
251.341100
0
LINE
8
0
10
93.273169
20
155.553331
30
0.0
11
93.557401
21
155.457351
31
0.0
0
ARC
8
0
10
93.653381
20
155.741583
30
0.0
40
0.300000
50
251.341100
51
90.000000
0
LINE
8
0
10
93.653381
20
156.041583
30
0.0
11
93.653381
21
160.541583
31
0.0
0
ARC
8
0
10
93.453381
20
160.541583
30
0.0
40
0.200000
50
360.000000
51
90.000000
0
LINE
8
0
10
93.453381
20
160.741583
30
0.0
11
93.385492
21
160.741583
31
0.0
0
ARC
8
0
10
93.385492
20
160.441583
30
0.0
40
0.300000
50
90.000000
51
121.380132
0
LINE
8
0
10
93.229278
20
160.697702
30
0.0
11
91.553285
21
159.675469
31
0.0
0
ARC
8
0
10
91.353381
20
159.669279
30
0.0
40
0.200000
50
180.000000
51
360.000000
0
LINE
8
0
10
91.153381
20
159.669279
30
0.0
11
91.153381
21
161.076269
31
0.0
0
ARC
8
0
10
91.353381
20
161.076269
30
0.0
40
0.200000
50
121.380132
51
180.000000
0
LINE
8
0
10
91.249238
20
161.247016
30
0.0
11
91.629732
21
161.479089
31
0.0
0
ARC
8
0
10
91.109018
20
162.332820
30
0.0
40
1.000000
50
301.380132
51
360.000000
0
LINE
8
0
10
92.109018
20
162.332820
30
0.0
11
92.109018
21
172.428784
31
0.0
0
ARC
8
0
10
91.109018
20
172.428784
30
0.0
40
1.000000
50
360.000000
51
58.619868
0
LINE
8
0
10
91.629732
20
173.282515
30
0.0
11
91.249238
21
173.514588
31
0.0
0
ARC
8
0
10
91.353381
20
173.685334
30
0.0
40
0.200000
50
180.000000
51
238.619868
0
LINE
8
0
10
91.153381
20
173.685334
30
0.0
11
91.153381
21
175.092325
31
0.0
0
ARC
8
0
10
91.353381
20
175.092325
30
0.0
40
0.200000
50
360.000000
51
180.000000
0
LINE
8
0
10
91.553285
20
175.086135
30
0.0
11
93.229278
21
174.063902
31
0.0
0
ARC
8
0
10
93.385492
20
174.320021
30
0.0
40
0.300000
50
238.619868
51
270.000000
0
LINE
8
0
10
93.385492
20
174.020021
30
0.0
11
93.453381
21
174.020021
31
0.0
0
ARC
8
0
10
93.453381
20
174.220021
30
0.0
40
0.200000
50
270.000000
51
360.000000
0
LINE
8
0
10
93.653381
20
174.220021
30
0.0
11
93.653381
21
178.720021
31
0.0
0
LINE
8
0
10
78.953381
20
177.431394
30
0.0
11
79.816959
21
178.294972
31
0.0
0
LINE
8
0
10
85.431919
20
183.909932
30
0.0
11
86.831450
21
185.309462
31
0.0
0
LINE
8
0
10
78.853381
20
175.086330
30
0.0
11
79.540187
21
175.773135
31
0.0
0
LINE
8
0
10
85.453381
20
181.686330
30
0.0
11
87.053381
21
183.286330
31
0.0
0
LINE
8
0
10
80.200044
20
176.432992
30
0.0
11
81.240273
21
177.473221
31
0.0
0
LINE
8
0
10
81.330467
20
175.318352
30
0.0
11
87.053381
21
181.041266
31
0.0
0
LINE
8
0
10
86.626978
20
178.369798
30
0.0
11
88.265828
21
180.008649
31
0.0
0
LINE
8
0
10
87.826199
20
177.323955
30
0.0
11
89.190427
21
178.688184
31
0.0
0
LINE
8
0
10
88.750798
20
176.003491
30
0.0
11
90.126100
21
177.378793
31
0.0
0
LINE
8
0
10
90.412170
20
175.419798
30
0.0
11
93.423970
21
178.431598
31
0.0
0
LINE
8
0
10
92.050920
20
174.813484
30
0.0
11
93.018352
21
175.780916
31
0.0
0
LINE
8
0
10
78.953381
20
159.470881
30
0.0
11
79.799303
21
160.316803
31
0.0
0
LINE
8
0
10
78.853381
20
157.125817
30
0.0
11
79.515861
21
157.788298
31
0.0
0
LINE
8
0
10
80.196964
20
158.469400
30
0.0
11
81.222617
21
159.495053
31
0.0
0
LINE
8
0
10
81.266907
20
157.294279
30
0.0
11
83.296014
21
159.323386
31
0.0
0
LINE
8
0
10
82.887200
20
156.669508
30
0.0
11
84.251428
21
158.033737
31
0.0
0
LINE
8
0
10
83.811799
20
155.349043
30
0.0
11
85.176028
21
156.713272
31
0.0
0
LINE
8
0
10
85.189700
20
154.481880
30
0.0
11
90.039700
21
159.331880
31
0.0
0
LINE
8
0
10
87.434764
20
154.481880
30
0.0
11
89.612953
21
156.660069
31
0.0
0
LINE
8
0
10
90.384764
20
157.431880
30
0.0
11
93.404940
21
160.452056
31
0.0
0
LINE
8
0
10
92.033827
20
156.835879
30
0.0
11
92.985470
21
157.787523
31
0.0
0
LINE
8
0
10
80.029666
20
156.579958
30
0.0
11
78.953381
21
157.656243
31
0.0
0
LINE
8
0
10
81.464552
20
157.390136
30
0.0
11
78.853381
21
160.001307
31
0.0
0
LINE
8
0
10
86.617872
20
154.481880
30
0.0
11
81.767872
21
159.331880
31
0.0
0
LINE
8
0
10
88.407011
20
154.937805
30
0.0
11
86.962936
21
156.381880
31
0.0
0
LINE
8
0
10
89.331610
20
156.258270
30
0.0
11
87.967382
21
157.622499
31
0.0
0
LINE
8
0
10
90.403064
20
157.431880
30
0.0
11
88.891981
21
158.942963
31
0.0
0
LINE
8
0
10
93.599181
20
156.480827
30
0.0
11
90.748128
21
159.331880
31
0.0
0
LINE
8
0
10
93.410008
20
158.915064
30
0.0
11
92.264190
21
160.060882
31
0.0
0
LINE
8
0
10
80.012573
20
174.557563
30
0.0
11
78.953381
21
175.616755
31
0.0
0
LINE
8
0
10
81.444479
20
175.370721
30
0.0
11
80.076834
21
176.738367
31
0.0
0
LINE
8
0
10
79.971949
20
176.843251
30
0.0
11
78.853381
21
177.961819
31
0.0
0
LINE
8
0
10
83.468012
20
175.592252
30
0.0
11
81.740466
21
177.319798
31
0.0
0
LINE
8
0
10
84.392611
20
176.912717
30
0.0
11
83.028383
21
178.276946
31
0.0
0
LINE
8
0
10
85.318729
20
178.231663
30
0.0
11
83.952982
21
179.597410
31
0.0
0
LINE
8
0
10
90.375658
20
175.419798
30
0.0
11
85.370044
21
180.425412
31
0.0
0
LINE
8
0
10
93.588742
20
174.451778
30
0.0
11
90.720722
21
177.319798
31
0.0
0
LINE
8
0
10
87.053381
20
180.987139
30
0.0
11
85.453381
21
182.587139
31
0.0
0
LINE
8
0
10
88.812266
20
179.228255
30
0.0
11
87.770722
21
180.269798
31
0.0
0
LINE
8
0
10
93.387802
20
176.897782
30
0.0
11
92.246534
21
178.039050
31
0.0
0
LINE
8
0
10
87.053381
20
183.232203
30
0.0
11
84.965786
21
185.319798
31
0.0
0
ARC
8
0
10
84.523107
20
154.681880
30
0.0
40
0.200000
50
215.000000
51
270.000000
0
LINE
8
0
10
84.523107
20
154.481880
30
0.0
11
86.253381
21
154.481880
31
0.0
0
LINE
8
0
10
86.253381
20
154.481880
30
0.0
11
87.983655
21
154.481880
31
0.0
0
ARC
8
0
10
87.983655
20
154.681880
30
0.0
40
0.200000
50
270.000000
51
325.000000
0
LINE
8
0
10
88.147486
20
154.567165
30
0.0
11
90.063806
21
157.303953
31
0.0
0
ARC
8
0
10
90.309551
20
157.131880
30
0.0
40
0.300000
50
90.000000
51
145.000000
0
LINE
8
0
10
90.309551
20
157.431880
30
0.0
11
90.787163
21
157.431880
31
0.0
0
ARC
8
0
10
90.787163
20
156.631880
30
0.0
40
0.800000
50
60.000000
51
90.000000
0
LINE
8
0
10
91.187163
20
157.324701
30
0.0
11
92.946971
21
156.308675
31
0.0
0
ARC
8
0
10
93.046971
20
156.481880
30
0.0
40
0.200000
50
240.000000
51
270.000000
0
LINE
8
0
10
93.046971
20
156.281880
30
0.0
11
93.253381
21
156.281880
31
0.0
0
ARC
8
0
10
93.253381
20
156.681880
30
0.0
40
0.400000
50
270.000000
51
360.000000
0
LINE
8
0
10
93.653381
20
156.681880
30
0.0
11
93.653381
21
157.281880
31
0.0
0
LINE
8
0
10
93.653381
20
157.281880
30
0.0
11
93.553381
21
157.281880
31
0.0
0
LINE
8
0
10
93.553381
20
157.281880
30
0.0
11
93.553381
21
157.656880
31
0.0
0
ARC
8
0
10
93.353381
20
157.656880
30
0.0
40
0.200000
50
360.000000
51
90.000000
0
LINE
8
0
10
93.353381
20
157.856880
30
0.0
11
93.241575
21
157.856880
31
0.0
0
LINE
8
0
10
93.241575
20
157.856880
30
0.0
11
93.157026
21
157.838130
31
0.0
0
ARC
8
0
10
92.903381
20
158.381880
30
0.0
40
0.600000
50
64.992167
51
295.007833
0
LINE
8
0
10
93.157026
20
158.925630
30
0.0
11
93.241575
21
158.906880
31
0.0
0
LINE
8
0
10
93.241575
20
158.906880
30
0.0
11
93.353381
21
158.906880
31
0.0
0
ARC
8
0
10
93.353381
20
159.106880
30
0.0
40
0.200000
50
270.000000
51
360.000000
0
LINE
8
0
10
93.553381
20
159.106880
30
0.0
11
93.553381
21
159.481880
31
0.0
0
LINE
8
0
10
93.553381
20
159.481880
30
0.0
11
93.653381
21
159.481880
31
0.0
0
LINE
8
0
10
93.653381
20
159.481880
30
0.0
11
93.653381
21
160.081880
31
0.0
0
ARC
8
0
10
93.253381
20
160.081880
30
0.0
40
0.400000
50
360.000000
51
90.000000
0
LINE
8
0
10
93.253381
20
160.481880
30
0.0
11
93.046971
21
160.481880
31
0.0
0
ARC
8
0
10
93.046971
20
160.281880
30
0.0
40
0.200000
50
90.000000
51
120.000000
0
LINE
8
0
10
92.946971
20
160.455086
30
0.0
11
91.187163
21
159.439060
31
0.0
0
ARC
8
0
10
90.787163
20
160.131880
30
0.0
40
0.800000
50
270.000000
51
300.000000
0
LINE
8
0
10
90.787163
20
159.331880
30
0.0
11
89.268417
21
159.331880
31
0.0
0
ARC
8
0
10
89.268417
20
159.131880
30
0.0
40
0.200000
50
90.000000
51
145.000000
0
LINE
8
0
10
89.104587
20
159.246596
30
0.0
11
87.158408
21
156.467165
31
0.0
0
ARC
8
0
10
86.994578
20
156.581880
30
0.0
40
0.200000
50
270.000000
51
325.000000
0
LINE
8
0
10
86.994578
20
156.381880
30
0.0
11
86.253381
21
156.381880
31
0.0
0
LINE
8
0
10
86.253381
20
156.381880
30
0.0
11
85.512184
21
156.381880
31
0.0
0
ARC
8
0
10
85.512184
20
156.581880
30
0.0
40
0.200000
50
215.000000
51
270.000000
0
LINE
8
0
10
85.348354
20
156.467165
30
0.0
11
83.402175
21
159.246596
31
0.0
0
ARC
8
0
10
83.238345
20
159.131880
30
0.0
40
0.200000
50
35.000000
51
90.000000
0
LINE
8
0
10
83.238345
20
159.331880
30
0.0
11
81.719599
21
159.331880
31
0.0
0
ARC
8
0
10
81.719599
20
160.131880
30
0.0
40
0.800000
50
240.000000
51
270.000000
0
LINE
8
0
10
81.319599
20
159.439060
30
0.0
11
79.559791
21
160.455086
31
0.0
0
ARC
8
0
10
79.459791
20
160.281880
30
0.0
40
0.200000
50
60.000000
51
90.000000
0
LINE
8
0
10
79.459791
20
160.481880
30
0.0
11
79.253381
21
160.481880
31
0.0
0
ARC
8
0
10
79.253381
20
160.081880
30
0.0
40
0.400000
50
90.000000
51
180.000000
0
LINE
8
0
10
78.853381
20
160.081880
30
0.0
11
78.853381
21
159.481880
31
0.0
0
LINE
8
0
10
78.853381
20
159.481880
30
0.0
11
78.953381
21
159.481880
31
0.0
0
LINE
8
0
10
78.953381
20
159.481880
30
0.0
11
78.953381
21
159.106880
31
0.0
0
ARC
8
0
10
79.153381
20
159.106880
30
0.0
40
0.200000
50
180.000000
51
270.000000
0
LINE
8
0
10
79.153381
20
158.906880
30
0.0
11
79.265187
21
158.906880
31
0.0
0
LINE
8
0
10
79.265187
20
158.906880
30
0.0
11
79.349736
21
158.925630
31
0.0
0
ARC
8
0
10
79.603381
20
158.381880
30
0.0
40
0.600000
50
244.992167
51
115.007833
0
LINE
8
0
10
79.349736
20
157.838130
30
0.0
11
79.265187
21
157.856880
31
0.0
0
LINE
8
0
10
79.265187
20
157.856880
30
0.0
11
79.153381
21
157.856880
31
0.0
0
ARC
8
0
10
79.153381
20
157.656880
30
0.0
40
0.200000
50
90.000000
51
180.000000
0
LINE
8
0
10
78.953381
20
157.656880
30
0.0
11
78.953381
21
157.281880
31
0.0
0
LINE
8
0
10
78.953381
20
157.281880
30
0.0
11
78.853381
21
157.281880
31
0.0
0
LINE
8
0
10
78.853381
20
157.281880
30
0.0
11
78.853381
21
156.681880
31
0.0
0
ARC
8
0
10
79.253381
20
156.681880
30
0.0
40
0.400000
50
180.000000
51
270.000000
0
LINE
8
0
10
79.253381
20
156.281880
30
0.0
11
79.459791
21
156.281880
31
0.0
0
ARC
8
0
10
79.459791
20
156.481880
30
0.0
40
0.200000
50
270.000000
51
300.000000
0
LINE
8
0
10
79.559791
20
156.308675
30
0.0
11
81.319599
21
157.324701
31
0.0
0
ARC
8
0
10
81.719599
20
156.631880
30
0.0
40
0.800000
50
90.000000
51
120.000000
0
LINE
8
0
10
81.719599
20
157.431880
30
0.0
11
82.197211
21
157.431880
31
0.0
0
ARC
8
0
10
82.197211
20
157.131880
30
0.0
40
0.300000
50
35.000000
51
90.000000
0
LINE
8
0
10
82.442957
20
157.303953
30
0.0
11
84.359276
21
154.567165
31
0.0
0
LINE
8
0
10
93.353381
20
175.844798
30
0.0
11
93.241575
21
175.844798
31
0.0
0
LINE
8
0
10
93.241575
20
175.844798
30
0.0
11
93.157026
21
175.826048
31
0.0
0
ARC
8
0
10
92.903381
20
176.369798
30
0.0
40
0.600000
50
64.992167
51
295.007833
0
LINE
8
0
10
93.157026
20
176.913548
30
0.0
11
93.241575
21
176.894798
31
0.0
0
LINE
8
0
10
93.241575
20
176.894798
30
0.0
11
93.353381
21
176.894798
31
0.0
0
ARC
8
0
10
93.353381
20
177.094798
30
0.0
40
0.200000
50
270.000000
51
360.000000
0
LINE
8
0
10
93.553381
20
177.094798
30
0.0
11
93.553381
21
177.469798
31
0.0
0
LINE
8
0
10
93.553381
20
177.469798
30
0.0
11
93.653381
21
177.469798
31
0.0
0
LINE
8
0
10
93.653381
20
177.469798
30
0.0
11
93.653381
21
178.069798
31
0.0
0
ARC
8
0
10
93.253381
20
178.069798
30
0.0
40
0.400000
50
360.000000
51
90.000000
0
LINE
8
0
10
93.253381
20
178.469798
30
0.0
11
93.046201
21
178.469798
31
0.0
0
ARC
8
0
10
93.046201
20
178.269798
30
0.0
40
0.200000
50
90.000000
51
120.000000
0
LINE
8
0
10
92.946201
20
178.443003
30
0.0
11
91.186394
21
177.426978
31
0.0
0
ARC
8
0
10
90.786394
20
178.119798
30
0.0
40
0.800000
50
270.000000
51
300.000000
0
LINE
8
0
10
90.786394
20
177.319798
30
0.0
11
90.304751
21
177.319798
31
0.0
0
ARC
8
0
10
90.304751
20
177.619798
30
0.0
40
0.300000
50
215.000000
51
270.000000
0
LINE
8
0
10
90.059006
20
177.447725
30
0.0
11
88.172545
21
180.141871
31
0.0
0
ARC
8
0
10
87.926799
20
179.969798
30
0.0
40
0.300000
50
35.000000
51
90.000000
0
LINE
8
0
10
87.926799
20
180.269798
30
0.0
11
87.453381
21
180.269798
31
0.0
0
ARC
8
0
10
87.453381
20
180.669798
30
0.0
40
0.400000
50
180.000000
51
270.000000
0
LINE
8
0
10
87.053381
20
180.669798
30
0.0
11
87.053381
21
185.019798
31
0.0
0
ARC
8
0
10
86.753381
20
185.019798
30
0.0
40
0.300000
50
360.000000
51
90.000000
0
LINE
8
0
10
86.753381
20
185.319798
30
0.0
11
84.872996
21
185.319798
31
0.0
0
ARC
8
0
10
84.872996
20
185.119798
30
0.0
40
0.200000
50
90.000000
51
150.000000
0
LINE
8
0
10
84.699791
20
185.219798
30
0.0
11
84.180176
21
184.319798
31
0.0
0
ARC
8
0
10
84.353381
20
184.219798
30
0.0
40
0.200000
50
150.000000
51
270.000000
0
LINE
8
0
10
84.353381
20
184.019798
30
0.0
11
85.253381
21
184.019798
31
0.0
0
ARC
8
0
10
85.253381
20
183.819798
30
0.0
40
0.200000
50
360.000000
51
90.000000
0
LINE
8
0
10
85.453381
20
183.819798
30
0.0
11
85.453381
21
180.669798
31
0.0
0
ARC
8
0
10
85.053381
20
180.669798
30
0.0
40
0.400000
50
270.000000
51
360.000000
0
LINE
8
0
10
85.053381
20
180.269798
30
0.0
11
84.579963
21
180.269798
31
0.0
0
ARC
8
0
10
84.579963
20
179.969798
30
0.0
40
0.300000
50
90.000000
51
145.000000
0
LINE
8
0
10
84.334217
20
180.141871
30
0.0
11
82.447756
21
177.447725
31
0.0
0
ARC
8
0
10
82.202011
20
177.619798
30
0.0
40
0.300000
50
270.000000
51
325.000000
0
LINE
8
0
10
82.202011
20
177.319798
30
0.0
11
81.720368
21
177.319798
31
0.0
0
ARC
8
0
10
81.720368
20
178.119798
30
0.0
40
0.800000
50
240.000000
51
270.000000
0
LINE
8
0
10
81.320368
20
177.426978
30
0.0
11
79.560561
21
178.443003
31
0.0
0
ARC
8
0
10
79.460561
20
178.269798
30
0.0
40
0.200000
50
60.000000
51
90.000000
0
LINE
8
0
10
79.460561
20
178.469798
30
0.0
11
79.253381
21
178.469798
31
0.0
0
ARC
8
0
10
79.253381
20
178.069798
30
0.0
40
0.400000
50
90.000000
51
180.000000
0
LINE
8
0
10
78.853381
20
178.069798
30
0.0
11
78.853381
21
177.469798
31
0.0
0
LINE
8
0
10
78.853381
20
177.469798
30
0.0
11
78.953381
21
177.469798
31
0.0
0
LINE
8
0
10
78.953381
20
177.469798
30
0.0
11
78.953381
21
177.094798
31
0.0
0
ARC
8
0
10
79.153381
20
177.094798
30
0.0
40
0.200000
50
180.000000
51
270.000000
0
LINE
8
0
10
79.153381
20
176.894798
30
0.0
11
79.265187
21
176.894798
31
0.0
0
LINE
8
0
10
79.265187
20
176.894798
30
0.0
11
79.349736
21
176.913548
31
0.0
0
ARC
8
0
10
79.603381
20
176.369798
30
0.0
40
0.600000
50
244.992167
51
115.007833
0
LINE
8
0
10
79.349736
20
175.826048
30
0.0
11
79.265187
21
175.844798
31
0.0
0
LINE
8
0
10
79.265187
20
175.844798
30
0.0
11
79.153381
21
175.844798
31
0.0
0
ARC
8
0
10
79.153381
20
175.644798
30
0.0
40
0.200000
50
90.000000
51
180.000000
0
LINE
8
0
10
78.953381
20
175.644798
30
0.0
11
78.953381
21
175.269798
31
0.0
0
LINE
8
0
10
78.953381
20
175.269798
30
0.0
11
78.853381
21
175.269798
31
0.0
0
LINE
8
0
10
78.853381
20
175.269798
30
0.0
11
78.853381
21
174.669798
31
0.0
0
ARC
8
0
10
79.253381
20
174.669798
30
0.0
40
0.400000
50
180.000000
51
270.000000
0
LINE
8
0
10
79.253381
20
174.269798
30
0.0
11
79.460561
21
174.269798
31
0.0
0
ARC
8
0
10
79.460561
20
174.469798
30
0.0
40
0.200000
50
270.000000
51
300.000000
0
LINE
8
0
10
79.560561
20
174.296593
30
0.0
11
81.320368
21
175.312618
31
0.0
0
ARC
8
0
10
81.720368
20
174.619798
30
0.0
40
0.800000
50
90.000000
51
120.000000
0
LINE
8
0
10
81.720368
20
175.419798
30
0.0
11
83.191088
21
175.419798
31
0.0
0
ARC
8
0
10
83.191088
20
175.719798
30
0.0
40
0.300000
50
270.000000
51
325.000000
0
LINE
8
0
10
83.436834
20
175.547725
30
0.0
11
85.293436
21
178.199229
31
0.0
0
ARC
8
0
10
85.621097
20
177.969798
30
0.0
40
0.400000
50
90.000000
51
145.000000
0
LINE
8
0
10
85.621097
20
178.369798
30
0.0
11
86.253381
21
178.369798
31
0.0
0
LINE
8
0
10
86.253381
20
178.369798
30
0.0
11
86.885665
21
178.369798
31
0.0
0
ARC
8
0
10
86.885665
20
177.969798
30
0.0
40
0.400000
50
35.000000
51
90.000000
0
LINE
8
0
10
87.213326
20
178.199229
30
0.0
11
89.069928
21
175.547725
31
0.0
0
ARC
8
0
10
89.315674
20
175.719798
30
0.0
40
0.300000
50
215.000000
51
270.000000
0
LINE
8
0
10
89.315674
20
175.419798
30
0.0
11
90.786394
21
175.419798
31
0.0
0
ARC
8
0
10
90.786394
20
174.619798
30
0.0
40
0.800000
50
60.000000
51
90.000000
0
LINE
8
0
10
91.186394
20
175.312618
30
0.0
11
92.946201
21
174.296593
31
0.0
0
ARC
8
0
10
93.046201
20
174.469798
30
0.0
40
0.200000
50
240.000000
51
270.000000
0
LINE
8
0
10
93.046201
20
174.269798
30
0.0
11
93.253381
21
174.269798
31
0.0
0
ARC
8
0
10
93.253381
20
174.669798
30
0.0
40
0.400000
50
270.000000
51
360.000000
0
LINE
8
0
10
93.653381
20
174.669798
30
0.0
11
93.653381
21
175.269798
31
0.0
0
LINE
8
0
10
93.653381
20
175.269798
30
0.0
11
93.553381
21
175.269798
31
0.0
0
LINE
8
0
10
93.553381
20
175.269798
30
0.0
11
93.553381
21
175.644798
31
0.0
0
ARC
8
0
10
93.353381
20
175.644798
30
0.0
40
0.200000
50
360.000000
51
90.000000
0
LINE
8
0
10
46.674751
20
160.270763
30
0.0
11
46.340071
21
161.274806
31
0.0
0
LINE
8
0
10
46.340157
20
161.274879
30
0.0
11
46.223830
21
160.344255
31
0.0
0
LINE
8
0
10
46.640324
20
170.275513
30
0.0
11
46.751862
21
171.502440
31
0.0
0
LINE
8
0
10
32.049771
20
173.225961
30
0.0
11
32.089700
21
173.425607
31
0.0
0
LINE
8
0
10
32.049771
20
158.225929
30
0.0
11
32.089709
21
158.425617
31
0.0
0
LINE
8
0
10
32.049771
20
143.225897
30
0.0
11
32.089717
21
143.425627
31
0.0
0
LINE
8
0
10
32.049771
20
128.225865
30
0.0
11
32.089726
21
128.425638
31
0.0
0
LINE
8
0
10
32.049771
20
113.225833
30
0.0
11
32.089734
21
113.425648
31
0.0
0
LINE
8
0
10
32.089790
20
113.425011
30
0.0
11
32.089790
21
115.225011
31
0.0
0
LINE
8
0
10
32.089790
20
128.425011
30
0.0
11
32.089790
21
130.225011
31
0.0
0
LINE
8
0
10
32.089790
20
143.425011
30
0.0
11
32.089790
21
145.225011
31
0.0
0
LINE
8
0
10
32.089790
20
158.425011
30
0.0
11
32.089790
21
160.225011
31
0.0
0
LINE
8
0
10
32.089790
20
173.425011
30
0.0
11
32.089790
21
175.225011
31
0.0
0
LINE
8
0
10
47.089790
20
160.203119
30
0.0
11
47.089790
21
160.225011
31
0.0
0
LINE
8
0
10
32.089640
20
115.224655
30
0.0
11
32.049771
21
115.330970
31
0.0
0
LINE
8
0
10
32.089646
20
130.224650
30
0.0
11
32.049771
21
130.330983
31
0.0
0
LINE
8
0
10
32.089653
20
145.224645
30
0.0
11
32.049771
21
145.330996
31
0.0
0
LINE
8
0
10
32.089659
20
160.224641
30
0.0
11
32.049771
21
160.331008
31
0.0
0
LINE
8
0
10
32.089666
20
175.224636
30
0.0
11
32.049771
21
175.331021
31
0.0
0
LINE
8
0
10
47.089646
20
160.224615
30
0.0
11
46.639647
21
161.424615
31
0.0
0
LINE
8
0
10
46.639739
20
161.424667
30
0.0
11
46.489738
21
163.674668
31
0.0
0
LINE
8
0
10
46.490336
20
163.675516
30
0.0
11
46.640335
21
165.325522
31
0.0
0
LINE
8
0
10
46.639790
20
165.325011
30
0.0
11
46.639790
21
166.975011
31
0.0
0
LINE
8
0
10
46.640510
20
166.974465
30
0.0
11
46.490511
21
168.624471
31
0.0
0
LINE
8
0
10
46.490324
20
168.625513
30
0.0
11
46.640324
21
170.275519
31
0.0
0
LINE
8
0
10
46.339790
20
166.975011
30
0.0
11
46.339790
21
167.875011
31
0.0
0
LINE
8
0
10
46.340510
20
167.874465
30
0.0
11
46.190511
21
169.524471
31
0.0
0
LINE
8
0
10
46.189790
20
169.525011
30
0.0
11
46.189790
21
171.025011
31
0.0
0
LINE
8
0
10
46.190327
20
171.026428
30
0.0
11
46.122431
21
171.399854
31
0.0
0
LINE
8
0
10
45.838655
20
160.407031
30
0.0
11
45.890335
21
160.975522
31
0.0
0
LINE
8
0
10
45.890336
20
160.975516
30
0.0
11
46.040335
21
162.625522
31
0.0
0
LINE
8
0
10
46.039376
20
162.625587
30
0.0
11
46.339375
21
164.725581
31
0.0
0
LINE
8
0
10
46.339790
20
164.725011
30
0.0
11
46.339790
21
166.975011
31
0.0
0
LINE
8
0
10
40.339271
20
179.124374
30
0.0
11
40.639270
21
180.474367
31
0.0
0
LINE
8
0
10
40.339263
20
164.124362
30
0.0
11
40.639262
21
165.474355
31
0.0
0
LINE
8
0
10
40.339256
20
149.124349
30
0.0
11
40.639254
21
150.474343
31
0.0
0
LINE
8
0
10
40.339248
20
134.124337
30
0.0
11
40.639246
21
135.474331
31
0.0
0
LINE
8
0
10
40.339240
20
119.124325
30
0.0
11
40.639239
21
120.474318
31
0.0
0
LINE
8
0
10
40.640176
20
180.473535
30
0.0
11
40.790176
21
181.973539
31
0.0
0
LINE
8
0
10
40.640177
20
165.473523
30
0.0
11
40.790178
21
166.973526
31
0.0
0
LINE
8
0
10
40.640178
20
150.473510
30
0.0
11
40.790179
21
151.973514
31
0.0
0
LINE
8
0
10
40.640179
20
135.473498
30
0.0
11
40.790180
21
136.973501
31
0.0
0
LINE
8
0
10
40.640181
20
120.473485
30
0.0
11
40.790181
21
121.973489
31
0.0
0
LINE
8
0
10
40.339193
20
119.125609
30
0.0
11
40.189192
21
120.175614
31
0.0
0
LINE
8
0
10
40.339187
20
134.125616
30
0.0
11
40.189187
21
135.175621
31
0.0
0
LINE
8
0
10
40.339182
20
149.125622
30
0.0
11
40.189181
21
150.175627
31
0.0
0
LINE
8
0
10
40.339176
20
164.125629
30
0.0
11
40.189175
21
165.175634
31
0.0
0
LINE
8
0
10
40.339170
20
179.125636
30
0.0
11
40.189169
21
180.175641
31
0.0
0
LINE
8
0
10
40.189998
20
120.173919
30
0.0
11
39.890000
21
121.973915
31
0.0
0
LINE
8
0
10
40.190007
20
135.173905
30
0.0
11
39.890008
21
136.973902
31
0.0
0
LINE
8
0
10
40.190015
20
150.173892
30
0.0
11
39.890016
21
151.973888
31
0.0
0
LINE
8
0
10
40.190023
20
165.173878
30
0.0
11
39.890025
21
166.973874
31
0.0
0
LINE
8
0
10
40.190032
20
180.173864
30
0.0
11
39.890033
21
181.973861
31
0.0
0
LINE
8
0
10
39.889790
20
121.975011
30
0.0
11
39.889790
21
123.775011
31
0.0
0
LINE
8
0
10
39.889790
20
136.975011
30
0.0
11
39.889790
21
138.775011
31
0.0
0
LINE
8
0
10
39.889790
20
151.975011
30
0.0
11
39.889790
21
153.775011
31
0.0
0
LINE
8
0
10
39.889790
20
166.975011
30
0.0
11
39.889790
21
168.775011
31
0.0
0
LINE
8
0
10
39.889790
20
181.975011
30
0.0
11
39.889790
21
183.775011
31
0.0
0
LINE
8
0
10
39.889753
20
183.775097
30
0.0
11
40.039753
21
184.675102
31
0.0
0
LINE
8
0
10
39.889759
20
168.775096
30
0.0
11
40.039759
21
169.675101
31
0.0
0
LINE
8
0
10
39.889764
20
153.775094
30
0.0
11
40.039765
21
154.675100
31
0.0
0
LINE
8
0
10
39.889770
20
138.775093
30
0.0
11
40.039771
21
139.675099
31
0.0
0
LINE
8
0
10
39.889776
20
123.775092
30
0.0
11
40.039777
21
124.675098
31
0.0
0
LINE
8
0
10
39.940315
20
109.078294
30
0.0
11
40.039782
21
109.675097
31
0.0
0
LINE
8
0
10
40.039357
20
184.674983
30
0.0
11
40.339359
21
183.924978
31
0.0
0
LINE
8
0
10
40.039366
20
169.674983
30
0.0
11
40.339367
21
168.924978
31
0.0
0
LINE
8
0
10
40.039374
20
154.674982
30
0.0
11
40.339376
21
153.924977
31
0.0
0
LINE
8
0
10
40.039383
20
139.674982
30
0.0
11
40.339385
21
138.924977
31
0.0
0
LINE
8
0
10
40.039392
20
124.674981
30
0.0
11
40.339393
21
123.924976
31
0.0
0
LINE
8
0
10
40.039400
20
109.674981
30
0.0
11
40.278075
21
109.078294
31
0.0
0
LINE
8
0
10
40.339168
20
183.925614
30
0.0
11
40.789168
21
181.975609
31
0.0
0
LINE
8
0
10
40.339173
20
168.925604
30
0.0
11
40.789174
21
166.975599
31
0.0
0
LINE
8
0
10
40.339179
20
153.925594
30
0.0
11
40.789180
21
151.975589
31
0.0
0
LINE
8
0
10
40.339185
20
138.925584
30
0.0
11
40.789185
21
136.975579
31
0.0
0
LINE
8
0
10
40.339190
20
123.925574
30
0.0
11
40.789191
21
121.975569
31
0.0
0
LINE
8
0
10
40.340119
20
180.774892
30
0.0
11
40.490120
21
181.974898
31
0.0
0
LINE
8
0
10
40.340127
20
165.774889
30
0.0
11
40.490128
21
166.974896
31
0.0
0
LINE
8
0
10
40.340135
20
150.774887
30
0.0
11
40.490136
21
151.974893
31
0.0
0
LINE
8
0
10
40.340143
20
135.774885
30
0.0
11
40.490144
21
136.974891
31
0.0
0
LINE
8
0
10
40.340151
20
120.774882
30
0.0
11
40.490152
21
121.974889
31
0.0
0
LINE
8
0
10
40.340215
20
120.775158
30
0.0
11
40.190215
21
121.975164
31
0.0
0
LINE
8
0
10
40.340223
20
135.775160
30
0.0
11
40.190223
21
136.975167
31
0.0
0
LINE
8
0
10
40.340231
20
150.775163
30
0.0
11
40.190231
21
151.975169
31
0.0
0
LINE
8
0
10
40.340239
20
165.775165
30
0.0
11
40.190239
21
166.975171
31
0.0
0
LINE
8
0
10
40.340247
20
180.775167
30
0.0
11
40.190247
21
181.975174
31
0.0
0
LINE
8
0
10
40.189790
20
121.975011
30
0.0
11
40.189790
21
123.175011
31
0.0
0
LINE
8
0
10
40.189790
20
136.975011
30
0.0
11
40.189790
21
138.175011
31
0.0
0
LINE
8
0
10
40.189790
20
151.975011
30
0.0
11
40.189790
21
153.175011
31
0.0
0
LINE
8
0
10
40.189790
20
166.975011
30
0.0
11
40.189790
21
168.175011
31
0.0
0
LINE
8
0
10
40.189790
20
181.975011
30
0.0
11
40.189790
21
183.175011
31
0.0
0
LINE
8
0
10
40.190132
20
183.175319
30
0.0
11
40.490131
21
181.975320
31
0.0
0
LINE
8
0
10
40.190117
20
168.175310
30
0.0
11
40.490116
21
166.975312
31
0.0
0
LINE
8
0
10
40.190102
20
153.175302
30
0.0
11
40.490101
21
151.975303
31
0.0
0
LINE
8
0
10
40.190087
20
138.175293
30
0.0
11
40.490086
21
136.975294
31
0.0
0
LINE
8
0
10
40.190072
20
123.175284
30
0.0
11
40.490071
21
121.975286
31
0.0
0
LINE
8
0
10
39.739703
20
185.273015
30
0.0
11
39.889705
21
187.823017
31
0.0
0
LINE
8
0
10
39.739692
20
170.273005
30
0.0
11
39.889694
21
172.823007
31
0.0
0
LINE
8
0
10
39.739681
20
155.272996
30
0.0
11
39.889683
21
157.822998
31
0.0
0
LINE
8
0
10
39.739670
20
140.272986
30
0.0
11
39.889672
21
142.822988
31
0.0
0
LINE
8
0
10
39.739659
20
125.272977
30
0.0
11
39.889660
21
127.822979
31
0.0
0
LINE
8
0
10
39.739647
20
110.272968
30
0.0
11
39.889649
21
112.822970
31
0.0
0
LINE
8
0
10
39.889577
20
187.824856
30
0.0
11
39.935811
21
188.980720
31
0.0
0
LINE
8
0
10
39.889579
20
172.824855
30
0.0
11
40.039578
21
176.574856
31
0.0
0
LINE
8
0
10
39.889581
20
157.824854
30
0.0
11
40.039580
21
161.574856
31
0.0
0
LINE
8
0
10
39.889583
20
142.824854
30
0.0
11
40.039582
21
146.574855
31
0.0
0
LINE
8
0
10
39.889585
20
127.824853
30
0.0
11
40.039584
21
131.574854
31
0.0
0
LINE
8
0
10
39.889587
20
112.824853
30
0.0
11
40.039586
21
116.574854
31
0.0
0
LINE
8
0
10
40.039630
20
116.577089
30
0.0
11
39.889631
21
119.277095
31
0.0
0
LINE
8
0
10
40.039637
20
131.577098
30
0.0
11
39.889638
21
134.277105
31
0.0
0
LINE
8
0
10
40.039644
20
146.577108
30
0.0
11
39.889645
21
149.277115
31
0.0
0
LINE
8
0
10
40.039651
20
161.577118
30
0.0
11
39.889652
21
164.277124
31
0.0
0
LINE
8
0
10
40.039658
20
176.577127
30
0.0
11
39.889660
21
179.277134
31
0.0
0
LINE
8
0
10
39.889828
20
119.274940
30
0.0
11
39.439829
21
121.974942
31
0.0
0
LINE
8
0
10
39.889834
20
134.274941
30
0.0
11
39.439835
21
136.974943
31
0.0
0
LINE
8
0
10
39.889840
20
149.274942
30
0.0
11
39.439841
21
151.974944
31
0.0
0
LINE
8
0
10
39.889846
20
164.274943
30
0.0
11
39.439847
21
166.974945
31
0.0
0
LINE
8
0
10
39.889852
20
179.274944
30
0.0
11
39.439852
21
181.974947
31
0.0
0
LINE
8
0
10
41.240246
20
121.976284
30
0.0
11
40.940248
21
123.626278
31
0.0
0
LINE
8
0
10
41.240263
20
136.976301
30
0.0
11
40.940266
21
138.626296
31
0.0
0
LINE
8
0
10
41.240281
20
151.976319
30
0.0
11
40.940283
21
153.626313
31
0.0
0
LINE
8
0
10
41.240299
20
166.976336
30
0.0
11
40.940301
21
168.626331
31
0.0
0
LINE
8
0
10
41.240316
20
181.976354
30
0.0
11
40.940318
21
183.626348
31
0.0
0
LINE
8
0
10
40.810954
20
109.078294
30
0.0
11
40.340401
21
110.725227
31
0.0
0
LINE
8
0
10
40.940412
20
123.625234
30
0.0
11
40.340413
21
125.725231
31
0.0
0
LINE
8
0
10
40.940423
20
138.625238
30
0.0
11
40.340424
21
140.725235
31
0.0
0
LINE
8
0
10
40.940435
20
153.625243
30
0.0
11
40.340435
21
155.725240
31
0.0
0
LINE
8
0
10
40.940446
20
168.625247
30
0.0
11
40.340446
21
170.725244
31
0.0
0
LINE
8
0
10
40.940457
20
183.625251
30
0.0
11
40.340458
21
185.725249
31
0.0
0
LINE
8
0
10
40.339790
20
110.725011
30
0.0
11
40.339790
21
112.675011
31
0.0
0
LINE
8
0
10
40.339790
20
125.725011
30
0.0
11
40.339790
21
127.675011
31
0.0
0
LINE
8
0
10
40.339790
20
140.725011
30
0.0
11
40.339790
21
142.675011
31
0.0
0
LINE
8
0
10
40.339790
20
155.725011
30
0.0
11
40.339790
21
157.675011
31
0.0
0
LINE
8
0
10
40.339790
20
170.725011
30
0.0
11
40.339790
21
172.675011
31
0.0
0
LINE
8
0
10
40.339790
20
185.725011
30
0.0
11
40.339790
21
187.675011
31
0.0
0
LINE
8
0
10
40.339414
20
187.675525
30
0.0
11
40.525871
21
188.980720
31
0.0
0
LINE
8
0
10
40.339411
20
172.675533
30
0.0
11
40.639410
21
174.775528
31
0.0
0
LINE
8
0
10
40.339407
20
157.675541
30
0.0
11
40.639406
21
159.775536
31
0.0
0
LINE
8
0
10
40.339403
20
142.675549
30
0.0
11
40.639402
21
144.775544
31
0.0
0
LINE
8
0
10
40.339400
20
127.675558
30
0.0
11
40.639399
21
129.775552
31
0.0
0
LINE
8
0
10
40.339396
20
112.675566
30
0.0
11
40.639395
21
114.775560
31
0.0
0
LINE
8
0
10
40.639026
20
114.773107
30
0.0
11
40.489028
21
117.173104
31
0.0
0
LINE
8
0
10
40.639031
20
129.773098
30
0.0
11
40.489033
21
132.173095
31
0.0
0
LINE
8
0
10
40.639036
20
144.773089
30
0.0
11
40.489038
21
147.173086
31
0.0
0
LINE
8
0
10
40.639042
20
159.773080
30
0.0
11
40.489043
21
162.173077
31
0.0
0
LINE
8
0
10
40.639047
20
174.773071
30
0.0
11
40.489049
21
177.173068
31
0.0
0
LINE
8
0
10
40.490735
20
177.174355
30
0.0
11
40.790735
21
179.124348
31
0.0
0
LINE
8
0
10
40.490737
20
162.174349
30
0.0
11
40.790737
21
164.124341
31
0.0
0
LINE
8
0
10
40.490738
20
147.174342
30
0.0
11
40.790738
21
149.124335
31
0.0
0
LINE
8
0
10
40.490740
20
132.174336
30
0.0
11
40.790740
21
134.124329
31
0.0
0
LINE
8
0
10
40.490741
20
117.174330
30
0.0
11
40.790741
21
119.124322
31
0.0
0
LINE
8
0
10
40.789990
20
179.125301
30
0.0
11
41.239988
21
180.925298
31
0.0
0
LINE
8
0
10
40.790008
20
164.125307
30
0.0
11
41.240006
21
165.925304
31
0.0
0
LINE
8
0
10
40.790027
20
149.125312
30
0.0
11
41.240025
21
150.925310
31
0.0
0
LINE
8
0
10
40.790046
20
134.125318
30
0.0
11
41.240044
21
135.925316
31
0.0
0
LINE
8
0
10
40.790064
20
119.125324
30
0.0
11
41.240062
21
120.925322
31
0.0
0
LINE
8
0
10
41.239790
20
120.925011
30
0.0
11
41.239790
21
121.975011
31
0.0
0
LINE
8
0
10
41.239790
20
135.925011
30
0.0
11
41.239790
21
136.975011
31
0.0
0
LINE
8
0
10
41.239790
20
150.925011
30
0.0
11
41.239790
21
151.975011
31
0.0
0
LINE
8
0
10
41.239790
20
165.925011
30
0.0
11
41.239790
21
166.975011
31
0.0
0
LINE
8
0
10
41.239790
20
180.925011
30
0.0
11
41.239790
21
181.975011
31
0.0
0
LINE
8
0
10
39.740326
20
110.275487
30
0.0
11
39.631491
21
109.078294
31
0.0
0
LINE
8
0
10
39.740314
20
125.275484
30
0.0
11
39.440316
21
121.975487
31
0.0
0
LINE
8
0
10
39.740302
20
140.275481
30
0.0
11
39.440304
21
136.975484
31
0.0
0
LINE
8
0
10
39.740291
20
155.275478
30
0.0
11
39.440293
21
151.975482
31
0.0
0
LINE
8
0
10
39.740279
20
170.275476
30
0.0
11
39.440281
21
166.975479
31
0.0
0
LINE
8
0
10
39.740268
20
185.275473
30
0.0
11
39.440269
21
181.975476
31
0.0
0
LINE
8
0
10
38.838600
20
181.974791
30
0.0
11
39.138597
21
185.574793
31
0.0
0
LINE
8
0
10
38.838603
20
166.974788
30
0.0
11
39.138601
21
170.574790
31
0.0
0
LINE
8
0
10
38.838607
20
151.974785
30
0.0
11
39.138604
21
155.574787
31
0.0
0
LINE
8
0
10
38.838610
20
136.974782
30
0.0
11
39.138608
21
140.574784
31
0.0
0
LINE
8
0
10
38.838614
20
121.974779
30
0.0
11
39.138611
21
125.574781
31
0.0
0
LINE
8
0
10
39.013909
20
109.078294
30
0.0
11
39.138615
21
110.574778
31
0.0
0
LINE
8
0
10
39.139790
20
110.575011
30
0.0
11
39.139790
21
114.025011
31
0.0
0
LINE
8
0
10
39.139790
20
125.575011
30
0.0
11
39.139790
21
129.025011
31
0.0
0
LINE
8
0
10
39.139790
20
140.575011
30
0.0
11
39.139790
21
144.025011
31
0.0
0
LINE
8
0
10
39.139790
20
155.575011
30
0.0
11
39.139790
21
159.025011
31
0.0
0
LINE
8
0
10
39.139790
20
170.575011
30
0.0
11
39.139790
21
174.025011
31
0.0
0
LINE
8
0
10
39.139790
20
185.575011
30
0.0
11
39.139790
21
188.980720
31
0.0
0
LINE
8
0
10
39.139796
20
114.023161
30
0.0
11
38.839797
21
118.223156
31
0.0
0
LINE
8
0
10
39.139800
20
129.023151
30
0.0
11
38.839802
21
133.223145
31
0.0
0
LINE
8
0
10
39.139805
20
144.023140
30
0.0
11
38.839806
21
148.223134
31
0.0
0
LINE
8
0
10
39.139809
20
159.023129
30
0.0
11
38.839811
21
163.223124
31
0.0
0
LINE
8
0
10
39.139813
20
174.023119
30
0.0
11
38.839815
21
178.223113
31
0.0
0
LINE
8
0
10
38.839790
20
118.225011
30
0.0
11
38.839790
21
121.975011
31
0.0
0
LINE
8
0
10
38.839790
20
133.225011
30
0.0
11
38.839790
21
136.975011
31
0.0
0
LINE
8
0
10
38.839790
20
148.225011
30
0.0
11
38.839790
21
151.975011
31
0.0
0
LINE
8
0
10
38.839790
20
163.225011
30
0.0
11
38.839790
21
166.975011
31
0.0
0
LINE
8
0
10
38.839790
20
178.225011
30
0.0
11
38.839790
21
181.975011
31
0.0
0
LINE
8
0
10
41.727324
20
109.078294
30
0.0
11
41.540216
21
110.575162
31
0.0
0
LINE
8
0
10
41.990223
20
121.975160
30
0.0
11
41.540224
21
125.575164
31
0.0
0
LINE
8
0
10
41.990231
20
136.975163
30
0.0
11
41.540232
21
140.575167
31
0.0
0
LINE
8
0
10
41.990239
20
151.975165
30
0.0
11
41.540240
21
155.575169
31
0.0
0
LINE
8
0
10
41.990247
20
166.975167
30
0.0
11
41.540248
21
170.575171
31
0.0
0
LINE
8
0
10
41.990255
20
181.975170
30
0.0
11
41.540256
21
185.575174
31
0.0
0
LINE
8
0
10
41.540580
20
110.575639
30
0.0
11
41.240579
21
113.275644
31
0.0
0
LINE
8
0
10
41.540585
20
125.575644
30
0.0
11
41.240584
21
128.275648
31
0.0
0
LINE
8
0
10
41.540589
20
140.575649
30
0.0
11
41.240588
21
143.275653
31
0.0
0
LINE
8
0
10
41.540594
20
155.575654
30
0.0
11
41.240593
21
158.275658
31
0.0
0
LINE
8
0
10
41.540598
20
170.575658
30
0.0
11
41.240597
21
173.275663
31
0.0
0
LINE
8
0
10
41.540602
20
185.575663
30
0.0
11
41.240602
21
188.275667
31
0.0
0
LINE
8
0
10
41.238957
20
188.275607
30
0.0
11
41.269615
21
188.980720
31
0.0
0
LINE
8
0
10
41.238942
20
173.275610
30
0.0
11
41.388944
21
176.725605
31
0.0
0
LINE
8
0
10
41.238926
20
158.275612
30
0.0
11
41.388929
21
161.725608
31
0.0
0
LINE
8
0
10
41.238911
20
143.275615
30
0.0
11
41.388913
21
146.725610
31
0.0
0
LINE
8
0
10
41.238895
20
128.275617
30
0.0
11
41.388898
21
131.725613
31
0.0
0
LINE
8
0
10
41.238879
20
113.275620
30
0.0
11
41.388882
21
116.725615
31
0.0
0
LINE
8
0
10
41.391768
20
176.722676
30
0.0
11
41.991767
21
181.972671
31
0.0
0
LINE
8
0
10
41.391787
20
161.722653
30
0.0
11
41.991787
21
166.972649
31
0.0
0
LINE
8
0
10
41.391806
20
146.722631
30
0.0
11
41.991806
21
151.972627
31
0.0
0
LINE
8
0
10
41.391826
20
131.722609
30
0.0
11
41.991825
21
136.972605
31
0.0
0
LINE
8
0
10
41.391845
20
116.722587
30
0.0
11
41.991844
21
121.972582
31
0.0
0
LINE
8
0
10
32.092255
20
109.789915
30
0.0
11
32.090374
21
109.825649
31
0.0
0
LINE
8
0
10
32.240374
20
121.975651
30
0.0
11
32.090373
21
124.825651
31
0.0
0
LINE
8
0
10
32.240373
20
136.975654
30
0.0
11
32.090372
21
139.825654
31
0.0
0
LINE
8
0
10
32.240372
20
151.975656
30
0.0
11
32.090371
21
154.825657
31
0.0
0
LINE
8
0
10
32.240371
20
166.975659
30
0.0
11
32.090371
21
169.825659
31
0.0
0
LINE
8
0
10
32.240370
20
181.975662
30
0.0
11
32.090370
21
184.825662
31
0.0
0
LINE
8
0
10
47.240416
20
166.975707
30
0.0
11
47.090416
21
169.825708
31
0.0
0
LINE
8
0
10
32.089268
20
184.824501
30
0.0
11
32.539268
21
187.974500
31
0.0
0
LINE
8
0
10
32.089262
20
169.824494
30
0.0
11
32.539262
21
172.974493
31
0.0
0
LINE
8
0
10
32.089256
20
154.824487
30
0.0
11
32.539256
21
157.974487
31
0.0
0
LINE
8
0
10
32.089251
20
139.824480
30
0.0
11
32.539250
21
142.974480
31
0.0
0
LINE
8
0
10
32.089245
20
124.824474
30
0.0
11
32.539245
21
127.974473
31
0.0
0
LINE
8
0
10
32.089239
20
109.824467
30
0.0
11
32.539239
21
112.974466
31
0.0
0
LINE
8
0
10
47.089218
20
169.824450
30
0.0
11
47.342687
21
171.598734
31
0.0
0
LINE
8
0
10
32.541765
20
187.975348
30
0.0
11
32.578743
21
188.862839
31
0.0
0
LINE
8
0
10
32.541784
20
172.975349
30
0.0
11
32.691781
21
176.575345
31
0.0
0
LINE
8
0
10
32.541802
20
157.975350
30
0.0
11
32.691799
21
161.575346
31
0.0
0
LINE
8
0
10
32.541820
20
142.975351
30
0.0
11
32.691817
21
146.575347
31
0.0
0
LINE
8
0
10
32.541839
20
127.975351
30
0.0
11
32.691836
21
131.575348
31
0.0
0
LINE
8
0
10
32.541857
20
112.975352
30
0.0
11
32.691854
21
116.575349
31
0.0
0
LINE
8
0
10
47.631112
20
160.114893
30
0.0
11
47.691964
21
161.575373
31
0.0
0
LINE
8
0
10
32.691155
20
116.576377
30
0.0
11
32.241154
21
118.976374
31
0.0
0
LINE
8
0
10
32.691163
20
131.576393
30
0.0
11
32.241161
21
133.976390
31
0.0
0
LINE
8
0
10
32.691170
20
146.576409
30
0.0
11
32.241169
21
148.976406
31
0.0
0
LINE
8
0
10
32.691178
20
161.576425
30
0.0
11
32.241177
21
163.976422
31
0.0
0
LINE
8
0
10
32.691186
20
176.576441
30
0.0
11
32.241184
21
178.976438
31
0.0
0
LINE
8
0
10
47.691281
20
161.576525
30
0.0
11
47.241279
21
163.976522
31
0.0
0
LINE
8
0
10
32.239790
20
118.975011
30
0.0
11
32.239790
21
121.975011
31
0.0
0
LINE
8
0
10
32.239790
20
133.975011
30
0.0
11
32.239790
21
136.975011
31
0.0
0
LINE
8
0
10
32.239790
20
148.975011
30
0.0
11
32.239790
21
151.975011
31
0.0
0
LINE
8
0
10
32.239790
20
163.975011
30
0.0
11
32.239790
21
166.975011
31
0.0
0
LINE
8
0
10
32.239790
20
178.975011
30
0.0
11
32.239790
21
181.975011
31
0.0
0
LINE
8
0
10
47.239790
20
163.975011
30
0.0
11
47.239790
21
166.975011
31
0.0
0
LINE
8
0
10
45.439531
20
166.972892
30
0.0
11
45.589530
21
169.672899
31
0.0
0
LINE
8
0
10
45.588251
20
169.673881
30
0.0
11
45.418644
21
171.285150
31
0.0
0
LINE
8
0
10
45.036642
20
160.537744
30
0.0
11
45.290209
21
163.073409
31
0.0
0
LINE
8
0
10
45.289868
20
163.075220
30
0.0
11
45.739869
21
165.175216
31
0.0
0
LINE
8
0
10
45.740037
20
165.173798
30
0.0
11
45.440038
21
166.973795
31
0.0
0
LINE
8
0
10
33.149518
20
109.078294
30
0.0
11
33.139758
21
109.224698
31
0.0
0
LINE
8
0
10
33.289752
20
121.974695
30
0.0
11
33.139751
21
124.224696
31
0.0
0
LINE
8
0
10
33.289746
20
136.974693
30
0.0
11
33.139745
21
139.224694
31
0.0
0
LINE
8
0
10
33.289739
20
151.974691
30
0.0
11
33.139738
21
154.224691
31
0.0
0
LINE
8
0
10
33.289732
20
166.974688
30
0.0
11
33.139731
21
169.224689
31
0.0
0
LINE
8
0
10
33.289726
20
181.974686
30
0.0
11
33.139725
21
184.224686
31
0.0
0
LINE
8
0
10
48.289732
20
166.974665
30
0.0
11
48.139731
21
169.224665
31
0.0
0
LINE
8
0
10
33.138906
20
184.224252
30
0.0
11
33.888907
21
187.524248
31
0.0
0
LINE
8
0
10
33.138877
20
169.224239
30
0.0
11
33.888878
21
172.524235
31
0.0
0
LINE
8
0
10
33.138848
20
154.224226
30
0.0
11
33.888849
21
157.524222
31
0.0
0
LINE
8
0
10
33.138819
20
139.224213
30
0.0
11
33.888820
21
142.524209
31
0.0
0
LINE
8
0
10
33.138790
20
124.224200
30
0.0
11
33.888791
21
127.524195
31
0.0
0
LINE
8
0
10
33.138761
20
109.224187
30
0.0
11
33.888762
21
112.524182
31
0.0
0
LINE
8
0
10
48.138789
20
169.224172
30
0.0
11
48.729846
21
171.824815
31
0.0
0
LINE
8
0
10
33.889790
20
112.525011
30
0.0
11
33.889790
21
116.275011
31
0.0
0
LINE
8
0
10
33.889790
20
127.525011
30
0.0
11
33.889790
21
131.275011
31
0.0
0
LINE
8
0
10
33.889790
20
142.525011
30
0.0
11
33.889790
21
146.275011
31
0.0
0
LINE
8
0
10
33.889790
20
157.525011
30
0.0
11
33.889790
21
161.275011
31
0.0
0
LINE
8
0
10
33.889790
20
172.525011
30
0.0
11
33.889790
21
176.275011
31
0.0
0
LINE
8
0
10
33.889790
20
187.525011
30
0.0
11
33.889790
21
188.980720
31
0.0
0
LINE
8
0
10
48.889790
20
159.909752
30
0.0
11
48.889790
21
161.275011
31
0.0
0
LINE
8
0
10
33.891821
20
116.274102
30
0.0
11
33.591823
21
119.424099
31
0.0
0
LINE
8
0
10
33.891843
20
131.274096
30
0.0
11
33.591845
21
134.424093
31
0.0
0
LINE
8
0
10
33.891866
20
146.274091
30
0.0
11
33.591868
21
149.424087
31
0.0
0
LINE
8
0
10
33.891888
20
161.274085
30
0.0
11
33.591891
21
164.424082
31
0.0
0
LINE
8
0
10
33.891911
20
176.274079
30
0.0
11
33.591913
21
179.424076
31
0.0
0
LINE
8
0
10
48.892038
20
161.274017
30
0.0
11
48.592040
21
164.424014
31
0.0
0
LINE
8
0
10
33.590823
20
119.427492
30
0.0
11
33.290826
21
121.977485
31
0.0
0
LINE
8
0
10
33.590842
20
134.427514
30
0.0
11
33.290844
21
136.977508
31
0.0
0
LINE
8
0
10
33.590860
20
149.427536
30
0.0
11
33.290862
21
151.977530
31
0.0
0
LINE
8
0
10
33.590878
20
164.427558
30
0.0
11
33.290881
21
166.977552
31
0.0
0
LINE
8
0
10
33.590897
20
179.427580
30
0.0
11
33.290899
21
181.977574
31
0.0
0
LINE
8
0
10
48.590952
20
164.427742
30
0.0
11
48.290955
21
166.977736
31
0.0
0
LINE
8
0
10
44.389790
20
166.975011
30
0.0
11
44.389790
21
169.525011
31
0.0
0
LINE
8
0
10
44.053397
20
111.875920
30
0.0
11
43.789149
21
113.725657
31
0.0
0
LINE
8
0
10
44.053397
20
126.875887
30
0.0
11
43.789143
21
128.725664
31
0.0
0
LINE
8
0
10
44.053397
20
141.875853
30
0.0
11
43.789137
21
143.725671
31
0.0
0
LINE
8
0
10
44.053397
20
156.875820
30
0.0
11
43.789131
21
158.725677
31
0.0
0
LINE
8
0
10
44.389126
20
169.525680
30
0.0
11
44.166917
21
171.081141
31
0.0
0
LINE
8
0
10
44.053397
20
171.875786
30
0.0
11
43.789126
21
173.725684
31
0.0
0
LINE
8
0
10
43.791948
20
173.725376
30
0.0
11
43.941945
21
177.325372
31
0.0
0
LINE
8
0
10
43.791967
20
158.725376
30
0.0
11
43.941964
21
162.325373
31
0.0
0
LINE
8
0
10
43.791985
20
143.725377
30
0.0
11
43.941982
21
147.325374
31
0.0
0
LINE
8
0
10
43.792003
20
128.725378
30
0.0
11
43.942001
21
132.325374
31
0.0
0
LINE
8
0
10
43.792022
20
113.725379
30
0.0
11
43.942019
21
117.325375
31
0.0
0
LINE
8
0
10
43.939114
20
177.323183
30
0.0
11
44.053397
21
178.504117
31
0.0
0
LINE
8
0
10
43.939120
20
162.323169
30
0.0
11
44.389116
21
166.973166
31
0.0
0
LINE
8
0
10
43.939126
20
147.323154
30
0.0
11
44.053397
21
148.503960
31
0.0
0
LINE
8
0
10
43.939132
20
132.323140
30
0.0
11
44.053397
21
133.503882
31
0.0
0
LINE
8
0
10
43.939138
20
117.323126
30
0.0
11
44.053397
21
118.503804
31
0.0
0
LINE
8
0
10
42.787004
20
109.078294
30
0.0
11
42.589361
21
110.725309
31
0.0
0
LINE
8
0
10
43.039353
20
121.975305
30
0.0
11
42.589351
21
125.725311
31
0.0
0
LINE
8
0
10
43.039342
20
136.975307
30
0.0
11
42.589340
21
140.725313
31
0.0
0
LINE
8
0
10
43.039332
20
151.975309
30
0.0
11
42.589329
21
155.725315
31
0.0
0
LINE
8
0
10
43.039321
20
166.975311
30
0.0
11
42.589319
21
170.725317
31
0.0
0
LINE
8
0
10
42.889771
20
183.221470
30
0.0
11
42.589308
21
185.725319
31
0.0
0
LINE
8
0
10
42.589790
20
110.725011
30
0.0
11
42.589790
21
114.925011
31
0.0
0
LINE
8
0
10
42.589790
20
125.725011
30
0.0
11
42.589790
21
129.925011
31
0.0
0
LINE
8
0
10
42.589790
20
140.725011
30
0.0
11
42.589790
21
144.925011
31
0.0
0
LINE
8
0
10
42.589790
20
155.725011
30
0.0
11
42.589790
21
159.925011
31
0.0
0
LINE
8
0
10
42.589790
20
170.725011
30
0.0
11
42.589790
21
174.925011
31
0.0
0
LINE
8
0
10
42.589790
20
185.725011
30
0.0
11
42.589790
21
188.694845
31
0.0
0
LINE
8
0
10
42.586563
20
174.928453
30
0.0
11
42.919124
21
180.138623
31
0.0
0
LINE
8
0
10
42.586552
20
159.928470
30
0.0
11
43.036549
21
166.978463
31
0.0
0
LINE
8
0
10
42.586542
20
144.928487
30
0.0
11
43.036539
21
151.978480
31
0.0
0
LINE
8
0
10
42.586532
20
129.928505
30
0.0
11
43.036528
21
136.978498
31
0.0
0
LINE
8
0
10
42.586521
20
114.928522
30
0.0
11
43.036518
21
121.978515
31
0.0
0
LINE
8
0
10
37.789790
20
109.078294
30
0.0
11
37.789790
21
110.575011
31
0.0
0
LINE
8
0
10
37.789790
20
121.975011
30
0.0
11
37.789790
21
125.575011
31
0.0
0
LINE
8
0
10
37.789790
20
136.975011
30
0.0
11
37.789790
21
140.575011
31
0.0
0
LINE
8
0
10
37.789790
20
151.975011
30
0.0
11
37.789790
21
155.575011
31
0.0
0
LINE
8
0
10
37.789790
20
166.975011
30
0.0
11
37.789790
21
170.575011
31
0.0
0
LINE
8
0
10
37.789790
20
181.975011
30
0.0
11
37.789790
21
185.575011
31
0.0
0
LINE
8
0
10
37.788645
20
110.575270
30
0.0
11
37.488647
21
114.175271
31
0.0
0
LINE
8
0
10
37.788648
20
125.575273
30
0.0
11
37.488651
21
129.175274
31
0.0
0
LINE
8
0
10
37.788652
20
140.575276
30
0.0
11
37.488654
21
144.175278
31
0.0
0
LINE
8
0
10
37.788655
20
155.575279
30
0.0
11
37.488657
21
159.175281
31
0.0
0
LINE
8
0
10
37.788658
20
170.575282
30
0.0
11
37.488661
21
174.175284
31
0.0
0
LINE
8
0
10
37.788662
20
185.575285
30
0.0
11
37.504878
21
188.980720
31
0.0
0
LINE
8
0
10
52.752982
20
171.002350
30
0.0
11
52.631454
21
172.460706
31
0.0
0
LINE
8
0
10
37.488050
20
174.175810
30
0.0
11
37.638049
21
178.825807
31
0.0
0
LINE
8
0
10
37.488049
20
159.175812
30
0.0
11
37.638048
21
163.825809
31
0.0
0
LINE
8
0
10
37.488047
20
144.175814
30
0.0
11
37.638046
21
148.825811
31
0.0
0
LINE
8
0
10
37.488045
20
129.175816
30
0.0
11
37.638044
21
133.825812
31
0.0
0
LINE
8
0
10
37.488044
20
114.175818
30
0.0
11
37.638043
21
118.825814
31
0.0
0
LINE
8
0
10
52.492645
20
159.322553
30
0.0
11
52.637913
21
163.825871
31
0.0
0
LINE
8
0
10
37.639199
20
178.825615
30
0.0
11
37.789199
21
181.975616
31
0.0
0
LINE
8
0
10
37.639200
20
163.825617
30
0.0
11
37.789200
21
166.975618
31
0.0
0
LINE
8
0
10
37.639201
20
148.825620
30
0.0
11
37.789200
21
151.975620
31
0.0
0
LINE
8
0
10
37.639202
20
133.825622
30
0.0
11
37.789201
21
136.975622
31
0.0
0
LINE
8
0
10
37.639202
20
118.825624
30
0.0
11
37.789202
21
121.975625
31
0.0
0
LINE
8
0
10
52.639155
20
163.825665
30
0.0
11
52.752982
21
166.216041
31
0.0
0
LINE
8
0
10
35.390268
20
181.975473
30
0.0
11
35.690266
21
185.275470
31
0.0
0
LINE
8
0
10
35.390279
20
166.975476
30
0.0
11
35.690277
21
170.275473
31
0.0
0
LINE
8
0
10
35.390291
20
151.975478
30
0.0
11
35.690289
21
155.275475
31
0.0
0
LINE
8
0
10
35.390302
20
136.975481
30
0.0
11
35.690300
21
140.275478
31
0.0
0
LINE
8
0
10
35.390314
20
121.975484
30
0.0
11
35.690312
21
125.275481
31
0.0
0
LINE
8
0
10
35.581489
20
109.078294
30
0.0
11
35.690324
21
110.275483
31
0.0
0
LINE
8
0
10
50.390324
20
166.975513
30
0.0
11
50.690322
21
170.275510
31
0.0
0
LINE
8
0
10
35.689790
20
110.275011
30
0.0
11
35.689790
21
115.075011
31
0.0
0
LINE
8
0
10
35.689790
20
125.275011
30
0.0
11
35.689790
21
130.075011
31
0.0
0
LINE
8
0
10
35.689790
20
140.275011
30
0.0
11
35.689790
21
145.075011
31
0.0
0
LINE
8
0
10
35.689790
20
155.275011
30
0.0
11
35.689790
21
160.075011
31
0.0
0
LINE
8
0
10
35.689790
20
170.275011
30
0.0
11
35.689790
21
175.075011
31
0.0
0
LINE
8
0
10
35.689790
20
185.275011
30
0.0
11
35.689790
21
188.980720
31
0.0
0
LINE
8
0
10
50.689790
20
159.616385
30
0.0
11
50.689790
21
160.075011
31
0.0
0
LINE
8
0
10
50.689790
20
170.275011
30
0.0
11
50.689790
21
172.144250
31
0.0
0
LINE
8
0
10
35.690724
20
115.075763
30
0.0
11
35.540720
21
119.575769
31
0.0
0
LINE
8
0
10
35.690714
20
130.075765
30
0.0
11
35.540711
21
134.575770
31
0.0
0
LINE
8
0
10
35.690704
20
145.075766
30
0.0
11
35.540701
21
149.575772
31
0.0
0
LINE
8
0
10
35.690695
20
160.075768
30
0.0
11
35.540691
21
164.575773
31
0.0
0
LINE
8
0
10
35.690685
20
175.075769
30
0.0
11
35.540681
21
179.575775
31
0.0
0
LINE
8
0
10
50.690769
20
160.075825
30
0.0
11
50.540766
21
164.575831
31
0.0
0
LINE
8
0
10
35.539026
20
119.573107
30
0.0
11
35.389028
21
121.973104
31
0.0
0
LINE
8
0
10
35.539031
20
134.573098
30
0.0
11
35.389033
21
136.973095
31
0.0
0
LINE
8
0
10
35.539036
20
149.573089
30
0.0
11
35.389038
21
151.973086
31
0.0
0
LINE
8
0
10
35.539042
20
164.573080
30
0.0
11
35.389043
21
166.973077
31
0.0
0
LINE
8
0
10
35.539047
20
179.573071
30
0.0
11
35.389049
21
181.973068
31
0.0
0
LINE
8
0
10
50.538981
20
164.572936
30
0.0
11
50.388983
21
166.972933
31
0.0
0
ARC
8
0
10
43.053397
20
110.078294
30
0.0
40
1.000000
50
270.000000
51
360.000000
0
LINE
8
0
10
43.053397
20
109.078294
30
0.0
11
33.049771
21
109.078294
31
0.0
0
ARC
8
0
10
33.049771
20
110.078294
30
0.0
40
1.000000
50
180.000000
51
270.000000
0
LINE
8
0
10
32.049771
20
110.078294
30
0.0
11
32.049771
21
187.980720
31
0.0
0
ARC
8
0
10
33.049771
20
187.980720
30
0.0
40
1.000000
50
90.000000
51
180.000000
0
LINE
8
0
10
33.049771
20
188.980720
30
0.0
11
41.889771
21
188.980720
31
0.0
0
ARC
8
0
10
41.889771
20
187.980720
30
0.0
40
1.000000
50
360.000000
51
90.000000
0
LINE
8
0
10
42.889771
20
187.980720
30
0.0
11
42.889771
21
180.138623
31
0.0
0
LINE
8
0
10
42.889771
20
180.138623
30
0.0
11
44.053397
21
180.138623
31
0.0
0
LINE
8
0
10
44.053397
20
180.138623
30
0.0
11
44.053397
21
171.062640
31
0.0
0
LINE
8
0
10
44.053397
20
171.062640
30
0.0
11
52.752982
21
172.480512
31
0.0
0
LINE
8
0
10
52.752982
20
172.480512
30
0.0
11
52.752982
21
159.280122
31
0.0
0
LINE
8
0
10
52.752982
20
159.280122
30
0.0
11
44.053397
21
160.697995
31
0.0
0
LINE
8
0
10
44.053397
20
160.697995
30
0.0
11
44.053397
21
110.078294
31
0.0
0
LINE
8
0
10
44.053397
20
160.697944
30
0.0
11
44.053397
21
151.621976
31
0.0
0
LINE
8
0
10
44.053397
20
151.621976
30
0.0
11
48.053414
21
151.621976
31
0.0
0
LINE
8
0
10
48.053414
20
151.621976
30
0.0
11
48.053414
21
156.063254
31
0.0
0
LINE
8
0
10
48.053414
20
156.063254
30
0.0
11
48.053381
21
156.373681
31
0.0
0
ARC
8
0
10
48.353381
20
156.373712
30
0.0
40
0.300000
50
102.656754
51
180.000000
0
LINE
8
0
10
48.287648
20
156.666423
30
0.0
11
50.353381
21
157.130317
31
0.0
0
LINE
8
0
10
50.353381
20
157.130317
30
0.0
11
50.353381
21
156.551593
31
0.0
0
ARC
8
0
10
50.251833
20
156.379291
30
0.0
40
0.200000
50
360.000000
51
59.486655
0
LINE
8
0
10
50.451785
20
156.383669
30
0.0
11
50.452231
21
156.363323
31
0.0
0
ARC
8
0
10
50.652183
20
156.367701
30
0.0
40
0.200000
50
180.000000
51
270.000000
0
LINE
8
0
10
50.656560
20
156.167749
30
0.0
11
54.830688
21
157.814926
31
0.0
0
ARC
8
0
10
54.352982
20
158.693446
30
0.0
40
1.000000
50
298.535663
51
360.000000
0
LINE
8
0
10
55.352982
20
158.693446
30
0.0
11
55.352982
21
173.067117
31
0.0
0
ARC
8
0
10
54.352982
20
173.067117
30
0.0
40
1.000000
50
360.000000
51
61.464337
0
LINE
8
0
10
54.830688
20
173.945637
30
0.0
11
50.656560
21
175.592814
31
0.0
0
ARC
8
0
10
50.651665
20
175.392874
30
0.0
40
0.200000
50
90.000000
51
180.000000
0
ARC
8
0
10
50.251833
20
175.381272
30
0.0
40
0.200000
50
300.513345
51
360.000000
0
LINE
8
0
10
50.353381
20
175.208969
30
0.0
11
50.353381
21
174.630317
31
0.0
0
LINE
8
0
10
50.353381
20
174.630317
30
0.0
11
48.287648
21
175.094212
31
0.0
0
ARC
8
0
10
48.353381
20
175.386922
30
0.0
40
0.300000
50
180.000000
51
257.343246
0
LINE
8
0
10
48.053381
20
175.386922
30
0.0
11
48.053381
21
180.138587
31
0.0
0
LINE
8
0
10
48.053381
20
180.138587
30
0.0
11
44.053397
21
180.138587
31
0.0
0
LINE
8
0
10
44.053397
20
180.138587
30
0.0
11
44.053397
21
171.062691
31
0.0
0
LINE
8
0
10
44.053397
20
171.062691
30
0.0
11
50.129587
21
172.052999
31
0.0
0
ARC
8
0
10
50.623076
20
172.133429
30
0.0
40
0.500000
50
9.256771
51
189.256771
0
LINE
8
0
10
51.116565
20
172.213858
30
0.0
11
52.882338
21
172.501647
31
0.0
0
ARC
8
0
10
53.002982
20
171.761414
30
0.0
40
0.750000
50
360.000000
51
99.256771
0
LINE
8
0
10
53.752982
20
171.761414
30
0.0
11
53.752982
21
159.999221
31
0.0
0
ARC
8
0
10
53.002982
20
159.999221
30
0.0
40
0.750000
50
260.743229
51
360.000000
0
LINE
8
0
10
52.882338
20
159.258988
30
0.0
11
51.116248
21
159.546828
31
0.0
0
ARC
8
0
10
50.622759
20
159.627258
30
0.0
40
0.500000
50
170.743229
51
350.743229
0
LINE
8
0
10
50.129270
20
159.707688
30
0.0
11
44.053079
21
160.697995
31
0.0
0
ARC
8
0
10
45.653397
20
158.616233
30
0.0
40
0.750000
50
180.000000
51
360.000000
0
ARC
8
0
10
45.653397
20
158.616233
30
0.0
40
0.750000
50
360.000000
51
180.000000
0
ARC
8
0
10
45.653397
20
173.144330
30
0.0
40
0.750000
50
180.000000
51
360.000000
0
ARC
8
0
10
45.653397
20
173.144330
30
0.0
40
0.750000
50
360.000000
51
180.000000
0
ATTDEF
8
0
10
0.000000
20
0.000000
30
0.0
40
3.5
1

3

2
PANE_WIDTH:0
70
0
0
ATTDEF
8
0
10
0.000000
20
0.000000
30
0.0
40
3.5
1

3

2
MIN_VETRO:0
70
0
0
ATTDEF
8
0
10
0.000000
20
0.000000
30
0.0
40
3.5
1

3

2
MAX_VETRO:0
70
0
0
ATTDEF
8
0
10
0.000000
20
0.000000
30
0.0
40
3.5
1

3

2
JX:0
70
0
0
ATTDEF
8
0
10
0.000000
20
0.000000
30
0.0
40
3.5
1

3

2
WX:0
70
0
0
ATTDEF
8
0
10
0.000000
20
0.000000
30
0.0
40
3.5
1

3

2
JY:0
70
0
0
ATTDEF
8
0
10
0.000000
20
0.000000
30
0.0
40
3.5
1

3

2
WY:0
70
0
0
ATTDEF
8
0
10
0.000000
20
0.000000
30
0.0
40
3.5
1

3

2
DESC:Marco ventana con salape-Madera ensambla
70
0
0
ATTDEF
8
0
10
0.000000
20
0.000000
30
0.0
40
3.5
1

3

2
DENS:1.5123
70
0
0
ATTDEF
8
0
10
0.000000
20
0.000000
30
0.0
40
3.5
1

3

2
TDEV:62.34
70
0
0
ATTDEF
8
0
10
0.000000
20
0.000000
30
0.0
40
3.5
1

3

2
TDEV2:0
70
0
0
ATTDEF
8
0
10
0.000000
20
0.000000
30
0.0
40
3.5
1

3

2
TDEV3:0
70
0
0
ATTDEF
8
0
10
0.000000
20
0.000000
30
0.0
40
3.5
1

3

2
TDEV4:0
70
0
0
ATTDEF
8
0
10
0.000000
20
0.000000
30
0.0
40
3.5
1

3

2
TDEV5:0
70
0
0
ATTDEF
8
0
10
0.000000
20
0.000000
30
0.0
40
3.5
1

3

2
PANE_WIDTH:0
70
0
0
ATTDEF
8
0
10
0.000000
20
0.000000
30
0.0
40
3.5
1

3

2
MIN_VETRO:0
70
0
0
ATTDEF
8
0
10
0.000000
20
0.000000
30
0.0
40
3.5
1

3

2
MAX_VETRO:0
70
0
0
ATTDEF
8
0
10
0.000000
20
0.000000
30
0.0
40
3.5
1

3

2
JX:0
70
0
0
ATTDEF
8
0
10
0.000000
20
0.000000
30
0.0
40
3.5
1

3

2
WX:0
70
0
0
ATTDEF
8
0
10
0.000000
20
0.000000
30
0.0
40
3.5
1

3

2
JY:0
70
0
0
ATTDEF
8
0
10
0.000000
20
0.000000
30
0.0
40
3.5
1

3

2
WY:0
70
0
0
ATTDEF
8
0
10
68.386830
20
188.730720
30
0.0
40
3.5
1

3

2
VC_START
70
0
0
ATTDEF
8
0
10
97.115297
20
149.080317
30
0.0
40
3.5
1

3

2
VC_END
70
0
0
ATTDEF
8
0
10
98.453381
20
109.078294
30
0.0
40
3.5
1

3

2
FP_LCS_ORIG
70
0
0
ATTDEF
8
0
10
88.453381
20
109.078294
30
0.0
40
3.5
1

3

2
FP_LCS_HOT
70
0
0
ATTDEF
8
0
10
98.453381
20
119.078294
30
0.0
40
3.5
1

3

2
FP_LCS_INTERN
70
0
0
ENDSEC
0
EOF
