0
SECTION
2
ENTITIES
0
LINE
8
0
10
1852.285038
20
1188.693827
30
0.0
11
1853.071421
21
1189.125067
31
0.0
0
ARC
8
0
10
1852.188872
20
1188.869189
30
0.0
40
0.200000
50
180.000000
51
298.739713
0
LINE
8
0
10
1851.988872
20
1189.500597
30
0.0
11
1851.988872
21
1188.869189
31
0.0
0
ARC
8
0
10
1852.188872
20
1189.500597
30
0.0
40
0.200000
50
118.739713
51
180.000000
0
LINE
8
0
10
1853.456086
20
1190.423617
30
0.0
11
1852.092706
21
1189.675959
31
0.0
0
ARC
8
0
10
1853.263753
20
1190.774342
30
0.0
40
0.400000
50
298.739713
51
118.739713
0
LINE
8
0
10
1852.285038
20
1190.693827
30
0.0
11
1853.071421
21
1191.125067
31
0.0
0
ARC
8
0
10
1852.188872
20
1190.869189
30
0.0
40
0.200000
50
180.000000
51
298.739713
0
LINE
8
0
10
1851.988872
20
1191.500597
30
0.0
11
1851.988872
21
1190.869189
31
0.0
0
ARC
8
0
10
1852.188872
20
1191.500597
30
0.0
40
0.200000
50
118.739713
51
180.000000
0
LINE
8
0
10
1853.456086
20
1192.423617
30
0.0
11
1852.092706
21
1191.675959
31
0.0
0
ARC
8
0
10
1853.263753
20
1192.774342
30
0.0
40
0.400000
50
298.739713
51
118.739713
0
LINE
8
0
10
1852.285038
20
1192.693827
30
0.0
11
1853.071421
21
1193.125067
31
0.0
0
ARC
8
0
10
1852.188872
20
1192.869189
30
0.0
40
0.200000
50
180.000000
51
298.739713
0
LINE
8
0
10
1851.988872
20
1197.845030
30
0.0
11
1851.988872
21
1192.869189
31
0.0
0
ARC
8
0
10
1852.288872
20
1197.845030
30
0.0
40
0.300000
50
150.553604
51
180.000000
0
LINE
8
0
10
1853.445779
20
1200.504568
30
0.0
11
1852.027627
21
1197.992513
31
0.0
0
ARC
8
0
10
1853.249968
20
1200.545290
30
0.0
40
0.200000
50
348.251797
51
130.179234
0
LINE
8
0
10
1849.492416
20
1197.730905
30
0.0
11
1853.120932
21
1200.698096
31
0.0
0
ARC
8
0
10
1849.682326
20
1197.498668
30
0.0
40
0.300000
50
129.274319
51
180.000000
0
LINE
8
0
10
1849.382326
20
1197.412320
30
0.0
11
1849.382326
21
1197.498668
31
0.0
0
ARC
8
0
10
1849.482326
20
1197.412320
30
0.0
40
0.100000
50
180.000000
51
270.000000
0
LINE
8
0
10
1850.888872
20
1197.443264
30
0.0
11
1849.482326
21
1197.312320
31
0.0
0
ARC
8
0
10
1850.888872
20
1197.243264
30
0.0
40
0.200000
50
360.000000
51
90.000000
0
LINE
8
0
10
1851.088872
20
1193.489309
30
0.0
11
1851.088872
21
1197.243264
31
0.0
0
ARC
8
0
10
1850.838872
20
1193.489309
30
0.0
40
0.250000
50
270.000000
51
360.000000
0
LINE
8
0
10
1850.788872
20
1193.239309
30
0.0
11
1850.838872
21
1193.239309
31
0.0
0
LINE
8
0
10
1850.788872
20
1187.533979
30
0.0
11
1850.788872
21
1193.239309
31
0.0
0
LINE
8
0
10
1851.833799
20
1187.533979
30
0.0
11
1850.788872
21
1187.533979
31
0.0
0
LINE
8
0
10
1853.456086
20
1188.423617
30
0.0
11
1851.833799
21
1187.533979
31
0.0
0
ARC
8
0
10
1853.263753
20
1188.774342
30
0.0
40
0.400000
50
298.739713
51
118.739713
0
ARC
8
0
10
1838.853162
20
1179.696400
30
0.0
40
0.500000
50
270.000000
51
338.275973
0
LINE
8
0
10
1839.317651
20
1179.511332
30
0.0
11
1840.234868
21
1181.813385
31
0.0
0
ARC
8
0
10
1839.770379
20
1181.998453
30
0.0
40
0.500000
50
338.275973
51
90.000000
0
LINE
8
0
10
1839.770379
20
1182.498453
30
0.0
11
1827.738872
21
1182.498453
31
0.0
0
ARC
8
0
10
1827.738872
20
1181.998453
30
0.0
40
0.500000
50
90.000000
51
180.000000
0
LINE
8
0
10
1827.238872
20
1181.998453
30
0.0
11
1827.238872
21
1179.696400
31
0.0
0
ARC
8
0
10
1827.738872
20
1179.696400
30
0.0
40
0.500000
50
180.000000
51
270.000000
0
LINE
8
0
10
1827.738872
20
1179.196400
30
0.0
11
1838.853162
21
1179.196400
31
0.0
0
LINE
8
0
10
1837.614124
20
1171.597254
30
0.0
11
1837.635916
21
1171.846332
31
0.0
0
ARC
8
0
10
1837.137819
20
1171.889910
30
0.0
40
0.500000
50
355.000000
51
85.619708
0
LINE
8
0
10
1837.176007
20
1172.388450
30
0.0
11
1836.537103
21
1172.444346
31
0.0
0
ARC
8
0
10
1836.387673
20
1172.457420
30
0.0
40
0.150000
50
90.000000
51
355.000000
0
LINE
8
0
10
1836.387729
20
1172.607420
30
0.0
11
1836.388009
21
1173.294346
31
0.0
0
ARC
8
0
10
1836.388009
20
1173.444346
30
0.0
40
0.150000
50
45.000000
51
270.000000
0
LINE
8
0
10
1836.494075
20
1173.550412
30
0.0
11
1837.282111
21
1174.338448
31
0.0
0
ARC
8
0
10
1837.388345
20
1174.444346
30
0.0
40
0.150000
50
360.000000
51
224.909367
0
LINE
8
0
10
1837.538345
20
1174.444346
30
0.0
11
1838.305347
21
1174.444346
31
0.0
0
ARC
8
0
10
1838.305347
20
1174.944346
30
0.0
40
0.500000
50
270.000000
51
338.275973
0
LINE
8
0
10
1838.769836
20
1174.759278
30
0.0
11
1841.237889
21
1180.953658
31
0.0
0
ARC
8
0
10
1842.631355
20
1180.398453
30
0.0
40
1.500000
50
90.000000
51
158.275973
0
LINE
8
0
10
1842.631355
20
1181.898453
30
0.0
11
1850.288872
21
1181.898453
31
0.0
0
ARC
8
0
10
1850.288872
20
1182.398453
30
0.0
40
0.500000
50
270.000000
51
360.000000
0
LINE
8
0
10
1850.788872
20
1182.398453
30
0.0
11
1850.788872
21
1193.739298
31
0.0
0
LINE
8
0
10
1850.788872
20
1193.739298
30
0.0
11
1849.188872
21
1193.739298
31
0.0
0
LINE
8
0
10
1849.188872
20
1193.739298
30
0.0
11
1849.188872
21
1192.198453
31
0.0
0
ARC
8
0
10
1848.188872
20
1192.198453
30
0.0
40
1.000000
50
270.000000
51
360.000000
0
LINE
8
0
10
1848.188872
20
1191.198453
30
0.0
11
1847.463322
21
1191.198453
31
0.0
0
ARC
8
0
10
1846.972229
20
1192.352289
30
0.0
40
1.253997
50
246.944557
51
293.055443
0
LINE
8
0
10
1846.481137
20
1191.198453
30
0.0
11
1844.621057
21
1191.198453
31
0.0
0
ARC
8
0
10
1844.129964
20
1192.352289
30
0.0
40
1.253997
50
246.944557
51
293.055443
0
LINE
8
0
10
1843.638872
20
1191.198453
30
0.0
11
1843.488872
21
1190.938645
31
0.0
0
LINE
8
0
10
1843.488872
20
1190.938645
30
0.0
11
1843.488872
21
1189.858261
31
0.0
0
LINE
8
0
10
1843.488872
20
1189.858261
30
0.0
11
1843.638872
21
1189.598453
31
0.0
0
ARC
8
0
10
1844.129964
20
1188.444617
30
0.0
40
1.253997
50
66.944557
51
113.055443
0
LINE
8
0
10
1844.621057
20
1189.598453
30
0.0
11
1846.481137
21
1189.598453
31
0.0
0
ARC
8
0
10
1846.972229
20
1188.444617
30
0.0
40
1.253997
50
66.944557
51
113.055443
0
LINE
8
0
10
1847.463322
20
1189.598453
30
0.0
11
1848.188872
21
1189.598453
31
0.0
0
ARC
8
0
10
1848.188872
20
1188.598453
30
0.0
40
1.000000
50
360.000000
51
90.000000
0
LINE
8
0
10
1849.188872
20
1188.598453
30
0.0
11
1849.188872
21
1183.898453
31
0.0
0
LINE
8
0
10
1849.188872
20
1183.898453
30
0.0
11
1819.221715
21
1183.898453
31
0.0
0
ARC
8
0
10
1819.221715
20
1183.298453
30
0.0
40
0.600000
50
90.000000
51
135.000000
0
LINE
8
0
10
1818.797451
20
1183.722717
30
0.0
11
1818.656029
21
1183.581296
31
0.0
0
ARC
8
0
10
1818.938872
20
1183.298453
30
0.0
40
0.400000
50
135.000000
51
225.000000
0
LINE
8
0
10
1818.656029
20
1183.015610
30
0.0
11
1818.973187
21
1182.698453
31
0.0
0
LINE
8
0
10
1818.973187
20
1182.698453
30
0.0
11
1824.838872
21
1182.698453
31
0.0
0
ARC
8
0
10
1824.838872
20
1181.698453
30
0.0
40
1.000000
50
360.000000
51
90.000000
0
LINE
8
0
10
1825.838872
20
1181.698453
30
0.0
11
1825.838872
21
1175.748079
31
0.0
0
LINE
8
0
10
1825.838872
20
1175.748079
30
0.0
11
1825.039142
21
1175.748079
31
0.0
0
LINE
8
0
10
1825.039142
20
1175.748079
30
0.0
11
1825.026146
21
1176.247910
31
0.0
0
LINE
8
0
10
1825.026146
20
1176.247910
30
0.0
11
1823.539649
21
1175.709091
31
0.0
0
LINE
8
0
10
1823.539649
20
1175.709091
30
0.0
11
1823.526653
21
1176.208922
31
0.0
0
LINE
8
0
10
1823.526653
20
1176.208922
30
0.0
11
1822.040156
21
1175.670102
31
0.0
0
LINE
8
0
10
1822.040156
20
1175.670102
30
0.0
11
1822.027160
21
1176.169933
31
0.0
0
LINE
8
0
10
1822.027160
20
1176.169933
30
0.0
11
1820.540663
21
1175.631114
31
0.0
0
LINE
8
0
10
1820.540663
20
1175.631114
30
0.0
11
1820.527666
21
1176.130945
31
0.0
0
LINE
8
0
10
1820.527666
20
1176.130945
30
0.0
11
1818.916173
21
1174.989129
31
0.0
0
ARC
8
0
10
1819.089612
20
1174.744346
30
0.0
40
0.300000
50
125.319281
51
270.000000
0
LINE
8
0
10
1819.089612
20
1174.444346
30
0.0
11
1821.238009
21
1174.444346
31
0.0
0
ARC
8
0
10
1821.388009
20
1174.444346
30
0.0
40
0.150000
50
315.000000
51
180.000000
0
LINE
8
0
10
1821.494075
20
1174.338280
30
0.0
11
1822.281943
21
1173.550412
31
0.0
0
ARC
8
0
10
1822.388009
20
1173.444346
30
0.0
40
0.150000
50
270.000000
51
135.000000
0
LINE
8
0
10
1822.388009
20
1173.294346
30
0.0
11
1822.388009
21
1172.394346
31
0.0
0
LINE
8
0
10
1822.388009
20
1172.394346
30
0.0
11
1821.888009
21
1171.894346
31
0.0
0
LINE
8
0
10
1821.888009
20
1171.894346
30
0.0
11
1822.936752
21
1170.396587
31
0.0
0
ARC
8
0
10
1823.346328
20
1170.683375
30
0.0
40
0.500000
50
215.000000
51
35.000000
0
LINE
8
0
10
1823.755904
20
1170.970163
30
0.0
11
1823.478433
21
1171.366432
31
0.0
0
ARC
8
0
10
1823.888009
20
1171.653221
30
0.0
40
0.500000
50
180.000000
51
215.000000
0
LINE
8
0
10
1823.388009
20
1171.653221
30
0.0
11
1823.388009
21
1174.444346
31
0.0
0
LINE
8
0
10
1823.388009
20
1174.444346
30
0.0
11
1826.588872
21
1174.444346
31
0.0
0
ARC
8
0
10
1826.588872
20
1174.944346
30
0.0
40
0.500000
50
270.000000
51
360.000000
0
LINE
8
0
10
1827.088872
20
1174.944346
30
0.0
11
1827.088872
21
1177.296400
31
0.0
0
ARC
8
0
10
1827.588872
20
1177.296400
30
0.0
40
0.500000
50
90.000000
51
180.000000
0
LINE
8
0
10
1827.588872
20
1177.796400
30
0.0
11
1837.896920
21
1177.796400
31
0.0
0
ARC
8
0
10
1837.896920
20
1177.296400
30
0.0
40
0.500000
50
338.275973
51
90.000000
0
LINE
8
0
10
1838.361409
20
1177.111332
30
0.0
11
1837.922313
21
1176.009278
31
0.0
0
ARC
8
0
10
1837.457825
20
1176.194346
30
0.0
40
0.500000
50
270.000000
51
338.275973
0
LINE
8
0
10
1837.457825
20
1175.694346
30
0.0
11
1837.077349
21
1175.694346
31
0.0
0
ARC
8
0
10
1837.077349
20
1175.194346
30
0.0
40
0.500000
50
90.000000
51
135.000000
0
LINE
8
0
10
1836.723795
20
1175.547900
30
0.0
11
1835.284560
21
1174.108664
31
0.0
0
ARC
8
0
10
1835.638113
20
1173.755111
30
0.0
40
0.500000
50
135.000000
51
180.000000
0
LINE
8
0
10
1835.138113
20
1173.755279
30
0.0
11
1835.137443
21
1171.770359
31
0.0
0
ARC
8
0
10
1835.637443
20
1171.770192
30
0.0
40
0.500000
50
180.000000
51
265.000000
0
LINE
8
0
10
1835.593865
20
1171.272094
30
0.0
11
1837.072449
21
1171.142735
31
0.0
0
ARC
8
0
10
1837.116027
20
1171.640832
30
0.0
40
0.500000
50
265.000000
51
355.000000
0
ARC
8
0
10
1847.463322
20
1191.298453
30
0.0
40
0.100000
50
158.416622
51
270.000000
0
LINE
8
0
10
1847.370334
20
1191.335238
30
0.0
11
1847.751518
21
1192.298818
31
0.0
0
ARC
8
0
10
1847.535012
20
1192.423818
30
0.0
40
0.250000
50
330.000000
51
150.000000
0
LINE
8
0
10
1847.318506
20
1192.548818
30
0.0
11
1846.567739
21
1191.248453
31
0.0
0
LINE
8
0
10
1846.481137
20
1191.198453
30
0.0
11
1846.567740
21
1191.248453
31
0.0
0
ARC
8
0
10
1846.972229
20
1192.352289
30
0.0
40
1.253997
50
246.944557
51
293.055443
0
ARC
8
0
10
1844.621057
20
1191.298453
30
0.0
40
0.100000
50
158.416622
51
270.000000
0
LINE
8
0
10
1844.528069
20
1191.335238
30
0.0
11
1844.909253
21
1192.298818
31
0.0
0
ARC
8
0
10
1844.692747
20
1192.423818
30
0.0
40
0.250000
50
330.000000
51
150.000000
0
LINE
8
0
10
1844.476241
20
1192.548818
30
0.0
11
1843.725474
21
1191.248453
31
0.0
0
LINE
8
0
10
1843.638872
20
1191.198453
30
0.0
11
1843.725475
21
1191.248453
31
0.0
0
ARC
8
0
10
1844.129964
20
1192.352289
30
0.0
40
1.253997
50
246.944557
51
293.055443
0
ARC
8
0
10
1847.463322
20
1189.498453
30
0.0
40
0.100000
50
90.000000
51
201.583378
0
LINE
8
0
10
1847.370334
20
1189.461668
30
0.0
11
1847.751518
21
1188.498088
31
0.0
0
ARC
8
0
10
1847.535012
20
1188.373088
30
0.0
40
0.250000
50
210.000000
51
30.000000
0
LINE
8
0
10
1847.318506
20
1188.248088
30
0.0
11
1846.567739
21
1189.548453
31
0.0
0
LINE
8
0
10
1846.567740
20
1189.548453
30
0.0
11
1846.481137
21
1189.598453
31
0.0
0
ARC
8
0
10
1846.972229
20
1188.444617
30
0.0
40
1.253997
50
66.944557
51
113.055443
0
ARC
8
0
10
1844.621057
20
1189.498453
30
0.0
40
0.100000
50
90.000000
51
201.583378
0
LINE
8
0
10
1844.528069
20
1189.461668
30
0.0
11
1844.909253
21
1188.498088
31
0.0
0
ARC
8
0
10
1844.692747
20
1188.373088
30
0.0
40
0.250000
50
210.000000
51
30.000000
0
LINE
8
0
10
1844.476241
20
1188.248088
30
0.0
11
1843.725474
21
1189.548453
31
0.0
0
LINE
8
0
10
1843.725475
20
1189.548453
30
0.0
11
1843.638872
21
1189.598453
31
0.0
0
ARC
8
0
10
1844.129964
20
1188.444617
30
0.0
40
1.253997
50
66.944557
51
113.055443
0
LINE
8
0
10
1818.973187
20
1182.709990
30
0.0
11
1820.387400
21
1182.709990
31
0.0
0
LINE
8
0
10
1822.089051
20
1179.594126
30
0.0
11
1818.973187
21
1182.709990
31
0.0
0
ARC
8
0
10
1822.336538
20
1179.841613
30
0.0
40
0.350000
50
225.000000
51
39.989525
0
LINE
8
0
10
1820.387400
20
1182.709990
30
0.0
11
1822.604695
21
1180.066540
31
0.0
0
ATTDEF
8
0
10
0.000000
20
0.000000
30
0.0
40
3.5
1

3

2
PANE_WIDTH:0
70
0
0
ATTDEF
8
0
10
0.000000
20
0.000000
30
0.0
40
3.5
1

3

2
MIN_VETRO:0
70
0
0
ATTDEF
8
0
10
0.000000
20
0.000000
30
0.0
40
3.5
1

3

2
MAX_VETRO:0
70
0
0
ATTDEF
8
0
10
0.000000
20
0.000000
30
0.0
40
3.5
1

3

2
JX:0
70
0
0
ATTDEF
8
0
10
0.000000
20
0.000000
30
0.0
40
3.5
1

3

2
WX:0
70
0
0
ATTDEF
8
0
10
0.000000
20
0.000000
30
0.0
40
3.5
1

3

2
JY:0
70
0
0
ATTDEF
8
0
10
0.000000
20
0.000000
30
0.0
40
3.5
1

3

2
WY:0
70
0
0
ATTDEF
8
0
10
0.000000
20
0.000000
30
0.0
40
3.5
1

3

2
DESC:Grapa PVC p/junquillo 48mm.
70
0
0
ATTDEF
8
0
10
0.000000
20
0.000000
30
0.0
40
3.5
1

3

2
DENS:0
70
0
0
ATTDEF
8
0
10
0.000000
20
0.000000
30
0.0
40
3.5
1

3

2
TDEV:0
70
0
0
ATTDEF
8
0
10
0.000000
20
0.000000
30
0.0
40
3.5
1

3

2
TDEV2:0
70
0
0
ATTDEF
8
0
10
0.000000
20
0.000000
30
0.0
40
3.5
1

3

2
TDEV3:0
70
0
0
ATTDEF
8
0
10
0.000000
20
0.000000
30
0.0
40
3.5
1

3

2
TDEV4:0
70
0
0
ATTDEF
8
0
10
0.000000
20
0.000000
30
0.0
40
3.5
1

3

2
TDEV5:0
70
0
0
ATTDEF
8
0
10
0.000000
20
0.000000
30
0.0
40
3.5
1

3

2
PANE_WIDTH:0
70
0
0
ATTDEF
8
0
10
0.000000
20
0.000000
30
0.0
40
3.5
1

3

2
MIN_VETRO:0
70
0
0
ATTDEF
8
0
10
0.000000
20
0.000000
30
0.0
40
3.5
1

3

2
MAX_VETRO:0
70
0
0
ATTDEF
8
0
10
0.000000
20
0.000000
30
0.0
40
3.5
1

3

2
JX:0
70
0
0
ATTDEF
8
0
10
0.000000
20
0.000000
30
0.0
40
3.5
1

3

2
WX:0
70
0
0
ATTDEF
8
0
10
0.000000
20
0.000000
30
0.0
40
3.5
1

3

2
JY:0
70
0
0
ATTDEF
8
0
10
0.000000
20
0.000000
30
0.0
40
3.5
1

3

2
WY:0
70
0
0
ATTDEF
8
0
10
1819.221715
20
1183.898453
30
0.0
40
3.5
1

3

2
VC_START
70
0
0
ATTDEF
8
0
10
1820.163810
20
1174.444346
30
0.0
40
3.5
1

3

2
VC_END
70
0
0
ATTDEF
8
0
10
1818.538872
20
1170.183375
30
0.0
40
3.5
1

3

2
FP_LCS_ORIG
70
0
0
ATTDEF
8
0
10
1828.538872
20
1170.183375
30
0.0
40
3.5
1

3

2
FP_LCS_HOT
70
0
0
ATTDEF
8
0
10
1818.538872
20
1180.183375
30
0.0
40
3.5
1

3

2
FP_LCS_INTERN
70
0
0
ENDSEC
0
EOF
