0
SECTION
2
ENTITIES
0
ARC
8
0
10
13852.642896
20
4150.094793
30
0.0
40
0.500000
50
180.000000
51
270.000000
0
LINE
8
0
10
13852.642896
20
4149.594793
30
0.0
11
13854.642896
21
4149.594793
31
0.0
0
ARC
8
0
10
13854.642896
20
4150.094793
30
0.0
40
0.500000
50
270.000000
51
360.000000
0
LINE
8
0
10
13855.142896
20
4150.094793
30
0.0
11
13855.142896
21
4150.294793
31
0.0
0
ARC
8
0
10
13854.642896
20
4150.294793
30
0.0
40
0.500000
50
360.000000
51
90.000000
0
LINE
8
0
10
13854.642896
20
4150.794793
30
0.0
11
13853.642896
21
4150.794793
31
0.0
0
LINE
8
0
10
13853.642896
20
4150.794793
30
0.0
11
13853.642896
21
4152.094793
31
0.0
0
LINE
8
0
10
13853.642896
20
4152.094793
30
0.0
11
13860.642896
21
4152.094793
31
0.0
0
LINE
8
0
10
13860.642896
20
4152.094793
30
0.0
11
13860.642896
21
4150.794793
31
0.0
0
LINE
8
0
10
13860.642896
20
4150.794793
30
0.0
11
13859.642896
21
4150.794793
31
0.0
0
ARC
8
0
10
13859.642896
20
4150.294793
30
0.0
40
0.500000
50
90.000000
51
180.000000
0
LINE
8
0
10
13859.142896
20
4150.294793
30
0.0
11
13859.142896
21
4150.094793
31
0.0
0
ARC
8
0
10
13859.642896
20
4150.094793
30
0.0
40
0.500000
50
180.000000
51
270.000000
0
LINE
8
0
10
13859.642896
20
4149.594793
30
0.0
11
13861.642896
21
4149.594793
31
0.0
0
ARC
8
0
10
13861.642896
20
4150.094793
30
0.0
40
0.500000
50
270.000000
51
360.000000
0
LINE
8
0
10
13862.142896
20
4150.094793
30
0.0
11
13862.142896
21
4152.094793
31
0.0
0
LINE
8
0
10
13862.142896
20
4152.094793
30
0.0
11
13877.392896
21
4152.094793
31
0.0
0
ARC
8
0
10
13877.392896
20
4150.094793
30
0.0
40
2.000000
50
360.000000
51
90.000000
0
LINE
8
0
10
13879.392896
20
4150.094793
30
0.0
11
13879.392896
21
4144.161041
31
0.0
0
ARC
8
0
10
13880.142896
20
4140.844793
30
0.0
40
3.400000
50
102.743585
51
257.256415
0
LINE
8
0
10
13879.392896
20
4137.528545
30
0.0
11
13879.392896
21
4129.594793
31
0.0
0
LINE
8
0
10
13879.392896
20
4129.594793
30
0.0
11
13872.142896
21
4129.594793
31
0.0
0
LINE
8
0
10
13872.142896
20
4129.594793
30
0.0
11
13872.142896
21
4127.094793
31
0.0
0
LINE
8
0
10
13872.142896
20
4127.094793
30
0.0
11
13873.142896
21
4126.094793
31
0.0
0
LINE
8
0
10
13873.142896
20
4126.094793
30
0.0
11
13874.142896
21
4126.094793
31
0.0
0
LINE
8
0
10
13874.142896
20
4126.094793
30
0.0
11
13874.142896
21
4128.094793
31
0.0
0
LINE
8
0
10
13874.142896
20
4128.094793
30
0.0
11
13877.142896
21
4128.094793
31
0.0
0
LINE
8
0
10
13877.142896
20
4128.094793
30
0.0
11
13877.142896
21
4126.094793
31
0.0
0
LINE
8
0
10
13877.142896
20
4126.094793
30
0.0
11
13879.392896
21
4126.094793
31
0.0
0
LINE
8
0
10
13879.392896
20
4126.094793
30
0.0
11
13879.392896
21
4123.911041
31
0.0
0
ARC
8
0
10
13880.142896
20
4120.594793
30
0.0
40
3.400000
50
102.743585
51
139.167783
0
ARC
8
0
10
13878.137833
20
4122.327486
30
0.0
40
0.750000
50
139.167783
51
319.167783
0
ARC
8
0
10
13880.142896
20
4120.594793
30
0.0
40
1.900000
50
220.832217
51
139.167783
0
ARC
8
0
10
13878.137833
20
4118.862101
30
0.0
40
0.750000
50
40.832217
51
220.832217
0
ARC
8
0
10
13880.142896
20
4120.594793
30
0.0
40
3.400000
50
220.832217
51
257.256415
0
LINE
8
0
10
13879.392896
20
4117.278545
30
0.0
11
13879.392896
21
4112.094793
31
0.0
0
LINE
8
0
10
13879.392896
20
4112.094793
30
0.0
11
13877.142896
21
4112.094793
31
0.0
0
LINE
8
0
10
13877.142896
20
4112.094793
30
0.0
11
13877.142896
21
4110.094793
31
0.0
0
LINE
8
0
10
13877.142896
20
4110.094793
30
0.0
11
13874.142896
21
4110.094793
31
0.0
0
LINE
8
0
10
13874.142896
20
4110.094793
30
0.0
11
13874.142896
21
4112.094793
31
0.0
0
LINE
8
0
10
13874.142896
20
4112.094793
30
0.0
11
13873.142896
21
4112.094793
31
0.0
0
LINE
8
0
10
13873.142896
20
4112.094793
30
0.0
11
13872.142896
21
4111.094793
31
0.0
0
LINE
8
0
10
13872.142896
20
4111.094793
30
0.0
11
13872.142896
21
4108.594793
31
0.0
0
LINE
8
0
10
13872.142896
20
4108.594793
30
0.0
11
13888.142896
21
4108.594793
31
0.0
0
LINE
8
0
10
13888.142896
20
4108.594793
30
0.0
11
13888.142896
21
4111.094793
31
0.0
0
LINE
8
0
10
13888.142896
20
4111.094793
30
0.0
11
13887.142896
21
4112.094793
31
0.0
0
LINE
8
0
10
13887.142896
20
4112.094793
30
0.0
11
13886.142896
21
4112.094793
31
0.0
0
LINE
8
0
10
13886.142896
20
4112.094793
30
0.0
11
13886.142896
21
4110.094793
31
0.0
0
LINE
8
0
10
13886.142896
20
4110.094793
30
0.0
11
13883.142896
21
4110.094793
31
0.0
0
LINE
8
0
10
13883.142896
20
4110.094793
30
0.0
11
13883.142896
21
4112.094793
31
0.0
0
LINE
8
0
10
13883.142896
20
4112.094793
30
0.0
11
13880.892896
21
4112.094793
31
0.0
0
LINE
8
0
10
13880.892896
20
4112.094793
30
0.0
11
13880.892896
21
4117.278545
31
0.0
0
ARC
8
0
10
13880.142896
20
4120.594793
30
0.0
40
3.400000
50
282.743585
51
77.256415
0
LINE
8
0
10
13880.892896
20
4123.911041
30
0.0
11
13880.892896
21
4126.094793
31
0.0
0
LINE
8
0
10
13880.892896
20
4126.094793
30
0.0
11
13883.142896
21
4126.094793
31
0.0
0
LINE
8
0
10
13883.142896
20
4126.094793
30
0.0
11
13883.142896
21
4128.094793
31
0.0
0
LINE
8
0
10
13883.142896
20
4128.094793
30
0.0
11
13886.142896
21
4128.094793
31
0.0
0
LINE
8
0
10
13886.142896
20
4128.094793
30
0.0
11
13886.142896
21
4126.094793
31
0.0
0
LINE
8
0
10
13886.142896
20
4126.094793
30
0.0
11
13887.142896
21
4126.094793
31
0.0
0
LINE
8
0
10
13887.142896
20
4126.094793
30
0.0
11
13888.142896
21
4127.094793
31
0.0
0
LINE
8
0
10
13888.142896
20
4127.094793
30
0.0
11
13888.142896
21
4129.594793
31
0.0
0
LINE
8
0
10
13888.142896
20
4129.594793
30
0.0
11
13880.892896
21
4129.594793
31
0.0
0
LINE
8
0
10
13880.892896
20
4129.594793
30
0.0
11
13880.892896
21
4137.528545
31
0.0
0
ARC
8
0
10
13880.142896
20
4140.844793
30
0.0
40
3.400000
50
282.743585
51
319.167783
0
ARC
8
0
10
13882.147959
20
4139.112101
30
0.0
40
0.750000
50
319.167783
51
139.167783
0
ARC
8
0
10
13880.142896
20
4140.844793
30
0.0
40
1.900000
50
40.832217
51
319.167783
0
ARC
8
0
10
13882.147959
20
4142.577486
30
0.0
40
0.750000
50
220.832217
51
40.832217
0
ARC
8
0
10
13880.142896
20
4140.844793
30
0.0
40
3.400000
50
40.832217
51
77.256415
0
LINE
8
0
10
13880.892896
20
4144.161041
30
0.0
11
13880.892896
21
4150.094793
31
0.0
0
ARC
8
0
10
13882.892896
20
4150.094793
30
0.0
40
2.000000
50
90.000000
51
180.000000
0
LINE
8
0
10
13882.892896
20
4152.094793
30
0.0
11
13898.142896
21
4152.094793
31
0.0
0
LINE
8
0
10
13898.142896
20
4152.094793
30
0.0
11
13898.142896
21
4150.094793
31
0.0
0
ARC
8
0
10
13898.642896
20
4150.094793
30
0.0
40
0.500000
50
180.000000
51
270.000000
0
LINE
8
0
10
13898.642896
20
4149.594793
30
0.0
11
13900.642896
21
4149.594793
31
0.0
0
ARC
8
0
10
13900.642896
20
4150.094793
30
0.0
40
0.500000
50
270.000000
51
360.000000
0
LINE
8
0
10
13901.142896
20
4150.094793
30
0.0
11
13901.142896
21
4150.294793
31
0.0
0
ARC
8
0
10
13900.642896
20
4150.294793
30
0.0
40
0.500000
50
360.000000
51
90.000000
0
LINE
8
0
10
13900.642896
20
4150.794793
30
0.0
11
13899.642896
21
4150.794793
31
0.0
0
LINE
8
0
10
13899.642896
20
4150.794793
30
0.0
11
13899.642896
21
4152.094793
31
0.0
0
LINE
8
0
10
13899.642896
20
4152.094793
30
0.0
11
13906.642896
21
4152.094793
31
0.0
0
LINE
8
0
10
13906.642896
20
4152.094793
30
0.0
11
13906.642896
21
4150.794793
31
0.0
0
LINE
8
0
10
13906.642896
20
4150.794793
30
0.0
11
13905.642896
21
4150.794793
31
0.0
0
ARC
8
0
10
13905.642896
20
4150.294793
30
0.0
40
0.500000
50
90.000000
51
180.000000
0
LINE
8
0
10
13905.142896
20
4150.294793
30
0.0
11
13905.142896
21
4150.094793
31
0.0
0
ARC
8
0
10
13905.642896
20
4150.094793
30
0.0
40
0.500000
50
180.000000
51
270.000000
0
LINE
8
0
10
13905.642896
20
4149.594793
30
0.0
11
13907.642896
21
4149.594793
31
0.0
0
ARC
8
0
10
13907.642896
20
4150.094793
30
0.0
40
0.500000
50
270.000000
51
360.000000
0
LINE
8
0
10
13908.142896
20
4150.094793
30
0.0
11
13908.142896
21
4153.094793
31
0.0
0
ARC
8
0
10
13907.642896
20
4153.094793
30
0.0
40
0.500000
50
360.000000
51
90.000000
0
LINE
8
0
10
13907.642896
20
4153.594793
30
0.0
11
13852.642896
21
4153.594793
31
0.0
0
ARC
8
0
10
13852.642896
20
4153.094793
30
0.0
40
0.500000
50
90.000000
51
180.000000
0
LINE
8
0
10
13852.142896
20
4153.094793
30
0.0
11
13852.142896
21
4150.094793
31
0.0
0
ATTDEF
8
0
10
0.000000
20
0.000000
30
0.0
40
3.5
1

3

2
PANE_WIDTH:0
70
0
0
ATTDEF
8
0
10
0.000000
20
0.000000
30
0.0
40
3.5
1

3

2
MIN_VETRO:0
70
0
0
ATTDEF
8
0
10
0.000000
20
0.000000
30
0.0
40
3.5
1

3

2
MAX_VETRO:0
70
0
0
ATTDEF
8
0
10
0.000000
20
0.000000
30
0.0
40
3.5
1

3

2
JX:0
70
0
0
ATTDEF
8
0
10
0.000000
20
0.000000
30
0.0
40
3.5
1

3

2
WX:0
70
0
0
ATTDEF
8
0
10
0.000000
20
0.000000
30
0.0
40
3.5
1

3

2
JY:0
70
0
0
ATTDEF
8
0
10
0.000000
20
0.000000
30
0.0
40
3.5
1

3

2
WY:0
70
0
0
ATTDEF
8
0
10
0.000000
20
0.000000
30
0.0
40
3.5
1

3

2
DESC:Divisor de vidrio
70
0
0
ATTDEF
8
0
10
0.000000
20
0.000000
30
0.0
40
3.5
1

3

2
DENS:0.729
70
0
0
ATTDEF
8
0
10
0.000000
20
0.000000
30
0.0
40
3.5
1

3

2
TDEV:32.93
70
0
0
ATTDEF
8
0
10
0.000000
20
0.000000
30
0.0
40
3.5
1

3

2
TDEV2:0
70
0
0
ATTDEF
8
0
10
0.000000
20
0.000000
30
0.0
40
3.5
1

3

2
TDEV3:0
70
0
0
ATTDEF
8
0
10
0.000000
20
0.000000
30
0.0
40
3.5
1

3

2
TDEV4:0
70
0
0
ATTDEF
8
0
10
0.000000
20
0.000000
30
0.0
40
3.5
1

3

2
TDEV5:0
70
0
0
ATTDEF
8
0
10
0.000000
20
0.000000
30
0.0
40
3.5
1

3

2
PANE_WIDTH:0
70
0
0
ATTDEF
8
0
10
0.000000
20
0.000000
30
0.0
40
3.5
1

3

2
MIN_VETRO:0
70
0
0
ATTDEF
8
0
10
0.000000
20
0.000000
30
0.0
40
3.5
1

3

2
MAX_VETRO:0
70
0
0
ATTDEF
8
0
10
0.000000
20
0.000000
30
0.0
40
3.5
1

3

2
JX:0
70
0
0
ATTDEF
8
0
10
0.000000
20
0.000000
30
0.0
40
3.5
1

3

2
WX:0
70
0
0
ATTDEF
8
0
10
0.000000
20
0.000000
30
0.0
40
3.5
1

3

2
JY:0
70
0
0
ATTDEF
8
0
10
0.000000
20
0.000000
30
0.0
40
3.5
1

3

2
WY:0
70
0
0
ATTDEF
8
0
10
13888.142896
20
4108.594793
30
0.0
40
3.5
1

3

2
HC_START
70
0
0
ATTDEF
8
0
10
13872.142896
20
4108.594793
30
0.0
40
3.5
1

3

2
HC_END
70
0
0
ATTDEF
8
0
10
13852.142896
20
4153.594793
30
0.0
40
3.5
1

3

2
FP_LCS_ORIG
70
0
0
ATTDEF
8
0
10
13852.142896
20
4143.594793
30
0.0
40
3.5
1

3

2
FP_LCS_HOT
70
0
0
ATTDEF
8
0
10
13862.142896
20
4153.594793
30
0.0
40
3.5
1

3

2
FP_LCS_INTERN
70
0
0
ENDSEC
0
EOF
