0
SECTION
2
ENTITIES
0
LINE
8
00_ALUMINIO
10
66.621275
20
38.449615
30
0.0
11
66.621275
21
37.749615
31
0.0
0
ARC
8
00_ALUMINIO
10
66.921275
20
37.749615
30
0.0
40
0.300000
50
180.000000
51
270.000000
0
LINE
8
00_ALUMINIO
10
66.921275
20
37.449615
30
0.0
11
67.121275
21
37.449615
31
0.0
0
ARC
8
00_ALUMINIO
10
67.121275
20
38.449615
30
0.0
40
1.000000
50
270.000000
51
337.000000
0
LINE
8
00_ALUMINIO
10
68.041779
20
38.058884
30
0.0
11
69.303665
21
41.031700
31
0.0
0
ARC
8
00_ALUMINIO
10
68.383160
20
41.422431
30
0.0
40
1.000000
50
337.000000
51
0.000000
0
LINE
8
00_ALUMINIO
10
69.383160
20
41.422431
30
0.0
11
69.383160
21
45.676569
31
0.0
0
ARC
8
00_ALUMINIO
10
70.383160
20
45.676569
30
0.0
40
1.000000
50
157.000000
51
180.000000
0
LINE
8
00_ALUMINIO
10
69.462655
20
46.067301
30
0.0
11
71.660825
21
51.245863
31
0.0
0
ARC
8
00_ALUMINIO
10
72.121077
20
51.050497
30
0.0
40
0.500000
50
90.000000
51
157.000000
0
LINE
8
00_ALUMINIO
10
72.121077
20
51.550497
30
0.0
11
77.833703
21
51.550497
31
0.0
0
ARC
8
00_ALUMINIO
10
77.833703
20
51.250497
30
0.0
40
0.300000
50
0.000000
51
90.000000
0
LINE
8
00_ALUMINIO
10
78.133703
20
51.250497
30
0.0
11
78.133703
21
50.800559
31
0.0
0
ARC
8
00_ALUMINIO
10
78.433703
20
50.800559
30
0.0
40
0.300000
50
180.000000
51
270.000000
0
LINE
8
00_ALUMINIO
10
78.433703
20
50.500559
30
0.0
11
78.602264
21
50.500559
31
0.0
0
ARC
8
00_ALUMINIO
10
78.602264
20
50.800559
30
0.0
40
0.300000
50
270.000000
51
320.000000
0
LINE
8
00_ALUMINIO
10
78.832077
20
50.607723
30
0.0
11
79.473290
21
51.371891
31
0.0
0
ARC
8
00_ALUMINIO
10
79.856313
20
51.050497
30
0.0
40
0.500000
50
90.000000
51
140.000000
0
LINE
8
00_ALUMINIO
10
79.856313
20
51.550497
30
0.0
11
80.671611
21
51.550497
31
0.0
0
LINE
8
00_ALUMINIO
10
80.671611
20
51.550497
30
0.0
11
81.171619
21
51.850536
31
0.0
0
LINE
8
00_ALUMINIO
10
81.171619
20
51.850536
30
0.0
11
81.671626
21
51.550497
31
0.0
0
LINE
8
00_ALUMINIO
10
81.671626
20
51.550497
30
0.0
11
82.486925
21
51.550497
31
0.0
0
ARC
8
00_ALUMINIO
10
82.486925
20
51.050497
30
0.0
40
0.500000
50
40.000000
51
90.000000
0
LINE
8
00_ALUMINIO
10
82.869947
20
51.371891
30
0.0
11
83.301345
21
50.857771
31
0.0
0
ARC
8
00_ALUMINIO
10
84.067389
20
51.500559
30
0.0
40
1.000000
50
220.000000
51
270.000000
0
LINE
8
00_ALUMINIO
10
84.067389
20
50.500559
30
0.0
11
84.383160
21
50.500559
31
0.0
0
ARC
8
00_ALUMINIO
10
84.383160
20
50.200559
30
0.0
40
0.300000
50
0.000000
51
90.000000
0
LINE
8
00_ALUMINIO
10
84.683160
20
50.200559
30
0.0
11
84.683160
21
49.993379
31
0.0
0
ARC
8
00_ALUMINIO
10
85.683160
20
49.993379
30
0.0
40
1.000000
50
180.000000
51
261.786789
0
ARC
8
00_ALUMINIO
10
85.583160
20
49.300559
30
0.0
40
0.300000
50
261.786789
51
0.000000
0
LINE
8
00_ALUMINIO
10
85.883160
20
49.300559
30
0.0
11
85.883160
21
50.200559
31
0.0
0
ARC
8
00_ALUMINIO
10
86.183160
20
50.200559
30
0.0
40
0.300000
50
90.000000
51
180.000000
0
LINE
8
00_ALUMINIO
10
86.183160
20
50.500559
30
0.0
11
90.883160
21
50.500559
31
0.0
0
ARC
8
00_ALUMINIO
10
90.883160
20
50.200559
30
0.0
40
0.300000
50
0.000000
51
90.000000
0
LINE
8
00_ALUMINIO
10
91.183160
20
50.200559
30
0.0
11
91.183160
21
49.993379
31
0.0
0
ARC
8
00_ALUMINIO
10
92.183160
20
49.993379
30
0.0
40
1.000000
50
180.000000
51
261.786789
0
ARC
8
00_ALUMINIO
10
92.083160
20
49.300559
30
0.0
40
0.300000
50
261.786789
51
0.000000
0
LINE
8
00_ALUMINIO
10
92.383160
20
49.300559
30
0.0
11
92.383160
21
60.649615
31
0.0
0
ARC
8
00_ALUMINIO
10
92.083160
20
60.649615
30
0.0
40
0.300000
50
0.000000
51
90.000000
0
LINE
8
00_ALUMINIO
10
92.083160
20
60.949615
30
0.0
11
91.183315
21
60.949615
31
0.0
0
ARC
8
00_ALUMINIO
10
91.183315
20
61.249615
30
0.0
40
0.300000
50
179.998738
51
270.000000
0
LINE
8
00_ALUMINIO
10
90.883315
20
61.249622
30
0.0
11
90.883353
21
62.949805
31
0.0
0
ARC
8
00_ALUMINIO
10
90.383353
20
62.949844
30
0.0
40
0.500000
50
359.995539
51
90.000000
0
LINE
8
00_ALUMINIO
10
90.383353
20
63.449844
30
0.0
11
89.883322
21
63.449844
31
0.0
0
ARC
8
00_ALUMINIO
10
89.883322
20
62.949844
30
0.0
40
0.500000
50
90.000000
51
180.002442
0
LINE
8
00_ALUMINIO
10
89.383322
20
62.949823
30
0.0
11
89.383404
21
60.449582
31
0.0
0
ARC
8
00_ALUMINIO
10
90.383404
20
60.449615
30
0.0
40
1.000000
50
180.001867
51
270.000000
0
LINE
8
00_ALUMINIO
10
90.383404
20
59.449615
30
0.0
11
90.583160
21
59.449615
31
0.0
0
ARC
8
00_ALUMINIO
10
90.583160
20
59.149615
30
0.0
40
0.300000
50
0.000000
51
90.000000
0
LINE
8
00_ALUMINIO
10
90.883160
20
59.149615
30
0.0
11
90.883160
21
52.300559
31
0.0
0
ARC
8
00_ALUMINIO
10
90.583160
20
52.300559
30
0.0
40
0.300000
50
270.000000
51
0.000000
0
LINE
8
00_ALUMINIO
10
90.583160
20
52.000559
30
0.0
11
84.383636
21
52.000559
31
0.0
0
ARC
8
00_ALUMINIO
10
84.383636
20
52.300559
30
0.0
40
0.300000
50
180.000000
51
270.000000
0
LINE
8
00_ALUMINIO
10
84.083636
20
52.300559
30
0.0
11
84.083636
21
53.250497
31
0.0
0
ARC
8
00_ALUMINIO
10
83.783636
20
53.250497
30
0.0
40
0.300000
50
0.000000
51
90.000000
0
LINE
8
00_ALUMINIO
10
83.783636
20
53.550497
30
0.0
11
83.683669
21
53.550497
31
0.0
0
ARC
8
00_ALUMINIO
10
83.683669
20
53.250497
30
0.0
40
0.300000
50
90.000000
51
180.000000
0
LINE
8
00_ALUMINIO
10
83.383669
20
53.250497
30
0.0
11
83.383669
21
53.050497
31
0.0
0
LINE
8
00_ALUMINIO
10
83.383669
20
53.050497
30
0.0
11
78.833703
21
53.050497
31
0.0
0
LINE
8
00_ALUMINIO
10
78.833703
20
53.050497
30
0.0
11
78.833703
21
53.250497
31
0.0
0
ARC
8
00_ALUMINIO
10
78.533703
20
53.250497
30
0.0
40
0.300000
50
0.000000
51
90.000000
0
LINE
8
00_ALUMINIO
10
78.533703
20
53.550497
30
0.0
11
78.433703
21
53.550497
31
0.0
0
ARC
8
00_ALUMINIO
10
78.433703
20
53.250497
30
0.0
40
0.300000
50
90.000000
51
180.000000
0
LINE
8
00_ALUMINIO
10
78.133703
20
53.250497
30
0.0
11
78.133703
21
53.050497
31
0.0
0
LINE
8
00_ALUMINIO
10
78.133703
20
53.050497
30
0.0
11
71.128249
21
53.050497
31
0.0
0
ARC
8
00_ALUMINIO
10
71.128249
20
52.550497
30
0.0
40
0.500000
50
90.000000
51
157.000000
0
LINE
8
00_ALUMINIO
10
70.667996
20
52.745863
30
0.0
11
67.783160
21
45.949615
31
0.0
0
LINE
8
00_ALUMINIO
10
67.783160
20
45.949615
30
0.0
11
67.583160
21
45.949615
31
0.0
0
ARC
8
00_ALUMINIO
10
67.583160
20
45.649615
30
0.0
40
0.300000
50
90.000000
51
180.000000
0
LINE
8
00_ALUMINIO
10
67.283160
20
45.649615
30
0.0
11
67.283160
21
44.749615
31
0.0
0
ARC
8
00_ALUMINIO
10
67.583160
20
44.749615
30
0.0
40
0.300000
50
180.000000
51
270.000000
0
ARC
8
00_ALUMINIO
10
67.583160
20
44.149615
30
0.0
40
0.300000
50
0.000000
51
90.000000
0
LINE
8
00_ALUMINIO
10
67.883160
20
44.149615
30
0.0
11
67.883160
21
41.625883
31
0.0
0
ARC
8
00_ALUMINIO
10
67.383160
20
41.625883
30
0.0
40
0.500000
50
337.000000
51
0.000000
0
LINE
8
00_ALUMINIO
10
67.843413
20
41.430518
30
0.0
11
66.661022
21
38.644980
31
0.0
0
ARC
8
00_ALUMINIO
10
67.121275
20
38.449615
30
0.0
40
0.500000
50
157.000000
51
180.000000
0
ATTDEF
8
0
10
0.000000
20
0.000000
30
0.0
40
3.5
1

3

2
PANE_WIDTH:0
70
0
0
ATTDEF
8
0
10
0.000000
20
0.000000
30
0.0
40
3.5
1

3

2
MIN_VETRO:0
70
0
0
ATTDEF
8
0
10
0.000000
20
0.000000
30
0.0
40
3.5
1

3

2
MAX_VETRO:0
70
0
0
ATTDEF
8
0
10
0.000000
20
0.000000
30
0.0
40
3.5
1

3

2
JX:0
70
0
0
ATTDEF
8
0
10
0.000000
20
0.000000
30
0.0
40
3.5
1

3

2
WX:0
70
0
0
ATTDEF
8
0
10
0.000000
20
0.000000
30
0.0
40
3.5
1

3

2
JY:0
70
0
0
ATTDEF
8
0
10
0.000000
20
0.000000
30
0.0
40
3.5
1

3

2
WY:0
70
0
0
ATTDEF
8
0
10
0.000000
20
0.000000
30
0.0
40
3.5
1

3

2
DESC:Perfil batiente umbral
70
0
0
ATTDEF
8
0
10
0.000000
20
0.000000
30
0.0
40
3.5
1

3

2
DENS:0.2187
70
0
0
ATTDEF
8
0
10
0.000000
20
0.000000
30
0.0
40
3.5
1

3

2
TDEV:10.97
70
0
0
ATTDEF
8
0
10
0.000000
20
0.000000
30
0.0
40
3.5
1

3

2
TDEV2:0
70
0
0
ATTDEF
8
0
10
0.000000
20
0.000000
30
0.0
40
3.5
1

3

2
TDEV3:0
70
0
0
ATTDEF
8
0
10
0.000000
20
0.000000
30
0.0
40
3.5
1

3

2
TDEV4:0
70
0
0
ATTDEF
8
0
10
0.000000
20
0.000000
30
0.0
40
3.5
1

3

2
TDEV5:0
70
0
0
ATTDEF
8
0
10
0.000000
20
0.000000
30
0.0
40
3.5
1

3

2
PANE_WIDTH:0
70
0
0
ATTDEF
8
0
10
0.000000
20
0.000000
30
0.0
40
3.5
1

3

2
MIN_VETRO:0
70
0
0
ATTDEF
8
0
10
0.000000
20
0.000000
30
0.0
40
3.5
1

3

2
MAX_VETRO:0
70
0
0
ATTDEF
8
0
10
0.000000
20
0.000000
30
0.0
40
3.5
1

3

2
JX:0
70
0
0
ATTDEF
8
0
10
0.000000
20
0.000000
30
0.0
40
3.5
1

3

2
WX:0
70
0
0
ATTDEF
8
0
10
0.000000
20
0.000000
30
0.0
40
3.5
1

3

2
JY:0
70
0
0
ATTDEF
8
0
10
0.000000
20
0.000000
30
0.0
40
3.5
1

3

2
WY:0
70
0
0
ENDSEC
0
EOF
