0
SECTION
2
ENTITIES
0
LINE
8
0
10
4158.953879
20
1240.370639
30
0.0
11
4159.449692
21
1240.866452
31
0.0
0
LINE
8
0
10
4160.070058
20
1239.241755
30
0.0
11
4160.933102
21
1240.104799
31
0.0
0
LINE
8
0
10
4159.911859
20
1236.838491
30
0.0
11
4162.739820
21
1239.666452
31
0.0
0
LINE
8
0
10
4163.184884
20
1237.866452
30
0.0
11
4164.984884
21
1239.666452
31
0.0
0
LINE
8
0
10
4165.429948
20
1237.866452
30
0.0
11
4167.229948
21
1239.666452
31
0.0
0
LINE
8
0
10
4167.675012
20
1237.866452
30
0.0
11
4169.475012
21
1239.666452
31
0.0
0
LINE
8
0
10
4169.920076
20
1237.866452
30
0.0
11
4172.917874
21
1240.864251
31
0.0
0
LINE
8
0
10
4171.671107
20
1237.372420
30
0.0
11
4172.530856
21
1238.232169
31
0.0
0
LINE
8
0
10
4173.214883
20
1236.671132
30
0.0
11
4173.549199
21
1237.005448
31
0.0
0
LINE
8
0
10
4160.155038
20
1236.978891
30
0.0
11
4159.057043
21
1238.076886
31
0.0
0
LINE
8
0
10
4161.581583
20
1237.797410
30
0.0
11
4158.953879
21
1240.425114
31
0.0
0
LINE
8
0
10
4163.757604
20
1237.866452
30
0.0
11
4161.957604
21
1239.666452
31
0.0
0
LINE
8
0
10
4166.005694
20
1237.863427
30
0.0
11
4164.202668
21
1239.666452
31
0.0
0
LINE
8
0
10
4168.247732
20
1237.866452
30
0.0
11
4166.447732
21
1239.666452
31
0.0
0
LINE
8
0
10
4170.492796
20
1237.866452
30
0.0
11
4168.692796
21
1239.666452
31
0.0
0
LINE
8
0
10
4173.553570
20
1237.050743
30
0.0
11
4170.885562
21
1239.718751
31
0.0
0
LINE
8
0
10
4173.437407
20
1239.411970
30
0.0
11
4172.316357
21
1240.533020
31
0.0
0
ARC
8
0
10
4173.142072
20
1239.491452
30
0.0
40
0.200000
50
244.992167
51
286.231301
0
ARC
8
0
10
4173.253879
20
1239.491452
30
0.0
40
0.200000
50
253.768699
51
360.000000
0
LINE
8
0
10
4173.453879
20
1239.491452
30
0.0
11
4173.453879
21
1239.866452
31
0.0
0
LINE
8
0
10
4173.453879
20
1239.866452
30
0.0
11
4173.553879
21
1239.866452
31
0.0
0
LINE
8
0
10
4173.553879
20
1239.866452
30
0.0
11
4173.553879
21
1240.466452
31
0.0
0
ARC
8
0
10
4173.153879
20
1240.466452
30
0.0
40
0.400000
50
360.000000
51
90.000000
0
LINE
8
0
10
4173.153879
20
1240.866452
30
0.0
11
4172.947468
21
1240.866452
31
0.0
0
ARC
8
0
10
4172.947468
20
1240.666452
30
0.0
40
0.200000
50
90.000000
51
120.000000
0
LINE
8
0
10
4172.847468
20
1240.839658
30
0.0
11
4171.001058
21
1239.773632
31
0.0
0
ARC
8
0
10
4170.601058
20
1240.466452
30
0.0
40
0.800000
50
270.000000
51
300.000000
0
LINE
8
0
10
4170.601058
20
1239.666452
30
0.0
11
4166.253879
21
1239.666452
31
0.0
0
LINE
8
0
10
4166.253879
20
1239.666452
30
0.0
11
4161.906699
21
1239.666452
31
0.0
0
ARC
8
0
10
4161.906699
20
1240.466452
30
0.0
40
0.800000
50
240.000000
51
270.000000
0
LINE
8
0
10
4161.506699
20
1239.773632
30
0.0
11
4159.660289
21
1240.839658
31
0.0
0
ARC
8
0
10
4159.560289
20
1240.666452
30
0.0
40
0.200000
50
60.000000
51
90.000000
0
LINE
8
0
10
4159.560289
20
1240.866452
30
0.0
11
4159.353879
21
1240.866452
31
0.0
0
ARC
8
0
10
4159.353879
20
1240.466452
30
0.0
40
0.400000
50
90.000000
51
180.000000
0
LINE
8
0
10
4158.953879
20
1240.466452
30
0.0
11
4158.953879
21
1239.866452
31
0.0
0
LINE
8
0
10
4158.953879
20
1239.866452
30
0.0
11
4159.053879
21
1239.866452
31
0.0
0
LINE
8
0
10
4159.053879
20
1239.866452
30
0.0
11
4159.053879
21
1239.491452
31
0.0
0
ARC
8
0
10
4159.253879
20
1239.491452
30
0.0
40
0.200000
50
180.000000
51
286.231301
0
ARC
8
0
10
4159.365685
20
1239.491452
30
0.0
40
0.200000
50
253.768699
51
295.007833
0
ARC
8
0
10
4159.703879
20
1238.766452
30
0.0
40
0.600000
50
360.000000
51
115.007833
0
ARC
8
0
10
4159.703879
20
1238.766452
30
0.0
40
0.600000
50
244.992167
51
360.000000
0
ARC
8
0
10
4159.365685
20
1238.041452
30
0.0
40
0.200000
50
64.992167
51
106.231301
0
ARC
8
0
10
4159.253879
20
1238.041452
30
0.0
40
0.200000
50
73.768699
51
180.000000
0
LINE
8
0
10
4159.053879
20
1238.041452
30
0.0
11
4159.053879
21
1237.666452
31
0.0
0
LINE
8
0
10
4159.053879
20
1237.666452
30
0.0
11
4158.953879
21
1237.666452
31
0.0
0
LINE
8
0
10
4158.953879
20
1237.666452
30
0.0
11
4158.953879
21
1237.066452
31
0.0
0
ARC
8
0
10
4159.353879
20
1237.066452
30
0.0
40
0.400000
50
180.000000
51
270.000000
0
LINE
8
0
10
4159.353879
20
1236.666452
30
0.0
11
4159.560289
21
1236.666452
31
0.0
0
ARC
8
0
10
4159.560289
20
1236.866452
30
0.0
40
0.200000
50
270.000000
51
300.000000
0
LINE
8
0
10
4159.660289
20
1236.693247
30
0.0
11
4161.506699
21
1237.759273
31
0.0
0
ARC
8
0
10
4161.906699
20
1237.066452
30
0.0
40
0.800000
50
90.000000
51
120.000000
0
LINE
8
0
10
4161.906699
20
1237.866452
30
0.0
11
4165.971036
21
1237.866452
31
0.0
0
ARC
8
0
10
4165.971036
20
1237.666452
30
0.0
40
0.200000
50
51.057559
51
90.000000
0
ARC
8
0
10
4166.253879
20
1238.016452
30
0.0
40
0.250000
50
231.057559
51
308.942441
0
ARC
8
0
10
4166.536721
20
1237.666452
30
0.0
40
0.200000
50
90.000000
51
128.942441
0
LINE
8
0
10
4166.536721
20
1237.866452
30
0.0
11
4170.601058
21
1237.866452
31
0.0
0
ARC
8
0
10
4170.601058
20
1237.066452
30
0.0
40
0.800000
50
60.000000
51
90.000000
0
LINE
8
0
10
4171.001058
20
1237.759273
30
0.0
11
4172.847468
21
1236.693247
31
0.0
0
ARC
8
0
10
4172.947468
20
1236.866452
30
0.0
40
0.200000
50
240.000000
51
270.000000
0
LINE
8
0
10
4172.947468
20
1236.666452
30
0.0
11
4173.153879
21
1236.666452
31
0.0
0
ARC
8
0
10
4173.153879
20
1237.066452
30
0.0
40
0.400000
50
270.000000
51
360.000000
0
LINE
8
0
10
4173.553879
20
1237.066452
30
0.0
11
4173.553879
21
1237.666452
31
0.0
0
LINE
8
0
10
4173.553879
20
1237.666452
30
0.0
11
4173.453879
21
1237.666452
31
0.0
0
LINE
8
0
10
4173.453879
20
1237.666452
30
0.0
11
4173.453879
21
1238.041452
31
0.0
0
ARC
8
0
10
4173.253879
20
1238.041452
30
0.0
40
0.200000
50
360.000000
51
106.231301
0
ARC
8
0
10
4173.142072
20
1238.041452
30
0.0
40
0.200000
50
73.768699
51
115.007833
0
ARC
8
0
10
4172.803879
20
1238.766452
30
0.0
40
0.600000
50
180.000000
51
295.007833
0
ARC
8
0
10
4172.803879
20
1238.766452
30
0.0
40
0.600000
50
64.992167
51
180.000000
0
LINE
8
0
10
4159.805783
20
1247.957735
30
0.0
11
4160.692029
21
1248.843982
31
0.0
0
LINE
8
0
10
4159.359564
20
1245.266452
30
0.0
11
4162.359564
21
1248.266452
31
0.0
0
LINE
8
0
10
4162.804628
20
1246.466452
30
0.0
11
4164.604628
21
1248.266452
31
0.0
0
LINE
8
0
10
4165.049692
20
1246.466452
30
0.0
11
4166.849692
21
1248.266452
31
0.0
0
LINE
8
0
10
4167.294756
20
1246.466452
30
0.0
11
4169.094756
21
1248.266452
31
0.0
0
LINE
8
0
10
4169.539820
20
1246.466452
30
0.0
11
4172.056167
21
1248.982799
31
0.0
0
LINE
8
0
10
4171.430035
20
1246.111603
30
0.0
11
4172.324310
21
1247.005878
31
0.0
0
LINE
8
0
10
4173.213917
20
1247.895485
30
0.0
11
4173.453879
21
1248.135447
31
0.0
0
LINE
8
0
10
4172.853433
20
1245.289938
30
0.0
11
4173.553879
21
1245.990383
31
0.0
0
LINE
8
0
10
4160.396111
20
1245.718074
30
0.0
11
4159.273719
21
1246.840466
31
0.0
0
LINE
8
0
10
4161.892915
20
1246.466334
30
0.0
11
4159.042149
21
1249.317100
31
0.0
0
LINE
8
0
10
4164.137860
20
1246.466452
30
0.0
11
4162.337860
21
1248.266452
31
0.0
0
LINE
8
0
10
4166.420301
20
1246.429076
30
0.0
11
4164.582925
21
1248.266452
31
0.0
0
LINE
8
0
10
4168.627989
20
1246.466452
30
0.0
11
4166.827989
21
1248.266452
31
0.0
0
LINE
8
0
10
4170.956204
20
1246.383301
30
0.0
11
4169.073053
21
1248.266452
31
0.0
0
LINE
8
0
10
4173.553879
20
1246.030690
30
0.0
11
4172.817952
21
1246.766618
31
0.0
0
LINE
8
0
10
4172.204044
20
1247.380525
30
0.0
11
4171.134116
21
1248.450453
31
0.0
0
LINE
8
0
10
4173.453879
20
1248.375754
30
0.0
11
4172.557430
21
1249.272204
31
0.0
0
ARC
8
0
10
4173.142072
20
1248.091452
30
0.0
40
0.200000
50
244.992167
51
286.231301
0
ARC
8
0
10
4173.253879
20
1248.091452
30
0.0
40
0.200000
50
253.768699
51
360.000000
0
LINE
8
0
10
4173.453879
20
1248.091452
30
0.0
11
4173.453879
21
1248.466452
31
0.0
0
LINE
8
0
10
4173.453879
20
1248.466452
30
0.0
11
4173.553879
21
1248.466452
31
0.0
0
LINE
8
0
10
4173.553879
20
1248.466452
30
0.0
11
4173.553879
21
1249.066452
31
0.0
0
ARC
8
0
10
4173.153879
20
1249.066452
30
0.0
40
0.400000
50
360.000000
51
90.000000
0
LINE
8
0
10
4173.153879
20
1249.466452
30
0.0
11
4172.947468
21
1249.466452
31
0.0
0
ARC
8
0
10
4172.947468
20
1249.266452
30
0.0
40
0.200000
50
90.000000
51
120.000000
0
LINE
8
0
10
4172.847468
20
1249.439658
30
0.0
11
4171.001058
21
1248.373632
31
0.0
0
ARC
8
0
10
4170.601058
20
1249.066452
30
0.0
40
0.800000
50
270.000000
51
300.000000
0
LINE
8
0
10
4170.601058
20
1248.266452
30
0.0
11
4166.253879
21
1248.266452
31
0.0
0
LINE
8
0
10
4166.253879
20
1248.266452
30
0.0
11
4161.906699
21
1248.266452
31
0.0
0
ARC
8
0
10
4161.906699
20
1249.066452
30
0.0
40
0.800000
50
240.000000
51
270.000000
0
LINE
8
0
10
4161.506699
20
1248.373632
30
0.0
11
4159.660289
21
1249.439658
31
0.0
0
ARC
8
0
10
4159.560289
20
1249.266452
30
0.0
40
0.200000
50
60.000000
51
90.000000
0
LINE
8
0
10
4159.560289
20
1249.466452
30
0.0
11
4159.353879
21
1249.466452
31
0.0
0
ARC
8
0
10
4159.353879
20
1249.066452
30
0.0
40
0.400000
50
90.000000
51
180.000000
0
LINE
8
0
10
4158.953879
20
1249.066452
30
0.0
11
4158.953879
21
1248.466452
31
0.0
0
LINE
8
0
10
4158.953879
20
1248.466452
30
0.0
11
4159.053879
21
1248.466452
31
0.0
0
LINE
8
0
10
4159.053879
20
1248.466452
30
0.0
11
4159.053879
21
1248.091452
31
0.0
0
ARC
8
0
10
4159.253879
20
1248.091452
30
0.0
40
0.200000
50
180.000000
51
286.231301
0
ARC
8
0
10
4159.365685
20
1248.091452
30
0.0
40
0.200000
50
253.768699
51
295.007833
0
ARC
8
0
10
4159.703879
20
1247.366452
30
0.0
40
0.600000
50
360.000000
51
115.007833
0
ARC
8
0
10
4159.703879
20
1247.366452
30
0.0
40
0.600000
50
244.992167
51
360.000000
0
ARC
8
0
10
4159.365685
20
1246.641452
30
0.0
40
0.200000
50
64.992167
51
106.231301
0
ARC
8
0
10
4159.253879
20
1246.641452
30
0.0
40
0.200000
50
73.768699
51
180.000000
0
LINE
8
0
10
4159.053879
20
1246.641452
30
0.0
11
4159.053879
21
1246.266452
31
0.0
0
LINE
8
0
10
4159.053879
20
1246.266452
30
0.0
11
4158.953879
21
1246.266452
31
0.0
0
LINE
8
0
10
4158.953879
20
1246.266452
30
0.0
11
4158.953879
21
1245.666452
31
0.0
0
ARC
8
0
10
4159.353879
20
1245.666452
30
0.0
40
0.400000
50
180.000000
51
270.000000
0
LINE
8
0
10
4159.353879
20
1245.266452
30
0.0
11
4159.560289
21
1245.266452
31
0.0
0
ARC
8
0
10
4159.560289
20
1245.466452
30
0.0
40
0.200000
50
270.000000
51
300.000000
0
LINE
8
0
10
4159.660289
20
1245.293247
30
0.0
11
4161.506699
21
1246.359273
31
0.0
0
ARC
8
0
10
4161.906699
20
1245.666452
30
0.0
40
0.800000
50
90.000000
51
120.000000
0
LINE
8
0
10
4161.906699
20
1246.466452
30
0.0
11
4165.971036
21
1246.466452
31
0.0
0
ARC
8
0
10
4165.971036
20
1246.266452
30
0.0
40
0.200000
50
51.057559
51
90.000000
0
ARC
8
0
10
4166.253879
20
1246.616452
30
0.0
40
0.250000
50
231.057559
51
308.942441
0
ARC
8
0
10
4166.536721
20
1246.266452
30
0.0
40
0.200000
50
90.000000
51
128.942441
0
LINE
8
0
10
4166.536721
20
1246.466452
30
0.0
11
4170.601058
21
1246.466452
31
0.0
0
ARC
8
0
10
4170.601058
20
1245.666452
30
0.0
40
0.800000
50
60.000000
51
90.000000
0
LINE
8
0
10
4171.001058
20
1246.359273
30
0.0
11
4172.847468
21
1245.293247
31
0.0
0
ARC
8
0
10
4172.947468
20
1245.466452
30
0.0
40
0.200000
50
240.000000
51
270.000000
0
LINE
8
0
10
4172.947468
20
1245.266452
30
0.0
11
4173.153879
21
1245.266452
31
0.0
0
ARC
8
0
10
4173.153879
20
1245.666452
30
0.0
40
0.400000
50
270.000000
51
360.000000
0
LINE
8
0
10
4173.553879
20
1245.666452
30
0.0
11
4173.553879
21
1246.266452
31
0.0
0
LINE
8
0
10
4173.553879
20
1246.266452
30
0.0
11
4173.453879
21
1246.266452
31
0.0
0
LINE
8
0
10
4173.453879
20
1246.266452
30
0.0
11
4173.453879
21
1246.641452
31
0.0
0
ARC
8
0
10
4173.253879
20
1246.641452
30
0.0
40
0.200000
50
360.000000
51
106.231301
0
ARC
8
0
10
4173.142072
20
1246.641452
30
0.0
40
0.200000
50
73.768699
51
115.007833
0
ARC
8
0
10
4172.803879
20
1247.366452
30
0.0
40
0.600000
50
180.000000
51
295.007833
0
ARC
8
0
10
4172.803879
20
1247.366452
30
0.0
40
0.600000
50
64.992167
51
180.000000
0
LINE
8
0
10
4131.853879
20
1250.066452
30
0.0
11
4157.453879
21
1250.066452
31
0.0
0
LINE
8
0
10
4157.453879
20
1250.066452
30
0.0
11
4157.453879
21
1236.066452
31
0.0
0
LINE
8
0
10
4157.453879
20
1236.066452
30
0.0
11
4131.853879
21
1236.066452
31
0.0
0
LINE
8
0
10
4131.853879
20
1236.066452
30
0.0
11
4131.853879
21
1250.066452
31
0.0
0
LINE
8
0
10
4163.466047
20
1250.994122
30
0.0
11
4161.365036
21
1248.280244
31
0.0
0
ARC
8
0
10
4163.181140
20
1251.088078
30
0.0
40
0.300000
50
341.748585
51
87.394587
0
LINE
8
0
10
4162.131730
20
1251.417947
30
0.0
11
4163.184525
21
1251.388103
31
0.0
0
LINE
8
0
10
4162.068870
20
1251.212341
30
0.0
11
4162.131730
21
1251.417947
31
0.0
0
LINE
8
0
10
4161.683803
20
1250.747203
30
0.0
11
4162.068870
21
1251.212341
31
0.0
0
ARC
8
0
10
4160.845689
20
1251.293404
30
0.0
40
1.000000
50
236.490937
51
326.907609
0
LINE
8
0
10
4159.152753
20
1251.322957
30
0.0
11
4160.293942
21
1250.460091
31
0.0
0
ARC
8
0
10
4159.454310
20
1251.721784
30
0.0
40
0.500000
50
180.000000
51
232.906671
0
LINE
8
0
10
4158.954310
20
1256.566452
30
0.0
11
4158.954310
21
1251.721784
31
0.0
0
LINE
8
0
10
4157.004310
20
1256.566452
30
0.0
11
4158.954310
21
1256.566452
31
0.0
0
LINE
8
0
10
4156.004310
20
1255.566452
30
0.0
11
4157.004310
21
1256.566452
31
0.0
0
LINE
8
0
10
4156.004310
20
1254.566452
30
0.0
11
4156.004310
21
1255.566452
31
0.0
0
LINE
8
0
10
4157.454310
20
1254.566452
30
0.0
11
4156.004310
21
1254.566452
31
0.0
0
LINE
8
0
10
4157.454310
20
1251.566452
30
0.0
11
4157.454310
21
1254.566452
31
0.0
0
LINE
8
0
10
4151.354310
20
1251.566452
30
0.0
11
4157.454310
21
1251.566452
31
0.0
0
LINE
8
0
10
4151.354310
20
1254.566452
30
0.0
11
4151.354310
21
1251.566452
31
0.0
0
LINE
8
0
10
4152.804310
20
1254.566452
30
0.0
11
4151.354310
21
1254.566452
31
0.0
0
LINE
8
0
10
4152.804310
20
1255.566452
30
0.0
11
4152.804310
21
1254.566452
31
0.0
0
LINE
8
0
10
4151.804310
20
1256.566452
30
0.0
11
4152.804310
21
1255.566452
31
0.0
0
LINE
8
0
10
4148.854310
20
1256.566452
30
0.0
11
4151.804310
21
1256.566452
31
0.0
0
LINE
8
0
10
4147.854310
20
1255.566452
30
0.0
11
4148.854310
21
1256.566452
31
0.0
0
LINE
8
0
10
4147.854310
20
1254.566452
30
0.0
11
4147.854310
21
1255.566452
31
0.0
0
LINE
8
0
10
4149.854310
20
1254.566452
30
0.0
11
4147.854310
21
1254.566452
31
0.0
0
LINE
8
0
10
4149.854310
20
1251.566452
30
0.0
11
4149.854310
21
1254.566452
31
0.0
0
LINE
8
0
10
4131.854310
20
1251.566452
30
0.0
11
4149.854310
21
1251.566452
31
0.0
0
LINE
8
0
10
4131.854310
20
1254.566452
30
0.0
11
4131.854310
21
1251.566452
31
0.0
0
LINE
8
0
10
4133.854310
20
1254.566452
30
0.0
11
4131.854310
21
1254.566452
31
0.0
0
LINE
8
0
10
4133.854310
20
1255.566452
30
0.0
11
4133.854310
21
1254.566452
31
0.0
0
LINE
8
0
10
4132.854310
20
1256.566452
30
0.0
11
4133.854310
21
1255.566452
31
0.0
0
LINE
8
0
10
4130.354310
20
1256.566452
30
0.0
11
4132.854310
21
1256.566452
31
0.0
0
LINE
8
0
10
4130.354310
20
1185.066452
30
0.0
11
4130.354310
21
1256.566452
31
0.0
0
ARC
8
0
10
4130.854310
20
1185.066452
30
0.0
40
0.500000
50
180.000000
51
270.000000
0
LINE
8
0
10
4133.454310
20
1184.566452
30
0.0
11
4130.854310
21
1184.566452
31
0.0
0
ARC
8
0
10
4133.454310
20
1185.066452
30
0.0
40
0.500000
50
270.000000
51
360.000000
0
LINE
8
0
10
4133.954310
20
1187.316452
30
0.0
11
4133.954310
21
1185.066452
31
0.0
0
ARC
8
0
10
4133.454310
20
1187.316452
30
0.0
40
0.500000
50
360.000000
51
180.000000
0
LINE
8
0
10
4132.954310
20
1186.066452
30
0.0
11
4132.954310
21
1187.316452
31
0.0
0
LINE
8
0
10
4131.654310
20
1186.066452
30
0.0
11
4132.954310
21
1186.066452
31
0.0
0
LINE
8
0
10
4131.654310
20
1193.566452
30
0.0
11
4131.654310
21
1186.066452
31
0.0
0
LINE
8
0
10
4132.954310
20
1193.566452
30
0.0
11
4131.654310
21
1193.566452
31
0.0
0
LINE
8
0
10
4132.954310
20
1192.316452
30
0.0
11
4132.954310
21
1193.566452
31
0.0
0
ARC
8
0
10
4133.454310
20
1192.316452
30
0.0
40
0.500000
50
180.000000
51
360.000000
0
LINE
8
0
10
4133.954310
20
1194.566452
30
0.0
11
4133.954310
21
1192.316452
31
0.0
0
ARC
8
0
10
4133.454310
20
1194.566452
30
0.0
40
0.500000
50
360.000000
51
90.000000
0
LINE
8
0
10
4131.854310
20
1195.066452
30
0.0
11
4133.454310
21
1195.066452
31
0.0
0
LINE
8
0
10
4132.116335
20
1229.566452
30
0.0
11
4131.854310
21
1195.066452
31
0.0
0
LINE
8
0
10
4135.854310
20
1229.566452
30
0.0
11
4132.116335
21
1229.566452
31
0.0
0
LINE
8
0
10
4135.854310
20
1231.066452
30
0.0
11
4135.854310
21
1229.566452
31
0.0
0
LINE
8
0
10
4132.127728
20
1231.066452
30
0.0
11
4135.854310
21
1231.066452
31
0.0
0
LINE
8
0
10
4132.154310
20
1234.566452
30
0.0
11
4132.127728
21
1231.066452
31
0.0
0
LINE
8
0
10
4158.662966
20
1234.566452
30
0.0
11
4132.154310
21
1234.566452
31
0.0
0
ARC
8
0
10
4158.662966
20
1235.066452
30
0.0
40
0.500000
50
270.000000
51
307.093329
0
LINE
8
0
10
4160.293942
20
1235.672813
30
0.0
11
4158.964523
21
1234.667625
31
0.0
0
ARC
8
0
10
4160.845689
20
1234.839501
30
0.0
40
1.000000
50
33.092391
51
123.509063
0
LINE
8
0
10
4162.068870
20
1234.920564
30
0.0
11
4161.683803
21
1235.385702
31
0.0
0
LINE
8
0
10
4162.131730
20
1234.714958
30
0.0
11
4162.068870
21
1234.920564
31
0.0
0
LINE
8
0
10
4163.184525
20
1234.744802
30
0.0
11
4162.131730
21
1234.714958
31
0.0
0
ARC
8
0
10
4163.181140
20
1235.044827
30
0.0
40
0.300000
50
272.605413
51
18.251415
0
LINE
8
0
10
4161.365036
20
1237.852661
30
0.0
11
4163.466047
21
1235.138783
31
0.0
0
ARC
8
0
10
4161.206374
20
1237.741663
30
0.0
40
0.200000
50
36.039809
51
217.071526
0
LINE
8
0
10
4159.502154
20
1236.454103
30
0.0
11
4161.046797
21
1237.621100
31
0.0
0
ARC
8
0
10
4159.237014
20
1236.316451
30
0.0
40
0.300000
50
287.000000
51
24.059472
0
LINE
8
0
10
4159.041590
20
1235.929561
30
0.0
11
4159.328482
21
1236.017273
31
0.0
0
ARC
8
0
10
4158.953879
20
1236.216452
30
0.0
40
0.300000
50
90.000000
51
287.000000
0
LINE
8
0
10
4158.953879
20
1241.016452
30
0.0
11
4158.953879
21
1236.516452
31
0.0
0
ARC
8
0
10
4159.153879
20
1241.006350
30
0.0
40
0.200000
50
58.132675
51
177.108405
0
LINE
8
0
10
4161.053879
20
1240.146730
30
0.0
11
4159.259535
21
1241.176311
31
0.0
0
ARC
8
0
10
4161.253879
20
1240.146994
30
0.0
40
0.200000
50
180.000000
51
351.317436
0
LINE
8
0
10
4161.453879
20
1241.530775
30
0.0
11
4161.453879
21
1240.116452
31
0.0
0
ARC
8
0
10
4161.253879
20
1241.530775
30
0.0
40
0.200000
50
360.000000
51
61.694535
0
LINE
8
0
10
4160.046738
20
1242.454008
30
0.0
11
4161.348495
21
1241.707070
31
0.0
0
ARC
8
0
10
4160.385891
20
1243.066452
30
0.0
40
0.700000
50
118.976366
51
241.023634
0
LINE
8
0
10
4161.348495
20
1244.425835
30
0.0
11
4160.046738
21
1243.678897
31
0.0
0
ARC
8
0
10
4161.253879
20
1244.602130
30
0.0
40
0.200000
50
298.305465
51
360.000000
0
LINE
8
0
10
4161.453879
20
1246.016452
30
0.0
11
4161.453879
21
1244.602130
31
0.0
0
ARC
8
0
10
4161.253879
20
1245.985910
30
0.0
40
0.200000
50
8.682564
51
180.000000
0
LINE
8
0
10
4159.259535
20
1244.956594
30
0.0
11
4161.053879
21
1245.986175
31
0.0
0
ARC
8
0
10
4159.153879
20
1245.126555
30
0.0
40
0.200000
50
182.891595
51
301.867325
0
LINE
8
0
10
4158.953879
20
1249.616452
30
0.0
11
4158.953879
21
1245.116452
31
0.0
0
ARC
8
0
10
4158.953879
20
1249.916452
30
0.0
40
0.300000
50
73.000000
51
270.000000
0
LINE
8
0
10
4159.328482
20
1250.115632
30
0.0
11
4159.041590
21
1250.203344
31
0.0
0
ARC
8
0
10
4159.237014
20
1249.816454
30
0.0
40
0.300000
50
335.940528
51
73.000000
0
LINE
8
0
10
4161.046797
20
1248.511805
30
0.0
11
4159.502154
21
1249.678802
31
0.0
0
ARC
8
0
10
4161.206374
20
1248.391242
30
0.0
40
0.200000
50
142.928474
51
323.960191
0
ARC
8
0
10
4177.453879
20
1243.095893
30
0.0
40
5.000000
50
360.000000
51
80.000000
0
LINE
8
0
10
4182.453879
20
1243.095893
30
0.0
11
4182.453879
21
1234.916452
31
0.0
0
ARC
8
0
10
4182.153879
20
1234.916452
30
0.0
40
0.300000
50
270.000000
51
360.000000
0
LINE
8
0
10
4182.153879
20
1234.616452
30
0.0
11
4175.653879
21
1234.616452
31
0.0
0
ARC
8
0
10
4175.653879
20
1234.916452
30
0.0
40
0.300000
50
180.000000
51
270.000000
0
LINE
8
0
10
4175.353879
20
1234.916452
30
0.0
11
4175.353879
21
1248.185786
31
0.0
0
ARC
8
0
10
4175.653879
20
1248.185786
30
0.0
40
0.300000
50
80.000000
51
180.000000
0
LINE
8
0
10
4175.705973
20
1248.481229
30
0.0
11
4178.322120
21
1248.019932
31
0.0
0
ARC
8
0
10
4175.653879
20
1250.318182
30
0.0
40
0.300000
50
180.000000
51
260.000000
0
LINE
8
0
10
4175.353879
20
1250.318182
30
0.0
11
4175.353879
21
1276.066452
31
0.0
0
ARC
8
0
10
4174.853879
20
1276.066452
30
0.0
40
0.500000
50
360.000000
51
90.000000
0
LINE
8
0
10
4174.853879
20
1276.566452
30
0.0
11
4172.353879
21
1276.566452
31
0.0
0
ARC
8
0
10
4172.353879
20
1276.066452
30
0.0
40
0.500000
50
90.000000
51
180.000000
0
LINE
8
0
10
4171.853879
20
1276.066452
30
0.0
11
4171.853879
21
1273.816452
31
0.0
0
ARC
8
0
10
4172.353879
20
1273.816452
30
0.0
40
0.500000
50
180.000000
51
360.000000
0
LINE
8
0
10
4172.853879
20
1273.816452
30
0.0
11
4172.853879
21
1275.066452
31
0.0
0
LINE
8
0
10
4172.853879
20
1275.066452
30
0.0
11
4174.053879
21
1275.066452
31
0.0
0
LINE
8
0
10
4174.053879
20
1275.066452
30
0.0
11
4174.053879
21
1267.566452
31
0.0
0
LINE
8
0
10
4174.053879
20
1267.566452
30
0.0
11
4172.853879
21
1267.566452
31
0.0
0
LINE
8
0
10
4172.853879
20
1267.566452
30
0.0
11
4172.853879
21
1268.816452
31
0.0
0
ARC
8
0
10
4172.353879
20
1268.816452
30
0.0
40
0.500000
50
360.000000
51
180.000000
0
LINE
8
0
10
4171.853879
20
1268.816452
30
0.0
11
4171.853879
21
1266.566452
31
0.0
0
ARC
8
0
10
4172.353879
20
1266.566452
30
0.0
40
0.500000
50
180.000000
51
270.000000
0
LINE
8
0
10
4172.353879
20
1266.066452
30
0.0
11
4173.853879
21
1266.066452
31
0.0
0
LINE
8
0
10
4173.853879
20
1266.066452
30
0.0
11
4173.853879
21
1254.566452
31
0.0
0
LINE
8
0
10
4173.853879
20
1254.566452
30
0.0
11
4173.565772
21
1251.689525
31
0.0
0
ARC
8
0
10
4173.068261
20
1251.739348
30
0.0
40
0.500000
50
307.093329
51
354.281248
0
LINE
8
0
10
4173.369818
20
1251.340521
30
0.0
11
4172.213816
21
1250.466454
31
0.0
0
ARC
8
0
10
4171.662068
20
1251.299767
30
0.0
40
1.000000
50
213.288198
51
303.509063
0
LINE
8
0
10
4170.826148
20
1250.750917
30
0.0
11
4170.438887
21
1251.218704
31
0.0
0
LINE
8
0
10
4170.438887
20
1251.218704
30
0.0
11
4170.376027
21
1251.424310
31
0.0
0
LINE
8
0
10
4170.376027
20
1251.424310
30
0.0
11
4169.323232
21
1251.394466
31
0.0
0
ARC
8
0
10
4169.326617
20
1251.094441
30
0.0
40
0.300000
50
92.605413
51
198.251415
0
LINE
8
0
10
4169.041710
20
1251.000485
30
0.0
11
4171.142722
21
1248.286607
31
0.0
0
ARC
8
0
10
4171.301384
20
1248.397605
30
0.0
40
0.200000
50
216.039809
51
37.071526
0
LINE
8
0
10
4171.460960
20
1248.518167
30
0.0
11
4173.006677
21
1249.685977
31
0.0
0
ARC
8
0
10
4173.266987
20
1249.835104
30
0.0
40
0.300000
50
107.000000
51
209.807633
0
LINE
8
0
10
4173.179276
20
1250.121995
30
0.0
11
4173.466167
21
1250.209707
31
0.0
0
ARC
8
0
10
4173.553879
20
1249.922815
30
0.0
40
0.300000
50
270.000000
51
107.000000
0
LINE
8
0
10
4173.553879
20
1249.622815
30
0.0
11
4173.553879
21
1245.122815
31
0.0
0
ARC
8
0
10
4173.353879
20
1245.132918
30
0.0
40
0.200000
50
240.153120
51
357.108405
0
LINE
8
0
10
4173.254342
20
1244.959446
30
0.0
11
4171.453878
21
1245.992538
31
0.0
0
ARC
8
0
10
4171.253879
20
1245.992273
30
0.0
40
0.200000
50
360.000000
51
180.000000
0
LINE
8
0
10
4171.053879
20
1245.992273
30
0.0
11
4171.053879
21
1244.608493
31
0.0
0
ARC
8
0
10
4171.253879
20
1244.608493
30
0.0
40
0.200000
50
180.000000
51
241.694535
0
LINE
8
0
10
4171.159262
20
1244.432198
30
0.0
11
4172.470244
21
1243.679966
31
0.0
0
ARC
8
0
10
4172.121866
20
1243.072815
30
0.0
40
0.700000
50
299.846880
51
60.153120
0
LINE
8
0
10
4172.470244
20
1242.465664
30
0.0
11
4171.159262
21
1241.713433
31
0.0
0
ARC
8
0
10
4171.253879
20
1241.537138
30
0.0
40
0.200000
50
118.305465
51
180.000000
0
LINE
8
0
10
4171.053879
20
1241.537138
30
0.0
11
4171.053879
21
1240.153357
31
0.0
0
ARC
8
0
10
4171.253879
20
1240.153357
30
0.0
40
0.200000
50
180.000000
51
360.000000
0
LINE
8
0
10
4171.453878
20
1240.153093
30
0.0
11
4173.254342
21
1241.186185
31
0.0
0
ARC
8
0
10
4173.353879
20
1241.012713
30
0.0
40
0.200000
50
2.891595
51
119.846880
0
LINE
8
0
10
4173.553879
20
1241.022815
30
0.0
11
4173.553879
21
1236.522815
31
0.0
0
ARC
8
0
10
4173.553879
20
1236.222815
30
0.0
40
0.300000
50
253.000000
51
90.000000
0
LINE
8
0
10
4173.466167
20
1235.935924
30
0.0
11
4173.179276
21
1236.023636
31
0.0
0
ARC
8
0
10
4173.266987
20
1236.310527
30
0.0
40
0.300000
50
150.192367
51
253.000000
0
LINE
8
0
10
4173.006677
20
1236.459654
30
0.0
11
4171.466149
21
1237.623543
31
0.0
0
ARC
8
0
10
4171.306526
20
1237.744045
30
0.0
40
0.200000
50
322.950408
51
140.547648
0
LINE
8
0
10
4171.152095
20
1237.871132
30
0.0
11
4169.041710
21
1235.145146
31
0.0
0
ARC
8
0
10
4169.326617
20
1235.051190
30
0.0
40
0.300000
50
161.748585
51
267.394588
0
LINE
8
0
10
4169.323232
20
1234.751165
30
0.0
11
4170.376027
21
1234.721321
31
0.0
0
LINE
8
0
10
4170.376027
20
1234.721321
30
0.0
11
4170.438887
21
1234.926927
31
0.0
0
LINE
8
0
10
4170.438887
20
1234.926927
30
0.0
11
4170.826148
21
1235.394714
31
0.0
0
ARC
8
0
10
4171.662068
20
1234.845864
30
0.0
40
1.000000
50
56.490937
51
146.711802
0
LINE
8
0
10
4172.213816
20
1235.679176
30
0.0
11
4173.355436
21
1234.815984
31
0.0
0
ARC
8
0
10
4173.053879
20
1234.417157
30
0.0
40
0.500000
50
360.000000
51
52.906671
0
LINE
8
0
10
4173.553879
20
1234.417157
30
0.0
11
4173.553879
21
1232.923869
31
0.0
0
ARC
8
0
10
4174.053879
20
1232.923869
30
0.0
40
0.500000
50
180.000000
51
224.900528
0
ARC
8
0
10
4173.203879
20
1232.076815
30
0.0
40
0.700000
50
300.000000
51
44.900528
0
LINE
8
0
10
4173.553879
20
1231.470598
30
0.0
11
4172.853879
21
1231.066452
31
0.0
0
LINE
8
0
10
4172.853879
20
1231.066452
30
0.0
11
4173.719904
21
1229.566452
31
0.0
0
LINE
8
0
10
4173.719904
20
1229.566452
30
0.0
11
4178.946353
21
1229.566452
31
0.0
0
LINE
8
0
10
4178.946353
20
1229.566452
30
0.0
11
4179.303879
21
1229.866452
31
0.0
0
LINE
8
0
10
4179.303879
20
1229.866452
30
0.0
11
4179.661405
21
1229.566452
31
0.0
0
LINE
8
0
10
4179.661405
20
1229.566452
30
0.0
11
4181.953879
21
1229.566452
31
0.0
0
ARC
8
0
10
4181.953879
20
1229.866452
30
0.0
40
0.300000
50
270.000000
51
360.000000
0
LINE
8
0
10
4182.253879
20
1229.866452
30
0.0
11
4182.253879
21
1230.571162
31
0.0
0
ARC
8
0
10
4181.953879
20
1230.571162
30
0.0
40
0.300000
50
360.000000
51
69.730110
0
LINE
8
0
10
4182.057811
20
1230.852583
30
0.0
11
4181.122859
21
1231.197874
31
0.0
0
ARC
8
0
10
4181.018927
20
1230.916452
30
0.0
40
0.300000
50
69.730110
51
151.486532
0
LINE
8
0
10
4180.755315
20
1231.059662
30
0.0
11
4180.650352
21
1230.866452
31
0.0
0
LINE
8
0
10
4180.650352
20
1230.866452
30
0.0
11
4178.068537
21
1230.866452
31
0.0
0
LINE
8
0
10
4178.068537
20
1230.866452
30
0.0
11
4177.994829
21
1231.043369
31
0.0
0
ARC
8
0
10
4177.810211
20
1230.966452
30
0.0
40
0.200000
50
22.617875
51
154.161696
0
ARC
8
0
10
4177.360197
20
1231.184369
30
0.0
40
0.300000
50
265.000000
51
334.161696
0
LINE
8
0
10
4177.334051
20
1230.885510
30
0.0
11
4175.810301
21
1231.018821
31
0.0
0
ARC
8
0
10
4175.853879
20
1231.516919
30
0.0
40
0.500000
50
180.000000
51
265.000000
0
LINE
8
0
10
4175.353879
20
1231.516919
30
0.0
11
4175.353879
21
1232.616452
31
0.0
0
ARC
8
0
10
4175.853879
20
1232.616452
30
0.0
40
0.500000
50
90.000000
51
180.000000
0
LINE
8
0
10
4175.853879
20
1233.116452
30
0.0
11
4183.653879
21
1233.116452
31
0.0
0
ARC
8
0
10
4183.653879
20
1233.416452
30
0.0
40
0.300000
50
270.000000
51
360.000000
0
LINE
8
0
10
4183.953879
20
1233.416452
30
0.0
11
4183.953879
21
1243.095893
31
0.0
0
ARC
8
0
10
4177.453879
20
1243.095893
30
0.0
40
6.500000
50
360.000000
51
80.000000
0
LINE
8
0
10
4178.582592
20
1249.497143
30
0.0
11
4175.601784
21
1250.022740
31
0.0
0
ATTDEF
8
0
10
0.000000
20
0.000000
30
0.0
40
3.5
1

3

2
PANE_WIDTH:0
70
0
0
ATTDEF
8
0
10
0.000000
20
0.000000
30
0.0
40
3.5
1

3

2
MIN_VETRO:0
70
0
0
ATTDEF
8
0
10
0.000000
20
0.000000
30
0.0
40
3.5
1

3

2
MAX_VETRO:0
70
0
0
ATTDEF
8
0
10
0.000000
20
0.000000
30
0.0
40
3.5
1

3

2
JX:0
70
0
0
ATTDEF
8
0
10
0.000000
20
0.000000
30
0.0
40
3.5
1

3

2
WX:0
70
0
0
ATTDEF
8
0
10
0.000000
20
0.000000
30
0.0
40
3.5
1

3

2
JY:0
70
0
0
ATTDEF
8
0
10
0.000000
20
0.000000
30
0.0
40
3.5
1

3

2
WY:0
70
0
0
ATTDEF
8
0
10
0.000000
20
0.000000
30
0.0
40
3.5
1

3

2
DESC:Marco sol. 45mm eng
70
0
0
ATTDEF
8
0
10
0.000000
20
0.000000
30
0.0
40
3.5
1

3

2
DENS:1.2826
70
0
0
ATTDEF
8
0
10
0.000000
20
0.000000
30
0.0
40
3.5
1

3

2
TDEV:57.65
70
0
0
ATTDEF
8
0
10
0.000000
20
0.000000
30
0.0
40
3.5
1

3

2
TDEV2:0
70
0
0
ATTDEF
8
0
10
0.000000
20
0.000000
30
0.0
40
3.5
1

3

2
TDEV3:0
70
0
0
ATTDEF
8
0
10
0.000000
20
0.000000
30
0.0
40
3.5
1

3

2
TDEV4:0
70
0
0
ATTDEF
8
0
10
0.000000
20
0.000000
30
0.0
40
3.5
1

3

2
TDEV5:0
70
0
0
ATTDEF
8
0
10
0.000000
20
0.000000
30
0.0
40
3.5
1

3

2
PANE_WIDTH:0
70
0
0
ATTDEF
8
0
10
0.000000
20
0.000000
30
0.0
40
3.5
1

3

2
MIN_VETRO:0
70
0
0
ATTDEF
8
0
10
0.000000
20
0.000000
30
0.0
40
3.5
1

3

2
MAX_VETRO:0
70
0
0
ATTDEF
8
0
10
0.000000
20
0.000000
30
0.0
40
3.5
1

3

2
JX:0
70
0
0
ATTDEF
8
0
10
0.000000
20
0.000000
30
0.0
40
3.5
1

3

2
WX:0
70
0
0
ATTDEF
8
0
10
0.000000
20
0.000000
30
0.0
40
3.5
1

3

2
JY:0
70
0
0
ATTDEF
8
0
10
0.000000
20
0.000000
30
0.0
40
3.5
1

3

2
WY:0
70
0
0
ATTDEF
8
0
10
4130.354310
20
1256.566452
30
0.0
40
3.5
1

3

2
VC_START
70
0
0
ATTDEF
8
0
10
4176.333129
20
1229.566452
30
0.0
40
3.5
1

3

2
VC_END
70
0
0
ATTDEF
8
0
10
4183.953879
20
1184.566452
30
0.0
40
3.5
1

3

2
FP_LCS_ORIG
70
0
0
ATTDEF
8
0
10
4173.953879
20
1184.566452
30
0.0
40
3.5
1

3

2
FP_LCS_HOT
70
0
0
ATTDEF
8
0
10
4183.953879
20
1194.566452
30
0.0
40
3.5
1

3

2
FP_LCS_INTERN
70
0
0
ENDSEC
0
EOF
