0
SECTION
2
ENTITIES
0
LINE
8
0
10
183.811871
20
12.189317
30
0.0
11
170.111871
21
13.387911
31
0.0
0
LINE
8
0
10
170.111871
20
13.387911
30
0.0
11
170.111871
21
1.010539
31
0.0
0
LINE
8
0
10
170.111871
20
1.010539
30
0.0
11
183.811871
21
1.010539
31
0.0
0
LINE
8
0
10
183.811871
20
1.010539
30
0.0
11
183.811871
21
12.189317
31
0.0
0
ARC
8
0
10
197.911871
20
2.094598
30
0.0
40
0.200000
50
180.000000
51
360.000000
0
LINE
8
0
10
198.111775
20
2.100788
30
0.0
11
199.787768
21
3.123021
31
0.0
0
ARC
8
0
10
199.943982
20
2.866902
30
0.0
40
0.300000
50
90.000000
51
121.380132
0
LINE
8
0
10
199.943982
20
3.166902
30
0.0
11
200.011871
21
3.166902
31
0.0
0
ARC
8
0
10
200.011871
20
2.966902
30
0.0
40
0.200000
50
360.000000
51
90.000000
0
LINE
8
0
10
200.211871
20
2.966902
30
0.0
11
200.211871
21
-1.533098
31
0.0
0
ARC
8
0
10
200.211871
20
-1.833098
30
0.0
40
0.300000
50
270.000000
51
90.000000
0
LINE
8
0
10
200.211871
20
-2.133098
30
0.0
11
199.856846
21
-2.037547
31
0.0
0
ARC
8
0
10
199.924980
20
-1.745387
30
0.0
40
0.300000
50
231.176024
51
256.872879
0
LINE
8
0
10
199.736901
20
-1.979109
30
0.0
11
198.093731
21
-0.656835
31
0.0
0
ARC
8
0
10
198.219117
20
-0.501020
30
0.0
40
0.200000
50
180.000000
51
231.176024
0
LINE
8
0
10
198.019239
20
-0.494040
30
0.0
11
198.024669
21
-0.338553
31
0.0
0
ARC
8
0
10
197.879137
20
-0.333471
30
0.0
40
0.145621
50
360.000000
51
142.253920
0
LINE
8
0
10
197.763990
20
-0.244327
30
0.0
11
195.699702
21
-2.910768
31
0.0
0
ARC
8
0
10
195.984610
20
-3.004724
30
0.0
40
0.300000
50
161.748585
51
270.000000
0
LINE
8
0
10
195.981225
20
-3.304749
30
0.0
11
196.637846
21
-3.323362
31
0.0
0
ARC
8
0
10
196.652014
20
-2.823563
30
0.0
40
0.500000
50
268.376251
51
308.194227
0
ARC
8
0
10
198.197837
20
-4.788361
30
0.0
40
2.000000
50
56.002945
51
128.194227
0
LINE
8
0
10
199.316138
20
-3.130228
30
0.0
11
199.944385
21
-3.438371
31
0.0
0
ARC
8
0
10
200.164567
20
-2.989461
30
0.0
40
0.500000
50
243.872968
51
270.000000
0
LINE
8
0
10
200.164567
20
-3.489461
30
0.0
11
202.011871
21
-3.489461
31
0.0
0
LINE
8
0
10
202.011871
20
-3.489461
30
0.0
11
202.011871
21
3.554330
31
0.0
0
LINE
8
0
10
202.011871
20
3.554330
30
0.0
11
212.111871
21
2.562134
31
0.0
0
LINE
8
0
10
212.111871
20
2.562134
30
0.0
11
212.111871
21
-3.989461
31
0.0
0
LINE
8
0
10
212.111871
20
-3.989461
30
0.0
11
208.611871
21
-3.989461
31
0.0
0
LINE
8
0
10
208.611871
20
-3.989461
30
0.0
11
208.611871
21
-5.489461
31
0.0
0
LINE
8
0
10
208.611871
20
-5.489461
30
0.0
11
213.611871
21
-5.489461
31
0.0
0
LINE
8
0
10
213.611871
20
-5.489461
30
0.0
11
213.611871
21
2.444728
31
0.0
0
LINE
8
0
10
213.611871
20
2.444728
30
0.0
11
272.915097
21
-4.414007
31
0.0
0
LINE
8
0
10
272.915097
20
-4.414007
30
0.0
11
274.611871
21
-6.110782
31
0.0
0
LINE
8
0
10
274.611871
20
-6.110782
30
0.0
11
274.611871
21
-7.489461
31
0.0
0
LINE
8
0
10
274.611871
20
-7.489461
30
0.0
11
276.111871
21
-7.489461
31
0.0
0
LINE
8
0
10
276.111871
20
-7.489461
30
0.0
11
276.111871
21
-5.489461
31
0.0
0
LINE
8
0
10
276.111871
20
-5.489461
30
0.0
11
273.607257
21
-2.984847
31
0.0
0
LINE
8
0
10
273.607257
20
-2.984847
30
0.0
11
213.611871
21
3.757012
31
0.0
0
LINE
8
0
10
213.611871
20
3.757012
30
0.0
11
213.611871
21
18.510539
31
0.0
0
LINE
8
0
10
213.611871
20
18.510539
30
0.0
11
211.011871
21
18.510539
31
0.0
0
LINE
8
0
10
211.011871
20
18.510539
30
0.0
11
211.011871
21
20.660539
31
0.0
0
LINE
8
0
10
211.011871
20
20.660539
30
0.0
11
211.498235
21
21.146902
31
0.0
0
LINE
8
0
10
211.498235
20
21.146902
30
0.0
11
210.745993
21
22.463326
31
0.0
0
ARC
8
0
10
210.311871
20
22.215257
30
0.0
40
0.500000
50
29.744881
51
180.000000
0
LINE
8
0
10
209.811871
20
22.215257
30
0.0
11
209.811871
21
17.510539
31
0.0
0
ARC
8
0
10
210.311871
20
17.510539
30
0.0
40
0.500000
50
180.000000
51
270.000000
0
LINE
8
0
10
210.311871
20
17.010539
30
0.0
11
212.111871
21
17.010539
31
0.0
0
LINE
8
0
10
212.111871
20
17.010539
30
0.0
11
212.111871
21
3.925572
31
0.0
0
LINE
8
0
10
212.111871
20
3.925572
30
0.0
11
202.011871
21
5.060539
31
0.0
0
LINE
8
0
10
202.011871
20
5.060539
30
0.0
11
202.011871
21
13.510539
31
0.0
0
LINE
8
0
10
202.011871
20
13.510539
30
0.0
11
200.164567
21
13.510539
31
0.0
0
ARC
8
0
10
200.164567
20
13.010539
30
0.0
40
0.500000
50
90.000000
51
116.127032
0
LINE
8
0
10
199.944385
20
13.459449
30
0.0
11
199.316138
21
13.151306
31
0.0
0
ARC
8
0
10
198.197837
20
14.809438
30
0.0
40
2.000000
50
231.805773
51
303.997055
0
ARC
8
0
10
196.652014
20
12.844640
30
0.0
40
0.500000
50
51.805773
51
91.623749
0
LINE
8
0
10
196.637846
20
13.344440
30
0.0
11
195.981225
21
13.325826
31
0.0
0
ARC
8
0
10
195.984610
20
13.025802
30
0.0
40
0.300000
50
90.000000
51
198.251415
0
LINE
8
0
10
195.699702
20
12.931845
30
0.0
11
197.763990
21
10.265404
31
0.0
0
ARC
8
0
10
197.879137
20
10.354548
30
0.0
40
0.145621
50
217.746080
51
360.000000
0
LINE
8
0
10
198.024669
20
10.359630
30
0.0
11
198.019239
21
10.515117
31
0.0
0
ARC
8
0
10
198.219117
20
10.522097
30
0.0
40
0.200000
50
128.823976
51
180.000000
0
LINE
8
0
10
198.093731
20
10.677912
30
0.0
11
199.736901
21
12.000187
31
0.0
0
ARC
8
0
10
199.924980
20
11.766464
30
0.0
40
0.300000
50
103.127121
51
128.823976
0
LINE
8
0
10
199.856846
20
12.058625
30
0.0
11
200.211871
21
12.154176
31
0.0
0
ARC
8
0
10
200.211871
20
11.854176
30
0.0
40
0.300000
50
270.000000
51
90.000000
0
LINE
8
0
10
200.211871
20
11.554176
30
0.0
11
200.211871
21
7.054176
31
0.0
0
ARC
8
0
10
200.011871
20
7.054176
30
0.0
40
0.200000
50
270.000000
51
360.000000
0
LINE
8
0
10
200.011871
20
6.854176
30
0.0
11
199.943982
21
6.854176
31
0.0
0
ARC
8
0
10
199.943982
20
7.154176
30
0.0
40
0.300000
50
238.619868
51
270.000000
0
LINE
8
0
10
199.787768
20
6.898056
30
0.0
11
198.111775
21
7.920289
31
0.0
0
ARC
8
0
10
197.911871
20
7.926479
30
0.0
40
0.200000
50
360.000000
51
180.000000
0
LINE
8
0
10
197.711871
20
7.926479
30
0.0
11
197.711871
21
6.534561
31
0.0
0
ARC
8
0
10
197.911871
20
6.534561
30
0.0
40
0.200000
50
180.000000
51
240.000000
0
LINE
8
0
10
197.811871
20
6.361355
30
0.0
11
199.101554
21
5.616757
31
0.0
0
ARC
8
0
10
198.751554
20
5.010539
30
0.0
40
0.700000
50
300.000000
51
60.000000
0
LINE
8
0
10
199.101554
20
4.404321
30
0.0
11
197.811871
21
3.659722
31
0.0
0
ARC
8
0
10
197.911871
20
3.486517
30
0.0
40
0.200000
50
120.000000
51
180.000000
0
LINE
8
0
10
197.711871
20
3.486517
30
0.0
11
197.711871
21
2.094598
31
0.0
0
LINE
8
0
10
185.863015
20
9.800321
30
0.0
11
187.007336
21
10.944642
31
0.0
0
LINE
8
0
10
185.669757
20
7.361999
30
0.0
11
188.481371
21
10.173613
31
0.0
0
LINE
8
0
10
188.922084
20
8.369262
30
0.0
11
190.722084
21
10.169262
31
0.0
0
LINE
8
0
10
191.167148
20
8.369262
30
0.0
11
192.967148
21
10.169262
31
0.0
0
LINE
8
0
10
186.393909
20
1.350959
30
0.0
11
187.300745
21
2.257795
31
0.0
0
LINE
8
0
10
193.412212
20
8.369262
30
0.0
11
195.212212
21
10.169262
31
0.0
0
LINE
8
0
10
185.945392
20
-1.342622
30
0.0
11
188.939829
21
1.651815
31
0.0
0
LINE
8
0
10
195.657276
20
8.369262
30
0.0
11
197.491919
21
10.203904
31
0.0
0
LINE
8
0
10
189.384893
20
-0.148185
30
0.0
11
191.184893
21
1.651815
31
0.0
0
LINE
8
0
10
199.399042
20
9.865964
30
0.0
11
200.211871
21
10.678793
31
0.0
0
LINE
8
0
10
197.745341
20
8.212263
30
0.0
11
198.865170
21
9.332092
31
0.0
0
LINE
8
0
10
191.629958
20
-0.148185
30
0.0
11
193.429958
21
1.651815
31
0.0
0
LINE
8
0
10
199.168655
20
7.390512
30
0.0
11
200.111871
21
8.333729
31
0.0
0
LINE
8
0
10
193.875022
20
-0.148185
30
0.0
11
195.675022
21
1.651815
31
0.0
0
LINE
8
0
10
196.120086
20
-0.148185
30
0.0
11
198.530255
21
2.261985
31
0.0
0
LINE
8
0
10
198.038750
20
-0.474584
30
0.0
11
198.950806
21
0.437471
31
0.0
0
LINE
8
0
10
199.790384
20
1.277050
30
0.0
11
200.111871
21
1.598537
31
0.0
0
LINE
8
0
10
199.462064
20
-1.296334
30
0.0
11
200.211871
21
-0.546527
31
0.0
0
LINE
8
0
10
186.489836
20
-1.222343
30
0.0
11
185.615677
21
-0.348185
31
0.0
0
LINE
8
0
10
187.913149
20
-0.400592
30
0.0
11
186.935773
21
0.576783
31
0.0
0
LINE
8
0
10
185.660742
20
1.851815
30
0.0
11
185.611871
21
1.900686
31
0.0
0
LINE
8
0
10
186.186839
20
1.325717
30
0.0
11
185.711871
21
1.800686
31
0.0
0
LINE
8
0
10
189.905806
20
-0.148185
30
0.0
11
187.771776
21
1.985845
31
0.0
0
LINE
8
0
10
192.150870
20
-0.148185
30
0.0
11
190.350870
21
1.651815
31
0.0
0
LINE
8
0
10
194.395934
20
-0.148185
30
0.0
11
192.595934
21
1.651815
31
0.0
0
LINE
8
0
10
186.783245
20
7.464504
30
0.0
11
185.711871
21
8.535878
31
0.0
0
LINE
8
0
10
196.640998
20
-0.148185
30
0.0
11
194.840998
21
1.651815
31
0.0
0
LINE
8
0
10
188.207646
20
8.285166
30
0.0
11
185.611871
21
10.880942
31
0.0
0
LINE
8
0
10
200.024725
20
-1.286848
30
0.0
11
197.086062
21
1.651815
31
0.0
0
LINE
8
0
10
190.368615
20
8.369262
30
0.0
11
188.568615
21
10.169262
31
0.0
0
LINE
8
0
10
199.667440
20
1.315501
30
0.0
11
198.651155
21
2.331786
31
0.0
0
LINE
8
0
10
192.613679
20
8.369262
30
0.0
11
190.813679
21
10.169262
31
0.0
0
LINE
8
0
10
194.858743
20
8.369262
30
0.0
11
193.058743
21
10.169262
31
0.0
0
LINE
8
0
10
197.103807
20
8.369262
30
0.0
11
195.303807
21
10.169262
31
0.0
0
LINE
8
0
10
200.207545
20
7.510588
30
0.0
11
197.508866
21
10.209267
31
0.0
0
LINE
8
0
10
200.078916
20
9.884281
30
0.0
11
198.944564
21
11.018633
31
0.0
0
ARC
8
0
10
199.800065
20
9.994262
30
0.0
40
0.200000
50
244.992167
51
286.231301
0
ARC
8
0
10
199.911871
20
9.994262
30
0.0
40
0.200000
50
253.768699
51
360.000000
0
LINE
8
0
10
200.111871
20
9.994262
30
0.0
11
200.111871
21
10.369262
31
0.0
0
LINE
8
0
10
200.111871
20
10.369262
30
0.0
11
200.211871
21
10.369262
31
0.0
0
LINE
8
0
10
200.211871
20
10.369262
30
0.0
11
200.211871
21
10.969262
31
0.0
0
ARC
8
0
10
199.811871
20
10.969262
30
0.0
40
0.400000
50
360.000000
51
90.000000
0
LINE
8
0
10
199.811871
20
11.369262
30
0.0
11
199.605461
21
11.369262
31
0.0
0
ARC
8
0
10
199.605461
20
11.169262
30
0.0
40
0.200000
50
90.000000
51
120.000000
0
LINE
8
0
10
199.505461
20
11.342467
30
0.0
11
197.659051
21
10.276442
31
0.0
0
ARC
8
0
10
197.259051
20
10.969262
30
0.0
40
0.800000
50
270.000000
51
300.000000
0
LINE
8
0
10
197.259051
20
10.169262
30
0.0
11
192.911871
21
10.169262
31
0.0
0
LINE
8
0
10
192.911871
20
10.169262
30
0.0
11
188.564692
21
10.169262
31
0.0
0
ARC
8
0
10
188.564692
20
10.969262
30
0.0
40
0.800000
50
240.000000
51
270.000000
0
LINE
8
0
10
188.164692
20
10.276442
30
0.0
11
186.318281
21
11.342467
31
0.0
0
ARC
8
0
10
186.218281
20
11.169262
30
0.0
40
0.200000
50
60.000000
51
90.000000
0
LINE
8
0
10
186.218281
20
11.369262
30
0.0
11
186.011871
21
11.369262
31
0.0
0
ARC
8
0
10
186.011871
20
10.969262
30
0.0
40
0.400000
50
90.000000
51
180.000000
0
LINE
8
0
10
185.611871
20
10.969262
30
0.0
11
185.611871
21
10.369262
31
0.0
0
LINE
8
0
10
185.611871
20
10.369262
30
0.0
11
185.711871
21
10.369262
31
0.0
0
LINE
8
0
10
185.711871
20
10.369262
30
0.0
11
185.711871
21
9.994262
31
0.0
0
ARC
8
0
10
185.911871
20
9.994262
30
0.0
40
0.200000
50
180.000000
51
286.231301
0
ARC
8
0
10
186.023678
20
9.994262
30
0.0
40
0.200000
50
253.768699
51
295.007833
0
ARC
8
0
10
186.361871
20
9.269262
30
0.0
40
0.600000
50
360.000000
51
115.007833
0
ARC
8
0
10
186.361871
20
9.269262
30
0.0
40
0.600000
50
244.992167
51
360.000000
0
ARC
8
0
10
186.023678
20
8.544262
30
0.0
40
0.200000
50
64.992167
51
106.231301
0
ARC
8
0
10
185.911871
20
8.544262
30
0.0
40
0.200000
50
73.768699
51
180.000000
0
LINE
8
0
10
185.711871
20
8.544262
30
0.0
11
185.711871
21
8.169262
31
0.0
0
LINE
8
0
10
185.711871
20
8.169262
30
0.0
11
185.611871
21
8.169262
31
0.0
0
LINE
8
0
10
185.611871
20
8.169262
30
0.0
11
185.611871
21
7.569262
31
0.0
0
ARC
8
0
10
186.011871
20
7.569262
30
0.0
40
0.400000
50
180.000000
51
270.000000
0
LINE
8
0
10
186.011871
20
7.169262
30
0.0
11
186.218281
21
7.169262
31
0.0
0
ARC
8
0
10
186.218281
20
7.369262
30
0.0
40
0.200000
50
270.000000
51
300.000000
0
LINE
8
0
10
186.318281
20
7.196057
30
0.0
11
188.164692
21
8.262083
31
0.0
0
ARC
8
0
10
188.564692
20
7.569262
30
0.0
40
0.800000
50
90.000000
51
120.000000
0
LINE
8
0
10
188.564692
20
8.369262
30
0.0
11
192.629029
21
8.369262
31
0.0
0
ARC
8
0
10
192.629029
20
8.169262
30
0.0
40
0.200000
50
51.057559
51
90.000000
0
ARC
8
0
10
192.911871
20
8.519262
30
0.0
40
0.250000
50
231.057559
51
308.942441
0
ARC
8
0
10
193.194714
20
8.169262
30
0.0
40
0.200000
50
90.000000
51
128.942441
0
LINE
8
0
10
193.194714
20
8.369262
30
0.0
11
197.259051
21
8.369262
31
0.0
0
ARC
8
0
10
197.259051
20
7.569262
30
0.0
40
0.800000
50
60.000000
51
90.000000
0
LINE
8
0
10
197.659051
20
8.262083
30
0.0
11
199.505461
21
7.196057
31
0.0
0
ARC
8
0
10
199.605461
20
7.369262
30
0.0
40
0.200000
50
240.000000
51
270.000000
0
LINE
8
0
10
199.605461
20
7.169262
30
0.0
11
199.811871
21
7.169262
31
0.0
0
ARC
8
0
10
199.811871
20
7.569262
30
0.0
40
0.400000
50
270.000000
51
360.000000
0
LINE
8
0
10
200.211871
20
7.569262
30
0.0
11
200.211871
21
8.169262
31
0.0
0
LINE
8
0
10
200.211871
20
8.169262
30
0.0
11
200.111871
21
8.169262
31
0.0
0
LINE
8
0
10
200.111871
20
8.169262
30
0.0
11
200.111871
21
8.544262
31
0.0
0
ARC
8
0
10
199.911871
20
8.544262
30
0.0
40
0.200000
50
360.000000
51
106.231301
0
ARC
8
0
10
199.800065
20
8.544262
30
0.0
40
0.200000
50
73.768699
51
115.007833
0
ARC
8
0
10
199.461871
20
9.269262
30
0.0
40
0.600000
50
180.000000
51
295.007833
0
ARC
8
0
10
199.461871
20
9.269262
30
0.0
40
0.600000
50
64.992167
51
180.000000
0
ARC
8
0
10
199.800065
20
0.026815
30
0.0
40
0.200000
50
73.768699
51
115.007833
0
ARC
8
0
10
199.911871
20
0.026815
30
0.0
40
0.200000
50
360.000000
51
106.231301
0
LINE
8
0
10
200.111871
20
0.026815
30
0.0
11
200.111871
21
-0.348185
31
0.0
0
LINE
8
0
10
200.111871
20
-0.348185
30
0.0
11
200.211871
21
-0.348185
31
0.0
0
LINE
8
0
10
200.211871
20
-0.348185
30
0.0
11
200.211871
21
-0.948185
31
0.0
0
ARC
8
0
10
199.811871
20
-0.948185
30
0.0
40
0.400000
50
270.000000
51
360.000000
0
LINE
8
0
10
199.811871
20
-1.348185
30
0.0
11
199.605461
21
-1.348185
31
0.0
0
ARC
8
0
10
199.605461
20
-1.148185
30
0.0
40
0.200000
50
240.000000
51
270.000000
0
LINE
8
0
10
199.505461
20
-1.321390
30
0.0
11
197.659051
21
-0.255364
31
0.0
0
ARC
8
0
10
197.259051
20
-0.948185
30
0.0
40
0.800000
50
60.000000
51
90.000000
0
LINE
8
0
10
197.259051
20
-0.148185
30
0.0
11
192.911871
21
-0.148185
31
0.0
0
LINE
8
0
10
192.911871
20
-0.148185
30
0.0
11
188.564692
21
-0.148185
31
0.0
0
ARC
8
0
10
188.564692
20
-0.948185
30
0.0
40
0.800000
50
90.000000
51
120.000000
0
LINE
8
0
10
188.164692
20
-0.255364
30
0.0
11
186.318281
21
-1.321390
31
0.0
0
ARC
8
0
10
186.218281
20
-1.148185
30
0.0
40
0.200000
50
270.000000
51
300.000000
0
LINE
8
0
10
186.218281
20
-1.348185
30
0.0
11
186.011871
21
-1.348185
31
0.0
0
ARC
8
0
10
186.011871
20
-0.948185
30
0.0
40
0.400000
50
180.000000
51
270.000000
0
LINE
8
0
10
185.611871
20
-0.948185
30
0.0
11
185.611871
21
-0.348185
31
0.0
0
LINE
8
0
10
185.611871
20
-0.348185
30
0.0
11
185.711871
21
-0.348185
31
0.0
0
LINE
8
0
10
185.711871
20
-0.348185
30
0.0
11
185.711871
21
0.026815
31
0.0
0
ARC
8
0
10
185.911871
20
0.026815
30
0.0
40
0.200000
50
73.768699
51
180.000000
0
ARC
8
0
10
186.023678
20
0.026815
30
0.0
40
0.200000
50
64.992167
51
106.231301
0
ARC
8
0
10
186.361871
20
0.751815
30
0.0
40
0.600000
50
244.992167
51
360.000000
0
ARC
8
0
10
186.361871
20
0.751815
30
0.0
40
0.600000
50
360.000000
51
115.007833
0
ARC
8
0
10
186.023678
20
1.476815
30
0.0
40
0.200000
50
253.768699
51
295.007833
0
ARC
8
0
10
185.911871
20
1.476815
30
0.0
40
0.200000
50
180.000000
51
286.231301
0
LINE
8
0
10
185.711871
20
1.476815
30
0.0
11
185.711871
21
1.851815
31
0.0
0
LINE
8
0
10
185.711871
20
1.851815
30
0.0
11
185.611871
21
1.851815
31
0.0
0
LINE
8
0
10
185.611871
20
1.851815
30
0.0
11
185.611871
21
2.451815
31
0.0
0
ARC
8
0
10
186.011871
20
2.451815
30
0.0
40
0.400000
50
90.000000
51
180.000000
0
LINE
8
0
10
186.011871
20
2.851815
30
0.0
11
186.218281
21
2.851815
31
0.0
0
ARC
8
0
10
186.218281
20
2.651815
30
0.0
40
0.200000
50
60.000000
51
90.000000
0
LINE
8
0
10
186.318281
20
2.825020
30
0.0
11
188.164692
21
1.758995
31
0.0
0
ARC
8
0
10
188.564692
20
2.451815
30
0.0
40
0.800000
50
240.000000
51
270.000000
0
LINE
8
0
10
188.564692
20
1.651815
30
0.0
11
192.629029
21
1.651815
31
0.0
0
ARC
8
0
10
192.629029
20
1.851815
30
0.0
40
0.200000
50
270.000000
51
308.942441
0
ARC
8
0
10
192.911871
20
1.501815
30
0.0
40
0.250000
50
51.057559
51
128.942441
0
ARC
8
0
10
193.194714
20
1.851815
30
0.0
40
0.200000
50
231.057559
51
270.000000
0
LINE
8
0
10
193.194714
20
1.651815
30
0.0
11
197.259051
21
1.651815
31
0.0
0
ARC
8
0
10
197.259051
20
2.451815
30
0.0
40
0.800000
50
270.000000
51
300.000000
0
LINE
8
0
10
197.659051
20
1.758995
30
0.0
11
199.505461
21
2.825020
31
0.0
0
ARC
8
0
10
199.605461
20
2.651815
30
0.0
40
0.200000
50
90.000000
51
120.000000
0
LINE
8
0
10
199.605461
20
2.851815
30
0.0
11
199.811871
21
2.851815
31
0.0
0
ARC
8
0
10
199.811871
20
2.451815
30
0.0
40
0.400000
50
360.000000
51
90.000000
0
LINE
8
0
10
200.211871
20
2.451815
30
0.0
11
200.211871
21
1.851815
31
0.0
0
LINE
8
0
10
200.211871
20
1.851815
30
0.0
11
200.111871
21
1.851815
31
0.0
0
LINE
8
0
10
200.111871
20
1.851815
30
0.0
11
200.111871
21
1.476815
31
0.0
0
ARC
8
0
10
199.911871
20
1.476815
30
0.0
40
0.200000
50
253.768699
51
360.000000
0
ARC
8
0
10
199.800065
20
1.476815
30
0.0
40
0.200000
50
244.992167
51
286.231301
0
ARC
8
0
10
199.461871
20
0.751815
30
0.0
40
0.600000
50
64.992167
51
180.000000
0
ARC
8
0
10
199.461871
20
0.751815
30
0.0
40
0.600000
50
180.000000
51
295.007833
0
ARC
8
0
10
187.911871
20
3.498071
30
0.0
40
0.200000
50
360.000000
51
58.619868
0
LINE
8
0
10
188.016014
20
3.668817
30
0.0
11
186.801783
21
4.409409
31
0.0
0
ARC
8
0
10
187.166282
20
5.007021
30
0.0
40
0.700000
50
180.000000
51
238.619868
0
ARC
8
0
10
187.166247
20
5.014035
30
0.0
40
0.700000
50
121.380132
51
180.000000
0
LINE
8
0
10
186.801748
20
5.611647
30
0.0
11
188.016014
21
6.352260
31
0.0
0
ARC
8
0
10
187.911871
20
6.523006
30
0.0
40
0.200000
50
301.380132
51
360.000000
0
LINE
8
0
10
188.111871
20
6.523006
30
0.0
11
188.111871
21
7.929997
31
0.0
0
ARC
8
0
10
187.911871
20
7.929997
30
0.0
40
0.200000
50
360.000000
51
180.000000
0
LINE
8
0
10
187.711967
20
7.923807
30
0.0
11
186.035974
21
6.901574
31
0.0
0
ARC
8
0
10
185.879760
20
7.157693
30
0.0
40
0.300000
50
270.000000
51
301.380132
0
LINE
8
0
10
185.879760
20
6.857693
30
0.0
11
185.811871
21
6.857693
31
0.0
0
ARC
8
0
10
185.811871
20
7.057693
30
0.0
40
0.200000
50
180.000000
51
270.000000
0
LINE
8
0
10
185.611871
20
7.057693
30
0.0
11
185.611871
21
11.557693
31
0.0
0
ARC
8
0
10
185.611871
20
11.857693
30
0.0
40
0.300000
50
71.341100
51
270.000000
0
LINE
8
0
10
185.707851
20
12.141925
30
0.0
11
185.992083
21
12.045945
31
0.0
0
ARC
8
0
10
185.896103
20
11.761713
30
0.0
40
0.300000
50
49.517123
51
71.341100
0
LINE
8
0
10
186.090869
20
11.989893
30
0.0
11
187.695072
21
10.620604
31
0.0
0
ARC
8
0
10
187.565227
20
10.468484
30
0.0
40
0.200000
50
356.341100
51
49.517123
0
LINE
8
0
10
187.764820
20
10.455721
30
0.0
11
187.754891
21
10.300456
31
0.0
0
ARC
8
0
10
187.900215
20
10.291163
30
0.0
40
0.145621
50
180.000000
51
316.021840
0
LINE
8
0
10
188.005004
20
10.190046
30
0.0
11
188.465172
21
10.666927
31
0.0
0
LINE
8
0
10
188.465172
20
10.666927
30
0.0
11
188.507786
21
10.722992
31
0.0
0
LINE
8
0
10
188.507786
20
10.722992
30
0.0
11
189.931489
21
13.140191
31
0.0
0
ARC
8
0
10
189.672994
20
13.292441
30
0.0
40
0.300000
50
329.502378
51
90.000000
0
LINE
8
0
10
189.672994
20
13.592441
30
0.0
11
188.984198
21
13.592441
31
0.0
0
ARC
8
0
10
188.984198
20
13.092441
30
0.0
40
0.500000
50
90.000000
51
133.534275
0
ARC
8
0
10
187.262227
20
14.904847
30
0.0
40
2.000000
50
223.922027
51
313.534275
0
ARC
8
0
10
186.361871
20
14.037749
30
0.0
40
0.750000
50
216.212327
51
223.922027
0
LINE
8
0
10
185.756746
20
13.594665
30
0.0
11
183.811871
21
13.594665
31
0.0
0
LINE
8
0
10
183.811871
20
13.594665
30
0.0
11
169.911871
21
14.810757
31
0.0
0
LINE
8
0
10
169.911871
20
14.810757
30
0.0
11
169.911871
21
17.005905
31
0.0
0
LINE
8
0
10
169.911871
20
17.005905
30
0.0
11
174.611575
21
17.005905
31
0.0
0
LINE
8
0
10
174.611575
20
17.005905
30
0.0
11
174.611575
21
22.005905
31
0.0
0
ARC
8
0
10
174.111575
20
22.005905
30
0.0
40
0.500000
50
360.000000
51
156.732732
0
LINE
8
0
10
173.652239
20
22.203416
30
0.0
11
172.611575
21
20.405905
31
0.0
0
LINE
8
0
10
172.611575
20
20.405905
30
0.0
11
173.011871
21
20.005609
31
0.0
0
LINE
8
0
10
173.011871
20
20.005609
30
0.0
11
173.311575
21
18.305905
31
0.0
0
LINE
8
0
10
173.311575
20
18.305905
30
0.0
11
168.611871
21
18.305905
31
0.0
0
LINE
8
0
10
168.611871
20
18.305905
30
0.0
11
168.611871
21
14.924492
31
0.0
0
LINE
8
0
10
168.611871
20
14.924492
30
0.0
11
159.698111
21
15.704345
31
0.0
0
ARC
8
0
10
160.011871
20
19.290646
30
0.0
40
3.600000
50
180.000000
51
265.000000
0
LINE
8
0
10
156.411871
20
19.290646
30
0.0
11
156.411871
21
25.619144
31
0.0
0
LINE
8
0
10
156.411871
20
25.619144
30
0.0
11
157.311871
21
25.619144
31
0.0
0
ARC
8
0
10
157.311871
20
26.319144
30
0.0
40
0.700000
50
270.000000
51
90.000000
0
LINE
8
0
10
157.311871
20
27.019144
30
0.0
11
155.511871
21
27.019144
31
0.0
0
ARC
8
0
10
155.511871
20
26.519144
30
0.0
40
0.500000
50
90.000000
51
180.000000
0
LINE
8
0
10
155.011871
20
26.519144
30
0.0
11
155.011871
21
19.290646
31
0.0
0
ARC
8
0
10
160.011871
20
19.290646
30
0.0
40
5.000000
50
180.000000
51
265.000000
0
LINE
8
0
10
159.576093
20
14.309673
30
0.0
11
168.611871
21
13.519144
31
0.0
0
LINE
8
0
10
168.611871
20
13.519144
30
0.0
11
168.611871
21
-5.489461
31
0.0
0
LINE
8
0
10
168.611871
20
-5.489461
30
0.0
11
172.245846
21
-5.489461
31
0.0
0
LINE
8
0
10
172.245846
20
-5.489461
30
0.0
11
173.111871
21
-3.989461
31
0.0
0
LINE
8
0
10
173.111871
20
-3.989461
30
0.0
11
172.505653
21
-3.639461
31
0.0
0
LINE
8
0
10
172.505653
20
-3.639461
30
0.0
11
172.303581
21
-3.989461
31
0.0
0
LINE
8
0
10
172.303581
20
-3.989461
30
0.0
11
170.111871
21
-3.989461
31
0.0
0
LINE
8
0
10
170.111871
20
-3.989461
30
0.0
11
170.111871
21
-0.489461
31
0.0
0
LINE
8
0
10
170.111871
20
-0.489461
30
0.0
11
183.811871
21
-0.489461
31
0.0
0
LINE
8
0
10
183.811871
20
-0.489461
30
0.0
11
183.811871
21
-5.489461
31
0.0
0
LINE
8
0
10
183.811871
20
-5.489461
30
0.0
11
185.311871
21
-5.489461
31
0.0
0
LINE
8
0
10
185.311871
20
-5.489461
30
0.0
11
185.611871
21
-4.023706
31
0.0
0
ARC
8
0
10
186.361871
20
-4.023706
30
0.0
40
0.750000
50
136.077973
51
180.000000
0
ARC
8
0
10
187.262227
20
-4.890805
30
0.0
40
2.000000
50
46.465725
51
136.077973
0
ARC
8
0
10
188.984198
20
-3.078398
30
0.0
40
0.500000
50
226.465725
51
270.000000
0
LINE
8
0
10
188.984198
20
-3.578398
30
0.0
11
189.672994
21
-3.578398
31
0.0
0
ARC
8
0
10
189.672994
20
-3.278398
30
0.0
40
0.300000
50
270.000000
51
30.497622
0
LINE
8
0
10
189.931489
20
-3.126148
30
0.0
11
188.507786
21
-0.708949
31
0.0
0
LINE
8
0
10
188.507786
20
-0.708949
30
0.0
11
188.465172
21
-0.652884
31
0.0
0
LINE
8
0
10
188.465172
20
-0.652884
30
0.0
11
188.005004
21
-0.176003
31
0.0
0
ARC
8
0
10
187.900215
20
-0.277120
30
0.0
40
0.145621
50
43.978161
51
180.000000
0
LINE
8
0
10
187.754891
20
-0.286413
30
0.0
11
187.764820
21
-0.441678
31
0.0
0
ARC
8
0
10
187.565227
20
-0.454441
30
0.0
40
0.200000
50
310.482877
51
3.658900
0
LINE
8
0
10
187.695072
20
-0.606561
30
0.0
11
186.090869
21
-1.975850
31
0.0
0
ARC
8
0
10
185.896103
20
-1.747670
30
0.0
40
0.300000
50
288.658900
51
310.482877
0
LINE
8
0
10
185.992083
20
-2.031902
30
0.0
11
185.707851
21
-2.127882
31
0.0
0
ARC
8
0
10
185.611871
20
-1.843650
30
0.0
40
0.300000
50
90.000000
51
288.658900
0
LINE
8
0
10
185.611871
20
-1.543650
30
0.0
11
185.611871
21
2.956350
31
0.0
0
ARC
8
0
10
185.811871
20
2.956350
30
0.0
40
0.200000
50
90.000000
51
180.000000
0
LINE
8
0
10
185.811871
20
3.156350
30
0.0
11
185.879760
21
3.156350
31
0.0
0
ARC
8
0
10
185.879760
20
2.856350
30
0.0
40
0.300000
50
58.619868
51
90.000000
0
LINE
8
0
10
186.035974
20
3.112469
30
0.0
11
187.711967
21
2.090236
31
0.0
0
ARC
8
0
10
187.911871
20
2.084046
30
0.0
40
0.200000
50
180.000000
51
360.000000
0
LINE
8
0
10
188.111871
20
2.084046
30
0.0
11
188.111871
21
3.498071
31
0.0
0
ATTDEF
8
0
10
0.000000
20
0.000000
30
0.0
40
3.5
1

3

2
PANE_WIDTH:0
70
0
0
ATTDEF
8
0
10
0.000000
20
0.000000
30
0.0
40
3.5
1

3

2
MIN_VETRO:0
70
0
0
ATTDEF
8
0
10
0.000000
20
0.000000
30
0.0
40
3.5
1

3

2
MAX_VETRO:0
70
0
0
ATTDEF
8
0
10
0.000000
20
0.000000
30
0.0
40
3.5
1

3

2
JX:0
70
0
0
ATTDEF
8
0
10
0.000000
20
0.000000
30
0.0
40
3.5
1

3

2
WX:0
70
0
0
ATTDEF
8
0
10
0.000000
20
0.000000
30
0.0
40
3.5
1

3

2
JY:0
70
0
0
ATTDEF
8
0
10
0.000000
20
0.000000
30
0.0
40
3.5
1

3

2
WY:0
70
0
0
ATTDEF
8
0
10
0.000000
20
0.000000
30
0.0
40
3.5
1

3

2
DESC:Condensacion 121mm.
70
0
0
ATTDEF
8
0
10
0.000000
20
0.000000
30
0.0
40
3.5
1

3

2
DENS:1.1611
70
0
0
ATTDEF
8
0
10
0.000000
20
0.000000
30
0.0
40
3.5
1

3

2
TDEV:52.83
70
0
0
ATTDEF
8
0
10
0.000000
20
0.000000
30
0.0
40
3.5
1

3

2
TDEV2:0
70
0
0
ATTDEF
8
0
10
0.000000
20
0.000000
30
0.0
40
3.5
1

3

2
TDEV3:0
70
0
0
ATTDEF
8
0
10
0.000000
20
0.000000
30
0.0
40
3.5
1

3

2
TDEV4:0
70
0
0
ATTDEF
8
0
10
0.000000
20
0.000000
30
0.0
40
3.5
1

3

2
TDEV5:0
70
0
0
ATTDEF
8
0
10
0.000000
20
0.000000
30
0.0
40
3.5
1

3

2
PANE_WIDTH:0
70
0
0
ATTDEF
8
0
10
0.000000
20
0.000000
30
0.0
40
3.5
1

3

2
MIN_VETRO:0
70
0
0
ATTDEF
8
0
10
0.000000
20
0.000000
30
0.0
40
3.5
1

3

2
MAX_VETRO:0
70
0
0
ATTDEF
8
0
10
0.000000
20
0.000000
30
0.0
40
3.5
1

3

2
JX:0
70
0
0
ATTDEF
8
0
10
0.000000
20
0.000000
30
0.0
40
3.5
1

3

2
WX:0
70
0
0
ATTDEF
8
0
10
0.000000
20
0.000000
30
0.0
40
3.5
1

3

2
JY:0
70
0
0
ATTDEF
8
0
10
0.000000
20
0.000000
30
0.0
40
3.5
1

3

2
WY:0
70
0
0
ATTDEF
8
0
10
213.611871
20
18.510539
30
0.0
40
3.5
1

3

2
VC_START
70
0
0
ATTDEF
8
0
10
213.611871
20
-5.489461
30
0.0
40
3.5
1

3

2
VC_END
70
0
0
ATTDEF
8
0
10
276.111871
20
-7.489461
30
0.0
40
3.5
1

3

2
FP_LCS_ORIG
70
0
0
ATTDEF
8
0
10
266.111871
20
-7.489461
30
0.0
40
3.5
1

3

2
FP_LCS_HOT
70
0
0
ATTDEF
8
0
10
276.111871
20
2.510539
30
0.0
40
3.5
1

3

2
FP_LCS_INTERN
70
0
0
ENDSEC
0
EOF
