0
SECTION
2
ENTITIES
0
LINE
8
0
10
4220.025491
20
1232.206339
30
0.0
11
4220.025491
21
1236.706339
31
0.0
0
LINE
8
0
10
4220.025491
20
1236.706339
30
0.0
11
4224.525491
21
1236.706339
31
0.0
0
LINE
8
0
10
4224.525491
20
1236.706339
30
0.0
11
4224.525491
21
1215.356339
31
0.0
0
LINE
8
0
10
4224.525491
20
1215.356339
30
0.0
11
4196.025491
21
1215.356339
31
0.0
0
LINE
8
0
10
4196.025491
20
1215.356339
30
0.0
11
4196.025491
21
1230.856339
31
0.0
0
LINE
8
0
10
4196.025491
20
1230.856339
30
0.0
11
4198.525491
21
1230.856339
31
0.0
0
LINE
8
0
10
4198.525491
20
1230.856339
30
0.0
11
4198.525491
21
1232.206339
31
0.0
0
LINE
8
0
10
4198.525491
20
1232.206339
30
0.0
11
4220.025491
21
1232.206339
31
0.0
0
LINE
8
0
10
4230.256137
20
1238.028781
30
0.0
11
4229.599516
21
1238.047395
31
0.0
0
ARC
8
0
10
4229.585348
20
1237.547595
30
0.0
40
0.500000
50
88.376251
51
128.194227
0
ARC
8
0
10
4228.039525
20
1239.512393
30
0.0
40
2.000000
50
236.002945
51
308.194227
0
LINE
8
0
10
4226.921224
20
1237.854261
30
0.0
11
4226.137418
21
1238.238702
31
0.0
0
ARC
8
0
10
4226.225491
20
1238.418266
30
0.0
40
0.200000
50
180.000000
51
243.872968
0
LINE
8
0
10
4226.025491
20
1238.418266
30
0.0
11
4226.025491
21
1243.206339
31
0.0
0
LINE
8
0
10
4226.025491
20
1243.206339
30
0.0
11
4224.075491
21
1243.206339
31
0.0
0
LINE
8
0
10
4224.075491
20
1243.206339
30
0.0
11
4223.075491
21
1242.206339
31
0.0
0
LINE
8
0
10
4223.075491
20
1242.206339
30
0.0
11
4223.075491
21
1241.206339
31
0.0
0
LINE
8
0
10
4223.075491
20
1241.206339
30
0.0
11
4224.525491
21
1241.206339
31
0.0
0
LINE
8
0
10
4224.525491
20
1241.206339
30
0.0
11
4224.525491
21
1238.206339
31
0.0
0
LINE
8
0
10
4224.525491
20
1238.206339
30
0.0
11
4218.425491
21
1238.206339
31
0.0
0
LINE
8
0
10
4218.425491
20
1238.206339
30
0.0
11
4218.425491
21
1241.206339
31
0.0
0
LINE
8
0
10
4218.425491
20
1241.206339
30
0.0
11
4219.875491
21
1241.206339
31
0.0
0
LINE
8
0
10
4219.875491
20
1241.206339
30
0.0
11
4219.875491
21
1242.206339
31
0.0
0
LINE
8
0
10
4219.875491
20
1242.206339
30
0.0
11
4218.875491
21
1243.206339
31
0.0
0
LINE
8
0
10
4218.875491
20
1243.206339
30
0.0
11
4216.425491
21
1243.206339
31
0.0
0
LINE
8
0
10
4216.425491
20
1243.206339
30
0.0
11
4215.425491
21
1242.206339
31
0.0
0
LINE
8
0
10
4215.425491
20
1242.206339
30
0.0
11
4215.425491
21
1241.206339
31
0.0
0
LINE
8
0
10
4215.425491
20
1241.206339
30
0.0
11
4216.925491
21
1241.206339
31
0.0
0
LINE
8
0
10
4216.925491
20
1241.206339
30
0.0
11
4216.925491
21
1238.206339
31
0.0
0
LINE
8
0
10
4216.925491
20
1238.206339
30
0.0
11
4215.925491
21
1238.206339
31
0.0
0
LINE
8
0
10
4215.925491
20
1238.206339
30
0.0
11
4215.925491
21
1236.706339
31
0.0
0
LINE
8
0
10
4215.925491
20
1236.706339
30
0.0
11
4218.525491
21
1236.706339
31
0.0
0
LINE
8
0
10
4218.525491
20
1236.706339
30
0.0
11
4218.525491
21
1233.706339
31
0.0
0
LINE
8
0
10
4218.525491
20
1233.706339
30
0.0
11
4198.525491
21
1233.706339
31
0.0
0
LINE
8
0
10
4198.525491
20
1233.706339
30
0.0
11
4198.525491
21
1236.706339
31
0.0
0
LINE
8
0
10
4198.525491
20
1236.706339
30
0.0
11
4200.925491
21
1236.706339
31
0.0
0
LINE
8
0
10
4200.925491
20
1236.706339
30
0.0
11
4200.925491
21
1238.206339
31
0.0
0
LINE
8
0
10
4200.925491
20
1238.206339
30
0.0
11
4198.925491
21
1238.206339
31
0.0
0
LINE
8
0
10
4198.925491
20
1238.206339
30
0.0
11
4198.925491
21
1241.206339
31
0.0
0
LINE
8
0
10
4198.925491
20
1241.206339
30
0.0
11
4200.925491
21
1241.206339
31
0.0
0
LINE
8
0
10
4200.925491
20
1241.206339
30
0.0
11
4200.925491
21
1242.206339
31
0.0
0
LINE
8
0
10
4200.925491
20
1242.206339
30
0.0
11
4199.925491
21
1243.206339
31
0.0
0
LINE
8
0
10
4199.925491
20
1243.206339
30
0.0
11
4197.425491
21
1243.206339
31
0.0
0
LINE
8
0
10
4197.425491
20
1243.206339
30
0.0
11
4197.425491
21
1232.356339
31
0.0
0
LINE
8
0
10
4197.425491
20
1232.356339
30
0.0
11
4195.025491
21
1232.356339
31
0.0
0
ARC
8
0
10
4195.025491
20
1231.856339
30
0.0
40
0.500000
50
90.000000
51
180.000000
0
LINE
8
0
10
4194.525491
20
1231.856339
30
0.0
11
4194.525491
21
1214.156339
31
0.0
0
ARC
8
0
10
4195.025491
20
1214.156339
30
0.0
40
0.500000
50
180.000000
51
270.000000
0
LINE
8
0
10
4195.025491
20
1213.656339
30
0.0
11
4200.125491
21
1213.656339
31
0.0
0
LINE
8
0
10
4200.125491
20
1213.656339
30
0.0
11
4200.125491
21
1212.356339
31
0.0
0
LINE
8
0
10
4200.125491
20
1212.356339
30
0.0
11
4200.648863
21
1210.705232
31
0.0
0
ARC
8
0
10
4201.125491
20
1210.856314
30
0.0
40
0.500000
50
197.587701
51
360.000000
0
LINE
8
0
10
4201.625491
20
1210.856314
30
0.0
11
4201.625491
21
1213.856339
31
0.0
0
LINE
8
0
10
4201.625491
20
1213.856339
30
0.0
11
4213.125491
21
1213.856339
31
0.0
0
LINE
8
0
10
4213.125491
20
1213.856339
30
0.0
11
4213.125491
21
1210.856314
31
0.0
0
ARC
8
0
10
4213.625491
20
1210.856314
30
0.0
40
0.500000
50
180.000000
51
342.412299
0
LINE
8
0
10
4214.102118
20
1210.705232
30
0.0
11
4214.625491
21
1212.356339
31
0.0
0
LINE
8
0
10
4214.625491
20
1212.356339
30
0.0
11
4214.625491
21
1213.656339
31
0.0
0
LINE
8
0
10
4214.625491
20
1213.656339
30
0.0
11
4219.825491
21
1213.656339
31
0.0
0
LINE
8
0
10
4219.825491
20
1213.656339
30
0.0
11
4219.825491
21
1213.856339
31
0.0
0
LINE
8
0
10
4219.825491
20
1213.856339
30
0.0
11
4225.525491
21
1213.856339
31
0.0
0
ARC
8
0
10
4225.525491
20
1214.356339
30
0.0
40
0.500000
50
270.000000
51
360.000000
0
LINE
8
0
10
4226.025491
20
1214.356339
30
0.0
11
4226.025491
21
1221.001687
31
0.0
0
ARC
8
0
10
4226.225491
20
1221.001687
30
0.0
40
0.200000
50
116.127032
51
180.000000
0
LINE
8
0
10
4226.137418
20
1221.181251
30
0.0
11
4226.921224
21
1221.565692
31
0.0
0
ARC
8
0
10
4228.039525
20
1219.907559
30
0.0
40
2.000000
50
51.805773
51
123.997055
0
ARC
8
0
10
4229.585348
20
1221.872357
30
0.0
40
0.500000
50
231.805773
51
271.623749
0
LINE
8
0
10
4229.599516
20
1221.372558
30
0.0
11
4230.256137
21
1221.391172
31
0.0
0
ARC
8
0
10
4230.252752
20
1221.691196
30
0.0
40
0.300000
50
270.000000
51
18.251415
0
LINE
8
0
10
4230.537659
20
1221.785152
30
0.0
11
4228.473372
21
1224.451594
31
0.0
0
ARC
8
0
10
4228.358225
20
1224.362450
30
0.0
40
0.145621
50
37.746080
51
180.000000
0
LINE
8
0
10
4228.212693
20
1224.357368
30
0.0
11
4228.218123
21
1224.201881
31
0.0
0
ARC
8
0
10
4228.018245
20
1224.194901
30
0.0
40
0.200000
50
308.823976
51
360.000000
0
LINE
8
0
10
4228.143631
20
1224.039086
30
0.0
11
4226.500461
21
1222.716811
31
0.0
0
ARC
8
0
10
4226.312382
20
1222.950534
30
0.0
40
0.300000
50
283.127121
51
308.823976
0
LINE
8
0
10
4226.380516
20
1222.658373
30
0.0
11
4226.025491
21
1222.562822
31
0.0
0
ARC
8
0
10
4226.025491
20
1222.862822
30
0.0
40
0.300000
50
90.000000
51
270.000000
0
LINE
8
0
10
4226.025491
20
1223.162822
30
0.0
11
4226.025491
21
1227.662822
31
0.0
0
ARC
8
0
10
4226.225491
20
1227.662822
30
0.0
40
0.200000
50
90.000000
51
180.000000
0
LINE
8
0
10
4226.225491
20
1227.862822
30
0.0
11
4226.293379
21
1227.862822
31
0.0
0
ARC
8
0
10
4226.293379
20
1227.562822
30
0.0
40
0.300000
50
58.619868
51
90.000000
0
LINE
8
0
10
4226.449593
20
1227.818942
30
0.0
11
4228.125586
21
1226.796709
31
0.0
0
ARC
8
0
10
4228.325491
20
1226.790518
30
0.0
40
0.200000
50
180.000000
51
360.000000
0
LINE
8
0
10
4228.525491
20
1226.790518
30
0.0
11
4228.525491
21
1226.910852
31
0.0
0
ARC
8
0
10
4228.595491
20
1229.709976
30
0.0
40
2.800000
50
268.567456
51
310.878635
0
ARC
8
0
10
4229.937131
20
1228.159976
30
0.0
40
0.750000
50
310.878635
51
130.878635
0
ARC
8
0
10
4228.595491
20
1229.709976
30
0.0
40
1.300000
50
289.612941
51
310.878635
0
LINE
8
0
10
4229.031854
20
1228.485400
30
0.0
11
4229.031854
21
1228.170630
31
0.0
0
ARC
8
0
10
4228.595491
20
1229.709976
30
0.0
40
1.600000
50
254.173380
51
285.826620
0
LINE
8
0
10
4228.159127
20
1228.170630
30
0.0
11
4228.159127
21
1228.485400
31
0.0
0
ARC
8
0
10
4228.595491
20
1229.709976
30
0.0
40
1.300000
50
199.612941
51
250.387059
0
LINE
8
0
10
4227.370914
20
1229.273613
30
0.0
11
4227.056144
21
1229.273613
31
0.0
0
ARC
8
0
10
4228.595491
20
1229.709976
30
0.0
40
1.600000
50
164.173380
51
195.826620
0
LINE
8
0
10
4227.056144
20
1230.146340
30
0.0
11
4227.370914
21
1230.146340
31
0.0
0
ARC
8
0
10
4228.595491
20
1229.709976
30
0.0
40
1.300000
50
109.612941
51
160.387059
0
LINE
8
0
10
4228.159127
20
1230.934553
30
0.0
11
4228.159127
21
1231.249323
31
0.0
0
ARC
8
0
10
4228.595491
20
1229.709976
30
0.0
40
1.600000
50
74.173380
51
105.826620
0
LINE
8
0
10
4229.031854
20
1231.249323
30
0.0
11
4229.031854
21
1230.934553
31
0.0
0
ARC
8
0
10
4228.595491
20
1229.709976
30
0.0
40
1.300000
50
49.121365
51
70.387059
0
ARC
8
0
10
4229.937131
20
1231.259976
30
0.0
40
0.750000
50
229.121365
51
49.121365
0
ARC
8
0
10
4228.595491
20
1229.709976
30
0.0
40
2.800000
50
49.121365
51
91.432544
0
LINE
8
0
10
4228.525491
20
1232.509101
30
0.0
11
4228.525491
21
1232.629434
31
0.0
0
ARC
8
0
10
4228.325491
20
1232.629434
30
0.0
40
0.200000
50
360.000000
51
180.000000
0
LINE
8
0
10
4228.125586
20
1232.623244
30
0.0
11
4226.449593
21
1231.601011
31
0.0
0
ARC
8
0
10
4226.293379
20
1231.857131
30
0.0
40
0.300000
50
270.000000
51
301.380132
0
LINE
8
0
10
4226.293379
20
1231.557131
30
0.0
11
4226.225491
21
1231.557131
31
0.0
0
ARC
8
0
10
4226.225491
20
1231.757131
30
0.0
40
0.200000
50
180.000000
51
270.000000
0
LINE
8
0
10
4226.025491
20
1231.757131
30
0.0
11
4226.025491
21
1236.257131
31
0.0
0
ARC
8
0
10
4226.025491
20
1236.557131
30
0.0
40
0.300000
50
90.000000
51
270.000000
0
LINE
8
0
10
4226.025491
20
1236.857131
30
0.0
11
4226.380516
21
1236.761580
31
0.0
0
ARC
8
0
10
4226.312382
20
1236.469419
30
0.0
40
0.300000
50
51.176024
51
76.872879
0
LINE
8
0
10
4226.500461
20
1236.703142
30
0.0
11
4228.143631
21
1235.380867
31
0.0
0
ARC
8
0
10
4228.018245
20
1235.225052
30
0.0
40
0.200000
50
360.000000
51
51.176024
0
LINE
8
0
10
4228.218123
20
1235.218072
30
0.0
11
4228.212693
21
1235.062585
31
0.0
0
ARC
8
0
10
4228.358225
20
1235.057503
30
0.0
40
0.145621
50
180.000000
51
322.253920
0
LINE
8
0
10
4228.473372
20
1234.968359
30
0.0
11
4230.537659
21
1237.634800
31
0.0
0
ARC
8
0
10
4230.252752
20
1237.728757
30
0.0
40
0.300000
50
341.748585
51
90.000000
0
ARC
8
0
10
4239.193478
20
1229.709976
30
0.0
40
0.700000
50
298.976366
51
61.023634
0
LINE
8
0
10
4239.532631
20
1229.097532
30
0.0
11
4238.230874
21
1228.350594
31
0.0
0
ARC
8
0
10
4238.325491
20
1228.174299
30
0.0
40
0.200000
50
118.305465
51
180.000000
0
LINE
8
0
10
4238.125491
20
1228.174299
30
0.0
11
4238.125491
21
1226.790518
31
0.0
0
ARC
8
0
10
4238.325491
20
1226.790518
30
0.0
40
0.200000
50
180.000000
51
360.000000
0
LINE
8
0
10
4238.525395
20
1226.796709
30
0.0
11
4240.201388
21
1227.818942
31
0.0
0
ARC
8
0
10
4240.357602
20
1227.562822
30
0.0
40
0.300000
50
90.000000
51
121.380132
0
LINE
8
0
10
4240.357602
20
1227.862822
30
0.0
11
4240.425491
21
1227.862822
31
0.0
0
ARC
8
0
10
4240.425491
20
1227.662822
30
0.0
40
0.200000
50
360.000000
51
90.000000
0
LINE
8
0
10
4240.625491
20
1227.662822
30
0.0
11
4240.625491
21
1223.162822
31
0.0
0
ARC
8
0
10
4240.625491
20
1222.862822
30
0.0
40
0.300000
50
270.000000
51
90.000000
0
LINE
8
0
10
4240.625491
20
1222.562822
30
0.0
11
4240.270465
21
1222.658373
31
0.0
0
ARC
8
0
10
4240.338599
20
1222.950534
30
0.0
40
0.300000
50
231.176024
51
256.872879
0
LINE
8
0
10
4240.150520
20
1222.716811
30
0.0
11
4238.507351
21
1224.039086
31
0.0
0
ARC
8
0
10
4238.632737
20
1224.194901
30
0.0
40
0.200000
50
180.000000
51
231.176024
0
LINE
8
0
10
4238.432858
20
1224.201881
30
0.0
11
4238.438288
21
1224.357368
31
0.0
0
ARC
8
0
10
4238.292756
20
1224.362450
30
0.0
40
0.145621
50
360.000000
51
142.253920
0
LINE
8
0
10
4238.177609
20
1224.451594
30
0.0
11
4236.113322
21
1221.785152
31
0.0
0
ARC
8
0
10
4236.398229
20
1221.691196
30
0.0
40
0.300000
50
161.748585
51
270.000000
0
LINE
8
0
10
4236.394844
20
1221.391172
30
0.0
11
4237.051465
21
1221.372558
31
0.0
0
ARC
8
0
10
4237.065633
20
1221.872357
30
0.0
40
0.500000
50
268.376251
51
308.194227
0
ARC
8
0
10
4238.611456
20
1219.907559
30
0.0
40
2.000000
50
56.002945
51
128.194227
0
LINE
8
0
10
4239.729757
20
1221.565692
30
0.0
11
4240.533570
21
1221.171438
31
0.0
0
ARC
8
0
10
4240.445497
20
1220.991874
30
0.0
40
0.200000
50
5.726911
51
63.872968
0
LINE
8
0
10
4240.644499
20
1221.011831
30
0.0
11
4240.925491
21
1218.209976
31
0.0
0
LINE
8
0
10
4240.925491
20
1218.209976
30
0.0
11
4240.925491
21
1215.203613
31
0.0
0
LINE
8
0
10
4240.925491
20
1215.203613
30
0.0
11
4239.425491
21
1215.203613
31
0.0
0
ARC
8
0
10
4239.425491
20
1214.703613
30
0.0
40
0.500000
50
90.000000
51
180.000000
0
LINE
8
0
10
4238.925491
20
1214.703613
30
0.0
11
4238.925491
21
1212.353613
31
0.0
0
ARC
8
0
10
4239.325491
20
1212.353613
30
0.0
40
0.400000
50
180.000000
51
270.000000
0
LINE
8
0
10
4239.325491
20
1211.953613
30
0.0
11
4239.525491
21
1211.953613
31
0.0
0
ARC
8
0
10
4239.525491
20
1212.353613
30
0.0
40
0.400000
50
270.000000
51
360.000000
0
LINE
8
0
10
4239.925491
20
1212.353613
30
0.0
11
4239.925491
21
1213.703613
31
0.0
0
LINE
8
0
10
4239.925491
20
1213.703613
30
0.0
11
4241.125491
21
1213.703613
31
0.0
0
LINE
8
0
10
4241.125491
20
1213.703613
30
0.0
11
4241.125491
21
1206.203613
31
0.0
0
LINE
8
0
10
4241.125491
20
1206.203613
30
0.0
11
4239.925491
21
1206.203613
31
0.0
0
LINE
8
0
10
4239.925491
20
1206.203613
30
0.0
11
4239.925491
21
1207.553613
31
0.0
0
ARC
8
0
10
4239.525491
20
1207.553613
30
0.0
40
0.400000
50
360.000000
51
90.000000
0
LINE
8
0
10
4239.525491
20
1207.953613
30
0.0
11
4239.325491
21
1207.953613
31
0.0
0
ARC
8
0
10
4239.325491
20
1207.553613
30
0.0
40
0.400000
50
90.000000
51
180.000000
0
LINE
8
0
10
4238.925491
20
1207.553613
30
0.0
11
4238.925491
21
1205.203613
31
0.0
0
ARC
8
0
10
4239.425491
20
1205.203613
30
0.0
40
0.500000
50
180.000000
51
270.000000
0
LINE
8
0
10
4239.425491
20
1204.703613
30
0.0
11
4241.925491
21
1204.703613
31
0.0
0
ARC
8
0
10
4241.925491
20
1205.203613
30
0.0
40
0.500000
50
270.000000
51
360.000000
0
LINE
8
0
10
4242.425491
20
1205.203613
30
0.0
11
4242.425491
21
1263.203613
31
0.0
0
ARC
8
0
10
4241.925491
20
1263.203613
30
0.0
40
0.500000
50
360.000000
51
90.000000
0
LINE
8
0
10
4241.925491
20
1263.703613
30
0.0
11
4239.425491
21
1263.703613
31
0.0
0
ARC
8
0
10
4239.425491
20
1263.203613
30
0.0
40
0.500000
50
90.000000
51
180.000000
0
LINE
8
0
10
4238.925491
20
1263.203613
30
0.0
11
4238.925491
21
1260.853613
31
0.0
0
ARC
8
0
10
4239.325491
20
1260.853613
30
0.0
40
0.400000
50
180.000000
51
270.000000
0
LINE
8
0
10
4239.325491
20
1260.453613
30
0.0
11
4239.525491
21
1260.453613
31
0.0
0
ARC
8
0
10
4239.525491
20
1260.853613
30
0.0
40
0.400000
50
270.000000
51
360.000000
0
LINE
8
0
10
4239.925491
20
1260.853613
30
0.0
11
4239.925491
21
1262.203613
31
0.0
0
LINE
8
0
10
4239.925491
20
1262.203613
30
0.0
11
4241.125491
21
1262.203613
31
0.0
0
LINE
8
0
10
4241.125491
20
1262.203613
30
0.0
11
4241.125491
21
1254.703613
31
0.0
0
LINE
8
0
10
4241.125491
20
1254.703613
30
0.0
11
4239.925491
21
1254.703613
31
0.0
0
LINE
8
0
10
4239.925491
20
1254.703613
30
0.0
11
4239.925491
21
1256.053613
31
0.0
0
ARC
8
0
10
4239.525491
20
1256.053613
30
0.0
40
0.400000
50
360.000000
51
90.000000
0
LINE
8
0
10
4239.525491
20
1256.453613
30
0.0
11
4239.325491
21
1256.453613
31
0.0
0
ARC
8
0
10
4239.325491
20
1256.053613
30
0.0
40
0.400000
50
90.000000
51
180.000000
0
LINE
8
0
10
4238.925491
20
1256.053613
30
0.0
11
4238.925491
21
1253.703613
31
0.0
0
ARC
8
0
10
4239.425491
20
1253.703613
30
0.0
40
0.500000
50
180.000000
51
270.000000
0
LINE
8
0
10
4239.425491
20
1253.203613
30
0.0
11
4240.925491
21
1253.203613
31
0.0
0
LINE
8
0
10
4240.925491
20
1253.203613
30
0.0
11
4240.925491
21
1241.209976
31
0.0
0
LINE
8
0
10
4240.925491
20
1241.209976
30
0.0
11
4240.644499
21
1238.408122
31
0.0
0
ARC
8
0
10
4240.445497
20
1238.428079
30
0.0
40
0.200000
50
296.127032
51
354.273089
0
LINE
8
0
10
4240.533570
20
1238.248515
30
0.0
11
4239.729757
21
1237.854261
31
0.0
0
ARC
8
0
10
4238.611456
20
1239.512393
30
0.0
40
2.000000
50
231.805773
51
303.997055
0
ARC
8
0
10
4237.065633
20
1237.547595
30
0.0
40
0.500000
50
51.805773
51
91.623749
0
LINE
8
0
10
4237.051465
20
1238.047395
30
0.0
11
4236.394844
21
1238.028781
31
0.0
0
ARC
8
0
10
4236.398229
20
1237.728757
30
0.0
40
0.300000
50
90.000000
51
198.251415
0
LINE
8
0
10
4236.113322
20
1237.634800
30
0.0
11
4238.177609
21
1234.968359
31
0.0
0
ARC
8
0
10
4238.292756
20
1235.057503
30
0.0
40
0.145621
50
217.746080
51
360.000000
0
LINE
8
0
10
4238.438288
20
1235.062585
30
0.0
11
4238.432858
21
1235.218072
31
0.0
0
ARC
8
0
10
4238.632737
20
1235.225052
30
0.0
40
0.200000
50
128.823976
51
180.000000
0
LINE
8
0
10
4238.507351
20
1235.380867
30
0.0
11
4240.150520
21
1236.703142
31
0.0
0
ARC
8
0
10
4240.338599
20
1236.469419
30
0.0
40
0.300000
50
103.127121
51
128.823976
0
LINE
8
0
10
4240.270465
20
1236.761580
30
0.0
11
4240.625491
21
1236.857131
31
0.0
0
ARC
8
0
10
4240.625491
20
1236.557131
30
0.0
40
0.300000
50
270.000000
51
90.000000
0
LINE
8
0
10
4240.625491
20
1236.257131
30
0.0
11
4240.625491
21
1231.757131
31
0.0
0
ARC
8
0
10
4240.425491
20
1231.757131
30
0.0
40
0.200000
50
270.000000
51
360.000000
0
LINE
8
0
10
4240.425491
20
1231.557131
30
0.0
11
4240.357602
21
1231.557131
31
0.0
0
ARC
8
0
10
4240.357602
20
1231.857131
30
0.0
40
0.300000
50
238.619868
51
270.000000
0
LINE
8
0
10
4240.201388
20
1231.601011
30
0.0
11
4238.525395
21
1232.623244
31
0.0
0
ARC
8
0
10
4238.325491
20
1232.629434
30
0.0
40
0.200000
50
360.000000
51
180.000000
0
LINE
8
0
10
4238.125491
20
1232.629434
30
0.0
11
4238.125491
21
1231.245654
31
0.0
0
ARC
8
0
10
4238.325491
20
1231.245654
30
0.0
40
0.200000
50
180.000000
51
241.694535
0
LINE
8
0
10
4238.230874
20
1231.069359
30
0.0
11
4239.532631
21
1230.322421
31
0.0
0
LINE
8
0
10
4226.056957
20
1235.700996
30
0.0
11
4226.269982
21
1235.914020
31
0.0
0
LINE
8
0
10
4227.002081
20
1234.401056
30
0.0
11
4227.865331
21
1235.264306
31
0.0
0
LINE
8
0
10
4226.591576
20
1231.745487
30
0.0
11
4229.591576
21
1234.745487
31
0.0
0
LINE
8
0
10
4230.036640
20
1232.945487
30
0.0
11
4231.836640
21
1234.745487
31
0.0
0
LINE
8
0
10
4226.025491
20
1226.689273
30
0.0
11
4226.891655
21
1227.555437
31
0.0
0
LINE
8
0
10
4232.281704
20
1232.945487
30
0.0
11
4234.081704
21
1234.745487
31
0.0
0
LINE
8
0
10
4226.025491
20
1224.444209
30
0.0
11
4226.055747
21
1224.474466
31
0.0
0
LINE
8
0
10
4234.526768
20
1232.945487
30
0.0
11
4236.326768
21
1234.745487
31
0.0
0
LINE
8
0
10
4226.125491
20
1224.544209
30
0.0
11
4226.586342
21
1225.005060
31
0.0
0
LINE
8
0
10
4227.344896
20
1225.763615
30
0.0
11
4228.314968
21
1226.733687
31
0.0
0
LINE
8
0
10
4228.141356
20
1224.315010
30
0.0
11
4230.300812
21
1226.474466
31
0.0
0
LINE
8
0
10
4236.771832
20
1232.945487
30
0.0
11
4239.507290
21
1235.680945
31
0.0
0
LINE
8
0
10
4230.745876
20
1224.674466
30
0.0
11
4232.545876
21
1226.474466
31
0.0
0
LINE
8
0
10
4238.603336
20
1232.531927
30
0.0
11
4239.472435
21
1233.401025
31
0.0
0
LINE
8
0
10
4232.990940
20
1224.674466
30
0.0
11
4234.790940
21
1226.474466
31
0.0
0
LINE
8
0
10
4240.061960
20
1231.745487
30
0.0
11
4240.625491
21
1232.309017
31
0.0
0
LINE
8
0
10
4235.236004
20
1224.674466
30
0.0
11
4237.036004
21
1226.474466
31
0.0
0
LINE
8
0
10
4237.481068
20
1224.674466
30
0.0
11
4240.426748
21
1227.620147
31
0.0
0
LINE
8
0
10
4239.052974
20
1224.001308
30
0.0
11
4240.052987
21
1225.001321
31
0.0
0
LINE
8
0
10
4227.607872
20
1224.007004
30
0.0
11
4226.619880
21
1224.994996
31
0.0
0
LINE
8
0
10
4229.185474
20
1224.674466
30
0.0
11
4226.234187
21
1227.625753
31
0.0
0
LINE
8
0
10
4231.430538
20
1224.674466
30
0.0
11
4229.630538
21
1226.474466
31
0.0
0
LINE
8
0
10
4233.675602
20
1224.674466
30
0.0
11
4231.875602
21
1226.474466
31
0.0
0
LINE
8
0
10
4226.604581
20
1231.745487
30
0.0
11
4226.025491
21
1232.324578
31
0.0
0
LINE
8
0
10
4235.920666
20
1224.674466
30
0.0
11
4234.120666
21
1226.474466
31
0.0
0
LINE
8
0
10
4228.057510
20
1232.537622
30
0.0
11
4227.186635
21
1233.408497
31
0.0
0
LINE
8
0
10
4238.546442
20
1224.293754
30
0.0
11
4236.365730
21
1226.474466
31
0.0
0
LINE
8
0
10
4229.894709
20
1232.945487
30
0.0
11
4227.180508
21
1235.659688
31
0.0
0
LINE
8
0
10
4240.625491
20
1224.459770
30
0.0
11
4240.610794
21
1224.474466
31
0.0
0
LINE
8
0
10
4232.139773
20
1232.945487
30
0.0
11
4230.339773
21
1234.745487
31
0.0
0
LINE
8
0
10
4240.525491
20
1224.559770
30
0.0
11
4240.076221
21
1225.009039
31
0.0
0
LINE
8
0
10
4239.310064
20
1225.775196
30
0.0
11
4238.345878
21
1226.739382
31
0.0
0
LINE
8
0
10
4240.625491
20
1226.704834
30
0.0
11
4239.769191
21
1227.561133
31
0.0
0
LINE
8
0
10
4234.384837
20
1232.945487
30
0.0
11
4232.584837
21
1234.745487
31
0.0
0
LINE
8
0
10
4236.629902
20
1232.945487
30
0.0
11
4234.829902
21
1234.745487
31
0.0
0
LINE
8
0
10
4240.074966
20
1231.745487
30
0.0
11
4237.074966
21
1234.745487
31
0.0
0
LINE
8
0
10
4239.660045
20
1234.405472
30
0.0
11
4238.795515
21
1235.270001
31
0.0
0
LINE
8
0
10
4240.580187
20
1235.730393
30
0.0
11
4240.410397
21
1235.900183
31
0.0
0
ARC
8
0
10
4240.213684
20
1234.570487
30
0.0
40
0.200000
50
244.992167
51
286.231301
0
ARC
8
0
10
4240.325491
20
1234.570487
30
0.0
40
0.200000
50
253.768699
51
360.000000
0
LINE
8
0
10
4240.525491
20
1234.570487
30
0.0
11
4240.525491
21
1234.945487
31
0.0
0
LINE
8
0
10
4240.525491
20
1234.945487
30
0.0
11
4240.625491
21
1234.945487
31
0.0
0
LINE
8
0
10
4240.625491
20
1234.945487
30
0.0
11
4240.625491
21
1235.545487
31
0.0
0
ARC
8
0
10
4240.225491
20
1235.545487
30
0.0
40
0.400000
50
360.000000
51
90.000000
0
LINE
8
0
10
4240.225491
20
1235.945487
30
0.0
11
4240.019080
21
1235.945487
31
0.0
0
ARC
8
0
10
4240.019080
20
1235.745487
30
0.0
40
0.200000
50
90.000000
51
120.000000
0
LINE
8
0
10
4239.919080
20
1235.918692
30
0.0
11
4238.072670
21
1234.852666
31
0.0
0
ARC
8
0
10
4237.672670
20
1235.545487
30
0.0
40
0.800000
50
270.000000
51
300.000000
0
LINE
8
0
10
4237.672670
20
1234.745487
30
0.0
11
4233.325491
21
1234.745487
31
0.0
0
LINE
8
0
10
4233.325491
20
1234.745487
30
0.0
11
4228.978311
21
1234.745487
31
0.0
0
ARC
8
0
10
4228.978311
20
1235.545487
30
0.0
40
0.800000
50
240.000000
51
270.000000
0
LINE
8
0
10
4228.578311
20
1234.852666
30
0.0
11
4226.731901
21
1235.918692
31
0.0
0
ARC
8
0
10
4226.631901
20
1235.745487
30
0.0
40
0.200000
50
60.000000
51
90.000000
0
LINE
8
0
10
4226.631901
20
1235.945487
30
0.0
11
4226.425491
21
1235.945487
31
0.0
0
ARC
8
0
10
4226.425491
20
1235.545487
30
0.0
40
0.400000
50
90.000000
51
180.000000
0
LINE
8
0
10
4226.025491
20
1235.545487
30
0.0
11
4226.025491
21
1234.945487
31
0.0
0
LINE
8
0
10
4226.025491
20
1234.945487
30
0.0
11
4226.125491
21
1234.945487
31
0.0
0
LINE
8
0
10
4226.125491
20
1234.945487
30
0.0
11
4226.125491
21
1234.570487
31
0.0
0
ARC
8
0
10
4226.325491
20
1234.570487
30
0.0
40
0.200000
50
180.000000
51
286.231301
0
ARC
8
0
10
4226.437297
20
1234.570487
30
0.0
40
0.200000
50
253.768699
51
295.007833
0
ARC
8
0
10
4226.775491
20
1233.845487
30
0.0
40
0.600000
50
360.000000
51
115.007833
0
ARC
8
0
10
4226.775491
20
1233.845487
30
0.0
40
0.600000
50
244.992167
51
360.000000
0
ARC
8
0
10
4226.437297
20
1233.120487
30
0.0
40
0.200000
50
64.992167
51
106.231301
0
ARC
8
0
10
4226.325491
20
1233.120487
30
0.0
40
0.200000
50
73.768699
51
180.000000
0
LINE
8
0
10
4226.125491
20
1233.120487
30
0.0
11
4226.125491
21
1232.745487
31
0.0
0
LINE
8
0
10
4226.125491
20
1232.745487
30
0.0
11
4226.025491
21
1232.745487
31
0.0
0
LINE
8
0
10
4226.025491
20
1232.745487
30
0.0
11
4226.025491
21
1232.145487
31
0.0
0
ARC
8
0
10
4226.425491
20
1232.145487
30
0.0
40
0.400000
50
180.000000
51
270.000000
0
LINE
8
0
10
4226.425491
20
1231.745487
30
0.0
11
4226.631901
21
1231.745487
31
0.0
0
ARC
8
0
10
4226.631901
20
1231.945487
30
0.0
40
0.200000
50
270.000000
51
300.000000
0
LINE
8
0
10
4226.731901
20
1231.772282
30
0.0
11
4228.578311
21
1232.838307
31
0.0
0
ARC
8
0
10
4228.978311
20
1232.145487
30
0.0
40
0.800000
50
90.000000
51
120.000000
0
LINE
8
0
10
4228.978311
20
1232.945487
30
0.0
11
4233.042648
21
1232.945487
31
0.0
0
ARC
8
0
10
4233.042648
20
1232.745487
30
0.0
40
0.200000
50
51.057559
51
90.000000
0
ARC
8
0
10
4233.325491
20
1233.095487
30
0.0
40
0.250000
50
231.057559
51
308.942441
0
ARC
8
0
10
4233.608333
20
1232.745487
30
0.0
40
0.200000
50
90.000000
51
128.942441
0
LINE
8
0
10
4233.608333
20
1232.945487
30
0.0
11
4237.672670
21
1232.945487
31
0.0
0
ARC
8
0
10
4237.672670
20
1232.145487
30
0.0
40
0.800000
50
60.000000
51
90.000000
0
LINE
8
0
10
4238.072670
20
1232.838307
30
0.0
11
4239.919080
21
1231.772282
31
0.0
0
ARC
8
0
10
4240.019080
20
1231.945487
30
0.0
40
0.200000
50
240.000000
51
270.000000
0
LINE
8
0
10
4240.019080
20
1231.745487
30
0.0
11
4240.225491
21
1231.745487
31
0.0
0
ARC
8
0
10
4240.225491
20
1232.145487
30
0.0
40
0.400000
50
270.000000
51
360.000000
0
LINE
8
0
10
4240.625491
20
1232.145487
30
0.0
11
4240.625491
21
1232.745487
31
0.0
0
LINE
8
0
10
4240.625491
20
1232.745487
30
0.0
11
4240.525491
21
1232.745487
31
0.0
0
LINE
8
0
10
4240.525491
20
1232.745487
30
0.0
11
4240.525491
21
1233.120487
31
0.0
0
ARC
8
0
10
4240.325491
20
1233.120487
30
0.0
40
0.200000
50
360.000000
51
106.231301
0
ARC
8
0
10
4240.213684
20
1233.120487
30
0.0
40
0.200000
50
73.768699
51
115.007833
0
ARC
8
0
10
4239.875491
20
1233.845487
30
0.0
40
0.600000
50
180.000000
51
295.007833
0
ARC
8
0
10
4239.875491
20
1233.845487
30
0.0
40
0.600000
50
64.992167
51
180.000000
0
ARC
8
0
10
4240.213684
20
1224.849466
30
0.0
40
0.200000
50
73.768699
51
115.007833
0
ARC
8
0
10
4240.325491
20
1224.849466
30
0.0
40
0.200000
50
360.000000
51
106.231301
0
LINE
8
0
10
4240.525491
20
1224.849466
30
0.0
11
4240.525491
21
1224.474466
31
0.0
0
LINE
8
0
10
4240.525491
20
1224.474466
30
0.0
11
4240.625491
21
1224.474466
31
0.0
0
LINE
8
0
10
4240.625491
20
1224.474466
30
0.0
11
4240.625491
21
1223.874466
31
0.0
0
ARC
8
0
10
4240.225491
20
1223.874466
30
0.0
40
0.400000
50
270.000000
51
360.000000
0
LINE
8
0
10
4240.225491
20
1223.474466
30
0.0
11
4240.019080
21
1223.474466
31
0.0
0
ARC
8
0
10
4240.019080
20
1223.674466
30
0.0
40
0.200000
50
240.000000
51
270.000000
0
LINE
8
0
10
4239.919080
20
1223.501261
30
0.0
11
4238.072670
21
1224.567286
31
0.0
0
ARC
8
0
10
4237.672670
20
1223.874466
30
0.0
40
0.800000
50
60.000000
51
90.000000
0
LINE
8
0
10
4237.672670
20
1224.674466
30
0.0
11
4233.325491
21
1224.674466
31
0.0
0
LINE
8
0
10
4233.325491
20
1224.674466
30
0.0
11
4228.978311
21
1224.674466
31
0.0
0
ARC
8
0
10
4228.978311
20
1223.874466
30
0.0
40
0.800000
50
90.000000
51
120.000000
0
LINE
8
0
10
4228.578311
20
1224.567286
30
0.0
11
4226.731901
21
1223.501261
31
0.0
0
ARC
8
0
10
4226.631901
20
1223.674466
30
0.0
40
0.200000
50
270.000000
51
300.000000
0
LINE
8
0
10
4226.631901
20
1223.474466
30
0.0
11
4226.425491
21
1223.474466
31
0.0
0
ARC
8
0
10
4226.425491
20
1223.874466
30
0.0
40
0.400000
50
180.000000
51
270.000000
0
LINE
8
0
10
4226.025491
20
1223.874466
30
0.0
11
4226.025491
21
1224.474466
31
0.0
0
LINE
8
0
10
4226.025491
20
1224.474466
30
0.0
11
4226.125491
21
1224.474466
31
0.0
0
LINE
8
0
10
4226.125491
20
1224.474466
30
0.0
11
4226.125491
21
1224.849466
31
0.0
0
ARC
8
0
10
4226.325491
20
1224.849466
30
0.0
40
0.200000
50
73.768699
51
180.000000
0
ARC
8
0
10
4226.437297
20
1224.849466
30
0.0
40
0.200000
50
64.992167
51
106.231301
0
ARC
8
0
10
4226.775491
20
1225.574466
30
0.0
40
0.600000
50
244.992167
51
360.000000
0
ARC
8
0
10
4226.775491
20
1225.574466
30
0.0
40
0.600000
50
360.000000
51
115.007833
0
ARC
8
0
10
4226.437297
20
1226.299466
30
0.0
40
0.200000
50
253.768699
51
295.007833
0
ARC
8
0
10
4226.325491
20
1226.299466
30
0.0
40
0.200000
50
180.000000
51
286.231301
0
LINE
8
0
10
4226.125491
20
1226.299466
30
0.0
11
4226.125491
21
1226.674466
31
0.0
0
LINE
8
0
10
4226.125491
20
1226.674466
30
0.0
11
4226.025491
21
1226.674466
31
0.0
0
LINE
8
0
10
4226.025491
20
1226.674466
30
0.0
11
4226.025491
21
1227.274466
31
0.0
0
ARC
8
0
10
4226.425491
20
1227.274466
30
0.0
40
0.400000
50
90.000000
51
180.000000
0
LINE
8
0
10
4226.425491
20
1227.674466
30
0.0
11
4226.631901
21
1227.674466
31
0.0
0
ARC
8
0
10
4226.631901
20
1227.474466
30
0.0
40
0.200000
50
60.000000
51
90.000000
0
LINE
8
0
10
4226.731901
20
1227.647671
30
0.0
11
4228.578311
21
1226.581646
31
0.0
0
ARC
8
0
10
4228.978311
20
1227.274466
30
0.0
40
0.800000
50
240.000000
51
270.000000
0
LINE
8
0
10
4228.978311
20
1226.474466
30
0.0
11
4233.042648
21
1226.474466
31
0.0
0
ARC
8
0
10
4233.042648
20
1226.674466
30
0.0
40
0.200000
50
270.000000
51
308.942441
0
ARC
8
0
10
4233.325491
20
1226.324466
30
0.0
40
0.250000
50
51.057559
51
128.942441
0
ARC
8
0
10
4233.608333
20
1226.674466
30
0.0
40
0.200000
50
231.057559
51
270.000000
0
LINE
8
0
10
4233.608333
20
1226.474466
30
0.0
11
4237.672670
21
1226.474466
31
0.0
0
ARC
8
0
10
4237.672670
20
1227.274466
30
0.0
40
0.800000
50
270.000000
51
300.000000
0
LINE
8
0
10
4238.072670
20
1226.581646
30
0.0
11
4239.919080
21
1227.647671
31
0.0
0
ARC
8
0
10
4240.019080
20
1227.474466
30
0.0
40
0.200000
50
90.000000
51
120.000000
0
LINE
8
0
10
4240.019080
20
1227.674466
30
0.0
11
4240.225491
21
1227.674466
31
0.0
0
ARC
8
0
10
4240.225491
20
1227.274466
30
0.0
40
0.400000
50
360.000000
51
90.000000
0
LINE
8
0
10
4240.625491
20
1227.274466
30
0.0
11
4240.625491
21
1226.674466
31
0.0
0
LINE
8
0
10
4240.625491
20
1226.674466
30
0.0
11
4240.525491
21
1226.674466
31
0.0
0
LINE
8
0
10
4240.525491
20
1226.674466
30
0.0
11
4240.525491
21
1226.299466
31
0.0
0
ARC
8
0
10
4240.325491
20
1226.299466
30
0.0
40
0.200000
50
253.768699
51
360.000000
0
ARC
8
0
10
4240.213684
20
1226.299466
30
0.0
40
0.200000
50
244.992167
51
286.231301
0
ARC
8
0
10
4239.875491
20
1225.574466
30
0.0
40
0.600000
50
64.992167
51
180.000000
0
ARC
8
0
10
4239.875491
20
1225.574466
30
0.0
40
0.600000
50
180.000000
51
295.007833
0
ATTDEF
8
0
10
0.000000
20
0.000000
30
0.0
40
3.5
1

3

2
PANE_WIDTH:0
70
0
0
ATTDEF
8
0
10
0.000000
20
0.000000
30
0.0
40
3.5
1

3

2
MIN_VETRO:0
70
0
0
ATTDEF
8
0
10
0.000000
20
0.000000
30
0.0
40
3.5
1

3

2
MAX_VETRO:0
70
0
0
ATTDEF
8
0
10
0.000000
20
0.000000
30
0.0
40
3.5
1

3

2
JX:0
70
0
0
ATTDEF
8
0
10
0.000000
20
0.000000
30
0.0
40
3.5
1

3

2
WX:0
70
0
0
ATTDEF
8
0
10
0.000000
20
0.000000
30
0.0
40
3.5
1

3

2
JY:0
70
0
0
ATTDEF
8
0
10
0.000000
20
0.000000
30
0.0
40
3.5
1

3

2
WY:0
70
0
0
ATTDEF
8
0
10
0.000000
20
0.000000
30
0.0
40
3.5
1

3

2
DESC:Perfil Inversor
70
0
0
ATTDEF
8
0
10
0.000000
20
0.000000
30
0.0
40
3.5
1

3

2
DENS:1.1179
70
0
0
ATTDEF
8
0
10
0.000000
20
0.000000
30
0.0
40
3.5
1

3

2
TDEV:50.05
70
0
0
ATTDEF
8
0
10
0.000000
20
0.000000
30
0.0
40
3.5
1

3

2
TDEV2:0
70
0
0
ATTDEF
8
0
10
0.000000
20
0.000000
30
0.0
40
3.5
1

3

2
TDEV3:0
70
0
0
ATTDEF
8
0
10
0.000000
20
0.000000
30
0.0
40
3.5
1

3

2
TDEV4:0
70
0
0
ATTDEF
8
0
10
0.000000
20
0.000000
30
0.0
40
3.5
1

3

2
TDEV5:0
70
0
0
ATTDEF
8
0
10
0.000000
20
0.000000
30
0.0
40
3.5
1

3

2
PANE_WIDTH:0
70
0
0
ATTDEF
8
0
10
0.000000
20
0.000000
30
0.0
40
3.5
1

3

2
MIN_VETRO:0
70
0
0
ATTDEF
8
0
10
0.000000
20
0.000000
30
0.0
40
3.5
1

3

2
MAX_VETRO:0
70
0
0
ATTDEF
8
0
10
0.000000
20
0.000000
30
0.0
40
3.5
1

3

2
JX:0
70
0
0
ATTDEF
8
0
10
0.000000
20
0.000000
30
0.0
40
3.5
1

3

2
WX:0
70
0
0
ATTDEF
8
0
10
0.000000
20
0.000000
30
0.0
40
3.5
1

3

2
JY:0
70
0
0
ATTDEF
8
0
10
0.000000
20
0.000000
30
0.0
40
3.5
1

3

2
WY:0
70
0
0
ATTDEF
8
0
10
4198.675491
20
1243.206339
30
0.0
40
3.5
1

3

2
VC_START
70
0
0
ATTDEF
8
0
10
4200.125491
20
1213.656339
30
0.0
40
3.5
1

3

2
VC_END
70
0
0
ATTDEF
8
0
10
4242.425491
20
1204.703613
30
0.0
40
3.5
1

3

2
FP_LCS_ORIG
70
0
0
ATTDEF
8
0
10
4232.425491
20
1204.703613
30
0.0
40
3.5
1

3

2
FP_LCS_HOT
70
0
0
ATTDEF
8
0
10
4242.425491
20
1214.703613
30
0.0
40
3.5
1

3

2
FP_LCS_INTERN
70
0
0
ENDSEC
0
EOF
