0
SECTION
2
ENTITIES
0
LINE
8
0
10
4134.305092
20
1271.994989
30
0.0
11
4135.173268
21
1272.863164
31
0.0
0
LINE
8
0
10
4133.880765
20
1269.325598
30
0.0
11
4136.880765
21
1272.325598
31
0.0
0
LINE
8
0
10
4137.325829
20
1270.525598
30
0.0
11
4139.125829
21
1272.325598
31
0.0
0
LINE
8
0
10
4139.570893
20
1270.525598
30
0.0
11
4141.370893
21
1272.325598
31
0.0
0
LINE
8
0
10
4133.365900
20
1262.075540
30
0.0
11
4134.015186
21
1262.724826
31
0.0
0
LINE
8
0
10
4141.815957
20
1270.525598
30
0.0
11
4143.615957
21
1272.325598
31
0.0
0
LINE
8
0
10
4133.467865
20
1259.932441
30
0.0
11
4133.637935
21
1260.102512
31
0.0
0
LINE
8
0
10
4144.061021
20
1270.525598
30
0.0
11
4146.726510
21
1273.191087
31
0.0
0
LINE
8
0
10
4134.563956
20
1261.028532
30
0.0
11
4135.445369
21
1261.909945
31
0.0
0
LINE
8
0
10
4134.698002
20
1258.917515
30
0.0
11
4137.309964
21
1261.529476
31
0.0
0
LINE
8
0
10
4147.749307
20
1271.968820
30
0.0
11
4147.847678
21
1272.067190
31
0.0
0
LINE
8
0
10
4145.911273
20
1270.130786
30
0.0
11
4146.786757
21
1271.006269
31
0.0
0
LINE
8
0
10
4137.755028
20
1259.729476
30
0.0
11
4139.555028
21
1261.529476
31
0.0
0
LINE
8
0
10
4147.351316
20
1269.325765
30
0.0
11
4147.965900
21
1269.940348
31
0.0
0
LINE
8
0
10
4139.550678
20
1259.280063
30
0.0
11
4141.800092
21
1261.529476
31
0.0
0
LINE
8
0
10
4139.794334
20
1257.278654
30
0.0
11
4141.756559
21
1259.240879
31
0.0
0
LINE
8
0
10
4142.104497
20
1259.588817
30
0.0
11
4144.045156
21
1261.529476
31
0.0
0
LINE
8
0
10
4139.907518
20
1255.146774
30
0.0
11
4141.509324
21
1256.748580
31
0.0
0
LINE
8
0
10
4144.490220
20
1259.729476
30
0.0
11
4147.490220
21
1262.729476
31
0.0
0
LINE
8
0
10
4140.020702
20
1253.014894
30
0.0
11
4141.383448
21
1254.377640
31
0.0
0
LINE
8
0
10
4146.183374
20
1259.177567
30
0.0
11
4147.056770
21
1260.050963
31
0.0
0
LINE
8
0
10
4140.863991
20
1251.613120
30
0.0
11
4141.232256
21
1251.981385
31
0.0
0
LINE
8
0
10
4141.263105
20
1252.121627
30
0.0
11
4140.001126
21
1253.383606
31
0.0
0
LINE
8
0
10
4134.551690
20
1258.833042
30
0.0
11
4133.466382
21
1259.918350
31
0.0
0
LINE
8
0
10
4141.376829
20
1254.252967
30
0.0
11
4139.875251
21
1255.754546
31
0.0
0
LINE
8
0
10
4135.976983
20
1259.652813
30
0.0
11
4133.365900
21
1262.263896
31
0.0
0
LINE
8
0
10
4141.490013
20
1256.384847
30
0.0
11
4139.749375
21
1258.125485
31
0.0
0
LINE
8
0
10
4138.145384
20
1259.729476
30
0.0
11
4136.345384
21
1261.529476
31
0.0
0
LINE
8
0
10
4141.603196
20
1258.516728
30
0.0
11
4138.590448
21
1261.529476
31
0.0
0
LINE
8
0
10
4142.635512
20
1259.729476
30
0.0
11
4140.750128
21
1261.614860
31
0.0
0
LINE
8
0
10
4144.880576
20
1259.729476
30
0.0
11
4143.080576
21
1261.529476
31
0.0
0
LINE
8
0
10
4134.823792
20
1269.786261
30
0.0
11
4133.715773
21
1270.894280
31
0.0
0
LINE
8
0
10
4147.964051
20
1258.891065
30
0.0
11
4145.279850
21
1261.575266
31
0.0
0
LINE
8
0
10
4136.329519
20
1270.525598
30
0.0
11
4133.465452
21
1273.389664
31
0.0
0
LINE
8
0
10
4147.841477
20
1261.258703
30
0.0
11
4146.713009
21
1262.387171
31
0.0
0
LINE
8
0
10
4138.574583
20
1270.525598
30
0.0
11
4136.774583
21
1272.325598
31
0.0
0
LINE
8
0
10
4140.847289
20
1270.497955
30
0.0
11
4139.019647
21
1272.325598
31
0.0
0
LINE
8
0
10
4143.064711
20
1270.525598
30
0.0
11
4141.264711
21
1272.325598
31
0.0
0
LINE
8
0
10
4145.422248
20
1270.413125
30
0.0
11
4143.509775
21
1272.325598
31
0.0
0
LINE
8
0
10
4147.965900
20
1270.114537
30
0.0
11
4147.253650
21
1270.826786
31
0.0
0
LINE
8
0
10
4146.617089
20
1271.463348
30
0.0
11
4145.561797
21
1272.518639
31
0.0
0
LINE
8
0
10
4147.865900
20
1272.459601
30
0.0
11
4146.985111
21
1273.340390
31
0.0
0
ARC
8
0
10
4147.554094
20
1272.150598
30
0.0
40
0.200000
50
244.992167
51
286.231301
0
ARC
8
0
10
4147.665900
20
1272.150598
30
0.0
40
0.200000
50
253.768699
51
360.000000
0
LINE
8
0
10
4147.865900
20
1272.150598
30
0.0
11
4147.865900
21
1272.525598
31
0.0
0
LINE
8
0
10
4147.865900
20
1272.525598
30
0.0
11
4147.965900
21
1272.525598
31
0.0
0
LINE
8
0
10
4147.965900
20
1272.525598
30
0.0
11
4147.965900
21
1273.125598
31
0.0
0
ARC
8
0
10
4147.565900
20
1273.125598
30
0.0
40
0.400000
50
360.000000
51
90.000000
0
LINE
8
0
10
4147.565900
20
1273.525598
30
0.0
11
4147.359490
21
1273.525598
31
0.0
0
ARC
8
0
10
4147.359490
20
1273.325598
30
0.0
40
0.200000
50
90.000000
51
120.000000
0
LINE
8
0
10
4147.259490
20
1273.498803
30
0.0
11
4145.413080
21
1272.432777
31
0.0
0
ARC
8
0
10
4145.013080
20
1273.125598
30
0.0
40
0.800000
50
270.000000
51
300.000000
0
LINE
8
0
10
4145.013080
20
1272.325598
30
0.0
11
4140.665900
21
1272.325598
31
0.0
0
LINE
8
0
10
4140.665900
20
1272.325598
30
0.0
11
4136.318720
21
1272.325598
31
0.0
0
ARC
8
0
10
4136.318720
20
1273.125598
30
0.0
40
0.800000
50
240.000000
51
270.000000
0
LINE
8
0
10
4135.918720
20
1272.432777
30
0.0
11
4134.072310
21
1273.498803
31
0.0
0
ARC
8
0
10
4133.972310
20
1273.325598
30
0.0
40
0.200000
50
60.000000
51
90.000000
0
LINE
8
0
10
4133.972310
20
1273.525598
30
0.0
11
4133.765900
21
1273.525598
31
0.0
0
ARC
8
0
10
4133.765900
20
1273.125598
30
0.0
40
0.400000
50
90.000000
51
180.000000
0
LINE
8
0
10
4133.365900
20
1273.125598
30
0.0
11
4133.365900
21
1272.525598
31
0.0
0
LINE
8
0
10
4133.365900
20
1272.525598
30
0.0
11
4133.465900
21
1272.525598
31
0.0
0
LINE
8
0
10
4133.465900
20
1272.525598
30
0.0
11
4133.465900
21
1272.150598
31
0.0
0
ARC
8
0
10
4133.665900
20
1272.150598
30
0.0
40
0.200000
50
180.000000
51
286.231301
0
ARC
8
0
10
4133.777706
20
1272.150598
30
0.0
40
0.200000
50
253.768699
51
295.007833
0
ARC
8
0
10
4134.115900
20
1271.425598
30
0.0
40
0.600000
50
360.000000
51
115.007833
0
ARC
8
0
10
4134.115900
20
1271.425598
30
0.0
40
0.600000
50
244.992167
51
360.000000
0
ARC
8
0
10
4133.777706
20
1270.700598
30
0.0
40
0.200000
50
64.992167
51
106.231301
0
ARC
8
0
10
4133.665900
20
1270.700598
30
0.0
40
0.200000
50
73.768699
51
180.000000
0
LINE
8
0
10
4133.465900
20
1270.700598
30
0.0
11
4133.465900
21
1270.325598
31
0.0
0
LINE
8
0
10
4133.465900
20
1270.325598
30
0.0
11
4133.365900
21
1270.325598
31
0.0
0
LINE
8
0
10
4133.365900
20
1270.325598
30
0.0
11
4133.365900
21
1269.725598
31
0.0
0
ARC
8
0
10
4133.765900
20
1269.725598
30
0.0
40
0.400000
50
180.000000
51
270.000000
0
LINE
8
0
10
4133.765900
20
1269.325598
30
0.0
11
4133.972310
21
1269.325598
31
0.0
0
ARC
8
0
10
4133.972310
20
1269.525598
30
0.0
40
0.200000
50
270.000000
51
300.000000
0
LINE
8
0
10
4134.072310
20
1269.352393
30
0.0
11
4135.918720
21
1270.418418
31
0.0
0
ARC
8
0
10
4136.318720
20
1269.725598
30
0.0
40
0.800000
50
90.000000
51
120.000000
0
LINE
8
0
10
4136.318720
20
1270.525598
30
0.0
11
4140.383057
21
1270.525598
31
0.0
0
ARC
8
0
10
4140.383057
20
1270.325598
30
0.0
40
0.200000
50
51.057559
51
90.000000
0
ARC
8
0
10
4140.665900
20
1270.675598
30
0.0
40
0.250000
50
231.057559
51
308.942441
0
ARC
8
0
10
4140.948743
20
1270.325598
30
0.0
40
0.200000
50
90.000000
51
128.942441
0
LINE
8
0
10
4140.948743
20
1270.525598
30
0.0
11
4145.013080
21
1270.525598
31
0.0
0
ARC
8
0
10
4145.013080
20
1269.725598
30
0.0
40
0.800000
50
60.000000
51
90.000000
0
LINE
8
0
10
4145.413080
20
1270.418418
30
0.0
11
4147.259490
21
1269.352393
31
0.0
0
ARC
8
0
10
4147.359490
20
1269.525598
30
0.0
40
0.200000
50
240.000000
51
270.000000
0
LINE
8
0
10
4147.359490
20
1269.325598
30
0.0
11
4147.565900
21
1269.325598
31
0.0
0
ARC
8
0
10
4147.565900
20
1269.725598
30
0.0
40
0.400000
50
270.000000
51
360.000000
0
LINE
8
0
10
4147.965900
20
1269.725598
30
0.0
11
4147.965900
21
1270.325598
31
0.0
0
LINE
8
0
10
4147.965900
20
1270.325598
30
0.0
11
4147.865900
21
1270.325598
31
0.0
0
LINE
8
0
10
4147.865900
20
1270.325598
30
0.0
11
4147.865900
21
1270.700598
31
0.0
0
ARC
8
0
10
4147.665900
20
1270.700598
30
0.0
40
0.200000
50
360.000000
51
106.231301
0
ARC
8
0
10
4147.554094
20
1270.700598
30
0.0
40
0.200000
50
73.768699
51
115.007833
0
ARC
8
0
10
4147.215900
20
1271.425598
30
0.0
40
0.600000
50
180.000000
51
295.007833
0
ARC
8
0
10
4147.215900
20
1271.425598
30
0.0
40
0.600000
50
64.992167
51
180.000000
0
LINE
8
0
10
4147.865900
20
1259.529476
30
0.0
11
4147.965900
21
1259.529476
31
0.0
0
LINE
8
0
10
4147.965900
20
1259.529476
30
0.0
11
4147.965900
21
1258.929476
31
0.0
0
ARC
8
0
10
4147.565900
20
1258.929476
30
0.0
40
0.400000
50
270.000000
51
360.000000
0
LINE
8
0
10
4147.565900
20
1258.529476
30
0.0
11
4147.359490
21
1258.529476
31
0.0
0
ARC
8
0
10
4147.359490
20
1258.729476
30
0.0
40
0.200000
50
240.000000
51
270.000000
0
LINE
8
0
10
4147.259490
20
1258.556271
30
0.0
11
4145.413080
21
1259.622297
31
0.0
0
ARC
8
0
10
4145.013080
20
1258.929476
30
0.0
40
0.800000
50
60.000000
51
90.000000
0
LINE
8
0
10
4145.013080
20
1259.729476
30
0.0
11
4142.615900
21
1259.729476
31
0.0
0
ARC
8
0
10
4142.615900
20
1258.729476
30
0.0
40
1.000000
50
90.000000
51
176.960958
0
LINE
8
0
10
4141.617306
20
1258.782493
30
0.0
11
4141.265056
21
1252.147666
31
0.0
0
ARC
8
0
10
4140.665900
20
1252.179476
30
0.0
40
0.600000
50
183.039042
51
356.960958
0
LINE
8
0
10
4140.066744
20
1252.147666
30
0.0
11
4139.714494
21
1258.782493
31
0.0
0
ARC
8
0
10
4138.715900
20
1258.729476
30
0.0
40
1.000000
50
3.039042
51
90.000000
0
LINE
8
0
10
4138.715900
20
1259.729476
30
0.0
11
4136.318720
21
1259.729476
31
0.0
0
ARC
8
0
10
4136.318720
20
1258.929476
30
0.0
40
0.800000
50
90.000000
51
120.000000
0
LINE
8
0
10
4135.918720
20
1259.622297
30
0.0
11
4134.072310
21
1258.556271
31
0.0
0
ARC
8
0
10
4133.972310
20
1258.729476
30
0.0
40
0.200000
50
270.000000
51
300.000000
0
LINE
8
0
10
4133.972310
20
1258.529476
30
0.0
11
4133.765900
21
1258.529476
31
0.0
0
ARC
8
0
10
4133.765900
20
1258.929476
30
0.0
40
0.400000
50
180.000000
51
270.000000
0
LINE
8
0
10
4133.365900
20
1258.929476
30
0.0
11
4133.365900
21
1259.529476
31
0.0
0
LINE
8
0
10
4133.365900
20
1259.529476
30
0.0
11
4133.465900
21
1259.529476
31
0.0
0
LINE
8
0
10
4133.465900
20
1259.529476
30
0.0
11
4133.465900
21
1259.904476
31
0.0
0
ARC
8
0
10
4133.665900
20
1259.904476
30
0.0
40
0.200000
50
90.000000
51
180.000000
0
LINE
8
0
10
4133.665900
20
1260.104476
30
0.0
11
4133.777706
21
1260.104476
31
0.0
0
LINE
8
0
10
4133.862255
20
1260.085726
30
0.0
11
4133.777706
21
1260.104476
31
0.0
0
ARC
8
0
10
4134.115900
20
1260.629476
30
0.0
40
0.600000
50
244.992167
51
360.000000
0
ARC
8
0
10
4134.115900
20
1260.629476
30
0.0
40
0.600000
50
360.000000
51
115.007833
0
LINE
8
0
10
4133.777706
20
1261.154476
30
0.0
11
4133.862255
21
1261.173226
31
0.0
0
LINE
8
0
10
4133.777706
20
1261.154476
30
0.0
11
4133.665900
21
1261.154476
31
0.0
0
ARC
8
0
10
4133.665900
20
1261.354476
30
0.0
40
0.200000
50
180.000000
51
270.000000
0
LINE
8
0
10
4133.465900
20
1261.354476
30
0.0
11
4133.465900
21
1261.729476
31
0.0
0
LINE
8
0
10
4133.465900
20
1261.729476
30
0.0
11
4133.365900
21
1261.729476
31
0.0
0
LINE
8
0
10
4133.365900
20
1261.729476
30
0.0
11
4133.365900
21
1262.329476
31
0.0
0
ARC
8
0
10
4133.765900
20
1262.329476
30
0.0
40
0.400000
50
90.000000
51
180.000000
0
LINE
8
0
10
4133.765900
20
1262.729476
30
0.0
11
4133.972310
21
1262.729476
31
0.0
0
ARC
8
0
10
4133.972310
20
1262.529476
30
0.0
40
0.200000
50
60.000000
51
90.000000
0
LINE
8
0
10
4134.072310
20
1262.702681
30
0.0
11
4135.918720
21
1261.636656
31
0.0
0
ARC
8
0
10
4136.318720
20
1262.329476
30
0.0
40
0.800000
50
240.000000
51
270.000000
0
LINE
8
0
10
4136.318720
20
1261.529476
30
0.0
11
4140.383057
21
1261.529476
31
0.0
0
ARC
8
0
10
4140.383057
20
1261.729476
30
0.0
40
0.200000
50
270.000000
51
308.942441
0
ARC
8
0
10
4140.665900
20
1261.379476
30
0.0
40
0.250000
50
51.057559
51
128.942441
0
ARC
8
0
10
4140.948743
20
1261.729476
30
0.0
40
0.200000
50
231.057559
51
270.000000
0
LINE
8
0
10
4140.948743
20
1261.529476
30
0.0
11
4145.013080
21
1261.529476
31
0.0
0
ARC
8
0
10
4145.013080
20
1262.329476
30
0.0
40
0.800000
50
270.000000
51
300.000000
0
LINE
8
0
10
4145.413080
20
1261.636656
30
0.0
11
4147.259490
21
1262.702681
31
0.0
0
ARC
8
0
10
4147.359490
20
1262.529476
30
0.0
40
0.200000
50
90.000000
51
120.000000
0
LINE
8
0
10
4147.359490
20
1262.729476
30
0.0
11
4147.565900
21
1262.729476
31
0.0
0
ARC
8
0
10
4147.565900
20
1262.329476
30
0.0
40
0.400000
50
360.000000
51
90.000000
0
LINE
8
0
10
4147.965900
20
1262.329476
30
0.0
11
4147.965900
21
1261.729476
31
0.0
0
LINE
8
0
10
4147.965900
20
1261.729476
30
0.0
11
4147.865900
21
1261.729476
31
0.0
0
LINE
8
0
10
4147.865900
20
1261.729476
30
0.0
11
4147.865900
21
1261.354476
31
0.0
0
ARC
8
0
10
4147.665900
20
1261.354476
30
0.0
40
0.200000
50
270.000000
51
360.000000
0
LINE
8
0
10
4147.665900
20
1261.154476
30
0.0
11
4147.554094
21
1261.154476
31
0.0
0
LINE
8
0
10
4147.469545
20
1261.173226
30
0.0
11
4147.554094
21
1261.154476
31
0.0
0
ARC
8
0
10
4147.215900
20
1260.629476
30
0.0
40
0.600000
50
64.992167
51
295.007833
0
LINE
8
0
10
4147.554094
20
1260.104476
30
0.0
11
4147.469545
21
1260.085726
31
0.0
0
LINE
8
0
10
4147.554094
20
1260.104476
30
0.0
11
4147.665900
21
1260.104476
31
0.0
0
ARC
8
0
10
4147.665900
20
1259.904476
30
0.0
40
0.200000
50
360.000000
51
90.000000
0
LINE
8
0
10
4147.865900
20
1259.904476
30
0.0
11
4147.865900
21
1259.529476
31
0.0
0
LINE
8
0
10
4112.765900
20
1257.820268
30
0.0
11
4111.765900
21
1257.820268
31
0.0
0
LINE
8
0
10
4111.765900
20
1257.820268
30
0.0
11
4111.765900
21
1258.320268
31
0.0
0
LINE
8
0
10
4111.765900
20
1258.320268
30
0.0
11
4107.684840
21
1258.320268
31
0.0
0
LINE
8
0
10
4107.684840
20
1258.320268
30
0.0
11
4107.416890
21
1259.320268
31
0.0
0
LINE
8
0
10
4107.416890
20
1259.320268
30
0.0
11
4105.265900
21
1259.320268
31
0.0
0
LINE
8
0
10
4105.265900
20
1259.320268
30
0.0
11
4105.265900
21
1261.320268
31
0.0
0
LINE
8
0
10
4105.265900
20
1261.320268
30
0.0
11
4106.265900
21
1261.320268
31
0.0
0
LINE
8
0
10
4106.265900
20
1261.320268
30
0.0
11
4106.265900
21
1262.820268
31
0.0
0
LINE
8
0
10
4106.265900
20
1262.820268
30
0.0
11
4105.265900
21
1262.820268
31
0.0
0
LINE
8
0
10
4105.265900
20
1262.820268
30
0.0
11
4105.265900
21
1272.820268
31
0.0
0
LINE
8
0
10
4105.265900
20
1272.820268
30
0.0
11
4106.265900
21
1272.820268
31
0.0
0
LINE
8
0
10
4106.265900
20
1272.820268
30
0.0
11
4106.265900
21
1274.320268
31
0.0
0
LINE
8
0
10
4106.265900
20
1274.320268
30
0.0
11
4131.865900
21
1274.320268
31
0.0
0
LINE
8
0
10
4131.865900
20
1274.320268
30
0.0
11
4131.865900
21
1257.820268
31
0.0
0
LINE
8
0
10
4131.865900
20
1257.820268
30
0.0
11
4129.887220
21
1257.820268
31
0.0
0
LINE
8
0
10
4129.887220
20
1257.820268
30
0.0
11
4127.387220
21
1260.320268
31
0.0
0
LINE
8
0
10
4127.387220
20
1260.320268
30
0.0
11
4112.765900
21
1260.320268
31
0.0
0
LINE
8
0
10
4112.765900
20
1260.320268
30
0.0
11
4112.765900
21
1257.820268
31
0.0
0
LINE
8
0
10
4133.365900
20
1258.100232
30
0.0
11
4133.365900
21
1262.779476
31
0.0
0
ARC
8
0
10
4133.565900
20
1262.779476
30
0.0
40
0.200000
50
90.000000
51
180.000000
0
LINE
8
0
10
4133.565900
20
1262.979476
30
0.0
11
4133.633789
21
1262.979476
31
0.0
0
ARC
8
0
10
4133.633789
20
1262.679476
30
0.0
40
0.300000
50
58.619868
51
90.000000
0
LINE
8
0
10
4133.790003
20
1262.935596
30
0.0
11
4135.465996
21
1261.913363
31
0.0
0
ARC
8
0
10
4135.665900
20
1261.907173
30
0.0
40
0.200000
50
180.000000
51
360.000000
0
LINE
8
0
10
4135.865900
20
1261.907173
30
0.0
11
4135.865900
21
1263.290953
31
0.0
0
ARC
8
0
10
4135.665900
20
1263.290953
30
0.0
40
0.200000
50
360.000000
51
60.153120
0
LINE
8
0
10
4135.765437
20
1263.464425
30
0.0
11
4133.868216
21
1264.553036
31
0.0
0
ARC
8
0
10
4134.365900
20
1265.420394
30
0.0
40
1.000000
50
180.000000
51
240.153120
0
LINE
8
0
10
4133.365900
20
1265.420394
30
0.0
11
4133.365900
21
1266.520141
31
0.0
0
ARC
8
0
10
4134.365900
20
1266.520141
30
0.0
40
1.000000
50
119.846880
51
180.000000
0
LINE
8
0
10
4133.868216
20
1267.387500
30
0.0
11
4135.765437
21
1268.476111
31
0.0
0
ARC
8
0
10
4135.665900
20
1268.649582
30
0.0
40
0.200000
50
299.846880
51
360.000000
0
LINE
8
0
10
4135.865900
20
1268.649582
30
0.0
11
4135.865900
21
1270.033363
31
0.0
0
ARC
8
0
10
4135.665900
20
1270.033363
30
0.0
40
0.200000
50
360.000000
51
180.000000
0
LINE
8
0
10
4135.465996
20
1270.027173
30
0.0
11
4133.790003
21
1269.004940
31
0.0
0
ARC
8
0
10
4133.633789
20
1269.261059
30
0.0
40
0.300000
50
270.000000
51
301.380132
0
LINE
8
0
10
4133.633789
20
1268.961059
30
0.0
11
4133.565900
21
1268.961059
31
0.0
0
ARC
8
0
10
4133.565900
20
1269.161059
30
0.0
40
0.200000
50
180.000000
51
270.000000
0
LINE
8
0
10
4133.365900
20
1269.161059
30
0.0
11
4133.365900
21
1273.840304
31
0.0
0
ARC
8
0
10
4133.065900
20
1273.840304
30
0.0
40
0.300000
50
360.000000
51
39.714843
0
ARC
8
0
10
4133.565902
20
1274.255632
30
0.0
40
0.350000
50
348.991572
51
219.714843
0
ARC
8
0
10
4134.105781
20
1274.150607
30
0.0
40
0.200000
50
168.991227
51
231.176673
0
LINE
8
0
10
4133.980397
20
1273.994790
30
0.0
11
4135.484040
21
1272.784795
31
0.0
0
ARC
8
0
10
4135.358654
20
1272.628980
30
0.0
40
0.200000
50
333.765017
51
51.176024
0
ARC
8
0
10
4135.667186
20
1272.442123
30
0.0
40
0.162380
50
142.679569
51
334.527730
0
LINE
8
0
10
4135.813781
20
1272.372288
30
0.0
11
4137.878069
21
1275.038729
31
0.0
0
ARC
8
0
10
4137.593161
20
1275.132685
30
0.0
40
0.300000
50
341.748585
51
87.394587
0
LINE
8
0
10
4137.596546
20
1275.432709
30
0.0
11
4136.939925
21
1275.451323
31
0.0
0
ARC
8
0
10
4136.925757
20
1274.951524
30
0.0
40
0.500000
50
88.376251
51
128.194227
0
ARC
8
0
10
4135.379934
20
1276.916322
30
0.0
40
2.000000
50
236.002945
51
308.194227
0
LINE
8
0
10
4134.261633
20
1275.258189
30
0.0
11
4133.843250
21
1275.463398
31
0.0
0
ARC
8
0
10
4134.062492
20
1276.180638
30
0.0
40
0.750000
50
208.717619
51
253.002945
0
LINE
8
0
10
4133.404743
20
1275.820268
30
0.0
11
4124.765900
21
1275.820268
31
0.0
0
LINE
8
0
10
4124.765900
20
1275.820268
30
0.0
11
4124.765900
21
1280.820268
31
0.0
0
LINE
8
0
10
4124.765900
20
1280.820268
30
0.0
11
4122.265900
21
1280.820268
31
0.0
0
LINE
8
0
10
4122.265900
20
1280.820268
30
0.0
11
4121.265900
21
1279.820268
31
0.0
0
LINE
8
0
10
4121.265900
20
1279.820268
30
0.0
11
4121.265900
21
1278.820268
31
0.0
0
LINE
8
0
10
4121.265900
20
1278.820268
30
0.0
11
4123.265900
21
1278.820268
31
0.0
0
LINE
8
0
10
4123.265900
20
1278.820268
30
0.0
11
4123.265900
21
1275.820268
31
0.0
0
LINE
8
0
10
4123.265900
20
1275.820268
30
0.0
11
4105.265900
21
1275.820268
31
0.0
0
LINE
8
0
10
4105.265900
20
1275.820268
30
0.0
11
4105.265900
21
1278.820268
31
0.0
0
LINE
8
0
10
4105.265900
20
1278.820268
30
0.0
11
4107.265900
21
1278.820268
31
0.0
0
LINE
8
0
10
4107.265900
20
1278.820268
30
0.0
11
4107.265900
21
1279.820268
31
0.0
0
LINE
8
0
10
4107.265900
20
1279.820268
30
0.0
11
4106.265900
21
1280.820268
31
0.0
0
LINE
8
0
10
4106.265900
20
1280.820268
30
0.0
11
4103.765900
21
1280.820268
31
0.0
0
LINE
8
0
10
4103.765900
20
1280.820268
30
0.0
11
4103.765900
21
1234.820268
31
0.0
0
ARC
8
0
10
4104.265900
20
1234.820268
30
0.0
40
0.500000
50
180.000000
51
270.000000
0
LINE
8
0
10
4104.265900
20
1234.320268
30
0.0
11
4106.765900
21
1234.320268
31
0.0
0
ARC
8
0
10
4106.765900
20
1234.820268
30
0.0
40
0.500000
50
270.000000
51
360.000000
0
LINE
8
0
10
4107.265900
20
1234.820268
30
0.0
11
4107.265900
21
1235.520268
31
0.0
0
LINE
8
0
10
4107.265900
20
1235.520268
30
0.0
11
4106.765900
21
1236.820268
31
0.0
0
LINE
8
0
10
4106.765900
20
1236.820268
30
0.0
11
4106.265900
21
1236.820268
31
0.0
0
LINE
8
0
10
4106.265900
20
1236.820268
30
0.0
11
4106.265900
21
1235.520268
31
0.0
0
LINE
8
0
10
4106.265900
20
1235.520268
30
0.0
11
4104.965900
21
1235.520268
31
0.0
0
LINE
8
0
10
4104.965900
20
1235.520268
30
0.0
11
4104.965900
21
1241.620268
31
0.0
0
LINE
8
0
10
4104.965900
20
1241.620268
30
0.0
11
4106.265900
21
1241.620268
31
0.0
0
LINE
8
0
10
4106.265900
20
1241.620268
30
0.0
11
4106.265900
21
1240.320268
31
0.0
0
LINE
8
0
10
4106.265900
20
1240.320268
30
0.0
11
4106.765900
21
1240.320268
31
0.0
0
LINE
8
0
10
4106.765900
20
1240.320268
30
0.0
11
4107.265900
21
1241.620268
31
0.0
0
LINE
8
0
10
4107.265900
20
1241.620268
30
0.0
11
4107.265900
21
1243.820268
31
0.0
0
LINE
8
0
10
4107.265900
20
1243.820268
30
0.0
11
4106.533849
21
1243.820268
31
0.0
0
LINE
8
0
10
4106.533849
20
1243.820268
30
0.0
11
4106.265900
21
1242.820268
31
0.0
0
LINE
8
0
10
4106.265900
20
1242.820268
30
0.0
11
4105.265900
21
1242.820268
31
0.0
0
LINE
8
0
10
4105.265900
20
1242.820268
30
0.0
11
4105.265900
21
1257.820268
31
0.0
0
LINE
8
0
10
4105.265900
20
1257.820268
30
0.0
11
4106.265900
21
1257.820268
31
0.0
0
LINE
8
0
10
4106.265900
20
1257.820268
30
0.0
11
4106.533849
21
1256.820268
31
0.0
0
LINE
8
0
10
4106.533849
20
1256.820268
30
0.0
11
4110.265900
21
1256.820268
31
0.0
0
LINE
8
0
10
4110.265900
20
1256.820268
30
0.0
11
4110.265900
21
1253.320268
31
0.0
0
ARC
8
0
10
4110.265900
20
1252.820268
30
0.0
40
0.500000
50
90.000000
51
180.000000
0
LINE
8
0
10
4109.765900
20
1252.820268
30
0.0
11
4109.765900
21
1252.320268
31
0.0
0
ARC
8
0
10
4110.265900
20
1252.320268
30
0.0
40
0.500000
50
180.000000
51
270.000000
0
LINE
8
0
10
4110.265900
20
1251.820268
30
0.0
11
4114.265900
21
1251.820268
31
0.0
0
LINE
8
0
10
4114.265900
20
1251.820268
30
0.0
11
4114.265900
21
1253.320268
31
0.0
0
LINE
8
0
10
4114.265900
20
1253.320268
30
0.0
11
4111.765900
21
1253.320268
31
0.0
0
LINE
8
0
10
4111.765900
20
1253.320268
30
0.0
11
4111.765900
21
1256.320268
31
0.0
0
LINE
8
0
10
4111.765900
20
1256.320268
30
0.0
11
4114.265900
21
1256.320268
31
0.0
0
LINE
8
0
10
4114.265900
20
1256.320268
30
0.0
11
4114.265900
21
1258.820268
31
0.0
0
LINE
8
0
10
4114.265900
20
1258.820268
30
0.0
11
4126.765900
21
1258.820268
31
0.0
0
LINE
8
0
10
4126.765900
20
1258.820268
30
0.0
11
4129.265900
21
1256.320268
31
0.0
0
LINE
8
0
10
4129.265900
20
1256.320268
30
0.0
11
4131.765900
21
1256.320268
31
0.0
0
LINE
8
0
10
4131.765900
20
1256.320268
30
0.0
11
4131.765900
21
1253.320268
31
0.0
0
LINE
8
0
10
4131.765900
20
1253.320268
30
0.0
11
4129.265900
21
1253.320268
31
0.0
0
LINE
8
0
10
4129.265900
20
1253.320268
30
0.0
11
4129.265900
21
1251.820268
31
0.0
0
LINE
8
0
10
4129.265900
20
1251.820268
30
0.0
11
4133.465900
21
1251.820268
31
0.0
0
LINE
8
0
10
4133.465900
20
1251.820268
30
0.0
11
4134.242953
21
1254.720268
31
0.0
0
LINE
8
0
10
4134.242953
20
1254.720268
30
0.0
11
4133.365900
21
1254.720268
31
0.0
0
LINE
8
0
10
4133.365900
20
1254.720268
30
0.0
11
4133.365900
21
1256.037854
31
0.0
0
ARC
8
0
10
4134.062492
20
1255.759898
30
0.0
40
0.750000
50
106.997055
51
158.246886
0
LINE
8
0
10
4133.843250
20
1256.477138
30
0.0
11
4134.261633
21
1256.682346
31
0.0
0
ARC
8
0
10
4135.379934
20
1255.024214
30
0.0
40
2.000000
50
51.805773
51
123.997055
0
ARC
8
0
10
4136.925757
20
1256.989012
30
0.0
40
0.500000
50
231.805773
51
271.623749
0
LINE
8
0
10
4136.939925
20
1256.489212
30
0.0
11
4137.596546
21
1256.507826
31
0.0
0
ARC
8
0
10
4137.593161
20
1256.807851
30
0.0
40
0.300000
50
270.000000
51
18.251415
0
LINE
8
0
10
4137.878069
20
1256.901807
30
0.0
11
4135.813781
21
1259.568248
31
0.0
0
ARC
8
0
10
4135.698634
20
1259.479104
30
0.0
40
0.145621
50
37.746080
51
180.000000
0
LINE
8
0
10
4135.553102
20
1259.474022
30
0.0
11
4135.558532
21
1259.318535
31
0.0
0
ARC
8
0
10
4135.358654
20
1259.311555
30
0.0
40
0.200000
50
308.823976
51
360.000000
0
LINE
8
0
10
4135.484040
20
1259.155740
30
0.0
11
4133.980397
21
1257.945745
31
0.0
0
ARC
8
0
10
4134.105781
20
1257.789929
30
0.0
40
0.200000
50
128.823327
51
191.008773
0
ARC
8
0
10
4133.565902
20
1257.684903
30
0.0
40
0.350000
50
140.285157
51
11.008428
0
ARC
8
0
10
4133.065900
20
1258.100232
30
0.0
40
0.300000
50
320.285157
51
360.000000
0
LINE
8
0
10
4145.465900
20
1263.294134
30
0.0
11
4145.465900
21
1261.910354
31
0.0
0
ARC
8
0
10
4145.665900
20
1261.910354
30
0.0
40
0.200000
50
180.000000
51
360.000000
0
LINE
8
0
10
4145.865804
20
1261.916544
30
0.0
11
4147.541797
21
1262.938777
31
0.0
0
ARC
8
0
10
4147.698011
20
1262.682658
30
0.0
40
0.300000
50
90.000000
51
121.380132
0
LINE
8
0
10
4147.698011
20
1262.982658
30
0.0
11
4147.765900
21
1262.982658
31
0.0
0
ARC
8
0
10
4147.765900
20
1262.782658
30
0.0
40
0.200000
50
360.000000
51
90.000000
0
LINE
8
0
10
4147.965900
20
1262.782658
30
0.0
11
4147.965900
21
1258.282658
31
0.0
0
ARC
8
0
10
4147.965900
20
1257.982658
30
0.0
40
0.300000
50
270.000000
51
90.000000
0
LINE
8
0
10
4147.965900
20
1257.682658
30
0.0
11
4147.610875
21
1257.778209
31
0.0
0
ARC
8
0
10
4147.679008
20
1258.070369
30
0.0
40
0.300000
50
231.176024
51
256.872879
0
LINE
8
0
10
4147.490929
20
1257.836647
30
0.0
11
4145.847760
21
1259.158921
31
0.0
0
ARC
8
0
10
4145.973146
20
1259.314737
30
0.0
40
0.200000
50
180.000000
51
231.176024
0
LINE
8
0
10
4145.773268
20
1259.321716
30
0.0
11
4145.778697
21
1259.477203
31
0.0
0
ARC
8
0
10
4145.633165
20
1259.482286
30
0.0
40
0.145621
50
360.000000
51
142.253920
0
LINE
8
0
10
4145.518018
20
1259.571429
30
0.0
11
4143.453731
21
1256.904988
31
0.0
0
ARC
8
0
10
4143.738638
20
1256.811032
30
0.0
40
0.300000
50
161.748585
51
270.000000
0
LINE
8
0
10
4143.735253
20
1256.511007
30
0.0
11
4144.391875
21
1256.492394
31
0.0
0
ARC
8
0
10
4144.406043
20
1256.992193
30
0.0
40
0.500000
50
268.376251
51
308.194227
0
ARC
8
0
10
4145.951866
20
1255.027395
30
0.0
40
2.000000
50
56.002945
51
128.194227
0
LINE
8
0
10
4147.070166
20
1256.685528
30
0.0
11
4147.488550
21
1256.480319
31
0.0
0
ARC
8
0
10
4147.269308
20
1255.763079
30
0.0
40
0.750000
50
47.980571
51
73.002945
0
LINE
8
0
10
4147.771345
20
1256.320268
30
0.0
11
4149.765900
21
1256.320268
31
0.0
0
ARC
8
0
10
4149.765900
20
1256.820268
30
0.0
40
0.500000
50
270.000000
51
360.000000
0
LINE
8
0
10
4150.265900
20
1256.820268
30
0.0
11
4150.265900
21
1265.820268
31
0.0
0
ARC
8
0
10
4150.765900
20
1265.820268
30
0.0
40
0.500000
50
90.000000
51
180.000000
0
LINE
8
0
10
4150.765900
20
1266.320268
30
0.0
11
4155.465900
21
1266.320268
31
0.0
0
LINE
8
0
10
4155.465900
20
1266.320268
30
0.0
11
4155.465900
21
1265.820268
31
0.0
0
ARC
8
0
10
4156.465900
20
1265.820268
30
0.0
40
1.000000
50
180.000000
51
270.000000
0
LINE
8
0
10
4156.465900
20
1264.820268
30
0.0
11
4156.765900
21
1264.820268
31
0.0
0
LINE
8
0
10
4156.765900
20
1264.820268
30
0.0
11
4156.765900
21
1294.820268
31
0.0
0
ARC
8
0
10
4150.765900
20
1294.820268
30
0.0
40
6.000000
50
360.000000
51
90.000000
0
LINE
8
0
10
4150.765900
20
1300.820268
30
0.0
11
4147.265900
21
1300.820268
31
0.0
0
ARC
8
0
10
4147.265900
20
1299.820268
30
0.0
40
1.000000
50
90.000000
51
180.000000
0
LINE
8
0
10
4146.265900
20
1299.820268
30
0.0
11
4146.265900
21
1298.420268
31
0.0
0
ARC
8
0
10
4146.765900
20
1298.420268
30
0.0
40
0.500000
50
180.000000
51
360.000000
0
LINE
8
0
10
4147.265900
20
1298.420268
30
0.0
11
4147.265900
21
1299.420268
31
0.0
0
LINE
8
0
10
4147.265900
20
1299.420268
30
0.0
11
4149.765900
21
1299.420268
31
0.0
0
LINE
8
0
10
4149.765900
20
1299.420268
30
0.0
11
4149.765900
21
1289.920268
31
0.0
0
LINE
8
0
10
4149.765900
20
1289.920268
30
0.0
11
4147.265900
21
1289.920268
31
0.0
0
LINE
8
0
10
4147.265900
20
1289.920268
30
0.0
11
4147.265900
21
1290.920268
31
0.0
0
ARC
8
0
10
4146.765900
20
1290.920268
30
0.0
40
0.500000
50
360.000000
51
180.000000
0
LINE
8
0
10
4146.265900
20
1290.920268
30
0.0
11
4146.265900
21
1289.520268
31
0.0
0
ARC
8
0
10
4147.265900
20
1289.520268
30
0.0
40
1.000000
50
180.000000
51
270.000000
0
LINE
8
0
10
4147.265900
20
1288.520268
30
0.0
11
4150.165900
21
1288.520268
31
0.0
0
ARC
8
0
10
4150.165900
20
1289.520268
30
0.0
40
1.000000
50
270.000000
51
360.000000
0
LINE
8
0
10
4151.165900
20
1289.520268
30
0.0
11
4151.165900
21
1299.302455
31
0.0
0
ARC
8
0
10
4150.765900
20
1294.820268
30
0.0
40
4.500000
50
360.000000
51
84.900311
0
LINE
8
0
10
4155.265900
20
1294.820268
30
0.0
11
4155.265900
21
1267.820268
31
0.0
0
LINE
8
0
10
4155.265900
20
1267.820268
30
0.0
11
4150.765900
21
1267.820268
31
0.0
0
ARC
8
0
10
4150.765900
20
1268.320268
30
0.0
40
0.500000
50
180.000000
51
270.000000
0
LINE
8
0
10
4150.265900
20
1268.320268
30
0.0
11
4150.265900
21
1275.120268
31
0.0
0
ARC
8
0
10
4149.765900
20
1275.120268
30
0.0
40
0.500000
50
360.000000
51
90.000000
0
LINE
8
0
10
4149.765900
20
1275.620268
30
0.0
11
4147.764191
21
1275.620268
31
0.0
0
ARC
8
0
10
4147.269308
20
1276.183819
30
0.0
40
0.750000
50
286.997055
51
311.288043
0
LINE
8
0
10
4147.488550
20
1275.466579
30
0.0
11
4147.070166
21
1275.261370
31
0.0
0
ARC
8
0
10
4145.951866
20
1276.919503
30
0.0
40
2.000000
50
231.805773
51
303.997055
0
ARC
8
0
10
4144.406043
20
1274.954705
30
0.0
40
0.500000
50
51.805773
51
91.623749
0
LINE
8
0
10
4144.391875
20
1275.454504
30
0.0
11
4143.735253
21
1275.435891
31
0.0
0
ARC
8
0
10
4143.738638
20
1275.135866
30
0.0
40
0.300000
50
90.000000
51
198.251415
0
LINE
8
0
10
4143.453731
20
1275.041910
30
0.0
11
4145.518018
21
1272.375469
31
0.0
0
ARC
8
0
10
4145.633165
20
1272.464613
30
0.0
40
0.145621
50
217.746080
51
360.000000
0
LINE
8
0
10
4145.778697
20
1272.469695
30
0.0
11
4145.773268
21
1272.625182
31
0.0
0
ARC
8
0
10
4145.973146
20
1272.632162
30
0.0
40
0.200000
50
128.823976
51
180.000000
0
LINE
8
0
10
4145.847760
20
1272.787977
30
0.0
11
4147.490929
21
1274.110252
31
0.0
0
ARC
8
0
10
4147.679008
20
1273.876529
30
0.0
40
0.300000
50
103.127121
51
128.823976
0
LINE
8
0
10
4147.610875
20
1274.168690
30
0.0
11
4147.965900
21
1274.264241
31
0.0
0
ARC
8
0
10
4147.965900
20
1273.964241
30
0.0
40
0.300000
50
270.000000
51
90.000000
0
LINE
8
0
10
4147.965900
20
1273.664241
30
0.0
11
4147.965900
21
1269.164241
31
0.0
0
ARC
8
0
10
4147.765900
20
1269.164241
30
0.0
40
0.200000
50
270.000000
51
360.000000
0
LINE
8
0
10
4147.765900
20
1268.964241
30
0.0
11
4147.698011
21
1268.964241
31
0.0
0
ARC
8
0
10
4147.698011
20
1269.264241
30
0.0
40
0.300000
50
238.619868
51
270.000000
0
LINE
8
0
10
4147.541797
20
1269.008121
30
0.0
11
4145.865804
21
1270.030354
31
0.0
0
ARC
8
0
10
4145.665900
20
1270.036544
30
0.0
40
0.200000
50
360.000000
51
180.000000
0
LINE
8
0
10
4145.465900
20
1270.036544
30
0.0
11
4145.465900
21
1268.652764
31
0.0
0
ARC
8
0
10
4145.665900
20
1268.652764
30
0.0
40
0.200000
50
180.000000
51
241.694535
0
LINE
8
0
10
4145.571284
20
1268.476469
30
0.0
11
4147.463584
21
1267.390681
31
0.0
0
ARC
8
0
10
4146.965900
20
1266.523323
30
0.0
40
1.000000
50
360.000000
51
60.153120
0
LINE
8
0
10
4147.965900
20
1266.523323
30
0.0
11
4147.965900
21
1265.423576
31
0.0
0
ARC
8
0
10
4146.965900
20
1265.423576
30
0.0
40
1.000000
50
299.846880
51
360.000000
0
LINE
8
0
10
4147.463584
20
1264.556217
30
0.0
11
4145.571284
21
1263.470429
31
0.0
0
ARC
8
0
10
4145.665900
20
1263.294134
30
0.0
40
0.200000
50
118.305465
51
180.000000
0
ATTDEF
8
0
10
0.000000
20
0.000000
30
0.0
40
3.5
1

3

2
PANE_WIDTH:0
70
0
0
ATTDEF
8
0
10
0.000000
20
0.000000
30
0.0
40
3.5
1

3

2
MIN_VETRO:0
70
0
0
ATTDEF
8
0
10
0.000000
20
0.000000
30
0.0
40
3.5
1

3

2
MAX_VETRO:0
70
0
0
ATTDEF
8
0
10
0.000000
20
0.000000
30
0.0
40
3.5
1

3

2
JX:0
70
0
0
ATTDEF
8
0
10
0.000000
20
0.000000
30
0.0
40
3.5
1

3

2
WX:0
70
0
0
ATTDEF
8
0
10
0.000000
20
0.000000
30
0.0
40
3.5
1

3

2
JY:0
70
0
0
ATTDEF
8
0
10
0.000000
20
0.000000
30
0.0
40
3.5
1

3

2
WY:0
70
0
0
ATTDEF
8
0
10
0.000000
20
0.000000
30
0.0
40
3.5
1

3

2
DESC:Hoja ventana
70
0
0
ATTDEF
8
0
10
0.000000
20
0.000000
30
0.0
40
3.5
1

3

2
DENS:1.2605
70
0
0
ATTDEF
8
0
10
0.000000
20
0.000000
30
0.0
40
3.5
1

3

2
TDEV:54.3
70
0
0
ATTDEF
8
0
10
0.000000
20
0.000000
30
0.0
40
3.5
1

3

2
TDEV2:0
70
0
0
ATTDEF
8
0
10
0.000000
20
0.000000
30
0.0
40
3.5
1

3

2
TDEV3:0
70
0
0
ATTDEF
8
0
10
0.000000
20
0.000000
30
0.0
40
3.5
1

3

2
TDEV4:0
70
0
0
ATTDEF
8
0
10
0.000000
20
0.000000
30
0.0
40
3.5
1

3

2
TDEV5:0
70
0
0
ATTDEF
8
0
10
0.000000
20
0.000000
30
0.0
40
3.5
1

3

2
PANE_WIDTH:0
70
0
0
ATTDEF
8
0
10
0.000000
20
0.000000
30
0.0
40
3.5
1

3

2
MIN_VETRO:0
70
0
0
ATTDEF
8
0
10
0.000000
20
0.000000
30
0.0
40
3.5
1

3

2
MAX_VETRO:0
70
0
0
ATTDEF
8
0
10
0.000000
20
0.000000
30
0.0
40
3.5
1

3

2
JX:0
70
0
0
ATTDEF
8
0
10
0.000000
20
0.000000
30
0.0
40
3.5
1

3

2
WX:0
70
0
0
ATTDEF
8
0
10
0.000000
20
0.000000
30
0.0
40
3.5
1

3

2
JY:0
70
0
0
ATTDEF
8
0
10
0.000000
20
0.000000
30
0.0
40
3.5
1

3

2
WY:0
70
0
0
ATTDEF
8
0
10
4103.765900
20
1280.820268
30
0.0
40
3.5
1

3

2
VC_START
70
0
0
ATTDEF
8
0
10
4131.365900
20
1251.820268
30
0.0
40
3.5
1

3

2
VC_END
70
0
0
ATTDEF
8
0
10
4156.765900
20
1234.320268
30
0.0
40
3.5
1

3

2
FP_LCS_ORIG
70
0
0
ATTDEF
8
0
10
4146.765900
20
1234.320268
30
0.0
40
3.5
1

3

2
FP_LCS_HOT
70
0
0
ATTDEF
8
0
10
4156.765900
20
1244.320268
30
0.0
40
3.5
1

3

2
FP_LCS_INTERN
70
0
0
ENDSEC
0
EOF
