0
SECTION
2
ENTITIES
0
LINE
8
0
10
4144.038064
20
1241.170273
30
0.0
11
4144.598515
21
1241.730724
31
0.0
0
LINE
8
0
10
4145.189502
20
1240.076647
30
0.0
11
4146.058266
21
1240.945411
31
0.0
0
LINE
8
0
10
4145.148978
20
1237.791059
30
0.0
11
4147.888643
21
1240.530724
31
0.0
0
LINE
8
0
10
4148.333707
20
1238.730724
30
0.0
11
4150.133707
21
1240.530724
31
0.0
0
LINE
8
0
10
4150.578771
20
1238.730724
30
0.0
11
4152.378771
21
1240.530724
31
0.0
0
LINE
8
0
10
4152.823835
20
1238.730724
30
0.0
11
4154.623835
21
1240.530724
31
0.0
0
LINE
8
0
10
4155.068899
20
1238.730724
30
0.0
11
4158.068899
21
1241.730724
31
0.0
0
LINE
8
0
10
4156.796271
20
1238.213032
30
0.0
11
4157.659290
21
1239.076050
31
0.0
0
LINE
8
0
10
4158.388321
20
1237.560018
30
0.0
11
4158.608770
21
1237.780467
31
0.0
0
LINE
8
0
10
4170.965753
20
1218.706553
30
0.0
11
4172.097158
21
1219.837958
31
0.0
0
LINE
8
0
10
4170.840294
20
1216.336030
30
0.0
11
4173.531491
21
1219.027227
31
0.0
0
LINE
8
0
10
4173.933569
20
1217.184241
30
0.0
11
4175.733569
21
1218.984241
31
0.0
0
LINE
8
0
10
4176.178633
20
1217.184241
30
0.0
11
4178.069140
21
1219.074748
31
0.0
0
LINE
8
0
10
4178.423697
20
1217.184241
30
0.0
11
4180.223697
21
1218.984241
31
0.0
0
LINE
8
0
10
4180.668761
20
1217.184241
30
0.0
11
4182.468761
21
1218.984241
31
0.0
0
LINE
8
0
10
4182.833644
20
1217.104060
30
0.0
11
4185.437378
21
1219.707794
31
0.0
0
LINE
8
0
10
4184.258477
20
1216.283829
30
0.0
11
4185.337348
21
1217.362700
31
0.0
0
LINE
8
0
10
4145.607664
20
1238.055881
30
0.0
11
4144.603838
21
1239.059706
31
0.0
0
LINE
8
0
10
4147.177885
20
1238.730724
30
0.0
11
4144.233908
21
1241.674701
31
0.0
0
LINE
8
0
10
4171.923443
20
1216.230230
30
0.0
11
4170.937378
21
1217.216295
31
0.0
0
LINE
8
0
10
4149.422949
20
1238.730724
30
0.0
11
4147.622949
21
1240.530724
31
0.0
0
LINE
8
0
10
4173.346756
20
1217.051980
30
0.0
11
4172.169626
21
1218.229110
31
0.0
0
LINE
8
0
10
4151.668013
20
1238.730724
30
0.0
11
4149.868013
21
1240.530724
31
0.0
0
LINE
8
0
10
4171.732247
20
1218.666490
30
0.0
11
4170.837378
21
1219.561359
31
0.0
0
LINE
8
0
10
4175.459559
20
1217.184241
30
0.0
11
4173.646558
21
1218.997242
31
0.0
0
LINE
8
0
10
4153.913077
20
1238.730724
30
0.0
11
4152.113077
21
1240.530724
31
0.0
0
LINE
8
0
10
4177.704623
20
1217.184241
30
0.0
11
4175.904623
21
1218.984241
31
0.0
0
LINE
8
0
10
4156.511311
20
1238.377554
30
0.0
11
4154.358141
21
1240.530724
31
0.0
0
LINE
8
0
10
4179.949687
20
1217.184241
30
0.0
11
4178.061485
21
1219.072444
31
0.0
0
LINE
8
0
10
4157.317520
20
1239.816409
30
0.0
11
4156.345669
21
1240.788260
31
0.0
0
LINE
8
0
10
4158.638064
20
1238.495865
30
0.0
11
4158.603205
21
1238.530724
31
0.0
0
LINE
8
0
10
4158.538064
20
1238.595865
30
0.0
11
4158.073750
21
1239.060179
31
0.0
0
LINE
8
0
10
4182.194751
20
1217.184241
30
0.0
11
4180.394751
21
1218.984241
31
0.0
0
LINE
8
0
10
4158.638064
20
1240.740929
30
0.0
11
4157.768983
21
1241.610010
31
0.0
0
LINE
8
0
10
4185.402708
20
1216.221349
30
0.0
11
4182.627027
21
1218.997030
31
0.0
0
LINE
8
0
10
4185.234638
20
1218.634483
30
0.0
11
4184.084762
21
1219.784359
31
0.0
0
ARC
8
0
10
4158.226258
20
1240.355724
30
0.0
40
0.200000
50
244.992167
51
286.231301
0
ARC
8
0
10
4158.338064
20
1240.355724
30
0.0
40
0.200000
50
253.768699
51
360.000000
0
LINE
8
0
10
4158.538064
20
1240.355724
30
0.0
11
4158.538064
21
1240.730724
31
0.0
0
LINE
8
0
10
4158.538064
20
1240.730724
30
0.0
11
4158.638064
21
1240.730724
31
0.0
0
LINE
8
0
10
4158.638064
20
1240.730724
30
0.0
11
4158.638064
21
1241.330724
31
0.0
0
ARC
8
0
10
4158.238064
20
1241.330724
30
0.0
40
0.400000
50
360.000000
51
90.000000
0
LINE
8
0
10
4158.238064
20
1241.730724
30
0.0
11
4158.031654
21
1241.730724
31
0.0
0
ARC
8
0
10
4158.031654
20
1241.530724
30
0.0
40
0.200000
50
90.000000
51
120.000000
0
LINE
8
0
10
4157.931654
20
1241.703929
30
0.0
11
4156.085244
21
1240.637903
31
0.0
0
ARC
8
0
10
4155.685244
20
1241.330724
30
0.0
40
0.800000
50
270.000000
51
300.000000
0
LINE
8
0
10
4155.685244
20
1240.530724
30
0.0
11
4151.338064
21
1240.530724
31
0.0
0
LINE
8
0
10
4151.338064
20
1240.530724
30
0.0
11
4146.990885
21
1240.530724
31
0.0
0
ARC
8
0
10
4146.990885
20
1241.330724
30
0.0
40
0.800000
50
240.000000
51
270.000000
0
LINE
8
0
10
4146.590885
20
1240.637903
30
0.0
11
4144.744474
21
1241.703929
31
0.0
0
ARC
8
0
10
4144.644474
20
1241.530724
30
0.0
40
0.200000
50
60.000000
51
90.000000
0
LINE
8
0
10
4144.644474
20
1241.730724
30
0.0
11
4144.438064
21
1241.730724
31
0.0
0
ARC
8
0
10
4144.438064
20
1241.330724
30
0.0
40
0.400000
50
90.000000
51
180.000000
0
LINE
8
0
10
4144.038064
20
1241.330724
30
0.0
11
4144.038064
21
1240.730724
31
0.0
0
LINE
8
0
10
4144.038064
20
1240.730724
30
0.0
11
4144.138064
21
1240.730724
31
0.0
0
LINE
8
0
10
4144.138064
20
1240.730724
30
0.0
11
4144.138064
21
1240.355724
31
0.0
0
ARC
8
0
10
4144.338064
20
1240.355724
30
0.0
40
0.200000
50
180.000000
51
286.231301
0
ARC
8
0
10
4144.449871
20
1240.355724
30
0.0
40
0.200000
50
253.768699
51
295.007833
0
ARC
8
0
10
4144.788064
20
1239.630724
30
0.0
40
0.600000
50
360.000000
51
115.007833
0
ARC
8
0
10
4144.788064
20
1239.630724
30
0.0
40
0.600000
50
244.992167
51
360.000000
0
ARC
8
0
10
4144.449871
20
1238.905724
30
0.0
40
0.200000
50
64.992167
51
106.231301
0
ARC
8
0
10
4144.338064
20
1238.905724
30
0.0
40
0.200000
50
73.768699
51
180.000000
0
LINE
8
0
10
4144.138064
20
1238.905724
30
0.0
11
4144.138064
21
1238.530724
31
0.0
0
LINE
8
0
10
4144.138064
20
1238.530724
30
0.0
11
4144.038064
21
1238.530724
31
0.0
0
LINE
8
0
10
4144.038064
20
1238.530724
30
0.0
11
4144.038064
21
1237.930724
31
0.0
0
ARC
8
0
10
4144.438064
20
1237.930724
30
0.0
40
0.400000
50
180.000000
51
270.000000
0
LINE
8
0
10
4144.438064
20
1237.530724
30
0.0
11
4144.644474
21
1237.530724
31
0.0
0
ARC
8
0
10
4144.644474
20
1237.730724
30
0.0
40
0.200000
50
270.000000
51
300.000000
0
LINE
8
0
10
4144.744474
20
1237.557518
30
0.0
11
4146.590885
21
1238.623544
31
0.0
0
ARC
8
0
10
4146.990885
20
1237.930724
30
0.0
40
0.800000
50
90.000000
51
120.000000
0
LINE
8
0
10
4146.990885
20
1238.730724
30
0.0
11
4151.055222
21
1238.730724
31
0.0
0
ARC
8
0
10
4151.055222
20
1238.530724
30
0.0
40
0.200000
50
51.057559
51
90.000000
0
ARC
8
0
10
4151.338064
20
1238.880724
30
0.0
40
0.250000
50
231.057559
51
308.942441
0
ARC
8
0
10
4151.620907
20
1238.530724
30
0.0
40
0.200000
50
90.000000
51
128.942441
0
LINE
8
0
10
4151.620907
20
1238.730724
30
0.0
11
4155.685244
21
1238.730724
31
0.0
0
ARC
8
0
10
4155.685244
20
1237.930724
30
0.0
40
0.800000
50
60.000000
51
90.000000
0
LINE
8
0
10
4156.085244
20
1238.623544
30
0.0
11
4157.931654
21
1237.557518
31
0.0
0
ARC
8
0
10
4158.031654
20
1237.730724
30
0.0
40
0.200000
50
240.000000
51
270.000000
0
LINE
8
0
10
4158.031654
20
1237.530724
30
0.0
11
4158.238064
21
1237.530724
31
0.0
0
ARC
8
0
10
4158.238064
20
1237.930724
30
0.0
40
0.400000
50
270.000000
51
360.000000
0
LINE
8
0
10
4158.638064
20
1237.930724
30
0.0
11
4158.638064
21
1238.530724
31
0.0
0
LINE
8
0
10
4158.638064
20
1238.530724
30
0.0
11
4158.538064
21
1238.530724
31
0.0
0
LINE
8
0
10
4158.538064
20
1238.530724
30
0.0
11
4158.538064
21
1238.905724
31
0.0
0
ARC
8
0
10
4158.338064
20
1238.905724
30
0.0
40
0.200000
50
360.000000
51
106.231301
0
ARC
8
0
10
4158.226258
20
1238.905724
30
0.0
40
0.200000
50
73.768699
51
115.007833
0
ARC
8
0
10
4157.888064
20
1239.630724
30
0.0
40
0.600000
50
180.000000
51
295.007833
0
ARC
8
0
10
4157.888064
20
1239.630724
30
0.0
40
0.600000
50
64.992167
51
180.000000
0
ARC
8
0
10
4185.025572
20
1217.359241
30
0.0
40
0.200000
50
73.768699
51
115.007833
0
ARC
8
0
10
4184.687378
20
1218.084241
30
0.0
40
0.600000
50
180.000000
51
295.007833
0
ARC
8
0
10
4184.687378
20
1218.084241
30
0.0
40
0.600000
50
64.992167
51
180.000000
0
ARC
8
0
10
4185.025572
20
1218.809241
30
0.0
40
0.200000
50
244.992167
51
286.231301
0
ARC
8
0
10
4185.137378
20
1218.809241
30
0.0
40
0.200000
50
253.768699
51
360.000000
0
LINE
8
0
10
4185.337378
20
1219.184241
30
0.0
11
4185.337378
21
1218.809241
31
0.0
0
LINE
8
0
10
4185.437378
20
1219.184241
30
0.0
11
4185.337378
21
1219.184241
31
0.0
0
LINE
8
0
10
4185.437378
20
1219.784241
30
0.0
11
4185.437378
21
1219.184241
31
0.0
0
ARC
8
0
10
4185.037378
20
1219.784241
30
0.0
40
0.400000
50
360.000000
51
90.000000
0
LINE
8
0
10
4184.830968
20
1220.184241
30
0.0
11
4185.037378
21
1220.184241
31
0.0
0
ARC
8
0
10
4184.830968
20
1219.984241
30
0.0
40
0.200000
50
90.000000
51
120.000000
0
LINE
8
0
10
4182.884558
20
1219.091421
30
0.0
11
4184.730968
21
1220.157447
31
0.0
0
ARC
8
0
10
4182.484558
20
1219.784241
30
0.0
40
0.800000
50
270.000000
51
300.000000
0
LINE
8
0
10
4178.420221
20
1218.984241
30
0.0
11
4182.484558
21
1218.984241
31
0.0
0
ARC
8
0
10
4178.420221
20
1219.184241
30
0.0
40
0.200000
50
231.057559
51
270.000000
0
ARC
8
0
10
4178.137378
20
1218.834241
30
0.0
40
0.250000
50
51.057559
51
128.942441
0
ARC
8
0
10
4177.854535
20
1219.184241
30
0.0
40
0.200000
50
270.000000
51
308.942441
0
LINE
8
0
10
4173.790198
20
1218.984241
30
0.0
11
4177.854535
21
1218.984241
31
0.0
0
ARC
8
0
10
4173.790198
20
1219.784241
30
0.0
40
0.800000
50
240.000000
51
270.000000
0
LINE
8
0
10
4171.543788
20
1220.157447
30
0.0
11
4173.390198
21
1219.091421
31
0.0
0
ARC
8
0
10
4171.443788
20
1219.984241
30
0.0
40
0.200000
50
60.000000
51
90.000000
0
LINE
8
0
10
4171.237378
20
1220.184241
30
0.0
11
4171.443788
21
1220.184241
31
0.0
0
ARC
8
0
10
4171.237378
20
1219.784241
30
0.0
40
0.400000
50
90.000000
51
180.000000
0
LINE
8
0
10
4170.837378
20
1219.184241
30
0.0
11
4170.837378
21
1219.784241
31
0.0
0
LINE
8
0
10
4170.937378
20
1219.184241
30
0.0
11
4170.837378
21
1219.184241
31
0.0
0
LINE
8
0
10
4170.937378
20
1218.809241
30
0.0
11
4170.937378
21
1219.184241
31
0.0
0
ARC
8
0
10
4171.137378
20
1218.809241
30
0.0
40
0.200000
50
180.000000
51
286.231301
0
ARC
8
0
10
4171.249184
20
1218.809241
30
0.0
40
0.200000
50
253.768699
51
295.007833
0
ARC
8
0
10
4171.587378
20
1218.084241
30
0.0
40
0.600000
50
360.000000
51
115.007833
0
ARC
8
0
10
4171.587378
20
1218.084241
30
0.0
40
0.600000
50
244.992167
51
360.000000
0
ARC
8
0
10
4171.249184
20
1217.359241
30
0.0
40
0.200000
50
64.992167
51
106.231301
0
ARC
8
0
10
4171.137378
20
1217.359241
30
0.0
40
0.200000
50
73.768699
51
180.000000
0
LINE
8
0
10
4170.937378
20
1216.984241
30
0.0
11
4170.937378
21
1217.359241
31
0.0
0
LINE
8
0
10
4170.837378
20
1216.984241
30
0.0
11
4170.937378
21
1216.984241
31
0.0
0
LINE
8
0
10
4170.837378
20
1216.384241
30
0.0
11
4170.837378
21
1216.984241
31
0.0
0
ARC
8
0
10
4171.237378
20
1216.384241
30
0.0
40
0.400000
50
180.000000
51
270.000000
0
LINE
8
0
10
4171.443788
20
1215.984241
30
0.0
11
4171.237378
21
1215.984241
31
0.0
0
ARC
8
0
10
4171.443788
20
1216.184241
30
0.0
40
0.200000
50
270.000000
51
300.000000
0
LINE
8
0
10
4173.390198
20
1217.077062
30
0.0
11
4171.543788
21
1216.011036
31
0.0
0
ARC
8
0
10
4173.790198
20
1216.384241
30
0.0
40
0.800000
50
90.000000
51
120.000000
0
LINE
8
0
10
4178.137378
20
1217.184241
30
0.0
11
4173.790198
21
1217.184241
31
0.0
0
LINE
8
0
10
4182.484558
20
1217.184241
30
0.0
11
4178.137378
21
1217.184241
31
0.0
0
ARC
8
0
10
4182.484558
20
1216.384241
30
0.0
40
0.800000
50
60.000000
51
90.000000
0
LINE
8
0
10
4184.730968
20
1216.011036
30
0.0
11
4182.884558
21
1217.077062
31
0.0
0
ARC
8
0
10
4184.830968
20
1216.184241
30
0.0
40
0.200000
50
240.000000
51
270.000000
0
LINE
8
0
10
4185.037378
20
1215.984241
30
0.0
11
4184.830968
21
1215.984241
31
0.0
0
ARC
8
0
10
4185.037378
20
1216.384241
30
0.0
40
0.400000
50
270.000000
51
360.000000
0
LINE
8
0
10
4185.437378
20
1216.984241
30
0.0
11
4185.437378
21
1216.384241
31
0.0
0
LINE
8
0
10
4185.337378
20
1216.984241
30
0.0
11
4185.437378
21
1216.984241
31
0.0
0
LINE
8
0
10
4185.337378
20
1217.359241
30
0.0
11
4185.337378
21
1216.984241
31
0.0
0
ARC
8
0
10
4185.137378
20
1217.359241
30
0.0
40
0.200000
50
360.000000
51
106.231301
0
LINE
8
0
10
4166.106232
20
1223.356698
30
0.0
11
4169.337633
21
1221.502545
31
0.0
0
LINE
8
0
10
4169.337633
20
1221.502545
30
0.0
11
4169.337633
21
1215.356698
31
0.0
0
LINE
8
0
10
4169.337633
20
1215.356698
30
0.0
11
4143.738064
21
1215.356698
31
0.0
0
LINE
8
0
10
4143.738064
20
1215.356698
30
0.0
11
4143.738064
21
1234.737002
31
0.0
0
ARC
8
0
10
4144.488064
20
1234.737002
30
0.0
40
0.750000
50
119.846880
51
180.000000
0
LINE
8
0
10
4144.114801
20
1235.387521
30
0.0
11
4145.651100
21
1236.269038
31
0.0
0
ARC
8
0
10
4145.800405
20
1236.008830
30
0.0
40
0.300000
50
30.000000
51
119.846880
0
LINE
8
0
10
4146.060213
20
1236.158830
30
0.0
11
4153.451528
21
1223.356698
31
0.0
0
LINE
8
0
10
4153.451528
20
1223.356698
30
0.0
11
4166.106232
21
1223.356698
31
0.0
0
LINE
8
0
10
4144.738064
20
1266.101757
30
0.0
11
4144.738064
21
1267.351757
31
0.0
0
ARC
8
0
10
4145.238064
20
1266.101757
30
0.0
40
0.500000
50
180.000000
51
360.000000
0
LINE
8
0
10
4145.738064
20
1268.351757
30
0.0
11
4145.738064
21
1266.101757
31
0.0
0
ARC
8
0
10
4145.238064
20
1268.351757
30
0.0
40
0.500000
50
360.000000
51
90.000000
0
LINE
8
0
10
4142.738064
20
1268.851757
30
0.0
11
4145.238064
21
1268.851757
31
0.0
0
ARC
8
0
10
4142.738064
20
1268.351757
30
0.0
40
0.500000
50
90.000000
51
180.000000
0
LINE
8
0
10
4142.238064
20
1208.856698
30
0.0
11
4142.238064
21
1268.351757
31
0.0
0
LINE
8
0
10
4144.738064
20
1208.856698
30
0.0
11
4142.238064
21
1208.856698
31
0.0
0
LINE
8
0
10
4145.738064
20
1209.856698
30
0.0
11
4144.738064
21
1208.856698
31
0.0
0
LINE
8
0
10
4145.738064
20
1210.856698
30
0.0
11
4145.738064
21
1209.856698
31
0.0
0
LINE
8
0
10
4143.738064
20
1210.856698
30
0.0
11
4145.738064
21
1210.856698
31
0.0
0
LINE
8
0
10
4143.738064
20
1213.856698
30
0.0
11
4143.738064
21
1210.856698
31
0.0
0
LINE
8
0
10
4161.738064
20
1213.856698
30
0.0
11
4143.738064
21
1213.856698
31
0.0
0
LINE
8
0
10
4161.738064
20
1210.856698
30
0.0
11
4161.738064
21
1213.856698
31
0.0
0
LINE
8
0
10
4159.738064
20
1210.856698
30
0.0
11
4161.738064
21
1210.856698
31
0.0
0
LINE
8
0
10
4159.738064
20
1209.856698
30
0.0
11
4159.738064
21
1210.856698
31
0.0
0
LINE
8
0
10
4160.738064
20
1208.856698
30
0.0
11
4159.738064
21
1209.856698
31
0.0
0
LINE
8
0
10
4163.688064
20
1208.856698
30
0.0
11
4160.738064
21
1208.856698
31
0.0
0
LINE
8
0
10
4164.688064
20
1209.856698
30
0.0
11
4163.688064
21
1208.856698
31
0.0
0
LINE
8
0
10
4164.688064
20
1210.856698
30
0.0
11
4164.688064
21
1209.856698
31
0.0
0
LINE
8
0
10
4163.238064
20
1210.856698
30
0.0
11
4164.688064
21
1210.856698
31
0.0
0
LINE
8
0
10
4163.238064
20
1213.856698
30
0.0
11
4163.238064
21
1210.856698
31
0.0
0
LINE
8
0
10
4169.338064
20
1213.856698
30
0.0
11
4163.238064
21
1213.856698
31
0.0
0
LINE
8
0
10
4169.338064
20
1210.856698
30
0.0
11
4169.338064
21
1213.856698
31
0.0
0
LINE
8
0
10
4167.888064
20
1210.856698
30
0.0
11
4169.338064
21
1210.856698
31
0.0
0
LINE
8
0
10
4167.888064
20
1209.856698
30
0.0
11
4167.888064
21
1210.856698
31
0.0
0
LINE
8
0
10
4168.888064
20
1208.856698
30
0.0
11
4167.888064
21
1209.856698
31
0.0
0
LINE
8
0
10
4170.838064
20
1208.856698
30
0.0
11
4168.888064
21
1208.856698
31
0.0
0
LINE
8
0
10
4170.838064
20
1213.701366
30
0.0
11
4170.838064
21
1208.856698
31
0.0
0
ARC
8
0
10
4171.338064
20
1213.701366
30
0.0
40
0.500000
50
127.093329
51
180.000000
0
LINE
8
0
10
4172.177696
20
1214.963059
30
0.0
11
4171.036507
21
1214.100193
31
0.0
0
ARC
8
0
10
4172.729443
20
1214.129746
30
0.0
40
1.000000
50
33.288198
51
123.509063
0
LINE
8
0
10
4173.952624
20
1214.210809
30
0.0
11
4173.565363
21
1214.678597
31
0.0
0
LINE
8
0
10
4174.015484
20
1214.005204
30
0.0
11
4173.952624
21
1214.210809
31
0.0
0
LINE
8
0
10
4175.068279
20
1214.035048
30
0.0
11
4174.015484
21
1214.005204
31
0.0
0
ARC
8
0
10
4175.064894
20
1214.335072
30
0.0
40
0.300000
50
272.605413
51
18.251415
0
LINE
8
0
10
4173.248790
20
1217.142906
30
0.0
11
4175.349802
21
1214.429028
31
0.0
0
ARC
8
0
10
4173.090128
20
1217.031908
30
0.0
40
0.200000
50
36.039809
51
217.071526
0
LINE
8
0
10
4171.386925
20
1215.745116
30
0.0
11
4172.930551
21
1216.911346
31
0.0
0
ARC
8
0
10
4171.120768
20
1215.606697
30
0.0
40
0.300000
50
287.000000
51
27.477458
0
LINE
8
0
10
4170.925344
20
1215.219807
30
0.0
11
4171.212236
21
1215.307518
31
0.0
0
ARC
8
0
10
4170.837633
20
1215.506698
30
0.0
40
0.300000
50
90.000000
51
287.000000
0
LINE
8
0
10
4170.837633
20
1220.306698
30
0.0
11
4170.837633
21
1215.806698
31
0.0
0
ARC
8
0
10
4171.037633
20
1220.296596
30
0.0
40
0.200000
50
60.153120
51
177.108405
0
LINE
8
0
10
4172.937633
20
1219.436975
30
0.0
11
4171.137170
21
1220.470068
31
0.0
0
ARC
8
0
10
4173.137633
20
1219.437240
30
0.0
40
0.200000
50
180.000000
51
360.000000
0
LINE
8
0
10
4173.337633
20
1220.821020
30
0.0
11
4173.337633
21
1219.437240
31
0.0
0
ARC
8
0
10
4173.137633
20
1220.821020
30
0.0
40
0.200000
50
360.000000
51
58.611705
0
LINE
8
0
10
4166.506009
20
1224.856698
30
0.0
11
4173.241800
21
1220.991752
31
0.0
0
LINE
8
0
10
4154.317553
20
1224.856698
30
0.0
11
4166.506009
21
1224.856698
31
0.0
0
LINE
8
0
10
4146.511269
20
1238.377578
30
0.0
11
4154.317553
21
1224.856698
31
0.0
0
ARC
8
0
10
4146.338064
20
1238.277578
30
0.0
40
0.200000
50
30.000000
51
180.000000
0
LINE
8
0
10
4144.337601
20
1237.244750
30
0.0
11
4146.138064
21
1238.277843
31
0.0
0
ARC
8
0
10
4144.238064
20
1237.418222
30
0.0
40
0.200000
50
182.891595
51
299.846880
0
LINE
8
0
10
4144.038064
20
1241.908120
30
0.0
11
4144.038064
21
1237.408120
31
0.0
0
ARC
8
0
10
4144.038064
20
1242.208120
30
0.0
40
0.300000
50
73.000000
51
270.000000
0
LINE
8
0
10
4144.412667
20
1242.407300
30
0.0
11
4144.125776
21
1242.495011
31
0.0
0
ARC
8
0
10
4144.324956
20
1242.120408
30
0.0
40
0.300000
50
330.192367
51
73.000000
0
LINE
8
0
10
4146.130983
20
1240.803472
30
0.0
11
4144.585265
21
1241.971282
31
0.0
0
ARC
8
0
10
4146.290559
20
1240.682910
30
0.0
40
0.200000
50
142.928474
51
323.960191
0
LINE
8
0
10
4147.626108
20
1242.092097
30
0.0
11
4146.449221
21
1240.571912
31
0.0
0
ARC
8
0
10
4148.021474
20
1241.786016
30
0.0
40
0.500000
50
88.376251
51
142.253920
0
LINE
8
0
10
4148.739939
20
1242.265850
30
0.0
11
4148.035642
21
1242.285815
31
0.0
0
ARC
8
0
10
4148.748440
20
1242.565729
30
0.0
40
0.300000
50
270.000000
51
343.000000
0
LINE
8
0
10
4149.277912
20
1243.271463
30
0.0
11
4149.035332
21
1242.478018
31
0.0
0
ARC
8
0
10
4148.991021
20
1243.359174
30
0.0
40
0.300000
50
343.000000
51
90.000000
0
LINE
8
0
10
4147.215916
20
1243.709614
30
0.0
11
4148.999521
21
1243.659054
31
0.0
0
LINE
8
0
10
4147.153056
20
1243.504009
30
0.0
11
4147.215916
21
1243.709614
31
0.0
0
LINE
8
0
10
4146.767988
20
1243.038871
30
0.0
11
4147.153056
21
1243.504009
31
0.0
0
ARC
8
0
10
4145.929875
20
1243.585072
30
0.0
40
1.000000
50
236.490937
51
326.907609
0
LINE
8
0
10
4144.222125
20
1243.625825
30
0.0
11
4145.378127
21
1242.751759
31
0.0
0
ARC
8
0
10
4144.523682
20
1244.024652
30
0.0
40
0.500000
50
185.718752
51
232.906671
0
LINE
8
0
10
4143.738064
20
1246.851757
30
0.0
11
4144.026171
21
1243.974830
31
0.0
0
LINE
8
0
10
4143.738064
20
1258.351757
30
0.0
11
4143.738064
21
1246.851757
31
0.0
0
LINE
8
0
10
4145.238064
20
1258.351757
30
0.0
11
4143.738064
21
1258.351757
31
0.0
0
ARC
8
0
10
4145.238064
20
1258.851757
30
0.0
40
0.500000
50
270.000000
51
360.000000
0
LINE
8
0
10
4145.738064
20
1261.101757
30
0.0
11
4145.738064
21
1258.851757
31
0.0
0
ARC
8
0
10
4145.238064
20
1261.101757
30
0.0
40
0.500000
50
360.000000
51
180.000000
0
LINE
8
0
10
4144.738064
20
1259.851757
30
0.0
11
4144.738064
21
1261.101757
31
0.0
0
LINE
8
0
10
4143.538064
20
1259.851757
30
0.0
11
4144.738064
21
1259.851757
31
0.0
0
LINE
8
0
10
4143.538064
20
1267.351757
30
0.0
11
4143.538064
21
1259.851757
31
0.0
0
LINE
8
0
10
4144.738064
20
1267.351757
30
0.0
11
4143.538064
21
1267.351757
31
0.0
0
LINE
8
0
10
4163.369896
20
1234.351757
30
0.0
11
4160.138496
21
1236.205910
31
0.0
0
LINE
8
0
10
4160.138496
20
1236.205910
30
0.0
11
4160.138496
21
1242.351757
31
0.0
0
LINE
8
0
10
4160.138496
20
1242.351757
30
0.0
11
4185.738064
21
1242.351757
31
0.0
0
LINE
8
0
10
4185.738064
20
1242.351757
30
0.0
11
4185.738064
21
1222.971453
31
0.0
0
ARC
8
0
10
4184.988064
20
1222.971453
30
0.0
40
0.750000
50
299.846880
51
360.000000
0
LINE
8
0
10
4185.361327
20
1222.320934
30
0.0
11
4183.825028
21
1221.439417
31
0.0
0
ARC
8
0
10
4183.675723
20
1221.699625
30
0.0
40
0.300000
50
210.000000
51
299.846880
0
LINE
8
0
10
4183.415915
20
1221.549625
30
0.0
11
4176.024601
21
1234.351757
31
0.0
0
LINE
8
0
10
4176.024601
20
1234.351757
30
0.0
11
4163.369896
21
1234.351757
31
0.0
0
LINE
8
0
10
4184.738064
20
1191.606698
30
0.0
11
4184.738064
21
1190.356698
31
0.0
0
ARC
8
0
10
4184.238064
20
1191.606698
30
0.0
40
0.500000
50
360.000000
51
180.000000
0
LINE
8
0
10
4183.738064
20
1189.356698
30
0.0
11
4183.738064
21
1191.606698
31
0.0
0
ARC
8
0
10
4184.238064
20
1189.356698
30
0.0
40
0.500000
50
180.000000
51
270.000000
0
LINE
8
0
10
4186.738064
20
1188.856698
30
0.0
11
4184.238064
21
1188.856698
31
0.0
0
ARC
8
0
10
4186.738064
20
1189.356698
30
0.0
40
0.500000
50
270.000000
51
360.000000
0
LINE
8
0
10
4187.238064
20
1248.851757
30
0.0
11
4187.238064
21
1189.356698
31
0.0
0
LINE
8
0
10
4184.738064
20
1248.851757
30
0.0
11
4187.238064
21
1248.851757
31
0.0
0
LINE
8
0
10
4183.738064
20
1247.851757
30
0.0
11
4184.738064
21
1248.851757
31
0.0
0
LINE
8
0
10
4183.738064
20
1246.851757
30
0.0
11
4183.738064
21
1247.851757
31
0.0
0
LINE
8
0
10
4185.738064
20
1246.851757
30
0.0
11
4183.738064
21
1246.851757
31
0.0
0
LINE
8
0
10
4185.738064
20
1243.851757
30
0.0
11
4185.738064
21
1246.851757
31
0.0
0
LINE
8
0
10
4167.738064
20
1243.851757
30
0.0
11
4185.738064
21
1243.851757
31
0.0
0
LINE
8
0
10
4167.738064
20
1246.851757
30
0.0
11
4167.738064
21
1243.851757
31
0.0
0
LINE
8
0
10
4169.738064
20
1246.851757
30
0.0
11
4167.738064
21
1246.851757
31
0.0
0
LINE
8
0
10
4169.738064
20
1247.851757
30
0.0
11
4169.738064
21
1246.851757
31
0.0
0
LINE
8
0
10
4168.738064
20
1248.851757
30
0.0
11
4169.738064
21
1247.851757
31
0.0
0
LINE
8
0
10
4165.788064
20
1248.851757
30
0.0
11
4168.738064
21
1248.851757
31
0.0
0
LINE
8
0
10
4164.788064
20
1247.851757
30
0.0
11
4165.788064
21
1248.851757
31
0.0
0
LINE
8
0
10
4164.788064
20
1246.851757
30
0.0
11
4164.788064
21
1247.851757
31
0.0
0
LINE
8
0
10
4166.238064
20
1246.851757
30
0.0
11
4164.788064
21
1246.851757
31
0.0
0
LINE
8
0
10
4166.238064
20
1243.851757
30
0.0
11
4166.238064
21
1246.851757
31
0.0
0
LINE
8
0
10
4160.138064
20
1243.851757
30
0.0
11
4166.238064
21
1243.851757
31
0.0
0
LINE
8
0
10
4160.138064
20
1246.851757
30
0.0
11
4160.138064
21
1243.851757
31
0.0
0
LINE
8
0
10
4161.588064
20
1246.851757
30
0.0
11
4160.138064
21
1246.851757
31
0.0
0
LINE
8
0
10
4161.588064
20
1247.851757
30
0.0
11
4161.588064
21
1246.851757
31
0.0
0
LINE
8
0
10
4160.588064
20
1248.851757
30
0.0
11
4161.588064
21
1247.851757
31
0.0
0
LINE
8
0
10
4158.638064
20
1248.851757
30
0.0
11
4160.588064
21
1248.851757
31
0.0
0
LINE
8
0
10
4158.638064
20
1244.007089
30
0.0
11
4158.638064
21
1248.851757
31
0.0
0
ARC
8
0
10
4158.138064
20
1244.007089
30
0.0
40
0.500000
50
307.093329
51
360.000000
0
LINE
8
0
10
4157.298433
20
1242.745396
30
0.0
11
4158.439622
21
1243.608262
31
0.0
0
ARC
8
0
10
4156.746685
20
1243.578709
30
0.0
40
1.000000
50
213.288198
51
303.509063
0
LINE
8
0
10
4155.523504
20
1243.497646
30
0.0
11
4155.910765
21
1243.029858
31
0.0
0
LINE
8
0
10
4155.460644
20
1243.703251
30
0.0
11
4155.523504
21
1243.497646
31
0.0
0
LINE
8
0
10
4154.407849
20
1243.673407
30
0.0
11
4155.460644
21
1243.703251
31
0.0
0
ARC
8
0
10
4154.411234
20
1243.373383
30
0.0
40
0.300000
50
92.605413
51
198.251415
0
LINE
8
0
10
4156.227339
20
1240.565549
30
0.0
11
4154.126327
21
1243.279427
31
0.0
0
ARC
8
0
10
4156.386001
20
1240.676547
30
0.0
40
0.200000
50
216.039809
51
37.071526
0
LINE
8
0
10
4158.089203
20
1241.963339
30
0.0
11
4156.545577
21
1240.797109
31
0.0
0
ARC
8
0
10
4158.355361
20
1242.101758
30
0.0
40
0.300000
50
107.000000
51
207.477458
0
LINE
8
0
10
4158.550784
20
1242.488648
30
0.0
11
4158.263893
21
1242.400937
31
0.0
0
ARC
8
0
10
4158.638496
20
1242.201757
30
0.0
40
0.300000
50
270.000000
51
107.000000
0
LINE
8
0
10
4158.638496
20
1237.401757
30
0.0
11
4158.638496
21
1241.901757
31
0.0
0
ARC
8
0
10
4158.438496
20
1237.411859
30
0.0
40
0.200000
50
240.153120
51
357.108405
0
LINE
8
0
10
4156.538496
20
1238.271480
30
0.0
11
4158.338959
21
1237.238387
31
0.0
0
ARC
8
0
10
4156.338496
20
1238.271215
30
0.0
40
0.200000
50
360.000000
51
180.000000
0
LINE
8
0
10
4156.138496
20
1236.887435
30
0.0
11
4156.138496
21
1238.271215
31
0.0
0
ARC
8
0
10
4156.338496
20
1236.887435
30
0.0
40
0.200000
50
180.000000
51
238.611705
0
LINE
8
0
10
4162.970120
20
1232.851757
30
0.0
11
4156.234329
21
1236.716703
31
0.0
0
LINE
8
0
10
4175.158575
20
1232.851757
30
0.0
11
4162.970120
21
1232.851757
31
0.0
0
LINE
8
0
10
4182.964859
20
1219.330877
30
0.0
11
4175.158575
21
1232.851757
31
0.0
0
ARC
8
0
10
4183.138064
20
1219.430877
30
0.0
40
0.200000
50
210.000000
51
360.000000
0
LINE
8
0
10
4185.138527
20
1220.463705
30
0.0
11
4183.338064
21
1219.430612
31
0.0
0
ARC
8
0
10
4185.238064
20
1220.290233
30
0.0
40
0.200000
50
2.891595
51
119.846880
0
LINE
8
0
10
4185.438064
20
1215.800335
30
0.0
11
4185.438064
21
1220.300335
31
0.0
0
ARC
8
0
10
4185.438064
20
1215.500335
30
0.0
40
0.300000
50
253.000000
51
90.000000
0
LINE
8
0
10
4185.063461
20
1215.301155
30
0.0
11
4185.350353
21
1215.213444
31
0.0
0
ARC
8
0
10
4185.151173
20
1215.588047
30
0.0
40
0.300000
50
150.192367
51
253.000000
0
LINE
8
0
10
4183.345146
20
1216.904983
30
0.0
11
4184.890863
21
1215.737173
31
0.0
0
ARC
8
0
10
4183.185569
20
1217.025545
30
0.0
40
0.200000
50
322.928474
51
143.960191
0
LINE
8
0
10
4181.850020
20
1215.616358
30
0.0
11
4183.026907
21
1217.136543
31
0.0
0
ARC
8
0
10
4181.454654
20
1215.922439
30
0.0
40
0.500000
50
268.376251
51
322.253920
0
LINE
8
0
10
4180.736189
20
1215.442605
30
0.0
11
4181.440486
21
1215.422640
31
0.0
0
ARC
8
0
10
4180.727688
20
1215.142726
30
0.0
40
0.300000
50
90.000000
51
163.000000
0
LINE
8
0
10
4180.198216
20
1214.436992
30
0.0
11
4180.440797
21
1215.230437
31
0.0
0
ARC
8
0
10
4180.485108
20
1214.349281
30
0.0
40
0.300000
50
163.000000
51
270.000000
0
LINE
8
0
10
4182.260213
20
1213.998841
30
0.0
11
4180.476607
21
1214.049401
31
0.0
0
LINE
8
0
10
4182.323073
20
1214.204446
30
0.0
11
4182.260213
21
1213.998841
31
0.0
0
LINE
8
0
10
4182.708140
20
1214.669584
30
0.0
11
4182.323073
21
1214.204446
31
0.0
0
ARC
8
0
10
4183.546254
20
1214.123383
30
0.0
40
1.000000
50
56.490937
51
146.907609
0
LINE
8
0
10
4185.254004
20
1214.082630
30
0.0
11
4184.098001
21
1214.956696
31
0.0
0
ARC
8
0
10
4184.952446
20
1213.683803
30
0.0
40
0.500000
50
5.718752
51
52.906671
0
LINE
8
0
10
4185.738064
20
1210.856698
30
0.0
11
4185.449958
21
1213.733625
31
0.0
0
LINE
8
0
10
4185.738064
20
1199.356698
30
0.0
11
4185.738064
21
1210.856698
31
0.0
0
LINE
8
0
10
4184.238064
20
1199.356698
30
0.0
11
4185.738064
21
1199.356698
31
0.0
0
ARC
8
0
10
4184.238064
20
1198.856698
30
0.0
40
0.500000
50
90.000000
51
180.000000
0
LINE
8
0
10
4183.738064
20
1196.606698
30
0.0
11
4183.738064
21
1198.856698
31
0.0
0
ARC
8
0
10
4184.238064
20
1196.606698
30
0.0
40
0.500000
50
180.000000
51
360.000000
0
LINE
8
0
10
4184.738064
20
1197.856698
30
0.0
11
4184.738064
21
1196.606698
31
0.0
0
LINE
8
0
10
4185.938064
20
1197.856698
30
0.0
11
4184.738064
21
1197.856698
31
0.0
0
LINE
8
0
10
4185.938064
20
1190.356698
30
0.0
11
4185.938064
21
1197.856698
31
0.0
0
LINE
8
0
10
4184.738064
20
1190.356698
30
0.0
11
4185.938064
21
1190.356698
31
0.0
0
ATTDEF
8
0
10
0.000000
20
0.000000
30
0.0
40
3.5
1

3

2
PANE_WIDTH:0
70
0
0
ATTDEF
8
0
10
0.000000
20
0.000000
30
0.0
40
3.5
1

3

2
MIN_VETRO:0
70
0
0
ATTDEF
8
0
10
0.000000
20
0.000000
30
0.0
40
3.5
1

3

2
MAX_VETRO:0
70
0
0
ATTDEF
8
0
10
0.000000
20
0.000000
30
0.0
40
3.5
1

3

2
JX:0
70
0
0
ATTDEF
8
0
10
0.000000
20
0.000000
30
0.0
40
3.5
1

3

2
WX:0
70
0
0
ATTDEF
8
0
10
0.000000
20
0.000000
30
0.0
40
3.5
1

3

2
JY:0
70
0
0
ATTDEF
8
0
10
0.000000
20
0.000000
30
0.0
40
3.5
1

3

2
WY:0
70
0
0
ATTDEF
8
0
10
0.000000
20
0.000000
30
0.0
40
3.5
1

3

2
DESC:M.ventana a.e.p/fijo
70
0
0
ATTDEF
8
0
10
0.000000
20
0.000000
30
0.0
40
3.5
1

3

2
DENS:1.4662
70
0
0
ATTDEF
8
0
10
0.000000
20
0.000000
30
0.0
40
3.5
1

3

2
TDEV:66.22
70
0
0
ATTDEF
8
0
10
0.000000
20
0.000000
30
0.0
40
3.5
1

3

2
TDEV2:0
70
0
0
ATTDEF
8
0
10
0.000000
20
0.000000
30
0.0
40
3.5
1

3

2
TDEV3:0
70
0
0
ATTDEF
8
0
10
0.000000
20
0.000000
30
0.0
40
3.5
1

3

2
TDEV4:0
70
0
0
ATTDEF
8
0
10
0.000000
20
0.000000
30
0.0
40
3.5
1

3

2
TDEV5:0
70
0
0
ATTDEF
8
0
10
0.000000
20
0.000000
30
0.0
40
3.5
1

3

2
PANE_WIDTH:0
70
0
0
ATTDEF
8
0
10
0.000000
20
0.000000
30
0.0
40
3.5
1

3

2
MIN_VETRO:0
70
0
0
ATTDEF
8
0
10
0.000000
20
0.000000
30
0.0
40
3.5
1

3

2
MAX_VETRO:0
70
0
0
ATTDEF
8
0
10
0.000000
20
0.000000
30
0.0
40
3.5
1

3

2
JX:0
70
0
0
ATTDEF
8
0
10
0.000000
20
0.000000
30
0.0
40
3.5
1

3

2
WX:0
70
0
0
ATTDEF
8
0
10
0.000000
20
0.000000
30
0.0
40
3.5
1

3

2
JY:0
70
0
0
ATTDEF
8
0
10
0.000000
20
0.000000
30
0.0
40
3.5
1

3

2
WY:0
70
0
0
ATTDEF
8
0
10
4187.238064
20
1248.851757
30
0.0
40
3.5
1

3

2
VC_START
70
0
0
ATTDEF
8
0
10
4142.238064
20
1208.856698
30
0.0
40
3.5
1

3

2
VC_END
70
0
0
ATTDEF
8
0
10
4142.238064
20
1188.856698
30
0.0
40
3.5
1

3

2
FP_LCS_ORIG
70
0
0
ATTDEF
8
0
10
4152.238064
20
1188.856698
30
0.0
40
3.5
1

3

2
FP_LCS_HOT
70
0
0
ATTDEF
8
0
10
4142.238064
20
1198.856698
30
0.0
40
3.5
1

3

2
FP_LCS_INTERN
70
0
0
ENDSEC
0
EOF
