0
SECTION
2
ENTITIES
0
LINE
8
0
10
4118.998880
20
1273.257668
30
0.0
11
4117.998880
21
1273.257668
31
0.0
0
LINE
8
0
10
4117.998880
20
1273.257668
30
0.0
11
4117.998880
21
1273.757668
31
0.0
0
LINE
8
0
10
4117.998880
20
1273.757668
30
0.0
11
4113.917820
21
1273.757668
31
0.0
0
LINE
8
0
10
4113.917820
20
1273.757668
30
0.0
11
4113.649871
21
1274.757668
31
0.0
0
LINE
8
0
10
4113.649871
20
1274.757668
30
0.0
11
4111.498880
21
1274.757668
31
0.0
0
LINE
8
0
10
4111.498880
20
1274.757668
30
0.0
11
4111.498880
21
1276.757668
31
0.0
0
LINE
8
0
10
4111.498880
20
1276.757668
30
0.0
11
4112.498880
21
1276.757668
31
0.0
0
LINE
8
0
10
4112.498880
20
1276.757668
30
0.0
11
4112.498880
21
1278.257668
31
0.0
0
LINE
8
0
10
4112.498880
20
1278.257668
30
0.0
11
4111.498880
21
1278.257668
31
0.0
0
LINE
8
0
10
4111.498880
20
1278.257668
30
0.0
11
4111.498880
21
1288.257668
31
0.0
0
LINE
8
0
10
4111.498880
20
1288.257668
30
0.0
11
4112.498880
21
1288.257668
31
0.0
0
LINE
8
0
10
4112.498880
20
1288.257668
30
0.0
11
4112.498880
21
1289.757668
31
0.0
0
LINE
8
0
10
4112.498880
20
1289.757668
30
0.0
11
4138.098880
21
1289.757668
31
0.0
0
LINE
8
0
10
4138.098880
20
1289.757668
30
0.0
11
4138.098880
21
1273.257668
31
0.0
0
LINE
8
0
10
4138.098880
20
1273.257668
30
0.0
11
4136.120201
21
1273.257668
31
0.0
0
LINE
8
0
10
4136.120201
20
1273.257668
30
0.0
11
4133.620201
21
1275.757668
31
0.0
0
LINE
8
0
10
4133.620201
20
1275.757668
30
0.0
11
4118.998880
21
1275.757668
31
0.0
0
LINE
8
0
10
4118.998880
20
1275.757668
30
0.0
11
4118.998880
21
1273.257668
31
0.0
0
LINE
8
0
10
4139.598880
20
1273.537632
30
0.0
11
4139.598880
21
1278.216876
31
0.0
0
ARC
8
0
10
4139.798880
20
1278.216876
30
0.0
40
0.200000
50
90.000000
51
180.000000
0
LINE
8
0
10
4139.798880
20
1278.416876
30
0.0
11
4139.866769
21
1278.416876
31
0.0
0
ARC
8
0
10
4139.866769
20
1278.116876
30
0.0
40
0.300000
50
58.619868
51
90.000000
0
LINE
8
0
10
4140.022983
20
1278.372996
30
0.0
11
4141.698976
21
1277.350763
31
0.0
0
ARC
8
0
10
4141.898880
20
1277.344573
30
0.0
40
0.200000
50
180.000000
51
360.000000
0
LINE
8
0
10
4142.098880
20
1277.344573
30
0.0
11
4142.098880
21
1278.728353
31
0.0
0
ARC
8
0
10
4141.898880
20
1278.728353
30
0.0
40
0.200000
50
360.000000
51
60.153120
0
LINE
8
0
10
4141.998417
20
1278.901825
30
0.0
11
4140.101196
21
1279.990435
31
0.0
0
ARC
8
0
10
4140.598880
20
1280.857794
30
0.0
40
1.000000
50
180.000000
51
240.153120
0
LINE
8
0
10
4139.598880
20
1280.857794
30
0.0
11
4139.598880
21
1281.957541
31
0.0
0
ARC
8
0
10
4140.598880
20
1281.957541
30
0.0
40
1.000000
50
119.846880
51
180.000000
0
LINE
8
0
10
4140.101196
20
1282.824900
30
0.0
11
4141.998417
21
1283.913511
31
0.0
0
ARC
8
0
10
4141.898880
20
1284.086982
30
0.0
40
0.200000
50
299.846880
51
360.000000
0
LINE
8
0
10
4142.098880
20
1284.086982
30
0.0
11
4142.098880
21
1285.470763
31
0.0
0
ARC
8
0
10
4141.898880
20
1285.470763
30
0.0
40
0.200000
50
360.000000
51
180.000000
0
LINE
8
0
10
4141.698976
20
1285.464572
30
0.0
11
4140.022983
21
1284.442340
31
0.0
0
ARC
8
0
10
4139.866769
20
1284.698459
30
0.0
40
0.300000
50
270.000000
51
301.380132
0
LINE
8
0
10
4139.866769
20
1284.398459
30
0.0
11
4139.798880
21
1284.398459
31
0.0
0
ARC
8
0
10
4139.798880
20
1284.598459
30
0.0
40
0.200000
50
180.000000
51
270.000000
0
LINE
8
0
10
4139.598880
20
1284.598459
30
0.0
11
4139.598880
21
1289.277704
31
0.0
0
ARC
8
0
10
4139.298880
20
1289.277704
30
0.0
40
0.300000
50
360.000000
51
39.714843
0
ARC
8
0
10
4139.798882
20
1289.693032
30
0.0
40
0.350000
50
348.991572
51
219.714843
0
ARC
8
0
10
4140.338762
20
1289.588007
30
0.0
40
0.200000
50
168.991227
51
231.176673
0
LINE
8
0
10
4140.213377
20
1289.432190
30
0.0
11
4141.717020
21
1288.222195
31
0.0
0
ARC
8
0
10
4141.591634
20
1288.066380
30
0.0
40
0.200000
50
333.765017
51
51.176024
0
ARC
8
0
10
4141.900166
20
1287.879523
30
0.0
40
0.162380
50
142.679569
51
334.527730
0
LINE
8
0
10
4142.046762
20
1287.809688
30
0.0
11
4144.111049
21
1290.476129
31
0.0
0
ARC
8
0
10
4143.826142
20
1290.570085
30
0.0
40
0.300000
50
341.748585
51
87.394587
0
LINE
8
0
10
4143.829527
20
1290.870109
30
0.0
11
4143.172905
21
1290.888723
31
0.0
0
ARC
8
0
10
4143.158737
20
1290.388924
30
0.0
40
0.500000
50
88.376251
51
128.194227
0
ARC
8
0
10
4141.612914
20
1292.353722
30
0.0
40
2.000000
50
236.002945
51
308.194227
0
LINE
8
0
10
4140.494614
20
1290.695589
30
0.0
11
4140.076230
21
1290.900798
31
0.0
0
ARC
8
0
10
4140.295472
20
1291.618037
30
0.0
40
0.750000
50
208.717619
51
253.002945
0
LINE
8
0
10
4139.637724
20
1291.257668
30
0.0
11
4130.998880
21
1291.257668
31
0.0
0
LINE
8
0
10
4130.998880
20
1291.257668
30
0.0
11
4130.998880
21
1296.257668
31
0.0
0
LINE
8
0
10
4130.998880
20
1296.257668
30
0.0
11
4128.498880
21
1296.257668
31
0.0
0
LINE
8
0
10
4128.498880
20
1296.257668
30
0.0
11
4127.498880
21
1295.257668
31
0.0
0
LINE
8
0
10
4127.498880
20
1295.257668
30
0.0
11
4127.498880
21
1294.257668
31
0.0
0
LINE
8
0
10
4127.498880
20
1294.257668
30
0.0
11
4129.498880
21
1294.257668
31
0.0
0
LINE
8
0
10
4129.498880
20
1294.257668
30
0.0
11
4129.498880
21
1291.257668
31
0.0
0
LINE
8
0
10
4129.498880
20
1291.257668
30
0.0
11
4111.498880
21
1291.257668
31
0.0
0
LINE
8
0
10
4111.498880
20
1291.257668
30
0.0
11
4111.498880
21
1294.257668
31
0.0
0
LINE
8
0
10
4111.498880
20
1294.257668
30
0.0
11
4113.498880
21
1294.257668
31
0.0
0
LINE
8
0
10
4113.498880
20
1294.257668
30
0.0
11
4113.498880
21
1295.257668
31
0.0
0
LINE
8
0
10
4113.498880
20
1295.257668
30
0.0
11
4112.498880
21
1296.257668
31
0.0
0
LINE
8
0
10
4112.498880
20
1296.257668
30
0.0
11
4109.998880
21
1296.257668
31
0.0
0
LINE
8
0
10
4109.998880
20
1296.257668
30
0.0
11
4109.998880
21
1250.257668
31
0.0
0
ARC
8
0
10
4110.498880
20
1250.257668
30
0.0
40
0.500000
50
180.000000
51
270.000000
0
LINE
8
0
10
4110.498880
20
1249.757668
30
0.0
11
4112.998880
21
1249.757668
31
0.0
0
ARC
8
0
10
4112.998880
20
1250.257668
30
0.0
40
0.500000
50
270.000000
51
360.000000
0
LINE
8
0
10
4113.498880
20
1250.257668
30
0.0
11
4113.498880
21
1250.957668
31
0.0
0
LINE
8
0
10
4113.498880
20
1250.957668
30
0.0
11
4112.998880
21
1252.257668
31
0.0
0
LINE
8
0
10
4112.998880
20
1252.257668
30
0.0
11
4112.498880
21
1252.257668
31
0.0
0
LINE
8
0
10
4112.498880
20
1252.257668
30
0.0
11
4112.498880
21
1250.957668
31
0.0
0
LINE
8
0
10
4112.498880
20
1250.957668
30
0.0
11
4111.198880
21
1250.957668
31
0.0
0
LINE
8
0
10
4111.198880
20
1250.957668
30
0.0
11
4111.198880
21
1257.057668
31
0.0
0
LINE
8
0
10
4111.198880
20
1257.057668
30
0.0
11
4112.498880
21
1257.057668
31
0.0
0
LINE
8
0
10
4112.498880
20
1257.057668
30
0.0
11
4112.498880
21
1255.757668
31
0.0
0
LINE
8
0
10
4112.498880
20
1255.757668
30
0.0
11
4112.998880
21
1255.757668
31
0.0
0
LINE
8
0
10
4112.998880
20
1255.757668
30
0.0
11
4113.498880
21
1257.057668
31
0.0
0
LINE
8
0
10
4113.498880
20
1257.057668
30
0.0
11
4113.498880
21
1259.257668
31
0.0
0
LINE
8
0
10
4113.498880
20
1259.257668
30
0.0
11
4112.766829
21
1259.257668
31
0.0
0
LINE
8
0
10
4112.766829
20
1259.257668
30
0.0
11
4112.498880
21
1258.257668
31
0.0
0
LINE
8
0
10
4112.498880
20
1258.257668
30
0.0
11
4111.498880
21
1258.257668
31
0.0
0
LINE
8
0
10
4111.498880
20
1258.257668
30
0.0
11
4111.498880
21
1273.257668
31
0.0
0
LINE
8
0
10
4111.498880
20
1273.257668
30
0.0
11
4112.498880
21
1273.257668
31
0.0
0
LINE
8
0
10
4112.498880
20
1273.257668
30
0.0
11
4112.766829
21
1272.257668
31
0.0
0
LINE
8
0
10
4112.766829
20
1272.257668
30
0.0
11
4116.498880
21
1272.257668
31
0.0
0
LINE
8
0
10
4116.498880
20
1272.257668
30
0.0
11
4116.498880
21
1268.757668
31
0.0
0
ARC
8
0
10
4116.498880
20
1268.257668
30
0.0
40
0.500000
50
90.000000
51
180.000000
0
LINE
8
0
10
4115.998880
20
1268.257668
30
0.0
11
4115.998880
21
1267.757668
31
0.0
0
ARC
8
0
10
4116.498880
20
1267.757668
30
0.0
40
0.500000
50
180.000000
51
270.000000
0
LINE
8
0
10
4116.498880
20
1267.257668
30
0.0
11
4120.498880
21
1267.257668
31
0.0
0
LINE
8
0
10
4120.498880
20
1267.257668
30
0.0
11
4120.498880
21
1268.757668
31
0.0
0
LINE
8
0
10
4120.498880
20
1268.757668
30
0.0
11
4117.998880
21
1268.757668
31
0.0
0
LINE
8
0
10
4117.998880
20
1268.757668
30
0.0
11
4117.998880
21
1271.757668
31
0.0
0
LINE
8
0
10
4117.998880
20
1271.757668
30
0.0
11
4120.498880
21
1271.757668
31
0.0
0
LINE
8
0
10
4120.498880
20
1271.757668
30
0.0
11
4120.498880
21
1274.257668
31
0.0
0
LINE
8
0
10
4120.498880
20
1274.257668
30
0.0
11
4132.998880
21
1274.257668
31
0.0
0
LINE
8
0
10
4132.998880
20
1274.257668
30
0.0
11
4135.498880
21
1271.757668
31
0.0
0
LINE
8
0
10
4135.498880
20
1271.757668
30
0.0
11
4137.998880
21
1271.757668
31
0.0
0
LINE
8
0
10
4137.998880
20
1271.757668
30
0.0
11
4137.998880
21
1268.757668
31
0.0
0
LINE
8
0
10
4137.998880
20
1268.757668
30
0.0
11
4135.498880
21
1268.757668
31
0.0
0
LINE
8
0
10
4135.498880
20
1268.757668
30
0.0
11
4135.498880
21
1267.257668
31
0.0
0
LINE
8
0
10
4135.498880
20
1267.257668
30
0.0
11
4139.698880
21
1267.257668
31
0.0
0
LINE
8
0
10
4139.698880
20
1267.257668
30
0.0
11
4140.475933
21
1270.157668
31
0.0
0
LINE
8
0
10
4140.475933
20
1270.157668
30
0.0
11
4139.598880
21
1270.157668
31
0.0
0
LINE
8
0
10
4139.598880
20
1270.157668
30
0.0
11
4139.598880
21
1271.475254
31
0.0
0
ARC
8
0
10
4140.295472
20
1271.197298
30
0.0
40
0.750000
50
106.997055
51
158.246886
0
LINE
8
0
10
4140.076230
20
1271.914538
30
0.0
11
4140.494614
21
1272.119746
31
0.0
0
ARC
8
0
10
4141.612914
20
1270.461614
30
0.0
40
2.000000
50
51.805773
51
123.997055
0
ARC
8
0
10
4143.158737
20
1272.426412
30
0.0
40
0.500000
50
231.805773
51
271.623749
0
LINE
8
0
10
4143.172905
20
1271.926612
30
0.0
11
4143.829527
21
1271.945226
31
0.0
0
ARC
8
0
10
4143.826142
20
1272.245250
30
0.0
40
0.300000
50
270.000000
51
18.251415
0
LINE
8
0
10
4144.111049
20
1272.339207
30
0.0
11
4142.046762
21
1275.005648
31
0.0
0
ARC
8
0
10
4141.931615
20
1274.916504
30
0.0
40
0.145621
50
37.746080
51
180.000000
0
LINE
8
0
10
4141.786083
20
1274.911422
30
0.0
11
4141.791512
21
1274.755935
31
0.0
0
ARC
8
0
10
4141.591634
20
1274.748955
30
0.0
40
0.200000
50
308.823976
51
360.000000
0
LINE
8
0
10
4141.717020
20
1274.593140
30
0.0
11
4140.213377
21
1273.383145
31
0.0
0
ARC
8
0
10
4140.338762
20
1273.227329
30
0.0
40
0.200000
50
128.823327
51
191.008773
0
ARC
8
0
10
4139.798882
20
1273.122303
30
0.0
40
0.350000
50
140.285157
51
11.008428
0
ARC
8
0
10
4139.298880
20
1273.537632
30
0.0
40
0.300000
50
320.285157
51
360.000000
0
LINE
8
0
10
4156.398880
20
1295.157668
30
0.0
11
4156.198880
21
1295.157668
31
0.0
0
LINE
8
0
10
4156.198880
20
1295.157668
30
0.0
11
4156.198880
21
1283.757668
31
0.0
0
ARC
8
0
10
4156.698880
20
1283.757668
30
0.0
40
0.500000
50
180.000000
51
270.000000
0
LINE
8
0
10
4156.698880
20
1283.257668
30
0.0
11
4160.998880
21
1283.257668
31
0.0
0
ARC
8
0
10
4160.998880
20
1283.757668
30
0.0
40
0.500000
50
270.000000
51
360.000000
0
LINE
8
0
10
4161.498880
20
1283.757668
30
0.0
11
4161.498880
21
1310.257668
31
0.0
0
ARC
8
0
10
4156.998880
20
1310.257668
30
0.0
40
4.500000
50
360.000000
51
90.000000
0
ARC
8
0
10
4156.998880
20
1314.457668
30
0.0
40
0.300000
50
90.000000
51
180.000000
0
LINE
8
0
10
4156.698880
20
1314.457668
30
0.0
11
4156.698880
21
1307.457668
31
0.0
0
LINE
8
0
10
4156.698880
20
1307.457668
30
0.0
11
4156.898880
21
1307.457668
31
0.0
0
ARC
8
0
10
4156.898880
20
1306.957668
30
0.0
40
0.500000
50
360.000000
51
90.000000
0
LINE
8
0
10
4157.398880
20
1306.957668
30
0.0
11
4157.398880
21
1296.157668
31
0.0
0
ARC
8
0
10
4156.398880
20
1296.157668
30
0.0
40
1.000000
50
270.000000
51
360.000000
0
LINE
8
0
10
4153.981957
20
1271.788322
30
0.0
11
4153.306242
21
1272.119746
31
0.0
0
ARC
8
0
10
4152.187942
20
1270.461614
30
0.0
40
2.000000
50
56.002945
51
128.194227
0
ARC
8
0
10
4150.642119
20
1272.426412
30
0.0
40
0.500000
50
268.376251
51
308.194227
0
LINE
8
0
10
4150.627951
20
1271.926612
30
0.0
11
4149.971329
21
1271.945226
31
0.0
0
ARC
8
0
10
4149.974714
20
1272.245250
30
0.0
40
0.300000
50
161.748585
51
270.000000
0
LINE
8
0
10
4149.689807
20
1272.339207
30
0.0
11
4151.754094
21
1275.005648
31
0.0
0
ARC
8
0
10
4151.869241
20
1274.916504
30
0.0
40
0.145621
50
360.000000
51
142.253920
0
LINE
8
0
10
4152.014773
20
1274.911422
30
0.0
11
4152.009344
21
1274.755935
31
0.0
0
ARC
8
0
10
4152.209222
20
1274.748955
30
0.0
40
0.200000
50
180.000000
51
231.176024
0
LINE
8
0
10
4152.083836
20
1274.593140
30
0.0
11
4153.835976
21
1273.183177
31
0.0
0
ARC
8
0
10
4154.024054
20
1273.416900
30
0.0
40
0.300000
50
231.176059
51
270.000000
0
LINE
8
0
10
4154.024054
20
1273.116900
30
0.0
11
4154.201976
21
1273.116900
31
0.0
0
ARC
8
0
10
4154.201976
20
1273.416900
30
0.0
40
0.300000
50
270.000000
51
90.000000
0
LINE
8
0
10
4154.201976
20
1273.716900
30
0.0
11
4154.201976
21
1278.216900
31
0.0
0
ARC
8
0
10
4154.001976
20
1278.216900
30
0.0
40
0.200000
50
360.000000
51
90.000000
0
LINE
8
0
10
4154.001976
20
1278.416900
30
0.0
11
4153.934087
21
1278.416900
31
0.0
0
ARC
8
0
10
4153.934087
20
1278.116900
30
0.0
40
0.300000
50
90.000000
51
121.380132
0
LINE
8
0
10
4153.777873
20
1278.373020
30
0.0
11
4152.101880
21
1277.350787
31
0.0
0
ARC
8
0
10
4151.901976
20
1277.344597
30
0.0
40
0.200000
50
180.000000
51
360.000000
0
LINE
8
0
10
4151.701976
20
1277.344597
30
0.0
11
4151.701976
21
1278.753451
31
0.0
0
ARC
8
0
10
4151.901976
20
1278.753451
30
0.0
40
0.200000
50
121.380132
51
180.000000
0
LINE
8
0
10
4151.797833
20
1278.924197
30
0.0
11
4153.863380
21
1280.184029
31
0.0
0
ARC
8
0
10
4153.498880
20
1280.781641
30
0.0
40
0.700000
50
301.380132
51
360.000000
0
LINE
8
0
10
4154.198880
20
1280.781641
30
0.0
11
4154.198880
21
1282.033694
31
0.0
0
ARC
8
0
10
4153.498880
20
1282.033694
30
0.0
40
0.700000
50
360.000000
51
58.619868
0
LINE
8
0
10
4153.863380
20
1282.631306
30
0.0
11
4151.797833
21
1283.891138
31
0.0
0
ARC
8
0
10
4151.901976
20
1284.061884
30
0.0
40
0.200000
50
180.000000
51
238.619868
0
LINE
8
0
10
4151.701976
20
1284.061884
30
0.0
11
4151.701976
21
1285.470739
31
0.0
0
ARC
8
0
10
4151.901976
20
1285.470739
30
0.0
40
0.200000
50
360.000000
51
180.000000
0
LINE
8
0
10
4152.101880
20
1285.464549
30
0.0
11
4153.777873
21
1284.442316
31
0.0
0
ARC
8
0
10
4153.934087
20
1284.698435
30
0.0
40
0.300000
50
238.619868
51
270.000000
0
LINE
8
0
10
4153.934087
20
1284.398435
30
0.0
11
4154.001976
21
1284.398435
31
0.0
0
ARC
8
0
10
4154.001976
20
1284.598435
30
0.0
40
0.200000
50
270.000000
51
360.000000
0
LINE
8
0
10
4154.201976
20
1284.598435
30
0.0
11
4154.201976
21
1289.098435
31
0.0
0
ARC
8
0
10
4154.201976
20
1289.398435
30
0.0
40
0.300000
50
270.000000
51
90.000000
0
LINE
8
0
10
4154.201976
20
1289.698435
30
0.0
11
4154.024054
21
1289.698435
31
0.0
0
ARC
8
0
10
4154.024054
20
1289.398435
30
0.0
40
0.300000
50
90.000000
51
128.823941
0
LINE
8
0
10
4153.835976
20
1289.632158
30
0.0
11
4152.083836
21
1288.222195
31
0.0
0
ARC
8
0
10
4152.209222
20
1288.066380
30
0.0
40
0.200000
50
128.823976
51
206.234983
0
ARC
8
0
10
4151.900690
20
1287.879523
30
0.0
40
0.162380
50
205.472270
51
37.320431
0
LINE
8
0
10
4151.754094
20
1287.809688
30
0.0
11
4149.689807
21
1290.476129
31
0.0
0
ARC
8
0
10
4149.974714
20
1290.570085
30
0.0
40
0.300000
50
92.605413
51
198.251415
0
LINE
8
0
10
4149.971329
20
1290.870109
30
0.0
11
4150.627951
21
1290.888723
31
0.0
0
ARC
8
0
10
4150.642119
20
1290.388924
30
0.0
40
0.500000
50
51.805773
51
91.623749
0
ARC
8
0
10
4152.187942
20
1292.353722
30
0.0
40
2.000000
50
231.805773
51
303.997055
0
LINE
8
0
10
4153.306242
20
1290.695589
30
0.0
11
4153.724626
21
1290.900798
31
0.0
0
ARC
8
0
10
4153.505384
20
1291.618038
30
0.0
40
0.750000
50
286.997042
51
304.364852
0
ARC
8
0
10
4154.098068
20
1290.751305
30
0.0
40
0.300000
50
90.000000
51
124.364864
0
LINE
8
0
10
4154.098068
20
1291.051305
30
0.0
11
4154.698880
21
1291.051305
31
0.0
0
LINE
8
0
10
4154.698880
20
1291.051305
30
0.0
11
4154.698880
21
1295.157668
31
0.0
0
LINE
8
0
10
4154.698880
20
1295.157668
30
0.0
11
4153.498880
21
1295.157668
31
0.0
0
ARC
8
0
10
4153.498880
20
1296.157668
30
0.0
40
1.000000
50
180.000000
51
270.000000
0
LINE
8
0
10
4152.498880
20
1296.157668
30
0.0
11
4152.498880
21
1297.407668
31
0.0
0
ARC
8
0
10
4152.998880
20
1297.407668
30
0.0
40
0.500000
50
360.000000
51
180.000000
0
LINE
8
0
10
4153.498880
20
1297.407668
30
0.0
11
4153.498880
21
1296.557668
31
0.0
0
LINE
8
0
10
4153.498880
20
1296.557668
30
0.0
11
4155.898880
21
1296.557668
31
0.0
0
LINE
8
0
10
4155.898880
20
1296.557668
30
0.0
11
4155.898880
21
1306.057668
31
0.0
0
LINE
8
0
10
4155.898880
20
1306.057668
30
0.0
11
4153.498880
21
1306.057668
31
0.0
0
LINE
8
0
10
4153.498880
20
1306.057668
30
0.0
11
4153.498880
21
1305.207668
31
0.0
0
ARC
8
0
10
4152.998880
20
1305.207668
30
0.0
40
0.500000
50
180.000000
51
360.000000
0
LINE
8
0
10
4152.498880
20
1305.207668
30
0.0
11
4152.498880
21
1305.957668
31
0.0
0
ARC
8
0
10
4152.498880
20
1306.457668
30
0.0
40
0.500000
50
180.000000
51
270.000000
0
LINE
8
0
10
4151.998880
20
1306.457668
30
0.0
11
4151.998880
21
1307.457668
31
0.0
0
LINE
8
0
10
4151.998880
20
1307.457668
30
0.0
11
4152.898880
21
1307.457668
31
0.0
0
LINE
8
0
10
4152.898880
20
1307.457668
30
0.0
11
4153.398880
21
1309.207668
31
0.0
0
LINE
8
0
10
4153.398880
20
1309.207668
30
0.0
11
4153.898880
21
1309.207668
31
0.0
0
LINE
8
0
10
4153.898880
20
1309.207668
30
0.0
11
4153.898880
21
1307.457668
31
0.0
0
LINE
8
0
10
4153.898880
20
1307.457668
30
0.0
11
4155.198880
21
1307.457668
31
0.0
0
LINE
8
0
10
4155.198880
20
1307.457668
30
0.0
11
4155.198880
21
1314.957668
31
0.0
0
LINE
8
0
10
4155.198880
20
1314.957668
30
0.0
11
4153.898880
21
1314.957668
31
0.0
0
LINE
8
0
10
4153.898880
20
1314.957668
30
0.0
11
4153.898880
21
1313.207668
31
0.0
0
LINE
8
0
10
4153.898880
20
1313.207668
30
0.0
11
4153.398880
21
1313.207668
31
0.0
0
LINE
8
0
10
4153.398880
20
1313.207668
30
0.0
11
4152.956023
21
1314.757668
31
0.0
0
LINE
8
0
10
4152.956023
20
1314.757668
30
0.0
11
4151.998880
21
1314.757668
31
0.0
0
LINE
8
0
10
4151.998880
20
1314.757668
30
0.0
11
4151.998880
21
1315.757668
31
0.0
0
ARC
8
0
10
4152.498880
20
1315.757668
30
0.0
40
0.500000
50
90.000000
51
180.000000
0
LINE
8
0
10
4152.498880
20
1316.257668
30
0.0
11
4156.998880
21
1316.257668
31
0.0
0
ARC
8
0
10
4156.998880
20
1310.257668
30
0.0
40
6.000000
50
360.000000
51
90.000000
0
LINE
8
0
10
4162.998880
20
1310.257668
30
0.0
11
4162.998880
21
1280.257668
31
0.0
0
LINE
8
0
10
4162.998880
20
1280.257668
30
0.0
11
4162.698880
21
1280.257668
31
0.0
0
ARC
8
0
10
4162.698880
20
1281.257668
30
0.0
40
1.000000
50
180.000000
51
270.000000
0
LINE
8
0
10
4161.698880
20
1281.257668
30
0.0
11
4161.698880
21
1281.757668
31
0.0
0
LINE
8
0
10
4161.698880
20
1281.757668
30
0.0
11
4156.498880
21
1281.757668
31
0.0
0
LINE
8
0
10
4156.498880
20
1281.757668
30
0.0
11
4156.498880
21
1271.757668
31
0.0
0
LINE
8
0
10
4156.498880
20
1271.757668
30
0.0
11
4154.114066
21
1271.757668
31
0.0
0
ARC
8
0
10
4154.114066
20
1272.057668
30
0.0
40
0.300000
50
243.872968
51
270.000000
0
LINE
8
0
10
4140.077573
20
1287.399514
30
0.0
11
4141.135145
21
1288.457086
31
0.0
0
LINE
8
0
10
4139.763042
20
1284.839918
30
0.0
11
4142.686121
21
1287.762998
31
0.0
0
LINE
8
0
10
4143.131185
20
1285.962998
30
0.0
11
4144.931185
21
1287.762998
31
0.0
0
LINE
8
0
10
4145.376249
20
1285.962998
30
0.0
11
4147.176249
21
1287.762998
31
0.0
0
LINE
8
0
10
4147.621313
20
1285.962998
30
0.0
11
4149.421313
21
1287.762998
31
0.0
0
LINE
8
0
10
4140.539253
20
1276.635874
30
0.0
11
4141.407246
21
1277.503867
31
0.0
0
LINE
8
0
10
4149.866377
20
1285.962998
30
0.0
11
4151.947721
21
1288.044341
31
0.0
0
LINE
8
0
10
4140.115320
20
1273.966876
30
0.0
11
4143.115320
21
1276.966876
31
0.0
0
LINE
8
0
10
4154.111441
20
1287.962998
30
0.0
11
4154.198880
21
1288.050437
31
0.0
0
LINE
8
0
10
4151.873151
20
1285.724707
30
0.0
11
4152.866620
21
1286.718177
31
0.0
0
LINE
8
0
10
4153.593701
20
1287.445258
30
0.0
11
4154.098880
21
1287.950437
31
0.0
0
LINE
8
0
10
4143.560384
20
1275.166876
30
0.0
11
4145.360384
21
1276.966876
31
0.0
0
LINE
8
0
10
4153.296464
20
1284.902957
30
0.0
11
4154.156505
21
1285.762998
31
0.0
0
LINE
8
0
10
4145.580625
20
1274.942053
30
0.0
11
4147.605448
21
1276.966876
31
0.0
0
LINE
8
0
10
4146.005756
20
1273.122120
30
0.0
11
4149.850512
21
1276.966876
31
0.0
0
LINE
8
0
10
4146.118940
20
1270.990240
30
0.0
11
4147.766280
21
1272.637580
31
0.0
0
LINE
8
0
10
4150.295576
20
1275.166876
30
0.0
11
4152.963216
21
1277.834516
31
0.0
0
LINE
8
0
10
4146.232124
20
1268.858360
30
0.0
11
4147.640404
21
1270.266640
31
0.0
0
LINE
8
0
10
4153.985251
20
1276.611488
30
0.0
11
4154.079269
21
1276.705505
31
0.0
0
LINE
8
0
10
4152.145252
20
1274.771488
30
0.0
11
4153.020516
21
1275.646752
31
0.0
0
LINE
8
0
10
4146.677886
20
1267.059058
30
0.0
11
4147.514528
21
1267.895701
31
0.0
0
LINE
8
0
10
4153.585815
20
1273.966987
30
0.0
11
4154.198880
21
1274.580053
31
0.0
0
LINE
8
0
10
4146.952987
20
1267.019321
30
0.0
11
4146.294817
21
1267.677491
31
0.0
0
LINE
8
0
10
4140.005432
20
1273.966876
30
0.0
11
4139.598880
21
1274.373428
31
0.0
0
LINE
8
0
10
4147.555220
20
1268.662152
30
0.0
11
4146.168941
21
1270.048431
31
0.0
0
LINE
8
0
10
4141.521514
20
1274.695858
30
0.0
11
4140.662194
21
1275.555178
31
0.0
0
LINE
8
0
10
4147.668404
20
1270.794032
30
0.0
11
4146.043066
21
1272.419370
31
0.0
0
LINE
8
0
10
4143.295560
20
1275.166876
30
0.0
11
4140.345665
21
1278.116771
31
0.0
0
LINE
8
0
10
4147.781588
20
1272.925912
30
0.0
11
4143.740624
21
1276.966876
31
0.0
0
LINE
8
0
10
4148.110884
20
1274.841681
30
0.0
11
4145.985688
21
1276.966876
31
0.0
0
LINE
8
0
10
4150.030752
20
1275.166876
30
0.0
11
4148.230752
21
1276.966876
31
0.0
0
LINE
8
0
10
4140.370302
20
1284.827327
30
0.0
11
4139.598880
21
1285.598748
31
0.0
0
LINE
8
0
10
4153.389669
20
1274.053024
30
0.0
11
4150.475816
21
1276.966876
31
0.0
0
LINE
8
0
10
4140.050659
20
1287.392033
30
0.0
11
4139.698880
21
1287.743812
31
0.0
0
LINE
8
0
10
4141.793615
20
1285.649077
30
0.0
11
4140.872554
21
1286.570139
31
0.0
0
LINE
8
0
10
4153.119424
20
1276.568333
30
0.0
11
4152.259519
21
1277.428237
31
0.0
0
LINE
8
0
10
4143.724759
20
1285.962998
30
0.0
11
4141.361161
21
1288.326596
31
0.0
0
LINE
8
0
10
4154.198880
20
1277.733940
30
0.0
11
4153.765944
21
1278.166876
31
0.0
0
LINE
8
0
10
4145.969823
20
1285.962998
30
0.0
11
4144.169823
21
1287.762998
31
0.0
0
LINE
8
0
10
4148.214887
20
1285.962998
30
0.0
11
4146.414887
21
1287.762998
31
0.0
0
LINE
8
0
10
4150.459951
20
1285.962998
30
0.0
11
4148.659951
21
1287.762998
31
0.0
0
LINE
8
0
10
4153.893631
20
1284.774382
30
0.0
11
4150.905015
21
1287.762998
31
0.0
0
LINE
8
0
10
4153.450080
20
1287.462996
30
0.0
11
4152.531621
21
1288.381456
31
0.0
0
ARC
8
0
10
4153.787074
20
1287.587998
30
0.0
40
0.200000
50
244.992167
51
286.231301
0
ARC
8
0
10
4153.898880
20
1287.587998
30
0.0
40
0.200000
50
253.768699
51
360.000000
0
LINE
8
0
10
4154.098880
20
1287.587998
30
0.0
11
4154.098880
21
1287.962998
31
0.0
0
LINE
8
0
10
4154.098880
20
1287.962998
30
0.0
11
4154.198880
21
1287.962998
31
0.0
0
LINE
8
0
10
4154.198880
20
1287.962998
30
0.0
11
4154.198880
21
1288.562998
31
0.0
0
ARC
8
0
10
4153.798880
20
1288.562998
30
0.0
40
0.400000
50
360.000000
51
90.000000
0
LINE
8
0
10
4153.798880
20
1288.962998
30
0.0
11
4153.592470
21
1288.962998
31
0.0
0
ARC
8
0
10
4153.592470
20
1288.762998
30
0.0
40
0.200000
50
90.000000
51
120.000000
0
LINE
8
0
10
4153.492470
20
1288.936203
30
0.0
11
4151.646060
21
1287.870177
31
0.0
0
ARC
8
0
10
4151.246060
20
1288.562998
30
0.0
40
0.800000
50
270.000000
51
300.000000
0
LINE
8
0
10
4151.246060
20
1287.762998
30
0.0
11
4146.898880
21
1287.762998
31
0.0
0
LINE
8
0
10
4146.898880
20
1287.762998
30
0.0
11
4142.551701
21
1287.762998
31
0.0
0
ARC
8
0
10
4142.551701
20
1288.562998
30
0.0
40
0.800000
50
240.000000
51
270.000000
0
LINE
8
0
10
4142.151701
20
1287.870177
30
0.0
11
4140.305290
21
1288.936203
31
0.0
0
ARC
8
0
10
4140.205290
20
1288.762998
30
0.0
40
0.200000
50
60.000000
51
90.000000
0
LINE
8
0
10
4140.205290
20
1288.962998
30
0.0
11
4139.998880
21
1288.962998
31
0.0
0
ARC
8
0
10
4139.998880
20
1288.562998
30
0.0
40
0.400000
50
90.000000
51
180.000000
0
LINE
8
0
10
4139.598880
20
1288.562998
30
0.0
11
4139.598880
21
1287.962998
31
0.0
0
LINE
8
0
10
4139.598880
20
1287.962998
30
0.0
11
4139.698880
21
1287.962998
31
0.0
0
LINE
8
0
10
4139.698880
20
1287.962998
30
0.0
11
4139.698880
21
1287.587998
31
0.0
0
ARC
8
0
10
4139.898880
20
1287.587998
30
0.0
40
0.200000
50
180.000000
51
286.231301
0
ARC
8
0
10
4140.010687
20
1287.587998
30
0.0
40
0.200000
50
253.768699
51
295.007833
0
ARC
8
0
10
4140.348880
20
1286.862998
30
0.0
40
0.600000
50
360.000000
51
115.007833
0
ARC
8
0
10
4140.348880
20
1286.862998
30
0.0
40
0.600000
50
244.992167
51
360.000000
0
ARC
8
0
10
4140.010687
20
1286.137998
30
0.0
40
0.200000
50
64.992167
51
106.231301
0
ARC
8
0
10
4139.898880
20
1286.137998
30
0.0
40
0.200000
50
73.768699
51
180.000000
0
LINE
8
0
10
4139.698880
20
1286.137998
30
0.0
11
4139.698880
21
1285.762998
31
0.0
0
LINE
8
0
10
4139.698880
20
1285.762998
30
0.0
11
4139.598880
21
1285.762998
31
0.0
0
LINE
8
0
10
4139.598880
20
1285.762998
30
0.0
11
4139.598880
21
1285.162998
31
0.0
0
ARC
8
0
10
4139.998880
20
1285.162998
30
0.0
40
0.400000
50
180.000000
51
270.000000
0
LINE
8
0
10
4139.998880
20
1284.762998
30
0.0
11
4140.205290
21
1284.762998
31
0.0
0
ARC
8
0
10
4140.205290
20
1284.962998
30
0.0
40
0.200000
50
270.000000
51
300.000000
0
LINE
8
0
10
4140.305290
20
1284.789792
30
0.0
11
4142.151701
21
1285.855818
31
0.0
0
ARC
8
0
10
4142.551701
20
1285.162998
30
0.0
40
0.800000
50
90.000000
51
120.000000
0
LINE
8
0
10
4142.551701
20
1285.962998
30
0.0
11
4146.616038
21
1285.962998
31
0.0
0
ARC
8
0
10
4146.616038
20
1285.762998
30
0.0
40
0.200000
50
51.057559
51
90.000000
0
ARC
8
0
10
4146.898880
20
1286.112998
30
0.0
40
0.250000
50
231.057559
51
308.942441
0
ARC
8
0
10
4147.181723
20
1285.762998
30
0.0
40
0.200000
50
90.000000
51
128.942441
0
LINE
8
0
10
4147.181723
20
1285.962998
30
0.0
11
4151.246060
21
1285.962998
31
0.0
0
ARC
8
0
10
4151.246060
20
1285.162998
30
0.0
40
0.800000
50
60.000000
51
90.000000
0
LINE
8
0
10
4151.646060
20
1285.855818
30
0.0
11
4153.492470
21
1284.789792
31
0.0
0
ARC
8
0
10
4153.592470
20
1284.962998
30
0.0
40
0.200000
50
240.000000
51
270.000000
0
LINE
8
0
10
4153.592470
20
1284.762998
30
0.0
11
4153.798880
21
1284.762998
31
0.0
0
ARC
8
0
10
4153.798880
20
1285.162998
30
0.0
40
0.400000
50
270.000000
51
360.000000
0
LINE
8
0
10
4154.198880
20
1285.162998
30
0.0
11
4154.198880
21
1285.762998
31
0.0
0
LINE
8
0
10
4154.198880
20
1285.762998
30
0.0
11
4154.098880
21
1285.762998
31
0.0
0
LINE
8
0
10
4154.098880
20
1285.762998
30
0.0
11
4154.098880
21
1286.137998
31
0.0
0
ARC
8
0
10
4153.898880
20
1286.137998
30
0.0
40
0.200000
50
360.000000
51
106.231301
0
ARC
8
0
10
4153.787074
20
1286.137998
30
0.0
40
0.200000
50
73.768699
51
115.007833
0
ARC
8
0
10
4153.448880
20
1286.862998
30
0.0
40
0.600000
50
180.000000
51
295.007833
0
ARC
8
0
10
4153.448880
20
1286.862998
30
0.0
40
0.600000
50
64.992167
51
180.000000
0
LINE
8
0
10
4154.098880
20
1274.966876
30
0.0
11
4154.198880
21
1274.966876
31
0.0
0
LINE
8
0
10
4154.198880
20
1274.966876
30
0.0
11
4154.198880
21
1274.366876
31
0.0
0
ARC
8
0
10
4153.798880
20
1274.366876
30
0.0
40
0.400000
50
270.000000
51
360.000000
0
LINE
8
0
10
4153.798880
20
1273.966876
30
0.0
11
4153.592470
21
1273.966876
31
0.0
0
ARC
8
0
10
4153.592470
20
1274.166876
30
0.0
40
0.200000
50
240.000000
51
270.000000
0
LINE
8
0
10
4153.492470
20
1273.993671
30
0.0
11
4151.646060
21
1275.059697
31
0.0
0
ARC
8
0
10
4151.246060
20
1274.366876
30
0.0
40
0.800000
50
60.000000
51
90.000000
0
LINE
8
0
10
4151.246060
20
1275.166876
30
0.0
11
4148.848880
21
1275.166876
31
0.0
0
ARC
8
0
10
4148.848880
20
1274.166876
30
0.0
40
1.000000
50
90.000000
51
176.960958
0
LINE
8
0
10
4147.850287
20
1274.219893
30
0.0
11
4147.498036
21
1267.585066
31
0.0
0
ARC
8
0
10
4146.898880
20
1267.616876
30
0.0
40
0.600000
50
183.039042
51
356.960958
0
LINE
8
0
10
4146.299724
20
1267.585066
30
0.0
11
4145.947474
21
1274.219893
31
0.0
0
ARC
8
0
10
4144.948880
20
1274.166876
30
0.0
40
1.000000
50
3.039042
51
90.000000
0
LINE
8
0
10
4144.948880
20
1275.166876
30
0.0
11
4142.551701
21
1275.166876
31
0.0
0
ARC
8
0
10
4142.551701
20
1274.366876
30
0.0
40
0.800000
50
90.000000
51
120.000000
0
LINE
8
0
10
4142.151701
20
1275.059697
30
0.0
11
4140.305290
21
1273.993671
31
0.0
0
ARC
8
0
10
4140.205290
20
1274.166876
30
0.0
40
0.200000
50
270.000000
51
300.000000
0
LINE
8
0
10
4140.205290
20
1273.966876
30
0.0
11
4139.998880
21
1273.966876
31
0.0
0
ARC
8
0
10
4139.998880
20
1274.366876
30
0.0
40
0.400000
50
180.000000
51
270.000000
0
LINE
8
0
10
4139.598880
20
1274.366876
30
0.0
11
4139.598880
21
1274.966876
31
0.0
0
LINE
8
0
10
4139.598880
20
1274.966876
30
0.0
11
4139.698880
21
1274.966876
31
0.0
0
LINE
8
0
10
4139.698880
20
1274.966876
30
0.0
11
4139.698880
21
1275.341876
31
0.0
0
ARC
8
0
10
4139.898880
20
1275.341876
30
0.0
40
0.200000
50
90.000000
51
180.000000
0
LINE
8
0
10
4139.898880
20
1275.541876
30
0.0
11
4140.010687
21
1275.541876
31
0.0
0
LINE
8
0
10
4140.095235
20
1275.523126
30
0.0
11
4140.010687
21
1275.541876
31
0.0
0
ARC
8
0
10
4140.348880
20
1276.066876
30
0.0
40
0.600000
50
244.992167
51
360.000000
0
ARC
8
0
10
4140.348880
20
1276.066876
30
0.0
40
0.600000
50
360.000000
51
115.007833
0
LINE
8
0
10
4140.010687
20
1276.591876
30
0.0
11
4140.095235
21
1276.610626
31
0.0
0
LINE
8
0
10
4140.010687
20
1276.591876
30
0.0
11
4139.898880
21
1276.591876
31
0.0
0
ARC
8
0
10
4139.898880
20
1276.791876
30
0.0
40
0.200000
50
180.000000
51
270.000000
0
LINE
8
0
10
4139.698880
20
1276.791876
30
0.0
11
4139.698880
21
1277.166876
31
0.0
0
LINE
8
0
10
4139.698880
20
1277.166876
30
0.0
11
4139.598880
21
1277.166876
31
0.0
0
LINE
8
0
10
4139.598880
20
1277.166876
30
0.0
11
4139.598880
21
1277.766876
31
0.0
0
ARC
8
0
10
4139.998880
20
1277.766876
30
0.0
40
0.400000
50
90.000000
51
180.000000
0
LINE
8
0
10
4139.998880
20
1278.166876
30
0.0
11
4140.205290
21
1278.166876
31
0.0
0
ARC
8
0
10
4140.205290
20
1277.966876
30
0.0
40
0.200000
50
60.000000
51
90.000000
0
LINE
8
0
10
4140.305290
20
1278.140081
30
0.0
11
4142.151701
21
1277.074056
31
0.0
0
ARC
8
0
10
4142.551701
20
1277.766876
30
0.0
40
0.800000
50
240.000000
51
270.000000
0
LINE
8
0
10
4142.551701
20
1276.966876
30
0.0
11
4146.616038
21
1276.966876
31
0.0
0
ARC
8
0
10
4146.616038
20
1277.166876
30
0.0
40
0.200000
50
270.000000
51
308.942441
0
ARC
8
0
10
4146.898880
20
1276.816876
30
0.0
40
0.250000
50
51.057559
51
128.942441
0
ARC
8
0
10
4147.181723
20
1277.166876
30
0.0
40
0.200000
50
231.057559
51
270.000000
0
LINE
8
0
10
4147.181723
20
1276.966876
30
0.0
11
4151.246060
21
1276.966876
31
0.0
0
ARC
8
0
10
4151.246060
20
1277.766876
30
0.0
40
0.800000
50
270.000000
51
300.000000
0
LINE
8
0
10
4151.646060
20
1277.074056
30
0.0
11
4153.492470
21
1278.140081
31
0.0
0
ARC
8
0
10
4153.592470
20
1277.966876
30
0.0
40
0.200000
50
90.000000
51
120.000000
0
LINE
8
0
10
4153.592470
20
1278.166876
30
0.0
11
4153.798880
21
1278.166876
31
0.0
0
ARC
8
0
10
4153.798880
20
1277.766876
30
0.0
40
0.400000
50
360.000000
51
90.000000
0
LINE
8
0
10
4154.198880
20
1277.766876
30
0.0
11
4154.198880
21
1277.166876
31
0.0
0
LINE
8
0
10
4154.198880
20
1277.166876
30
0.0
11
4154.098880
21
1277.166876
31
0.0
0
LINE
8
0
10
4154.098880
20
1277.166876
30
0.0
11
4154.098880
21
1276.791876
31
0.0
0
ARC
8
0
10
4153.898880
20
1276.791876
30
0.0
40
0.200000
50
270.000000
51
360.000000
0
LINE
8
0
10
4153.898880
20
1276.591876
30
0.0
11
4153.787074
21
1276.591876
31
0.0
0
LINE
8
0
10
4153.702526
20
1276.610626
30
0.0
11
4153.787074
21
1276.591876
31
0.0
0
ARC
8
0
10
4153.448880
20
1276.066876
30
0.0
40
0.600000
50
64.992167
51
295.007833
0
LINE
8
0
10
4153.787074
20
1275.541876
30
0.0
11
4153.702526
21
1275.523126
31
0.0
0
LINE
8
0
10
4153.787074
20
1275.541876
30
0.0
11
4153.898880
21
1275.541876
31
0.0
0
ARC
8
0
10
4153.898880
20
1275.341876
30
0.0
40
0.200000
50
360.000000
51
90.000000
0
LINE
8
0
10
4154.098880
20
1275.341876
30
0.0
11
4154.098880
21
1274.966876
31
0.0
0
ATTDEF
8
0
10
0.000000
20
0.000000
30
0.0
40
3.5
1

3

2
PANE_WIDTH:0
70
0
0
ATTDEF
8
0
10
0.000000
20
0.000000
30
0.0
40
3.5
1

3

2
MIN_VETRO:0
70
0
0
ATTDEF
8
0
10
0.000000
20
0.000000
30
0.0
40
3.5
1

3

2
MAX_VETRO:0
70
0
0
ATTDEF
8
0
10
0.000000
20
0.000000
30
0.0
40
3.5
1

3

2
JX:0
70
0
0
ATTDEF
8
0
10
0.000000
20
0.000000
30
0.0
40
3.5
1

3

2
WX:0
70
0
0
ATTDEF
8
0
10
0.000000
20
0.000000
30
0.0
40
3.5
1

3

2
JY:0
70
0
0
ATTDEF
8
0
10
0.000000
20
0.000000
30
0.0
40
3.5
1

3

2
WY:0
70
0
0
ATTDEF
8
0
10
0.000000
20
0.000000
30
0.0
40
3.5
1

3

2
DESC:Hoja ventana
70
0
0
ATTDEF
8
0
10
0.000000
20
0.000000
30
0.0
40
3.5
1

3

2
DENS:1.3334
70
0
0
ATTDEF
8
0
10
0.000000
20
0.000000
30
0.0
40
3.5
1

3

2
TDEV:58.06
70
0
0
ATTDEF
8
0
10
0.000000
20
0.000000
30
0.0
40
3.5
1

3

2
TDEV2:0
70
0
0
ATTDEF
8
0
10
0.000000
20
0.000000
30
0.0
40
3.5
1

3

2
TDEV3:0
70
0
0
ATTDEF
8
0
10
0.000000
20
0.000000
30
0.0
40
3.5
1

3

2
TDEV4:0
70
0
0
ATTDEF
8
0
10
0.000000
20
0.000000
30
0.0
40
3.5
1

3

2
TDEV5:0
70
0
0
ATTDEF
8
0
10
0.000000
20
0.000000
30
0.0
40
3.5
1

3

2
PANE_WIDTH:0
70
0
0
ATTDEF
8
0
10
0.000000
20
0.000000
30
0.0
40
3.5
1

3

2
MIN_VETRO:0
70
0
0
ATTDEF
8
0
10
0.000000
20
0.000000
30
0.0
40
3.5
1

3

2
MAX_VETRO:0
70
0
0
ATTDEF
8
0
10
0.000000
20
0.000000
30
0.0
40
3.5
1

3

2
JX:0
70
0
0
ATTDEF
8
0
10
0.000000
20
0.000000
30
0.0
40
3.5
1

3

2
WX:0
70
0
0
ATTDEF
8
0
10
0.000000
20
0.000000
30
0.0
40
3.5
1

3

2
JY:0
70
0
0
ATTDEF
8
0
10
0.000000
20
0.000000
30
0.0
40
3.5
1

3

2
WY:0
70
0
0
ATTDEF
8
0
10
4109.998880
20
1296.257668
30
0.0
40
3.5
1

3

2
VC_START
70
0
0
ATTDEF
8
0
10
4137.598880
20
1267.257668
30
0.0
40
3.5
1

3

2
VC_END
70
0
0
ATTDEF
8
0
10
4162.998880
20
1249.757668
30
0.0
40
3.5
1

3

2
FP_LCS_ORIG
70
0
0
ATTDEF
8
0
10
4152.998880
20
1249.757668
30
0.0
40
3.5
1

3

2
FP_LCS_HOT
70
0
0
ATTDEF
8
0
10
4162.998880
20
1259.757668
30
0.0
40
3.5
1

3

2
FP_LCS_INTERN
70
0
0
ENDSEC
0
EOF
