0
SECTION
2
ENTITIES
0
LINE
8
00_ALUMINIO
10
142.250127
20
200.917926
30
0.0
11
140.649996
21
200.917926
31
0.0
0
ARC
8
00_ALUMINIO
10
140.649996
20
200.417926
30
0.0
40
0.500000
50
90.000000
51
180.000000
0
LINE
8
00_ALUMINIO
10
140.149996
20
200.417926
30
0.0
11
140.149996
21
195.617926
31
0.0
0
ARC
8
00_ALUMINIO
10
139.149996
20
195.617926
30
0.0
40
1.000000
50
270.000000
51
0.000000
0
LINE
8
00_ALUMINIO
10
139.149996
20
194.617926
30
0.0
11
136.149996
21
194.617926
31
0.0
0
LINE
8
00_ALUMINIO
10
136.149996
20
194.617926
30
0.0
11
136.149996
21
161.217926
31
0.0
0
LINE
8
00_ALUMINIO
10
136.149996
20
161.217926
30
0.0
11
142.750127
21
161.217926
31
0.0
0
LINE
8
00_ALUMINIO
10
142.750127
20
161.217926
30
0.0
11
142.750127
21
200.417926
31
0.0
0
ARC
8
00_ALUMINIO
10
142.250127
20
200.417926
30
0.0
40
0.500000
50
0.000000
51
90.000000
0
ARC
8
00_ALUMINIO
10
142.157234
20
154.917926
30
0.0
40
0.500000
50
225.000000
51
270.000000
0
LINE
8
00_ALUMINIO
10
141.803680
20
154.564372
30
0.0
11
141.096574
21
155.271479
31
0.0
0
ARC
8
00_ALUMINIO
10
141.450127
20
155.625032
30
0.0
40
0.500000
50
180.000000
51
225.000000
0
LINE
8
00_ALUMINIO
10
140.950127
20
155.625032
30
0.0
11
140.950127
21
156.417926
31
0.0
0
LINE
8
00_ALUMINIO
10
140.950127
20
156.417926
30
0.0
11
142.650127
21
156.417926
31
0.0
0
ARC
8
00_ALUMINIO
10
142.650127
20
156.717926
30
0.0
40
0.300000
50
270.000000
51
0.000000
0
LINE
8
00_ALUMINIO
10
142.950127
20
156.717926
30
0.0
11
142.950127
21
159.117926
31
0.0
0
ARC
8
00_ALUMINIO
10
142.650127
20
159.117926
30
0.0
40
0.300000
50
0.000000
51
90.000000
0
LINE
8
00_ALUMINIO
10
142.650127
20
159.417926
30
0.0
11
134.349996
21
159.417926
31
0.0
0
ARC
8
00_ALUMINIO
10
134.049996
20
159.417926
30
0.0
40
0.300000
50
0.000000
51
90.000000
0
LINE
8
00_ALUMINIO
10
134.049996
20
159.717926
30
0.0
11
133.121753
21
160.031734
31
0.0
0
ARC
8
00_ALUMINIO
10
133.034041
20
159.744843
30
0.0
40
0.300000
50
73.000000
51
168.943882
0
ARC
8
00_ALUMINIO
10
132.445178
20
159.859905
30
0.0
40
0.300000
50
273.000000
51
348.943882
0
LINE
8
00_ALUMINIO
10
132.460878
20
159.560316
30
0.0
11
130.072819
21
159.435163
31
0.0
0
ARC
8
00_ALUMINIO
10
130.057118
20
159.734752
30
0.0
40
0.300000
50
142.753920
51
273.000000
0
LINE
8
00_ALUMINIO
10
129.818305
20
159.916324
30
0.0
11
131.903387
21
162.658735
31
0.0
0
ARC
8
00_ALUMINIO
10
132.017261
20
162.567972
30
0.0
40
0.145621
50
358.000000
51
141.443548
0
LINE
8
00_ALUMINIO
10
132.162794
20
162.562890
30
0.0
11
132.157364
21
162.407403
31
0.0
0
ARC
8
00_ALUMINIO
10
132.357242
20
162.400423
30
0.0
40
0.200000
50
178.000000
51
239.256452
0
LINE
8
00_ALUMINIO
10
132.255003
20
162.228530
30
0.0
11
133.786263
21
161.271635
31
0.0
0
ARC
8
00_ALUMINIO
10
134.063105
20
161.156055
30
0.0
40
0.300000
50
157.339688
51
253.000000
0
LINE
8
00_ALUMINIO
10
133.975393
20
160.869164
30
0.0
11
134.349996
21
160.768344
31
0.0
0
ARC
8
00_ALUMINIO
10
134.349996
20
161.068344
30
0.0
40
0.300000
50
270.000000
51
66.421822
0
ARC
8
00_ALUMINIO
10
134.549996
20
161.526601
30
0.0
40
0.200000
50
180.000000
51
246.421822
0
LINE
8
00_ALUMINIO
10
134.349996
20
161.526601
30
0.0
11
134.349996
21
165.647926
31
0.0
0
ARC
8
00_ALUMINIO
10
134.079996
20
165.647926
30
0.0
40
0.270000
50
0.000000
51
90.000000
0
LINE
8
00_ALUMINIO
10
134.079996
20
165.917926
30
0.0
11
133.749996
21
165.917926
31
0.0
0
LINE
8
00_ALUMINIO
10
133.749996
20
165.917926
30
0.0
11
132.249899
21
165.002263
31
0.0
0
ARC
8
00_ALUMINIO
10
132.049996
20
164.996040
30
0.0
40
0.200000
50
180.000000
51
1.782862
0
LINE
8
00_ALUMINIO
10
131.849996
20
164.996040
30
0.0
11
131.849996
21
166.305824
31
0.0
0
ARC
8
00_ALUMINIO
10
132.849996
20
166.305824
30
0.0
40
1.000000
50
121.400000
51
180.000000
0
LINE
8
00_ALUMINIO
10
132.328986
20
167.159375
30
0.0
11
134.110501
21
168.246816
31
0.0
0
ARC
8
00_ALUMINIO
10
133.849996
20
168.673592
30
0.0
40
0.500000
50
301.400000
51
0.000000
0
LINE
8
00_ALUMINIO
10
134.349996
20
168.673592
30
0.0
11
134.349996
21
195.417926
31
0.0
0
ARC
8
00_ALUMINIO
10
135.349996
20
195.417926
30
0.0
40
1.000000
50
90.000000
51
180.000000
0
ARC
8
00_ALUMINIO
10
135.349996
20
196.917926
30
0.0
40
0.500000
50
270.000000
51
0.000000
0
LINE
8
00_ALUMINIO
10
135.849996
20
196.917926
30
0.0
11
135.849996
21
197.339811
31
0.0
0
ARC
8
00_ALUMINIO
10
136.049996
20
197.339811
30
0.0
40
0.200000
50
358.217138
51
180.000000
0
LINE
8
00_ALUMINIO
10
136.249899
20
197.333589
30
0.0
11
137.749996
21
196.417926
31
0.0
0
LINE
8
00_ALUMINIO
10
137.749996
20
196.417926
30
0.0
11
138.079996
21
196.417926
31
0.0
0
ARC
8
00_ALUMINIO
10
138.079996
20
196.687926
30
0.0
40
0.270000
50
270.000000
51
0.000000
0
LINE
8
00_ALUMINIO
10
138.349996
20
196.687926
30
0.0
11
138.349996
21
200.809250
31
0.0
0
ARC
8
00_ALUMINIO
10
138.549996
20
200.809250
30
0.0
40
0.200000
50
113.578178
51
180.000000
0
ARC
8
00_ALUMINIO
10
138.349996
20
201.267507
30
0.0
40
0.300000
50
293.578179
51
90.000000
0
LINE
8
00_ALUMINIO
10
138.349996
20
201.567507
30
0.0
11
137.975393
21
201.466687
31
0.0
0
ARC
8
00_ALUMINIO
10
138.063105
20
201.179796
30
0.0
40
0.300000
50
107.000000
51
202.660312
0
LINE
8
00_ALUMINIO
10
137.786263
20
201.064216
30
0.0
11
136.255003
21
200.107321
31
0.0
0
ARC
8
00_ALUMINIO
10
136.357242
20
199.935429
30
0.0
40
0.200000
50
120.743548
51
182.000000
0
LINE
8
00_ALUMINIO
10
136.157364
20
199.928449
30
0.0
11
136.162794
21
199.772962
31
0.0
0
ARC
8
00_ALUMINIO
10
136.017261
20
199.767880
30
0.0
40
0.145621
50
218.556452
51
2.000000
0
LINE
8
00_ALUMINIO
10
135.903387
20
199.677116
30
0.0
11
133.818305
21
202.419527
31
0.0
0
ARC
8
00_ALUMINIO
10
134.057118
20
202.601099
30
0.0
40
0.300000
50
87.000000
51
217.246080
0
LINE
8
00_ALUMINIO
10
134.072819
20
202.900688
30
0.0
11
136.460878
21
202.775535
31
0.0
0
ARC
8
00_ALUMINIO
10
136.445178
20
202.475946
30
0.0
40
0.300000
50
11.056118
51
87.000000
0
ARC
8
00_ALUMINIO
10
137.034041
20
202.591008
30
0.0
40
0.300000
50
191.056118
51
287.000000
0
LINE
8
00_ALUMINIO
10
137.121753
20
202.304117
30
0.0
11
138.049996
21
202.617926
31
0.0
0
ARC
8
00_ALUMINIO
10
138.049996
20
202.917926
30
0.0
40
0.300000
50
270.000000
51
0.000000
0
LINE
8
00_ALUMINIO
10
138.349996
20
202.917926
30
0.0
11
141.550127
21
202.917926
31
0.0
0
ARC
8
00_ALUMINIO
10
141.550127
20
203.917926
30
0.0
40
1.000000
50
270.000000
51
0.000000
0
LINE
8
00_ALUMINIO
10
142.550127
20
203.917926
30
0.0
11
142.550127
21
212.217926
31
0.0
0
ARC
8
00_ALUMINIO
10
142.250127
20
212.217926
30
0.0
40
0.300000
50
0.000000
51
90.000000
0
LINE
8
00_ALUMINIO
10
142.250127
20
212.517926
30
0.0
11
140.950127
21
212.517926
31
0.0
0
ARC
8
00_ALUMINIO
10
140.950127
20
213.017926
30
0.0
40
0.500000
50
180.000000
51
270.000000
0
LINE
8
00_ALUMINIO
10
140.450127
20
213.017926
30
0.0
11
140.450127
21
214.867926
31
0.0
0
ARC
8
00_ALUMINIO
10
140.950127
20
214.867926
30
0.0
40
0.500000
50
90.000000
51
180.000000
0
LINE
8
00_ALUMINIO
10
140.950127
20
215.367926
30
0.0
11
141.650127
21
215.367926
31
0.0
0
LINE
8
00_ALUMINIO
10
141.650127
20
215.367926
30
0.0
11
141.650127
21
214.417926
31
0.0
0
ARC
8
00_ALUMINIO
10
141.950127
20
214.417926
30
0.0
40
0.300000
50
180.000000
51
270.000000
0
LINE
8
00_ALUMINIO
10
141.950127
20
214.117926
30
0.0
11
142.750127
21
214.117926
31
0.0
0
ARC
8
00_ALUMINIO
10
142.750127
20
214.617926
30
0.0
40
0.500000
50
270.000000
51
0.000000
0
LINE
8
00_ALUMINIO
10
143.250127
20
214.617926
30
0.0
11
143.250127
21
219.617926
31
0.0
0
ARC
8
00_ALUMINIO
10
142.750127
20
219.617926
30
0.0
40
0.500000
50
0.000000
51
90.000000
0
LINE
8
00_ALUMINIO
10
142.750127
20
220.117926
30
0.0
11
141.950127
21
220.117926
31
0.0
0
ARC
8
00_ALUMINIO
10
141.950127
20
219.817926
30
0.0
40
0.300000
50
90.000000
51
180.000000
0
LINE
8
00_ALUMINIO
10
141.650127
20
219.817926
30
0.0
11
141.650127
21
218.867926
31
0.0
0
LINE
8
00_ALUMINIO
10
141.650127
20
218.867926
30
0.0
11
140.950127
21
218.867926
31
0.0
0
ARC
8
00_ALUMINIO
10
140.950127
20
219.367926
30
0.0
40
0.500000
50
180.000000
51
270.000000
0
LINE
8
00_ALUMINIO
10
140.450127
20
219.367926
30
0.0
11
140.450127
21
221.217926
31
0.0
0
ARC
8
00_ALUMINIO
10
140.950127
20
221.217926
30
0.0
40
0.500000
50
90.000000
51
180.000000
0
LINE
8
00_ALUMINIO
10
140.950127
20
221.717926
30
0.0
11
144.250127
21
221.717926
31
0.0
0
ARC
8
00_ALUMINIO
10
144.250127
20
221.217926
30
0.0
40
0.500000
50
0.000000
51
90.000000
0
LINE
8
00_ALUMINIO
10
144.750127
20
221.217926
30
0.0
11
144.750127
21
154.917926
31
0.0
0
ARC
8
00_ALUMINIO
10
144.250127
20
154.917926
30
0.0
40
0.500000
50
270.000000
51
0.000000
0
LINE
8
00_ALUMINIO
10
144.250127
20
154.417926
30
0.0
11
142.157234
21
154.417926
31
0.0
0
ARC
8
00_ALUMINIO
10
105.849996
20
196.030027
30
0.0
40
1.000000
50
301.400000
51
0.000000
0
LINE
8
00_ALUMINIO
10
106.849996
20
196.030027
30
0.0
11
106.849996
21
197.339811
31
0.0
0
ARC
8
00_ALUMINIO
10
106.649996
20
197.339811
30
0.0
40
0.200000
50
0.000000
51
181.782862
0
LINE
8
00_ALUMINIO
10
106.450093
20
197.333589
30
0.0
11
104.949996
21
196.417926
31
0.0
0
LINE
8
00_ALUMINIO
10
104.949996
20
196.417926
30
0.0
11
104.619996
21
196.417926
31
0.0
0
ARC
8
00_ALUMINIO
10
104.619996
20
196.687926
30
0.0
40
0.270000
50
180.000000
51
270.000000
0
LINE
8
00_ALUMINIO
10
104.349996
20
196.687926
30
0.0
11
104.349996
21
200.809250
31
0.0
0
ARC
8
00_ALUMINIO
10
104.149996
20
200.809250
30
0.0
40
0.200000
50
0.000000
51
66.421822
0
ARC
8
00_ALUMINIO
10
104.349996
20
201.267507
30
0.0
40
0.300000
50
90.000000
51
246.421822
0
LINE
8
00_ALUMINIO
10
104.349996
20
201.567507
30
0.0
11
104.724599
21
201.466687
31
0.0
0
ARC
8
00_ALUMINIO
10
104.636887
20
201.179796
30
0.0
40
0.300000
50
337.339688
51
73.000000
0
LINE
8
00_ALUMINIO
10
104.913729
20
201.064216
30
0.0
11
106.444989
21
200.107321
31
0.0
0
ARC
8
00_ALUMINIO
10
106.342750
20
199.935429
30
0.0
40
0.200000
50
358.000000
51
59.256452
0
LINE
8
00_ALUMINIO
10
106.542628
20
199.928449
30
0.0
11
106.537198
21
199.772962
31
0.0
0
ARC
8
00_ALUMINIO
10
106.682730
20
199.767880
30
0.0
40
0.145621
50
178.000000
51
324.064292
0
LINE
8
00_ALUMINIO
10
106.800636
20
199.682418
30
0.0
11
108.881687
21
202.419527
31
0.0
0
ARC
8
00_ALUMINIO
10
108.642874
20
202.601099
30
0.0
40
0.300000
50
322.753920
51
93.000000
0
LINE
8
00_ALUMINIO
10
108.627173
20
202.900688
30
0.0
11
106.239114
21
202.775535
31
0.0
0
ARC
8
00_ALUMINIO
10
106.254814
20
202.475946
30
0.0
40
0.300000
50
93.000000
51
168.943882
0
ARC
8
00_ALUMINIO
10
105.665951
20
202.591008
30
0.0
40
0.300000
50
253.000000
51
348.943882
0
LINE
8
00_ALUMINIO
10
105.578239
20
202.304117
30
0.0
11
104.599996
21
202.617926
31
0.0
0
ARC
8
00_ALUMINIO
10
104.599996
20
202.917926
30
0.0
40
0.300000
50
180.000000
51
270.000000
0
LINE
8
00_ALUMINIO
10
104.299996
20
202.917926
30
0.0
11
104.299996
21
205.717926
31
0.0
0
ARC
8
00_ALUMINIO
10
103.799996
20
205.717926
30
0.0
40
0.500000
50
0.000000
51
90.000000
0
LINE
8
00_ALUMINIO
10
103.799996
20
206.217926
30
0.0
11
102.700127
21
206.217926
31
0.0
0
ARC
8
00_ALUMINIO
10
102.700127
20
205.717926
30
0.0
40
0.500000
50
90.000000
51
180.000000
0
LINE
8
00_ALUMINIO
10
102.200127
20
205.717926
30
0.0
11
102.200127
21
203.517926
31
0.0
0
ARC
8
00_ALUMINIO
10
101.900127
20
203.517926
30
0.0
40
0.300000
50
270.000000
51
0.000000
0
LINE
8
00_ALUMINIO
10
101.900127
20
203.217926
30
0.0
11
99.750127
21
203.217926
31
0.0
0
ARC
8
00_ALUMINIO
10
99.750127
20
202.917926
30
0.0
40
0.300000
50
90.000000
51
180.000000
0
LINE
8
00_ALUMINIO
10
99.450127
20
202.917926
30
0.0
11
99.450127
21
201.017926
31
0.0
0
ARC
8
00_ALUMINIO
10
99.750127
20
201.017926
30
0.0
40
0.300000
50
180.000000
51
270.000000
0
LINE
8
00_ALUMINIO
10
99.750127
20
200.717926
30
0.0
11
101.900127
21
200.717926
31
0.0
0
ARC
8
00_ALUMINIO
10
101.900127
20
200.417926
30
0.0
40
0.300000
50
0.000000
51
90.000000
0
LINE
8
00_ALUMINIO
10
102.200127
20
200.417926
30
0.0
11
102.200127
21
196.017926
31
0.0
0
ARC
8
00_ALUMINIO
10
101.900127
20
196.017926
30
0.0
40
0.300000
50
270.000000
51
0.000000
0
LINE
8
00_ALUMINIO
10
101.900127
20
195.717926
30
0.0
11
77.500127
21
195.717926
31
0.0
0
ARC
8
00_ALUMINIO
10
77.500127
20
196.017926
30
0.0
40
0.300000
50
180.000000
51
270.000000
0
LINE
8
00_ALUMINIO
10
77.200127
20
196.017926
30
0.0
11
77.200127
21
200.417926
31
0.0
0
ARC
8
00_ALUMINIO
10
77.500127
20
200.417926
30
0.0
40
0.300000
50
90.000000
51
180.000000
0
LINE
8
00_ALUMINIO
10
77.500127
20
200.717926
30
0.0
11
79.650127
21
200.717926
31
0.0
0
ARC
8
00_ALUMINIO
10
79.650127
20
201.017926
30
0.0
40
0.300000
50
270.000000
51
0.000000
0
LINE
8
00_ALUMINIO
10
79.950127
20
201.017926
30
0.0
11
79.950127
21
202.917926
31
0.0
0
ARC
8
00_ALUMINIO
10
79.650127
20
202.917926
30
0.0
40
0.300000
50
0.000000
51
90.000000
0
LINE
8
00_ALUMINIO
10
79.650127
20
203.217926
30
0.0
11
77.500127
21
203.217926
31
0.0
0
ARC
8
00_ALUMINIO
10
77.500127
20
203.517926
30
0.0
40
0.300000
50
180.000000
51
270.000000
0
LINE
8
00_ALUMINIO
10
77.200127
20
203.517926
30
0.0
11
77.200127
21
208.717926
31
0.0
0
ARC
8
00_ALUMINIO
10
76.700127
20
208.717926
30
0.0
40
0.500000
50
0.000000
51
90.000000
0
LINE
8
00_ALUMINIO
10
76.700127
20
209.217926
30
0.0
11
75.550258
21
209.217926
31
0.0
0
ARC
8
00_ALUMINIO
10
75.550258
20
208.717926
30
0.0
40
0.500000
50
90.000000
51
180.000000
0
LINE
8
00_ALUMINIO
10
75.050258
20
208.717926
30
0.0
11
75.050258
21
196.717926
31
0.0
0
ARC
8
00_ALUMINIO
10
74.050258
20
196.717926
30
0.0
40
1.000000
50
270.000000
51
0.000000
0
LINE
8
00_ALUMINIO
10
74.050258
20
195.717926
30
0.0
11
65.250127
21
195.717926
31
0.0
0
ARC
8
00_ALUMINIO
10
65.250127
20
195.217926
30
0.0
40
0.500000
50
90.000000
51
180.000000
0
LINE
8
00_ALUMINIO
10
64.750127
20
195.217926
30
0.0
11
64.750127
21
154.917926
31
0.0
0
ARC
8
00_ALUMINIO
10
65.250127
20
154.917926
30
0.0
40
0.500000
50
180.000000
51
270.000000
0
LINE
8
00_ALUMINIO
10
65.250127
20
154.417926
30
0.0
11
67.343020
21
154.417926
31
0.0
0
ARC
8
00_ALUMINIO
10
67.343020
20
154.917926
30
0.0
40
0.500000
50
270.000000
51
315.000000
0
LINE
8
00_ALUMINIO
10
67.696574
20
154.564372
30
0.0
11
68.403680
21
155.271479
31
0.0
0
ARC
8
00_ALUMINIO
10
68.050127
20
155.625032
30
0.0
40
0.500000
50
315.000000
51
0.000000
0
LINE
8
00_ALUMINIO
10
68.550127
20
155.625032
30
0.0
11
68.550127
21
156.417926
31
0.0
0
LINE
8
00_ALUMINIO
10
68.550127
20
156.417926
30
0.0
11
66.850127
21
156.417926
31
0.0
0
ARC
8
00_ALUMINIO
10
66.850127
20
156.717926
30
0.0
40
0.300000
50
180.000000
51
270.000000
0
LINE
8
00_ALUMINIO
10
66.550127
20
156.717926
30
0.0
11
66.550127
21
159.117926
31
0.0
0
ARC
8
00_ALUMINIO
10
66.850127
20
159.117926
30
0.0
40
0.300000
50
90.000000
51
180.000000
0
LINE
8
00_ALUMINIO
10
66.850127
20
159.417926
30
0.0
11
102.249996
21
159.417926
31
0.0
0
ARC
8
00_ALUMINIO
10
102.249996
20
159.117926
30
0.0
40
0.300000
50
0.000000
51
90.000000
0
LINE
8
00_ALUMINIO
10
102.549996
20
159.117926
30
0.0
11
102.549996
21
156.717926
31
0.0
0
ARC
8
00_ALUMINIO
10
102.249996
20
156.717926
30
0.0
40
0.300000
50
270.000000
51
0.000000
0
LINE
8
00_ALUMINIO
10
102.249996
20
156.417926
30
0.0
11
100.549996
21
156.417926
31
0.0
0
LINE
8
00_ALUMINIO
10
100.549996
20
156.417926
30
0.0
11
100.549996
21
155.625032
31
0.0
0
ARC
8
00_ALUMINIO
10
101.049996
20
155.625032
30
0.0
40
0.500000
50
180.000000
51
225.000000
0
LINE
8
00_ALUMINIO
10
100.696443
20
155.271479
30
0.0
11
101.403549
21
154.564372
31
0.0
0
ARC
8
00_ALUMINIO
10
101.757103
20
154.917926
30
0.0
40
0.500000
50
225.000000
51
270.000000
0
LINE
8
00_ALUMINIO
10
101.757103
20
154.417926
30
0.0
11
103.849996
21
154.417926
31
0.0
0
ARC
8
00_ALUMINIO
10
103.849996
20
154.917926
30
0.0
40
0.500000
50
270.000000
51
0.000000
0
LINE
8
00_ALUMINIO
10
104.349996
20
154.917926
30
0.0
11
104.349996
21
159.417926
31
0.0
0
ARC
8
00_ALUMINIO
10
104.649996
20
159.417926
30
0.0
40
0.300000
50
90.000000
51
180.000000
0
LINE
8
00_ALUMINIO
10
104.649996
20
159.717926
30
0.0
11
105.578239
21
160.031734
31
0.0
0
ARC
8
00_ALUMINIO
10
105.665951
20
159.744843
30
0.0
40
0.300000
50
11.056118
51
107.000000
0
ARC
8
00_ALUMINIO
10
106.254814
20
159.859905
30
0.0
40
0.300000
50
191.056118
51
267.000000
0
LINE
8
00_ALUMINIO
10
106.239114
20
159.560316
30
0.0
11
108.627173
21
159.435163
31
0.0
0
ARC
8
00_ALUMINIO
10
108.642874
20
159.734752
30
0.0
40
0.300000
50
267.000000
51
37.246080
0
LINE
8
00_ALUMINIO
10
108.881687
20
159.916324
30
0.0
11
106.796605
21
162.658735
31
0.0
0
ARC
8
00_ALUMINIO
10
106.650624
20
162.587923
30
0.0
40
0.162249
50
25.876929
51
217.641863
0
ARC
8
00_ALUMINIO
10
106.342750
20
162.400423
30
0.0
40
0.200000
50
303.259504
51
26.234983
0
LINE
8
00_ALUMINIO
10
106.452436
20
162.233184
30
0.0
11
104.913729
21
161.271635
31
0.0
0
ARC
8
00_ALUMINIO
10
104.636887
20
161.156055
30
0.0
40
0.300000
50
287.000000
51
22.660312
0
LINE
8
00_ALUMINIO
10
104.724599
20
160.869164
30
0.0
11
104.349996
21
160.768344
31
0.0
0
ARC
8
00_ALUMINIO
10
104.349996
20
161.068344
30
0.0
40
0.300000
50
113.578178
51
270.000000
0
ARC
8
00_ALUMINIO
10
104.149996
20
161.526601
30
0.0
40
0.200000
50
293.578179
51
0.000000
0
LINE
8
00_ALUMINIO
10
104.349996
20
161.526601
30
0.0
11
104.349996
21
165.647926
31
0.0
0
ARC
8
00_ALUMINIO
10
104.619996
20
165.647926
30
0.0
40
0.270000
50
90.000000
51
180.000000
0
LINE
8
00_ALUMINIO
10
104.619996
20
165.917926
30
0.0
11
104.949996
21
165.917926
31
0.0
0
LINE
8
00_ALUMINIO
10
104.949996
20
165.917926
30
0.0
11
106.450093
21
165.002263
31
0.0
0
ARC
8
00_ALUMINIO
10
106.649996
20
164.996040
30
0.0
40
0.200000
50
178.217138
51
0.000000
0
LINE
8
00_ALUMINIO
10
106.849996
20
164.996040
30
0.0
11
106.849996
21
166.305824
31
0.0
0
ARC
8
00_ALUMINIO
10
105.849996
20
166.305824
30
0.0
40
1.000000
50
0.000000
51
58.600000
0
LINE
8
00_ALUMINIO
10
106.371006
20
167.159375
30
0.0
11
104.828986
21
168.100628
31
0.0
0
ARC
8
00_ALUMINIO
10
105.349996
20
168.954179
30
0.0
40
1.000000
50
180.000000
51
238.600000
0
LINE
8
00_ALUMINIO
10
104.349996
20
168.954179
30
0.0
11
104.349996
21
193.381673
31
0.0
0
ARC
8
00_ALUMINIO
10
105.349996
20
193.381673
30
0.0
40
1.000000
50
121.400000
51
180.000000
0
LINE
8
00_ALUMINIO
10
104.828986
20
194.235223
30
0.0
11
106.371006
21
195.176476
31
0.0
0
ARC
8
00_ALUMINIO
10
98.849996
20
193.517926
30
0.0
40
0.200000
50
0.000000
51
90.000000
0
LINE
8
00_ALUMINIO
10
99.049996
20
193.517926
30
0.0
11
102.549996
21
193.517926
31
0.0
0
LINE
8
00_ALUMINIO
10
102.549996
20
193.517926
30
0.0
11
102.549996
21
161.217926
31
0.0
0
LINE
8
00_ALUMINIO
10
102.549996
20
161.217926
30
0.0
11
66.750127
21
161.217926
31
0.0
0
LINE
8
00_ALUMINIO
10
66.750127
20
161.217926
30
0.0
11
66.750127
21
193.517926
31
0.0
0
LINE
8
00_ALUMINIO
10
66.750127
20
193.517926
30
0.0
11
70.250127
21
193.517926
31
0.0
0
ARC
8
00_ALUMINIO
10
70.450127
20
193.517926
30
0.0
40
0.200000
50
90.000000
51
180.000000
0
LINE
8
00_ALUMINIO
10
70.450127
20
193.717926
30
0.0
11
98.849996
21
193.717926
31
0.0
0
LINE
8
00_POLIAMIDAS
10
105.114983
20
161.658568
30
0.0
11
104.350044
21
162.423507
31
0.0
0
LINE
8
00_POLIAMIDAS
10
106.235708
20
162.305610
30
0.0
11
105.376094
21
163.165224
31
0.0
0
LINE
8
00_POLIAMIDAS
10
110.511162
20
159.797923
30
0.0
11
109.035616
21
161.273469
31
0.0
0
LINE
8
00_POLIAMIDAS
10
107.711159
20
162.597926
30
0.0
11
104.559473
21
165.749612
31
0.0
0
LINE
8
00_POLIAMIDAS
10
112.278929
20
159.797923
30
0.0
11
107.278934
21
164.797918
31
0.0
0
LINE
8
00_POLIAMIDAS
10
114.046696
20
159.797923
30
0.0
11
112.446698
21
161.397921
31
0.0
0
LINE
8
00_POLIAMIDAS
10
115.814463
20
159.797923
30
0.0
11
114.214465
21
161.397921
31
0.0
0
LINE
8
00_POLIAMIDAS
10
117.582230
20
159.797923
30
0.0
11
115.982232
21
161.397921
31
0.0
0
LINE
8
00_POLIAMIDAS
10
119.349997
20
159.797923
30
0.0
11
117.749999
21
161.397921
31
0.0
0
LINE
8
00_POLIAMIDAS
10
121.117764
20
159.797923
30
0.0
11
119.517766
21
161.397921
31
0.0
0
LINE
8
00_POLIAMIDAS
10
122.885530
20
159.797923
30
0.0
11
121.285533
21
161.397921
31
0.0
0
LINE
8
00_POLIAMIDAS
10
124.653297
20
159.797923
30
0.0
11
123.053300
21
161.397921
31
0.0
0
LINE
8
00_POLIAMIDAS
10
126.421064
20
159.797923
30
0.0
11
124.821067
21
161.397921
31
0.0
0
LINE
8
00_POLIAMIDAS
10
128.188831
20
159.797923
30
0.0
11
126.570441
21
161.416313
31
0.0
0
LINE
8
00_POLIAMIDAS
10
129.134564
20
160.619957
30
0.0
11
127.570450
21
162.184071
31
0.0
0
LINE
8
00_POLIAMIDAS
10
129.926051
20
161.596238
30
0.0
11
128.361939
21
163.160350
31
0.0
0
LINE
8
00_POLIAMIDAS
10
130.731885
20
162.558171
30
0.0
11
129.153427
21
164.136628
31
0.0
0
LINE
8
00_POLIAMIDAS
10
133.145516
20
161.912306
30
0.0
11
130.259905
21
164.797917
31
0.0
0
LINE
8
00_POLIAMIDAS
10
134.349949
20
162.475640
30
0.0
11
133.716286
21
163.109303
31
0.0
0
LINE
8
00_POLIAMIDAS
10
133.011373
20
163.814216
30
0.0
11
131.989079
21
164.836510
31
0.0
0
LINE
8
00_POLIAMIDAS
10
134.238215
20
164.355141
30
0.0
11
133.122880
21
165.470476
31
0.0
0
LINE
8
00_POLIAMIDAS
10
134.349949
20
162.423507
30
0.0
11
133.585010
21
161.658568
31
0.0
0
LINE
8
00_POLIAMIDAS
10
133.323899
20
163.165224
30
0.0
11
132.464285
21
162.305610
31
0.0
0
LINE
8
00_POLIAMIDAS
10
134.140520
20
165.749612
30
0.0
11
130.988834
21
162.597926
31
0.0
0
LINE
8
00_POLIAMIDAS
10
129.664377
20
161.273469
30
0.0
11
128.188831
21
159.797923
31
0.0
0
LINE
8
00_POLIAMIDAS
10
131.421060
20
164.797918
30
0.0
11
126.421064
21
159.797923
31
0.0
0
LINE
8
00_POLIAMIDAS
10
126.253295
20
161.397921
30
0.0
11
124.653297
21
159.797923
31
0.0
0
LINE
8
00_POLIAMIDAS
10
124.485528
20
161.397921
30
0.0
11
122.885530
21
159.797923
31
0.0
0
LINE
8
00_POLIAMIDAS
10
122.717761
20
161.397921
30
0.0
11
121.117764
21
159.797923
31
0.0
0
LINE
8
00_POLIAMIDAS
10
120.949994
20
161.397921
30
0.0
11
119.349997
21
159.797923
31
0.0
0
LINE
8
00_POLIAMIDAS
10
119.182227
20
161.397921
30
0.0
11
117.582230
21
159.797923
31
0.0
0
LINE
8
00_POLIAMIDAS
10
117.414460
20
161.397921
30
0.0
11
115.814463
21
159.797923
31
0.0
0
LINE
8
00_POLIAMIDAS
10
115.646693
20
161.397921
30
0.0
11
114.046696
21
159.797923
31
0.0
0
LINE
8
00_POLIAMIDAS
10
113.878926
20
161.397921
30
0.0
11
112.278929
21
159.797923
31
0.0
0
LINE
8
00_POLIAMIDAS
10
112.129552
20
161.416313
30
0.0
11
110.511162
21
159.797923
31
0.0
0
LINE
8
00_POLIAMIDAS
10
111.129543
20
162.184071
30
0.0
11
109.565429
21
160.619957
31
0.0
0
LINE
8
00_POLIAMIDAS
10
110.338054
20
163.160350
30
0.0
11
108.773942
21
161.596238
31
0.0
0
LINE
8
00_POLIAMIDAS
10
109.546566
20
164.136628
30
0.0
11
107.968108
21
162.558171
31
0.0
0
LINE
8
00_POLIAMIDAS
10
108.440088
20
164.797917
30
0.0
11
105.554477
21
161.912306
31
0.0
0
LINE
8
00_POLIAMIDAS
10
106.710914
20
164.836510
30
0.0
11
105.688620
21
163.814216
31
0.0
0
LINE
8
00_POLIAMIDAS
10
104.983707
20
163.109303
30
0.0
11
104.350044
21
162.475640
31
0.0
0
LINE
8
00_POLIAMIDAS
10
105.577113
20
165.470476
30
0.0
11
104.461778
21
164.355141
31
0.0
0
LINE
8
00_POLIAMIDAS
10
119.349997
20
159.797923
30
0.0
11
128.229813
21
159.797923
31
0.0
0
ARC
8
00_POLIAMIDAS
10
128.229813
20
160.297923
30
0.0
40
0.500000
50
270.000000
51
320.967762
0
LINE
8
00_POLIAMIDAS
10
128.618209
20
159.983044
30
0.0
11
130.648087
21
162.486853
31
0.0
0
ARC
8
00_POLIAMIDAS
10
130.881125
20
162.297926
30
0.0
40
0.300000
50
90.000000
51
140.967762
0
LINE
8
00_POLIAMIDAS
10
130.881125
20
162.597926
30
0.0
11
131.743590
21
162.597926
31
0.0
0
ARC
8
00_POLIAMIDAS
10
131.743603
20
161.797878
30
0.0
40
0.800048
50
60.001233
51
90.000929
0
LINE
8
00_POLIAMIDAS
10
132.143613
20
162.490748
30
0.0
11
133.643637
21
161.624720
31
0.0
0
ARC
8
00_POLIAMIDAS
10
133.743636
20
161.797925
30
0.0
40
0.200000
50
240.000304
51
270.000000
0
LINE
8
00_POLIAMIDAS
10
133.743636
20
161.597925
30
0.0
11
133.949949
21
161.597925
31
0.0
0
ARC
8
00_POLIAMIDAS
10
133.949949
20
161.997925
30
0.0
40
0.400000
50
270.000000
51
0.000000
0
LINE
8
00_POLIAMIDAS
10
134.349949
20
161.997925
30
0.0
11
134.349949
21
162.597927
31
0.0
0
LINE
8
00_POLIAMIDAS
10
134.349949
20
162.597927
30
0.0
11
134.250052
21
162.597927
31
0.0
0
LINE
8
00_POLIAMIDAS
10
134.250052
20
162.597927
30
0.0
11
134.250052
21
162.972926
31
0.0
0
ARC
8
00_POLIAMIDAS
10
134.050052
20
162.972926
30
0.0
40
0.200000
50
0.000000
51
90.000000
0
LINE
8
00_POLIAMIDAS
10
134.050052
20
163.172926
30
0.0
11
133.890470
21
163.172926
31
0.0
0
ARC
8
00_POLIAMIDAS
10
133.599996
20
163.697926
30
0.0
40
0.600000
50
180.000000
51
298.955054
0
ARC
8
00_POLIAMIDAS
10
133.599996
20
163.697926
30
0.0
40
0.600000
50
61.044946
51
180.000000
0
LINE
8
00_POLIAMIDAS
10
133.890470
20
164.222925
30
0.0
11
134.050052
21
164.222925
31
0.0
0
ARC
8
00_POLIAMIDAS
10
134.050052
20
164.422925
30
0.0
40
0.200000
50
270.000000
51
0.000000
0
LINE
8
00_POLIAMIDAS
10
134.250052
20
164.422925
30
0.0
11
134.250052
21
164.797924
31
0.0
0
LINE
8
00_POLIAMIDAS
10
134.250052
20
164.797924
30
0.0
11
134.349949
21
164.797924
31
0.0
0
LINE
8
00_POLIAMIDAS
10
134.349949
20
164.797924
30
0.0
11
134.349949
21
165.397926
31
0.0
0
ARC
8
00_POLIAMIDAS
10
133.949949
20
165.397926
30
0.0
40
0.400000
50
0.000000
51
90.000000
0
LINE
8
00_POLIAMIDAS
10
133.949949
20
165.797926
30
0.0
11
133.743636
21
165.797926
31
0.0
0
ARC
8
00_POLIAMIDAS
10
133.743636
20
165.597926
30
0.0
40
0.200000
50
90.000000
51
119.999696
0
LINE
8
00_POLIAMIDAS
10
133.643637
20
165.771132
30
0.0
11
132.143601
21
164.905096
31
0.0
0
ARC
8
00_POLIAMIDAS
10
131.743605
20
165.597918
30
0.0
40
0.800000
50
270.000000
51
299.999696
0
LINE
8
00_POLIAMIDAS
10
131.743605
20
164.797918
30
0.0
11
130.261504
21
164.797918
31
0.0
0
ARC
8
00_POLIAMIDAS
10
130.261504
20
163.597918
30
0.0
40
1.200000
50
90.000000
51
140.967614
0
LINE
8
00_POLIAMIDAS
10
129.329355
20
164.353630
30
0.0
11
127.293295
21
161.842209
31
0.0
0
ARC
8
00_POLIAMIDAS
10
126.361147
20
162.597921
30
0.0
40
1.200000
50
270.000000
51
320.967614
0
LINE
8
00_POLIAMIDAS
10
126.361147
20
161.397921
30
0.0
11
119.349997
21
161.397921
31
0.0
0
LINE
8
00_POLIAMIDAS
10
119.349997
20
161.397921
30
0.0
11
112.338846
21
161.397921
31
0.0
0
ARC
8
00_POLIAMIDAS
10
112.338846
20
162.597921
30
0.0
40
1.200000
50
219.032386
51
270.000000
0
LINE
8
00_POLIAMIDAS
10
111.406698
20
161.842209
30
0.0
11
109.370638
21
164.353630
31
0.0
0
ARC
8
00_POLIAMIDAS
10
108.438490
20
163.597918
30
0.0
40
1.200000
50
39.032386
51
90.000000
0
LINE
8
00_POLIAMIDAS
10
108.438490
20
164.797918
30
0.0
11
106.956389
21
164.797918
31
0.0
0
ARC
8
00_POLIAMIDAS
10
106.956389
20
165.597918
30
0.0
40
0.800000
50
240.000304
51
270.000000
0
LINE
8
00_POLIAMIDAS
10
106.556392
20
164.905096
30
0.0
11
105.056356
21
165.771132
31
0.0
0
ARC
8
00_POLIAMIDAS
10
104.956357
20
165.597926
30
0.0
40
0.200000
50
60.000304
51
90.000000
0
LINE
8
00_POLIAMIDAS
10
104.956357
20
165.797926
30
0.0
11
104.750044
21
165.797926
31
0.0
0
ARC
8
00_POLIAMIDAS
10
104.750044
20
165.397926
30
0.0
40
0.400000
50
90.000000
51
180.000000
0
LINE
8
00_POLIAMIDAS
10
104.350044
20
165.397926
30
0.0
11
104.350044
21
164.797924
31
0.0
0
LINE
8
00_POLIAMIDAS
10
104.350044
20
164.797924
30
0.0
11
104.449941
21
164.797924
31
0.0
0
LINE
8
00_POLIAMIDAS
10
104.449941
20
164.797924
30
0.0
11
104.449941
21
164.422925
31
0.0
0
ARC
8
00_POLIAMIDAS
10
104.649941
20
164.422925
30
0.0
40
0.200000
50
180.000000
51
270.000000
0
LINE
8
00_POLIAMIDAS
10
104.649941
20
164.222925
30
0.0
11
104.809523
21
164.222925
31
0.0
0
ARC
8
00_POLIAMIDAS
10
105.099997
20
163.697926
30
0.0
40
0.600000
50
0.000000
51
118.955054
0
ARC
8
00_POLIAMIDAS
10
105.099997
20
163.697926
30
0.0
40
0.600000
50
241.044946
51
0.000000
0
LINE
8
00_POLIAMIDAS
10
104.809523
20
163.172926
30
0.0
11
104.649941
21
163.172926
31
0.0
0
ARC
8
00_POLIAMIDAS
10
104.649941
20
162.972926
30
0.0
40
0.200000
50
90.000000
51
180.000000
0
LINE
8
00_POLIAMIDAS
10
104.449941
20
162.972926
30
0.0
11
104.449941
21
162.597927
31
0.0
0
LINE
8
00_POLIAMIDAS
10
104.449941
20
162.597927
30
0.0
11
104.350044
21
162.597927
31
0.0
0
LINE
8
00_POLIAMIDAS
10
104.350044
20
162.597927
30
0.0
11
104.350044
21
161.997925
31
0.0
0
ARC
8
00_POLIAMIDAS
10
104.750044
20
161.997925
30
0.0
40
0.400000
50
180.000000
51
270.000000
0
LINE
8
00_POLIAMIDAS
10
104.750044
20
161.597925
30
0.0
11
104.956357
21
161.597925
31
0.0
0
ARC
8
00_POLIAMIDAS
10
104.956357
20
161.797925
30
0.0
40
0.200000
50
270.000000
51
299.999696
0
LINE
8
00_POLIAMIDAS
10
105.056356
20
161.624720
30
0.0
11
106.556381
21
162.490748
31
0.0
0
ARC
8
00_POLIAMIDAS
10
106.956390
20
161.797878
30
0.0
40
0.800048
50
89.999071
51
119.998767
0
LINE
8
00_POLIAMIDAS
10
106.956403
20
162.597926
30
0.0
11
107.818868
21
162.597926
31
0.0
0
ARC
8
00_POLIAMIDAS
10
107.818868
20
162.297926
30
0.0
40
0.300000
50
39.032238
51
90.000000
0
LINE
8
00_POLIAMIDAS
10
108.051906
20
162.486853
30
0.0
11
110.081784
21
159.983044
31
0.0
0
ARC
8
00_POLIAMIDAS
10
110.470180
20
160.297923
30
0.0
40
0.500000
50
219.032238
51
270.000000
0
LINE
8
00_POLIAMIDAS
10
110.470180
20
159.797923
30
0.0
11
119.349997
21
159.797923
31
0.0
0
LINE
8
00_POLIAMIDAS
10
104.450417
20
199.360616
30
0.0
11
105.535458
21
200.445657
31
0.0
0
LINE
8
00_POLIAMIDAS
10
104.449996
20
197.592428
30
0.0
11
104.930573
21
198.073005
31
0.0
0
LINE
8
00_POLIAMIDAS
10
105.675579
20
198.818011
30
0.0
11
106.670654
21
199.813086
31
0.0
0
LINE
8
00_POLIAMIDAS
10
105.396799
20
196.771464
30
0.0
11
110.973923
21
202.348588
31
0.0
0
LINE
8
00_POLIAMIDAS
10
107.891689
20
197.498588
30
0.0
11
112.741689
21
202.348588
31
0.0
0
LINE
8
00_POLIAMIDAS
10
112.709456
20
200.548588
30
0.0
11
114.509456
21
202.348588
31
0.0
0
LINE
8
00_POLIAMIDAS
10
114.477223
20
200.548588
30
0.0
11
116.277223
21
202.348588
31
0.0
0
LINE
8
00_POLIAMIDAS
10
116.244990
20
200.548588
30
0.0
11
118.044990
21
202.348588
31
0.0
0
LINE
8
00_POLIAMIDAS
10
118.012757
20
200.548588
30
0.0
11
119.812757
21
202.348588
31
0.0
0
LINE
8
00_POLIAMIDAS
10
119.780524
20
200.548588
30
0.0
11
121.580524
21
202.348588
31
0.0
0
LINE
8
00_POLIAMIDAS
10
121.548291
20
200.548588
30
0.0
11
123.348291
21
202.348588
31
0.0
0
LINE
8
00_POLIAMIDAS
10
123.316058
20
200.548588
30
0.0
11
125.116058
21
202.348588
31
0.0
0
LINE
8
00_POLIAMIDAS
10
125.083825
20
200.548588
30
0.0
11
126.883825
21
202.348588
31
0.0
0
LINE
8
00_POLIAMIDAS
10
126.851592
20
200.548588
30
0.0
11
128.651592
21
202.348588
31
0.0
0
LINE
8
00_POLIAMIDAS
10
128.619359
20
200.548588
30
0.0
11
130.419359
21
202.348588
31
0.0
0
LINE
8
00_POLIAMIDAS
10
130.387126
20
200.548588
30
0.0
11
132.187126
21
202.348588
31
0.0
0
LINE
8
00_POLIAMIDAS
10
131.907063
20
200.300757
30
0.0
11
133.657382
21
202.051076
31
0.0
0
LINE
8
00_POLIAMIDAS
10
132.685632
20
199.311559
30
0.0
11
134.354757
21
200.980685
31
0.0
0
LINE
8
00_POLIAMIDAS
10
133.365454
20
198.223615
30
0.0
11
135.102279
21
199.960440
31
0.0
0
LINE
8
00_POLIAMIDAS
10
134.408194
20
197.498588
30
0.0
11
137.615802
21
200.706196
31
0.0
0
LINE
8
00_POLIAMIDAS
10
136.126543
20
197.449170
30
0.0
11
137.061449
21
198.384076
31
0.0
0
LINE
8
00_POLIAMIDAS
10
137.864881
20
199.187508
30
0.0
11
138.249996
21
199.572623
31
0.0
0
LINE
8
00_POLIAMIDAS
10
137.248298
20
196.803158
30
0.0
11
138.249996
21
197.804856
31
0.0
0
LINE
8
00_POLIAMIDAS
10
105.668998
20
196.928618
30
0.0
11
104.521102
21
198.076514
31
0.0
0
LINE
8
00_POLIAMIDAS
10
106.866796
20
197.498588
30
0.0
11
105.699754
21
198.665629
31
0.0
0
LINE
8
00_POLIAMIDAS
10
105.117038
20
199.248346
30
0.0
11
104.349996
21
200.015387
31
0.0
0
LINE
8
00_POLIAMIDAS
10
108.597370
20
197.535780
30
0.0
11
105.895179
21
200.237971
31
0.0
0
LINE
8
00_POLIAMIDAS
10
109.466353
20
198.434564
30
0.0
11
107.783963
21
200.116954
31
0.0
0
LINE
8
00_POLIAMIDAS
10
110.146176
20
199.522508
30
0.0
11
108.477051
21
201.191633
31
0.0
0
LINE
8
00_POLIAMIDAS
10
111.014832
20
200.421619
30
0.0
11
109.233927
21
202.202524
31
0.0
0
LINE
8
00_POLIAMIDAS
10
112.655630
20
200.548588
30
0.0
11
110.855630
21
202.348588
31
0.0
0
LINE
8
00_POLIAMIDAS
10
114.423397
20
200.548588
30
0.0
11
112.623397
21
202.348588
31
0.0
0
LINE
8
00_POLIAMIDAS
10
116.191164
20
200.548588
30
0.0
11
114.391164
21
202.348588
31
0.0
0
LINE
8
00_POLIAMIDAS
10
117.958931
20
200.548588
30
0.0
11
116.158931
21
202.348588
31
0.0
0
LINE
8
00_POLIAMIDAS
10
119.726698
20
200.548588
30
0.0
11
117.926698
21
202.348588
31
0.0
0
LINE
8
00_POLIAMIDAS
10
121.494465
20
200.548588
30
0.0
11
119.694465
21
202.348588
31
0.0
0
LINE
8
00_POLIAMIDAS
10
123.262232
20
200.548588
30
0.0
11
121.462232
21
202.348588
31
0.0
0
LINE
8
00_POLIAMIDAS
10
125.029999
20
200.548588
30
0.0
11
123.229999
21
202.348588
31
0.0
0
LINE
8
00_POLIAMIDAS
10
126.797766
20
200.548588
30
0.0
11
124.997766
21
202.348588
31
0.0
0
LINE
8
00_POLIAMIDAS
10
128.565533
20
200.548588
30
0.0
11
126.765533
21
202.348588
31
0.0
0
LINE
8
00_POLIAMIDAS
10
130.333300
20
200.548588
30
0.0
11
128.533300
21
202.348588
31
0.0
0
LINE
8
00_POLIAMIDAS
10
135.151067
20
197.498588
30
0.0
11
130.301067
21
202.348588
31
0.0
0
LINE
8
00_POLIAMIDAS
10
137.868834
20
196.548588
30
0.0
11
132.068834
21
202.348588
31
0.0
0
LINE
8
00_POLIAMIDAS
10
138.249638
20
197.935551
30
0.0
11
138.061959
21
198.123230
31
0.0
0
LINE
8
00_POLIAMIDAS
10
137.145220
20
199.039968
30
0.0
11
136.261119
21
199.924069
31
0.0
0
LINE
8
00_POLIAMIDAS
10
138.249996
20
199.702959
30
0.0
11
137.381838
21
200.571117
31
0.0
0
LINE
8
00_POLIAMIDAS
10
131.081187
20
200.548588
30
0.0
11
121.349996
21
200.548588
31
0.0
0
LINE
8
00_POLIAMIDAS
10
121.349996
20
200.548588
30
0.0
11
111.618805
21
200.548588
31
0.0
0
ARC
8
00_POLIAMIDAS
10
111.618805
20
199.048588
30
0.0
40
1.500000
50
90.000000
51
148.000000
0
LINE
8
00_POLIAMIDAS
10
110.346733
20
199.843467
30
0.0
11
109.175229
21
197.968668
31
0.0
0
ARC
8
00_POLIAMIDAS
10
108.327181
20
198.498588
30
0.0
40
1.000000
50
270.000000
51
328.000000
0
LINE
8
00_POLIAMIDAS
10
108.327181
20
197.498588
30
0.0
11
106.790188
21
197.498588
31
0.0
0
ARC
8
00_POLIAMIDAS
10
106.790188
20
196.998588
30
0.0
40
0.500000
50
90.000000
51
120.000000
0
LINE
8
00_POLIAMIDAS
10
106.540188
20
197.431600
30
0.0
11
105.057176
21
196.575383
31
0.0
0
ARC
8
00_POLIAMIDAS
10
104.957176
20
196.748588
30
0.0
40
0.200000
50
270.000000
51
300.000000
0
LINE
8
00_POLIAMIDAS
10
104.957176
20
196.548588
30
0.0
11
104.749996
21
196.548588
31
0.0
0
ARC
8
00_POLIAMIDAS
10
104.749996
20
196.948588
30
0.0
40
0.400000
50
180.000000
51
270.000000
0
LINE
8
00_POLIAMIDAS
10
104.349996
20
196.948588
30
0.0
11
104.349996
21
197.294998
31
0.0
0
ARC
8
00_POLIAMIDAS
10
104.649996
20
197.294998
30
0.0
40
0.300000
50
150.000000
51
180.000000
0
LINE
8
00_POLIAMIDAS
10
104.390188
20
197.444998
30
0.0
11
104.449996
21
197.548588
31
0.0
0
LINE
8
00_POLIAMIDAS
10
104.449996
20
197.548588
30
0.0
11
104.449996
21
197.923588
31
0.0
0
ARC
8
00_POLIAMIDAS
10
104.649996
20
197.923588
30
0.0
40
0.200000
50
90.000000
51
180.000000
0
LINE
8
00_POLIAMIDAS
10
104.649996
20
198.123588
30
0.0
11
104.761802
21
198.123588
31
0.0
0
LINE
8
00_POLIAMIDAS
10
104.846351
20
198.104838
30
0.0
11
104.761802
21
198.123588
31
0.0
0
ARC
8
00_POLIAMIDAS
10
105.099996
20
198.648588
30
0.0
40
0.600000
50
244.992167
51
115.007833
0
LINE
8
00_POLIAMIDAS
10
104.761802
20
199.173588
30
0.0
11
104.846351
21
199.192338
31
0.0
0
LINE
8
00_POLIAMIDAS
10
104.761802
20
199.173588
30
0.0
11
104.649996
21
199.173588
31
0.0
0
ARC
8
00_POLIAMIDAS
10
104.649996
20
199.373588
30
0.0
40
0.200000
50
180.000000
51
270.000000
0
LINE
8
00_POLIAMIDAS
10
104.449996
20
199.373588
30
0.0
11
104.449996
21
199.748588
31
0.0
0
LINE
8
00_POLIAMIDAS
10
104.449996
20
199.748588
30
0.0
11
104.390188
21
199.852178
31
0.0
0
ARC
8
00_POLIAMIDAS
10
104.649996
20
200.002178
30
0.0
40
0.300000
50
180.000000
51
210.000000
0
LINE
8
00_POLIAMIDAS
10
104.349996
20
200.002178
30
0.0
11
104.349996
21
200.348588
31
0.0
0
ARC
8
00_POLIAMIDAS
10
104.749996
20
200.348588
30
0.0
40
0.400000
50
90.000000
51
180.000000
0
LINE
8
00_POLIAMIDAS
10
104.749996
20
200.748588
30
0.0
11
104.957176
21
200.748588
31
0.0
0
ARC
8
00_POLIAMIDAS
10
104.957176
20
200.548588
30
0.0
40
0.200000
50
60.000000
51
90.000000
0
LINE
8
00_POLIAMIDAS
10
105.057176
20
200.721793
30
0.0
11
106.540188
21
199.865575
31
0.0
0
ARC
8
00_POLIAMIDAS
10
106.790188
20
200.298588
30
0.0
40
0.500000
50
240.000000
51
270.000000
0
LINE
8
00_POLIAMIDAS
10
106.790188
20
199.798588
30
0.0
11
107.052270
21
199.798588
31
0.0
0
ARC
8
00_POLIAMIDAS
10
107.052270
20
200.798588
30
0.0
40
1.000000
50
270.000000
51
328.000000
0
LINE
8
00_POLIAMIDAS
10
107.900318
20
200.268668
30
0.0
11
108.906257
21
201.878507
31
0.0
0
ARC
8
00_POLIAMIDAS
10
109.754305
20
201.348588
30
0.0
40
1.000000
50
90.000000
51
148.000000
0
LINE
8
00_POLIAMIDAS
10
109.754305
20
202.348588
30
0.0
11
121.349996
21
202.348588
31
0.0
0
LINE
8
00_POLIAMIDAS
10
121.349996
20
202.348588
30
0.0
11
132.945687
21
202.348588
31
0.0
0
ARC
8
00_POLIAMIDAS
10
132.945687
20
201.348588
30
0.0
40
1.000000
50
32.000000
51
90.000000
0
LINE
8
00_POLIAMIDAS
10
133.793735
20
201.878507
30
0.0
11
134.799674
21
200.268668
31
0.0
0
ARC
8
00_POLIAMIDAS
10
135.647722
20
200.798588
30
0.0
40
1.000000
50
212.000000
51
270.000000
0
LINE
8
00_POLIAMIDAS
10
135.647722
20
199.798588
30
0.0
11
135.909804
21
199.798588
31
0.0
0
ARC
8
00_POLIAMIDAS
10
135.909804
20
200.298588
30
0.0
40
0.500000
50
270.000000
51
300.000000
0
LINE
8
00_POLIAMIDAS
10
136.159804
20
199.865575
30
0.0
11
137.642816
21
200.721793
31
0.0
0
ARC
8
00_POLIAMIDAS
10
137.742816
20
200.548588
30
0.0
40
0.200000
50
90.000000
51
120.000000
0
LINE
8
00_POLIAMIDAS
10
137.742816
20
200.748588
30
0.0
11
137.949996
21
200.748588
31
0.0
0
ARC
8
00_POLIAMIDAS
10
137.949996
20
200.348588
30
0.0
40
0.400000
50
0.000000
51
90.000000
0
LINE
8
00_POLIAMIDAS
10
138.349996
20
200.348588
30
0.0
11
138.349996
21
200.002178
31
0.0
0
ARC
8
00_POLIAMIDAS
10
138.049996
20
200.002178
30
0.0
40
0.300000
50
330.000000
51
0.000000
0
LINE
8
00_POLIAMIDAS
10
138.309804
20
199.852178
30
0.0
11
138.249996
21
199.748588
31
0.0
0
LINE
8
00_POLIAMIDAS
10
138.249996
20
199.748588
30
0.0
11
138.249996
21
199.373588
31
0.0
0
ARC
8
00_POLIAMIDAS
10
138.049996
20
199.373588
30
0.0
40
0.200000
50
270.000000
51
0.000000
0
LINE
8
00_POLIAMIDAS
10
138.049996
20
199.173588
30
0.0
11
137.938190
21
199.173588
31
0.0
0
LINE
8
00_POLIAMIDAS
10
137.853641
20
199.192338
30
0.0
11
137.938190
21
199.173588
31
0.0
0
ARC
8
00_POLIAMIDAS
10
137.599996
20
198.648588
30
0.0
40
0.600000
50
64.992167
51
295.007833
0
LINE
8
00_POLIAMIDAS
10
137.938190
20
198.123588
30
0.0
11
137.853641
21
198.104838
31
0.0
0
LINE
8
00_POLIAMIDAS
10
137.938190
20
198.123588
30
0.0
11
138.049996
21
198.123588
31
0.0
0
ARC
8
00_POLIAMIDAS
10
138.049996
20
197.923588
30
0.0
40
0.200000
50
0.000000
51
90.000000
0
LINE
8
00_POLIAMIDAS
10
138.249996
20
197.923588
30
0.0
11
138.249996
21
197.548588
31
0.0
0
LINE
8
00_POLIAMIDAS
10
138.249996
20
197.548588
30
0.0
11
138.309804
21
197.444998
31
0.0
0
ARC
8
00_POLIAMIDAS
10
138.049996
20
197.294998
30
0.0
40
0.300000
50
0.000000
51
30.000000
0
LINE
8
00_POLIAMIDAS
10
138.349996
20
197.294998
30
0.0
11
138.349996
21
196.948588
31
0.0
0
ARC
8
00_POLIAMIDAS
10
137.949996
20
196.948588
30
0.0
40
0.400000
50
270.000000
51
0.000000
0
LINE
8
00_POLIAMIDAS
10
137.949996
20
196.548588
30
0.0
11
137.742816
21
196.548588
31
0.0
0
ARC
8
00_POLIAMIDAS
10
137.742816
20
196.748588
30
0.0
40
0.200000
50
240.000000
51
270.000000
0
LINE
8
00_POLIAMIDAS
10
137.642816
20
196.575383
30
0.0
11
136.159804
21
197.431600
31
0.0
0
ARC
8
00_POLIAMIDAS
10
135.909804
20
196.998588
30
0.0
40
0.500000
50
60.000000
51
90.000000
0
LINE
8
00_POLIAMIDAS
10
135.909804
20
197.498588
30
0.0
11
134.372811
21
197.498588
31
0.0
0
ARC
8
00_POLIAMIDAS
10
134.372811
20
198.498588
30
0.0
40
1.000000
50
212.000000
51
270.000000
0
LINE
8
00_POLIAMIDAS
10
133.524763
20
197.968668
30
0.0
11
132.353259
21
199.843467
31
0.0
0
ARC
8
00_POLIAMIDAS
10
131.081187
20
199.048588
30
0.0
40
1.500000
50
32.000000
51
90.000000
0
ATTDEF
8
0
10
0.000000
20
0.000000
30
0.0
40
3.5
1

3

2
PANE_WIDTH:0
70
0
0
ATTDEF
8
0
10
0.000000
20
0.000000
30
0.0
40
3.5
1

3

2
MIN_VETRO:0
70
0
0
ATTDEF
8
0
10
0.000000
20
0.000000
30
0.0
40
3.5
1

3

2
MAX_VETRO:0
70
0
0
ATTDEF
8
0
10
0.000000
20
0.000000
30
0.0
40
3.5
1

3

2
JX:0
70
0
0
ATTDEF
8
0
10
0.000000
20
0.000000
30
0.0
40
3.5
1

3

2
WX:0
70
0
0
ATTDEF
8
0
10
0.000000
20
0.000000
30
0.0
40
3.5
1

3

2
JY:0
70
0
0
ATTDEF
8
0
10
0.000000
20
0.000000
30
0.0
40
3.5
1

3

2
WY:0
70
0
0
ATTDEF
8
0
10
0.000000
20
0.000000
30
0.0
40
3.5
1

3

2
DESC:Marco
70
0
0
ATTDEF
8
0
10
0.000000
20
0.000000
30
0.0
40
3.5
1

3

2
DENS:2.0701
70
0
0
ATTDEF
8
0
10
0.000000
20
0.000000
30
0.0
40
3.5
1

3

2
TDEV:69.15
70
0
0
ATTDEF
8
0
10
0.000000
20
0.000000
30
0.0
40
3.5
1

3

2
TDEV2:0
70
0
0
ATTDEF
8
0
10
0.000000
20
0.000000
30
0.0
40
3.5
1

3

2
TDEV3:0
70
0
0
ATTDEF
8
0
10
0.000000
20
0.000000
30
0.0
40
3.5
1

3

2
TDEV4:0
70
0
0
ATTDEF
8
0
10
0.000000
20
0.000000
30
0.0
40
3.5
1

3

2
TDEV5:0
70
0
0
ATTDEF
8
0
10
0.000000
20
0.000000
30
0.0
40
3.5
1

3

2
PANE_WIDTH:0
70
0
0
ATTDEF
8
0
10
0.000000
20
0.000000
30
0.0
40
3.5
1

3

2
MIN_VETRO:0
70
0
0
ATTDEF
8
0
10
0.000000
20
0.000000
30
0.0
40
3.5
1

3

2
MAX_VETRO:0
70
0
0
ATTDEF
8
0
10
0.000000
20
0.000000
30
0.0
40
3.5
1

3

2
JX:0
70
0
0
ATTDEF
8
0
10
0.000000
20
0.000000
30
0.0
40
3.5
1

3

2
WX:0
70
0
0
ATTDEF
8
0
10
0.000000
20
0.000000
30
0.0
40
3.5
1

3

2
JY:0
70
0
0
ATTDEF
8
0
10
0.000000
20
0.000000
30
0.0
40
3.5
1

3

2
WY:0
70
0
0
ENDSEC
0
EOF
