0
SECTION
2
ENTITIES
0
LINE
8
0
10
2469.470156
20
1231.706153
30
0.0
11
2470.619753
21
1232.855749
31
0.0
0
LINE
8
0
10
2469.294010
20
1229.284943
30
0.0
11
2475.272780
21
1235.263713
31
0.0
0
LINE
8
0
10
2472.317844
20
1230.063713
30
0.0
11
2474.678575
21
1232.424444
31
0.0
0
LINE
8
0
10
2475.473108
20
1233.218977
30
0.0
11
2477.517844
21
1235.263713
31
0.0
0
LINE
8
0
10
2477.762908
20
1233.263713
30
0.0
11
2479.762908
21
1235.263713
31
0.0
0
LINE
8
0
10
2480.007972
20
1233.263713
30
0.0
11
2482.007972
21
1235.263713
31
0.0
0
LINE
8
0
10
2482.253036
20
1233.263713
30
0.0
11
2484.253036
21
1235.263713
31
0.0
0
LINE
8
0
10
2484.498100
20
1233.263713
30
0.0
11
2486.498100
21
1235.263713
31
0.0
0
LINE
8
0
10
2486.743130
20
1233.263678
30
0.0
11
2488.501275
21
1235.021823
31
0.0
0
LINE
8
0
10
2487.953320
20
1232.228804
30
0.0
11
2489.393180
21
1233.668664
31
0.0
0
LINE
8
0
10
2488.842160
20
1230.872581
30
0.0
11
2490.331284
21
1232.361705
31
0.0
0
LINE
8
0
10
2490.278356
20
1230.063713
30
0.0
11
2493.224274
21
1233.009630
31
0.0
0
LINE
8
0
10
2491.913995
20
1229.454287
30
0.0
11
2493.064006
21
1230.604298
31
0.0
0
LINE
8
0
10
2469.261232
20
1186.595948
30
0.0
11
2470.406319
21
1187.741035
31
0.0
0
LINE
8
0
10
2469.116514
20
1184.206166
30
0.0
11
2471.925089
21
1187.014741
31
0.0
0
LINE
8
0
10
2472.168462
20
1185.013051
30
0.0
11
2473.859465
21
1186.704054
31
0.0
0
LINE
8
0
10
2473.348035
20
1183.947559
30
0.0
11
2474.784065
21
1185.383589
31
0.0
0
LINE
8
0
10
2474.272634
20
1182.627094
30
0.0
11
2475.828059
21
1184.182520
31
0.0
0
LINE
8
0
10
2476.003655
20
1182.113051
30
0.0
11
2478.003655
21
1184.113051
31
0.0
0
LINE
8
0
10
2478.248719
20
1182.113051
30
0.0
11
2480.248719
21
1184.113051
31
0.0
0
LINE
8
0
10
2480.493783
20
1182.113051
30
0.0
11
2485.393783
21
1187.013051
31
0.0
0
LINE
8
0
10
2482.738847
20
1182.113051
30
0.0
11
2485.516114
21
1184.890318
31
0.0
0
LINE
8
0
10
2485.580872
20
1184.955076
30
0.0
11
2488.737285
21
1188.111489
31
0.0
0
LINE
8
0
10
2487.390802
20
1184.519942
30
0.0
11
2488.287396
21
1185.416536
31
0.0
0
LINE
8
0
10
2469.539849
20
1183.913051
30
0.0
11
2469.101969
21
1184.350930
31
0.0
0
LINE
8
0
10
2471.044464
20
1184.653499
30
0.0
11
2470.184402
21
1185.513562
31
0.0
0
LINE
8
0
10
2475.829977
20
1182.113051
30
0.0
11
2469.922878
21
1188.020150
31
0.0
0
LINE
8
0
10
2478.075041
20
1182.113051
30
0.0
11
2476.066896
21
1184.121196
31
0.0
0
LINE
8
0
10
2474.736329
20
1185.451763
30
0.0
11
2473.175041
21
1187.013051
31
0.0
0
LINE
8
0
10
2480.320105
20
1182.113051
30
0.0
11
2478.320105
21
1184.113051
31
0.0
0
LINE
8
0
10
2482.565169
20
1182.113051
30
0.0
11
2480.565169
21
1184.113051
31
0.0
0
LINE
8
0
10
2484.081578
20
1182.841706
30
0.0
11
2482.609990
21
1184.313294
31
0.0
0
LINE
8
0
10
2485.006177
20
1184.162171
30
0.0
11
2483.570147
21
1185.598201
31
0.0
0
LINE
8
0
10
2486.417549
20
1184.995863
30
0.0
11
2484.496715
21
1186.916697
31
0.0
0
LINE
8
0
10
2489.101969
20
1184.556507
30
0.0
11
2488.233642
21
1185.424834
31
0.0
0
LINE
8
0
10
2487.763753
20
1185.894723
30
0.0
11
2486.586522
21
1187.071954
31
0.0
0
LINE
8
0
10
2489.001969
20
1186.901571
30
0.0
11
2488.028948
21
1187.874592
31
0.0
0
LINE
8
0
10
2470.941506
20
1229.657738
30
0.0
11
2470.034635
21
1230.564610
31
0.0
0
LINE
8
0
10
2472.765313
20
1230.078995
30
0.0
11
2469.586044
21
1233.258264
31
0.0
0
LINE
8
0
10
2473.881355
20
1231.208018
30
0.0
11
2472.439188
21
1232.650184
31
0.0
0
LINE
8
0
10
2474.770195
20
1232.564241
30
0.0
11
2473.331093
21
1234.003343
31
0.0
0
LINE
8
0
10
2476.315788
20
1233.263713
30
0.0
11
2474.326792
21
1235.252708
31
0.0
0
LINE
8
0
10
2478.560852
20
1233.263713
30
0.0
11
2476.560852
21
1235.263713
31
0.0
0
LINE
8
0
10
2480.805916
20
1233.263713
30
0.0
11
2478.805916
21
1235.263713
31
0.0
0
LINE
8
0
10
2483.050980
20
1233.263713
30
0.0
11
2481.050980
21
1235.263713
31
0.0
0
LINE
8
0
10
2485.296044
20
1233.263713
30
0.0
11
2483.296044
21
1235.263713
31
0.0
0
LINE
8
0
10
2490.747662
20
1230.057159
30
0.0
11
2485.541108
21
1235.263713
31
0.0
0
LINE
8
0
10
2493.251838
20
1229.798046
30
0.0
11
2492.485962
21
1230.563923
31
0.0
0
LINE
8
0
10
2489.416305
20
1233.633580
30
0.0
11
2487.786172
21
1235.263713
31
0.0
0
LINE
8
0
10
2491.902048
20
1231.147836
30
0.0
11
2490.778877
21
1232.271007
31
0.0
0
LINE
8
0
10
2493.151838
20
1232.143110
30
0.0
11
2492.235748
21
1233.059200
31
0.0
0
ARC
8
0
10
2486.215174
20
1188.213051
30
0.0
40
1.200000
50
270.000000
51
300.000000
0
LINE
8
0
10
2486.215174
20
1187.013051
30
0.0
11
2484.717005
21
1187.013051
31
0.0
0
ARC
8
0
10
2484.717005
20
1186.713051
30
0.0
40
0.300000
50
90.000000
51
145.000000
0
LINE
8
0
10
2484.471260
20
1186.885124
30
0.0
11
2482.828818
21
1184.539474
31
0.0
0
ARC
8
0
10
2482.009666
20
1185.113051
30
0.0
40
1.000000
50
270.000000
51
325.000000
0
LINE
8
0
10
2482.009666
20
1184.113051
30
0.0
11
2476.194272
21
1184.113051
31
0.0
0
ARC
8
0
10
2476.194272
20
1185.113051
30
0.0
40
1.000000
50
215.000000
51
270.000000
0
LINE
8
0
10
2475.375120
20
1184.539474
30
0.0
11
2473.732679
21
1186.885124
31
0.0
0
ARC
8
0
10
2473.486933
20
1186.713051
30
0.0
40
0.300000
50
35.000000
51
90.000000
0
LINE
8
0
10
2473.486933
20
1187.013051
30
0.0
11
2471.988764
21
1187.013051
31
0.0
0
ARC
8
0
10
2471.988764
20
1188.213051
30
0.0
40
1.200000
50
240.000000
51
270.000000
0
LINE
8
0
10
2471.388764
20
1187.173820
30
0.0
11
2469.808380
21
1188.086256
31
0.0
0
ARC
8
0
10
2469.708380
20
1187.913051
30
0.0
40
0.200000
50
60.000000
51
90.000000
0
LINE
8
0
10
2469.708380
20
1188.113051
30
0.0
11
2469.501969
21
1188.113051
31
0.0
0
ARC
8
0
10
2469.501969
20
1187.713051
30
0.0
40
0.400000
50
90.000000
51
180.000000
0
LINE
8
0
10
2469.101969
20
1187.713051
30
0.0
11
2469.101969
21
1187.213051
31
0.0
0
ARC
8
0
10
2469.201969
20
1187.213051
30
0.0
40
0.100000
50
180.000000
51
270.000000
0
LINE
8
0
10
2469.201969
20
1187.113051
30
0.0
11
2469.201969
21
1186.738051
31
0.0
0
ARC
8
0
10
2469.401969
20
1186.738051
30
0.0
40
0.200000
50
180.000000
51
270.000000
0
LINE
8
0
10
2469.401969
20
1186.538051
30
0.0
11
2469.513776
21
1186.538051
31
0.0
0
LINE
8
0
10
2469.513776
20
1186.538051
30
0.0
11
2469.598324
21
1186.556801
31
0.0
0
ARC
8
0
10
2469.851969
20
1186.013051
30
0.0
40
0.600000
50
0.000000
51
115.007833
0
ARC
8
0
10
2469.851969
20
1186.013051
30
0.0
40
0.600000
50
244.992167
51
0.000000
0
LINE
8
0
10
2469.598324
20
1185.469301
30
0.0
11
2469.513776
21
1185.488051
31
0.0
0
LINE
8
0
10
2469.513776
20
1185.488051
30
0.0
11
2469.401969
21
1185.488051
31
0.0
0
ARC
8
0
10
2469.401969
20
1185.288051
30
0.0
40
0.200000
50
90.000000
51
180.000000
0
LINE
8
0
10
2469.201969
20
1185.288051
30
0.0
11
2469.201969
21
1184.913051
31
0.0
0
ARC
8
0
10
2469.201969
20
1184.813051
30
0.0
40
0.100000
50
90.000000
51
180.000000
0
LINE
8
0
10
2469.101969
20
1184.813051
30
0.0
11
2469.101969
21
1184.313051
31
0.0
0
ARC
8
0
10
2469.501969
20
1184.313051
30
0.0
40
0.400000
50
180.000000
51
270.000000
0
LINE
8
0
10
2469.501969
20
1183.913051
30
0.0
11
2469.708380
21
1183.913051
31
0.0
0
ARC
8
0
10
2469.708380
20
1184.113051
30
0.0
40
0.200000
50
270.000000
51
300.000000
0
LINE
8
0
10
2469.808380
20
1183.939846
30
0.0
11
2470.801969
21
1184.513495
31
0.0
0
LINE
8
0
10
2470.801969
20
1184.513495
30
0.0
11
2471.388764
21
1184.852281
31
0.0
0
ARC
8
0
10
2471.988764
20
1183.813051
30
0.0
40
1.200000
50
90.000000
51
120.000000
0
LINE
8
0
10
2471.988764
20
1185.013051
30
0.0
11
2472.445799
21
1185.013051
31
0.0
0
ARC
8
0
10
2472.445799
20
1184.713051
30
0.0
40
0.300000
50
35.000000
51
90.000000
0
LINE
8
0
10
2472.691545
20
1184.885124
30
0.0
11
2474.483279
21
1182.326262
31
0.0
0
ARC
8
0
10
2474.892855
20
1182.613051
30
0.0
40
0.500000
50
215.000000
51
270.000000
0
LINE
8
0
10
2474.892855
20
1182.113051
30
0.0
11
2479.832025
21
1182.113051
31
0.0
0
LINE
8
0
10
2479.832025
20
1182.113051
30
0.0
11
2483.311084
21
1182.113051
31
0.0
0
ARC
8
0
10
2483.311084
20
1182.613051
30
0.0
40
0.500000
50
270.000000
51
325.000000
0
LINE
8
0
10
2483.720660
20
1182.326262
30
0.0
11
2485.512394
21
1184.885124
31
0.0
0
ARC
8
0
10
2485.758139
20
1184.713051
30
0.0
40
0.300000
50
90.000000
51
145.000000
0
LINE
8
0
10
2485.758139
20
1185.013051
30
0.0
11
2486.215174
21
1185.013051
31
0.0
0
ARC
8
0
10
2486.215174
20
1183.813051
30
0.0
40
1.200000
50
60.000000
51
90.000000
0
LINE
8
0
10
2486.815174
20
1184.852281
30
0.0
11
2487.401969
21
1184.513495
31
0.0
0
LINE
8
0
10
2487.401969
20
1184.513495
30
0.0
11
2488.395559
21
1183.939846
31
0.0
0
ARC
8
0
10
2488.495559
20
1184.113051
30
0.0
40
0.200000
50
240.000000
51
270.000000
0
LINE
8
0
10
2488.495559
20
1183.913051
30
0.0
11
2488.701969
21
1183.913051
31
0.0
0
ARC
8
0
10
2488.701969
20
1184.313051
30
0.0
40
0.400000
50
270.000000
51
0.000000
0
LINE
8
0
10
2489.101969
20
1184.313051
30
0.0
11
2489.101969
21
1184.813051
31
0.0
0
ARC
8
0
10
2489.001969
20
1184.813051
30
0.0
40
0.100000
50
0.000000
51
90.000000
0
LINE
8
0
10
2489.001969
20
1184.913051
30
0.0
11
2489.001969
21
1185.288051
31
0.0
0
ARC
8
0
10
2488.801969
20
1185.288051
30
0.0
40
0.200000
50
0.000000
51
90.000000
0
LINE
8
0
10
2488.801969
20
1185.488051
30
0.0
11
2488.690163
21
1185.488051
31
0.0
0
LINE
8
0
10
2488.690163
20
1185.488051
30
0.0
11
2488.605615
21
1185.469301
31
0.0
0
ARC
8
0
10
2488.351969
20
1186.013051
30
0.0
40
0.600000
50
180.000000
51
295.007833
0
ARC
8
0
10
2488.351969
20
1186.013051
30
0.0
40
0.600000
50
64.992167
51
180.000000
0
LINE
8
0
10
2488.605615
20
1186.556801
30
0.0
11
2488.690163
21
1186.538051
31
0.0
0
LINE
8
0
10
2488.690163
20
1186.538051
30
0.0
11
2488.801969
21
1186.538051
31
0.0
0
ARC
8
0
10
2488.801969
20
1186.738051
30
0.0
40
0.200000
50
270.000000
51
0.000000
0
LINE
8
0
10
2489.001969
20
1186.738051
30
0.0
11
2489.001969
21
1187.113051
31
0.0
0
ARC
8
0
10
2489.001969
20
1187.213051
30
0.0
40
0.100000
50
270.000000
51
0.000000
0
LINE
8
0
10
2489.101969
20
1187.213051
30
0.0
11
2489.101969
21
1187.713051
31
0.0
0
ARC
8
0
10
2488.701969
20
1187.713051
30
0.0
40
0.400000
50
0.000000
51
90.000000
0
LINE
8
0
10
2488.701969
20
1188.113051
30
0.0
11
2488.495559
21
1188.113051
31
0.0
0
ARC
8
0
10
2488.495559
20
1187.913051
30
0.0
40
0.200000
50
90.000000
51
120.000000
0
LINE
8
0
10
2488.395559
20
1188.086256
30
0.0
11
2487.401969
21
1187.512606
31
0.0
0
LINE
8
0
10
2487.401969
20
1187.512606
30
0.0
11
2486.815174
21
1187.173820
31
0.0
0
LINE
8
0
10
2471.249352
20
1223.223396
30
0.0
11
2471.541214
21
1223.468298
31
0.0
0
LINE
8
0
10
2471.568133
20
1219.579702
30
0.0
11
2471.859996
21
1219.824604
31
0.0
0
LINE
8
0
10
2475.070488
20
1222.518527
30
0.0
11
2475.362351
21
1222.763429
31
0.0
0
LINE
8
0
10
2478.572844
20
1225.457352
30
0.0
11
2478.864707
21
1225.702254
31
0.0
0
LINE
8
0
10
2471.886915
20
1215.936009
30
0.0
11
2472.178778
21
1216.180911
31
0.0
0
LINE
8
0
10
2475.389270
20
1218.874834
30
0.0
11
2475.681133
21
1219.119736
31
0.0
0
LINE
8
0
10
2478.891625
20
1221.813659
30
0.0
11
2479.183488
21
1222.058561
31
0.0
0
LINE
8
0
10
2482.393981
20
1224.752484
30
0.0
11
2482.685843
21
1224.997386
31
0.0
0
LINE
8
0
10
2472.205697
20
1212.292316
30
0.0
11
2472.497560
21
1212.537218
31
0.0
0
LINE
8
0
10
2475.708052
20
1215.231141
30
0.0
11
2475.999915
21
1215.476043
31
0.0
0
LINE
8
0
10
2479.210407
20
1218.169965
30
0.0
11
2479.502270
21
1218.414868
31
0.0
0
LINE
8
0
10
2482.712762
20
1221.108790
30
0.0
11
2483.004625
21
1221.353693
31
0.0
0
LINE
8
0
10
2486.215117
20
1224.047615
30
0.0
11
2486.506980
21
1224.292517
31
0.0
0
LINE
8
0
10
2469.251838
20
1205.902551
30
0.0
11
2469.313986
21
1205.954699
31
0.0
0
LINE
8
0
10
2472.524478
20
1208.648622
30
0.0
11
2472.816341
21
1208.893524
31
0.0
0
LINE
8
0
10
2476.026834
20
1211.587447
30
0.0
11
2476.318696
21
1211.832349
31
0.0
0
LINE
8
0
10
2479.529189
20
1214.526272
30
0.0
11
2479.821052
21
1214.771174
31
0.0
0
LINE
8
0
10
2483.031544
20
1217.465097
30
0.0
11
2483.323407
21
1217.709999
31
0.0
0
LINE
8
0
10
2486.533899
20
1220.403922
30
0.0
11
2486.825762
21
1220.648824
31
0.0
0
LINE
8
0
10
2469.340905
20
1202.066104
30
0.0
11
2469.632768
21
1202.311006
31
0.0
0
LINE
8
0
10
2472.843260
20
1205.004929
30
0.0
11
2473.135123
21
1205.249831
31
0.0
0
LINE
8
0
10
2476.345615
20
1207.943754
30
0.0
11
2476.637478
21
1208.188656
31
0.0
0
LINE
8
0
10
2479.847970
20
1210.882579
30
0.0
11
2480.139833
21
1211.127481
31
0.0
0
LINE
8
0
10
2483.350326
20
1213.821404
30
0.0
11
2483.642189
21
1214.066306
31
0.0
0
LINE
8
0
10
2486.852681
20
1216.760229
30
0.0
11
2487.144544
21
1217.005131
31
0.0
0
LINE
8
0
10
2469.659687
20
1198.422411
30
0.0
11
2469.951550
21
1198.667313
31
0.0
0
LINE
8
0
10
2473.162042
20
1201.361235
30
0.0
11
2473.453905
21
1201.606138
31
0.0
0
LINE
8
0
10
2476.664397
20
1204.300060
30
0.0
11
2476.956260
21
1204.544962
31
0.0
0
LINE
8
0
10
2480.166752
20
1207.238885
30
0.0
11
2480.458615
21
1207.483787
31
0.0
0
LINE
8
0
10
2483.669107
20
1210.177710
30
0.0
11
2483.960970
21
1210.422612
31
0.0
0
LINE
8
0
10
2487.171463
20
1213.116535
30
0.0
11
2487.463325
21
1213.361437
31
0.0
0
LINE
8
0
10
2469.978468
20
1194.778717
30
0.0
11
2470.270331
21
1195.023619
31
0.0
0
LINE
8
0
10
2473.480823
20
1197.717542
30
0.0
11
2473.772686
21
1197.962444
31
0.0
0
LINE
8
0
10
2476.983179
20
1200.656367
30
0.0
11
2477.275042
21
1200.901269
31
0.0
0
LINE
8
0
10
2480.485534
20
1203.595192
30
0.0
11
2480.777397
21
1203.840094
31
0.0
0
LINE
8
0
10
2483.987889
20
1206.534017
30
0.0
11
2484.279752
21
1206.778919
31
0.0
0
LINE
8
0
10
2487.490244
20
1209.472842
30
0.0
11
2487.782107
21
1209.717744
31
0.0
0
LINE
8
0
10
2470.297250
20
1191.135024
30
0.0
11
2470.589113
21
1191.379926
31
0.0
0
LINE
8
0
10
2473.799605
20
1194.073849
30
0.0
11
2474.091468
21
1194.318751
31
0.0
0
LINE
8
0
10
2477.301960
20
1197.012674
30
0.0
11
2477.593823
21
1197.257576
31
0.0
0
LINE
8
0
10
2480.804316
20
1199.951499
30
0.0
11
2481.096179
21
1200.196401
31
0.0
0
LINE
8
0
10
2484.306671
20
1202.890324
30
0.0
11
2484.598534
21
1203.135226
31
0.0
0
LINE
8
0
10
2487.809026
20
1205.829149
30
0.0
11
2488.100889
21
1206.074051
31
0.0
0
LINE
8
0
10
2477.620742
20
1193.368980
30
0.0
11
2477.912605
21
1193.613882
31
0.0
0
LINE
8
0
10
2481.123097
20
1196.307805
30
0.0
11
2481.414960
21
1196.552707
31
0.0
0
LINE
8
0
10
2484.625452
20
1199.246630
30
0.0
11
2484.917315
21
1199.491532
31
0.0
0
LINE
8
0
10
2488.127808
20
1202.185455
30
0.0
11
2488.419671
21
1202.430357
31
0.0
0
LINE
8
0
10
2481.441879
20
1192.664112
30
0.0
11
2481.733742
21
1192.909014
31
0.0
0
LINE
8
0
10
2484.944234
20
1195.602937
30
0.0
11
2485.236097
21
1195.847839
31
0.0
0
LINE
8
0
10
2488.446589
20
1198.541762
30
0.0
11
2488.738452
21
1198.786664
31
0.0
0
LINE
8
0
10
2485.263016
20
1191.959243
30
0.0
11
2485.554879
21
1192.204145
31
0.0
0
LINE
8
0
10
2488.765371
20
1194.898068
30
0.0
11
2489.057234
21
1195.142970
31
0.0
0
LINE
8
0
10
2489.084153
20
1191.254375
30
0.0
11
2489.251838
21
1191.395080
31
0.0
0
LINE
8
0
10
2470.297101
20
1191.135534
30
0.0
11
2470.270536
21
1191.439174
31
0.0
0
LINE
8
0
10
2469.978321
20
1194.779216
30
0.0
11
2469.951756
21
1195.082856
31
0.0
0
LINE
8
0
10
2469.659540
20
1198.422897
30
0.0
11
2469.632975
21
1198.726537
31
0.0
0
LINE
8
0
10
2469.340759
20
1202.066579
30
0.0
11
2469.314194
21
1202.370219
31
0.0
0
LINE
8
0
10
2473.799453
20
1194.074359
30
0.0
11
2473.772888
21
1194.377999
31
0.0
0
LINE
8
0
10
2473.480673
20
1197.718041
30
0.0
11
2473.454108
21
1198.021681
31
0.0
0
LINE
8
0
10
2473.161892
20
1201.361722
30
0.0
11
2473.135327
21
1201.665363
31
0.0
0
LINE
8
0
10
2472.843111
20
1205.005404
30
0.0
11
2472.816546
21
1205.309044
31
0.0
0
LINE
8
0
10
2472.524330
20
1208.649086
30
0.0
11
2472.497765
21
1208.952726
31
0.0
0
LINE
8
0
10
2472.205549
20
1212.292768
30
0.0
11
2472.178984
21
1212.596408
31
0.0
0
LINE
8
0
10
2471.886768
20
1215.936449
30
0.0
11
2471.860203
21
1216.240089
31
0.0
0
LINE
8
0
10
2471.567988
20
1219.580131
30
0.0
11
2471.541422
21
1219.883771
31
0.0
0
LINE
8
0
10
2471.249207
20
1223.223813
30
0.0
11
2471.222642
21
1223.527453
31
0.0
0
LINE
8
0
10
2477.620586
20
1193.369502
30
0.0
11
2477.594021
21
1193.673143
31
0.0
0
LINE
8
0
10
2477.301805
20
1197.013184
30
0.0
11
2477.275240
21
1197.316824
31
0.0
0
LINE
8
0
10
2476.983025
20
1200.656866
30
0.0
11
2476.956460
21
1200.960506
31
0.0
0
LINE
8
0
10
2476.664244
20
1204.300548
30
0.0
11
2476.637679
21
1204.604188
31
0.0
0
LINE
8
0
10
2476.345463
20
1207.944229
30
0.0
11
2476.318898
21
1208.247870
31
0.0
0
LINE
8
0
10
2476.026682
20
1211.587911
30
0.0
11
2476.000117
21
1211.891551
31
0.0
0
LINE
8
0
10
2475.707901
20
1215.231593
30
0.0
11
2475.681336
21
1215.535233
31
0.0
0
LINE
8
0
10
2475.389120
20
1218.875275
30
0.0
11
2475.362555
21
1219.178915
31
0.0
0
LINE
8
0
10
2475.070340
20
1222.518956
30
0.0
11
2475.043774
21
1222.822596
31
0.0
0
LINE
8
0
10
2481.441719
20
1192.664646
30
0.0
11
2481.415154
21
1192.968286
31
0.0
0
LINE
8
0
10
2481.122938
20
1196.308328
30
0.0
11
2481.096373
21
1196.611968
31
0.0
0
LINE
8
0
10
2480.804157
20
1199.952009
30
0.0
11
2480.777592
21
1200.255650
31
0.0
0
LINE
8
0
10
2480.485377
20
1203.595691
30
0.0
11
2480.458812
21
1203.899331
31
0.0
0
LINE
8
0
10
2480.166596
20
1207.239373
30
0.0
11
2480.140031
21
1207.543013
31
0.0
0
LINE
8
0
10
2479.847815
20
1210.883055
30
0.0
11
2479.821250
21
1211.186695
31
0.0
0
LINE
8
0
10
2479.529034
20
1214.526736
30
0.0
11
2479.502469
21
1214.830376
31
0.0
0
LINE
8
0
10
2479.210253
20
1218.170418
30
0.0
11
2479.183688
21
1218.474058
31
0.0
0
LINE
8
0
10
2478.891472
20
1221.814100
30
0.0
11
2478.864907
21
1222.117740
31
0.0
0
LINE
8
0
10
2478.572692
20
1225.457781
30
0.0
11
2478.546126
21
1225.761422
31
0.0
0
LINE
8
0
10
2485.262852
20
1191.959789
30
0.0
11
2485.236287
21
1192.263430
31
0.0
0
LINE
8
0
10
2484.944071
20
1195.603471
30
0.0
11
2484.917506
21
1195.907111
31
0.0
0
LINE
8
0
10
2484.625290
20
1199.247153
30
0.0
11
2484.598725
21
1199.550793
31
0.0
0
LINE
8
0
10
2484.306509
20
1202.890835
30
0.0
11
2484.279944
21
1203.194475
31
0.0
0
LINE
8
0
10
2483.987729
20
1206.534516
30
0.0
11
2483.961164
21
1206.838156
31
0.0
0
LINE
8
0
10
2483.668948
20
1210.178198
30
0.0
11
2483.642383
21
1210.481838
31
0.0
0
LINE
8
0
10
2483.350167
20
1213.821880
30
0.0
11
2483.323602
21
1214.125520
31
0.0
0
LINE
8
0
10
2483.031386
20
1217.465562
30
0.0
11
2483.004821
21
1217.769202
31
0.0
0
LINE
8
0
10
2482.712605
20
1221.109243
30
0.0
11
2482.686040
21
1221.412883
31
0.0
0
LINE
8
0
10
2482.393824
20
1224.752925
30
0.0
11
2482.367259
21
1225.056565
31
0.0
0
LINE
8
0
10
2489.083985
20
1191.254933
30
0.0
11
2489.057420
21
1191.558573
31
0.0
0
LINE
8
0
10
2488.765204
20
1194.898615
30
0.0
11
2488.738639
21
1195.202255
31
0.0
0
LINE
8
0
10
2488.446423
20
1198.542296
30
0.0
11
2488.419858
21
1198.845937
31
0.0
0
LINE
8
0
10
2488.127642
20
1202.185978
30
0.0
11
2488.101077
21
1202.489618
31
0.0
0
LINE
8
0
10
2487.808861
20
1205.829660
30
0.0
11
2487.782296
21
1206.133300
31
0.0
0
LINE
8
0
10
2487.490081
20
1209.473342
30
0.0
11
2487.463516
21
1209.776982
31
0.0
0
LINE
8
0
10
2487.171300
20
1213.117023
30
0.0
11
2487.144735
21
1213.420663
31
0.0
0
LINE
8
0
10
2486.852519
20
1216.760705
30
0.0
11
2486.825954
21
1217.064345
31
0.0
0
LINE
8
0
10
2486.533738
20
1220.404387
30
0.0
11
2486.507173
21
1220.708027
31
0.0
0
LINE
8
0
10
2486.214957
20
1224.048068
30
0.0
11
2486.188392
21
1224.351709
31
0.0
0
LINE
8
0
10
2478.546327
20
1225.762543
30
0.0
11
2478.864755
21
1225.703808
31
0.0
0
LINE
8
0
10
2482.367467
20
1225.057717
30
0.0
11
2482.685895
21
1224.998981
31
0.0
0
LINE
8
0
10
2486.188606
20
1224.352890
30
0.0
11
2486.507034
21
1224.294154
31
0.0
0
LINE
8
0
10
2471.222854
20
1223.528520
30
0.0
11
2471.541282
21
1223.469785
31
0.0
0
LINE
8
0
10
2475.043993
20
1222.823693
30
0.0
11
2475.362422
21
1222.764958
31
0.0
0
LINE
8
0
10
2478.865133
20
1222.118867
30
0.0
11
2479.183561
21
1222.060131
31
0.0
0
LINE
8
0
10
2482.686272
20
1221.414040
30
0.0
11
2483.004700
21
1221.355304
31
0.0
0
LINE
8
0
10
2486.507412
20
1220.709213
30
0.0
11
2486.825840
21
1220.650478
31
0.0
0
LINE
8
0
10
2471.541660
20
1219.884843
30
0.0
11
2471.860088
21
1219.826108
31
0.0
0
LINE
8
0
10
2475.362799
20
1219.180017
30
0.0
11
2475.681227
21
1219.121281
31
0.0
0
LINE
8
0
10
2479.183938
20
1218.475190
30
0.0
11
2479.502367
21
1218.416454
31
0.0
0
LINE
8
0
10
2483.005078
20
1217.770363
30
0.0
11
2483.323506
21
1217.711628
31
0.0
0
LINE
8
0
10
2486.826217
20
1217.065536
30
0.0
11
2487.144646
21
1217.006801
31
0.0
0
LINE
8
0
10
2471.860465
20
1216.241167
30
0.0
11
2472.178894
21
1216.182431
31
0.0
0
LINE
8
0
10
2475.681605
20
1215.536340
30
0.0
11
2476.000033
21
1215.477604
31
0.0
0
LINE
8
0
10
2479.502744
20
1214.831513
30
0.0
11
2479.821172
21
1214.772778
31
0.0
0
LINE
8
0
10
2483.323884
20
1214.126686
30
0.0
11
2483.642312
21
1214.067951
31
0.0
0
LINE
8
0
10
2487.145023
20
1213.421860
30
0.0
11
2487.463451
21
1213.363124
31
0.0
0
LINE
8
0
10
2472.179271
20
1212.597490
30
0.0
11
2472.497699
21
1212.538754
31
0.0
0
LINE
8
0
10
2476.000410
20
1211.892663
30
0.0
11
2476.318839
21
1211.833928
31
0.0
0
LINE
8
0
10
2479.821550
20
1211.187836
30
0.0
11
2480.139978
21
1211.129101
31
0.0
0
LINE
8
0
10
2483.642689
20
1210.483010
30
0.0
11
2483.961118
21
1210.424274
31
0.0
0
LINE
8
0
10
2487.463829
20
1209.778183
30
0.0
11
2487.782257
21
1209.719447
31
0.0
0
LINE
8
0
10
2472.498077
20
1208.953813
30
0.0
11
2472.816505
21
1208.895077
31
0.0
0
LINE
8
0
10
2476.319216
20
1208.248986
30
0.0
11
2476.637644
21
1208.190251
31
0.0
0
LINE
8
0
10
2480.140355
20
1207.544160
30
0.0
11
2480.458784
21
1207.485424
31
0.0
0
LINE
8
0
10
2483.961495
20
1206.839333
30
0.0
11
2484.279923
21
1206.780597
31
0.0
0
LINE
8
0
10
2487.782634
20
1206.134506
30
0.0
11
2488.101063
21
1206.075771
31
0.0
0
LINE
8
0
10
2469.251838
20
1205.967725
30
0.0
11
2469.314171
21
1205.956227
31
0.0
0
LINE
8
0
10
2472.816882
20
1205.310136
30
0.0
11
2473.135311
21
1205.251401
31
0.0
0
LINE
8
0
10
2476.638022
20
1204.605310
30
0.0
11
2476.956450
21
1204.546574
31
0.0
0
LINE
8
0
10
2480.459161
20
1203.900483
30
0.0
11
2480.777589
21
1203.841747
31
0.0
0
LINE
8
0
10
2484.280301
20
1203.195656
30
0.0
11
2484.598729
21
1203.136921
31
0.0
0
LINE
8
0
10
2488.101440
20
1202.490829
30
0.0
11
2488.419868
21
1202.432094
31
0.0
0
LINE
8
0
10
2469.314549
20
1202.371286
30
0.0
11
2469.632977
21
1202.312551
31
0.0
0
LINE
8
0
10
2473.135688
20
1201.666460
30
0.0
11
2473.454116
21
1201.607724
31
0.0
0
LINE
8
0
10
2476.956827
20
1200.961633
30
0.0
11
2477.275256
21
1200.902897
31
0.0
0
LINE
8
0
10
2480.777967
20
1200.256806
30
0.0
11
2481.096395
21
1200.198070
31
0.0
0
LINE
8
0
10
2484.599106
20
1199.551979
30
0.0
11
2484.917535
21
1199.493244
31
0.0
0
LINE
8
0
10
2488.420246
20
1198.847153
30
0.0
11
2488.738674
21
1198.788417
31
0.0
0
LINE
8
0
10
2469.633354
20
1198.727609
30
0.0
11
2469.951783
21
1198.668874
31
0.0
0
LINE
8
0
10
2473.454494
20
1198.022783
30
0.0
11
2473.772922
21
1197.964047
31
0.0
0
LINE
8
0
10
2477.275633
20
1197.317956
30
0.0
11
2477.594061
21
1197.259220
31
0.0
0
LINE
8
0
10
2481.096773
20
1196.613129
30
0.0
11
2481.415201
21
1196.554394
31
0.0
0
LINE
8
0
10
2484.917912
20
1195.908303
30
0.0
11
2485.236340
21
1195.849567
31
0.0
0
LINE
8
0
10
2488.739051
20
1195.203476
30
0.0
11
2489.057480
21
1195.144740
31
0.0
0
LINE
8
0
10
2469.952160
20
1195.083933
30
0.0
11
2470.270588
21
1195.025197
31
0.0
0
LINE
8
0
10
2473.773299
20
1194.379106
30
0.0
11
2474.091728
21
1194.320370
31
0.0
0
LINE
8
0
10
2477.594439
20
1193.674279
30
0.0
11
2477.912867
21
1193.615544
31
0.0
0
LINE
8
0
10
2481.415578
20
1192.969453
30
0.0
11
2481.734007
21
1192.910717
31
0.0
0
LINE
8
0
10
2485.236718
20
1192.264626
30
0.0
11
2485.555146
21
1192.205890
31
0.0
0
LINE
8
0
10
2489.057857
20
1191.559799
30
0.0
11
2489.251838
21
1191.524018
31
0.0
0
LINE
8
0
10
2470.270966
20
1191.440256
30
0.0
11
2470.589394
21
1191.381520
31
0.0
0
LINE
8
0
10
2469.251838
20
1224.265818
30
0.0
11
2469.431916
21
1224.438601
31
0.0
0
LINE
8
0
10
2469.860386
20
1218.621347
30
0.0
11
2470.272763
21
1219.017021
31
0.0
0
LINE
8
0
10
2474.808908
20
1223.369430
30
0.0
11
2475.221285
21
1223.765103
31
0.0
0
LINE
8
0
10
2470.701232
20
1213.199766
30
0.0
11
2471.113609
21
1213.595440
31
0.0
0
LINE
8
0
10
2475.649755
20
1217.947849
30
0.0
11
2476.062132
21
1218.343522
31
0.0
0
LINE
8
0
10
2480.598277
20
1222.695932
30
0.0
11
2481.010654
21
1223.091605
31
0.0
0
LINE
8
0
10
2471.542079
20
1207.778185
30
0.0
11
2471.954456
21
1208.173859
31
0.0
0
LINE
8
0
10
2476.490602
20
1212.526268
30
0.0
11
2476.902978
21
1212.921942
31
0.0
0
LINE
8
0
10
2481.439124
20
1217.274351
30
0.0
11
2481.851501
21
1217.670024
31
0.0
0
LINE
8
0
10
2486.387647
20
1222.022433
30
0.0
11
2486.800023
21
1222.418107
31
0.0
0
LINE
8
0
10
2472.382926
20
1202.356605
30
0.0
11
2472.795302
21
1202.752278
31
0.0
0
LINE
8
0
10
2477.331448
20
1207.104687
30
0.0
11
2477.743825
21
1207.500361
31
0.0
0
LINE
8
0
10
2482.279971
20
1211.852770
30
0.0
11
2482.692347
21
1212.248443
31
0.0
0
LINE
8
0
10
2487.228493
20
1216.600853
30
0.0
11
2487.640870
21
1216.996526
31
0.0
0
LINE
8
0
10
2473.223772
20
1196.935024
30
0.0
11
2473.636149
21
1197.330697
31
0.0
0
LINE
8
0
10
2478.172295
20
1201.683106
30
0.0
11
2478.584672
21
1202.078780
31
0.0
0
LINE
8
0
10
2483.120817
20
1206.431189
30
0.0
11
2483.533194
21
1206.826863
31
0.0
0
LINE
8
0
10
2488.069340
20
1211.179272
30
0.0
11
2488.481717
21
1211.574945
31
0.0
0
LINE
8
0
10
2474.064619
20
1191.513443
30
0.0
11
2474.476996
21
1191.909116
31
0.0
0
LINE
8
0
10
2479.013141
20
1196.261526
30
0.0
11
2479.425518
21
1196.657199
31
0.0
0
LINE
8
0
10
2483.961664
20
1201.009608
30
0.0
11
2484.374041
21
1201.405282
31
0.0
0
LINE
8
0
10
2488.910186
20
1205.757691
30
0.0
11
2489.251838
21
1206.085505
31
0.0
0
LINE
8
0
10
2480.059685
20
1191.037310
30
0.0
11
2480.266365
21
1191.235618
31
0.0
0
LINE
8
0
10
2484.802510
20
1195.588027
30
0.0
11
2485.214887
21
1195.983701
31
0.0
0
LINE
8
0
10
2469.251838
20
1224.459543
30
0.0
11
2469.431625
21
1224.438627
31
0.0
0
LINE
8
0
10
2474.738535
20
1223.821255
30
0.0
11
2475.220982
21
1223.765130
31
0.0
0
LINE
8
0
10
2480.527892
20
1223.147758
30
0.0
11
2481.010338
21
1223.091633
31
0.0
0
LINE
8
0
10
2486.317248
20
1222.474261
30
0.0
11
2486.799695
21
1222.418136
31
0.0
0
LINE
8
0
10
2469.790024
20
1219.073170
30
0.0
11
2470.272471
21
1219.017046
31
0.0
0
LINE
8
0
10
2475.579381
20
1218.399673
30
0.0
11
2476.061827
21
1218.343549
31
0.0
0
LINE
8
0
10
2481.368737
20
1217.726176
30
0.0
11
2481.851184
21
1217.670052
31
0.0
0
LINE
8
0
10
2487.158094
20
1217.052680
30
0.0
11
2487.640540
21
1216.996555
31
0.0
0
LINE
8
0
10
2470.630870
20
1213.651589
30
0.0
11
2471.113316
21
1213.595464
31
0.0
0
LINE
8
0
10
2476.420226
20
1212.978092
30
0.0
11
2476.902673
21
1212.921967
31
0.0
0
LINE
8
0
10
2482.209583
20
1212.304595
30
0.0
11
2482.692029
21
1212.248470
31
0.0
0
LINE
8
0
10
2487.998939
20
1211.631098
30
0.0
11
2488.481385
21
1211.574973
31
0.0
0
LINE
8
0
10
2471.471715
20
1208.230007
30
0.0
11
2471.954161
21
1208.173882
31
0.0
0
LINE
8
0
10
2477.261071
20
1207.556510
30
0.0
11
2477.743518
21
1207.500385
31
0.0
0
LINE
8
0
10
2483.050428
20
1206.883013
30
0.0
11
2483.532874
21
1206.826888
31
0.0
0
LINE
8
0
10
2488.839784
20
1206.209516
30
0.0
11
2489.251838
21
1206.161580
31
0.0
0
LINE
8
0
10
2472.312560
20
1202.808425
30
0.0
11
2472.795007
21
1202.752301
31
0.0
0
LINE
8
0
10
2478.101917
20
1202.134928
30
0.0
11
2478.584363
21
1202.078804
31
0.0
0
LINE
8
0
10
2483.891273
20
1201.461432
30
0.0
11
2484.373720
21
1201.405307
31
0.0
0
LINE
8
0
10
2473.153406
20
1197.386844
30
0.0
11
2473.635852
21
1197.330719
31
0.0
0
LINE
8
0
10
2478.942762
20
1196.713347
30
0.0
11
2479.425209
21
1196.657222
31
0.0
0
LINE
8
0
10
2484.732119
20
1196.039850
30
0.0
11
2485.214565
21
1195.983725
31
0.0
0
LINE
8
0
10
2473.994251
20
1191.965262
30
0.0
11
2474.476697
21
1191.909137
31
0.0
0
LINE
8
0
10
2479.783608
20
1191.291765
30
0.0
11
2480.266054
21
1191.235640
31
0.0
0
LINE
8
0
10
2474.064424
20
1191.513637
30
0.0
11
2473.994353
21
1191.965435
31
0.0
0
LINE
8
0
10
2473.223569
20
1196.935218
30
0.0
11
2473.153498
21
1197.387017
31
0.0
0
LINE
8
0
10
2472.382713
20
1202.356800
30
0.0
11
2472.312642
21
1202.808598
31
0.0
0
LINE
8
0
10
2471.541858
20
1207.778381
30
0.0
11
2471.471787
21
1208.230180
31
0.0
0
LINE
8
0
10
2470.701002
20
1213.199963
30
0.0
11
2470.630931
21
1213.651762
31
0.0
0
LINE
8
0
10
2469.860147
20
1218.621545
30
0.0
11
2469.790075
21
1219.073343
31
0.0
0
LINE
8
0
10
2479.823203
20
1191.037310
30
0.0
11
2479.783711
21
1191.291946
31
0.0
0
LINE
8
0
10
2479.012927
20
1196.261729
30
0.0
11
2478.942855
21
1196.713527
31
0.0
0
LINE
8
0
10
2478.172071
20
1201.683310
30
0.0
11
2478.102000
21
1202.135109
31
0.0
0
LINE
8
0
10
2477.331216
20
1207.104892
30
0.0
11
2477.261144
21
1207.556690
31
0.0
0
LINE
8
0
10
2476.490360
20
1212.526474
30
0.0
11
2476.420289
21
1212.978272
31
0.0
0
LINE
8
0
10
2475.649505
20
1217.948055
30
0.0
11
2475.579433
21
1218.399854
31
0.0
0
LINE
8
0
10
2474.808649
20
1223.369637
30
0.0
11
2474.738578
21
1223.821435
31
0.0
0
LINE
8
0
10
2484.802285
20
1195.588239
30
0.0
11
2484.732213
21
1196.040038
31
0.0
0
LINE
8
0
10
2483.961429
20
1201.009821
30
0.0
11
2483.891358
21
1201.461619
31
0.0
0
LINE
8
0
10
2483.120574
20
1206.431403
30
0.0
11
2483.050502
21
1206.883201
31
0.0
0
LINE
8
0
10
2482.279718
20
1211.852984
30
0.0
11
2482.209647
21
1212.304783
31
0.0
0
LINE
8
0
10
2481.438863
20
1217.274566
30
0.0
11
2481.368791
21
1217.726364
31
0.0
0
LINE
8
0
10
2480.598007
20
1222.696147
30
0.0
11
2480.527936
21
1223.147946
31
0.0
0
LINE
8
0
10
2488.909931
20
1205.757913
30
0.0
11
2488.839860
21
1206.209712
31
0.0
0
LINE
8
0
10
2488.069076
20
1211.179495
30
0.0
11
2487.999005
21
1211.631293
31
0.0
0
LINE
8
0
10
2487.228220
20
1216.601076
30
0.0
11
2487.158149
21
1217.052875
31
0.0
0
LINE
8
0
10
2486.387365
20
1222.022658
30
0.0
11
2486.317294
21
1222.474456
31
0.0
0
LINE
8
0
10
2469.408086
20
1219.986146
30
0.0
11
2469.544624
21
1220.341841
31
0.0
0
LINE
8
0
10
2471.046544
20
1224.254476
30
0.0
11
2471.183083
21
1224.610170
31
0.0
0
LINE
8
0
10
2469.814938
20
1212.685519
30
0.0
11
2469.951477
21
1213.041213
31
0.0
0
LINE
8
0
10
2471.453397
20
1216.953849
30
0.0
11
2471.589935
21
1217.309543
31
0.0
0
LINE
8
0
10
2473.091855
20
1221.222178
30
0.0
11
2473.228393
21
1221.577873
31
0.0
0
LINE
8
0
10
2474.730313
20
1225.490508
30
0.0
11
2474.866851
21
1225.846202
31
0.0
0
LINE
8
0
10
2470.221790
20
1205.384892
30
0.0
11
2470.358329
21
1205.740586
31
0.0
0
LINE
8
0
10
2471.860249
20
1209.653221
30
0.0
11
2471.996787
21
1210.008916
31
0.0
0
LINE
8
0
10
2473.498707
20
1213.921551
30
0.0
11
2473.635245
21
1214.277245
31
0.0
0
LINE
8
0
10
2475.137165
20
1218.189881
30
0.0
11
2475.273703
21
1218.545575
31
0.0
0
LINE
8
0
10
2476.775623
20
1222.458211
30
0.0
11
2476.912162
21
1222.813905
31
0.0
0
LINE
8
0
10
2470.628643
20
1198.084264
30
0.0
11
2470.765181
21
1198.439959
31
0.0
0
LINE
8
0
10
2472.267101
20
1202.352594
30
0.0
11
2472.403639
21
1202.708288
31
0.0
0
LINE
8
0
10
2473.905559
20
1206.620924
30
0.0
11
2474.042097
21
1206.976618
31
0.0
0
LINE
8
0
10
2475.544017
20
1210.889254
30
0.0
11
2475.680556
21
1211.244948
31
0.0
0
LINE
8
0
10
2477.182476
20
1215.157583
30
0.0
11
2477.319014
21
1215.513277
31
0.0
0
LINE
8
0
10
2478.820934
20
1219.425913
30
0.0
11
2478.957472
21
1219.781607
31
0.0
0
LINE
8
0
10
2480.459392
20
1223.694243
30
0.0
11
2480.595930
21
1224.049937
31
0.0
0
LINE
8
0
10
2471.132871
20
1191.037310
30
0.0
11
2471.172033
21
1191.139331
31
0.0
0
LINE
8
0
10
2472.673953
20
1195.051967
30
0.0
11
2472.810491
21
1195.407661
31
0.0
0
LINE
8
0
10
2474.312411
20
1199.320297
30
0.0
11
2474.448949
21
1199.675991
31
0.0
0
LINE
8
0
10
2475.950869
20
1203.588626
30
0.0
11
2476.087408
21
1203.944320
31
0.0
0
LINE
8
0
10
2477.589328
20
1207.856956
30
0.0
11
2477.725866
21
1208.212650
31
0.0
0
LINE
8
0
10
2479.227786
20
1212.125286
30
0.0
11
2479.364324
21
1212.480980
31
0.0
0
LINE
8
0
10
2480.866244
20
1216.393615
30
0.0
11
2481.002782
21
1216.749310
31
0.0
0
LINE
8
0
10
2482.504702
20
1220.661945
30
0.0
11
2482.641241
21
1221.017639
31
0.0
0
LINE
8
0
10
2484.143161
20
1224.930275
30
0.0
11
2484.279699
21
1225.285969
31
0.0
0
LINE
8
0
10
2474.719263
20
1192.019669
30
0.0
11
2474.855801
21
1192.375363
31
0.0
0
LINE
8
0
10
2476.357722
20
1196.287999
30
0.0
11
2476.494260
21
1196.643693
31
0.0
0
LINE
8
0
10
2477.996180
20
1200.556329
30
0.0
11
2478.132718
21
1200.912023
31
0.0
0
LINE
8
0
10
2479.634638
20
1204.824658
30
0.0
11
2479.771176
21
1205.180353
31
0.0
0
LINE
8
0
10
2481.273096
20
1209.092988
30
0.0
11
2481.409635
21
1209.448682
31
0.0
0
LINE
8
0
10
2482.911555
20
1213.361318
30
0.0
11
2483.048093
21
1213.717012
31
0.0
0
LINE
8
0
10
2484.550013
20
1217.629648
30
0.0
11
2484.686551
21
1217.985342
31
0.0
0
LINE
8
0
10
2486.188471
20
1221.897977
30
0.0
11
2486.325009
21
1222.253671
31
0.0
0
LINE
8
0
10
2478.403032
20
1193.255701
30
0.0
11
2478.539570
21
1193.611396
31
0.0
0
LINE
8
0
10
2480.041490
20
1197.524031
30
0.0
11
2480.178028
21
1197.879725
31
0.0
0
LINE
8
0
10
2481.679948
20
1201.792361
30
0.0
11
2481.816487
21
1202.148055
31
0.0
0
LINE
8
0
10
2483.318407
20
1206.060691
30
0.0
11
2483.454945
21
1206.416385
31
0.0
0
LINE
8
0
10
2484.956865
20
1210.329020
30
0.0
11
2485.093403
21
1210.684714
31
0.0
0
LINE
8
0
10
2486.595323
20
1214.597350
30
0.0
11
2486.731861
21
1214.953044
31
0.0
0
LINE
8
0
10
2488.233781
20
1218.865680
30
0.0
11
2488.370320
21
1219.221374
31
0.0
0
LINE
8
0
10
2482.086801
20
1194.491733
30
0.0
11
2482.223339
21
1194.847428
31
0.0
0
LINE
8
0
10
2483.725259
20
1198.760063
30
0.0
11
2483.861797
21
1199.115757
31
0.0
0
LINE
8
0
10
2485.363717
20
1203.028393
30
0.0
11
2485.500255
21
1203.384087
31
0.0
0
LINE
8
0
10
2487.002175
20
1207.296723
30
0.0
11
2487.138714
21
1207.652417
31
0.0
0
LINE
8
0
10
2488.640634
20
1211.565052
30
0.0
11
2488.777172
21
1211.920746
31
0.0
0
LINE
8
0
10
2484.132111
20
1191.459436
30
0.0
11
2484.268649
21
1191.815130
31
0.0
0
LINE
8
0
10
2485.770569
20
1195.727766
30
0.0
11
2485.907107
21
1196.083460
31
0.0
0
LINE
8
0
10
2487.409027
20
1199.996095
30
0.0
11
2487.545566
21
1200.351789
31
0.0
0
LINE
8
0
10
2489.047486
20
1204.264425
30
0.0
11
2489.184024
21
1204.620119
31
0.0
0
LINE
8
0
10
2487.815880
20
1192.695468
30
0.0
11
2487.952418
21
1193.051162
31
0.0
0
LINE
8
0
10
2474.718876
20
1192.020128
30
0.0
11
2474.548434
21
1192.272818
31
0.0
0
LINE
8
0
10
2472.673572
20
1195.052415
30
0.0
11
2472.503130
21
1195.305106
31
0.0
0
LINE
8
0
10
2470.628268
20
1198.084703
30
0.0
11
2470.457826
21
1198.337394
31
0.0
0
LINE
8
0
10
2478.402635
20
1193.256168
30
0.0
11
2478.232193
21
1193.508859
31
0.0
0
LINE
8
0
10
2476.357331
20
1196.288456
30
0.0
11
2476.186889
21
1196.541147
31
0.0
0
LINE
8
0
10
2474.312027
20
1199.320744
30
0.0
11
2474.141585
21
1199.573434
31
0.0
0
LINE
8
0
10
2472.266724
20
1202.353032
30
0.0
11
2472.096282
21
1202.605722
31
0.0
0
LINE
8
0
10
2470.221420
20
1205.385319
30
0.0
11
2470.050978
21
1205.638010
31
0.0
0
LINE
8
0
10
2484.131699
20
1191.459921
30
0.0
11
2483.961257
21
1191.712611
31
0.0
0
LINE
8
0
10
2482.086395
20
1194.492209
30
0.0
11
2481.915953
21
1194.744899
31
0.0
0
LINE
8
0
10
2480.041091
20
1197.524496
30
0.0
11
2479.870649
21
1197.777187
31
0.0
0
LINE
8
0
10
2477.995787
20
1200.556784
30
0.0
11
2477.825345
21
1200.809475
31
0.0
0
LINE
8
0
10
2475.950483
20
1203.589072
30
0.0
11
2475.780041
21
1203.841763
31
0.0
0
LINE
8
0
10
2473.905179
20
1206.621360
30
0.0
11
2473.734737
21
1206.874051
31
0.0
0
LINE
8
0
10
2471.859875
20
1209.653648
30
0.0
11
2471.689433
21
1209.906338
31
0.0
0
LINE
8
0
10
2469.814571
20
1212.685936
30
0.0
11
2469.644129
21
1212.938626
31
0.0
0
LINE
8
0
10
2487.815458
20
1192.695961
30
0.0
11
2487.645016
21
1192.948652
31
0.0
0
LINE
8
0
10
2485.770154
20
1195.728249
30
0.0
11
2485.599712
21
1195.980940
31
0.0
0
LINE
8
0
10
2483.724850
20
1198.760537
30
0.0
11
2483.554408
21
1199.013228
31
0.0
0
LINE
8
0
10
2481.679546
20
1201.792825
30
0.0
11
2481.509104
21
1202.045516
31
0.0
0
LINE
8
0
10
2479.634242
20
1204.825113
30
0.0
11
2479.463800
21
1205.077803
31
0.0
0
LINE
8
0
10
2477.588938
20
1207.857401
30
0.0
11
2477.418496
21
1208.110091
31
0.0
0
LINE
8
0
10
2475.543634
20
1210.889688
30
0.0
11
2475.373192
21
1211.142379
31
0.0
0
LINE
8
0
10
2473.498330
20
1213.921976
30
0.0
11
2473.327888
21
1214.174667
31
0.0
0
LINE
8
0
10
2471.453026
20
1216.954264
30
0.0
11
2471.282584
21
1217.206955
31
0.0
0
LINE
8
0
10
2469.407722
20
1219.986552
30
0.0
11
2469.251838
21
1220.217659
31
0.0
0
LINE
8
0
10
2487.408609
20
1199.996578
30
0.0
11
2487.238167
21
1200.249268
31
0.0
0
LINE
8
0
10
2485.363305
20
1203.028865
30
0.0
11
2485.192863
21
1203.281556
31
0.0
0
LINE
8
0
10
2483.318001
20
1206.061153
30
0.0
11
2483.147559
21
1206.313844
31
0.0
0
LINE
8
0
10
2481.272698
20
1209.093441
30
0.0
11
2481.102256
21
1209.346132
31
0.0
0
LINE
8
0
10
2479.227394
20
1212.125729
30
0.0
11
2479.056952
21
1212.378420
31
0.0
0
LINE
8
0
10
2477.182090
20
1215.158017
30
0.0
11
2477.011648
21
1215.410707
31
0.0
0
LINE
8
0
10
2475.136786
20
1218.190305
30
0.0
11
2474.966344
21
1218.442995
31
0.0
0
LINE
8
0
10
2473.091482
20
1221.222592
30
0.0
11
2472.921040
21
1221.475283
31
0.0
0
LINE
8
0
10
2471.046178
20
1224.254880
30
0.0
11
2470.875736
21
1224.507571
31
0.0
0
LINE
8
0
10
2489.047065
20
1204.264906
30
0.0
11
2488.876623
21
1204.517597
31
0.0
0
LINE
8
0
10
2487.001761
20
1207.297194
30
0.0
11
2486.831319
21
1207.549884
31
0.0
0
LINE
8
0
10
2484.956457
20
1210.329482
30
0.0
11
2484.786015
21
1210.582172
31
0.0
0
LINE
8
0
10
2482.911153
20
1213.361769
30
0.0
11
2482.740711
21
1213.614460
31
0.0
0
LINE
8
0
10
2480.865849
20
1216.394057
30
0.0
11
2480.695407
21
1216.646748
31
0.0
0
LINE
8
0
10
2478.820545
20
1219.426345
30
0.0
11
2478.650103
21
1219.679036
31
0.0
0
LINE
8
0
10
2476.775241
20
1222.458633
30
0.0
11
2476.604799
21
1222.711324
31
0.0
0
LINE
8
0
10
2474.729937
20
1225.490921
30
0.0
11
2474.559495
21
1225.743611
31
0.0
0
LINE
8
0
10
2488.640216
20
1211.565522
30
0.0
11
2488.469774
21
1211.818213
31
0.0
0
LINE
8
0
10
2486.594912
20
1214.597810
30
0.0
11
2486.424470
21
1214.850501
31
0.0
0
LINE
8
0
10
2484.549608
20
1217.630098
30
0.0
11
2484.379166
21
1217.882789
31
0.0
0
LINE
8
0
10
2482.504304
20
1220.662386
30
0.0
11
2482.333862
21
1220.915076
31
0.0
0
LINE
8
0
10
2480.459000
20
1223.694674
30
0.0
11
2480.288558
21
1223.947364
31
0.0
0
LINE
8
0
10
2488.233368
20
1218.866138
30
0.0
11
2488.062926
21
1219.118829
31
0.0
0
LINE
8
0
10
2486.188064
20
1221.898426
30
0.0
11
2486.017622
21
1222.151117
31
0.0
0
LINE
8
0
10
2484.142760
20
1224.930714
30
0.0
11
2483.972318
21
1225.183405
31
0.0
0
LINE
8
0
10
2470.875701
20
1224.507703
30
0.0
11
2471.182681
21
1224.610707
31
0.0
0
LINE
8
0
10
2474.559460
20
1225.743747
30
0.0
11
2474.866440
21
1225.846751
31
0.0
0
LINE
8
0
10
2469.251838
20
1220.244270
30
0.0
11
2469.544224
21
1220.342377
31
0.0
0
LINE
8
0
10
2472.921003
20
1221.475418
30
0.0
11
2473.227983
21
1221.578421
31
0.0
0
LINE
8
0
10
2476.604762
20
1222.711462
30
0.0
11
2476.911742
21
1222.814465
31
0.0
0
LINE
8
0
10
2480.288522
20
1223.947506
30
0.0
11
2480.595502
21
1224.050509
31
0.0
0
LINE
8
0
10
2483.972281
20
1225.183550
30
0.0
11
2484.279261
21
1225.286553
31
0.0
0
LINE
8
0
10
2471.282546
20
1217.207088
30
0.0
11
2471.589526
21
1217.310091
31
0.0
0
LINE
8
0
10
2474.966305
20
1218.443132
30
0.0
11
2475.273285
21
1218.546135
31
0.0
0
LINE
8
0
10
2478.650065
20
1219.679176
30
0.0
11
2478.957044
21
1219.782180
31
0.0
0
LINE
8
0
10
2482.333824
20
1220.915220
30
0.0
11
2482.640804
21
1221.018224
31
0.0
0
LINE
8
0
10
2486.017583
20
1222.151264
30
0.0
11
2486.324563
21
1222.254268
31
0.0
0
LINE
8
0
10
2469.644089
20
1212.938758
30
0.0
11
2469.951069
21
1213.041762
31
0.0
0
LINE
8
0
10
2473.327848
20
1214.174802
30
0.0
11
2473.634828
21
1214.277806
31
0.0
0
LINE
8
0
10
2477.011607
20
1215.410846
30
0.0
11
2477.318587
21
1215.513850
31
0.0
0
LINE
8
0
10
2480.695367
20
1216.646890
30
0.0
11
2481.002347
21
1216.749894
31
0.0
0
LINE
8
0
10
2484.379126
20
1217.882934
30
0.0
11
2484.686106
21
1217.985938
31
0.0
0
LINE
8
0
10
2488.062885
20
1219.118978
30
0.0
11
2488.369865
21
1219.221982
31
0.0
0
LINE
8
0
10
2471.689391
20
1209.906472
30
0.0
11
2471.996371
21
1210.009476
31
0.0
0
LINE
8
0
10
2475.373150
20
1211.142516
30
0.0
11
2475.680130
21
1211.245520
31
0.0
0
LINE
8
0
10
2479.056909
20
1212.378560
30
0.0
11
2479.363889
21
1212.481564
31
0.0
0
LINE
8
0
10
2482.740669
20
1213.614604
30
0.0
11
2483.047649
21
1213.717608
31
0.0
0
LINE
8
0
10
2486.424428
20
1214.850649
30
0.0
11
2486.731408
21
1214.953652
31
0.0
0
LINE
8
0
10
2470.050934
20
1205.638142
30
0.0
11
2470.357914
21
1205.741146
31
0.0
0
LINE
8
0
10
2473.734693
20
1206.874186
30
0.0
11
2474.041673
21
1206.977190
31
0.0
0
LINE
8
0
10
2477.418452
20
1208.110231
30
0.0
11
2477.725432
21
1208.213234
31
0.0
0
LINE
8
0
10
2481.102212
20
1209.346275
30
0.0
11
2481.409192
21
1209.449278
31
0.0
0
LINE
8
0
10
2484.785971
20
1210.582319
30
0.0
11
2485.092951
21
1210.685322
31
0.0
0
LINE
8
0
10
2488.469730
20
1211.818363
30
0.0
11
2488.776710
21
1211.921367
31
0.0
0
LINE
8
0
10
2472.096236
20
1202.605857
30
0.0
11
2472.403216
21
1202.708860
31
0.0
0
LINE
8
0
10
2475.779995
20
1203.841901
30
0.0
11
2476.086975
21
1203.944904
31
0.0
0
LINE
8
0
10
2479.463754
20
1205.077945
30
0.0
11
2479.770734
21
1205.180949
31
0.0
0
LINE
8
0
10
2483.147514
20
1206.313989
30
0.0
11
2483.454494
21
1206.416993
31
0.0
0
LINE
8
0
10
2486.831273
20
1207.550033
30
0.0
11
2487.138253
21
1207.653037
31
0.0
0
LINE
8
0
10
2470.457779
20
1198.337527
30
0.0
11
2470.764759
21
1198.440531
31
0.0
0
LINE
8
0
10
2474.141538
20
1199.573571
30
0.0
11
2474.448518
21
1199.676575
31
0.0
0
LINE
8
0
10
2477.825297
20
1200.809615
30
0.0
11
2478.132277
21
1200.912619
31
0.0
0
LINE
8
0
10
2481.509057
20
1202.045659
30
0.0
11
2481.816037
21
1202.148663
31
0.0
0
LINE
8
0
10
2485.192816
20
1203.281703
30
0.0
11
2485.499796
21
1203.384707
31
0.0
0
LINE
8
0
10
2488.876575
20
1204.517747
30
0.0
11
2489.183555
21
1204.620751
31
0.0
0
LINE
8
0
10
2472.503081
20
1195.305241
30
0.0
11
2472.810061
21
1195.408245
31
0.0
0
LINE
8
0
10
2476.186840
20
1196.541285
30
0.0
11
2476.493820
21
1196.644289
31
0.0
0
LINE
8
0
10
2479.870599
20
1197.777329
30
0.0
11
2480.177579
21
1197.880333
31
0.0
0
LINE
8
0
10
2483.554359
20
1199.013373
30
0.0
11
2483.861339
21
1199.116377
31
0.0
0
LINE
8
0
10
2487.238118
20
1200.249417
30
0.0
11
2487.545098
21
1200.352421
31
0.0
0
LINE
8
0
10
2470.865813
20
1191.037310
30
0.0
11
2471.171604
21
1191.139915
31
0.0
0
LINE
8
0
10
2474.548383
20
1192.272955
30
0.0
11
2474.855363
21
1192.375959
31
0.0
0
LINE
8
0
10
2478.232142
20
1193.508999
30
0.0
11
2478.539122
21
1193.612003
31
0.0
0
LINE
8
0
10
2481.915902
20
1194.745044
30
0.0
11
2482.222881
21
1194.848047
31
0.0
0
LINE
8
0
10
2485.599661
20
1195.981088
30
0.0
11
2485.906641
21
1196.084091
31
0.0
0
LINE
8
0
10
2483.961204
20
1191.712758
30
0.0
11
2484.268184
21
1191.815762
31
0.0
0
LINE
8
0
10
2487.644963
20
1192.948802
30
0.0
11
2487.951943
21
1193.051806
31
0.0
0
LINE
8
0
10
2469.251838
20
1191.237310
30
0.0
11
2469.251838
21
1225.837310
31
0.0
0
ARC
8
0
10
2469.451838
20
1225.837310
30
0.0
40
0.200000
50
90.000000
51
180.000000
0
LINE
8
0
10
2469.451838
20
1226.037310
30
0.0
11
2489.051838
21
1226.037310
31
0.0
0
ARC
8
0
10
2489.051838
20
1225.837310
30
0.0
40
0.200000
50
0.000000
51
90.000000
0
LINE
8
0
10
2489.251838
20
1225.837310
30
0.0
11
2489.251838
21
1191.237310
31
0.0
0
ARC
8
0
10
2489.051838
20
1191.237310
30
0.0
40
0.200000
50
270.000000
51
0.000000
0
LINE
8
0
10
2489.051838
20
1191.037310
30
0.0
11
2469.451838
21
1191.037310
31
0.0
0
ARC
8
0
10
2469.451838
20
1191.237310
30
0.0
40
0.200000
50
180.000000
51
270.000000
0
ARC
8
0
10
2474.431117
20
1234.763713
30
0.0
40
0.500000
50
90.000000
51
146.610000
0
LINE
8
0
10
2474.431117
20
1235.263713
30
0.0
11
2481.251838
21
1235.263713
31
0.0
0
LINE
8
0
10
2481.251838
20
1235.263713
30
0.0
11
2488.072560
21
1235.263713
31
0.0
0
ARC
8
0
10
2488.072560
20
1234.763713
30
0.0
40
0.500000
50
33.390000
51
90.000000
0
LINE
8
0
10
2488.490032
20
1235.038880
30
0.0
11
2490.120535
21
1232.565153
31
0.0
0
ARC
8
0
10
2490.680253
20
1232.934078
30
0.0
40
0.670365
50
213.390000
51
300.039706
0
LINE
8
0
10
2491.015838
20
1232.353757
30
0.0
11
2492.546988
21
1233.239183
31
0.0
0
LINE
8
0
10
2492.642959
20
1233.263713
30
0.0
11
2492.546988
21
1233.239183
31
0.0
0
LINE
8
0
10
2492.642959
20
1233.263713
30
0.0
11
2492.851838
21
1233.263713
31
0.0
0
ARC
8
0
10
2492.851838
20
1232.863713
30
0.0
40
0.400000
50
0.000000
51
90.000000
0
LINE
8
0
10
2493.251838
20
1232.863713
30
0.0
11
2493.251838
21
1232.263713
31
0.0
0
LINE
8
0
10
2493.251838
20
1232.263713
30
0.0
11
2493.151838
21
1232.263713
31
0.0
0
LINE
8
0
10
2493.151838
20
1232.263713
30
0.0
11
2493.151838
21
1231.888713
31
0.0
0
ARC
8
0
10
2492.951838
20
1231.888713
30
0.0
40
0.200000
50
270.000000
51
0.000000
0
LINE
8
0
10
2492.951838
20
1231.688713
30
0.0
11
2492.792312
21
1231.688713
31
0.0
0
ARC
8
0
10
2492.501838
20
1231.163713
30
0.0
40
0.600000
50
61.044976
51
180.000000
0
ARC
8
0
10
2492.501838
20
1231.163713
30
0.0
40
0.600000
50
180.000000
51
298.955024
0
LINE
8
0
10
2492.792312
20
1230.638713
30
0.0
11
2492.951838
21
1230.638713
31
0.0
0
ARC
8
0
10
2492.951838
20
1230.438713
30
0.0
40
0.200000
50
0.000000
51
90.000000
0
LINE
8
0
10
2493.151838
20
1230.438713
30
0.0
11
2493.151838
21
1230.063713
31
0.0
0
LINE
8
0
10
2493.151838
20
1230.063713
30
0.0
11
2493.251838
21
1230.063713
31
0.0
0
LINE
8
0
10
2493.251838
20
1230.063713
30
0.0
11
2493.251838
21
1229.463713
31
0.0
0
ARC
8
0
10
2492.851838
20
1229.463713
30
0.0
40
0.400000
50
270.000000
51
0.000000
0
LINE
8
0
10
2492.851838
20
1229.063713
30
0.0
11
2492.642959
21
1229.063713
31
0.0
0
LINE
8
0
10
2492.546988
20
1229.088243
30
0.0
11
2492.642959
21
1229.063713
31
0.0
0
LINE
8
0
10
2492.546988
20
1229.088243
30
0.0
11
2491.045949
21
1229.956256
31
0.0
0
ARC
8
0
10
2490.645469
20
1229.263713
30
0.0
40
0.800000
50
59.960294
51
90.000000
0
LINE
8
0
10
2490.645469
20
1230.063713
30
0.0
11
2489.912523
21
1230.063713
31
0.0
0
ARC
8
0
10
2489.912523
20
1231.063713
30
0.0
40
1.000000
50
213.240000
51
270.000000
0
LINE
8
0
10
2489.076141
20
1230.515565
30
0.0
11
2487.571197
21
1232.811860
31
0.0
0
ARC
8
0
10
2486.734815
20
1232.263713
30
0.0
40
1.000000
50
33.240000
51
90.000000
0
LINE
8
0
10
2486.734815
20
1233.263713
30
0.0
11
2481.251838
21
1233.263713
31
0.0
0
LINE
8
0
10
2481.251838
20
1233.263713
30
0.0
11
2475.919422
21
1233.263713
31
0.0
0
LINE
8
0
10
2475.919422
20
1233.263713
30
0.0
11
2475.768861
21
1233.263713
31
0.0
0
ARC
8
0
10
2475.768861
20
1232.263713
30
0.0
40
1.000000
50
90.000000
51
146.760000
0
LINE
8
0
10
2474.932480
20
1232.811860
30
0.0
11
2473.427536
21
1230.515565
31
0.0
0
ARC
8
0
10
2472.591154
20
1231.063713
30
0.0
40
1.000000
50
270.000000
51
326.760000
0
LINE
8
0
10
2472.591154
20
1230.063713
30
0.0
11
2471.858208
21
1230.063713
31
0.0
0
ARC
8
0
10
2471.858208
20
1229.263713
30
0.0
40
0.800000
50
90.000000
51
120.039706
0
LINE
8
0
10
2471.457728
20
1229.956256
30
0.0
11
2469.956689
21
1229.088243
31
0.0
0
LINE
8
0
10
2469.860718
20
1229.063713
30
0.0
11
2469.956689
21
1229.088243
31
0.0
0
LINE
8
0
10
2469.860718
20
1229.063713
30
0.0
11
2469.651838
21
1229.063713
31
0.0
0
ARC
8
0
10
2469.651838
20
1229.463713
30
0.0
40
0.400000
50
180.000000
51
270.000000
0
LINE
8
0
10
2469.251838
20
1229.463713
30
0.0
11
2469.251838
21
1230.063713
31
0.0
0
LINE
8
0
10
2469.251838
20
1230.063713
30
0.0
11
2469.351838
21
1230.063713
31
0.0
0
LINE
8
0
10
2469.351838
20
1230.063713
30
0.0
11
2469.351838
21
1230.438713
31
0.0
0
ARC
8
0
10
2469.551838
20
1230.438713
30
0.0
40
0.200000
50
90.000000
51
180.000000
0
LINE
8
0
10
2469.551838
20
1230.638713
30
0.0
11
2469.711365
21
1230.638713
31
0.0
0
ARC
8
0
10
2470.001838
20
1231.163713
30
0.0
40
0.600000
50
241.044976
51
0.000000
0
ARC
8
0
10
2470.001838
20
1231.163713
30
0.0
40
0.600000
50
0.000000
51
118.955024
0
LINE
8
0
10
2469.711365
20
1231.688713
30
0.0
11
2469.551838
21
1231.688713
31
0.0
0
ARC
8
0
10
2469.551838
20
1231.888713
30
0.0
40
0.200000
50
180.000000
51
270.000000
0
LINE
8
0
10
2469.351838
20
1231.888713
30
0.0
11
2469.351838
21
1232.263713
31
0.0
0
LINE
8
0
10
2469.351838
20
1232.263713
30
0.0
11
2469.251838
21
1232.263713
31
0.0
0
LINE
8
0
10
2469.251838
20
1232.263713
30
0.0
11
2469.251838
21
1232.863713
31
0.0
0
ARC
8
0
10
2469.651838
20
1232.863713
30
0.0
40
0.400000
50
90.000000
51
180.000000
0
LINE
8
0
10
2469.651838
20
1233.263713
30
0.0
11
2469.860718
21
1233.263713
31
0.0
0
LINE
8
0
10
2469.956689
20
1233.239183
30
0.0
11
2469.860718
21
1233.263713
31
0.0
0
LINE
8
0
10
2469.956689
20
1233.239183
30
0.0
11
2471.487839
21
1232.353757
31
0.0
0
ARC
8
0
10
2471.823424
20
1232.934078
30
0.0
40
0.670365
50
239.960294
51
326.610000
0
LINE
8
0
10
2472.383141
20
1232.565153
30
0.0
11
2474.013645
21
1235.038880
31
0.0
0
ARC
8
0
10
2497.151969
20
1231.133051
30
0.0
40
0.500000
50
0.000000
51
90.000000
0
LINE
8
0
10
2497.151969
20
1231.633051
30
0.0
11
2495.551838
21
1231.633051
31
0.0
0
ARC
8
0
10
2495.551838
20
1231.133051
30
0.0
40
0.500000
50
90.000000
51
180.000000
0
LINE
8
0
10
2495.051838
20
1231.133051
30
0.0
11
2495.051838
21
1228.033051
31
0.0
0
ARC
8
0
10
2494.051838
20
1228.033051
30
0.0
40
1.000000
50
270.000000
51
0.000000
0
LINE
8
0
10
2494.051838
20
1227.033051
30
0.0
11
2491.051838
21
1227.033051
31
0.0
0
LINE
8
0
10
2491.051838
20
1227.033051
30
0.0
11
2491.051838
21
1193.633051
31
0.0
0
LINE
8
0
10
2491.051838
20
1193.633051
30
0.0
11
2497.651969
21
1193.633051
31
0.0
0
LINE
8
0
10
2497.651969
20
1193.633051
30
0.0
11
2497.651969
21
1231.133051
31
0.0
0
LINE
8
0
10
2499.651969
20
1259.933051
30
0.0
11
2499.651969
21
1190.233051
31
0.0
0
ARC
8
0
10
2499.151969
20
1190.233051
30
0.0
40
0.500000
50
270.000000
51
0.000000
0
LINE
8
0
10
2499.151969
20
1189.733051
30
0.0
11
2498.151969
21
1189.733051
31
0.0
0
ARC
8
0
10
2498.151969
20
1190.233051
30
0.0
40
0.500000
50
180.000000
51
270.000000
0
LINE
8
0
10
2497.651969
20
1190.233051
30
0.0
11
2497.651969
21
1191.133051
31
0.0
0
ARC
8
0
10
2497.151969
20
1191.133051
30
0.0
40
0.500000
50
0.000000
51
90.000000
0
LINE
8
0
10
2497.151969
20
1191.633051
30
0.0
11
2491.851969
21
1191.633051
31
0.0
0
ARC
8
0
10
2491.851969
20
1190.633051
30
0.0
40
1.000000
50
90.000000
51
180.000000
0
LINE
8
0
10
2490.851969
20
1190.633051
30
0.0
11
2490.851969
21
1178.733051
31
0.0
0
ARC
8
0
10
2490.351969
20
1178.733051
30
0.0
40
0.500000
50
270.000000
51
0.000000
0
LINE
8
0
10
2490.351969
20
1178.233051
30
0.0
11
2489.551969
21
1178.233051
31
0.0
0
ARC
8
0
10
2489.551969
20
1178.733051
30
0.0
40
0.500000
50
180.000000
51
270.000000
0
LINE
8
0
10
2489.051969
20
1178.733051
30
0.0
11
2489.051969
21
1181.733051
31
0.0
0
ARC
8
0
10
2488.751969
20
1181.733051
30
0.0
40
0.300000
50
0.000000
51
90.000000
0
LINE
8
0
10
2488.751969
20
1182.033051
30
0.0
11
2487.899973
21
1182.337481
31
0.0
0
ARC
8
0
10
2487.786015
20
1182.059968
30
0.0
40
0.300000
50
67.674953
51
168.943882
0
ARC
8
0
10
2487.197151
20
1182.175030
30
0.0
40
0.300000
50
273.000000
51
348.943882
0
LINE
8
0
10
2487.212852
20
1181.875441
30
0.0
11
2484.824792
21
1181.750288
31
0.0
0
ARC
8
0
10
2484.809092
20
1182.049877
30
0.0
40
0.300000
50
142.753920
51
273.000000
0
LINE
8
0
10
2484.570279
20
1182.231449
30
0.0
11
2486.655360
21
1184.973860
31
0.0
0
ARC
8
0
10
2486.801341
20
1184.903048
30
0.0
40
0.162249
50
322.358137
51
154.123071
0
ARC
8
0
10
2487.109215
20
1184.715548
30
0.0
40
0.200000
50
153.765017
51
236.740497
0
LINE
8
0
10
2486.999529
20
1184.548309
30
0.0
11
2488.538236
21
1183.586761
31
0.0
0
ARC
8
0
10
2488.815078
20
1183.471180
30
0.0
40
0.300000
50
157.339688
51
253.000000
0
LINE
8
0
10
2488.727366
20
1183.184289
30
0.0
11
2489.101969
21
1183.083469
31
0.0
0
ARC
8
0
10
2489.101969
20
1183.383469
30
0.0
40
0.300000
50
270.000000
51
66.421822
0
ARC
8
0
10
2489.301969
20
1183.841727
30
0.0
40
0.200000
50
180.000000
51
246.421822
0
LINE
8
0
10
2489.101969
20
1183.841727
30
0.0
11
2489.101969
21
1187.963051
31
0.0
0
ARC
8
0
10
2488.831969
20
1187.963051
30
0.0
40
0.270000
50
0.000000
51
90.000000
0
LINE
8
0
10
2488.831969
20
1188.233051
30
0.0
11
2488.501969
21
1188.233051
31
0.0
0
LINE
8
0
10
2488.501969
20
1188.233051
30
0.0
11
2487.001873
21
1187.317388
31
0.0
0
ARC
8
0
10
2486.801969
20
1187.311165
30
0.0
40
0.200000
50
180.000000
51
1.782862
0
LINE
8
0
10
2486.601969
20
1187.311165
30
0.0
11
2486.601969
21
1188.620949
31
0.0
0
ARC
8
0
10
2487.601969
20
1188.620949
30
0.0
40
1.000000
50
121.400000
51
180.000000
0
LINE
8
0
10
2487.080960
20
1189.474500
30
0.0
11
2488.293858
21
1190.214856
31
0.0
0
ARC
8
0
10
2487.251838
20
1191.921958
30
0.0
40
2.000000
50
301.400000
51
0.000000
0
LINE
8
0
10
2489.251838
20
1191.921958
30
0.0
11
2489.251838
21
1227.833051
31
0.0
0
ARC
8
0
10
2490.251838
20
1227.833051
30
0.0
40
1.000000
50
90.000000
51
180.000000
0
ARC
8
0
10
2490.251838
20
1229.333051
30
0.0
40
0.500000
50
270.000000
51
0.000000
0
LINE
8
0
10
2490.751838
20
1229.333051
30
0.0
11
2490.751838
21
1229.854936
31
0.0
0
ARC
8
0
10
2490.951838
20
1229.854936
30
0.0
40
0.200000
50
358.217138
51
180.000000
0
LINE
8
0
10
2491.151742
20
1229.848714
30
0.0
11
2492.651838
21
1228.933051
31
0.0
0
LINE
8
0
10
2492.651838
20
1228.933051
30
0.0
11
2492.981838
21
1228.933051
31
0.0
0
ARC
8
0
10
2492.981838
20
1229.203051
30
0.0
40
0.270000
50
270.000000
51
0.000000
0
LINE
8
0
10
2493.251838
20
1229.203051
30
0.0
11
2493.251838
21
1233.324375
31
0.0
0
ARC
8
0
10
2493.451838
20
1233.324375
30
0.0
40
0.200000
50
113.578178
51
180.000000
0
ARC
8
0
10
2493.251838
20
1233.782632
30
0.0
40
0.300000
50
293.578179
51
90.000000
0
LINE
8
0
10
2493.251838
20
1234.082632
30
0.0
11
2492.896813
21
1233.987081
31
0.0
0
ARC
8
0
10
2492.964947
20
1233.694921
30
0.0
40
0.300000
50
103.127121
51
202.660312
0
LINE
8
0
10
2492.688105
20
1233.579341
30
0.0
11
2491.156845
21
1232.622446
31
0.0
0
ARC
8
0
10
2491.259084
20
1232.450554
30
0.0
40
0.200000
50
120.743548
51
182.000000
0
LINE
8
0
10
2491.059206
20
1232.443574
30
0.0
11
2491.064636
21
1232.288087
31
0.0
0
ARC
8
0
10
2490.919104
20
1232.283005
30
0.0
40
0.145621
50
215.935708
51
2.000000
0
LINE
8
0
10
2490.801198
20
1232.197543
30
0.0
11
2488.720148
21
1234.934652
31
0.0
0
ARC
8
0
10
2488.958961
20
1235.116224
30
0.0
40
0.300000
50
87.000000
51
217.246080
0
LINE
8
0
10
2488.974661
20
1235.415813
30
0.0
11
2491.362721
21
1235.290660
31
0.0
0
ARC
8
0
10
2491.347020
20
1234.991071
30
0.0
40
0.300000
50
11.056118
51
87.000000
0
ARC
8
0
10
2491.935884
20
1235.106133
30
0.0
40
0.300000
50
191.056118
51
287.000000
0
LINE
8
0
10
2492.023595
20
1234.819242
30
0.0
11
2492.951838
21
1235.133051
31
0.0
0
ARC
8
0
10
2492.951838
20
1235.433051
30
0.0
40
0.300000
50
270.000000
51
0.000000
0
LINE
8
0
10
2493.251838
20
1235.433051
30
0.0
11
2494.751838
21
1235.433051
31
0.0
0
ARC
8
0
10
2494.760252
20
1235.133169
30
0.0
40
0.300000
50
350.251266
51
91.607144
0
ARC
8
0
10
2495.351838
20
1235.033051
30
0.0
40
0.300000
50
170.537678
51
270.000000
0
LINE
8
0
10
2495.351838
20
1234.733051
30
0.0
11
2495.551969
21
1234.733051
31
0.0
0
ARC
8
0
10
2495.551969
20
1234.433051
30
0.0
40
0.300000
50
0.000000
51
90.000000
0
LINE
8
0
10
2495.851969
20
1234.433051
30
0.0
11
2495.851969
21
1233.933051
31
0.0
0
ARC
8
0
10
2496.151969
20
1233.933051
30
0.0
40
0.300000
50
180.000000
51
270.000000
0
LINE
8
0
10
2496.151969
20
1233.633051
30
0.0
11
2497.151969
21
1233.633051
31
0.0
0
ARC
8
0
10
2497.151969
20
1233.933051
30
0.0
40
0.300000
50
270.000000
51
0.000000
0
LINE
8
0
10
2497.451969
20
1233.933051
30
0.0
11
2497.451969
21
1251.333051
31
0.0
0
ARC
8
0
10
2497.151969
20
1251.333051
30
0.0
40
0.300000
50
0.000000
51
90.000000
0
LINE
8
0
10
2497.151969
20
1251.633051
30
0.0
11
2496.151969
21
1251.633051
31
0.0
0
ARC
8
0
10
2496.151969
20
1251.333051
30
0.0
40
0.300000
50
90.000000
51
180.000000
0
LINE
8
0
10
2495.851969
20
1251.333051
30
0.0
11
2495.851969
21
1250.433051
31
0.0
0
ARC
8
0
10
2495.551969
20
1250.433051
30
0.0
40
0.300000
50
270.000000
51
0.000000
0
LINE
8
0
10
2495.551969
20
1250.133051
30
0.0
11
2495.051969
21
1250.133051
31
0.0
0
ARC
8
0
10
2495.051969
20
1250.633051
30
0.0
40
0.500000
50
180.000000
51
270.000000
0
LINE
8
0
10
2494.551969
20
1250.633051
30
0.0
11
2494.551969
21
1251.367365
31
0.0
0
ARC
8
0
10
2494.251969
20
1251.367365
30
0.0
40
0.300000
50
0.000000
51
70.528779
0
ARC
8
0
10
2494.451969
20
1251.933051
30
0.0
40
0.300000
50
180.000000
51
250.528779
0
LINE
8
0
10
2494.151969
20
1251.933051
30
0.0
11
2494.151969
21
1253.683051
31
0.0
0
ARC
8
0
10
2494.651969
20
1253.683051
30
0.0
40
0.500000
50
90.000000
51
180.000000
0
LINE
8
0
10
2494.651969
20
1254.183051
30
0.0
11
2495.351969
21
1254.183051
31
0.0
0
LINE
8
0
10
2495.351969
20
1254.183051
30
0.0
11
2495.351969
21
1253.233051
31
0.0
0
ARC
8
0
10
2495.651969
20
1253.233051
30
0.0
40
0.300000
50
180.000000
51
270.000000
0
LINE
8
0
10
2495.651969
20
1252.933051
30
0.0
11
2495.803635
21
1252.933051
31
0.0
0
ARC
8
0
10
2495.803635
20
1253.233051
30
0.0
40
0.300000
50
270.000000
51
300.000000
0
LINE
8
0
10
2495.953635
20
1252.973243
30
0.0
11
2497.701969
21
1253.982644
31
0.0
0
ARC
8
0
10
2497.551969
20
1254.242452
30
0.0
40
0.300000
50
300.000000
51
0.000000
0
LINE
8
0
10
2497.851969
20
1254.242452
30
0.0
11
2497.851969
21
1257.623650
31
0.0
0
ARC
8
0
10
2497.551969
20
1257.623650
30
0.0
40
0.300000
50
0.000000
51
60.000000
0
LINE
8
0
10
2497.701969
20
1257.883457
30
0.0
11
2495.953635
21
1258.892858
31
0.0
0
ARC
8
0
10
2495.803635
20
1258.633051
30
0.0
40
0.300000
50
60.000000
51
90.000000
0
LINE
8
0
10
2495.803635
20
1258.933051
30
0.0
11
2495.651969
21
1258.933051
31
0.0
0
ARC
8
0
10
2495.651969
20
1258.633051
30
0.0
40
0.300000
50
90.000000
51
180.000000
0
LINE
8
0
10
2495.351969
20
1258.633051
30
0.0
11
2495.351969
21
1257.683051
31
0.0
0
LINE
8
0
10
2495.351969
20
1257.683051
30
0.0
11
2494.651969
21
1257.683051
31
0.0
0
ARC
8
0
10
2494.651969
20
1258.183051
30
0.0
40
0.500000
50
180.000000
51
270.000000
0
LINE
8
0
10
2494.151969
20
1258.183051
30
0.0
11
2494.151969
21
1259.933051
31
0.0
0
ARC
8
0
10
2494.651969
20
1259.933051
30
0.0
40
0.500000
50
90.000000
51
180.000000
0
LINE
8
0
10
2494.651969
20
1260.433051
30
0.0
11
2499.151969
21
1260.433051
31
0.0
0
ARC
8
0
10
2499.151969
20
1259.933051
30
0.0
40
0.500000
50
0.000000
51
90.000000
0
ARC
8
0
10
2470.601969
20
1188.620949
30
0.0
40
1.000000
50
0.000000
51
58.600000
0
LINE
8
0
10
2471.601969
20
1188.620949
30
0.0
11
2471.601969
21
1187.311165
31
0.0
0
ARC
8
0
10
2471.401969
20
1187.311165
30
0.0
40
0.200000
50
178.217138
51
0.000000
0
LINE
8
0
10
2471.202066
20
1187.317388
30
0.0
11
2469.701969
21
1188.233051
31
0.0
0
LINE
8
0
10
2469.701969
20
1188.233051
30
0.0
11
2469.371969
21
1188.233051
31
0.0
0
ARC
8
0
10
2469.371969
20
1187.963051
30
0.0
40
0.270000
50
90.000000
51
180.000000
0
LINE
8
0
10
2469.101969
20
1187.963051
30
0.0
11
2469.101969
21
1183.841727
31
0.0
0
ARC
8
0
10
2468.901969
20
1183.841727
30
0.0
40
0.200000
50
293.578179
51
0.000000
0
ARC
8
0
10
2469.101969
20
1183.383469
30
0.0
40
0.300000
50
113.578178
51
270.000000
0
LINE
8
0
10
2469.101969
20
1183.083469
30
0.0
11
2469.476572
21
1183.184289
31
0.0
0
ARC
8
0
10
2469.388861
20
1183.471180
30
0.0
40
0.300000
50
287.000000
51
22.660312
0
LINE
8
0
10
2469.665702
20
1183.586761
30
0.0
11
2471.196963
21
1184.543655
31
0.0
0
ARC
8
0
10
2471.094723
20
1184.715548
30
0.0
40
0.200000
50
300.743548
51
2.000000
0
LINE
8
0
10
2471.294602
20
1184.722528
30
0.0
11
2471.289172
21
1184.878015
31
0.0
0
ARC
8
0
10
2471.434704
20
1184.883097
30
0.0
40
0.145621
50
35.935708
51
182.000000
0
LINE
8
0
10
2471.552609
20
1184.968558
30
0.0
11
2473.633660
21
1182.231449
31
0.0
0
ARC
8
0
10
2473.394847
20
1182.049877
30
0.0
40
0.300000
50
267.000000
51
37.246080
0
LINE
8
0
10
2473.379146
20
1181.750288
30
0.0
11
2470.991087
21
1181.875441
31
0.0
0
ARC
8
0
10
2471.006788
20
1182.175030
30
0.0
40
0.300000
50
191.056118
51
267.000000
0
ARC
8
0
10
2470.417924
20
1182.059968
30
0.0
40
0.300000
50
11.056118
51
107.000000
0
LINE
8
0
10
2470.330212
20
1182.346859
30
0.0
11
2469.401969
21
1182.033051
31
0.0
0
ARC
8
0
10
2469.401969
20
1181.733051
30
0.0
40
0.300000
50
90.000000
51
180.000000
0
LINE
8
0
10
2469.101969
20
1181.733051
30
0.0
11
2469.101969
21
1179.733051
31
0.0
0
ARC
8
0
10
2468.601969
20
1179.733051
30
0.0
40
0.500000
50
270.000000
51
0.000000
0
LINE
8
0
10
2468.601969
20
1179.233051
30
0.0
11
2467.601969
21
1179.233051
31
0.0
0
ARC
8
0
10
2467.601969
20
1179.733051
30
0.0
40
0.500000
50
180.000000
51
270.000000
0
LINE
8
0
10
2467.101969
20
1179.733051
30
0.0
11
2467.101969
21
1181.933051
31
0.0
0
ARC
8
0
10
2466.801969
20
1181.933051
30
0.0
40
0.300000
50
0.000000
51
90.000000
0
LINE
8
0
10
2466.801969
20
1182.233051
30
0.0
11
2464.651969
21
1182.233051
31
0.0
0
ARC
8
0
10
2464.651969
20
1182.533051
30
0.0
40
0.300000
50
180.000000
51
270.000000
0
LINE
8
0
10
2464.351969
20
1182.533051
30
0.0
11
2464.351969
21
1184.433051
31
0.0
0
ARC
8
0
10
2464.651969
20
1184.433051
30
0.0
40
0.300000
50
90.000000
51
180.000000
0
LINE
8
0
10
2464.651969
20
1184.733051
30
0.0
11
2466.801969
21
1184.733051
31
0.0
0
ARC
8
0
10
2466.801969
20
1185.033051
30
0.0
40
0.300000
50
270.000000
51
0.000000
0
LINE
8
0
10
2467.101969
20
1185.033051
30
0.0
11
2467.101969
21
1189.433051
31
0.0
0
ARC
8
0
10
2466.801969
20
1189.433051
30
0.0
40
0.300000
50
0.000000
51
90.000000
0
LINE
8
0
10
2466.801969
20
1189.733051
30
0.0
11
2442.401969
21
1189.733051
31
0.0
0
ARC
8
0
10
2442.401969
20
1189.433051
30
0.0
40
0.300000
50
90.000000
51
180.000000
0
LINE
8
0
10
2442.101969
20
1189.433051
30
0.0
11
2442.101969
21
1185.033051
31
0.0
0
ARC
8
0
10
2442.401969
20
1185.033051
30
0.0
40
0.300000
50
180.000000
51
270.000000
0
LINE
8
0
10
2442.401969
20
1184.733051
30
0.0
11
2444.551969
21
1184.733051
31
0.0
0
ARC
8
0
10
2444.551969
20
1184.433051
30
0.0
40
0.300000
50
0.000000
51
90.000000
0
LINE
8
0
10
2444.851969
20
1184.433051
30
0.0
11
2444.851969
21
1182.533051
31
0.0
0
ARC
8
0
10
2444.551969
20
1182.533051
30
0.0
40
0.300000
50
270.000000
51
0.000000
0
LINE
8
0
10
2444.551969
20
1182.233051
30
0.0
11
2442.401969
21
1182.233051
31
0.0
0
ARC
8
0
10
2442.401969
20
1181.933051
30
0.0
40
0.300000
50
90.000000
51
180.000000
0
LINE
8
0
10
2442.101969
20
1181.933051
30
0.0
11
2442.101969
21
1179.733051
31
0.0
0
ARC
8
0
10
2441.601969
20
1179.733051
30
0.0
40
0.500000
50
270.000000
51
0.000000
0
LINE
8
0
10
2441.601969
20
1179.233051
30
0.0
11
2440.601969
21
1179.233051
31
0.0
0
ARC
8
0
10
2440.601969
20
1179.733051
30
0.0
40
0.500000
50
180.000000
51
270.000000
0
LINE
8
0
10
2440.101969
20
1179.733051
30
0.0
11
2440.101969
21
1188.733051
31
0.0
0
ARC
8
0
10
2439.101969
20
1188.733051
30
0.0
40
1.000000
50
0.000000
51
90.000000
0
LINE
8
0
10
2439.101969
20
1189.733051
30
0.0
11
2432.851969
21
1189.733051
31
0.0
0
ARC
8
0
10
2432.851969
20
1188.733051
30
0.0
40
1.000000
50
90.000000
51
180.000000
0
LINE
8
0
10
2431.851969
20
1188.733051
30
0.0
11
2431.851969
21
1175.233051
31
0.0
0
ARC
8
0
10
2432.151969
20
1175.233051
30
0.0
40
0.300000
50
180.000000
51
270.000000
0
LINE
8
0
10
2432.151969
20
1174.933051
30
0.0
11
2433.451969
21
1174.933051
31
0.0
0
ARC
8
0
10
2433.451969
20
1174.433051
30
0.0
40
0.500000
50
0.000000
51
90.000000
0
LINE
8
0
10
2433.951969
20
1174.433051
30
0.0
11
2433.951969
21
1172.583051
31
0.0
0
ARC
8
0
10
2433.451969
20
1172.583051
30
0.0
40
0.500000
50
270.000000
51
0.000000
0
LINE
8
0
10
2433.451969
20
1172.083051
30
0.0
11
2432.751969
21
1172.083051
31
0.0
0
LINE
8
0
10
2432.751969
20
1172.083051
30
0.0
11
2432.751969
21
1173.033051
31
0.0
0
ARC
8
0
10
2432.451969
20
1173.033051
30
0.0
40
0.300000
50
0.000000
51
90.000000
0
LINE
8
0
10
2432.451969
20
1173.333051
30
0.0
11
2431.651969
21
1173.333051
31
0.0
0
ARC
8
0
10
2431.651969
20
1172.833051
30
0.0
40
0.500000
50
90.000000
51
180.000000
0
LINE
8
0
10
2431.151969
20
1172.833051
30
0.0
11
2431.151969
21
1167.833051
31
0.0
0
ARC
8
0
10
2431.651969
20
1167.833051
30
0.0
40
0.500000
50
180.000000
51
270.000000
0
LINE
8
0
10
2431.651969
20
1167.333051
30
0.0
11
2432.451969
21
1167.333051
31
0.0
0
ARC
8
0
10
2432.451969
20
1167.633051
30
0.0
40
0.300000
50
270.000000
51
0.000000
0
LINE
8
0
10
2432.751969
20
1167.633051
30
0.0
11
2432.751969
21
1168.583051
31
0.0
0
LINE
8
0
10
2432.751969
20
1168.583051
30
0.0
11
2433.451969
21
1168.583051
31
0.0
0
ARC
8
0
10
2433.451969
20
1168.083051
30
0.0
40
0.500000
50
0.000000
51
90.000000
0
LINE
8
0
10
2433.951969
20
1168.083051
30
0.0
11
2433.951969
21
1166.233051
31
0.0
0
ARC
8
0
10
2433.451969
20
1166.233051
30
0.0
40
0.500000
50
270.000000
51
0.000000
0
LINE
8
0
10
2433.451969
20
1165.733051
30
0.0
11
2430.151969
21
1165.733051
31
0.0
0
ARC
8
0
10
2430.151969
20
1166.233051
30
0.0
40
0.500000
50
180.000000
51
270.000000
0
LINE
8
0
10
2429.651969
20
1166.233051
30
0.0
11
2429.651969
21
1240.133051
31
0.0
0
ARC
8
0
10
2429.951969
20
1240.133051
30
0.0
40
0.300000
50
90.000000
51
180.000000
0
LINE
8
0
10
2429.951969
20
1240.433051
30
0.0
11
2431.944863
21
1240.433051
31
0.0
0
ARC
8
0
10
2431.944863
20
1239.933051
30
0.0
40
0.500000
50
45.000000
51
90.000000
0
LINE
8
0
10
2432.298416
20
1240.286604
30
0.0
11
2433.005523
21
1239.579497
31
0.0
0
ARC
8
0
10
2432.651969
20
1239.225944
30
0.0
40
0.500000
50
0.000000
51
45.000000
0
LINE
8
0
10
2433.151969
20
1239.225944
30
0.0
11
2433.151969
21
1238.433051
31
0.0
0
LINE
8
0
10
2433.151969
20
1238.433051
30
0.0
11
2431.451969
21
1238.433051
31
0.0
0
ARC
8
0
10
2431.451969
20
1238.133051
30
0.0
40
0.300000
50
90.000000
51
180.000000
0
LINE
8
0
10
2431.151969
20
1238.133051
30
0.0
11
2431.151969
21
1235.733051
31
0.0
0
ARC
8
0
10
2431.451969
20
1235.733051
30
0.0
40
0.300000
50
180.000000
51
270.000000
0
LINE
8
0
10
2431.451969
20
1235.433051
30
0.0
11
2448.851969
21
1235.433051
31
0.0
0
ARC
8
0
10
2448.851969
20
1235.733051
30
0.0
40
0.300000
50
270.000000
51
0.000000
0
LINE
8
0
10
2449.151969
20
1235.733051
30
0.0
11
2449.151969
21
1238.133051
31
0.0
0
ARC
8
0
10
2448.851969
20
1238.133051
30
0.0
40
0.300000
50
0.000000
51
90.000000
0
LINE
8
0
10
2448.851969
20
1238.433051
30
0.0
11
2447.151969
21
1238.433051
31
0.0
0
LINE
8
0
10
2447.151969
20
1238.433051
30
0.0
11
2447.151969
21
1239.225944
31
0.0
0
ARC
8
0
10
2447.651969
20
1239.225944
30
0.0
40
0.500000
50
135.000000
51
180.000000
0
LINE
8
0
10
2447.298416
20
1239.579497
30
0.0
11
2448.005523
21
1240.286604
31
0.0
0
ARC
8
0
10
2448.359076
20
1239.933051
30
0.0
40
0.500000
50
90.000000
51
135.000000
0
LINE
8
0
10
2448.359076
20
1240.433051
30
0.0
11
2450.451969
21
1240.433051
31
0.0
0
ARC
8
0
10
2450.451969
20
1239.933051
30
0.0
40
0.500000
50
0.000000
51
90.000000
0
LINE
8
0
10
2450.951969
20
1239.933051
30
0.0
11
2450.951969
21
1235.933051
31
0.0
0
ARC
8
0
10
2451.451969
20
1235.933051
30
0.0
40
0.500000
50
180.000000
51
270.000000
0
LINE
8
0
10
2451.451969
20
1235.433051
30
0.0
11
2469.251838
21
1235.433051
31
0.0
0
ARC
8
0
10
2469.551838
20
1235.433051
30
0.0
40
0.300000
50
180.000000
51
270.000000
0
LINE
8
0
10
2469.551838
20
1235.133051
30
0.0
11
2470.480081
21
1234.819242
31
0.0
0
ARC
8
0
10
2470.567793
20
1235.106133
30
0.0
40
0.300000
50
253.000000
51
348.943882
0
ARC
8
0
10
2471.156657
20
1234.991071
30
0.0
40
0.300000
50
93.000000
51
168.943882
0
LINE
8
0
10
2471.140956
20
1235.290660
30
0.0
11
2473.529015
21
1235.415813
31
0.0
0
ARC
8
0
10
2473.544716
20
1235.116224
30
0.0
40
0.300000
50
322.753920
51
93.000000
0
LINE
8
0
10
2473.783529
20
1234.934652
30
0.0
11
2471.702478
21
1232.197543
31
0.0
0
ARC
8
0
10
2471.584573
20
1232.283005
30
0.0
40
0.145621
50
178.000000
51
324.064292
0
LINE
8
0
10
2471.439041
20
1232.288087
30
0.0
11
2471.444471
21
1232.443574
31
0.0
0
ARC
8
0
10
2471.244592
20
1232.450554
30
0.0
40
0.200000
50
358.000000
51
59.256452
0
LINE
8
0
10
2471.346832
20
1232.622446
30
0.0
11
2469.815571
21
1233.579341
31
0.0
0
ARC
8
0
10
2469.538730
20
1233.694921
30
0.0
40
0.300000
50
337.339688
51
73.000000
0
LINE
8
0
10
2469.626441
20
1233.981812
30
0.0
11
2469.251838
21
1234.082632
31
0.0
0
ARC
8
0
10
2469.251838
20
1233.782632
30
0.0
40
0.300000
50
90.000000
51
246.421822
0
ARC
8
0
10
2469.051838
20
1233.324375
30
0.0
40
0.200000
50
0.000000
51
66.421822
0
LINE
8
0
10
2469.251838
20
1233.324375
30
0.0
11
2469.251838
21
1229.203051
31
0.0
0
ARC
8
0
10
2469.521838
20
1229.203051
30
0.0
40
0.270000
50
180.000000
51
270.000000
0
LINE
8
0
10
2469.521838
20
1228.933051
30
0.0
11
2469.851838
21
1228.933051
31
0.0
0
LINE
8
0
10
2469.851838
20
1228.933051
30
0.0
11
2471.351935
21
1229.848714
31
0.0
0
ARC
8
0
10
2471.551838
20
1229.854936
30
0.0
40
0.200000
50
0.000000
51
181.782862
0
LINE
8
0
10
2471.751838
20
1229.854936
30
0.0
11
2471.751838
21
1228.545152
31
0.0
0
ARC
8
0
10
2470.751838
20
1228.545152
30
0.0
40
1.000000
50
301.400000
51
0.000000
0
LINE
8
0
10
2471.272848
20
1227.691601
30
0.0
11
2469.730829
21
1226.750348
31
0.0
0
ARC
8
0
10
2470.251838
20
1225.896798
30
0.0
40
1.000000
50
121.400000
51
180.000000
0
LINE
8
0
10
2469.251838
20
1225.896798
30
0.0
11
2469.251838
21
1191.177823
31
0.0
0
ARC
8
0
10
2470.251838
20
1191.177823
30
0.0
40
1.000000
50
180.000000
51
238.600000
0
LINE
8
0
10
2469.730829
20
1190.324272
30
0.0
11
2471.122979
21
1189.474500
31
0.0
0
LINE
8
0
10
2464.451838
20
1233.133051
30
0.0
11
2464.451838
21
1233.033051
31
0.0
0
LINE
8
0
10
2464.451838
20
1233.033051
30
0.0
11
2467.451838
21
1233.033051
31
0.0
0
LINE
8
0
10
2467.451838
20
1233.033051
30
0.0
11
2467.451838
21
1191.733051
31
0.0
0
LINE
8
0
10
2467.451838
20
1191.733051
30
0.0
11
2431.651969
21
1191.733051
31
0.0
0
LINE
8
0
10
2431.651969
20
1191.733051
30
0.0
11
2431.651969
21
1233.033051
31
0.0
0
LINE
8
0
10
2431.651969
20
1233.033051
30
0.0
11
2434.651969
21
1233.033051
31
0.0
0
LINE
8
0
10
2434.651969
20
1233.033051
30
0.0
11
2434.651969
21
1233.133051
31
0.0
0
ARC
8
0
10
2435.151969
20
1233.133051
30
0.0
40
0.500000
50
90.000000
51
180.000000
0
LINE
8
0
10
2435.151969
20
1233.633051
30
0.0
11
2463.951838
21
1233.633051
31
0.0
0
ARC
8
0
10
2463.951838
20
1233.133051
30
0.0
40
0.500000
50
0.000000
51
90.000000
0
ATTDEF
8
0
10
0.000000
20
0.000000
30
0.0
40
3.5
1

3

2
PANE_WIDTH:0
70
0
0
ATTDEF
8
0
10
0.000000
20
0.000000
30
0.0
40
3.5
1

3

2
MIN_VETRO:0
70
0
0
ATTDEF
8
0
10
0.000000
20
0.000000
30
0.0
40
3.5
1

3

2
MAX_VETRO:0
70
0
0
ATTDEF
8
0
10
0.000000
20
0.000000
30
0.0
40
3.5
1

3

2
JX:0
70
0
0
ATTDEF
8
0
10
0.000000
20
0.000000
30
0.0
40
3.5
1

3

2
WX:0
70
0
0
ATTDEF
8
0
10
0.000000
20
0.000000
30
0.0
40
3.5
1

3

2
JY:0
70
0
0
ATTDEF
8
0
10
0.000000
20
0.000000
30
0.0
40
3.5
1

3

2
WY:0
70
0
0
ATTDEF
8
0
10
0.000000
20
0.000000
30
0.0
40
3.5
1

3

2
DESC:Hoja apert.int.H.I.
70
0
0
ATTDEF
8
0
10
0.000000
20
0.000000
30
0.0
40
3.5
1

3

2
DENS:2.333
70
0
0
ATTDEF
8
0
10
0.000000
20
0.000000
30
0.0
40
3.5
1

3

2
TDEV:81.78
70
0
0
ATTDEF
8
0
10
0.000000
20
0.000000
30
0.0
40
3.5
1

3

2
TDEV2:0
70
0
0
ATTDEF
8
0
10
0.000000
20
0.000000
30
0.0
40
3.5
1

3

2
TDEV3:0
70
0
0
ATTDEF
8
0
10
0.000000
20
0.000000
30
0.0
40
3.5
1

3

2
TDEV4:0
70
0
0
ATTDEF
8
0
10
0.000000
20
0.000000
30
0.0
40
3.5
1

3

2
TDEV5:0
70
0
0
ATTDEF
8
0
10
0.000000
20
0.000000
30
0.0
40
3.5
1

3

2
PANE_WIDTH:0
70
0
0
ATTDEF
8
0
10
0.000000
20
0.000000
30
0.0
40
3.5
1

3

2
MIN_VETRO:0
70
0
0
ATTDEF
8
0
10
0.000000
20
0.000000
30
0.0
40
3.5
1

3

2
MAX_VETRO:0
70
0
0
ATTDEF
8
0
10
0.000000
20
0.000000
30
0.0
40
3.5
1

3

2
JX:0
70
0
0
ATTDEF
8
0
10
0.000000
20
0.000000
30
0.0
40
3.5
1

3

2
WX:0
70
0
0
ATTDEF
8
0
10
0.000000
20
0.000000
30
0.0
40
3.5
1

3

2
JY:0
70
0
0
ATTDEF
8
0
10
0.000000
20
0.000000
30
0.0
40
3.5
1

3

2
WY:0
70
0
0
ENDSEC
0
EOF
