0
SECTION
2
ENTITIES
0
LINE
8
0
10
3068.553812
20
1234.440611
30
0.0
11
3081.953812
21
1225.513830
31
0.0
0
LINE
8
0
10
3068.553812
20
1241.913830
30
0.0
11
3068.553812
21
1234.440611
31
0.0
0
LINE
8
0
10
3080.782039
20
1241.913830
30
0.0
11
3068.553812
21
1241.913830
31
0.0
0
ARC
8
0
10
3093.934656
20
1243.888335
30
0.0
40
13.300000
50
188.537634
51
223.849831
0
ARC
8
0
10
3080.953812
20
1231.418464
30
0.0
40
4.700000
50
0.000000
51
43.849831
0
LINE
8
0
10
3085.653812
20
1225.513830
30
0.0
11
3085.653812
21
1231.418464
31
0.0
0
LINE
8
0
10
3081.953812
20
1225.513830
30
0.0
11
3085.653812
21
1225.513830
31
0.0
0
LINE
8
0
10
3009.853812
20
1225.513830
30
0.0
11
3079.609012
21
1225.513830
31
0.0
0
LINE
8
0
10
3009.853812
20
1235.602175
30
0.0
11
3009.853812
21
1225.513830
31
0.0
0
LINE
8
0
10
3068.295635
20
1233.050550
30
0.0
11
3009.853812
21
1235.602175
31
0.0
0
LINE
8
0
10
3079.609012
20
1225.513830
30
0.0
11
3068.295635
21
1233.050550
31
0.0
0
ARC
8
0
10
2999.953812
20
1242.831770
30
0.0
40
5.000000
50
180.000000
51
265.000000
0
LINE
8
0
10
3008.553812
20
1237.060268
30
0.0
11
2999.518033
21
1237.850796
31
0.0
0
LINE
8
0
10
3008.553812
20
1219.213830
30
0.0
11
3008.553812
21
1237.060268
31
0.0
0
LINE
8
0
10
3012.053812
20
1219.213830
30
0.0
11
3008.553812
21
1219.213830
31
0.0
0
LINE
8
0
10
3012.053812
20
1220.513830
30
0.0
11
3012.053812
21
1219.213830
31
0.0
0
LINE
8
0
10
3009.853812
20
1220.513830
30
0.0
11
3012.053812
21
1220.513830
31
0.0
0
LINE
8
0
10
3009.853812
20
1224.213830
30
0.0
11
3009.853812
21
1220.513830
31
0.0
0
LINE
8
0
10
3067.253812
20
1224.213830
30
0.0
11
3009.853812
21
1224.213830
31
0.0
0
LINE
8
0
10
3067.253812
20
1220.513830
30
0.0
11
3067.253812
21
1224.213830
31
0.0
0
LINE
8
0
10
3067.253812
20
1220.513830
30
0.0
11
3065.053812
21
1220.513830
31
0.0
0
LINE
8
0
10
3065.053812
20
1220.513830
30
0.0
11
3065.053812
21
1219.213830
31
0.0
0
LINE
8
0
10
3065.053812
20
1219.213830
30
0.0
11
3068.553812
21
1219.213830
31
0.0
0
LINE
8
0
10
3068.553812
20
1219.213830
30
0.0
11
3068.553812
21
1224.213830
31
0.0
0
LINE
8
0
10
3080.653812
20
1224.213830
30
0.0
11
3068.553812
21
1224.213830
31
0.0
0
LINE
8
0
10
3080.653812
20
1224.213830
30
0.0
11
3080.653812
21
1219.213830
31
0.0
0
LINE
8
0
10
3081.953812
20
1219.213830
30
0.0
11
3080.653812
21
1219.213830
31
0.0
0
LINE
8
0
10
3081.953812
20
1224.213830
30
0.0
11
3081.953812
21
1219.213830
31
0.0
0
LINE
8
0
10
3085.953812
20
1224.213830
30
0.0
11
3081.953812
21
1224.213830
31
0.0
0
LINE
8
0
10
3085.953812
20
1224.213830
30
0.0
11
3085.953812
21
1223.713830
31
0.0
0
ARC
8
0
10
3086.453812
20
1223.713830
30
0.0
40
0.500000
50
180.000000
51
0.000000
0
LINE
8
0
10
3086.953812
20
1231.418464
30
0.0
11
3086.953812
21
1223.713830
31
0.0
0
ARC
8
0
10
3080.953812
20
1231.418464
30
0.0
40
6.000000
50
0.000000
51
43.849831
0
ARC
8
0
10
3093.934656
20
1243.888335
30
0.0
40
12.000000
50
185.391486
51
223.849831
0
ARC
8
0
10
3081.489956
20
1242.713830
30
0.0
40
0.500000
50
5.391486
51
90.000000
0
LINE
8
0
10
3060.453814
20
1243.213830
30
0.0
11
3081.489956
21
1243.213830
31
0.0
0
LINE
8
0
10
3060.453814
20
1244.725155
30
0.0
11
3060.453814
21
1243.213830
31
0.0
0
LINE
8
0
10
3060.453814
20
1244.725155
30
0.0
11
3060.953814
21
1245.013830
31
0.0
0
LINE
8
0
10
3060.953814
20
1245.013830
30
0.0
11
3060.106968
21
1246.829898
31
0.0
0
ARC
8
0
10
3059.653814
20
1246.618589
30
0.0
40
0.500000
50
25.000000
51
180.000000
0
LINE
8
0
10
3059.153814
20
1241.913830
30
0.0
11
3059.153814
21
1246.618589
31
0.0
0
LINE
8
0
10
3067.253812
20
1241.913830
30
0.0
11
3059.153814
21
1241.913830
31
0.0
0
LINE
8
0
10
3067.253812
20
1234.497371
30
0.0
11
3067.253812
21
1241.913830
31
0.0
0
LINE
8
0
10
3009.853812
20
1237.003509
30
0.0
11
3067.253812
21
1234.497371
31
0.0
0
LINE
8
0
10
3009.853812
20
1241.913830
30
0.0
11
3009.853812
21
1237.003509
31
0.0
0
LINE
8
0
10
3017.953809
20
1241.913830
30
0.0
11
3009.853812
21
1241.913830
31
0.0
0
LINE
8
0
10
3017.953809
20
1241.913830
30
0.0
11
3017.953809
21
1246.618589
31
0.0
0
ARC
8
0
10
3017.453809
20
1246.618589
30
0.0
40
0.500000
50
0.000000
51
155.000000
0
LINE
8
0
10
3016.153809
20
1245.013830
30
0.0
11
3017.000656
21
1246.829898
31
0.0
0
LINE
8
0
10
3016.653809
20
1244.725155
30
0.0
11
3016.153809
21
1245.013830
31
0.0
0
LINE
8
0
10
3016.653809
20
1244.725155
30
0.0
11
3016.653809
21
1243.213830
31
0.0
0
LINE
8
0
10
3008.553812
20
1243.213830
30
0.0
11
3016.653809
21
1243.213830
31
0.0
0
LINE
8
0
10
3008.553812
20
1238.365234
30
0.0
11
3008.553812
21
1243.213830
31
0.0
0
LINE
8
0
10
2999.631335
20
1239.145849
30
0.0
11
3008.553812
21
1238.365234
31
0.0
0
ARC
8
0
10
2999.953812
20
1242.831770
30
0.0
40
3.700000
50
180.000000
51
265.000000
0
LINE
8
0
10
2996.253812
20
1249.263830
30
0.0
11
2996.253812
21
1242.831770
31
0.0
0
LINE
8
0
10
2997.303812
20
1249.263830
30
0.0
11
2996.253812
21
1249.263830
31
0.0
0
ARC
8
0
10
2997.303812
20
1249.913830
30
0.0
40
0.650000
50
270.000000
51
90.000000
0
LINE
8
0
10
2995.453812
20
1250.563830
30
0.0
11
2997.303812
21
1250.563830
31
0.0
0
ARC
8
0
10
2995.453812
20
1250.063830
30
0.0
40
0.500000
50
90.000000
51
180.000000
0
LINE
8
0
10
2994.953812
20
1242.831770
30
0.0
11
2994.953812
21
1250.063830
31
0.0
0
ATTDEF
8
0
10
0.000000
20
0.000000
30
0.0
40
3.5
1

3

2
PANE_WIDTH:0
70
0
0
ATTDEF
8
0
10
0.000000
20
0.000000
30
0.0
40
3.5
1

3

2
MIN_VETRO:0
70
0
0
ATTDEF
8
0
10
0.000000
20
0.000000
30
0.0
40
3.5
1

3

2
MAX_VETRO:0
70
0
0
ATTDEF
8
0
10
0.000000
20
0.000000
30
0.0
40
3.5
1

3

2
JX:0
70
0
0
ATTDEF
8
0
10
0.000000
20
0.000000
30
0.0
40
3.5
1

3

2
WX:0
70
0
0
ATTDEF
8
0
10
0.000000
20
0.000000
30
0.0
40
3.5
1

3

2
JY:0
70
0
0
ATTDEF
8
0
10
0.000000
20
0.000000
30
0.0
40
3.5
1

3

2
WY:0
70
0
0
ATTDEF
8
0
10
0.000000
20
0.000000
30
0.0
40
3.5
1

3

2
DESC:Condens.ventana trad
70
0
0
ATTDEF
8
0
10
0.000000
20
0.000000
30
0.0
40
3.5
1

3

2
DENS:0.9936
70
0
0
ATTDEF
8
0
10
0.000000
20
0.000000
30
0.0
40
3.5
1

3

2
TDEV:55.19
70
0
0
ATTDEF
8
0
10
0.000000
20
0.000000
30
0.0
40
3.5
1

3

2
TDEV2:0
70
0
0
ATTDEF
8
0
10
0.000000
20
0.000000
30
0.0
40
3.5
1

3

2
TDEV3:0
70
0
0
ATTDEF
8
0
10
0.000000
20
0.000000
30
0.0
40
3.5
1

3

2
TDEV4:0
70
0
0
ATTDEF
8
0
10
0.000000
20
0.000000
30
0.0
40
3.5
1

3

2
TDEV5:0
70
0
0
ATTDEF
8
0
10
0.000000
20
0.000000
30
0.0
40
3.5
1

3

2
PANE_WIDTH:0
70
0
0
ATTDEF
8
0
10
0.000000
20
0.000000
30
0.0
40
3.5
1

3

2
MIN_VETRO:0
70
0
0
ATTDEF
8
0
10
0.000000
20
0.000000
30
0.0
40
3.5
1

3

2
MAX_VETRO:0
70
0
0
ATTDEF
8
0
10
0.000000
20
0.000000
30
0.0
40
3.5
1

3

2
JX:0
70
0
0
ATTDEF
8
0
10
0.000000
20
0.000000
30
0.0
40
3.5
1

3

2
WX:0
70
0
0
ATTDEF
8
0
10
0.000000
20
0.000000
30
0.0
40
3.5
1

3

2
JY:0
70
0
0
ATTDEF
8
0
10
0.000000
20
0.000000
30
0.0
40
3.5
1

3

2
WY:0
70
0
0
ENDSEC
0
EOF
