0
SECTION
2
ENTITIES
0
LINE
8
0
10
2498.166200
20
1224.613411
30
0.0
11
2517.266200
21
1224.613411
31
0.0
0
LINE
8
0
10
2517.266200
20
1224.613411
30
0.0
11
2517.266200
21
1192.813411
31
0.0
0
LINE
8
0
10
2517.266200
20
1192.813411
30
0.0
11
2498.166200
21
1192.813411
31
0.0
0
LINE
8
0
10
2498.166200
20
1192.813411
30
0.0
11
2498.166200
21
1224.613411
31
0.0
0
ARC
8
0
10
2518.980863
20
1226.013411
30
0.0
40
0.200000
50
45.729847
51
90.000000
0
LINE
8
0
10
2518.980863
20
1226.213411
30
0.0
11
2516.366200
21
1226.213411
31
0.0
0
LINE
8
0
10
2516.366200
20
1226.213411
30
0.0
11
2516.366200
21
1230.913411
31
0.0
0
ARC
8
0
10
2516.066200
20
1230.913411
30
0.0
40
0.300000
50
0.000000
51
90.000000
0
LINE
8
0
10
2516.066200
20
1231.213411
30
0.0
11
2513.773307
21
1231.213411
31
0.0
0
ARC
8
0
10
2513.773307
20
1230.713411
30
0.0
40
0.500000
50
90.000000
51
135.000000
0
LINE
8
0
10
2513.419754
20
1231.066964
30
0.0
11
2512.712647
21
1230.359857
31
0.0
0
ARC
8
0
10
2513.066200
20
1230.006304
30
0.0
40
0.500000
50
135.000000
51
180.000000
0
LINE
8
0
10
2512.566200
20
1230.006304
30
0.0
11
2512.566200
21
1229.213411
31
0.0
0
LINE
8
0
10
2512.566200
20
1229.213411
30
0.0
11
2514.566200
21
1229.213411
31
0.0
0
LINE
8
0
10
2514.566200
20
1229.213411
30
0.0
11
2514.566200
21
1226.213411
31
0.0
0
LINE
8
0
10
2514.566200
20
1226.213411
30
0.0
11
2498.566200
21
1226.213411
31
0.0
0
LINE
8
0
10
2498.566200
20
1226.213411
30
0.0
11
2498.566200
21
1229.213411
31
0.0
0
LINE
8
0
10
2498.566200
20
1229.213411
30
0.0
11
2500.566200
21
1229.213411
31
0.0
0
LINE
8
0
10
2500.566200
20
1229.213411
30
0.0
11
2500.566200
21
1230.006304
31
0.0
0
ARC
8
0
10
2500.066200
20
1230.006304
30
0.0
40
0.500000
50
0.000000
51
45.000000
0
LINE
8
0
10
2500.419754
20
1230.359857
30
0.0
11
2499.712647
21
1231.066964
31
0.0
0
ARC
8
0
10
2499.359093
20
1230.713411
30
0.0
40
0.500000
50
45.000000
51
90.000000
0
LINE
8
0
10
2499.359093
20
1231.213411
30
0.0
11
2498.190464
21
1231.213411
31
0.0
0
ARC
8
0
10
2498.190464
20
1230.913411
30
0.0
40
0.300000
50
90.000000
51
135.000000
0
LINE
8
0
10
2497.978332
20
1231.125543
30
0.0
11
2496.654068
21
1229.801279
31
0.0
0
ARC
8
0
10
2496.866200
20
1229.589147
30
0.0
40
0.300000
50
135.000000
51
180.000000
0
LINE
8
0
10
2496.566200
20
1229.589147
30
0.0
11
2496.566200
21
1187.837675
31
0.0
0
ARC
8
0
10
2496.866200
20
1187.837675
30
0.0
40
0.300000
50
180.000000
51
225.000000
0
LINE
8
0
10
2496.654068
20
1187.625543
30
0.0
11
2497.978332
21
1186.301279
31
0.0
0
ARC
8
0
10
2498.190464
20
1186.513411
30
0.0
40
0.300000
50
225.000000
51
270.000000
0
LINE
8
0
10
2498.190464
20
1186.213411
30
0.0
11
2499.359093
21
1186.213411
31
0.0
0
ARC
8
0
10
2499.359093
20
1186.713411
30
0.0
40
0.500000
50
270.000000
51
315.000000
0
LINE
8
0
10
2499.712647
20
1186.359857
30
0.0
11
2500.419754
21
1187.066964
31
0.0
0
ARC
8
0
10
2500.066200
20
1187.420517
30
0.0
40
0.500000
50
315.000000
51
0.000000
0
LINE
8
0
10
2500.566200
20
1187.420517
30
0.0
11
2500.566200
21
1187.713411
31
0.0
0
LINE
8
0
10
2500.566200
20
1187.713411
30
0.0
11
2498.828942
21
1187.713411
31
0.0
0
LINE
8
0
10
2498.828942
20
1187.713411
30
0.0
11
2498.166200
21
1188.376152
31
0.0
0
LINE
8
0
10
2498.166200
20
1188.376152
30
0.0
11
2498.166200
21
1191.213411
31
0.0
0
LINE
8
0
10
2498.166200
20
1191.213411
30
0.0
11
2514.566200
21
1191.213411
31
0.0
0
LINE
8
0
10
2514.566200
20
1191.213411
30
0.0
11
2514.566200
21
1189.613411
31
0.0
0
LINE
8
0
10
2514.566200
20
1189.613411
30
0.0
11
2514.866200
21
1189.613411
31
0.0
0
ARC
8
0
10
2514.866200
20
1189.913411
30
0.0
40
0.300000
50
270.000000
51
336.242263
0
LINE
8
0
10
2515.140777
20
1189.792550
30
0.0
11
2515.766200
21
1191.213411
31
0.0
0
LINE
8
0
10
2515.766200
20
1191.213411
30
0.0
11
2518.980863
21
1191.213411
31
0.0
0
ARC
8
0
10
2518.980863
20
1191.413411
30
0.0
40
0.200000
50
270.000000
51
314.270153
0
ARC
8
0
10
2520.516556
20
1189.838086
30
0.0
40
2.000000
50
46.465725
51
134.270153
0
ARC
8
0
10
2522.238527
20
1191.650493
30
0.0
40
0.500000
50
226.465725
51
270.000000
0
LINE
8
0
10
2522.238527
20
1191.150493
30
0.0
11
2522.927323
21
1191.150493
31
0.0
0
ARC
8
0
10
2522.927323
20
1191.450493
30
0.0
40
0.300000
50
270.000000
51
30.497622
0
LINE
8
0
10
2523.185818
20
1191.602743
30
0.0
11
2521.762115
21
1194.019942
31
0.0
0
LINE
8
0
10
2521.762115
20
1194.019942
30
0.0
11
2521.719501
21
1194.076007
31
0.0
0
LINE
8
0
10
2521.719501
20
1194.076007
30
0.0
11
2521.259333
21
1194.552888
31
0.0
0
ARC
8
0
10
2521.154544
20
1194.451771
30
0.0
40
0.145621
50
43.978161
51
183.658900
0
LINE
8
0
10
2521.009220
20
1194.442478
30
0.0
11
2521.019149
21
1194.287213
31
0.0
0
ARC
8
0
10
2520.819556
20
1194.274450
30
0.0
40
0.200000
50
310.482877
51
3.658900
0
LINE
8
0
10
2520.949401
20
1194.122330
30
0.0
11
2519.345198
21
1192.753041
31
0.0
0
ARC
8
0
10
2519.150432
20
1192.981221
30
0.0
40
0.300000
50
288.658900
51
310.482877
0
LINE
8
0
10
2519.246412
20
1192.696989
30
0.0
11
2518.962180
21
1192.601009
31
0.0
0
ARC
8
0
10
2518.866200
20
1192.885241
30
0.0
40
0.300000
50
90.000000
51
288.658900
0
LINE
8
0
10
2518.866200
20
1193.185241
30
0.0
11
2518.866200
21
1197.685241
31
0.0
0
ARC
8
0
10
2519.066200
20
1197.685241
30
0.0
40
0.200000
50
90.000000
51
180.000000
0
LINE
8
0
10
2519.066200
20
1197.885241
30
0.0
11
2519.134089
21
1197.885241
31
0.0
0
ARC
8
0
10
2519.134089
20
1197.585241
30
0.0
40
0.300000
50
58.619868
51
90.000000
0
LINE
8
0
10
2519.290303
20
1197.841360
30
0.0
11
2520.966296
21
1196.819127
31
0.0
0
ARC
8
0
10
2521.166200
20
1196.812937
30
0.0
40
0.200000
50
178.226372
51
0.000000
0
LINE
8
0
10
2521.366200
20
1196.812937
30
0.0
11
2521.366200
21
1198.219928
31
0.0
0
ARC
8
0
10
2521.166200
20
1198.219928
30
0.0
40
0.200000
50
0.000000
51
58.619868
0
LINE
8
0
10
2521.270343
20
1198.390674
30
0.0
11
2519.201701
21
1199.652394
31
0.0
0
ARC
8
0
10
2519.566200
20
1200.250006
30
0.0
40
0.700000
50
180.000000
51
238.619868
0
LINE
8
0
10
2518.866200
20
1200.250006
30
0.0
11
2518.866200
21
1217.176815
31
0.0
0
ARC
8
0
10
2519.566200
20
1217.176815
30
0.0
40
0.700000
50
121.380132
51
180.000000
0
LINE
8
0
10
2519.201701
20
1217.774427
30
0.0
11
2521.270343
21
1219.036147
31
0.0
0
ARC
8
0
10
2521.166200
20
1219.206894
30
0.0
40
0.200000
50
301.380132
51
0.000000
0
LINE
8
0
10
2521.366200
20
1219.206894
30
0.0
11
2521.366200
21
1220.613884
31
0.0
0
ARC
8
0
10
2521.166200
20
1220.613884
30
0.0
40
0.200000
50
0.000000
51
181.773628
0
LINE
8
0
10
2520.966296
20
1220.607694
30
0.0
11
2519.290303
21
1219.585461
31
0.0
0
ARC
8
0
10
2519.134089
20
1219.841580
30
0.0
40
0.300000
50
270.000000
51
301.380132
0
LINE
8
0
10
2519.134089
20
1219.541580
30
0.0
11
2519.066200
21
1219.541580
31
0.0
0
ARC
8
0
10
2519.066200
20
1219.741580
30
0.0
40
0.200000
50
180.000000
51
270.000000
0
LINE
8
0
10
2518.866200
20
1219.741580
30
0.0
11
2518.866200
21
1224.241580
31
0.0
0
ARC
8
0
10
2518.866200
20
1224.541580
30
0.0
40
0.300000
50
71.341100
51
270.000000
0
LINE
8
0
10
2518.962180
20
1224.825812
30
0.0
11
2519.246412
21
1224.729832
31
0.0
0
ARC
8
0
10
2519.150432
20
1224.445600
30
0.0
40
0.300000
50
49.517123
51
71.341100
0
LINE
8
0
10
2519.345198
20
1224.673780
30
0.0
11
2520.949401
21
1223.304491
31
0.0
0
ARC
8
0
10
2520.819556
20
1223.152371
30
0.0
40
0.200000
50
356.341100
51
49.517123
0
LINE
8
0
10
2521.019149
20
1223.139608
30
0.0
11
2521.009220
21
1222.984343
31
0.0
0
ARC
8
0
10
2521.154544
20
1222.975050
30
0.0
40
0.145621
50
176.341100
51
316.021840
0
LINE
8
0
10
2521.259333
20
1222.873934
30
0.0
11
2521.719501
21
1223.350815
31
0.0
0
LINE
8
0
10
2521.719501
20
1223.350815
30
0.0
11
2521.762115
21
1223.406879
31
0.0
0
LINE
8
0
10
2521.762115
20
1223.406879
30
0.0
11
2523.185818
21
1225.824078
31
0.0
0
ARC
8
0
10
2522.927323
20
1225.976329
30
0.0
40
0.300000
50
329.502378
51
90.000000
0
LINE
8
0
10
2522.927323
20
1226.276329
30
0.0
11
2522.238527
21
1226.276329
31
0.0
0
ARC
8
0
10
2522.238527
20
1225.776329
30
0.0
40
0.500000
50
90.000000
51
133.534275
0
ARC
8
0
10
2520.516556
20
1227.588735
30
0.0
40
2.000000
50
225.729847
51
313.534275
0
ARC
8
0
10
2524.398114
20
1192.648527
30
0.0
40
1.200000
50
213.000000
51
270.000000
0
LINE
8
0
10
2524.398114
20
1191.448527
30
0.0
11
2527.366200
21
1191.448527
31
0.0
0
LINE
8
0
10
2527.366200
20
1191.448527
30
0.0
11
2545.366200
21
1191.448527
31
0.0
0
LINE
8
0
10
2545.366200
20
1191.448527
30
0.0
11
2548.334286
21
1191.448527
31
0.0
0
ARC
8
0
10
2548.334286
20
1192.648527
30
0.0
40
1.200000
50
270.000000
51
327.000000
0
LINE
8
0
10
2549.340691
20
1191.994960
30
0.0
11
2550.844227
21
1194.310203
31
0.0
0
ARC
8
0
10
2551.096934
20
1194.148527
30
0.0
40
0.300000
50
90.000000
51
147.390000
0
LINE
8
0
10
2551.096934
20
1194.448527
30
0.0
11
2551.351395
21
1194.448527
31
0.0
0
ARC
8
0
10
2551.351395
20
1193.248527
30
0.0
40
1.200000
50
58.993666
51
90.000000
0
LINE
8
0
10
2551.969554
20
1194.277060
30
0.0
11
2553.135723
21
1193.590047
31
0.0
0
ARC
8
0
10
2553.287999
20
1193.848527
30
0.0
40
0.300000
50
239.496833
51
270.000000
0
LINE
8
0
10
2553.287999
20
1193.548527
30
0.0
11
2553.466200
21
1193.548527
31
0.0
0
ARC
8
0
10
2553.466200
20
1193.948527
30
0.0
40
0.400000
50
270.000000
51
0.000000
0
LINE
8
0
10
2553.866200
20
1193.948527
30
0.0
11
2553.866200
21
1194.348527
31
0.0
0
ARC
8
0
10
2553.766200
20
1194.348527
30
0.0
40
0.100000
50
0.000000
51
90.000000
0
LINE
8
0
10
2553.766200
20
1194.448527
30
0.0
11
2553.766200
21
1194.723527
31
0.0
0
ARC
8
0
10
2553.466200
20
1194.723527
30
0.0
40
0.300000
50
0.000000
51
90.000000
0
LINE
8
0
10
2553.466200
20
1195.023527
30
0.0
11
2553.406674
21
1195.023527
31
0.0
0
ARC
8
0
10
2553.116200
20
1195.548527
30
0.0
40
0.600000
50
61.044976
51
298.955024
0
LINE
8
0
10
2553.406674
20
1196.073527
30
0.0
11
2553.466200
21
1196.073527
31
0.0
0
ARC
8
0
10
2553.466200
20
1196.373527
30
0.0
40
0.300000
50
270.000000
51
0.000000
0
LINE
8
0
10
2553.766200
20
1196.373527
30
0.0
11
2553.766200
21
1196.648527
31
0.0
0
ARC
8
0
10
2553.766200
20
1196.748527
30
0.0
40
0.100000
50
270.000000
51
0.000000
0
LINE
8
0
10
2553.866200
20
1196.748527
30
0.0
11
2553.866200
21
1197.148527
31
0.0
0
ARC
8
0
10
2553.466200
20
1197.148527
30
0.0
40
0.400000
50
0.000000
51
90.000000
0
LINE
8
0
10
2553.466200
20
1197.548527
30
0.0
11
2553.287865
21
1197.548527
31
0.0
0
ARC
8
0
10
2553.287865
20
1197.248527
30
0.0
40
0.300000
50
90.000000
51
120.455827
0
LINE
8
0
10
2553.135803
20
1197.507133
30
0.0
11
2551.965480
21
1196.818975
31
0.0
0
ARC
8
0
10
2551.349021
20
1197.848527
30
0.0
40
1.200000
50
270.000000
51
300.911655
0
LINE
8
0
10
2551.349021
20
1196.648527
30
0.0
11
2550.629573
21
1196.648527
31
0.0
0
ARC
8
0
10
2550.629573
20
1195.448527
30
0.0
40
1.200000
50
90.000000
51
147.000000
0
LINE
8
0
10
2549.623168
20
1196.102094
30
0.0
11
2548.054159
21
1193.686033
31
0.0
0
ARC
8
0
10
2546.880021
20
1194.448527
30
0.0
40
1.400000
50
270.000000
51
327.000000
0
LINE
8
0
10
2546.880021
20
1193.048527
30
0.0
11
2544.766200
21
1193.048527
31
0.0
0
ARC
8
0
10
2544.766200
20
1193.548527
30
0.0
40
0.500000
50
180.000000
51
270.000000
0
LINE
8
0
10
2544.266200
20
1193.548527
30
0.0
11
2544.266200
21
1207.798527
31
0.0
0
ARC
8
0
10
2543.666200
20
1207.798527
30
0.0
40
0.600000
50
0.000000
51
180.000000
0
LINE
8
0
10
2543.066200
20
1207.798527
30
0.0
11
2543.066200
21
1193.548527
31
0.0
0
ARC
8
0
10
2542.566200
20
1193.548527
30
0.0
40
0.500000
50
270.000000
51
0.000000
0
LINE
8
0
10
2542.566200
20
1193.048527
30
0.0
11
2537.466200
21
1193.048527
31
0.0
0
ARC
8
0
10
2537.466200
20
1193.548527
30
0.0
40
0.500000
50
180.000000
51
270.000000
0
LINE
8
0
10
2536.966200
20
1193.548527
30
0.0
11
2536.966200
21
1207.798527
31
0.0
0
ARC
8
0
10
2536.366200
20
1207.798527
30
0.0
40
0.600000
50
0.000000
51
180.000000
0
LINE
8
0
10
2535.766200
20
1207.798527
30
0.0
11
2535.766200
21
1193.548527
31
0.0
0
ARC
8
0
10
2535.266200
20
1193.548527
30
0.0
40
0.500000
50
270.000000
51
0.000000
0
LINE
8
0
10
2535.266200
20
1193.048527
30
0.0
11
2530.066200
21
1193.048527
31
0.0
0
ARC
8
0
10
2530.066200
20
1193.548527
30
0.0
40
0.500000
50
180.000000
51
270.000000
0
LINE
8
0
10
2529.566200
20
1193.548527
30
0.0
11
2529.566200
21
1207.798527
31
0.0
0
ARC
8
0
10
2528.966200
20
1207.798527
30
0.0
40
0.600000
50
0.000000
51
180.000000
0
LINE
8
0
10
2528.366200
20
1207.798527
30
0.0
11
2528.366200
21
1193.548527
31
0.0
0
ARC
8
0
10
2527.866200
20
1193.548527
30
0.0
40
0.500000
50
270.000000
51
0.000000
0
LINE
8
0
10
2527.866200
20
1193.048527
30
0.0
11
2525.852380
21
1193.048527
31
0.0
0
ARC
8
0
10
2525.852380
20
1194.448527
30
0.0
40
1.400000
50
213.000000
51
270.000000
0
LINE
8
0
10
2524.678241
20
1193.686033
30
0.0
11
2523.109233
21
1196.102094
31
0.0
0
ARC
8
0
10
2522.102828
20
1195.448527
30
0.0
40
1.200000
50
33.000000
51
90.000000
0
LINE
8
0
10
2522.102828
20
1196.648527
30
0.0
11
2521.383380
21
1196.648527
31
0.0
0
ARC
8
0
10
2521.383380
20
1197.848527
30
0.0
40
1.200000
50
239.088345
51
270.000000
0
LINE
8
0
10
2520.766921
20
1196.818975
30
0.0
11
2519.596597
21
1197.507133
31
0.0
0
ARC
8
0
10
2519.444535
20
1197.248527
30
0.0
40
0.300000
50
59.544173
51
90.000000
0
LINE
8
0
10
2519.444535
20
1197.548527
30
0.0
11
2519.266200
21
1197.548527
31
0.0
0
ARC
8
0
10
2519.266200
20
1197.148527
30
0.0
40
0.400000
50
90.000000
51
180.000000
0
LINE
8
0
10
2518.866200
20
1197.148527
30
0.0
11
2518.866200
21
1196.748527
31
0.0
0
ARC
8
0
10
2518.966200
20
1196.748527
30
0.0
40
0.100000
50
180.000000
51
270.000000
0
LINE
8
0
10
2518.966200
20
1196.648527
30
0.0
11
2518.966200
21
1196.373527
31
0.0
0
ARC
8
0
10
2519.266200
20
1196.373527
30
0.0
40
0.300000
50
180.000000
51
270.000000
0
LINE
8
0
10
2519.266200
20
1196.073527
30
0.0
11
2519.325726
21
1196.073527
31
0.0
0
ARC
8
0
10
2519.616200
20
1195.548527
30
0.0
40
0.600000
50
241.044976
51
118.955024
0
LINE
8
0
10
2519.325726
20
1195.023527
30
0.0
11
2519.266200
21
1195.023527
31
0.0
0
ARC
8
0
10
2519.266200
20
1194.723527
30
0.0
40
0.300000
50
90.000000
51
180.000000
0
LINE
8
0
10
2518.966200
20
1194.723527
30
0.0
11
2518.966200
21
1194.448527
31
0.0
0
ARC
8
0
10
2518.966200
20
1194.348527
30
0.0
40
0.100000
50
90.000000
51
180.000000
0
LINE
8
0
10
2518.866200
20
1194.348527
30
0.0
11
2518.866200
21
1193.948527
31
0.0
0
ARC
8
0
10
2519.266200
20
1193.948527
30
0.0
40
0.400000
50
180.000000
51
270.000000
0
LINE
8
0
10
2519.266200
20
1193.548527
30
0.0
11
2519.444402
21
1193.548527
31
0.0
0
ARC
8
0
10
2519.444402
20
1193.848527
30
0.0
40
0.300000
50
270.000000
51
300.503167
0
LINE
8
0
10
2519.596678
20
1193.590047
30
0.0
11
2520.762847
21
1194.277060
31
0.0
0
ARC
8
0
10
2521.381006
20
1193.248527
30
0.0
40
1.200000
50
90.000000
51
121.006334
0
LINE
8
0
10
2521.381006
20
1194.448527
30
0.0
11
2521.635466
21
1194.448527
31
0.0
0
ARC
8
0
10
2521.635466
20
1194.148527
30
0.0
40
0.300000
50
32.610000
51
90.000000
0
LINE
8
0
10
2521.888174
20
1194.310203
30
0.0
11
2523.391710
21
1191.994960
31
0.0
0
LINE
8
0
10
2524.398114
20
1225.978294
30
0.0
11
2527.366200
21
1225.978294
31
0.0
0
ARC
8
0
10
2527.366200
20
1226.478294
30
0.0
40
0.500000
50
270.000000
51
0.000000
0
LINE
8
0
10
2527.866200
20
1226.478294
30
0.0
11
2527.866200
21
1229.078294
31
0.0
0
ARC
8
0
10
2528.166200
20
1229.078294
30
0.0
40
0.300000
50
90.000000
51
180.000000
0
LINE
8
0
10
2528.166200
20
1229.378294
30
0.0
11
2529.066200
21
1229.378294
31
0.0
0
LINE
8
0
10
2529.066200
20
1229.378294
30
0.0
11
2529.416200
21
1229.378294
31
0.0
0
ARC
8
0
10
2529.416200
20
1228.378294
30
0.0
40
1.000000
50
0.000000
51
90.000000
0
ARC
8
0
10
2530.216200
20
1228.378294
30
0.0
40
0.200000
50
270.000000
51
0.000000
0
LINE
8
0
10
2530.216200
20
1228.178294
30
0.0
11
2529.366200
21
1228.178294
31
0.0
0
ARC
8
0
10
2529.366200
20
1227.878294
30
0.0
40
0.300000
50
90.000000
51
180.000000
0
LINE
8
0
10
2529.066200
20
1227.878294
30
0.0
11
2529.066200
21
1226.478294
31
0.0
0
ARC
8
0
10
2529.566200
20
1226.478294
30
0.0
40
0.500000
50
180.000000
51
270.000000
0
LINE
8
0
10
2529.566200
20
1225.978294
30
0.0
11
2535.366200
21
1225.978294
31
0.0
0
ARC
8
0
10
2535.366200
20
1226.478294
30
0.0
40
0.500000
50
270.000000
51
0.000000
0
LINE
8
0
10
2535.866200
20
1226.478294
30
0.0
11
2535.866200
21
1230.228294
31
0.0
0
ARC
8
0
10
2536.366200
20
1230.228294
30
0.0
40
0.500000
50
90.000000
51
180.000000
0
LINE
8
0
10
2536.366200
20
1230.728294
30
0.0
11
2537.559093
21
1230.728294
31
0.0
0
ARC
8
0
10
2537.559093
20
1230.228294
30
0.0
40
0.500000
50
45.000000
51
90.000000
0
LINE
8
0
10
2537.912647
20
1230.581847
30
0.0
11
2538.619754
21
1229.874741
31
0.0
0
ARC
8
0
10
2538.266200
20
1229.521187
30
0.0
40
0.500000
50
0.000000
51
45.000000
0
LINE
8
0
10
2538.766200
20
1229.521187
30
0.0
11
2538.766200
21
1229.028294
31
0.0
0
ARC
8
0
10
2538.466200
20
1229.028294
30
0.0
40
0.300000
50
270.000000
51
0.000000
0
LINE
8
0
10
2538.466200
20
1228.728294
30
0.0
11
2537.666200
21
1228.728294
31
0.0
0
ARC
8
0
10
2537.666200
20
1228.428294
30
0.0
40
0.300000
50
90.000000
51
180.000000
0
LINE
8
0
10
2537.366200
20
1228.428294
30
0.0
11
2537.366200
21
1226.478294
31
0.0
0
ARC
8
0
10
2537.866200
20
1226.478294
30
0.0
40
0.500000
50
180.000000
51
270.000000
0
LINE
8
0
10
2537.866200
20
1225.978294
30
0.0
11
2542.866200
21
1225.978294
31
0.0
0
ARC
8
0
10
2542.866200
20
1226.478294
30
0.0
40
0.500000
50
270.000000
51
0.000000
0
LINE
8
0
10
2543.366200
20
1226.478294
30
0.0
11
2543.366200
21
1228.428294
31
0.0
0
ARC
8
0
10
2543.066200
20
1228.428294
30
0.0
40
0.300000
50
0.000000
51
90.000000
0
LINE
8
0
10
2543.066200
20
1228.728294
30
0.0
11
2542.266200
21
1228.728294
31
0.0
0
ARC
8
0
10
2542.266200
20
1229.028294
30
0.0
40
0.300000
50
180.000000
51
270.000000
0
LINE
8
0
10
2541.966200
20
1229.028294
30
0.0
11
2541.966200
21
1229.521187
31
0.0
0
ARC
8
0
10
2542.466200
20
1229.521187
30
0.0
40
0.500000
50
135.000000
51
180.000000
0
LINE
8
0
10
2542.112647
20
1229.874741
30
0.0
11
2542.819754
21
1230.581847
31
0.0
0
ARC
8
0
10
2543.173307
20
1230.228294
30
0.0
40
0.500000
50
90.000000
51
135.000000
0
LINE
8
0
10
2543.173307
20
1230.728294
30
0.0
11
2544.366200
21
1230.728294
31
0.0
0
ARC
8
0
10
2544.366200
20
1230.228294
30
0.0
40
0.500000
50
0.000000
51
90.000000
0
LINE
8
0
10
2544.866200
20
1230.228294
30
0.0
11
2544.866200
21
1226.478294
31
0.0
0
ARC
8
0
10
2545.366200
20
1226.478294
30
0.0
40
0.500000
50
180.000000
51
270.000000
0
LINE
8
0
10
2545.366200
20
1225.978294
30
0.0
11
2548.334286
21
1225.978294
31
0.0
0
ARC
8
0
10
2548.334286
20
1224.778294
30
0.0
40
1.200000
50
33.000000
51
90.000000
0
LINE
8
0
10
2549.340691
20
1225.431861
30
0.0
11
2550.844227
21
1223.116619
31
0.0
0
ARC
8
0
10
2551.096934
20
1223.278294
30
0.0
40
0.300000
50
212.610000
51
270.000000
0
LINE
8
0
10
2551.096934
20
1222.978294
30
0.0
11
2551.351303
21
1222.978294
31
0.0
0
ARC
8
0
10
2551.351303
20
1224.178294
30
0.0
40
1.200000
50
270.000000
51
300.503167
0
LINE
8
0
10
2551.960407
20
1223.144373
30
0.0
11
2553.135723
21
1223.836774
31
0.0
0
ARC
8
0
10
2553.287999
20
1223.578294
30
0.0
40
0.300000
50
90.000000
51
120.503167
0
LINE
8
0
10
2553.287999
20
1223.878294
30
0.0
11
2553.466200
21
1223.878294
31
0.0
0
ARC
8
0
10
2553.466200
20
1223.478294
30
0.0
40
0.400000
50
0.000000
51
90.000000
0
LINE
8
0
10
2553.866200
20
1223.478294
30
0.0
11
2553.866200
21
1223.078294
31
0.0
0
ARC
8
0
10
2553.766200
20
1223.078294
30
0.0
40
0.100000
50
270.000000
51
0.000000
0
LINE
8
0
10
2553.766200
20
1222.978294
30
0.0
11
2553.766200
21
1222.703294
31
0.0
0
ARC
8
0
10
2553.466200
20
1222.703294
30
0.0
40
0.300000
50
254.493566
51
0.000000
0
ARC
8
0
10
2553.116200
20
1221.878294
30
0.0
40
0.600000
50
63.278126
51
296.721874
0
ARC
8
0
10
2553.466200
20
1221.053294
30
0.0
40
0.300000
50
0.000000
51
105.506434
0
LINE
8
0
10
2553.766200
20
1221.053294
30
0.0
11
2553.766200
21
1220.778294
31
0.0
0
ARC
8
0
10
2553.766200
20
1220.678294
30
0.0
40
0.100000
50
0.000000
51
90.000000
0
LINE
8
0
10
2553.866200
20
1220.678294
30
0.0
11
2553.866200
21
1220.278294
31
0.0
0
ARC
8
0
10
2553.466200
20
1220.278294
30
0.0
40
0.400000
50
270.000000
51
0.000000
0
LINE
8
0
10
2553.466200
20
1219.878294
30
0.0
11
2553.287865
21
1219.878294
31
0.0
0
ARC
8
0
10
2553.287865
20
1220.178294
30
0.0
40
0.300000
50
239.544173
51
270.000000
0
LINE
8
0
10
2553.135803
20
1219.919688
30
0.0
11
2551.965480
21
1220.607847
31
0.0
0
ARC
8
0
10
2551.349021
20
1219.578294
30
0.0
40
1.200000
50
59.088345
51
90.000000
0
LINE
8
0
10
2551.349021
20
1220.778294
30
0.0
11
2550.629573
21
1220.778294
31
0.0
0
ARC
8
0
10
2550.629573
20
1221.978294
30
0.0
40
1.200000
50
213.000000
51
270.000000
0
LINE
8
0
10
2549.623168
20
1221.324727
30
0.0
11
2548.054159
21
1223.740789
31
0.0
0
ARC
8
0
10
2546.880021
20
1222.978294
30
0.0
40
1.400000
50
33.000000
51
90.000000
0
LINE
8
0
10
2546.880021
20
1224.378294
30
0.0
11
2544.766200
21
1224.378294
31
0.0
0
ARC
8
0
10
2544.766200
20
1223.878294
30
0.0
40
0.500000
50
90.000000
51
180.000000
0
LINE
8
0
10
2544.266200
20
1223.878294
30
0.0
11
2544.266200
21
1209.378294
31
0.0
0
ARC
8
0
10
2543.666200
20
1209.483046
30
0.0
40
0.609075
50
189.903232
51
350.096768
0
LINE
8
0
10
2543.066200
20
1209.378294
30
0.0
11
2543.066200
21
1223.878294
31
0.0
0
ARC
8
0
10
2542.566200
20
1223.878294
30
0.0
40
0.500000
50
0.000000
51
90.000000
0
LINE
8
0
10
2542.566200
20
1224.378294
30
0.0
11
2537.466200
21
1224.378294
31
0.0
0
ARC
8
0
10
2537.466200
20
1223.878294
30
0.0
40
0.500000
50
90.000000
51
180.000000
0
LINE
8
0
10
2536.966200
20
1223.878294
30
0.0
11
2536.966200
21
1209.378294
31
0.0
0
ARC
8
0
10
2536.366200
20
1209.483046
30
0.0
40
0.609075
50
189.903232
51
350.096768
0
LINE
8
0
10
2535.766200
20
1209.378294
30
0.0
11
2535.766200
21
1223.878294
31
0.0
0
ARC
8
0
10
2535.266200
20
1223.878294
30
0.0
40
0.500000
50
0.000000
51
90.000000
0
LINE
8
0
10
2535.266200
20
1224.378294
30
0.0
11
2530.066200
21
1224.378294
31
0.0
0
ARC
8
0
10
2530.066200
20
1223.878294
30
0.0
40
0.500000
50
90.000000
51
180.000000
0
LINE
8
0
10
2529.566200
20
1223.878294
30
0.0
11
2529.566200
21
1209.378294
31
0.0
0
ARC
8
0
10
2528.966200
20
1209.483046
30
0.0
40
0.609075
50
189.903232
51
350.096768
0
LINE
8
0
10
2528.366200
20
1209.378294
30
0.0
11
2528.366200
21
1223.878294
31
0.0
0
ARC
8
0
10
2527.866200
20
1223.878294
30
0.0
40
0.500000
50
0.000000
51
90.000000
0
LINE
8
0
10
2527.866200
20
1224.378294
30
0.0
11
2525.852380
21
1224.378294
31
0.0
0
ARC
8
0
10
2525.852380
20
1222.978294
30
0.0
40
1.400000
50
90.000000
51
147.000000
0
LINE
8
0
10
2524.678241
20
1223.740789
30
0.0
11
2523.109233
21
1221.324727
31
0.0
0
ARC
8
0
10
2522.102828
20
1221.978294
30
0.0
40
1.200000
50
270.000000
51
327.000000
0
LINE
8
0
10
2522.102828
20
1220.778294
30
0.0
11
2521.383380
21
1220.778294
31
0.0
0
ARC
8
0
10
2521.383380
20
1219.578294
30
0.0
40
1.200000
50
90.000000
51
120.911655
0
LINE
8
0
10
2520.766921
20
1220.607847
30
0.0
11
2519.596597
21
1219.919688
31
0.0
0
ARC
8
0
10
2519.444535
20
1220.178294
30
0.0
40
0.300000
50
270.000000
51
300.455827
0
LINE
8
0
10
2519.444535
20
1219.878294
30
0.0
11
2519.266200
21
1219.878294
31
0.0
0
ARC
8
0
10
2519.266200
20
1220.278294
30
0.0
40
0.400000
50
180.000000
51
270.000000
0
LINE
8
0
10
2518.866200
20
1220.278294
30
0.0
11
2518.866200
21
1220.678294
31
0.0
0
ARC
8
0
10
2518.966200
20
1220.678294
30
0.0
40
0.100000
50
90.000000
51
180.000000
0
LINE
8
0
10
2518.966200
20
1220.778294
30
0.0
11
2518.966200
21
1221.053294
31
0.0
0
ARC
8
0
10
2519.266200
20
1221.053294
30
0.0
40
0.300000
50
74.493566
51
180.000000
0
ARC
8
0
10
2519.616200
20
1221.878294
30
0.0
40
0.600000
50
243.278126
51
116.721874
0
ARC
8
0
10
2519.266200
20
1222.703294
30
0.0
40
0.300000
50
180.000000
51
285.506434
0
LINE
8
0
10
2518.966200
20
1222.703294
30
0.0
11
2518.966200
21
1222.978294
31
0.0
0
ARC
8
0
10
2518.966200
20
1223.078294
30
0.0
40
0.100000
50
180.000000
51
270.000000
0
LINE
8
0
10
2518.866200
20
1223.078294
30
0.0
11
2518.866200
21
1223.478294
31
0.0
0
ARC
8
0
10
2519.266200
20
1223.478294
30
0.0
40
0.400000
50
90.000000
51
180.000000
0
LINE
8
0
10
2519.266200
20
1223.878294
30
0.0
11
2519.444402
21
1223.878294
31
0.0
0
ARC
8
0
10
2519.444402
20
1223.578294
30
0.0
40
0.300000
50
59.496833
51
90.000000
0
LINE
8
0
10
2519.596678
20
1223.836774
30
0.0
11
2520.771994
21
1223.144373
31
0.0
0
ARC
8
0
10
2521.381097
20
1224.178294
30
0.0
40
1.200000
50
239.496833
51
270.000000
0
LINE
8
0
10
2521.381097
20
1222.978294
30
0.0
11
2521.635466
21
1222.978294
31
0.0
0
ARC
8
0
10
2521.635466
20
1223.278294
30
0.0
40
0.300000
50
270.000000
51
327.390000
0
LINE
8
0
10
2521.888174
20
1223.116619
30
0.0
11
2523.391710
21
1225.431861
31
0.0
0
ARC
8
0
10
2524.398114
20
1224.778294
30
0.0
40
1.200000
50
90.000000
51
147.000000
0
LINE
8
0
10
2564.966200
20
1223.613411
30
0.0
11
2564.966200
21
1192.813411
31
0.0
0
LINE
8
0
10
2564.966200
20
1192.813411
30
0.0
11
2555.466200
21
1192.813411
31
0.0
0
LINE
8
0
10
2555.466200
20
1192.813411
30
0.0
11
2555.466200
21
1223.613411
31
0.0
0
LINE
8
0
10
2555.466200
20
1223.613411
30
0.0
11
2564.966200
21
1223.613411
31
0.0
0
ARC
8
0
10
2554.043099
20
1226.513411
30
0.0
40
0.200000
50
90.000000
51
167.338832
0
LINE
8
0
10
2554.043099
20
1226.713411
30
0.0
11
2555.366200
21
1226.713411
31
0.0
0
LINE
8
0
10
2555.366200
20
1226.713411
30
0.0
11
2555.366200
21
1225.213411
31
0.0
0
LINE
8
0
10
2555.366200
20
1225.213411
30
0.0
11
2564.052428
21
1225.213411
31
0.0
0
ARC
8
0
10
2564.052428
20
1225.713411
30
0.0
40
0.500000
50
270.000000
51
358.285023
0
LINE
8
0
10
2564.552204
20
1225.698447
30
0.0
11
2564.867622
21
1236.233134
31
0.0
0
LINE
8
0
10
2564.867622
20
1236.233134
30
0.0
11
2564.867622
21
1242.556786
31
0.0
0
ARC
8
0
10
2564.367622
20
1242.556786
30
0.0
40
0.500000
50
0.000000
51
90.000000
0
LINE
8
0
10
2564.367622
20
1243.056786
30
0.0
11
2562.562459
21
1243.056786
31
0.0
0
ARC
8
0
10
2562.562459
20
1243.556786
30
0.0
40
0.500000
50
180.000000
51
270.000000
0
LINE
8
0
10
2562.062459
20
1243.556786
30
0.0
11
2562.062459
21
1245.456786
31
0.0
0
ARC
8
0
10
2562.362459
20
1245.456786
30
0.0
40
0.300000
50
90.000000
51
180.000000
0
LINE
8
0
10
2562.362459
20
1245.756786
30
0.0
11
2563.362459
21
1245.756786
31
0.0
0
LINE
8
0
10
2563.362459
20
1245.756786
30
0.0
11
2563.362459
21
1244.656786
31
0.0
0
LINE
8
0
10
2563.362459
20
1244.656786
30
0.0
11
2564.962459
21
1244.656786
31
0.0
0
LINE
8
0
10
2564.962459
20
1244.656786
30
0.0
11
2564.962459
21
1263.156786
31
0.0
0
LINE
8
0
10
2564.962459
20
1263.156786
30
0.0
11
2563.362459
21
1263.156786
31
0.0
0
LINE
8
0
10
2563.362459
20
1263.156786
30
0.0
11
2563.362459
21
1261.956786
31
0.0
0
LINE
8
0
10
2563.362459
20
1261.956786
30
0.0
11
2562.262459
21
1261.956786
31
0.0
0
LINE
8
0
10
2562.262459
20
1261.956786
30
0.0
11
2562.262459
21
1262.340206
31
0.0
0
ARC
8
0
10
2561.962459
20
1262.340206
30
0.0
40
0.300000
50
0.000000
51
120.000000
0
LINE
8
0
10
2561.812459
20
1262.600013
30
0.0
11
2561.374895
21
1262.347385
31
0.0
0
ARC
8
0
10
2560.874895
20
1263.213411
30
0.0
40
1.000000
50
270.000000
51
300.000000
0
LINE
8
0
10
2560.874895
20
1262.213411
30
0.0
11
2559.366200
21
1262.213411
31
0.0
0
ARC
8
0
10
2559.366200
20
1262.713411
30
0.0
40
0.500000
50
180.000000
51
270.000000
0
LINE
8
0
10
2558.866200
20
1262.713411
30
0.0
11
2558.866200
21
1264.263411
31
0.0
0
ARC
8
0
10
2559.366200
20
1264.263411
30
0.0
40
0.500000
50
90.000000
51
180.000000
0
LINE
8
0
10
2559.366200
20
1264.763411
30
0.0
11
2560.066200
21
1264.763411
31
0.0
0
LINE
8
0
10
2560.066200
20
1264.763411
30
0.0
11
2560.066200
21
1263.513411
31
0.0
0
LINE
8
0
10
2560.066200
20
1263.513411
30
0.0
11
2560.394510
21
1263.513411
31
0.0
0
LINE
8
0
10
2560.394510
20
1263.513411
30
0.0
11
2563.067715
21
1265.056786
31
0.0
0
LINE
8
0
10
2563.067715
20
1265.056786
30
0.0
11
2564.962459
21
1265.056786
31
0.0
0
LINE
8
0
10
2564.962459
20
1265.056786
30
0.0
11
2564.962459
21
1267.018369
31
0.0
0
ARC
8
0
10
2564.662459
20
1267.018369
30
0.0
40
0.300000
50
0.000000
51
60.000000
0
LINE
8
0
10
2564.812459
20
1267.278177
30
0.0
11
2560.594510
21
1269.713411
31
0.0
0
LINE
8
0
10
2560.594510
20
1269.713411
30
0.0
11
2560.066200
21
1269.713411
31
0.0
0
LINE
8
0
10
2560.066200
20
1269.713411
30
0.0
11
2560.066200
21
1268.263411
31
0.0
0
LINE
8
0
10
2560.066200
20
1268.263411
30
0.0
11
2559.366200
21
1268.263411
31
0.0
0
ARC
8
0
10
2559.366200
20
1268.763411
30
0.0
40
0.500000
50
180.000000
51
270.000000
0
LINE
8
0
10
2558.866200
20
1268.763411
30
0.0
11
2558.866200
21
1270.713411
31
0.0
0
ARC
8
0
10
2559.366200
20
1270.713411
30
0.0
40
0.500000
50
90.000000
51
180.000000
0
LINE
8
0
10
2559.366200
20
1271.213411
30
0.0
11
2560.862459
21
1271.213411
31
0.0
0
ARC
8
0
10
2560.862459
20
1270.713411
30
0.0
40
0.500000
50
60.000000
51
90.000000
0
LINE
8
0
10
2561.112459
20
1271.146423
30
0.0
11
2566.316200
21
1268.142042
31
0.0
0
ARC
8
0
10
2566.066200
20
1267.709029
30
0.0
40
0.500000
50
0.000000
51
60.000000
0
LINE
8
0
10
2566.566200
20
1267.709029
30
0.0
11
2566.566200
21
1187.836253
31
0.0
0
ARC
8
0
10
2566.266200
20
1187.836253
30
0.0
40
0.300000
50
315.000000
51
0.000000
0
LINE
8
0
10
2566.478332
20
1187.624121
30
0.0
11
2565.155490
21
1186.301279
31
0.0
0
ARC
8
0
10
2564.943358
20
1186.513411
30
0.0
40
0.300000
50
270.000000
51
315.000000
0
LINE
8
0
10
2564.943358
20
1186.213411
30
0.0
11
2563.774729
21
1186.213411
31
0.0
0
ARC
8
0
10
2563.774729
20
1186.713411
30
0.0
40
0.500000
50
225.000000
51
270.000000
0
LINE
8
0
10
2563.421176
20
1186.359857
30
0.0
11
2562.714069
21
1187.066964
31
0.0
0
ARC
8
0
10
2563.067622
20
1187.420517
30
0.0
40
0.500000
50
180.000000
51
225.000000
0
LINE
8
0
10
2562.567622
20
1187.420517
30
0.0
11
2562.567622
21
1187.713411
31
0.0
0
LINE
8
0
10
2562.567622
20
1187.713411
30
0.0
11
2564.304880
21
1187.713411
31
0.0
0
LINE
8
0
10
2564.304880
20
1187.713411
30
0.0
11
2564.967622
21
1188.376152
31
0.0
0
LINE
8
0
10
2564.967622
20
1188.376152
30
0.0
11
2564.967622
21
1191.213411
31
0.0
0
LINE
8
0
10
2564.967622
20
1191.213411
30
0.0
11
2555.066200
21
1191.213411
31
0.0
0
LINE
8
0
10
2555.066200
20
1191.213411
30
0.0
11
2555.066200
21
1189.613411
31
0.0
0
LINE
8
0
10
2555.066200
20
1189.613411
30
0.0
11
2554.766200
21
1189.613411
31
0.0
0
ARC
8
0
10
2554.766200
20
1189.913411
30
0.0
40
0.300000
50
203.757737
51
270.000000
0
LINE
8
0
10
2554.491623
20
1189.792550
30
0.0
11
2554.012806
21
1190.880347
31
0.0
0
ARC
8
0
10
2552.253129
20
1189.741618
30
0.0
40
2.095988
50
32.907873
51
132.456725
0
ARC
8
0
10
2550.493874
20
1191.650493
30
0.0
40
0.500000
50
270.000000
51
313.534275
0
LINE
8
0
10
2550.493874
20
1191.150493
30
0.0
11
2549.805077
21
1191.150493
31
0.0
0
ARC
8
0
10
2549.805077
20
1191.450493
30
0.0
40
0.300000
50
149.502378
51
270.000000
0
LINE
8
0
10
2549.546582
20
1191.602743
30
0.0
11
2550.970286
21
1194.019942
31
0.0
0
LINE
8
0
10
2551.012900
20
1194.076007
30
0.0
11
2550.970286
21
1194.019942
31
0.0
0
LINE
8
0
10
2551.012900
20
1194.076007
30
0.0
11
2551.473067
21
1194.552888
31
0.0
0
ARC
8
0
10
2551.577857
20
1194.451771
30
0.0
40
0.145621
50
356.341100
51
136.021839
0
LINE
8
0
10
2551.723180
20
1194.442478
30
0.0
11
2551.713252
21
1194.287213
31
0.0
0
ARC
8
0
10
2551.912844
20
1194.274450
30
0.0
40
0.200000
50
176.341100
51
229.517123
0
LINE
8
0
10
2551.783000
20
1194.122330
30
0.0
11
2553.387202
21
1192.753041
31
0.0
0
ARC
8
0
10
2553.581968
20
1192.981221
30
0.0
40
0.300000
50
229.517123
51
251.341100
0
LINE
8
0
10
2553.485988
20
1192.696989
30
0.0
11
2553.770220
21
1192.601009
31
0.0
0
ARC
8
0
10
2553.866200
20
1192.885241
30
0.0
40
0.300000
50
251.341100
51
90.000000
0
LINE
8
0
10
2553.866200
20
1193.185241
30
0.0
11
2553.866200
21
1197.685241
31
0.0
0
ARC
8
0
10
2553.666200
20
1197.685241
30
0.0
40
0.200000
50
0.000000
51
90.000000
0
LINE
8
0
10
2553.666200
20
1197.885241
30
0.0
11
2553.598312
21
1197.885241
31
0.0
0
ARC
8
0
10
2553.598312
20
1197.585241
30
0.0
40
0.300000
50
90.000000
51
121.380132
0
LINE
8
0
10
2553.442097
20
1197.841360
30
0.0
11
2551.766104
21
1196.819127
31
0.0
0
ARC
8
0
10
2551.566200
20
1196.812937
30
0.0
40
0.200000
50
180.000000
51
1.773628
0
LINE
8
0
10
2551.366200
20
1196.812937
30
0.0
11
2551.366200
21
1198.219928
31
0.0
0
ARC
8
0
10
2551.566200
20
1198.219928
30
0.0
40
0.200000
50
121.380132
51
180.000000
0
LINE
8
0
10
2551.462058
20
1198.390674
30
0.0
11
2553.530700
21
1199.652394
31
0.0
0
ARC
8
0
10
2553.166200
20
1200.250006
30
0.0
40
0.700000
50
301.380132
51
0.000000
0
LINE
8
0
10
2553.866200
20
1200.250006
30
0.0
11
2553.866200
21
1217.176815
31
0.0
0
ARC
8
0
10
2553.166200
20
1217.176815
30
0.0
40
0.700000
50
0.000000
51
58.619868
0
LINE
8
0
10
2553.530700
20
1217.774427
30
0.0
11
2551.462058
21
1219.036147
31
0.0
0
ARC
8
0
10
2551.566200
20
1219.206894
30
0.0
40
0.200000
50
180.000000
51
238.619868
0
LINE
8
0
10
2551.366200
20
1219.206894
30
0.0
11
2551.366200
21
1220.613884
31
0.0
0
ARC
8
0
10
2551.566200
20
1220.613884
30
0.0
40
0.200000
50
358.226373
51
180.000000
0
LINE
8
0
10
2551.766104
20
1220.607694
30
0.0
11
2553.442097
21
1219.585461
31
0.0
0
ARC
8
0
10
2553.598312
20
1219.841580
30
0.0
40
0.300000
50
238.619868
51
270.000000
0
LINE
8
0
10
2553.598312
20
1219.541580
30
0.0
11
2553.666200
21
1219.541580
31
0.0
0
ARC
8
0
10
2553.666200
20
1219.741580
30
0.0
40
0.200000
50
270.000000
51
0.000000
0
LINE
8
0
10
2553.866200
20
1219.741580
30
0.0
11
2553.866200
21
1224.241580
31
0.0
0
ARC
8
0
10
2553.866200
20
1224.541580
30
0.0
40
0.300000
50
270.000000
51
108.658900
0
LINE
8
0
10
2553.770220
20
1224.825812
30
0.0
11
2553.485988
21
1224.729832
31
0.0
0
ARC
8
0
10
2553.581968
20
1224.445600
30
0.0
40
0.300000
50
108.658900
51
130.482877
0
LINE
8
0
10
2553.387202
20
1224.673780
30
0.0
11
2551.783000
21
1223.304491
31
0.0
0
ARC
8
0
10
2551.912844
20
1223.152371
30
0.0
40
0.200000
50
130.482877
51
183.658900
0
LINE
8
0
10
2551.713252
20
1223.139608
30
0.0
11
2551.723180
21
1222.984343
31
0.0
0
ARC
8
0
10
2551.577857
20
1222.975050
30
0.0
40
0.145621
50
223.978161
51
3.658900
0
LINE
8
0
10
2551.473067
20
1222.873934
30
0.0
11
2551.012900
21
1223.350815
31
0.0
0
LINE
8
0
10
2550.970286
20
1223.406879
30
0.0
11
2551.012900
21
1223.350815
31
0.0
0
LINE
8
0
10
2550.970286
20
1223.406879
30
0.0
11
2549.546582
21
1225.824078
31
0.0
0
ARC
8
0
10
2549.805077
20
1225.976329
30
0.0
40
0.300000
50
90.000000
51
210.497622
0
LINE
8
0
10
2549.805077
20
1226.276329
30
0.0
11
2550.493874
21
1226.276329
31
0.0
0
ARC
8
0
10
2550.493874
20
1225.776329
30
0.0
40
0.500000
50
46.465725
51
90.000000
0
ARC
8
0
10
2552.215845
20
1227.588735
30
0.0
40
2.000000
50
226.465725
51
316.077973
0
ARC
8
0
10
2553.116200
20
1226.721636
30
0.0
40
0.750000
50
316.077973
51
347.338832
0
ATTDEF
8
0
10
0.000000
20
0.000000
30
0.0
40
3.5
1

3

2
PANE_WIDTH:0
70
0
0
ATTDEF
8
0
10
0.000000
20
0.000000
30
0.0
40
3.5
1

3

2
MIN_VETRO:0
70
0
0
ATTDEF
8
0
10
0.000000
20
0.000000
30
0.0
40
3.5
1

3

2
MAX_VETRO:0
70
0
0
ATTDEF
8
0
10
0.000000
20
0.000000
30
0.0
40
3.5
1

3

2
JX:0
70
0
0
ATTDEF
8
0
10
0.000000
20
0.000000
30
0.0
40
3.5
1

3

2
WX:0
70
0
0
ATTDEF
8
0
10
0.000000
20
0.000000
30
0.0
40
3.5
1

3

2
JY:0
70
0
0
ATTDEF
8
0
10
0.000000
20
0.000000
30
0.0
40
3.5
1

3

2
WY:0
70
0
0
ATTDEF
8
0
10
0.000000
20
0.000000
30
0.0
40
3.5
1

3

2
DESC:Marco balconera hoja oculta
70
0
0
ATTDEF
8
0
10
0.000000
20
0.000000
30
0.0
40
3.5
1

3

2
DENS:1.9105
70
0
0
ATTDEF
8
0
10
0.000000
20
0.000000
30
0.0
40
3.5
1

3

2
TDEV:63.68
70
0
0
ATTDEF
8
0
10
0.000000
20
0.000000
30
0.0
40
3.5
1

3

2
TDEV2:0
70
0
0
ATTDEF
8
0
10
0.000000
20
0.000000
30
0.0
40
3.5
1

3

2
TDEV3:0
70
0
0
ATTDEF
8
0
10
0.000000
20
0.000000
30
0.0
40
3.5
1

3

2
TDEV4:0
70
0
0
ATTDEF
8
0
10
0.000000
20
0.000000
30
0.0
40
3.5
1

3

2
TDEV5:0
70
0
0
ATTDEF
8
0
10
0.000000
20
0.000000
30
0.0
40
3.5
1

3

2
PANE_WIDTH:0
70
0
0
ATTDEF
8
0
10
0.000000
20
0.000000
30
0.0
40
3.5
1

3

2
MIN_VETRO:0
70
0
0
ATTDEF
8
0
10
0.000000
20
0.000000
30
0.0
40
3.5
1

3

2
MAX_VETRO:0
70
0
0
ATTDEF
8
0
10
0.000000
20
0.000000
30
0.0
40
3.5
1

3

2
JX:0
70
0
0
ATTDEF
8
0
10
0.000000
20
0.000000
30
0.0
40
3.5
1

3

2
WX:0
70
0
0
ATTDEF
8
0
10
0.000000
20
0.000000
30
0.0
40
3.5
1

3

2
JY:0
70
0
0
ATTDEF
8
0
10
0.000000
20
0.000000
30
0.0
40
3.5
1

3

2
WY:0
70
0
0
ENDSEC
0
EOF
