0
SECTION
2
ENTITIES
0
ARC
8
0
10
14.029102
20
32.249558
30
0.0
40
0.500000
50
15.000000
51
90.000000
0
LINE
8
0
10
14.512065
20
32.378967
30
0.0
11
15.237418
21
29.671912
31
0.0
0
ARC
8
0
10
15.527196
20
29.749558
30
0.0
40
0.300000
50
195.000000
51
270.000000
0
LINE
8
0
10
15.527196
20
29.449558
30
0.0
11
22.200141
21
29.449558
31
0.0
0
LINE
8
0
10
22.200141
20
29.449558
30
0.0
11
22.200141
21
40.849558
31
0.0
0
ARC
8
0
10
22.700141
20
40.849558
30
0.0
40
0.500000
50
90.000000
51
180.000000
0
LINE
8
0
10
22.700141
20
41.349558
30
0.0
11
40.600141
21
41.349558
31
0.0
0
LINE
8
0
10
40.600141
20
41.349558
30
0.0
11
40.600141
21
43.399558
31
0.0
0
LINE
8
0
10
40.600141
20
43.399558
30
0.0
11
40.850141
21
43.399558
31
0.0
0
LINE
8
0
10
40.850141
20
43.399558
30
0.0
11
40.850141
21
55.399558
31
0.0
0
LINE
8
0
10
40.850141
20
55.399558
30
0.0
11
40.600141
21
55.399558
31
0.0
0
LINE
8
0
10
40.600141
20
55.399558
30
0.0
11
40.600141
21
57.349558
31
0.0
0
LINE
8
0
10
40.600141
20
57.349558
30
0.0
11
38.600141
21
57.349558
31
0.0
0
LINE
8
0
10
38.600141
20
57.349558
30
0.0
11
38.600141
21
57.449558
31
0.0
0
LINE
8
0
10
38.600141
20
57.449558
30
0.0
11
17.000141
21
57.449558
31
0.0
0
LINE
8
0
10
17.000141
20
57.449558
30
0.0
11
17.000141
21
57.349558
31
0.0
0
LINE
8
0
10
17.000141
20
57.349558
30
0.0
11
15.000141
21
57.349558
31
0.0
0
LINE
8
0
10
15.000141
20
57.349558
30
0.0
11
15.000141
21
55.825324
31
0.0
0
ARC
8
0
10
14.624375
20
55.825324
30
0.0
40
0.375766
50
195.000000
51
360.000000
0
LINE
8
0
10
14.261413
20
55.728068
30
0.0
11
13.800141
21
57.449558
31
0.0
0
LINE
8
0
10
13.800141
20
57.449558
30
0.0
11
12.350141
21
57.449558
31
0.0
0
LINE
8
0
10
12.350141
20
57.449558
30
0.0
11
12.350141
21
32.749558
31
0.0
0
LINE
8
0
10
12.350141
20
32.749558
30
0.0
11
14.029102
21
32.749558
31
0.0
0
LINE
8
0
10
28.400141
20
61.899558
30
0.0
11
28.400141
21
62.899558
31
0.0
0
LINE
8
0
10
28.400141
20
62.899558
30
0.0
11
29.400141
21
63.899558
31
0.0
0
LINE
8
0
10
29.400141
20
63.899558
30
0.0
11
31.900141
21
63.899558
31
0.0
0
LINE
8
0
10
31.900141
20
63.899558
30
0.0
11
31.900141
21
58.899558
31
0.0
0
LINE
8
0
10
31.900141
20
58.899558
30
0.0
11
42.472251
21
58.899558
31
0.0
0
ARC
8
0
10
42.472251
20
58.699558
30
0.0
40
0.200000
50
35.031997
51
90.000000
0
ARC
8
0
10
43.250141
20
59.244890
30
0.0
40
0.750000
50
215.031997
51
233.438974
0
LINE
8
0
10
42.803382
20
58.642473
30
0.0
11
43.072782
21
58.442683
31
0.0
0
ARC
8
0
10
44.264140
20
60.049128
30
0.0
40
2.000000
50
233.438974
51
322.581803
0
ARC
8
0
10
46.249694
20
58.530058
30
0.0
40
0.500000
50
90.000000
51
142.581803
0
LINE
8
0
10
46.249694
20
59.030058
30
0.0
11
46.938490
21
59.030058
31
0.0
0
ARC
8
0
10
46.938490
20
58.730058
30
0.0
40
0.300000
50
329.797281
51
90.000000
0
LINE
8
0
10
47.197766
20
58.579140
30
0.0
11
45.603947
21
55.840984
31
0.0
0
ARC
8
0
10
45.344672
20
55.991902
30
0.0
40
0.300000
50
301.250114
51
329.797281
0
LINE
8
0
10
45.500304
20
55.735429
30
0.0
11
44.864029
21
55.349326
31
0.0
0
ARC
8
0
10
44.788485
20
55.473819
30
0.0
40
0.145621
50
180.000000
51
301.250114
0
LINE
8
0
10
44.643161
20
55.483112
30
0.0
11
44.653090
21
55.638377
31
0.0
0
ARC
8
0
10
44.453497
20
55.651140
30
0.0
40
0.200000
50
356.341100
51
49.517123
0
LINE
8
0
10
44.583341
20
55.803260
30
0.0
11
42.979139
21
57.172549
31
0.0
0
ARC
8
0
10
42.784373
20
56.944369
30
0.0
40
0.300000
50
49.517123
51
71.341100
0
LINE
8
0
10
42.880353
20
57.228601
30
0.0
11
42.596121
21
57.324581
31
0.0
0
ARC
8
0
10
42.500141
20
57.040349
30
0.0
40
0.300000
50
71.341100
51
270.000000
0
LINE
8
0
10
42.500141
20
56.740349
30
0.0
11
42.500141
21
52.240349
31
0.0
0
ARC
8
0
10
42.700141
20
52.240349
30
0.0
40
0.200000
50
180.000000
51
270.000000
0
LINE
8
0
10
42.700141
20
52.040349
30
0.0
11
42.768030
21
52.040349
31
0.0
0
ARC
8
0
10
42.768030
20
52.340349
30
0.0
40
0.300000
50
270.000000
51
301.380132
0
LINE
8
0
10
42.924244
20
52.084230
30
0.0
11
44.600237
21
53.106463
31
0.0
0
ARC
8
0
10
44.800141
20
53.112653
30
0.0
40
0.200000
50
360.000000
51
180.000000
0
LINE
8
0
10
45.000141
20
53.112653
30
0.0
11
45.000141
21
51.705662
31
0.0
0
ARC
8
0
10
44.800141
20
51.705662
30
0.0
40
0.200000
50
301.380132
51
360.000000
0
LINE
8
0
10
44.904284
20
51.534916
30
0.0
11
42.589784
21
50.123241
31
0.0
0
ARC
8
0
10
42.850141
20
49.696375
30
0.0
40
0.500000
50
121.380132
51
180.000000
0
LINE
8
0
10
42.350141
20
49.696375
30
0.0
11
42.350141
21
44.250738
31
0.0
0
ARC
8
0
10
42.850141
20
44.250738
30
0.0
40
0.500000
50
180.000000
51
238.619868
0
LINE
8
0
10
42.589784
20
43.823872
30
0.0
11
44.304284
21
42.778153
31
0.0
0
ARC
8
0
10
44.200141
20
42.607407
30
0.0
40
0.200000
50
360.000000
51
58.619868
0
LINE
8
0
10
44.400141
20
42.607407
30
0.0
11
44.400141
21
41.200416
31
0.0
0
ARC
8
0
10
44.200141
20
41.200416
30
0.0
40
0.200000
50
180.000000
51
360.000000
0
LINE
8
0
10
44.000237
20
41.206606
30
0.0
11
42.324244
21
42.228839
31
0.0
0
ARC
8
0
10
42.168030
20
41.972720
30
0.0
40
0.300000
50
58.619868
51
90.000000
0
LINE
8
0
10
42.168030
20
42.272720
30
0.0
11
42.100141
21
42.272720
31
0.0
0
ARC
8
0
10
42.100141
20
42.072720
30
0.0
40
0.200000
50
90.000000
51
180.000000
0
LINE
8
0
10
41.900141
20
42.072720
30
0.0
11
41.900141
21
37.572720
31
0.0
0
ARC
8
0
10
41.900141
20
37.272720
30
0.0
40
0.300000
50
90.000000
51
288.658900
0
LINE
8
0
10
41.996121
20
36.988488
30
0.0
11
42.280353
21
37.084468
31
0.0
0
ARC
8
0
10
42.184373
20
37.368700
30
0.0
40
0.300000
50
288.658900
51
310.482877
0
LINE
8
0
10
42.379139
20
37.140520
30
0.0
11
43.983341
21
38.509809
31
0.0
0
ARC
8
0
10
43.853497
20
38.661929
30
0.0
40
0.200000
50
310.482877
51
3.658900
0
LINE
8
0
10
44.053090
20
38.674692
30
0.0
11
44.043161
21
38.829957
31
0.0
0
ARC
8
0
10
44.188485
20
38.839250
30
0.0
40
0.145621
50
43.978161
51
180.000000
0
LINE
8
0
10
44.293274
20
38.940367
30
0.0
11
44.753442
21
38.463486
31
0.0
0
LINE
8
0
10
44.796055
20
38.407421
30
0.0
11
44.753442
21
38.463486
31
0.0
0
LINE
8
0
10
44.796055
20
38.407421
30
0.0
11
46.219759
21
35.990222
31
0.0
0
ARC
8
0
10
45.961264
20
35.837972
30
0.0
40
0.300000
50
270.000000
51
30.497622
0
LINE
8
0
10
45.961264
20
35.537972
30
0.0
11
45.272468
21
35.537972
31
0.0
0
ARC
8
0
10
45.272468
20
36.037972
30
0.0
40
0.500000
50
226.465725
51
270.000000
0
ARC
8
0
10
43.550497
20
34.225565
30
0.0
40
2.000000
50
46.465725
51
134.336633
0
ARC
8
0
10
42.012977
20
35.799107
30
0.0
40
0.200000
50
270.000000
51
314.336633
0
LINE
8
0
10
42.012977
20
35.599107
30
0.0
11
41.400141
21
35.599107
31
0.0
0
LINE
8
0
10
41.400141
20
35.599107
30
0.0
11
41.400141
21
27.999558
31
0.0
0
LINE
8
0
10
41.400141
20
27.999558
30
0.0
11
40.275141
21
27.999558
31
0.0
0
ARC
8
0
10
40.275141
20
28.299558
30
0.0
40
0.300000
50
180.000000
51
270.000000
0
LINE
8
0
10
39.975141
20
28.299558
30
0.0
11
39.975141
21
30.199558
31
0.0
0
LINE
8
0
10
39.975141
20
30.199558
30
0.0
11
37.900141
21
30.199558
31
0.0
0
LINE
8
0
10
37.900141
20
30.199558
30
0.0
11
37.900141
21
31.799558
31
0.0
0
LINE
8
0
10
37.900141
20
31.799558
30
0.0
11
39.900141
21
31.799558
31
0.0
0
LINE
8
0
10
39.900141
20
31.799558
30
0.0
11
39.900141
21
39.899558
31
0.0
0
LINE
8
0
10
39.900141
20
39.899558
30
0.0
11
35.800141
21
39.899558
31
0.0
0
LINE
8
0
10
35.800141
20
39.899558
30
0.0
11
35.800141
21
39.499558
31
0.0
0
LINE
8
0
10
35.800141
20
39.499558
30
0.0
11
32.100141
21
39.499558
31
0.0
0
LINE
8
0
10
32.100141
20
39.499558
30
0.0
11
31.800141
21
39.799558
31
0.0
0
LINE
8
0
10
31.800141
20
39.799558
30
0.0
11
31.500141
21
39.499558
31
0.0
0
LINE
8
0
10
31.500141
20
39.499558
30
0.0
11
27.800141
21
39.499558
31
0.0
0
LINE
8
0
10
27.800141
20
39.499558
30
0.0
11
27.800141
21
39.899558
31
0.0
0
LINE
8
0
10
27.800141
20
39.899558
30
0.0
11
23.700141
21
39.899558
31
0.0
0
LINE
8
0
10
23.700141
20
39.899558
30
0.0
11
23.700141
21
31.799558
31
0.0
0
LINE
8
0
10
23.700141
20
31.799558
30
0.0
11
25.700141
21
31.799558
31
0.0
0
LINE
8
0
10
25.700141
20
31.799558
30
0.0
11
25.700141
21
30.199558
31
0.0
0
LINE
8
0
10
25.700141
20
30.199558
30
0.0
11
23.625141
21
30.199558
31
0.0
0
LINE
8
0
10
23.625141
20
30.199558
30
0.0
11
23.625141
21
28.299558
31
0.0
0
ARC
8
0
10
23.325141
20
28.299558
30
0.0
40
0.300000
50
270.000000
51
360.000000
0
LINE
8
0
10
23.325141
20
27.999558
30
0.0
11
14.951700
21
27.999558
31
0.0
0
ARC
8
0
10
14.951700
20
28.999558
30
0.0
40
1.000000
50
195.000000
51
270.000000
0
LINE
8
0
10
13.985775
20
28.740739
30
0.0
11
13.523698
21
30.465232
31
0.0
0
LINE
8
0
10
13.523698
20
30.465232
30
0.0
11
13.390284
21
30.465232
31
0.0
0
ARC
8
0
10
13.390284
20
30.576768
30
0.0
40
0.111536
50
150.000000
51
270.000000
0
LINE
8
0
10
13.293692
20
30.632535
30
0.0
11
13.420170
21
30.851602
31
0.0
0
LINE
8
0
10
13.420170
20
30.851602
30
0.0
11
13.300141
21
31.299558
31
0.0
0
LINE
8
0
10
13.300141
20
31.299558
30
0.0
11
12.300141
21
31.299558
31
0.0
0
LINE
8
0
10
12.300141
20
31.299558
30
0.0
11
12.300141
21
16.299558
31
0.0
0
LINE
8
0
10
12.300141
20
16.299558
30
0.0
11
13.300141
21
16.299558
31
0.0
0
LINE
8
0
10
13.300141
20
16.299558
30
0.0
11
13.420170
21
16.747513
31
0.0
0
LINE
8
0
10
13.420170
20
16.747513
30
0.0
11
13.293692
21
16.966580
31
0.0
0
ARC
8
0
10
13.390284
20
17.022348
30
0.0
40
0.111536
50
90.000000
51
210.000000
0
LINE
8
0
10
13.390284
20
17.133883
30
0.0
11
13.523698
21
17.133883
31
0.0
0
LINE
8
0
10
13.523698
20
17.133883
30
0.0
11
13.568090
21
17.299558
31
0.0
0
LINE
8
0
10
13.568090
20
17.299558
30
0.0
11
13.568090
21
17.399558
31
0.0
0
LINE
8
0
10
13.568090
20
17.399558
30
0.0
11
13.600141
21
17.399558
31
0.0
0
ARC
8
0
10
13.600141
20
16.399558
30
0.0
40
1.000000
50
360.000000
51
90.000000
0
LINE
8
0
10
14.600141
20
16.399558
30
0.0
11
14.600141
21
15.819558
31
0.0
0
LINE
8
0
10
14.600141
20
15.819558
30
0.0
11
13.900141
21
13.999558
31
0.0
0
LINE
8
0
10
13.900141
20
13.999558
30
0.0
11
13.400141
21
13.999558
31
0.0
0
LINE
8
0
10
13.400141
20
13.999558
30
0.0
11
13.400141
21
15.299558
31
0.0
0
LINE
8
0
10
13.400141
20
15.299558
30
0.0
11
12.100141
21
15.299558
31
0.0
0
LINE
8
0
10
12.100141
20
15.299558
30
0.0
11
12.100141
21
9.199558
31
0.0
0
LINE
8
0
10
12.100141
20
9.199558
30
0.0
11
13.400141
21
9.199558
31
0.0
0
LINE
8
0
10
13.400141
20
9.199558
30
0.0
11
13.400141
21
10.499558
31
0.0
0
LINE
8
0
10
13.400141
20
10.499558
30
0.0
11
13.900141
21
10.499558
31
0.0
0
LINE
8
0
10
13.900141
20
10.499558
30
0.0
11
14.400141
21
9.199558
31
0.0
0
LINE
8
0
10
14.400141
20
9.199558
30
0.0
11
14.400141
21
8.499558
31
0.0
0
ARC
8
0
10
13.900141
20
8.499558
30
0.0
40
0.500000
50
270.000000
51
360.000000
0
LINE
8
0
10
13.900141
20
7.999558
30
0.0
11
11.400141
21
7.999558
31
0.0
0
ARC
8
0
10
11.400141
20
8.499558
30
0.0
40
0.500000
50
180.000000
51
270.000000
0
LINE
8
0
10
10.900141
20
8.499558
30
0.0
11
10.900141
21
63.899558
31
0.0
0
LINE
8
0
10
10.900141
20
63.899558
30
0.0
11
13.400141
21
63.899558
31
0.0
0
LINE
8
0
10
13.400141
20
63.899558
30
0.0
11
14.400141
21
62.899558
31
0.0
0
LINE
8
0
10
14.400141
20
62.899558
30
0.0
11
14.400141
21
61.899558
31
0.0
0
LINE
8
0
10
14.400141
20
61.899558
30
0.0
11
12.400141
21
61.899558
31
0.0
0
LINE
8
0
10
12.400141
20
61.899558
30
0.0
11
12.400141
21
58.899558
31
0.0
0
LINE
8
0
10
12.400141
20
58.899558
30
0.0
11
30.400141
21
58.899558
31
0.0
0
LINE
8
0
10
30.400141
20
58.899558
30
0.0
11
30.400141
21
61.899558
31
0.0
0
LINE
8
0
10
30.400141
20
61.899558
30
0.0
11
28.400141
21
61.899558
31
0.0
0
LINE
8
0
10
42.569849
20
55.481933
30
0.0
11
43.419885
21
56.331970
31
0.0
0
LINE
8
0
10
42.500141
20
53.167161
30
0.0
11
43.127567
21
53.794587
31
0.0
0
LINE
8
0
10
43.837487
20
54.504507
30
0.0
11
44.855369
21
55.522389
31
0.0
0
LINE
8
0
10
44.798138
20
53.220094
30
0.0
11
49.859977
21
58.281933
31
0.0
0
LINE
8
0
10
50.505041
20
56.681933
30
0.0
11
52.105041
21
58.281933
31
0.0
0
LINE
8
0
10
52.750105
20
56.681933
30
0.0
11
54.350105
21
58.281933
31
0.0
0
LINE
8
0
10
54.995169
20
56.681933
30
0.0
11
56.595169
21
58.281933
31
0.0
0
LINE
8
0
10
41.900141
20
41.341841
30
0.0
11
42.557858
21
41.999558
31
0.0
0
LINE
8
0
10
57.240233
20
56.681933
30
0.0
11
58.840233
21
58.281933
31
0.0
0
LINE
8
0
10
41.957488
20
39.154124
30
0.0
11
42.167178
21
39.363814
31
0.0
0
LINE
8
0
10
59.485297
20
56.681933
30
0.0
11
61.085297
21
58.281933
31
0.0
0
LINE
8
0
10
43.099974
20
40.296610
30
0.0
11
44.018891
21
41.215527
31
0.0
0
LINE
8
0
10
43.103536
20
38.055107
30
0.0
11
45.947986
21
40.899558
31
0.0
0
LINE
8
0
10
61.730361
20
56.681933
30
0.0
11
63.330361
21
58.281933
31
0.0
0
LINE
8
0
10
45.536682
20
38.243189
30
0.0
11
48.193050
21
40.899558
31
0.0
0
LINE
8
0
10
63.975425
20
56.681933
30
0.0
11
65.575425
21
58.281933
31
0.0
0
LINE
8
0
10
46.358432
20
36.819876
30
0.0
11
47.236893
21
37.698337
31
0.0
0
LINE
8
0
10
65.592432
20
56.053876
30
0.0
11
67.156543
21
57.617987
31
0.0
0
LINE
8
0
10
48.838114
20
39.299558
30
0.0
11
50.438114
21
40.899558
31
0.0
0
LINE
8
0
10
47.180183
20
35.396562
30
0.0
11
48.058644
21
36.275023
31
0.0
0
LINE
8
0
10
66.597622
20
54.814002
30
0.0
11
68.161733
21
56.378113
31
0.0
0
LINE
8
0
10
51.083178
20
39.299558
30
0.0
11
52.683178
21
40.899558
31
0.0
0
LINE
8
0
10
47.860497
20
33.831812
30
0.0
11
48.837178
21
34.808494
31
0.0
0
LINE
8
0
10
67.614051
20
53.585367
30
0.0
11
69.510617
21
55.481933
31
0.0
0
LINE
8
0
10
53.328242
20
39.299558
30
0.0
11
54.928242
21
40.899558
31
0.0
0
LINE
8
0
10
47.946183
20
31.672434
30
0.0
11
49.100141
21
32.826393
31
0.0
0
LINE
8
0
10
69.555681
20
53.281933
30
0.0
11
72.480250
21
56.206502
31
0.0
0
LINE
8
0
10
55.573306
20
39.299558
30
0.0
11
57.173306
21
40.899558
31
0.0
0
LINE
8
0
10
48.611612
20
30.092800
30
0.0
11
49.526779
21
31.007967
31
0.0
0
LINE
8
0
10
71.181191
20
52.662378
30
0.0
11
72.299724
21
53.780912
31
0.0
0
LINE
8
0
10
56.400141
20
37.881329
30
0.0
11
57.408294
21
38.889481
31
0.0
0
LINE
8
0
10
57.810217
20
39.291405
30
0.0
11
59.418370
21
40.899558
31
0.0
0
LINE
8
0
10
49.284290
20
28.520414
30
0.0
11
50.200230
21
29.436354
31
0.0
0
LINE
8
0
10
60.063434
20
39.299558
30
0.0
11
61.663434
21
40.899558
31
0.0
0
LINE
8
0
10
56.400141
20
35.636265
30
0.0
11
57.400141
21
36.636265
31
0.0
0
LINE
8
0
10
51.008498
20
27.999558
30
0.0
11
52.208498
21
29.199558
31
0.0
0
LINE
8
0
10
62.308498
20
39.299558
30
0.0
11
63.908498
21
40.899558
31
0.0
0
LINE
8
0
10
56.400141
20
33.391201
30
0.0
11
57.400141
21
34.391201
31
0.0
0
LINE
8
0
10
53.253562
20
27.999558
30
0.0
11
54.453562
21
29.199558
31
0.0
0
LINE
8
0
10
64.553562
20
39.299558
30
0.0
11
66.153562
21
40.899558
31
0.0
0
LINE
8
0
10
56.400141
20
31.146137
30
0.0
11
57.400141
21
32.146137
31
0.0
0
LINE
8
0
10
55.498626
20
27.999558
30
0.0
11
57.400141
21
29.901073
31
0.0
0
LINE
8
0
10
66.774687
20
39.275619
30
0.0
11
68.398626
21
40.899558
31
0.0
0
LINE
8
0
10
57.743690
20
27.999558
30
0.0
11
58.943690
21
29.199558
31
0.0
0
LINE
8
0
10
65.362543
20
35.618410
30
0.0
11
71.693726
21
41.949593
31
0.0
0
LINE
8
0
10
59.988754
20
27.999558
30
0.0
11
61.188754
21
29.199558
31
0.0
0
LINE
8
0
10
70.283114
20
38.293918
30
0.0
11
71.310611
21
39.321415
31
0.0
0
LINE
8
0
10
64.700141
20
32.710945
30
0.0
11
65.967621
21
33.978425
31
0.0
0
LINE
8
0
10
62.233818
20
27.999558
30
0.0
11
65.824070
21
31.589809
31
0.0
0
LINE
8
0
10
51.711019
20
27.999558
30
0.0
11
50.493256
21
29.217321
31
0.0
0
LINE
8
0
10
50.134640
20
29.575937
30
0.0
11
47.916090
21
31.794487
31
0.0
0
LINE
8
0
10
53.956083
20
27.999558
30
0.0
11
52.756083
21
29.199558
31
0.0
0
LINE
8
0
10
43.608812
20
38.346829
30
0.0
11
42.656054
21
39.299587
31
0.0
0
LINE
8
0
10
49.100141
20
32.855500
30
0.0
11
47.784290
21
34.171350
31
0.0
0
LINE
8
0
10
56.201147
20
27.999558
30
0.0
11
55.001147
21
29.199558
31
0.0
0
LINE
8
0
10
48.240273
20
35.960432
30
0.0
11
42.211168
21
41.989537
31
0.0
0
LINE
8
0
10
58.446211
20
27.999558
30
0.0
11
56.400141
21
30.045628
31
0.0
0
LINE
8
0
10
47.147190
20
39.298579
30
0.0
11
45.546211
21
40.899558
31
0.0
0
LINE
8
0
10
60.691275
20
27.999558
30
0.0
11
59.491275
21
29.199558
31
0.0
0
LINE
8
0
10
49.391275
20
39.299558
30
0.0
11
47.791275
21
40.899558
31
0.0
0
LINE
8
0
10
57.400141
20
31.290692
30
0.0
11
56.400141
21
32.290692
31
0.0
0
LINE
8
0
10
62.936339
20
27.999558
30
0.0
11
61.736339
21
29.199558
31
0.0
0
LINE
8
0
10
51.636339
20
39.299558
30
0.0
11
50.036339
21
40.899558
31
0.0
0
LINE
8
0
10
57.400141
20
33.535756
30
0.0
11
56.400141
21
34.535756
31
0.0
0
LINE
8
0
10
64.562746
20
28.618215
30
0.0
11
63.647579
21
29.533383
31
0.0
0
LINE
8
0
10
53.881403
20
39.299558
30
0.0
11
52.281403
21
40.899558
31
0.0
0
LINE
8
0
10
57.400141
20
35.780820
30
0.0
11
56.400141
21
36.780820
31
0.0
0
LINE
8
0
10
65.231745
20
30.194280
30
0.0
11
64.316578
21
31.109447
31
0.0
0
LINE
8
0
10
43.141088
20
52.284938
30
0.0
11
42.500141
21
52.925884
31
0.0
0
LINE
8
0
10
57.400141
20
38.025884
30
0.0
11
54.526467
21
40.899558
31
0.0
0
LINE
8
0
10
65.883012
20
31.788077
30
0.0
11
64.700141
21
32.970948
31
0.0
0
LINE
8
0
10
44.573280
20
53.097809
30
0.0
11
43.693464
21
53.977625
31
0.0
0
LINE
8
0
10
58.371531
20
39.299558
30
0.0
11
56.771531
21
40.899558
31
0.0
0
LINE
8
0
10
65.962405
20
33.953748
30
0.0
11
65.003420
21
34.912734
31
0.0
0
LINE
8
0
10
46.633385
20
53.282768
30
0.0
11
43.808619
21
56.107534
31
0.0
0
LINE
8
0
10
60.616595
20
39.299558
30
0.0
11
59.016595
21
40.899558
31
0.0
0
LINE
8
0
10
66.673010
20
35.488207
30
0.0
11
65.794549
21
36.366668
31
0.0
0
LINE
8
0
10
47.930103
20
54.231114
30
0.0
11
46.365991
21
55.795226
31
0.0
0
LINE
8
0
10
62.861659
20
39.299558
30
0.0
11
61.261659
21
40.899558
31
0.0
0
LINE
8
0
10
67.494761
20
36.911520
30
0.0
11
66.616300
21
37.789981
31
0.0
0
LINE
8
0
10
48.935292
20
55.470989
30
0.0
11
47.371181
21
57.035100
31
0.0
0
LINE
8
0
10
65.106723
20
39.299558
30
0.0
11
63.506723
21
40.899558
31
0.0
0
LINE
8
0
10
68.316511
20
38.334834
30
0.0
11
65.751787
21
40.899558
31
0.0
0
LINE
8
0
10
50.051860
20
56.599486
30
0.0
11
48.413978
21
58.237367
31
0.0
0
LINE
8
0
10
71.038768
20
37.857641
30
0.0
11
67.996852
21
40.899558
31
0.0
0
LINE
8
0
10
52.214476
20
56.681933
30
0.0
11
50.614476
21
58.281933
31
0.0
0
LINE
8
0
10
70.774253
20
40.367220
30
0.0
11
69.873035
21
41.268438
31
0.0
0
LINE
8
0
10
54.459540
20
56.681933
30
0.0
11
52.859540
21
58.281933
31
0.0
0
LINE
8
0
10
71.900141
20
41.486396
30
0.0
11
71.386980
21
41.999558
31
0.0
0
LINE
8
0
10
56.704604
20
56.681933
30
0.0
11
55.104604
21
58.281933
31
0.0
0
LINE
8
0
10
58.949668
20
56.681933
30
0.0
11
57.349668
21
58.281933
31
0.0
0
LINE
8
0
10
61.194732
20
56.681933
30
0.0
11
59.594732
21
58.281933
31
0.0
0
LINE
8
0
10
63.439796
20
56.681933
30
0.0
11
61.839796
21
58.281933
31
0.0
0
LINE
8
0
10
69.084860
20
53.281933
30
0.0
11
64.084860
21
58.281933
31
0.0
0
LINE
8
0
10
72.284767
20
52.327091
30
0.0
11
69.129924
21
55.481933
31
0.0
0
LINE
8
0
10
67.853296
20
56.758561
30
0.0
11
66.329924
21
58.281933
31
0.0
0
LINE
8
0
10
71.891999
20
54.964922
30
0.0
11
70.911271
21
55.945650
31
0.0
0
ARC
8
0
10
66.379955
20
57.781933
30
0.0
40
0.500000
50
39.032336
51
90.000000
0
LINE
8
0
10
66.379955
20
58.281933
30
0.0
11
57.500141
21
58.281933
31
0.0
0
LINE
8
0
10
57.500141
20
58.281933
30
0.0
11
48.620327
21
58.281933
31
0.0
0
ARC
8
0
10
48.620327
20
57.781933
30
0.0
40
0.500000
50
90.000000
51
140.967664
0
LINE
8
0
10
48.231931
20
58.096813
30
0.0
11
46.202048
21
55.593005
31
0.0
0
ARC
8
0
10
45.969010
20
55.781933
30
0.0
40
0.300000
50
270.000000
51
320.967664
0
LINE
8
0
10
45.969010
20
55.481933
30
0.0
11
45.106551
21
55.481933
31
0.0
0
ARC
8
0
10
45.106551
20
56.281933
30
0.0
40
0.800000
50
240.000000
51
270.000000
0
LINE
8
0
10
44.706551
20
55.589113
30
0.0
11
43.206551
21
56.455138
31
0.0
0
ARC
8
0
10
43.106551
20
56.281933
30
0.0
40
0.200000
50
60.000000
51
90.000000
0
LINE
8
0
10
43.106551
20
56.481933
30
0.0
11
42.900141
21
56.481933
31
0.0
0
ARC
8
0
10
42.900141
20
56.081933
30
0.0
40
0.400000
50
90.000000
51
180.000000
0
LINE
8
0
10
42.500141
20
56.081933
30
0.0
11
42.500141
21
55.481933
31
0.0
0
LINE
8
0
10
42.500141
20
55.481933
30
0.0
11
42.600141
21
55.481933
31
0.0
0
LINE
8
0
10
42.600141
20
55.481933
30
0.0
11
42.600141
21
55.206933
31
0.0
0
ARC
8
0
10
42.900141
20
55.206933
30
0.0
40
0.300000
50
180.000000
51
270.000000
0
LINE
8
0
10
42.900141
20
54.906933
30
0.0
11
42.959667
21
54.906933
31
0.0
0
ARC
8
0
10
43.250141
20
54.381933
30
0.0
40
0.600000
50
360.000000
51
118.955024
0
ARC
8
0
10
43.250141
20
54.381933
30
0.0
40
0.600000
50
241.044976
51
360.000000
0
LINE
8
0
10
42.959667
20
53.856933
30
0.0
11
42.900141
21
53.856933
31
0.0
0
ARC
8
0
10
42.900141
20
53.556933
30
0.0
40
0.300000
50
90.000000
51
180.000000
0
LINE
8
0
10
42.600141
20
53.556933
30
0.0
11
42.600141
21
53.281933
31
0.0
0
LINE
8
0
10
42.600141
20
53.281933
30
0.0
11
42.500141
21
53.281933
31
0.0
0
LINE
8
0
10
42.500141
20
53.281933
30
0.0
11
42.500141
21
52.681933
31
0.0
0
ARC
8
0
10
42.900141
20
52.681933
30
0.0
40
0.400000
50
180.000000
51
270.000000
0
LINE
8
0
10
42.900141
20
52.281933
30
0.0
11
43.106551
21
52.281933
31
0.0
0
ARC
8
0
10
43.106551
20
52.481933
30
0.0
40
0.200000
50
270.000000
51
300.000000
0
LINE
8
0
10
43.206551
20
52.308728
30
0.0
11
44.706551
21
53.174753
31
0.0
0
ARC
8
0
10
45.106551
20
52.481933
30
0.0
40
0.800000
50
90.000000
51
120.000000
0
LINE
8
0
10
45.106551
20
53.281933
30
0.0
11
46.588628
21
53.281933
31
0.0
0
ARC
8
0
10
46.588628
20
54.481933
30
0.0
40
1.200000
50
270.000000
51
320.967664
0
LINE
8
0
10
47.520777
20
53.726222
30
0.0
11
49.556834
21
56.237644
31
0.0
0
ARC
8
0
10
50.488983
20
55.481933
30
0.0
40
1.200000
50
90.000000
51
140.967664
0
LINE
8
0
10
50.488983
20
56.681933
30
0.0
11
57.500141
21
56.681933
31
0.0
0
LINE
8
0
10
57.500141
20
56.681933
30
0.0
11
64.511299
21
56.681933
31
0.0
0
ARC
8
0
10
64.511299
20
55.481933
30
0.0
40
1.200000
50
39.032336
51
90.000000
0
LINE
8
0
10
65.443448
20
56.237644
30
0.0
11
67.479505
21
53.726222
31
0.0
0
ARC
8
0
10
68.411654
20
54.481933
30
0.0
40
1.200000
50
219.032336
51
270.000000
0
LINE
8
0
10
68.411654
20
53.281933
30
0.0
11
69.893731
21
53.281933
31
0.0
0
ARC
8
0
10
69.893731
20
52.481933
30
0.0
40
0.800000
50
60.000000
51
90.000000
0
LINE
8
0
10
70.293731
20
53.174753
30
0.0
11
71.793731
21
52.308728
31
0.0
0
ARC
8
0
10
71.893731
20
52.481933
30
0.0
40
0.200000
50
240.000000
51
270.000000
0
LINE
8
0
10
71.893731
20
52.281933
30
0.0
11
72.100141
21
52.281933
31
0.0
0
ARC
8
0
10
72.100141
20
52.681933
30
0.0
40
0.400000
50
270.000000
51
360.000000
0
LINE
8
0
10
72.500141
20
52.681933
30
0.0
11
72.500141
21
53.281933
31
0.0
0
LINE
8
0
10
72.500141
20
53.281933
30
0.0
11
72.400141
21
53.281933
31
0.0
0
LINE
8
0
10
72.400141
20
53.281933
30
0.0
11
72.400141
21
53.556933
31
0.0
0
ARC
8
0
10
72.100141
20
53.556933
30
0.0
40
0.300000
50
360.000000
51
90.000000
0
LINE
8
0
10
72.100141
20
53.856933
30
0.0
11
72.040615
21
53.856933
31
0.0
0
ARC
8
0
10
71.750141
20
54.381933
30
0.0
40
0.600000
50
180.000000
51
298.955024
0
ARC
8
0
10
71.750141
20
54.381933
30
0.0
40
0.600000
50
61.044976
51
180.000000
0
LINE
8
0
10
72.040615
20
54.906933
30
0.0
11
72.100141
21
54.906933
31
0.0
0
ARC
8
0
10
72.100141
20
55.206933
30
0.0
40
0.300000
50
270.000000
51
360.000000
0
LINE
8
0
10
72.400141
20
55.206933
30
0.0
11
72.400141
21
55.481933
31
0.0
0
LINE
8
0
10
72.400141
20
55.481933
30
0.0
11
72.500141
21
55.481933
31
0.0
0
LINE
8
0
10
72.500141
20
55.481933
30
0.0
11
72.500141
21
56.081933
31
0.0
0
ARC
8
0
10
72.100141
20
56.081933
30
0.0
40
0.400000
50
360.000000
51
90.000000
0
LINE
8
0
10
72.100141
20
56.481933
30
0.0
11
71.893731
21
56.481933
31
0.0
0
ARC
8
0
10
71.893731
20
56.281933
30
0.0
40
0.200000
50
90.000000
51
120.000000
0
LINE
8
0
10
71.793731
20
56.455138
30
0.0
11
70.293731
21
55.589113
31
0.0
0
ARC
8
0
10
69.893731
20
56.281933
30
0.0
40
0.800000
50
270.000000
51
300.000000
0
LINE
8
0
10
69.893731
20
55.481933
30
0.0
11
69.031272
21
55.481933
31
0.0
0
ARC
8
0
10
69.031272
20
55.781933
30
0.0
40
0.300000
50
219.032336
51
270.000000
0
LINE
8
0
10
68.798234
20
55.593005
30
0.0
11
66.768351
21
58.096813
31
0.0
0
ARC
8
0
10
87.400141
20
45.399540
30
0.0
40
0.300000
50
360.000000
51
90.000000
0
LINE
8
0
10
87.400141
20
45.699540
30
0.0
11
82.700141
21
45.699540
31
0.0
0
ARC
8
0
10
82.700141
20
45.399540
30
0.0
40
0.300000
50
90.000000
51
180.000000
0
LINE
8
0
10
82.400141
20
45.399540
30
0.0
11
82.400141
21
34.699540
31
0.0
0
ARC
8
0
10
81.900141
20
34.699540
30
0.0
40
0.500000
50
270.000000
51
360.000000
0
LINE
8
0
10
81.900141
20
34.199540
30
0.0
11
81.400141
21
34.199540
31
0.0
0
ARC
8
0
10
81.400141
20
34.699540
30
0.0
40
0.500000
50
180.000000
51
270.000000
0
LINE
8
0
10
80.900141
20
34.699540
30
0.0
11
80.900141
21
35.299107
31
0.0
0
ARC
8
0
10
80.600141
20
35.299107
30
0.0
40
0.300000
50
360.000000
51
90.000000
0
LINE
8
0
10
80.600141
20
35.599107
30
0.0
11
71.905033
21
35.599107
31
0.0
0
ARC
8
0
10
71.905033
20
36.099107
30
0.0
40
0.500000
50
228.539860
51
270.000000
0
ARC
8
0
10
70.249785
20
34.225565
30
0.0
40
2.000000
50
48.539860
51
133.534275
0
ARC
8
0
10
68.527814
20
36.037972
30
0.0
40
0.500000
50
270.000000
51
313.534275
0
LINE
8
0
10
68.527814
20
35.537972
30
0.0
11
67.839018
21
35.537972
31
0.0
0
ARC
8
0
10
67.839018
20
35.837972
30
0.0
40
0.300000
50
149.502378
51
270.000000
0
LINE
8
0
10
67.580523
20
35.990222
30
0.0
11
69.004227
21
38.407421
31
0.0
0
LINE
8
0
10
69.046840
20
38.463486
30
0.0
11
69.004227
21
38.407421
31
0.0
0
LINE
8
0
10
69.046840
20
38.463486
30
0.0
11
69.507008
21
38.940367
31
0.0
0
ARC
8
0
10
69.611797
20
38.839250
30
0.0
40
0.145621
50
360.000000
51
136.021839
0
LINE
8
0
10
69.757121
20
38.829957
30
0.0
11
69.747192
21
38.674692
31
0.0
0
ARC
8
0
10
69.946785
20
38.661929
30
0.0
40
0.200000
50
176.341100
51
229.517123
0
LINE
8
0
10
69.816941
20
38.509809
30
0.0
11
71.421143
21
37.140520
31
0.0
0
ARC
8
0
10
71.615909
20
37.368700
30
0.0
40
0.300000
50
229.517123
51
251.341100
0
LINE
8
0
10
71.519929
20
37.084468
30
0.0
11
71.804161
21
36.988488
31
0.0
0
ARC
8
0
10
71.900141
20
37.272720
30
0.0
40
0.300000
50
251.341100
51
90.000000
0
LINE
8
0
10
71.900141
20
37.572720
30
0.0
11
71.900141
21
42.072720
31
0.0
0
ARC
8
0
10
71.700141
20
42.072720
30
0.0
40
0.200000
50
360.000000
51
90.000000
0
LINE
8
0
10
71.700141
20
42.272720
30
0.0
11
71.632252
21
42.272720
31
0.0
0
ARC
8
0
10
71.632252
20
41.972720
30
0.0
40
0.300000
50
90.000000
51
121.380132
0
LINE
8
0
10
71.476038
20
42.228839
30
0.0
11
69.800045
21
41.206606
31
0.0
0
ARC
8
0
10
69.600141
20
41.200416
30
0.0
40
0.200000
50
180.000000
51
360.000000
0
LINE
8
0
10
69.400141
20
41.200416
30
0.0
11
69.400141
21
42.607407
31
0.0
0
ARC
8
0
10
69.600141
20
42.607407
30
0.0
40
0.200000
50
121.380132
51
180.000000
0
LINE
8
0
10
69.495998
20
42.778153
30
0.0
11
71.864641
21
44.222851
31
0.0
0
ARC
8
0
10
71.500141
20
44.820463
30
0.0
40
0.700000
50
301.380132
51
360.000000
0
LINE
8
0
10
72.200141
20
44.820463
30
0.0
11
72.200141
21
49.841720
31
0.0
0
ARC
8
0
10
71.470141
20
49.841720
30
0.0
40
0.730000
50
360.000000
51
58.619868
0
LINE
8
0
10
71.850262
20
50.464944
30
0.0
11
70.095998
21
51.534916
31
0.0
0
ARC
8
0
10
70.200141
20
51.705662
30
0.0
40
0.200000
50
180.000000
51
238.619868
0
LINE
8
0
10
70.000141
20
51.705662
30
0.0
11
70.000141
21
53.112653
31
0.0
0
ARC
8
0
10
70.200141
20
53.112653
30
0.0
40
0.200000
50
360.000000
51
180.000000
0
LINE
8
0
10
70.400045
20
53.106463
30
0.0
11
72.076038
21
52.084230
31
0.0
0
ARC
8
0
10
72.232252
20
52.340349
30
0.0
40
0.300000
50
238.619868
51
270.000000
0
LINE
8
0
10
72.232252
20
52.040349
30
0.0
11
72.300141
21
52.040349
31
0.0
0
ARC
8
0
10
72.300141
20
52.240349
30
0.0
40
0.200000
50
270.000000
51
360.000000
0
LINE
8
0
10
72.500141
20
52.240349
30
0.0
11
72.500141
21
56.740349
31
0.0
0
ARC
8
0
10
72.500141
20
57.040349
30
0.0
40
0.300000
50
270.000000
51
108.658900
0
LINE
8
0
10
72.404161
20
57.324581
30
0.0
11
72.119929
21
57.228601
31
0.0
0
ARC
8
0
10
72.215909
20
56.944369
30
0.0
40
0.300000
50
108.658900
51
130.482877
0
LINE
8
0
10
72.021143
20
57.172549
30
0.0
11
70.416941
21
55.803260
31
0.0
0
ARC
8
0
10
70.546785
20
55.651140
30
0.0
40
0.200000
50
130.482877
51
183.658900
0
LINE
8
0
10
70.347192
20
55.638377
30
0.0
11
70.357121
21
55.483112
31
0.0
0
ARC
8
0
10
70.211797
20
55.473819
30
0.0
40
0.145621
50
238.749887
51
360.000000
0
LINE
8
0
10
70.136253
20
55.349326
30
0.0
11
69.499978
21
55.735429
31
0.0
0
ARC
8
0
10
69.655610
20
55.991902
30
0.0
40
0.300000
50
210.202719
51
238.749887
0
LINE
8
0
10
69.396335
20
55.840984
30
0.0
11
67.802516
21
58.579140
31
0.0
0
ARC
8
0
10
68.061792
20
58.730058
30
0.0
40
0.300000
50
90.000000
51
210.202719
0
LINE
8
0
10
68.061792
20
59.030058
30
0.0
11
68.750588
21
59.030058
31
0.0
0
ARC
8
0
10
68.750588
20
58.530058
30
0.0
40
0.500000
50
37.418197
51
90.000000
0
ARC
8
0
10
70.736142
20
60.049128
30
0.0
40
2.000000
50
217.418197
51
306.561026
0
LINE
8
0
10
71.927500
20
58.442683
30
0.0
11
72.196900
21
58.642473
31
0.0
0
ARC
8
0
10
71.750141
20
59.244890
30
0.0
40
0.750000
50
306.561026
51
360.000000
0
LINE
8
0
10
72.500141
20
59.244890
30
0.0
11
72.500141
21
59.630067
31
0.0
0
ARC
8
0
10
72.800141
20
59.630067
30
0.0
40
0.300000
50
84.440484
51
180.000000
0
LINE
8
0
10
72.829205
20
59.928656
30
0.0
11
83.471077
21
58.892802
31
0.0
0
ARC
8
0
10
83.500141
20
59.191391
30
0.0
40
0.300000
50
264.440484
51
360.000000
0
LINE
8
0
10
83.800141
20
59.191391
30
0.0
11
83.800141
21
59.499558
31
0.0
0
ARC
8
0
10
84.300141
20
59.499558
30
0.0
40
0.500000
50
90.000000
51
180.000000
0
LINE
8
0
10
84.300141
20
59.999558
30
0.0
11
85.100141
21
59.999558
31
0.0
0
LINE
8
0
10
85.100141
20
59.999558
30
0.0
11
85.100141
21
58.899558
31
0.0
0
LINE
8
0
10
85.100141
20
58.899558
30
0.0
11
87.300141
21
58.899558
31
0.0
0
LINE
8
0
10
87.300141
20
58.899558
30
0.0
11
87.300141
21
72.699558
31
0.0
0
LINE
8
0
10
87.300141
20
72.699558
30
0.0
11
86.100141
21
72.699558
31
0.0
0
LINE
8
0
10
86.100141
20
72.699558
30
0.0
11
86.100141
21
71.399558
31
0.0
0
LINE
8
0
10
86.100141
20
71.399558
30
0.0
11
85.500141
21
71.399558
31
0.0
0
ARC
8
0
10
85.500141
20
71.899558
30
0.0
40
0.500000
50
180.000000
51
270.000000
0
LINE
8
0
10
85.000141
20
71.899558
30
0.0
11
85.000141
21
72.799740
31
0.0
0
ARC
8
0
10
86.000141
20
72.799740
30
0.0
40
1.000000
50
90.000000
51
180.000000
0
LINE
8
0
10
86.000141
20
73.799740
30
0.0
11
87.000141
21
73.799740
31
0.0
0
ARC
8
0
10
87.000141
20
74.099740
30
0.0
40
0.300000
50
270.000000
51
360.000000
0
LINE
8
0
10
87.300141
20
74.099740
30
0.0
11
87.300141
21
82.095040
31
0.0
0
ARC
8
0
10
87.000141
20
82.095040
30
0.0
40
0.300000
50
360.000000
51
90.000000
0
LINE
8
0
10
87.000141
20
82.395040
30
0.0
11
80.600051
21
82.395040
31
0.0
0
ARC
8
0
10
80.600051
20
82.095040
30
0.0
40
0.300000
50
90.000000
51
180.000000
0
LINE
8
0
10
80.300051
20
82.095040
30
0.0
11
80.300051
21
74.399937
31
0.0
0
ARC
8
0
10
79.300051
20
74.399937
30
0.0
40
1.000000
50
270.000000
51
360.000000
0
LINE
8
0
10
79.300051
20
73.399937
30
0.0
11
76.900123
21
73.399937
31
0.0
0
ARC
8
0
10
76.900123
20
73.899919
30
0.0
40
0.499982
50
180.000000
51
270.000000
0
LINE
8
0
10
76.400141
20
73.899919
30
0.0
11
76.400141
21
74.899883
31
0.0
0
LINE
8
0
10
76.400141
20
74.899883
30
0.0
11
76.837956
21
76.432236
31
0.0
0
ARC
8
0
10
77.126413
20
76.349820
30
0.0
40
0.300000
50
90.000000
51
164.054604
0
LINE
8
0
10
77.126413
20
76.649820
30
0.0
11
77.400105
21
76.649820
31
0.0
0
LINE
8
0
10
77.400105
20
76.649820
30
0.0
11
77.400105
21
75.199883
31
0.0
0
ARC
8
0
10
77.700105
20
75.199883
30
0.0
40
0.300000
50
180.000000
51
270.000000
0
LINE
8
0
10
77.700105
20
74.899883
30
0.0
11
78.600051
21
74.899883
31
0.0
0
ARC
8
0
10
78.600051
20
75.199883
30
0.0
40
0.300000
50
270.000000
51
360.000000
0
LINE
8
0
10
78.900051
20
75.199883
30
0.0
11
78.900051
21
82.099612
31
0.0
0
ARC
8
0
10
78.600051
20
82.099612
30
0.0
40
0.300000
50
360.000000
51
90.000000
0
LINE
8
0
10
78.600051
20
82.399612
30
0.0
11
77.700105
21
82.399612
31
0.0
0
ARC
8
0
10
77.700105
20
82.099612
30
0.0
40
0.300000
50
90.000000
51
180.000000
0
LINE
8
0
10
77.400105
20
82.099612
30
0.0
11
77.400105
21
80.649675
31
0.0
0
LINE
8
0
10
77.400105
20
80.649675
30
0.0
11
77.126413
21
80.649675
31
0.0
0
ARC
8
0
10
77.126413
20
80.949675
30
0.0
40
0.300000
50
195.945396
51
270.000000
0
LINE
8
0
10
76.837956
20
80.867259
30
0.0
11
76.400141
21
82.399612
31
0.0
0
LINE
8
0
10
76.400141
20
82.399612
30
0.0
11
76.400141
21
83.399576
31
0.0
0
ARC
8
0
10
76.900123
20
83.399576
30
0.0
40
0.499982
50
90.000000
51
180.000000
0
LINE
8
0
10
76.900123
20
83.899558
30
0.0
11
88.400141
21
83.899558
31
0.0
0
ARC
8
0
10
88.400141
20
83.399558
30
0.0
40
0.500000
50
360.000000
51
90.000000
0
LINE
8
0
10
88.900141
20
83.399558
30
0.0
11
88.900141
21
43.499540
31
0.0
0
ARC
8
0
10
88.600141
20
43.499540
30
0.0
40
0.300000
50
261.786789
51
360.000000
0
ARC
8
0
10
88.700141
20
44.192360
30
0.0
40
1.000000
50
180.000000
51
261.786789
0
LINE
8
0
10
87.700141
20
44.192360
30
0.0
11
87.700141
21
45.399540
31
0.0
0
LINE
8
0
10
73.700141
20
37.099107
30
0.0
11
73.700141
21
51.299107
31
0.0
0
LINE
8
0
10
73.700141
20
51.299107
30
0.0
11
76.400141
21
51.299107
31
0.0
0
ARC
8
0
10
76.400141
20
51.599107
30
0.0
40
0.300000
50
270.000000
51
360.000000
0
LINE
8
0
10
76.700141
20
51.599107
30
0.0
11
76.700141
21
52.499107
31
0.0
0
ARC
8
0
10
76.400141
20
52.499107
30
0.0
40
0.300000
50
360.000000
51
90.000000
0
LINE
8
0
10
76.400141
20
52.799107
30
0.0
11
74.300141
21
52.799107
31
0.0
0
ARC
8
0
10
74.300141
20
53.099107
30
0.0
40
0.300000
50
180.000000
51
270.000000
0
LINE
8
0
10
74.000141
20
53.099107
30
0.0
11
74.000141
21
57.976971
31
0.0
0
ARC
8
0
10
74.300141
20
57.976971
30
0.0
40
0.300000
50
84.440484
51
180.000000
0
LINE
8
0
10
74.329205
20
58.275560
30
0.0
11
83.314343
21
57.400969
31
0.0
0
LINE
8
0
10
83.314343
20
57.400969
30
0.0
11
83.343407
21
57.399558
31
0.0
0
LINE
8
0
10
83.343407
20
57.399558
30
0.0
11
87.000141
21
57.399558
31
0.0
0
ARC
8
0
10
87.000141
20
57.099558
30
0.0
40
0.300000
50
360.000000
51
90.000000
0
LINE
8
0
10
87.300141
20
57.099558
30
0.0
11
87.300141
21
47.499540
31
0.0
0
ARC
8
0
10
87.000141
20
47.499540
30
0.0
40
0.300000
50
270.000000
51
360.000000
0
LINE
8
0
10
87.000141
20
47.199540
30
0.0
11
81.900141
21
47.199540
31
0.0
0
ARC
8
0
10
81.900141
20
46.199540
30
0.0
40
1.000000
50
90.000000
51
180.000000
0
LINE
8
0
10
80.900141
20
46.199540
30
0.0
11
80.900141
21
37.099107
31
0.0
0
LINE
8
0
10
80.900141
20
37.099107
30
0.0
11
73.700141
21
37.099107
31
0.0
0
LINE
8
0
10
64.558760
20
28.608827
30
0.0
11
65.820646
21
31.581643
31
0.0
0
ARC
8
0
10
64.900141
20
31.972374
30
0.0
40
1.000000
50
337.000000
51
360.000000
0
LINE
8
0
10
65.900141
20
31.972374
30
0.0
11
65.900141
21
33.345710
31
0.0
0
ARC
8
0
10
68.900141
20
33.345710
30
0.0
40
3.000000
50
150.000000
51
180.000000
0
LINE
8
0
10
66.302065
20
34.845710
30
0.0
11
68.555952
21
38.749558
31
0.0
0
ARC
8
0
10
68.815760
20
38.599558
30
0.0
40
0.300000
50
90.000000
51
150.000000
0
LINE
8
0
10
68.815760
20
38.899558
30
0.0
11
68.912577
21
38.899558
31
0.0
0
ARC
8
0
10
68.912577
20
37.699558
30
0.0
40
1.200000
50
60.000000
51
90.000000
0
LINE
8
0
10
69.512577
20
38.738788
30
0.0
11
71.092961
21
37.826353
31
0.0
0
ARC
8
0
10
71.192961
20
37.999558
30
0.0
40
0.200000
50
240.000000
51
270.000000
0
LINE
8
0
10
71.192961
20
37.799558
30
0.0
11
71.500141
21
37.799558
31
0.0
0
ARC
8
0
10
71.500141
20
38.199558
30
0.0
40
0.400000
50
270.000000
51
360.000000
0
LINE
8
0
10
71.900141
20
38.199558
30
0.0
11
71.900141
21
38.781524
31
0.0
0
LINE
8
0
10
71.900141
20
38.781524
30
0.0
11
71.896966
21
38.817017
31
0.0
0
ARC
8
0
10
77.900141
20
39.899558
30
0.0
40
6.100000
50
187.406393
51
190.222179
0
ARC
8
0
10
71.553538
20
39.074558
30
0.0
40
0.300000
50
7.406393
51
90.000000
0
LINE
8
0
10
71.553538
20
39.374558
30
0.0
11
71.440615
21
39.374558
31
0.0
0
ARC
8
0
10
71.150141
20
39.899558
30
0.0
40
0.600000
50
61.044976
51
298.955024
0
LINE
8
0
10
71.440615
20
40.424558
30
0.0
11
71.553538
21
40.424558
31
0.0
0
ARC
8
0
10
71.553538
20
40.724558
30
0.0
40
0.300000
50
270.000000
51
352.593607
0
ARC
8
0
10
77.900141
20
39.899558
30
0.0
40
6.100000
50
169.777821
51
172.593607
0
LINE
8
0
10
71.896966
20
40.982099
30
0.0
11
71.900141
21
41.017592
31
0.0
0
LINE
8
0
10
71.900141
20
41.017592
30
0.0
11
71.900141
21
41.599558
31
0.0
0
ARC
8
0
10
71.500141
20
41.599558
30
0.0
40
0.400000
50
360.000000
51
90.000000
0
LINE
8
0
10
71.500141
20
41.999558
30
0.0
11
71.192961
21
41.999558
31
0.0
0
ARC
8
0
10
71.192961
20
41.799558
30
0.0
40
0.200000
50
90.000000
51
120.000000
0
LINE
8
0
10
71.092961
20
41.972763
30
0.0
11
69.512577
21
41.060327
31
0.0
0
ARC
8
0
10
68.912577
20
42.099558
30
0.0
40
1.200000
50
270.000000
51
300.000000
0
LINE
8
0
10
68.912577
20
40.899558
30
0.0
11
44.887705
21
40.899558
31
0.0
0
ARC
8
0
10
44.887705
20
42.099558
30
0.0
40
1.200000
50
240.000000
51
270.000000
0
LINE
8
0
10
44.287705
20
41.060327
30
0.0
11
42.707321
21
41.972763
31
0.0
0
ARC
8
0
10
42.607321
20
41.799558
30
0.0
40
0.200000
50
60.000000
51
90.000000
0
LINE
8
0
10
42.607321
20
41.999558
30
0.0
11
42.300141
21
41.999558
31
0.0
0
ARC
8
0
10
42.300141
20
41.599558
30
0.0
40
0.400000
50
90.000000
51
180.000000
0
LINE
8
0
10
41.900141
20
41.599558
30
0.0
11
41.900141
21
41.017592
31
0.0
0
LINE
8
0
10
41.900141
20
41.017592
30
0.0
11
41.903316
21
40.982099
31
0.0
0
ARC
8
0
10
35.900141
20
39.899558
30
0.0
40
6.100000
50
7.406393
51
10.222179
0
ARC
8
0
10
42.246744
20
40.724558
30
0.0
40
0.300000
50
187.406393
51
270.000000
0
LINE
8
0
10
42.246744
20
40.424558
30
0.0
11
42.359667
21
40.424558
31
0.0
0
ARC
8
0
10
42.650141
20
39.899558
30
0.0
40
0.600000
50
241.044976
51
118.955024
0
LINE
8
0
10
42.359667
20
39.374558
30
0.0
11
42.246744
21
39.374558
31
0.0
0
ARC
8
0
10
42.246744
20
39.074558
30
0.0
40
0.300000
50
90.000000
51
172.593607
0
ARC
8
0
10
35.900141
20
39.899558
30
0.0
40
6.100000
50
349.777821
51
352.593607
0
LINE
8
0
10
41.903316
20
38.817017
30
0.0
11
41.900141
21
38.781524
31
0.0
0
LINE
8
0
10
41.900141
20
38.781524
30
0.0
11
41.900141
21
38.199558
31
0.0
0
ARC
8
0
10
42.300141
20
38.199558
30
0.0
40
0.400000
50
180.000000
51
270.000000
0
LINE
8
0
10
42.300141
20
37.799558
30
0.0
11
42.607321
21
37.799558
31
0.0
0
ARC
8
0
10
42.607321
20
37.999558
30
0.0
40
0.200000
50
270.000000
51
300.000000
0
LINE
8
0
10
42.707321
20
37.826353
30
0.0
11
44.287705
21
38.738788
31
0.0
0
ARC
8
0
10
44.887705
20
37.699558
30
0.0
40
1.200000
50
90.000000
51
120.000000
0
LINE
8
0
10
44.887705
20
38.899558
30
0.0
11
44.984522
21
38.899558
31
0.0
0
ARC
8
0
10
44.984522
20
38.599558
30
0.0
40
0.300000
50
30.000000
51
90.000000
0
LINE
8
0
10
45.244330
20
38.749558
30
0.0
11
47.498217
21
34.845710
31
0.0
0
ARC
8
0
10
44.900141
20
33.345710
30
0.0
40
3.000000
50
360.000000
51
30.000000
0
LINE
8
0
10
47.900141
20
33.345710
30
0.0
11
47.900141
21
31.972374
31
0.0
0
ARC
8
0
10
48.900141
20
31.972374
30
0.0
40
1.000000
50
180.000000
51
203.000000
0
LINE
8
0
10
47.979636
20
31.581643
30
0.0
11
49.241522
21
28.608827
31
0.0
0
ARC
8
0
10
50.162027
20
28.999558
30
0.0
40
1.000000
50
203.000000
51
270.000000
0
LINE
8
0
10
50.162027
20
27.999558
30
0.0
11
63.638255
21
27.999558
31
0.0
0
ARC
8
0
10
63.638255
20
28.999558
30
0.0
40
1.000000
50
270.000000
51
337.000000
0
ARC
8
0
10
49.600141
20
32.114790
30
0.0
40
0.500000
50
180.000000
51
203.000000
0
LINE
8
0
10
49.100141
20
32.114790
30
0.0
11
49.100141
21
33.345710
31
0.0
0
ARC
8
0
10
44.900141
20
33.345710
30
0.0
40
4.200000
50
360.000000
51
30.000000
0
LINE
8
0
10
48.537448
20
35.445710
30
0.0
11
46.745440
21
38.549558
31
0.0
0
ARC
8
0
10
47.178453
20
38.799558
30
0.0
40
0.500000
50
90.000000
51
210.000000
0
LINE
8
0
10
47.178453
20
39.299558
30
0.0
11
55.900141
21
39.299558
31
0.0
0
ARC
8
0
10
55.900141
20
38.799558
30
0.0
40
0.500000
50
360.000000
51
90.000000
0
LINE
8
0
10
56.400141
20
38.799558
30
0.0
11
56.400141
21
29.699558
31
0.0
0
ARC
8
0
10
55.900141
20
29.699558
30
0.0
40
0.500000
50
270.000000
51
360.000000
0
LINE
8
0
10
55.900141
20
29.199558
30
0.0
11
50.625346
21
29.199558
31
0.0
0
ARC
8
0
10
50.625346
20
29.699558
30
0.0
40
0.500000
50
203.000000
51
270.000000
0
LINE
8
0
10
50.165094
20
29.504192
30
0.0
11
49.139889
21
31.919425
31
0.0
0
LINE
8
0
10
64.660393
20
31.919425
30
0.0
11
63.635188
21
29.504192
31
0.0
0
ARC
8
0
10
63.174936
20
29.699558
30
0.0
40
0.500000
50
270.000000
51
337.000000
0
LINE
8
0
10
63.174936
20
29.199558
30
0.0
11
57.900141
21
29.199558
31
0.0
0
ARC
8
0
10
57.900141
20
29.699558
30
0.0
40
0.500000
50
180.000000
51
270.000000
0
LINE
8
0
10
57.400141
20
29.699558
30
0.0
11
57.400141
21
38.799558
31
0.0
0
ARC
8
0
10
57.900141
20
38.799558
30
0.0
40
0.500000
50
90.000000
51
180.000000
0
LINE
8
0
10
57.900141
20
39.299558
30
0.0
11
66.621829
21
39.299558
31
0.0
0
ARC
8
0
10
66.621829
20
38.799558
30
0.0
40
0.500000
50
330.000000
51
90.000000
0
LINE
8
0
10
67.054842
20
38.549558
30
0.0
11
65.262834
21
35.445710
31
0.0
0
ARC
8
0
10
68.900141
20
33.345710
30
0.0
40
4.200000
50
150.000000
51
180.000000
0
LINE
8
0
10
64.700141
20
33.345710
30
0.0
11
64.700141
21
32.114790
31
0.0
0
ARC
8
0
10
64.200141
20
32.114790
30
0.0
40
0.500000
50
337.000000
51
360.000000
0
LINE
8
0
10
49.707135
20
55.796783
30
0.0
11
49.793373
21
55.899558
31
0.0
0
LINE
8
0
10
50.059569
20
53.886215
30
0.0
11
50.182020
21
54.032146
31
0.0
0
LINE
8
0
10
51.528981
20
55.637392
30
0.0
11
51.651432
21
55.783324
31
0.0
0
LINE
8
0
10
50.412003
20
51.975646
30
0.0
11
50.534454
21
52.121578
31
0.0
0
LINE
8
0
10
51.881416
20
53.726824
30
0.0
11
52.003867
21
53.872755
31
0.0
0
LINE
8
0
10
53.350828
20
55.478001
30
0.0
11
53.473279
21
55.623933
31
0.0
0
LINE
8
0
10
49.400141
20
48.439173
30
0.0
11
49.417476
21
48.459832
31
0.0
0
LINE
8
0
10
50.764437
20
50.065078
30
0.0
11
50.886888
21
50.211009
31
0.0
0
LINE
8
0
10
52.233850
20
51.816255
30
0.0
11
52.356301
21
51.962187
31
0.0
0
LINE
8
0
10
53.703262
20
53.567433
30
0.0
11
53.825713
21
53.713364
31
0.0
0
LINE
8
0
10
55.172675
20
55.318611
30
0.0
11
55.295126
21
55.464542
31
0.0
0
LINE
8
0
10
49.647459
20
46.403332
30
0.0
11
49.769910
21
46.549263
31
0.0
0
LINE
8
0
10
51.116872
20
48.154509
30
0.0
11
51.239323
21
48.300441
31
0.0
0
LINE
8
0
10
52.586284
20
49.905687
30
0.0
11
52.708735
21
50.051618
31
0.0
0
LINE
8
0
10
54.055697
20
51.656865
30
0.0
11
54.178148
21
51.802796
31
0.0
0
LINE
8
0
10
55.525109
20
53.408042
30
0.0
11
55.647560
21
53.553974
31
0.0
0
LINE
8
0
10
56.994522
20
55.159220
30
0.0
11
57.116973
21
55.305151
31
0.0
0
LINE
8
0
10
49.999893
20
44.492763
30
0.0
11
50.122344
21
44.638695
31
0.0
0
LINE
8
0
10
51.469306
20
46.243941
30
0.0
11
51.591757
21
46.389872
31
0.0
0
LINE
8
0
10
52.938718
20
47.995119
30
0.0
11
53.061169
21
48.141050
31
0.0
0
LINE
8
0
10
54.408131
20
49.746296
30
0.0
11
54.530582
21
49.892228
31
0.0
0
LINE
8
0
10
55.877543
20
51.497474
30
0.0
11
55.999994
21
51.643405
31
0.0
0
LINE
8
0
10
57.346956
20
53.248651
30
0.0
11
57.469407
21
53.394583
31
0.0
0
LINE
8
0
10
58.816368
20
54.999829
30
0.0
11
58.938819
21
55.145760
31
0.0
0
LINE
8
0
10
50.352328
20
42.582195
30
0.0
11
50.474779
21
42.728126
31
0.0
0
LINE
8
0
10
51.821740
20
44.333372
30
0.0
11
51.944191
21
44.479304
31
0.0
0
LINE
8
0
10
53.291153
20
46.084550
30
0.0
11
53.413604
21
46.230482
31
0.0
0
LINE
8
0
10
54.760565
20
47.835728
30
0.0
11
54.883016
21
47.981659
31
0.0
0
LINE
8
0
10
56.229977
20
49.586905
30
0.0
11
56.352429
21
49.732837
31
0.0
0
LINE
8
0
10
57.699390
20
51.338083
30
0.0
11
57.821841
21
51.484014
31
0.0
0
LINE
8
0
10
59.168802
20
53.089260
30
0.0
11
59.291253
21
53.235192
31
0.0
0
LINE
8
0
10
60.638215
20
54.840438
30
0.0
11
60.760666
21
54.986370
31
0.0
0
LINE
8
0
10
52.174174
20
42.422804
30
0.0
11
52.296625
21
42.568735
31
0.0
0
LINE
8
0
10
53.643587
20
44.173982
30
0.0
11
53.766038
21
44.319913
31
0.0
0
LINE
8
0
10
55.112999
20
45.925159
30
0.0
11
55.235450
21
46.071091
31
0.0
0
LINE
8
0
10
56.582412
20
47.676337
30
0.0
11
56.704863
21
47.822268
31
0.0
0
LINE
8
0
10
58.051824
20
49.427514
30
0.0
11
58.174275
21
49.573446
31
0.0
0
LINE
8
0
10
59.521237
20
51.178692
30
0.0
11
59.643688
21
51.324623
31
0.0
0
LINE
8
0
10
60.990649
20
52.929870
30
0.0
11
61.113100
21
53.075801
31
0.0
0
LINE
8
0
10
62.460062
20
54.681047
30
0.0
11
62.582513
21
54.826979
31
0.0
0
LINE
8
0
10
53.996021
20
42.263413
30
0.0
11
54.118472
21
42.409345
31
0.0
0
LINE
8
0
10
55.465433
20
44.014591
30
0.0
11
55.587884
21
44.160522
31
0.0
0
LINE
8
0
10
56.934846
20
45.765768
30
0.0
11
57.057297
21
45.911700
31
0.0
0
LINE
8
0
10
58.404258
20
47.516946
30
0.0
11
58.526709
21
47.662877
31
0.0
0
LINE
8
0
10
59.873671
20
49.268124
30
0.0
11
59.996122
21
49.414055
31
0.0
0
LINE
8
0
10
61.343083
20
51.019301
30
0.0
11
61.465534
21
51.165233
31
0.0
0
LINE
8
0
10
62.812496
20
52.770479
30
0.0
11
62.934947
21
52.916410
31
0.0
0
LINE
8
0
10
64.281908
20
54.521656
30
0.0
11
64.400141
21
54.662561
31
0.0
0
LINE
8
0
10
55.817868
20
42.104022
30
0.0
11
55.940319
21
42.249954
31
0.0
0
LINE
8
0
10
57.287280
20
43.855200
30
0.0
11
57.409731
21
44.001131
31
0.0
0
LINE
8
0
10
58.756693
20
45.606378
30
0.0
11
58.879144
21
45.752309
31
0.0
0
LINE
8
0
10
60.226105
20
47.357555
30
0.0
11
60.348556
21
47.503487
31
0.0
0
LINE
8
0
10
61.695518
20
49.108733
30
0.0
11
61.817969
21
49.254664
31
0.0
0
LINE
8
0
10
63.164930
20
50.859910
30
0.0
11
63.287381
21
51.005842
31
0.0
0
LINE
8
0
10
57.639714
20
41.944631
30
0.0
11
57.762165
21
42.090563
31
0.0
0
LINE
8
0
10
59.109127
20
43.695809
30
0.0
11
59.231578
21
43.841741
31
0.0
0
LINE
8
0
10
60.578539
20
45.446987
30
0.0
11
60.700990
21
45.592918
31
0.0
0
LINE
8
0
10
62.047952
20
47.198164
30
0.0
11
62.170403
21
47.344096
31
0.0
0
LINE
8
0
10
63.517364
20
48.949342
30
0.0
11
63.639815
21
49.095273
31
0.0
0
LINE
8
0
10
59.461561
20
41.785241
30
0.0
11
59.584012
21
41.931172
31
0.0
0
LINE
8
0
10
60.930974
20
43.536418
30
0.0
11
61.053425
21
43.682350
31
0.0
0
LINE
8
0
10
62.400386
20
45.287596
30
0.0
11
62.522837
21
45.433527
31
0.0
0
LINE
8
0
10
63.869798
20
47.038773
30
0.0
11
63.992249
21
47.184705
31
0.0
0
LINE
8
0
10
61.283408
20
41.625850
30
0.0
11
61.405859
21
41.771781
31
0.0
0
LINE
8
0
10
62.752820
20
43.377027
30
0.0
11
62.875271
21
43.522959
31
0.0
0
LINE
8
0
10
64.222233
20
45.128205
30
0.0
11
64.344684
21
45.274136
31
0.0
0
LINE
8
0
10
63.105254
20
41.466459
30
0.0
11
63.227705
21
41.612390
31
0.0
0
LINE
8
0
10
49.707134
20
55.796772
30
0.0
11
49.858954
21
55.783490
31
0.0
0
LINE
8
0
10
51.528981
20
55.637381
30
0.0
11
51.680801
21
55.624099
31
0.0
0
LINE
8
0
10
53.350827
20
55.477991
30
0.0
11
53.502647
21
55.464708
31
0.0
0
LINE
8
0
10
55.172674
20
55.318600
30
0.0
11
55.324494
21
55.305317
31
0.0
0
LINE
8
0
10
56.994521
20
55.159209
30
0.0
11
57.146341
21
55.145926
31
0.0
0
LINE
8
0
10
58.816367
20
54.999818
30
0.0
11
58.968187
21
54.986535
31
0.0
0
LINE
8
0
10
60.638214
20
54.840427
30
0.0
11
60.790034
21
54.827144
31
0.0
0
LINE
8
0
10
62.460061
20
54.681036
30
0.0
11
62.611881
21
54.667753
31
0.0
0
LINE
8
0
10
64.281907
20
54.521645
30
0.0
11
64.400141
21
54.511301
31
0.0
0
LINE
8
0
10
50.059568
20
53.886204
30
0.0
11
50.211388
21
53.872921
31
0.0
0
LINE
8
0
10
51.881415
20
53.726813
30
0.0
11
52.033235
21
53.713530
31
0.0
0
LINE
8
0
10
53.703261
20
53.567422
30
0.0
11
53.855081
21
53.554140
31
0.0
0
LINE
8
0
10
55.525108
20
53.408031
30
0.0
11
55.676928
21
53.394749
31
0.0
0
LINE
8
0
10
57.346955
20
53.248640
30
0.0
11
57.498775
21
53.235358
31
0.0
0
LINE
8
0
10
59.168801
20
53.089249
30
0.0
11
59.320622
21
53.075967
31
0.0
0
LINE
8
0
10
60.990648
20
52.929858
30
0.0
11
61.142468
21
52.916576
31
0.0
0
LINE
8
0
10
62.812495
20
52.770467
30
0.0
11
62.964315
21
52.757185
31
0.0
0
LINE
8
0
10
50.412002
20
51.975635
30
0.0
11
50.563822
21
51.962353
31
0.0
0
LINE
8
0
10
52.233849
20
51.816245
30
0.0
11
52.385669
21
51.802962
31
0.0
0
LINE
8
0
10
54.055696
20
51.656854
30
0.0
11
54.207516
21
51.643571
31
0.0
0
LINE
8
0
10
55.877542
20
51.497463
30
0.0
11
56.029362
21
51.484180
31
0.0
0
LINE
8
0
10
57.699389
20
51.338072
30
0.0
11
57.851209
21
51.324789
31
0.0
0
LINE
8
0
10
59.521236
20
51.178681
30
0.0
11
59.673056
21
51.165398
31
0.0
0
LINE
8
0
10
61.343082
20
51.019290
30
0.0
11
61.494902
21
51.006007
31
0.0
0
LINE
8
0
10
63.164929
20
50.859899
30
0.0
11
63.316749
21
50.846616
31
0.0
0
LINE
8
0
10
50.764436
20
50.065067
30
0.0
11
50.916257
21
50.051784
31
0.0
0
LINE
8
0
10
52.586283
20
49.905676
30
0.0
11
52.738103
21
49.892394
31
0.0
0
LINE
8
0
10
54.408130
20
49.746285
30
0.0
11
54.559950
21
49.733003
31
0.0
0
LINE
8
0
10
56.229977
20
49.586894
30
0.0
11
56.381797
21
49.573612
31
0.0
0
LINE
8
0
10
58.051823
20
49.427503
30
0.0
11
58.203643
21
49.414221
31
0.0
0
LINE
8
0
10
59.873670
20
49.268112
30
0.0
11
60.025490
21
49.254830
31
0.0
0
LINE
8
0
10
61.695517
20
49.108721
30
0.0
11
61.847337
21
49.095439
31
0.0
0
LINE
8
0
10
63.517363
20
48.949331
30
0.0
11
63.669183
21
48.936048
31
0.0
0
LINE
8
0
10
49.400141
20
48.304693
30
0.0
11
49.446844
21
48.300607
31
0.0
0
LINE
8
0
10
51.116871
20
48.154499
30
0.0
11
51.268691
21
48.141216
31
0.0
0
LINE
8
0
10
52.938717
20
47.995108
30
0.0
11
53.090537
21
47.981825
31
0.0
0
LINE
8
0
10
54.760564
20
47.835717
30
0.0
11
54.912384
21
47.822434
31
0.0
0
LINE
8
0
10
56.582411
20
47.676326
30
0.0
11
56.734231
21
47.663043
31
0.0
0
LINE
8
0
10
58.404257
20
47.516935
30
0.0
11
58.556077
21
47.503652
31
0.0
0
LINE
8
0
10
60.226104
20
47.357544
30
0.0
11
60.377924
21
47.344261
31
0.0
0
LINE
8
0
10
62.047951
20
47.198153
30
0.0
11
62.199771
21
47.184870
31
0.0
0
LINE
8
0
10
63.869797
20
47.038762
30
0.0
11
64.021618
21
47.025480
31
0.0
0
LINE
8
0
10
49.647458
20
46.403321
30
0.0
11
49.799278
21
46.390039
31
0.0
0
LINE
8
0
10
51.469305
20
46.243930
30
0.0
11
51.621125
21
46.230648
31
0.0
0
LINE
8
0
10
53.291152
20
46.084539
30
0.0
11
53.442972
21
46.071257
31
0.0
0
LINE
8
0
10
55.112998
20
45.925148
30
0.0
11
55.264818
21
45.911866
31
0.0
0
LINE
8
0
10
56.934845
20
45.765757
30
0.0
11
57.086665
21
45.752475
31
0.0
0
LINE
8
0
10
58.756692
20
45.606366
30
0.0
11
58.908512
21
45.593084
31
0.0
0
LINE
8
0
10
60.578538
20
45.446975
30
0.0
11
60.730358
21
45.433693
31
0.0
0
LINE
8
0
10
62.400385
20
45.287585
30
0.0
11
62.552205
21
45.274302
31
0.0
0
LINE
8
0
10
64.222232
20
45.128194
30
0.0
11
64.374052
21
45.114911
31
0.0
0
LINE
8
0
10
49.999892
20
44.492753
30
0.0
11
50.151713
21
44.479470
31
0.0
0
LINE
8
0
10
51.821739
20
44.333362
30
0.0
11
51.973559
21
44.320079
31
0.0
0
LINE
8
0
10
53.643586
20
44.173971
30
0.0
11
53.795406
21
44.160688
31
0.0
0
LINE
8
0
10
55.465432
20
44.014580
30
0.0
11
55.617253
21
44.001297
31
0.0
0
LINE
8
0
10
57.287279
20
43.855189
30
0.0
11
57.439099
21
43.841906
31
0.0
0
LINE
8
0
10
59.109126
20
43.695798
30
0.0
11
59.260946
21
43.682515
31
0.0
0
LINE
8
0
10
60.930973
20
43.536407
30
0.0
11
61.082793
21
43.523124
31
0.0
0
LINE
8
0
10
62.752819
20
43.377016
30
0.0
11
62.904639
21
43.363734
31
0.0
0
LINE
8
0
10
50.352327
20
42.582184
30
0.0
11
50.504147
21
42.568902
31
0.0
0
LINE
8
0
10
52.174173
20
42.422793
30
0.0
11
52.325993
21
42.409511
31
0.0
0
LINE
8
0
10
53.996020
20
42.263402
30
0.0
11
54.147840
21
42.250120
31
0.0
0
LINE
8
0
10
55.817867
20
42.104011
30
0.0
11
55.969687
21
42.090729
31
0.0
0
LINE
8
0
10
57.639713
20
41.944620
30
0.0
11
57.791533
21
41.931338
31
0.0
0
LINE
8
0
10
59.461560
20
41.785229
30
0.0
11
59.613380
21
41.771947
31
0.0
0
LINE
8
0
10
61.283407
20
41.625839
30
0.0
11
61.435227
21
41.612556
31
0.0
0
LINE
8
0
10
63.105253
20
41.466448
30
0.0
11
63.257074
21
41.453165
31
0.0
0
LINE
8
0
10
50.502591
20
42.568614
30
0.0
11
50.473222
21
42.727828
31
0.0
0
LINE
8
0
10
50.150162
20
44.479184
30
0.0
11
50.120793
21
44.638398
31
0.0
0
LINE
8
0
10
49.797733
20
46.389753
30
0.0
11
49.768364
21
46.548967
31
0.0
0
LINE
8
0
10
49.445305
20
48.300323
30
0.0
11
49.415936
21
48.459537
31
0.0
0
LINE
8
0
10
52.324432
20
42.409222
30
0.0
11
52.295063
21
42.568436
31
0.0
0
LINE
8
0
10
51.972003
20
44.319792
30
0.0
11
51.942634
21
44.479006
31
0.0
0
LINE
8
0
10
51.619574
20
46.230361
30
0.0
11
51.590205
21
46.389575
31
0.0
0
LINE
8
0
10
51.267146
20
48.140931
30
0.0
11
51.237777
21
48.300145
31
0.0
0
LINE
8
0
10
50.914717
20
50.051500
30
0.0
11
50.885348
21
50.210714
31
0.0
0
LINE
8
0
10
50.562288
20
51.962070
30
0.0
11
50.532919
21
52.121284
31
0.0
0
LINE
8
0
10
50.209860
20
53.872639
30
0.0
11
50.180491
21
54.031853
31
0.0
0
LINE
8
0
10
49.857431
20
55.783209
30
0.0
11
49.835969
21
55.899558
31
0.0
0
LINE
8
0
10
54.146273
20
42.249830
30
0.0
11
54.116904
21
42.409044
31
0.0
0
LINE
8
0
10
53.793844
20
44.160400
30
0.0
11
53.764475
21
44.319614
31
0.0
0
LINE
8
0
10
53.441416
20
46.070969
30
0.0
11
53.412046
21
46.230183
31
0.0
0
LINE
8
0
10
53.088987
20
47.981539
30
0.0
11
53.059618
21
48.140753
31
0.0
0
LINE
8
0
10
52.736558
20
49.892108
30
0.0
11
52.707189
21
50.051322
31
0.0
0
LINE
8
0
10
52.384130
20
51.802678
30
0.0
11
52.354761
21
51.961892
31
0.0
0
LINE
8
0
10
52.031701
20
53.713247
30
0.0
11
52.002332
21
53.872461
31
0.0
0
LINE
8
0
10
51.679272
20
55.623817
30
0.0
11
51.649903
21
55.783031
31
0.0
0
LINE
8
0
10
55.968114
20
42.090438
30
0.0
11
55.938745
21
42.249652
31
0.0
0
LINE
8
0
10
55.615685
20
44.001008
30
0.0
11
55.586316
21
44.160222
31
0.0
0
LINE
8
0
10
55.263257
20
45.911577
30
0.0
11
55.233888
21
46.070791
31
0.0
0
LINE
8
0
10
54.910828
20
47.822147
30
0.0
11
54.881459
21
47.981361
31
0.0
0
LINE
8
0
10
54.558399
20
49.732716
30
0.0
11
54.529030
21
49.891930
31
0.0
0
LINE
8
0
10
54.205971
20
51.643286
30
0.0
11
54.176602
21
51.802500
31
0.0
0
LINE
8
0
10
53.853542
20
53.553855
30
0.0
11
53.824173
21
53.713069
31
0.0
0
LINE
8
0
10
53.501113
20
55.464425
30
0.0
11
53.471744
21
55.623639
31
0.0
0
LINE
8
0
10
57.789955
20
41.931046
30
0.0
11
57.760586
21
42.090260
31
0.0
0
LINE
8
0
10
57.437526
20
43.841616
30
0.0
11
57.408157
21
44.000830
31
0.0
0
LINE
8
0
10
57.085098
20
45.752185
30
0.0
11
57.055729
21
45.911399
31
0.0
0
LINE
8
0
10
56.732669
20
47.662755
30
0.0
11
56.703300
21
47.821969
31
0.0
0
LINE
8
0
10
56.380240
20
49.573324
30
0.0
11
56.350871
21
49.732538
31
0.0
0
LINE
8
0
10
56.027812
20
51.483894
30
0.0
11
55.998443
21
51.643108
31
0.0
0
LINE
8
0
10
55.675383
20
53.394463
30
0.0
11
55.646014
21
53.553677
31
0.0
0
LINE
8
0
10
55.322954
20
55.305033
30
0.0
11
55.293585
21
55.464247
31
0.0
0
LINE
8
0
10
59.611796
20
41.771655
30
0.0
11
59.582427
21
41.930869
31
0.0
0
LINE
8
0
10
59.259368
20
43.682224
30
0.0
11
59.229999
21
43.841438
31
0.0
0
LINE
8
0
10
58.906939
20
45.592793
30
0.0
11
58.877570
21
45.752007
31
0.0
0
LINE
8
0
10
58.554510
20
47.503363
30
0.0
11
58.525141
21
47.662577
31
0.0
0
LINE
8
0
10
58.202082
20
49.413932
30
0.0
11
58.172713
21
49.573146
31
0.0
0
LINE
8
0
10
57.849653
20
51.324502
30
0.0
11
57.820284
21
51.483716
31
0.0
0
LINE
8
0
10
57.497224
20
53.235071
30
0.0
11
57.467855
21
53.394285
31
0.0
0
LINE
8
0
10
57.144796
20
55.145641
30
0.0
11
57.115427
21
55.304855
31
0.0
0
LINE
8
0
10
61.433637
20
41.612263
30
0.0
11
61.404268
21
41.771477
31
0.0
0
LINE
8
0
10
61.081209
20
43.522832
30
0.0
11
61.051840
21
43.682046
31
0.0
0
LINE
8
0
10
60.728780
20
45.433401
30
0.0
11
60.699411
21
45.592616
31
0.0
0
LINE
8
0
10
60.376351
20
47.343971
30
0.0
11
60.346982
21
47.503185
31
0.0
0
LINE
8
0
10
60.023923
20
49.254540
30
0.0
11
59.994554
21
49.413754
31
0.0
0
LINE
8
0
10
59.671494
20
51.165110
30
0.0
11
59.642125
21
51.324324
31
0.0
0
LINE
8
0
10
59.319065
20
53.075679
30
0.0
11
59.289696
21
53.234893
31
0.0
0
LINE
8
0
10
58.966637
20
54.986249
30
0.0
11
58.937268
21
55.145463
31
0.0
0
LINE
8
0
10
63.255478
20
41.452871
30
0.0
11
63.226109
21
41.612085
31
0.0
0
LINE
8
0
10
62.903050
20
43.363440
30
0.0
11
62.873681
21
43.522654
31
0.0
0
LINE
8
0
10
62.550621
20
45.274010
30
0.0
11
62.521252
21
45.433224
31
0.0
0
LINE
8
0
10
62.198192
20
47.184579
30
0.0
11
62.168823
21
47.343793
31
0.0
0
LINE
8
0
10
61.845764
20
49.095148
30
0.0
11
61.816395
21
49.254362
31
0.0
0
LINE
8
0
10
61.493335
20
51.005718
30
0.0
11
61.463966
21
51.164932
31
0.0
0
LINE
8
0
10
61.140907
20
52.916287
30
0.0
11
61.111537
21
53.075501
31
0.0
0
LINE
8
0
10
60.788478
20
54.826857
30
0.0
11
60.759109
21
54.986071
31
0.0
0
LINE
8
0
10
64.372462
20
45.114618
30
0.0
11
64.343093
21
45.273832
31
0.0
0
LINE
8
0
10
64.020034
20
47.025187
30
0.0
11
63.990665
21
47.184401
31
0.0
0
LINE
8
0
10
63.667605
20
48.935757
30
0.0
11
63.638236
21
49.094971
31
0.0
0
LINE
8
0
10
63.315176
20
50.846326
30
0.0
11
63.285807
21
51.005540
31
0.0
0
LINE
8
0
10
62.962748
20
52.756895
30
0.0
11
62.933379
21
52.916109
31
0.0
0
LINE
8
0
10
62.610319
20
54.667465
30
0.0
11
62.580950
21
54.826679
31
0.0
0
LINE
8
0
10
50.971675
20
53.360276
30
0.0
11
51.169512
21
53.566464
31
0.0
0
LINE
8
0
10
53.345716
20
55.834537
30
0.0
11
53.408103
21
55.899558
31
0.0
0
LINE
8
0
10
51.308424
20
50.465592
30
0.0
11
51.506261
21
50.671780
31
0.0
0
LINE
8
0
10
53.682466
20
52.939853
30
0.0
11
53.880302
21
53.146041
31
0.0
0
LINE
8
0
10
56.056507
20
55.414114
30
0.0
11
56.254344
21
55.620302
31
0.0
0
LINE
8
0
10
49.400141
20
45.231101
30
0.0
11
49.468969
21
45.302834
31
0.0
0
LINE
8
0
10
51.645173
20
47.570907
30
0.0
11
51.843010
21
47.777095
31
0.0
0
LINE
8
0
10
54.019215
20
50.045168
30
0.0
11
54.217051
21
50.251357
31
0.0
0
LINE
8
0
10
56.393256
20
52.519430
30
0.0
11
56.591093
21
52.725618
31
0.0
0
LINE
8
0
10
58.767297
20
54.993691
30
0.0
11
58.965134
21
55.199879
31
0.0
0
LINE
8
0
10
49.607881
20
42.201961
30
0.0
11
49.805718
21
42.408150
31
0.0
0
LINE
8
0
10
51.981922
20
44.676222
30
0.0
11
52.179759
21
44.882411
31
0.0
0
LINE
8
0
10
54.355964
20
47.150484
30
0.0
11
54.553800
21
47.356672
31
0.0
0
LINE
8
0
10
56.730005
20
49.624745
30
0.0
11
56.927842
21
49.830933
31
0.0
0
LINE
8
0
10
59.104046
20
52.099006
30
0.0
11
59.301883
21
52.305195
31
0.0
0
LINE
8
0
10
61.478088
20
54.573267
30
0.0
11
61.675925
21
54.779456
31
0.0
0
LINE
8
0
10
52.318671
20
41.781538
30
0.0
11
52.516508
21
41.987726
31
0.0
0
LINE
8
0
10
54.692713
20
44.255799
30
0.0
11
54.890550
21
44.461988
31
0.0
0
LINE
8
0
10
57.066754
20
46.730060
30
0.0
11
57.264591
21
46.936249
31
0.0
0
LINE
8
0
10
59.440795
20
49.204322
30
0.0
11
59.638632
21
49.410510
31
0.0
0
LINE
8
0
10
61.814837
20
51.678583
30
0.0
11
62.012674
21
51.884771
31
0.0
0
LINE
8
0
10
64.188878
20
54.152844
30
0.0
11
64.386715
21
54.359033
31
0.0
0
LINE
8
0
10
55.029462
20
41.361115
30
0.0
11
55.227299
21
41.567303
31
0.0
0
LINE
8
0
10
57.403503
20
43.835376
30
0.0
11
57.601340
21
44.041564
31
0.0
0
LINE
8
0
10
59.777545
20
46.309637
30
0.0
11
59.975381
21
46.515826
31
0.0
0
LINE
8
0
10
62.151586
20
48.783898
30
0.0
11
62.349423
21
48.990087
31
0.0
0
LINE
8
0
10
57.740252
20
40.940691
30
0.0
11
57.938089
21
41.146880
31
0.0
0
LINE
8
0
10
60.114294
20
43.414953
30
0.0
11
60.312130
21
43.621141
31
0.0
0
LINE
8
0
10
62.488335
20
45.889214
30
0.0
11
62.686172
21
46.095402
31
0.0
0
LINE
8
0
10
62.825084
20
42.994529
30
0.0
11
63.022921
21
43.200718
31
0.0
0
LINE
8
0
10
49.833406
20
42.166883
30
0.0
11
49.805344
21
42.408106
31
0.0
0
LINE
8
0
10
49.496659
20
45.061568
30
0.0
11
49.468597
21
45.302791
31
0.0
0
LINE
8
0
10
52.544194
20
41.746459
30
0.0
11
52.516132
21
41.987683
31
0.0
0
LINE
8
0
10
52.207447
20
44.641144
30
0.0
11
52.179385
21
44.882367
31
0.0
0
LINE
8
0
10
51.870700
20
47.535829
30
0.0
11
51.842638
21
47.777052
31
0.0
0
LINE
8
0
10
51.533953
20
50.430514
30
0.0
11
51.505891
21
50.671737
31
0.0
0
LINE
8
0
10
51.197206
20
53.325198
30
0.0
11
51.169144
21
53.566422
31
0.0
0
LINE
8
0
10
55.254983
20
41.326036
30
0.0
11
55.226921
21
41.567259
31
0.0
0
LINE
8
0
10
54.918236
20
44.220720
30
0.0
11
54.890174
21
44.461944
31
0.0
0
LINE
8
0
10
54.581489
20
47.115405
30
0.0
11
54.553426
21
47.356629
31
0.0
0
LINE
8
0
10
54.244742
20
50.010090
30
0.0
11
54.216679
21
50.251313
31
0.0
0
LINE
8
0
10
53.907995
20
52.904775
30
0.0
11
53.879932
21
53.145998
31
0.0
0
LINE
8
0
10
53.571247
20
55.799460
30
0.0
11
53.559603
21
55.899558
31
0.0
0
LINE
8
0
10
57.965771
20
40.905612
30
0.0
11
57.937709
21
41.146836
31
0.0
0
LINE
8
0
10
57.629024
20
43.800297
30
0.0
11
57.600962
21
44.041520
31
0.0
0
LINE
8
0
10
57.292277
20
46.694982
30
0.0
11
57.264215
21
46.936205
31
0.0
0
LINE
8
0
10
56.955530
20
49.589666
30
0.0
11
56.927468
21
49.830890
31
0.0
0
LINE
8
0
10
56.618783
20
52.484351
30
0.0
11
56.590721
21
52.725575
31
0.0
0
LINE
8
0
10
56.282036
20
55.379036
30
0.0
11
56.253974
21
55.620259
31
0.0
0
LINE
8
0
10
60.339813
20
43.379873
30
0.0
11
60.311750
21
43.621097
31
0.0
0
LINE
8
0
10
60.003065
20
46.274558
30
0.0
11
59.975003
21
46.515782
31
0.0
0
LINE
8
0
10
59.666318
20
49.169243
30
0.0
11
59.638256
21
49.410466
31
0.0
0
LINE
8
0
10
59.329571
20
52.063928
30
0.0
11
59.301509
21
52.305151
31
0.0
0
LINE
8
0
10
58.992824
20
54.958612
30
0.0
11
58.964762
21
55.199836
31
0.0
0
LINE
8
0
10
63.050601
20
42.959450
30
0.0
11
63.022539
21
43.200673
31
0.0
0
LINE
8
0
10
62.713854
20
45.854135
30
0.0
11
62.685792
21
46.095358
31
0.0
0
LINE
8
0
10
62.377107
20
48.748819
30
0.0
11
62.349045
21
48.990043
31
0.0
0
LINE
8
0
10
62.040360
20
51.643504
30
0.0
11
62.012298
21
51.884728
31
0.0
0
LINE
8
0
10
61.703613
20
54.538189
30
0.0
11
61.675550
21
54.779412
31
0.0
0
LINE
8
0
10
64.400141
20
54.240345
30
0.0
11
64.386339
21
54.358989
31
0.0
0
LINE
8
0
10
53.345445
20
55.835114
30
0.0
11
53.571344
21
55.800079
31
0.0
0
LINE
8
0
10
56.056233
20
55.414694
30
0.0
11
56.282132
21
55.379659
31
0.0
0
LINE
8
0
10
58.767022
20
54.994274
30
0.0
11
58.992921
21
54.959239
31
0.0
0
LINE
8
0
10
61.477811
20
54.573854
30
0.0
11
61.703710
21
54.538819
31
0.0
0
LINE
8
0
10
64.188600
20
54.153434
30
0.0
11
64.400141
21
54.120625
31
0.0
0
LINE
8
0
10
50.971403
20
53.360853
30
0.0
11
51.197302
21
53.325818
31
0.0
0
LINE
8
0
10
53.682192
20
52.940433
30
0.0
11
53.908091
21
52.905398
31
0.0
0
LINE
8
0
10
56.392981
20
52.520013
30
0.0
11
56.618880
21
52.484978
31
0.0
0
LINE
8
0
10
59.103770
20
52.099592
30
0.0
11
59.329669
21
52.064557
31
0.0
0
LINE
8
0
10
61.814559
20
51.679172
30
0.0
11
62.040458
21
51.644137
31
0.0
0
LINE
8
0
10
51.308151
20
50.466171
30
0.0
11
51.534050
21
50.431136
31
0.0
0
LINE
8
0
10
54.018940
20
50.045751
30
0.0
11
54.244839
21
50.010716
31
0.0
0
LINE
8
0
10
56.729729
20
49.625331
30
0.0
11
56.955628
21
49.590296
31
0.0
0
LINE
8
0
10
59.440518
20
49.204911
30
0.0
11
59.666417
21
49.169876
31
0.0
0
LINE
8
0
10
62.151307
20
48.784491
30
0.0
11
62.377206
21
48.749456
31
0.0
0
LINE
8
0
10
51.644898
20
47.571490
30
0.0
11
51.870797
21
47.536455
31
0.0
0
LINE
8
0
10
54.355687
20
47.151070
30
0.0
11
54.581586
21
47.116035
31
0.0
0
LINE
8
0
10
57.066476
20
46.730650
30
0.0
11
57.292375
21
46.695615
31
0.0
0
LINE
8
0
10
59.777265
20
46.310230
30
0.0
11
60.003164
21
46.275195
31
0.0
0
LINE
8
0
10
62.488054
20
45.889809
30
0.0
11
62.713953
21
45.854774
31
0.0
0
LINE
8
0
10
49.400141
20
45.077178
30
0.0
11
49.496756
21
45.062194
31
0.0
0
LINE
8
0
10
51.981646
20
44.676809
30
0.0
11
52.207545
21
44.641774
31
0.0
0
LINE
8
0
10
54.692435
20
44.256389
30
0.0
11
54.918334
21
44.221354
31
0.0
0
LINE
8
0
10
57.403224
20
43.835968
30
0.0
11
57.629123
21
43.800933
31
0.0
0
LINE
8
0
10
60.114013
20
43.415548
30
0.0
11
60.339912
21
43.380513
31
0.0
0
LINE
8
0
10
62.824802
20
42.995128
30
0.0
11
63.050701
21
42.960093
31
0.0
0
LINE
8
0
10
49.607605
20
42.202547
30
0.0
11
49.833504
21
42.167512
31
0.0
0
LINE
8
0
10
52.318394
20
41.782127
30
0.0
11
52.544293
21
41.747092
31
0.0
0
LINE
8
0
10
55.029182
20
41.361707
30
0.0
11
55.255081
21
41.326672
31
0.0
0
LINE
8
0
10
57.739971
20
40.941287
30
0.0
11
57.965870
21
40.906252
31
0.0
0
LINE
8
0
10
50.033737
20
55.060482
30
0.0
11
50.211584
21
55.128751
31
0.0
0
LINE
8
0
10
52.167901
20
55.879711
30
0.0
11
52.219605
21
55.899558
31
0.0
0
LINE
8
0
10
49.415716
20
53.218601
30
0.0
11
49.593563
21
53.286870
31
0.0
0
LINE
8
0
10
51.549881
20
54.037830
30
0.0
11
51.727728
21
54.106099
31
0.0
0
LINE
8
0
10
53.684045
20
54.857059
30
0.0
11
53.861892
21
54.925328
31
0.0
0
LINE
8
0
10
55.818210
20
55.676288
30
0.0
11
55.996057
21
55.744557
31
0.0
0
LINE
8
0
10
50.931860
20
52.195949
30
0.0
11
51.109707
21
52.264218
31
0.0
0
LINE
8
0
10
53.066024
20
53.015178
30
0.0
11
53.243872
21
53.083447
31
0.0
0
LINE
8
0
10
55.200189
20
53.834407
30
0.0
11
55.378036
21
53.902676
31
0.0
0
LINE
8
0
10
57.334354
20
54.653636
30
0.0
11
57.512201
21
54.721905
31
0.0
0
LINE
8
0
10
59.468519
20
55.472865
30
0.0
11
59.646366
21
55.541134
31
0.0
0
LINE
8
0
10
50.313839
20
50.354067
30
0.0
11
50.491686
21
50.422337
31
0.0
0
LINE
8
0
10
52.448004
20
51.173297
30
0.0
11
52.625851
21
51.241566
31
0.0
0
LINE
8
0
10
54.582168
20
51.992526
30
0.0
11
54.760015
21
52.060795
31
0.0
0
LINE
8
0
10
56.716333
20
52.811755
30
0.0
11
56.894180
21
52.880024
31
0.0
0
LINE
8
0
10
58.850498
20
53.630984
30
0.0
11
59.028345
21
53.699253
31
0.0
0
LINE
8
0
10
60.984663
20
54.450213
30
0.0
11
61.162510
21
54.518482
31
0.0
0
LINE
8
0
10
63.118828
20
55.269442
30
0.0
11
63.296675
21
55.337711
31
0.0
0
LINE
8
0
10
49.695818
20
48.512186
30
0.0
11
49.873665
21
48.580455
31
0.0
0
LINE
8
0
10
51.829983
20
49.331416
30
0.0
11
52.007830
21
49.399685
31
0.0
0
LINE
8
0
10
53.964147
20
50.150645
30
0.0
11
54.141994
21
50.218914
31
0.0
0
LINE
8
0
10
56.098312
20
50.969874
30
0.0
11
56.276159
21
51.038143
31
0.0
0
LINE
8
0
10
58.232477
20
51.789103
30
0.0
11
58.410324
21
51.857372
31
0.0
0
LINE
8
0
10
60.366642
20
52.608332
30
0.0
11
60.544489
21
52.676601
31
0.0
0
LINE
8
0
10
62.500807
20
53.427561
30
0.0
11
62.678654
21
53.495830
31
0.0
0
LINE
8
0
10
51.211962
20
47.489534
30
0.0
11
51.389809
21
47.557803
31
0.0
0
LINE
8
0
10
53.346126
20
48.308764
30
0.0
11
53.523974
21
48.377033
31
0.0
0
LINE
8
0
10
55.480291
20
49.127993
30
0.0
11
55.658138
21
49.196262
31
0.0
0
LINE
8
0
10
57.614456
20
49.947222
30
0.0
11
57.792303
21
50.015491
31
0.0
0
LINE
8
0
10
59.748621
20
50.766451
30
0.0
11
59.926468
21
50.834720
31
0.0
0
LINE
8
0
10
61.882786
20
51.585680
30
0.0
11
62.060633
21
51.653949
31
0.0
0
LINE
8
0
10
64.016951
20
52.404909
30
0.0
11
64.194798
21
52.473178
31
0.0
0
LINE
8
0
10
50.593941
20
45.647653
30
0.0
11
50.771788
21
45.715922
31
0.0
0
LINE
8
0
10
52.728106
20
46.466882
30
0.0
11
52.905953
21
46.535152
31
0.0
0
LINE
8
0
10
54.862270
20
47.286112
30
0.0
11
55.040117
21
47.354381
31
0.0
0
LINE
8
0
10
56.996435
20
48.105341
30
0.0
11
57.174282
21
48.173610
31
0.0
0
LINE
8
0
10
59.130600
20
48.924570
30
0.0
11
59.308447
21
48.992839
31
0.0
0
LINE
8
0
10
61.264765
20
49.743799
30
0.0
11
61.442612
21
49.812068
31
0.0
0
LINE
8
0
10
63.398930
20
50.563028
30
0.0
11
63.576777
21
50.631297
31
0.0
0
LINE
8
0
10
49.975920
20
43.805772
30
0.0
11
50.153767
21
43.874041
31
0.0
0
LINE
8
0
10
52.110085
20
44.625001
30
0.0
11
52.287932
21
44.693270
31
0.0
0
LINE
8
0
10
54.244249
20
45.444230
30
0.0
11
54.422097
21
45.512500
31
0.0
0
LINE
8
0
10
56.378414
20
46.263460
30
0.0
11
56.556261
21
46.331729
31
0.0
0
LINE
8
0
10
58.512579
20
47.082689
30
0.0
11
58.690426
21
47.150958
31
0.0
0
LINE
8
0
10
60.646744
20
47.901918
30
0.0
11
60.824591
21
47.970187
31
0.0
0
LINE
8
0
10
62.780909
20
48.721147
30
0.0
11
62.958756
21
48.789416
31
0.0
0
LINE
8
0
10
49.400141
20
41.980106
30
0.0
11
49.535746
21
42.032160
31
0.0
0
LINE
8
0
10
51.492064
20
42.783120
30
0.0
11
51.669911
21
42.851389
31
0.0
0
LINE
8
0
10
53.626229
20
43.602349
30
0.0
11
53.804076
21
43.670618
31
0.0
0
LINE
8
0
10
55.760393
20
44.421578
30
0.0
11
55.938240
21
44.489848
31
0.0
0
LINE
8
0
10
57.894558
20
45.240808
30
0.0
11
58.072405
21
45.309077
31
0.0
0
LINE
8
0
10
60.028723
20
46.060037
30
0.0
11
60.206570
21
46.128306
31
0.0
0
LINE
8
0
10
62.162888
20
46.879266
30
0.0
11
62.340735
21
46.947535
31
0.0
0
LINE
8
0
10
64.297053
20
47.698495
30
0.0
11
64.400141
21
47.738067
31
0.0
0
LINE
8
0
10
50.874043
20
40.941239
30
0.0
11
51.051890
21
41.009508
31
0.0
0
LINE
8
0
10
53.008208
20
41.760468
30
0.0
11
53.186055
21
41.828737
31
0.0
0
LINE
8
0
10
55.142372
20
42.579697
30
0.0
11
55.320219
21
42.647966
31
0.0
0
LINE
8
0
10
57.276537
20
43.398926
30
0.0
11
57.454384
21
43.467196
31
0.0
0
LINE
8
0
10
59.410702
20
44.218156
30
0.0
11
59.588549
21
44.286425
31
0.0
0
LINE
8
0
10
61.544867
20
45.037385
30
0.0
11
61.722714
21
45.105654
31
0.0
0
LINE
8
0
10
63.679032
20
45.856614
30
0.0
11
63.856879
21
45.924883
31
0.0
0
LINE
8
0
10
56.658516
20
41.557045
30
0.0
11
56.836363
21
41.625314
31
0.0
0
LINE
8
0
10
58.792681
20
42.376274
30
0.0
11
58.970528
21
42.444544
31
0.0
0
LINE
8
0
10
60.926846
20
43.195504
30
0.0
11
61.104693
21
43.263773
31
0.0
0
LINE
8
0
10
63.061011
20
44.014733
30
0.0
11
63.238858
21
44.083002
31
0.0
0
LINE
8
0
10
60.308825
20
41.353622
30
0.0
11
60.486672
21
41.421892
31
0.0
0
LINE
8
0
10
62.442990
20
42.172852
30
0.0
11
62.620837
21
42.241121
31
0.0
0
LINE
8
0
10
63.959134
20
41.150200
30
0.0
11
64.136981
21
41.218469
31
0.0
0
LINE
8
0
10
63.118846
20
55.269482
30
0.0
11
63.245191
21
55.184261
31
0.0
0
LINE
8
0
10
59.468537
20
55.472906
30
0.0
11
59.594883
21
55.387685
31
0.0
0
LINE
8
0
10
60.984681
20
54.450254
30
0.0
11
61.111027
21
54.365033
31
0.0
0
LINE
8
0
10
62.500825
20
53.427602
30
0.0
11
62.627171
21
53.342381
31
0.0
0
LINE
8
0
10
64.016969
20
52.404950
30
0.0
11
64.143315
21
52.319729
31
0.0
0
LINE
8
0
10
55.818229
20
55.676330
30
0.0
11
55.944575
21
55.591109
31
0.0
0
LINE
8
0
10
57.334373
20
54.653678
30
0.0
11
57.460719
21
54.568457
31
0.0
0
LINE
8
0
10
58.850517
20
53.631026
30
0.0
11
58.976863
21
53.545805
31
0.0
0
LINE
8
0
10
60.366661
20
52.608374
30
0.0
11
60.493006
21
52.523153
31
0.0
0
LINE
8
0
10
61.882805
20
51.585722
30
0.0
11
62.009150
21
51.500501
31
0.0
0
LINE
8
0
10
63.398949
20
50.563070
30
0.0
11
63.525294
21
50.477849
31
0.0
0
LINE
8
0
10
52.167921
20
55.879754
30
0.0
11
52.294267
21
55.794533
31
0.0
0
LINE
8
0
10
53.684065
20
54.857102
30
0.0
11
53.810410
21
54.771881
31
0.0
0
LINE
8
0
10
55.200209
20
53.834450
30
0.0
11
55.326554
21
53.749229
31
0.0
0
LINE
8
0
10
56.716353
20
52.811798
30
0.0
11
56.842698
21
52.726577
31
0.0
0
LINE
8
0
10
58.232497
20
51.789147
30
0.0
11
58.358842
21
51.703926
31
0.0
0
LINE
8
0
10
59.748641
20
50.766495
30
0.0
11
59.874986
21
50.681274
31
0.0
0
LINE
8
0
10
61.264785
20
49.743843
30
0.0
11
61.391130
21
49.658622
31
0.0
0
LINE
8
0
10
62.780929
20
48.721191
30
0.0
11
62.907274
21
48.635970
31
0.0
0
LINE
8
0
10
64.297073
20
47.698539
30
0.0
11
64.400141
21
47.629018
31
0.0
0
LINE
8
0
10
50.033757
20
55.060527
30
0.0
11
50.160102
21
54.975306
31
0.0
0
LINE
8
0
10
51.549901
20
54.037875
30
0.0
11
51.676246
21
53.952654
31
0.0
0
LINE
8
0
10
53.066045
20
53.015223
30
0.0
11
53.192390
21
52.930002
31
0.0
0
LINE
8
0
10
54.582189
20
51.992571
30
0.0
11
54.708534
21
51.907350
31
0.0
0
LINE
8
0
10
56.098333
20
50.969919
30
0.0
11
56.224678
21
50.884698
31
0.0
0
LINE
8
0
10
57.614477
20
49.947267
30
0.0
11
57.740822
21
49.862046
31
0.0
0
LINE
8
0
10
59.130621
20
48.924615
30
0.0
11
59.256966
21
48.839394
31
0.0
0
LINE
8
0
10
60.646764
20
47.901963
30
0.0
11
60.773110
21
47.816742
31
0.0
0
LINE
8
0
10
62.162908
20
46.879311
30
0.0
11
62.289254
21
46.794090
31
0.0
0
LINE
8
0
10
63.679052
20
45.856659
30
0.0
11
63.805398
21
45.771438
31
0.0
0
LINE
8
0
10
49.415737
20
53.218647
30
0.0
11
49.542082
21
53.133426
31
0.0
0
LINE
8
0
10
50.931881
20
52.195995
30
0.0
11
51.058226
21
52.110774
31
0.0
0
LINE
8
0
10
52.448025
20
51.173343
30
0.0
11
52.574370
21
51.088122
31
0.0
0
LINE
8
0
10
53.964168
20
50.150691
30
0.0
11
54.090514
21
50.065470
31
0.0
0
LINE
8
0
10
55.480312
20
49.128039
30
0.0
11
55.606658
21
49.042818
31
0.0
0
LINE
8
0
10
56.996456
20
48.105387
30
0.0
11
57.122802
21
48.020166
31
0.0
0
LINE
8
0
10
58.512600
20
47.082735
30
0.0
11
58.638946
21
46.997514
31
0.0
0
LINE
8
0
10
60.028744
20
46.060083
30
0.0
11
60.155089
21
45.974862
31
0.0
0
LINE
8
0
10
61.544888
20
45.037431
30
0.0
11
61.671233
21
44.952210
31
0.0
0
LINE
8
0
10
63.061032
20
44.014779
30
0.0
11
63.187377
21
43.929558
31
0.0
0
LINE
8
0
10
50.313860
20
50.354115
30
0.0
11
50.440206
21
50.268894
31
0.0
0
LINE
8
0
10
51.830004
20
49.331463
30
0.0
11
51.956350
21
49.246242
31
0.0
0
LINE
8
0
10
53.346148
20
48.308811
30
0.0
11
53.472494
21
48.223590
31
0.0
0
LINE
8
0
10
54.862292
20
47.286159
30
0.0
11
54.988637
21
47.200939
31
0.0
0
LINE
8
0
10
56.378436
20
46.263508
30
0.0
11
56.504781
21
46.178287
31
0.0
0
LINE
8
0
10
57.894580
20
45.240856
30
0.0
11
58.020925
21
45.155635
31
0.0
0
LINE
8
0
10
59.410724
20
44.218204
30
0.0
11
59.537069
21
44.132983
31
0.0
0
LINE
8
0
10
60.926868
20
43.195552
30
0.0
11
61.053213
21
43.110331
31
0.0
0
LINE
8
0
10
62.443012
20
42.172900
30
0.0
11
62.569357
21
42.087679
31
0.0
0
LINE
8
0
10
63.959156
20
41.150248
30
0.0
11
64.085501
21
41.065027
31
0.0
0
LINE
8
0
10
49.695840
20
48.512236
30
0.0
11
49.822185
21
48.427015
31
0.0
0
LINE
8
0
10
51.211984
20
47.489584
30
0.0
11
51.338329
21
47.404363
31
0.0
0
LINE
8
0
10
52.728128
20
46.466932
30
0.0
11
52.854473
21
46.381711
31
0.0
0
LINE
8
0
10
54.244272
20
45.444280
30
0.0
11
54.370617
21
45.359059
31
0.0
0
LINE
8
0
10
55.760416
20
44.421628
30
0.0
11
55.886761
21
44.336407
31
0.0
0
LINE
8
0
10
57.276560
20
43.398976
30
0.0
11
57.402905
21
43.313755
31
0.0
0
LINE
8
0
10
58.792704
20
42.376324
30
0.0
11
58.919049
21
42.291103
31
0.0
0
LINE
8
0
10
60.308847
20
41.353672
30
0.0
11
60.435193
21
41.268451
31
0.0
0
LINE
8
0
10
50.593964
20
45.647704
30
0.0
11
50.720309
21
45.562483
31
0.0
0
LINE
8
0
10
52.110108
20
44.625052
30
0.0
11
52.236453
21
44.539831
31
0.0
0
LINE
8
0
10
53.626252
20
43.602400
30
0.0
11
53.752597
21
43.517179
31
0.0
0
LINE
8
0
10
55.142395
20
42.579748
30
0.0
11
55.268741
21
42.494527
31
0.0
0
LINE
8
0
10
56.658539
20
41.557096
30
0.0
11
56.784885
21
41.471875
31
0.0
0
LINE
8
0
10
49.975943
20
43.805824
30
0.0
11
50.102289
21
43.720603
31
0.0
0
LINE
8
0
10
51.492087
20
42.783172
30
0.0
11
51.618433
21
42.697951
31
0.0
0
LINE
8
0
10
53.008231
20
41.760521
30
0.0
11
53.134577
21
41.675300
31
0.0
0
LINE
8
0
10
49.400141
20
41.935469
30
0.0
11
49.484268
21
41.878724
31
0.0
0
LINE
8
0
10
50.874067
20
40.941293
30
0.0
11
50.935942
21
40.899558
31
0.0
0
LINE
8
0
10
49.542046
20
53.133440
30
0.0
11
49.593547
21
53.286930
31
0.0
0
LINE
8
0
10
50.160066
20
54.975320
30
0.0
11
50.211568
21
55.128810
31
0.0
0
LINE
8
0
10
49.822148
20
48.427029
30
0.0
11
49.873650
21
48.580519
31
0.0
0
LINE
8
0
10
50.440169
20
50.268909
30
0.0
11
50.491671
21
50.422399
31
0.0
0
LINE
8
0
10
51.058189
20
52.110788
30
0.0
11
51.109691
21
52.264278
31
0.0
0
LINE
8
0
10
51.676210
20
53.952668
30
0.0
11
51.727711
21
54.106158
31
0.0
0
LINE
8
0
10
52.294230
20
55.794547
30
0.0
11
52.329465
21
55.899558
31
0.0
0
LINE
8
0
10
49.484231
20
41.878738
30
0.0
11
49.535733
21
42.032228
31
0.0
0
LINE
8
0
10
50.102251
20
43.720618
30
0.0
11
50.153753
21
43.874108
31
0.0
0
LINE
8
0
10
50.720272
20
45.562497
30
0.0
11
50.771774
21
45.715988
31
0.0
0
LINE
8
0
10
51.338292
20
47.404377
30
0.0
11
51.389794
21
47.557867
31
0.0
0
LINE
8
0
10
51.956313
20
49.246257
30
0.0
11
52.007814
21
49.399747
31
0.0
0
LINE
8
0
10
52.574333
20
51.088136
30
0.0
11
52.625835
21
51.241626
31
0.0
0
LINE
8
0
10
53.192354
20
52.930016
30
0.0
11
53.243855
21
53.083506
31
0.0
0
LINE
8
0
10
53.810374
20
54.771896
30
0.0
11
53.861876
21
54.925386
31
0.0
0
LINE
8
0
10
51.014961
20
40.899558
30
0.0
11
51.051876
21
41.009576
31
0.0
0
LINE
8
0
10
51.618395
20
42.697966
30
0.0
11
51.669897
21
42.851456
31
0.0
0
LINE
8
0
10
52.236416
20
44.539846
30
0.0
11
52.287917
21
44.693336
31
0.0
0
LINE
8
0
10
52.854436
20
46.381725
30
0.0
11
52.905938
21
46.535215
31
0.0
0
LINE
8
0
10
53.472456
20
48.223605
30
0.0
11
53.523958
21
48.377095
31
0.0
0
LINE
8
0
10
54.090477
20
50.065484
30
0.0
11
54.141979
21
50.218974
31
0.0
0
LINE
8
0
10
54.708497
20
51.907364
30
0.0
11
54.759999
21
52.060854
31
0.0
0
LINE
8
0
10
55.326518
20
53.749244
30
0.0
11
55.378019
21
53.902734
31
0.0
0
LINE
8
0
10
55.944538
20
55.591123
30
0.0
11
55.996040
21
55.744613
31
0.0
0
LINE
8
0
10
53.134539
20
41.675314
30
0.0
11
53.186041
21
41.828804
31
0.0
0
LINE
8
0
10
53.752559
20
43.517194
30
0.0
11
53.804061
21
43.670684
31
0.0
0
LINE
8
0
10
54.370580
20
45.359073
30
0.0
11
54.422081
21
45.512563
31
0.0
0
LINE
8
0
10
54.988600
20
47.200953
30
0.0
11
55.040102
21
47.354443
31
0.0
0
LINE
8
0
10
55.606621
20
49.042832
30
0.0
11
55.658122
21
49.196323
31
0.0
0
LINE
8
0
10
56.224641
20
50.884712
30
0.0
11
56.276143
21
51.038202
31
0.0
0
LINE
8
0
10
56.842661
20
52.726592
30
0.0
11
56.894163
21
52.880082
31
0.0
0
LINE
8
0
10
57.460682
20
54.568471
30
0.0
11
57.512184
21
54.721961
31
0.0
0
LINE
8
0
10
55.268703
20
42.494542
30
0.0
11
55.320205
21
42.648032
31
0.0
0
LINE
8
0
10
55.886724
20
44.336421
30
0.0
11
55.938225
21
44.489911
31
0.0
0
LINE
8
0
10
56.504744
20
46.178301
30
0.0
11
56.556246
21
46.331791
31
0.0
0
LINE
8
0
10
57.122764
20
48.020181
30
0.0
11
57.174266
21
48.173671
31
0.0
0
LINE
8
0
10
57.740785
20
49.862060
30
0.0
11
57.792287
21
50.015550
31
0.0
0
LINE
8
0
10
58.358805
20
51.703940
30
0.0
11
58.410307
21
51.857430
31
0.0
0
LINE
8
0
10
58.976826
20
53.545819
30
0.0
11
59.028327
21
53.699309
31
0.0
0
LINE
8
0
10
59.594846
20
55.387699
30
0.0
11
59.646348
21
55.541189
31
0.0
0
LINE
8
0
10
56.784847
20
41.471890
30
0.0
11
56.836349
21
41.625380
31
0.0
0
LINE
8
0
10
57.402867
20
43.313769
30
0.0
11
57.454369
21
43.467259
31
0.0
0
LINE
8
0
10
58.020888
20
45.155649
30
0.0
11
58.072389
21
45.309139
31
0.0
0
LINE
8
0
10
58.638908
20
46.997529
30
0.0
11
58.690410
21
47.151019
31
0.0
0
LINE
8
0
10
59.256929
20
48.839408
30
0.0
11
59.308430
21
48.992898
31
0.0
0
LINE
8
0
10
59.874949
20
50.681288
30
0.0
11
59.926451
21
50.834778
31
0.0
0
LINE
8
0
10
60.492969
20
52.523167
30
0.0
11
60.544471
21
52.676658
31
0.0
0
LINE
8
0
10
61.110990
20
54.365047
30
0.0
11
61.162492
21
54.518537
31
0.0
0
LINE
8
0
10
58.919011
20
42.291117
30
0.0
11
58.970513
21
42.444608
31
0.0
0
LINE
8
0
10
59.537031
20
44.132997
30
0.0
11
59.588533
21
44.286487
31
0.0
0
LINE
8
0
10
60.155052
20
45.974877
30
0.0
11
60.206554
21
46.128367
31
0.0
0
LINE
8
0
10
60.773072
20
47.816756
30
0.0
11
60.824574
21
47.970246
31
0.0
0
LINE
8
0
10
61.391093
20
49.658636
30
0.0
11
61.442594
21
49.812126
31
0.0
0
LINE
8
0
10
62.009113
20
51.500516
30
0.0
11
62.060615
21
51.654006
31
0.0
0
LINE
8
0
10
62.627134
20
53.342395
30
0.0
11
62.678635
21
53.495885
31
0.0
0
LINE
8
0
10
63.245154
20
55.184275
30
0.0
11
63.296656
21
55.337765
31
0.0
0
LINE
8
0
10
60.435155
20
41.268466
30
0.0
11
60.486657
21
41.421956
31
0.0
0
LINE
8
0
10
61.053175
20
43.110345
30
0.0
11
61.104677
21
43.263835
31
0.0
0
LINE
8
0
10
61.671196
20
44.952225
30
0.0
11
61.722697
21
45.105715
31
0.0
0
LINE
8
0
10
62.289216
20
46.794104
30
0.0
11
62.340718
21
46.947594
31
0.0
0
LINE
8
0
10
62.907237
20
48.635984
30
0.0
11
62.958738
21
48.789474
31
0.0
0
LINE
8
0
10
63.525257
20
50.477864
30
0.0
11
63.576759
21
50.631354
31
0.0
0
LINE
8
0
10
64.143277
20
52.319743
30
0.0
11
64.194779
21
52.473233
31
0.0
0
LINE
8
0
10
62.569319
20
42.087693
30
0.0
11
62.620821
21
42.241183
31
0.0
0
LINE
8
0
10
63.187339
20
43.929573
30
0.0
11
63.238841
21
44.083063
31
0.0
0
LINE
8
0
10
63.805360
20
45.771452
30
0.0
11
63.856862
21
45.924943
31
0.0
0
LINE
8
0
10
64.085463
20
41.065041
30
0.0
11
64.136964
21
41.218531
31
0.0
0
LINE
8
0
10
49.400141
20
40.899558
30
0.0
11
64.400141
21
40.899558
31
0.0
0
LINE
8
0
10
64.400141
20
40.899558
30
0.0
11
64.400141
21
55.899558
31
0.0
0
LINE
8
0
10
64.400141
20
55.899558
30
0.0
11
49.400141
21
55.899558
31
0.0
0
LINE
8
0
10
49.400141
20
55.899558
30
0.0
11
49.400141
21
40.899558
31
0.0
0
ATTDEF
8
0
10
-0.000000
20
0.000000
30
0.0
40
3.5
1

3

2
PANE_WIDTH:0
70
0
0
ATTDEF
8
0
10
-0.000000
20
0.000000
30
0.0
40
3.5
1

3

2
MIN_VETRO:0
70
0
0
ATTDEF
8
0
10
-0.000000
20
0.000000
30
0.0
40
3.5
1

3

2
MAX_VETRO:0
70
0
0
ATTDEF
8
0
10
-0.000000
20
0.000000
30
0.0
40
3.5
1

3

2
JX:0
70
0
0
ATTDEF
8
0
10
-0.000000
20
0.000000
30
0.0
40
3.5
1

3

2
WX:0
70
0
0
ATTDEF
8
0
10
-0.000000
20
0.000000
30
0.0
40
3.5
1

3

2
JY:0
70
0
0
ATTDEF
8
0
10
-0.000000
20
0.000000
30
0.0
40
3.5
1

3

2
WY:0
70
0
0
ATTDEF
8
0
10
-0.000000
20
0.000000
30
0.0
40
3.5
1

3

2
DESC:Hoja ventana apertura interior HI
70
0
0
ATTDEF
8
0
10
-0.000000
20
0.000000
30
0.0
40
3.5
1

3

2
DENS:1.679
70
0
0
ATTDEF
8
0
10
-0.000000
20
0.000000
30
0.0
40
3.5
1

3

2
TDEV:69.07
70
0
0
ATTDEF
8
0
10
-0.000000
20
0.000000
30
0.0
40
3.5
1

3

2
TDEV2:0
70
0
0
ATTDEF
8
0
10
-0.000000
20
0.000000
30
0.0
40
3.5
1

3

2
TDEV3:0
70
0
0
ATTDEF
8
0
10
-0.000000
20
0.000000
30
0.0
40
3.5
1

3

2
TDEV4:0
70
0
0
ATTDEF
8
0
10
-0.000000
20
0.000000
30
0.0
40
3.5
1

3

2
TDEV5:0
70
0
0
ATTDEF
8
0
10
-0.000000
20
0.000000
30
0.0
40
3.5
1

3

2
PANE_WIDTH:0
70
0
0
ATTDEF
8
0
10
-0.000000
20
0.000000
30
0.0
40
3.5
1

3

2
MIN_VETRO:0
70
0
0
ATTDEF
8
0
10
-0.000000
20
0.000000
30
0.0
40
3.5
1

3

2
MAX_VETRO:0
70
0
0
ATTDEF
8
0
10
-0.000000
20
0.000000
30
0.0
40
3.5
1

3

2
JX:0
70
0
0
ATTDEF
8
0
10
-0.000000
20
0.000000
30
0.0
40
3.5
1

3

2
WX:0
70
0
0
ATTDEF
8
0
10
-0.000000
20
0.000000
30
0.0
40
3.5
1

3

2
JY:0
70
0
0
ATTDEF
8
0
10
-0.000000
20
0.000000
30
0.0
40
3.5
1

3

2
WY:0
70
0
0
ATTDEF
8
0
10
10.900141
20
63.899558
30
0.0
40
3.5
1

3

2
VC_START
70
0
0
ATTDEF
8
0
10
41.400141
20
27.999558
30
0.0
40
3.5
1

3

2
VC_END
70
0
0
ATTDEF
8
0
10
88.900141
20
7.999558
30
0.0
40
3.5
1

3

2
FP_LCS_ORIG
70
0
0
ATTDEF
8
0
10
78.900141
20
7.999558
30
0.0
40
3.5
1

3

2
FP_LCS_HOT
70
0
0
ATTDEF
8
0
10
88.900141
20
17.999558
30
0.0
40
3.5
1

3

2
FP_LCS_INTERN
70
0
0
ENDSEC
0
EOF
