0
SECTION
2
ENTITIES
0
LINE
8
0
10
2622.494667
20
1240.249205
30
0.0
11
2615.483508
21
1240.249205
31
0.0
0
ARC
8
0
10
2615.483512
20
1241.449194
30
0.0
40
1.199990
50
219.032156
51
270.000000
0
LINE
8
0
10
2614.551369
20
1240.693493
30
0.0
11
2612.515309
21
1243.204914
31
0.0
0
ARC
8
0
10
2611.583161
20
1242.449203
30
0.0
40
1.200000
50
39.032386
51
90.000000
0
LINE
8
0
10
2611.583161
20
1243.649203
30
0.0
11
2610.101102
21
1243.649203
31
0.0
0
ARC
8
0
10
2610.101102
20
1244.449203
30
0.0
40
0.800000
50
240.000165
51
270.000000
0
LINE
8
0
10
2609.701104
20
1243.756381
30
0.0
11
2608.201076
21
1244.622417
31
0.0
0
ARC
8
0
10
2608.101076
20
1244.449211
30
0.0
40
0.200000
50
60.000165
51
90.000000
0
LINE
8
0
10
2608.101076
20
1244.649211
30
0.0
11
2607.894667
21
1244.649211
31
0.0
0
ARC
8
0
10
2607.894667
20
1244.249211
30
0.0
40
0.400000
50
90.000000
51
180.000000
0
LINE
8
0
10
2607.494667
20
1244.249211
30
0.0
11
2607.494667
21
1243.649209
31
0.0
0
LINE
8
0
10
2607.494667
20
1243.649209
30
0.0
11
2607.594669
21
1243.649209
31
0.0
0
LINE
8
0
10
2607.594669
20
1243.649209
30
0.0
11
2607.594669
21
1243.374203
31
0.0
0
ARC
8
0
10
2607.894669
20
1243.374203
30
0.0
40
0.300000
50
180.000000
51
270.000000
0
LINE
8
0
10
2607.894669
20
1243.074203
30
0.0
11
2607.954194
21
1243.074210
31
0.0
0
ARC
8
0
10
2608.244667
20
1242.549210
30
0.0
40
0.600000
50
360.000000
51
118.955024
0
ARC
8
0
10
2608.244667
20
1242.549210
30
0.0
40
0.600000
50
241.044976
51
360.000000
0
LINE
8
0
10
2607.954194
20
1242.024210
30
0.0
11
2607.894669
21
1242.024216
31
0.0
0
ARC
8
0
10
2607.894669
20
1241.724216
30
0.0
40
0.300000
50
90.000000
51
180.000000
0
LINE
8
0
10
2607.594669
20
1241.724216
30
0.0
11
2607.594669
21
1241.449210
31
0.0
0
LINE
8
0
10
2607.594669
20
1241.449210
30
0.0
11
2607.494667
21
1241.449210
31
0.0
0
LINE
8
0
10
2607.494667
20
1241.449210
30
0.0
11
2607.494667
21
1240.849208
31
0.0
0
ARC
8
0
10
2607.894667
20
1240.849208
30
0.0
40
0.400000
50
180.000000
51
270.000000
0
LINE
8
0
10
2607.894667
20
1240.449208
30
0.0
11
2608.101076
21
1240.449208
31
0.0
0
ARC
8
0
10
2608.101076
20
1240.649208
30
0.0
40
0.200000
50
270.000000
51
299.999835
0
LINE
8
0
10
2608.201076
20
1240.476003
30
0.0
11
2609.701092
21
1241.342031
31
0.0
0
ARC
8
0
10
2610.101090
20
1240.649210
30
0.0
40
0.800000
50
90.000000
51
119.999835
0
LINE
8
0
10
2610.101090
20
1241.449210
30
0.0
11
2610.963540
21
1241.449210
31
0.0
0
ARC
8
0
10
2610.963540
20
1241.149210
30
0.0
40
0.300000
50
39.032238
51
90.000000
0
LINE
8
0
10
2611.196577
20
1241.338137
30
0.0
11
2613.226455
21
1238.834329
31
0.0
0
ARC
8
0
10
2613.614851
20
1239.149207
30
0.0
40
0.500000
50
219.032238
51
270.000000
0
LINE
8
0
10
2613.614851
20
1238.649207
30
0.0
11
2622.494667
21
1238.649207
31
0.0
0
LINE
8
0
10
2622.494667
20
1238.649207
30
0.0
11
2631.374483
21
1238.649207
31
0.0
0
ARC
8
0
10
2631.374483
20
1239.149207
30
0.0
40
0.500000
50
270.000000
51
320.967762
0
LINE
8
0
10
2631.762879
20
1238.834329
30
0.0
11
2633.792757
21
1241.338137
31
0.0
0
ARC
8
0
10
2634.025795
20
1241.149210
30
0.0
40
0.300000
50
90.000000
51
140.967762
0
LINE
8
0
10
2634.025795
20
1241.449210
30
0.0
11
2634.888245
21
1241.449210
31
0.0
0
ARC
8
0
10
2634.888245
20
1240.649210
30
0.0
40
0.800000
50
60.000165
51
90.000000
0
LINE
8
0
10
2635.288243
20
1241.342031
30
0.0
11
2636.788259
21
1240.476003
31
0.0
0
ARC
8
0
10
2636.888258
20
1240.649208
30
0.0
40
0.200000
50
240.000165
51
270.000000
0
LINE
8
0
10
2636.888258
20
1240.449208
30
0.0
11
2637.094667
21
1240.449208
31
0.0
0
ARC
8
0
10
2637.094667
20
1240.849208
30
0.0
40
0.400000
50
270.000000
51
360.000000
0
LINE
8
0
10
2637.494667
20
1240.849208
30
0.0
11
2637.494667
21
1241.449210
31
0.0
0
LINE
8
0
10
2637.494667
20
1241.449210
30
0.0
11
2637.394666
21
1241.449210
31
0.0
0
LINE
8
0
10
2637.394666
20
1241.449210
30
0.0
11
2637.394666
21
1241.724216
31
0.0
0
ARC
8
0
10
2637.094666
20
1241.724216
30
0.0
40
0.300000
50
360.000000
51
90.000000
0
LINE
8
0
10
2637.094666
20
1242.024216
30
0.0
11
2637.035141
21
1242.024210
31
0.0
0
ARC
8
0
10
2636.744667
20
1242.549210
30
0.0
40
0.600000
50
180.000000
51
298.955024
0
ARC
8
0
10
2636.744667
20
1242.549210
30
0.0
40
0.600000
50
61.044976
51
180.000000
0
LINE
8
0
10
2637.035141
20
1243.074210
30
0.0
11
2637.094666
21
1243.074203
31
0.0
0
ARC
8
0
10
2637.094666
20
1243.374203
30
0.0
40
0.300000
50
270.000000
51
360.000000
0
LINE
8
0
10
2637.394666
20
1243.374203
30
0.0
11
2637.394666
21
1243.649209
31
0.0
0
LINE
8
0
10
2637.394666
20
1243.649209
30
0.0
11
2637.494667
21
1243.649209
31
0.0
0
LINE
8
0
10
2637.494667
20
1243.649209
30
0.0
11
2637.494667
21
1244.249211
31
0.0
0
ARC
8
0
10
2637.094667
20
1244.249211
30
0.0
40
0.400000
50
360.000000
51
90.000000
0
LINE
8
0
10
2637.094667
20
1244.649211
30
0.0
11
2636.888258
21
1244.649211
31
0.0
0
ARC
8
0
10
2636.888258
20
1244.449211
30
0.0
40
0.200000
50
90.000000
51
119.999835
0
LINE
8
0
10
2636.788259
20
1244.622417
30
0.0
11
2635.288231
21
1243.756381
31
0.0
0
ARC
8
0
10
2634.888233
20
1244.449203
30
0.0
40
0.800000
50
270.000000
51
299.999835
0
LINE
8
0
10
2634.888233
20
1243.649203
30
0.0
11
2633.406174
21
1243.649203
31
0.0
0
ARC
8
0
10
2633.406174
20
1242.449203
30
0.0
40
1.200000
50
90.000000
51
140.967614
0
LINE
8
0
10
2632.474026
20
1243.204914
30
0.0
11
2630.437965
21
1240.693493
31
0.0
0
ARC
8
0
10
2629.505822
20
1241.449194
30
0.0
40
1.199990
50
270.000000
51
320.967844
0
LINE
8
0
10
2629.505827
20
1240.249205
30
0.0
11
2622.494667
21
1240.249205
31
0.0
0
LINE
8
0
10
2626.694667
20
1269.957368
30
0.0
11
2619.683508
21
1269.957368
31
0.0
0
ARC
8
0
10
2619.683512
20
1268.757378
30
0.0
40
1.199990
50
90.000000
51
140.967844
0
LINE
8
0
10
2618.751369
20
1269.513079
30
0.0
11
2616.715309
21
1267.001658
31
0.0
0
ARC
8
0
10
2615.783161
20
1267.757370
30
0.0
40
1.200000
50
270.000000
51
320.967614
0
LINE
8
0
10
2615.783161
20
1266.557370
30
0.0
11
2614.301102
21
1266.557370
31
0.0
0
ARC
8
0
10
2614.301102
20
1265.757370
30
0.0
40
0.800000
50
90.000000
51
119.999835
0
LINE
8
0
10
2613.901104
20
1266.450191
30
0.0
11
2612.401076
21
1265.584156
31
0.0
0
ARC
8
0
10
2612.301076
20
1265.757361
30
0.0
40
0.200000
50
270.000000
51
299.999835
0
LINE
8
0
10
2612.301076
20
1265.557361
30
0.0
11
2612.094667
21
1265.557361
31
0.0
0
ARC
8
0
10
2612.094667
20
1265.957361
30
0.0
40
0.400000
50
180.000000
51
270.000000
0
LINE
8
0
10
2611.694667
20
1265.957361
30
0.0
11
2611.694667
21
1266.557363
31
0.0
0
LINE
8
0
10
2611.694667
20
1266.557363
30
0.0
11
2611.794669
21
1266.557363
31
0.0
0
LINE
8
0
10
2611.794669
20
1266.557363
30
0.0
11
2611.794669
21
1266.832369
31
0.0
0
ARC
8
0
10
2612.094669
20
1266.832369
30
0.0
40
0.300000
50
90.000000
51
180.000000
0
LINE
8
0
10
2612.094669
20
1267.132369
30
0.0
11
2612.154194
21
1267.132363
31
0.0
0
ARC
8
0
10
2612.444667
20
1267.657363
30
0.0
40
0.600000
50
241.044976
51
360.000000
0
ARC
8
0
10
2612.444667
20
1267.657363
30
0.0
40
0.600000
50
360.000000
51
118.955024
0
LINE
8
0
10
2612.154194
20
1268.182363
30
0.0
11
2612.094669
21
1268.182356
31
0.0
0
ARC
8
0
10
2612.094669
20
1268.482356
30
0.0
40
0.300000
50
180.000000
51
270.000000
0
LINE
8
0
10
2611.794669
20
1268.482356
30
0.0
11
2611.794669
21
1268.757362
31
0.0
0
LINE
8
0
10
2611.794669
20
1268.757362
30
0.0
11
2611.694667
21
1268.757362
31
0.0
0
LINE
8
0
10
2611.694667
20
1268.757362
30
0.0
11
2611.694667
21
1269.357365
31
0.0
0
ARC
8
0
10
2612.094667
20
1269.357365
30
0.0
40
0.400000
50
90.000000
51
180.000000
0
LINE
8
0
10
2612.094667
20
1269.757365
30
0.0
11
2612.301076
21
1269.757365
31
0.0
0
ARC
8
0
10
2612.301076
20
1269.557365
30
0.0
40
0.200000
50
60.000165
51
90.000000
0
LINE
8
0
10
2612.401076
20
1269.730570
30
0.0
11
2613.901092
21
1268.864541
31
0.0
0
ARC
8
0
10
2614.301090
20
1269.557362
30
0.0
40
0.800000
50
240.000165
51
270.000000
0
LINE
8
0
10
2614.301090
20
1268.757362
30
0.0
11
2615.163540
21
1268.757362
31
0.0
0
ARC
8
0
10
2615.163540
20
1269.057362
30
0.0
40
0.300000
50
270.000000
51
320.967762
0
LINE
8
0
10
2615.396577
20
1268.868435
30
0.0
11
2617.426455
21
1271.372244
31
0.0
0
ARC
8
0
10
2617.814851
20
1271.057365
30
0.0
40
0.500000
50
90.000000
51
140.967762
0
LINE
8
0
10
2617.814851
20
1271.557365
30
0.0
11
2626.694667
21
1271.557365
31
0.0
0
LINE
8
0
10
2626.694667
20
1271.557365
30
0.0
11
2635.574483
21
1271.557365
31
0.0
0
ARC
8
0
10
2635.574483
20
1271.057365
30
0.0
40
0.500000
50
39.032238
51
90.000000
0
LINE
8
0
10
2635.962879
20
1271.372244
30
0.0
11
2637.992757
21
1268.868435
31
0.0
0
ARC
8
0
10
2638.225795
20
1269.057362
30
0.0
40
0.300000
50
219.032238
51
270.000000
0
LINE
8
0
10
2638.225795
20
1268.757362
30
0.0
11
2639.088245
21
1268.757362
31
0.0
0
ARC
8
0
10
2639.088245
20
1269.557362
30
0.0
40
0.800000
50
270.000000
51
299.999835
0
LINE
8
0
10
2639.488243
20
1268.864541
30
0.0
11
2640.988259
21
1269.730570
31
0.0
0
ARC
8
0
10
2641.088258
20
1269.557365
30
0.0
40
0.200000
50
90.000000
51
119.999835
0
LINE
8
0
10
2641.088258
20
1269.757365
30
0.0
11
2641.294667
21
1269.757365
31
0.0
0
ARC
8
0
10
2641.294667
20
1269.357365
30
0.0
40
0.400000
50
360.000000
51
90.000000
0
LINE
8
0
10
2641.694667
20
1269.357365
30
0.0
11
2641.694667
21
1268.757362
31
0.0
0
LINE
8
0
10
2641.694667
20
1268.757362
30
0.0
11
2641.594666
21
1268.757362
31
0.0
0
LINE
8
0
10
2641.594666
20
1268.757362
30
0.0
11
2641.594666
21
1268.482356
31
0.0
0
ARC
8
0
10
2641.294666
20
1268.482356
30
0.0
40
0.300000
50
270.000000
51
360.000000
0
LINE
8
0
10
2641.294666
20
1268.182356
30
0.0
11
2641.235141
21
1268.182363
31
0.0
0
ARC
8
0
10
2640.944667
20
1267.657363
30
0.0
40
0.600000
50
61.044976
51
180.000000
0
ARC
8
0
10
2640.944667
20
1267.657363
30
0.0
40
0.600000
50
180.000000
51
298.955024
0
LINE
8
0
10
2641.235141
20
1267.132363
30
0.0
11
2641.294666
21
1267.132369
31
0.0
0
ARC
8
0
10
2641.294666
20
1266.832369
30
0.0
40
0.300000
50
360.000000
51
90.000000
0
LINE
8
0
10
2641.594666
20
1266.832369
30
0.0
11
2641.594666
21
1266.557363
31
0.0
0
LINE
8
0
10
2641.594666
20
1266.557363
30
0.0
11
2641.694667
21
1266.557363
31
0.0
0
LINE
8
0
10
2641.694667
20
1266.557363
30
0.0
11
2641.694667
21
1265.957361
31
0.0
0
ARC
8
0
10
2641.294667
20
1265.957361
30
0.0
40
0.400000
50
270.000000
51
360.000000
0
LINE
8
0
10
2641.294667
20
1265.557361
30
0.0
11
2641.088258
21
1265.557361
31
0.0
0
ARC
8
0
10
2641.088258
20
1265.757361
30
0.0
40
0.200000
50
240.000165
51
270.000000
0
LINE
8
0
10
2640.988259
20
1265.584156
30
0.0
11
2639.488231
21
1266.450191
31
0.0
0
ARC
8
0
10
2639.088233
20
1265.757370
30
0.0
40
0.800000
50
60.000165
51
90.000000
0
LINE
8
0
10
2639.088233
20
1266.557370
30
0.0
11
2637.606174
21
1266.557370
31
0.0
0
ARC
8
0
10
2637.606174
20
1267.757370
30
0.0
40
1.200000
50
219.032386
51
270.000000
0
LINE
8
0
10
2636.674026
20
1267.001658
30
0.0
11
2634.637965
21
1269.513079
31
0.0
0
ARC
8
0
10
2633.705822
20
1268.757378
30
0.0
40
1.199990
50
39.032156
51
90.000000
0
LINE
8
0
10
2633.705827
20
1269.957368
30
0.0
11
2626.694667
21
1269.957368
31
0.0
0
LINE
8
0
10
2611.694667
20
1269.146377
30
0.0
11
2612.305603
21
1269.757313
31
0.0
0
LINE
8
0
10
2612.871945
20
1268.078591
30
0.0
11
2613.746911
21
1268.953557
31
0.0
0
LINE
8
0
10
2612.925141
20
1265.886723
30
0.0
11
2618.595783
21
1271.557365
31
0.0
0
LINE
8
0
10
2615.842311
20
1266.558829
30
0.0
11
2618.557801
21
1269.274319
31
0.0
0
LINE
8
0
10
2619.075286
20
1269.791803
30
0.0
11
2620.840847
21
1271.557365
31
0.0
0
LINE
8
0
10
2621.485914
20
1269.957368
30
0.0
11
2623.085911
21
1271.557365
31
0.0
0
LINE
8
0
10
2623.730978
20
1269.957368
30
0.0
11
2625.330975
21
1271.557365
31
0.0
0
LINE
8
0
10
2625.976042
20
1269.957368
30
0.0
11
2627.576039
21
1271.557365
31
0.0
0
LINE
8
0
10
2628.221106
20
1269.957368
30
0.0
11
2629.821103
21
1271.557365
31
0.0
0
LINE
8
0
10
2630.466170
20
1269.957368
30
0.0
11
2632.066168
21
1271.557365
31
0.0
0
LINE
8
0
10
2632.711234
20
1269.957368
30
0.0
11
2634.311232
21
1271.557365
31
0.0
0
LINE
8
0
10
2608.138710
20
1243.139780
30
0.0
11
2609.101494
21
1244.102564
31
0.0
0
LINE
8
0
10
2634.579211
20
1269.580280
30
0.0
11
2636.145686
21
1271.146756
31
0.0
0
LINE
8
0
10
2607.729084
20
1240.485090
30
0.0
11
2610.893197
21
1243.649203
31
0.0
0
LINE
8
0
10
2635.586761
20
1268.342767
30
0.0
11
2637.150874
21
1269.906879
31
0.0
0
LINE
8
0
10
2610.938268
20
1241.449210
30
0.0
11
2612.595303
21
1243.106244
31
0.0
0
LINE
8
0
10
2636.591952
20
1267.102894
30
0.0
11
2638.246421
21
1268.757362
31
0.0
0
LINE
8
0
10
2612.036381
20
1240.302258
30
0.0
11
2613.600493
21
1241.866371
31
0.0
0
LINE
8
0
10
2638.291492
20
1266.557370
30
0.0
11
2641.457046
21
1269.722923
31
0.0
0
LINE
8
0
10
2613.041569
20
1239.062382
30
0.0
11
2614.607874
21
1240.628687
31
0.0
0
LINE
8
0
10
2640.084896
20
1266.105709
30
0.0
11
2641.044997
21
1267.065811
31
0.0
0
LINE
8
0
10
2614.873458
20
1238.649207
30
0.0
11
2616.473455
21
1240.249205
31
0.0
0
LINE
8
0
10
2617.118522
20
1238.649207
30
0.0
11
2618.718519
21
1240.249205
31
0.0
0
LINE
8
0
10
2619.363586
20
1238.649207
30
0.0
11
2620.963583
21
1240.249205
31
0.0
0
LINE
8
0
10
2621.608650
20
1238.649207
30
0.0
11
2623.208647
21
1240.249205
31
0.0
0
LINE
8
0
10
2623.853714
20
1238.649207
30
0.0
11
2625.453711
21
1240.249205
31
0.0
0
LINE
8
0
10
2626.098778
20
1238.649207
30
0.0
11
2627.698775
21
1240.249205
31
0.0
0
LINE
8
0
10
2628.343842
20
1238.649207
30
0.0
11
2630.102968
21
1240.408333
31
0.0
0
LINE
8
0
10
2630.651429
20
1240.956794
30
0.0
11
2633.342127
21
1243.647492
31
0.0
0
LINE
8
0
10
2630.588906
20
1238.649207
30
0.0
11
2636.253203
21
1244.313504
31
0.0
0
LINE
8
0
10
2635.439479
20
1241.254716
30
0.0
11
2636.315089
21
1242.130327
31
0.0
0
LINE
8
0
10
2636.879238
20
1240.449411
30
0.0
11
2637.494667
21
1241.064840
31
0.0
0
LINE
8
0
10
2609.220340
20
1241.064471
30
0.0
11
2608.329565
21
1241.955246
31
0.0
0
LINE
8
0
10
2613.880669
20
1238.649207
30
0.0
11
2611.217301
21
1241.312575
31
0.0
0
LINE
8
0
10
2611.133355
20
1241.396521
30
0.0
11
2607.880902
21
1244.648974
31
0.0
0
LINE
8
0
10
2616.125733
20
1238.649207
30
0.0
11
2611.125737
21
1243.649203
31
0.0
0
LINE
8
0
10
2618.370797
20
1238.649207
30
0.0
11
2616.770799
21
1240.249205
31
0.0
0
LINE
8
0
10
2620.615861
20
1238.649207
30
0.0
11
2619.015863
21
1240.249205
31
0.0
0
LINE
8
0
10
2622.860925
20
1238.649207
30
0.0
11
2621.260927
21
1240.249205
31
0.0
0
LINE
8
0
10
2625.105989
20
1238.649207
30
0.0
11
2623.505991
21
1240.249205
31
0.0
0
LINE
8
0
10
2627.351053
20
1238.649207
30
0.0
11
2625.751056
21
1240.249205
31
0.0
0
LINE
8
0
10
2629.596117
20
1238.649207
30
0.0
11
2627.996120
21
1240.249205
31
0.0
0
LINE
8
0
10
2631.710993
20
1238.779395
30
0.0
11
2630.089607
21
1240.400781
31
0.0
0
LINE
8
0
10
2632.720240
20
1240.015212
30
0.0
11
2631.156127
21
1241.579325
31
0.0
0
LINE
8
0
10
2633.725428
20
1241.255088
30
0.0
11
2632.161318
21
1242.819198
31
0.0
0
LINE
8
0
10
2636.696739
20
1240.528841
30
0.0
11
2633.576378
21
1243.649203
31
0.0
0
LINE
8
0
10
2636.418095
20
1243.052549
30
0.0
11
2635.558325
21
1243.912319
31
0.0
0
LINE
8
0
10
2613.342792
20
1266.127852
30
0.0
11
2612.412414
21
1267.058230
31
0.0
0
LINE
8
0
10
2637.494667
20
1244.221041
30
0.0
11
2637.066497
21
1244.649211
31
0.0
0
LINE
8
0
10
2615.158338
20
1266.557370
30
0.0
11
2611.976268
21
1269.739440
31
0.0
0
LINE
8
0
10
2616.824469
20
1267.136304
30
0.0
11
2615.201055
21
1268.759717
31
0.0
0
LINE
8
0
10
2617.829659
20
1268.376177
30
0.0
11
2616.265547
21
1269.940290
31
0.0
0
LINE
8
0
10
2618.840011
20
1269.610889
30
0.0
11
2617.270734
21
1271.180166
31
0.0
0
LINE
8
0
10
2620.738597
20
1269.957368
30
0.0
11
2619.138599
21
1271.557365
31
0.0
0
LINE
8
0
10
2622.983661
20
1269.957368
30
0.0
11
2621.383663
21
1271.557365
31
0.0
0
LINE
8
0
10
2625.228725
20
1269.957368
30
0.0
11
2623.628727
21
1271.557365
31
0.0
0
LINE
8
0
10
2627.473789
20
1269.957368
30
0.0
11
2625.873791
21
1271.557365
31
0.0
0
LINE
8
0
10
2629.718853
20
1269.957368
30
0.0
11
2628.118855
21
1271.557365
31
0.0
0
LINE
8
0
10
2631.963917
20
1269.957368
30
0.0
11
2630.363919
21
1271.557365
31
0.0
0
LINE
8
0
10
2637.608979
20
1266.557370
30
0.0
11
2632.608983
21
1271.557365
31
0.0
0
LINE
8
0
10
2640.607328
20
1265.804085
30
0.0
11
2634.854047
21
1271.557365
31
0.0
0
LINE
8
0
10
2640.548501
20
1268.107976
30
0.0
11
2639.680777
21
1268.975700
31
0.0
0
LINE
8
0
10
2641.694667
20
1269.206873
30
0.0
11
2641.144176
21
1269.757365
31
0.0
0
LINE
8
0
10
2639.494667
20
1245.026018
30
0.0
11
2643.094667
21
1245.026018
31
0.0
0
ARC
8
0
10
2643.094667
20
1245.326018
30
0.0
40
0.300000
50
270.000000
51
360.000000
0
LINE
8
0
10
2643.394667
20
1245.326018
30
0.0
11
2643.394667
21
1268.726018
31
0.0
0
LINE
8
0
10
2643.394667
20
1268.726018
30
0.0
11
2662.894667
21
1268.726018
31
0.0
0
LINE
8
0
10
2662.894667
20
1268.726018
30
0.0
11
2662.894667
21
1266.727803
31
0.0
0
LINE
8
0
10
2662.894667
20
1266.727803
30
0.0
11
2663.894667
21
1266.727803
31
0.0
0
ARC
8
0
10
2663.894667
20
1267.227803
30
0.0
40
0.500000
50
270.000000
51
360.000000
0
LINE
8
0
10
2664.394667
20
1267.227803
30
0.0
11
2664.394667
21
1268.226018
31
0.0
0
ARC
8
0
10
2664.894667
20
1268.226018
30
0.0
40
0.500000
50
90.000000
51
180.000000
0
LINE
8
0
10
2664.894667
20
1268.726018
30
0.0
11
2665.944667
21
1268.726018
31
0.0
0
ARC
8
0
10
2665.944667
20
1268.226018
30
0.0
40
0.500000
50
360.000000
51
90.000000
0
LINE
8
0
10
2666.444667
20
1268.226018
30
0.0
11
2666.444667
21
1237.627803
31
0.0
0
ARC
8
0
10
2665.944667
20
1237.627803
30
0.0
40
0.500000
50
270.000000
51
360.000000
0
LINE
8
0
10
2665.944667
20
1237.127803
30
0.0
11
2664.894667
21
1237.127803
31
0.0
0
ARC
8
0
10
2664.894667
20
1237.627803
30
0.0
40
0.500000
50
180.000000
51
270.000000
0
LINE
8
0
10
2664.394667
20
1237.627803
30
0.0
11
2664.394667
21
1238.626018
31
0.0
0
ARC
8
0
10
2663.894667
20
1238.626018
30
0.0
40
0.500000
50
360.000000
51
90.000000
0
LINE
8
0
10
2663.894667
20
1239.126018
30
0.0
11
2662.894667
21
1239.126018
31
0.0
0
LINE
8
0
10
2662.894667
20
1239.126018
30
0.0
11
2662.894667
21
1237.126018
31
0.0
0
LINE
8
0
10
2662.894667
20
1237.126018
30
0.0
11
2643.394667
21
1237.126018
31
0.0
0
LINE
8
0
10
2643.394667
20
1237.126018
30
0.0
11
2643.394667
21
1239.126018
31
0.0
0
LINE
8
0
10
2643.394667
20
1239.126018
30
0.0
11
2642.394667
21
1239.126018
31
0.0
0
ARC
8
0
10
2642.394667
20
1238.626018
30
0.0
40
0.500000
50
90.000000
51
180.000000
0
LINE
8
0
10
2641.894667
20
1238.626018
30
0.0
11
2641.894667
21
1237.426018
31
0.0
0
ARC
8
0
10
2641.594667
20
1237.426018
30
0.0
40
0.300000
50
270.000000
51
360.000000
0
LINE
8
0
10
2641.594667
20
1237.126018
30
0.0
11
2639.494667
21
1237.126018
31
0.0
0
ARC
8
0
10
2639.494667
20
1237.426018
30
0.0
40
0.300000
50
180.000000
51
270.000000
0
LINE
8
0
10
2639.194667
20
1237.426018
30
0.0
11
2639.194667
21
1244.726018
31
0.0
0
ARC
8
0
10
2639.494667
20
1244.726018
30
0.0
40
0.300000
50
90.000000
51
180.000000
0
LINE
8
0
10
2609.994667
20
1265.426018
30
0.0
11
2609.994667
21
1270.426018
31
0.0
0
ARC
8
0
10
2609.494667
20
1270.426018
30
0.0
40
0.500000
50
360.000000
51
90.000000
0
LINE
8
0
10
2609.494667
20
1270.926018
30
0.0
11
2607.794667
21
1270.926018
31
0.0
0
ARC
8
0
10
2607.794667
20
1270.426018
30
0.0
40
0.500000
50
90.000000
51
180.000000
0
LINE
8
0
10
2607.294667
20
1270.426018
30
0.0
11
2607.294667
21
1269.426018
31
0.0
0
ARC
8
0
10
2606.794667
20
1269.426018
30
0.0
40
0.500000
50
270.000000
51
360.000000
0
LINE
8
0
10
2606.794667
20
1268.926018
30
0.0
11
2605.694667
21
1268.926018
31
0.0
0
LINE
8
0
10
2605.694667
20
1268.926018
30
0.0
11
2605.694667
21
1270.926018
31
0.0
0
LINE
8
0
10
2605.694667
20
1270.926018
30
0.0
11
2598.494667
21
1270.926018
31
0.0
0
LINE
8
0
10
2598.494667
20
1270.926018
30
0.0
11
2598.494667
21
1268.926018
31
0.0
0
LINE
8
0
10
2598.494667
20
1268.926018
30
0.0
11
2597.494667
21
1268.926018
31
0.0
0
ARC
8
0
10
2597.494667
20
1269.426018
30
0.0
40
0.500000
50
180.000000
51
270.000000
0
LINE
8
0
10
2596.994667
20
1269.426018
30
0.0
11
2596.994667
21
1270.426018
31
0.0
0
ARC
8
0
10
2596.494667
20
1270.426018
30
0.0
40
0.500000
50
360.000000
51
90.000000
0
LINE
8
0
10
2596.494667
20
1270.926018
30
0.0
11
2592.144667
21
1270.926018
31
0.0
0
ARC
8
0
10
2592.144667
20
1270.626018
30
0.0
40
0.300000
50
90.000000
51
180.000000
0
LINE
8
0
10
2591.844667
20
1270.626018
30
0.0
11
2591.844667
21
1247.126018
31
0.0
0
ARC
8
0
10
2592.344667
20
1247.126018
30
0.0
40
0.500000
50
180.000000
51
270.000000
0
LINE
8
0
10
2592.344667
20
1246.626018
30
0.0
11
2597.994667
21
1246.626018
31
0.0
0
ARC
8
0
10
2597.994667
20
1246.126018
30
0.0
40
0.500000
50
360.000000
51
90.000000
0
LINE
8
0
10
2598.494667
20
1246.126018
30
0.0
11
2598.494667
21
1239.326018
31
0.0
0
LINE
8
0
10
2598.494667
20
1239.326018
30
0.0
11
2605.694667
21
1239.326018
31
0.0
0
LINE
8
0
10
2605.694667
20
1239.326018
30
0.0
11
2605.694667
21
1264.626018
31
0.0
0
ARC
8
0
10
2606.194667
20
1264.626018
30
0.0
40
0.500000
50
90.000000
51
180.000000
0
LINE
8
0
10
2606.194667
20
1265.126018
30
0.0
11
2609.694667
21
1265.126018
31
0.0
0
ARC
8
0
10
2609.694667
20
1265.426018
30
0.0
40
0.300000
50
270.000000
51
360.000000
0
ARC
8
0
10
2609.508701
20
1236.894223
30
0.0
40
2.000000
50
51.805773
51
123.997055
0
ARC
8
0
10
2611.054524
20
1238.859021
30
0.0
40
0.500000
50
231.805773
51
271.623749
0
LINE
8
0
10
2611.068692
20
1238.359222
30
0.0
11
2611.730430
21
1238.377980
31
0.0
0
ARC
8
0
10
2611.721929
20
1238.677860
30
0.0
40
0.300000
50
270.000000
51
18.251415
0
LINE
8
0
10
2612.006836
20
1238.771816
30
0.0
11
2609.942549
21
1241.438257
31
0.0
0
ARC
8
0
10
2609.827402
20
1241.349114
30
0.0
40
0.145621
50
37.746080
51
180.000000
0
LINE
8
0
10
2609.681870
20
1241.344031
30
0.0
11
2609.687299
21
1241.188544
31
0.0
0
ARC
8
0
10
2609.487421
20
1241.181564
30
0.0
40
0.200000
50
308.823976
51
360.000000
0
LINE
8
0
10
2609.612807
20
1241.025749
30
0.0
11
2607.969638
21
1239.703475
31
0.0
0
ARC
8
0
10
2607.781559
20
1239.937197
30
0.0
40
0.300000
50
283.127121
51
308.823976
0
LINE
8
0
10
2607.849692
20
1239.645037
30
0.0
11
2607.494667
21
1239.549486
31
0.0
0
ARC
8
0
10
2607.494667
20
1239.849486
30
0.0
40
0.300000
50
90.000000
51
270.000000
0
LINE
8
0
10
2607.494667
20
1240.149486
30
0.0
11
2607.494667
21
1244.649486
31
0.0
0
ARC
8
0
10
2607.694667
20
1244.649486
30
0.0
40
0.200000
50
90.000000
51
180.000000
0
ARC
8
0
10
2607.753410
20
1244.555293
30
0.0
40
0.300000
50
56.550641
51
101.292027
0
LINE
8
0
10
2607.918770
20
1244.805605
30
0.0
11
2609.594763
21
1243.783372
31
0.0
0
ARC
8
0
10
2609.794667
20
1243.777182
30
0.0
40
0.200000
50
180.000000
51
360.000000
0
LINE
8
0
10
2609.994667
20
1243.777182
30
0.0
11
2609.994667
21
1245.160962
31
0.0
0
ARC
8
0
10
2609.794667
20
1245.160962
30
0.0
40
0.200000
50
360.000000
51
60.153120
0
LINE
8
0
10
2609.894204
20
1245.334434
30
0.0
11
2607.645825
21
1246.624537
31
0.0
0
ARC
8
0
10
2607.894667
20
1247.058216
30
0.0
40
0.500000
50
180.000000
51
240.153120
0
LINE
8
0
10
2607.394667
20
1247.058216
30
0.0
11
2607.394667
21
1262.926018
31
0.0
0
ARC
8
0
10
2607.894667
20
1262.926018
30
0.0
40
0.500000
50
90.000000
51
180.000000
0
LINE
8
0
10
2607.894667
20
1263.426018
30
0.0
11
2611.814733
21
1263.426018
31
0.0
0
ARC
8
0
10
2611.814733
20
1263.726018
30
0.0
40
0.300000
50
270.000000
51
301.380132
0
LINE
8
0
10
2611.970947
20
1263.469898
30
0.0
11
2614.098810
21
1264.767739
31
0.0
0
ARC
8
0
10
2613.994667
20
1264.938485
30
0.0
40
0.200000
50
301.380132
51
360.000000
0
LINE
8
0
10
2614.194667
20
1264.938485
30
0.0
11
2614.194667
21
1266.345476
31
0.0
0
ARC
8
0
10
2613.994667
20
1266.345476
30
0.0
40
0.200000
50
360.000000
51
180.000000
0
LINE
8
0
10
2613.794763
20
1266.339285
30
0.0
11
2612.118770
21
1265.317052
31
0.0
0
ARC
8
0
10
2611.962556
20
1265.573172
30
0.0
40
0.300000
50
270.000000
51
301.380132
0
LINE
8
0
10
2611.962556
20
1265.273172
30
0.0
11
2611.894667
21
1265.273172
31
0.0
0
ARC
8
0
10
2611.894667
20
1265.473172
30
0.0
40
0.200000
50
180.000000
51
270.000000
0
LINE
8
0
10
2611.694667
20
1265.473172
30
0.0
11
2611.694667
21
1269.973172
31
0.0
0
ARC
8
0
10
2611.694667
20
1270.273172
30
0.0
40
0.300000
50
90.000000
51
270.000000
0
LINE
8
0
10
2611.694667
20
1270.573172
30
0.0
11
2612.049692
21
1270.477621
31
0.0
0
ARC
8
0
10
2611.981559
20
1270.185460
30
0.0
40
0.300000
50
51.176024
51
76.872879
0
LINE
8
0
10
2612.169638
20
1270.419183
30
0.0
11
2613.812807
21
1269.096908
31
0.0
0
ARC
8
0
10
2613.687421
20
1268.941093
30
0.0
40
0.200000
50
360.000000
51
51.176024
0
LINE
8
0
10
2613.887299
20
1268.934113
30
0.0
11
2613.881870
21
1268.778626
31
0.0
0
ARC
8
0
10
2614.027402
20
1268.773544
30
0.0
40
0.145621
50
180.000000
51
322.253920
0
LINE
8
0
10
2614.142549
20
1268.684400
30
0.0
11
2616.206836
21
1271.350842
31
0.0
0
ARC
8
0
10
2615.921929
20
1271.444798
30
0.0
40
0.300000
50
341.748585
51
90.000000
0
LINE
8
0
10
2615.925314
20
1271.744822
30
0.0
11
2615.268692
21
1271.763436
31
0.0
0
ARC
8
0
10
2615.254524
20
1271.263637
30
0.0
40
0.500000
50
88.376251
51
128.194227
0
ARC
8
0
10
2613.708701
20
1273.228435
30
0.0
40
2.000000
50
222.919236
51
308.194227
0
ARC
8
0
10
2611.877916
20
1271.526018
30
0.0
40
0.500000
50
42.919236
51
90.000000
0
LINE
8
0
10
2611.877916
20
1272.026018
30
0.0
11
2611.144667
21
1272.026018
31
0.0
0
LINE
8
0
10
2611.144667
20
1272.026018
30
0.0
11
2611.144667
21
1277.126018
31
0.0
0
ARC
8
0
10
2610.644667
20
1277.126018
30
0.0
40
0.500000
50
360.000000
51
90.000000
0
LINE
8
0
10
2610.644667
20
1277.626018
30
0.0
11
2608.851774
21
1277.626018
31
0.0
0
ARC
8
0
10
2608.851774
20
1277.126018
30
0.0
40
0.500000
50
90.000000
51
135.000000
0
LINE
8
0
10
2608.498221
20
1277.479571
30
0.0
11
2607.791114
21
1276.772464
31
0.0
0
ARC
8
0
10
2608.144667
20
1276.418911
30
0.0
40
0.500000
50
135.000000
51
180.000000
0
LINE
8
0
10
2607.644667
20
1276.418911
30
0.0
11
2607.644667
21
1275.626018
31
0.0
0
LINE
8
0
10
2607.644667
20
1275.626018
30
0.0
11
2609.344667
21
1275.626018
31
0.0
0
ARC
8
0
10
2609.344667
20
1275.326018
30
0.0
40
0.300000
50
360.000000
51
90.000000
0
LINE
8
0
10
2609.644667
20
1275.326018
30
0.0
11
2609.644667
21
1272.926018
31
0.0
0
ARC
8
0
10
2609.344667
20
1272.926018
30
0.0
40
0.300000
50
270.000000
51
360.000000
0
LINE
8
0
10
2609.344667
20
1272.626018
30
0.0
11
2591.944667
21
1272.626018
31
0.0
0
ARC
8
0
10
2591.944667
20
1272.926018
30
0.0
40
0.300000
50
180.000000
51
270.000000
0
LINE
8
0
10
2591.644667
20
1272.926018
30
0.0
11
2591.644667
21
1275.326018
31
0.0
0
ARC
8
0
10
2591.944667
20
1275.326018
30
0.0
40
0.300000
50
90.000000
51
180.000000
0
LINE
8
0
10
2591.944667
20
1275.626018
30
0.0
11
2593.644667
21
1275.626018
31
0.0
0
LINE
8
0
10
2593.644667
20
1275.626018
30
0.0
11
2593.644667
21
1276.418911
31
0.0
0
ARC
8
0
10
2593.144667
20
1276.418911
30
0.0
40
0.500000
50
360.000000
51
45.000000
0
LINE
8
0
10
2593.498221
20
1276.772464
30
0.0
11
2592.791114
21
1277.479571
31
0.0
0
ARC
8
0
10
2592.437560
20
1277.126018
30
0.0
40
0.500000
50
45.000000
51
90.000000
0
LINE
8
0
10
2592.437560
20
1277.626018
30
0.0
11
2590.444667
21
1277.626018
31
0.0
0
ARC
8
0
10
2590.444667
20
1277.326018
30
0.0
40
0.300000
50
90.000000
51
180.000000
0
LINE
8
0
10
2590.144667
20
1277.326018
30
0.0
11
2590.144667
21
1243.929437
31
0.0
0
ARC
8
0
10
2590.444667
20
1243.929437
30
0.0
40
0.300000
50
180.000000
51
270.000000
0
LINE
8
0
10
2590.444667
20
1243.629437
30
0.0
11
2590.608444
21
1243.629437
31
0.0
0
ARC
8
0
10
2590.608444
20
1243.929437
30
0.0
40
0.300000
50
270.000000
51
360.000000
0
LINE
8
0
10
2590.908444
20
1243.929437
30
0.0
11
2590.908444
21
1244.329437
31
0.0
0
ARC
8
0
10
2591.208444
20
1244.329437
30
0.0
40
0.300000
50
105.840575
51
180.000000
0
ARC
8
0
10
2591.044667
20
1244.906652
30
0.0
40
0.300000
50
285.840575
51
360.000000
0
LINE
8
0
10
2591.344667
20
1244.926018
30
0.0
11
2596.194667
21
1244.926018
31
0.0
0
ARC
8
0
10
2596.194667
20
1244.426018
30
0.0
40
0.500000
50
360.000000
51
90.000000
0
LINE
8
0
10
2596.694667
20
1244.426018
30
0.0
11
2596.694667
21
1234.926018
31
0.0
0
ARC
8
0
10
2596.994667
20
1234.926018
30
0.0
40
0.300000
50
180.000000
51
270.000000
0
LINE
8
0
10
2596.994667
20
1234.626018
30
0.0
11
2597.794667
21
1234.626018
31
0.0
0
ARC
8
0
10
2597.794667
20
1235.126018
30
0.0
40
0.500000
50
270.000000
51
360.000000
0
LINE
8
0
10
2598.294667
20
1235.126018
30
0.0
11
2598.294667
21
1237.626018
31
0.0
0
LINE
8
0
10
2598.294667
20
1237.626018
30
0.0
11
2607.232827
21
1237.626018
31
0.0
0
ARC
8
0
10
2607.232827
20
1237.926018
30
0.0
40
0.300000
50
270.000000
51
344.505790
0
ARC
8
0
10
2608.244667
20
1237.645520
30
0.0
40
0.750000
50
116.127032
51
164.505790
0
LINE
8
0
10
2607.914395
20
1238.318884
30
0.0
11
2608.390401
21
1238.552356
31
0.0
0
ARC
8
0
10
2657.127042
20
1273.422170
30
0.0
40
1.900000
50
285.809163
51
312.722278
0
LINE
8
0
10
2657.644667
20
1271.594039
30
0.0
11
2657.644667
21
1270.726018
31
0.0
0
ARC
8
0
10
2657.344667
20
1270.726018
30
0.0
40
0.300000
50
270.000000
51
360.000000
0
LINE
8
0
10
2657.344667
20
1270.426018
30
0.0
11
2643.994667
21
1270.426018
31
0.0
0
ARC
8
0
10
2643.994667
20
1270.726018
30
0.0
40
0.300000
50
180.000000
51
270.000000
0
LINE
8
0
10
2643.694667
20
1270.726018
30
0.0
11
2643.694667
21
1272.726018
31
0.0
0
ARC
8
0
10
2643.394667
20
1272.726018
30
0.0
40
0.300000
50
360.000000
51
90.000000
0
LINE
8
0
10
2643.394667
20
1273.026018
30
0.0
11
2641.994667
21
1273.026018
31
0.0
0
ARC
8
0
10
2641.994667
20
1272.726018
30
0.0
40
0.300000
50
90.000000
51
180.000000
0
LINE
8
0
10
2641.694667
20
1272.726018
30
0.0
11
2641.694667
21
1272.196640
31
0.0
0
ARC
8
0
10
2641.394667
20
1272.196640
30
0.0
40
0.300000
50
296.127032
51
360.000000
0
LINE
8
0
10
2641.526776
20
1271.927294
30
0.0
11
2640.798934
21
1271.570302
31
0.0
0
ARC
8
0
10
2639.680633
20
1273.228435
30
0.0
40
2.000000
50
231.805773
51
303.997055
0
ARC
8
0
10
2638.134810
20
1271.263637
30
0.0
40
0.500000
50
51.805773
51
91.623749
0
LINE
8
0
10
2638.120642
20
1271.763436
30
0.0
11
2637.464021
21
1271.744822
31
0.0
0
ARC
8
0
10
2637.467406
20
1271.444798
30
0.0
40
0.300000
50
92.605413
51
198.251415
0
LINE
8
0
10
2637.182498
20
1271.350842
30
0.0
11
2639.246786
21
1268.684400
31
0.0
0
ARC
8
0
10
2639.361933
20
1268.773544
30
0.0
40
0.145621
50
217.746080
51
360.000000
0
LINE
8
0
10
2639.507465
20
1268.778626
30
0.0
11
2639.502035
21
1268.934113
31
0.0
0
ARC
8
0
10
2639.701913
20
1268.941093
30
0.0
40
0.200000
50
128.823976
51
180.000000
0
LINE
8
0
10
2639.576527
20
1269.096908
30
0.0
11
2641.219697
21
1270.419183
31
0.0
0
ARC
8
0
10
2641.407776
20
1270.185460
30
0.0
40
0.300000
50
107.000000
51
128.823976
0
LINE
8
0
10
2641.320064
20
1270.472352
30
0.0
11
2641.694667
21
1270.573172
31
0.0
0
ARC
8
0
10
2641.694667
20
1270.273172
30
0.0
40
0.300000
50
270.000000
51
90.000000
0
LINE
8
0
10
2641.694667
20
1269.973172
30
0.0
11
2641.694667
21
1265.473172
31
0.0
0
ARC
8
0
10
2641.494667
20
1265.473172
30
0.0
40
0.200000
50
270.000000
51
360.000000
0
LINE
8
0
10
2641.494667
20
1265.273172
30
0.0
11
2641.426779
21
1265.273172
31
0.0
0
ARC
8
0
10
2641.426779
20
1265.573172
30
0.0
40
0.300000
50
238.619868
51
270.000000
0
LINE
8
0
10
2641.270564
20
1265.317052
30
0.0
11
2639.594571
21
1266.339285
31
0.0
0
ARC
8
0
10
2639.394667
20
1266.345476
30
0.0
40
0.200000
50
360.000000
51
180.000000
0
LINE
8
0
10
2639.194667
20
1266.345476
30
0.0
11
2639.194667
21
1264.938485
31
0.0
0
ARC
8
0
10
2639.394667
20
1264.938485
30
0.0
40
0.200000
50
180.000000
51
238.619868
0
LINE
8
0
10
2639.290525
20
1264.767739
30
0.0
11
2641.550881
21
1263.389087
31
0.0
0
ARC
8
0
10
2641.394667
20
1263.132967
30
0.0
40
0.300000
50
360.000000
51
58.619868
0
LINE
8
0
10
2641.694667
20
1263.132967
30
0.0
11
2641.694667
21
1247.026018
31
0.0
0
ARC
8
0
10
2641.394667
20
1247.026018
30
0.0
40
0.300000
50
270.000000
51
360.000000
0
LINE
8
0
10
2641.394667
20
1246.726018
30
0.0
11
2637.600324
21
1246.726018
31
0.0
0
ARC
8
0
10
2637.600324
20
1246.426018
30
0.0
40
0.300000
50
90.000000
51
119.846880
0
LINE
8
0
10
2637.451019
20
1246.686225
30
0.0
11
2635.095131
21
1245.334434
31
0.0
0
ARC
8
0
10
2635.194667
20
1245.160962
30
0.0
40
0.200000
50
119.846880
51
180.000000
0
LINE
8
0
10
2634.994667
20
1245.160962
30
0.0
11
2634.994667
21
1243.777182
31
0.0
0
ARC
8
0
10
2635.194667
20
1243.777182
30
0.0
40
0.200000
50
180.000000
51
360.000000
0
LINE
8
0
10
2635.394571
20
1243.783372
30
0.0
11
2637.070564
21
1244.805605
31
0.0
0
ARC
8
0
10
2637.235924
20
1244.555293
30
0.0
40
0.300000
50
78.707973
51
123.449359
0
ARC
8
0
10
2637.294667
20
1244.649486
30
0.0
40
0.200000
50
360.000000
51
90.000000
0
LINE
8
0
10
2637.494667
20
1244.649486
30
0.0
11
2637.494667
21
1240.149486
31
0.0
0
ARC
8
0
10
2637.494667
20
1239.849486
30
0.0
40
0.300000
50
270.000000
51
90.000000
0
LINE
8
0
10
2637.494667
20
1239.549486
30
0.0
11
2637.139642
21
1239.645037
31
0.0
0
ARC
8
0
10
2637.207776
20
1239.937197
30
0.0
40
0.300000
50
231.176024
51
256.872879
0
LINE
8
0
10
2637.019697
20
1239.703475
30
0.0
11
2635.376527
21
1241.025749
31
0.0
0
ARC
8
0
10
2635.501913
20
1241.181564
30
0.0
40
0.200000
50
180.000000
51
231.176024
0
LINE
8
0
10
2635.302035
20
1241.188544
30
0.0
11
2635.307465
21
1241.344031
31
0.0
0
ARC
8
0
10
2635.161933
20
1241.349114
30
0.0
40
0.145621
50
360.000000
51
142.253920
0
LINE
8
0
10
2635.046786
20
1241.438257
30
0.0
11
2632.982498
21
1238.771816
31
0.0
0
ARC
8
0
10
2633.267406
20
1238.677860
30
0.0
40
0.300000
50
161.748585
51
270.000000
0
LINE
8
0
10
2633.258905
20
1238.377980
30
0.0
11
2633.920642
21
1238.359222
31
0.0
0
ARC
8
0
10
2633.934810
20
1238.859021
30
0.0
40
0.500000
50
268.376251
51
308.194227
0
ARC
8
0
10
2635.480633
20
1236.894223
30
0.0
40
2.000000
50
56.002945
51
128.194227
0
LINE
8
0
10
2636.598934
20
1238.552356
30
0.0
11
2637.214849
21
1238.250262
31
0.0
0
ARC
8
0
10
2636.994667
20
1237.801352
30
0.0
40
0.500000
50
360.000000
51
63.872968
0
LINE
8
0
10
2637.494667
20
1237.801352
30
0.0
11
2637.494667
21
1235.726018
31
0.0
0
ARC
8
0
10
2637.794667
20
1235.726018
30
0.0
40
0.300000
50
180.000000
51
270.000000
0
LINE
8
0
10
2637.794667
20
1235.426018
30
0.0
11
2637.844667
21
1235.426018
31
0.0
0
ARC
8
0
10
2637.844667
20
1235.126018
30
0.0
40
0.300000
50
360.000000
51
90.000000
0
LINE
8
0
10
2638.144667
20
1235.126018
30
0.0
11
2638.144667
21
1231.854502
31
0.0
0
LINE
8
0
10
2638.144667
20
1231.854502
30
0.0
11
2638.154890
21
1231.776856
31
0.0
0
LINE
8
0
10
2638.154890
20
1231.776856
30
0.0
11
2638.644667
21
1229.948981
31
0.0
0
LINE
8
0
10
2638.644667
20
1229.948981
30
0.0
11
2638.644667
21
1228.226018
31
0.0
0
ARC
8
0
10
2638.944667
20
1228.226018
30
0.0
40
0.300000
50
180.000000
51
270.000000
0
LINE
8
0
10
2638.944667
20
1227.926018
30
0.0
11
2642.644667
21
1227.926018
31
0.0
0
LINE
8
0
10
2642.644667
20
1227.926018
30
0.0
11
2642.644667
21
1229.426018
31
0.0
0
LINE
8
0
10
2642.644667
20
1229.426018
30
0.0
11
2640.144667
21
1229.426018
31
0.0
0
LINE
8
0
10
2640.144667
20
1229.426018
30
0.0
11
2640.144667
21
1232.426018
31
0.0
0
LINE
8
0
10
2640.144667
20
1232.426018
30
0.0
11
2642.644667
21
1232.426018
31
0.0
0
LINE
8
0
10
2642.644667
20
1232.426018
30
0.0
11
2642.644667
21
1233.526018
31
0.0
0
ARC
8
0
10
2642.144667
20
1233.526018
30
0.0
40
0.500000
50
360.000000
51
90.000000
0
LINE
8
0
10
2642.144667
20
1234.026018
30
0.0
11
2640.645099
21
1234.026018
31
0.0
0
ARC
8
0
10
2640.645099
20
1234.526018
30
0.0
40
0.500000
50
180.000000
51
270.000000
0
LINE
8
0
10
2640.145099
20
1234.526018
30
0.0
11
2640.145099
21
1234.926018
31
0.0
0
ARC
8
0
10
2640.645099
20
1234.926018
30
0.0
40
0.500000
50
90.000000
51
180.000000
0
LINE
8
0
10
2640.645099
20
1235.426018
30
0.0
11
2659.644667
21
1235.426018
31
0.0
0
ARC
8
0
10
2659.644667
20
1234.926018
30
0.0
40
0.500000
50
360.000000
51
90.000000
0
LINE
8
0
10
2660.144667
20
1234.926018
30
0.0
11
2660.144667
21
1234.526018
31
0.0
0
ARC
8
0
10
2659.644667
20
1234.526018
30
0.0
40
0.500000
50
270.000000
51
360.000000
0
LINE
8
0
10
2659.644667
20
1234.026018
30
0.0
11
2658.144667
21
1234.026018
31
0.0
0
ARC
8
0
10
2658.144667
20
1233.526018
30
0.0
40
0.500000
50
90.000000
51
180.000000
0
LINE
8
0
10
2657.644667
20
1233.526018
30
0.0
11
2657.644667
21
1232.426018
31
0.0
0
LINE
8
0
10
2657.644667
20
1232.426018
30
0.0
11
2660.144667
21
1232.426018
31
0.0
0
LINE
8
0
10
2660.144667
20
1232.426018
30
0.0
11
2660.144667
21
1229.426018
31
0.0
0
LINE
8
0
10
2660.144667
20
1229.426018
30
0.0
11
2657.644667
21
1229.426018
31
0.0
0
LINE
8
0
10
2657.644667
20
1229.426018
30
0.0
11
2657.644667
21
1227.926018
31
0.0
0
LINE
8
0
10
2657.644667
20
1227.926018
30
0.0
11
2661.344667
21
1227.926018
31
0.0
0
ARC
8
0
10
2661.344667
20
1228.226018
30
0.0
40
0.300000
50
270.000000
51
360.000000
0
LINE
8
0
10
2661.644667
20
1228.226018
30
0.0
11
2661.644667
21
1229.948981
31
0.0
0
LINE
8
0
10
2661.644667
20
1229.948981
30
0.0
11
2662.144667
21
1231.815006
31
0.0
0
LINE
8
0
10
2662.144667
20
1231.815006
30
0.0
11
2662.144667
21
1235.126018
31
0.0
0
ARC
8
0
10
2662.444667
20
1235.126018
30
0.0
40
0.300000
50
90.000000
51
180.000000
0
LINE
8
0
10
2662.444667
20
1235.426018
30
0.0
11
2663.944667
21
1235.426018
31
0.0
0
ARC
8
0
10
2663.944667
20
1235.126018
30
0.0
40
0.300000
50
360.000000
51
90.000000
0
LINE
8
0
10
2664.244667
20
1235.126018
30
0.0
11
2664.244667
21
1234.117727
31
0.0
0
ARC
8
0
10
2664.544667
20
1234.117727
30
0.0
40
0.300000
50
180.000000
51
270.000000
0
LINE
8
0
10
2664.544667
20
1233.817727
30
0.0
11
2665.113727
21
1233.817727
31
0.0
0
LINE
8
0
10
2665.113727
20
1233.817727
30
0.0
11
2665.321110
21
1234.591692
31
0.0
0
LINE
8
0
10
2665.321110
20
1234.591692
30
0.0
11
2665.454524
21
1234.591692
31
0.0
0
ARC
8
0
10
2665.454524
20
1234.703227
30
0.0
40
0.111536
50
270.000000
51
30.000000
0
LINE
8
0
10
2665.551116
20
1234.758995
30
0.0
11
2665.424638
21
1234.978062
31
0.0
0
LINE
8
0
10
2665.424638
20
1234.978062
30
0.0
11
2665.544667
21
1235.426018
31
0.0
0
LINE
8
0
10
2665.544667
20
1235.426018
30
0.0
11
2666.544667
21
1235.426018
31
0.0
0
LINE
8
0
10
2666.544667
20
1235.426018
30
0.0
11
2666.544667
21
1220.426018
31
0.0
0
LINE
8
0
10
2666.544667
20
1220.426018
30
0.0
11
2665.544667
21
1220.426018
31
0.0
0
LINE
8
0
10
2665.544667
20
1220.426018
30
0.0
11
2665.424638
21
1220.873973
31
0.0
0
LINE
8
0
10
2665.424638
20
1220.873973
30
0.0
11
2665.551116
21
1221.093040
31
0.0
0
ARC
8
0
10
2665.454524
20
1221.148808
30
0.0
40
0.111536
50
330.000000
51
90.000000
0
LINE
8
0
10
2665.454524
20
1221.260343
30
0.0
11
2665.321110
21
1221.260343
31
0.0
0
LINE
8
0
10
2665.321110
20
1221.260343
30
0.0
11
2665.113727
21
1222.034308
31
0.0
0
LINE
8
0
10
2665.113727
20
1222.034308
30
0.0
11
2664.844667
21
1222.034308
31
0.0
0
ARC
8
0
10
2664.844667
20
1221.734308
30
0.0
40
0.300000
50
90.000000
51
180.000000
0
LINE
8
0
10
2664.544667
20
1221.734308
30
0.0
11
2664.544667
21
1218.816253
31
0.0
0
ARC
8
0
10
2665.544667
20
1218.816253
30
0.0
40
1.000000
50
180.000000
51
191.076387
0
LINE
8
0
10
2664.563295
20
1218.624136
30
0.0
11
2664.897221
21
1216.918382
31
0.0
0
ARC
8
0
10
2665.191633
20
1216.976018
30
0.0
40
0.300000
50
191.076387
51
270.000000
0
LINE
8
0
10
2665.191633
20
1216.676018
30
0.0
11
2665.344667
21
1216.676018
31
0.0
0
ARC
8
0
10
2665.344667
20
1216.976018
30
0.0
40
0.300000
50
270.000000
51
360.000000
0
LINE
8
0
10
2665.644667
20
1216.976018
30
0.0
11
2665.644667
21
1218.426018
31
0.0
0
ARC
8
0
10
2665.944667
20
1218.426018
30
0.0
40
0.300000
50
90.000000
51
180.000000
0
LINE
8
0
10
2665.944667
20
1218.726018
30
0.0
11
2666.644667
21
1218.726018
31
0.0
0
ARC
8
0
10
2666.644667
20
1218.426018
30
0.0
40
0.300000
50
360.000000
51
90.000000
0
LINE
8
0
10
2666.944667
20
1218.426018
30
0.0
11
2666.944667
21
1211.976018
31
0.0
0
ARC
8
0
10
2666.644667
20
1211.976018
30
0.0
40
0.300000
50
270.000000
51
360.000000
0
LINE
8
0
10
2666.644667
20
1211.676018
30
0.0
11
2665.944667
21
1211.676018
31
0.0
0
ARC
8
0
10
2665.944667
20
1211.976018
30
0.0
40
0.300000
50
180.000000
51
270.000000
0
LINE
8
0
10
2665.644667
20
1211.976018
30
0.0
11
2665.644667
21
1212.876018
31
0.0
0
ARC
8
0
10
2665.344667
20
1212.876018
30
0.0
40
0.300000
50
360.000000
51
90.000000
0
LINE
8
0
10
2665.344667
20
1213.176018
30
0.0
11
2665.191633
21
1213.176018
31
0.0
0
ARC
8
0
10
2665.191633
20
1212.876018
30
0.0
40
0.300000
50
90.000000
51
168.923613
0
LINE
8
0
10
2664.897221
20
1212.933653
30
0.0
11
2664.644667
21
1211.643562
31
0.0
0
LINE
8
0
10
2664.644667
20
1211.643562
30
0.0
11
2664.644667
21
1210.926018
31
0.0
0
ARC
8
0
10
2665.144667
20
1210.926018
30
0.0
40
0.500000
50
180.000000
51
270.000000
0
LINE
8
0
10
2665.144667
20
1210.426018
30
0.0
11
2667.644667
21
1210.426018
31
0.0
0
ARC
8
0
10
2667.644667
20
1210.926018
30
0.0
40
0.500000
50
270.000000
51
360.000000
0
LINE
8
0
10
2668.144667
20
1210.926018
30
0.0
11
2668.144667
21
1297.126018
31
0.0
0
ARC
8
0
10
2667.644667
20
1297.126018
30
0.0
40
0.500000
50
360.000000
51
90.000000
0
LINE
8
0
10
2667.644667
20
1297.626018
30
0.0
11
2656.144649
21
1297.626018
31
0.0
0
ARC
8
0
10
2656.144649
20
1297.126036
30
0.0
40
0.499982
50
90.000000
51
180.000000
0
LINE
8
0
10
2655.644667
20
1297.126036
30
0.0
11
2655.644667
21
1296.082487
31
0.0
0
ARC
8
0
10
2656.144667
20
1296.082487
30
0.0
40
0.500000
50
180.000000
51
192.874889
0
LINE
8
0
10
2655.657238
20
1295.971075
30
0.0
11
2655.992784
21
1294.503046
31
0.0
0
ARC
8
0
10
2656.285242
20
1294.569893
30
0.0
40
0.300000
50
192.874889
51
270.000000
0
LINE
8
0
10
2656.285242
20
1294.269893
30
0.0
11
2656.344631
21
1294.269893
31
0.0
0
ARC
8
0
10
2656.344631
20
1294.569893
30
0.0
40
0.300000
50
270.000000
51
360.000000
0
LINE
8
0
10
2656.644631
20
1294.569893
30
0.0
11
2656.644631
21
1295.526072
31
0.0
0
ARC
8
0
10
2657.144631
20
1295.526072
30
0.0
40
0.500000
50
90.000000
51
180.000000
0
LINE
8
0
10
2657.144631
20
1296.026072
30
0.0
11
2657.644631
21
1296.026072
31
0.0
0
ARC
8
0
10
2657.644631
20
1295.526072
30
0.0
40
0.500000
50
360.000000
51
90.000000
0
LINE
8
0
10
2658.144631
20
1295.526072
30
0.0
11
2658.144631
21
1289.026280
31
0.0
0
ARC
8
0
10
2657.644631
20
1289.026280
30
0.0
40
0.500000
50
270.000000
51
360.000000
0
LINE
8
0
10
2657.644631
20
1288.526280
30
0.0
11
2657.144631
21
1288.526280
31
0.0
0
ARC
8
0
10
2657.144631
20
1289.026280
30
0.0
40
0.500000
50
180.000000
51
270.000000
0
LINE
8
0
10
2656.644631
20
1289.026280
30
0.0
11
2656.644631
21
1289.982243
31
0.0
0
ARC
8
0
10
2656.344631
20
1289.982243
30
0.0
40
0.300000
50
360.000000
51
90.000000
0
LINE
8
0
10
2656.344631
20
1290.282243
30
0.0
11
2656.285178
21
1290.282243
31
0.0
0
ARC
8
0
10
2656.285178
20
1289.982243
30
0.0
40
0.300000
50
90.000000
51
167.125111
0
LINE
8
0
10
2655.992720
20
1290.049089
30
0.0
11
2655.657238
21
1288.581339
31
0.0
0
ARC
8
0
10
2656.144667
20
1288.469928
30
0.0
40
0.500000
50
167.125111
51
180.000000
0
LINE
8
0
10
2655.644667
20
1288.469928
30
0.0
11
2655.644667
21
1287.526316
31
0.0
0
ARC
8
0
10
2656.144649
20
1287.526316
30
0.0
40
0.499982
50
180.000000
51
270.000000
0
LINE
8
0
10
2656.144649
20
1287.026334
30
0.0
11
2659.344667
21
1287.026334
31
0.0
0
ARC
8
0
10
2659.344667
20
1287.326334
30
0.0
40
0.300000
50
270.000000
51
360.000000
0
LINE
8
0
10
2659.644667
20
1287.326334
30
0.0
11
2659.644667
21
1288.226334
31
0.0
0
ARC
8
0
10
2659.944667
20
1288.226334
30
0.0
40
0.300000
50
90.000000
51
180.000000
0
LINE
8
0
10
2659.944667
20
1288.526334
30
0.0
11
2660.944667
21
1288.526334
31
0.0
0
ARC
8
0
10
2660.944667
20
1288.226334
30
0.0
40
0.300000
50
360.000000
51
90.000000
0
LINE
8
0
10
2661.244667
20
1288.226334
30
0.0
11
2661.244667
21
1270.626334
31
0.0
0
ARC
8
0
10
2660.944667
20
1270.626334
30
0.0
40
0.300000
50
270.000000
51
360.000000
0
LINE
8
0
10
2660.944667
20
1270.326334
30
0.0
11
2659.944667
21
1270.326334
31
0.0
0
ARC
8
0
10
2659.944667
20
1270.626334
30
0.0
40
0.300000
50
180.000000
51
270.000000
0
LINE
8
0
10
2659.644667
20
1270.626334
30
0.0
11
2659.644667
21
1271.726334
31
0.0
0
ARC
8
0
10
2659.344667
20
1271.726334
30
0.0
40
0.300000
50
360.000000
51
90.000000
0
LINE
8
0
10
2659.344667
20
1272.026334
30
0.0
11
2658.416089
21
1272.026334
31
0.0
0
ARC
8
0
10
2666.244667
20
1295.621499
30
0.0
40
0.300000
50
360.000000
51
90.000000
0
LINE
8
0
10
2666.244667
20
1295.921499
30
0.0
11
2660.144631
21
1295.921499
31
0.0
0
ARC
8
0
10
2660.144631
20
1295.421499
30
0.0
40
0.500000
50
90.000000
51
180.000000
0
LINE
8
0
10
2659.644631
20
1295.421499
30
0.0
11
2659.644721
21
1290.526334
31
0.0
0
ARC
8
0
10
2660.144721
20
1290.526334
30
0.0
40
0.500000
50
180.000000
51
270.000000
0
LINE
8
0
10
2660.144721
20
1290.026334
30
0.0
11
2662.544667
21
1290.026334
31
0.0
0
ARC
8
0
10
2662.544667
20
1289.726334
30
0.0
40
0.300000
50
360.000000
51
90.000000
0
LINE
8
0
10
2662.844667
20
1289.726334
30
0.0
11
2662.844667
21
1270.726018
31
0.0
0
ARC
8
0
10
2663.144667
20
1270.726018
30
0.0
40
0.300000
50
180.000000
51
270.000000
0
LINE
8
0
10
2663.144667
20
1270.426018
30
0.0
11
2666.244667
21
1270.426018
31
0.0
0
ARC
8
0
10
2666.244667
20
1270.726018
30
0.0
40
0.300000
50
270.000000
51
360.000000
0
LINE
8
0
10
2666.544667
20
1270.726018
30
0.0
11
2666.544667
21
1295.621499
31
0.0
0
ATTDEF
8
0
10
0.000000
20
0.000000
30
0.0
40
3.5
1

3

2
PANE_WIDTH:0
70
0
0
ATTDEF
8
0
10
0.000000
20
0.000000
30
0.0
40
3.5
1

3

2
MIN_VETRO:0
70
0
0
ATTDEF
8
0
10
0.000000
20
0.000000
30
0.0
40
3.5
1

3

2
MAX_VETRO:0
70
0
0
ATTDEF
8
0
10
0.000000
20
0.000000
30
0.0
40
3.5
1

3

2
JX:0
70
0
0
ATTDEF
8
0
10
0.000000
20
0.000000
30
0.0
40
3.5
1

3

2
WX:0
70
0
0
ATTDEF
8
0
10
0.000000
20
0.000000
30
0.0
40
3.5
1

3

2
JY:0
70
0
0
ATTDEF
8
0
10
0.000000
20
0.000000
30
0.0
40
3.5
1

3

2
WY:0
70
0
0
ATTDEF
8
0
10
0.000000
20
0.000000
30
0.0
40
3.5
1

3

2
DESC:Hoja ventana apertura exterior
70
0
0
ATTDEF
8
0
10
0.000000
20
0.000000
30
0.0
40
3.5
1

3

2
DENS:2.1596
70
0
0
ATTDEF
8
0
10
0.000000
20
0.000000
30
0.0
40
3.5
1

3

2
TDEV:83.97
70
0
0
ATTDEF
8
0
10
0.000000
20
0.000000
30
0.0
40
3.5
1

3

2
TDEV2:0
70
0
0
ATTDEF
8
0
10
0.000000
20
0.000000
30
0.0
40
3.5
1

3

2
TDEV3:0
70
0
0
ATTDEF
8
0
10
0.000000
20
0.000000
30
0.0
40
3.5
1

3

2
TDEV4:0
70
0
0
ATTDEF
8
0
10
0.000000
20
0.000000
30
0.0
40
3.5
1

3

2
TDEV5:0
70
0
0
ATTDEF
8
0
10
0.000000
20
0.000000
30
0.0
40
3.5
1

3

2
PANE_WIDTH:0
70
0
0
ATTDEF
8
0
10
0.000000
20
0.000000
30
0.0
40
3.5
1

3

2
MIN_VETRO:0
70
0
0
ATTDEF
8
0
10
0.000000
20
0.000000
30
0.0
40
3.5
1

3

2
MAX_VETRO:0
70
0
0
ATTDEF
8
0
10
0.000000
20
0.000000
30
0.0
40
3.5
1

3

2
JX:0
70
0
0
ATTDEF
8
0
10
0.000000
20
0.000000
30
0.0
40
3.5
1

3

2
WX:0
70
0
0
ATTDEF
8
0
10
0.000000
20
0.000000
30
0.0
40
3.5
1

3

2
JY:0
70
0
0
ATTDEF
8
0
10
0.000000
20
0.000000
30
0.0
40
3.5
1

3

2
WY:0
70
0
0
ATTDEF
8
0
10
2609.748221
20
1277.626018
30
0.0
40
3.5
1

3

2
VC_START
70
0
0
ATTDEF
8
0
10
2640.794667
20
1227.926018
30
0.0
40
3.5
1

3

2
VC_END
70
0
0
ATTDEF
8
0
10
2668.144667
20
1210.426018
30
0.0
40
3.5
1

3

2
FP_LCS_ORIG
70
0
0
ATTDEF
8
0
10
2658.144667
20
1210.426018
30
0.0
40
3.5
1

3

2
FP_LCS_HOT
70
0
0
ATTDEF
8
0
10
2668.144667
20
1220.426018
30
0.0
40
3.5
1

3

2
FP_LCS_INTERN
70
0
0
ENDSEC
0
EOF
