0
SECTION
2
ENTITIES
0
LINE
8
0
10
2553.476350
20
1279.620977
30
0.0
11
2554.187300
21
1280.331927
31
0.0
0
LINE
8
0
10
2553.576350
20
1277.475913
30
0.0
11
2553.937459
21
1277.837023
31
0.0
0
LINE
8
0
10
2557.974000
20
1281.873564
30
0.0
11
2558.394484
21
1282.294048
31
0.0
0
LINE
8
0
10
2554.752223
20
1278.651786
30
0.0
11
2555.621663
21
1279.521227
31
0.0
0
LINE
8
0
10
2555.503951
20
1277.158450
30
0.0
11
2560.808396
21
1282.462896
31
0.0
0
LINE
8
0
10
2561.253460
20
1280.662896
30
0.0
11
2563.053460
21
1282.462896
31
0.0
0
LINE
8
0
10
2553.637412
20
1270.801783
30
0.0
11
2554.676315
21
1271.840687
31
0.0
0
LINE
8
0
10
2563.498524
20
1280.662896
30
0.0
11
2565.298524
21
1282.462896
31
0.0
0
LINE
8
0
10
2553.500902
20
1268.420209
30
0.0
11
2556.338883
21
1271.258190
31
0.0
0
LINE
8
0
10
2565.743588
20
1280.662896
30
0.0
11
2567.543588
21
1282.462896
31
0.0
0
LINE
8
0
10
2556.360908
20
1269.035152
30
0.0
11
2557.844637
21
1270.518881
31
0.0
0
LINE
8
0
10
2567.988652
20
1280.662896
30
0.0
11
2569.788652
21
1282.462896
31
0.0
0
LINE
8
0
10
2557.282760
20
1267.711939
30
0.0
11
2558.728568
21
1269.157747
31
0.0
0
LINE
8
0
10
2570.233716
20
1280.662896
30
0.0
11
2572.033716
21
1282.462896
31
0.0
0
LINE
8
0
10
2558.193280
20
1266.377395
30
0.0
11
2559.785445
21
1267.969560
31
0.0
0
LINE
8
0
10
2572.478780
20
1280.662896
30
0.0
11
2574.278780
21
1282.462896
31
0.0
0
LINE
8
0
10
2560.119139
20
1266.058190
30
0.0
11
2561.919139
21
1267.858190
31
0.0
0
LINE
8
0
10
2574.723844
20
1280.662896
30
0.0
11
2576.523844
21
1282.462896
31
0.0
0
LINE
8
0
10
2562.364203
20
1266.058190
30
0.0
11
2564.164203
21
1267.858190
31
0.0
0
LINE
8
0
10
2576.968908
20
1280.662896
30
0.0
11
2578.768908
21
1282.462896
31
0.0
0
LINE
8
0
10
2564.609267
20
1266.058190
30
0.0
11
2566.409267
21
1267.858190
31
0.0
0
LINE
8
0
10
2579.213972
20
1280.662896
30
0.0
11
2581.013972
21
1282.462896
31
0.0
0
LINE
8
0
10
2566.854331
20
1266.058190
30
0.0
11
2568.654331
21
1267.858190
31
0.0
0
LINE
8
0
10
2581.459036
20
1280.662896
30
0.0
11
2583.225626
21
1282.429486
31
0.0
0
LINE
8
0
10
2569.099395
20
1266.058190
30
0.0
11
2570.899395
21
1267.858190
31
0.0
0
LINE
8
0
10
2582.901442
20
1279.860237
30
0.0
11
2584.347250
21
1281.306045
31
0.0
0
LINE
8
0
10
2571.344459
20
1266.058190
30
0.0
11
2573.144459
21
1267.858190
31
0.0
0
LINE
8
0
10
2583.785372
20
1278.499104
30
0.0
11
2585.231180
21
1279.944912
31
0.0
0
LINE
8
0
10
2573.589523
20
1266.058190
30
0.0
11
2575.389523
21
1267.858190
31
0.0
0
LINE
8
0
10
2584.856923
20
1277.325590
30
0.0
11
2587.894203
21
1280.362870
31
0.0
0
LINE
8
0
10
2575.834587
20
1266.058190
30
0.0
11
2577.634587
21
1267.858190
31
0.0
0
LINE
8
0
10
2586.760273
20
1276.983876
30
0.0
11
2587.562187
21
1277.785790
31
0.0
0
LINE
8
0
10
2578.079651
20
1266.058190
30
0.0
11
2579.879651
21
1267.858190
31
0.0
0
LINE
8
0
10
2580.324715
20
1266.058190
30
0.0
11
2582.302080
21
1268.035555
31
0.0
0
LINE
8
0
10
2582.853408
20
1268.586883
30
0.0
11
2585.524715
21
1271.258190
31
0.0
0
LINE
8
0
10
2582.569779
20
1266.058190
30
0.0
11
2588.438858
21
1271.927269
31
0.0
0
LINE
8
0
10
2587.249050
20
1268.492397
30
0.0
11
2588.295121
21
1269.538468
31
0.0
0
LINE
8
0
10
2554.137769
20
1268.169963
30
0.0
11
2553.476350
21
1268.831383
31
0.0
0
LINE
8
0
10
2555.570708
20
1268.982089
30
0.0
11
2554.726317
21
1269.826479
31
0.0
0
LINE
8
0
10
2553.869528
20
1270.683268
30
0.0
11
2553.576427
21
1270.976369
31
0.0
0
LINE
8
0
10
2560.739670
20
1266.058190
30
0.0
11
2555.358022
21
1271.439839
31
0.0
0
LINE
8
0
10
2562.984734
20
1266.058190
30
0.0
11
2561.184734
21
1267.858190
31
0.0
0
LINE
8
0
10
2565.229798
20
1266.058190
30
0.0
11
2563.429798
21
1267.858190
31
0.0
0
LINE
8
0
10
2554.633037
20
1276.654951
30
0.0
11
2553.610700
21
1277.677288
31
0.0
0
LINE
8
0
10
2567.474862
20
1266.058190
30
0.0
11
2565.674862
21
1267.858190
31
0.0
0
LINE
8
0
10
2556.270157
20
1277.262896
30
0.0
11
2553.485427
21
1280.047626
31
0.0
0
LINE
8
0
10
2569.719926
20
1266.058190
30
0.0
11
2567.919926
21
1267.858190
31
0.0
0
LINE
8
0
10
2557.817578
20
1277.960538
30
0.0
11
2556.308546
21
1279.469570
31
0.0
0
LINE
8
0
10
2571.964990
20
1266.058190
30
0.0
11
2570.164990
21
1267.858190
31
0.0
0
LINE
8
0
10
2558.701509
20
1279.321672
30
0.0
11
2557.255701
21
1280.767480
31
0.0
0
LINE
8
0
10
2574.210054
20
1266.058190
30
0.0
11
2572.410054
21
1267.858190
31
0.0
0
LINE
8
0
10
2559.737941
20
1280.530304
30
0.0
11
2558.158279
21
1282.109965
31
0.0
0
LINE
8
0
10
2576.455118
20
1266.058190
30
0.0
11
2574.655118
21
1267.858190
31
0.0
0
LINE
8
0
10
2561.850413
20
1280.662896
30
0.0
11
2560.050413
21
1282.462896
31
0.0
0
LINE
8
0
10
2578.700182
20
1266.058190
30
0.0
11
2576.900182
21
1267.858190
31
0.0
0
LINE
8
0
10
2564.095477
20
1280.662896
30
0.0
11
2562.295477
21
1282.462896
31
0.0
0
LINE
8
0
10
2580.945246
20
1266.058190
30
0.0
11
2579.145246
21
1267.858190
31
0.0
0
LINE
8
0
10
2566.340541
20
1280.662896
30
0.0
11
2564.540541
21
1282.462896
31
0.0
0
LINE
8
0
10
2583.169093
20
1266.079408
30
0.0
11
2581.390310
21
1267.858190
31
0.0
0
LINE
8
0
10
2568.585605
20
1280.662896
30
0.0
11
2566.785605
21
1282.462896
31
0.0
0
LINE
8
0
10
2584.320191
20
1267.173374
30
0.0
11
2582.874383
21
1268.619182
31
0.0
0
LINE
8
0
10
2570.830669
20
1280.662896
30
0.0
11
2569.030669
21
1282.462896
31
0.0
0
LINE
8
0
10
2585.204121
20
1268.534507
30
0.0
11
2583.758313
21
1269.980315
31
0.0
0
LINE
8
0
10
2573.075733
20
1280.662896
30
0.0
11
2571.275733
21
1282.462896
31
0.0
0
LINE
8
0
10
2587.813234
20
1268.170459
30
0.0
11
2584.806451
21
1271.177242
31
0.0
0
LINE
8
0
10
2575.320797
20
1280.662896
30
0.0
11
2573.520797
21
1282.462896
31
0.0
0
LINE
8
0
10
2587.510671
20
1270.718086
30
0.0
11
2586.716995
21
1271.511762
31
0.0
0
LINE
8
0
10
2577.565861
20
1280.662896
30
0.0
11
2575.765861
21
1282.462896
31
0.0
0
LINE
8
0
10
2579.810925
20
1280.662896
30
0.0
11
2578.010925
21
1282.462896
31
0.0
0
LINE
8
0
10
2585.455989
20
1277.262896
30
0.0
11
2582.980711
21
1279.738174
31
0.0
0
LINE
8
0
10
2582.167435
20
1280.551450
30
0.0
11
2580.255989
21
1282.462896
31
0.0
0
LINE
8
0
10
2588.414586
20
1276.549363
30
0.0
11
2582.501053
21
1282.462896
31
0.0
0
LINE
8
0
10
2588.259060
20
1278.949953
30
0.0
11
2587.205802
21
1280.003211
31
0.0
0
LINE
8
0
10
2561.025113
20
1276.499938
30
0.0
11
2561.147564
21
1276.645869
31
0.0
0
LINE
8
0
10
2562.494525
20
1278.251115
30
0.0
11
2562.616976
21
1278.397047
31
0.0
0
LINE
8
0
10
2561.377547
20
1274.589369
30
0.0
11
2561.499998
21
1274.735301
31
0.0
0
LINE
8
0
10
2562.846959
20
1276.340547
30
0.0
11
2562.969410
21
1276.486478
31
0.0
0
LINE
8
0
10
2564.316372
20
1278.091724
30
0.0
11
2564.438823
21
1278.237656
31
0.0
0
LINE
8
0
10
2561.729981
20
1272.678801
30
0.0
11
2561.852432
21
1272.824732
31
0.0
0
LINE
8
0
10
2563.199393
20
1274.429978
30
0.0
11
2563.321844
21
1274.575910
31
0.0
0
LINE
8
0
10
2564.668806
20
1276.181156
30
0.0
11
2564.791257
21
1276.327087
31
0.0
0
LINE
8
0
10
2566.138218
20
1277.932333
30
0.0
11
2566.260669
21
1278.078265
31
0.0
0
LINE
8
0
10
2567.607631
20
1279.683511
30
0.0
11
2567.730082
21
1279.829443
31
0.0
0
LINE
8
0
10
2562.082415
20
1270.768232
30
0.0
11
2562.204866
21
1270.914164
31
0.0
0
LINE
8
0
10
2563.551828
20
1272.519410
30
0.0
11
2563.674279
21
1272.665341
31
0.0
0
LINE
8
0
10
2565.021240
20
1274.270587
30
0.0
11
2565.143691
21
1274.416519
31
0.0
0
LINE
8
0
10
2566.490653
20
1276.021765
30
0.0
11
2566.613104
21
1276.167696
31
0.0
0
LINE
8
0
10
2567.960065
20
1277.772943
30
0.0
11
2568.082516
21
1277.918874
31
0.0
0
LINE
8
0
10
2569.429478
20
1279.524120
30
0.0
11
2569.551929
21
1279.670052
31
0.0
0
LINE
8
0
10
2562.434849
20
1268.857664
30
0.0
11
2562.557300
21
1269.003595
31
0.0
0
LINE
8
0
10
2563.904262
20
1270.608841
30
0.0
11
2564.026713
21
1270.754773
31
0.0
0
LINE
8
0
10
2565.373674
20
1272.360019
30
0.0
11
2565.496125
21
1272.505950
31
0.0
0
LINE
8
0
10
2566.843087
20
1274.111197
30
0.0
11
2566.965538
21
1274.257128
31
0.0
0
LINE
8
0
10
2568.312499
20
1275.862374
30
0.0
11
2568.434950
21
1276.008306
31
0.0
0
LINE
8
0
10
2569.781912
20
1277.613552
30
0.0
11
2569.904363
21
1277.759483
31
0.0
0
LINE
8
0
10
2571.251324
20
1279.364729
30
0.0
11
2571.373775
21
1279.510661
31
0.0
0
LINE
8
0
10
2564.256696
20
1268.698273
30
0.0
11
2564.379147
21
1268.844204
31
0.0
0
LINE
8
0
10
2565.726109
20
1270.449450
30
0.0
11
2565.848560
21
1270.595382
31
0.0
0
LINE
8
0
10
2567.195521
20
1272.200628
30
0.0
11
2567.317972
21
1272.346560
31
0.0
0
LINE
8
0
10
2568.664934
20
1273.951806
30
0.0
11
2568.787385
21
1274.097737
31
0.0
0
LINE
8
0
10
2570.134346
20
1275.702983
30
0.0
11
2570.256797
21
1275.848915
31
0.0
0
LINE
8
0
10
2571.603758
20
1277.454161
30
0.0
11
2571.726210
21
1277.600092
31
0.0
0
LINE
8
0
10
2573.073171
20
1279.205338
30
0.0
11
2573.195622
21
1279.351270
31
0.0
0
LINE
8
0
10
2566.078543
20
1268.538882
30
0.0
11
2566.200994
21
1268.684813
31
0.0
0
LINE
8
0
10
2567.547955
20
1270.290060
30
0.0
11
2567.670406
21
1270.435991
31
0.0
0
LINE
8
0
10
2569.017368
20
1272.041237
30
0.0
11
2569.139819
21
1272.187169
31
0.0
0
LINE
8
0
10
2570.486780
20
1273.792415
30
0.0
11
2570.609231
21
1273.938346
31
0.0
0
LINE
8
0
10
2571.956193
20
1275.543592
30
0.0
11
2572.078644
21
1275.689524
31
0.0
0
LINE
8
0
10
2573.425605
20
1277.294770
30
0.0
11
2573.548056
21
1277.440701
31
0.0
0
LINE
8
0
10
2574.895018
20
1279.045948
30
0.0
11
2575.017469
21
1279.191879
31
0.0
0
LINE
8
0
10
2567.900389
20
1268.379491
30
0.0
11
2568.022841
21
1268.525423
31
0.0
0
LINE
8
0
10
2569.369802
20
1270.130669
30
0.0
11
2569.492253
21
1270.276600
31
0.0
0
LINE
8
0
10
2570.839214
20
1271.881846
30
0.0
11
2570.961665
21
1272.027778
31
0.0
0
LINE
8
0
10
2572.308627
20
1273.633024
30
0.0
11
2572.431078
21
1273.778955
31
0.0
0
LINE
8
0
10
2573.778039
20
1275.384202
30
0.0
11
2573.900490
21
1275.530133
31
0.0
0
LINE
8
0
10
2575.247452
20
1277.135379
30
0.0
11
2575.369903
21
1277.281311
31
0.0
0
LINE
8
0
10
2576.716864
20
1278.886557
30
0.0
11
2576.839315
21
1279.032488
31
0.0
0
LINE
8
0
10
2569.722236
20
1268.220100
30
0.0
11
2569.844687
21
1268.366032
31
0.0
0
LINE
8
0
10
2571.191649
20
1269.971278
30
0.0
11
2571.314100
21
1270.117209
31
0.0
0
LINE
8
0
10
2572.661061
20
1271.722456
30
0.0
11
2572.783512
21
1271.868387
31
0.0
0
LINE
8
0
10
2574.130474
20
1273.473633
30
0.0
11
2574.252925
21
1273.619565
31
0.0
0
LINE
8
0
10
2575.599886
20
1275.224811
30
0.0
11
2575.722337
21
1275.370742
31
0.0
0
LINE
8
0
10
2577.069299
20
1276.975988
30
0.0
11
2577.191750
21
1277.121920
31
0.0
0
LINE
8
0
10
2578.538711
20
1278.727166
30
0.0
11
2578.661162
21
1278.873097
31
0.0
0
LINE
8
0
10
2571.544083
20
1268.060709
30
0.0
11
2571.666534
21
1268.206641
31
0.0
0
LINE
8
0
10
2573.013495
20
1269.811887
30
0.0
11
2573.135946
21
1269.957819
31
0.0
0
LINE
8
0
10
2574.482908
20
1271.563065
30
0.0
11
2574.605359
21
1271.708996
31
0.0
0
LINE
8
0
10
2575.952320
20
1273.314242
30
0.0
11
2576.074771
21
1273.460174
31
0.0
0
LINE
8
0
10
2577.421733
20
1275.065420
30
0.0
11
2577.544184
21
1275.211351
31
0.0
0
LINE
8
0
10
2578.891145
20
1276.816597
30
0.0
11
2579.013596
21
1276.962529
31
0.0
0
LINE
8
0
10
2580.360558
20
1278.567775
30
0.0
11
2580.483009
21
1278.713707
31
0.0
0
LINE
8
0
10
2573.365930
20
1267.901319
30
0.0
11
2573.488381
21
1268.047250
31
0.0
0
LINE
8
0
10
2574.835342
20
1269.652496
30
0.0
11
2574.957793
21
1269.798428
31
0.0
0
LINE
8
0
10
2576.304754
20
1271.403674
30
0.0
11
2576.427206
21
1271.549605
31
0.0
0
LINE
8
0
10
2577.774167
20
1273.154851
30
0.0
11
2577.896618
21
1273.300783
31
0.0
0
LINE
8
0
10
2579.243579
20
1274.906029
30
0.0
11
2579.366030
21
1275.051960
31
0.0
0
LINE
8
0
10
2580.712992
20
1276.657207
30
0.0
11
2580.835443
21
1276.803138
31
0.0
0
LINE
8
0
10
2575.285332
20
1267.858190
30
0.0
11
2575.310227
21
1267.887859
31
0.0
0
LINE
8
0
10
2576.657189
20
1269.493105
30
0.0
11
2576.779640
21
1269.639037
31
0.0
0
LINE
8
0
10
2578.126601
20
1271.244283
30
0.0
11
2578.249052
21
1271.390214
31
0.0
0
LINE
8
0
10
2579.596014
20
1272.995461
30
0.0
11
2579.718465
21
1273.141392
31
0.0
0
LINE
8
0
10
2578.479035
20
1269.333714
30
0.0
11
2578.601486
21
1269.479646
31
0.0
0
LINE
8
0
10
2579.948448
20
1271.084892
30
0.0
11
2580.070899
21
1271.230824
31
0.0
0
LINE
8
0
10
2580.300882
20
1269.174324
30
0.0
11
2580.423333
21
1269.320255
31
0.0
0
LINE
8
0
10
2565.785797
20
1279.842809
30
0.0
11
2565.937618
21
1279.829527
31
0.0
0
LINE
8
0
10
2567.607638
20
1279.683419
30
0.0
11
2567.759458
21
1279.670136
31
0.0
0
LINE
8
0
10
2569.429479
20
1279.524028
30
0.0
11
2569.581299
21
1279.510746
31
0.0
0
LINE
8
0
10
2571.251320
20
1279.364638
30
0.0
11
2571.403140
21
1279.351355
31
0.0
0
LINE
8
0
10
2573.073161
20
1279.205248
30
0.0
11
2573.224981
21
1279.191965
31
0.0
0
LINE
8
0
10
2574.895002
20
1279.045857
30
0.0
11
2575.046822
21
1279.032575
31
0.0
0
LINE
8
0
10
2576.716843
20
1278.886467
30
0.0
11
2576.868663
21
1278.873184
31
0.0
0
LINE
8
0
10
2578.538684
20
1278.727076
30
0.0
11
2578.690504
21
1278.713794
31
0.0
0
LINE
8
0
10
2580.360524
20
1278.567686
30
0.0
11
2580.512344
21
1278.554403
31
0.0
0
LINE
8
0
10
2562.494544
20
1278.251024
30
0.0
11
2562.646364
21
1278.237741
31
0.0
0
LINE
8
0
10
2564.316385
20
1278.091633
30
0.0
11
2564.468205
21
1278.078351
31
0.0
0
LINE
8
0
10
2566.138226
20
1277.932243
30
0.0
11
2566.290046
21
1277.918960
31
0.0
0
LINE
8
0
10
2567.960067
20
1277.772852
30
0.0
11
2568.111887
21
1277.759570
31
0.0
0
LINE
8
0
10
2569.781907
20
1277.613462
30
0.0
11
2569.933728
21
1277.600179
31
0.0
0
LINE
8
0
10
2571.603748
20
1277.454072
30
0.0
11
2571.755568
21
1277.440789
31
0.0
0
LINE
8
0
10
2573.425589
20
1277.294681
30
0.0
11
2573.577409
21
1277.281399
31
0.0
0
LINE
8
0
10
2575.247430
20
1277.135291
30
0.0
11
2575.399250
21
1277.122008
31
0.0
0
LINE
8
0
10
2577.069271
20
1276.975900
30
0.0
11
2577.221091
21
1276.962618
31
0.0
0
LINE
8
0
10
2578.891112
20
1276.816510
30
0.0
11
2579.042932
21
1276.803227
31
0.0
0
LINE
8
0
10
2580.712953
20
1276.657119
30
0.0
11
2580.864773
21
1276.643837
31
0.0
0
LINE
8
0
10
2561.025131
20
1276.499848
30
0.0
11
2561.176951
21
1276.486565
31
0.0
0
LINE
8
0
10
2562.846972
20
1276.340457
30
0.0
11
2562.998792
21
1276.327175
31
0.0
0
LINE
8
0
10
2564.668813
20
1276.181067
30
0.0
11
2564.820633
21
1276.167784
31
0.0
0
LINE
8
0
10
2566.490654
20
1276.021676
30
0.0
11
2566.642474
21
1276.008394
31
0.0
0
LINE
8
0
10
2568.312495
20
1275.862286
30
0.0
11
2568.464315
21
1275.849003
31
0.0
0
LINE
8
0
10
2570.134336
20
1275.702896
30
0.0
11
2570.286156
21
1275.689613
31
0.0
0
LINE
8
0
10
2571.956177
20
1275.543505
30
0.0
11
2572.107997
21
1275.530223
31
0.0
0
LINE
8
0
10
2573.778017
20
1275.384115
30
0.0
11
2573.929838
21
1275.370832
31
0.0
0
LINE
8
0
10
2575.599858
20
1275.224724
30
0.0
11
2575.751678
21
1275.211442
31
0.0
0
LINE
8
0
10
2577.421699
20
1275.065334
30
0.0
11
2577.573519
21
1275.052051
31
0.0
0
LINE
8
0
10
2579.243540
20
1274.905943
30
0.0
11
2579.395360
21
1274.892661
31
0.0
0
LINE
8
0
10
2561.377560
20
1274.589281
30
0.0
11
2561.529380
21
1274.575999
31
0.0
0
LINE
8
0
10
2563.199401
20
1274.429891
30
0.0
11
2563.351221
21
1274.416608
31
0.0
0
LINE
8
0
10
2565.021241
20
1274.270500
30
0.0
11
2565.173061
21
1274.257218
31
0.0
0
LINE
8
0
10
2566.843082
20
1274.111110
30
0.0
11
2566.994902
21
1274.097827
31
0.0
0
LINE
8
0
10
2568.664923
20
1273.951720
30
0.0
11
2568.816743
21
1273.938437
31
0.0
0
LINE
8
0
10
2570.486764
20
1273.792329
30
0.0
11
2570.638584
21
1273.779047
31
0.0
0
LINE
8
0
10
2572.308605
20
1273.632939
30
0.0
11
2572.460425
21
1273.619656
31
0.0
0
LINE
8
0
10
2574.130446
20
1273.473548
30
0.0
11
2574.282266
21
1273.460266
31
0.0
0
LINE
8
0
10
2575.952287
20
1273.314158
30
0.0
11
2576.104107
21
1273.300875
31
0.0
0
LINE
8
0
10
2577.774127
20
1273.154767
30
0.0
11
2577.925947
21
1273.141485
31
0.0
0
LINE
8
0
10
2579.595968
20
1272.995377
30
0.0
11
2579.747788
21
1272.982094
31
0.0
0
LINE
8
0
10
2561.729988
20
1272.678715
30
0.0
11
2561.881808
21
1272.665432
31
0.0
0
LINE
8
0
10
2563.551829
20
1272.519324
30
0.0
11
2563.703649
21
1272.506042
31
0.0
0
LINE
8
0
10
2565.373670
20
1272.359934
30
0.0
11
2565.525490
21
1272.346651
31
0.0
0
LINE
8
0
10
2567.195510
20
1272.200543
30
0.0
11
2567.347331
21
1272.187261
31
0.0
0
LINE
8
0
10
2569.017351
20
1272.041153
30
0.0
11
2569.169171
21
1272.027871
31
0.0
0
LINE
8
0
10
2570.839192
20
1271.881763
30
0.0
11
2570.991012
21
1271.868480
31
0.0
0
LINE
8
0
10
2572.661033
20
1271.722372
30
0.0
11
2572.812853
21
1271.709090
31
0.0
0
LINE
8
0
10
2574.482874
20
1271.562982
30
0.0
11
2574.634694
21
1271.549699
31
0.0
0
LINE
8
0
10
2576.304715
20
1271.403591
30
0.0
11
2576.456535
21
1271.390309
31
0.0
0
LINE
8
0
10
2578.126556
20
1271.244201
30
0.0
11
2578.278376
21
1271.230918
31
0.0
0
LINE
8
0
10
2579.948397
20
1271.084811
30
0.0
11
2580.100217
21
1271.071528
31
0.0
0
LINE
8
0
10
2562.082416
20
1270.768148
30
0.0
11
2562.234236
21
1270.754866
31
0.0
0
LINE
8
0
10
2563.904257
20
1270.608758
30
0.0
11
2564.056077
21
1270.595475
31
0.0
0
LINE
8
0
10
2565.726098
20
1270.449367
30
0.0
11
2565.877918
21
1270.436085
31
0.0
0
LINE
8
0
10
2567.547939
20
1270.289977
30
0.0
11
2567.699759
21
1270.276695
31
0.0
0
LINE
8
0
10
2569.369780
20
1270.130587
30
0.0
11
2569.521600
21
1270.117304
31
0.0
0
LINE
8
0
10
2571.191620
20
1269.971196
30
0.0
11
2571.343441
21
1269.957914
31
0.0
0
LINE
8
0
10
2573.013461
20
1269.811806
30
0.0
11
2573.165281
21
1269.798523
31
0.0
0
LINE
8
0
10
2574.835302
20
1269.652415
30
0.0
11
2574.987122
21
1269.639133
31
0.0
0
LINE
8
0
10
2576.657143
20
1269.493025
30
0.0
11
2576.808963
21
1269.479742
31
0.0
0
LINE
8
0
10
2578.478984
20
1269.333635
30
0.0
11
2578.630804
21
1269.320352
31
0.0
0
LINE
8
0
10
2580.300825
20
1269.174244
30
0.0
11
2580.452645
21
1269.160962
31
0.0
0
LINE
8
0
10
2562.434844
20
1268.857582
30
0.0
11
2562.586664
21
1268.844299
31
0.0
0
LINE
8
0
10
2564.256685
20
1268.698191
30
0.0
11
2564.408505
21
1268.684909
31
0.0
0
LINE
8
0
10
2566.078526
20
1268.538801
30
0.0
11
2566.230346
21
1268.525519
31
0.0
0
LINE
8
0
10
2567.900367
20
1268.379411
30
0.0
11
2568.052187
21
1268.366128
31
0.0
0
LINE
8
0
10
2569.722208
20
1268.220020
30
0.0
11
2569.874028
21
1268.206738
31
0.0
0
LINE
8
0
10
2571.544049
20
1268.060630
30
0.0
11
2571.695869
21
1268.047347
31
0.0
0
LINE
8
0
10
2573.365890
20
1267.901239
30
0.0
11
2573.517710
21
1267.887957
31
0.0
0
LINE
8
0
10
2562.587305
20
1268.843800
30
0.0
11
2562.557937
21
1269.003014
31
0.0
0
LINE
8
0
10
2562.234892
20
1270.754370
30
0.0
11
2562.205524
21
1270.913584
31
0.0
0
LINE
8
0
10
2561.882478
20
1272.664939
30
0.0
11
2561.853110
21
1272.824153
31
0.0
0
LINE
8
0
10
2561.530065
20
1274.575509
30
0.0
11
2561.500697
21
1274.734723
31
0.0
0
LINE
8
0
10
2561.177651
20
1276.486079
30
0.0
11
2561.148284
21
1276.645293
31
0.0
0
LINE
8
0
10
2564.409143
20
1268.684397
30
0.0
11
2564.379776
21
1268.843611
31
0.0
0
LINE
8
0
10
2564.056730
20
1270.594967
30
0.0
11
2564.027362
21
1270.754181
31
0.0
0
LINE
8
0
10
2563.704317
20
1272.505536
30
0.0
11
2563.674949
21
1272.664751
31
0.0
0
LINE
8
0
10
2563.351903
20
1274.416106
30
0.0
11
2563.322535
21
1274.575320
31
0.0
0
LINE
8
0
10
2562.999490
20
1276.326676
30
0.0
11
2562.970122
21
1276.485890
31
0.0
0
LINE
8
0
10
2562.647076
20
1278.237246
30
0.0
11
2562.617709
21
1278.396460
31
0.0
0
LINE
8
0
10
2566.230982
20
1268.524994
30
0.0
11
2566.201614
21
1268.684208
31
0.0
0
LINE
8
0
10
2565.878568
20
1270.435564
30
0.0
11
2565.849201
21
1270.594778
31
0.0
0
LINE
8
0
10
2565.526155
20
1272.346134
30
0.0
11
2565.496787
21
1272.505348
31
0.0
0
LINE
8
0
10
2565.173742
20
1274.256703
30
0.0
11
2565.144374
21
1274.415918
31
0.0
0
LINE
8
0
10
2564.821328
20
1276.167273
30
0.0
11
2564.791960
21
1276.326487
31
0.0
0
LINE
8
0
10
2564.468915
20
1278.077843
30
0.0
11
2564.439547
21
1278.237057
31
0.0
0
LINE
8
0
10
2568.052820
20
1268.365591
30
0.0
11
2568.023452
21
1268.524806
31
0.0
0
LINE
8
0
10
2567.700407
20
1270.276161
30
0.0
11
2567.671039
21
1270.435375
31
0.0
0
LINE
8
0
10
2567.347993
20
1272.186731
30
0.0
11
2567.318626
21
1272.345945
31
0.0
0
LINE
8
0
10
2566.995580
20
1274.097301
30
0.0
11
2566.966212
21
1274.256515
31
0.0
0
LINE
8
0
10
2566.643167
20
1276.007870
30
0.0
11
2566.613799
21
1276.167084
31
0.0
0
LINE
8
0
10
2566.290753
20
1277.918440
30
0.0
11
2566.261385
21
1278.077654
31
0.0
0
LINE
8
0
10
2565.938340
20
1279.829010
30
0.0
11
2565.932957
21
1279.858190
31
0.0
0
LINE
8
0
10
2569.874658
20
1268.206189
30
0.0
11
2569.845291
21
1268.365403
31
0.0
0
LINE
8
0
10
2569.522245
20
1270.116758
30
0.0
11
2569.492877
21
1270.275972
31
0.0
0
LINE
8
0
10
2569.169832
20
1272.027328
30
0.0
11
2569.140464
21
1272.186542
31
0.0
0
LINE
8
0
10
2568.817418
20
1273.937898
30
0.0
11
2568.788051
21
1274.097112
31
0.0
0
LINE
8
0
10
2568.465005
20
1275.848467
30
0.0
11
2568.435637
21
1276.007682
31
0.0
0
LINE
8
0
10
2568.112592
20
1277.759037
30
0.0
11
2568.083224
21
1277.918251
31
0.0
0
LINE
8
0
10
2567.760178
20
1279.669607
30
0.0
11
2567.730810
21
1279.828821
31
0.0
0
LINE
8
0
10
2571.696497
20
1268.046786
30
0.0
11
2571.667129
21
1268.206000
31
0.0
0
LINE
8
0
10
2571.344083
20
1269.957355
30
0.0
11
2571.314716
21
1270.116570
31
0.0
0
LINE
8
0
10
2570.991670
20
1271.867925
30
0.0
11
2570.962302
21
1272.027139
31
0.0
0
LINE
8
0
10
2570.639257
20
1273.778495
30
0.0
11
2570.609889
21
1273.937709
31
0.0
0
LINE
8
0
10
2570.286843
20
1275.689065
30
0.0
11
2570.257476
21
1275.848279
31
0.0
0
LINE
8
0
10
2569.934430
20
1277.599634
30
0.0
11
2569.905062
21
1277.758848
31
0.0
0
LINE
8
0
10
2569.582017
20
1279.510204
30
0.0
11
2569.552649
21
1279.669418
31
0.0
0
LINE
8
0
10
2573.518335
20
1267.887383
30
0.0
11
2573.488967
21
1268.046597
31
0.0
0
LINE
8
0
10
2573.165922
20
1269.797953
30
0.0
11
2573.136554
21
1269.957167
31
0.0
0
LINE
8
0
10
2572.813508
20
1271.708522
30
0.0
11
2572.784141
21
1271.867736
31
0.0
0
LINE
8
0
10
2572.461095
20
1273.619092
30
0.0
11
2572.431727
21
1273.778306
31
0.0
0
LINE
8
0
10
2572.108682
20
1275.529662
30
0.0
11
2572.079314
21
1275.688876
31
0.0
0
LINE
8
0
10
2571.756268
20
1277.440231
30
0.0
11
2571.726901
21
1277.599446
31
0.0
0
LINE
8
0
10
2571.403855
20
1279.350801
30
0.0
11
2571.374487
21
1279.510015
31
0.0
0
LINE
8
0
10
2575.316156
20
1267.858190
30
0.0
11
2575.310806
21
1267.887194
31
0.0
0
LINE
8
0
10
2574.987760
20
1269.638550
30
0.0
11
2574.958392
21
1269.797764
31
0.0
0
LINE
8
0
10
2574.635347
20
1271.549119
30
0.0
11
2574.605979
21
1271.708334
31
0.0
0
LINE
8
0
10
2574.282933
20
1273.459689
30
0.0
11
2574.253566
21
1273.618903
31
0.0
0
LINE
8
0
10
2573.930520
20
1275.370259
30
0.0
11
2573.901152
21
1275.529473
31
0.0
0
LINE
8
0
10
2573.578107
20
1277.280829
30
0.0
11
2573.548739
21
1277.440043
31
0.0
0
LINE
8
0
10
2573.225693
20
1279.191398
30
0.0
11
2573.196326
21
1279.350612
31
0.0
0
LINE
8
0
10
2576.809599
20
1269.479147
30
0.0
11
2576.780231
21
1269.638361
31
0.0
0
LINE
8
0
10
2576.457185
20
1271.389717
30
0.0
11
2576.427817
21
1271.548931
31
0.0
0
LINE
8
0
10
2576.104772
20
1273.300286
30
0.0
11
2576.075404
21
1273.459500
31
0.0
0
LINE
8
0
10
2575.752359
20
1275.210856
30
0.0
11
2575.722991
21
1275.370070
31
0.0
0
LINE
8
0
10
2575.399945
20
1277.121426
30
0.0
11
2575.370577
21
1277.280640
31
0.0
0
LINE
8
0
10
2575.047532
20
1279.031995
30
0.0
11
2575.018164
21
1279.191210
31
0.0
0
LINE
8
0
10
2578.631437
20
1269.319744
30
0.0
11
2578.602069
21
1269.478958
31
0.0
0
LINE
8
0
10
2578.279024
20
1271.230314
30
0.0
11
2578.249656
21
1271.389528
31
0.0
0
LINE
8
0
10
2577.926610
20
1273.140883
30
0.0
11
2577.897242
21
1273.300098
31
0.0
0
LINE
8
0
10
2577.574197
20
1275.051453
30
0.0
11
2577.544829
21
1275.210667
31
0.0
0
LINE
8
0
10
2577.221784
20
1276.962023
30
0.0
11
2577.192416
21
1277.121237
31
0.0
0
LINE
8
0
10
2576.869370
20
1278.872593
30
0.0
11
2576.840002
21
1279.031807
31
0.0
0
LINE
8
0
10
2580.453275
20
1269.160341
30
0.0
11
2580.423908
21
1269.319555
31
0.0
0
LINE
8
0
10
2580.100862
20
1271.070911
30
0.0
11
2580.071494
21
1271.230125
31
0.0
0
LINE
8
0
10
2579.748449
20
1272.981481
30
0.0
11
2579.719081
21
1273.140695
31
0.0
0
LINE
8
0
10
2579.396035
20
1274.892050
30
0.0
11
2579.366668
21
1275.051264
31
0.0
0
LINE
8
0
10
2579.043622
20
1276.802620
30
0.0
11
2579.014254
21
1276.961834
31
0.0
0
LINE
8
0
10
2578.691209
20
1278.713190
30
0.0
11
2578.661841
21
1278.872404
31
0.0
0
LINE
8
0
10
2580.865460
20
1276.643217
30
0.0
11
2580.836093
21
1276.802431
31
0.0
0
LINE
8
0
10
2580.513047
20
1278.553787
30
0.0
11
2580.483679
21
1278.713001
31
0.0
0
LINE
8
0
10
2561.415368
20
1277.221515
30
0.0
11
2561.613204
21
1277.427704
31
0.0
0
LINE
8
0
10
2563.789409
20
1279.695777
30
0.0
11
2563.945244
21
1279.858190
31
0.0
0
LINE
8
0
10
2561.752117
20
1274.326831
30
0.0
11
2561.949953
21
1274.533019
31
0.0
0
LINE
8
0
10
2564.126158
20
1276.801092
30
0.0
11
2564.323995
21
1277.007281
31
0.0
0
LINE
8
0
10
2566.500199
20
1279.275353
30
0.0
11
2566.698036
21
1279.481542
31
0.0
0
LINE
8
0
10
2562.088866
20
1271.432146
30
0.0
11
2562.286702
21
1271.638335
31
0.0
0
LINE
8
0
10
2564.462907
20
1273.906408
30
0.0
11
2564.660744
21
1274.112596
31
0.0
0
LINE
8
0
10
2566.836948
20
1276.380669
30
0.0
11
2567.034785
21
1276.586857
31
0.0
0
LINE
8
0
10
2569.210990
20
1278.854930
30
0.0
11
2569.408826
21
1279.061119
31
0.0
0
LINE
8
0
10
2562.425615
20
1268.537462
30
0.0
11
2562.623452
21
1268.743650
31
0.0
0
LINE
8
0
10
2564.799656
20
1271.011723
30
0.0
11
2564.997493
21
1271.217912
31
0.0
0
LINE
8
0
10
2567.173697
20
1273.485984
30
0.0
11
2567.371534
21
1273.692173
31
0.0
0
LINE
8
0
10
2569.547739
20
1275.960246
30
0.0
11
2569.745576
21
1276.166434
31
0.0
0
LINE
8
0
10
2571.921780
20
1278.434507
30
0.0
11
2572.119617
21
1278.640695
31
0.0
0
LINE
8
0
10
2565.136405
20
1268.117039
30
0.0
11
2565.334242
21
1268.323227
31
0.0
0
LINE
8
0
10
2567.510446
20
1270.591300
30
0.0
11
2567.708283
21
1270.797488
31
0.0
0
LINE
8
0
10
2569.884488
20
1273.065561
30
0.0
11
2570.082325
21
1273.271749
31
0.0
0
LINE
8
0
10
2572.258529
20
1275.539822
30
0.0
11
2572.456366
21
1275.746011
31
0.0
0
LINE
8
0
10
2574.632570
20
1278.014084
30
0.0
11
2574.830407
21
1278.220272
31
0.0
0
LINE
8
0
10
2568.002226
20
1267.858190
30
0.0
11
2568.045032
21
1267.902804
31
0.0
0
LINE
8
0
10
2570.221237
20
1270.170877
30
0.0
11
2570.419074
21
1270.377065
31
0.0
0
LINE
8
0
10
2572.595278
20
1272.645138
30
0.0
11
2572.793115
21
1272.851326
31
0.0
0
LINE
8
0
10
2574.969320
20
1275.119399
30
0.0
11
2575.167156
21
1275.325587
31
0.0
0
LINE
8
0
10
2577.343361
20
1277.593660
30
0.0
11
2577.541198
21
1277.799849
31
0.0
0
LINE
8
0
10
2572.932027
20
1269.750453
30
0.0
11
2573.129864
21
1269.956642
31
0.0
0
LINE
8
0
10
2575.306069
20
1272.224714
30
0.0
11
2575.503905
21
1272.430903
31
0.0
0
LINE
8
0
10
2577.680110
20
1274.698976
30
0.0
11
2577.877947
21
1274.905164
31
0.0
0
LINE
8
0
10
2580.054151
20
1277.173237
30
0.0
11
2580.251988
21
1277.379425
31
0.0
0
LINE
8
0
10
2575.642818
20
1269.330030
30
0.0
11
2575.840654
21
1269.536218
31
0.0
0
LINE
8
0
10
2578.016859
20
1271.804291
30
0.0
11
2578.214696
21
1272.010480
31
0.0
0
LINE
8
0
10
2580.390900
20
1274.278552
30
0.0
11
2580.588737
21
1274.484741
31
0.0
0
LINE
8
0
10
2578.353608
20
1268.909607
30
0.0
11
2578.551445
21
1269.115795
31
0.0
0
LINE
8
0
10
2580.727649
20
1271.383868
30
0.0
11
2580.925486
21
1271.590056
31
0.0
0
LINE
8
0
10
2562.651549
20
1268.502221
30
0.0
11
2562.623487
21
1268.743444
31
0.0
0
LINE
8
0
10
2562.314801
20
1271.396899
30
0.0
11
2562.286738
21
1271.638122
31
0.0
0
LINE
8
0
10
2561.978052
20
1274.291577
30
0.0
11
2561.949990
21
1274.532801
31
0.0
0
LINE
8
0
10
2561.641304
20
1277.186256
30
0.0
11
2561.613241
21
1277.427479
31
0.0
0
LINE
8
0
10
2565.362340
20
1268.081798
30
0.0
11
2565.334277
21
1268.323021
31
0.0
0
LINE
8
0
10
2565.025591
20
1270.976476
30
0.0
11
2564.997529
21
1271.217700
31
0.0
0
LINE
8
0
10
2564.688843
20
1273.871155
30
0.0
11
2564.660781
21
1274.112378
31
0.0
0
LINE
8
0
10
2564.352094
20
1276.765833
30
0.0
11
2564.324032
21
1277.007056
31
0.0
0
LINE
8
0
10
2564.015346
20
1279.660511
30
0.0
11
2563.992349
21
1279.858190
31
0.0
0
LINE
8
0
10
2568.050234
20
1267.858190
30
0.0
11
2568.045068
21
1267.902599
31
0.0
0
LINE
8
0
10
2567.736382
20
1270.556054
30
0.0
11
2567.708320
21
1270.797277
31
0.0
0
LINE
8
0
10
2567.399634
20
1273.450732
30
0.0
11
2567.371571
21
1273.691955
31
0.0
0
LINE
8
0
10
2567.062885
20
1276.345410
30
0.0
11
2567.034823
21
1276.586633
31
0.0
0
LINE
8
0
10
2566.726137
20
1279.240088
30
0.0
11
2566.698074
21
1279.481312
31
0.0
0
LINE
8
0
10
2570.447173
20
1270.135631
30
0.0
11
2570.419111
21
1270.376854
31
0.0
0
LINE
8
0
10
2570.110425
20
1273.030309
30
0.0
11
2570.082362
21
1273.271533
31
0.0
0
LINE
8
0
10
2569.773676
20
1275.924988
30
0.0
11
2569.745614
21
1276.166211
31
0.0
0
LINE
8
0
10
2569.436928
20
1278.819666
30
0.0
11
2569.408865
21
1279.060889
31
0.0
0
LINE
8
0
10
2573.157964
20
1269.715208
30
0.0
11
2573.129901
21
1269.956432
31
0.0
0
LINE
8
0
10
2572.821215
20
1272.609887
30
0.0
11
2572.793153
21
1272.851110
31
0.0
0
LINE
8
0
10
2572.484467
20
1275.504565
30
0.0
11
2572.456405
21
1275.745788
31
0.0
0
LINE
8
0
10
2572.147718
20
1278.399243
30
0.0
11
2572.119656
21
1278.640466
31
0.0
0
LINE
8
0
10
2575.868755
20
1269.294786
30
0.0
11
2575.840692
21
1269.536009
31
0.0
0
LINE
8
0
10
2575.532006
20
1272.189464
30
0.0
11
2575.503944
21
1272.430687
31
0.0
0
LINE
8
0
10
2575.195258
20
1275.084142
30
0.0
11
2575.167195
21
1275.325365
31
0.0
0
LINE
8
0
10
2574.858509
20
1277.978820
30
0.0
11
2574.830447
21
1278.220044
31
0.0
0
LINE
8
0
10
2578.579546
20
1268.874363
30
0.0
11
2578.551483
21
1269.115586
31
0.0
0
LINE
8
0
10
2578.242797
20
1271.769041
30
0.0
11
2578.214735
21
1272.010264
31
0.0
0
LINE
8
0
10
2577.906049
20
1274.663720
30
0.0
11
2577.877986
21
1274.904943
31
0.0
0
LINE
8
0
10
2577.569300
20
1277.558398
30
0.0
11
2577.541238
21
1277.799621
31
0.0
0
LINE
8
0
10
2580.953588
20
1271.348619
30
0.0
11
2580.925525
21
1271.589842
31
0.0
0
LINE
8
0
10
2580.616839
20
1274.243297
30
0.0
11
2580.588777
21
1274.484520
31
0.0
0
LINE
8
0
10
2580.280091
20
1277.137975
30
0.0
11
2580.252029
21
1277.379198
31
0.0
0
LINE
8
0
10
2563.789596
20
1279.695396
30
0.0
11
2564.015495
21
1279.660361
31
0.0
0
LINE
8
0
10
2566.500386
20
1279.274969
30
0.0
11
2566.726286
21
1279.239933
31
0.0
0
LINE
8
0
10
2569.211177
20
1278.854541
30
0.0
11
2569.437076
21
1278.819505
31
0.0
0
LINE
8
0
10
2571.921968
20
1278.434113
30
0.0
11
2572.147867
21
1278.399077
31
0.0
0
LINE
8
0
10
2574.632759
20
1278.013685
30
0.0
11
2574.858658
21
1277.978650
31
0.0
0
LINE
8
0
10
2577.343550
20
1277.593258
30
0.0
11
2577.569449
21
1277.558222
31
0.0
0
LINE
8
0
10
2580.054340
20
1277.172830
30
0.0
11
2580.280240
21
1277.137794
31
0.0
0
LINE
8
0
10
2561.415550
20
1277.221145
30
0.0
11
2561.641449
21
1277.186110
31
0.0
0
LINE
8
0
10
2564.126340
20
1276.800717
30
0.0
11
2564.352240
21
1276.765682
31
0.0
0
LINE
8
0
10
2566.837131
20
1276.380290
30
0.0
11
2567.063030
21
1276.345254
31
0.0
0
LINE
8
0
10
2569.547922
20
1275.959862
30
0.0
11
2569.773821
21
1275.924826
31
0.0
0
LINE
8
0
10
2572.258713
20
1275.539434
30
0.0
11
2572.484612
21
1275.504398
31
0.0
0
LINE
8
0
10
2574.969504
20
1275.119006
30
0.0
11
2575.195403
21
1275.083971
31
0.0
0
LINE
8
0
10
2577.680294
20
1274.698579
30
0.0
11
2577.906194
21
1274.663543
31
0.0
0
LINE
8
0
10
2580.391085
20
1274.278151
30
0.0
11
2580.616984
21
1274.243115
31
0.0
0
LINE
8
0
10
2561.752294
20
1274.326466
30
0.0
11
2561.978194
21
1274.291431
31
0.0
0
LINE
8
0
10
2564.463085
20
1273.906038
30
0.0
11
2564.688984
21
1273.871003
31
0.0
0
LINE
8
0
10
2567.173876
20
1273.485611
30
0.0
11
2567.399775
21
1273.450575
31
0.0
0
LINE
8
0
10
2569.884667
20
1273.065183
30
0.0
11
2570.110566
21
1273.030147
31
0.0
0
LINE
8
0
10
2572.595457
20
1272.644755
30
0.0
11
2572.821357
21
1272.609720
31
0.0
0
LINE
8
0
10
2575.306248
20
1272.224327
30
0.0
11
2575.532148
21
1272.189292
31
0.0
0
LINE
8
0
10
2578.017039
20
1271.803900
30
0.0
11
2578.242938
21
1271.768864
31
0.0
0
LINE
8
0
10
2580.727830
20
1271.383472
30
0.0
11
2580.953729
21
1271.348436
31
0.0
0
LINE
8
0
10
2562.089039
20
1271.431787
30
0.0
11
2562.314938
21
1271.396752
31
0.0
0
LINE
8
0
10
2564.799830
20
1271.011360
30
0.0
11
2565.025729
21
1270.976324
31
0.0
0
LINE
8
0
10
2567.510621
20
1270.590932
30
0.0
11
2567.736520
21
1270.555896
31
0.0
0
LINE
8
0
10
2570.221411
20
1270.170504
30
0.0
11
2570.447311
21
1270.135468
31
0.0
0
LINE
8
0
10
2572.932202
20
1269.750076
30
0.0
11
2573.158101
21
1269.715041
31
0.0
0
LINE
8
0
10
2575.642993
20
1269.329649
30
0.0
11
2575.868892
21
1269.294613
31
0.0
0
LINE
8
0
10
2578.353784
20
1268.909221
30
0.0
11
2578.579683
21
1268.874185
31
0.0
0
LINE
8
0
10
2562.425784
20
1268.537108
30
0.0
11
2562.651683
21
1268.502073
31
0.0
0
LINE
8
0
10
2565.136575
20
1268.116681
30
0.0
11
2565.362474
21
1268.081645
31
0.0
0
LINE
8
0
10
2561.048370
20
1279.200620
30
0.0
11
2561.226217
21
1279.268889
31
0.0
0
LINE
8
0
10
2562.564519
20
1278.177964
30
0.0
11
2562.742366
21
1278.246233
31
0.0
0
LINE
8
0
10
2564.698684
20
1278.997194
30
0.0
11
2564.876531
21
1279.065463
31
0.0
0
LINE
8
0
10
2566.832849
20
1279.816423
30
0.0
11
2566.941658
21
1279.858190
31
0.0
0
LINE
8
0
10
2561.946503
20
1276.336080
30
0.0
11
2562.124350
21
1276.404349
31
0.0
0
LINE
8
0
10
2564.080668
20
1277.155309
30
0.0
11
2564.258515
21
1277.223578
31
0.0
0
LINE
8
0
10
2566.214833
20
1277.974538
30
0.0
11
2566.392680
21
1278.042807
31
0.0
0
LINE
8
0
10
2568.348998
20
1278.793767
30
0.0
11
2568.526845
21
1278.862037
31
0.0
0
LINE
8
0
10
2570.483162
20
1279.612997
30
0.0
11
2570.661010
21
1279.681266
31
0.0
0
LINE
8
0
10
2561.328487
20
1274.494196
30
0.0
11
2561.506334
21
1274.562465
31
0.0
0
LINE
8
0
10
2563.462652
20
1275.313425
30
0.0
11
2563.640499
21
1275.381694
31
0.0
0
LINE
8
0
10
2565.596817
20
1276.132654
30
0.0
11
2565.774664
21
1276.200923
31
0.0
0
LINE
8
0
10
2567.730982
20
1276.951883
30
0.0
11
2567.908829
21
1277.020152
31
0.0
0
LINE
8
0
10
2569.865146
20
1277.771112
30
0.0
11
2570.042993
21
1277.839381
31
0.0
0
LINE
8
0
10
2571.999311
20
1278.590341
30
0.0
11
2572.177158
21
1278.658611
31
0.0
0
LINE
8
0
10
2574.133476
20
1279.409571
30
0.0
11
2574.311323
21
1279.477840
31
0.0
0
LINE
8
0
10
2562.844636
20
1273.471541
30
0.0
11
2563.022483
21
1273.539810
31
0.0
0
LINE
8
0
10
2564.978801
20
1274.290770
30
0.0
11
2565.156648
21
1274.359039
31
0.0
0
LINE
8
0
10
2567.112965
20
1275.109999
30
0.0
11
2567.290813
21
1275.178268
31
0.0
0
LINE
8
0
10
2569.247130
20
1275.929228
30
0.0
11
2569.424977
21
1275.997497
31
0.0
0
LINE
8
0
10
2571.381295
20
1276.748457
30
0.0
11
2571.559142
21
1276.816726
31
0.0
0
LINE
8
0
10
2573.515460
20
1277.567686
30
0.0
11
2573.693307
21
1277.635955
31
0.0
0
LINE
8
0
10
2575.649625
20
1278.386915
30
0.0
11
2575.827472
21
1278.455184
31
0.0
0
LINE
8
0
10
2577.783790
20
1279.206145
30
0.0
11
2577.961637
21
1279.274414
31
0.0
0
LINE
8
0
10
2562.226620
20
1271.629656
30
0.0
11
2562.404467
21
1271.697925
31
0.0
0
LINE
8
0
10
2564.360785
20
1272.448885
30
0.0
11
2564.538632
21
1272.517154
31
0.0
0
LINE
8
0
10
2566.494949
20
1273.268115
30
0.0
11
2566.672796
21
1273.336384
31
0.0
0
LINE
8
0
10
2568.629114
20
1274.087344
30
0.0
11
2568.806961
21
1274.155613
31
0.0
0
LINE
8
0
10
2570.763279
20
1274.906573
30
0.0
11
2570.941126
21
1274.974842
31
0.0
0
LINE
8
0
10
2572.897444
20
1275.725802
30
0.0
11
2573.075291
21
1275.794071
31
0.0
0
LINE
8
0
10
2575.031609
20
1276.545031
30
0.0
11
2575.209456
21
1276.613300
31
0.0
0
LINE
8
0
10
2577.165774
20
1277.364260
30
0.0
11
2577.343621
21
1277.432529
31
0.0
0
LINE
8
0
10
2579.299939
20
1278.183489
30
0.0
11
2579.477786
21
1278.251758
31
0.0
0
LINE
8
0
10
2561.608604
20
1269.787772
30
0.0
11
2561.786451
21
1269.856041
31
0.0
0
LINE
8
0
10
2563.742769
20
1270.607001
30
0.0
11
2563.920616
21
1270.675270
31
0.0
0
LINE
8
0
10
2565.876933
20
1271.426230
30
0.0
11
2566.054780
21
1271.494499
31
0.0
0
LINE
8
0
10
2568.011098
20
1272.245459
30
0.0
11
2568.188945
21
1272.313728
31
0.0
0
LINE
8
0
10
2570.145263
20
1273.064688
30
0.0
11
2570.323110
21
1273.132958
31
0.0
0
LINE
8
0
10
2572.279428
20
1273.883918
30
0.0
11
2572.457275
21
1273.952187
31
0.0
0
LINE
8
0
10
2574.413593
20
1274.703147
30
0.0
11
2574.591440
21
1274.771416
31
0.0
0
LINE
8
0
10
2576.547758
20
1275.522376
30
0.0
11
2576.725605
21
1275.590645
31
0.0
0
LINE
8
0
10
2578.681922
20
1276.341605
30
0.0
11
2578.859770
21
1276.409874
31
0.0
0
LINE
8
0
10
2580.816087
20
1277.160834
30
0.0
11
2580.976350
21
1277.222353
31
0.0
0
LINE
8
0
10
2561.006800
20
1267.952111
30
0.0
11
2561.168435
21
1268.014157
31
0.0
0
LINE
8
0
10
2563.124752
20
1268.765117
30
0.0
11
2563.302600
21
1268.833386
31
0.0
0
LINE
8
0
10
2565.258917
20
1269.584346
30
0.0
11
2565.436764
21
1269.652615
31
0.0
0
LINE
8
0
10
2567.393082
20
1270.403575
30
0.0
11
2567.570929
21
1270.471844
31
0.0
0
LINE
8
0
10
2569.527247
20
1271.222804
30
0.0
11
2569.705094
21
1271.291073
31
0.0
0
LINE
8
0
10
2571.661412
20
1272.042033
30
0.0
11
2571.839259
21
1272.110302
31
0.0
0
LINE
8
0
10
2573.795577
20
1272.861262
30
0.0
11
2573.973424
21
1272.929532
31
0.0
0
LINE
8
0
10
2575.929742
20
1273.680492
30
0.0
11
2576.107589
21
1273.748761
31
0.0
0
LINE
8
0
10
2578.063906
20
1274.499721
30
0.0
11
2578.241754
21
1274.567990
31
0.0
0
LINE
8
0
10
2580.198071
20
1275.318950
30
0.0
11
2580.375918
21
1275.387219
31
0.0
0
LINE
8
0
10
2566.775066
20
1268.561691
30
0.0
11
2566.952913
21
1268.629960
31
0.0
0
LINE
8
0
10
2568.909231
20
1269.380920
30
0.0
11
2569.087078
21
1269.449189
31
0.0
0
LINE
8
0
10
2571.043396
20
1270.200149
30
0.0
11
2571.221243
21
1270.268418
31
0.0
0
LINE
8
0
10
2573.177561
20
1271.019378
30
0.0
11
2573.355408
21
1271.087647
31
0.0
0
LINE
8
0
10
2575.311726
20
1271.838607
30
0.0
11
2575.489573
21
1271.906876
31
0.0
0
LINE
8
0
10
2577.445890
20
1272.657836
30
0.0
11
2577.623737
21
1272.726105
31
0.0
0
LINE
8
0
10
2579.580055
20
1273.477065
30
0.0
11
2579.757902
21
1273.545335
31
0.0
0
LINE
8
0
10
2570.425380
20
1268.358265
30
0.0
11
2570.603227
21
1268.426534
31
0.0
0
LINE
8
0
10
2572.559545
20
1269.177494
30
0.0
11
2572.737392
21
1269.245763
31
0.0
0
LINE
8
0
10
2574.693709
20
1269.996723
30
0.0
11
2574.871557
21
1270.064992
31
0.0
0
LINE
8
0
10
2576.827874
20
1270.815952
30
0.0
11
2577.005721
21
1270.884221
31
0.0
0
LINE
8
0
10
2578.962039
20
1271.635181
30
0.0
11
2579.139886
21
1271.703450
31
0.0
0
LINE
8
0
10
2574.075693
20
1268.154839
30
0.0
11
2574.253540
21
1268.223108
31
0.0
0
LINE
8
0
10
2576.209858
20
1268.974068
30
0.0
11
2576.387705
21
1269.042337
31
0.0
0
LINE
8
0
10
2578.344023
20
1269.793297
30
0.0
11
2578.521870
21
1269.861566
31
0.0
0
LINE
8
0
10
2580.478188
20
1270.612526
30
0.0
11
2580.656035
21
1270.680795
31
0.0
0
LINE
8
0
10
2577.726007
20
1267.951413
30
0.0
11
2577.903854
21
1268.019682
31
0.0
0
LINE
8
0
10
2579.860172
20
1268.770642
30
0.0
11
2580.038019
21
1268.838911
31
0.0
0
LINE
8
0
10
2577.783937
20
1279.205910
30
0.0
11
2577.910282
21
1279.120689
31
0.0
0
LINE
8
0
10
2579.300081
20
1278.183258
30
0.0
11
2579.426426
21
1278.098037
31
0.0
0
LINE
8
0
10
2580.816225
20
1277.160606
30
0.0
11
2580.942570
21
1277.075385
31
0.0
0
LINE
8
0
10
2574.133629
20
1279.409335
30
0.0
11
2574.259974
21
1279.324114
31
0.0
0
LINE
8
0
10
2575.649773
20
1278.386683
30
0.0
11
2575.776118
21
1278.301462
31
0.0
0
LINE
8
0
10
2577.165917
20
1277.364031
30
0.0
11
2577.292262
21
1277.278810
31
0.0
0
LINE
8
0
10
2578.682061
20
1276.341379
30
0.0
11
2578.808406
21
1276.256158
31
0.0
0
LINE
8
0
10
2580.198205
20
1275.318727
30
0.0
11
2580.324550
21
1275.233506
31
0.0
0
LINE
8
0
10
2570.483321
20
1279.612759
30
0.0
11
2570.609666
21
1279.527538
31
0.0
0
LINE
8
0
10
2571.999465
20
1278.590107
30
0.0
11
2572.125810
21
1278.504886
31
0.0
0
LINE
8
0
10
2573.515609
20
1277.567455
30
0.0
11
2573.641954
21
1277.482234
31
0.0
0
LINE
8
0
10
2575.031753
20
1276.544803
30
0.0
11
2575.158098
21
1276.459582
31
0.0
0
LINE
8
0
10
2576.547897
20
1275.522151
30
0.0
11
2576.674242
21
1275.436930
31
0.0
0
LINE
8
0
10
2578.064040
20
1274.499499
30
0.0
11
2578.190386
21
1274.414278
31
0.0
0
LINE
8
0
10
2579.580184
20
1273.476847
30
0.0
11
2579.706530
21
1273.391626
31
0.0
0
LINE
8
0
10
2566.833013
20
1279.816183
30
0.0
11
2566.959358
21
1279.730962
31
0.0
0
LINE
8
0
10
2568.349157
20
1278.793531
30
0.0
11
2568.475502
21
1278.708310
31
0.0
0
LINE
8
0
10
2569.865301
20
1277.770879
30
0.0
11
2569.991646
21
1277.685658
31
0.0
0
LINE
8
0
10
2571.381445
20
1276.748227
30
0.0
11
2571.507790
21
1276.663006
31
0.0
0
LINE
8
0
10
2572.897588
20
1275.725575
30
0.0
11
2573.023934
21
1275.640354
31
0.0
0
LINE
8
0
10
2574.413732
20
1274.702923
30
0.0
11
2574.540078
21
1274.617702
31
0.0
0
LINE
8
0
10
2575.929876
20
1273.680271
30
0.0
11
2576.056222
21
1273.595050
31
0.0
0
LINE
8
0
10
2577.446020
20
1272.657619
30
0.0
11
2577.572365
21
1272.572398
31
0.0
0
LINE
8
0
10
2578.962164
20
1271.634967
30
0.0
11
2579.088509
21
1271.549746
31
0.0
0
LINE
8
0
10
2580.478308
20
1270.612315
30
0.0
11
2580.604653
21
1270.527094
31
0.0
0
LINE
8
0
10
2564.698849
20
1278.996956
30
0.0
11
2564.825194
21
1278.911735
31
0.0
0
LINE
8
0
10
2566.214992
20
1277.974304
30
0.0
11
2566.341338
21
1277.889083
31
0.0
0
LINE
8
0
10
2567.731136
20
1276.951652
30
0.0
11
2567.857482
21
1276.866431
31
0.0
0
LINE
8
0
10
2569.247280
20
1275.929000
30
0.0
11
2569.373626
21
1275.843779
31
0.0
0
LINE
8
0
10
2570.763424
20
1274.906348
30
0.0
11
2570.889770
21
1274.821127
31
0.0
0
LINE
8
0
10
2572.279568
20
1273.883696
30
0.0
11
2572.405913
21
1273.798475
31
0.0
0
LINE
8
0
10
2573.795712
20
1272.861044
30
0.0
11
2573.922057
21
1272.775823
31
0.0
0
LINE
8
0
10
2575.311856
20
1271.838392
30
0.0
11
2575.438201
21
1271.753171
31
0.0
0
LINE
8
0
10
2576.828000
20
1270.815740
30
0.0
11
2576.954345
21
1270.730519
31
0.0
0
LINE
8
0
10
2578.344144
20
1269.793088
30
0.0
11
2578.470489
21
1269.707867
31
0.0
0
LINE
8
0
10
2579.860288
20
1268.770436
30
0.0
11
2579.986633
21
1268.685215
31
0.0
0
LINE
8
0
10
2561.048540
20
1279.200380
30
0.0
11
2561.174886
21
1279.115159
31
0.0
0
LINE
8
0
10
2562.564684
20
1278.177728
30
0.0
11
2562.691030
21
1278.092507
31
0.0
0
LINE
8
0
10
2564.080828
20
1277.155076
30
0.0
11
2564.207174
21
1277.069855
31
0.0
0
LINE
8
0
10
2565.596972
20
1276.132424
30
0.0
11
2565.723318
21
1276.047203
31
0.0
0
LINE
8
0
10
2567.113116
20
1275.109772
30
0.0
11
2567.239461
21
1275.024551
31
0.0
0
LINE
8
0
10
2568.629260
20
1274.087120
30
0.0
11
2568.755605
21
1274.001899
31
0.0
0
LINE
8
0
10
2570.145404
20
1273.064468
30
0.0
11
2570.271749
21
1272.979247
31
0.0
0
LINE
8
0
10
2571.661548
20
1272.041816
30
0.0
11
2571.787893
21
1271.956595
31
0.0
0
LINE
8
0
10
2573.177692
20
1271.019164
30
0.0
11
2573.304037
21
1270.933943
31
0.0
0
LINE
8
0
10
2574.693836
20
1269.996512
30
0.0
11
2574.820181
21
1269.911291
31
0.0
0
LINE
8
0
10
2576.209980
20
1268.973860
30
0.0
11
2576.336325
21
1268.888639
31
0.0
0
LINE
8
0
10
2577.726123
20
1267.951208
30
0.0
11
2577.852469
21
1267.865987
31
0.0
0
LINE
8
0
10
2561.946664
20
1276.335848
30
0.0
11
2562.073009
21
1276.250627
31
0.0
0
LINE
8
0
10
2563.462808
20
1275.313196
30
0.0
11
2563.589153
21
1275.227975
31
0.0
0
LINE
8
0
10
2564.978952
20
1274.290544
30
0.0
11
2565.105297
21
1274.205323
31
0.0
0
LINE
8
0
10
2566.495096
20
1273.267892
30
0.0
11
2566.621441
21
1273.182671
31
0.0
0
LINE
8
0
10
2568.011240
20
1272.245240
30
0.0
11
2568.137585
21
1272.160019
31
0.0
0
LINE
8
0
10
2569.527384
20
1271.222588
30
0.0
11
2569.653729
21
1271.137367
31
0.0
0
LINE
8
0
10
2571.043528
20
1270.199936
30
0.0
11
2571.169873
21
1270.114715
31
0.0
0
LINE
8
0
10
2572.559671
20
1269.177284
30
0.0
11
2572.686017
21
1269.092063
31
0.0
0
LINE
8
0
10
2574.075815
20
1268.154632
30
0.0
11
2574.202161
21
1268.069411
31
0.0
0
LINE
8
0
10
2561.328644
20
1274.493969
30
0.0
11
2561.454989
21
1274.408748
31
0.0
0
LINE
8
0
10
2562.844788
20
1273.471317
30
0.0
11
2562.971133
21
1273.386096
31
0.0
0
LINE
8
0
10
2564.360932
20
1272.448665
30
0.0
11
2564.487277
21
1272.363444
31
0.0
0
LINE
8
0
10
2565.877076
20
1271.426013
30
0.0
11
2566.003421
21
1271.340792
31
0.0
0
LINE
8
0
10
2567.393219
20
1270.403361
30
0.0
11
2567.519565
21
1270.318140
31
0.0
0
LINE
8
0
10
2568.909363
20
1269.380709
30
0.0
11
2569.035709
21
1269.295488
31
0.0
0
LINE
8
0
10
2570.425507
20
1268.358057
30
0.0
11
2570.551853
21
1268.272836
31
0.0
0
LINE
8
0
10
2562.226767
20
1271.629437
30
0.0
11
2562.353113
21
1271.544216
31
0.0
0
LINE
8
0
10
2563.742911
20
1270.606785
30
0.0
11
2563.869257
21
1270.521564
31
0.0
0
LINE
8
0
10
2565.259055
20
1269.584133
30
0.0
11
2565.385401
21
1269.498912
31
0.0
0
LINE
8
0
10
2566.775199
20
1268.561481
30
0.0
11
2566.901544
21
1268.476260
31
0.0
0
LINE
8
0
10
2561.608747
20
1269.787557
30
0.0
11
2561.735092
21
1269.702336
31
0.0
0
LINE
8
0
10
2563.124891
20
1268.764905
30
0.0
11
2563.251236
21
1268.679684
31
0.0
0
LINE
8
0
10
2561.037899
20
1267.913860
30
0.0
11
2561.094393
21
1267.875754
31
0.0
0
LINE
8
0
10
2561.174980
20
1279.115179
30
0.0
11
2561.226482
21
1279.268669
31
0.0
0
LINE
8
0
10
2561.455079
20
1274.408769
30
0.0
11
2561.506581
21
1274.562259
31
0.0
0
LINE
8
0
10
2562.073101
20
1276.250649
30
0.0
11
2562.124603
21
1276.404138
31
0.0
0
LINE
8
0
10
2562.691123
20
1278.092528
30
0.0
11
2562.742625
21
1278.246018
31
0.0
0
LINE
8
0
10
2561.119187
20
1267.866533
30
0.0
11
2561.168657
21
1268.013969
31
0.0
0
LINE
8
0
10
2561.735178
20
1269.702359
30
0.0
11
2561.786679
21
1269.855849
31
0.0
0
LINE
8
0
10
2562.353200
20
1271.544238
30
0.0
11
2562.404702
21
1271.697728
31
0.0
0
LINE
8
0
10
2562.971222
20
1273.386118
30
0.0
11
2563.022724
21
1273.539608
31
0.0
0
LINE
8
0
10
2563.589244
20
1275.227997
30
0.0
11
2563.640746
21
1275.381487
31
0.0
0
LINE
8
0
10
2564.207266
20
1277.069877
30
0.0
11
2564.258768
21
1277.223367
31
0.0
0
LINE
8
0
10
2564.825288
20
1278.911757
30
0.0
11
2564.876790
21
1279.065247
31
0.0
0
LINE
8
0
10
2563.251320
20
1268.679707
30
0.0
11
2563.302822
21
1268.833197
31
0.0
0
LINE
8
0
10
2563.869343
20
1270.521587
30
0.0
11
2563.920844
21
1270.675077
31
0.0
0
LINE
8
0
10
2564.487365
20
1272.363467
30
0.0
11
2564.538866
21
1272.516957
31
0.0
0
LINE
8
0
10
2565.105387
20
1274.205346
30
0.0
11
2565.156888
21
1274.358836
31
0.0
0
LINE
8
0
10
2565.723409
20
1276.047226
30
0.0
11
2565.774911
21
1276.200716
31
0.0
0
LINE
8
0
10
2566.341431
20
1277.889106
30
0.0
11
2566.392933
21
1278.042596
31
0.0
0
LINE
8
0
10
2566.959453
20
1279.730985
30
0.0
11
2567.002135
21
1279.858190
31
0.0
0
LINE
8
0
10
2565.385485
20
1269.498936
30
0.0
11
2565.436987
21
1269.652426
31
0.0
0
LINE
8
0
10
2566.003507
20
1271.340816
30
0.0
11
2566.055009
21
1271.494306
31
0.0
0
LINE
8
0
10
2566.621529
20
1273.182695
30
0.0
11
2566.673031
21
1273.336185
31
0.0
0
LINE
8
0
10
2567.239552
20
1275.024575
30
0.0
11
2567.291053
21
1275.178065
31
0.0
0
LINE
8
0
10
2567.857574
20
1276.866455
30
0.0
11
2567.909075
21
1277.019945
31
0.0
0
LINE
8
0
10
2568.475596
20
1278.708334
30
0.0
11
2568.527097
21
1278.861824
31
0.0
0
LINE
8
0
10
2566.901628
20
1268.476285
30
0.0
11
2566.953130
21
1268.629775
31
0.0
0
LINE
8
0
10
2567.519650
20
1270.318165
30
0.0
11
2567.571152
21
1270.471655
31
0.0
0
LINE
8
0
10
2568.137672
20
1272.160044
30
0.0
11
2568.189174
21
1272.313534
31
0.0
0
LINE
8
0
10
2568.755694
20
1274.001924
30
0.0
11
2568.807196
21
1274.155414
31
0.0
0
LINE
8
0
10
2569.373716
20
1275.843804
30
0.0
11
2569.425218
21
1275.997294
31
0.0
0
LINE
8
0
10
2569.991738
20
1277.685683
30
0.0
11
2570.043240
21
1277.839173
31
0.0
0
LINE
8
0
10
2570.609761
20
1279.527563
30
0.0
11
2570.661262
21
1279.681053
31
0.0
0
LINE
8
0
10
2569.035793
20
1269.295514
30
0.0
11
2569.087295
21
1269.449004
31
0.0
0
LINE
8
0
10
2569.653815
20
1271.137393
30
0.0
11
2569.705317
21
1271.290883
31
0.0
0
LINE
8
0
10
2570.271837
20
1272.979273
30
0.0
11
2570.323339
21
1273.132763
31
0.0
0
LINE
8
0
10
2570.889859
20
1274.821152
30
0.0
11
2570.941361
21
1274.974642
31
0.0
0
LINE
8
0
10
2571.507881
20
1276.663032
30
0.0
11
2571.559383
21
1276.816522
31
0.0
0
LINE
8
0
10
2572.125903
20
1278.504912
30
0.0
11
2572.177405
21
1278.658402
31
0.0
0
LINE
8
0
10
2570.551936
20
1268.272863
30
0.0
11
2570.603438
21
1268.426353
31
0.0
0
LINE
8
0
10
2571.169958
20
1270.114742
30
0.0
11
2571.221460
21
1270.268232
31
0.0
0
LINE
8
0
10
2571.787980
20
1271.956622
30
0.0
11
2571.839482
21
1272.110112
31
0.0
0
LINE
8
0
10
2572.406002
20
1273.798501
30
0.0
11
2572.457504
21
1273.951991
31
0.0
0
LINE
8
0
10
2573.024024
20
1275.640381
30
0.0
11
2573.075526
21
1275.793871
31
0.0
0
LINE
8
0
10
2573.642046
20
1277.482261
30
0.0
11
2573.693548
21
1277.635751
31
0.0
0
LINE
8
0
10
2574.260068
20
1279.324140
30
0.0
11
2574.311570
21
1279.477630
31
0.0
0
LINE
8
0
10
2572.686101
20
1269.092091
30
0.0
11
2572.737603
21
1269.245581
31
0.0
0
LINE
8
0
10
2573.304123
20
1270.933971
30
0.0
11
2573.355625
21
1271.087461
31
0.0
0
LINE
8
0
10
2573.922145
20
1272.775850
30
0.0
11
2573.973647
21
1272.929340
31
0.0
0
LINE
8
0
10
2574.540167
20
1274.617730
30
0.0
11
2574.591669
21
1274.771220
31
0.0
0
LINE
8
0
10
2575.158189
20
1276.459610
30
0.0
11
2575.209691
21
1276.613100
31
0.0
0
LINE
8
0
10
2575.776211
20
1278.301489
30
0.0
11
2575.827713
21
1278.454979
31
0.0
0
LINE
8
0
10
2574.202244
20
1268.069440
30
0.0
11
2574.253746
21
1268.222930
31
0.0
0
LINE
8
0
10
2574.820266
20
1269.911320
30
0.0
11
2574.871768
21
1270.064810
31
0.0
0
LINE
8
0
10
2575.438288
20
1271.753199
30
0.0
11
2575.489790
21
1271.906689
31
0.0
0
LINE
8
0
10
2576.056310
20
1273.595079
30
0.0
11
2576.107812
21
1273.748569
31
0.0
0
LINE
8
0
10
2576.674332
20
1275.436959
30
0.0
11
2576.725834
21
1275.590449
31
0.0
0
LINE
8
0
10
2577.292354
20
1277.278838
30
0.0
11
2577.343856
21
1277.432328
31
0.0
0
LINE
8
0
10
2577.910376
20
1279.120718
30
0.0
11
2577.961878
21
1279.274208
31
0.0
0
LINE
8
0
10
2576.336409
20
1268.888669
30
0.0
11
2576.387911
21
1269.042159
31
0.0
0
LINE
8
0
10
2576.954431
20
1270.730548
30
0.0
11
2577.005933
21
1270.884038
31
0.0
0
LINE
8
0
10
2577.572453
20
1272.572428
30
0.0
11
2577.623955
21
1272.725918
31
0.0
0
LINE
8
0
10
2578.190475
20
1274.414308
30
0.0
11
2578.241977
21
1274.567798
31
0.0
0
LINE
8
0
10
2578.808497
20
1276.256187
30
0.0
11
2578.859999
21
1276.409677
31
0.0
0
LINE
8
0
10
2579.426519
20
1278.098067
30
0.0
11
2579.478021
21
1278.251557
31
0.0
0
LINE
8
0
10
2577.852552
20
1267.866018
30
0.0
11
2577.904053
21
1268.019508
31
0.0
0
LINE
8
0
10
2578.470574
20
1269.707897
30
0.0
11
2578.522075
21
1269.861387
31
0.0
0
LINE
8
0
10
2579.088596
20
1271.549777
30
0.0
11
2579.140098
21
1271.703267
31
0.0
0
LINE
8
0
10
2579.706618
20
1273.391656
30
0.0
11
2579.758120
21
1273.545146
31
0.0
0
LINE
8
0
10
2580.324640
20
1275.233536
30
0.0
11
2580.376142
21
1275.387026
31
0.0
0
LINE
8
0
10
2580.942662
20
1277.075416
30
0.0
11
2580.976350
21
1277.175815
31
0.0
0
LINE
8
0
10
2579.986716
20
1268.685246
30
0.0
11
2580.038218
21
1268.838736
31
0.0
0
LINE
8
0
10
2580.604739
20
1270.527126
30
0.0
11
2580.656240
21
1270.680616
31
0.0
0
LINE
8
0
10
2580.776350
20
1267.858190
30
0.0
11
2561.176350
21
1267.858190
31
0.0
0
ARC
8
0
10
2561.176350
20
1268.058190
30
0.0
40
0.200000
50
180.000000
51
270.000000
0
LINE
8
0
10
2560.976350
20
1268.058190
30
0.0
11
2560.976350
21
1279.658190
31
0.0
0
ARC
8
0
10
2561.176350
20
1279.658190
30
0.0
40
0.200000
50
90.000000
51
180.000000
0
LINE
8
0
10
2561.176350
20
1279.858190
30
0.0
11
2580.776350
21
1279.858190
31
0.0
0
ARC
8
0
10
2580.776350
20
1279.658190
30
0.0
40
0.200000
50
360.000000
51
90.000000
0
LINE
8
0
10
2580.976350
20
1279.658190
30
0.0
11
2580.976350
21
1268.058190
31
0.0
0
ARC
8
0
10
2580.776350
20
1268.058190
30
0.0
40
0.200000
50
270.000000
51
360.000000
0
LINE
8
0
10
2590.076350
20
1279.291885
30
0.0
11
2589.976350
21
1279.291885
31
0.0
0
LINE
8
0
10
2589.976350
20
1279.291885
30
0.0
11
2589.976350
21
1269.091885
31
0.0
0
LINE
8
0
10
2589.976350
20
1269.091885
30
0.0
11
2590.076350
21
1269.091885
31
0.0
0
LINE
8
0
10
2590.076350
20
1269.091885
30
0.0
11
2590.076350
21
1267.091885
31
0.0
0
LINE
8
0
10
2590.076350
20
1267.091885
30
0.0
11
2609.676350
21
1267.091885
31
0.0
0
LINE
8
0
10
2609.676350
20
1267.091885
30
0.0
11
2609.676350
21
1281.291885
31
0.0
0
LINE
8
0
10
2609.676350
20
1281.291885
30
0.0
11
2590.076350
21
1281.291885
31
0.0
0
LINE
8
0
10
2590.076350
20
1281.291885
30
0.0
11
2590.076350
21
1279.291885
31
0.0
0
ARC
8
0
10
2553.762799
20
1267.532501
30
0.0
40
0.300000
50
285.063560
51
311.538507
0
LINE
8
0
10
2553.840767
20
1267.242810
30
0.0
11
2553.476350
21
1267.144731
31
0.0
0
ARC
8
0
10
2553.476350
20
1267.444731
30
0.0
40
0.300000
50
90.000000
51
270.000000
0
LINE
8
0
10
2553.476350
20
1267.744731
30
0.0
11
2553.476350
21
1272.244731
31
0.0
0
ARC
8
0
10
2553.676350
20
1272.244731
30
0.0
40
0.200000
50
90.000000
51
180.000000
0
LINE
8
0
10
2553.676350
20
1272.444731
30
0.0
11
2553.744238
21
1272.444731
31
0.0
0
ARC
8
0
10
2553.744238
20
1272.144731
30
0.0
40
0.300000
50
58.619868
51
90.000000
0
LINE
8
0
10
2553.900452
20
1272.400850
30
0.0
11
2555.576445
21
1271.378617
31
0.0
0
ARC
8
0
10
2555.776350
20
1271.372427
30
0.0
40
0.200000
50
180.000000
51
360.000000
0
LINE
8
0
10
2555.976350
20
1271.372427
30
0.0
11
2555.976350
21
1272.756208
31
0.0
0
ARC
8
0
10
2555.776350
20
1272.756208
30
0.0
40
0.200000
50
360.000000
51
61.694535
0
LINE
8
0
10
2555.870966
20
1272.932503
30
0.0
11
2554.620981
21
1273.649734
31
0.0
0
ARC
8
0
10
2554.969360
20
1274.256885
30
0.0
40
0.700000
50
119.846880
51
240.153120
0
LINE
8
0
10
2554.620981
20
1274.864036
30
0.0
11
2555.870966
21
1275.581268
31
0.0
0
ARC
8
0
10
2555.776350
20
1275.757563
30
0.0
40
0.200000
50
298.305465
51
360.000000
0
LINE
8
0
10
2555.976350
20
1275.757563
30
0.0
11
2555.976350
21
1277.141343
31
0.0
0
ARC
8
0
10
2555.776350
20
1277.141343
30
0.0
40
0.200000
50
360.000000
51
180.000000
0
LINE
8
0
10
2555.576445
20
1277.135153
30
0.0
11
2553.900452
21
1276.112920
31
0.0
0
ARC
8
0
10
2553.744238
20
1276.369040
30
0.0
40
0.300000
50
270.000000
51
301.380132
0
LINE
8
0
10
2553.744238
20
1276.069040
30
0.0
11
2553.676350
21
1276.069040
31
0.0
0
ARC
8
0
10
2553.676350
20
1276.269040
30
0.0
40
0.200000
50
180.000000
51
270.000000
0
LINE
8
0
10
2553.476350
20
1276.269040
30
0.0
11
2553.476350
21
1280.769040
31
0.0
0
ARC
8
0
10
2553.476350
20
1281.069040
30
0.0
40
0.300000
50
90.000000
51
270.000000
0
LINE
8
0
10
2553.476350
20
1281.369040
30
0.0
11
2553.840767
21
1281.270961
31
0.0
0
ARC
8
0
10
2553.762799
20
1280.981270
30
0.0
40
0.300000
50
48.461493
51
74.936440
0
LINE
8
0
10
2553.961736
20
1281.205823
30
0.0
11
2555.507722
21
1279.836197
31
0.0
0
ARC
8
0
10
2555.308785
20
1279.611644
30
0.0
40
0.300000
50
344.307229
51
48.461493
0
ARC
8
0
10
2555.742012
20
1279.489928
30
0.0
40
0.150000
50
164.307229
51
322.253920
0
LINE
8
0
10
2555.860621
20
1279.398104
30
0.0
11
2557.988518
21
1282.146709
31
0.0
0
ARC
8
0
10
2557.703611
20
1282.240665
30
0.0
40
0.300000
50
341.748585
51
90.000000
0
LINE
8
0
10
2557.706996
20
1282.540690
30
0.0
11
2557.050375
21
1282.559303
31
0.0
0
ARC
8
0
10
2557.036207
20
1282.059504
30
0.0
40
0.500000
50
88.376251
51
128.194227
0
ARC
8
0
10
2555.490384
20
1284.024302
30
0.0
40
2.000000
50
236.002945
51
308.194227
0
LINE
8
0
10
2554.372083
20
1282.366170
30
0.0
11
2553.756168
21
1282.668264
31
0.0
0
ARC
8
0
10
2553.976350
20
1283.117174
30
0.0
40
0.500000
50
180.000000
51
243.872968
0
LINE
8
0
10
2553.476350
20
1283.117174
30
0.0
11
2553.476350
21
1286.291885
31
0.0
0
LINE
8
0
10
2553.476350
20
1286.291885
30
0.0
11
2554.676350
21
1286.291885
31
0.0
0
ARC
8
0
10
2554.676350
20
1286.591885
30
0.0
40
0.300000
50
270.000000
51
360.000000
0
LINE
8
0
10
2554.976350
20
1286.591885
30
0.0
11
2554.976350
21
1287.491885
31
0.0
0
ARC
8
0
10
2554.676350
20
1287.491885
30
0.0
40
0.300000
50
360.000000
51
90.000000
0
LINE
8
0
10
2554.676350
20
1287.791885
30
0.0
11
2552.026350
21
1287.791885
31
0.0
0
LINE
8
0
10
2552.026350
20
1287.791885
30
0.0
11
2552.026350
21
1282.790552
31
0.0
0
LINE
8
0
10
2552.026350
20
1282.790552
30
0.0
11
2546.276350
21
1282.790552
31
0.0
0
LINE
8
0
10
2546.276350
20
1282.790552
30
0.0
11
2546.276350
21
1283.390552
31
0.0
0
ARC
8
0
10
2545.776350
20
1283.390552
30
0.0
40
0.500000
50
360.000000
51
90.000000
0
LINE
8
0
10
2545.776350
20
1283.890552
30
0.0
11
2544.976350
21
1283.890552
31
0.0
0
LINE
8
0
10
2544.976350
20
1283.890552
30
0.0
11
2544.976350
21
1282.790552
31
0.0
0
LINE
8
0
10
2544.976350
20
1282.790552
30
0.0
11
2542.776350
21
1282.790552
31
0.0
0
LINE
8
0
10
2542.776350
20
1282.790552
30
0.0
11
2542.776350
21
1295.790552
31
0.0
0
LINE
8
0
10
2542.776350
20
1295.790552
30
0.0
11
2544.076350
21
1295.790552
31
0.0
0
LINE
8
0
10
2544.076350
20
1295.790552
30
0.0
11
2544.076350
21
1294.490552
31
0.0
0
LINE
8
0
10
2544.076350
20
1294.490552
30
0.0
11
2544.676836
21
1294.490552
31
0.0
0
ARC
8
0
10
2544.676836
20
1294.990552
30
0.0
40
0.500000
50
270.000000
51
358.001002
0
LINE
8
0
10
2545.176532
20
1294.973111
30
0.0
11
2545.176532
21
1296.590735
31
0.0
0
ARC
8
0
10
2544.876532
20
1296.590735
30
0.0
40
0.300000
50
360.000000
51
90.000000
0
LINE
8
0
10
2544.876532
20
1296.890735
30
0.0
11
2542.976350
21
1296.890735
31
0.0
0
ARC
8
0
10
2542.976350
20
1297.190735
30
0.0
40
0.300000
50
180.000000
51
270.000000
0
LINE
8
0
10
2542.676350
20
1297.190735
30
0.0
11
2542.676350
21
1298.492247
31
0.0
0
LINE
8
0
10
2542.676350
20
1298.492247
30
0.0
11
2545.176368
21
1298.492247
31
0.0
0
ARC
8
0
10
2545.176368
20
1298.992229
30
0.0
40
0.499982
50
270.000000
51
360.000000
0
LINE
8
0
10
2545.676350
20
1298.992229
30
0.0
11
2545.676350
21
1299.992192
31
0.0
0
LINE
8
0
10
2545.676350
20
1299.992192
30
0.0
11
2545.176368
21
1301.742129
31
0.0
0
LINE
8
0
10
2545.176368
20
1301.742129
30
0.0
11
2544.676386
21
1301.742129
31
0.0
0
LINE
8
0
10
2544.676386
20
1301.742129
30
0.0
11
2544.676386
21
1299.992192
31
0.0
0
LINE
8
0
10
2544.676386
20
1299.992192
30
0.0
11
2542.676350
21
1299.992192
31
0.0
0
LINE
8
0
10
2542.676350
20
1299.992192
30
0.0
11
2542.676350
21
1307.491921
31
0.0
0
LINE
8
0
10
2542.676350
20
1307.491921
30
0.0
11
2544.676386
21
1307.491921
31
0.0
0
LINE
8
0
10
2544.676386
20
1307.491921
30
0.0
11
2544.676386
21
1305.741985
31
0.0
0
LINE
8
0
10
2544.676386
20
1305.741985
30
0.0
11
2545.176368
21
1305.741985
31
0.0
0
LINE
8
0
10
2545.176368
20
1305.741985
30
0.0
11
2545.676350
21
1307.491921
31
0.0
0
LINE
8
0
10
2545.676350
20
1307.491921
30
0.0
11
2545.676350
21
1308.491885
31
0.0
0
ARC
8
0
10
2545.176368
20
1308.491885
30
0.0
40
0.499982
50
360.000000
51
90.000000
0
LINE
8
0
10
2545.176368
20
1308.991867
30
0.0
11
2541.676350
21
1308.991867
31
0.0
0
ARC
8
0
10
2541.676350
20
1308.491867
30
0.0
40
0.500000
50
90.000000
51
180.000000
0
LINE
8
0
10
2541.176350
20
1308.491867
30
0.0
11
2541.176350
21
1261.091885
31
0.0
0
ARC
8
0
10
2541.676350
20
1261.091885
30
0.0
40
0.500000
50
180.000000
51
270.000000
0
LINE
8
0
10
2541.676350
20
1260.591885
30
0.0
11
2543.769243
21
1260.591885
31
0.0
0
ARC
8
0
10
2543.769243
20
1261.091885
30
0.0
40
0.500000
50
270.000000
51
315.000000
0
LINE
8
0
10
2544.122796
20
1260.738332
30
0.0
11
2544.829903
21
1261.445439
31
0.0
0
ARC
8
0
10
2544.476350
20
1261.798992
30
0.0
40
0.500000
50
315.000000
51
360.000000
0
LINE
8
0
10
2544.976350
20
1261.798992
30
0.0
11
2544.976350
21
1262.591885
31
0.0
0
LINE
8
0
10
2544.976350
20
1262.591885
30
0.0
11
2543.276350
21
1262.591885
31
0.0
0
ARC
8
0
10
2543.276350
20
1262.891885
30
0.0
40
0.300000
50
180.000000
51
270.000000
0
LINE
8
0
10
2542.976350
20
1262.891885
30
0.0
11
2542.976350
21
1265.291885
31
0.0
0
ARC
8
0
10
2543.276350
20
1265.291885
30
0.0
40
0.300000
50
90.000000
51
180.000000
0
LINE
8
0
10
2543.276350
20
1265.591885
30
0.0
11
2553.123062
21
1265.591885
31
0.0
0
ARC
8
0
10
2553.123062
20
1266.091885
30
0.0
40
0.500000
50
270.000000
51
296.127032
0
LINE
8
0
10
2553.343243
20
1265.642975
30
0.0
11
2554.372083
21
1266.147601
31
0.0
0
ARC
8
0
10
2555.490384
20
1264.489468
30
0.0
40
2.000000
50
51.805773
51
123.997055
0
ARC
8
0
10
2557.036207
20
1266.454266
30
0.0
40
0.500000
50
231.805773
51
271.623749
0
LINE
8
0
10
2557.050375
20
1265.954467
30
0.0
11
2557.706996
21
1265.973081
31
0.0
0
ARC
8
0
10
2557.703611
20
1266.273105
30
0.0
40
0.300000
50
270.000000
51
18.251415
0
LINE
8
0
10
2557.988518
20
1266.367061
30
0.0
11
2555.860621
21
1269.115667
31
0.0
0
ARC
8
0
10
2555.742012
20
1269.023842
30
0.0
40
0.150000
50
37.746080
51
195.692771
0
ARC
8
0
10
2555.308785
20
1268.902127
30
0.0
40
0.300000
50
311.538507
51
15.692771
0
LINE
8
0
10
2555.507722
20
1268.677574
30
0.0
11
2553.961736
21
1267.307948
31
0.0
0
LINE
8
0
10
2544.776350
20
1281.291885
30
0.0
11
2551.976350
21
1281.291885
31
0.0
0
LINE
8
0
10
2551.976350
20
1281.291885
30
0.0
11
2551.976350
21
1267.091885
31
0.0
0
LINE
8
0
10
2551.976350
20
1267.091885
30
0.0
11
2544.776350
21
1267.091885
31
0.0
0
LINE
8
0
10
2544.776350
20
1267.091885
30
0.0
11
2544.776350
21
1268.691885
31
0.0
0
LINE
8
0
10
2544.776350
20
1268.691885
30
0.0
11
2544.176350
21
1268.691885
31
0.0
0
ARC
8
0
10
2544.176350
20
1268.191885
30
0.0
40
0.500000
50
90.000000
51
180.000000
0
LINE
8
0
10
2543.676350
20
1268.191885
30
0.0
11
2543.676350
21
1267.591885
31
0.0
0
ARC
8
0
10
2543.176350
20
1267.591885
30
0.0
40
0.500000
50
270.000000
51
360.000000
0
ARC
8
0
10
2543.176350
20
1267.591885
30
0.0
40
0.500000
50
180.000000
51
270.000000
0
LINE
8
0
10
2542.676350
20
1267.591885
30
0.0
11
2542.676350
21
1280.791885
31
0.0
0
ARC
8
0
10
2543.176350
20
1280.791885
30
0.0
40
0.500000
50
90.000000
51
180.000000
0
ARC
8
0
10
2543.176350
20
1280.791885
30
0.0
40
0.500000
50
360.000000
51
90.000000
0
LINE
8
0
10
2543.676350
20
1280.791885
30
0.0
11
2543.676350
21
1280.191885
31
0.0
0
ARC
8
0
10
2544.176350
20
1280.191885
30
0.0
40
0.500000
50
180.000000
51
270.000000
0
LINE
8
0
10
2544.176350
20
1279.691885
30
0.0
11
2544.776350
21
1279.691885
31
0.0
0
LINE
8
0
10
2544.776350
20
1279.691885
30
0.0
11
2544.776350
21
1281.291885
31
0.0
0
LINE
8
0
10
2589.429903
20
1260.738332
30
0.0
11
2588.722796
21
1261.445439
31
0.0
0
ARC
8
0
10
2589.076350
20
1261.798992
30
0.0
40
0.500000
50
180.000000
51
225.000000
0
LINE
8
0
10
2588.576350
20
1261.798992
30
0.0
11
2588.576350
21
1262.591885
31
0.0
0
LINE
8
0
10
2588.576350
20
1262.591885
30
0.0
11
2590.276350
21
1262.591885
31
0.0
0
ARC
8
0
10
2590.276350
20
1262.891885
30
0.0
40
0.300000
50
270.000000
51
360.000000
0
LINE
8
0
10
2590.576350
20
1262.891885
30
0.0
11
2590.576350
21
1265.291885
31
0.0
0
ARC
8
0
10
2590.276350
20
1265.291885
30
0.0
40
0.300000
50
360.000000
51
90.000000
0
LINE
8
0
10
2590.276350
20
1265.591885
30
0.0
11
2588.694871
21
1265.591885
31
0.0
0
ARC
8
0
10
2588.694871
20
1266.091885
30
0.0
40
0.500000
50
224.034608
51
270.000000
0
ARC
8
0
10
2587.975951
20
1265.396793
30
0.0
40
0.500000
50
44.034608
51
63.872968
0
LINE
8
0
10
2588.196132
20
1265.845703
30
0.0
11
2587.580616
21
1266.147601
31
0.0
0
ARC
8
0
10
2586.462315
20
1264.489468
30
0.0
40
2.000000
50
56.002945
51
128.194227
0
ARC
8
0
10
2584.916492
20
1266.454266
30
0.0
40
0.500000
50
268.376251
51
308.194227
0
LINE
8
0
10
2584.902324
20
1265.954467
30
0.0
11
2584.245703
21
1265.973081
31
0.0
0
ARC
8
0
10
2584.249088
20
1266.273105
30
0.0
40
0.300000
50
161.748585
51
267.394588
0
LINE
8
0
10
2583.964181
20
1266.367061
30
0.0
11
2586.028468
21
1269.033502
31
0.0
0
ARC
8
0
10
2586.143615
20
1268.944359
30
0.0
40
0.145621
50
360.000000
51
142.253920
0
LINE
8
0
10
2586.289147
20
1268.939277
30
0.0
11
2586.283717
21
1268.783790
31
0.0
0
ARC
8
0
10
2586.483596
20
1268.776810
30
0.0
40
0.200000
50
180.000000
51
231.176024
0
LINE
8
0
10
2586.358210
20
1268.620995
30
0.0
11
2588.001379
21
1267.298720
31
0.0
0
ARC
8
0
10
2588.189458
20
1267.532443
30
0.0
40
0.300000
50
231.176024
51
253.000000
0
LINE
8
0
10
2588.101747
20
1267.245551
30
0.0
11
2588.476350
21
1267.144731
31
0.0
0
ARC
8
0
10
2588.476350
20
1267.444731
30
0.0
40
0.300000
50
270.000000
51
90.000000
0
LINE
8
0
10
2588.476350
20
1267.744731
30
0.0
11
2588.476350
21
1272.244731
31
0.0
0
ARC
8
0
10
2588.276350
20
1272.244731
30
0.0
40
0.200000
50
360.000000
51
90.000000
0
LINE
8
0
10
2588.276350
20
1272.444731
30
0.0
11
2588.208461
21
1272.444731
31
0.0
0
ARC
8
0
10
2588.208461
20
1272.144731
30
0.0
40
0.300000
50
90.000000
51
121.380132
0
LINE
8
0
10
2588.052247
20
1272.400850
30
0.0
11
2586.376254
21
1271.378617
31
0.0
0
ARC
8
0
10
2586.176350
20
1271.372427
30
0.0
40
0.200000
50
180.000000
51
360.000000
0
LINE
8
0
10
2585.976350
20
1271.372427
30
0.0
11
2585.976350
21
1272.756208
31
0.0
0
ARC
8
0
10
2586.176350
20
1272.756208
30
0.0
40
0.200000
50
118.305465
51
180.000000
0
LINE
8
0
10
2586.081733
20
1272.932503
30
0.0
11
2587.331718
21
1273.649734
31
0.0
0
ARC
8
0
10
2586.983339
20
1274.256885
30
0.0
40
0.700000
50
299.846880
51
60.153120
0
LINE
8
0
10
2587.331718
20
1274.864036
30
0.0
11
2586.081733
21
1275.581268
31
0.0
0
ARC
8
0
10
2586.176350
20
1275.757563
30
0.0
40
0.200000
50
180.000000
51
241.694535
0
LINE
8
0
10
2585.976350
20
1275.757563
30
0.0
11
2585.976350
21
1277.141343
31
0.0
0
ARC
8
0
10
2586.176350
20
1277.141343
30
0.0
40
0.200000
50
360.000000
51
180.000000
0
LINE
8
0
10
2586.376254
20
1277.135153
30
0.0
11
2588.052247
21
1276.112920
31
0.0
0
ARC
8
0
10
2588.208461
20
1276.369040
30
0.0
40
0.300000
50
238.619868
51
270.000000
0
LINE
8
0
10
2588.208461
20
1276.069040
30
0.0
11
2588.276350
21
1276.069040
31
0.0
0
ARC
8
0
10
2588.276350
20
1276.269040
30
0.0
40
0.200000
50
270.000000
51
360.000000
0
LINE
8
0
10
2588.476350
20
1276.269040
30
0.0
11
2588.476350
21
1280.769040
31
0.0
0
ARC
8
0
10
2588.476350
20
1281.069040
30
0.0
40
0.300000
50
270.000000
51
90.000000
0
LINE
8
0
10
2588.476350
20
1281.369040
30
0.0
11
2588.121324
21
1281.273489
31
0.0
0
ARC
8
0
10
2588.189458
20
1280.981328
30
0.0
40
0.300000
50
103.127121
51
128.823976
0
LINE
8
0
10
2588.001379
20
1281.215051
30
0.0
11
2586.358210
21
1279.892776
31
0.0
0
ARC
8
0
10
2586.483596
20
1279.736961
30
0.0
40
0.200000
50
128.823976
51
180.000000
0
LINE
8
0
10
2586.283717
20
1279.729981
30
0.0
11
2586.289147
21
1279.574494
31
0.0
0
ARC
8
0
10
2586.143615
20
1279.569412
30
0.0
40
0.145621
50
217.746080
51
360.000000
0
LINE
8
0
10
2586.028468
20
1279.480268
30
0.0
11
2583.964181
21
1282.146709
31
0.0
0
ARC
8
0
10
2584.249088
20
1282.240665
30
0.0
40
0.300000
50
90.000000
51
198.251415
0
LINE
8
0
10
2584.245703
20
1282.540690
30
0.0
11
2584.902324
21
1282.559303
31
0.0
0
ARC
8
0
10
2584.916492
20
1282.059504
30
0.0
40
0.500000
50
51.805773
51
91.623749
0
ARC
8
0
10
2586.462315
20
1284.024302
30
0.0
40
2.000000
50
231.805773
51
322.428825
0
ARC
8
0
10
2588.285287
20
1282.621885
30
0.0
40
0.300000
50
90.000000
51
142.428825
0
LINE
8
0
10
2588.285287
20
1282.921885
30
0.0
11
2589.376350
21
1282.921885
31
0.0
0
ARC
8
0
10
2589.376350
20
1283.421885
30
0.0
40
0.500000
50
270.000000
51
360.000000
0
LINE
8
0
10
2589.876350
20
1283.421885
30
0.0
11
2589.876350
21
1287.291885
31
0.0
0
ARC
8
0
10
2590.376350
20
1287.291885
30
0.0
40
0.500000
50
90.000000
51
180.000000
0
LINE
8
0
10
2590.376350
20
1287.791885
30
0.0
11
2592.469243
21
1287.791885
31
0.0
0
ARC
8
0
10
2592.469243
20
1287.291885
30
0.0
40
0.500000
50
45.000000
51
90.000000
0
LINE
8
0
10
2592.822796
20
1287.645439
30
0.0
11
2593.529903
21
1286.938332
31
0.0
0
ARC
8
0
10
2593.176350
20
1286.584779
30
0.0
40
0.500000
50
360.000000
51
45.000000
0
LINE
8
0
10
2593.676350
20
1286.584779
30
0.0
11
2593.676350
21
1285.791885
31
0.0
0
LINE
8
0
10
2593.676350
20
1285.791885
30
0.0
11
2591.976350
21
1285.791885
31
0.0
0
ARC
8
0
10
2591.976350
20
1285.491885
30
0.0
40
0.300000
50
90.000000
51
180.000000
0
LINE
8
0
10
2591.676350
20
1285.491885
30
0.0
11
2591.676350
21
1283.091885
31
0.0
0
ARC
8
0
10
2591.976350
20
1283.091885
30
0.0
40
0.300000
50
180.000000
51
270.000000
0
LINE
8
0
10
2591.976350
20
1282.791885
30
0.0
11
2609.376350
21
1282.791885
31
0.0
0
ARC
8
0
10
2609.376350
20
1283.091885
30
0.0
40
0.300000
50
270.000000
51
360.000000
0
LINE
8
0
10
2609.676350
20
1283.091885
30
0.0
11
2609.676350
21
1285.491885
31
0.0
0
ARC
8
0
10
2609.376350
20
1285.491885
30
0.0
40
0.300000
50
360.000000
51
90.000000
0
LINE
8
0
10
2609.376350
20
1285.791885
30
0.0
11
2607.676350
21
1285.791885
31
0.0
0
LINE
8
0
10
2607.676350
20
1285.791885
30
0.0
11
2607.676350
21
1286.584779
31
0.0
0
ARC
8
0
10
2608.176350
20
1286.584779
30
0.0
40
0.500000
50
135.000000
51
180.000000
0
LINE
8
0
10
2607.822796
20
1286.938332
30
0.0
11
2608.529903
21
1287.645439
31
0.0
0
ARC
8
0
10
2608.883456
20
1287.291885
30
0.0
40
0.500000
50
90.000000
51
135.000000
0
LINE
8
0
10
2608.883456
20
1287.791885
30
0.0
11
2610.876350
21
1287.791885
31
0.0
0
ARC
8
0
10
2610.876350
20
1287.491885
30
0.0
40
0.300000
50
360.000000
51
90.000000
0
LINE
8
0
10
2611.176350
20
1287.491885
30
0.0
11
2611.176350
21
1261.091885
31
0.0
0
ARC
8
0
10
2610.676350
20
1261.091885
30
0.0
40
0.500000
50
270.000000
51
360.000000
0
LINE
8
0
10
2610.676350
20
1260.591885
30
0.0
11
2608.583456
21
1260.591885
31
0.0
0
ARC
8
0
10
2608.583456
20
1261.091885
30
0.0
40
0.500000
50
225.000000
51
270.000000
0
LINE
8
0
10
2608.229903
20
1260.738332
30
0.0
11
2607.522796
21
1261.445439
31
0.0
0
ARC
8
0
10
2607.876350
20
1261.798992
30
0.0
40
0.500000
50
180.000000
51
225.000000
0
LINE
8
0
10
2607.376350
20
1261.798992
30
0.0
11
2607.376350
21
1262.591885
31
0.0
0
LINE
8
0
10
2607.376350
20
1262.591885
30
0.0
11
2609.076350
21
1262.591885
31
0.0
0
ARC
8
0
10
2609.076350
20
1262.891885
30
0.0
40
0.300000
50
270.000000
51
360.000000
0
LINE
8
0
10
2609.376350
20
1262.891885
30
0.0
11
2609.376350
21
1265.291885
31
0.0
0
ARC
8
0
10
2609.076350
20
1265.291885
30
0.0
40
0.300000
50
360.000000
51
90.000000
0
LINE
8
0
10
2609.076350
20
1265.591885
30
0.0
11
2592.676350
21
1265.591885
31
0.0
0
ARC
8
0
10
2592.676350
20
1265.291885
30
0.0
40
0.300000
50
90.000000
51
180.000000
0
LINE
8
0
10
2592.376350
20
1265.291885
30
0.0
11
2592.376350
21
1262.891885
31
0.0
0
ARC
8
0
10
2592.676350
20
1262.891885
30
0.0
40
0.300000
50
180.000000
51
270.000000
0
LINE
8
0
10
2592.676350
20
1262.591885
30
0.0
11
2593.076350
21
1262.991885
31
0.0
0
LINE
8
0
10
2593.076350
20
1262.991885
30
0.0
11
2593.476350
21
1262.591885
31
0.0
0
LINE
8
0
10
2593.476350
20
1262.591885
30
0.0
11
2594.376350
21
1262.591885
31
0.0
0
LINE
8
0
10
2594.376350
20
1262.591885
30
0.0
11
2594.376350
21
1261.798992
31
0.0
0
ARC
8
0
10
2593.876350
20
1261.798992
30
0.0
40
0.500000
50
315.000000
51
360.000000
0
LINE
8
0
10
2594.229903
20
1261.445439
30
0.0
11
2593.522796
21
1260.738332
31
0.0
0
ARC
8
0
10
2593.169243
20
1261.091885
30
0.0
40
0.500000
50
270.000000
51
315.000000
0
LINE
8
0
10
2593.169243
20
1260.591885
30
0.0
11
2589.783456
21
1260.591885
31
0.0
0
ARC
8
0
10
2589.783456
20
1261.091885
30
0.0
40
0.500000
50
225.000000
51
270.000000
0
ARC
8
0
10
2559.008264
20
1267.258190
30
0.0
40
1.200000
50
213.000000
51
270.000000
0
LINE
8
0
10
2558.001859
20
1266.604624
30
0.0
11
2556.498323
21
1268.919866
31
0.0
0
ARC
8
0
10
2556.245616
20
1268.758190
30
0.0
40
0.300000
50
32.610000
51
90.000000
0
LINE
8
0
10
2556.245616
20
1269.058190
30
0.0
11
2555.991246
21
1269.058190
31
0.0
0
ARC
8
0
10
2555.991246
20
1267.858190
30
0.0
40
1.200000
50
90.000000
51
120.503167
0
LINE
8
0
10
2555.382143
20
1268.892112
30
0.0
11
2554.206827
21
1268.199710
31
0.0
0
ARC
8
0
10
2554.054551
20
1268.458190
30
0.0
40
0.300000
50
270.000000
51
300.503167
0
LINE
8
0
10
2554.054551
20
1268.158190
30
0.0
11
2553.876350
21
1268.158190
31
0.0
0
ARC
8
0
10
2553.876350
20
1268.558190
30
0.0
40
0.400000
50
180.000000
51
270.000000
0
LINE
8
0
10
2553.476350
20
1268.558190
30
0.0
11
2553.476350
21
1268.958190
31
0.0
0
ARC
8
0
10
2553.576350
20
1268.958190
30
0.0
40
0.100000
50
90.000000
51
180.000000
0
LINE
8
0
10
2553.576350
20
1269.058190
30
0.0
11
2553.576350
21
1269.333190
31
0.0
0
ARC
8
0
10
2553.876350
20
1269.333190
30
0.0
40
0.300000
50
90.000000
51
180.000000
0
LINE
8
0
10
2553.876350
20
1269.633190
30
0.0
11
2553.935876
21
1269.633190
31
0.0
0
ARC
8
0
10
2554.226350
20
1270.158190
30
0.0
40
0.600000
50
241.044976
51
118.955024
0
LINE
8
0
10
2553.935876
20
1270.683190
30
0.0
11
2553.876350
21
1270.683190
31
0.0
0
ARC
8
0
10
2553.876350
20
1270.983190
30
0.0
40
0.300000
50
180.000000
51
270.000000
0
LINE
8
0
10
2553.576350
20
1270.983190
30
0.0
11
2553.576350
21
1271.258190
31
0.0
0
ARC
8
0
10
2553.576350
20
1271.358190
30
0.0
40
0.100000
50
180.000000
51
270.000000
0
LINE
8
0
10
2553.476350
20
1271.358190
30
0.0
11
2553.476350
21
1271.758190
31
0.0
0
ARC
8
0
10
2553.876350
20
1271.758190
30
0.0
40
0.400000
50
90.000000
51
180.000000
0
LINE
8
0
10
2553.876350
20
1272.158190
30
0.0
11
2554.054684
21
1272.158190
31
0.0
0
ARC
8
0
10
2554.054684
20
1271.858190
30
0.0
40
0.300000
50
59.544173
51
90.000000
0
LINE
8
0
10
2554.206747
20
1272.116797
30
0.0
11
2555.385355
21
1271.423766
31
0.0
0
ARC
8
0
10
2555.993604
20
1272.458190
30
0.0
40
1.200000
50
239.544173
51
270.000000
0
LINE
8
0
10
2555.993604
20
1271.258190
30
0.0
11
2556.712977
21
1271.258190
31
0.0
0
ARC
8
0
10
2556.712977
20
1270.058190
30
0.0
40
1.200000
50
33.000000
51
90.000000
0
LINE
8
0
10
2557.719382
20
1270.711757
30
0.0
11
2559.158509
21
1268.495696
31
0.0
0
ARC
8
0
10
2560.332648
20
1269.258190
30
0.0
40
1.400000
50
213.000000
51
270.000000
0
LINE
8
0
10
2560.332648
20
1267.858190
30
0.0
11
2581.620051
21
1267.858190
31
0.0
0
ARC
8
0
10
2581.620051
20
1269.258190
30
0.0
40
1.400000
50
270.000000
51
327.000000
0
LINE
8
0
10
2582.794190
20
1268.495696
30
0.0
11
2584.233317
21
1270.711757
31
0.0
0
ARC
8
0
10
2585.239722
20
1270.058190
30
0.0
40
1.200000
50
90.000000
51
147.000000
0
LINE
8
0
10
2585.239722
20
1271.258190
30
0.0
11
2585.959095
21
1271.258190
31
0.0
0
ARC
8
0
10
2585.959095
20
1272.458190
30
0.0
40
1.200000
50
270.000000
51
300.455827
0
LINE
8
0
10
2586.567344
20
1271.423766
30
0.0
11
2587.745953
21
1272.116797
31
0.0
0
ARC
8
0
10
2587.898015
20
1271.858190
30
0.0
40
0.300000
50
90.000000
51
120.455827
0
LINE
8
0
10
2587.898015
20
1272.158190
30
0.0
11
2588.076350
21
1272.158190
31
0.0
0
ARC
8
0
10
2588.076350
20
1271.758190
30
0.0
40
0.400000
50
360.000000
51
90.000000
0
LINE
8
0
10
2588.476350
20
1271.758190
30
0.0
11
2588.476350
21
1271.358190
31
0.0
0
ARC
8
0
10
2588.376350
20
1271.358190
30
0.0
40
0.100000
50
270.000000
51
360.000000
0
LINE
8
0
10
2588.376350
20
1271.258190
30
0.0
11
2588.376350
21
1270.983190
31
0.0
0
ARC
8
0
10
2588.076350
20
1270.983190
30
0.0
40
0.300000
50
270.000000
51
360.000000
0
LINE
8
0
10
2588.076350
20
1270.683190
30
0.0
11
2588.016823
21
1270.683190
31
0.0
0
ARC
8
0
10
2587.726350
20
1270.158190
30
0.0
40
0.600000
50
61.044976
51
298.955024
0
LINE
8
0
10
2588.016823
20
1269.633190
30
0.0
11
2588.076350
21
1269.633190
31
0.0
0
ARC
8
0
10
2588.076350
20
1269.333190
30
0.0
40
0.300000
50
360.000000
51
90.000000
0
LINE
8
0
10
2588.376350
20
1269.333190
30
0.0
11
2588.376350
21
1269.058190
31
0.0
0
ARC
8
0
10
2588.376350
20
1268.958190
30
0.0
40
0.100000
50
360.000000
51
90.000000
0
LINE
8
0
10
2588.476350
20
1268.958190
30
0.0
11
2588.476350
21
1268.558190
31
0.0
0
ARC
8
0
10
2588.076350
20
1268.558190
30
0.0
40
0.400000
50
270.000000
51
360.000000
0
LINE
8
0
10
2588.076350
20
1268.158190
30
0.0
11
2587.898148
21
1268.158190
31
0.0
0
ARC
8
0
10
2587.898148
20
1268.458190
30
0.0
40
0.300000
50
239.496833
51
270.000000
0
LINE
8
0
10
2587.745872
20
1268.199710
30
0.0
11
2586.570556
21
1268.892112
31
0.0
0
ARC
8
0
10
2585.961453
20
1267.858190
30
0.0
40
1.200000
50
59.496833
51
90.000000
0
LINE
8
0
10
2585.961453
20
1269.058190
30
0.0
11
2585.707083
21
1269.058190
31
0.0
0
ARC
8
0
10
2585.707083
20
1268.758190
30
0.0
40
0.300000
50
90.000000
51
147.390000
0
LINE
8
0
10
2585.454376
20
1268.919866
30
0.0
11
2583.950840
21
1266.604624
31
0.0
0
ARC
8
0
10
2582.944435
20
1267.258190
30
0.0
40
1.200000
50
270.000000
51
327.000000
0
LINE
8
0
10
2582.944435
20
1266.058190
30
0.0
11
2559.008264
21
1266.058190
31
0.0
0
ARC
8
0
10
2559.008264
20
1281.262896
30
0.0
40
1.200000
50
90.000000
51
147.000000
0
LINE
8
0
10
2558.001859
20
1281.916463
30
0.0
11
2556.498323
21
1279.601220
31
0.0
0
ARC
8
0
10
2556.245616
20
1279.762896
30
0.0
40
0.300000
50
270.000000
51
327.390000
0
LINE
8
0
10
2556.245616
20
1279.462896
30
0.0
11
2555.991246
21
1279.462896
31
0.0
0
ARC
8
0
10
2555.991246
20
1280.662896
30
0.0
40
1.200000
50
239.496833
51
270.000000
0
LINE
8
0
10
2555.382143
20
1279.628974
30
0.0
11
2554.206827
21
1280.321376
31
0.0
0
ARC
8
0
10
2554.054551
20
1280.062896
30
0.0
40
0.300000
50
59.496833
51
90.000000
0
LINE
8
0
10
2554.054551
20
1280.362896
30
0.0
11
2553.876350
21
1280.362896
31
0.0
0
ARC
8
0
10
2553.876350
20
1279.962896
30
0.0
40
0.400000
50
90.000000
51
180.000000
0
LINE
8
0
10
2553.476350
20
1279.962896
30
0.0
11
2553.476350
21
1279.562896
31
0.0
0
ARC
8
0
10
2553.576350
20
1279.562896
30
0.0
40
0.100000
50
180.000000
51
270.000000
0
LINE
8
0
10
2553.576350
20
1279.462896
30
0.0
11
2553.576350
21
1279.187896
31
0.0
0
ARC
8
0
10
2553.876350
20
1279.187896
30
0.0
40
0.300000
50
180.000000
51
270.000000
0
LINE
8
0
10
2553.876350
20
1278.887896
30
0.0
11
2553.935876
21
1278.887896
31
0.0
0
ARC
8
0
10
2554.226350
20
1278.362896
30
0.0
40
0.600000
50
241.044976
51
118.955024
0
LINE
8
0
10
2553.935876
20
1277.837896
30
0.0
11
2553.876350
21
1277.837896
31
0.0
0
ARC
8
0
10
2553.876350
20
1277.537896
30
0.0
40
0.300000
50
90.000000
51
180.000000
0
LINE
8
0
10
2553.576350
20
1277.537896
30
0.0
11
2553.576350
21
1277.262896
31
0.0
0
ARC
8
0
10
2553.576350
20
1277.162896
30
0.0
40
0.100000
50
90.000000
51
180.000000
0
LINE
8
0
10
2553.476350
20
1277.162896
30
0.0
11
2553.476350
21
1276.762896
31
0.0
0
ARC
8
0
10
2553.876350
20
1276.762896
30
0.0
40
0.400000
50
180.000000
51
270.000000
0
LINE
8
0
10
2553.876350
20
1276.362896
30
0.0
11
2554.054684
21
1276.362896
31
0.0
0
ARC
8
0
10
2554.054684
20
1276.662896
30
0.0
40
0.300000
50
270.000000
51
300.455827
0
LINE
8
0
10
2554.206747
20
1276.404290
30
0.0
11
2555.385355
21
1277.097320
31
0.0
0
ARC
8
0
10
2555.993604
20
1276.062896
30
0.0
40
1.200000
50
90.000000
51
120.455827
0
LINE
8
0
10
2555.993604
20
1277.262896
30
0.0
11
2556.712977
21
1277.262896
31
0.0
0
ARC
8
0
10
2556.712977
20
1278.462896
30
0.0
40
1.200000
50
270.000000
51
327.000000
0
LINE
8
0
10
2557.719382
20
1277.809329
30
0.0
11
2559.158509
21
1280.025390
31
0.0
0
ARC
8
0
10
2560.332648
20
1279.262896
30
0.0
40
1.400000
50
90.000000
51
147.000000
0
LINE
8
0
10
2560.332648
20
1280.662896
30
0.0
11
2581.620051
21
1280.662896
31
0.0
0
ARC
8
0
10
2581.620051
20
1279.262896
30
0.0
40
1.400000
50
33.000000
51
90.000000
0
LINE
8
0
10
2582.794190
20
1280.025390
30
0.0
11
2584.233317
21
1277.809329
31
0.0
0
ARC
8
0
10
2585.239722
20
1278.462896
30
0.0
40
1.200000
50
213.000000
51
270.000000
0
LINE
8
0
10
2585.239722
20
1277.262896
30
0.0
11
2585.959095
21
1277.262896
31
0.0
0
ARC
8
0
10
2585.959095
20
1276.062896
30
0.0
40
1.200000
50
59.544173
51
90.000000
0
LINE
8
0
10
2586.567344
20
1277.097320
30
0.0
11
2587.745953
21
1276.404290
31
0.0
0
ARC
8
0
10
2587.898015
20
1276.662896
30
0.0
40
0.300000
50
239.544173
51
270.000000
0
LINE
8
0
10
2587.898015
20
1276.362896
30
0.0
11
2588.076350
21
1276.362896
31
0.0
0
ARC
8
0
10
2588.076350
20
1276.762896
30
0.0
40
0.400000
50
270.000000
51
360.000000
0
LINE
8
0
10
2588.476350
20
1276.762896
30
0.0
11
2588.476350
21
1277.162896
31
0.0
0
ARC
8
0
10
2588.376350
20
1277.162896
30
0.0
40
0.100000
50
360.000000
51
90.000000
0
LINE
8
0
10
2588.376350
20
1277.262896
30
0.0
11
2588.376350
21
1277.537896
31
0.0
0
ARC
8
0
10
2588.076350
20
1277.537896
30
0.0
40
0.300000
50
360.000000
51
90.000000
0
LINE
8
0
10
2588.076350
20
1277.837896
30
0.0
11
2588.016823
21
1277.837896
31
0.0
0
ARC
8
0
10
2587.726350
20
1278.362896
30
0.0
40
0.600000
50
61.044976
51
298.955024
0
LINE
8
0
10
2588.016823
20
1278.887896
30
0.0
11
2588.076350
21
1278.887896
31
0.0
0
ARC
8
0
10
2588.076350
20
1279.187896
30
0.0
40
0.300000
50
270.000000
51
360.000000
0
LINE
8
0
10
2588.376350
20
1279.187896
30
0.0
11
2588.376350
21
1279.462896
31
0.0
0
ARC
8
0
10
2588.376350
20
1279.562896
30
0.0
40
0.100000
50
270.000000
51
360.000000
0
LINE
8
0
10
2588.476350
20
1279.562896
30
0.0
11
2588.476350
21
1279.962896
31
0.0
0
ARC
8
0
10
2588.076350
20
1279.962896
30
0.0
40
0.400000
50
360.000000
51
90.000000
0
LINE
8
0
10
2588.076350
20
1280.362896
30
0.0
11
2587.898148
21
1280.362896
31
0.0
0
ARC
8
0
10
2587.898148
20
1280.062896
30
0.0
40
0.300000
50
90.000000
51
120.503167
0
LINE
8
0
10
2587.745872
20
1280.321376
30
0.0
11
2586.570556
21
1279.628974
31
0.0
0
ARC
8
0
10
2585.961453
20
1280.662896
30
0.0
40
1.200000
50
270.000000
51
300.503167
0
LINE
8
0
10
2585.961453
20
1279.462896
30
0.0
11
2585.707083
21
1279.462896
31
0.0
0
ARC
8
0
10
2585.707083
20
1279.762896
30
0.0
40
0.300000
50
212.610000
51
270.000000
0
LINE
8
0
10
2585.454376
20
1279.601220
30
0.0
11
2583.950840
21
1281.916463
31
0.0
0
ARC
8
0
10
2582.944435
20
1281.262896
30
0.0
40
1.200000
50
33.000000
51
90.000000
0
LINE
8
0
10
2582.944435
20
1282.462896
30
0.0
11
2559.008264
21
1282.462896
31
0.0
0
ATTDEF
8
0
10
0.000000
20
0.000000
30
0.0
40
3.5
1

3

2
PANE_WIDTH:0
70
0
0
ATTDEF
8
0
10
0.000000
20
0.000000
30
0.0
40
3.5
1

3

2
MIN_VETRO:0
70
0
0
ATTDEF
8
0
10
0.000000
20
0.000000
30
0.0
40
3.5
1

3

2
MAX_VETRO:0
70
0
0
ATTDEF
8
0
10
0.000000
20
0.000000
30
0.0
40
3.5
1

3

2
JX:0
70
0
0
ATTDEF
8
0
10
0.000000
20
0.000000
30
0.0
40
3.5
1

3

2
WX:0
70
0
0
ATTDEF
8
0
10
0.000000
20
0.000000
30
0.0
40
3.5
1

3

2
JY:0
70
0
0
ATTDEF
8
0
10
0.000000
20
0.000000
30
0.0
40
3.5
1

3

2
WY:0
70
0
0
ATTDEF
8
0
10
0.000000
20
0.000000
30
0.0
40
3.5
1

3

2
DESC:Marco ventana apertura exterior
70
0
0
ATTDEF
8
0
10
0.000000
20
0.000000
30
0.0
40
3.5
1

3

2
DENS:1.2848
70
0
0
ATTDEF
8
0
10
0.000000
20
0.000000
30
0.0
40
3.5
1

3

2
TDEV:47.37
70
0
0
ATTDEF
8
0
10
0.000000
20
0.000000
30
0.0
40
3.5
1

3

2
TDEV2:0
70
0
0
ATTDEF
8
0
10
0.000000
20
0.000000
30
0.0
40
3.5
1

3

2
TDEV3:0
70
0
0
ATTDEF
8
0
10
0.000000
20
0.000000
30
0.0
40
3.5
1

3

2
TDEV4:0
70
0
0
ATTDEF
8
0
10
0.000000
20
0.000000
30
0.0
40
3.5
1

3

2
TDEV5:0
70
0
0
ATTDEF
8
0
10
0.000000
20
0.000000
30
0.0
40
3.5
1

3

2
PANE_WIDTH:0
70
0
0
ATTDEF
8
0
10
0.000000
20
0.000000
30
0.0
40
3.5
1

3

2
MIN_VETRO:0
70
0
0
ATTDEF
8
0
10
0.000000
20
0.000000
30
0.0
40
3.5
1

3

2
MAX_VETRO:0
70
0
0
ATTDEF
8
0
10
0.000000
20
0.000000
30
0.0
40
3.5
1

3

2
JX:0
70
0
0
ATTDEF
8
0
10
0.000000
20
0.000000
30
0.0
40
3.5
1

3

2
WX:0
70
0
0
ATTDEF
8
0
10
0.000000
20
0.000000
30
0.0
40
3.5
1

3

2
JY:0
70
0
0
ATTDEF
8
0
10
0.000000
20
0.000000
30
0.0
40
3.5
1

3

2
WY:0
70
0
0
ATTDEF
8
0
10
2553.351350
20
1287.791885
30
0.0
40
3.5
1

3

2
VC_START
70
0
0
ATTDEF
8
0
10
2542.722797
20
1260.591885
30
0.0
40
3.5
1

3

2
VC_END
70
0
0
ATTDEF
8
0
10
2541.176350
20
1260.591885
30
0.0
40
3.5
1

3

2
FP_LCS_ORIG
70
0
0
ATTDEF
8
0
10
2551.176350
20
1260.591885
30
0.0
40
3.5
1

3

2
FP_LCS_HOT
70
0
0
ATTDEF
8
0
10
2541.176350
20
1270.591885
30
0.0
40
3.5
1

3

2
FP_LCS_INTERN
70
0
0
ENDSEC
0
EOF
