0
SECTION
2
ENTITIES
0
LINE
8
0
10
274.827468
20
225.436059
30
0.0
11
275.883638
21
226.492230
31
0.0
0
LINE
8
0
10
266.080105
20
214.443632
30
0.0
11
266.895952
21
215.259480
31
0.0
0
LINE
8
0
10
274.827468
20
223.190995
30
0.0
11
276.027468
21
224.390995
31
0.0
0
LINE
8
0
10
265.734012
20
211.852476
30
0.0
11
268.789149
21
214.907612
31
0.0
0
LINE
8
0
10
274.827468
20
220.945931
30
0.0
11
276.027468
21
222.145931
31
0.0
0
LINE
8
0
10
268.442881
20
212.316280
30
0.0
11
269.888689
21
213.762088
31
0.0
0
LINE
8
0
10
282.127468
20
226.000867
30
0.0
11
282.821640
21
226.695039
31
0.0
0
LINE
8
0
10
274.827468
20
218.700867
30
0.0
11
276.027468
21
219.900867
31
0.0
0
LINE
8
0
10
269.326811
20
210.955147
30
0.0
11
270.772619
21
212.400954
31
0.0
0
LINE
8
0
10
282.127468
20
223.755803
30
0.0
11
283.327468
21
224.955803
31
0.0
0
LINE
8
0
10
274.827468
20
216.455803
30
0.0
11
276.027468
21
217.655803
31
0.0
0
LINE
8
0
10
270.418608
20
209.801879
30
0.0
11
271.987578
21
211.370849
31
0.0
0
LINE
8
0
10
282.127468
20
221.510739
30
0.0
11
283.327468
21
222.710739
31
0.0
0
LINE
8
0
10
274.827468
20
214.210739
30
0.0
11
276.027468
21
215.410739
31
0.0
0
LINE
8
0
10
272.614269
20
209.752476
30
0.0
11
274.214269
21
211.352476
31
0.0
0
LINE
8
0
10
282.127468
20
219.265675
30
0.0
11
283.327468
21
220.465675
31
0.0
0
LINE
8
0
10
274.827468
20
211.965675
30
0.0
11
276.027468
21
213.165675
31
0.0
0
LINE
8
0
10
274.859333
20
209.752476
30
0.0
11
276.463448
21
211.356591
31
0.0
0
LINE
8
0
10
289.527468
20
224.420611
30
0.0
11
290.727468
21
225.620611
31
0.0
0
LINE
8
0
10
282.127468
20
217.020611
30
0.0
11
283.327468
21
218.220611
31
0.0
0
LINE
8
0
10
277.104397
20
209.752476
30
0.0
11
278.704397
21
211.352476
31
0.0
0
LINE
8
0
10
289.527468
20
222.175547
30
0.0
11
290.727468
21
223.375547
31
0.0
0
LINE
8
0
10
282.127468
20
214.775547
30
0.0
11
283.327468
21
215.975547
31
0.0
0
LINE
8
0
10
279.349461
20
209.752476
30
0.0
11
280.949461
21
211.352476
31
0.0
0
LINE
8
0
10
289.527468
20
219.930483
30
0.0
11
290.727468
21
221.130483
31
0.0
0
LINE
8
0
10
282.127468
20
212.530483
30
0.0
11
283.327468
21
213.730483
31
0.0
0
LINE
8
0
10
281.594525
20
209.752476
30
0.0
11
283.413748
21
211.571699
31
0.0
0
LINE
8
0
10
289.527468
20
217.685419
30
0.0
11
290.727468
21
218.885419
31
0.0
0
LINE
8
0
10
283.839589
20
209.752476
30
0.0
11
285.439589
21
211.352476
31
0.0
0
LINE
8
0
10
289.527468
20
215.440355
30
0.0
11
290.727468
21
216.640355
31
0.0
0
LINE
8
0
10
286.084653
20
209.752476
30
0.0
11
287.684653
21
211.352476
31
0.0
0
LINE
8
0
10
289.527468
20
213.195290
30
0.0
11
290.727468
21
214.395290
31
0.0
0
LINE
8
0
10
288.329717
20
209.752476
30
0.0
11
290.727468
21
212.150226
31
0.0
0
LINE
8
0
10
290.574781
20
209.752476
30
0.0
11
292.174781
21
211.352476
31
0.0
0
LINE
8
0
10
292.819845
20
209.752476
30
0.0
11
298.077369
21
215.010000
31
0.0
0
LINE
8
0
10
295.157306
20
209.844873
30
0.0
11
295.869807
21
210.557374
31
0.0
0
LINE
8
0
10
299.715620
20
214.403187
30
0.0
11
300.127468
21
214.815034
31
0.0
0
LINE
8
0
10
298.023856
20
212.711423
30
0.0
11
298.926756
21
213.614323
31
0.0
0
LINE
8
0
10
299.468359
20
211.910862
30
0.0
11
300.226150
21
212.668653
31
0.0
0
LINE
8
0
10
266.176115
20
212.022524
30
0.0
11
265.327468
21
212.871171
31
0.0
0
LINE
8
0
10
270.689171
20
209.754531
30
0.0
11
269.027209
21
211.416493
31
0.0
0
LINE
8
0
10
265.991388
20
214.452314
30
0.0
11
265.227468
21
215.216235
31
0.0
0
LINE
8
0
10
267.692269
20
212.751433
30
0.0
11
266.577306
21
213.866396
31
0.0
0
LINE
8
0
10
272.936291
20
209.752476
30
0.0
11
267.736261
21
214.952505
31
0.0
0
LINE
8
0
10
275.181355
20
209.752476
30
0.0
11
273.581355
21
211.352476
31
0.0
0
LINE
8
0
10
277.426419
20
209.752476
30
0.0
11
274.827468
21
212.351427
31
0.0
0
LINE
8
0
10
279.671483
20
209.752476
30
0.0
11
278.071483
21
211.352476
31
0.0
0
LINE
8
0
10
276.027468
20
213.396491
30
0.0
11
274.827468
21
214.596491
31
0.0
0
LINE
8
0
10
281.916547
20
209.752476
30
0.0
11
280.316547
21
211.352476
31
0.0
0
LINE
8
0
10
276.027468
20
215.641555
30
0.0
11
274.827468
21
216.841555
31
0.0
0
LINE
8
0
10
284.161611
20
209.752476
30
0.0
11
282.123609
21
211.790478
31
0.0
0
LINE
8
0
10
276.027468
20
217.886619
30
0.0
11
274.827468
21
219.086619
31
0.0
0
LINE
8
0
10
286.406675
20
209.752476
30
0.0
11
284.806675
21
211.352476
31
0.0
0
LINE
8
0
10
276.027468
20
220.131683
30
0.0
11
274.827468
21
221.331683
31
0.0
0
LINE
8
0
10
283.327468
20
212.831683
30
0.0
11
282.127468
21
214.031683
31
0.0
0
LINE
8
0
10
288.651739
20
209.752476
30
0.0
11
287.051739
21
211.352476
31
0.0
0
LINE
8
0
10
276.027468
20
222.376747
30
0.0
11
274.827468
21
223.576747
31
0.0
0
LINE
8
0
10
283.327468
20
215.076747
30
0.0
11
282.127468
21
216.276747
31
0.0
0
LINE
8
0
10
290.896803
20
209.752476
30
0.0
11
289.246348
21
211.402930
31
0.0
0
LINE
8
0
10
276.027468
20
224.621811
30
0.0
11
274.827468
21
225.821811
31
0.0
0
LINE
8
0
10
283.327468
20
217.321811
30
0.0
11
282.127468
21
218.521811
31
0.0
0
LINE
8
0
10
293.141867
20
209.752476
30
0.0
11
291.541867
21
211.352476
31
0.0
0
LINE
8
0
10
283.327468
20
219.566875
30
0.0
11
282.127468
21
220.766875
31
0.0
0
LINE
8
0
10
290.727468
20
212.166875
30
0.0
11
289.527468
21
213.366875
31
0.0
0
LINE
8
0
10
295.250764
20
209.888643
30
0.0
11
293.707148
21
211.432258
31
0.0
0
LINE
8
0
10
283.327468
20
221.811939
30
0.0
11
282.127468
21
223.011939
31
0.0
0
LINE
8
0
10
290.727468
20
214.411939
30
0.0
11
289.527468
21
215.611939
31
0.0
0
LINE
8
0
10
296.246713
20
211.137758
30
0.0
11
294.800905
21
212.583566
31
0.0
0
LINE
8
0
10
283.327468
20
224.057003
30
0.0
11
282.127468
21
225.257003
31
0.0
0
LINE
8
0
10
290.727468
20
216.657003
30
0.0
11
289.527468
21
217.857003
31
0.0
0
LINE
8
0
10
297.130643
20
212.498891
30
0.0
11
295.684835
21
213.944699
31
0.0
0
LINE
8
0
10
283.269261
20
226.360274
30
0.0
11
282.985266
21
226.644269
31
0.0
0
LINE
8
0
10
290.727468
20
218.902067
30
0.0
11
289.527468
21
220.102067
31
0.0
0
LINE
8
0
10
299.988345
20
211.886254
30
0.0
11
296.923987
21
214.950612
31
0.0
0
LINE
8
0
10
290.727468
20
221.147131
30
0.0
11
289.527468
21
222.347131
31
0.0
0
LINE
8
0
10
299.717132
20
214.402531
30
0.0
11
298.748655
21
215.371008
31
0.0
0
LINE
8
0
10
290.727468
20
223.392195
30
0.0
11
289.527468
21
224.592195
31
0.0
0
LINE
8
0
10
290.727468
20
225.637259
30
0.0
11
289.775982
21
226.588745
31
0.0
0
LINE
8
0
10
276.435232
20
233.779015
30
0.0
11
277.280949
21
234.624733
31
0.0
0
LINE
8
0
10
276.080318
20
231.179038
30
0.0
11
282.180318
21
237.279038
31
0.0
0
LINE
8
0
10
279.282506
20
232.136161
30
0.0
11
280.203263
21
233.056918
31
0.0
0
LINE
8
0
10
282.625382
20
235.479038
30
0.0
11
284.425382
21
237.279038
31
0.0
0
LINE
8
0
10
284.870446
20
235.479038
30
0.0
11
286.670446
21
237.279038
31
0.0
0
LINE
8
0
10
287.115510
20
235.479038
30
0.0
11
288.915510
21
237.279038
31
0.0
0
LINE
8
0
10
289.360574
20
235.479038
30
0.0
11
291.160574
21
237.279038
31
0.0
0
LINE
8
0
10
291.605638
20
235.479038
30
0.0
11
293.405638
21
237.279038
31
0.0
0
LINE
8
0
10
293.850702
20
235.479038
30
0.0
11
295.650702
21
237.279038
31
0.0
0
LINE
8
0
10
296.095766
20
235.479038
30
0.0
11
297.895766
21
237.279038
31
0.0
0
LINE
8
0
10
298.340830
20
235.479038
30
0.0
11
300.140830
21
237.279038
31
0.0
0
LINE
8
0
10
300.585894
20
235.479038
30
0.0
11
302.385894
21
237.279038
31
0.0
0
LINE
8
0
10
302.830958
20
235.479038
30
0.0
11
304.630958
21
237.279038
31
0.0
0
LINE
8
0
10
304.737075
20
235.140090
30
0.0
11
306.223458
21
236.626473
31
0.0
0
LINE
8
0
10
305.661581
20
233.819532
30
0.0
11
307.107389
21
235.265340
31
0.0
0
LINE
8
0
10
306.557136
20
232.470023
30
0.0
11
308.386798
21
234.299685
31
0.0
0
LINE
8
0
10
308.389588
20
232.057411
30
0.0
11
309.351651
21
233.019474
31
0.0
0
LINE
8
0
10
310.619198
20
234.287021
30
0.0
11
310.672062
21
234.339885
31
0.0
0
LINE
8
0
10
310.089608
20
233.757431
30
0.0
11
310.580045
21
234.247868
31
0.0
0
LINE
8
0
10
309.853946
20
231.276705
30
0.0
11
310.637867
21
232.060626
31
0.0
0
LINE
8
0
10
276.205433
20
231.179038
30
0.0
11
275.680045
21
231.704426
31
0.0
0
LINE
8
0
10
277.671718
20
231.957817
30
0.0
11
276.864412
21
232.765123
31
0.0
0
LINE
8
0
10
279.589317
20
232.285282
30
0.0
11
277.205300
21
234.669299
31
0.0
0
LINE
8
0
10
280.541659
20
233.578003
30
0.0
11
279.095852
21
235.023811
31
0.0
0
LINE
8
0
10
281.429032
20
234.935695
30
0.0
11
279.979782
21
236.384945
31
0.0
0
LINE
8
0
10
283.130753
20
235.479038
30
0.0
11
281.330753
21
237.279038
31
0.0
0
LINE
8
0
10
285.375818
20
235.479038
30
0.0
11
283.575818
21
237.279038
31
0.0
0
LINE
8
0
10
287.620882
20
235.479038
30
0.0
11
285.820882
21
237.279038
31
0.0
0
LINE
8
0
10
289.865946
20
235.479038
30
0.0
11
288.065946
21
237.279038
31
0.0
0
LINE
8
0
10
292.111010
20
235.479038
30
0.0
11
290.311010
21
237.279038
31
0.0
0
LINE
8
0
10
294.356074
20
235.479038
30
0.0
11
292.556074
21
237.279038
31
0.0
0
LINE
8
0
10
296.601138
20
235.479038
30
0.0
11
294.801138
21
237.279038
31
0.0
0
LINE
8
0
10
298.846202
20
235.479038
30
0.0
11
297.046202
21
237.279038
31
0.0
0
LINE
8
0
10
301.091266
20
235.479038
30
0.0
11
299.291266
21
237.279038
31
0.0
0
LINE
8
0
10
303.336330
20
235.479038
30
0.0
11
301.536330
21
237.279038
31
0.0
0
LINE
8
0
10
309.683507
20
231.376924
30
0.0
11
303.781394
21
237.279038
31
0.0
0
LINE
8
0
10
309.615510
20
233.689985
30
0.0
11
308.828450
21
234.477045
31
0.0
0
LINE
8
0
10
310.665829
20
234.884731
30
0.0
11
310.385738
21
235.164821
31
0.0
0
ARC
8
0
10
281.211959
20
236.079038
30
0.0
40
1.200000
50
90.000000
51
147.000000
0
LINE
8
0
10
281.211959
20
237.279038
30
0.0
11
305.148131
21
237.279038
31
0.0
0
ARC
8
0
10
305.148131
20
236.079038
30
0.0
40
1.200000
50
33.000000
51
90.000000
0
LINE
8
0
10
306.154536
20
236.732604
30
0.0
11
307.658072
21
234.417362
31
0.0
0
ARC
8
0
10
307.910779
20
234.579038
30
0.0
40
0.300000
50
212.610000
51
270.000000
0
LINE
8
0
10
307.910779
20
234.279038
30
0.0
11
308.165148
21
234.279038
31
0.0
0
ARC
8
0
10
308.165148
20
235.479038
30
0.0
40
1.200000
50
270.000000
51
300.503167
0
LINE
8
0
10
308.774251
20
234.445116
30
0.0
11
309.949568
21
235.137518
31
0.0
0
ARC
8
0
10
310.101843
20
234.879038
30
0.0
40
0.300000
50
90.000000
51
120.503167
0
LINE
8
0
10
310.101843
20
235.179038
30
0.0
11
310.280045
21
235.179038
31
0.0
0
ARC
8
0
10
310.280045
20
234.779038
30
0.0
40
0.400000
50
360.000000
51
90.000000
0
LINE
8
0
10
310.680045
20
234.779038
30
0.0
11
310.680045
21
234.379038
31
0.0
0
ARC
8
0
10
310.580045
20
234.379038
30
0.0
40
0.100000
50
270.000000
51
360.000000
0
LINE
8
0
10
310.580045
20
234.279038
30
0.0
11
310.580045
21
234.004038
31
0.0
0
ARC
8
0
10
310.280045
20
234.004038
30
0.0
40
0.300000
50
270.000000
51
360.000000
0
LINE
8
0
10
310.280045
20
233.704038
30
0.0
11
310.220519
21
233.704038
31
0.0
0
ARC
8
0
10
309.930045
20
233.179038
30
0.0
40
0.600000
50
61.044976
51
298.955024
0
LINE
8
0
10
310.220519
20
232.654038
30
0.0
11
310.280045
21
232.654038
31
0.0
0
ARC
8
0
10
310.280045
20
232.354038
30
0.0
40
0.300000
50
360.000000
51
90.000000
0
LINE
8
0
10
310.580045
20
232.354038
30
0.0
11
310.580045
21
232.079038
31
0.0
0
ARC
8
0
10
310.580045
20
231.979038
30
0.0
40
0.100000
50
360.000000
51
90.000000
0
LINE
8
0
10
310.680045
20
231.979038
30
0.0
11
310.680045
21
231.579038
31
0.0
0
ARC
8
0
10
310.280045
20
231.579038
30
0.0
40
0.400000
50
270.000000
51
360.000000
0
LINE
8
0
10
310.280045
20
231.179038
30
0.0
11
310.101710
21
231.179038
31
0.0
0
ARC
8
0
10
310.101710
20
231.479038
30
0.0
40
0.300000
50
239.544173
51
270.000000
0
LINE
8
0
10
309.949648
20
231.220431
30
0.0
11
308.771039
21
231.913462
31
0.0
0
ARC
8
0
10
308.162791
20
230.879038
30
0.0
40
1.200000
50
59.544173
51
90.000000
0
LINE
8
0
10
308.162791
20
232.079038
30
0.0
11
307.443418
21
232.079038
31
0.0
0
ARC
8
0
10
307.443418
20
233.279038
30
0.0
40
1.200000
50
213.000000
51
270.000000
0
LINE
8
0
10
306.437013
20
232.625471
30
0.0
11
304.997886
21
234.841532
31
0.0
0
ARC
8
0
10
303.823747
20
234.079038
30
0.0
40
1.400000
50
33.000000
51
90.000000
0
LINE
8
0
10
303.823747
20
235.479038
30
0.0
11
282.536343
21
235.479038
31
0.0
0
ARC
8
0
10
282.536343
20
234.079038
30
0.0
40
1.400000
50
90.000000
51
147.000000
0
LINE
8
0
10
281.362205
20
234.841532
30
0.0
11
279.923077
21
232.625471
31
0.0
0
ARC
8
0
10
278.916673
20
233.279038
30
0.0
40
1.200000
50
270.000000
51
327.000000
0
LINE
8
0
10
278.916673
20
232.079038
30
0.0
11
278.197300
21
232.079038
31
0.0
0
ARC
8
0
10
278.197300
20
230.879038
30
0.0
40
1.200000
50
90.000000
51
120.455827
0
LINE
8
0
10
277.589051
20
231.913462
30
0.0
11
276.410442
21
231.220431
31
0.0
0
ARC
8
0
10
276.258380
20
231.479038
30
0.0
40
0.300000
50
270.000000
51
300.455827
0
LINE
8
0
10
276.258380
20
231.179038
30
0.0
11
276.080045
21
231.179038
31
0.0
0
ARC
8
0
10
276.080045
20
231.579038
30
0.0
40
0.400000
50
180.000000
51
270.000000
0
LINE
8
0
10
275.680045
20
231.579038
30
0.0
11
275.680045
21
231.979038
31
0.0
0
ARC
8
0
10
275.780045
20
231.979038
30
0.0
40
0.100000
50
90.000000
51
180.000000
0
LINE
8
0
10
275.780045
20
232.079038
30
0.0
11
275.780045
21
232.354038
31
0.0
0
ARC
8
0
10
276.080045
20
232.354038
30
0.0
40
0.300000
50
90.000000
51
180.000000
0
LINE
8
0
10
276.080045
20
232.654038
30
0.0
11
276.139571
21
232.654038
31
0.0
0
ARC
8
0
10
276.430045
20
233.179038
30
0.0
40
0.600000
50
241.044976
51
118.955024
0
LINE
8
0
10
276.139571
20
233.704038
30
0.0
11
276.080045
21
233.704038
31
0.0
0
ARC
8
0
10
276.080045
20
234.004038
30
0.0
40
0.300000
50
180.000000
51
270.000000
0
LINE
8
0
10
275.780045
20
234.004038
30
0.0
11
275.780045
21
234.279038
31
0.0
0
ARC
8
0
10
275.780045
20
234.379038
30
0.0
40
0.100000
50
180.000000
51
270.000000
0
LINE
8
0
10
275.680045
20
234.379038
30
0.0
11
275.680045
21
234.779038
31
0.0
0
ARC
8
0
10
276.080045
20
234.779038
30
0.0
40
0.400000
50
90.000000
51
180.000000
0
LINE
8
0
10
276.080045
20
235.179038
30
0.0
11
276.258247
21
235.179038
31
0.0
0
ARC
8
0
10
276.258247
20
234.879038
30
0.0
40
0.300000
50
59.496833
51
90.000000
0
LINE
8
0
10
276.410523
20
235.137518
30
0.0
11
277.585839
21
234.445116
31
0.0
0
ARC
8
0
10
278.194942
20
235.479038
30
0.0
40
1.200000
50
239.496833
51
270.000000
0
LINE
8
0
10
278.194942
20
234.279038
30
0.0
11
278.449311
21
234.279038
31
0.0
0
ARC
8
0
10
278.449311
20
234.579038
30
0.0
40
0.300000
50
270.000000
51
327.390000
0
LINE
8
0
10
278.702019
20
234.417362
30
0.0
11
280.205555
21
236.732604
31
0.0
0
ARC
8
0
10
294.695553
20
210.952476
30
0.0
40
1.200000
50
270.000000
51
327.000000
0
LINE
8
0
10
294.695553
20
209.752476
30
0.0
11
291.727468
21
209.752476
31
0.0
0
LINE
8
0
10
291.727468
20
209.752476
30
0.0
11
273.727468
21
209.752476
31
0.0
0
LINE
8
0
10
273.727468
20
209.752476
30
0.0
11
270.759382
21
209.752476
31
0.0
0
ARC
8
0
10
270.759382
20
210.952476
30
0.0
40
1.200000
50
213.000000
51
270.000000
0
LINE
8
0
10
269.752977
20
210.298909
30
0.0
11
268.249441
21
212.614151
31
0.0
0
ARC
8
0
10
267.996734
20
212.452476
30
0.0
40
0.300000
50
32.610000
51
90.000000
0
LINE
8
0
10
267.996734
20
212.752476
30
0.0
11
267.742273
21
212.752476
31
0.0
0
ARC
8
0
10
267.742273
20
211.552476
30
0.0
40
1.200000
50
90.000000
51
121.006334
0
LINE
8
0
10
267.124114
20
212.581008
30
0.0
11
265.957945
21
211.893995
31
0.0
0
ARC
8
0
10
265.805669
20
212.152476
30
0.0
40
0.300000
50
270.000000
51
300.503167
0
LINE
8
0
10
265.805669
20
211.852476
30
0.0
11
265.627468
21
211.852476
31
0.0
0
ARC
8
0
10
265.627468
20
212.252476
30
0.0
40
0.400000
50
180.000000
51
270.000000
0
LINE
8
0
10
265.227468
20
212.252476
30
0.0
11
265.227468
21
212.652476
31
0.0
0
ARC
8
0
10
265.327468
20
212.652476
30
0.0
40
0.100000
50
90.000000
51
180.000000
0
LINE
8
0
10
265.327468
20
212.752476
30
0.0
11
265.327468
21
213.027476
31
0.0
0
ARC
8
0
10
265.627468
20
213.027476
30
0.0
40
0.300000
50
90.000000
51
180.000000
0
LINE
8
0
10
265.627468
20
213.327476
30
0.0
11
265.686994
21
213.327476
31
0.0
0
ARC
8
0
10
265.977468
20
213.852476
30
0.0
40
0.600000
50
241.044976
51
118.955024
0
LINE
8
0
10
265.686994
20
214.377476
30
0.0
11
265.627468
21
214.377476
31
0.0
0
ARC
8
0
10
265.627468
20
214.677476
30
0.0
40
0.300000
50
180.000000
51
270.000000
0
LINE
8
0
10
265.327468
20
214.677476
30
0.0
11
265.327468
21
214.952476
31
0.0
0
ARC
8
0
10
265.327468
20
215.052476
30
0.0
40
0.100000
50
180.000000
51
270.000000
0
LINE
8
0
10
265.227468
20
215.052476
30
0.0
11
265.227468
21
215.452476
31
0.0
0
ARC
8
0
10
265.627468
20
215.452476
30
0.0
40
0.400000
50
90.000000
51
180.000000
0
LINE
8
0
10
265.627468
20
215.852476
30
0.0
11
265.805802
21
215.852476
31
0.0
0
ARC
8
0
10
265.805802
20
215.552476
30
0.0
40
0.300000
50
59.544173
51
90.000000
0
LINE
8
0
10
265.957865
20
215.811082
30
0.0
11
267.128188
21
215.122923
31
0.0
0
ARC
8
0
10
267.744647
20
216.152476
30
0.0
40
1.200000
50
239.088345
51
270.000000
0
LINE
8
0
10
267.744647
20
214.952476
30
0.0
11
268.464095
21
214.952476
31
0.0
0
ARC
8
0
10
268.464095
20
213.752476
30
0.0
40
1.200000
50
33.000000
51
90.000000
0
LINE
8
0
10
269.470500
20
214.406043
30
0.0
11
271.039508
21
211.989981
31
0.0
0
ARC
8
0
10
272.213647
20
212.752476
30
0.0
40
1.400000
50
213.000000
51
270.000000
0
LINE
8
0
10
272.213647
20
211.352476
30
0.0
11
274.327468
21
211.352476
31
0.0
0
ARC
8
0
10
274.327468
20
211.852476
30
0.0
40
0.500000
50
270.000000
51
360.000000
0
LINE
8
0
10
274.827468
20
211.852476
30
0.0
11
274.827468
21
226.102476
31
0.0
0
ARC
8
0
10
275.427468
20
226.102476
30
0.0
40
0.600000
50
360.000000
51
180.000000
0
LINE
8
0
10
276.027468
20
226.102476
30
0.0
11
276.027468
21
211.852476
31
0.0
0
ARC
8
0
10
276.527468
20
211.852476
30
0.0
40
0.500000
50
180.000000
51
270.000000
0
LINE
8
0
10
276.527468
20
211.352476
30
0.0
11
281.627468
21
211.352476
31
0.0
0
ARC
8
0
10
281.627468
20
211.852476
30
0.0
40
0.500000
50
270.000000
51
360.000000
0
LINE
8
0
10
282.127468
20
211.852476
30
0.0
11
282.127468
21
226.102476
31
0.0
0
ARC
8
0
10
282.727468
20
226.102476
30
0.0
40
0.600000
50
360.000000
51
180.000000
0
LINE
8
0
10
283.327468
20
226.102476
30
0.0
11
283.327468
21
211.852476
31
0.0
0
ARC
8
0
10
283.827468
20
211.852476
30
0.0
40
0.500000
50
180.000000
51
270.000000
0
LINE
8
0
10
283.827468
20
211.352476
30
0.0
11
289.027468
21
211.352476
31
0.0
0
ARC
8
0
10
289.027468
20
211.852476
30
0.0
40
0.500000
50
270.000000
51
360.000000
0
LINE
8
0
10
289.527468
20
211.852476
30
0.0
11
289.527468
21
226.102476
31
0.0
0
ARC
8
0
10
290.127468
20
226.102476
30
0.0
40
0.600000
50
360.000000
51
180.000000
0
LINE
8
0
10
290.727468
20
226.102476
30
0.0
11
290.727468
21
211.852476
31
0.0
0
ARC
8
0
10
291.227468
20
211.852476
30
0.0
40
0.500000
50
180.000000
51
270.000000
0
LINE
8
0
10
291.227468
20
211.352476
30
0.0
11
293.241288
21
211.352476
31
0.0
0
ARC
8
0
10
293.241288
20
212.752476
30
0.0
40
1.400000
50
270.000000
51
327.000000
0
LINE
8
0
10
294.415427
20
211.989981
30
0.0
11
295.984435
21
214.406043
31
0.0
0
ARC
8
0
10
296.990840
20
213.752476
30
0.0
40
1.200000
50
90.000000
51
147.000000
0
LINE
8
0
10
296.990840
20
214.952476
30
0.0
11
297.710288
21
214.952476
31
0.0
0
ARC
8
0
10
297.710288
20
216.152476
30
0.0
40
1.200000
50
270.000000
51
300.911655
0
LINE
8
0
10
298.326747
20
215.122923
30
0.0
11
299.497070
21
215.811082
31
0.0
0
ARC
8
0
10
299.649133
20
215.552476
30
0.0
40
0.300000
50
90.000000
51
120.455827
0
LINE
8
0
10
299.649133
20
215.852476
30
0.0
11
299.827468
21
215.852476
31
0.0
0
ARC
8
0
10
299.827468
20
215.452476
30
0.0
40
0.400000
50
360.000000
51
90.000000
0
LINE
8
0
10
300.227468
20
215.452476
30
0.0
11
300.227468
21
215.052476
31
0.0
0
ARC
8
0
10
300.127468
20
215.052476
30
0.0
40
0.100000
50
270.000000
51
360.000000
0
LINE
8
0
10
300.127468
20
214.952476
30
0.0
11
300.127468
21
214.677476
31
0.0
0
ARC
8
0
10
299.827468
20
214.677476
30
0.0
40
0.300000
50
270.000000
51
360.000000
0
LINE
8
0
10
299.827468
20
214.377476
30
0.0
11
299.767941
21
214.377476
31
0.0
0
ARC
8
0
10
299.477468
20
213.852476
30
0.0
40
0.600000
50
61.044976
51
298.955024
0
LINE
8
0
10
299.767941
20
213.327476
30
0.0
11
299.827468
21
213.327476
31
0.0
0
ARC
8
0
10
299.827468
20
213.027476
30
0.0
40
0.300000
50
360.000000
51
90.000000
0
LINE
8
0
10
300.127468
20
213.027476
30
0.0
11
300.127468
21
212.752476
31
0.0
0
ARC
8
0
10
300.127468
20
212.652476
30
0.0
40
0.100000
50
360.000000
51
90.000000
0
LINE
8
0
10
300.227468
20
212.652476
30
0.0
11
300.227468
21
212.252476
31
0.0
0
ARC
8
0
10
299.827468
20
212.252476
30
0.0
40
0.400000
50
270.000000
51
360.000000
0
LINE
8
0
10
299.827468
20
211.852476
30
0.0
11
299.649266
21
211.852476
31
0.0
0
ARC
8
0
10
299.649266
20
212.152476
30
0.0
40
0.300000
50
239.496833
51
270.000000
0
LINE
8
0
10
299.496990
20
211.893995
30
0.0
11
298.330821
21
212.581008
31
0.0
0
ARC
8
0
10
297.712662
20
211.552476
30
0.0
40
1.200000
50
58.993666
51
90.000000
0
LINE
8
0
10
297.712662
20
212.752476
30
0.0
11
297.458201
21
212.752476
31
0.0
0
ARC
8
0
10
297.458201
20
212.452476
30
0.0
40
0.300000
50
90.000000
51
147.390000
0
LINE
8
0
10
297.205494
20
212.614151
30
0.0
11
295.701958
21
210.298909
31
0.0
0
ARC
8
0
10
298.536837
20
209.696870
30
0.0
40
1.000000
50
56.890902
51
143.380135
0
LINE
8
0
10
297.734226
20
210.293373
30
0.0
11
297.305970
21
209.717144
31
0.0
0
LINE
8
0
10
297.305970
20
209.717144
30
0.0
11
297.253957
21
209.508530
31
0.0
0
LINE
8
0
10
297.253957
20
209.508530
30
0.0
11
296.195927
21
209.483111
31
0.0
0
ARC
8
0
10
296.188721
20
209.783025
30
0.0
40
0.300000
50
164.748585
51
270.000000
0
LINE
8
0
10
295.899287
20
209.861941
30
0.0
11
297.857325
21
212.684854
31
0.0
0
ARC
8
0
10
298.024984
20
212.575810
30
0.0
40
0.200000
50
325.950408
51
146.960191
0
LINE
8
0
10
298.190694
20
212.463828
30
0.0
11
299.941459
21
211.279739
31
0.0
0
ARC
8
0
10
300.227468
20
211.189189
30
0.0
40
0.300000
50
162.432275
51
90.000000
0
LINE
8
0
10
300.227468
20
211.489189
30
0.0
11
300.227468
21
215.989189
31
0.0
0
ARC
8
0
10
300.027468
20
215.989189
30
0.0
40
0.200000
50
360.000000
51
120.000000
0
LINE
8
0
10
299.927468
20
216.162394
30
0.0
11
298.127371
21
215.123108
31
0.0
0
ARC
8
0
10
297.927468
20
215.116886
30
0.0
40
0.200000
50
180.000000
51
360.000000
0
LINE
8
0
10
297.727468
20
215.116886
30
0.0
11
297.727468
21
216.508805
31
0.0
0
ARC
8
0
10
297.927468
20
216.508805
30
0.0
40
0.200000
50
120.000000
51
180.000000
0
LINE
8
0
10
297.827468
20
216.682010
30
0.0
11
299.877468
21
217.865578
31
0.0
0
ARC
8
0
10
299.527468
20
218.471796
30
0.0
40
0.700000
50
300.000000
51
360.000000
0
LINE
8
0
10
300.227468
20
218.471796
30
0.0
11
300.227468
21
222.517359
31
0.0
0
ARC
8
0
10
301.227468
20
222.517359
30
0.0
40
1.000000
50
90.000000
51
180.000000
0
LINE
8
0
10
301.227468
20
223.517359
30
0.0
11
310.180045
21
223.517359
31
0.0
0
ARC
8
0
10
310.180045
20
224.017359
30
0.0
40
0.500000
50
270.000000
51
360.000000
0
LINE
8
0
10
310.680045
20
224.017359
30
0.0
11
310.680045
21
228.562923
31
0.0
0
ARC
8
0
10
309.980045
20
228.562923
30
0.0
40
0.700000
50
360.000000
51
60.000000
0
LINE
8
0
10
310.330045
20
229.169141
30
0.0
11
308.280045
21
230.352709
31
0.0
0
ARC
8
0
10
308.380045
20
230.525914
30
0.0
40
0.200000
50
180.000000
51
240.000000
0
LINE
8
0
10
308.180045
20
230.525914
30
0.0
11
308.180045
21
231.917833
31
0.0
0
ARC
8
0
10
308.380045
20
231.917833
30
0.0
40
0.200000
50
360.000000
51
180.000000
0
LINE
8
0
10
308.579948
20
231.911610
30
0.0
11
310.380045
21
230.872324
31
0.0
0
ARC
8
0
10
310.480045
20
231.045529
30
0.0
40
0.200000
50
240.000000
51
360.000000
0
LINE
8
0
10
310.680045
20
231.045529
30
0.0
11
310.680045
21
235.545529
31
0.0
0
ARC
8
0
10
310.680045
20
235.845529
30
0.0
40
0.300000
50
270.000000
51
197.567725
0
LINE
8
0
10
310.394037
20
235.754979
30
0.0
11
308.643272
21
234.570891
31
0.0
0
ARC
8
0
10
308.477561
20
234.458908
30
0.0
40
0.200000
50
213.039809
51
34.049592
0
LINE
8
0
10
308.309903
20
234.349864
30
0.0
11
306.351865
21
237.172777
31
0.0
0
ARC
8
0
10
306.641299
20
237.251693
30
0.0
40
0.300000
50
90.000000
51
195.251415
0
LINE
8
0
10
306.648504
20
237.551607
30
0.0
11
307.706535
21
237.526188
31
0.0
0
LINE
8
0
10
307.706535
20
237.526188
30
0.0
11
307.758548
21
237.317574
31
0.0
0
LINE
8
0
10
307.758548
20
237.317574
30
0.0
11
308.186804
21
236.741345
31
0.0
0
ARC
8
0
10
308.989414
20
237.337848
30
0.0
40
1.000000
50
216.619865
51
303.109098
0
LINE
8
0
10
309.535649
20
236.500216
30
0.0
11
310.453163
21
237.098543
31
0.0
0
ARC
8
0
10
310.180045
20
237.517359
30
0.0
40
0.500000
50
303.109098
51
360.000000
0
LINE
8
0
10
310.680045
20
237.517359
30
0.0
11
317.827468
21
237.517359
31
0.0
0
ARC
8
0
10
317.827468
20
237.017359
30
0.0
40
0.500000
50
360.000000
51
90.000000
0
LINE
8
0
10
318.327468
20
237.017359
30
0.0
11
318.327468
21
236.517359
31
0.0
0
LINE
8
0
10
318.327468
20
236.517359
30
0.0
11
327.012273
21
236.517359
31
0.0
0
ARC
8
0
10
327.012273
20
237.017359
30
0.0
40
0.500000
50
270.000000
51
358.285023
0
LINE
8
0
10
327.512049
20
237.002395
30
0.0
11
327.827468
21
247.537082
31
0.0
0
LINE
8
0
10
327.827468
20
247.537082
30
0.0
11
327.827468
21
260.260735
31
0.0
0
ARC
8
0
10
327.527468
20
260.260735
30
0.0
40
0.300000
50
360.000000
51
120.000000
0
LINE
8
0
10
327.377468
20
260.520542
30
0.0
11
323.977468
21
258.557552
31
0.0
0
ARC
8
0
10
323.827468
20
258.817359
30
0.0
40
0.300000
50
270.000000
51
300.000000
0
LINE
8
0
10
323.827468
20
258.517359
30
0.0
11
322.127468
21
258.517359
31
0.0
0
ARC
8
0
10
322.127468
20
259.017359
30
0.0
40
0.500000
50
180.000000
51
270.000000
0
LINE
8
0
10
321.627468
20
259.017359
30
0.0
11
321.627468
21
260.567359
31
0.0
0
ARC
8
0
10
322.127468
20
260.567359
30
0.0
40
0.500000
50
90.000000
51
180.000000
0
LINE
8
0
10
322.127468
20
261.067359
30
0.0
11
322.827468
21
261.067359
31
0.0
0
LINE
8
0
10
322.827468
20
261.067359
30
0.0
11
322.827468
21
259.817359
31
0.0
0
LINE
8
0
10
322.827468
20
259.817359
30
0.0
11
323.159518
21
259.817359
31
0.0
0
LINE
8
0
10
323.159518
20
259.817359
30
0.0
11
327.677468
21
262.425798
31
0.0
0
ARC
8
0
10
327.527468
20
262.685606
30
0.0
40
0.300000
50
300.000000
51
360.000000
0
LINE
8
0
10
327.827468
20
262.685606
30
0.0
11
327.827468
21
263.264582
31
0.0
0
ARC
8
0
10
327.527468
20
263.264582
30
0.0
40
0.300000
50
360.000000
51
60.000000
0
LINE
8
0
10
327.677468
20
263.524390
30
0.0
11
323.359518
21
266.017359
31
0.0
0
LINE
8
0
10
323.359518
20
266.017359
30
0.0
11
322.827468
21
266.017359
31
0.0
0
LINE
8
0
10
322.827468
20
266.017359
30
0.0
11
322.827468
21
264.567359
31
0.0
0
LINE
8
0
10
322.827468
20
264.567359
30
0.0
11
322.127468
21
264.567359
31
0.0
0
ARC
8
0
10
322.127468
20
265.067359
30
0.0
40
0.500000
50
180.000000
51
270.000000
0
LINE
8
0
10
321.627468
20
265.067359
30
0.0
11
321.627468
21
267.017359
31
0.0
0
ARC
8
0
10
322.127468
20
267.017359
30
0.0
40
0.500000
50
90.000000
51
180.000000
0
LINE
8
0
10
322.127468
20
267.517359
30
0.0
11
323.627468
21
267.517359
31
0.0
0
ARC
8
0
10
323.627468
20
267.017359
30
0.0
40
0.500000
50
60.000000
51
90.000000
0
LINE
8
0
10
323.877468
20
267.450372
30
0.0
11
329.077468
21
264.448150
31
0.0
0
ARC
8
0
10
328.827468
20
264.015138
30
0.0
40
0.500000
50
360.000000
51
60.000000
0
LINE
8
0
10
329.327468
20
264.015138
30
0.0
11
329.327468
21
199.769940
31
0.0
0
ARC
8
0
10
328.827468
20
199.769940
30
0.0
40
0.500000
50
300.000000
51
360.000000
0
LINE
8
0
10
329.077468
20
199.336928
30
0.0
11
322.577806
21
195.584346
31
0.0
0
ARC
8
0
10
322.327806
20
196.017359
30
0.0
40
0.500000
50
270.000000
51
300.000000
0
LINE
8
0
10
322.327806
20
195.517359
30
0.0
11
319.327468
21
195.517359
31
0.0
0
ARC
8
0
10
319.327468
20
196.017359
30
0.0
40
0.500000
50
180.000000
51
270.000000
0
LINE
8
0
10
318.827468
20
196.017359
30
0.0
11
318.827468
21
197.017359
31
0.0
0
LINE
8
0
10
318.827468
20
197.017359
30
0.0
11
322.059857
21
197.017359
31
0.0
0
LINE
8
0
10
322.059857
20
197.017359
30
0.0
11
327.827468
21
200.347291
31
0.0
0
LINE
8
0
10
327.827468
20
200.347291
30
0.0
11
327.827468
21
203.517359
31
0.0
0
LINE
8
0
10
327.827468
20
203.517359
30
0.0
11
300.727468
21
203.517359
31
0.0
0
ARC
8
0
10
300.727468
20
204.017359
30
0.0
40
0.500000
50
180.000000
51
270.000000
0
LINE
8
0
10
300.227468
20
204.017359
30
0.0
11
300.227468
21
209.517359
31
0.0
0
ARC
8
0
10
299.727468
20
209.517359
30
0.0
40
0.500000
50
360.000000
51
56.890902
0
LINE
8
0
10
300.000585
20
209.936175
30
0.0
11
299.083072
21
210.534502
31
0.0
0
LINE
8
0
10
327.827468
20
222.017359
30
0.0
11
322.827468
21
222.017359
31
0.0
0
LINE
8
0
10
322.827468
20
222.017359
30
0.0
11
322.827468
21
220.217359
31
0.0
0
LINE
8
0
10
322.827468
20
220.217359
30
0.0
11
321.027468
21
220.217359
31
0.0
0
LINE
8
0
10
321.027468
20
220.217359
30
0.0
11
321.027468
21
222.017359
31
0.0
0
LINE
8
0
10
321.027468
20
222.017359
30
0.0
11
301.727468
21
222.017359
31
0.0
0
LINE
8
0
10
301.727468
20
222.017359
30
0.0
11
301.727468
21
205.017359
31
0.0
0
LINE
8
0
10
301.727468
20
205.017359
30
0.0
11
321.027468
21
205.017359
31
0.0
0
LINE
8
0
10
321.027468
20
205.017359
30
0.0
11
321.027468
21
206.817359
31
0.0
0
LINE
8
0
10
321.027468
20
206.817359
30
0.0
11
322.827468
21
206.817359
31
0.0
0
LINE
8
0
10
322.827468
20
206.817359
30
0.0
11
322.827468
21
205.017359
31
0.0
0
LINE
8
0
10
322.827468
20
205.017359
30
0.0
11
327.827468
21
205.017359
31
0.0
0
LINE
8
0
10
327.827468
20
205.017359
30
0.0
11
327.827468
21
222.017359
31
0.0
0
LINE
8
0
10
316.913254
20
236.017359
30
0.0
11
312.180045
21
236.017359
31
0.0
0
LINE
8
0
10
312.180045
20
236.017359
30
0.0
11
312.180045
21
223.517359
31
0.0
0
LINE
8
0
10
312.180045
20
223.517359
30
0.0
11
327.827468
21
223.517359
31
0.0
0
LINE
8
0
10
327.827468
20
223.517359
30
0.0
11
327.827468
21
235.017359
31
0.0
0
LINE
8
0
10
327.827468
20
235.017359
30
0.0
11
316.913254
21
235.017359
31
0.0
0
LINE
8
0
10
316.913254
20
235.017359
30
0.0
11
316.913254
21
236.017359
31
0.0
0
ARC
8
0
10
266.918098
20
209.696870
30
0.0
40
1.000000
50
36.619865
51
123.109098
0
LINE
8
0
10
267.720709
20
210.293373
30
0.0
11
268.148965
21
209.717144
31
0.0
0
LINE
8
0
10
268.148965
20
209.717144
30
0.0
11
268.200978
21
209.508530
31
0.0
0
LINE
8
0
10
268.200978
20
209.508530
30
0.0
11
269.259008
21
209.483111
31
0.0
0
ARC
8
0
10
269.266214
20
209.783025
30
0.0
40
0.300000
50
270.000000
51
15.251415
0
LINE
8
0
10
269.555648
20
209.861941
30
0.0
11
267.597610
21
212.684854
31
0.0
0
ARC
8
0
10
267.429951
20
212.575810
30
0.0
40
0.200000
50
33.039809
51
214.049592
0
LINE
8
0
10
267.264241
20
212.463828
30
0.0
11
265.513476
21
211.279739
31
0.0
0
ARC
8
0
10
265.227468
20
211.189189
30
0.0
40
0.300000
50
90.000000
51
17.567725
0
LINE
8
0
10
265.227468
20
211.489189
30
0.0
11
265.227468
21
215.989189
31
0.0
0
ARC
8
0
10
265.427468
20
215.989189
30
0.0
40
0.200000
50
60.000000
51
180.000000
0
LINE
8
0
10
265.527468
20
216.162394
30
0.0
11
267.327564
21
215.123108
31
0.0
0
ARC
8
0
10
267.527468
20
215.116886
30
0.0
40
0.200000
50
180.000000
51
360.000000
0
LINE
8
0
10
267.727468
20
215.116886
30
0.0
11
267.727468
21
216.508805
31
0.0
0
ARC
8
0
10
267.527468
20
216.508805
30
0.0
40
0.200000
50
360.000000
51
60.000000
0
LINE
8
0
10
267.627468
20
216.682010
30
0.0
11
265.577468
21
217.865578
31
0.0
0
ARC
8
0
10
265.927468
20
218.471796
30
0.0
40
0.700000
50
180.000000
51
240.000000
0
LINE
8
0
10
265.227468
20
218.471796
30
0.0
11
265.227468
21
222.499257
31
0.0
0
ARC
8
0
10
265.977468
20
222.499257
30
0.0
40
0.750000
50
120.000000
51
180.000000
0
LINE
8
0
10
265.602468
20
223.148776
30
0.0
11
278.080045
21
230.352709
31
0.0
0
ARC
8
0
10
277.980045
20
230.525914
30
0.0
40
0.200000
50
300.000000
51
360.000000
0
LINE
8
0
10
278.180045
20
230.525914
30
0.0
11
278.180045
21
231.917833
31
0.0
0
ARC
8
0
10
277.980045
20
231.917833
30
0.0
40
0.200000
50
360.000000
51
180.000000
0
LINE
8
0
10
277.780142
20
231.911610
30
0.0
11
275.980045
21
230.872324
31
0.0
0
ARC
8
0
10
275.880045
20
231.045529
30
0.0
40
0.200000
50
180.000000
51
300.000000
0
LINE
8
0
10
275.680045
20
231.045529
30
0.0
11
275.680045
21
235.545529
31
0.0
0
ARC
8
0
10
275.680045
20
235.845529
30
0.0
40
0.300000
50
342.432275
51
270.000000
0
LINE
8
0
10
275.966053
20
235.754979
30
0.0
11
277.716818
21
234.570891
31
0.0
0
ARC
8
0
10
277.882529
20
234.458908
30
0.0
40
0.200000
50
145.950408
51
326.960191
0
LINE
8
0
10
278.050188
20
234.349864
30
0.0
11
280.008226
21
237.172777
31
0.0
0
ARC
8
0
10
279.718791
20
237.251693
30
0.0
40
0.300000
50
344.748585
51
90.000000
0
LINE
8
0
10
279.711586
20
237.551607
30
0.0
11
278.653556
21
237.526188
31
0.0
0
LINE
8
0
10
278.653556
20
237.526188
30
0.0
11
278.601542
21
237.317574
31
0.0
0
LINE
8
0
10
278.601542
20
237.317574
30
0.0
11
278.173287
21
236.741345
31
0.0
0
ARC
8
0
10
277.370676
20
237.337848
30
0.0
40
1.000000
50
236.890902
51
323.380135
0
LINE
8
0
10
276.824441
20
236.500216
30
0.0
11
275.906928
21
237.098543
31
0.0
0
ARC
8
0
10
276.180045
20
237.517359
30
0.0
40
0.500000
50
180.000000
51
236.890902
0
LINE
8
0
10
275.680045
20
237.517359
30
0.0
11
261.327129
21
237.517359
31
0.0
0
LINE
8
0
10
261.327129
20
237.517359
30
0.0
11
261.327129
21
242.217359
31
0.0
0
ARC
8
0
10
261.027129
20
242.217359
30
0.0
40
0.300000
50
360.000000
51
90.000000
0
LINE
8
0
10
261.027129
20
242.517359
30
0.0
11
260.951393
21
242.517359
31
0.0
0
ARC
8
0
10
260.951393
20
242.217359
30
0.0
40
0.300000
50
90.000000
51
135.000000
0
LINE
8
0
10
260.739261
20
242.429491
30
0.0
11
259.414997
21
241.105227
31
0.0
0
ARC
8
0
10
259.627129
20
240.893095
30
0.0
40
0.300000
50
135.000000
51
180.000000
0
LINE
8
0
10
259.327129
20
240.893095
30
0.0
11
259.327129
21
231.943145
31
0.0
0
ARC
8
0
10
258.327129
20
231.943145
30
0.0
40
1.000000
50
300.000000
51
360.000000
0
LINE
8
0
10
258.827129
20
231.077120
30
0.0
11
255.109518
21
228.930757
31
0.0
0
ARC
8
0
10
255.259518
20
228.670949
30
0.0
40
0.300000
50
120.000000
51
180.000000
0
LINE
8
0
10
254.959518
20
228.670949
30
0.0
11
254.959518
21
228.517359
31
0.0
0
LINE
8
0
10
254.959518
20
228.517359
30
0.0
11
256.527468
21
228.517359
31
0.0
0
LINE
8
0
10
256.527468
20
228.517359
30
0.0
11
256.927468
21
228.117359
31
0.0
0
LINE
8
0
10
256.927468
20
228.117359
30
0.0
11
256.527468
21
227.717359
31
0.0
0
LINE
8
0
10
256.527468
20
227.717359
30
0.0
11
256.927468
21
227.317359
31
0.0
0
LINE
8
0
10
256.927468
20
227.317359
30
0.0
11
256.527468
21
226.917359
31
0.0
0
LINE
8
0
10
256.527468
20
226.917359
30
0.0
11
256.927468
21
226.517359
31
0.0
0
LINE
8
0
10
256.927468
20
226.517359
30
0.0
11
256.527468
21
226.117359
31
0.0
0
LINE
8
0
10
256.527468
20
226.117359
30
0.0
11
256.927468
21
225.717359
31
0.0
0
LINE
8
0
10
256.927468
20
225.717359
30
0.0
11
256.527468
21
225.317359
31
0.0
0
LINE
8
0
10
256.527468
20
225.317359
30
0.0
11
256.927468
21
224.917359
31
0.0
0
LINE
8
0
10
256.927468
20
224.917359
30
0.0
11
256.527468
21
224.517359
31
0.0
0
LINE
8
0
10
256.527468
20
224.517359
30
0.0
11
256.927468
21
224.117359
31
0.0
0
LINE
8
0
10
256.927468
20
224.117359
30
0.0
11
256.527468
21
223.717359
31
0.0
0
LINE
8
0
10
256.527468
20
223.717359
30
0.0
11
256.927468
21
223.317359
31
0.0
0
LINE
8
0
10
256.927468
20
223.317359
30
0.0
11
256.527468
21
222.917359
31
0.0
0
LINE
8
0
10
256.527468
20
222.917359
30
0.0
11
256.927468
21
222.517359
31
0.0
0
LINE
8
0
10
256.927468
20
222.517359
30
0.0
11
256.527468
21
222.117359
31
0.0
0
LINE
8
0
10
256.527468
20
222.117359
30
0.0
11
256.927468
21
221.717359
31
0.0
0
LINE
8
0
10
256.927468
20
221.717359
30
0.0
11
256.527468
21
221.317359
31
0.0
0
LINE
8
0
10
256.527468
20
221.317359
30
0.0
11
256.927468
21
220.917359
31
0.0
0
LINE
8
0
10
256.927468
20
220.917359
30
0.0
11
256.527468
21
220.517359
31
0.0
0
LINE
8
0
10
256.527468
20
220.517359
30
0.0
11
256.527468
21
210.017359
31
0.0
0
ARC
8
0
10
257.027468
20
210.017359
30
0.0
40
0.500000
50
180.000000
51
270.000000
0
LINE
8
0
10
257.027468
20
209.517359
30
0.0
11
265.227468
21
209.517359
31
0.0
0
ARC
8
0
10
265.727468
20
209.517359
30
0.0
40
0.500000
50
123.109098
51
180.000000
0
LINE
8
0
10
265.454350
20
209.936175
30
0.0
11
266.371863
21
210.534502
31
0.0
0
LINE
8
0
10
258.127468
20
211.017359
30
0.0
11
263.727468
21
211.017359
31
0.0
0
LINE
8
0
10
263.727468
20
211.017359
30
0.0
11
263.727468
21
220.817359
31
0.0
0
LINE
8
0
10
263.727468
20
220.817359
30
0.0
11
262.327468
21
220.817359
31
0.0
0
LINE
8
0
10
262.327468
20
220.817359
30
0.0
11
262.327468
21
222.317359
31
0.0
0
LINE
8
0
10
262.327468
20
222.317359
30
0.0
11
263.727468
21
222.317359
31
0.0
0
LINE
8
0
10
263.727468
20
222.317359
30
0.0
11
263.727468
21
223.509620
31
0.0
0
ARC
8
0
10
264.227468
20
223.509620
30
0.0
40
0.500000
50
120.000000
51
180.000000
0
LINE
8
0
10
263.977468
20
223.942632
30
0.0
11
273.930045
21
229.688756
31
0.0
0
ARC
8
0
10
273.680045
20
230.121769
30
0.0
40
0.500000
50
300.000000
51
360.000000
0
LINE
8
0
10
274.180045
20
230.121769
30
0.0
11
274.180045
21
236.017359
31
0.0
0
LINE
8
0
10
274.180045
20
236.017359
30
0.0
11
260.827129
21
236.017359
31
0.0
0
LINE
8
0
10
260.827129
20
236.017359
30
0.0
11
260.827129
21
231.077120
31
0.0
0
ARC
8
0
10
259.827129
20
231.077120
30
0.0
40
1.000000
50
300.000000
51
360.000000
0
LINE
8
0
10
260.327129
20
230.211095
30
0.0
11
258.377468
21
229.085457
31
0.0
0
ARC
8
0
10
258.627468
20
228.652444
30
0.0
40
0.500000
50
120.000000
51
180.000000
0
LINE
8
0
10
258.127468
20
228.652444
30
0.0
11
258.127468
21
222.317359
31
0.0
0
LINE
8
0
10
258.127468
20
222.317359
30
0.0
11
259.527468
21
222.317359
31
0.0
0
LINE
8
0
10
259.527468
20
222.317359
30
0.0
11
259.527468
21
220.817359
31
0.0
0
LINE
8
0
10
259.527468
20
220.817359
30
0.0
11
258.127468
21
220.817359
31
0.0
0
LINE
8
0
10
258.127468
20
220.817359
30
0.0
11
258.127468
21
211.017359
31
0.0
0
ATTDEF
8
0
10
0.000000
20
0.000000
30
0.0
40
3.5
1

3

2
PANE_WIDTH:0
70
0
0
ATTDEF
8
0
10
0.000000
20
0.000000
30
0.0
40
3.5
1

3

2
MIN_VETRO:0
70
0
0
ATTDEF
8
0
10
0.000000
20
0.000000
30
0.0
40
3.5
1

3

2
MAX_VETRO:0
70
0
0
ATTDEF
8
0
10
0.000000
20
0.000000
30
0.0
40
3.5
1

3

2
JX:0
70
0
0
ATTDEF
8
0
10
0.000000
20
0.000000
30
0.0
40
3.5
1

3

2
WX:0
70
0
0
ATTDEF
8
0
10
0.000000
20
0.000000
30
0.0
40
3.5
1

3

2
JY:0
70
0
0
ATTDEF
8
0
10
0.000000
20
0.000000
30
0.0
40
3.5
1

3

2
WY:0
70
0
0
ATTDEF
8
0
10
0.000000
20
0.000000
30
0.0
40
3.5
1

3

2
DESC:Convers.a.ext.y proy
70
0
0
ATTDEF
8
0
10
0.000000
20
0.000000
30
0.0
40
3.5
1

3

2
DENS:1.671
70
0
0
ATTDEF
8
0
10
0.000000
20
0.000000
30
0.0
40
3.5
1

3

2
TDEV:64.17
70
0
0
ATTDEF
8
0
10
0.000000
20
0.000000
30
0.0
40
3.5
1

3

2
TDEV2:0
70
0
0
ATTDEF
8
0
10
0.000000
20
0.000000
30
0.0
40
3.5
1

3

2
TDEV3:0
70
0
0
ATTDEF
8
0
10
0.000000
20
0.000000
30
0.0
40
3.5
1

3

2
TDEV4:0
70
0
0
ATTDEF
8
0
10
0.000000
20
0.000000
30
0.0
40
3.5
1

3

2
TDEV5:0
70
0
0
ATTDEF
8
0
10
0.000000
20
0.000000
30
0.0
40
3.5
1

3

2
PANE_WIDTH:0
70
0
0
ATTDEF
8
0
10
0.000000
20
0.000000
30
0.0
40
3.5
1

3

2
MIN_VETRO:0
70
0
0
ATTDEF
8
0
10
0.000000
20
0.000000
30
0.0
40
3.5
1

3

2
MAX_VETRO:0
70
0
0
ATTDEF
8
0
10
0.000000
20
0.000000
30
0.0
40
3.5
1

3

2
JX:0
70
0
0
ATTDEF
8
0
10
0.000000
20
0.000000
30
0.0
40
3.5
1

3

2
WX:0
70
0
0
ATTDEF
8
0
10
0.000000
20
0.000000
30
0.0
40
3.5
1

3

2
JY:0
70
0
0
ATTDEF
8
0
10
0.000000
20
0.000000
30
0.0
40
3.5
1

3

2
WY:0
70
0
0
ATTDEF
8
0
10
327.827468
20
203.517359
30
0.0
40
3.5
1

3

2
VC_START
70
0
0
ATTDEF
8
0
10
314.253757
20
237.517359
30
0.0
40
3.5
1

3

2
VC_END
70
0
0
ATTDEF
8
0
10
329.327468
20
267.517359
30
0.0
40
3.5
1

3

2
FP_LCS_ORIG
70
0
0
ATTDEF
8
0
10
319.327468
20
267.517359
30
0.0
40
3.5
1

3

2
FP_LCS_HOT
70
0
0
ATTDEF
8
0
10
329.327468
20
257.517359
30
0.0
40
3.5
1

3

2
FP_LCS_INTERN
70
0
0
ENDSEC
0
EOF
