0
SECTION
2
ENTITIES
0
LINE
8
00_ALUMINIO
10
270.223583
20
25.108642
30
0.0
11
270.323583
21
25.108642
31
0.0
0
LINE
8
00_ALUMINIO
10
270.323583
20
25.108642
30
0.0
11
270.323583
21
14.908642
31
0.0
0
LINE
8
00_ALUMINIO
10
270.323583
20
14.908642
30
0.0
11
270.223583
21
14.908642
31
0.0
0
LINE
8
00_ALUMINIO
10
270.223583
20
14.908642
30
0.0
11
270.223583
21
12.908642
31
0.0
0
LINE
8
00_ALUMINIO
10
270.223583
20
12.908642
30
0.0
11
250.623583
21
12.908642
31
0.0
0
LINE
8
00_ALUMINIO
10
250.623583
20
12.908642
30
0.0
11
250.623583
21
27.108642
31
0.0
0
LINE
8
00_ALUMINIO
10
250.623583
20
27.108642
30
0.0
11
270.223583
21
27.108642
31
0.0
0
LINE
8
00_ALUMINIO
10
270.223583
20
27.108642
30
0.0
11
270.223583
21
25.108642
31
0.0
0
LINE
8
00_ALUMINIO
10
327.623583
20
26.808642
30
0.0
11
327.623583
21
13.208642
31
0.0
0
ARC
8
00_ALUMINIO
10
327.323583
20
13.208642
30
0.0
40
0.300000
50
270.000000
51
0.000000
0
LINE
8
00_ALUMINIO
10
327.323583
20
12.908642
30
0.0
11
326.923583
21
12.908642
31
0.0
0
ARC
8
00_ALUMINIO
10
326.923583
20
13.208642
30
0.0
40
0.300000
50
180.000000
51
270.000000
0
LINE
8
00_ALUMINIO
10
326.623583
20
13.208642
30
0.0
11
326.623583
21
14.008642
31
0.0
0
ARC
8
00_ALUMINIO
10
326.123583
20
14.008642
30
0.0
40
0.500000
50
0.000000
51
90.000000
0
LINE
8
00_ALUMINIO
10
326.123583
20
14.508642
30
0.0
11
325.523583
21
14.508642
31
0.0
0
LINE
8
00_ALUMINIO
10
325.523583
20
14.508642
30
0.0
11
325.523583
21
12.908642
31
0.0
0
LINE
8
00_ALUMINIO
10
325.523583
20
12.908642
30
0.0
11
318.323583
21
12.908642
31
0.0
0
LINE
8
00_ALUMINIO
10
318.323583
20
12.908642
30
0.0
11
318.323583
21
27.108642
31
0.0
0
LINE
8
00_ALUMINIO
10
318.323583
20
27.108642
30
0.0
11
325.523583
21
27.108642
31
0.0
0
LINE
8
00_ALUMINIO
10
325.523583
20
27.108642
30
0.0
11
325.523583
21
25.508642
31
0.0
0
LINE
8
00_ALUMINIO
10
325.523583
20
25.508642
30
0.0
11
326.123583
21
25.508642
31
0.0
0
ARC
8
00_ALUMINIO
10
326.123583
20
26.008642
30
0.0
40
0.500000
50
270.000000
51
0.000000
0
LINE
8
00_ALUMINIO
10
326.623583
20
26.008642
30
0.0
11
326.623583
21
26.808642
31
0.0
0
ARC
8
00_ALUMINIO
10
326.923583
20
26.808642
30
0.0
40
0.300000
50
90.000000
51
180.000000
0
LINE
8
00_ALUMINIO
10
326.923583
20
27.108642
30
0.0
11
327.323583
21
27.108642
31
0.0
0
ARC
8
00_ALUMINIO
10
327.323583
20
26.808642
30
0.0
40
0.300000
50
0.000000
51
90.000000
0
LINE
8
00_ALUMINIO
10
260.423583
20
11.408642
30
0.0
11
269.523583
21
11.408642
31
0.0
0
LINE
8
00_ALUMINIO
10
269.523583
20
11.408642
30
0.0
11
269.523583
21
6.908642
31
0.0
0
ARC
8
00_ALUMINIO
10
270.023583
20
6.908642
30
0.0
40
0.500000
50
180.000000
51
270.000000
0
LINE
8
00_ALUMINIO
10
270.023583
20
6.408642
30
0.0
11
272.116476
21
6.408642
31
0.0
0
ARC
8
00_ALUMINIO
10
272.116476
20
6.908642
30
0.0
40
0.500000
50
270.000000
51
315.000000
0
LINE
8
00_ALUMINIO
10
272.470029
20
6.555088
30
0.0
11
273.177136
21
7.262195
31
0.0
0
ARC
8
00_ALUMINIO
10
272.823583
20
7.615749
30
0.0
40
0.500000
50
315.000000
51
0.000000
0
LINE
8
00_ALUMINIO
10
273.323583
20
7.615749
30
0.0
11
273.323583
21
8.408642
31
0.0
0
LINE
8
00_ALUMINIO
10
273.323583
20
8.408642
30
0.0
11
271.623583
21
8.408642
31
0.0
0
ARC
8
00_ALUMINIO
10
271.623583
20
8.708642
30
0.0
40
0.300000
50
180.000000
51
270.000000
0
LINE
8
00_ALUMINIO
10
271.323583
20
8.708642
30
0.0
11
271.323583
21
11.408642
31
0.0
0
LINE
8
00_ALUMINIO
10
271.323583
20
11.408642
30
0.0
11
271.605061
21
11.408642
31
0.0
0
ARC
8
00_ALUMINIO
10
271.605061
20
11.908642
30
0.0
40
0.500000
50
270.000000
51
315.965392
0
ARC
8
00_ALUMINIO
10
272.323982
20
11.213549
30
0.0
40
0.500000
50
116.127032
51
135.965392
0
LINE
8
00_ALUMINIO
10
272.103800
20
11.662459
30
0.0
11
272.719316
21
11.964358
31
0.0
0
ARC
8
00_ALUMINIO
10
273.837617
20
10.306225
30
0.0
40
2.000000
50
51.805773
51
123.997055
0
ARC
8
00_ALUMINIO
10
275.383440
20
12.271023
30
0.0
40
0.500000
50
231.805773
51
271.623749
0
LINE
8
00_ALUMINIO
10
275.397608
20
11.771224
30
0.0
11
276.054229
21
11.789837
31
0.0
0
LINE
8
00_ALUMINIO
10
276.054229
20
11.789837
30
0.0
11
276.064482
21
11.790172
31
0.0
0
ARC
8
00_ALUMINIO
10
276.050844
20
12.089862
30
0.0
40
0.300000
50
272.605413
51
18.251415
0
LINE
8
00_ALUMINIO
10
276.335752
20
12.183818
30
0.0
11
274.271464
21
14.850259
31
0.0
0
ARC
8
00_ALUMINIO
10
274.156317
20
14.761115
30
0.0
40
0.145621
50
37.746080
51
182.000000
0
LINE
8
00_ALUMINIO
10
274.010785
20
14.756033
30
0.0
11
274.016215
21
14.600546
31
0.0
0
ARC
8
00_ALUMINIO
10
273.816337
20
14.593566
30
0.0
40
0.200000
50
308.823976
51
2.000000
0
LINE
8
00_ALUMINIO
10
273.941723
20
14.437751
30
0.0
11
272.298553
21
13.115476
31
0.0
0
ARC
8
00_ALUMINIO
10
272.110474
20
13.349199
30
0.0
40
0.300000
50
287.000000
51
308.823976
0
LINE
8
00_ALUMINIO
10
272.198186
20
13.062308
30
0.0
11
271.823583
21
12.961487
31
0.0
0
ARC
8
00_ALUMINIO
10
271.823583
20
13.261487
30
0.0
40
0.300000
50
90.000000
51
270.000000
0
LINE
8
00_ALUMINIO
10
271.823583
20
13.561487
30
0.0
11
271.823583
21
18.061487
31
0.0
0
ARC
8
00_ALUMINIO
10
272.023583
20
18.061487
30
0.0
40
0.200000
50
90.000000
51
180.000000
0
LINE
8
00_ALUMINIO
10
272.023583
20
18.261487
30
0.0
11
272.091472
21
18.261487
31
0.0
0
ARC
8
00_ALUMINIO
10
272.091472
20
17.961487
30
0.0
40
0.300000
50
58.619868
51
90.000000
0
LINE
8
00_ALUMINIO
10
272.247686
20
18.217607
30
0.0
11
273.923679
21
17.195374
31
0.0
0
ARC
8
00_ALUMINIO
10
274.123583
20
17.189184
30
0.0
40
0.200000
50
178.226373
51
0.000000
0
LINE
8
00_ALUMINIO
10
274.323583
20
17.189184
30
0.0
11
274.323583
21
18.572964
31
0.0
0
ARC
8
00_ALUMINIO
10
274.123583
20
18.572964
30
0.0
40
0.200000
50
0.000000
51
61.694535
0
LINE
8
00_ALUMINIO
10
274.218199
20
18.749259
30
0.0
11
272.968215
21
19.466491
31
0.0
0
ARC
8
00_ALUMINIO
10
273.316593
20
20.073642
30
0.0
40
0.700000
50
119.846880
51
240.153120
0
LINE
8
00_ALUMINIO
10
272.968215
20
20.680793
30
0.0
11
274.218199
21
21.398024
31
0.0
0
ARC
8
00_ALUMINIO
10
274.123583
20
21.574320
30
0.0
40
0.200000
50
298.305465
51
0.000000
0
LINE
8
00_ALUMINIO
10
274.323583
20
21.574320
30
0.0
11
274.323583
21
22.958100
31
0.0
0
ARC
8
00_ALUMINIO
10
274.123583
20
22.958100
30
0.0
40
0.200000
50
0.000000
51
181.773628
0
LINE
8
00_ALUMINIO
10
273.923679
20
22.951910
30
0.0
11
272.247686
21
21.929677
31
0.0
0
ARC
8
00_ALUMINIO
10
272.091472
20
22.185796
30
0.0
40
0.300000
50
270.000000
51
301.380132
0
LINE
8
00_ALUMINIO
10
272.091472
20
21.885796
30
0.0
11
272.023583
21
21.885796
31
0.0
0
ARC
8
00_ALUMINIO
10
272.023583
20
22.085796
30
0.0
40
0.200000
50
180.000000
51
270.000000
0
LINE
8
00_ALUMINIO
10
271.823583
20
22.085796
30
0.0
11
271.823583
21
26.585796
31
0.0
0
ARC
8
00_ALUMINIO
10
271.823583
20
26.885796
30
0.0
40
0.300000
50
90.000000
51
270.000000
0
LINE
8
00_ALUMINIO
10
271.823583
20
27.185796
30
0.0
11
272.178608
21
27.090245
31
0.0
0
ARC
8
00_ALUMINIO
10
272.110474
20
26.798085
30
0.0
40
0.300000
50
51.176024
51
76.872879
0
LINE
8
00_ALUMINIO
10
272.298553
20
27.031807
30
0.0
11
273.941723
21
25.709533
31
0.0
0
ARC
8
00_ALUMINIO
10
273.816337
20
25.553717
30
0.0
40
0.200000
50
358.000000
51
51.176024
0
LINE
8
00_ALUMINIO
10
274.016215
20
25.546738
30
0.0
11
274.010785
21
25.391250
31
0.0
0
ARC
8
00_ALUMINIO
10
274.156317
20
25.386168
30
0.0
40
0.145621
50
178.000000
51
322.253920
0
LINE
8
00_ALUMINIO
10
274.271464
20
25.297025
30
0.0
11
276.335752
21
27.963466
31
0.0
0
ARC
8
00_ALUMINIO
10
276.050844
20
28.057422
30
0.0
40
0.300000
50
341.748585
51
88.866021
0
LINE
8
00_ALUMINIO
10
276.054229
20
28.357446
30
0.0
11
275.397608
21
28.376060
31
0.0
0
ARC
8
00_ALUMINIO
10
275.383440
20
27.876261
30
0.0
40
0.500000
50
88.376251
51
128.194227
0
ARC
8
00_ALUMINIO
10
273.837617
20
29.841059
30
0.0
40
2.000000
50
217.571175
51
308.194227
0
ARC
8
00_ALUMINIO
10
272.014645
20
28.438642
30
0.0
40
0.300000
50
37.571175
51
90.000000
0
LINE
8
00_ALUMINIO
10
272.014645
20
28.738642
30
0.0
11
270.923583
21
28.738642
31
0.0
0
ARC
8
00_ALUMINIO
10
270.923583
20
29.238642
30
0.0
40
0.500000
50
180.000000
51
270.000000
0
LINE
8
00_ALUMINIO
10
270.423583
20
29.238642
30
0.0
11
270.423583
21
33.108642
31
0.0
0
ARC
8
00_ALUMINIO
10
269.923583
20
33.108642
30
0.0
40
0.500000
50
0.000000
51
90.000000
0
LINE
8
00_ALUMINIO
10
269.923583
20
33.608642
30
0.0
11
267.830690
21
33.608642
31
0.0
0
ARC
8
00_ALUMINIO
10
267.830690
20
33.108642
30
0.0
40
0.500000
50
90.000000
51
135.000000
0
LINE
8
00_ALUMINIO
10
267.477136
20
33.462195
30
0.0
11
266.770029
21
32.755088
31
0.0
0
ARC
8
00_ALUMINIO
10
267.123583
20
32.401535
30
0.0
40
0.500000
50
135.000000
51
180.000000
0
LINE
8
00_ALUMINIO
10
266.623583
20
32.401535
30
0.0
11
266.623583
21
31.608642
31
0.0
0
LINE
8
00_ALUMINIO
10
266.623583
20
31.608642
30
0.0
11
268.323583
21
31.608642
31
0.0
0
ARC
8
00_ALUMINIO
10
268.323583
20
31.308642
30
0.0
40
0.300000
50
0.000000
51
90.000000
0
LINE
8
00_ALUMINIO
10
268.623583
20
31.308642
30
0.0
11
268.623583
21
28.908642
31
0.0
0
ARC
8
00_ALUMINIO
10
268.323583
20
28.908642
30
0.0
40
0.300000
50
270.000000
51
0.000000
0
LINE
8
00_ALUMINIO
10
268.323583
20
28.608642
30
0.0
11
250.923583
21
28.608642
31
0.0
0
ARC
8
00_ALUMINIO
10
250.923583
20
28.908642
30
0.0
40
0.300000
50
180.000000
51
270.000000
0
LINE
8
00_ALUMINIO
10
250.623583
20
28.908642
30
0.0
11
250.623583
21
31.308642
31
0.0
0
ARC
8
00_ALUMINIO
10
250.923583
20
31.308642
30
0.0
40
0.300000
50
90.000000
51
180.000000
0
LINE
8
00_ALUMINIO
10
250.923583
20
31.608642
30
0.0
11
252.623583
21
31.608642
31
0.0
0
LINE
8
00_ALUMINIO
10
252.623583
20
31.608642
30
0.0
11
252.623583
21
32.401535
31
0.0
0
ARC
8
00_ALUMINIO
10
252.123583
20
32.401535
30
0.0
40
0.500000
50
0.000000
51
45.000000
0
LINE
8
00_ALUMINIO
10
252.477136
20
32.755088
30
0.0
11
251.770029
21
33.462195
31
0.0
0
ARC
8
00_ALUMINIO
10
251.416476
20
33.108642
30
0.0
40
0.500000
50
45.000000
51
90.000000
0
LINE
8
00_ALUMINIO
10
251.416476
20
33.608642
30
0.0
11
249.423583
21
33.608642
31
0.0
0
ARC
8
00_ALUMINIO
10
249.423583
20
33.308642
30
0.0
40
0.300000
50
90.000000
51
180.000000
0
LINE
8
00_ALUMINIO
10
249.123583
20
33.308642
30
0.0
11
249.123583
21
11.708642
31
0.0
0
ARC
8
00_ALUMINIO
10
249.423583
20
11.708642
30
0.0
40
0.300000
50
180.000000
51
270.000000
0
LINE
8
00_ALUMINIO
10
249.423583
20
11.408642
30
0.0
11
258.323583
21
11.408642
31
0.0
0
ARC
8
00_ALUMINIO
10
258.323583
20
11.108642
30
0.0
40
0.300000
50
0.000000
51
90.000000
0
LINE
8
00_ALUMINIO
10
258.623583
20
11.108642
30
0.0
11
258.623583
21
9.308642
31
0.0
0
ARC
8
00_ALUMINIO
10
258.323583
20
9.308642
30
0.0
40
0.300000
50
270.000000
51
0.000000
0
LINE
8
00_ALUMINIO
10
258.323583
20
9.008642
30
0.0
11
253.613583
21
9.008642
31
0.0
0
LINE
8
00_ALUMINIO
10
253.613583
20
9.008642
30
0.0
11
253.411510
21
9.358642
31
0.0
0
ARC
8
00_ALUMINIO
10
253.151703
20
9.208642
30
0.0
40
0.300000
50
30.000000
51
115.000000
0
LINE
8
00_ALUMINIO
10
253.024917
20
9.480534
30
0.0
11
251.567469
21
8.800915
31
0.0
0
ARC
8
00_ALUMINIO
10
251.694254
20
8.529023
30
0.0
40
0.300000
50
115.000000
51
234.721004
0
ARC
8
00_ALUMINIO
10
252.387325
20
9.508642
30
0.0
40
1.500000
50
234.721004
51
270.000000
0
LINE
8
00_ALUMINIO
10
252.387325
20
8.008642
30
0.0
11
259.823583
21
8.008642
31
0.0
0
ARC
8
00_ALUMINIO
10
259.823583
20
8.308642
30
0.0
40
0.300000
50
270.000000
51
0.000000
0
LINE
8
00_ALUMINIO
10
260.123583
20
8.308642
30
0.0
11
260.123583
21
11.108642
31
0.0
0
ARC
8
00_ALUMINIO
10
260.423583
20
11.108642
30
0.0
40
0.300000
50
90.000000
51
180.000000
0
LINE
8
00_ALUMINIO
10
319.923583
20
11.408642
30
0.0
11
328.823583
21
11.408642
31
0.0
0
ARC
8
00_ALUMINIO
10
328.823583
20
11.708642
30
0.0
40
0.300000
50
270.000000
51
0.000000
0
LINE
8
00_ALUMINIO
10
329.123583
20
11.708642
30
0.0
11
329.123583
21
54.308624
31
0.0
0
ARC
8
00_ALUMINIO
10
328.623583
20
54.308624
30
0.0
40
0.500000
50
0.000000
51
90.000000
0
LINE
8
00_ALUMINIO
10
328.623583
20
54.808624
30
0.0
11
325.123565
21
54.808624
31
0.0
0
ARC
8
00_ALUMINIO
10
325.123565
20
54.308642
30
0.0
40
0.499982
50
90.000000
51
180.000000
0
LINE
8
00_ALUMINIO
10
324.623583
20
54.308642
30
0.0
11
324.623583
21
53.308678
31
0.0
0
LINE
8
00_ALUMINIO
10
324.623583
20
53.308678
30
0.0
11
325.123565
21
51.558741
31
0.0
0
LINE
8
00_ALUMINIO
10
325.123565
20
51.558741
30
0.0
11
325.623547
21
51.558741
31
0.0
0
LINE
8
00_ALUMINIO
10
325.623547
20
51.558741
30
0.0
11
325.623547
21
53.308678
31
0.0
0
LINE
8
00_ALUMINIO
10
325.623547
20
53.308678
30
0.0
11
327.623583
21
53.308678
31
0.0
0
LINE
8
00_ALUMINIO
10
327.623583
20
53.308678
30
0.0
11
327.623583
21
45.808949
31
0.0
0
LINE
8
00_ALUMINIO
10
327.623583
20
45.808949
30
0.0
11
325.623547
21
45.808949
31
0.0
0
LINE
8
00_ALUMINIO
10
325.623547
20
45.808949
30
0.0
11
325.623547
21
47.558886
31
0.0
0
LINE
8
00_ALUMINIO
10
325.623547
20
47.558886
30
0.0
11
325.123565
21
47.558886
31
0.0
0
LINE
8
00_ALUMINIO
10
325.123565
20
47.558886
30
0.0
11
324.623583
21
45.808949
31
0.0
0
LINE
8
00_ALUMINIO
10
324.623583
20
45.808949
30
0.0
11
324.623583
21
44.808985
31
0.0
0
ARC
8
00_ALUMINIO
10
325.123565
20
44.808985
30
0.0
40
0.499982
50
180.000000
51
270.000000
0
LINE
8
00_ALUMINIO
10
325.123565
20
44.309003
30
0.0
11
327.623583
21
44.309003
31
0.0
0
LINE
8
00_ALUMINIO
10
327.623583
20
44.309003
30
0.0
11
327.623583
21
43.007491
31
0.0
0
ARC
8
00_ALUMINIO
10
327.323583
20
43.007491
30
0.0
40
0.300000
50
270.000000
51
0.000000
0
LINE
8
00_ALUMINIO
10
327.323583
20
42.707491
30
0.0
11
325.423400
21
42.707491
31
0.0
0
ARC
8
00_ALUMINIO
10
325.423400
20
42.407491
30
0.0
40
0.300000
50
90.000000
51
180.000000
0
LINE
8
00_ALUMINIO
10
325.123400
20
42.407491
30
0.0
11
325.123400
21
40.789867
31
0.0
0
ARC
8
00_ALUMINIO
10
325.623096
20
40.807308
30
0.0
40
0.500000
50
181.998998
51
270.000000
0
LINE
8
00_ALUMINIO
10
325.623096
20
40.307308
30
0.0
11
326.223583
21
40.307308
31
0.0
0
LINE
8
00_ALUMINIO
10
326.223583
20
40.307308
30
0.0
11
326.223583
21
41.607308
31
0.0
0
LINE
8
00_ALUMINIO
10
326.223583
20
41.607308
30
0.0
11
327.523583
21
41.607308
31
0.0
0
LINE
8
00_ALUMINIO
10
327.523583
20
41.607308
30
0.0
11
327.523583
21
28.607308
31
0.0
0
LINE
8
00_ALUMINIO
10
327.523583
20
28.607308
30
0.0
11
325.323583
21
28.607308
31
0.0
0
LINE
8
00_ALUMINIO
10
325.323583
20
28.607308
30
0.0
11
325.323583
21
29.707308
31
0.0
0
LINE
8
00_ALUMINIO
10
325.323583
20
29.707308
30
0.0
11
324.523583
21
29.707308
31
0.0
0
ARC
8
00_ALUMINIO
10
324.523583
20
29.207308
30
0.0
40
0.500000
50
90.000000
51
180.000000
0
LINE
8
00_ALUMINIO
10
324.023583
20
29.207308
30
0.0
11
324.023583
21
28.607308
31
0.0
0
LINE
8
00_ALUMINIO
10
324.023583
20
28.607308
30
0.0
11
318.273583
21
28.607308
31
0.0
0
LINE
8
00_ALUMINIO
10
318.273583
20
28.607308
30
0.0
11
318.273583
21
33.608642
31
0.0
0
LINE
8
00_ALUMINIO
10
318.273583
20
33.608642
30
0.0
11
315.623583
21
33.608642
31
0.0
0
ARC
8
00_ALUMINIO
10
315.623583
20
33.308642
30
0.0
40
0.300000
50
90.000000
51
180.000000
0
LINE
8
00_ALUMINIO
10
315.323583
20
33.308642
30
0.0
11
315.323583
21
32.408642
31
0.0
0
ARC
8
00_ALUMINIO
10
315.623583
20
32.408642
30
0.0
40
0.300000
50
180.000000
51
270.000000
0
LINE
8
00_ALUMINIO
10
315.623583
20
32.108642
30
0.0
11
316.823583
21
32.108642
31
0.0
0
LINE
8
00_ALUMINIO
10
316.823583
20
32.108642
30
0.0
11
316.823583
21
28.933930
31
0.0
0
ARC
8
00_ALUMINIO
10
316.323583
20
28.933930
30
0.0
40
0.500000
50
296.127032
51
0.000000
0
LINE
8
00_ALUMINIO
10
316.543764
20
28.485020
30
0.0
11
315.927849
21
28.182926
31
0.0
0
ARC
8
00_ALUMINIO
10
314.809549
20
29.841059
30
0.0
40
2.000000
50
231.805773
51
303.997055
0
ARC
8
00_ALUMINIO
10
313.263726
20
27.876261
30
0.0
40
0.500000
50
51.805773
51
91.623749
0
LINE
8
00_ALUMINIO
10
313.249558
20
28.376060
30
0.0
11
312.592936
21
28.357446
31
0.0
0
LINE
8
00_ALUMINIO
10
312.592936
20
28.357446
30
0.0
11
312.582684
21
28.357112
31
0.0
0
ARC
8
00_ALUMINIO
10
312.596321
20
28.057422
30
0.0
40
0.300000
50
92.605412
51
198.251415
0
LINE
8
00_ALUMINIO
10
312.311414
20
27.963466
30
0.0
11
314.375701
21
25.297025
31
0.0
0
ARC
8
00_ALUMINIO
10
314.490848
20
25.386168
30
0.0
40
0.145621
50
217.746080
51
2.000000
0
LINE
8
00_ALUMINIO
10
314.636380
20
25.391250
30
0.0
11
314.630951
21
25.546738
31
0.0
0
ARC
8
00_ALUMINIO
10
314.830829
20
25.553717
30
0.0
40
0.200000
50
128.823976
51
182.000000
0
LINE
8
00_ALUMINIO
10
314.705443
20
25.709533
30
0.0
11
316.348612
21
27.031807
31
0.0
0
ARC
8
00_ALUMINIO
10
316.536691
20
26.798085
30
0.0
40
0.300000
50
107.000000
51
128.823976
0
LINE
8
00_ALUMINIO
10
316.448980
20
27.084976
30
0.0
11
316.823583
21
27.185796
31
0.0
0
ARC
8
00_ALUMINIO
10
316.823583
20
26.885796
30
0.0
40
0.300000
50
270.000000
51
90.000000
0
LINE
8
00_ALUMINIO
10
316.823583
20
26.585796
30
0.0
11
316.823583
21
22.085796
31
0.0
0
ARC
8
00_ALUMINIO
10
316.623583
20
22.085796
30
0.0
40
0.200000
50
270.000000
51
0.000000
0
LINE
8
00_ALUMINIO
10
316.623583
20
21.885796
30
0.0
11
316.555694
21
21.885796
31
0.0
0
ARC
8
00_ALUMINIO
10
316.555694
20
22.185796
30
0.0
40
0.300000
50
238.619868
51
270.000000
0
LINE
8
00_ALUMINIO
10
316.399480
20
21.929677
30
0.0
11
314.723487
21
22.951910
31
0.0
0
ARC
8
00_ALUMINIO
10
314.523583
20
22.958100
30
0.0
40
0.200000
50
358.226373
51
180.000000
0
LINE
8
00_ALUMINIO
10
314.323583
20
22.958100
30
0.0
11
314.323583
21
21.574320
31
0.0
0
ARC
8
00_ALUMINIO
10
314.523583
20
21.574320
30
0.0
40
0.200000
50
180.000000
51
241.694535
0
LINE
8
00_ALUMINIO
10
314.428967
20
21.398024
30
0.0
11
315.678951
21
20.680793
31
0.0
0
ARC
8
00_ALUMINIO
10
315.330572
20
20.073642
30
0.0
40
0.700000
50
299.846880
51
60.153120
0
LINE
8
00_ALUMINIO
10
315.678951
20
19.466491
30
0.0
11
314.428967
21
18.749259
31
0.0
0
ARC
8
00_ALUMINIO
10
314.523583
20
18.572964
30
0.0
40
0.200000
50
118.305465
51
180.000000
0
LINE
8
00_ALUMINIO
10
314.323583
20
18.572964
30
0.0
11
314.323583
21
17.189184
31
0.0
0
ARC
8
00_ALUMINIO
10
314.523583
20
17.189184
30
0.0
40
0.200000
50
180.000000
51
1.773627
0
LINE
8
00_ALUMINIO
10
314.723487
20
17.195374
30
0.0
11
316.399480
21
18.217607
31
0.0
0
ARC
8
00_ALUMINIO
10
316.555694
20
17.961487
30
0.0
40
0.300000
50
90.000000
51
121.380132
0
LINE
8
00_ALUMINIO
10
316.555694
20
18.261487
30
0.0
11
316.623583
21
18.261487
31
0.0
0
ARC
8
00_ALUMINIO
10
316.623583
20
18.061487
30
0.0
40
0.200000
50
0.000000
51
90.000000
0
LINE
8
00_ALUMINIO
10
316.823583
20
18.061487
30
0.0
11
316.823583
21
13.561487
31
0.0
0
ARC
8
00_ALUMINIO
10
316.823583
20
13.261487
30
0.0
40
0.300000
50
270.000000
51
90.000000
0
LINE
8
00_ALUMINIO
10
316.823583
20
12.961487
30
0.0
11
316.468558
21
13.057038
31
0.0
0
ARC
8
00_ALUMINIO
10
316.536691
20
13.349199
30
0.0
40
0.300000
50
231.176024
51
256.872879
0
LINE
8
00_ALUMINIO
10
316.348612
20
13.115476
30
0.0
11
314.705443
21
14.437751
31
0.0
0
ARC
8
00_ALUMINIO
10
314.830829
20
14.593566
30
0.0
40
0.200000
50
178.000000
51
231.176024
0
LINE
8
00_ALUMINIO
10
314.630951
20
14.600546
30
0.0
11
314.636380
21
14.756033
31
0.0
0
ARC
8
00_ALUMINIO
10
314.490848
20
14.761115
30
0.0
40
0.145621
50
358.000000
51
142.253920
0
LINE
8
00_ALUMINIO
10
314.375701
20
14.850259
30
0.0
11
312.311414
21
12.183818
31
0.0
0
ARC
8
00_ALUMINIO
10
312.596321
20
12.089862
30
0.0
40
0.300000
50
161.748585
51
268.866021
0
LINE
8
00_ALUMINIO
10
312.592936
20
11.789837
30
0.0
11
313.249558
21
11.771224
31
0.0
0
ARC
8
00_ALUMINIO
10
313.263726
20
12.271023
30
0.0
40
0.500000
50
268.376251
51
308.194227
0
ARC
8
00_ALUMINIO
10
314.809549
20
10.306225
30
0.0
40
2.000000
50
56.002945
51
128.194227
0
LINE
8
00_ALUMINIO
10
315.927849
20
11.964358
30
0.0
11
316.956690
21
11.459732
31
0.0
0
ARC
8
00_ALUMINIO
10
317.176871
20
11.908642
30
0.0
40
0.500000
50
243.872968
51
270.000000
0
LINE
8
00_ALUMINIO
10
317.176871
20
11.408642
30
0.0
11
317.723583
21
11.408642
31
0.0
0
ARC
8
00_ALUMINIO
10
317.723583
20
11.108642
30
0.0
40
0.300000
50
0.000000
51
90.000000
0
LINE
8
00_ALUMINIO
10
318.023583
20
11.108642
30
0.0
11
318.023583
21
8.708642
31
0.0
0
ARC
8
00_ALUMINIO
10
317.723583
20
8.708642
30
0.0
40
0.300000
50
270.000000
51
0.000000
0
LINE
8
00_ALUMINIO
10
317.723583
20
8.408642
30
0.0
11
316.123583
21
8.408642
31
0.0
0
LINE
8
00_ALUMINIO
10
316.123583
20
8.408642
30
0.0
11
316.123583
21
7.615749
31
0.0
0
ARC
8
00_ALUMINIO
10
316.623583
20
7.615749
30
0.0
40
0.500000
50
180.000000
51
225.000000
0
LINE
8
00_ALUMINIO
10
316.270029
20
7.262195
30
0.0
11
316.977136
21
6.555088
31
0.0
0
ARC
8
00_ALUMINIO
10
317.330690
20
6.908642
30
0.0
40
0.500000
50
225.000000
51
270.000000
0
LINE
8
00_ALUMINIO
10
317.330690
20
6.408642
30
0.0
11
319.323583
21
6.408642
31
0.0
0
ARC
8
00_ALUMINIO
10
319.323583
20
6.708642
30
0.0
40
0.300000
50
270.000000
51
0.000000
0
LINE
8
00_ALUMINIO
10
319.623583
20
6.708642
30
0.0
11
319.623583
21
7.808642
31
0.0
0
ARC
8
00_ALUMINIO
10
319.823583
20
7.808642
30
0.0
40
0.200000
50
90.000000
51
180.000000
0
LINE
8
00_ALUMINIO
10
319.823583
20
8.008642
30
0.0
11
325.859841
21
8.008642
31
0.0
0
ARC
8
00_ALUMINIO
10
325.859841
20
9.508642
30
0.0
40
1.500000
50
270.000000
51
305.278996
0
ARC
8
00_ALUMINIO
10
326.552911
20
8.529023
30
0.0
40
0.300000
50
305.278996
51
65.000000
0
LINE
8
00_ALUMINIO
10
326.679697
20
8.800915
30
0.0
11
325.222249
21
9.480534
31
0.0
0
ARC
8
00_ALUMINIO
10
325.095463
20
9.208642
30
0.0
40
0.300000
50
65.000000
51
150.000000
0
LINE
8
00_ALUMINIO
10
324.835655
20
9.358642
30
0.0
11
324.633583
21
9.008642
31
0.0
0
LINE
8
00_ALUMINIO
10
324.633583
20
9.008642
30
0.0
11
319.923583
21
9.008642
31
0.0
0
ARC
8
00_ALUMINIO
10
319.923583
20
9.308642
30
0.0
40
0.300000
50
180.000000
51
270.000000
0
LINE
8
00_ALUMINIO
10
319.623583
20
9.308642
30
0.0
11
319.623583
21
11.108642
31
0.0
0
ARC
8
00_ALUMINIO
10
319.923583
20
11.108642
30
0.0
40
0.300000
50
90.000000
51
180.000000
0
LINE
8
00_POLIAMIDAS
10
271.823583
20
16.076236
30
0.0
11
273.229117
21
17.481770
31
0.0
0
LINE
8
00_POLIAMIDAS
10
271.887301
20
13.894890
30
0.0
11
274.903898
21
16.911487
31
0.0
0
LINE
8
00_POLIAMIDAS
10
274.831388
20
14.593914
30
0.0
11
277.529336
21
17.291861
31
0.0
0
LINE
8
00_POLIAMIDAS
10
275.855712
20
13.373173
30
0.0
11
276.636500
21
14.153961
31
0.0
0
LINE
8
00_POLIAMIDAS
10
278.898927
20
16.416388
30
0.0
11
280.094026
21
17.611487
31
0.0
0
LINE
8
00_POLIAMIDAS
10
276.888150
20
12.160547
30
0.0
11
277.751851
21
13.024248
31
0.0
0
LINE
8
00_POLIAMIDAS
10
281.239090
20
16.511487
30
0.0
11
282.339090
21
17.611487
31
0.0
0
LINE
8
00_POLIAMIDAS
10
278.884154
20
11.911487
30
0.0
11
279.984154
21
13.011487
31
0.0
0
LINE
8
00_POLIAMIDAS
10
283.484154
20
16.511487
30
0.0
11
284.584154
21
17.611487
31
0.0
0
LINE
8
00_POLIAMIDAS
10
281.129219
20
11.911487
30
0.0
11
282.229219
21
13.011487
31
0.0
0
LINE
8
00_POLIAMIDAS
10
285.285702
20
16.067971
30
0.0
11
286.829219
21
17.611487
31
0.0
0
LINE
8
00_POLIAMIDAS
10
283.374283
20
11.911487
30
0.0
11
284.474283
21
13.011487
31
0.0
0
LINE
8
00_POLIAMIDAS
10
287.974283
20
16.511487
30
0.0
11
289.074283
21
17.611487
31
0.0
0
LINE
8
00_POLIAMIDAS
10
285.288903
20
13.826108
30
0.0
11
286.088903
21
14.626108
31
0.0
0
LINE
8
00_POLIAMIDAS
10
285.619347
20
11.911487
30
0.0
11
286.719347
21
13.011487
31
0.0
0
LINE
8
00_POLIAMIDAS
10
290.219347
20
16.511487
30
0.0
11
291.319347
21
17.611487
31
0.0
0
LINE
8
00_POLIAMIDAS
10
287.864411
20
11.911487
30
0.0
11
288.964411
21
13.011487
31
0.0
0
LINE
8
00_POLIAMIDAS
10
292.464411
20
16.511487
30
0.0
11
293.564411
21
17.611487
31
0.0
0
LINE
8
00_POLIAMIDAS
10
290.109475
20
11.911487
30
0.0
11
291.209475
21
13.011487
31
0.0
0
LINE
8
00_POLIAMIDAS
10
293.923583
20
15.725596
30
0.0
11
295.809475
21
17.611487
31
0.0
0
LINE
8
00_POLIAMIDAS
10
292.354539
20
11.911487
30
0.0
11
293.455562
21
13.012511
31
0.0
0
LINE
8
00_POLIAMIDAS
10
296.954539
20
16.511487
30
0.0
11
298.054539
21
17.611487
31
0.0
0
LINE
8
00_POLIAMIDAS
10
293.922559
20
13.479508
30
0.0
11
294.723583
21
14.280532
31
0.0
0
LINE
8
00_POLIAMIDAS
10
294.599603
20
11.911487
30
0.0
11
295.699603
21
13.011487
31
0.0
0
LINE
8
00_POLIAMIDAS
10
299.199603
20
16.511487
30
0.0
11
300.299603
21
17.611487
31
0.0
0
LINE
8
00_POLIAMIDAS
10
296.844667
20
11.911487
30
0.0
11
297.944667
21
13.011487
31
0.0
0
LINE
8
00_POLIAMIDAS
10
301.444667
20
16.511487
30
0.0
11
302.544667
21
17.611487
31
0.0
0
LINE
8
00_POLIAMIDAS
10
299.089731
20
11.911487
30
0.0
11
300.189731
21
13.011487
31
0.0
0
LINE
8
00_POLIAMIDAS
10
303.639176
20
16.460933
30
0.0
11
304.789731
21
17.611487
31
0.0
0
LINE
8
00_POLIAMIDAS
10
302.558263
20
15.380020
30
0.0
11
303.408818
21
16.230575
31
0.0
0
LINE
8
00_POLIAMIDAS
10
301.334795
20
11.911487
30
0.0
11
303.358263
21
13.934956
31
0.0
0
LINE
8
00_POLIAMIDAS
10
305.934795
20
16.511487
30
0.0
11
307.034795
21
17.611487
31
0.0
0
LINE
8
00_POLIAMIDAS
10
303.579859
20
11.911487
30
0.0
11
304.679859
21
13.011487
31
0.0
0
LINE
8
00_POLIAMIDAS
10
308.179859
20
16.511487
30
0.0
11
309.279857
21
17.611486
31
0.0
0
LINE
8
00_POLIAMIDAS
10
305.824923
20
11.911487
30
0.0
11
306.924923
21
13.011487
31
0.0
0
LINE
8
00_POLIAMIDAS
10
310.242646
20
16.329210
30
0.0
11
311.192186
21
17.278750
31
0.0
0
LINE
8
00_POLIAMIDAS
10
308.069987
20
11.911487
30
0.0
11
309.169987
21
13.011487
31
0.0
0
LINE
8
00_POLIAMIDAS
10
312.019819
20
15.861320
30
0.0
11
313.100723
21
16.942224
31
0.0
0
LINE
8
00_POLIAMIDAS
10
310.315051
20
11.911487
30
0.0
11
316.315051
21
17.911487
31
0.0
0
LINE
8
00_POLIAMIDAS
10
315.020009
20
14.371382
30
0.0
11
316.823583
21
16.174955
31
0.0
0
LINE
8
00_POLIAMIDAS
10
272.664540
20
13.814725
30
0.0
11
271.823583
21
14.655682
31
0.0
0
LINE
8
00_POLIAMIDAS
10
274.089091
20
14.635237
30
0.0
11
271.823583
21
16.900746
31
0.0
0
LINE
8
00_POLIAMIDAS
10
279.057905
20
11.911487
30
0.0
11
277.957905
21
13.011487
31
0.0
0
LINE
8
00_POLIAMIDAS
10
276.301075
20
14.668317
30
0.0
11
273.842089
21
17.127303
31
0.0
0
LINE
8
00_POLIAMIDAS
10
281.302969
20
11.911487
30
0.0
11
280.202969
21
13.011487
31
0.0
0
LINE
8
00_POLIAMIDAS
10
277.113541
20
16.100915
30
0.0
11
276.163440
21
17.051017
31
0.0
0
LINE
8
00_POLIAMIDAS
10
283.548033
20
11.911487
30
0.0
11
282.448033
21
13.011487
31
0.0
0
LINE
8
00_POLIAMIDAS
10
279.021517
20
16.438004
30
0.0
11
278.071977
21
17.387543
31
0.0
0
LINE
8
00_POLIAMIDAS
10
285.793097
20
11.911487
30
0.0
11
284.693097
21
13.011487
31
0.0
0
LINE
8
00_POLIAMIDAS
10
281.193097
20
16.511487
30
0.0
11
280.093097
21
17.611487
31
0.0
0
LINE
8
00_POLIAMIDAS
10
288.038161
20
11.911487
30
0.0
11
286.938161
21
13.011487
31
0.0
0
LINE
8
00_POLIAMIDAS
10
283.438161
20
16.511487
30
0.0
11
282.338161
21
17.611487
31
0.0
0
LINE
8
00_POLIAMIDAS
10
286.088903
20
13.860746
30
0.0
11
285.288903
21
14.660746
31
0.0
0
LINE
8
00_POLIAMIDAS
10
290.283225
20
11.911487
30
0.0
11
289.183225
21
13.011487
31
0.0
0
LINE
8
00_POLIAMIDAS
10
286.096484
20
16.098228
30
0.0
11
284.583225
21
17.611487
31
0.0
0
LINE
8
00_POLIAMIDAS
10
292.528289
20
11.911487
30
0.0
11
291.428289
21
13.011487
31
0.0
0
LINE
8
00_POLIAMIDAS
10
287.928289
20
16.511487
30
0.0
11
286.828289
21
17.611487
31
0.0
0
LINE
8
00_POLIAMIDAS
10
294.773353
20
11.911487
30
0.0
11
293.629144
21
13.055697
31
0.0
0
LINE
8
00_POLIAMIDAS
10
290.173353
20
16.511487
30
0.0
11
289.073353
21
17.611487
31
0.0
0
LINE
8
00_POLIAMIDAS
10
297.018417
20
11.911487
30
0.0
11
295.918417
21
13.011487
31
0.0
0
LINE
8
00_POLIAMIDAS
10
292.418417
20
16.511487
30
0.0
11
291.318417
21
17.611487
31
0.0
0
LINE
8
00_POLIAMIDAS
10
294.723583
20
14.206322
30
0.0
11
293.923583
21
15.006322
31
0.0
0
LINE
8
00_POLIAMIDAS
10
299.263481
20
11.911487
30
0.0
11
298.163481
21
13.011487
31
0.0
0
LINE
8
00_POLIAMIDAS
10
294.841258
20
16.333711
30
0.0
11
293.563481
21
17.611487
31
0.0
0
LINE
8
00_POLIAMIDAS
10
301.508545
20
11.911487
30
0.0
11
300.408545
21
13.011487
31
0.0
0
LINE
8
00_POLIAMIDAS
10
296.908545
20
16.511487
30
0.0
11
295.808545
21
17.611487
31
0.0
0
LINE
8
00_POLIAMIDAS
10
303.753609
20
11.911487
30
0.0
11
302.456261
21
13.208836
31
0.0
0
LINE
8
00_POLIAMIDAS
10
299.153609
20
16.511487
30
0.0
11
298.053609
21
17.611487
31
0.0
0
LINE
8
00_POLIAMIDAS
10
305.998673
20
11.911487
30
0.0
11
304.898673
21
13.011487
31
0.0
0
LINE
8
00_POLIAMIDAS
10
301.398673
20
16.511487
30
0.0
11
300.298673
21
17.611487
31
0.0
0
LINE
8
00_POLIAMIDAS
10
303.358263
20
14.551898
30
0.0
11
302.558263
21
15.351898
31
0.0
0
LINE
8
00_POLIAMIDAS
10
308.243737
20
11.911487
30
0.0
11
307.143737
21
13.011487
31
0.0
0
LINE
8
00_POLIAMIDAS
10
303.677541
20
16.477684
30
0.0
11
302.543737
21
17.611487
31
0.0
0
LINE
8
00_POLIAMIDAS
10
310.488801
20
11.911487
30
0.0
11
309.388801
21
13.011487
31
0.0
0
LINE
8
00_POLIAMIDAS
10
305.888801
20
16.511487
30
0.0
11
304.788801
21
17.611487
31
0.0
0
LINE
8
00_POLIAMIDAS
10
312.098277
20
12.547076
30
0.0
11
311.317488
21
13.327865
31
0.0
0
LINE
8
00_POLIAMIDAS
10
308.133866
20
16.511487
30
0.0
11
307.033866
21
17.611487
31
0.0
0
LINE
8
00_POLIAMIDAS
10
313.122600
20
13.767817
30
0.0
11
312.311175
21
14.579242
31
0.0
0
LINE
8
00_POLIAMIDAS
10
310.629402
20
16.261015
30
0.0
11
309.278930
21
17.611487
31
0.0
0
LINE
8
00_POLIAMIDAS
10
314.462537
20
14.672944
30
0.0
11
311.998993
21
17.136488
31
0.0
0
LINE
8
00_POLIAMIDAS
10
316.823583
20
14.556962
30
0.0
11
314.437990
21
16.942555
31
0.0
0
LINE
8
00_POLIAMIDAS
10
316.823583
20
16.802026
30
0.0
11
315.877912
21
17.747697
31
0.0
0
LINE
8
00_POLIAMIDAS
10
303.858263
20
13.011487
30
0.0
11
310.772232
21
13.011487
31
0.0
0
ARC
8
00_POLIAMIDAS
10
310.772232
20
13.611487
30
0.0
40
0.600000
50
270.000000
51
320.000000
0
LINE
8
00_POLIAMIDAS
10
311.231858
20
13.225815
30
0.0
11
312.148118
21
14.317770
31
0.0
0
ARC
8
00_POLIAMIDAS
10
311.305469
20
15.024837
30
0.0
40
1.100000
50
320.000000
51
80.000000
0
LINE
8
00_POLIAMIDAS
10
311.496482
20
16.108125
30
0.0
11
309.260597
21
16.502372
31
0.0
0
ARC
8
00_POLIAMIDAS
10
309.156408
20
15.911487
30
0.0
40
0.600000
50
80.000000
51
90.000000
0
LINE
8
00_POLIAMIDAS
10
309.156408
20
16.511487
30
0.0
11
303.858263
21
16.511487
31
0.0
0
ARC
8
00_POLIAMIDAS
10
303.858263
20
16.011487
30
0.0
40
0.500000
50
90.000000
51
180.000000
0
LINE
8
00_POLIAMIDAS
10
303.358263
20
16.011487
30
0.0
11
303.358263
21
13.511487
31
0.0
0
ARC
8
00_POLIAMIDAS
10
303.858263
20
13.511487
30
0.0
40
0.500000
50
180.000000
51
270.000000
0
ARC
8
00_POLIAMIDAS
10
302.058263
20
13.511487
30
0.0
40
0.500000
50
270.000000
51
0.000000
0
LINE
8
00_POLIAMIDAS
10
302.558263
20
13.511487
30
0.0
11
302.558263
21
16.011487
31
0.0
0
ARC
8
00_POLIAMIDAS
10
302.058263
20
16.011487
30
0.0
40
0.500000
50
0.000000
51
90.000000
0
LINE
8
00_POLIAMIDAS
10
302.058263
20
16.511487
30
0.0
11
295.223583
21
16.511487
31
0.0
0
ARC
8
00_POLIAMIDAS
10
295.223583
20
16.011487
30
0.0
40
0.500000
50
90.000000
51
180.000000
0
LINE
8
00_POLIAMIDAS
10
294.723583
20
16.011487
30
0.0
11
294.723583
21
13.511487
31
0.0
0
ARC
8
00_POLIAMIDAS
10
295.223583
20
13.511487
30
0.0
40
0.500000
50
180.000000
51
270.000000
0
LINE
8
00_POLIAMIDAS
10
295.223583
20
13.011487
30
0.0
11
302.058263
21
13.011487
31
0.0
0
ARC
8
00_POLIAMIDAS
10
286.588903
20
16.011487
30
0.0
40
0.500000
50
90.000000
51
180.000000
0
LINE
8
00_POLIAMIDAS
10
286.088903
20
16.011487
30
0.0
11
286.088903
21
13.511487
31
0.0
0
ARC
8
00_POLIAMIDAS
10
286.588903
20
13.511487
30
0.0
40
0.500000
50
180.000000
51
270.000000
0
LINE
8
00_POLIAMIDAS
10
286.588903
20
13.011487
30
0.0
11
293.423583
21
13.011487
31
0.0
0
ARC
8
00_POLIAMIDAS
10
293.423583
20
13.511487
30
0.0
40
0.500000
50
270.000000
51
0.000000
0
LINE
8
00_POLIAMIDAS
10
293.923583
20
13.511487
30
0.0
11
293.923583
21
16.011487
31
0.0
0
ARC
8
00_POLIAMIDAS
10
293.423583
20
16.011487
30
0.0
40
0.500000
50
0.000000
51
90.000000
0
LINE
8
00_POLIAMIDAS
10
293.423583
20
16.511487
30
0.0
11
286.588903
21
16.511487
31
0.0
0
LINE
8
00_POLIAMIDAS
10
316.118733
20
13.736018
30
0.0
11
316.214703
21
13.711487
31
0.0
0
LINE
8
00_POLIAMIDAS
10
316.214703
20
13.711487
30
0.0
11
316.423583
21
13.711487
31
0.0
0
ARC
8
00_POLIAMIDAS
10
316.423583
20
14.111487
30
0.0
40
0.400000
50
270.000000
51
0.000000
0
LINE
8
00_POLIAMIDAS
10
316.823583
20
14.111487
30
0.0
11
316.823583
21
17.511487
31
0.0
0
ARC
8
00_POLIAMIDAS
10
316.423583
20
17.511487
30
0.0
40
0.400000
50
0.000000
51
90.000000
0
LINE
8
00_POLIAMIDAS
10
316.423583
20
17.911487
30
0.0
11
316.214703
21
17.911487
31
0.0
0
LINE
8
00_POLIAMIDAS
10
316.214703
20
17.911487
30
0.0
11
316.118733
21
17.886957
31
0.0
0
LINE
8
00_POLIAMIDAS
10
316.118733
20
17.886957
30
0.0
11
314.617694
21
17.018945
31
0.0
0
ARC
8
00_POLIAMIDAS
10
314.217214
20
17.711487
30
0.0
40
0.800000
50
270.000000
51
300.039706
0
LINE
8
00_POLIAMIDAS
10
314.217214
20
16.911487
30
0.0
11
313.301283
21
16.911487
31
0.0
0
LINE
8
00_POLIAMIDAS
10
313.249188
20
16.916045
30
0.0
11
313.301283
21
16.911487
31
0.0
0
LINE
8
00_POLIAMIDAS
10
313.249188
20
16.916045
30
0.0
11
309.330987
21
17.606930
31
0.0
0
LINE
8
00_POLIAMIDAS
10
309.330987
20
17.606930
30
0.0
11
309.278892
21
17.611487
31
0.0
0
LINE
8
00_POLIAMIDAS
10
309.278892
20
17.611487
30
0.0
11
294.323583
21
17.611487
31
0.0
0
LINE
8
00_POLIAMIDAS
10
294.323583
20
17.611487
30
0.0
11
279.368274
21
17.611487
31
0.0
0
LINE
8
00_POLIAMIDAS
10
279.368274
20
17.611487
30
0.0
11
279.316179
21
17.606930
31
0.0
0
LINE
8
00_POLIAMIDAS
10
279.316179
20
17.606930
30
0.0
11
275.397978
21
16.916045
31
0.0
0
LINE
8
00_POLIAMIDAS
10
275.345883
20
16.911487
30
0.0
11
275.397978
21
16.916045
31
0.0
0
LINE
8
00_POLIAMIDAS
10
275.345883
20
16.911487
30
0.0
11
274.429952
21
16.911487
31
0.0
0
ARC
8
00_POLIAMIDAS
10
274.429952
20
17.711487
30
0.0
40
0.800000
50
239.960294
51
270.000000
0
LINE
8
00_POLIAMIDAS
10
274.029472
20
17.018945
30
0.0
11
272.528433
21
17.886957
31
0.0
0
LINE
8
00_POLIAMIDAS
10
272.528433
20
17.886957
30
0.0
11
272.432463
21
17.911487
31
0.0
0
LINE
8
00_POLIAMIDAS
10
272.432463
20
17.911487
30
0.0
11
272.223583
21
17.911487
31
0.0
0
ARC
8
00_POLIAMIDAS
10
272.223583
20
17.511487
30
0.0
40
0.400000
50
90.000000
51
180.000000
0
LINE
8
00_POLIAMIDAS
10
271.823583
20
17.511487
30
0.0
11
271.823583
21
14.111487
31
0.0
0
ARC
8
00_POLIAMIDAS
10
272.223583
20
14.111487
30
0.0
40
0.400000
50
180.000000
51
270.000000
0
LINE
8
00_POLIAMIDAS
10
272.223583
20
13.711487
30
0.0
11
272.432463
21
13.711487
31
0.0
0
LINE
8
00_POLIAMIDAS
10
272.432463
20
13.711487
30
0.0
11
272.528433
21
13.736018
31
0.0
0
LINE
8
00_POLIAMIDAS
10
272.528433
20
13.736018
30
0.0
11
274.029472
21
14.604030
31
0.0
0
ARC
8
00_POLIAMIDAS
10
274.429952
20
13.911487
30
0.0
40
0.800000
50
90.000000
51
120.039706
0
LINE
8
00_POLIAMIDAS
10
274.429952
20
14.711487
30
0.0
11
274.592849
21
14.711487
31
0.0
0
ARC
8
00_POLIAMIDAS
10
274.592849
20
14.411487
30
0.0
40
0.300000
50
39.610000
51
90.000000
0
LINE
8
00_POLIAMIDAS
10
274.823970
20
14.602755
30
0.0
11
276.782474
21
12.268700
31
0.0
0
ARC
8
00_POLIAMIDAS
10
277.548519
20
12.911487
30
0.0
40
1.000000
50
220.000000
51
270.000000
0
LINE
8
00_POLIAMIDAS
10
277.548519
20
11.911487
30
0.0
11
294.323583
21
11.911487
31
0.0
0
LINE
8
00_POLIAMIDAS
10
294.323583
20
11.911487
30
0.0
11
311.098647
21
11.911487
31
0.0
0
ARC
8
00_POLIAMIDAS
10
311.098647
20
12.911487
30
0.0
40
1.000000
50
270.000000
51
320.000000
0
LINE
8
00_POLIAMIDAS
10
311.864691
20
12.268700
30
0.0
11
313.823196
21
14.602755
31
0.0
0
ARC
8
00_POLIAMIDAS
10
314.054317
20
14.411487
30
0.0
40
0.300000
50
90.000000
51
140.390000
0
LINE
8
00_POLIAMIDAS
10
314.054317
20
14.711487
30
0.0
11
314.217214
21
14.711487
31
0.0
0
ARC
8
00_POLIAMIDAS
10
314.217214
20
13.911487
30
0.0
40
0.800000
50
59.960294
51
90.000000
0
LINE
8
00_POLIAMIDAS
10
314.617694
20
14.604030
30
0.0
11
316.118733
21
13.736018
31
0.0
0
ARC
8
00_POLIAMIDAS
10
277.874934
20
13.611487
30
0.0
40
0.600000
50
220.000000
51
270.000000
0
LINE
8
00_POLIAMIDAS
10
277.874934
20
13.011487
30
0.0
11
284.788903
21
13.011487
31
0.0
0
ARC
8
00_POLIAMIDAS
10
284.788903
20
13.511487
30
0.0
40
0.500000
50
270.000000
51
0.000000
0
LINE
8
00_POLIAMIDAS
10
285.288903
20
13.511487
30
0.0
11
285.288903
21
16.011487
31
0.0
0
ARC
8
00_POLIAMIDAS
10
284.788903
20
16.011487
30
0.0
40
0.500000
50
0.000000
51
90.000000
0
LINE
8
00_POLIAMIDAS
10
284.788903
20
16.511487
30
0.0
11
279.490758
21
16.511487
31
0.0
0
ARC
8
00_POLIAMIDAS
10
279.490758
20
15.911487
30
0.0
40
0.600000
50
90.000000
51
100.000000
0
LINE
8
00_POLIAMIDAS
10
279.386569
20
16.502372
30
0.0
11
277.150684
21
16.108125
31
0.0
0
ARC
8
00_POLIAMIDAS
10
277.341697
20
15.024837
30
0.0
40
1.100000
50
100.000000
51
220.000000
0
LINE
8
00_POLIAMIDAS
10
276.499048
20
14.317770
30
0.0
11
277.415308
21
13.225815
31
0.0
0
LINE
8
00_POLIAMIDAS
10
271.823583
20
24.930127
30
0.0
11
272.975583
21
26.082127
31
0.0
0
LINE
8
00_POLIAMIDAS
10
277.823583
20
30.930127
30
0.0
11
279.750526
21
32.857070
31
0.0
0
LINE
8
00_POLIAMIDAS
10
271.823583
20
22.685063
30
0.0
11
274.503752
21
25.365232
31
0.0
0
LINE
8
00_POLIAMIDAS
10
280.053752
20
30.915232
30
0.0
11
280.723583
21
31.585063
31
0.0
0
LINE
8
00_POLIAMIDAS
10
275.926868
20
26.788348
30
0.0
11
277.261753
21
28.123233
31
0.0
0
LINE
8
00_POLIAMIDAS
10
277.823583
20
28.685063
30
0.0
11
279.323583
21
30.185063
31
0.0
0
LINE
8
00_POLIAMIDAS
10
274.548816
20
23.165232
30
0.0
11
276.256374
21
24.872790
31
0.0
0
LINE
8
00_POLIAMIDAS
10
278.448816
20
27.065232
30
0.0
11
279.601062
21
28.217478
31
0.0
0
LINE
8
00_POLIAMIDAS
10
276.580765
20
22.952117
30
0.0
11
277.530305
21
23.901657
31
0.0
0
LINE
8
00_POLIAMIDAS
10
280.693880
20
27.065232
30
0.0
11
281.793880
21
28.165232
31
0.0
0
LINE
8
00_POLIAMIDAS
10
278.489303
20
22.615591
30
0.0
11
279.438843
21
23.565130
31
0.0
0
LINE
8
00_POLIAMIDAS
10
288.324876
20
32.451164
30
0.0
11
288.787652
21
32.913940
31
0.0
0
LINE
8
00_POLIAMIDAS
10
282.938944
20
27.065232
30
0.0
11
284.038944
21
28.165232
31
0.0
0
LINE
8
00_POLIAMIDAS
10
280.397840
20
22.279064
30
0.0
11
281.384009
21
23.265232
31
0.0
0
LINE
8
00_POLIAMIDAS
10
288.323583
20
30.204807
30
0.0
11
290.628796
21
32.510020
31
0.0
0
LINE
8
00_POLIAMIDAS
10
285.086097
20
26.967321
30
0.0
11
286.284009
21
28.165232
31
0.0
0
LINE
8
00_POLIAMIDAS
10
282.529073
20
22.165232
30
0.0
11
283.629073
21
23.265232
31
0.0
0
LINE
8
00_POLIAMIDAS
10
287.429073
20
27.065232
30
0.0
11
289.823583
21
29.459743
31
0.0
0
LINE
8
00_POLIAMIDAS
10
285.288903
20
24.925063
30
0.0
11
286.088903
21
25.725063
31
0.0
0
LINE
8
00_POLIAMIDAS
10
284.774137
20
22.165232
30
0.0
11
286.144668
21
23.535764
31
0.0
0
LINE
8
00_POLIAMIDAS
10
289.674137
20
27.065232
30
0.0
11
290.774137
21
28.165232
31
0.0
0
LINE
8
00_POLIAMIDAS
10
287.019201
20
22.165232
30
0.0
11
288.119201
21
23.265232
31
0.0
0
LINE
8
00_POLIAMIDAS
10
291.919201
20
27.065232
30
0.0
11
293.019201
21
28.165232
31
0.0
0
LINE
8
00_POLIAMIDAS
10
289.264265
20
22.165232
30
0.0
11
290.364265
21
23.265232
31
0.0
0
LINE
8
00_POLIAMIDAS
10
298.014265
20
30.915232
30
0.0
11
300.014265
21
32.915232
31
0.0
0
LINE
8
00_POLIAMIDAS
10
293.876366
20
26.777334
30
0.0
11
295.264265
21
28.165232
31
0.0
0
LINE
8
00_POLIAMIDAS
10
291.509329
20
22.165232
30
0.0
11
292.609329
21
23.265232
31
0.0
0
LINE
8
00_POLIAMIDAS
10
298.823583
20
29.479487
30
0.0
11
301.491456
21
32.147360
31
0.0
0
LINE
8
00_POLIAMIDAS
10
293.923583
20
24.579487
30
0.0
11
294.723583
21
25.379487
31
0.0
0
LINE
8
00_POLIAMIDAS
10
296.409329
20
27.065232
30
0.0
11
297.509329
21
28.165232
31
0.0
0
LINE
8
00_POLIAMIDAS
10
293.754393
20
22.165232
30
0.0
11
294.941537
21
23.352376
31
0.0
0
LINE
8
00_POLIAMIDAS
10
298.654393
20
27.065232
30
0.0
11
300.323583
21
28.734423
31
0.0
0
LINE
8
00_POLIAMIDAS
10
295.999457
20
22.165232
30
0.0
11
297.099457
21
23.265232
31
0.0
0
LINE
8
00_POLIAMIDAS
10
304.943077
20
31.108853
30
0.0
11
306.749457
21
32.915232
31
0.0
0
LINE
8
00_POLIAMIDAS
10
300.899457
20
27.065232
30
0.0
11
301.999457
21
28.165232
31
0.0
0
LINE
8
00_POLIAMIDAS
10
298.244521
20
22.165232
30
0.0
11
299.344521
21
23.265232
31
0.0
0
LINE
8
00_POLIAMIDAS
10
306.323583
20
30.244295
30
0.0
11
307.823583
21
31.744295
31
0.0
0
LINE
8
00_POLIAMIDAS
10
302.558263
20
26.478975
30
0.0
11
304.244521
21
28.165232
31
0.0
0
LINE
8
00_POLIAMIDAS
10
300.489585
20
22.165232
30
0.0
11
301.589585
21
23.265232
31
0.0
0
LINE
8
00_POLIAMIDAS
10
305.389585
20
27.065232
30
0.0
11
307.823583
21
29.499230
31
0.0
0
LINE
8
00_POLIAMIDAS
10
302.558263
20
24.233911
30
0.0
11
303.358263
21
25.033911
31
0.0
0
LINE
8
00_POLIAMIDAS
10
302.734649
20
22.165232
30
0.0
11
303.835182
21
23.265765
31
0.0
0
LINE
8
00_POLIAMIDAS
10
307.634649
20
27.065232
30
0.0
11
308.734649
21
28.165232
31
0.0
0
LINE
8
00_POLIAMIDAS
10
304.979713
20
22.165232
30
0.0
11
306.079713
21
23.265232
31
0.0
0
LINE
8
00_POLIAMIDAS
10
309.879713
20
27.065232
30
0.0
11
310.979713
21
28.165232
31
0.0
0
LINE
8
00_POLIAMIDAS
10
307.224777
20
22.165232
30
0.0
11
308.499731
21
23.440187
31
0.0
0
LINE
8
00_POLIAMIDAS
10
311.541469
20
26.481925
30
0.0
11
312.322258
21
27.262713
31
0.0
0
LINE
8
00_POLIAMIDAS
10
309.869322
20
22.564713
30
0.0
11
311.225405
21
23.920796
31
0.0
0
LINE
8
00_POLIAMIDAS
10
312.404424
20
25.099815
30
0.0
11
313.346581
21
26.041973
31
0.0
0
LINE
8
00_POLIAMIDAS
10
312.594995
20
23.045323
30
0.0
11
315.577248
21
26.027575
31
0.0
0
LINE
8
00_POLIAMIDAS
10
314.766475
20
22.971739
30
0.0
11
316.823583
21
25.028846
31
0.0
0
LINE
8
00_POLIAMIDAS
10
316.205256
20
22.165456
30
0.0
11
316.823583
21
22.783782
31
0.0
0
LINE
8
00_POLIAMIDAS
10
272.656181
20
22.263636
30
0.0
11
271.823583
21
23.096234
31
0.0
0
LINE
8
00_POLIAMIDAS
10
274.080168
20
23.084712
30
0.0
11
271.823583
21
25.341298
31
0.0
0
LINE
8
00_POLIAMIDAS
10
276.431509
20
22.978435
30
0.0
11
273.810806
21
25.599138
31
0.0
0
LINE
8
00_POLIAMIDAS
10
279.157183
20
22.497825
30
0.0
11
277.801100
21
23.853909
31
0.0
0
LINE
8
00_POLIAMIDAS
10
276.287847
20
25.367162
30
0.0
11
275.443142
21
26.211866
31
0.0
0
LINE
8
00_POLIAMIDAS
10
281.734840
20
22.165232
30
0.0
11
280.526774
21
23.373299
31
0.0
0
LINE
8
00_POLIAMIDAS
10
277.248254
20
26.651819
30
0.0
11
276.467466
21
27.432607
31
0.0
0
LINE
8
00_POLIAMIDAS
10
283.979904
20
22.165232
30
0.0
11
282.879904
21
23.265232
31
0.0
0
LINE
8
00_POLIAMIDAS
10
279.079904
20
27.065232
30
0.0
11
277.752997
21
28.392140
31
0.0
0
LINE
8
00_POLIAMIDAS
10
286.224968
20
22.165232
30
0.0
11
285.050856
21
23.339345
31
0.0
0
LINE
8
00_POLIAMIDAS
10
279.323583
20
29.066618
30
0.0
11
277.823583
21
30.566618
31
0.0
0
LINE
8
00_POLIAMIDAS
10
281.324968
20
27.065232
30
0.0
11
280.224968
21
28.165232
31
0.0
0
LINE
8
00_POLIAMIDAS
10
288.470032
20
22.165232
30
0.0
11
287.370032
21
23.265232
31
0.0
0
LINE
8
00_POLIAMIDAS
10
279.720032
20
30.915232
30
0.0
11
277.922066
21
32.713199
31
0.0
0
LINE
8
00_POLIAMIDAS
10
286.088903
20
24.546362
30
0.0
11
285.288903
21
25.346362
31
0.0
0
LINE
8
00_POLIAMIDAS
10
283.570032
20
27.065232
30
0.0
11
282.470032
21
28.165232
31
0.0
0
LINE
8
00_POLIAMIDAS
10
290.715096
20
22.165232
30
0.0
11
289.615096
21
23.265232
31
0.0
0
LINE
8
00_POLIAMIDAS
10
286.126028
20
26.754301
30
0.0
11
284.715096
21
28.165232
31
0.0
0
LINE
8
00_POLIAMIDAS
10
292.960160
20
22.165232
30
0.0
11
291.860160
21
23.265232
31
0.0
0
LINE
8
00_POLIAMIDAS
10
288.060160
20
27.065232
30
0.0
11
286.960160
21
28.165232
31
0.0
0
LINE
8
00_POLIAMIDAS
10
295.205224
20
22.165232
30
0.0
11
293.856093
21
23.514364
31
0.0
0
LINE
8
00_POLIAMIDAS
10
290.305224
20
27.065232
30
0.0
11
288.323583
21
29.046874
31
0.0
0
LINE
8
00_POLIAMIDAS
10
297.450288
20
22.165232
30
0.0
11
296.350288
21
23.265232
31
0.0
0
LINE
8
00_POLIAMIDAS
10
289.823583
20
29.791938
30
0.0
11
288.323583
21
31.291938
31
0.0
0
LINE
8
00_POLIAMIDAS
10
294.723583
20
24.891938
30
0.0
11
293.923583
21
25.691938
31
0.0
0
LINE
8
00_POLIAMIDAS
10
292.550288
20
27.065232
30
0.0
11
291.450288
21
28.165232
31
0.0
0
LINE
8
00_POLIAMIDAS
10
299.695353
20
22.165232
30
0.0
11
298.595353
21
23.265232
31
0.0
0
LINE
8
00_POLIAMIDAS
10
290.944614
20
30.915971
30
0.0
11
288.945353
21
32.915232
31
0.0
0
LINE
8
00_POLIAMIDAS
10
294.907740
20
26.952845
30
0.0
11
293.695353
21
28.165232
31
0.0
0
LINE
8
00_POLIAMIDAS
10
301.940417
20
22.165232
30
0.0
11
300.840417
21
23.265232
31
0.0
0
LINE
8
00_POLIAMIDAS
10
297.040417
20
27.065232
30
0.0
11
295.940417
21
28.165232
31
0.0
0
LINE
8
00_POLIAMIDAS
10
304.185481
20
22.165232
30
0.0
11
302.558263
21
23.792450
31
0.0
0
LINE
8
00_POLIAMIDAS
10
299.285481
20
27.065232
30
0.0
11
298.185481
21
28.165232
31
0.0
0
LINE
8
00_POLIAMIDAS
10
306.430545
20
22.165232
30
0.0
11
305.330545
21
23.265232
31
0.0
0
LINE
8
00_POLIAMIDAS
10
297.676888
20
30.918889
30
0.0
11
297.427239
21
31.168538
31
0.0
0
LINE
8
00_POLIAMIDAS
10
303.358263
20
25.237514
30
0.0
11
302.558263
21
26.037514
31
0.0
0
LINE
8
00_POLIAMIDAS
10
301.530545
20
27.065232
30
0.0
11
298.823583
21
29.772194
31
0.0
0
LINE
8
00_POLIAMIDAS
10
308.514942
20
22.325899
30
0.0
11
307.565402
21
23.275439
31
0.0
0
LINE
8
00_POLIAMIDAS
10
300.323583
20
30.517258
30
0.0
11
298.174596
21
32.666245
31
0.0
0
LINE
8
00_POLIAMIDAS
10
303.781531
20
27.059310
30
0.0
11
302.675609
21
28.165232
31
0.0
0
LINE
8
00_POLIAMIDAS
10
310.423479
20
22.662426
30
0.0
11
309.473939
21
23.611966
31
0.0
0
LINE
8
00_POLIAMIDAS
10
301.723583
20
31.362322
30
0.0
11
300.170673
21
32.915232
31
0.0
0
LINE
8
00_POLIAMIDAS
10
306.020673
20
27.065232
30
0.0
11
304.920673
21
28.165232
31
0.0
0
LINE
8
00_POLIAMIDAS
10
312.332016
20
22.998953
30
0.0
11
311.382477
21
23.948492
31
0.0
0
LINE
8
00_POLIAMIDAS
10
308.265737
20
27.065232
30
0.0
11
306.323583
21
29.007386
31
0.0
0
LINE
8
00_POLIAMIDAS
10
314.443459
20
23.132574
30
0.0
11
312.398239
21
25.177794
31
0.0
0
LINE
8
00_POLIAMIDAS
10
307.823583
20
29.752450
30
0.0
11
305.292192
21
32.283841
31
0.0
0
LINE
8
00_POLIAMIDAS
10
310.510801
20
27.065232
30
0.0
11
309.410801
21
28.165232
31
0.0
0
LINE
8
00_POLIAMIDAS
10
316.823583
20
22.997514
30
0.0
11
314.427683
21
25.393415
31
0.0
0
LINE
8
00_POLIAMIDAS
10
307.823583
20
31.997514
30
0.0
11
306.905865
21
32.915232
31
0.0
0
LINE
8
00_POLIAMIDAS
10
316.823583
20
25.242578
30
0.0
11
315.869553
21
26.196608
31
0.0
0
LINE
8
00_POLIAMIDAS
10
274.592849
20
25.365232
30
0.0
11
274.429952
21
25.365232
31
0.0
0
ARC
8
00_POLIAMIDAS
10
274.429952
20
26.165232
30
0.0
40
0.800000
50
239.960294
51
270.000000
0
LINE
8
00_POLIAMIDAS
10
274.029472
20
25.472689
30
0.0
11
272.528433
21
26.340702
31
0.0
0
LINE
8
00_POLIAMIDAS
10
272.528433
20
26.340702
30
0.0
11
272.432463
21
26.365232
31
0.0
0
LINE
8
00_POLIAMIDAS
10
272.432463
20
26.365232
30
0.0
11
272.223583
21
26.365232
31
0.0
0
ARC
8
00_POLIAMIDAS
10
272.223583
20
25.965232
30
0.0
40
0.400000
50
90.000000
51
180.000000
0
LINE
8
00_POLIAMIDAS
10
271.823583
20
25.965232
30
0.0
11
271.823583
21
22.565232
31
0.0
0
ARC
8
00_POLIAMIDAS
10
272.223583
20
22.565232
30
0.0
40
0.400000
50
180.000000
51
270.000000
0
LINE
8
00_POLIAMIDAS
10
272.223583
20
22.165232
30
0.0
11
272.432463
21
22.165232
31
0.0
0
LINE
8
00_POLIAMIDAS
10
272.432463
20
22.165232
30
0.0
11
272.528433
21
22.189763
31
0.0
0
LINE
8
00_POLIAMIDAS
10
272.528433
20
22.189763
30
0.0
11
274.029472
21
23.057775
31
0.0
0
ARC
8
00_POLIAMIDAS
10
274.429952
20
22.365232
30
0.0
40
0.800000
50
90.000000
51
120.039706
0
LINE
8
00_POLIAMIDAS
10
274.429952
20
23.165232
30
0.0
11
275.345883
21
23.165232
31
0.0
0
LINE
8
00_POLIAMIDAS
10
275.397978
20
23.160675
30
0.0
11
275.345883
21
23.165232
31
0.0
0
LINE
8
00_POLIAMIDAS
10
275.397978
20
23.160675
30
0.0
11
281.017564
21
22.169790
31
0.0
0
LINE
8
00_POLIAMIDAS
10
281.017564
20
22.169790
30
0.0
11
281.069658
21
22.165232
31
0.0
0
LINE
8
00_POLIAMIDAS
10
281.069658
20
22.165232
30
0.0
11
307.577508
21
22.165232
31
0.0
0
LINE
8
00_POLIAMIDAS
10
307.577508
20
22.165232
30
0.0
11
307.629602
21
22.169790
31
0.0
0
LINE
8
00_POLIAMIDAS
10
307.629602
20
22.169790
30
0.0
11
313.249188
21
23.160675
31
0.0
0
LINE
8
00_POLIAMIDAS
10
313.301283
20
23.165232
30
0.0
11
313.249188
21
23.160675
31
0.0
0
LINE
8
00_POLIAMIDAS
10
313.301283
20
23.165232
30
0.0
11
314.217214
21
23.165232
31
0.0
0
ARC
8
00_POLIAMIDAS
10
314.217214
20
22.365232
30
0.0
40
0.800000
50
59.960294
51
90.000000
0
LINE
8
00_POLIAMIDAS
10
314.617694
20
23.057775
30
0.0
11
316.118733
21
22.189763
31
0.0
0
LINE
8
00_POLIAMIDAS
10
316.118733
20
22.189763
30
0.0
11
316.214703
21
22.165232
31
0.0
0
LINE
8
00_POLIAMIDAS
10
316.214703
20
22.165232
30
0.0
11
316.423583
21
22.165232
31
0.0
0
ARC
8
00_POLIAMIDAS
10
316.423583
20
22.565232
30
0.0
40
0.400000
50
270.000000
51
0.000000
0
LINE
8
00_POLIAMIDAS
10
316.823583
20
22.565232
30
0.0
11
316.823583
21
25.965232
31
0.0
0
ARC
8
00_POLIAMIDAS
10
316.423583
20
25.965232
30
0.0
40
0.400000
50
0.000000
51
90.000000
0
LINE
8
00_POLIAMIDAS
10
316.423583
20
26.365232
30
0.0
11
316.214703
21
26.365232
31
0.0
0
LINE
8
00_POLIAMIDAS
10
316.214703
20
26.365232
30
0.0
11
316.118733
21
26.340702
31
0.0
0
LINE
8
00_POLIAMIDAS
10
316.118733
20
26.340702
30
0.0
11
314.617694
21
25.472689
31
0.0
0
ARC
8
00_POLIAMIDAS
10
314.217214
20
26.165232
30
0.0
40
0.800000
50
270.000000
51
300.039706
0
LINE
8
00_POLIAMIDAS
10
314.217214
20
25.365232
30
0.0
11
314.054317
21
25.365232
31
0.0
0
ARC
8
00_POLIAMIDAS
10
314.054317
20
25.665232
30
0.0
40
0.300000
50
219.610000
51
270.000000
0
LINE
8
00_POLIAMIDAS
10
313.823196
20
25.473965
30
0.0
11
311.864691
21
27.808020
31
0.0
0
ARC
8
00_POLIAMIDAS
10
311.098647
20
27.165232
30
0.0
40
1.000000
50
40.000000
51
90.000000
0
LINE
8
00_POLIAMIDAS
10
311.098647
20
28.165232
30
0.0
11
308.323583
21
28.165232
31
0.0
0
ARC
8
00_POLIAMIDAS
10
308.323583
20
28.665232
30
0.0
40
0.500000
50
180.000000
51
270.000000
0
LINE
8
00_POLIAMIDAS
10
307.823583
20
28.665232
30
0.0
11
307.823583
21
32.415232
31
0.0
0
ARC
8
00_POLIAMIDAS
10
307.323583
20
32.415232
30
0.0
40
0.500000
50
0.000000
51
90.000000
0
LINE
8
00_POLIAMIDAS
10
307.323583
20
32.915232
30
0.0
11
306.130690
21
32.915232
31
0.0
0
ARC
8
00_POLIAMIDAS
10
306.130690
20
32.415232
30
0.0
40
0.500000
50
90.000000
51
135.000000
0
LINE
8
00_POLIAMIDAS
10
305.777136
20
32.768786
30
0.0
11
305.070029
21
32.061679
31
0.0
0
ARC
8
00_POLIAMIDAS
10
305.423583
20
31.708126
30
0.0
40
0.500000
50
135.000000
51
180.000000
0
LINE
8
00_POLIAMIDAS
10
304.923583
20
31.708126
30
0.0
11
304.923583
21
31.215232
31
0.0
0
ARC
8
00_POLIAMIDAS
10
305.223583
20
31.215232
30
0.0
40
0.300000
50
180.000000
51
270.000000
0
LINE
8
00_POLIAMIDAS
10
305.223583
20
30.915232
30
0.0
11
306.023583
21
30.915232
31
0.0
0
ARC
8
00_POLIAMIDAS
10
306.023583
20
30.615232
30
0.0
40
0.300000
50
0.000000
51
90.000000
0
LINE
8
00_POLIAMIDAS
10
306.323583
20
30.615232
30
0.0
11
306.323583
21
28.665232
31
0.0
0
ARC
8
00_POLIAMIDAS
10
305.823583
20
28.665232
30
0.0
40
0.500000
50
270.000000
51
0.000000
0
LINE
8
00_POLIAMIDAS
10
305.823583
20
28.165232
30
0.0
11
300.823583
21
28.165232
31
0.0
0
ARC
8
00_POLIAMIDAS
10
300.823583
20
28.665232
30
0.0
40
0.500000
50
180.000000
51
270.000000
0
LINE
8
00_POLIAMIDAS
10
300.323583
20
28.665232
30
0.0
11
300.323583
21
30.615232
31
0.0
0
ARC
8
00_POLIAMIDAS
10
300.623583
20
30.615232
30
0.0
40
0.300000
50
90.000000
51
180.000000
0
LINE
8
00_POLIAMIDAS
10
300.623583
20
30.915232
30
0.0
11
301.423583
21
30.915232
31
0.0
0
ARC
8
00_POLIAMIDAS
10
301.423583
20
31.215232
30
0.0
40
0.300000
50
270.000000
51
0.000000
0
LINE
8
00_POLIAMIDAS
10
301.723583
20
31.215232
30
0.0
11
301.723583
21
31.708126
31
0.0
0
ARC
8
00_POLIAMIDAS
10
301.223583
20
31.708126
30
0.0
40
0.500000
50
0.000000
51
45.000000
0
LINE
8
00_POLIAMIDAS
10
301.577136
20
32.061679
30
0.0
11
300.870029
21
32.768786
31
0.0
0
ARC
8
00_POLIAMIDAS
10
300.516476
20
32.415232
30
0.0
40
0.500000
50
45.000000
51
90.000000
0
LINE
8
00_POLIAMIDAS
10
300.516476
20
32.915232
30
0.0
11
298.630690
21
32.915232
31
0.0
0
ARC
8
00_POLIAMIDAS
10
298.630690
20
32.415232
30
0.0
40
0.500000
50
90.000000
51
135.000000
0
LINE
8
00_POLIAMIDAS
10
298.277136
20
32.768786
30
0.0
11
297.570029
21
32.061679
31
0.0
0
ARC
8
00_POLIAMIDAS
10
297.923583
20
31.708126
30
0.0
40
0.500000
50
135.000000
51
180.000000
0
LINE
8
00_POLIAMIDAS
10
297.423583
20
31.708126
30
0.0
11
297.423583
21
31.215232
31
0.0
0
ARC
8
00_POLIAMIDAS
10
297.723583
20
31.215232
30
0.0
40
0.300000
50
180.000000
51
270.000000
0
LINE
8
00_POLIAMIDAS
10
297.723583
20
30.915232
30
0.0
11
298.523583
21
30.915232
31
0.0
0
ARC
8
00_POLIAMIDAS
10
298.523583
20
30.615232
30
0.0
40
0.300000
50
0.000000
51
90.000000
0
LINE
8
00_POLIAMIDAS
10
298.823583
20
30.615232
30
0.0
11
298.823583
21
28.665232
31
0.0
0
ARC
8
00_POLIAMIDAS
10
298.323583
20
28.665232
30
0.0
40
0.500000
50
270.000000
51
0.000000
0
LINE
8
00_POLIAMIDAS
10
298.323583
20
28.165232
30
0.0
11
290.323583
21
28.165232
31
0.0
0
ARC
8
00_POLIAMIDAS
10
290.323583
20
28.665232
30
0.0
40
0.500000
50
180.000000
51
270.000000
0
LINE
8
00_POLIAMIDAS
10
289.823583
20
28.665232
30
0.0
11
289.823583
21
30.615232
31
0.0
0
ARC
8
00_POLIAMIDAS
10
290.123583
20
30.615232
30
0.0
40
0.300000
50
90.000000
51
180.000000
0
LINE
8
00_POLIAMIDAS
10
290.123583
20
30.915232
30
0.0
11
290.923583
21
30.915232
31
0.0
0
ARC
8
00_POLIAMIDAS
10
290.923583
20
31.215232
30
0.0
40
0.300000
50
270.000000
51
0.000000
0
LINE
8
00_POLIAMIDAS
10
291.223583
20
31.215232
30
0.0
11
291.223583
21
31.708126
31
0.0
0
ARC
8
00_POLIAMIDAS
10
290.723583
20
31.708126
30
0.0
40
0.500000
50
0.000000
51
45.000000
0
LINE
8
00_POLIAMIDAS
10
291.077136
20
32.061679
30
0.0
11
290.370029
21
32.768786
31
0.0
0
ARC
8
00_POLIAMIDAS
10
290.016476
20
32.415232
30
0.0
40
0.500000
50
45.000000
51
90.000000
0
LINE
8
00_POLIAMIDAS
10
290.016476
20
32.915232
30
0.0
11
288.823583
21
32.915232
31
0.0
0
ARC
8
00_POLIAMIDAS
10
288.823583
20
32.415232
30
0.0
40
0.500000
50
90.000000
51
180.000000
0
LINE
8
00_POLIAMIDAS
10
288.323583
20
32.415232
30
0.0
11
288.323583
21
28.665232
31
0.0
0
ARC
8
00_POLIAMIDAS
10
287.823583
20
28.665232
30
0.0
40
0.500000
50
270.000000
51
0.000000
0
LINE
8
00_POLIAMIDAS
10
287.823583
20
28.165232
30
0.0
11
279.823583
21
28.165232
31
0.0
0
ARC
8
00_POLIAMIDAS
10
279.823583
20
28.665232
30
0.0
40
0.500000
50
180.000000
51
270.000000
0
LINE
8
00_POLIAMIDAS
10
279.323583
20
28.665232
30
0.0
11
279.323583
21
30.615232
31
0.0
0
ARC
8
00_POLIAMIDAS
10
279.623583
20
30.615232
30
0.0
40
0.300000
50
90.000000
51
180.000000
0
LINE
8
00_POLIAMIDAS
10
279.623583
20
30.915232
30
0.0
11
280.423583
21
30.915232
31
0.0
0
ARC
8
00_POLIAMIDAS
10
280.423583
20
31.215232
30
0.0
40
0.300000
50
270.000000
51
0.000000
0
LINE
8
00_POLIAMIDAS
10
280.723583
20
31.215232
30
0.0
11
280.723583
21
31.708126
31
0.0
0
ARC
8
00_POLIAMIDAS
10
280.223583
20
31.708126
30
0.0
40
0.500000
50
0.000000
51
45.000000
0
LINE
8
00_POLIAMIDAS
10
280.577136
20
32.061679
30
0.0
11
279.870029
21
32.768786
31
0.0
0
ARC
8
00_POLIAMIDAS
10
279.516476
20
32.415232
30
0.0
40
0.500000
50
45.000000
51
90.000000
0
LINE
8
00_POLIAMIDAS
10
279.516476
20
32.915232
30
0.0
11
278.323583
21
32.915232
31
0.0
0
ARC
8
00_POLIAMIDAS
10
278.323583
20
32.415232
30
0.0
40
0.500000
50
90.000000
51
180.000000
0
LINE
8
00_POLIAMIDAS
10
277.823583
20
32.415232
30
0.0
11
277.823583
21
28.648271
31
0.0
0
ARC
8
00_POLIAMIDAS
10
277.323583
20
28.648271
30
0.0
40
0.500000
50
278.624453
51
0.000000
0
ARC
8
00_POLIAMIDAS
10
277.548519
20
27.165232
30
0.0
40
1.000000
50
98.624453
51
140.000000
0
LINE
8
00_POLIAMIDAS
10
276.782474
20
27.808020
30
0.0
11
274.823970
21
25.473965
31
0.0
0
ARC
8
00_POLIAMIDAS
10
274.592849
20
25.665232
30
0.0
40
0.300000
50
270.000000
51
320.390000
0
ARC
8
00_POLIAMIDAS
10
293.423583
20
26.565232
30
0.0
40
0.500000
50
0.000000
51
90.000000
0
LINE
8
00_POLIAMIDAS
10
293.923583
20
26.565232
30
0.0
11
293.923583
21
23.765232
31
0.0
0
ARC
8
00_POLIAMIDAS
10
293.423583
20
23.765232
30
0.0
40
0.500000
50
270.000000
51
0.000000
0
LINE
8
00_POLIAMIDAS
10
293.423583
20
23.265232
30
0.0
11
286.588903
21
23.265232
31
0.0
0
ARC
8
00_POLIAMIDAS
10
286.588903
20
23.765232
30
0.0
40
0.500000
50
180.000000
51
270.000000
0
LINE
8
00_POLIAMIDAS
10
286.088903
20
23.765232
30
0.0
11
286.088903
21
26.565232
31
0.0
0
ARC
8
00_POLIAMIDAS
10
286.588903
20
26.565232
30
0.0
40
0.500000
50
90.000000
51
180.000000
0
LINE
8
00_POLIAMIDAS
10
286.588903
20
27.065232
30
0.0
11
293.423583
21
27.065232
31
0.0
0
ARC
8
00_POLIAMIDAS
10
277.874934
20
26.465232
30
0.0
40
0.600000
50
90.000000
51
140.000000
0
LINE
8
00_POLIAMIDAS
10
277.415308
20
26.850905
30
0.0
11
276.499048
21
25.758949
31
0.0
0
ARC
8
00_POLIAMIDAS
10
277.341697
20
25.051883
30
0.0
40
1.100000
50
140.000000
51
260.000000
0
LINE
8
00_POLIAMIDAS
10
277.150684
20
23.968595
30
0.0
11
281.096569
21
23.272829
31
0.0
0
LINE
8
00_POLIAMIDAS
10
281.096569
20
23.272829
30
0.0
11
281.183394
21
23.265232
31
0.0
0
LINE
8
00_POLIAMIDAS
10
281.183394
20
23.265232
30
0.0
11
284.788903
21
23.265232
31
0.0
0
ARC
8
00_POLIAMIDAS
10
284.788903
20
23.765232
30
0.0
40
0.500000
50
270.000000
51
0.000000
0
LINE
8
00_POLIAMIDAS
10
285.288903
20
23.765232
30
0.0
11
285.288903
21
26.565232
31
0.0
0
ARC
8
00_POLIAMIDAS
10
284.788903
20
26.565232
30
0.0
40
0.500000
50
0.000000
51
90.000000
0
LINE
8
00_POLIAMIDAS
10
284.788903
20
27.065232
30
0.0
11
277.874934
21
27.065232
31
0.0
0
ARC
8
00_POLIAMIDAS
10
302.058263
20
26.565232
30
0.0
40
0.500000
50
0.000000
51
90.000000
0
LINE
8
00_POLIAMIDAS
10
302.558263
20
26.565232
30
0.0
11
302.558263
21
23.765232
31
0.0
0
ARC
8
00_POLIAMIDAS
10
302.058263
20
23.765232
30
0.0
40
0.500000
50
270.000000
51
0.000000
0
LINE
8
00_POLIAMIDAS
10
302.058263
20
23.265232
30
0.0
11
295.223583
21
23.265232
31
0.0
0
ARC
8
00_POLIAMIDAS
10
295.223583
20
23.765232
30
0.0
40
0.500000
50
180.000000
51
270.000000
0
LINE
8
00_POLIAMIDAS
10
294.723583
20
23.765232
30
0.0
11
294.723583
21
26.565232
31
0.0
0
ARC
8
00_POLIAMIDAS
10
295.223583
20
26.565232
30
0.0
40
0.500000
50
90.000000
51
180.000000
0
LINE
8
00_POLIAMIDAS
10
295.223583
20
27.065232
30
0.0
11
302.058263
21
27.065232
31
0.0
0
LINE
8
00_POLIAMIDAS
10
311.231858
20
26.850905
30
0.0
11
312.148118
21
25.758949
31
0.0
0
ARC
8
00_POLIAMIDAS
10
311.305469
20
25.051883
30
0.0
40
1.100000
50
280.000000
51
40.000000
0
LINE
8
00_POLIAMIDAS
10
311.496482
20
23.968595
30
0.0
11
307.559212
21
23.274348
31
0.0
0
ARC
8
00_POLIAMIDAS
10
307.455023
20
23.865232
30
0.0
40
0.600000
50
270.000000
51
280.000000
0
LINE
8
00_POLIAMIDAS
10
307.455023
20
23.265232
30
0.0
11
303.858263
21
23.265232
31
0.0
0
ARC
8
00_POLIAMIDAS
10
303.858263
20
23.765232
30
0.0
40
0.500000
50
180.000000
51
270.000000
0
LINE
8
00_POLIAMIDAS
10
303.358263
20
23.765232
30
0.0
11
303.358263
21
26.565232
31
0.0
0
ARC
8
00_POLIAMIDAS
10
303.858263
20
26.565232
30
0.0
40
0.500000
50
90.000000
51
180.000000
0
LINE
8
00_POLIAMIDAS
10
303.858263
20
27.065232
30
0.0
11
310.772232
21
27.065232
31
0.0
0
ARC
8
00_POLIAMIDAS
10
310.772232
20
26.465232
30
0.0
40
0.600000
50
40.000000
51
90.000000
0
LINE
8
00_POLIAMIDAS
10
277.356215
20
20.131686
30
0.0
11
277.478666
21
20.277618
31
0.0
0
LINE
8
00_POLIAMIDAS
10
277.708649
20
18.221118
30
0.0
11
277.831100
21
18.367049
31
0.0
0
LINE
8
00_POLIAMIDAS
10
279.178062
20
19.972296
30
0.0
11
279.300513
21
20.118227
31
0.0
0
LINE
8
00_POLIAMIDAS
10
279.530496
20
18.061727
30
0.0
11
279.652947
21
18.207659
31
0.0
0
LINE
8
00_POLIAMIDAS
10
280.999908
20
19.812905
30
0.0
11
281.122359
21
19.958836
31
0.0
0
LINE
8
00_POLIAMIDAS
10
282.469321
20
21.564082
30
0.0
11
282.509098
21
21.611487
31
0.0
0
LINE
8
00_POLIAMIDAS
10
281.352343
20
17.902336
30
0.0
11
281.474794
21
18.048268
31
0.0
0
LINE
8
00_POLIAMIDAS
10
282.821755
20
19.653514
30
0.0
11
282.944206
21
19.799445
31
0.0
0
LINE
8
00_POLIAMIDAS
10
284.291168
20
21.404692
30
0.0
11
284.413619
21
21.550623
31
0.0
0
LINE
8
00_POLIAMIDAS
10
283.174189
20
17.742945
30
0.0
11
283.296640
21
17.888877
31
0.0
0
LINE
8
00_POLIAMIDAS
10
284.643602
20
19.494123
30
0.0
11
284.766053
21
19.640055
31
0.0
0
LINE
8
00_POLIAMIDAS
10
286.113014
20
21.245301
30
0.0
11
286.235465
21
21.391232
31
0.0
0
LINE
8
00_POLIAMIDAS
10
285.019474
20
17.611487
30
0.0
11
285.118487
21
17.729486
31
0.0
0
LINE
8
00_POLIAMIDAS
10
286.465448
20
19.334732
30
0.0
11
286.587899
21
19.480664
31
0.0
0
LINE
8
00_POLIAMIDAS
10
287.934861
20
21.085910
30
0.0
11
288.057312
21
21.231841
31
0.0
0
LINE
8
00_POLIAMIDAS
10
288.287295
20
19.175341
30
0.0
11
288.409746
21
19.321273
31
0.0
0
LINE
8
00_POLIAMIDAS
10
289.756708
20
20.926519
30
0.0
11
289.879159
21
21.072450
31
0.0
0
LINE
8
00_POLIAMIDAS
10
290.109142
20
19.015950
30
0.0
11
290.231593
21
19.161882
31
0.0
0
LINE
8
00_POLIAMIDAS
10
291.578554
20
20.767128
30
0.0
11
291.701005
21
20.913060
31
0.0
0
LINE
8
00_POLIAMIDAS
10
291.930989
20
18.856560
30
0.0
11
292.053440
21
19.002491
31
0.0
0
LINE
8
00_POLIAMIDAS
10
293.400401
20
20.607737
30
0.0
11
293.522852
21
20.753669
31
0.0
0
LINE
8
00_POLIAMIDAS
10
293.752835
20
18.697169
30
0.0
11
293.875286
21
18.843100
31
0.0
0
LINE
8
00_POLIAMIDAS
10
295.222248
20
20.448346
30
0.0
11
295.344699
21
20.594278
31
0.0
0
LINE
8
00_POLIAMIDAS
10
295.574682
20
18.537778
30
0.0
11
295.697133
21
18.683709
31
0.0
0
LINE
8
00_POLIAMIDAS
10
297.044094
20
20.288956
30
0.0
11
297.166545
21
20.434887
31
0.0
0
LINE
8
00_POLIAMIDAS
10
297.396529
20
18.378387
30
0.0
11
297.518980
21
18.524319
31
0.0
0
LINE
8
00_POLIAMIDAS
10
298.865941
20
20.129565
30
0.0
11
298.988392
21
20.275496
31
0.0
0
LINE
8
00_POLIAMIDAS
10
299.218375
20
18.218996
30
0.0
11
299.340826
21
18.364928
31
0.0
0
LINE
8
00_POLIAMIDAS
10
300.687788
20
19.970174
30
0.0
11
300.810239
21
20.116105
31
0.0
0
LINE
8
00_POLIAMIDAS
10
301.040222
20
18.059605
30
0.0
11
301.162673
21
18.205537
31
0.0
0
LINE
8
00_POLIAMIDAS
10
302.509634
20
19.810783
30
0.0
11
302.632085
21
19.956714
31
0.0
0
LINE
8
00_POLIAMIDAS
10
303.979047
20
21.561961
30
0.0
11
304.020605
21
21.611487
31
0.0
0
LINE
8
00_POLIAMIDAS
10
302.862069
20
17.900214
30
0.0
11
302.984520
21
18.046146
31
0.0
0
LINE
8
00_POLIAMIDAS
10
304.331481
20
19.651392
30
0.0
11
304.453932
21
19.797324
31
0.0
0
LINE
8
00_POLIAMIDAS
10
305.800894
20
21.402570
30
0.0
11
305.923345
21
21.548501
31
0.0
0
LINE
8
00_POLIAMIDAS
10
304.683915
20
17.740824
30
0.0
11
304.806366
21
17.886755
31
0.0
0
LINE
8
00_POLIAMIDAS
10
306.153328
20
19.492001
30
0.0
11
306.275779
21
19.637933
31
0.0
0
LINE
8
00_POLIAMIDAS
10
307.622740
20
21.243179
30
0.0
11
307.745191
21
21.389110
31
0.0
0
LINE
8
00_POLIAMIDAS
10
306.530981
20
17.611487
30
0.0
11
306.628213
21
17.727364
31
0.0
0
LINE
8
00_POLIAMIDAS
10
307.975175
20
19.332610
30
0.0
11
308.097626
21
19.478542
31
0.0
0
LINE
8
00_POLIAMIDAS
10
309.444587
20
21.083788
30
0.0
11
309.567038
21
21.229719
31
0.0
0
LINE
8
00_POLIAMIDAS
10
309.797021
20
19.173220
30
0.0
11
309.919472
21
19.319151
31
0.0
0
LINE
8
00_POLIAMIDAS
10
311.266434
20
20.924397
30
0.0
11
311.388885
21
21.070329
31
0.0
0
LINE
8
00_POLIAMIDAS
10
311.618868
20
19.013829
30
0.0
11
311.741319
21
19.159760
31
0.0
0
LINE
8
00_POLIAMIDAS
10
303.979037
20
21.561847
30
0.0
11
304.130857
21
21.548565
31
0.0
0
LINE
8
00_POLIAMIDAS
10
305.800884
20
21.402456
30
0.0
11
305.952704
21
21.389174
31
0.0
0
LINE
8
00_POLIAMIDAS
10
307.622730
20
21.243065
30
0.0
11
307.774550
21
21.229783
31
0.0
0
LINE
8
00_POLIAMIDAS
10
309.444577
20
21.083674
30
0.0
11
309.596397
21
21.070392
31
0.0
0
LINE
8
00_POLIAMIDAS
10
311.266424
20
20.924283
30
0.0
11
311.418244
21
20.911001
31
0.0
0
LINE
8
00_POLIAMIDAS
10
282.469311
20
21.563970
30
0.0
11
282.621131
21
21.550687
31
0.0
0
LINE
8
00_POLIAMIDAS
10
284.291158
20
21.404579
30
0.0
11
284.442978
21
21.391296
31
0.0
0
LINE
8
00_POLIAMIDAS
10
286.113004
20
21.245188
30
0.0
11
286.264824
21
21.231906
31
0.0
0
LINE
8
00_POLIAMIDAS
10
287.934851
20
21.085797
30
0.0
11
288.086671
21
21.072515
31
0.0
0
LINE
8
00_POLIAMIDAS
10
289.756698
20
20.926406
30
0.0
11
289.908518
21
20.913124
31
0.0
0
LINE
8
00_POLIAMIDAS
10
291.578544
20
20.767015
30
0.0
11
291.730365
21
20.753733
31
0.0
0
LINE
8
00_POLIAMIDAS
10
293.400391
20
20.607624
30
0.0
11
293.552211
21
20.594342
31
0.0
0
LINE
8
00_POLIAMIDAS
10
295.222238
20
20.448233
30
0.0
11
295.374058
21
20.434951
31
0.0
0
LINE
8
00_POLIAMIDAS
10
297.044085
20
20.288842
30
0.0
11
297.195905
21
20.275560
31
0.0
0
LINE
8
00_POLIAMIDAS
10
298.865931
20
20.129452
30
0.0
11
299.017751
21
20.116169
31
0.0
0
LINE
8
00_POLIAMIDAS
10
300.687778
20
19.970061
30
0.0
11
300.839598
21
19.956778
31
0.0
0
LINE
8
00_POLIAMIDAS
10
302.509625
20
19.810670
30
0.0
11
302.661445
21
19.797387
31
0.0
0
LINE
8
00_POLIAMIDAS
10
304.331471
20
19.651279
30
0.0
11
304.483291
21
19.637996
31
0.0
0
LINE
8
00_POLIAMIDAS
10
306.153318
20
19.491888
30
0.0
11
306.305138
21
19.478605
31
0.0
0
LINE
8
00_POLIAMIDAS
10
307.975165
20
19.332497
30
0.0
11
308.126985
21
19.319214
31
0.0
0
LINE
8
00_POLIAMIDAS
10
309.797011
20
19.173106
30
0.0
11
309.948831
21
19.159823
31
0.0
0
LINE
8
00_POLIAMIDAS
10
311.618858
20
19.013715
30
0.0
11
311.770678
21
19.000432
31
0.0
0
LINE
8
00_POLIAMIDAS
10
277.356205
20
20.131574
30
0.0
11
277.508025
21
20.118292
31
0.0
0
LINE
8
00_POLIAMIDAS
10
279.178052
20
19.972183
30
0.0
11
279.329872
21
19.958901
31
0.0
0
LINE
8
00_POLIAMIDAS
10
280.999899
20
19.812792
30
0.0
11
281.151719
21
19.799510
31
0.0
0
LINE
8
00_POLIAMIDAS
10
282.821745
20
19.653401
30
0.0
11
282.973565
21
19.640119
31
0.0
0
LINE
8
00_POLIAMIDAS
10
284.643592
20
19.494011
30
0.0
11
284.795412
21
19.480728
31
0.0
0
LINE
8
00_POLIAMIDAS
10
286.465439
20
19.334620
30
0.0
11
286.617259
21
19.321337
31
0.0
0
LINE
8
00_POLIAMIDAS
10
288.287285
20
19.175229
30
0.0
11
288.439105
21
19.161946
31
0.0
0
LINE
8
00_POLIAMIDAS
10
290.109132
20
19.015838
30
0.0
11
290.260952
21
19.002555
31
0.0
0
LINE
8
00_POLIAMIDAS
10
291.930979
20
18.856447
30
0.0
11
292.082799
21
18.843164
31
0.0
0
LINE
8
00_POLIAMIDAS
10
293.752825
20
18.697056
30
0.0
11
293.904645
21
18.683773
31
0.0
0
LINE
8
00_POLIAMIDAS
10
295.574672
20
18.537665
30
0.0
11
295.726492
21
18.524382
31
0.0
0
LINE
8
00_POLIAMIDAS
10
297.396519
20
18.378274
30
0.0
11
297.548339
21
18.364991
31
0.0
0
LINE
8
00_POLIAMIDAS
10
299.218365
20
18.218883
30
0.0
11
299.370185
21
18.205601
31
0.0
0
LINE
8
00_POLIAMIDAS
10
301.040212
20
18.059492
30
0.0
11
301.192032
21
18.046210
31
0.0
0
LINE
8
00_POLIAMIDAS
10
302.862059
20
17.900101
30
0.0
11
303.013879
21
17.886819
31
0.0
0
LINE
8
00_POLIAMIDAS
10
304.683905
20
17.740710
30
0.0
11
304.835726
21
17.727428
31
0.0
0
LINE
8
00_POLIAMIDAS
10
277.708639
20
18.221006
30
0.0
11
277.860460
21
18.207723
31
0.0
0
LINE
8
00_POLIAMIDAS
10
279.530486
20
18.061615
30
0.0
11
279.682306
21
18.048332
31
0.0
0
LINE
8
00_POLIAMIDAS
10
281.352333
20
17.902224
30
0.0
11
281.504153
21
17.888941
31
0.0
0
LINE
8
00_POLIAMIDAS
10
283.174179
20
17.742833
30
0.0
11
283.326000
21
17.729550
31
0.0
0
LINE
8
00_POLIAMIDAS
10
277.853314
20
18.206402
30
0.0
11
277.823945
21
18.365616
31
0.0
0
LINE
8
00_POLIAMIDAS
10
277.500885
20
20.116972
30
0.0
11
277.471516
21
20.276186
31
0.0
0
LINE
8
00_POLIAMIDAS
10
279.675155
20
18.047010
30
0.0
11
279.645786
21
18.206224
31
0.0
0
LINE
8
00_POLIAMIDAS
10
279.322726
20
19.957580
30
0.0
11
279.293357
21
20.116794
31
0.0
0
LINE
8
00_POLIAMIDAS
10
281.496996
20
17.887618
30
0.0
11
281.467627
21
18.046832
31
0.0
0
LINE
8
00_POLIAMIDAS
10
281.144567
20
19.798188
30
0.0
11
281.115198
21
19.957402
31
0.0
0
LINE
8
00_POLIAMIDAS
10
283.318837
20
17.728226
30
0.0
11
283.289468
21
17.887440
31
0.0
0
LINE
8
00_POLIAMIDAS
10
282.966409
20
19.638796
30
0.0
11
282.937039
21
19.798010
31
0.0
0
LINE
8
00_POLIAMIDAS
10
282.613980
20
21.549365
30
0.0
11
282.602521
21
21.611487
31
0.0
0
LINE
8
00_POLIAMIDAS
10
285.132810
20
17.611487
30
0.0
11
285.111309
21
17.728048
31
0.0
0
LINE
8
00_POLIAMIDAS
10
284.788250
20
19.479404
30
0.0
11
284.758881
21
19.638618
31
0.0
0
LINE
8
00_POLIAMIDAS
10
284.435821
20
21.389973
30
0.0
11
284.406452
21
21.549187
31
0.0
0
LINE
8
00_POLIAMIDAS
10
286.610091
20
19.320012
30
0.0
11
286.580722
21
19.479226
31
0.0
0
LINE
8
00_POLIAMIDAS
10
286.257662
20
21.230581
30
0.0
11
286.228293
21
21.389795
31
0.0
0
LINE
8
00_POLIAMIDAS
10
288.431932
20
19.160620
30
0.0
11
288.402563
21
19.319834
31
0.0
0
LINE
8
00_POLIAMIDAS
10
288.079503
20
21.071189
30
0.0
11
288.050134
21
21.230403
31
0.0
0
LINE
8
00_POLIAMIDAS
10
290.253773
20
19.001228
30
0.0
11
290.224404
21
19.160442
31
0.0
0
LINE
8
00_POLIAMIDAS
10
289.901344
20
20.911797
30
0.0
11
289.871975
21
21.071011
31
0.0
0
LINE
8
00_POLIAMIDAS
10
292.075614
20
18.841836
30
0.0
11
292.046245
21
19.001050
31
0.0
0
LINE
8
00_POLIAMIDAS
10
291.723185
20
20.752405
30
0.0
11
291.693816
21
20.911619
31
0.0
0
LINE
8
00_POLIAMIDAS
10
293.897455
20
18.682444
30
0.0
11
293.868086
21
18.841658
31
0.0
0
LINE
8
00_POLIAMIDAS
10
293.545027
20
20.593014
30
0.0
11
293.515658
21
20.752228
31
0.0
0
LINE
8
00_POLIAMIDAS
10
295.719296
20
18.523052
30
0.0
11
295.689927
21
18.682266
31
0.0
0
LINE
8
00_POLIAMIDAS
10
295.366868
20
20.433622
30
0.0
11
295.337499
21
20.592836
31
0.0
0
LINE
8
00_POLIAMIDAS
10
297.541138
20
18.363660
30
0.0
11
297.511768
21
18.522874
31
0.0
0
LINE
8
00_POLIAMIDAS
10
297.188709
20
20.274230
30
0.0
11
297.159340
21
20.433444
31
0.0
0
LINE
8
00_POLIAMIDAS
10
299.362979
20
18.204268
30
0.0
11
299.333610
21
18.363482
31
0.0
0
LINE
8
00_POLIAMIDAS
10
299.010550
20
20.114838
30
0.0
11
298.981181
21
20.274052
31
0.0
0
LINE
8
00_POLIAMIDAS
10
301.184820
20
18.044876
30
0.0
11
301.155451
21
18.204090
31
0.0
0
LINE
8
00_POLIAMIDAS
10
300.832391
20
19.955446
30
0.0
11
300.803022
21
20.114660
31
0.0
0
LINE
8
00_POLIAMIDAS
10
303.006661
20
17.885484
30
0.0
11
302.977292
21
18.044698
31
0.0
0
LINE
8
00_POLIAMIDAS
10
302.654232
20
19.796054
30
0.0
11
302.624863
21
19.955268
31
0.0
0
LINE
8
00_POLIAMIDAS
10
304.828502
20
17.726092
30
0.0
11
304.799133
21
17.885306
31
0.0
0
LINE
8
00_POLIAMIDAS
10
304.476073
20
19.636662
30
0.0
11
304.446704
21
19.795876
31
0.0
0
LINE
8
00_POLIAMIDAS
10
304.123645
20
21.547231
30
0.0
11
304.111792
21
21.611487
31
0.0
0
LINE
8
00_POLIAMIDAS
10
306.642082
20
17.611487
30
0.0
11
306.620974
21
17.725914
31
0.0
0
LINE
8
00_POLIAMIDAS
10
306.297915
20
19.477270
30
0.0
11
306.268545
21
19.636484
31
0.0
0
LINE
8
00_POLIAMIDAS
10
305.945486
20
21.387839
30
0.0
11
305.916117
21
21.547053
31
0.0
0
LINE
8
00_POLIAMIDAS
10
308.119756
20
19.317878
30
0.0
11
308.090387
21
19.477092
31
0.0
0
LINE
8
00_POLIAMIDAS
10
307.767327
20
21.228447
30
0.0
11
307.737958
21
21.387661
31
0.0
0
LINE
8
00_POLIAMIDAS
10
309.941597
20
19.158486
30
0.0
11
309.912228
21
19.317700
31
0.0
0
LINE
8
00_POLIAMIDAS
10
309.589168
20
21.069055
30
0.0
11
309.559799
21
21.228269
31
0.0
0
LINE
8
00_POLIAMIDAS
10
311.763438
20
18.999094
30
0.0
11
311.734069
21
19.158308
31
0.0
0
LINE
8
00_POLIAMIDAS
10
311.411009
20
20.909663
30
0.0
11
311.381640
21
21.068877
31
0.0
0
LINE
8
00_POLIAMIDAS
10
277.468528
20
20.714836
30
0.0
11
277.666365
21
20.921025
31
0.0
0
LINE
8
00_POLIAMIDAS
10
277.805277
20
17.820152
30
0.0
11
278.003114
21
18.026340
31
0.0
0
LINE
8
00_POLIAMIDAS
10
280.179318
20
20.294413
30
0.0
11
280.377155
21
20.500602
31
0.0
0
LINE
8
00_POLIAMIDAS
10
282.890109
20
19.873990
30
0.0
11
283.087946
21
20.080178
31
0.0
0
LINE
8
00_POLIAMIDAS
10
285.600899
20
19.453567
30
0.0
11
285.798736
21
19.659755
31
0.0
0
LINE
8
00_POLIAMIDAS
10
288.311690
20
19.033143
30
0.0
11
288.509526
21
19.239332
31
0.0
0
LINE
8
00_POLIAMIDAS
10
290.685731
20
21.507405
30
0.0
11
290.785598
21
21.611487
31
0.0
0
LINE
8
00_POLIAMIDAS
10
291.022480
20
18.612720
30
0.0
11
291.220317
21
18.818908
31
0.0
0
LINE
8
00_POLIAMIDAS
10
293.396521
20
21.086981
30
0.0
11
293.594358
21
21.293170
31
0.0
0
LINE
8
00_POLIAMIDAS
10
293.733270
20
18.192297
30
0.0
11
293.931107
21
18.398485
31
0.0
0
LINE
8
00_POLIAMIDAS
10
296.107312
20
20.666558
30
0.0
11
296.305149
21
20.872746
31
0.0
0
LINE
8
00_POLIAMIDAS
10
296.444061
20
17.771873
30
0.0
11
296.641898
21
17.978062
31
0.0
0
LINE
8
00_POLIAMIDAS
10
298.818102
20
20.246135
30
0.0
11
299.015939
21
20.452323
31
0.0
0
LINE
8
00_POLIAMIDAS
10
301.528893
20
19.825711
30
0.0
11
301.726729
21
20.031900
31
0.0
0
LINE
8
00_POLIAMIDAS
10
304.239683
20
19.405288
30
0.0
11
304.437520
21
19.611477
31
0.0
0
LINE
8
00_POLIAMIDAS
10
306.950473
20
18.984865
30
0.0
11
307.148310
21
19.191053
31
0.0
0
LINE
8
00_POLIAMIDAS
10
309.324515
20
21.459126
30
0.0
11
309.470705
21
21.611487
31
0.0
0
LINE
8
00_POLIAMIDAS
10
309.661264
20
18.564442
30
0.0
11
309.859101
21
18.770630
31
0.0
0
LINE
8
00_POLIAMIDAS
10
278.029570
20
17.784930
30
0.0
11
278.001508
21
18.026154
31
0.0
0
LINE
8
00_POLIAMIDAS
10
277.692823
20
20.679615
30
0.0
11
277.664760
21
20.920838
31
0.0
0
LINE
8
00_POLIAMIDAS
10
280.403611
20
20.259191
30
0.0
11
280.375549
21
20.500415
31
0.0
0
LINE
8
00_POLIAMIDAS
10
283.114399
20
19.838768
30
0.0
11
283.086337
21
20.079991
31
0.0
0
LINE
8
00_POLIAMIDAS
10
285.825188
20
19.418344
30
0.0
11
285.797126
21
19.659568
31
0.0
0
LINE
8
00_POLIAMIDAS
10
288.535976
20
18.997921
30
0.0
11
288.507914
21
19.239144
31
0.0
0
LINE
8
00_POLIAMIDAS
10
291.246765
20
18.577497
30
0.0
11
291.218703
21
18.818721
31
0.0
0
LINE
8
00_POLIAMIDAS
10
290.910018
20
21.472182
30
0.0
11
290.893812
21
21.611487
31
0.0
0
LINE
8
00_POLIAMIDAS
10
293.957553
20
18.157074
30
0.0
11
293.929491
21
18.398297
31
0.0
0
LINE
8
00_POLIAMIDAS
10
293.620806
20
21.051759
30
0.0
11
293.592744
21
21.292982
31
0.0
0
LINE
8
00_POLIAMIDAS
10
296.668342
20
17.736650
30
0.0
11
296.640279
21
17.977874
31
0.0
0
LINE
8
00_POLIAMIDAS
10
296.331594
20
20.631335
30
0.0
11
296.303532
21
20.872559
31
0.0
0
LINE
8
00_POLIAMIDAS
10
299.042383
20
20.210912
30
0.0
11
299.014321
21
20.452135
31
0.0
0
LINE
8
00_POLIAMIDAS
10
301.753171
20
19.790488
30
0.0
11
301.725109
21
20.031712
31
0.0
0
LINE
8
00_POLIAMIDAS
10
304.463960
20
19.370065
30
0.0
11
304.435897
21
19.611288
31
0.0
0
LINE
8
00_POLIAMIDAS
10
307.174748
20
18.949641
30
0.0
11
307.146686
21
19.190865
31
0.0
0
LINE
8
00_POLIAMIDAS
10
309.885537
20
18.529218
30
0.0
11
309.857474
21
18.770441
31
0.0
0
LINE
8
00_POLIAMIDAS
10
309.548789
20
21.423902
30
0.0
11
309.526967
21
21.611487
31
0.0
0
LINE
8
00_POLIAMIDAS
10
309.323315
20
21.461672
30
0.0
11
309.549214
21
21.426637
31
0.0
0
LINE
8
00_POLIAMIDAS
10
290.684540
20
21.509931
30
0.0
11
290.910439
21
21.474896
31
0.0
0
LINE
8
00_POLIAMIDAS
10
293.395329
20
21.089511
30
0.0
11
293.621228
21
21.054476
31
0.0
0
LINE
8
00_POLIAMIDAS
10
296.106117
20
20.669091
30
0.0
11
296.332016
21
20.634056
31
0.0
0
LINE
8
00_POLIAMIDAS
10
298.816906
20
20.248671
30
0.0
11
299.042805
21
20.213636
31
0.0
0
LINE
8
00_POLIAMIDAS
10
301.527695
20
19.828251
30
0.0
11
301.753594
21
19.793216
31
0.0
0
LINE
8
00_POLIAMIDAS
10
304.238484
20
19.407830
30
0.0
11
304.464383
21
19.372795
31
0.0
0
LINE
8
00_POLIAMIDAS
10
306.949273
20
18.987410
30
0.0
11
307.175172
21
18.952375
31
0.0
0
LINE
8
00_POLIAMIDAS
10
309.660062
20
18.566990
30
0.0
11
309.885961
21
18.531955
31
0.0
0
LINE
8
00_POLIAMIDAS
10
277.467343
20
20.717351
30
0.0
11
277.693242
21
20.682316
31
0.0
0
LINE
8
00_POLIAMIDAS
10
280.178131
20
20.296930
30
0.0
11
280.404030
21
20.261895
31
0.0
0
LINE
8
00_POLIAMIDAS
10
282.888920
20
19.876510
30
0.0
11
283.114819
21
19.841475
31
0.0
0
LINE
8
00_POLIAMIDAS
10
285.599709
20
19.456090
30
0.0
11
285.825608
21
19.421055
31
0.0
0
LINE
8
00_POLIAMIDAS
10
288.310498
20
19.035670
30
0.0
11
288.536397
21
19.000635
31
0.0
0
LINE
8
00_POLIAMIDAS
10
291.021287
20
18.615250
30
0.0
11
291.247186
21
18.580215
31
0.0
0
LINE
8
00_POLIAMIDAS
10
293.732076
20
18.194830
30
0.0
11
293.957975
21
18.159795
31
0.0
0
LINE
8
00_POLIAMIDAS
10
296.442865
20
17.774409
30
0.0
11
296.668764
21
17.739374
31
0.0
0
LINE
8
00_POLIAMIDAS
10
277.804090
20
17.822669
30
0.0
11
278.029989
21
17.787634
31
0.0
0
LINE
8
00_POLIAMIDAS
10
277.243882
20
20.548800
30
0.0
11
277.421729
21
20.617070
31
0.0
0
LINE
8
00_POLIAMIDAS
10
279.378046
20
21.368030
30
0.0
11
279.555893
21
21.436299
31
0.0
0
LINE
8
00_POLIAMIDAS
10
278.760025
20
19.526148
30
0.0
11
278.937873
21
19.594418
31
0.0
0
LINE
8
00_POLIAMIDAS
10
280.894190
20
20.345378
30
0.0
11
281.072037
21
20.413647
31
0.0
0
LINE
8
00_POLIAMIDAS
10
283.028355
20
21.164607
30
0.0
11
283.206202
21
21.232876
31
0.0
0
LINE
8
00_POLIAMIDAS
10
278.142005
20
17.684267
30
0.0
11
278.319852
21
17.752536
31
0.0
0
LINE
8
00_POLIAMIDAS
10
280.276169
20
18.503496
30
0.0
11
280.454016
21
18.571766
31
0.0
0
LINE
8
00_POLIAMIDAS
10
282.410334
20
19.322726
30
0.0
11
282.588181
21
19.390995
31
0.0
0
LINE
8
00_POLIAMIDAS
10
284.544499
20
20.141955
30
0.0
11
284.722346
21
20.210224
31
0.0
0
LINE
8
00_POLIAMIDAS
10
286.678664
20
20.961184
30
0.0
11
286.856511
21
21.029453
31
0.0
0
LINE
8
00_POLIAMIDAS
10
283.926478
20
18.300074
30
0.0
11
284.104325
21
18.368343
31
0.0
0
LINE
8
00_POLIAMIDAS
10
286.060643
20
19.119303
30
0.0
11
286.238490
21
19.187572
31
0.0
0
LINE
8
00_POLIAMIDAS
10
288.194808
20
19.938532
30
0.0
11
288.372655
21
20.006801
31
0.0
0
LINE
8
00_POLIAMIDAS
10
290.328973
20
20.757761
30
0.0
11
290.506820
21
20.826030
31
0.0
0
LINE
8
00_POLIAMIDAS
10
292.463138
20
21.576990
30
0.0
11
292.553006
21
21.611487
31
0.0
0
LINE
8
00_POLIAMIDAS
10
287.576787
20
18.096651
30
0.0
11
287.754634
21
18.164920
31
0.0
0
LINE
8
00_POLIAMIDAS
10
289.710952
20
18.915880
30
0.0
11
289.888799
21
18.984149
31
0.0
0
LINE
8
00_POLIAMIDAS
10
291.845117
20
19.735109
30
0.0
11
292.022964
21
19.803378
31
0.0
0
LINE
8
00_POLIAMIDAS
10
293.979281
20
20.554338
30
0.0
11
294.157129
21
20.622607
31
0.0
0
LINE
8
00_POLIAMIDAS
10
296.113446
20
21.373567
30
0.0
11
296.291293
21
21.441836
31
0.0
0
LINE
8
00_POLIAMIDAS
10
291.227096
20
17.893228
30
0.0
11
291.404943
21
17.961497
31
0.0
0
LINE
8
00_POLIAMIDAS
10
293.361261
20
18.712457
30
0.0
11
293.539108
21
18.780726
31
0.0
0
LINE
8
00_POLIAMIDAS
10
295.495425
20
19.531686
30
0.0
11
295.673272
21
19.599955
31
0.0
0
LINE
8
00_POLIAMIDAS
10
297.629590
20
20.350915
30
0.0
11
297.807437
21
20.419184
31
0.0
0
LINE
8
00_POLIAMIDAS
10
299.763755
20
21.170144
30
0.0
11
299.941602
21
21.238414
31
0.0
0
LINE
8
00_POLIAMIDAS
10
294.877404
20
17.689805
30
0.0
11
295.055252
21
17.758074
31
0.0
0
LINE
8
00_POLIAMIDAS
10
297.011569
20
18.509034
30
0.0
11
297.189416
21
18.577303
31
0.0
0
LINE
8
00_POLIAMIDAS
10
299.145734
20
19.328263
30
0.0
11
299.323581
21
19.396532
31
0.0
0
LINE
8
00_POLIAMIDAS
10
301.279899
20
20.147492
30
0.0
11
301.457746
21
20.215762
31
0.0
0
LINE
8
00_POLIAMIDAS
10
303.414064
20
20.966722
30
0.0
11
303.591911
21
21.034991
31
0.0
0
LINE
8
00_POLIAMIDAS
10
300.661878
20
18.305611
30
0.0
11
300.839725
21
18.373880
31
0.0
0
LINE
8
00_POLIAMIDAS
10
302.796043
20
19.124841
30
0.0
11
302.973890
21
19.193110
31
0.0
0
LINE
8
00_POLIAMIDAS
10
304.930208
20
19.944070
30
0.0
11
305.108055
21
20.012339
31
0.0
0
LINE
8
00_POLIAMIDAS
10
307.064373
20
20.763299
30
0.0
11
307.242220
21
20.831568
31
0.0
0
LINE
8
00_POLIAMIDAS
10
309.198538
20
21.582528
30
0.0
11
309.273980
21
21.611487
31
0.0
0
LINE
8
00_POLIAMIDAS
10
304.312187
20
18.102189
30
0.0
11
304.490034
21
18.170458
31
0.0
0
LINE
8
00_POLIAMIDAS
10
306.446352
20
18.921418
30
0.0
11
306.624199
21
18.989687
31
0.0
0
LINE
8
00_POLIAMIDAS
10
308.580517
20
19.740647
30
0.0
11
308.758364
21
19.808916
31
0.0
0
LINE
8
00_POLIAMIDAS
10
310.714681
20
20.559876
30
0.0
11
310.892528
21
20.628145
31
0.0
0
LINE
8
00_POLIAMIDAS
10
307.962496
20
17.898766
30
0.0
11
308.140343
21
17.967035
31
0.0
0
LINE
8
00_POLIAMIDAS
10
310.096660
20
18.717995
30
0.0
11
310.274508
21
18.786264
31
0.0
0
LINE
8
00_POLIAMIDAS
10
309.197978
20
21.581294
30
0.0
11
309.324324
21
21.496073
31
0.0
0
LINE
8
00_POLIAMIDAS
10
310.714122
20
20.558642
30
0.0
11
310.840467
21
20.473421
31
0.0
0
LINE
8
00_POLIAMIDAS
10
307.063814
20
20.762066
30
0.0
11
307.190159
21
20.676845
31
0.0
0
LINE
8
00_POLIAMIDAS
10
308.579958
20
19.739414
30
0.0
11
308.706303
21
19.654193
31
0.0
0
LINE
8
00_POLIAMIDAS
10
310.096102
20
18.716762
30
0.0
11
310.222447
21
18.631541
31
0.0
0
LINE
8
00_POLIAMIDAS
10
303.413506
20
20.965491
30
0.0
11
303.539851
21
20.880270
31
0.0
0
LINE
8
00_POLIAMIDAS
10
304.929650
20
19.942839
30
0.0
11
305.055995
21
19.857618
31
0.0
0
LINE
8
00_POLIAMIDAS
10
306.445794
20
18.920187
30
0.0
11
306.572139
21
18.834966
31
0.0
0
LINE
8
00_POLIAMIDAS
10
307.961938
20
17.897535
30
0.0
11
308.088283
21
17.812314
31
0.0
0
LINE
8
00_POLIAMIDAS
10
299.763198
20
21.168915
30
0.0
11
299.889543
21
21.083694
31
0.0
0
LINE
8
00_POLIAMIDAS
10
301.279342
20
20.146263
30
0.0
11
301.405687
21
20.061042
31
0.0
0
LINE
8
00_POLIAMIDAS
10
302.795486
20
19.123611
30
0.0
11
302.921831
21
19.038390
31
0.0
0
LINE
8
00_POLIAMIDAS
10
304.311629
20
18.100959
30
0.0
11
304.437975
21
18.015738
31
0.0
0
LINE
8
00_POLIAMIDAS
10
296.112890
20
21.372339
30
0.0
11
296.239235
21
21.287118
31
0.0
0
LINE
8
00_POLIAMIDAS
10
297.629034
20
20.349687
30
0.0
11
297.755379
21
20.264466
31
0.0
0
LINE
8
00_POLIAMIDAS
10
299.145177
20
19.327035
30
0.0
11
299.271523
21
19.241814
31
0.0
0
LINE
8
00_POLIAMIDAS
10
300.661321
20
18.304383
30
0.0
11
300.787667
21
18.219162
31
0.0
0
LINE
8
00_POLIAMIDAS
10
292.462582
20
21.575764
30
0.0
11
292.588927
21
21.490543
31
0.0
0
LINE
8
00_POLIAMIDAS
10
293.978725
20
20.553112
30
0.0
11
294.105071
21
20.467891
31
0.0
0
LINE
8
00_POLIAMIDAS
10
295.494869
20
19.530460
30
0.0
11
295.621215
21
19.445239
31
0.0
0
LINE
8
00_POLIAMIDAS
10
297.011013
20
18.507808
30
0.0
11
297.137359
21
18.422587
31
0.0
0
LINE
8
00_POLIAMIDAS
10
290.328417
20
20.756536
30
0.0
11
290.454763
21
20.671315
31
0.0
0
LINE
8
00_POLIAMIDAS
10
291.844561
20
19.733884
30
0.0
11
291.970907
21
19.648663
31
0.0
0
LINE
8
00_POLIAMIDAS
10
293.360705
20
18.711232
30
0.0
11
293.487050
21
18.626011
31
0.0
0
LINE
8
00_POLIAMIDAS
10
294.876849
20
17.688580
30
0.0
11
294.991143
21
17.611487
31
0.0
0
LINE
8
00_POLIAMIDAS
10
286.678109
20
20.959960
30
0.0
11
286.804455
21
20.874739
31
0.0
0
LINE
8
00_POLIAMIDAS
10
288.194253
20
19.937308
30
0.0
11
288.320598
21
19.852087
31
0.0
0
LINE
8
00_POLIAMIDAS
10
289.710397
20
18.914656
30
0.0
11
289.836742
21
18.829435
31
0.0
0
LINE
8
00_POLIAMIDAS
10
291.226541
20
17.892004
30
0.0
11
291.352886
21
17.806783
31
0.0
0
LINE
8
00_POLIAMIDAS
10
283.027801
20
21.163385
30
0.0
11
283.154146
21
21.078164
31
0.0
0
LINE
8
00_POLIAMIDAS
10
284.543945
20
20.140733
30
0.0
11
284.670290
21
20.055512
31
0.0
0
LINE
8
00_POLIAMIDAS
10
286.060089
20
19.118081
30
0.0
11
286.186434
21
19.032860
31
0.0
0
LINE
8
00_POLIAMIDAS
10
287.576233
20
18.095429
30
0.0
11
287.702578
21
18.010208
31
0.0
0
LINE
8
00_POLIAMIDAS
10
279.377493
20
21.366809
30
0.0
11
279.503838
21
21.281588
31
0.0
0
LINE
8
00_POLIAMIDAS
10
280.893637
20
20.344157
30
0.0
11
281.019982
21
20.258936
31
0.0
0
LINE
8
00_POLIAMIDAS
10
282.409781
20
19.321505
30
0.0
11
282.536126
21
19.236284
31
0.0
0
LINE
8
00_POLIAMIDAS
10
283.925925
20
18.298853
30
0.0
11
284.052270
21
18.213632
31
0.0
0
LINE
8
00_POLIAMIDAS
10
277.243329
20
20.547581
30
0.0
11
277.369674
21
20.462360
31
0.0
0
LINE
8
00_POLIAMIDAS
10
278.759473
20
19.524929
30
0.0
11
278.885818
21
19.439708
31
0.0
0
LINE
8
00_POLIAMIDAS
10
280.275617
20
18.502277
30
0.0
11
280.401962
21
18.417056
31
0.0
0
LINE
8
00_POLIAMIDAS
10
278.141452
20
17.683049
30
0.0
11
278.247547
21
17.611487
31
0.0
0
LINE
8
00_POLIAMIDAS
10
277.369590
20
20.462400
30
0.0
11
277.421092
21
20.615890
31
0.0
0
LINE
8
00_POLIAMIDAS
10
278.272283
20
17.611487
30
0.0
11
278.319215
21
17.751359
31
0.0
0
LINE
8
00_POLIAMIDAS
10
278.885734
20
19.439748
30
0.0
11
278.937235
21
19.593238
31
0.0
0
LINE
8
00_POLIAMIDAS
10
279.503754
20
21.281628
30
0.0
11
279.555256
21
21.435118
31
0.0
0
LINE
8
00_POLIAMIDAS
10
280.401877
20
18.417096
30
0.0
11
280.453379
21
18.570586
31
0.0
0
LINE
8
00_POLIAMIDAS
10
281.019898
20
20.258976
30
0.0
11
281.071400
21
20.412466
31
0.0
0
LINE
8
00_POLIAMIDAS
10
282.536042
20
19.236324
30
0.0
11
282.587543
21
19.389814
31
0.0
0
LINE
8
00_POLIAMIDAS
10
283.154062
20
21.078203
30
0.0
11
283.205564
21
21.231694
31
0.0
0
LINE
8
00_POLIAMIDAS
10
284.052185
20
18.213672
30
0.0
11
284.103687
21
18.367162
31
0.0
0
LINE
8
00_POLIAMIDAS
10
284.670206
20
20.055552
30
0.0
11
284.721707
21
20.209042
31
0.0
0
LINE
8
00_POLIAMIDAS
10
286.186349
20
19.032900
30
0.0
11
286.237851
21
19.186390
31
0.0
0
LINE
8
00_POLIAMIDAS
10
286.804370
20
20.874779
30
0.0
11
286.855872
21
21.028269
31
0.0
0
LINE
8
00_POLIAMIDAS
10
287.702493
20
18.010248
30
0.0
11
287.753995
21
18.163738
31
0.0
0
LINE
8
00_POLIAMIDAS
10
288.320514
20
19.852127
30
0.0
11
288.372015
21
20.005617
31
0.0
0
LINE
8
00_POLIAMIDAS
10
289.836657
20
18.829475
30
0.0
11
289.888159
21
18.982965
31
0.0
0
LINE
8
00_POLIAMIDAS
10
290.454678
20
20.671355
30
0.0
11
290.506180
21
20.824845
31
0.0
0
LINE
8
00_POLIAMIDAS
10
291.352801
20
17.806823
30
0.0
11
291.404303
21
17.960314
31
0.0
0
LINE
8
00_POLIAMIDAS
10
291.970822
20
19.648703
30
0.0
11
292.022323
21
19.802193
31
0.0
0
LINE
8
00_POLIAMIDAS
10
292.588842
20
21.490583
30
0.0
11
292.629410
21
21.611487
31
0.0
0
LINE
8
00_POLIAMIDAS
10
293.486965
20
18.626051
30
0.0
11
293.538467
21
18.779541
31
0.0
0
LINE
8
00_POLIAMIDAS
10
294.104986
20
20.467931
30
0.0
11
294.156488
21
20.621421
31
0.0
0
LINE
8
00_POLIAMIDAS
10
295.005823
20
17.611487
30
0.0
11
295.054611
21
17.756889
31
0.0
0
LINE
8
00_POLIAMIDAS
10
295.621130
20
19.445279
30
0.0
11
295.672631
21
19.598769
31
0.0
0
LINE
8
00_POLIAMIDAS
10
296.239150
20
21.287158
30
0.0
11
296.290652
21
21.440649
31
0.0
0
LINE
8
00_POLIAMIDAS
10
297.137273
20
18.422627
30
0.0
11
297.188775
21
18.576117
31
0.0
0
LINE
8
00_POLIAMIDAS
10
297.755294
20
20.264507
30
0.0
11
297.806796
21
20.417997
31
0.0
0
LINE
8
00_POLIAMIDAS
10
299.271438
20
19.241855
30
0.0
11
299.322939
21
19.395345
31
0.0
0
LINE
8
00_POLIAMIDAS
10
299.889458
20
21.083734
30
0.0
11
299.940960
21
21.237224
31
0.0
0
LINE
8
00_POLIAMIDAS
10
300.787581
20
18.219203
30
0.0
11
300.839083
21
18.372693
31
0.0
0
LINE
8
00_POLIAMIDAS
10
301.405602
20
20.061082
30
0.0
11
301.457103
21
20.214572
31
0.0
0
LINE
8
00_POLIAMIDAS
10
302.921746
20
19.038430
30
0.0
11
302.973247
21
19.191920
31
0.0
0
LINE
8
00_POLIAMIDAS
10
303.539766
20
20.880310
30
0.0
11
303.591268
21
21.033800
31
0.0
0
LINE
8
00_POLIAMIDAS
10
304.437889
20
18.015778
30
0.0
11
304.489391
21
18.169269
31
0.0
0
LINE
8
00_POLIAMIDAS
10
305.055910
20
19.857658
30
0.0
11
305.107411
21
20.011148
31
0.0
0
LINE
8
00_POLIAMIDAS
10
306.572053
20
18.835006
30
0.0
11
306.623555
21
18.988496
31
0.0
0
LINE
8
00_POLIAMIDAS
10
307.190074
20
20.676886
30
0.0
11
307.241576
21
20.830376
31
0.0
0
LINE
8
00_POLIAMIDAS
10
308.088197
20
17.812354
30
0.0
11
308.139699
21
17.965844
31
0.0
0
LINE
8
00_POLIAMIDAS
10
308.706218
20
19.654234
30
0.0
11
308.757719
21
19.807724
31
0.0
0
LINE
8
00_POLIAMIDAS
10
309.324238
20
21.496113
30
0.0
11
309.362950
21
21.611487
31
0.0
0
LINE
8
00_POLIAMIDAS
10
310.222361
20
18.631582
30
0.0
11
310.273863
21
18.785072
31
0.0
0
LINE
8
00_POLIAMIDAS
10
310.840382
20
20.473462
30
0.0
11
310.891884
21
20.626952
31
0.0
0
LINE
8
00_POLIAMIDAS
10
276.823583
20
21.111487
30
0.0
11
276.823583
21
18.111487
31
0.0
0
ARC
8
00_POLIAMIDAS
10
277.323583
20
18.111487
30
0.0
40
0.500000
50
180.000000
51
270.000000
0
LINE
8
00_POLIAMIDAS
10
277.323583
20
17.611487
30
0.0
11
311.323583
21
17.611487
31
0.0
0
ARC
8
00_POLIAMIDAS
10
311.323583
20
18.111487
30
0.0
40
0.500000
50
270.000000
51
0.000000
0
LINE
8
00_POLIAMIDAS
10
311.823583
20
18.111487
30
0.0
11
311.823583
21
21.111487
31
0.0
0
ARC
8
00_POLIAMIDAS
10
311.323583
20
21.111487
30
0.0
40
0.500000
50
0.000000
51
90.000000
0
LINE
8
00_POLIAMIDAS
10
311.323583
20
21.611487
30
0.0
11
277.323583
21
21.611487
31
0.0
0
ARC
8
00_POLIAMIDAS
10
277.323583
20
21.111487
30
0.0
40
0.500000
50
90.000000
51
180.000000
0
ATTDEF
8
0
10
0.000000
20
0.000000
30
0.0
40
3.5
1

3

2
PANE_WIDTH:0
70
0
0
ATTDEF
8
0
10
0.000000
20
0.000000
30
0.0
40
3.5
1

3

2
MIN_VETRO:0
70
0
0
ATTDEF
8
0
10
0.000000
20
0.000000
30
0.0
40
3.5
1

3

2
MAX_VETRO:0
70
0
0
ATTDEF
8
0
10
0.000000
20
0.000000
30
0.0
40
3.5
1

3

2
JX:0
70
0
0
ATTDEF
8
0
10
0.000000
20
0.000000
30
0.0
40
3.5
1

3

2
WX:0
70
0
0
ATTDEF
8
0
10
0.000000
20
0.000000
30
0.0
40
3.5
1

3

2
JY:0
70
0
0
ATTDEF
8
0
10
0.000000
20
0.000000
30
0.0
40
3.5
1

3

2
WY:0
70
0
0
ATTDEF
8
0
10
0.000000
20
0.000000
30
0.0
40
3.5
1

3

2
DESC:Marco ventana apert.inter.HI c/enganche
70
0
0
ATTDEF
8
0
10
0.000000
20
0.000000
30
0.0
40
3.5
1

3

2
DENS:1.6125
70
0
0
ATTDEF
8
0
10
0.000000
20
0.000000
30
0.0
40
3.5
1

3

2
TDEV:49.63
70
0
0
ATTDEF
8
0
10
0.000000
20
0.000000
30
0.0
40
3.5
1

3

2
TDEV2:0
70
0
0
ATTDEF
8
0
10
0.000000
20
0.000000
30
0.0
40
3.5
1

3

2
TDEV3:0
70
0
0
ATTDEF
8
0
10
0.000000
20
0.000000
30
0.0
40
3.5
1

3

2
TDEV4:0
70
0
0
ATTDEF
8
0
10
0.000000
20
0.000000
30
0.0
40
3.5
1

3

2
TDEV5:0
70
0
0
ATTDEF
8
0
10
0.000000
20
0.000000
30
0.0
40
3.5
1

3

2
PANE_WIDTH:0
70
0
0
ATTDEF
8
0
10
0.000000
20
0.000000
30
0.0
40
3.5
1

3

2
MIN_VETRO:0
70
0
0
ATTDEF
8
0
10
0.000000
20
0.000000
30
0.0
40
3.5
1

3

2
MAX_VETRO:0
70
0
0
ATTDEF
8
0
10
0.000000
20
0.000000
30
0.0
40
3.5
1

3

2
JX:0
70
0
0
ATTDEF
8
0
10
0.000000
20
0.000000
30
0.0
40
3.5
1

3

2
WX:0
70
0
0
ATTDEF
8
0
10
0.000000
20
0.000000
30
0.0
40
3.5
1

3

2
JY:0
70
0
0
ATTDEF
8
0
10
0.000000
20
0.000000
30
0.0
40
3.5
1

3

2
WY:0
70
0
0
ENDSEC
0
EOF
