0
SECTION
2
ENTITIES
0
LINE
8
0
10
3430.272436
20
1247.497134
30
0.0
11
3430.633928
21
1247.858627
31
0.0
0
LINE
8
0
10
3431.307647
20
1246.287281
30
0.0
11
3432.166958
21
1247.146593
31
0.0
0
LINE
8
0
10
3430.934006
20
1243.668577
30
0.0
11
3436.925754
21
1249.660324
31
0.0
0
LINE
8
0
10
3430.270738
20
1240.760245
30
0.0
11
3430.913743
21
1241.403250
31
0.0
0
LINE
8
0
10
3437.370818
20
1247.860324
30
0.0
11
3439.170818
21
1249.660324
31
0.0
0
LINE
8
0
10
3434.392020
20
1244.881526
30
0.0
11
3435.494733
21
1245.984240
31
0.0
0
LINE
8
0
10
3430.395349
20
1238.639792
30
0.0
11
3430.512573
21
1238.757016
31
0.0
0
LINE
8
0
10
3439.615882
20
1247.860324
30
0.0
11
3441.415882
21
1249.660324
31
0.0
0
LINE
8
0
10
3431.465219
20
1239.709662
30
0.0
11
3432.345418
21
1240.589861
31
0.0
0
LINE
8
0
10
3431.584967
20
1237.584346
30
0.0
11
3434.207051
21
1240.206430
31
0.0
0
LINE
8
0
10
3441.721644
20
1247.721022
30
0.0
11
3443.078176
21
1249.077554
31
0.0
0
LINE
8
0
10
3434.133802
20
1237.888117
30
0.0
11
3435.426230
21
1239.180544
31
0.0
0
LINE
8
0
10
3442.710348
20
1246.464663
30
0.0
11
3444.002775
21
1247.757090
31
0.0
0
LINE
8
0
10
3435.058402
20
1236.567653
30
0.0
11
3436.350829
21
1237.860080
31
0.0
0
LINE
8
0
10
3443.645574
20
1245.154825
30
0.0
11
3445.151074
21
1246.660324
31
0.0
0
LINE
8
0
10
3436.142440
20
1235.406627
30
0.0
11
3437.942440
21
1237.206627
31
0.0
0
LINE
8
0
10
3445.547821
20
1244.812008
30
0.0
11
3448.264801
21
1247.528988
31
0.0
0
LINE
8
0
10
3438.387504
20
1235.406627
30
0.0
11
3440.187504
21
1237.206627
31
0.0
0
LINE
8
0
10
3446.996077
20
1244.015199
30
0.0
11
3448.118779
21
1245.137902
31
0.0
0
LINE
8
0
10
3440.632568
20
1235.406627
30
0.0
11
3445.458404
21
1240.232462
31
0.0
0
LINE
8
0
10
3445.749759
20
1238.278754
30
0.0
11
3446.944372
21
1239.473367
31
0.0
0
LINE
8
0
10
3447.353998
20
1239.882993
30
0.0
11
3448.270738
21
1240.799733
31
0.0
0
LINE
8
0
10
3447.174537
20
1237.458468
30
0.0
11
3448.170739
21
1238.454670
31
0.0
0
LINE
8
0
10
3431.258200
20
1237.395687
30
0.0
11
3430.370736
21
1238.283151
31
0.0
0
LINE
8
0
10
3432.681514
20
1238.217437
30
0.0
11
3431.620095
21
1239.278856
31
0.0
0
LINE
8
0
10
3430.992967
20
1239.905984
30
0.0
11
3430.270738
21
1240.628213
31
0.0
0
LINE
8
0
10
3437.737388
20
1235.406627
30
0.0
11
3432.826140
21
1240.317875
31
0.0
0
LINE
8
0
10
3439.982452
20
1235.406627
30
0.0
11
3438.182452
21
1237.206627
31
0.0
0
LINE
8
0
10
3431.436660
20
1243.952419
30
0.0
11
3430.372677
21
1245.016402
31
0.0
0
LINE
8
0
10
3442.227516
20
1235.406627
30
0.0
11
3440.427516
21
1237.206627
31
0.0
0
LINE
8
0
10
3432.867032
20
1244.767111
30
0.0
11
3430.270738
21
1247.363405
31
0.0
0
LINE
8
0
10
3443.412436
20
1236.466771
30
0.0
11
3442.120009
21
1237.759198
31
0.0
0
LINE
8
0
10
3434.805118
20
1245.074089
30
0.0
11
3433.213103
21
1246.666104
31
0.0
0
LINE
8
0
10
3444.337036
20
1237.787235
30
0.0
11
3443.044609
21
1239.079662
31
0.0
0
LINE
8
0
10
3435.760490
20
1246.363781
30
0.0
11
3434.468063
21
1247.656208
31
0.0
0
LINE
8
0
10
3446.550688
20
1237.818647
30
0.0
11
3444.178313
21
1240.191022
31
0.0
0
LINE
8
0
10
3436.717628
20
1247.651707
30
0.0
11
3435.392663
21
1248.976673
31
0.0
0
LINE
8
0
10
3448.170739
20
1238.443660
30
0.0
11
3447.835186
21
1238.779213
31
0.0
0
LINE
8
0
10
3438.754075
20
1247.860324
30
0.0
11
3436.954075
21
1249.660324
31
0.0
0
LINE
8
0
10
3447.003571
20
1239.610828
30
0.0
11
3446.087319
21
1240.527080
31
0.0
0
LINE
8
0
10
3448.270738
20
1240.588725
30
0.0
11
3447.510633
21
1241.348831
31
0.0
0
LINE
8
0
10
3440.999139
20
1247.860324
30
0.0
11
3439.199139
21
1249.660324
31
0.0
0
LINE
8
0
10
3443.878937
20
1244.980527
30
0.0
11
3443.447353
21
1245.412110
31
0.0
0
LINE
8
0
10
3447.216711
20
1243.887816
30
0.0
11
3441.444203
21
1249.660324
31
0.0
0
LINE
8
0
10
3447.132124
20
1246.217467
30
0.0
11
3446.265779
21
1247.083812
31
0.0
0
LINE
8
0
10
3448.270738
20
1247.323917
30
0.0
11
3447.734331
21
1247.860324
31
0.0
0
ARC
8
0
10
3433.330738
20
1243.660324
30
0.0
40
1.200000
50
90.000000
51
120.000000
0
LINE
8
0
10
3433.330738
20
1244.860324
30
0.0
11
3434.187192
21
1244.860324
31
0.0
0
ARC
8
0
10
3434.187192
20
1245.860324
30
0.0
40
1.000000
50
270.000000
51
325.000000
0
LINE
8
0
10
3435.006344
20
1245.286748
30
0.0
11
3436.509797
21
1247.433901
31
0.0
0
ARC
8
0
10
3437.328949
20
1246.860324
30
0.0
40
1.000000
50
90.000000
51
145.000000
0
LINE
8
0
10
3437.328949
20
1247.860324
30
0.0
11
3441.212528
21
1247.860324
31
0.0
0
ARC
8
0
10
3441.212528
20
1246.860324
30
0.0
40
1.000000
50
35.000000
51
90.000000
0
LINE
8
0
10
3442.031680
20
1247.433901
30
0.0
11
3443.535133
21
1245.286748
31
0.0
0
ARC
8
0
10
3444.354285
20
1245.860324
30
0.0
40
1.000000
50
215.000000
51
270.000000
0
LINE
8
0
10
3444.354285
20
1244.860324
30
0.0
11
3445.210738
21
1244.860324
31
0.0
0
ARC
8
0
10
3445.210738
20
1243.660324
30
0.0
40
1.200000
50
60.000000
51
90.000000
0
LINE
8
0
10
3445.810738
20
1244.699555
30
0.0
11
3447.564328
21
1243.687119
31
0.0
0
ARC
8
0
10
3447.664328
20
1243.860324
30
0.0
40
0.200000
50
240.000000
51
270.000000
0
LINE
8
0
10
3447.664328
20
1243.660324
30
0.0
11
3447.870738
21
1243.660324
31
0.0
0
ARC
8
0
10
3447.870738
20
1244.060324
30
0.0
40
0.400000
50
270.000000
51
360.000000
0
LINE
8
0
10
3448.270738
20
1244.060324
30
0.0
11
3448.270738
21
1244.487119
31
0.0
0
ARC
8
0
10
3448.070738
20
1244.487119
30
0.0
40
0.200000
50
360.000000
51
60.000000
0
LINE
8
0
10
3448.170738
20
1244.660324
30
0.0
11
3448.170738
21
1244.985324
31
0.0
0
ARC
8
0
10
3447.920738
20
1244.985324
30
0.0
40
0.250000
50
360.000000
51
90.000000
0
LINE
8
0
10
3447.920738
20
1245.235324
30
0.0
11
3447.869844
21
1245.235324
31
0.0
0
ARC
8
0
10
3447.869844
20
1244.985324
30
0.0
40
0.250000
50
90.000000
51
114.249629
0
ARC
8
0
10
3447.520738
20
1245.760324
30
0.0
40
0.600000
50
180.000000
51
294.249627
0
ARC
8
0
10
3447.520738
20
1245.760324
30
0.0
40
0.600000
50
65.750371
51
180.000000
0
ARC
8
0
10
3447.869844
20
1246.535327
30
0.0
40
0.250002
50
245.751135
51
270.000000
0
LINE
8
0
10
3447.869844
20
1246.285324
30
0.0
11
3447.920738
21
1246.285324
31
0.0
0
ARC
8
0
10
3447.920738
20
1246.535324
30
0.0
40
0.250000
50
270.000000
51
360.000000
0
LINE
8
0
10
3448.170738
20
1246.535324
30
0.0
11
3448.170742
21
1246.860159
31
0.0
0
ARC
8
0
10
3448.020738
20
1247.060324
30
0.0
40
0.250000
50
306.869898
51
360.000000
0
LINE
8
0
10
3448.270738
20
1247.060324
30
0.0
11
3448.270738
21
1247.460324
31
0.0
0
ARC
8
0
10
3447.870738
20
1247.460324
30
0.0
40
0.400000
50
360.000000
51
90.000000
0
LINE
8
0
10
3447.870738
20
1247.860324
30
0.0
11
3447.664328
21
1247.860324
31
0.0
0
ARC
8
0
10
3447.664328
20
1247.660324
30
0.0
40
0.200000
50
90.000000
51
120.000000
0
LINE
8
0
10
3447.564328
20
1247.833530
30
0.0
11
3445.810738
21
1246.821094
31
0.0
0
ARC
8
0
10
3445.210738
20
1247.860324
30
0.0
40
1.200000
50
270.000000
51
300.000000
0
LINE
8
0
10
3445.210738
20
1246.660324
30
0.0
11
3444.926908
21
1246.660324
31
0.0
0
ARC
8
0
10
3444.926908
20
1246.960324
30
0.0
40
0.300000
50
215.000000
51
270.000000
0
LINE
8
0
10
3444.681163
20
1246.788252
30
0.0
11
3442.759691
21
1249.532397
31
0.0
0
ARC
8
0
10
3442.513945
20
1249.360324
30
0.0
40
0.300000
50
35.000000
51
90.000000
0
LINE
8
0
10
3442.513945
20
1249.660324
30
0.0
11
3436.027531
21
1249.660324
31
0.0
0
ARC
8
0
10
3436.027531
20
1249.360324
30
0.0
40
0.300000
50
90.000000
51
145.000000
0
LINE
8
0
10
3435.781785
20
1249.532397
30
0.0
11
3433.860314
21
1246.788252
31
0.0
0
ARC
8
0
10
3433.614568
20
1246.960324
30
0.0
40
0.300000
50
270.000000
51
325.000000
0
LINE
8
0
10
3433.614568
20
1246.660324
30
0.0
11
3433.330738
21
1246.660324
31
0.0
0
ARC
8
0
10
3433.330738
20
1247.860324
30
0.0
40
1.200000
50
240.000000
51
270.000000
0
LINE
8
0
10
3432.730738
20
1246.821094
30
0.0
11
3430.977148
21
1247.833530
31
0.0
0
ARC
8
0
10
3430.877148
20
1247.660324
30
0.0
40
0.200000
50
60.000000
51
90.000000
0
LINE
8
0
10
3430.877148
20
1247.860324
30
0.0
11
3430.670738
21
1247.860324
31
0.0
0
ARC
8
0
10
3430.670738
20
1247.460324
30
0.0
40
0.400000
50
90.000000
51
180.000000
0
LINE
8
0
10
3430.270738
20
1247.460324
30
0.0
11
3430.270738
21
1247.060324
31
0.0
0
ARC
8
0
10
3430.520738
20
1247.060324
30
0.0
40
0.250000
50
180.000000
51
233.130102
0
LINE
8
0
10
3430.370735
20
1246.860159
30
0.0
11
3430.370738
21
1246.535324
31
0.0
0
ARC
8
0
10
3430.620738
20
1246.535324
30
0.0
40
0.250000
50
180.000000
51
270.000000
0
LINE
8
0
10
3430.620738
20
1246.285324
30
0.0
11
3430.671632
21
1246.285324
31
0.0
0
ARC
8
0
10
3430.671632
20
1246.535327
30
0.0
40
0.250002
50
270.000000
51
294.248865
0
ARC
8
0
10
3431.020738
20
1245.760324
30
0.0
40
0.600000
50
360.000000
51
114.249629
0
ARC
8
0
10
3431.020738
20
1245.760324
30
0.0
40
0.600000
50
245.750373
51
360.000000
0
ARC
8
0
10
3430.671632
20
1244.985324
30
0.0
40
0.250000
50
65.750371
51
90.000000
0
LINE
8
0
10
3430.671632
20
1245.235324
30
0.0
11
3430.620738
21
1245.235324
31
0.0
0
ARC
8
0
10
3430.620738
20
1244.985324
30
0.0
40
0.250000
50
90.000000
51
180.000000
0
LINE
8
0
10
3430.370738
20
1244.985324
30
0.0
11
3430.370738
21
1244.660324
31
0.0
0
ARC
8
0
10
3430.470738
20
1244.487119
30
0.0
40
0.200000
50
120.000000
51
180.000000
0
LINE
8
0
10
3430.270738
20
1244.487119
30
0.0
11
3430.270738
21
1244.060324
31
0.0
0
ARC
8
0
10
3430.670738
20
1244.060324
30
0.0
40
0.400000
50
180.000000
51
270.000000
0
LINE
8
0
10
3430.670738
20
1243.660324
30
0.0
11
3430.877148
21
1243.660324
31
0.0
0
ARC
8
0
10
3430.877148
20
1243.860324
30
0.0
40
0.200000
50
270.000000
51
300.000000
0
LINE
8
0
10
3430.977148
20
1243.687119
30
0.0
11
3432.730738
21
1244.699555
31
0.0
0
ARC
8
0
10
3433.330738
20
1241.406627
30
0.0
40
1.200000
50
240.000000
51
270.000000
0
LINE
8
0
10
3433.330738
20
1240.206627
30
0.0
11
3434.187192
21
1240.206627
31
0.0
0
ARC
8
0
10
3434.187192
20
1239.206627
30
0.0
40
1.000000
50
35.000000
51
90.000000
0
LINE
8
0
10
3435.006344
20
1239.780203
30
0.0
11
3436.509797
21
1237.633050
31
0.0
0
ARC
8
0
10
3437.328949
20
1238.206627
30
0.0
40
1.000000
50
215.000000
51
270.000000
0
LINE
8
0
10
3437.328949
20
1237.206627
30
0.0
11
3441.212528
21
1237.206627
31
0.0
0
ARC
8
0
10
3441.212528
20
1238.206627
30
0.0
40
1.000000
50
270.000000
51
325.000000
0
LINE
8
0
10
3442.031680
20
1237.633050
30
0.0
11
3443.535133
21
1239.780203
31
0.0
0
ARC
8
0
10
3444.354285
20
1239.206627
30
0.0
40
1.000000
50
90.000000
51
145.000000
0
LINE
8
0
10
3444.354285
20
1240.206627
30
0.0
11
3445.210738
21
1240.206627
31
0.0
0
ARC
8
0
10
3445.210738
20
1241.406627
30
0.0
40
1.200000
50
270.000000
51
300.000000
0
LINE
8
0
10
3445.810738
20
1240.367396
30
0.0
11
3447.564328
21
1241.379832
31
0.0
0
ARC
8
0
10
3447.664328
20
1241.206627
30
0.0
40
0.200000
50
90.000000
51
120.000000
0
LINE
8
0
10
3447.664328
20
1241.406627
30
0.0
11
3447.870738
21
1241.406627
31
0.0
0
ARC
8
0
10
3447.870738
20
1241.006627
30
0.0
40
0.400000
50
360.000000
51
90.000000
0
LINE
8
0
10
3448.270738
20
1241.006627
30
0.0
11
3448.270738
21
1240.579832
31
0.0
0
ARC
8
0
10
3448.070738
20
1240.579832
30
0.0
40
0.200000
50
300.000000
51
360.000000
0
LINE
8
0
10
3448.170738
20
1240.406627
30
0.0
11
3448.170738
21
1240.081627
31
0.0
0
ARC
8
0
10
3447.920738
20
1240.081627
30
0.0
40
0.250000
50
270.000000
51
360.000000
0
LINE
8
0
10
3447.920738
20
1239.831627
30
0.0
11
3447.869844
21
1239.831627
31
0.0
0
ARC
8
0
10
3447.869844
20
1240.081627
30
0.0
40
0.250000
50
245.750371
51
270.000000
0
ARC
8
0
10
3447.520738
20
1239.306627
30
0.0
40
0.600000
50
65.750373
51
180.000000
0
ARC
8
0
10
3447.520738
20
1239.306627
30
0.0
40
0.600000
50
180.000000
51
294.249629
0
ARC
8
0
10
3447.869844
20
1238.531624
30
0.0
40
0.250002
50
90.000000
51
114.248865
0
LINE
8
0
10
3447.869844
20
1238.781627
30
0.0
11
3447.920738
21
1238.781627
31
0.0
0
ARC
8
0
10
3447.920738
20
1238.531627
30
0.0
40
0.250000
50
360.000000
51
90.000000
0
LINE
8
0
10
3448.170738
20
1238.531627
30
0.0
11
3448.170742
21
1238.206792
31
0.0
0
ARC
8
0
10
3448.020738
20
1238.006627
30
0.0
40
0.250000
50
360.000000
51
53.130102
0
LINE
8
0
10
3448.270738
20
1238.006627
30
0.0
11
3448.270738
21
1237.606627
31
0.0
0
ARC
8
0
10
3447.870738
20
1237.606627
30
0.0
40
0.400000
50
270.000000
51
360.000000
0
LINE
8
0
10
3447.870738
20
1237.206627
30
0.0
11
3447.664328
21
1237.206627
31
0.0
0
ARC
8
0
10
3447.664328
20
1237.406627
30
0.0
40
0.200000
50
240.000000
51
270.000000
0
LINE
8
0
10
3447.564328
20
1237.233422
30
0.0
11
3445.810738
21
1238.245857
31
0.0
0
ARC
8
0
10
3445.210738
20
1237.206627
30
0.0
40
1.200000
50
60.000000
51
90.000000
0
LINE
8
0
10
3445.210738
20
1238.406627
30
0.0
11
3444.926908
21
1238.406627
31
0.0
0
ARC
8
0
10
3444.926908
20
1238.106627
30
0.0
40
0.300000
50
90.000000
51
145.000000
0
LINE
8
0
10
3444.681163
20
1238.278700
30
0.0
11
3442.759691
21
1235.534554
31
0.0
0
ARC
8
0
10
3442.513945
20
1235.706627
30
0.0
40
0.300000
50
270.000000
51
325.000000
0
LINE
8
0
10
3442.513945
20
1235.406627
30
0.0
11
3436.027531
21
1235.406627
31
0.0
0
ARC
8
0
10
3436.027531
20
1235.706627
30
0.0
40
0.300000
50
215.000000
51
270.000000
0
LINE
8
0
10
3435.781785
20
1235.534554
30
0.0
11
3433.860314
21
1238.278700
31
0.0
0
ARC
8
0
10
3433.614568
20
1238.106627
30
0.0
40
0.300000
50
35.000000
51
90.000000
0
LINE
8
0
10
3433.614568
20
1238.406627
30
0.0
11
3433.330738
21
1238.406627
31
0.0
0
ARC
8
0
10
3433.330738
20
1237.206627
30
0.0
40
1.200000
50
90.000000
51
120.000000
0
LINE
8
0
10
3432.730738
20
1238.245857
30
0.0
11
3430.977148
21
1237.233422
31
0.0
0
ARC
8
0
10
3430.877148
20
1237.406627
30
0.0
40
0.200000
50
270.000000
51
300.000000
0
LINE
8
0
10
3430.877148
20
1237.206627
30
0.0
11
3430.670738
21
1237.206627
31
0.0
0
ARC
8
0
10
3430.670738
20
1237.606627
30
0.0
40
0.400000
50
180.000000
51
270.000000
0
LINE
8
0
10
3430.270738
20
1237.606627
30
0.0
11
3430.270738
21
1238.006627
31
0.0
0
ARC
8
0
10
3430.520738
20
1238.006627
30
0.0
40
0.250000
50
126.869898
51
180.000000
0
LINE
8
0
10
3430.370735
20
1238.206792
30
0.0
11
3430.370738
21
1238.531627
31
0.0
0
ARC
8
0
10
3430.620738
20
1238.531627
30
0.0
40
0.250000
50
90.000000
51
180.000000
0
LINE
8
0
10
3430.620738
20
1238.781627
30
0.0
11
3430.671632
21
1238.781627
31
0.0
0
ARC
8
0
10
3430.671632
20
1238.531624
30
0.0
40
0.250002
50
65.751135
51
90.000000
0
ARC
8
0
10
3431.020738
20
1239.306627
30
0.0
40
0.600000
50
245.750371
51
360.000000
0
ARC
8
0
10
3431.020738
20
1239.306627
30
0.0
40
0.600000
50
360.000000
51
114.249627
0
ARC
8
0
10
3430.671632
20
1240.081627
30
0.0
40
0.250000
50
270.000000
51
294.249629
0
LINE
8
0
10
3430.671632
20
1239.831627
30
0.0
11
3430.620738
21
1239.831627
31
0.0
0
ARC
8
0
10
3430.620738
20
1240.081627
30
0.0
40
0.250000
50
180.000000
51
270.000000
0
LINE
8
0
10
3430.370738
20
1240.081627
30
0.0
11
3430.370738
21
1240.406627
31
0.0
0
ARC
8
0
10
3430.470738
20
1240.579832
30
0.0
40
0.200000
50
180.000000
51
240.000000
0
LINE
8
0
10
3430.270738
20
1240.579832
30
0.0
11
3430.270738
21
1241.006627
31
0.0
0
ARC
8
0
10
3430.670738
20
1241.006627
30
0.0
40
0.400000
50
90.000000
51
180.000000
0
LINE
8
0
10
3430.670738
20
1241.406627
30
0.0
11
3430.877148
21
1241.406627
31
0.0
0
ARC
8
0
10
3430.877148
20
1241.206627
30
0.0
40
0.200000
50
60.000000
51
90.000000
0
LINE
8
0
10
3430.977148
20
1241.379832
30
0.0
11
3432.730738
21
1240.367396
31
0.0
0
LINE
8
0
10
3425.770738
20
1248.483476
30
0.0
11
3428.770738
21
1248.483476
31
0.0
0
LINE
8
0
10
3428.770738
20
1248.483476
30
0.0
11
3428.770738
21
1236.483476
31
0.0
0
LINE
8
0
10
3428.770738
20
1236.483476
30
0.0
11
3410.770738
21
1236.483476
31
0.0
0
LINE
8
0
10
3410.770738
20
1236.483476
30
0.0
11
3410.770738
21
1248.483476
31
0.0
0
LINE
8
0
10
3410.770738
20
1248.483476
30
0.0
11
3413.770738
21
1248.483476
31
0.0
0
LINE
8
0
10
3413.770738
20
1248.483476
30
0.0
11
3413.770738
21
1248.583476
31
0.0
0
LINE
8
0
10
3413.770738
20
1248.583476
30
0.0
11
3425.770738
21
1248.583476
31
0.0
0
LINE
8
0
10
3425.770738
20
1248.583476
30
0.0
11
3425.770738
21
1248.483476
31
0.0
0
LINE
8
0
10
3422.548384
20
1273.552998
30
0.0
11
3420.560516
21
1274.085646
31
0.0
0
LINE
8
0
10
3420.560516
20
1274.085646
30
0.0
11
3420.270738
21
1274.463292
31
0.0
0
LINE
8
0
10
3420.270738
20
1274.463292
30
0.0
11
3419.980960
21
1274.240937
31
0.0
0
LINE
8
0
10
3419.980960
20
1274.240937
30
0.0
11
3416.900148
21
1275.066439
31
0.0
0
ARC
8
0
10
3416.770738
20
1274.583476
30
0.0
40
0.500000
50
75.000000
51
105.000000
0
LINE
8
0
10
3416.641329
20
1275.066439
30
0.0
11
3413.560516
21
1274.240937
31
0.0
0
LINE
8
0
10
3413.560516
20
1274.240937
30
0.0
11
3413.270738
21
1274.463292
31
0.0
0
LINE
8
0
10
3413.270738
20
1274.463292
30
0.0
11
3412.980960
21
1274.085646
31
0.0
0
LINE
8
0
10
3412.980960
20
1274.085646
30
0.0
11
3410.993093
21
1273.552998
31
0.0
0
ARC
8
0
10
3411.070738
20
1273.263220
30
0.0
40
0.300000
50
105.000000
51
180.000000
0
LINE
8
0
10
3410.770738
20
1273.263220
30
0.0
11
3410.770738
21
1250.383476
31
0.0
0
ARC
8
0
10
3411.070738
20
1250.383476
30
0.0
40
0.300000
50
180.000000
51
270.000000
0
LINE
8
0
10
3411.070738
20
1250.083476
30
0.0
11
3415.920738
21
1250.083476
31
0.0
0
ARC
8
0
10
3415.920738
20
1250.383476
30
0.0
40
0.300000
50
270.000000
51
360.000000
0
LINE
8
0
10
3416.220738
20
1250.383476
30
0.0
11
3416.220738
21
1261.783476
31
0.0
0
ARC
8
0
10
3417.720738
20
1261.783476
30
0.0
40
1.500000
50
90.000000
51
180.000000
0
LINE
8
0
10
3417.720738
20
1263.283476
30
0.0
11
3422.470738
21
1263.283476
31
0.0
0
ARC
8
0
10
3422.470738
20
1263.583476
30
0.0
40
0.300000
50
270.000000
51
360.000000
0
LINE
8
0
10
3422.770738
20
1263.583476
30
0.0
11
3422.770738
21
1273.263220
31
0.0
0
ARC
8
0
10
3422.470738
20
1273.263220
30
0.0
40
0.300000
50
360.000000
51
75.000000
0
ARC
8
0
10
3432.889497
20
1242.533476
30
0.0
40
0.300000
50
149.382212
51
210.617788
0
ARC
8
0
10
3431.770738
20
1243.195577
30
0.0
40
1.000000
50
329.382212
51
360.000000
0
LINE
8
0
10
3432.770738
20
1243.195577
30
0.0
11
3432.770738
21
1244.505361
31
0.0
0
ARC
8
0
10
3432.570738
20
1244.505361
30
0.0
40
0.200000
50
360.000000
51
180.000000
0
LINE
8
0
10
3432.370834
20
1244.499171
30
0.0
11
3430.694841
21
1243.476938
31
0.0
0
ARC
8
0
10
3430.538627
20
1243.733057
30
0.0
40
0.300000
50
270.000000
51
301.380132
0
LINE
8
0
10
3430.538627
20
1243.433057
30
0.0
11
3430.470738
21
1243.433057
31
0.0
0
ARC
8
0
10
3430.470738
20
1243.633057
30
0.0
40
0.200000
50
180.000000
51
270.000000
0
LINE
8
0
10
3430.270738
20
1243.633057
30
0.0
11
3430.270738
21
1248.133057
31
0.0
0
ARC
8
0
10
3430.270738
20
1248.433057
30
0.0
40
0.300000
50
71.341100
51
270.000000
0
LINE
8
0
10
3430.366718
20
1248.717289
30
0.0
11
3430.650950
21
1248.621309
31
0.0
0
ARC
8
0
10
3430.554970
20
1248.337077
30
0.0
40
0.300000
50
49.517123
51
71.341100
0
LINE
8
0
10
3430.749736
20
1248.565257
30
0.0
11
3432.353939
21
1247.195968
31
0.0
0
ARC
8
0
10
3432.224094
20
1247.043848
30
0.0
40
0.200000
50
356.341100
51
49.517123
0
LINE
8
0
10
3432.423687
20
1247.031085
30
0.0
11
3432.413758
21
1246.875820
31
0.0
0
ARC
8
0
10
3432.559082
20
1246.866527
30
0.0
40
0.145621
50
180.000000
51
293.954815
0
LINE
8
0
10
3432.618206
20
1246.733449
30
0.0
11
3433.628662
21
1247.182379
31
0.0
0
ARC
8
0
10
3433.506857
20
1247.456538
30
0.0
40
0.300000
50
293.954815
51
326.324352
0
LINE
8
0
10
3433.756514
20
1247.290191
30
0.0
11
3435.229839
21
1249.501384
31
0.0
0
ARC
8
0
10
3434.980182
20
1249.667731
30
0.0
40
0.300000
50
326.324352
51
90.000000
0
LINE
8
0
10
3434.980182
20
1249.967731
30
0.0
11
3433.791385
21
1249.967731
31
0.0
0
ARC
8
0
10
3433.791385
20
1249.467731
30
0.0
40
0.500000
50
90.000000
51
129.784920
0
ARC
8
0
10
3432.191617
20
1251.388861
30
0.0
40
2.000000
50
238.720368
51
309.784920
0
LINE
8
0
10
3431.153186
20
1249.679574
30
0.0
11
3430.631327
21
1249.996615
31
0.0
0
LINE
8
0
10
3430.564617
20
1250.042238
30
0.0
11
3430.631327
21
1249.996615
31
0.0
0
ARC
8
0
10
3430.442985
20
1249.883476
30
0.0
40
0.200000
50
52.543296
51
90.000000
0
LINE
8
0
10
3430.442985
20
1250.083476
30
0.0
11
3422.420738
21
1250.083476
31
0.0
0
LINE
8
0
10
3422.420738
20
1250.083476
30
0.0
11
3422.420738
21
1251.068985
31
0.0
0
LINE
8
0
10
3422.420738
20
1251.068985
30
0.0
11
3420.920738
21
1251.333476
31
0.0
0
LINE
8
0
10
3420.920738
20
1251.333476
30
0.0
11
3420.920738
21
1250.083476
31
0.0
0
LINE
8
0
10
3420.920738
20
1250.083476
30
0.0
11
3418.120738
21
1250.083476
31
0.0
0
ARC
8
0
10
3418.120738
20
1250.383476
30
0.0
40
0.300000
50
180.000000
51
270.000000
0
LINE
8
0
10
3417.820738
20
1250.383476
30
0.0
11
3417.820738
21
1261.633476
31
0.0
0
ARC
8
0
10
3418.120738
20
1261.633476
30
0.0
40
0.300000
50
90.000000
51
180.000000
0
LINE
8
0
10
3418.120738
20
1261.933476
30
0.0
11
3420.920738
21
1261.933476
31
0.0
0
LINE
8
0
10
3420.920738
20
1261.933476
30
0.0
11
3420.920738
21
1260.833476
31
0.0
0
LINE
8
0
10
3420.920738
20
1260.833476
30
0.0
11
3422.220738
21
1261.062701
31
0.0
0
LINE
8
0
10
3422.220738
20
1261.062701
30
0.0
11
3422.220738
21
1261.933476
31
0.0
0
LINE
8
0
10
3422.220738
20
1261.933476
30
0.0
11
3422.809234
21
1261.933476
31
0.0
0
ARC
8
0
10
3423.270738
20
1261.741086
30
0.0
40
0.500000
50
22.630008
51
157.369992
0
LINE
8
0
10
3423.732243
20
1261.933476
30
0.0
11
3423.970738
21
1261.933476
31
0.0
0
ARC
8
0
10
3423.970738
20
1262.233476
30
0.0
40
0.300000
50
270.000000
51
360.000000
0
LINE
8
0
10
3424.270738
20
1262.233476
30
0.0
11
3424.270738
21
1274.414211
31
0.0
0
ARC
8
0
10
3423.970738
20
1274.414211
30
0.0
40
0.300000
50
360.000000
51
75.000000
0
LINE
8
0
10
3424.048384
20
1274.703989
30
0.0
11
3417.288376
21
1276.515327
31
0.0
0
ARC
8
0
10
3416.770738
20
1274.583476
30
0.0
40
2.000000
50
75.000000
51
105.000000
0
LINE
8
0
10
3416.253100
20
1276.515327
30
0.0
11
3409.493093
21
1274.703989
31
0.0
0
ARC
8
0
10
3409.570738
20
1274.414211
30
0.0
40
0.300000
50
105.000000
51
180.000000
0
LINE
8
0
10
3409.270738
20
1274.414211
30
0.0
11
3409.270738
21
1250.493247
31
0.0
0
ARC
8
0
10
3408.770738
20
1250.493247
30
0.0
40
0.500000
50
270.000000
51
360.000000
0
LINE
8
0
10
3408.761063
20
1249.993340
30
0.0
11
3394.261063
21
1250.273985
31
0.0
0
ARC
8
0
10
3394.270738
20
1250.773892
30
0.0
40
0.500000
50
180.000000
51
270.000000
0
LINE
8
0
10
3393.770738
20
1250.773892
30
0.0
11
3393.770738
21
1272.083476
31
0.0
0
ARC
8
0
10
3393.770738
20
1272.783476
30
0.0
40
0.700000
50
270.000000
51
90.000000
0
LINE
8
0
10
3393.770738
20
1273.483476
30
0.0
11
3393.770738
21
1275.983476
31
0.0
0
ARC
8
0
10
3393.270738
20
1275.983476
30
0.0
40
0.500000
50
360.000000
51
90.000000
0
LINE
8
0
10
3393.270738
20
1276.483476
30
0.0
11
3392.770738
21
1276.483476
31
0.0
0
ARC
8
0
10
3392.770738
20
1275.983476
30
0.0
40
0.500000
50
90.000000
51
180.000000
0
LINE
8
0
10
3392.270738
20
1275.983476
30
0.0
11
3392.270738
21
1249.483476
31
0.0
0
ARC
8
0
10
3393.270738
20
1249.483476
30
0.0
40
1.000000
50
180.000000
51
270.000000
0
LINE
8
0
10
3393.270738
20
1248.483476
30
0.0
11
3408.770738
21
1248.483476
31
0.0
0
ARC
8
0
10
3408.770738
20
1247.983476
30
0.0
40
0.500000
50
360.000000
51
90.000000
0
LINE
8
0
10
3409.270738
20
1247.983476
30
0.0
11
3409.270738
21
1230.283476
31
0.0
0
ARC
8
0
10
3409.570738
20
1230.283476
30
0.0
40
0.300000
50
180.000000
51
270.000000
0
LINE
8
0
10
3409.570738
20
1229.983476
30
0.0
11
3412.063631
21
1229.983476
31
0.0
0
ARC
8
0
10
3412.063631
20
1230.483476
30
0.0
40
0.500000
50
270.000000
51
315.000000
0
LINE
8
0
10
3412.417185
20
1230.129922
30
0.0
11
3413.124292
21
1230.837029
31
0.0
0
ARC
8
0
10
3412.770738
20
1231.190582
30
0.0
40
0.500000
50
315.000000
51
360.000000
0
LINE
8
0
10
3413.270738
20
1231.190582
30
0.0
11
3413.270738
21
1231.983476
31
0.0
0
LINE
8
0
10
3413.270738
20
1231.983476
30
0.0
11
3411.270738
21
1231.983476
31
0.0
0
LINE
8
0
10
3411.270738
20
1231.983476
30
0.0
11
3411.270738
21
1234.983476
31
0.0
0
LINE
8
0
10
3411.270738
20
1234.983476
30
0.0
11
3427.270738
21
1234.983476
31
0.0
0
LINE
8
0
10
3427.270738
20
1234.983476
30
0.0
11
3427.270738
21
1231.983476
31
0.0
0
LINE
8
0
10
3427.270738
20
1231.983476
30
0.0
11
3425.270738
21
1231.983476
31
0.0
0
LINE
8
0
10
3425.270738
20
1231.983476
30
0.0
11
3425.270738
21
1231.190582
31
0.0
0
ARC
8
0
10
3425.770738
20
1231.190582
30
0.0
40
0.500000
50
180.000000
51
225.000000
0
LINE
8
0
10
3425.417185
20
1230.837029
30
0.0
11
3426.124292
21
1230.129922
31
0.0
0
ARC
8
0
10
3426.477845
20
1230.483476
30
0.0
40
0.500000
50
225.000000
51
270.000000
0
LINE
8
0
10
3426.477845
20
1229.983476
30
0.0
11
3428.570738
21
1229.983476
31
0.0
0
ARC
8
0
10
3428.570738
20
1230.483476
30
0.0
40
0.500000
50
270.000000
51
360.000000
0
LINE
8
0
10
3429.070738
20
1230.483476
30
0.0
11
3429.070738
21
1234.983476
31
0.0
0
LINE
8
0
10
3429.070738
20
1234.983476
30
0.0
11
3430.442985
21
1234.983476
31
0.0
0
ARC
8
0
10
3430.442985
20
1235.183476
30
0.0
40
0.200000
50
270.000000
51
307.456704
0
LINE
8
0
10
3430.631327
20
1235.070336
30
0.0
11
3430.564617
21
1235.024713
31
0.0
0
LINE
8
0
10
3430.631327
20
1235.070336
30
0.0
11
3431.153186
21
1235.387377
31
0.0
0
ARC
8
0
10
3432.191617
20
1233.678090
30
0.0
40
2.000000
50
50.215080
51
121.279632
0
ARC
8
0
10
3433.791385
20
1235.599220
30
0.0
40
0.500000
50
230.215080
51
270.000000
0
LINE
8
0
10
3433.791385
20
1235.099220
30
0.0
11
3434.980182
21
1235.099220
31
0.0
0
ARC
8
0
10
3434.980182
20
1235.399220
30
0.0
40
0.300000
50
270.000000
51
33.675648
0
LINE
8
0
10
3435.229839
20
1235.565567
30
0.0
11
3433.756514
21
1237.776760
31
0.0
0
ARC
8
0
10
3433.506857
20
1237.610413
30
0.0
40
0.300000
50
33.675648
51
66.045185
0
LINE
8
0
10
3433.628662
20
1237.884573
30
0.0
11
3432.618206
21
1238.333502
31
0.0
0
ARC
8
0
10
3432.559082
20
1238.200424
30
0.0
40
0.145621
50
66.045185
51
180.000000
0
LINE
8
0
10
3432.413758
20
1238.191131
30
0.0
11
3432.423687
21
1238.035866
31
0.0
0
ARC
8
0
10
3432.224094
20
1238.023103
30
0.0
40
0.200000
50
310.482877
51
3.658900
0
LINE
8
0
10
3432.353939
20
1237.870983
30
0.0
11
3430.749736
21
1236.501694
31
0.0
0
ARC
8
0
10
3430.554970
20
1236.729874
30
0.0
40
0.300000
50
288.658900
51
310.482877
0
LINE
8
0
10
3430.650950
20
1236.445642
30
0.0
11
3430.366718
21
1236.349662
31
0.0
0
ARC
8
0
10
3430.270738
20
1236.633894
30
0.0
40
0.300000
50
90.000000
51
288.658900
0
LINE
8
0
10
3430.270738
20
1236.933894
30
0.0
11
3430.270738
21
1241.433894
31
0.0
0
ARC
8
0
10
3430.470738
20
1241.433894
30
0.0
40
0.200000
50
90.000000
51
180.000000
0
LINE
8
0
10
3430.470738
20
1241.633894
30
0.0
11
3430.538627
21
1241.633894
31
0.0
0
ARC
8
0
10
3430.538627
20
1241.333894
30
0.0
40
0.300000
50
58.619868
51
90.000000
0
LINE
8
0
10
3430.694841
20
1241.590013
30
0.0
11
3432.370834
21
1240.567780
31
0.0
0
ARC
8
0
10
3432.570738
20
1240.561590
30
0.0
40
0.200000
50
180.000000
51
360.000000
0
LINE
8
0
10
3432.770738
20
1240.561590
30
0.0
11
3432.770738
21
1241.871374
31
0.0
0
ARC
8
0
10
3431.770738
20
1241.871374
30
0.0
40
1.000000
50
360.000000
51
30.617788
0
LINE
8
0
10
3482.320738
20
1248.583476
30
0.0
11
3493.745738
21
1248.583476
31
0.0
0
LINE
8
0
10
3493.745738
20
1248.583476
30
0.0
11
3494.176055
21
1246.862208
31
0.0
0
ARC
8
0
10
3494.661126
20
1246.983476
30
0.0
40
0.500000
50
194.036244
51
270.000000
0
LINE
8
0
10
3494.661126
20
1246.483476
30
0.0
11
3495.770738
21
1246.483476
31
0.0
0
LINE
8
0
10
3495.770738
20
1246.483476
30
0.0
11
3495.770738
21
1248.483476
31
0.0
0
LINE
8
0
10
3495.770738
20
1248.483476
30
0.0
11
3498.770738
21
1248.483476
31
0.0
0
LINE
8
0
10
3498.770738
20
1248.483476
30
0.0
11
3498.770738
21
1248.583476
31
0.0
0
LINE
8
0
10
3498.770738
20
1248.583476
30
0.0
11
3510.770738
21
1248.583476
31
0.0
0
LINE
8
0
10
3510.770738
20
1248.583476
30
0.0
11
3510.770738
21
1248.483476
31
0.0
0
LINE
8
0
10
3510.770738
20
1248.483476
30
0.0
11
3513.770738
21
1248.483476
31
0.0
0
LINE
8
0
10
3513.770738
20
1248.483476
30
0.0
11
3513.770738
21
1236.483476
31
0.0
0
LINE
8
0
10
3513.770738
20
1236.483476
30
0.0
11
3482.320738
21
1236.483476
31
0.0
0
LINE
8
0
10
3482.320738
20
1236.483476
30
0.0
11
3482.320738
21
1248.583476
31
0.0
0
LINE
8
0
10
3481.220738
20
1236.483476
30
0.0
11
3449.770738
21
1236.483476
31
0.0
0
LINE
8
0
10
3449.770738
20
1236.483476
30
0.0
11
3449.770738
21
1248.483476
31
0.0
0
LINE
8
0
10
3449.770738
20
1248.483476
30
0.0
11
3467.770738
21
1248.483476
31
0.0
0
LINE
8
0
10
3467.770738
20
1248.483476
30
0.0
11
3467.770738
21
1246.483476
31
0.0
0
LINE
8
0
10
3467.770738
20
1246.483476
30
0.0
11
3468.880350
21
1246.483476
31
0.0
0
ARC
8
0
10
3468.880350
20
1246.983476
30
0.0
40
0.500000
50
270.000000
51
345.963757
0
LINE
8
0
10
3469.365421
20
1246.862208
30
0.0
11
3469.795738
21
1248.583476
31
0.0
0
LINE
8
0
10
3469.795738
20
1248.583476
30
0.0
11
3481.220738
21
1248.583476
31
0.0
0
LINE
8
0
10
3481.220738
20
1248.583476
30
0.0
11
3481.220738
21
1236.483476
31
0.0
0
ARC
8
0
10
3514.470738
20
1273.261942
30
0.0
40
0.300000
50
360.000000
51
162.626341
0
LINE
8
0
10
3514.184425
20
1273.351523
30
0.0
11
3513.836573
21
1272.239736
31
0.0
0
ARC
8
0
10
3513.550260
20
1272.329317
30
0.0
40
0.300000
50
270.000000
51
342.626341
0
LINE
8
0
10
3513.550260
20
1272.029317
30
0.0
11
3513.070738
21
1272.029317
31
0.0
0
ARC
8
0
10
3513.070738
20
1272.329317
30
0.0
40
0.300000
50
180.000000
51
270.000000
0
LINE
8
0
10
3512.770738
20
1272.329317
30
0.0
11
3512.770738
21
1274.029317
31
0.0
0
LINE
8
0
10
3512.770738
20
1274.029317
30
0.0
11
3512.560516
21
1274.085646
31
0.0
0
LINE
8
0
10
3512.560516
20
1274.085646
30
0.0
11
3512.270738
21
1274.463292
31
0.0
0
LINE
8
0
10
3512.270738
20
1274.463292
30
0.0
11
3511.980960
21
1274.240937
31
0.0
0
LINE
8
0
10
3511.980960
20
1274.240937
30
0.0
11
3508.900148
21
1275.066439
31
0.0
0
ARC
8
0
10
3508.770738
20
1274.583476
30
0.0
40
0.500000
50
75.000000
51
105.000000
0
LINE
8
0
10
3508.641329
20
1275.066439
30
0.0
11
3505.560516
21
1274.240937
31
0.0
0
LINE
8
0
10
3505.560516
20
1274.240937
30
0.0
11
3505.270738
21
1274.463292
31
0.0
0
LINE
8
0
10
3505.270738
20
1274.463292
30
0.0
11
3504.980960
21
1274.085646
31
0.0
0
LINE
8
0
10
3504.980960
20
1274.085646
30
0.0
11
3504.770738
21
1274.029317
31
0.0
0
LINE
8
0
10
3504.770738
20
1274.029317
30
0.0
11
3504.770738
21
1272.329317
31
0.0
0
ARC
8
0
10
3504.470738
20
1272.329317
30
0.0
40
0.300000
50
270.000000
51
360.000000
0
LINE
8
0
10
3504.470738
20
1272.029317
30
0.0
11
3503.991216
21
1272.029317
31
0.0
0
ARC
8
0
10
3503.991216
20
1272.329317
30
0.0
40
0.300000
50
197.373659
51
270.000000
0
LINE
8
0
10
3503.704903
20
1272.239736
30
0.0
11
3503.357052
21
1273.351523
31
0.0
0
ARC
8
0
10
3503.070738
20
1273.261942
30
0.0
40
0.300000
50
17.373659
51
180.000000
0
LINE
8
0
10
3502.770738
20
1273.261942
30
0.0
11
3502.770738
21
1265.063102
31
0.0
0
ARC
8
0
10
3503.270738
20
1265.063102
30
0.0
40
0.500000
50
180.000000
51
225.000000
0
LINE
8
0
10
3502.917185
20
1264.709548
30
0.0
11
3504.255390
21
1263.371344
31
0.0
0
ARC
8
0
10
3504.467522
20
1263.583476
30
0.0
40
0.300000
50
225.000000
51
270.000000
0
LINE
8
0
10
3504.467522
20
1263.283476
30
0.0
11
3513.073955
21
1263.283476
31
0.0
0
ARC
8
0
10
3513.073955
20
1263.583476
30
0.0
40
0.300000
50
270.000000
51
315.000000
0
LINE
8
0
10
3513.286087
20
1263.371344
30
0.0
11
3514.624292
21
1264.709548
31
0.0
0
ARC
8
0
10
3514.270738
20
1265.063102
30
0.0
40
0.500000
50
315.000000
51
360.000000
0
LINE
8
0
10
3514.770738
20
1265.063102
30
0.0
11
3514.770738
21
1273.261942
31
0.0
0
ARC
8
0
10
3468.470738
20
1273.261942
30
0.0
40
0.300000
50
360.000000
51
162.626341
0
LINE
8
0
10
3468.184425
20
1273.351523
30
0.0
11
3467.836573
21
1272.239736
31
0.0
0
ARC
8
0
10
3467.550260
20
1272.329317
30
0.0
40
0.300000
50
270.000000
51
342.626341
0
LINE
8
0
10
3467.550260
20
1272.029317
30
0.0
11
3467.070738
21
1272.029317
31
0.0
0
ARC
8
0
10
3467.070738
20
1272.329317
30
0.0
40
0.300000
50
180.000000
51
270.000000
0
LINE
8
0
10
3466.770738
20
1272.329317
30
0.0
11
3466.770738
21
1274.029317
31
0.0
0
LINE
8
0
10
3466.770738
20
1274.029317
30
0.0
11
3466.560516
21
1274.085646
31
0.0
0
LINE
8
0
10
3466.560516
20
1274.085646
30
0.0
11
3466.270738
21
1274.463292
31
0.0
0
LINE
8
0
10
3466.270738
20
1274.463292
30
0.0
11
3465.980960
21
1274.240937
31
0.0
0
LINE
8
0
10
3465.980960
20
1274.240937
30
0.0
11
3462.900148
21
1275.066439
31
0.0
0
ARC
8
0
10
3462.770738
20
1274.583476
30
0.0
40
0.500000
50
75.000000
51
105.000000
0
LINE
8
0
10
3462.641329
20
1275.066439
30
0.0
11
3459.560516
21
1274.240937
31
0.0
0
LINE
8
0
10
3459.560516
20
1274.240937
30
0.0
11
3459.270738
21
1274.463292
31
0.0
0
LINE
8
0
10
3459.270738
20
1274.463292
30
0.0
11
3458.980960
21
1274.085646
31
0.0
0
LINE
8
0
10
3458.980960
20
1274.085646
30
0.0
11
3458.770738
21
1274.029317
31
0.0
0
LINE
8
0
10
3458.770738
20
1274.029317
30
0.0
11
3458.770738
21
1272.329317
31
0.0
0
ARC
8
0
10
3458.470738
20
1272.329317
30
0.0
40
0.300000
50
270.000000
51
360.000000
0
LINE
8
0
10
3458.470738
20
1272.029317
30
0.0
11
3457.991216
21
1272.029317
31
0.0
0
ARC
8
0
10
3457.991216
20
1272.329317
30
0.0
40
0.300000
50
197.373659
51
270.000000
0
LINE
8
0
10
3457.704903
20
1272.239736
30
0.0
11
3457.357052
21
1273.351523
31
0.0
0
ARC
8
0
10
3457.070738
20
1273.261942
30
0.0
40
0.300000
50
17.373659
51
180.000000
0
LINE
8
0
10
3456.770738
20
1273.261942
30
0.0
11
3456.770738
21
1265.063102
31
0.0
0
ARC
8
0
10
3457.270738
20
1265.063102
30
0.0
40
0.500000
50
180.000000
51
225.000000
0
LINE
8
0
10
3456.917185
20
1264.709548
30
0.0
11
3458.255390
21
1263.371344
31
0.0
0
ARC
8
0
10
3458.467522
20
1263.583476
30
0.0
40
0.300000
50
225.000000
51
270.000000
0
LINE
8
0
10
3458.467522
20
1263.283476
30
0.0
11
3468.270738
21
1263.283476
31
0.0
0
ARC
8
0
10
3468.270738
20
1263.783476
30
0.0
40
0.500000
50
270.000000
51
360.000000
0
LINE
8
0
10
3468.770738
20
1263.783476
30
0.0
11
3468.770738
21
1273.261942
31
0.0
0
ARC
8
0
10
3446.770738
20
1243.195577
30
0.0
40
1.000000
50
180.000000
51
210.617788
0
LINE
8
0
10
3445.770738
20
1243.195577
30
0.0
11
3445.770738
21
1244.505361
31
0.0
0
ARC
8
0
10
3445.970738
20
1244.505361
30
0.0
40
0.200000
50
360.000000
51
180.000000
0
LINE
8
0
10
3446.170642
20
1244.499171
30
0.0
11
3447.846635
21
1243.476938
31
0.0
0
ARC
8
0
10
3448.002849
20
1243.733057
30
0.0
40
0.300000
50
238.619868
51
270.000000
0
LINE
8
0
10
3448.002849
20
1243.433057
30
0.0
11
3448.070738
21
1243.433057
31
0.0
0
ARC
8
0
10
3448.070738
20
1243.633057
30
0.0
40
0.200000
50
270.000000
51
360.000000
0
LINE
8
0
10
3448.270738
20
1243.633057
30
0.0
11
3448.270738
21
1248.133057
31
0.0
0
ARC
8
0
10
3448.270738
20
1248.433057
30
0.0
40
0.300000
50
270.000000
51
108.658900
0
LINE
8
0
10
3448.174758
20
1248.717289
30
0.0
11
3447.890526
21
1248.621309
31
0.0
0
ARC
8
0
10
3447.986506
20
1248.337077
30
0.0
40
0.300000
50
108.658900
51
130.482877
0
LINE
8
0
10
3447.791740
20
1248.565257
30
0.0
11
3446.187538
21
1247.195968
31
0.0
0
ARC
8
0
10
3446.317382
20
1247.043848
30
0.0
40
0.200000
50
130.482877
51
183.658900
0
LINE
8
0
10
3446.117790
20
1247.031085
30
0.0
11
3446.127718
21
1246.875820
31
0.0
0
ARC
8
0
10
3445.982394
20
1246.866527
30
0.0
40
0.145621
50
246.045185
51
360.000000
0
LINE
8
0
10
3445.923270
20
1246.733449
30
0.0
11
3444.912815
21
1247.182379
31
0.0
0
ARC
8
0
10
3445.034619
20
1247.456538
30
0.0
40
0.300000
50
213.675648
51
246.045185
0
LINE
8
0
10
3444.784962
20
1247.290191
30
0.0
11
3443.311638
21
1249.501384
31
0.0
0
ARC
8
0
10
3443.561295
20
1249.667731
30
0.0
40
0.300000
50
90.000000
51
213.675648
0
LINE
8
0
10
3443.561295
20
1249.967731
30
0.0
11
3444.750091
21
1249.967731
31
0.0
0
ARC
8
0
10
3444.750091
20
1249.467731
30
0.0
40
0.500000
50
50.215080
51
90.000000
0
ARC
8
0
10
3446.349860
20
1251.388861
30
0.0
40
2.000000
50
230.215080
51
301.279632
0
LINE
8
0
10
3447.388290
20
1249.679574
30
0.0
11
3448.005272
21
1250.054404
31
0.0
0
ARC
8
0
10
3448.109115
20
1249.883476
30
0.0
40
0.200000
50
90.000000
51
121.279632
0
LINE
8
0
10
3448.109115
20
1250.083476
30
0.0
11
3449.770738
21
1250.083476
31
0.0
0
LINE
8
0
10
3449.770738
20
1250.083476
30
0.0
11
3461.770738
21
1249.983476
31
0.0
0
LINE
8
0
10
3461.770738
20
1249.983476
30
0.0
11
3461.770738
21
1261.483476
31
0.0
0
ARC
8
0
10
3461.470738
20
1261.483476
30
0.0
40
0.300000
50
360.000000
51
90.000000
0
LINE
8
0
10
3461.470738
20
1261.783476
30
0.0
11
3457.846201
21
1261.783476
31
0.0
0
ARC
8
0
10
3457.846201
20
1262.083476
30
0.0
40
0.300000
50
225.000000
51
270.000000
0
LINE
8
0
10
3457.634069
20
1261.871344
30
0.0
11
3455.358606
21
1264.146807
31
0.0
0
ARC
8
0
10
3455.570738
20
1264.358939
30
0.0
40
0.300000
50
180.000000
51
225.000000
0
LINE
8
0
10
3455.270738
20
1264.358939
30
0.0
11
3455.270738
21
1274.414211
31
0.0
0
ARC
8
0
10
3455.570738
20
1274.414211
30
0.0
40
0.300000
50
105.000000
51
180.000000
0
LINE
8
0
10
3455.493093
20
1274.703989
30
0.0
11
3462.253100
21
1276.515327
31
0.0
0
ARC
8
0
10
3462.770738
20
1274.583476
30
0.0
40
2.000000
50
75.000000
51
105.000000
0
LINE
8
0
10
3463.288376
20
1276.515327
30
0.0
11
3470.048384
21
1274.703989
31
0.0
0
ARC
8
0
10
3469.970738
20
1274.414211
30
0.0
40
0.300000
50
360.000000
51
75.000000
0
LINE
8
0
10
3470.270738
20
1274.414211
30
0.0
11
3470.270738
21
1262.233476
31
0.0
0
ARC
8
0
10
3469.970738
20
1262.233476
30
0.0
40
0.300000
50
270.000000
51
360.000000
0
LINE
8
0
10
3469.970738
20
1261.933476
30
0.0
11
3469.732243
21
1261.933476
31
0.0
0
ARC
8
0
10
3469.270738
20
1261.741086
30
0.0
40
0.500000
50
22.630008
51
157.369992
0
LINE
8
0
10
3468.809234
20
1261.933476
30
0.0
11
3468.220738
21
1261.933476
31
0.0
0
LINE
8
0
10
3468.220738
20
1261.933476
30
0.0
11
3468.220738
21
1261.062701
31
0.0
0
LINE
8
0
10
3468.220738
20
1261.062701
30
0.0
11
3466.920738
21
1260.833476
31
0.0
0
LINE
8
0
10
3466.920738
20
1260.833476
30
0.0
11
3466.920738
21
1261.833476
31
0.0
0
LINE
8
0
10
3466.920738
20
1261.833476
30
0.0
11
3464.120738
21
1261.833476
31
0.0
0
ARC
8
0
10
3464.120738
20
1261.533476
30
0.0
40
0.300000
50
90.000000
51
180.000000
0
LINE
8
0
10
3463.820738
20
1261.533476
30
0.0
11
3463.820738
21
1250.383476
31
0.0
0
ARC
8
0
10
3464.120738
20
1250.383476
30
0.0
40
0.300000
50
180.000000
51
270.000000
0
LINE
8
0
10
3464.120738
20
1250.083476
30
0.0
11
3466.920738
21
1250.083476
31
0.0
0
LINE
8
0
10
3466.920738
20
1250.083476
30
0.0
11
3466.920738
21
1251.333476
31
0.0
0
LINE
8
0
10
3466.920738
20
1251.333476
30
0.0
11
3468.420738
21
1251.068985
31
0.0
0
LINE
8
0
10
3468.420738
20
1251.068985
30
0.0
11
3468.420738
21
1250.083476
31
0.0
0
LINE
8
0
10
3468.420738
20
1250.083476
30
0.0
11
3507.770738
21
1250.083476
31
0.0
0
LINE
8
0
10
3507.770738
20
1250.083476
30
0.0
11
3507.770738
21
1261.483476
31
0.0
0
ARC
8
0
10
3507.470738
20
1261.483476
30
0.0
40
0.300000
50
360.000000
51
90.000000
0
LINE
8
0
10
3507.470738
20
1261.783476
30
0.0
11
3503.846201
21
1261.783476
31
0.0
0
ARC
8
0
10
3503.846201
20
1262.083476
30
0.0
40
0.300000
50
225.000000
51
270.000000
0
LINE
8
0
10
3503.634069
20
1261.871344
30
0.0
11
3501.358606
21
1264.146807
31
0.0
0
ARC
8
0
10
3501.570738
20
1264.358939
30
0.0
40
0.300000
50
180.000000
51
225.000000
0
LINE
8
0
10
3501.270738
20
1264.358939
30
0.0
11
3501.270738
21
1274.414211
31
0.0
0
ARC
8
0
10
3501.570738
20
1274.414211
30
0.0
40
0.300000
50
105.000000
51
180.000000
0
LINE
8
0
10
3501.493093
20
1274.703989
30
0.0
11
3508.253100
21
1276.515327
31
0.0
0
ARC
8
0
10
3508.770738
20
1274.583476
30
0.0
40
2.000000
50
75.000000
51
105.000000
0
LINE
8
0
10
3509.288376
20
1276.515327
30
0.0
11
3516.048384
21
1274.703989
31
0.0
0
ARC
8
0
10
3515.970738
20
1274.414211
30
0.0
40
0.300000
50
360.000000
51
75.000000
0
LINE
8
0
10
3516.270738
20
1274.414211
30
0.0
11
3516.270738
21
1264.358939
31
0.0
0
ARC
8
0
10
3515.970738
20
1264.358939
30
0.0
40
0.300000
50
315.000000
51
360.000000
0
LINE
8
0
10
3516.182870
20
1264.146807
30
0.0
11
3513.907407
21
1261.871344
31
0.0
0
ARC
8
0
10
3513.695275
20
1262.083476
30
0.0
40
0.300000
50
270.000000
51
315.000000
0
LINE
8
0
10
3513.695275
20
1261.783476
30
0.0
11
3510.070738
21
1261.783476
31
0.0
0
ARC
8
0
10
3510.070738
20
1261.483476
30
0.0
40
0.300000
50
90.000000
51
180.000000
0
LINE
8
0
10
3509.770738
20
1261.483476
30
0.0
11
3509.770738
21
1250.133476
31
0.0
0
LINE
8
0
10
3509.770738
20
1250.133476
30
0.0
11
3514.996885
21
1249.676247
31
0.0
0
ARC
8
0
10
3514.970738
20
1249.377389
30
0.0
40
0.300000
50
360.000000
51
85.000000
0
LINE
8
0
10
3515.270738
20
1249.377389
30
0.0
11
3515.270738
21
1230.283476
31
0.0
0
ARC
8
0
10
3514.970738
20
1230.283476
30
0.0
40
0.300000
50
270.000000
51
360.000000
0
LINE
8
0
10
3514.970738
20
1229.983476
30
0.0
11
3512.477845
21
1229.983476
31
0.0
0
ARC
8
0
10
3512.477845
20
1230.483476
30
0.0
40
0.500000
50
225.000000
51
270.000000
0
LINE
8
0
10
3512.124292
20
1230.129922
30
0.0
11
3511.417185
21
1230.837029
31
0.0
0
ARC
8
0
10
3511.770738
20
1231.190582
30
0.0
40
0.500000
50
180.000000
51
225.000000
0
LINE
8
0
10
3511.270738
20
1231.190582
30
0.0
11
3511.270738
21
1231.983476
31
0.0
0
LINE
8
0
10
3511.270738
20
1231.983476
30
0.0
11
3513.270738
21
1231.983476
31
0.0
0
LINE
8
0
10
3513.270738
20
1231.983476
30
0.0
11
3513.270738
21
1234.983476
31
0.0
0
LINE
8
0
10
3513.270738
20
1234.983476
30
0.0
11
3497.270738
21
1234.983476
31
0.0
0
LINE
8
0
10
3497.270738
20
1234.983476
30
0.0
11
3497.270738
21
1231.983476
31
0.0
0
LINE
8
0
10
3497.270738
20
1231.983476
30
0.0
11
3499.270738
21
1231.983476
31
0.0
0
LINE
8
0
10
3499.270738
20
1231.983476
30
0.0
11
3499.270738
21
1231.190582
31
0.0
0
ARC
8
0
10
3498.770738
20
1231.190582
30
0.0
40
0.500000
50
315.000000
51
360.000000
0
LINE
8
0
10
3499.124292
20
1230.837029
30
0.0
11
3498.417185
21
1230.129922
31
0.0
0
ARC
8
0
10
3498.063631
20
1230.483476
30
0.0
40
0.500000
50
270.000000
51
315.000000
0
LINE
8
0
10
3498.063631
20
1229.983476
30
0.0
11
3495.970738
21
1229.983476
31
0.0
0
ARC
8
0
10
3495.970738
20
1230.483476
30
0.0
40
0.500000
50
180.000000
51
270.000000
0
LINE
8
0
10
3495.470738
20
1230.483476
30
0.0
11
3495.470738
21
1234.983476
31
0.0
0
LINE
8
0
10
3495.470738
20
1234.983476
30
0.0
11
3469.270738
21
1234.983476
31
0.0
0
LINE
8
0
10
3469.270738
20
1234.983476
30
0.0
11
3469.270738
21
1231.983476
31
0.0
0
LINE
8
0
10
3469.270738
20
1231.983476
30
0.0
11
3471.270738
21
1231.983476
31
0.0
0
LINE
8
0
10
3471.270738
20
1231.983476
30
0.0
11
3471.270738
21
1231.190582
31
0.0
0
ARC
8
0
10
3470.770738
20
1231.190582
30
0.0
40
0.500000
50
315.000000
51
360.000000
0
LINE
8
0
10
3471.124292
20
1230.837029
30
0.0
11
3470.417185
21
1230.129922
31
0.0
0
ARC
8
0
10
3470.063631
20
1230.483476
30
0.0
40
0.500000
50
270.000000
51
315.000000
0
LINE
8
0
10
3470.063631
20
1229.983476
30
0.0
11
3466.677845
21
1229.983476
31
0.0
0
ARC
8
0
10
3466.677845
20
1230.483476
30
0.0
40
0.500000
50
225.000000
51
270.000000
0
LINE
8
0
10
3466.324292
20
1230.129922
30
0.0
11
3465.617185
21
1230.837029
31
0.0
0
ARC
8
0
10
3465.970738
20
1231.190582
30
0.0
40
0.500000
50
180.000000
51
225.000000
0
LINE
8
0
10
3465.470738
20
1231.190582
30
0.0
11
3465.470738
21
1231.983476
31
0.0
0
LINE
8
0
10
3465.470738
20
1231.983476
30
0.0
11
3467.470738
21
1231.983476
31
0.0
0
LINE
8
0
10
3467.470738
20
1231.983476
30
0.0
11
3467.470738
21
1234.983476
31
0.0
0
LINE
8
0
10
3467.470738
20
1234.983476
30
0.0
11
3448.109115
21
1234.983476
31
0.0
0
ARC
8
0
10
3448.109115
20
1235.183476
30
0.0
40
0.200000
50
238.720368
51
270.000000
0
LINE
8
0
10
3448.005272
20
1235.012547
30
0.0
11
3447.388290
21
1235.387377
31
0.0
0
ARC
8
0
10
3446.349860
20
1233.678090
30
0.0
40
2.000000
50
58.720368
51
129.784920
0
ARC
8
0
10
3444.750091
20
1235.599220
30
0.0
40
0.500000
50
270.000000
51
309.784920
0
LINE
8
0
10
3444.750091
20
1235.099220
30
0.0
11
3443.561295
21
1235.099220
31
0.0
0
ARC
8
0
10
3443.561295
20
1235.399220
30
0.0
40
0.300000
50
146.324352
51
270.000000
0
LINE
8
0
10
3443.311638
20
1235.565567
30
0.0
11
3444.784962
21
1237.776760
31
0.0
0
ARC
8
0
10
3445.034619
20
1237.610413
30
0.0
40
0.300000
50
113.954815
51
146.324352
0
LINE
8
0
10
3444.912815
20
1237.884573
30
0.0
11
3445.923270
21
1238.333502
31
0.0
0
ARC
8
0
10
3445.982394
20
1238.200424
30
0.0
40
0.145621
50
360.000000
51
113.954815
0
LINE
8
0
10
3446.127718
20
1238.191131
30
0.0
11
3446.117790
21
1238.035866
31
0.0
0
ARC
8
0
10
3446.317382
20
1238.023103
30
0.0
40
0.200000
50
176.341100
51
229.517123
0
LINE
8
0
10
3446.187538
20
1237.870983
30
0.0
11
3447.791740
21
1236.501694
31
0.0
0
ARC
8
0
10
3447.986506
20
1236.729874
30
0.0
40
0.300000
50
229.517123
51
251.341100
0
LINE
8
0
10
3447.890526
20
1236.445642
30
0.0
11
3448.174758
21
1236.349662
31
0.0
0
ARC
8
0
10
3448.270738
20
1236.633894
30
0.0
40
0.300000
50
251.341100
51
90.000000
0
LINE
8
0
10
3448.270738
20
1236.933894
30
0.0
11
3448.270738
21
1241.433894
31
0.0
0
ARC
8
0
10
3448.070738
20
1241.433894
30
0.0
40
0.200000
50
360.000000
51
90.000000
0
LINE
8
0
10
3448.070738
20
1241.633894
30
0.0
11
3448.002849
21
1241.633894
31
0.0
0
ARC
8
0
10
3448.002849
20
1241.333894
30
0.0
40
0.300000
50
90.000000
51
121.380132
0
LINE
8
0
10
3447.846635
20
1241.590013
30
0.0
11
3446.170642
21
1240.567780
31
0.0
0
ARC
8
0
10
3445.970738
20
1240.561590
30
0.0
40
0.200000
50
180.000000
51
360.000000
0
LINE
8
0
10
3445.770738
20
1240.561590
30
0.0
11
3445.770738
21
1241.871374
31
0.0
0
ARC
8
0
10
3446.770738
20
1241.871374
30
0.0
40
1.000000
50
149.382212
51
180.000000
0
ARC
8
0
10
3445.651979
20
1242.533476
30
0.0
40
0.300000
50
329.382212
51
30.617788
0
ATTDEF
8
0
10
0.000000
20
0.000000
30
0.0
40
3.5
1

3

2
PANE_WIDTH:0
70
0
0
ATTDEF
8
0
10
0.000000
20
0.000000
30
0.0
40
3.5
1

3

2
MIN_VETRO:0
70
0
0
ATTDEF
8
0
10
0.000000
20
0.000000
30
0.0
40
3.5
1

3

2
MAX_VETRO:0
70
0
0
ATTDEF
8
0
10
0.000000
20
0.000000
30
0.0
40
3.5
1

3

2
JX:0
70
0
0
ATTDEF
8
0
10
0.000000
20
0.000000
30
0.0
40
3.5
1

3

2
WX:0
70
0
0
ATTDEF
8
0
10
0.000000
20
0.000000
30
0.0
40
3.5
1

3

2
JY:0
70
0
0
ATTDEF
8
0
10
0.000000
20
0.000000
30
0.0
40
3.5
1

3

2
WY:0
70
0
0
ATTDEF
8
0
10
0.000000
20
0.000000
30
0.0
40
3.5
1

3

2
DESC:M.tricar.vtna.c/condensacion
70
0
0
ATTDEF
8
0
10
0.000000
20
0.000000
30
0.0
40
3.5
1

3

2
DENS:2.4885
70
0
0
ATTDEF
8
0
10
0.000000
20
0.000000
30
0.0
40
3.5
1

3

2
TDEV:107.96
70
0
0
ATTDEF
8
0
10
0.000000
20
0.000000
30
0.0
40
3.5
1

3

2
TDEV2:0
70
0
0
ATTDEF
8
0
10
0.000000
20
0.000000
30
0.0
40
3.5
1

3

2
TDEV3:0
70
0
0
ATTDEF
8
0
10
0.000000
20
0.000000
30
0.0
40
3.5
1

3

2
TDEV4:0
70
0
0
ATTDEF
8
0
10
0.000000
20
0.000000
30
0.0
40
3.5
1

3

2
TDEV5:0
70
0
0
ATTDEF
8
0
10
0.000000
20
0.000000
30
0.0
40
3.5
1

3

2
PANE_WIDTH:0
70
0
0
ATTDEF
8
0
10
0.000000
20
0.000000
30
0.0
40
3.5
1

3

2
MIN_VETRO:0
70
0
0
ATTDEF
8
0
10
0.000000
20
0.000000
30
0.0
40
3.5
1

3

2
MAX_VETRO:0
70
0
0
ATTDEF
8
0
10
0.000000
20
0.000000
30
0.0
40
3.5
1

3

2
JX:0
70
0
0
ATTDEF
8
0
10
0.000000
20
0.000000
30
0.0
40
3.5
1

3

2
WX:0
70
0
0
ATTDEF
8
0
10
0.000000
20
0.000000
30
0.0
40
3.5
1

3

2
JY:0
70
0
0
ATTDEF
8
0
10
0.000000
20
0.000000
30
0.0
40
3.5
1

3

2
WY:0
70
0
0
ATTDEF
8
0
10
3426.431862
20
1250.083476
30
0.0
40
3.5
1

3

2
VC_START
70
0
0
ATTDEF
8
0
10
3513.724291
20
1229.983476
30
0.0
40
3.5
1

3

2
VC_END
70
0
0
ATTDEF
8
0
10
3516.270738
20
1229.983476
30
0.0
40
3.5
1

3

2
FP_LCS_ORIG
70
0
0
ATTDEF
8
0
10
3506.270738
20
1229.983476
30
0.0
40
3.5
1

3

2
FP_LCS_HOT
70
0
0
ATTDEF
8
0
10
3516.270738
20
1239.983476
30
0.0
40
3.5
1

3

2
FP_LCS_INTERN
70
0
0
ENDSEC
0
EOF
