0
SECTION
2
ENTITIES
0
LINE
8
0
10
3435.123781
20
1267.237561
30
0.0
11
3437.143882
21
1269.257662
31
0.0
0
ARC
8
0
10
3436.931750
20
1269.469794
30
0.0
40
0.300000
50
315.000000
51
360.000000
0
LINE
8
0
10
3437.231750
20
1269.469794
30
0.0
11
3437.231750
21
1271.749693
31
0.0
0
LINE
8
0
10
3437.231750
20
1271.749693
30
0.0
11
3443.981750
21
1271.749693
31
0.0
0
LINE
8
0
10
3443.981750
20
1271.749693
30
0.0
11
3443.981750
21
1270.748901
31
0.0
0
ARC
8
0
10
3446.181750
20
1270.748901
30
0.0
40
2.200000
50
180.000000
51
265.000000
0
LINE
8
0
10
3445.990008
20
1268.557272
30
0.0
11
3448.531750
21
1268.334899
31
0.0
0
LINE
8
0
10
3448.531750
20
1268.334899
30
0.0
11
3448.531750
21
1239.649693
31
0.0
0
LINE
8
0
10
3448.531750
20
1239.649693
30
0.0
11
3430.672320
21
1239.649693
31
0.0
0
ARC
8
0
10
3430.672320
20
1239.949693
30
0.0
40
0.300000
50
188.209875
51
270.000000
0
ARC
8
0
10
3676.031750
20
1275.349693
30
0.0
40
248.200000
50
181.629648
51
188.209875
0
ARC
8
0
10
3428.232018
20
1268.299693
30
0.0
40
0.300000
50
90.000000
51
180.000000
0
LINE
8
0
10
3428.232018
20
1268.599693
30
0.0
11
3429.631750
21
1268.599693
31
0.0
0
ARC
8
0
10
3429.631750
20
1268.099693
30
0.0
40
0.500000
50
360.000000
51
90.000000
0
LINE
8
0
10
3430.131750
20
1268.099693
30
0.0
11
3430.131750
21
1267.649693
31
0.0
0
ARC
8
0
10
3430.631750
20
1267.649693
30
0.0
40
0.500000
50
180.000000
51
270.000000
0
LINE
8
0
10
3430.631750
20
1267.149693
30
0.0
11
3434.911649
21
1267.149693
31
0.0
0
ARC
8
0
10
3434.911649
20
1267.449693
30
0.0
40
0.300000
50
270.000000
51
315.000000
0
ARC
8
0
10
3431.030587
20
1237.549693
30
0.0
40
0.300000
50
90.000000
51
188.770722
0
LINE
8
0
10
3431.030587
20
1237.849693
30
0.0
11
3436.646001
21
1237.849693
31
0.0
0
LINE
8
0
10
3436.646001
20
1237.849693
30
0.0
11
3436.646001
21
1236.349693
31
0.0
0
LINE
8
0
10
3436.646001
20
1236.349693
30
0.0
11
3437.646001
21
1236.349693
31
0.0
0
LINE
8
0
10
3437.646001
20
1236.349693
30
0.0
11
3437.646001
21
1237.849693
31
0.0
0
LINE
8
0
10
3437.646001
20
1237.849693
30
0.0
11
3459.246001
21
1237.849693
31
0.0
0
LINE
8
0
10
3459.246001
20
1237.849693
30
0.0
11
3459.246001
21
1236.349693
31
0.0
0
LINE
8
0
10
3459.246001
20
1236.349693
30
0.0
11
3460.246001
21
1236.349693
31
0.0
0
LINE
8
0
10
3460.246001
20
1236.349693
30
0.0
11
3460.246001
21
1237.849693
31
0.0
0
LINE
8
0
10
3460.246001
20
1237.849693
30
0.0
11
3465.861415
21
1237.849693
31
0.0
0
ARC
8
0
10
3465.861415
20
1237.549693
30
0.0
40
0.300000
50
351.229278
51
90.000000
0
ARC
8
0
10
3220.860251
20
1275.349693
30
0.0
40
248.200000
50
347.705665
51
351.229278
0
LINE
8
0
10
3463.368189
20
1222.499527
30
0.0
11
3458.941187
21
1202.185812
31
0.0
0
ARC
8
0
10
3458.648067
20
1202.249693
30
0.0
40
0.300000
50
270.000000
51
347.705665
0
LINE
8
0
10
3458.648067
20
1201.949693
30
0.0
11
3438.243935
21
1201.949693
31
0.0
0
ARC
8
0
10
3438.243935
20
1202.249693
30
0.0
40
0.300000
50
192.294335
51
270.000000
0
LINE
8
0
10
3437.950815
20
1202.185812
30
0.0
11
3433.523812
21
1222.499527
31
0.0
0
ARC
8
0
10
3676.031750
20
1275.349693
30
0.0
40
248.200000
50
188.770722
51
192.294335
0
ARC
8
0
10
3220.860251
20
1275.349693
30
0.0
40
250.000000
50
347.705665
51
351.194833
0
ARC
8
0
10
3458.031750
20
1238.611702
30
0.0
40
10.000000
50
351.194833
51
360.000000
0
LINE
8
0
10
3468.031750
20
1238.611702
30
0.0
11
3468.031750
21
1241.299693
31
0.0
0
ARC
8
0
10
3467.731750
20
1241.299693
30
0.0
40
0.300000
50
360.000000
51
90.000000
0
LINE
8
0
10
3467.731750
20
1241.599693
30
0.0
11
3467.031750
21
1241.599693
31
0.0
0
ARC
8
0
10
3467.031750
20
1241.099693
30
0.0
40
0.500000
50
90.000000
51
180.000000
0
LINE
8
0
10
3466.531750
20
1241.099693
30
0.0
11
3466.531750
21
1239.349693
31
0.0
0
LINE
8
0
10
3466.531750
20
1239.349693
30
0.0
11
3462.031750
21
1239.349693
31
0.0
0
LINE
8
0
10
3462.031750
20
1239.349693
30
0.0
11
3462.031750
21
1241.299693
31
0.0
0
ARC
8
0
10
3461.731750
20
1241.299693
30
0.0
40
0.300000
50
360.000000
51
90.000000
0
LINE
8
0
10
3461.731750
20
1241.599693
30
0.0
11
3461.491831
21
1241.599693
31
0.0
0
ARC
8
0
10
3461.491831
20
1241.299693
30
0.0
40
0.300000
50
90.000000
51
155.000000
0
LINE
8
0
10
3461.219938
20
1241.426478
30
0.0
11
3460.531750
21
1239.950654
31
0.0
0
LINE
8
0
10
3460.531750
20
1239.950654
30
0.0
11
3460.531750
21
1239.549693
31
0.0
0
LINE
8
0
10
3460.531750
20
1239.549693
30
0.0
11
3450.531750
21
1239.549693
31
0.0
0
ARC
8
0
10
3450.531750
20
1240.049693
30
0.0
40
0.500000
50
180.000000
51
270.000000
0
LINE
8
0
10
3450.031750
20
1240.049693
30
0.0
11
3450.031750
21
1269.251230
31
0.0
0
ARC
8
0
10
3449.531750
20
1269.251230
30
0.0
40
0.500000
50
360.000000
51
85.000000
0
LINE
8
0
10
3449.575328
20
1269.749327
30
0.0
11
3446.138173
21
1270.050039
31
0.0
0
ARC
8
0
10
3446.181750
20
1270.548137
30
0.0
40
0.500000
50
180.000000
51
265.000000
0
LINE
8
0
10
3445.681750
20
1270.548137
30
0.0
11
3445.681750
21
1271.949693
31
0.0
0
ARC
8
0
10
3445.981750
20
1271.949693
30
0.0
40
0.300000
50
90.000000
51
180.000000
0
LINE
8
0
10
3445.981750
20
1272.249693
30
0.0
11
3447.731750
21
1272.249693
31
0.0
0
ARC
8
0
10
3447.731750
20
1272.549693
30
0.0
40
0.300000
50
270.000000
51
360.000000
0
LINE
8
0
10
3448.031750
20
1272.549693
30
0.0
11
3448.031750
21
1273.249693
31
0.0
0
ARC
8
0
10
3447.731750
20
1273.249693
30
0.0
40
0.300000
50
360.000000
51
90.000000
0
LINE
8
0
10
3447.731750
20
1273.549693
30
0.0
11
3434.838857
21
1273.549693
31
0.0
0
ARC
8
0
10
3434.838857
20
1273.049693
30
0.0
40
0.500000
50
90.000000
51
135.000000
0
LINE
8
0
10
3434.485304
20
1273.403246
30
0.0
11
3433.719618
21
1272.637561
31
0.0
0
ARC
8
0
10
3433.931750
20
1272.425428
30
0.0
40
0.300000
50
135.000000
51
180.000000
0
LINE
8
0
10
3433.631750
20
1272.425428
30
0.0
11
3433.631750
21
1272.049693
31
0.0
0
LINE
8
0
10
3433.631750
20
1272.049693
30
0.0
11
3435.531750
21
1272.049693
31
0.0
0
LINE
8
0
10
3435.531750
20
1272.049693
30
0.0
11
3435.531750
21
1270.049693
31
0.0
0
LINE
8
0
10
3435.531750
20
1270.049693
30
0.0
11
3433.890329
21
1268.408271
31
0.0
0
ARC
8
0
10
3433.748908
20
1268.549693
30
0.0
40
0.200000
50
270.000000
51
315.000000
0
LINE
8
0
10
3433.748908
20
1268.349693
30
0.0
11
3431.631750
21
1268.349693
31
0.0
0
LINE
8
0
10
3431.631750
20
1268.349693
30
0.0
11
3431.631750
21
1269.049693
31
0.0
0
LINE
8
0
10
3431.631750
20
1269.049693
30
0.0
11
3431.054400
21
1270.049693
31
0.0
0
ARC
8
0
10
3430.621387
20
1269.799693
30
0.0
40
0.500000
50
30.000000
51
90.000000
0
LINE
8
0
10
3430.621387
20
1270.299693
30
0.0
11
3428.177262
21
1270.299693
31
0.0
0
ARC
8
0
10
3428.177262
20
1270.599693
30
0.0
40
0.300000
50
182.326036
51
270.000000
0
LINE
8
0
10
3427.877509
20
1270.587517
30
0.0
11
3427.531750
21
1279.099693
31
0.0
0
ARC
8
0
10
3427.531750
20
1279.474693
30
0.0
40
0.375000
50
270.000000
51
90.000000
0
LINE
8
0
10
3427.531750
20
1279.849693
30
0.0
11
3426.531750
21
1279.849693
31
0.0
0
ARC
8
0
10
3426.531750
20
1279.349693
30
0.0
40
0.500000
50
90.000000
51
180.000000
0
LINE
8
0
10
3426.031750
20
1279.349693
30
0.0
11
3426.031750
21
1275.349693
31
0.0
0
ARC
8
0
10
3676.031750
20
1275.349693
30
0.0
40
250.000000
50
180.000000
51
192.294335
0
LINE
8
0
10
3431.765092
20
1222.116246
30
0.0
11
3436.774460
21
1199.130292
31
0.0
0
ARC
8
0
10
3438.240060
20
1199.449693
30
0.0
40
1.500000
50
192.294335
51
270.000000
0
LINE
8
0
10
3438.240060
20
1197.949693
30
0.0
11
3458.651941
21
1197.949693
31
0.0
0
ARC
8
0
10
3458.651941
20
1199.449693
30
0.0
40
1.500000
50
270.000000
51
347.705665
0
LINE
8
0
10
3460.117541
20
1199.130292
30
0.0
11
3465.126909
21
1222.116246
31
0.0
0
ATTDEF
8
0
10
0.000000
20
0.000000
30
0.0
40
3.5
1

3

2
PANE_WIDTH:0
70
0
0
ATTDEF
8
0
10
0.000000
20
0.000000
30
0.0
40
3.5
1

3

2
MIN_VETRO:0
70
0
0
ATTDEF
8
0
10
0.000000
20
0.000000
30
0.0
40
3.5
1

3

2
MAX_VETRO:0
70
0
0
ATTDEF
8
0
10
0.000000
20
0.000000
30
0.0
40
3.5
1

3

2
JX:0
70
0
0
ATTDEF
8
0
10
0.000000
20
0.000000
30
0.0
40
3.5
1

3

2
WX:0
70
0
0
ATTDEF
8
0
10
0.000000
20
0.000000
30
0.0
40
3.5
1

3

2
JY:0
70
0
0
ATTDEF
8
0
10
0.000000
20
0.000000
30
0.0
40
3.5
1

3

2
WY:0
70
0
0
ATTDEF
8
0
10
0.000000
20
0.000000
30
0.0
40
3.5
1

3

2
DESC:Hoja cent.vent.c/ref
70
0
0
ATTDEF
8
0
10
0.000000
20
0.000000
30
0.0
40
3.5
1

3

2
DENS:1.2717
70
0
0
ATTDEF
8
0
10
0.000000
20
0.000000
30
0.0
40
3.5
1

3

2
TDEV:49.03
70
0
0
ATTDEF
8
0
10
0.000000
20
0.000000
30
0.0
40
3.5
1

3

2
TDEV2:0
70
0
0
ATTDEF
8
0
10
0.000000
20
0.000000
30
0.0
40
3.5
1

3

2
TDEV3:0
70
0
0
ATTDEF
8
0
10
0.000000
20
0.000000
30
0.0
40
3.5
1

3

2
TDEV4:0
70
0
0
ATTDEF
8
0
10
0.000000
20
0.000000
30
0.0
40
3.5
1

3

2
TDEV5:0
70
0
0
ATTDEF
8
0
10
0.000000
20
0.000000
30
0.0
40
3.5
1

3

2
PANE_WIDTH:0
70
0
0
ATTDEF
8
0
10
0.000000
20
0.000000
30
0.0
40
3.5
1

3

2
MIN_VETRO:0
70
0
0
ATTDEF
8
0
10
0.000000
20
0.000000
30
0.0
40
3.5
1

3

2
MAX_VETRO:0
70
0
0
ATTDEF
8
0
10
0.000000
20
0.000000
30
0.0
40
3.5
1

3

2
JX:0
70
0
0
ATTDEF
8
0
10
0.000000
20
0.000000
30
0.0
40
3.5
1

3

2
WX:0
70
0
0
ATTDEF
8
0
10
0.000000
20
0.000000
30
0.0
40
3.5
1

3

2
JY:0
70
0
0
ATTDEF
8
0
10
0.000000
20
0.000000
30
0.0
40
3.5
1

3

2
WY:0
70
0
0
ATTDEF
8
0
10
3450.031750
20
1269.251230
30
0.0
40
3.5
1

3

2
HC_START
70
0
0
ATTDEF
8
0
10
3426.031750
20
1279.349693
30
0.0
40
3.5
1

3

2
HC_END
70
0
0
ATTDEF
8
0
10
3426.031750
20
1197.949693
30
0.0
40
3.5
1

3

2
FP_LCS_ORIG
70
0
0
ATTDEF
8
0
10
3426.031750
20
1207.949693
30
0.0
40
3.5
1

3

2
FP_LCS_HOT
70
0
0
ATTDEF
8
0
10
3436.031750
20
1197.949693
30
0.0
40
3.5
1

3

2
FP_LCS_INTERN
70
0
0
ENDSEC
0
EOF
