0
SECTION
2
ENTITIES
0
LINE
8
0
10
3455.537398
20
1237.090381
30
0.0
11
3455.537398
21
1247.864182
31
0.0
0
ARC
8
0
10
3455.837398
20
1247.864182
30
0.0
40
0.300000
50
90.000000
51
180.000000
0
ARC
8
0
10
3453.738260
20
999.973069
30
0.0
40
248.200000
50
88.520638
51
89.514832
0
ARC
8
0
10
3460.138260
20
1247.790442
30
0.0
40
0.300000
50
360.000000
51
90.000000
0
LINE
8
0
10
3460.438260
20
1247.790442
30
0.0
11
3460.438260
21
1245.444184
31
0.0
0
LINE
8
0
10
3460.438260
20
1245.444184
30
0.0
11
3461.938260
21
1245.444184
31
0.0
0
LINE
8
0
10
3461.938260
20
1245.444184
30
0.0
11
3461.938260
21
1247.727302
31
0.0
0
ARC
8
0
10
3462.238260
20
1247.727302
30
0.0
40
0.300000
50
88.035056
51
180.000000
0
ARC
8
0
10
3453.738260
20
999.973069
30
0.0
40
248.200000
50
81.730142
51
88.035056
0
LINE
8
0
10
3489.438260
20
1245.592185
30
0.0
11
3489.438260
21
1244.269523
31
0.0
0
LINE
8
0
10
3489.438260
20
1244.269523
30
0.0
11
3490.938260
21
1244.269523
31
0.0
0
LINE
8
0
10
3490.938260
20
1244.269523
30
0.0
11
3490.938260
21
1245.369483
31
0.0
0
ARC
8
0
10
3453.738260
20
999.973069
30
0.0
40
248.200000
50
80.777371
51
81.380078
0
ARC
8
0
10
3493.437398
20
1244.471062
30
0.0
40
0.500000
50
360.000000
51
80.777371
0
LINE
8
0
10
3493.937398
20
1244.471062
30
0.0
11
3493.937398
21
1237.090381
31
0.0
0
ARC
8
0
10
3494.237398
20
1237.090381
30
0.0
40
0.300000
50
180.000000
51
270.000000
0
LINE
8
0
10
3494.237398
20
1236.790381
30
0.0
11
3496.699514
21
1236.790381
31
0.0
0
ARC
8
0
10
3496.699514
20
1186.790381
30
0.0
40
50.000000
50
82.285822
51
90.000000
0
ARC
8
0
10
3537.237398
20
1486.057285
30
0.0
40
252.000000
50
262.285822
51
263.890169
0
LINE
8
0
10
3510.415859
20
1235.488722
30
0.0
11
3511.015408
21
1235.974404
31
0.0
0
LINE
8
0
10
3511.015408
20
1235.974404
30
0.0
11
3511.501024
21
1235.374938
31
0.0
0
ARC
8
0
10
3537.237398
20
1486.057285
30
0.0
40
252.000000
50
264.138250
51
269.350486
0
LINE
8
0
10
3534.380747
20
1234.073477
30
0.0
11
3534.929177
21
1234.621912
31
0.0
0
LINE
8
0
10
3534.929177
20
1234.621912
30
0.0
11
3535.487735
21
1234.063359
31
0.0
0
ARC
8
0
10
3537.237398
20
1486.057285
30
0.0
40
252.000000
50
269.602186
51
270.956112
0
ARC
8
0
10
3541.437398
20
1234.392329
30
0.0
40
0.300000
50
270.000000
51
360.000000
0
LINE
8
0
10
3541.737398
20
1234.392329
30
0.0
11
3541.737398
21
1235.557285
31
0.0
0
ARC
8
0
10
3541.437398
20
1235.557285
30
0.0
40
0.300000
50
360.000000
51
90.000000
0
LINE
8
0
10
3541.437398
20
1235.857285
30
0.0
11
3537.237398
21
1235.857285
31
0.0
0
ARC
8
0
10
3537.237398
20
1486.057285
30
0.0
40
250.200000
50
260.549408
51
270.000000
0
ARC
8
0
10
3496.237398
20
1239.746323
30
0.0
40
0.500000
50
180.000000
51
260.549408
0
LINE
8
0
10
3495.737398
20
1239.746323
30
0.0
11
3495.737398
21
1244.726147
31
0.0
0
ARC
8
0
10
3493.737398
20
1244.726147
30
0.0
40
2.000000
50
360.000000
51
80.718403
0
ARC
8
0
10
3453.738260
20
999.973069
30
0.0
40
250.000000
50
80.718403
51
89.931360
0
ARC
8
0
10
3454.037398
20
1249.672890
30
0.0
40
0.300000
50
90.000000
51
180.000000
0
LINE
8
0
10
3453.737398
20
1249.672890
30
0.0
11
3453.737398
21
1237.090381
31
0.0
0
ARC
8
0
10
3454.037398
20
1237.090381
30
0.0
40
0.300000
50
180.000000
51
270.000000
0
LINE
8
0
10
3454.037398
20
1236.790381
30
0.0
11
3455.237398
21
1236.790381
31
0.0
0
ARC
8
0
10
3455.237398
20
1237.090381
30
0.0
40
0.300000
50
270.000000
51
360.000000
0
ATTDEF
8
0
10
0.000000
20
0.000000
30
0.0
40
3.5
1

3

2
PANE_WIDTH:0
70
0
0
ATTDEF
8
0
10
0.000000
20
0.000000
30
0.0
40
3.5
1

3

2
MIN_VETRO:0
70
0
0
ATTDEF
8
0
10
0.000000
20
0.000000
30
0.0
40
3.5
1

3

2
MAX_VETRO:0
70
0
0
ATTDEF
8
0
10
0.000000
20
0.000000
30
0.0
40
3.5
1

3

2
JX:0
70
0
0
ATTDEF
8
0
10
0.000000
20
0.000000
30
0.0
40
3.5
1

3

2
WX:0
70
0
0
ATTDEF
8
0
10
0.000000
20
0.000000
30
0.0
40
3.5
1

3

2
JY:0
70
0
0
ATTDEF
8
0
10
0.000000
20
0.000000
30
0.0
40
3.5
1

3

2
WY:0
70
0
0
ATTDEF
8
0
10
0.000000
20
0.000000
30
0.0
40
3.5
1

3

2
DESC:Tapeta
70
0
0
ATTDEF
8
0
10
0.000000
20
0.000000
30
0.0
40
3.5
1

3

2
DENS:0.54
70
0
0
ATTDEF
8
0
10
0.000000
20
0.000000
30
0.0
40
3.5
1

3

2
TDEV:22.47
70
0
0
ATTDEF
8
0
10
0.000000
20
0.000000
30
0.0
40
3.5
1

3

2
TDEV2:0
70
0
0
ATTDEF
8
0
10
0.000000
20
0.000000
30
0.0
40
3.5
1

3

2
TDEV3:0
70
0
0
ATTDEF
8
0
10
0.000000
20
0.000000
30
0.0
40
3.5
1

3

2
TDEV4:0
70
0
0
ATTDEF
8
0
10
0.000000
20
0.000000
30
0.0
40
3.5
1

3

2
TDEV5:0
70
0
0
ATTDEF
8
0
10
0.000000
20
0.000000
30
0.0
40
3.5
1

3

2
PANE_WIDTH:0
70
0
0
ATTDEF
8
0
10
0.000000
20
0.000000
30
0.0
40
3.5
1

3

2
MIN_VETRO:0
70
0
0
ATTDEF
8
0
10
0.000000
20
0.000000
30
0.0
40
3.5
1

3

2
MAX_VETRO:0
70
0
0
ATTDEF
8
0
10
0.000000
20
0.000000
30
0.0
40
3.5
1

3

2
JX:0
70
0
0
ATTDEF
8
0
10
0.000000
20
0.000000
30
0.0
40
3.5
1

3

2
WX:0
70
0
0
ATTDEF
8
0
10
0.000000
20
0.000000
30
0.0
40
3.5
1

3

2
JY:0
70
0
0
ATTDEF
8
0
10
0.000000
20
0.000000
30
0.0
40
3.5
1

3

2
WY:0
70
0
0
ATTDEF
8
0
10
3454.037758
20
1249.972890
30
0.0
40
3.5
1

3

2
VC_START
70
0
0
ATTDEF
8
0
10
3541.442403
20
1234.092371
30
0.0
40
3.5
1

3

2
VC_END
70
0
0
ATTDEF
8
0
10
3541.737398
20
1234.063359
30
0.0
40
3.5
1

3

2
FP_LCS_ORIG
70
0
0
ATTDEF
8
0
10
3531.737398
20
1234.063359
30
0.0
40
3.5
1

3

2
FP_LCS_HOT
70
0
0
ATTDEF
8
0
10
3541.737398
20
1244.063359
30
0.0
40
3.5
1

3

2
FP_LCS_INTERN
70
0
0
ENDSEC
0
EOF
