0
SECTION
2
ENTITIES
0
LINE
8
0
10
3436.006480
20
1229.108539
30
0.0
11
3437.136757
21
1230.238815
31
0.0
0
LINE
8
0
10
3435.882158
20
1226.739152
30
0.0
11
3438.570620
21
1229.427614
31
0.0
0
LINE
8
0
10
3438.971603
20
1227.583533
30
0.0
11
3440.771603
21
1229.383533
31
0.0
0
LINE
8
0
10
3441.216667
20
1227.583533
30
0.0
11
3443.016667
21
1229.383533
31
0.0
0
LINE
8
0
10
3443.461730
20
1227.583532
30
0.0
11
3445.261731
21
1229.383533
31
0.0
0
LINE
8
0
10
3445.706795
20
1227.583533
30
0.0
11
3447.506795
21
1229.383533
31
0.0
0
LINE
8
0
10
3447.873070
20
1227.504744
30
0.0
11
3450.479688
21
1230.111363
31
0.0
0
LINE
8
0
10
3449.298076
20
1226.684686
30
0.0
11
3450.379543
21
1227.766153
31
0.0
0
LINE
8
0
10
3436.587090
20
1226.410901
30
0.0
11
3435.879688
21
1227.118302
31
0.0
0
LINE
8
0
10
3438.010404
20
1227.232651
30
0.0
11
3437.113873
21
1228.129182
31
0.0
0
LINE
8
0
10
3436.228479
20
1229.014576
30
0.0
11
3435.979688
21
1229.263366
31
0.0
0
LINE
8
0
10
3439.904586
20
1227.583533
30
0.0
11
3437.403045
21
1230.085074
31
0.0
0
LINE
8
0
10
3442.149650
20
1227.583533
30
0.0
11
3440.349650
21
1229.383533
31
0.0
0
LINE
8
0
10
3444.394714
20
1227.583533
30
0.0
11
3442.594714
21
1229.383533
31
0.0
0
LINE
8
0
10
3446.639778
20
1227.583533
30
0.0
11
3444.839778
21
1229.383533
31
0.0
0
LINE
8
0
10
3450.084809
20
1226.383566
30
0.0
11
3447.084842
21
1229.383533
31
0.0
0
LINE
8
0
10
3449.637094
20
1229.076345
30
0.0
11
3448.748409
21
1229.965030
31
0.0
0
ARC
8
0
10
3450.067882
20
1229.208533
30
0.0
40
0.200000
50
244.992167
51
286.231301
0
ARC
8
0
10
3450.179688
20
1229.208533
30
0.0
40
0.200000
50
253.768699
51
360.000000
0
LINE
8
0
10
3450.379688
20
1229.208533
30
0.0
11
3450.379688
21
1229.583533
31
0.0
0
LINE
8
0
10
3450.379688
20
1229.583533
30
0.0
11
3450.479688
21
1229.583533
31
0.0
0
LINE
8
0
10
3450.479688
20
1229.583533
30
0.0
11
3450.479688
21
1230.183533
31
0.0
0
ARC
8
0
10
3450.079688
20
1230.183533
30
0.0
40
0.400000
50
360.000000
51
90.000000
0
LINE
8
0
10
3450.079688
20
1230.583533
30
0.0
11
3449.873278
21
1230.583533
31
0.0
0
ARC
8
0
10
3449.873278
20
1230.383533
30
0.0
40
0.200000
50
90.000000
51
120.000000
0
LINE
8
0
10
3449.773278
20
1230.556738
30
0.0
11
3447.926868
21
1229.490713
31
0.0
0
ARC
8
0
10
3447.526868
20
1230.183533
30
0.0
40
0.800000
50
270.000000
51
300.000000
0
LINE
8
0
10
3447.526868
20
1229.383533
30
0.0
11
3443.179688
21
1229.383533
31
0.0
0
LINE
8
0
10
3443.179688
20
1229.383533
30
0.0
11
3438.832509
21
1229.383533
31
0.0
0
ARC
8
0
10
3438.832509
20
1230.183533
30
0.0
40
0.800000
50
240.000000
51
270.000000
0
LINE
8
0
10
3438.432509
20
1229.490713
30
0.0
11
3436.586099
21
1230.556738
31
0.0
0
ARC
8
0
10
3436.486099
20
1230.383533
30
0.0
40
0.200000
50
60.000000
51
90.000000
0
LINE
8
0
10
3436.486099
20
1230.583533
30
0.0
11
3436.279688
21
1230.583533
31
0.0
0
ARC
8
0
10
3436.279688
20
1230.183533
30
0.0
40
0.400000
50
90.000000
51
180.000000
0
LINE
8
0
10
3435.879688
20
1230.183533
30
0.0
11
3435.879688
21
1229.583533
31
0.0
0
LINE
8
0
10
3435.879688
20
1229.583533
30
0.0
11
3435.979688
21
1229.583533
31
0.0
0
LINE
8
0
10
3435.979688
20
1229.583533
30
0.0
11
3435.979688
21
1229.208533
31
0.0
0
ARC
8
0
10
3436.179688
20
1229.208533
30
0.0
40
0.200000
50
180.000000
51
286.231301
0
ARC
8
0
10
3436.291495
20
1229.208533
30
0.0
40
0.200000
50
253.768699
51
295.007833
0
ARC
8
0
10
3436.629688
20
1228.483533
30
0.0
40
0.600000
50
360.000000
51
115.007833
0
ARC
8
0
10
3436.629688
20
1228.483533
30
0.0
40
0.600000
50
244.992167
51
360.000000
0
ARC
8
0
10
3436.291495
20
1227.758533
30
0.0
40
0.200000
50
64.992167
51
106.231301
0
ARC
8
0
10
3436.179688
20
1227.758533
30
0.0
40
0.200000
50
73.768699
51
180.000000
0
LINE
8
0
10
3435.979688
20
1227.758533
30
0.0
11
3435.979688
21
1227.383533
31
0.0
0
LINE
8
0
10
3435.979688
20
1227.383533
30
0.0
11
3435.879688
21
1227.383533
31
0.0
0
LINE
8
0
10
3435.879688
20
1227.383533
30
0.0
11
3435.879688
21
1226.783533
31
0.0
0
ARC
8
0
10
3436.279688
20
1226.783533
30
0.0
40
0.400000
50
180.000000
51
270.000000
0
LINE
8
0
10
3436.279688
20
1226.383533
30
0.0
11
3436.486099
21
1226.383533
31
0.0
0
ARC
8
0
10
3436.486099
20
1226.583533
30
0.0
40
0.200000
50
270.000000
51
300.000000
0
LINE
8
0
10
3436.586099
20
1226.410328
30
0.0
11
3438.432509
21
1227.476354
31
0.0
0
ARC
8
0
10
3438.832509
20
1226.783533
30
0.0
40
0.800000
50
90.000000
51
120.000000
0
LINE
8
0
10
3438.832509
20
1227.583533
30
0.0
11
3442.896846
21
1227.583533
31
0.0
0
ARC
8
0
10
3442.896846
20
1227.383533
30
0.0
40
0.200000
50
51.057559
51
90.000000
0
ARC
8
0
10
3443.179688
20
1227.733533
30
0.0
40
0.250000
50
231.057559
51
308.942441
0
ARC
8
0
10
3443.462531
20
1227.383533
30
0.0
40
0.200000
50
90.000000
51
128.942441
0
LINE
8
0
10
3443.462531
20
1227.583533
30
0.0
11
3447.526868
21
1227.583533
31
0.0
0
ARC
8
0
10
3447.526868
20
1226.783533
30
0.0
40
0.800000
50
60.000000
51
90.000000
0
LINE
8
0
10
3447.926868
20
1227.476354
30
0.0
11
3449.773278
21
1226.410328
31
0.0
0
ARC
8
0
10
3449.873278
20
1226.583533
30
0.0
40
0.200000
50
240.000000
51
270.000000
0
LINE
8
0
10
3449.873278
20
1226.383533
30
0.0
11
3450.079688
21
1226.383533
31
0.0
0
ARC
8
0
10
3450.079688
20
1226.783533
30
0.0
40
0.400000
50
270.000000
51
360.000000
0
LINE
8
0
10
3450.479688
20
1226.783533
30
0.0
11
3450.479688
21
1227.383533
31
0.0
0
LINE
8
0
10
3450.479688
20
1227.383533
30
0.0
11
3450.379688
21
1227.383533
31
0.0
0
LINE
8
0
10
3450.379688
20
1227.383533
30
0.0
11
3450.379688
21
1227.758533
31
0.0
0
ARC
8
0
10
3450.179688
20
1227.758533
30
0.0
40
0.200000
50
360.000000
51
106.231301
0
ARC
8
0
10
3450.067882
20
1227.758533
30
0.0
40
0.200000
50
73.768699
51
115.007833
0
ARC
8
0
10
3449.729688
20
1228.483533
30
0.0
40
0.600000
50
180.000000
51
295.007833
0
ARC
8
0
10
3449.729688
20
1228.483533
30
0.0
40
0.600000
50
64.992167
51
180.000000
0
LINE
8
0
10
3436.292425
20
1220.414227
30
0.0
11
3437.381438
21
1221.503240
31
0.0
0
LINE
8
0
10
3436.013721
20
1217.890459
30
0.0
11
3438.912487
21
1220.789225
31
0.0
0
LINE
8
0
10
3439.357551
20
1218.989225
30
0.0
11
3441.157551
21
1220.789225
31
0.0
0
LINE
8
0
10
3441.602615
20
1218.989225
30
0.0
11
3443.402615
21
1220.789225
31
0.0
0
LINE
8
0
10
3443.847679
20
1218.989225
30
0.0
11
3445.647679
21
1220.789225
31
0.0
0
LINE
8
0
10
3446.092743
20
1218.989225
30
0.0
11
3448.099716
21
1220.996198
31
0.0
0
LINE
8
0
10
3448.119444
20
1218.770861
30
0.0
11
3449.138041
21
1219.789459
31
0.0
0
LINE
8
0
10
3449.829454
20
1220.480872
30
0.0
11
3450.479688
21
1221.131106
31
0.0
0
LINE
8
0
10
3449.542757
20
1217.949111
30
0.0
11
3450.382871
21
1218.789225
31
0.0
0
LINE
8
0
10
3436.224714
20
1217.793020
30
0.0
11
3435.883484
21
1218.134251
31
0.0
0
LINE
8
0
10
3437.765723
20
1218.497076
30
0.0
11
3436.906108
21
1219.356691
31
0.0
0
LINE
8
0
10
3439.518638
20
1218.989225
30
0.0
11
3436.521862
21
1221.986001
31
0.0
0
LINE
8
0
10
3441.763702
20
1218.989225
30
0.0
11
3439.963702
21
1220.789225
31
0.0
0
LINE
8
0
10
3444.008766
20
1218.989225
30
0.0
11
3442.208766
21
1220.789225
31
0.0
0
LINE
8
0
10
3446.253830
20
1218.989225
30
0.0
11
3444.453830
21
1220.789225
31
0.0
0
LINE
8
0
10
3449.533886
20
1217.954233
30
0.0
11
3446.698894
21
1220.789225
31
0.0
0
LINE
8
0
10
3449.366424
20
1220.366759
30
0.0
11
3448.503728
21
1221.229455
31
0.0
0
LINE
8
0
10
3450.479688
20
1221.498559
30
0.0
11
3449.989022
21
1221.989225
31
0.0
0
ARC
8
0
10
3450.067882
20
1220.614225
30
0.0
40
0.200000
50
244.992167
51
286.231301
0
ARC
8
0
10
3450.179688
20
1220.614225
30
0.0
40
0.200000
50
253.768699
51
360.000000
0
LINE
8
0
10
3450.379688
20
1220.614225
30
0.0
11
3450.379688
21
1220.989225
31
0.0
0
LINE
8
0
10
3450.379688
20
1220.989225
30
0.0
11
3450.479688
21
1220.989225
31
0.0
0
LINE
8
0
10
3450.479688
20
1220.989225
30
0.0
11
3450.479688
21
1221.589225
31
0.0
0
ARC
8
0
10
3450.079688
20
1221.589225
30
0.0
40
0.400000
50
360.000000
51
90.000000
0
LINE
8
0
10
3450.079688
20
1221.989225
30
0.0
11
3449.873278
21
1221.989225
31
0.0
0
ARC
8
0
10
3449.873278
20
1221.789225
30
0.0
40
0.200000
50
90.000000
51
120.000000
0
LINE
8
0
10
3449.773278
20
1221.962430
30
0.0
11
3447.926868
21
1220.896404
31
0.0
0
ARC
8
0
10
3447.526868
20
1221.589225
30
0.0
40
0.800000
50
270.000000
51
300.000000
0
LINE
8
0
10
3447.526868
20
1220.789225
30
0.0
11
3443.179688
21
1220.789225
31
0.0
0
LINE
8
0
10
3443.179688
20
1220.789225
30
0.0
11
3438.832509
21
1220.789225
31
0.0
0
ARC
8
0
10
3438.832509
20
1221.589225
30
0.0
40
0.800000
50
240.000000
51
270.000000
0
LINE
8
0
10
3438.432509
20
1220.896404
30
0.0
11
3436.586099
21
1221.962430
31
0.0
0
ARC
8
0
10
3436.486099
20
1221.789225
30
0.0
40
0.200000
50
60.000000
51
90.000000
0
LINE
8
0
10
3436.486099
20
1221.989225
30
0.0
11
3436.279688
21
1221.989225
31
0.0
0
ARC
8
0
10
3436.279688
20
1221.589225
30
0.0
40
0.400000
50
90.000000
51
180.000000
0
LINE
8
0
10
3435.879688
20
1221.589225
30
0.0
11
3435.879688
21
1220.989225
31
0.0
0
LINE
8
0
10
3435.879688
20
1220.989225
30
0.0
11
3435.979688
21
1220.989225
31
0.0
0
LINE
8
0
10
3435.979688
20
1220.989225
30
0.0
11
3435.979688
21
1220.614225
31
0.0
0
ARC
8
0
10
3436.179688
20
1220.614225
30
0.0
40
0.200000
50
180.000000
51
286.231301
0
ARC
8
0
10
3436.291495
20
1220.614225
30
0.0
40
0.200000
50
253.768699
51
295.007833
0
ARC
8
0
10
3436.629688
20
1219.889225
30
0.0
40
0.600000
50
360.000000
51
115.007833
0
ARC
8
0
10
3436.629688
20
1219.889225
30
0.0
40
0.600000
50
244.992167
51
360.000000
0
ARC
8
0
10
3436.291495
20
1219.164225
30
0.0
40
0.200000
50
64.992167
51
106.231301
0
ARC
8
0
10
3436.179688
20
1219.164225
30
0.0
40
0.200000
50
73.768699
51
180.000000
0
LINE
8
0
10
3435.979688
20
1219.164225
30
0.0
11
3435.979688
21
1218.789225
31
0.0
0
LINE
8
0
10
3435.979688
20
1218.789225
30
0.0
11
3435.879688
21
1218.789225
31
0.0
0
LINE
8
0
10
3435.879688
20
1218.789225
30
0.0
11
3435.879688
21
1218.189225
31
0.0
0
ARC
8
0
10
3436.279688
20
1218.189225
30
0.0
40
0.400000
50
180.000000
51
270.000000
0
LINE
8
0
10
3436.279688
20
1217.789225
30
0.0
11
3436.486099
21
1217.789225
31
0.0
0
ARC
8
0
10
3436.486099
20
1217.989225
30
0.0
40
0.200000
50
270.000000
51
300.000000
0
LINE
8
0
10
3436.586099
20
1217.816020
30
0.0
11
3438.432509
21
1218.882045
31
0.0
0
ARC
8
0
10
3438.832509
20
1218.189225
30
0.0
40
0.800000
50
90.000000
51
120.000000
0
LINE
8
0
10
3438.832509
20
1218.989225
30
0.0
11
3442.896846
21
1218.989225
31
0.0
0
ARC
8
0
10
3442.896846
20
1218.789225
30
0.0
40
0.200000
50
51.057559
51
90.000000
0
ARC
8
0
10
3443.179688
20
1219.139225
30
0.0
40
0.250000
50
231.057559
51
308.942441
0
ARC
8
0
10
3443.462531
20
1218.789225
30
0.0
40
0.200000
50
90.000000
51
128.942441
0
LINE
8
0
10
3443.462531
20
1218.989225
30
0.0
11
3447.526868
21
1218.989225
31
0.0
0
ARC
8
0
10
3447.526868
20
1218.189225
30
0.0
40
0.800000
50
60.000000
51
90.000000
0
LINE
8
0
10
3447.926868
20
1218.882045
30
0.0
11
3449.773278
21
1217.816020
31
0.0
0
ARC
8
0
10
3449.873278
20
1217.989225
30
0.0
40
0.200000
50
240.000000
51
270.000000
0
LINE
8
0
10
3449.873278
20
1217.789225
30
0.0
11
3450.079688
21
1217.789225
31
0.0
0
ARC
8
0
10
3450.079688
20
1218.189225
30
0.0
40
0.400000
50
270.000000
51
360.000000
0
LINE
8
0
10
3450.479688
20
1218.189225
30
0.0
11
3450.479688
21
1218.789225
31
0.0
0
LINE
8
0
10
3450.479688
20
1218.789225
30
0.0
11
3450.379688
21
1218.789225
31
0.0
0
LINE
8
0
10
3450.379688
20
1218.789225
30
0.0
11
3450.379688
21
1219.164225
31
0.0
0
ARC
8
0
10
3450.179688
20
1219.164225
30
0.0
40
0.200000
50
360.000000
51
106.231301
0
ARC
8
0
10
3450.067882
20
1219.164225
30
0.0
40
0.200000
50
73.768699
51
115.007833
0
ARC
8
0
10
3449.729688
20
1219.889225
30
0.0
40
0.600000
50
180.000000
51
295.007833
0
ARC
8
0
10
3449.729688
20
1219.889225
30
0.0
40
0.600000
50
64.992167
51
180.000000
0
LINE
8
0
10
3414.480982
20
1261.162289
30
0.0
11
3416.380982
21
1261.671393
31
0.0
0
LINE
8
0
10
3416.380982
20
1261.671393
30
0.0
11
3416.380982
21
1259.680016
31
0.0
0
LINE
8
0
10
3416.380982
20
1259.680016
30
0.0
11
3417.580982
21
1259.680016
31
0.0
0
LINE
8
0
10
3417.580982
20
1259.680016
30
0.0
11
3417.580982
21
1261.992932
31
0.0
0
LINE
8
0
10
3417.580982
20
1261.992932
30
0.0
11
3420.680982
21
1262.823574
31
0.0
0
LINE
8
0
10
3420.680982
20
1262.823574
30
0.0
11
3423.580982
21
1262.046521
31
0.0
0
LINE
8
0
10
3423.580982
20
1262.046521
30
0.0
11
3423.580982
21
1232.680016
31
0.0
0
LINE
8
0
10
3423.580982
20
1232.680016
30
0.0
11
3416.932181
21
1232.680016
31
0.0
0
LINE
8
0
10
3416.932181
20
1232.680016
30
0.0
11
3416.932181
21
1249.818494
31
0.0
0
LINE
8
0
10
3416.932181
20
1249.818494
30
0.0
11
3414.480982
21
1252.269692
31
0.0
0
LINE
8
0
10
3414.480982
20
1252.269692
30
0.0
11
3414.480982
21
1261.162289
31
0.0
0
LINE
8
0
10
3397.680982
20
1232.780448
30
0.0
11
3397.680982
21
1235.084139
31
0.0
0
ARC
8
0
10
3398.180982
20
1235.084139
30
0.0
40
0.500000
50
80.000000
51
180.000000
0
LINE
8
0
10
3398.267806
20
1235.576543
30
0.0
11
3415.432181
21
1232.550001
31
0.0
0
LINE
8
0
10
3415.432181
20
1232.550001
30
0.0
11
3415.432181
21
1231.180016
31
0.0
0
LINE
8
0
10
3415.432181
20
1231.180016
30
0.0
11
3417.381414
21
1231.180016
31
0.0
0
LINE
8
0
10
3417.381414
20
1231.180016
30
0.0
11
3417.381414
21
1229.080016
31
0.0
0
LINE
8
0
10
3417.381414
20
1229.080016
30
0.0
11
3418.481517
21
1229.080016
31
0.0
0
ARC
8
0
10
3418.481517
20
1229.580016
30
0.0
40
0.500000
50
270.000000
51
360.000000
0
LINE
8
0
10
3418.981517
20
1229.579913
30
0.0
11
3418.981846
21
1231.180016
31
0.0
0
LINE
8
0
10
3418.981846
20
1231.180016
30
0.0
11
3434.380120
21
1231.180016
31
0.0
0
LINE
8
0
10
3434.380120
20
1231.180016
30
0.0
11
3434.380120
21
1217.180016
31
0.0
0
LINE
8
0
10
3434.380120
20
1217.180016
30
0.0
11
3397.680982
21
1217.180016
31
0.0
0
LINE
8
0
10
3397.680982
20
1217.180016
30
0.0
11
3397.680982
21
1231.180016
31
0.0
0
LINE
8
0
10
3397.680982
20
1231.180016
30
0.0
11
3399.780982
21
1231.180016
31
0.0
0
LINE
8
0
10
3399.780982
20
1231.180016
30
0.0
11
3399.780982
21
1232.280119
31
0.0
0
ARC
8
0
10
3399.280982
20
1232.280119
30
0.0
40
0.500000
50
360.000000
51
90.000000
0
LINE
8
0
10
3399.281085
20
1232.780119
30
0.0
11
3397.680982
21
1232.780448
31
0.0
0
LINE
8
0
10
3438.379688
20
1221.266921
30
0.0
11
3438.379688
21
1222.673911
31
0.0
0
ARC
8
0
10
3438.179688
20
1222.673911
30
0.0
40
0.200000
50
360.000000
51
58.619868
0
LINE
8
0
10
3437.063833
20
1223.588767
30
0.0
11
3438.283831
21
1222.844658
31
0.0
0
ARC
8
0
10
3437.428333
20
1224.186379
30
0.0
40
0.700000
50
121.380132
51
238.619868
0
LINE
8
0
10
3438.283831
20
1225.528100
30
0.0
11
3437.063833
21
1224.783991
31
0.0
0
ARC
8
0
10
3438.179688
20
1225.698847
30
0.0
40
0.200000
50
301.380132
51
360.000000
0
LINE
8
0
10
3438.379688
20
1227.105837
30
0.0
11
3438.379688
21
1225.698847
31
0.0
0
ARC
8
0
10
3438.179688
20
1227.105837
30
0.0
40
0.200000
50
360.000000
51
180.000000
0
LINE
8
0
10
3436.303791
20
1226.077414
30
0.0
11
3437.979784
21
1227.099647
31
0.0
0
ARC
8
0
10
3436.147577
20
1226.333533
30
0.0
40
0.300000
50
270.000000
51
301.380132
0
LINE
8
0
10
3436.079688
20
1226.033533
30
0.0
11
3436.147577
21
1226.033533
31
0.0
0
ARC
8
0
10
3436.079688
20
1226.233533
30
0.0
40
0.200000
50
180.000000
51
270.000000
0
LINE
8
0
10
3435.879688
20
1230.733533
30
0.0
11
3435.879688
21
1226.233533
31
0.0
0
ARC
8
0
10
3435.879688
20
1231.033533
30
0.0
40
0.300000
50
90.000000
51
270.000000
0
LINE
8
0
10
3436.234714
20
1231.237982
30
0.0
11
3435.879688
21
1231.333533
31
0.0
0
ARC
8
0
10
3436.166580
20
1230.945822
30
0.0
40
0.300000
50
51.176024
51
76.872879
0
LINE
8
0
10
3437.997828
20
1229.857270
30
0.0
11
3436.354659
21
1231.179544
31
0.0
0
ARC
8
0
10
3437.872443
20
1229.701455
30
0.0
40
0.200000
50
360.000000
51
51.176024
0
LINE
8
0
10
3438.066891
20
1229.538988
30
0.0
11
3438.072321
21
1229.694475
31
0.0
0
ARC
8
0
10
3438.212423
20
1229.533905
30
0.0
40
0.145621
50
180.000000
51
322.253920
0
LINE
8
0
10
3440.391857
20
1232.111203
30
0.0
11
3438.327570
21
1229.444762
31
0.0
0
ARC
8
0
10
3440.106950
20
1232.205159
30
0.0
40
0.300000
50
341.748585
51
90.000000
0
LINE
8
0
10
3439.453714
20
1232.523797
30
0.0
11
3440.110335
21
1232.505184
31
0.0
0
ARC
8
0
10
3439.439546
20
1232.023998
30
0.0
40
0.500000
50
88.376251
51
128.194227
0
ARC
8
0
10
3437.893723
20
1233.988796
30
0.0
40
2.000000
50
236.002945
51
308.194227
0
LINE
8
0
10
3436.047580
20
1232.687655
30
0.0
11
3436.775422
21
1232.330663
31
0.0
0
ARC
8
0
10
3436.179688
20
1232.957001
30
0.0
40
0.300000
50
180.000000
51
243.872968
0
LINE
8
0
10
3435.879688
20
1232.957001
30
0.0
11
3435.879688
21
1233.480016
31
0.0
0
ARC
8
0
10
3435.379688
20
1233.480016
30
0.0
40
0.500000
50
360.000000
51
90.000000
0
LINE
8
0
10
3434.880120
20
1233.980016
30
0.0
11
3435.379688
21
1233.980016
31
0.0
0
ARC
8
0
10
3434.880120
20
1233.480016
30
0.0
40
0.500000
50
90.000000
51
180.000000
0
LINE
8
0
10
3434.380120
20
1232.680016
30
0.0
11
3434.380120
21
1233.480016
31
0.0
0
LINE
8
0
10
3425.180121
20
1232.680016
30
0.0
11
3434.380120
21
1232.680016
31
0.0
0
LINE
8
0
10
3425.180982
20
1260.980016
30
0.0
11
3425.180121
21
1232.680016
31
0.0
0
ARC
8
0
10
3425.680982
20
1260.980016
30
0.0
40
0.500000
50
90.000000
51
180.000000
0
LINE
8
0
10
3426.180982
20
1261.480016
30
0.0
11
3425.680982
21
1261.480016
31
0.0
0
ARC
8
0
10
3426.180982
20
1260.980016
30
0.0
40
0.500000
50
360.000000
51
90.000000
0
LINE
8
0
10
3426.680982
20
1259.680016
30
0.0
11
3426.680982
21
1260.980016
31
0.0
0
LINE
8
0
10
3428.180982
20
1259.680016
30
0.0
11
3426.680982
21
1259.680016
31
0.0
0
LINE
8
0
10
3428.180982
20
1262.086734
30
0.0
11
3428.180982
21
1259.680016
31
0.0
0
ARC
8
0
10
3427.680982
20
1262.086734
30
0.0
40
0.500000
50
360.000000
51
75.000000
0
LINE
8
0
10
3420.810391
20
1264.445341
30
0.0
11
3427.810391
21
1262.569696
31
0.0
0
ARC
8
0
10
3420.680982
20
1263.962378
30
0.0
40
0.500000
50
75.000000
51
105.000000
0
LINE
8
0
10
3413.551572
20
1262.569696
30
0.0
11
3420.551572
21
1264.445341
31
0.0
0
ARC
8
0
10
3413.680982
20
1262.086734
30
0.0
40
0.500000
50
105.000000
51
180.000000
0
LINE
8
0
10
3413.180982
20
1251.938322
30
0.0
11
3413.180982
21
1262.086734
31
0.0
0
ARC
8
0
10
3413.680982
20
1251.938322
30
0.0
40
0.500000
50
180.000000
51
225.000000
0
LINE
8
0
10
3415.285734
20
1249.626463
30
0.0
11
3413.327428
21
1251.584768
31
0.0
0
ARC
8
0
10
3414.932181
20
1249.272909
30
0.0
40
0.500000
50
360.000000
51
45.000000
0
LINE
8
0
10
3415.432181
20
1234.669017
30
0.0
11
3415.432181
21
1249.272909
31
0.0
0
ARC
8
0
10
3414.932181
20
1234.669017
30
0.0
40
0.500000
50
260.000000
51
360.000000
0
LINE
8
0
10
3398.094158
20
1237.130302
30
0.0
11
3414.845357
21
1234.176613
31
0.0
0
ARC
8
0
10
3398.180982
20
1237.622706
30
0.0
40
0.500000
50
180.000000
51
260.000000
0
LINE
8
0
10
3397.680982
20
1258.080016
30
0.0
11
3397.680982
21
1237.622706
31
0.0
0
ARC
8
0
10
3397.680982
20
1258.780016
30
0.0
40
0.700000
50
270.000000
51
90.000000
0
LINE
8
0
10
3397.680982
20
1261.980016
30
0.0
11
3397.680982
21
1259.480016
31
0.0
0
ARC
8
0
10
3397.180982
20
1261.980016
30
0.0
40
0.500000
50
360.000000
51
90.000000
0
LINE
8
0
10
3396.680982
20
1262.480016
30
0.0
11
3397.180982
21
1262.480016
31
0.0
0
ARC
8
0
10
3396.680982
20
1261.980016
30
0.0
40
0.500000
50
90.000000
51
180.000000
0
LINE
8
0
10
3396.180982
20
1211.180016
30
0.0
11
3396.180982
21
1261.980016
31
0.0
0
ARC
8
0
10
3396.680982
20
1211.180016
30
0.0
40
0.500000
50
180.000000
51
270.000000
0
LINE
8
0
10
3397.180982
20
1210.680016
30
0.0
11
3396.680982
21
1210.680016
31
0.0
0
ARC
8
0
10
3397.180982
20
1211.180016
30
0.0
40
0.500000
50
270.000000
51
360.000000
0
LINE
8
0
10
3397.680982
20
1215.680016
30
0.0
11
3397.680982
21
1211.180016
31
0.0
0
LINE
8
0
10
3416.680982
20
1215.680016
30
0.0
11
3397.680982
21
1215.680016
31
0.0
0
LINE
8
0
10
3416.680982
20
1211.180016
30
0.0
11
3416.680982
21
1215.680016
31
0.0
0
ARC
8
0
10
3417.180982
20
1211.180016
30
0.0
40
0.500000
50
180.000000
51
270.000000
0
LINE
8
0
10
3420.180982
20
1210.680016
30
0.0
11
3417.180982
21
1210.680016
31
0.0
0
LINE
8
0
10
3420.180982
20
1212.180016
30
0.0
11
3420.180982
21
1210.680016
31
0.0
0
LINE
8
0
10
3418.180982
20
1212.180016
30
0.0
11
3420.180982
21
1212.180016
31
0.0
0
LINE
8
0
10
3418.180982
20
1215.680016
30
0.0
11
3418.180982
21
1212.180016
31
0.0
0
LINE
8
0
10
3435.967598
20
1215.680016
30
0.0
11
3418.180982
21
1215.680016
31
0.0
0
ARC
8
0
10
3435.967598
20
1215.980016
30
0.0
40
0.300000
50
270.000000
51
296.127032
0
LINE
8
0
10
3436.099707
20
1215.710670
30
0.0
11
3436.775422
21
1216.042095
31
0.0
0
ARC
8
0
10
3437.893723
20
1214.383962
30
0.0
40
2.000000
50
51.805773
51
123.997055
0
ARC
8
0
10
3439.439546
20
1216.348760
30
0.0
40
0.500000
50
231.805773
51
271.623749
0
LINE
8
0
10
3439.453714
20
1215.848961
30
0.0
11
3440.110335
21
1215.867574
31
0.0
0
ARC
8
0
10
3440.106950
20
1216.167599
30
0.0
40
0.300000
50
270.000000
51
18.251415
0
LINE
8
0
10
3440.391857
20
1216.261555
30
0.0
11
3438.327570
21
1218.927996
31
0.0
0
ARC
8
0
10
3438.212423
20
1218.838852
30
0.0
40
0.145621
50
37.746080
51
180.000000
0
LINE
8
0
10
3438.066891
20
1218.833770
30
0.0
11
3438.072321
21
1218.678283
31
0.0
0
ARC
8
0
10
3437.872443
20
1218.671303
30
0.0
40
0.200000
50
308.823976
51
360.000000
0
LINE
8
0
10
3437.997828
20
1218.515488
30
0.0
11
3436.354659
21
1217.193213
31
0.0
0
ARC
8
0
10
3436.166580
20
1217.426936
30
0.0
40
0.300000
50
283.127121
51
308.823976
0
LINE
8
0
10
3436.234714
20
1217.134776
30
0.0
11
3435.879688
21
1217.039225
31
0.0
0
ARC
8
0
10
3435.879688
20
1217.339225
30
0.0
40
0.300000
50
90.000000
51
270.000000
0
LINE
8
0
10
3435.879688
20
1217.639225
30
0.0
11
3435.879688
21
1222.139225
31
0.0
0
ARC
8
0
10
3436.079688
20
1222.139225
30
0.0
40
0.200000
50
90.000000
51
180.000000
0
LINE
8
0
10
3436.079688
20
1222.339225
30
0.0
11
3436.147577
21
1222.339225
31
0.0
0
ARC
8
0
10
3436.147577
20
1222.039225
30
0.0
40
0.300000
50
58.619868
51
90.000000
0
LINE
8
0
10
3436.303791
20
1222.295344
30
0.0
11
3437.979784
21
1221.273111
31
0.0
0
ARC
8
0
10
3438.179688
20
1221.266921
30
0.0
40
0.200000
50
180.000000
51
360.000000
0
LINE
8
0
10
3469.679688
20
1231.715914
30
0.0
11
3469.679688
21
1231.180016
31
0.0
0
LINE
8
0
10
3469.679688
20
1231.180016
30
0.0
11
3471.679688
21
1231.180016
31
0.0
0
LINE
8
0
10
3471.679688
20
1231.180016
30
0.0
11
3471.679688
21
1217.180016
31
0.0
0
LINE
8
0
10
3471.679688
20
1217.180016
30
0.0
11
3451.979688
21
1217.180016
31
0.0
0
LINE
8
0
10
3451.979688
20
1217.180016
30
0.0
11
3451.979688
21
1231.180016
31
0.0
0
LINE
8
0
10
3451.979688
20
1231.180016
30
0.0
11
3464.180120
21
1231.180016
31
0.0
0
LINE
8
0
10
3464.180120
20
1231.180016
30
0.0
11
3464.180120
21
1233.189519
31
0.0
0
LINE
8
0
10
3464.180120
20
1233.189519
30
0.0
11
3469.679688
21
1231.715914
31
0.0
0
LINE
8
0
10
3463.780120
20
1262.046521
30
0.0
11
3466.680120
21
1262.823574
31
0.0
0
LINE
8
0
10
3466.680120
20
1262.823574
30
0.0
11
3469.780120
21
1261.992932
31
0.0
0
LINE
8
0
10
3469.780120
20
1261.992932
30
0.0
11
3469.780120
21
1259.680016
31
0.0
0
LINE
8
0
10
3469.780120
20
1259.680016
30
0.0
11
3470.980120
21
1259.680016
31
0.0
0
LINE
8
0
10
3470.980120
20
1259.680016
30
0.0
11
3470.980120
21
1261.671393
31
0.0
0
LINE
8
0
10
3470.980120
20
1261.671393
30
0.0
11
3472.880120
21
1261.162289
31
0.0
0
LINE
8
0
10
3472.880120
20
1261.162289
30
0.0
11
3472.880120
21
1252.269692
31
0.0
0
LINE
8
0
10
3472.880120
20
1252.269692
30
0.0
11
3471.390443
21
1250.780016
31
0.0
0
LINE
8
0
10
3471.390443
20
1250.780016
30
0.0
11
3463.780120
21
1250.780016
31
0.0
0
LINE
8
0
10
3463.780120
20
1250.780016
30
0.0
11
3463.780120
21
1262.046521
31
0.0
0
ARC
8
0
10
3448.232336
20
1218.857608
30
0.0
40
0.200000
50
322.950408
51
143.960191
0
LINE
8
0
10
3448.070614
20
1218.975277
30
0.0
11
3445.967520
21
1216.258709
31
0.0
0
ARC
8
0
10
3446.252427
20
1216.164753
30
0.0
40
0.300000
50
161.748585
51
267.394588
0
LINE
8
0
10
3446.249042
20
1215.864729
30
0.0
11
3447.301837
21
1215.834885
31
0.0
0
LINE
8
0
10
3447.301837
20
1215.834885
30
0.0
11
3447.364697
21
1216.040490
31
0.0
0
LINE
8
0
10
3447.364697
20
1216.040490
30
0.0
11
3447.749764
21
1216.505628
31
0.0
0
ARC
8
0
10
3448.587878
20
1215.959427
30
0.0
40
1.000000
50
56.490937
51
146.907609
0
LINE
8
0
10
3449.139625
20
1216.792740
30
0.0
11
3450.514352
21
1215.741691
31
0.0
0
ARC
8
0
10
3450.696564
20
1215.980016
30
0.0
40
0.300000
50
232.600227
51
270.000000
0
LINE
8
0
10
3450.696564
20
1215.680016
30
0.0
11
3471.679688
21
1215.680016
31
0.0
0
LINE
8
0
10
3471.679688
20
1215.680016
30
0.0
11
3471.679688
21
1212.280016
31
0.0
0
LINE
8
0
10
3471.679688
20
1212.280016
30
0.0
11
3469.679688
21
1212.280016
31
0.0
0
LINE
8
0
10
3469.679688
20
1212.280016
30
0.0
11
3469.679688
21
1210.680016
31
0.0
0
LINE
8
0
10
3469.679688
20
1210.680016
30
0.0
11
3473.179688
21
1210.680016
31
0.0
0
LINE
8
0
10
3473.179688
20
1210.680016
30
0.0
11
3473.179688
21
1231.563679
31
0.0
0
ARC
8
0
10
3472.179688
20
1231.563679
30
0.0
40
1.000000
50
360.000000
51
75.000000
0
LINE
8
0
10
3472.438508
20
1232.529605
30
0.0
11
3464.180120
21
1234.742434
31
0.0
0
LINE
8
0
10
3464.180120
20
1234.742434
30
0.0
11
3464.180120
21
1249.480016
31
0.0
0
LINE
8
0
10
3464.180120
20
1249.480016
30
0.0
11
3471.928921
21
1249.480016
31
0.0
0
LINE
8
0
10
3471.928921
20
1249.480016
30
0.0
11
3474.180120
21
1251.731215
31
0.0
0
LINE
8
0
10
3474.180120
20
1251.731215
30
0.0
11
3474.180120
21
1262.470397
31
0.0
0
LINE
8
0
10
3474.180120
20
1262.470397
30
0.0
11
3466.680120
21
1264.480016
31
0.0
0
LINE
8
0
10
3466.680120
20
1264.480016
30
0.0
11
3459.180120
21
1262.470397
31
0.0
0
LINE
8
0
10
3459.180120
20
1262.470397
30
0.0
11
3459.180120
21
1259.680016
31
0.0
0
LINE
8
0
10
3459.180120
20
1259.680016
30
0.0
11
3460.680120
21
1259.680016
31
0.0
0
LINE
8
0
10
3460.680120
20
1259.680016
30
0.0
11
3460.680120
21
1260.980016
31
0.0
0
ARC
8
0
10
3461.180120
20
1260.980016
30
0.0
40
0.500000
50
90.000000
51
180.000000
0
LINE
8
0
10
3461.180120
20
1261.480016
30
0.0
11
3461.680120
21
1261.480016
31
0.0
0
ARC
8
0
10
3461.680120
20
1260.980016
30
0.0
40
0.500000
50
360.000000
51
90.000000
0
LINE
8
0
10
3462.180120
20
1260.980016
30
0.0
11
3462.180120
21
1232.680016
31
0.0
0
LINE
8
0
10
3462.180120
20
1232.680016
30
0.0
11
3451.979688
21
1232.680016
31
0.0
0
LINE
8
0
10
3451.979688
20
1232.680016
30
0.0
11
3451.979688
21
1234.180016
31
0.0
0
LINE
8
0
10
3451.979688
20
1234.180016
30
0.0
11
3450.479257
21
1234.180016
31
0.0
0
LINE
8
0
10
3450.479257
20
1234.180016
30
0.0
11
3450.479257
21
1232.742198
31
0.0
0
ARC
8
0
10
3450.179257
20
1232.742198
30
0.0
40
0.300000
50
307.093329
51
360.000000
0
LINE
8
0
10
3450.360192
20
1232.502901
30
0.0
11
3449.139625
21
1231.580018
31
0.0
0
ARC
8
0
10
3448.587878
20
1232.413331
30
0.0
40
1.000000
50
213.092391
51
303.509063
0
LINE
8
0
10
3447.749764
20
1231.867130
30
0.0
11
3447.364697
21
1232.332268
31
0.0
0
LINE
8
0
10
3447.364697
20
1232.332268
30
0.0
11
3447.301837
21
1232.537873
31
0.0
0
LINE
8
0
10
3447.301837
20
1232.537873
30
0.0
11
3446.249042
21
1232.508029
31
0.0
0
ARC
8
0
10
3446.252427
20
1232.208005
30
0.0
40
0.300000
50
92.605413
51
198.251415
0
LINE
8
0
10
3445.967520
20
1232.114049
30
0.0
11
3448.068532
21
1229.400170
31
0.0
0
ARC
8
0
10
3448.227193
20
1229.511169
30
0.0
40
0.200000
50
216.039809
51
37.071526
0
LINE
8
0
10
3448.386770
20
1229.631731
30
0.0
11
3449.932487
21
1230.799541
31
0.0
0
ARC
8
0
10
3450.192797
20
1230.948667
30
0.0
40
0.300000
50
107.000000
51
209.807633
0
LINE
8
0
10
3450.105086
20
1231.235559
30
0.0
11
3450.391977
21
1231.323270
31
0.0
0
ARC
8
0
10
3450.479688
20
1231.036379
30
0.0
40
0.300000
50
270.000000
51
107.000000
0
LINE
8
0
10
3450.479688
20
1230.736379
30
0.0
11
3450.479688
21
1226.236379
31
0.0
0
ARC
8
0
10
3450.279688
20
1226.246481
30
0.0
40
0.200000
50
238.132675
51
357.108405
0
LINE
8
0
10
3450.174032
20
1226.076521
30
0.0
11
3448.379688
21
1227.106102
31
0.0
0
ARC
8
0
10
3448.179688
20
1227.105837
30
0.0
40
0.200000
50
360.000000
51
180.000000
0
LINE
8
0
10
3447.979688
20
1227.105837
30
0.0
11
3447.979688
21
1225.722057
31
0.0
0
ARC
8
0
10
3448.179688
20
1225.722057
30
0.0
40
0.200000
50
180.000000
51
241.694535
0
LINE
8
0
10
3448.085072
20
1225.545762
30
0.0
11
3449.386829
21
1224.798823
31
0.0
0
ARC
8
0
10
3449.047676
20
1224.186379
30
0.0
40
0.700000
50
298.976366
51
61.023634
0
LINE
8
0
10
3449.386829
20
1223.573935
30
0.0
11
3448.085072
21
1222.826996
31
0.0
0
ARC
8
0
10
3448.179688
20
1222.650701
30
0.0
40
0.200000
50
118.305465
51
180.000000
0
LINE
8
0
10
3447.979688
20
1222.650701
30
0.0
11
3447.979688
21
1221.266921
31
0.0
0
ARC
8
0
10
3448.179688
20
1221.266921
30
0.0
40
0.200000
50
180.000000
51
360.000000
0
LINE
8
0
10
3448.379688
20
1221.266656
30
0.0
11
3450.174032
21
1222.296237
31
0.0
0
ARC
8
0
10
3450.279688
20
1222.126277
30
0.0
40
0.200000
50
2.891595
51
121.867325
0
LINE
8
0
10
3450.479688
20
1222.136379
30
0.0
11
3450.479688
21
1217.636379
31
0.0
0
ARC
8
0
10
3450.479688
20
1217.336379
30
0.0
40
0.300000
50
253.000000
51
90.000000
0
LINE
8
0
10
3450.391977
20
1217.049487
30
0.0
11
3450.105086
21
1217.137199
31
0.0
0
ARC
8
0
10
3450.192797
20
1217.424090
30
0.0
40
0.300000
50
150.192367
51
253.000000
0
LINE
8
0
10
3449.932487
20
1217.573217
30
0.0
11
3448.391959
21
1218.737107
31
0.0
0
ATTDEF
8
0
10
0.000000
20
0.000000
30
0.0
40
3.5
1

3

2
PANE_WIDTH:0
70
0
0
ATTDEF
8
0
10
0.000000
20
0.000000
30
0.0
40
3.5
1

3

2
MIN_VETRO:0
70
0
0
ATTDEF
8
0
10
0.000000
20
0.000000
30
0.0
40
3.5
1

3

2
MAX_VETRO:0
70
0
0
ATTDEF
8
0
10
0.000000
20
0.000000
30
0.0
40
3.5
1

3

2
JX:0
70
0
0
ATTDEF
8
0
10
0.000000
20
0.000000
30
0.0
40
3.5
1

3

2
WX:0
70
0
0
ATTDEF
8
0
10
0.000000
20
0.000000
30
0.0
40
3.5
1

3

2
JY:0
70
0
0
ATTDEF
8
0
10
0.000000
20
0.000000
30
0.0
40
3.5
1

3

2
WY:0
70
0
0
ATTDEF
8
0
10
0.000000
20
0.000000
30
0.0
40
3.5
1

3

2
DESC:Marco per.c/recogida
70
0
0
ATTDEF
8
0
10
0.000000
20
0.000000
30
0.0
40
3.5
1

3

2
DENS:1.7956
70
0
0
ATTDEF
8
0
10
0.000000
20
0.000000
30
0.0
40
3.5
1

3

2
TDEV:81.46
70
0
0
ATTDEF
8
0
10
0.000000
20
0.000000
30
0.0
40
3.5
1

3

2
TDEV2:0
70
0
0
ATTDEF
8
0
10
0.000000
20
0.000000
30
0.0
40
3.5
1

3

2
TDEV3:0
70
0
0
ATTDEF
8
0
10
0.000000
20
0.000000
30
0.0
40
3.5
1

3

2
TDEV4:0
70
0
0
ATTDEF
8
0
10
0.000000
20
0.000000
30
0.0
40
3.5
1

3

2
TDEV5:0
70
0
0
ATTDEF
8
0
10
0.000000
20
0.000000
30
0.0
40
3.5
1

3

2
PANE_WIDTH:0
70
0
0
ATTDEF
8
0
10
0.000000
20
0.000000
30
0.0
40
3.5
1

3

2
MIN_VETRO:0
70
0
0
ATTDEF
8
0
10
0.000000
20
0.000000
30
0.0
40
3.5
1

3

2
MAX_VETRO:0
70
0
0
ATTDEF
8
0
10
0.000000
20
0.000000
30
0.0
40
3.5
1

3

2
JX:0
70
0
0
ATTDEF
8
0
10
0.000000
20
0.000000
30
0.0
40
3.5
1

3

2
WX:0
70
0
0
ATTDEF
8
0
10
0.000000
20
0.000000
30
0.0
40
3.5
1

3

2
JY:0
70
0
0
ATTDEF
8
0
10
0.000000
20
0.000000
30
0.0
40
3.5
1

3

2
WY:0
70
0
0
ATTDEF
8
0
10
3462.180120
20
1232.680016
30
0.0
40
3.5
1

3

2
VC_START
70
0
0
ATTDEF
8
0
10
3471.429688
20
1210.680016
30
0.0
40
3.5
1

3

2
VC_END
70
0
0
ATTDEF
8
0
10
3474.180120
20
1210.680016
30
0.0
40
3.5
1

3

2
FP_LCS_ORIG
70
0
0
ATTDEF
8
0
10
3464.180120
20
1210.680016
30
0.0
40
3.5
1

3

2
FP_LCS_HOT
70
0
0
ATTDEF
8
0
10
3474.180120
20
1220.680016
30
0.0
40
3.5
1

3

2
FP_LCS_INTERN
70
0
0
ENDSEC
0
EOF
