0
SECTION
2
ENTITIES
0
LINE
8
0
10
3437.072780
20
1233.666391
30
0.0
11
3433.072416
21
1233.677994
31
0.0
0
LINE
8
0
10
3433.072416
20
1233.677994
30
0.0
11
3424.077201
21
1233.924340
31
0.0
0
LINE
8
0
10
3424.077201
20
1233.924340
30
0.0
11
3416.095168
21
1234.321469
31
0.0
0
ARC
8
0
10
3416.074416
20
1234.022188
30
0.0
40
0.300000
50
86.033569
51
180.000000
0
LINE
8
0
10
3415.774416
20
1234.022188
30
0.0
11
3415.774416
21
1233.743933
31
0.0
0
ARC
8
0
10
3415.474416
20
1233.743933
30
0.0
40
0.300000
50
270.000000
51
360.000000
0
LINE
8
0
10
3415.474416
20
1233.443933
30
0.0
11
3414.874416
21
1233.443933
31
0.0
0
ARC
8
0
10
3414.874416
20
1233.743933
30
0.0
40
0.300000
50
180.000000
51
270.000000
0
LINE
8
0
10
3414.574416
20
1233.743933
30
0.0
11
3414.574416
21
1234.503526
31
0.0
0
LINE
8
0
10
3414.574416
20
1234.503526
30
0.0
11
3412.221450
21
1234.503526
31
0.0
0
LINE
8
0
10
3412.221450
20
1234.503526
30
0.0
11
3412.221450
21
1234.116270
31
0.0
0
ARC
8
0
10
3412.121450
20
1234.116270
30
0.0
40
0.100000
50
234.745248
51
360.000000
0
LINE
8
0
10
3412.063729
20
1234.034611
30
0.0
11
3410.235520
21
1235.326888
31
0.0
0
ARC
8
0
10
3410.466405
20
1235.653526
30
0.0
40
0.400000
50
56.510327
51
234.745248
0
LINE
8
0
10
3410.687120
20
1235.987120
30
0.0
11
3411.493609
21
1235.453526
31
0.0
0
LINE
8
0
10
3411.493609
20
1235.453526
30
0.0
11
3414.274416
21
1235.453526
31
0.0
0
ARC
8
0
10
3414.274416
20
1235.753526
30
0.0
40
0.300000
50
270.000000
51
360.000000
0
LINE
8
0
10
3414.574416
20
1235.753526
30
0.0
11
3414.574416
21
1242.741325
31
0.0
0
ARC
8
0
10
3414.274416
20
1242.741325
30
0.0
40
0.300000
50
360.000000
51
90.000000
0
LINE
8
0
10
3414.274416
20
1243.041325
30
0.0
11
3411.493730
21
1243.041325
31
0.0
0
LINE
8
0
10
3411.493730
20
1243.041325
30
0.0
11
3410.687242
21
1242.507731
31
0.0
0
ARC
8
0
10
3410.466527
20
1242.841325
30
0.0
40
0.400000
50
125.254753
51
303.489673
0
LINE
8
0
10
3410.235642
20
1243.167963
30
0.0
11
3412.063851
21
1244.460240
31
0.0
0
ARC
8
0
10
3412.121572
20
1244.378581
30
0.0
40
0.100000
50
360.000000
51
125.254753
0
LINE
8
0
10
3412.221572
20
1244.378581
30
0.0
11
3412.221572
21
1243.991325
31
0.0
0
LINE
8
0
10
3412.221572
20
1243.991325
30
0.0
11
3414.374416
21
1243.991325
31
0.0
0
LINE
8
0
10
3414.374416
20
1243.991325
30
0.0
11
3414.374416
21
1244.851544
31
0.0
0
LINE
8
0
10
3414.374416
20
1244.851544
30
0.0
11
3414.424416
21
1244.851544
31
0.0
0
LINE
8
0
10
3414.424416
20
1244.851544
30
0.0
11
3414.424416
21
1244.901544
31
0.0
0
ARC
8
0
10
3414.774416
20
1244.901544
30
0.0
40
0.350000
50
360.000000
51
180.000000
0
LINE
8
0
10
3415.124416
20
1244.901544
30
0.0
11
3415.124416
21
1244.851544
31
0.0
0
LINE
8
0
10
3415.124416
20
1244.851544
30
0.0
11
3415.774416
21
1244.851544
31
0.0
0
LINE
8
0
10
3415.774416
20
1244.851544
30
0.0
11
3415.774416
21
1236.614563
31
0.0
0
ARC
8
0
10
3416.274416
20
1236.614563
30
0.0
40
0.500000
50
180.000000
51
266.033569
0
LINE
8
0
10
3416.239830
20
1236.115760
30
0.0
11
3442.904655
21
1234.791817
31
0.0
0
ARC
8
0
10
3442.883766
20
1234.122769
30
0.0
40
0.669374
50
231.708028
51
88.211696
0
LINE
8
0
10
3442.468975
20
1233.597402
30
0.0
11
3437.072780
21
1233.666391
31
0.0
0
ATTDEF
8
0
10
0.000000
20
0.000000
30
0.0
40
3.5
1

3

2
PANE_WIDTH:0
70
0
0
ATTDEF
8
0
10
0.000000
20
0.000000
30
0.0
40
3.5
1

3

2
MIN_VETRO:0
70
0
0
ATTDEF
8
0
10
0.000000
20
0.000000
30
0.0
40
3.5
1

3

2
MAX_VETRO:0
70
0
0
ATTDEF
8
0
10
0.000000
20
0.000000
30
0.0
40
3.5
1

3

2
JX:0
70
0
0
ATTDEF
8
0
10
0.000000
20
0.000000
30
0.0
40
3.5
1

3

2
WX:0
70
0
0
ATTDEF
8
0
10
0.000000
20
0.000000
30
0.0
40
3.5
1

3

2
JY:0
70
0
0
ATTDEF
8
0
10
0.000000
20
0.000000
30
0.0
40
3.5
1

3

2
WY:0
70
0
0
ATTDEF
8
0
10
0.000000
20
0.000000
30
0.0
40
3.5
1

3

2
DESC:Tapa marco perimetra
70
0
0
ATTDEF
8
0
10
0.000000
20
0.000000
30
0.0
40
3.5
1

3

2
DENS:0
70
0
0
ATTDEF
8
0
10
0.000000
20
0.000000
30
0.0
40
3.5
1

3

2
TDEV:0
70
0
0
ATTDEF
8
0
10
0.000000
20
0.000000
30
0.0
40
3.5
1

3

2
TDEV2:0
70
0
0
ATTDEF
8
0
10
0.000000
20
0.000000
30
0.0
40
3.5
1

3

2
TDEV3:0
70
0
0
ATTDEF
8
0
10
0.000000
20
0.000000
30
0.0
40
3.5
1

3

2
TDEV4:0
70
0
0
ATTDEF
8
0
10
0.000000
20
0.000000
30
0.0
40
3.5
1

3

2
TDEV5:0
70
0
0
ATTDEF
8
0
10
0.000000
20
0.000000
30
0.0
40
3.5
1

3

2
PANE_WIDTH:0
70
0
0
ATTDEF
8
0
10
0.000000
20
0.000000
30
0.0
40
3.5
1

3

2
MIN_VETRO:0
70
0
0
ATTDEF
8
0
10
0.000000
20
0.000000
30
0.0
40
3.5
1

3

2
MAX_VETRO:0
70
0
0
ATTDEF
8
0
10
0.000000
20
0.000000
30
0.0
40
3.5
1

3

2
JX:0
70
0
0
ATTDEF
8
0
10
0.000000
20
0.000000
30
0.0
40
3.5
1

3

2
WX:0
70
0
0
ATTDEF
8
0
10
0.000000
20
0.000000
30
0.0
40
3.5
1

3

2
JY:0
70
0
0
ATTDEF
8
0
10
0.000000
20
0.000000
30
0.0
40
3.5
1

3

2
WY:0
70
0
0
ATTDEF
8
0
10
3415.774416
20
1244.851544
30
0.0
40
3.5
1

3

2
VC_START
70
0
0
ATTDEF
8
0
10
3414.874416
20
1233.443933
30
0.0
40
3.5
1

3

2
VC_END
70
0
0
ATTDEF
8
0
10
3443.553140
20
1233.443933
30
0.0
40
3.5
1

3

2
FP_LCS_ORIG
70
0
0
ATTDEF
8
0
10
3433.553140
20
1233.443933
30
0.0
40
3.5
1

3

2
FP_LCS_HOT
70
0
0
ATTDEF
8
0
10
3443.553140
20
1243.443933
30
0.0
40
3.5
1

3

2
FP_LCS_INTERN
70
0
0
ENDSEC
0
EOF
