0
SECTION
2
ENTITIES
0
LINE
8
0
10
3404.413995
20
1303.426498
30
0.0
11
3409.263995
21
1303.426498
31
0.0
0
ARC
8
0
10
3409.263995
20
1303.126498
30
0.0
40
0.300000
50
360.000000
51
90.000000
0
LINE
8
0
10
3409.563995
20
1303.126498
30
0.0
11
3409.563995
21
1291.976498
31
0.0
0
ARC
8
0
10
3409.263995
20
1291.976498
30
0.0
40
0.300000
50
270.000000
51
360.000000
0
LINE
8
0
10
3409.263995
20
1291.676498
30
0.0
11
3404.413995
21
1291.676498
31
0.0
0
ARC
8
0
10
3404.413995
20
1291.976498
30
0.0
40
0.300000
50
180.000000
51
270.000000
0
LINE
8
0
10
3404.113995
20
1291.976498
30
0.0
11
3404.113995
21
1303.126498
31
0.0
0
ARC
8
0
10
3404.413995
20
1303.126498
30
0.0
40
0.300000
50
90.000000
51
180.000000
0
LINE
8
0
10
3407.113995
20
1290.176498
30
0.0
11
3419.113995
21
1290.176498
31
0.0
0
LINE
8
0
10
3419.113995
20
1290.176498
30
0.0
11
3419.113995
21
1290.076498
31
0.0
0
LINE
8
0
10
3419.113995
20
1290.076498
30
0.0
11
3422.113995
21
1290.076498
31
0.0
0
LINE
8
0
10
3422.113995
20
1290.076498
30
0.0
11
3422.113995
21
1278.076498
31
0.0
0
LINE
8
0
10
3422.113995
20
1278.076498
30
0.0
11
3404.113995
21
1278.076498
31
0.0
0
LINE
8
0
10
3404.113995
20
1278.076498
30
0.0
11
3404.113995
21
1290.076498
31
0.0
0
LINE
8
0
10
3404.113995
20
1290.076498
30
0.0
11
3407.113995
21
1290.076498
31
0.0
0
LINE
8
0
10
3407.113995
20
1290.076498
30
0.0
11
3407.113995
21
1290.176498
31
0.0
0
LINE
8
0
10
3411.163995
20
1291.976498
30
0.0
11
3411.163995
21
1303.126498
31
0.0
0
ARC
8
0
10
3411.463995
20
1303.126498
30
0.0
40
0.300000
50
90.000000
51
180.000000
0
LINE
8
0
10
3411.463995
20
1303.426498
30
0.0
11
3414.263995
21
1303.426498
31
0.0
0
LINE
8
0
10
3414.263995
20
1303.426498
30
0.0
11
3414.263995
21
1302.426498
31
0.0
0
LINE
8
0
10
3414.263995
20
1302.426498
30
0.0
11
3415.563995
21
1302.655723
31
0.0
0
LINE
8
0
10
3415.563995
20
1302.655723
30
0.0
11
3415.563995
21
1303.526498
31
0.0
0
LINE
8
0
10
3415.563995
20
1303.526498
30
0.0
11
3416.152491
21
1303.526498
31
0.0
0
ARC
8
0
10
3416.613995
20
1303.334108
30
0.0
40
0.500000
50
22.630008
51
157.369992
0
LINE
8
0
10
3417.075500
20
1303.526498
30
0.0
11
3417.313995
21
1303.526498
31
0.0
0
ARC
8
0
10
3417.313995
20
1303.826498
30
0.0
40
0.300000
50
270.000000
51
360.000000
0
LINE
8
0
10
3417.613995
20
1303.826498
30
0.0
11
3417.613995
21
1316.007233
31
0.0
0
ARC
8
0
10
3417.313995
20
1316.007233
30
0.0
40
0.300000
50
360.000000
51
75.000000
0
LINE
8
0
10
3417.391641
20
1316.297011
30
0.0
11
3413.291641
21
1317.395602
31
0.0
0
ARC
8
0
10
3413.213995
20
1317.105825
30
0.0
40
0.300000
50
75.000000
51
180.000000
0
LINE
8
0
10
3412.913995
20
1317.105825
30
0.0
11
3412.913995
21
1316.471019
31
0.0
0
ARC
8
0
10
3413.213995
20
1316.471019
30
0.0
40
0.300000
50
180.000000
51
239.997914
0
ARC
8
0
10
3412.913976
20
1315.951392
30
0.0
40
0.300019
50
360.000000
51
59.999999
0
LINE
8
0
10
3413.213995
20
1315.951392
30
0.0
11
3413.213995
21
1313.776498
31
0.0
0
LINE
8
0
10
3413.213995
20
1313.776498
30
0.0
11
3414.113995
21
1313.776498
31
0.0
0
ARC
8
0
10
3414.113995
20
1314.076498
30
0.0
40
0.300000
50
270.000000
51
360.000000
0
LINE
8
0
10
3414.413995
20
1314.076498
30
0.0
11
3414.413995
21
1315.461569
31
0.0
0
ARC
8
0
10
3414.713995
20
1315.461569
30
0.0
40
0.300000
50
75.000000
51
180.000000
0
LINE
8
0
10
3414.791641
20
1315.751347
30
0.0
11
3416.091641
21
1315.403013
31
0.0
0
ARC
8
0
10
3416.013995
20
1315.113236
30
0.0
40
0.300000
50
360.000000
51
75.000000
0
LINE
8
0
10
3416.313995
20
1315.113236
30
0.0
11
3416.313995
21
1305.176498
31
0.0
0
ARC
8
0
10
3416.013995
20
1305.176498
30
0.0
40
0.300000
50
270.000000
51
360.000000
0
LINE
8
0
10
3416.013995
20
1304.876498
30
0.0
11
3414.713995
21
1304.876498
31
0.0
0
ARC
8
0
10
3414.713995
20
1305.176498
30
0.0
40
0.300000
50
180.000000
51
270.000000
0
LINE
8
0
10
3414.413995
20
1305.176498
30
0.0
11
3414.413995
21
1307.876498
31
0.0
0
ARC
8
0
10
3414.113995
20
1307.876498
30
0.0
40
0.300000
50
360.000000
51
90.000000
0
LINE
8
0
10
3414.113995
20
1308.176498
30
0.0
11
3413.513995
21
1308.176498
31
0.0
0
ARC
8
0
10
3413.513995
20
1307.876498
30
0.0
40
0.300000
50
90.000000
51
180.000000
0
LINE
8
0
10
3413.213995
20
1307.876498
30
0.0
11
3413.213995
21
1305.176498
31
0.0
0
ARC
8
0
10
3412.913995
20
1305.176498
30
0.0
40
0.300000
50
270.000000
51
360.000000
0
LINE
8
0
10
3412.913995
20
1304.876498
30
0.0
11
3407.313995
21
1304.876498
31
0.0
0
ARC
8
0
10
3407.313995
20
1305.176498
30
0.0
40
0.300000
50
180.000000
51
270.000000
0
LINE
8
0
10
3407.013995
20
1305.176498
30
0.0
11
3407.013995
21
1307.876498
31
0.0
0
ARC
8
0
10
3406.713995
20
1307.876498
30
0.0
40
0.300000
50
360.000000
51
90.000000
0
LINE
8
0
10
3406.713995
20
1308.176498
30
0.0
11
3406.113995
21
1308.176498
31
0.0
0
ARC
8
0
10
3406.113995
20
1307.876498
30
0.0
40
0.300000
50
90.000000
51
180.000000
0
LINE
8
0
10
3405.813995
20
1307.876498
30
0.0
11
3405.813995
21
1305.176498
31
0.0
0
ARC
8
0
10
3405.513995
20
1305.176498
30
0.0
40
0.300000
50
270.000000
51
360.000000
0
LINE
8
0
10
3405.513995
20
1304.876498
30
0.0
11
3404.213995
21
1304.876498
31
0.0
0
ARC
8
0
10
3404.213995
20
1305.176498
30
0.0
40
0.300000
50
180.000000
51
270.000000
0
LINE
8
0
10
3403.913995
20
1305.176498
30
0.0
11
3403.913995
21
1315.113236
31
0.0
0
ARC
8
0
10
3404.213995
20
1315.113236
30
0.0
40
0.300000
50
105.000000
51
180.000000
0
LINE
8
0
10
3404.136350
20
1315.403013
30
0.0
11
3405.436350
21
1315.751347
31
0.0
0
ARC
8
0
10
3405.513995
20
1315.461569
30
0.0
40
0.300000
50
360.000000
51
105.000000
0
LINE
8
0
10
3405.813995
20
1315.461569
30
0.0
11
3405.813995
21
1314.076498
31
0.0
0
ARC
8
0
10
3406.113995
20
1314.076498
30
0.0
40
0.300000
50
180.000000
51
270.000000
0
LINE
8
0
10
3406.113995
20
1313.776498
30
0.0
11
3407.013995
21
1313.776498
31
0.0
0
LINE
8
0
10
3407.013995
20
1313.776498
30
0.0
11
3407.013995
21
1315.970117
31
0.0
0
ARC
8
0
10
3407.314041
20
1315.970090
30
0.0
40
0.300046
50
119.999999
51
180.000000
0
ARC
8
0
10
3407.013995
20
1316.489732
30
0.0
40
0.300000
50
300.005051
51
360.000000
0
LINE
8
0
10
3407.313995
20
1316.489732
30
0.0
11
3407.313995
21
1317.105825
31
0.0
0
ARC
8
0
10
3407.013995
20
1317.105825
30
0.0
40
0.300000
50
360.000000
51
105.000000
0
LINE
8
0
10
3406.936350
20
1317.395602
30
0.0
11
3402.836350
21
1316.297011
31
0.0
0
ARC
8
0
10
3402.913995
20
1316.007233
30
0.0
40
0.300000
50
105.000000
51
180.000000
0
LINE
8
0
10
3402.613995
20
1316.007233
30
0.0
11
3402.613995
21
1271.876498
31
0.0
0
ARC
8
0
10
3402.913995
20
1271.876498
30
0.0
40
0.300000
50
180.000000
51
270.000000
0
LINE
8
0
10
3402.913995
20
1271.576498
30
0.0
11
3405.406889
21
1271.576498
31
0.0
0
ARC
8
0
10
3405.406889
20
1272.076498
30
0.0
40
0.500000
50
270.000000
51
315.000000
0
LINE
8
0
10
3405.760442
20
1271.722944
30
0.0
11
3406.467549
21
1272.430051
31
0.0
0
ARC
8
0
10
3406.113995
20
1272.783604
30
0.0
40
0.500000
50
315.000000
51
360.000000
0
LINE
8
0
10
3406.613995
20
1272.783604
30
0.0
11
3406.613995
21
1273.576498
31
0.0
0
LINE
8
0
10
3406.613995
20
1273.576498
30
0.0
11
3404.613995
21
1273.576498
31
0.0
0
LINE
8
0
10
3404.613995
20
1273.576498
30
0.0
11
3404.613995
21
1276.576498
31
0.0
0
LINE
8
0
10
3404.613995
20
1276.576498
30
0.0
11
3420.613995
21
1276.576498
31
0.0
0
LINE
8
0
10
3420.613995
20
1276.576498
30
0.0
11
3420.613995
21
1273.576498
31
0.0
0
LINE
8
0
10
3420.613995
20
1273.576498
30
0.0
11
3418.613995
21
1273.576498
31
0.0
0
LINE
8
0
10
3418.613995
20
1273.576498
30
0.0
11
3418.613995
21
1272.783604
31
0.0
0
ARC
8
0
10
3419.113995
20
1272.783604
30
0.0
40
0.500000
50
180.000000
51
225.000000
0
LINE
8
0
10
3418.760442
20
1272.430051
30
0.0
11
3419.467549
21
1271.722944
31
0.0
0
ARC
8
0
10
3419.821102
20
1272.076498
30
0.0
40
0.500000
50
225.000000
51
270.000000
0
LINE
8
0
10
3419.821102
20
1271.576498
30
0.0
11
3421.913995
21
1271.576498
31
0.0
0
ARC
8
0
10
3421.913995
20
1272.076498
30
0.0
40
0.500000
50
270.000000
51
360.000000
0
LINE
8
0
10
3422.413995
20
1272.076498
30
0.0
11
3422.413995
21
1276.576498
31
0.0
0
LINE
8
0
10
3422.413995
20
1276.576498
30
0.0
11
3423.775619
21
1276.576498
31
0.0
0
ARC
8
0
10
3423.775619
20
1276.776498
30
0.0
40
0.200000
50
270.000000
51
301.279632
0
LINE
8
0
10
3423.879462
20
1276.605569
30
0.0
11
3424.496443
21
1276.980399
31
0.0
0
ARC
8
0
10
3425.534874
20
1275.271112
30
0.0
40
2.000000
50
50.215080
51
121.279632
0
ARC
8
0
10
3427.134642
20
1277.192242
30
0.0
40
0.500000
50
230.215080
51
270.000000
0
LINE
8
0
10
3427.134642
20
1276.692242
30
0.0
11
3428.323439
21
1276.692242
31
0.0
0
ARC
8
0
10
3428.323439
20
1276.992242
30
0.0
40
0.300000
50
270.000000
51
33.675648
0
LINE
8
0
10
3428.573096
20
1277.158589
30
0.0
11
3427.099771
21
1279.369782
31
0.0
0
ARC
8
0
10
3426.850114
20
1279.203435
30
0.0
40
0.300000
50
33.675648
51
66.045185
0
LINE
8
0
10
3426.971919
20
1279.477595
30
0.0
11
3425.961463
21
1279.926524
31
0.0
0
ARC
8
0
10
3425.902339
20
1279.793446
30
0.0
40
0.145621
50
66.045185
51
180.000000
0
LINE
8
0
10
3425.757015
20
1279.784153
30
0.0
11
3425.766944
21
1279.628888
31
0.0
0
ARC
8
0
10
3425.567352
20
1279.616125
30
0.0
40
0.200000
50
310.482877
51
3.658900
0
LINE
8
0
10
3425.697196
20
1279.464005
30
0.0
11
3424.092994
21
1278.094716
31
0.0
0
ARC
8
0
10
3423.898227
20
1278.322896
30
0.0
40
0.300000
50
288.658900
51
310.482877
0
LINE
8
0
10
3423.994207
20
1278.038664
30
0.0
11
3423.709975
21
1277.942684
31
0.0
0
ARC
8
0
10
3423.613995
20
1278.226916
30
0.0
40
0.300000
50
90.000000
51
288.658900
0
LINE
8
0
10
3423.613995
20
1278.526916
30
0.0
11
3423.613995
21
1283.026916
31
0.0
0
ARC
8
0
10
3423.813995
20
1283.026916
30
0.0
40
0.200000
50
90.000000
51
180.000000
0
LINE
8
0
10
3423.813995
20
1283.226916
30
0.0
11
3423.881884
21
1283.226916
31
0.0
0
ARC
8
0
10
3423.881884
20
1282.926916
30
0.0
40
0.300000
50
58.619868
51
90.000000
0
LINE
8
0
10
3424.038098
20
1283.183035
30
0.0
11
3425.714091
21
1282.160802
31
0.0
0
ARC
8
0
10
3425.913995
20
1282.154612
30
0.0
40
0.200000
50
180.000000
51
360.000000
0
LINE
8
0
10
3426.113995
20
1282.154612
30
0.0
11
3426.113995
21
1283.464396
31
0.0
0
ARC
8
0
10
3425.113995
20
1283.464396
30
0.0
40
1.000000
50
360.000000
51
30.617788
0
ARC
8
0
10
3426.232754
20
1284.126498
30
0.0
40
0.300000
50
149.382212
51
210.617788
0
ARC
8
0
10
3425.113995
20
1284.788599
30
0.0
40
1.000000
50
329.382212
51
360.000000
0
LINE
8
0
10
3426.113995
20
1284.788599
30
0.0
11
3426.113995
21
1286.098383
31
0.0
0
ARC
8
0
10
3425.913995
20
1286.098383
30
0.0
40
0.200000
50
360.000000
51
180.000000
0
LINE
8
0
10
3425.714091
20
1286.092193
30
0.0
11
3424.038098
21
1285.069960
31
0.0
0
ARC
8
0
10
3423.881884
20
1285.326079
30
0.0
40
0.300000
50
270.000000
51
301.380132
0
LINE
8
0
10
3423.881884
20
1285.026079
30
0.0
11
3423.813995
21
1285.026079
31
0.0
0
ARC
8
0
10
3423.813995
20
1285.226079
30
0.0
40
0.200000
50
180.000000
51
270.000000
0
LINE
8
0
10
3423.613995
20
1285.226079
30
0.0
11
3423.613995
21
1289.726079
31
0.0
0
ARC
8
0
10
3423.613995
20
1290.026079
30
0.0
40
0.300000
50
71.341100
51
270.000000
0
LINE
8
0
10
3423.709975
20
1290.310311
30
0.0
11
3423.994207
21
1290.214331
31
0.0
0
ARC
8
0
10
3423.898227
20
1289.930099
30
0.0
40
0.300000
50
49.517123
51
71.341100
0
LINE
8
0
10
3424.092994
20
1290.158279
30
0.0
11
3425.697196
21
1288.788990
31
0.0
0
ARC
8
0
10
3425.567352
20
1288.636870
30
0.0
40
0.200000
50
356.341100
51
49.517123
0
LINE
8
0
10
3425.766944
20
1288.624107
30
0.0
11
3425.757015
21
1288.468842
31
0.0
0
ARC
8
0
10
3425.902339
20
1288.459549
30
0.0
40
0.145621
50
180.000000
51
293.954815
0
LINE
8
0
10
3425.961463
20
1288.326471
30
0.0
11
3426.971919
21
1288.775401
31
0.0
0
ARC
8
0
10
3426.850114
20
1289.049561
30
0.0
40
0.300000
50
293.954815
51
326.324352
0
LINE
8
0
10
3427.099771
20
1288.883213
30
0.0
11
3428.573096
21
1291.094406
31
0.0
0
ARC
8
0
10
3428.323439
20
1291.260753
30
0.0
40
0.300000
50
326.324352
51
90.000000
0
LINE
8
0
10
3428.323439
20
1291.560753
30
0.0
11
3427.134642
21
1291.560753
31
0.0
0
ARC
8
0
10
3427.134642
20
1291.060753
30
0.0
40
0.500000
50
90.000000
51
129.784920
0
ARC
8
0
10
3425.534874
20
1292.981883
30
0.0
40
2.000000
50
238.720368
51
309.784920
0
LINE
8
0
10
3424.496443
20
1291.272596
30
0.0
11
3423.879462
21
1291.647426
31
0.0
0
ARC
8
0
10
3423.775619
20
1291.476498
30
0.0
40
0.200000
50
58.720368
51
90.000000
0
LINE
8
0
10
3423.775619
20
1291.676498
30
0.0
11
3415.763995
21
1291.676498
31
0.0
0
LINE
8
0
10
3415.763995
20
1291.676498
30
0.0
11
3415.763995
21
1292.662007
31
0.0
0
LINE
8
0
10
3415.763995
20
1292.662007
30
0.0
11
3414.263995
21
1292.926498
31
0.0
0
LINE
8
0
10
3414.263995
20
1292.926498
30
0.0
11
3414.263995
21
1291.676498
31
0.0
0
LINE
8
0
10
3414.263995
20
1291.676498
30
0.0
11
3411.463995
21
1291.676498
31
0.0
0
ARC
8
0
10
3411.463995
20
1291.976498
30
0.0
40
0.300000
50
180.000000
51
270.000000
0
LINE
8
0
10
3462.708678
20
1288.455230
30
0.0
11
3463.138995
21
1290.176498
31
0.0
0
LINE
8
0
10
3463.138995
20
1290.176498
30
0.0
11
3474.563995
21
1290.176498
31
0.0
0
LINE
8
0
10
3474.563995
20
1290.176498
30
0.0
11
3474.563995
21
1278.076498
31
0.0
0
LINE
8
0
10
3474.563995
20
1278.076498
30
0.0
11
3443.113995
21
1278.076498
31
0.0
0
LINE
8
0
10
3443.113995
20
1278.076498
30
0.0
11
3443.113995
21
1290.076498
31
0.0
0
LINE
8
0
10
3443.113995
20
1290.076498
30
0.0
11
3461.113995
21
1290.076498
31
0.0
0
LINE
8
0
10
3461.113995
20
1290.076498
30
0.0
11
3461.113995
21
1288.076498
31
0.0
0
LINE
8
0
10
3461.113995
20
1288.076498
30
0.0
11
3462.223607
21
1288.076498
31
0.0
0
ARC
8
0
10
3462.223607
20
1288.576498
30
0.0
40
0.500000
50
270.000000
51
345.963757
0
LINE
8
0
10
3489.113995
20
1288.076498
30
0.0
11
3489.113995
21
1290.076498
31
0.0
0
LINE
8
0
10
3489.113995
20
1290.076498
30
0.0
11
3492.113995
21
1290.076498
31
0.0
0
LINE
8
0
10
3492.113995
20
1290.076498
30
0.0
11
3492.113995
21
1290.176498
31
0.0
0
LINE
8
0
10
3492.113995
20
1290.176498
30
0.0
11
3504.113995
21
1290.176498
31
0.0
0
LINE
8
0
10
3504.113995
20
1290.176498
30
0.0
11
3504.113995
21
1290.076498
31
0.0
0
LINE
8
0
10
3504.113995
20
1290.076498
30
0.0
11
3507.113995
21
1290.076498
31
0.0
0
LINE
8
0
10
3507.113995
20
1290.076498
30
0.0
11
3507.113995
21
1278.076498
31
0.0
0
LINE
8
0
10
3507.113995
20
1278.076498
30
0.0
11
3475.663995
21
1278.076498
31
0.0
0
LINE
8
0
10
3475.663995
20
1278.076498
30
0.0
11
3475.663995
21
1290.176498
31
0.0
0
LINE
8
0
10
3475.663995
20
1290.176498
30
0.0
11
3487.088995
21
1290.176498
31
0.0
0
LINE
8
0
10
3487.088995
20
1290.176498
30
0.0
11
3487.519312
21
1288.455230
31
0.0
0
ARC
8
0
10
3488.004384
20
1288.576498
30
0.0
40
0.500000
50
194.036244
51
270.000000
0
LINE
8
0
10
3488.004384
20
1288.076498
30
0.0
11
3489.113995
21
1288.076498
31
0.0
0
ARC
8
0
10
3460.713995
20
1315.461569
30
0.0
40
0.300000
50
75.000000
51
180.000000
0
LINE
8
0
10
3460.413995
20
1315.461569
30
0.0
11
3460.413995
21
1314.076498
31
0.0
0
ARC
8
0
10
3460.113995
20
1314.076498
30
0.0
40
0.300000
50
270.000000
51
360.000000
0
LINE
8
0
10
3460.113995
20
1313.776498
30
0.0
11
3459.213995
21
1313.776498
31
0.0
0
LINE
8
0
10
3459.213995
20
1313.776498
30
0.0
11
3459.213995
21
1315.951392
31
0.0
0
ARC
8
0
10
3458.913976
20
1315.951392
30
0.0
40
0.300019
50
360.000000
51
59.999999
0
ARC
8
0
10
3459.213995
20
1316.471019
30
0.0
40
0.300000
50
180.000000
51
239.997914
0
LINE
8
0
10
3458.913995
20
1316.471019
30
0.0
11
3458.913995
21
1317.105825
31
0.0
0
ARC
8
0
10
3459.213995
20
1317.105825
30
0.0
40
0.300000
50
75.000000
51
180.000000
0
LINE
8
0
10
3459.291641
20
1317.395602
30
0.0
11
3463.391641
21
1316.297011
31
0.0
0
ARC
8
0
10
3463.313995
20
1316.007233
30
0.0
40
0.300000
50
360.000000
51
75.000000
0
LINE
8
0
10
3463.613995
20
1316.007233
30
0.0
11
3463.613995
21
1303.826498
31
0.0
0
ARC
8
0
10
3463.313995
20
1303.826498
30
0.0
40
0.300000
50
270.000000
51
360.000000
0
LINE
8
0
10
3463.313995
20
1303.526498
30
0.0
11
3463.075500
21
1303.526498
31
0.0
0
ARC
8
0
10
3462.613995
20
1303.334108
30
0.0
40
0.500000
50
22.630008
51
157.369992
0
LINE
8
0
10
3462.152491
20
1303.526498
30
0.0
11
3461.563995
21
1303.526498
31
0.0
0
LINE
8
0
10
3461.563995
20
1303.526498
30
0.0
11
3461.563995
21
1302.655723
31
0.0
0
LINE
8
0
10
3461.563995
20
1302.655723
30
0.0
11
3460.263995
21
1302.426498
31
0.0
0
LINE
8
0
10
3460.263995
20
1302.426498
30
0.0
11
3460.263995
21
1303.426498
31
0.0
0
LINE
8
0
10
3460.263995
20
1303.426498
30
0.0
11
3457.463995
21
1303.426498
31
0.0
0
ARC
8
0
10
3457.463995
20
1303.126498
30
0.0
40
0.300000
50
90.000000
51
180.000000
0
LINE
8
0
10
3457.163995
20
1303.126498
30
0.0
11
3457.163995
21
1291.976498
31
0.0
0
ARC
8
0
10
3457.463995
20
1291.976498
30
0.0
40
0.300000
50
180.000000
51
270.000000
0
LINE
8
0
10
3457.463995
20
1291.676498
30
0.0
11
3460.263995
21
1291.676498
31
0.0
0
LINE
8
0
10
3460.263995
20
1291.676498
30
0.0
11
3460.263995
21
1292.926498
31
0.0
0
LINE
8
0
10
3460.263995
20
1292.926498
30
0.0
11
3461.763995
21
1292.662007
31
0.0
0
LINE
8
0
10
3461.763995
20
1292.662007
30
0.0
11
3461.763995
21
1291.676498
31
0.0
0
LINE
8
0
10
3461.763995
20
1291.676498
30
0.0
11
3501.113995
21
1291.676498
31
0.0
0
LINE
8
0
10
3501.113995
20
1291.676498
30
0.0
11
3501.113995
21
1303.076498
31
0.0
0
ARC
8
0
10
3500.813995
20
1303.076498
30
0.0
40
0.300000
50
360.000000
51
90.000000
0
LINE
8
0
10
3500.813995
20
1303.376498
30
0.0
11
3497.189458
21
1303.376498
31
0.0
0
ARC
8
0
10
3497.189458
20
1303.676498
30
0.0
40
0.300000
50
225.000000
51
270.000000
0
LINE
8
0
10
3496.977326
20
1303.464366
30
0.0
11
3494.701863
21
1305.739829
31
0.0
0
ARC
8
0
10
3494.913995
20
1305.951961
30
0.0
40
0.300000
50
180.000000
51
225.000000
0
LINE
8
0
10
3494.613995
20
1305.951961
30
0.0
11
3494.613995
21
1316.007233
31
0.0
0
ARC
8
0
10
3494.913995
20
1316.007233
30
0.0
40
0.300000
50
105.000000
51
180.000000
0
LINE
8
0
10
3494.836350
20
1316.297011
30
0.0
11
3498.936350
21
1317.395602
31
0.0
0
ARC
8
0
10
3499.013995
20
1317.105825
30
0.0
40
0.300000
50
360.000000
51
105.000000
0
LINE
8
0
10
3499.313995
20
1317.105825
30
0.0
11
3499.313995
21
1316.489732
31
0.0
0
ARC
8
0
10
3499.013995
20
1316.489732
30
0.0
40
0.300000
50
300.005051
51
360.000000
0
ARC
8
0
10
3499.314041
20
1315.970090
30
0.0
40
0.300046
50
119.999999
51
180.000000
0
LINE
8
0
10
3499.013995
20
1315.970117
30
0.0
11
3499.013995
21
1313.776498
31
0.0
0
LINE
8
0
10
3499.013995
20
1313.776498
30
0.0
11
3498.113995
21
1313.776498
31
0.0
0
ARC
8
0
10
3498.113995
20
1314.076498
30
0.0
40
0.300000
50
180.000000
51
270.000000
0
LINE
8
0
10
3497.813995
20
1314.076498
30
0.0
11
3497.813995
21
1315.461569
31
0.0
0
ARC
8
0
10
3497.513995
20
1315.461569
30
0.0
40
0.300000
50
360.000000
51
105.000000
0
LINE
8
0
10
3497.436350
20
1315.751347
30
0.0
11
3496.136350
21
1315.403013
31
0.0
0
ARC
8
0
10
3496.213995
20
1315.113236
30
0.0
40
0.300000
50
105.000000
51
180.000000
0
LINE
8
0
10
3495.913995
20
1315.113236
30
0.0
11
3495.913995
21
1306.490438
31
0.0
0
ARC
8
0
10
3496.213995
20
1306.490438
30
0.0
40
0.300000
50
180.000000
51
225.000000
0
LINE
8
0
10
3496.001863
20
1306.278306
30
0.0
11
3497.301863
21
1304.978306
31
0.0
0
ARC
8
0
10
3497.513995
20
1305.190438
30
0.0
40
0.300000
50
225.000000
51
360.000000
0
LINE
8
0
10
3497.813995
20
1305.190438
30
0.0
11
3497.813995
21
1307.876498
31
0.0
0
ARC
8
0
10
3498.113995
20
1307.876498
30
0.0
40
0.300000
50
90.000000
51
180.000000
0
LINE
8
0
10
3498.113995
20
1308.176498
30
0.0
11
3498.713995
21
1308.176498
31
0.0
0
ARC
8
0
10
3498.713995
20
1307.876498
30
0.0
40
0.300000
50
360.000000
51
90.000000
0
LINE
8
0
10
3499.013995
20
1307.876498
30
0.0
11
3499.013995
21
1305.176498
31
0.0
0
ARC
8
0
10
3499.313995
20
1305.176498
30
0.0
40
0.300000
50
180.000000
51
270.000000
0
LINE
8
0
10
3499.313995
20
1304.876498
30
0.0
11
3504.913995
21
1304.876498
31
0.0
0
ARC
8
0
10
3504.913995
20
1305.176498
30
0.0
40
0.300000
50
270.000000
51
360.000000
0
LINE
8
0
10
3505.213995
20
1305.176498
30
0.0
11
3505.213995
21
1307.876498
31
0.0
0
ARC
8
0
10
3505.513995
20
1307.876498
30
0.0
40
0.300000
50
90.000000
51
180.000000
0
LINE
8
0
10
3505.513995
20
1308.176498
30
0.0
11
3506.113995
21
1308.176498
31
0.0
0
ARC
8
0
10
3506.113995
20
1307.876498
30
0.0
40
0.300000
50
360.000000
51
90.000000
0
LINE
8
0
10
3506.413995
20
1307.876498
30
0.0
11
3506.413995
21
1305.190438
31
0.0
0
ARC
8
0
10
3506.713995
20
1305.190438
30
0.0
40
0.300000
50
180.000000
51
315.000000
0
LINE
8
0
10
3506.926127
20
1304.978306
30
0.0
11
3508.226127
21
1306.278306
31
0.0
0
ARC
8
0
10
3508.013995
20
1306.490438
30
0.0
40
0.300000
50
315.000000
51
360.000000
0
LINE
8
0
10
3508.313995
20
1306.490438
30
0.0
11
3508.313995
21
1315.113236
31
0.0
0
ARC
8
0
10
3508.013995
20
1315.113236
30
0.0
40
0.300000
50
360.000000
51
75.000000
0
LINE
8
0
10
3508.091641
20
1315.403013
30
0.0
11
3506.791641
21
1315.751347
31
0.0
0
ARC
8
0
10
3506.713995
20
1315.461569
30
0.0
40
0.300000
50
75.000000
51
180.000000
0
LINE
8
0
10
3506.413995
20
1315.461569
30
0.0
11
3506.413995
21
1314.076498
31
0.0
0
ARC
8
0
10
3506.113995
20
1314.076498
30
0.0
40
0.300000
50
270.000000
51
360.000000
0
LINE
8
0
10
3506.113995
20
1313.776498
30
0.0
11
3505.213995
21
1313.776498
31
0.0
0
LINE
8
0
10
3505.213995
20
1313.776498
30
0.0
11
3505.213995
21
1315.951392
31
0.0
0
ARC
8
0
10
3504.913976
20
1315.951392
30
0.0
40
0.300019
50
360.000000
51
59.999999
0
ARC
8
0
10
3505.213995
20
1316.471019
30
0.0
40
0.300000
50
180.000000
51
239.997914
0
LINE
8
0
10
3504.913995
20
1316.471019
30
0.0
11
3504.913995
21
1317.105825
31
0.0
0
ARC
8
0
10
3505.213995
20
1317.105825
30
0.0
40
0.300000
50
75.000000
51
180.000000
0
LINE
8
0
10
3505.291641
20
1317.395602
30
0.0
11
3509.391641
21
1316.297011
31
0.0
0
ARC
8
0
10
3509.313995
20
1316.007233
30
0.0
40
0.300000
50
360.000000
51
75.000000
0
LINE
8
0
10
3509.613995
20
1316.007233
30
0.0
11
3509.613995
21
1305.951961
31
0.0
0
ARC
8
0
10
3509.313995
20
1305.951961
30
0.0
40
0.300000
50
315.000000
51
360.000000
0
LINE
8
0
10
3509.526127
20
1305.739829
30
0.0
11
3507.250664
21
1303.464366
31
0.0
0
ARC
8
0
10
3507.038532
20
1303.676498
30
0.0
40
0.300000
50
270.000000
51
315.000000
0
LINE
8
0
10
3507.038532
20
1303.376498
30
0.0
11
3503.413995
21
1303.376498
31
0.0
0
ARC
8
0
10
3503.413995
20
1303.076498
30
0.0
40
0.300000
50
90.000000
51
180.000000
0
LINE
8
0
10
3503.113995
20
1303.076498
30
0.0
11
3503.113995
21
1291.726498
31
0.0
0
LINE
8
0
10
3503.113995
20
1291.726498
30
0.0
11
3508.340142
21
1291.269269
31
0.0
0
ARC
8
0
10
3508.313995
20
1290.970411
30
0.0
40
0.300000
50
360.000000
51
85.000000
0
LINE
8
0
10
3508.613995
20
1290.970411
30
0.0
11
3508.613995
21
1271.876498
31
0.0
0
ARC
8
0
10
3508.313995
20
1271.876498
30
0.0
40
0.300000
50
270.000000
51
360.000000
0
LINE
8
0
10
3508.313995
20
1271.576498
30
0.0
11
3505.821102
21
1271.576498
31
0.0
0
ARC
8
0
10
3505.821102
20
1272.076498
30
0.0
40
0.500000
50
225.000000
51
270.000000
0
LINE
8
0
10
3505.467549
20
1271.722944
30
0.0
11
3504.760442
21
1272.430051
31
0.0
0
ARC
8
0
10
3505.113995
20
1272.783604
30
0.0
40
0.500000
50
180.000000
51
225.000000
0
LINE
8
0
10
3504.613995
20
1272.783604
30
0.0
11
3504.613995
21
1273.576498
31
0.0
0
LINE
8
0
10
3504.613995
20
1273.576498
30
0.0
11
3506.613995
21
1273.576498
31
0.0
0
LINE
8
0
10
3506.613995
20
1273.576498
30
0.0
11
3506.613995
21
1276.576498
31
0.0
0
LINE
8
0
10
3506.613995
20
1276.576498
30
0.0
11
3490.613995
21
1276.576498
31
0.0
0
LINE
8
0
10
3490.613995
20
1276.576498
30
0.0
11
3490.613995
21
1273.576498
31
0.0
0
LINE
8
0
10
3490.613995
20
1273.576498
30
0.0
11
3492.613995
21
1273.576498
31
0.0
0
LINE
8
0
10
3492.613995
20
1273.576498
30
0.0
11
3492.613995
21
1272.783604
31
0.0
0
ARC
8
0
10
3492.113995
20
1272.783604
30
0.0
40
0.500000
50
315.000000
51
360.000000
0
LINE
8
0
10
3492.467549
20
1272.430051
30
0.0
11
3491.760442
21
1271.722944
31
0.0
0
ARC
8
0
10
3491.406889
20
1272.076498
30
0.0
40
0.500000
50
270.000000
51
315.000000
0
LINE
8
0
10
3491.406889
20
1271.576498
30
0.0
11
3489.313995
21
1271.576498
31
0.0
0
ARC
8
0
10
3489.313995
20
1272.076498
30
0.0
40
0.500000
50
180.000000
51
270.000000
0
LINE
8
0
10
3488.813995
20
1272.076498
30
0.0
11
3488.813995
21
1276.576498
31
0.0
0
LINE
8
0
10
3488.813995
20
1276.576498
30
0.0
11
3462.613995
21
1276.576498
31
0.0
0
LINE
8
0
10
3462.613995
20
1276.576498
30
0.0
11
3462.613995
21
1273.576498
31
0.0
0
LINE
8
0
10
3462.613995
20
1273.576498
30
0.0
11
3464.613995
21
1273.576498
31
0.0
0
LINE
8
0
10
3464.613995
20
1273.576498
30
0.0
11
3464.613995
21
1272.783604
31
0.0
0
ARC
8
0
10
3464.113995
20
1272.783604
30
0.0
40
0.500000
50
315.000000
51
360.000000
0
LINE
8
0
10
3464.467549
20
1272.430051
30
0.0
11
3463.760442
21
1271.722944
31
0.0
0
ARC
8
0
10
3463.406889
20
1272.076498
30
0.0
40
0.500000
50
270.000000
51
315.000000
0
LINE
8
0
10
3463.406889
20
1271.576498
30
0.0
11
3460.021102
21
1271.576498
31
0.0
0
ARC
8
0
10
3460.021102
20
1272.076498
30
0.0
40
0.500000
50
225.000000
51
270.000000
0
LINE
8
0
10
3459.667549
20
1271.722944
30
0.0
11
3458.960442
21
1272.430051
31
0.0
0
ARC
8
0
10
3459.313995
20
1272.783604
30
0.0
40
0.500000
50
180.000000
51
225.000000
0
LINE
8
0
10
3458.813995
20
1272.783604
30
0.0
11
3458.813995
21
1273.576498
31
0.0
0
LINE
8
0
10
3458.813995
20
1273.576498
30
0.0
11
3460.813995
21
1273.576498
31
0.0
0
LINE
8
0
10
3460.813995
20
1273.576498
30
0.0
11
3460.813995
21
1276.576498
31
0.0
0
LINE
8
0
10
3460.813995
20
1276.576498
30
0.0
11
3442.365339
21
1276.576498
31
0.0
0
ARC
8
0
10
3442.365339
20
1277.076498
30
0.0
40
0.500000
50
253.000000
51
270.000000
0
LINE
8
0
10
3442.219153
20
1276.598345
30
0.0
11
3440.318494
21
1277.179435
31
0.0
0
ARC
8
0
10
3440.230783
20
1276.892544
30
0.0
40
0.300000
50
73.000000
51
168.943882
0
ARC
8
0
10
3439.641919
20
1277.007606
30
0.0
40
0.300000
50
273.000000
51
348.943882
0
LINE
8
0
10
3439.657620
20
1276.708017
30
0.0
11
3436.907357
21
1276.563882
31
0.0
0
ARC
8
0
10
3436.891656
20
1276.863471
30
0.0
40
0.300000
50
148.000000
51
273.000000
0
LINE
8
0
10
3436.637242
20
1277.022446
30
0.0
11
3438.089814
21
1279.347047
31
0.0
0
ARC
8
0
10
3438.344228
20
1279.188071
30
0.0
40
0.300000
50
118.000000
51
148.000000
0
LINE
8
0
10
3438.203387
20
1279.452956
30
0.0
11
3439.066325
21
1279.911788
31
0.0
0
ARC
8
0
10
3439.160219
20
1279.735199
30
0.0
40
0.200000
50
360.000000
51
118.000000
0
LINE
8
0
10
3439.360098
20
1279.728219
30
0.0
11
3439.354053
21
1279.555119
31
0.0
0
ARC
8
0
10
3439.553931
20
1279.548139
30
0.0
40
0.200000
50
180.000000
51
238.000000
0
LINE
8
0
10
3439.447947
20
1279.378530
30
0.0
11
3441.222775
21
1278.269494
31
0.0
0
LINE
8
0
10
3441.222775
20
1278.269494
30
0.0
11
3441.270285
21
1278.247843
31
0.0
0
LINE
8
0
10
3441.270285
20
1278.247843
30
0.0
11
3441.465055
21
1278.188295
31
0.0
0
ARC
8
0
10
3441.543995
20
1278.446498
30
0.0
40
0.270000
50
253.000000
51
54.937610
0
ARC
8
0
10
3441.813995
20
1278.831205
30
0.0
40
0.200000
50
180.000000
51
234.937610
0
LINE
8
0
10
3441.613995
20
1278.831205
30
0.0
11
3441.613995
21
1282.806498
31
0.0
0
ARC
8
0
10
3441.343995
20
1282.806498
30
0.0
40
0.270000
50
360.000000
51
90.000000
0
LINE
8
0
10
3441.343995
20
1283.076498
30
0.0
11
3441.070213
21
1283.076498
31
0.0
0
ARC
8
0
10
3441.070213
20
1282.876498
30
0.0
40
0.200000
50
90.000000
51
121.400000
0
LINE
8
0
10
3440.966011
20
1283.047208
30
0.0
11
3439.513899
21
1282.160835
31
0.0
0
ARC
8
0
10
3439.313995
20
1282.154612
30
0.0
40
0.200000
50
180.000000
51
360.000000
0
LINE
8
0
10
3439.113995
20
1282.154612
30
0.0
11
3439.113995
21
1283.464396
31
0.0
0
ARC
8
0
10
3440.113995
20
1283.464396
30
0.0
40
1.000000
50
149.382212
51
180.000000
0
ARC
8
0
10
3438.995236
20
1284.126498
30
0.0
40
0.300000
50
329.382212
51
30.617788
0
ARC
8
0
10
3440.113995
20
1284.788599
30
0.0
40
1.000000
50
180.000000
51
210.617788
0
LINE
8
0
10
3439.113995
20
1284.788599
30
0.0
11
3439.113995
21
1286.098383
31
0.0
0
ARC
8
0
10
3439.313995
20
1286.098383
30
0.0
40
0.200000
50
360.000000
51
180.000000
0
LINE
8
0
10
3439.513899
20
1286.092161
30
0.0
11
3440.966011
21
1285.205788
31
0.0
0
ARC
8
0
10
3441.070213
20
1285.376498
30
0.0
40
0.200000
50
238.600000
51
270.000000
0
LINE
8
0
10
3441.070213
20
1285.176498
30
0.0
11
3441.343995
21
1285.176498
31
0.0
0
ARC
8
0
10
3441.343995
20
1285.446498
30
0.0
40
0.270000
50
270.000000
51
360.000000
0
LINE
8
0
10
3441.613995
20
1285.446498
30
0.0
11
3441.613995
21
1289.421790
31
0.0
0
ARC
8
0
10
3441.813995
20
1289.421790
30
0.0
40
0.200000
50
125.062390
51
180.000000
0
ARC
8
0
10
3441.543995
20
1289.806498
30
0.0
40
0.270000
50
305.062390
51
107.000000
0
LINE
8
0
10
3441.465055
20
1290.064700
30
0.0
11
3441.270285
21
1290.005153
31
0.0
0
LINE
8
0
10
3441.270285
20
1290.005153
30
0.0
11
3441.222775
21
1289.983501
31
0.0
0
LINE
8
0
10
3441.222775
20
1289.983501
30
0.0
11
3439.447947
21
1288.874466
31
0.0
0
ARC
8
0
10
3439.553931
20
1288.704856
30
0.0
40
0.200000
50
122.000000
51
180.000000
0
LINE
8
0
10
3439.354053
20
1288.697876
30
0.0
11
3439.360098
21
1288.524777
31
0.0
0
ARC
8
0
10
3439.160219
20
1288.517797
30
0.0
40
0.200000
50
242.000000
51
360.000000
0
LINE
8
0
10
3439.066325
20
1288.341207
30
0.0
11
3438.203387
21
1288.800040
31
0.0
0
ARC
8
0
10
3438.344228
20
1289.064924
30
0.0
40
0.300000
50
212.000000
51
242.000000
0
LINE
8
0
10
3438.089814
20
1288.905948
30
0.0
11
3436.637242
21
1291.230549
31
0.0
0
ARC
8
0
10
3436.891656
20
1291.389525
30
0.0
40
0.300000
50
87.000000
51
212.000000
0
LINE
8
0
10
3436.907357
20
1291.689114
30
0.0
11
3439.657620
21
1291.544978
31
0.0
0
ARC
8
0
10
3439.641919
20
1291.245390
30
0.0
40
0.300000
50
11.056118
51
87.000000
0
ARC
8
0
10
3440.230783
20
1291.360452
30
0.0
40
0.300000
50
191.056118
51
287.000000
0
LINE
8
0
10
3440.318494
20
1291.073560
30
0.0
11
3442.238962
21
1291.660706
31
0.0
0
ARC
8
0
10
3442.385148
20
1291.182554
30
0.0
40
0.500000
50
90.000000
51
107.000000
0
LINE
8
0
10
3442.389315
20
1291.682537
30
0.0
11
3455.113995
21
1291.576498
31
0.0
0
LINE
8
0
10
3455.113995
20
1291.576498
30
0.0
11
3455.113995
21
1303.076498
31
0.0
0
ARC
8
0
10
3454.813995
20
1303.076498
30
0.0
40
0.300000
50
360.000000
51
90.000000
0
LINE
8
0
10
3454.813995
20
1303.376498
30
0.0
11
3451.189458
21
1303.376498
31
0.0
0
ARC
8
0
10
3451.189458
20
1303.676498
30
0.0
40
0.300000
50
225.000000
51
270.000000
0
LINE
8
0
10
3450.977326
20
1303.464366
30
0.0
11
3448.701863
21
1305.739829
31
0.0
0
ARC
8
0
10
3448.913995
20
1305.951961
30
0.0
40
0.300000
50
180.000000
51
225.000000
0
LINE
8
0
10
3448.613995
20
1305.951961
30
0.0
11
3448.613995
21
1316.007233
31
0.0
0
ARC
8
0
10
3448.913995
20
1316.007233
30
0.0
40
0.300000
50
105.000000
51
180.000000
0
LINE
8
0
10
3448.836350
20
1316.297011
30
0.0
11
3452.936350
21
1317.395602
31
0.0
0
ARC
8
0
10
3453.013995
20
1317.105825
30
0.0
40
0.300000
50
360.000000
51
105.000000
0
LINE
8
0
10
3453.313995
20
1317.105825
30
0.0
11
3453.313995
21
1316.489732
31
0.0
0
ARC
8
0
10
3453.013995
20
1316.489732
30
0.0
40
0.300000
50
300.005051
51
360.000000
0
ARC
8
0
10
3453.314041
20
1315.970090
30
0.0
40
0.300046
50
119.999999
51
180.000000
0
LINE
8
0
10
3453.013995
20
1315.970117
30
0.0
11
3453.013995
21
1313.776498
31
0.0
0
LINE
8
0
10
3453.013995
20
1313.776498
30
0.0
11
3452.113995
21
1313.776498
31
0.0
0
ARC
8
0
10
3452.113995
20
1314.076498
30
0.0
40
0.300000
50
180.000000
51
270.000000
0
LINE
8
0
10
3451.813995
20
1314.076498
30
0.0
11
3451.813995
21
1315.461569
31
0.0
0
ARC
8
0
10
3451.513995
20
1315.461569
30
0.0
40
0.300000
50
360.000000
51
105.000000
0
LINE
8
0
10
3451.436350
20
1315.751347
30
0.0
11
3450.136350
21
1315.403013
31
0.0
0
ARC
8
0
10
3450.213995
20
1315.113236
30
0.0
40
0.300000
50
105.000000
51
180.000000
0
LINE
8
0
10
3449.913995
20
1315.113236
30
0.0
11
3449.913995
21
1306.490438
31
0.0
0
ARC
8
0
10
3450.213995
20
1306.490438
30
0.0
40
0.300000
50
180.000000
51
225.000000
0
LINE
8
0
10
3450.001863
20
1306.278306
30
0.0
11
3451.301863
21
1304.978306
31
0.0
0
ARC
8
0
10
3451.513995
20
1305.190438
30
0.0
40
0.300000
50
225.000000
51
360.000000
0
LINE
8
0
10
3451.813995
20
1305.190438
30
0.0
11
3451.813995
21
1307.876498
31
0.0
0
ARC
8
0
10
3452.113995
20
1307.876498
30
0.0
40
0.300000
50
90.000000
51
180.000000
0
LINE
8
0
10
3452.113995
20
1308.176498
30
0.0
11
3452.713995
21
1308.176498
31
0.0
0
ARC
8
0
10
3452.713995
20
1307.876498
30
0.0
40
0.300000
50
360.000000
51
90.000000
0
LINE
8
0
10
3453.013995
20
1307.876498
30
0.0
11
3453.013995
21
1305.176498
31
0.0
0
ARC
8
0
10
3453.313995
20
1305.176498
30
0.0
40
0.300000
50
180.000000
51
270.000000
0
LINE
8
0
10
3453.313995
20
1304.876498
30
0.0
11
3458.913995
21
1304.876498
31
0.0
0
ARC
8
0
10
3458.913995
20
1305.176498
30
0.0
40
0.300000
50
270.000000
51
360.000000
0
LINE
8
0
10
3459.213995
20
1305.176498
30
0.0
11
3459.213995
21
1307.876498
31
0.0
0
ARC
8
0
10
3459.513995
20
1307.876498
30
0.0
40
0.300000
50
90.000000
51
180.000000
0
LINE
8
0
10
3459.513995
20
1308.176498
30
0.0
11
3460.113995
21
1308.176498
31
0.0
0
ARC
8
0
10
3460.113995
20
1307.876498
30
0.0
40
0.300000
50
360.000000
51
90.000000
0
LINE
8
0
10
3460.413995
20
1307.876498
30
0.0
11
3460.413995
21
1305.376498
31
0.0
0
ARC
8
0
10
3460.913995
20
1305.376498
30
0.0
40
0.500000
50
180.000000
51
270.000000
0
LINE
8
0
10
3460.913995
20
1304.876498
30
0.0
11
3461.813995
21
1304.876498
31
0.0
0
ARC
8
0
10
3461.813995
20
1305.376498
30
0.0
40
0.500000
50
270.000000
51
360.000000
0
LINE
8
0
10
3462.313995
20
1305.376498
30
0.0
11
3462.313995
21
1315.113236
31
0.0
0
ARC
8
0
10
3462.013995
20
1315.113236
30
0.0
40
0.300000
50
360.000000
51
75.000000
0
LINE
8
0
10
3462.091641
20
1315.403013
30
0.0
11
3460.791641
21
1315.751347
31
0.0
0
LINE
8
0
10
3423.667747
20
1288.523276
30
0.0
11
3424.495017
21
1289.350546
31
0.0
0
LINE
8
0
10
3423.713995
20
1286.324460
30
0.0
11
3424.192669
21
1286.803134
31
0.0
0
LINE
8
0
10
3424.939015
20
1287.549479
30
0.0
11
3425.918331
21
1288.528795
31
0.0
0
LINE
8
0
10
3425.785310
20
1286.150711
30
0.0
11
3430.912752
21
1291.278153
31
0.0
0
LINE
8
0
10
3423.713995
20
1281.834332
30
0.0
11
3424.634685
21
1282.755022
31
0.0
0
LINE
8
0
10
3431.357816
20
1289.478153
30
0.0
11
3433.157816
21
1291.278153
31
0.0
0
LINE
8
0
10
3423.613995
20
1279.489268
30
0.0
11
3424.388494
21
1280.263766
31
0.0
0
LINE
8
0
10
3433.602880
20
1289.478153
30
0.0
11
3435.402880
21
1291.278153
31
0.0
0
LINE
8
0
10
3424.963495
20
1280.838768
30
0.0
11
3426.057999
21
1281.933271
31
0.0
0
LINE
8
0
10
3426.259023
20
1279.889231
30
0.0
11
3428.010369
21
1281.640578
31
0.0
0
LINE
8
0
10
3435.394122
20
1289.024331
30
0.0
11
3436.686549
21
1290.316758
31
0.0
0
LINE
8
0
10
3427.716976
20
1279.102121
30
0.0
11
3429.009403
21
1280.394548
31
0.0
0
LINE
8
0
10
3436.318721
20
1287.703866
30
0.0
11
3437.611148
21
1288.996293
31
0.0
0
LINE
8
0
10
3428.641575
20
1277.781656
30
0.0
11
3429.941014
21
1279.081094
31
0.0
0
LINE
8
0
10
3437.387386
20
1286.527467
30
0.0
11
3439.496706
21
1288.636786
31
0.0
0
LINE
8
0
10
3430.068249
20
1276.963266
30
0.0
11
3431.868249
21
1278.763266
31
0.0
0
LINE
8
0
10
3441.052692
20
1287.947708
30
0.0
11
3441.513998
21
1288.409015
31
0.0
0
LINE
8
0
10
3439.324136
20
1286.219153
30
0.0
11
3440.294440
21
1287.189456
31
0.0
0
LINE
8
0
10
3432.313313
20
1276.963266
30
0.0
11
3434.113313
21
1278.763266
31
0.0
0
LINE
8
0
10
3440.747450
20
1285.397402
30
0.0
11
3441.574423
21
1286.224375
31
0.0
0
LINE
8
0
10
3434.558378
20
1276.963266
30
0.0
11
3440.017954
21
1282.422842
31
0.0
0
LINE
8
0
10
3439.463804
20
1279.623628
30
0.0
11
3440.367118
21
1280.526943
31
0.0
0
LINE
8
0
10
3441.226093
20
1281.385918
30
0.0
11
3441.513995
21
1281.673820
31
0.0
0
LINE
8
0
10
3440.887118
20
1278.801878
30
0.0
11
3441.613995
21
1279.528756
31
0.0
0
LINE
8
0
10
3425.104004
20
1279.242471
30
0.0
11
3424.006635
21
1280.339840
31
0.0
0
LINE
8
0
10
3429.628273
20
1276.963266
30
0.0
11
3428.248468
21
1278.343071
31
0.0
0
LINE
8
0
10
3426.629113
20
1279.962426
30
0.0
11
3423.738382
21
1282.853157
31
0.0
0
LINE
8
0
10
3431.873337
20
1276.963266
30
0.0
11
3427.073337
21
1281.763266
31
0.0
0
LINE
8
0
10
3434.118401
20
1276.963266
30
0.0
11
3432.318401
21
1278.763266
31
0.0
0
LINE
8
0
10
3425.243671
20
1285.837996
30
0.0
11
3424.300103
21
1286.781564
31
0.0
0
LINE
8
0
10
3436.157554
20
1277.169178
30
0.0
11
3434.563436
21
1278.763295
31
0.0
0
LINE
8
0
10
3426.848578
20
1286.478153
30
0.0
11
3423.873910
21
1289.452821
31
0.0
0
LINE
8
0
10
3437.082153
20
1278.489642
30
0.0
11
3435.789726
21
1279.782069
31
0.0
0
LINE
8
0
10
3428.480408
20
1287.091388
30
0.0
11
3427.187109
21
1288.384687
31
0.0
0
LINE
8
0
10
3438.006752
20
1279.810107
30
0.0
11
3436.714325
21
1281.102534
31
0.0
0
LINE
8
0
10
3429.405007
20
1288.411852
30
0.0
11
3428.112580
21
1289.704279
31
0.0
0
LINE
8
0
10
3441.291146
20
1278.770777
30
0.0
11
3438.298657
21
1281.763266
31
0.0
0
LINE
8
0
10
3430.587375
20
1289.474548
30
0.0
11
3429.037179
21
1291.024744
31
0.0
0
LINE
8
0
10
3440.844053
20
1281.462935
30
0.0
11
3439.933122
21
1282.373865
31
0.0
0
LINE
8
0
10
3432.828834
20
1289.478153
30
0.0
11
3431.028834
21
1291.278153
31
0.0
0
LINE
8
0
10
3438.073898
20
1286.478153
30
0.0
11
3433.273898
21
1291.278153
31
0.0
0
LINE
8
0
10
3441.445302
20
1285.351814
30
0.0
11
3438.518962
21
1288.278153
31
0.0
0
LINE
8
0
10
3437.168138
20
1289.628978
30
0.0
11
3435.518962
21
1291.278153
31
0.0
0
LINE
8
0
10
3441.121731
20
1287.920448
30
0.0
11
3440.072790
21
1288.969389
31
0.0
0
ARC
8
0
10
3427.530449
20
1280.763266
30
0.0
40
1.000000
50
35.000000
51
90.000000
0
LINE
8
0
10
3427.530449
20
1281.763266
30
0.0
11
3426.673995
21
1281.763266
31
0.0
0
ARC
8
0
10
3426.673995
20
1282.963266
30
0.0
40
1.200000
50
240.000000
51
270.000000
0
LINE
8
0
10
3426.073995
20
1281.924036
30
0.0
11
3424.320406
21
1282.936471
31
0.0
0
ARC
8
0
10
3424.220406
20
1282.763266
30
0.0
40
0.200000
50
60.000000
51
90.000000
0
LINE
8
0
10
3424.220406
20
1282.963266
30
0.0
11
3424.013995
21
1282.963266
31
0.0
0
ARC
8
0
10
3424.013995
20
1282.563266
30
0.0
40
0.400000
50
90.000000
51
180.000000
0
LINE
8
0
10
3423.613995
20
1282.563266
30
0.0
11
3423.613995
21
1282.136471
31
0.0
0
ARC
8
0
10
3423.813995
20
1282.136471
30
0.0
40
0.200000
50
180.000000
51
239.999983
0
LINE
8
0
10
3423.713995
20
1281.963266
30
0.0
11
3423.713995
21
1281.638266
31
0.0
0
ARC
8
0
10
3423.963995
20
1281.638266
30
0.0
40
0.250000
50
180.000000
51
270.000000
0
ARC
8
0
10
3424.006991
20
1281.634541
30
0.0
40
0.250000
50
260.096833
51
293.425436
0
ARC
8
0
10
3424.363995
20
1280.863266
30
0.0
40
0.600000
50
360.000000
51
115.426875
0
ARC
8
0
10
3424.363995
20
1280.863266
30
0.0
40
0.600000
50
245.750424
51
360.000000
0
ARC
8
0
10
3424.014889
20
1280.088264
30
0.0
40
0.250002
50
65.750420
51
90.000000
0
ARC
8
0
10
3423.963940
20
1280.093513
30
0.0
40
0.250000
50
78.240959
51
180.000000
0
LINE
8
0
10
3423.713995
20
1280.088266
30
0.0
11
3423.713992
21
1279.763432
31
0.0
0
ARC
8
0
10
3423.863995
20
1279.563266
30
0.0
40
0.250000
50
126.869898
51
180.000000
0
LINE
8
0
10
3423.613995
20
1279.563266
30
0.0
11
3423.613995
21
1279.163266
31
0.0
0
ARC
8
0
10
3424.013995
20
1279.163266
30
0.0
40
0.400000
50
180.000000
51
270.000000
0
LINE
8
0
10
3424.013995
20
1278.763266
30
0.0
11
3424.220406
21
1278.763266
31
0.0
0
ARC
8
0
10
3424.220406
20
1278.963266
30
0.0
40
0.200000
50
270.000000
51
300.000000
0
LINE
8
0
10
3424.320406
20
1278.790061
30
0.0
11
3426.073995
21
1279.802497
31
0.0
0
ARC
8
0
10
3426.673995
20
1278.763266
30
0.0
40
1.200000
50
90.000000
51
120.000000
0
LINE
8
0
10
3426.673995
20
1279.963266
30
0.0
11
3426.957825
21
1279.963266
31
0.0
0
ARC
8
0
10
3426.957825
20
1279.663266
30
0.0
40
0.300000
50
35.000000
51
90.000000
0
LINE
8
0
10
3427.203571
20
1279.835339
30
0.0
11
3429.125042
21
1277.091193
31
0.0
0
ARC
8
0
10
3429.370788
20
1277.263266
30
0.0
40
0.300000
50
215.000000
51
270.000000
0
LINE
8
0
10
3429.370788
20
1276.963266
30
0.0
11
3435.857203
21
1276.963266
31
0.0
0
ARC
8
0
10
3435.857203
20
1277.263266
30
0.0
40
0.300000
50
270.000000
51
325.000000
0
LINE
8
0
10
3436.102948
20
1277.091193
30
0.0
11
3438.024420
21
1279.835339
31
0.0
0
ARC
8
0
10
3438.270165
20
1279.663266
30
0.0
40
0.300000
50
90.000000
51
145.000000
0
LINE
8
0
10
3438.270165
20
1279.963266
30
0.0
11
3438.553995
21
1279.963266
31
0.0
0
ARC
8
0
10
3438.553995
20
1278.763266
30
0.0
40
1.200000
50
60.000000
51
90.000000
0
LINE
8
0
10
3439.153995
20
1279.802497
30
0.0
11
3440.907585
21
1278.790061
31
0.0
0
ARC
8
0
10
3441.007585
20
1278.963266
30
0.0
40
0.200000
50
240.000000
51
270.000000
0
LINE
8
0
10
3441.007585
20
1278.763266
30
0.0
11
3441.213995
21
1278.763266
31
0.0
0
ARC
8
0
10
3441.213995
20
1279.163266
30
0.0
40
0.400000
50
270.000000
51
360.000000
0
LINE
8
0
10
3441.613995
20
1279.163266
30
0.0
11
3441.613995
21
1279.563266
31
0.0
0
ARC
8
0
10
3441.363995
20
1279.563266
30
0.0
40
0.250000
50
360.000000
51
53.130102
0
LINE
8
0
10
3441.513999
20
1279.763432
30
0.0
11
3441.513995
21
1280.088269
31
0.0
0
ARC
8
0
10
3441.263995
20
1280.088266
30
0.0
40
0.250000
50
360.000000
51
90.000000
0
ARC
8
0
10
3441.221000
20
1280.091989
30
0.0
40
0.250002
50
80.096998
51
113.425442
0
ARC
8
0
10
3440.863995
20
1280.863266
30
0.0
40
0.600000
50
180.000000
51
295.426810
0
ARC
8
0
10
3440.863995
20
1280.863266
30
0.0
40
0.600000
50
65.750372
51
180.000000
0
ARC
8
0
10
3441.213101
20
1281.638266
30
0.0
40
0.250000
50
245.750372
51
270.000000
0
ARC
8
0
10
3441.264050
20
1281.633019
30
0.0
40
0.250000
50
258.240959
51
360.000000
0
LINE
8
0
10
3441.513995
20
1281.638266
30
0.0
11
3441.513995
21
1281.963266
31
0.0
0
ARC
8
0
10
3441.413995
20
1282.136471
30
0.0
40
0.200000
50
300.000000
51
360.000000
0
LINE
8
0
10
3441.613995
20
1282.136471
30
0.0
11
3441.613995
21
1282.563266
31
0.0
0
ARC
8
0
10
3441.213995
20
1282.563266
30
0.0
40
0.400000
50
360.000000
51
90.000000
0
LINE
8
0
10
3441.213995
20
1282.963266
30
0.0
11
3441.007585
21
1282.963266
31
0.0
0
ARC
8
0
10
3441.007585
20
1282.763266
30
0.0
40
0.200000
50
90.000000
51
120.000000
0
LINE
8
0
10
3440.907585
20
1282.936471
30
0.0
11
3439.153995
21
1281.924036
31
0.0
0
ARC
8
0
10
3438.553995
20
1282.963266
30
0.0
40
1.200000
50
270.000000
51
300.000000
0
LINE
8
0
10
3438.553995
20
1281.763266
30
0.0
11
3437.697542
21
1281.763266
31
0.0
0
ARC
8
0
10
3437.697542
20
1280.763266
30
0.0
40
1.000000
50
90.000000
51
145.000000
0
LINE
8
0
10
3436.878390
20
1281.336842
30
0.0
11
3435.374937
21
1279.189690
31
0.0
0
ARC
8
0
10
3434.555785
20
1279.763266
30
0.0
40
1.000000
50
270.000000
51
325.000000
0
LINE
8
0
10
3434.555785
20
1278.763266
30
0.0
11
3430.672206
21
1278.763266
31
0.0
0
ARC
8
0
10
3430.672206
20
1279.763266
30
0.0
40
1.000000
50
215.000000
51
270.000000
0
LINE
8
0
10
3429.853054
20
1279.189690
30
0.0
11
3428.349601
21
1281.336842
31
0.0
0
ARC
8
0
10
3435.857203
20
1290.978153
30
0.0
40
0.300000
50
35.000000
51
90.000000
0
LINE
8
0
10
3435.857203
20
1291.278153
30
0.0
11
3429.370788
21
1291.278153
31
0.0
0
ARC
8
0
10
3429.370788
20
1290.978153
30
0.0
40
0.300000
50
90.000000
51
145.000000
0
LINE
8
0
10
3429.125042
20
1291.150226
30
0.0
11
3427.203571
21
1288.406080
31
0.0
0
ARC
8
0
10
3426.957825
20
1288.578153
30
0.0
40
0.300000
50
270.000000
51
325.000000
0
LINE
8
0
10
3426.957825
20
1288.278153
30
0.0
11
3426.673995
21
1288.278153
31
0.0
0
ARC
8
0
10
3426.673995
20
1289.478153
30
0.0
40
1.200000
50
240.000000
51
270.000000
0
LINE
8
0
10
3426.073995
20
1288.438922
30
0.0
11
3424.320406
21
1289.451358
31
0.0
0
ARC
8
0
10
3424.220406
20
1289.278153
30
0.0
40
0.200000
50
60.000000
51
90.000000
0
LINE
8
0
10
3424.220406
20
1289.478153
30
0.0
11
3424.013995
21
1289.478153
31
0.0
0
ARC
8
0
10
3424.013995
20
1289.078153
30
0.0
40
0.400000
50
90.000000
51
180.000000
0
LINE
8
0
10
3423.613995
20
1289.078153
30
0.0
11
3423.613995
21
1288.678153
31
0.0
0
ARC
8
0
10
3423.863995
20
1288.678153
30
0.0
40
0.250000
50
180.000000
51
233.130102
0
LINE
8
0
10
3423.713992
20
1288.477987
30
0.0
11
3423.713995
21
1288.153150
31
0.0
0
ARC
8
0
10
3423.963995
20
1288.153153
30
0.0
40
0.250000
50
180.000000
51
270.000000
0
ARC
8
0
10
3424.006991
20
1288.149430
30
0.0
40
0.250002
50
260.096999
51
293.425442
0
ARC
8
0
10
3424.363995
20
1287.378153
30
0.0
40
0.600000
50
360.000000
51
115.426810
0
ARC
8
0
10
3424.363995
20
1287.378153
30
0.0
40
0.600000
50
245.750372
51
360.000000
0
ARC
8
0
10
3424.014889
20
1286.603153
30
0.0
40
0.250000
50
65.750372
51
90.000000
0
ARC
8
0
10
3423.963940
20
1286.608400
30
0.0
40
0.250000
50
78.240959
51
180.000000
0
LINE
8
0
10
3423.713995
20
1286.603153
30
0.0
11
3423.713995
21
1286.278153
31
0.0
0
ARC
8
0
10
3423.813995
20
1286.104948
30
0.0
40
0.200000
50
120.000017
51
180.000000
0
LINE
8
0
10
3423.613995
20
1286.104948
30
0.0
11
3423.613995
21
1285.678153
31
0.0
0
ARC
8
0
10
3424.013995
20
1285.678153
30
0.0
40
0.400000
50
180.000000
51
270.000000
0
LINE
8
0
10
3424.013995
20
1285.278153
30
0.0
11
3424.220406
21
1285.278153
31
0.0
0
ARC
8
0
10
3424.220406
20
1285.478153
30
0.0
40
0.200000
50
270.000000
51
300.000000
0
LINE
8
0
10
3424.320406
20
1285.304948
30
0.0
11
3426.073995
21
1286.317383
31
0.0
0
ARC
8
0
10
3426.673995
20
1285.278153
30
0.0
40
1.200000
50
90.000000
51
120.000000
0
LINE
8
0
10
3426.673995
20
1286.478153
30
0.0
11
3427.530449
21
1286.478153
31
0.0
0
ARC
8
0
10
3427.530449
20
1287.478153
30
0.0
40
1.000000
50
270.000000
51
325.000000
0
LINE
8
0
10
3428.349601
20
1286.904576
30
0.0
11
3429.853054
21
1289.051729
31
0.0
0
ARC
8
0
10
3430.672206
20
1288.478153
30
0.0
40
1.000000
50
90.000000
51
145.000000
0
LINE
8
0
10
3430.672206
20
1289.478153
30
0.0
11
3434.555785
21
1289.478153
31
0.0
0
ARC
8
0
10
3434.555785
20
1288.478153
30
0.0
40
1.000000
50
35.000000
51
90.000000
0
LINE
8
0
10
3435.374937
20
1289.051729
30
0.0
11
3436.878390
21
1286.904576
31
0.0
0
ARC
8
0
10
3437.697542
20
1287.478153
30
0.0
40
1.000000
50
215.000000
51
270.000000
0
LINE
8
0
10
3437.697542
20
1286.478153
30
0.0
11
3438.553995
21
1286.478153
31
0.0
0
ARC
8
0
10
3438.553995
20
1285.278153
30
0.0
40
1.200000
50
60.000000
51
90.000000
0
LINE
8
0
10
3439.153995
20
1286.317383
30
0.0
11
3440.907585
21
1285.304948
31
0.0
0
ARC
8
0
10
3441.007585
20
1285.478153
30
0.0
40
0.200000
50
240.000000
51
270.000000
0
LINE
8
0
10
3441.007585
20
1285.278153
30
0.0
11
3441.213995
21
1285.278153
31
0.0
0
ARC
8
0
10
3441.213995
20
1285.678153
30
0.0
40
0.400000
50
270.000000
51
360.000000
0
LINE
8
0
10
3441.613995
20
1285.678153
30
0.0
11
3441.613995
21
1286.104948
31
0.0
0
ARC
8
0
10
3441.413995
20
1286.104948
30
0.0
40
0.200000
50
360.000000
51
60.000000
0
LINE
8
0
10
3441.513995
20
1286.278153
30
0.0
11
3441.513995
21
1286.603153
31
0.0
0
ARC
8
0
10
3441.263995
20
1286.603153
30
0.0
40
0.250000
50
360.000000
51
90.000000
0
ARC
8
0
10
3441.220999
20
1286.606878
30
0.0
40
0.250000
50
80.096831
51
113.425437
0
ARC
8
0
10
3440.863995
20
1287.378153
30
0.0
40
0.600000
50
180.000000
51
295.426874
0
ARC
8
0
10
3440.863995
20
1287.378153
30
0.0
40
0.600000
50
65.750424
51
180.000000
0
ARC
8
0
10
3441.213102
20
1288.153155
30
0.0
40
0.250002
50
245.750420
51
270.000000
0
ARC
8
0
10
3441.264050
20
1288.147906
30
0.0
40
0.250000
50
258.240959
51
360.000000
0
LINE
8
0
10
3441.513995
20
1288.153153
30
0.0
11
3441.513999
21
1288.477987
31
0.0
0
ARC
8
0
10
3441.363995
20
1288.678153
30
0.0
40
0.250000
50
306.869898
51
360.000000
0
LINE
8
0
10
3441.613995
20
1288.678153
30
0.0
11
3441.613995
21
1289.078153
31
0.0
0
ARC
8
0
10
3441.213995
20
1289.078153
30
0.0
40
0.400000
50
360.000000
51
90.000000
0
LINE
8
0
10
3441.213995
20
1289.478153
30
0.0
11
3441.007585
21
1289.478153
31
0.0
0
ARC
8
0
10
3441.007585
20
1289.278153
30
0.0
40
0.200000
50
90.000000
51
120.000000
0
LINE
8
0
10
3440.907585
20
1289.451358
30
0.0
11
3439.153995
21
1288.438922
31
0.0
0
ARC
8
0
10
3438.553995
20
1289.478153
30
0.0
40
1.200000
50
270.000000
51
300.000000
0
LINE
8
0
10
3438.553995
20
1288.278153
30
0.0
11
3438.270165
21
1288.278153
31
0.0
0
ARC
8
0
10
3438.270165
20
1288.578153
30
0.0
40
0.300000
50
215.000000
51
270.000000
0
LINE
8
0
10
3438.024420
20
1288.406080
30
0.0
11
3436.102948
21
1291.150226
31
0.0
0
ATTDEF
8
0
10
0.000000
20
0.000000
30
0.0
40
3.5
1

3

2
PANE_WIDTH:0
70
0
0
ATTDEF
8
0
10
0.000000
20
0.000000
30
0.0
40
3.5
1

3

2
MIN_VETRO:0
70
0
0
ATTDEF
8
0
10
0.000000
20
0.000000
30
0.0
40
3.5
1

3

2
MAX_VETRO:0
70
0
0
ATTDEF
8
0
10
0.000000
20
0.000000
30
0.0
40
3.5
1

3

2
JX:0
70
0
0
ATTDEF
8
0
10
0.000000
20
0.000000
30
0.0
40
3.5
1

3

2
WX:0
70
0
0
ATTDEF
8
0
10
0.000000
20
0.000000
30
0.0
40
3.5
1

3

2
JY:0
70
0
0
ATTDEF
8
0
10
0.000000
20
0.000000
30
0.0
40
3.5
1

3

2
WY:0
70
0
0
ATTDEF
8
0
10
0.000000
20
0.000000
30
0.0
40
3.5
1

3

2
DESC:Marco tricarril balconera
70
0
0
ATTDEF
8
0
10
0.000000
20
0.000000
30
0.0
40
3.5
1

3

2
DENS:2.2968
70
0
0
ATTDEF
8
0
10
0.000000
20
0.000000
30
0.0
40
3.5
1

3

2
TDEV:102.37
70
0
0
ATTDEF
8
0
10
0.000000
20
0.000000
30
0.0
40
3.5
1

3

2
TDEV2:0
70
0
0
ATTDEF
8
0
10
0.000000
20
0.000000
30
0.0
40
3.5
1

3

2
TDEV3:0
70
0
0
ATTDEF
8
0
10
0.000000
20
0.000000
30
0.0
40
3.5
1

3

2
TDEV4:0
70
0
0
ATTDEF
8
0
10
0.000000
20
0.000000
30
0.0
40
3.5
1

3

2
TDEV5:0
70
0
0
ATTDEF
8
0
10
0.000000
20
0.000000
30
0.0
40
3.5
1

3

2
PANE_WIDTH:0
70
0
0
ATTDEF
8
0
10
0.000000
20
0.000000
30
0.0
40
3.5
1

3

2
MIN_VETRO:0
70
0
0
ATTDEF
8
0
10
0.000000
20
0.000000
30
0.0
40
3.5
1

3

2
MAX_VETRO:0
70
0
0
ATTDEF
8
0
10
0.000000
20
0.000000
30
0.0
40
3.5
1

3

2
JX:0
70
0
0
ATTDEF
8
0
10
0.000000
20
0.000000
30
0.0
40
3.5
1

3

2
WX:0
70
0
0
ATTDEF
8
0
10
0.000000
20
0.000000
30
0.0
40
3.5
1

3

2
JY:0
70
0
0
ATTDEF
8
0
10
0.000000
20
0.000000
30
0.0
40
3.5
1

3

2
WY:0
70
0
0
ATTDEF
8
0
10
3419.769807
20
1291.676498
30
0.0
40
3.5
1

3

2
VC_START
70
0
0
ATTDEF
8
0
10
3507.067549
20
1271.576498
30
0.0
40
3.5
1

3

2
VC_END
70
0
0
ATTDEF
8
0
10
3509.613995
20
1271.576498
30
0.0
40
3.5
1

3

2
FP_LCS_ORIG
70
0
0
ATTDEF
8
0
10
3499.613995
20
1271.576498
30
0.0
40
3.5
1

3

2
FP_LCS_HOT
70
0
0
ATTDEF
8
0
10
3509.613995
20
1281.576498
30
0.0
40
3.5
1

3

2
FP_LCS_INTERN
70
0
0
ENDSEC
0
EOF
