0
SECTION
2
ENTITIES
0
ARC
8
0
10
3663.072170
20
1242.890107
30
0.0
40
0.500000
50
270.000000
51
360.000000
0
LINE
8
0
10
3663.572170
20
1242.890107
30
0.0
11
3663.572170
21
1244.490107
31
0.0
0
LINE
8
0
10
3663.572170
20
1244.490107
30
0.0
11
3668.970461
21
1244.490107
31
0.0
0
LINE
8
0
10
3668.970461
20
1244.490107
30
0.0
11
3668.970461
21
1230.490107
31
0.0
0
LINE
8
0
10
3668.970461
20
1230.490107
30
0.0
11
3642.271738
21
1230.490107
31
0.0
0
LINE
8
0
10
3642.271738
20
1230.490107
30
0.0
11
3642.271738
21
1244.490107
31
0.0
0
LINE
8
0
10
3642.271738
20
1244.490107
30
0.0
11
3661.971738
21
1244.490107
31
0.0
0
LINE
8
0
10
3661.971738
20
1244.490107
30
0.0
11
3661.972170
21
1242.390107
31
0.0
0
LINE
8
0
10
3661.972170
20
1242.390107
30
0.0
11
3663.072170
21
1242.390107
31
0.0
0
LINE
8
0
10
3649.071323
20
1265.579784
30
0.0
11
3649.071323
21
1274.472380
31
0.0
0
LINE
8
0
10
3649.071323
20
1274.472380
30
0.0
11
3650.971323
21
1274.981484
31
0.0
0
LINE
8
0
10
3650.971323
20
1274.981484
30
0.0
11
3650.971323
21
1272.990107
31
0.0
0
LINE
8
0
10
3650.971323
20
1272.990107
30
0.0
11
3652.171323
21
1272.990107
31
0.0
0
LINE
8
0
10
3652.171323
20
1272.990107
30
0.0
11
3652.171323
21
1275.303023
31
0.0
0
LINE
8
0
10
3652.171323
20
1275.303023
30
0.0
11
3655.271323
21
1276.133665
31
0.0
0
LINE
8
0
10
3655.271323
20
1276.133665
30
0.0
11
3658.171323
21
1275.356613
31
0.0
0
LINE
8
0
10
3658.171323
20
1275.356613
30
0.0
11
3658.171323
21
1245.990107
31
0.0
0
LINE
8
0
10
3658.171323
20
1245.990107
30
0.0
11
3651.522522
21
1245.990107
31
0.0
0
LINE
8
0
10
3651.522522
20
1245.990107
30
0.0
11
3651.522522
21
1263.128585
31
0.0
0
LINE
8
0
10
3651.522522
20
1263.128585
30
0.0
11
3649.071323
21
1265.579784
31
0.0
0
LINE
8
0
10
3632.271323
20
1257.485856
30
0.0
11
3634.271323
21
1257.485856
31
0.0
0
ARC
8
0
10
3634.271323
20
1257.985856
30
0.0
40
0.500000
50
270.000000
51
360.000000
0
LINE
8
0
10
3634.771323
20
1257.985856
30
0.0
11
3634.771323
21
1260.535333
31
0.0
0
ARC
8
0
10
3634.471323
20
1260.535333
30
0.0
40
0.300000
50
360.000000
51
90.000000
0
LINE
8
0
10
3634.471323
20
1260.835333
30
0.0
11
3633.869136
21
1260.835333
31
0.0
0
ARC
8
0
10
3633.869136
20
1260.535333
30
0.0
40
0.300000
50
90.000000
51
180.000000
0
LINE
8
0
10
3633.569136
20
1260.535333
30
0.0
11
3633.569136
21
1259.085856
31
0.0
0
LINE
8
0
10
3633.569136
20
1259.085856
30
0.0
11
3632.271323
21
1259.085856
31
0.0
0
LINE
8
0
10
3632.271323
20
1259.085856
30
0.0
11
3632.271323
21
1266.585856
31
0.0
0
LINE
8
0
10
3632.271323
20
1266.585856
30
0.0
11
3633.569136
21
1266.585856
31
0.0
0
LINE
8
0
10
3633.569136
20
1266.585856
30
0.0
11
3633.569136
21
1265.136380
31
0.0
0
ARC
8
0
10
3633.869136
20
1265.136380
30
0.0
40
0.300000
50
180.000000
51
270.000000
0
LINE
8
0
10
3633.869136
20
1264.836380
30
0.0
11
3634.471323
21
1264.836380
31
0.0
0
ARC
8
0
10
3634.471323
20
1265.136380
30
0.0
40
0.300000
50
270.000000
51
360.000000
0
LINE
8
0
10
3634.771323
20
1265.136380
30
0.0
11
3634.771323
21
1267.685856
31
0.0
0
ARC
8
0
10
3634.271323
20
1267.685856
30
0.0
40
0.500000
50
360.000000
51
90.000000
0
LINE
8
0
10
3634.271323
20
1268.185856
30
0.0
11
3632.271323
21
1268.185856
31
0.0
0
LINE
8
0
10
3632.271323
20
1268.185856
30
0.0
11
3632.271323
21
1271.390107
31
0.0
0
ARC
8
0
10
3632.271323
20
1272.090107
30
0.0
40
0.700000
50
270.000000
51
90.000000
0
LINE
8
0
10
3632.271323
20
1272.790107
30
0.0
11
3632.271323
21
1275.290107
31
0.0
0
ARC
8
0
10
3631.771323
20
1275.290107
30
0.0
40
0.500000
50
360.000000
51
90.000000
0
LINE
8
0
10
3631.771323
20
1275.790107
30
0.0
11
3631.271323
21
1275.790107
31
0.0
0
ARC
8
0
10
3631.271323
20
1275.290107
30
0.0
40
0.500000
50
90.000000
51
180.000000
0
LINE
8
0
10
3630.771323
20
1275.290107
30
0.0
11
3630.771323
21
1245.490107
31
0.0
0
ARC
8
0
10
3631.771323
20
1245.490107
30
0.0
40
1.000000
50
180.000000
51
270.000000
0
LINE
8
0
10
3631.771323
20
1244.490107
30
0.0
11
3640.771738
21
1244.490107
31
0.0
0
LINE
8
0
10
3640.771738
20
1244.490107
30
0.0
11
3640.771738
21
1224.490107
31
0.0
0
ARC
8
0
10
3641.271738
20
1224.490107
30
0.0
40
0.500000
50
180.000000
51
270.000000
0
LINE
8
0
10
3641.271738
20
1223.990107
30
0.0
11
3644.271738
21
1223.990107
31
0.0
0
LINE
8
0
10
3644.271738
20
1223.990107
30
0.0
11
3644.271738
21
1225.490107
31
0.0
0
LINE
8
0
10
3644.271738
20
1225.490107
30
0.0
11
3642.271738
21
1225.490107
31
0.0
0
LINE
8
0
10
3642.271738
20
1225.490107
30
0.0
11
3642.271738
21
1228.990107
31
0.0
0
LINE
8
0
10
3642.271738
20
1228.990107
30
0.0
11
3670.511532
21
1228.990107
31
0.0
0
ARC
8
0
10
3670.511532
20
1229.490107
30
0.0
40
0.500000
50
270.000000
51
296.127032
0
LINE
8
0
10
3670.731714
20
1229.041197
30
0.0
11
3671.365763
21
1229.352186
31
0.0
0
ARC
8
0
10
3672.484064
20
1227.694053
30
0.0
40
2.000000
50
51.805773
51
123.997055
0
ARC
8
0
10
3674.029887
20
1229.658851
30
0.0
40
0.500000
50
231.805773
51
271.623749
0
LINE
8
0
10
3674.044055
20
1229.159052
30
0.0
11
3674.700676
21
1229.177666
31
0.0
0
ARC
8
0
10
3674.697291
20
1229.477690
30
0.0
40
0.300000
50
270.000000
51
18.251415
0
LINE
8
0
10
3674.982198
20
1229.571646
30
0.0
11
3672.917911
21
1232.238087
31
0.0
0
ARC
8
0
10
3672.802764
20
1232.148944
30
0.0
40
0.145621
50
37.746080
51
180.000000
0
LINE
8
0
10
3672.657232
20
1232.143862
30
0.0
11
3672.662662
21
1231.988375
31
0.0
0
ARC
8
0
10
3672.462783
20
1231.981395
30
0.0
40
0.200000
50
308.823976
51
360.000000
0
LINE
8
0
10
3672.588169
20
1231.825580
30
0.0
11
3670.945000
21
1230.503305
31
0.0
0
ARC
8
0
10
3670.756921
20
1230.737027
30
0.0
40
0.300000
50
283.127121
51
308.823976
0
LINE
8
0
10
3670.825055
20
1230.444867
30
0.0
11
3670.470029
21
1230.349316
31
0.0
0
ARC
8
0
10
3670.470029
20
1230.649316
30
0.0
40
0.300000
50
90.000000
51
270.000000
0
LINE
8
0
10
3670.470029
20
1230.949316
30
0.0
11
3670.470029
21
1235.449316
31
0.0
0
ARC
8
0
10
3670.670029
20
1235.449316
30
0.0
40
0.200000
50
90.000000
51
180.000000
0
LINE
8
0
10
3670.670029
20
1235.649316
30
0.0
11
3670.737918
21
1235.649316
31
0.0
0
ARC
8
0
10
3670.737918
20
1235.349316
30
0.0
40
0.300000
50
58.619868
51
90.000000
0
LINE
8
0
10
3670.894132
20
1235.605435
30
0.0
11
3672.570125
21
1234.583202
31
0.0
0
ARC
8
0
10
3672.770029
20
1234.577012
30
0.0
40
0.200000
50
180.000000
51
360.000000
0
LINE
8
0
10
3672.970029
20
1234.577012
30
0.0
11
3672.970029
21
1235.984003
31
0.0
0
ARC
8
0
10
3672.770029
20
1235.984003
30
0.0
40
0.200000
50
360.000000
51
58.619868
0
LINE
8
0
10
3672.874172
20
1236.154749
30
0.0
11
3671.654174
21
1236.898858
31
0.0
0
ARC
8
0
10
3672.018674
20
1237.496470
30
0.0
40
0.700000
50
121.380132
51
238.619868
0
LINE
8
0
10
3671.654174
20
1238.094082
30
0.0
11
3672.874172
21
1238.838192
31
0.0
0
ARC
8
0
10
3672.770029
20
1239.008938
30
0.0
40
0.200000
50
301.380132
51
360.000000
0
LINE
8
0
10
3672.970029
20
1239.008938
30
0.0
11
3672.970029
21
1240.415928
31
0.0
0
ARC
8
0
10
3672.770029
20
1240.415928
30
0.0
40
0.200000
50
360.000000
51
180.000000
0
LINE
8
0
10
3672.570125
20
1240.409738
30
0.0
11
3670.894132
21
1239.387505
31
0.0
0
ARC
8
0
10
3670.737918
20
1239.643625
30
0.0
40
0.300000
50
270.000000
51
301.380132
0
LINE
8
0
10
3670.737918
20
1239.343625
30
0.0
11
3670.670029
21
1239.343625
31
0.0
0
ARC
8
0
10
3670.670029
20
1239.543625
30
0.0
40
0.200000
50
180.000000
51
270.000000
0
LINE
8
0
10
3670.470029
20
1239.543625
30
0.0
11
3670.470029
21
1244.043625
31
0.0
0
ARC
8
0
10
3670.470029
20
1244.343625
30
0.0
40
0.300000
50
90.000000
51
270.000000
0
LINE
8
0
10
3670.470029
20
1244.643625
30
0.0
11
3670.825055
21
1244.548074
31
0.0
0
ARC
8
0
10
3670.756921
20
1244.255913
30
0.0
40
0.300000
50
51.176024
51
76.872879
0
LINE
8
0
10
3670.945000
20
1244.489636
30
0.0
11
3672.588169
21
1243.167361
31
0.0
0
ARC
8
0
10
3672.462783
20
1243.011546
30
0.0
40
0.200000
50
360.000000
51
51.176024
0
LINE
8
0
10
3672.662662
20
1243.004566
30
0.0
11
3672.657232
21
1242.849079
31
0.0
0
ARC
8
0
10
3672.802764
20
1242.843997
30
0.0
40
0.145621
50
180.000000
51
322.253920
0
LINE
8
0
10
3672.917911
20
1242.754853
30
0.0
11
3674.982198
21
1245.421294
31
0.0
0
ARC
8
0
10
3674.697291
20
1245.515250
30
0.0
40
0.300000
50
341.748585
51
90.000000
0
LINE
8
0
10
3674.700676
20
1245.815275
30
0.0
11
3674.044055
21
1245.833888
31
0.0
0
ARC
8
0
10
3674.029887
20
1245.334089
30
0.0
40
0.500000
50
88.376251
51
128.194227
0
ARC
8
0
10
3672.484064
20
1247.298887
30
0.0
40
2.000000
50
236.002945
51
308.194227
0
LINE
8
0
10
3671.365763
20
1245.640755
30
0.0
11
3670.750280
21
1245.942637
31
0.0
0
ARC
8
0
10
3670.970461
20
1246.391547
30
0.0
40
0.500000
50
180.000000
51
243.872968
0
LINE
8
0
10
3670.470461
20
1246.391547
30
0.0
11
3670.470461
21
1246.790107
31
0.0
0
ARC
8
0
10
3669.970461
20
1246.790107
30
0.0
40
0.500000
50
360.000000
51
90.000000
0
LINE
8
0
10
3669.970461
20
1247.290107
30
0.0
11
3669.470461
21
1247.290107
31
0.0
0
ARC
8
0
10
3669.470461
20
1246.790107
30
0.0
40
0.500000
50
90.000000
51
180.000000
0
LINE
8
0
10
3668.970461
20
1246.790107
30
0.0
11
3668.970461
21
1245.990107
31
0.0
0
LINE
8
0
10
3668.970461
20
1245.990107
30
0.0
11
3659.770462
21
1245.990107
31
0.0
0
LINE
8
0
10
3659.770462
20
1245.990107
30
0.0
11
3659.771323
21
1274.290107
31
0.0
0
ARC
8
0
10
3660.271323
20
1274.290107
30
0.0
40
0.500000
50
90.000000
51
180.000000
0
LINE
8
0
10
3660.271323
20
1274.790107
30
0.0
11
3660.771323
21
1274.790107
31
0.0
0
ARC
8
0
10
3660.771323
20
1274.290107
30
0.0
40
0.500000
50
360.000000
51
90.000000
0
LINE
8
0
10
3661.271323
20
1274.290107
30
0.0
11
3661.271323
21
1272.990107
31
0.0
0
LINE
8
0
10
3661.271323
20
1272.990107
30
0.0
11
3662.771323
21
1272.990107
31
0.0
0
LINE
8
0
10
3662.771323
20
1272.990107
30
0.0
11
3662.771323
21
1275.396825
31
0.0
0
ARC
8
0
10
3662.271323
20
1275.396825
30
0.0
40
0.500000
50
360.000000
51
75.000000
0
LINE
8
0
10
3662.400732
20
1275.879788
30
0.0
11
3655.400732
21
1277.755432
31
0.0
0
ARC
8
0
10
3655.271323
20
1277.272469
30
0.0
40
0.500000
50
75.000000
51
105.000000
0
LINE
8
0
10
3655.141913
20
1277.755432
30
0.0
11
3648.141913
21
1275.879788
31
0.0
0
ARC
8
0
10
3648.271323
20
1275.396825
30
0.0
40
0.500000
50
105.000000
51
180.000000
0
LINE
8
0
10
3647.771323
20
1275.396825
30
0.0
11
3647.771323
21
1265.248413
31
0.0
0
ARC
8
0
10
3648.271323
20
1265.248413
30
0.0
40
0.500000
50
180.000000
51
225.000000
0
LINE
8
0
10
3647.917769
20
1264.894860
30
0.0
11
3649.876075
21
1262.936554
31
0.0
0
ARC
8
0
10
3649.522522
20
1262.583001
30
0.0
40
0.500000
50
360.000000
51
45.000000
0
LINE
8
0
10
3650.022522
20
1262.583001
30
0.0
11
3650.022522
21
1246.507872
31
0.0
0
ARC
8
0
10
3649.522522
20
1246.507872
30
0.0
40
0.500000
50
268.000000
51
360.000000
0
LINE
8
0
10
3649.505072
20
1246.008177
30
0.0
11
3633.236423
21
1246.576291
31
0.0
0
ARC
8
0
10
3633.271323
20
1247.575682
30
0.0
40
1.000000
50
180.000000
51
268.000000
0
LINE
8
0
10
3632.271323
20
1247.575682
30
0.0
11
3632.271323
21
1257.485856
31
0.0
0
ARC
8
0
10
3699.665441
20
1245.964427
30
0.0
40
0.500000
50
360.000000
51
84.885459
0
LINE
8
0
10
3700.165441
20
1245.964427
30
0.0
11
3700.165441
21
1243.190107
31
0.0
0
ARC
8
0
10
3700.665441
20
1243.190107
30
0.0
40
0.500000
50
180.000000
51
270.000000
0
LINE
8
0
10
3700.665441
20
1242.690107
30
0.0
11
3701.665441
21
1242.690107
31
0.0
0
LINE
8
0
10
3701.665441
20
1242.690107
30
0.0
11
3701.665441
21
1244.490107
31
0.0
0
LINE
8
0
10
3701.665441
20
1244.490107
30
0.0
11
3703.665441
21
1244.490107
31
0.0
0
LINE
8
0
10
3703.665441
20
1244.490107
30
0.0
11
3703.665441
21
1245.561661
31
0.0
0
ARC
8
0
10
3704.165441
20
1245.561661
30
0.0
40
0.500000
50
84.885459
51
180.000000
0
LINE
8
0
10
3704.210015
20
1246.059670
30
0.0
11
3718.365009
21
1244.792750
31
0.0
0
LINE
8
0
10
3718.365009
20
1244.792750
30
0.0
11
3718.365009
21
1244.490107
31
0.0
0
LINE
8
0
10
3718.365009
20
1244.490107
30
0.0
11
3721.365009
21
1244.490107
31
0.0
0
LINE
8
0
10
3721.365009
20
1244.490107
30
0.0
11
3721.365009
21
1242.690107
31
0.0
0
LINE
8
0
10
3721.365009
20
1242.690107
30
0.0
11
3722.770462
21
1242.690107
31
0.0
0
LINE
8
0
10
3722.770462
20
1242.690107
30
0.0
11
3722.770462
21
1231.990107
31
0.0
0
LINE
8
0
10
3722.770462
20
1231.990107
30
0.0
11
3721.365009
21
1231.990107
31
0.0
0
LINE
8
0
10
3721.365009
20
1231.990107
30
0.0
11
3721.365009
21
1230.490107
31
0.0
0
LINE
8
0
10
3721.365009
20
1230.490107
30
0.0
11
3686.570029
21
1230.490107
31
0.0
0
LINE
8
0
10
3686.570029
20
1230.490107
30
0.0
11
3686.570029
21
1244.490107
31
0.0
0
LINE
8
0
10
3686.570029
20
1244.490107
30
0.0
11
3697.770462
21
1244.490107
31
0.0
0
ARC
8
0
10
3697.770462
20
1244.990107
30
0.0
40
0.500000
50
270.000000
51
360.000000
0
LINE
8
0
10
3698.270462
20
1244.990107
30
0.0
11
3698.270462
21
1246.044530
31
0.0
0
ARC
8
0
10
3698.770462
20
1246.044530
30
0.0
40
0.500000
50
84.885459
51
180.000000
0
LINE
8
0
10
3698.815035
20
1246.542540
30
0.0
11
3699.710015
21
1246.462436
31
0.0
0
LINE
8
0
10
3705.570462
20
1272.990107
30
0.0
11
3705.570462
21
1274.981484
31
0.0
0
LINE
8
0
10
3705.570462
20
1274.981484
30
0.0
11
3707.470462
21
1274.472380
31
0.0
0
LINE
8
0
10
3707.470462
20
1274.472380
30
0.0
11
3707.470462
21
1265.579784
31
0.0
0
LINE
8
0
10
3707.470462
20
1265.579784
30
0.0
11
3705.980785
21
1264.090107
31
0.0
0
LINE
8
0
10
3705.980785
20
1264.090107
30
0.0
11
3698.370462
21
1264.090107
31
0.0
0
LINE
8
0
10
3698.370462
20
1264.090107
30
0.0
11
3698.370462
21
1275.356613
31
0.0
0
LINE
8
0
10
3698.370462
20
1275.356613
30
0.0
11
3701.270462
21
1276.133665
31
0.0
0
LINE
8
0
10
3701.270462
20
1276.133665
30
0.0
11
3704.370462
21
1275.303023
31
0.0
0
LINE
8
0
10
3704.370462
20
1275.303023
30
0.0
11
3704.370462
21
1272.990107
31
0.0
0
LINE
8
0
10
3704.370462
20
1272.990107
30
0.0
11
3705.570462
21
1272.990107
31
0.0
0
LINE
8
0
10
3684.645927
20
1235.605435
30
0.0
11
3682.969934
21
1234.583202
31
0.0
0
ARC
8
0
10
3682.770029
20
1234.577012
30
0.0
40
0.200000
50
180.000000
51
360.000000
0
LINE
8
0
10
3682.570029
20
1234.577012
30
0.0
11
3682.570029
21
1235.984003
31
0.0
0
ARC
8
0
10
3682.770029
20
1235.984003
30
0.0
40
0.200000
50
121.380132
51
180.000000
0
LINE
8
0
10
3682.665887
20
1236.154749
30
0.0
11
3683.885885
21
1236.898858
31
0.0
0
ARC
8
0
10
3683.521385
20
1237.496470
30
0.0
40
0.700000
50
301.380132
51
58.619868
0
LINE
8
0
10
3683.885885
20
1238.094082
30
0.0
11
3682.665887
21
1238.838192
31
0.0
0
ARC
8
0
10
3682.770029
20
1239.008938
30
0.0
40
0.200000
50
180.000000
51
238.619868
0
LINE
8
0
10
3682.570029
20
1239.008938
30
0.0
11
3682.570029
21
1240.415928
31
0.0
0
ARC
8
0
10
3682.770029
20
1240.415928
30
0.0
40
0.200000
50
360.000000
51
180.000000
0
LINE
8
0
10
3682.969934
20
1240.409738
30
0.0
11
3684.645927
21
1239.387505
31
0.0
0
ARC
8
0
10
3684.802141
20
1239.643625
30
0.0
40
0.300000
50
238.619868
51
270.000000
0
LINE
8
0
10
3684.802141
20
1239.343625
30
0.0
11
3684.870029
21
1239.343625
31
0.0
0
ARC
8
0
10
3684.870029
20
1239.543625
30
0.0
40
0.200000
50
270.000000
51
360.000000
0
LINE
8
0
10
3685.070029
20
1239.543625
30
0.0
11
3685.070029
21
1244.043625
31
0.0
0
ARC
8
0
10
3685.070029
20
1244.343625
30
0.0
40
0.300000
50
270.000000
51
90.000000
0
LINE
8
0
10
3685.070029
20
1244.643625
30
0.0
11
3684.715004
21
1244.548074
31
0.0
0
ARC
8
0
10
3684.783138
20
1244.255913
30
0.0
40
0.300000
50
103.127121
51
128.823976
0
LINE
8
0
10
3684.595059
20
1244.489636
30
0.0
11
3682.951889
21
1243.167361
31
0.0
0
ARC
8
0
10
3683.077275
20
1243.011546
30
0.0
40
0.200000
50
128.823976
51
180.000000
0
LINE
8
0
10
3682.877397
20
1243.004566
30
0.0
11
3682.882827
21
1242.849079
31
0.0
0
ARC
8
0
10
3682.737295
20
1242.843997
30
0.0
40
0.145621
50
217.746080
51
360.000000
0
LINE
8
0
10
3682.622148
20
1242.754853
30
0.0
11
3680.557861
21
1245.421294
31
0.0
0
ARC
8
0
10
3680.842768
20
1245.515250
30
0.0
40
0.300000
50
90.000000
51
198.251415
0
LINE
8
0
10
3680.839383
20
1245.815275
30
0.0
11
3681.496004
21
1245.833888
31
0.0
0
ARC
8
0
10
3681.510172
20
1245.334089
30
0.0
40
0.500000
50
51.805773
51
91.623749
0
ARC
8
0
10
3683.055995
20
1247.298887
30
0.0
40
2.000000
50
231.805773
51
303.997055
0
LINE
8
0
10
3684.174296
20
1245.640755
30
0.0
11
3684.790211
21
1245.942849
31
0.0
0
ARC
8
0
10
3684.570029
20
1246.391759
30
0.0
40
0.500000
50
296.127032
51
360.000000
0
LINE
8
0
10
3685.070029
20
1246.391759
30
0.0
11
3685.070029
21
1246.839892
31
0.0
0
ARC
8
0
10
3685.720029
20
1246.839892
30
0.0
40
0.650000
50
360.000000
51
180.000000
0
LINE
8
0
10
3686.370029
20
1246.839892
30
0.0
11
3686.370029
21
1245.990107
31
0.0
0
LINE
8
0
10
3686.370029
20
1245.990107
30
0.0
11
3696.770462
21
1245.990107
31
0.0
0
LINE
8
0
10
3696.770462
20
1245.990107
30
0.0
11
3696.770462
21
1274.290107
31
0.0
0
ARC
8
0
10
3696.270462
20
1274.290108
30
0.0
40
0.500000
50
360.000000
51
90.000000
0
LINE
8
0
10
3696.270462
20
1274.790107
30
0.0
11
3695.770462
21
1274.790107
31
0.0
0
ARC
8
0
10
3695.770461
20
1274.290108
30
0.0
40
0.500000
50
90.000000
51
180.000000
0
LINE
8
0
10
3695.270462
20
1274.290107
30
0.0
11
3695.270462
21
1272.990107
31
0.0
0
LINE
8
0
10
3695.270462
20
1272.990107
30
0.0
11
3693.770462
21
1272.990107
31
0.0
0
LINE
8
0
10
3693.770462
20
1272.990107
30
0.0
11
3693.770462
21
1275.396825
31
0.0
0
ARC
8
0
10
3694.270462
20
1275.396825
30
0.0
40
0.500000
50
105.000000
51
180.000000
0
LINE
8
0
10
3694.141052
20
1275.879788
30
0.0
11
3701.141052
21
1277.755432
31
0.0
0
ARC
8
0
10
3701.270462
20
1277.272469
30
0.0
40
0.500000
50
75.000000
51
105.000000
0
LINE
8
0
10
3701.399871
20
1277.755432
30
0.0
11
3708.399871
21
1275.879788
31
0.0
0
ARC
8
0
10
3708.270462
20
1275.396825
30
0.0
40
0.500000
50
360.000000
51
75.000000
0
LINE
8
0
10
3708.770462
20
1275.396825
30
0.0
11
3708.770462
21
1265.248413
31
0.0
0
ARC
8
0
10
3708.270462
20
1265.248413
30
0.0
40
0.500000
50
315.000000
51
360.000000
0
LINE
8
0
10
3708.624015
20
1264.894860
30
0.0
11
3706.665709
21
1262.936554
31
0.0
0
ARC
8
0
10
3706.312156
20
1263.290107
30
0.0
40
0.500000
50
270.000000
51
315.000000
0
LINE
8
0
10
3706.312156
20
1262.790107
30
0.0
11
3699.270462
21
1262.790107
31
0.0
0
ARC
8
0
10
3699.270462
20
1262.290107
30
0.0
40
0.500000
50
90.000000
51
180.000000
0
LINE
8
0
10
3698.770462
20
1262.290107
30
0.0
11
3698.770462
21
1248.509772
31
0.0
0
ARC
8
0
10
3699.270462
20
1248.509772
30
0.0
40
0.500000
50
180.000000
51
264.885459
0
LINE
8
0
10
3699.225888
20
1248.011763
30
0.0
11
3721.813355
21
1245.990107
31
0.0
0
ARC
8
0
10
3721.813355
20
1245.490107
30
0.0
40
0.500000
50
45.000000
51
90.000000
0
LINE
8
0
10
3722.166908
20
1245.843661
30
0.0
11
3724.124015
21
1243.886554
31
0.0
0
ARC
8
0
10
3723.770462
20
1243.533000
30
0.0
40
0.500000
50
360.000000
51
45.000000
0
LINE
8
0
10
3724.270462
20
1243.533000
30
0.0
11
3724.270462
21
1227.490107
31
0.0
0
ARC
8
0
10
3723.770462
20
1227.490107
30
0.0
40
0.500000
50
270.000000
51
360.000000
0
LINE
8
0
10
3723.770462
20
1226.990107
30
0.0
11
3723.270462
21
1226.990107
31
0.0
0
ARC
8
0
10
3723.270462
20
1227.490107
30
0.0
40
0.500000
50
180.000000
51
270.000000
0
LINE
8
0
10
3722.770462
20
1227.490107
30
0.0
11
3722.770462
21
1228.990107
31
0.0
0
LINE
8
0
10
3722.770462
20
1228.990107
30
0.0
11
3700.771323
21
1228.990107
31
0.0
0
LINE
8
0
10
3700.771323
20
1228.990107
30
0.0
11
3700.771323
21
1224.490107
31
0.0
0
ARC
8
0
10
3700.271323
20
1224.490107
30
0.0
40
0.500000
50
270.000000
51
360.000000
0
LINE
8
0
10
3700.271323
20
1223.990107
30
0.0
11
3697.271323
21
1223.990107
31
0.0
0
LINE
8
0
10
3697.271323
20
1223.990107
30
0.0
11
3697.271323
21
1225.590107
31
0.0
0
LINE
8
0
10
3697.271323
20
1225.590107
30
0.0
11
3699.271323
21
1225.590107
31
0.0
0
LINE
8
0
10
3699.271323
20
1225.590107
30
0.0
11
3699.271323
21
1228.990107
31
0.0
0
LINE
8
0
10
3699.271323
20
1228.990107
30
0.0
11
3684.958916
21
1228.990107
31
0.0
0
LINE
8
0
10
3684.870843
20
1229.010543
30
0.0
11
3684.958916
21
1228.990107
31
0.0
0
LINE
8
0
10
3684.870843
20
1229.010543
30
0.0
11
3684.174296
21
1229.352186
31
0.0
0
ARC
8
0
10
3683.055995
20
1227.694053
30
0.0
40
2.000000
50
56.002945
51
128.194227
0
ARC
8
0
10
3681.510172
20
1229.658851
30
0.0
40
0.500000
50
268.376251
51
308.194227
0
LINE
8
0
10
3681.496004
20
1229.159052
30
0.0
11
3680.839383
21
1229.177666
31
0.0
0
ARC
8
0
10
3680.842768
20
1229.477690
30
0.0
40
0.300000
50
161.748585
51
270.000000
0
LINE
8
0
10
3680.557861
20
1229.571646
30
0.0
11
3682.622148
21
1232.238087
31
0.0
0
ARC
8
0
10
3682.737295
20
1232.148944
30
0.0
40
0.145621
50
360.000000
51
142.253920
0
LINE
8
0
10
3682.882827
20
1232.143862
30
0.0
11
3682.877397
21
1231.988375
31
0.0
0
ARC
8
0
10
3683.077275
20
1231.981395
30
0.0
40
0.200000
50
180.000000
51
231.176024
0
LINE
8
0
10
3682.951889
20
1231.825580
30
0.0
11
3684.595059
21
1230.503305
31
0.0
0
ARC
8
0
10
3684.783138
20
1230.737027
30
0.0
40
0.300000
50
231.176024
51
256.872879
0
LINE
8
0
10
3684.715004
20
1230.444867
30
0.0
11
3685.070029
21
1230.349316
31
0.0
0
ARC
8
0
10
3685.070029
20
1230.649316
30
0.0
40
0.300000
50
270.000000
51
90.000000
0
LINE
8
0
10
3685.070029
20
1230.949316
30
0.0
11
3685.070029
21
1235.449316
31
0.0
0
ARC
8
0
10
3684.870029
20
1235.449316
30
0.0
40
0.200000
50
360.000000
51
90.000000
0
LINE
8
0
10
3684.870029
20
1235.649316
30
0.0
11
3684.802141
21
1235.649316
31
0.0
0
ARC
8
0
10
3684.802141
20
1235.349316
30
0.0
40
0.300000
50
90.000000
51
121.380132
0
LINE
8
0
10
3670.482537
20
1243.568321
30
0.0
11
3670.770783
21
1243.856566
31
0.0
0
LINE
8
0
10
3671.472603
20
1242.313322
30
0.0
11
3672.333519
21
1243.174239
31
0.0
0
LINE
8
0
10
3671.073419
20
1239.669074
30
0.0
11
3674.073419
21
1242.669074
31
0.0
0
LINE
8
0
10
3674.518483
20
1240.869074
30
0.0
11
3676.318483
21
1242.669074
31
0.0
0
LINE
8
0
10
3670.470029
20
1234.575557
30
0.0
11
3671.186016
21
1235.291543
31
0.0
0
LINE
8
0
10
3676.763547
20
1240.869074
30
0.0
11
3678.563547
21
1242.669074
31
0.0
0
LINE
8
0
10
3670.570029
20
1232.430493
30
0.0
11
3670.832128
21
1232.692591
31
0.0
0
LINE
8
0
10
3679.008611
20
1240.869074
30
0.0
11
3680.808611
21
1242.669074
31
0.0
0
LINE
8
0
10
3671.709880
20
1233.570343
30
0.0
11
3672.609329
21
1234.469793
31
0.0
0
LINE
8
0
10
3672.025424
20
1231.640823
30
0.0
11
3674.508468
21
1234.123867
31
0.0
0
LINE
8
0
10
3681.253675
20
1240.869074
30
0.0
11
3684.040090
21
1243.655489
31
0.0
0
LINE
8
0
10
3674.953532
20
1232.323867
30
0.0
11
3676.753532
21
1234.123867
31
0.0
0
LINE
8
0
10
3683.071525
20
1240.441860
30
0.0
11
3683.936949
21
1241.307284
31
0.0
0
LINE
8
0
10
3677.198596
20
1232.323867
30
0.0
11
3678.998596
21
1234.123867
31
0.0
0
LINE
8
0
10
3684.543803
20
1239.669074
30
0.0
11
3685.070029
21
1240.195300
31
0.0
0
LINE
8
0
10
3679.443660
20
1232.323867
30
0.0
11
3681.243660
21
1234.123867
31
0.0
0
LINE
8
0
10
3681.688724
20
1232.323867
30
0.0
11
3684.688306
21
1235.323449
31
0.0
0
LINE
8
0
10
3683.347335
20
1231.737414
30
0.0
11
3684.239250
21
1232.629329
31
0.0
0
LINE
8
0
10
3671.742415
20
1231.477427
30
0.0
11
3670.606224
21
1232.613618
31
0.0
0
LINE
8
0
10
3673.179083
20
1232.285823
30
0.0
11
3670.475444
21
1234.989462
31
0.0
0
LINE
8
0
10
3675.386103
20
1232.323867
30
0.0
11
3673.586103
21
1234.123867
31
0.0
0
LINE
8
0
10
3677.631167
20
1232.323867
30
0.0
11
3675.831167
21
1234.123867
31
0.0
0
LINE
8
0
10
3679.876232
20
1232.323867
30
0.0
11
3678.076232
21
1234.123867
31
0.0
0
LINE
8
0
10
3672.018225
20
1240.181874
30
0.0
11
3670.981629
21
1241.218470
31
0.0
0
LINE
8
0
10
3682.121306
20
1232.323856
30
0.0
11
3680.321296
21
1234.123867
31
0.0
0
LINE
8
0
10
3673.576088
20
1240.869074
30
0.0
11
3670.645232
21
1243.799930
31
0.0
0
LINE
8
0
10
3685.070029
20
1231.620197
30
0.0
11
3682.479582
21
1234.210644
31
0.0
0
LINE
8
0
10
3675.821152
20
1240.869074
30
0.0
11
3674.021152
21
1242.669074
31
0.0
0
LINE
8
0
10
3684.970029
20
1233.965261
30
0.0
11
3683.903734
21
1235.031557
31
0.0
0
LINE
8
0
10
3678.066217
20
1240.869074
30
0.0
11
3676.266217
21
1242.669074
31
0.0
0
LINE
8
0
10
3680.311281
20
1240.869074
30
0.0
11
3678.511281
21
1242.669074
31
0.0
0
LINE
8
0
10
3682.863394
20
1240.562024
30
0.0
11
3680.756345
21
1242.669074
31
0.0
0
LINE
8
0
10
3685.070029
20
1240.600453
30
0.0
11
3685.001409
21
1240.669074
31
0.0
0
LINE
8
0
10
3683.741681
20
1241.928802
30
0.0
11
3682.756230
21
1242.914252
31
0.0
0
LINE
8
0
10
3684.970029
20
1240.700453
30
0.0
11
3684.479757
21
1241.190725
31
0.0
0
LINE
8
0
10
3685.046473
20
1242.869074
30
0.0
11
3684.179544
21
1243.736003
31
0.0
0
ARC
8
0
10
3684.658223
20
1242.494074
30
0.0
40
0.200000
50
244.992167
51
286.231301
0
ARC
8
0
10
3684.770029
20
1242.494074
30
0.0
40
0.200000
50
253.768699
51
360.000000
0
LINE
8
0
10
3684.970029
20
1242.494074
30
0.0
11
3684.970029
21
1242.869074
31
0.0
0
LINE
8
0
10
3684.970029
20
1242.869074
30
0.0
11
3685.070029
21
1242.869074
31
0.0
0
LINE
8
0
10
3685.070029
20
1242.869074
30
0.0
11
3685.070029
21
1243.469074
31
0.0
0
ARC
8
0
10
3684.670029
20
1243.469074
30
0.0
40
0.400000
50
360.000000
51
90.000000
0
LINE
8
0
10
3684.670029
20
1243.869074
30
0.0
11
3684.463619
21
1243.869074
31
0.0
0
ARC
8
0
10
3684.463619
20
1243.669074
30
0.0
40
0.200000
50
90.000000
51
120.000000
0
LINE
8
0
10
3684.363619
20
1243.842279
30
0.0
11
3682.517209
21
1242.776253
31
0.0
0
ARC
8
0
10
3682.117209
20
1243.469074
30
0.0
40
0.800000
50
270.000000
51
300.000000
0
LINE
8
0
10
3682.117209
20
1242.669074
30
0.0
11
3677.770029
21
1242.669074
31
0.0
0
LINE
8
0
10
3677.770029
20
1242.669074
30
0.0
11
3673.422850
21
1242.669074
31
0.0
0
ARC
8
0
10
3673.422850
20
1243.469074
30
0.0
40
0.800000
50
240.000000
51
270.000000
0
LINE
8
0
10
3673.022850
20
1242.776253
30
0.0
11
3671.176440
21
1243.842279
31
0.0
0
ARC
8
0
10
3671.076440
20
1243.669074
30
0.0
40
0.200000
50
60.000000
51
90.000000
0
LINE
8
0
10
3671.076440
20
1243.869074
30
0.0
11
3670.870029
21
1243.869074
31
0.0
0
ARC
8
0
10
3670.870029
20
1243.469074
30
0.0
40
0.400000
50
90.000000
51
180.000000
0
LINE
8
0
10
3670.470029
20
1243.469074
30
0.0
11
3670.470029
21
1242.869074
31
0.0
0
LINE
8
0
10
3670.470029
20
1242.869074
30
0.0
11
3670.570029
21
1242.869074
31
0.0
0
LINE
8
0
10
3670.570029
20
1242.869074
30
0.0
11
3670.570029
21
1242.494074
31
0.0
0
ARC
8
0
10
3670.770029
20
1242.494074
30
0.0
40
0.200000
50
180.000000
51
286.231301
0
ARC
8
0
10
3670.881836
20
1242.494074
30
0.0
40
0.200000
50
253.768699
51
295.007833
0
ARC
8
0
10
3671.220029
20
1241.769074
30
0.0
40
0.600000
50
360.000000
51
115.007833
0
ARC
8
0
10
3671.220029
20
1241.769074
30
0.0
40
0.600000
50
244.992167
51
360.000000
0
ARC
8
0
10
3670.881836
20
1241.044074
30
0.0
40
0.200000
50
64.992167
51
106.231301
0
ARC
8
0
10
3670.770029
20
1241.044074
30
0.0
40
0.200000
50
73.768699
51
180.000000
0
LINE
8
0
10
3670.570029
20
1241.044074
30
0.0
11
3670.570029
21
1240.669074
31
0.0
0
LINE
8
0
10
3670.570029
20
1240.669074
30
0.0
11
3670.470029
21
1240.669074
31
0.0
0
LINE
8
0
10
3670.470029
20
1240.669074
30
0.0
11
3670.470029
21
1240.069074
31
0.0
0
ARC
8
0
10
3670.870029
20
1240.069074
30
0.0
40
0.400000
50
180.000000
51
270.000000
0
LINE
8
0
10
3670.870029
20
1239.669074
30
0.0
11
3671.076440
21
1239.669074
31
0.0
0
ARC
8
0
10
3671.076440
20
1239.869074
30
0.0
40
0.200000
50
270.000000
51
300.000000
0
LINE
8
0
10
3671.176440
20
1239.695869
30
0.0
11
3673.022850
21
1240.761894
31
0.0
0
ARC
8
0
10
3673.422850
20
1240.069074
30
0.0
40
0.800000
50
90.000000
51
120.000000
0
LINE
8
0
10
3673.422850
20
1240.869074
30
0.0
11
3677.487187
21
1240.869074
31
0.0
0
ARC
8
0
10
3677.487187
20
1240.669074
30
0.0
40
0.200000
50
51.057559
51
90.000000
0
ARC
8
0
10
3677.770029
20
1241.019074
30
0.0
40
0.250000
50
231.057559
51
308.942441
0
ARC
8
0
10
3678.052872
20
1240.669074
30
0.0
40
0.200000
50
90.000000
51
128.942441
0
LINE
8
0
10
3678.052872
20
1240.869074
30
0.0
11
3682.117209
21
1240.869074
31
0.0
0
ARC
8
0
10
3682.117209
20
1240.069074
30
0.0
40
0.800000
50
60.000000
51
90.000000
0
LINE
8
0
10
3682.517209
20
1240.761894
30
0.0
11
3684.363619
21
1239.695869
31
0.0
0
ARC
8
0
10
3684.463619
20
1239.869074
30
0.0
40
0.200000
50
240.000000
51
270.000000
0
LINE
8
0
10
3684.463619
20
1239.669074
30
0.0
11
3684.670029
21
1239.669074
31
0.0
0
ARC
8
0
10
3684.670029
20
1240.069074
30
0.0
40
0.400000
50
270.000000
51
360.000000
0
LINE
8
0
10
3685.070029
20
1240.069074
30
0.0
11
3685.070029
21
1240.669074
31
0.0
0
LINE
8
0
10
3685.070029
20
1240.669074
30
0.0
11
3684.970029
21
1240.669074
31
0.0
0
LINE
8
0
10
3684.970029
20
1240.669074
30
0.0
11
3684.970029
21
1241.044074
31
0.0
0
ARC
8
0
10
3684.770029
20
1241.044074
30
0.0
40
0.200000
50
360.000000
51
106.231301
0
ARC
8
0
10
3684.658223
20
1241.044074
30
0.0
40
0.200000
50
73.768699
51
115.007833
0
ARC
8
0
10
3684.320029
20
1241.769074
30
0.0
40
0.600000
50
180.000000
51
295.007833
0
ARC
8
0
10
3684.320029
20
1241.769074
30
0.0
40
0.600000
50
64.992167
51
180.000000
0
ARC
8
0
10
3684.658223
20
1232.498867
30
0.0
40
0.200000
50
73.768699
51
115.007833
0
ARC
8
0
10
3684.770029
20
1232.498867
30
0.0
40
0.200000
50
360.000000
51
106.231301
0
LINE
8
0
10
3684.970029
20
1232.498867
30
0.0
11
3684.970029
21
1232.123867
31
0.0
0
LINE
8
0
10
3684.970029
20
1232.123867
30
0.0
11
3685.070029
21
1232.123867
31
0.0
0
LINE
8
0
10
3685.070029
20
1232.123867
30
0.0
11
3685.070029
21
1231.523867
31
0.0
0
ARC
8
0
10
3684.670029
20
1231.523867
30
0.0
40
0.400000
50
270.000000
51
360.000000
0
LINE
8
0
10
3684.670029
20
1231.123867
30
0.0
11
3684.463619
21
1231.123867
31
0.0
0
ARC
8
0
10
3684.463619
20
1231.323867
30
0.0
40
0.200000
50
240.000000
51
270.000000
0
LINE
8
0
10
3684.363619
20
1231.150662
30
0.0
11
3682.517209
21
1232.216687
31
0.0
0
ARC
8
0
10
3682.117209
20
1231.523867
30
0.0
40
0.800000
50
60.000000
51
90.000000
0
LINE
8
0
10
3682.117209
20
1232.323867
30
0.0
11
3677.770029
21
1232.323867
31
0.0
0
LINE
8
0
10
3677.770029
20
1232.323867
30
0.0
11
3673.422850
21
1232.323867
31
0.0
0
ARC
8
0
10
3673.422850
20
1231.523867
30
0.0
40
0.800000
50
90.000000
51
120.000000
0
LINE
8
0
10
3673.022850
20
1232.216687
30
0.0
11
3671.176440
21
1231.150662
31
0.0
0
ARC
8
0
10
3671.076440
20
1231.323867
30
0.0
40
0.200000
50
270.000000
51
300.000000
0
LINE
8
0
10
3671.076440
20
1231.123867
30
0.0
11
3670.870029
21
1231.123867
31
0.0
0
ARC
8
0
10
3670.870029
20
1231.523867
30
0.0
40
0.400000
50
180.000000
51
270.000000
0
LINE
8
0
10
3670.470029
20
1231.523867
30
0.0
11
3670.470029
21
1232.123867
31
0.0
0
LINE
8
0
10
3670.470029
20
1232.123867
30
0.0
11
3670.570029
21
1232.123867
31
0.0
0
LINE
8
0
10
3670.570029
20
1232.123867
30
0.0
11
3670.570029
21
1232.498867
31
0.0
0
ARC
8
0
10
3670.770029
20
1232.498867
30
0.0
40
0.200000
50
73.768699
51
180.000000
0
ARC
8
0
10
3670.881836
20
1232.498867
30
0.0
40
0.200000
50
64.992167
51
106.231301
0
ARC
8
0
10
3671.220029
20
1233.223867
30
0.0
40
0.600000
50
244.992167
51
360.000000
0
ARC
8
0
10
3671.220029
20
1233.223867
30
0.0
40
0.600000
50
360.000000
51
115.007833
0
ARC
8
0
10
3670.881836
20
1233.948867
30
0.0
40
0.200000
50
253.768699
51
295.007833
0
ARC
8
0
10
3670.770029
20
1233.948867
30
0.0
40
0.200000
50
180.000000
51
286.231301
0
LINE
8
0
10
3670.570029
20
1233.948867
30
0.0
11
3670.570029
21
1234.323867
31
0.0
0
LINE
8
0
10
3670.570029
20
1234.323867
30
0.0
11
3670.470029
21
1234.323867
31
0.0
0
LINE
8
0
10
3670.470029
20
1234.323867
30
0.0
11
3670.470029
21
1234.923867
31
0.0
0
ARC
8
0
10
3670.870029
20
1234.923867
30
0.0
40
0.400000
50
90.000000
51
180.000000
0
LINE
8
0
10
3670.870029
20
1235.323867
30
0.0
11
3671.076440
21
1235.323867
31
0.0
0
ARC
8
0
10
3671.076440
20
1235.123867
30
0.0
40
0.200000
50
60.000000
51
90.000000
0
LINE
8
0
10
3671.176440
20
1235.297072
30
0.0
11
3673.022850
21
1234.231046
31
0.0
0
ARC
8
0
10
3673.422850
20
1234.923867
30
0.0
40
0.800000
50
240.000000
51
270.000000
0
LINE
8
0
10
3673.422850
20
1234.123867
30
0.0
11
3677.487187
21
1234.123867
31
0.0
0
ARC
8
0
10
3677.487187
20
1234.323867
30
0.0
40
0.200000
50
270.000000
51
308.942441
0
ARC
8
0
10
3677.770029
20
1233.973867
30
0.0
40
0.250000
50
51.057559
51
128.942441
0
ARC
8
0
10
3678.052872
20
1234.323867
30
0.0
40
0.200000
50
231.057559
51
270.000000
0
LINE
8
0
10
3678.052872
20
1234.123867
30
0.0
11
3682.117209
21
1234.123867
31
0.0
0
ARC
8
0
10
3682.117209
20
1234.923867
30
0.0
40
0.800000
50
270.000000
51
300.000000
0
LINE
8
0
10
3682.517209
20
1234.231046
30
0.0
11
3684.363619
21
1235.297072
31
0.0
0
ARC
8
0
10
3684.463619
20
1235.123867
30
0.0
40
0.200000
50
90.000000
51
120.000000
0
LINE
8
0
10
3684.463619
20
1235.323867
30
0.0
11
3684.670029
21
1235.323867
31
0.0
0
ARC
8
0
10
3684.670029
20
1234.923867
30
0.0
40
0.400000
50
360.000000
51
90.000000
0
LINE
8
0
10
3685.070029
20
1234.923867
30
0.0
11
3685.070029
21
1234.323867
31
0.0
0
LINE
8
0
10
3685.070029
20
1234.323867
30
0.0
11
3684.970029
21
1234.323867
31
0.0
0
LINE
8
0
10
3684.970029
20
1234.323867
30
0.0
11
3684.970029
21
1233.948867
31
0.0
0
ARC
8
0
10
3684.770029
20
1233.948867
30
0.0
40
0.200000
50
253.768699
51
360.000000
0
ARC
8
0
10
3684.658223
20
1233.948867
30
0.0
40
0.200000
50
244.992167
51
286.231301
0
ARC
8
0
10
3684.320029
20
1233.223867
30
0.0
40
0.600000
50
64.992167
51
180.000000
0
ARC
8
0
10
3684.320029
20
1233.223867
30
0.0
40
0.600000
50
180.000000
51
295.007833
0
ATTDEF
8
0
10
0.000000
20
0.000000
30
0.0
40
3.5
1

3

2
PANE_WIDTH:0
70
0
0
ATTDEF
8
0
10
0.000000
20
0.000000
30
0.0
40
3.5
1

3

2
MIN_VETRO:0
70
0
0
ATTDEF
8
0
10
0.000000
20
0.000000
30
0.0
40
3.5
1

3

2
MAX_VETRO:0
70
0
0
ATTDEF
8
0
10
0.000000
20
0.000000
30
0.0
40
3.5
1

3

2
JX:0
70
0
0
ATTDEF
8
0
10
0.000000
20
0.000000
30
0.0
40
3.5
1

3

2
WX:0
70
0
0
ATTDEF
8
0
10
0.000000
20
0.000000
30
0.0
40
3.5
1

3

2
JY:0
70
0
0
ATTDEF
8
0
10
0.000000
20
0.000000
30
0.0
40
3.5
1

3

2
WY:0
70
0
0
ATTDEF
8
0
10
0.000000
20
0.000000
30
0.0
40
3.5
1

3

2
DESC:M.perimetral c/condensacion
70
0
0
ATTDEF
8
0
10
0.000000
20
0.000000
30
0.0
40
3.5
1

3

2
DENS:1.9414
70
0
0
ATTDEF
8
0
10
0.000000
20
0.000000
30
0.0
40
3.5
1

3

2
TDEV:86.9
70
0
0
ATTDEF
8
0
10
0.000000
20
0.000000
30
0.0
40
3.5
1

3

2
TDEV2:0
70
0
0
ATTDEF
8
0
10
0.000000
20
0.000000
30
0.0
40
3.5
1

3

2
TDEV3:0
70
0
0
ATTDEF
8
0
10
0.000000
20
0.000000
30
0.0
40
3.5
1

3

2
TDEV4:0
70
0
0
ATTDEF
8
0
10
0.000000
20
0.000000
30
0.0
40
3.5
1

3

2
TDEV5:0
70
0
0
ATTDEF
8
0
10
0.000000
20
0.000000
30
0.0
40
3.5
1

3

2
PANE_WIDTH:0
70
0
0
ATTDEF
8
0
10
0.000000
20
0.000000
30
0.0
40
3.5
1

3

2
MIN_VETRO:0
70
0
0
ATTDEF
8
0
10
0.000000
20
0.000000
30
0.0
40
3.5
1

3

2
MAX_VETRO:0
70
0
0
ATTDEF
8
0
10
0.000000
20
0.000000
30
0.0
40
3.5
1

3

2
JX:0
70
0
0
ATTDEF
8
0
10
0.000000
20
0.000000
30
0.0
40
3.5
1

3

2
WX:0
70
0
0
ATTDEF
8
0
10
0.000000
20
0.000000
30
0.0
40
3.5
1

3

2
JY:0
70
0
0
ATTDEF
8
0
10
0.000000
20
0.000000
30
0.0
40
3.5
1

3

2
WY:0
70
0
0
ATTDEF
8
0
10
3696.770462
20
1245.990107
30
0.0
40
3.5
1

3

2
VC_START
70
0
0
ATTDEF
8
0
10
3698.771323
20
1223.990107
30
0.0
40
3.5
1

3

2
VC_END
70
0
0
ATTDEF
8
0
10
3724.270462
20
1223.990107
30
0.0
40
3.5
1

3

2
FP_LCS_ORIG
70
0
0
ATTDEF
8
0
10
3714.270462
20
1223.990107
30
0.0
40
3.5
1

3

2
FP_LCS_HOT
70
0
0
ATTDEF
8
0
10
3724.270462
20
1233.990107
30
0.0
40
3.5
1

3

2
FP_LCS_INTERN
70
0
0
ENDSEC
0
EOF
