0
SECTION
2
ENTITIES
0
LINE
8
0
10
3507.835681
20
1269.668116
30
0.0
11
3529.035681
21
1269.668116
31
0.0
0
LINE
8
0
10
3529.035681
20
1269.668116
30
0.0
11
3529.035681
21
1252.868116
31
0.0
0
LINE
8
0
10
3529.035681
20
1252.868116
30
0.0
11
3507.835681
21
1252.868116
31
0.0
0
LINE
8
0
10
3507.835681
20
1252.868116
30
0.0
11
3507.835681
21
1269.668116
31
0.0
0
ARC
8
0
10
3532.838165
20
1268.209665
30
0.0
40
0.200000
50
145.950408
51
326.960191
0
LINE
8
0
10
3533.005823
20
1268.100621
30
0.0
11
3534.963861
21
1270.923533
31
0.0
0
ARC
8
0
10
3534.674427
20
1271.002450
30
0.0
40
0.300000
50
344.748585
51
90.000000
0
LINE
8
0
10
3534.667222
20
1271.302363
30
0.0
11
3533.609191
21
1271.276945
31
0.0
0
LINE
8
0
10
3533.609191
20
1271.276945
30
0.0
11
3533.557178
21
1271.068331
31
0.0
0
LINE
8
0
10
3533.557178
20
1271.068331
30
0.0
11
3533.128922
21
1270.492102
31
0.0
0
ARC
8
0
10
3532.326311
20
1271.088605
30
0.0
40
1.000000
50
236.890902
51
323.380135
0
LINE
8
0
10
3531.780076
20
1270.250973
30
0.0
11
3530.862563
21
1270.849300
31
0.0
0
ARC
8
0
10
3531.135681
20
1271.268116
30
0.0
40
0.500000
50
196.601550
51
236.890902
0
ARC
8
0
10
3530.464860
20
1271.068116
30
0.0
40
0.200000
50
16.601550
51
90.000000
0
LINE
8
0
10
3530.464860
20
1271.268116
30
0.0
11
3507.835681
21
1271.268116
31
0.0
0
LINE
8
0
10
3507.835681
20
1271.268116
30
0.0
11
3507.835681
21
1275.468116
31
0.0
0
ARC
8
0
10
3507.535681
20
1275.468116
30
0.0
40
0.300000
50
360.000000
51
135.000000
0
LINE
8
0
10
3507.323549
20
1275.680248
30
0.0
11
3506.382127
21
1274.738826
31
0.0
0
ARC
8
0
10
3506.735681
20
1274.385273
30
0.0
40
0.500000
50
135.000000
51
180.000000
0
LINE
8
0
10
3506.235681
20
1274.385273
30
0.0
11
3506.235681
21
1248.150958
31
0.0
0
ARC
8
0
10
3506.735681
20
1248.150958
30
0.0
40
0.500000
50
180.000000
51
225.000000
0
LINE
8
0
10
3506.382127
20
1247.797405
30
0.0
11
3507.323549
21
1246.855984
31
0.0
0
ARC
8
0
10
3507.535681
20
1247.068116
30
0.0
40
0.300000
50
225.000000
51
360.000000
0
LINE
8
0
10
3507.835681
20
1247.068116
30
0.0
11
3507.835681
21
1251.268116
31
0.0
0
LINE
8
0
10
3507.835681
20
1251.268116
30
0.0
11
3530.464860
21
1251.268116
31
0.0
0
ARC
8
0
10
3530.464860
20
1251.468116
30
0.0
40
0.200000
50
270.000000
51
343.398450
0
ARC
8
0
10
3531.135681
20
1251.268116
30
0.0
40
0.500000
50
123.109098
51
163.398450
0
LINE
8
0
10
3530.862563
20
1251.686932
30
0.0
11
3531.780076
21
1252.285259
31
0.0
0
ARC
8
0
10
3532.326311
20
1251.447627
30
0.0
40
1.000000
50
36.619865
51
123.109098
0
LINE
8
0
10
3533.128922
20
1252.044130
30
0.0
11
3533.557178
21
1251.467901
31
0.0
0
LINE
8
0
10
3533.557178
20
1251.467901
30
0.0
11
3533.609191
21
1251.259287
31
0.0
0
LINE
8
0
10
3533.609191
20
1251.259287
30
0.0
11
3534.667222
21
1251.233868
31
0.0
0
ARC
8
0
10
3534.674427
20
1251.533782
30
0.0
40
0.300000
50
270.000000
51
15.251415
0
LINE
8
0
10
3534.963861
20
1251.612698
30
0.0
11
3533.005823
21
1254.435611
31
0.0
0
ARC
8
0
10
3532.838165
20
1254.326566
30
0.0
40
0.200000
50
33.039809
51
214.049592
0
LINE
8
0
10
3532.672454
20
1254.214584
30
0.0
11
3530.921689
21
1253.030496
31
0.0
0
ARC
8
0
10
3530.635681
20
1252.939946
30
0.0
40
0.300000
50
90.000000
51
17.567725
0
LINE
8
0
10
3530.635681
20
1253.239946
30
0.0
11
3530.635681
21
1257.739946
31
0.0
0
ARC
8
0
10
3530.835681
20
1257.739946
30
0.0
40
0.200000
50
60.000000
51
180.000000
0
LINE
8
0
10
3530.935681
20
1257.913151
30
0.0
11
3532.735777
21
1256.873865
31
0.0
0
ARC
8
0
10
3532.935681
20
1256.867642
30
0.0
40
0.200000
50
180.000000
51
360.000000
0
LINE
8
0
10
3533.135681
20
1256.867642
30
0.0
11
3533.135681
21
1258.259561
31
0.0
0
ARC
8
0
10
3532.935681
20
1258.259561
30
0.0
40
0.200000
50
360.000000
51
60.000000
0
LINE
8
0
10
3533.035681
20
1258.432766
30
0.0
11
3530.985681
21
1259.616334
31
0.0
0
ARC
8
0
10
3531.335681
20
1260.222552
30
0.0
40
0.700000
50
180.000000
51
240.000000
0
LINE
8
0
10
3530.635681
20
1260.222552
30
0.0
11
3530.635681
21
1262.313679
31
0.0
0
ARC
8
0
10
3531.335681
20
1262.313679
30
0.0
40
0.700000
50
120.000000
51
180.000000
0
LINE
8
0
10
3530.985681
20
1262.919897
30
0.0
11
3533.035681
21
1264.103465
31
0.0
0
ARC
8
0
10
3532.935681
20
1264.276670
30
0.0
40
0.200000
50
300.000000
51
360.000000
0
LINE
8
0
10
3533.135681
20
1264.276670
30
0.0
11
3533.135681
21
1265.668589
31
0.0
0
ARC
8
0
10
3532.935681
20
1265.668589
30
0.0
40
0.200000
50
360.000000
51
180.000000
0
LINE
8
0
10
3532.735777
20
1265.662367
30
0.0
11
3530.935681
21
1264.623080
31
0.0
0
ARC
8
0
10
3530.835681
20
1264.796286
30
0.0
40
0.200000
50
180.000000
51
300.000000
0
LINE
8
0
10
3530.635681
20
1264.796286
30
0.0
11
3530.635681
21
1269.296286
31
0.0
0
ARC
8
0
10
3530.635681
20
1269.596286
30
0.0
40
0.300000
50
342.432275
51
270.000000
0
LINE
8
0
10
3530.921689
20
1269.505736
30
0.0
11
3532.672454
21
1268.321647
31
0.0
0
LINE
8
0
10
3573.135681
20
1252.868116
30
0.0
11
3570.246510
21
1252.868116
31
0.0
0
LINE
8
0
10
3570.246510
20
1252.868116
30
0.0
11
3566.545760
21
1258.153336
31
0.0
0
LINE
8
0
10
3566.545760
20
1258.153336
30
0.0
11
3578.628643
21
1266.613861
31
0.0
0
ARC
8
0
10
3578.800715
20
1266.368116
30
0.0
40
0.300000
50
90.000000
51
125.000000
0
LINE
8
0
10
3578.800715
20
1266.668116
30
0.0
11
3579.635681
21
1266.668116
31
0.0
0
ARC
8
0
10
3579.635681
20
1266.968116
30
0.0
40
0.300000
50
270.000000
51
360.000000
0
LINE
8
0
10
3579.935681
20
1266.968116
30
0.0
11
3579.935681
21
1274.068116
31
0.0
0
LINE
8
0
10
3579.935681
20
1274.068116
30
0.0
11
3605.535681
21
1274.068116
31
0.0
0
LINE
8
0
10
3605.535681
20
1274.068116
30
0.0
11
3605.535681
21
1272.668116
31
0.0
0
LINE
8
0
10
3605.535681
20
1272.668116
30
0.0
11
3608.160552
21
1272.668116
31
0.0
0
LINE
8
0
10
3608.160552
20
1272.668116
30
0.0
11
3609.935681
21
1271.643245
31
0.0
0
LINE
8
0
10
3609.935681
20
1271.643245
30
0.0
11
3609.935681
21
1250.892987
31
0.0
0
LINE
8
0
10
3609.935681
20
1250.892987
30
0.0
11
3608.160552
21
1249.868116
31
0.0
0
LINE
8
0
10
3608.160552
20
1249.868116
30
0.0
11
3605.535681
21
1249.868116
31
0.0
0
LINE
8
0
10
3605.535681
20
1249.868116
30
0.0
11
3605.535681
21
1248.468116
31
0.0
0
LINE
8
0
10
3605.535681
20
1248.468116
30
0.0
11
3579.935681
21
1248.468116
31
0.0
0
LINE
8
0
10
3579.935681
20
1248.468116
30
0.0
11
3579.935681
21
1255.968116
31
0.0
0
LINE
8
0
10
3579.935681
20
1255.968116
30
0.0
11
3578.735681
21
1255.968116
31
0.0
0
ARC
8
0
10
3578.735681
20
1255.668116
30
0.0
40
0.300000
50
90.000000
51
180.000000
0
LINE
8
0
10
3578.435681
20
1255.668116
30
0.0
11
3578.435681
21
1248.268116
31
0.0
0
LINE
8
0
10
3578.435681
20
1248.268116
30
0.0
11
3575.435681
21
1248.268116
31
0.0
0
ARC
8
0
10
3575.435681
20
1248.768116
30
0.0
40
0.500000
50
180.000000
51
270.000000
0
LINE
8
0
10
3574.935681
20
1248.768116
30
0.0
11
3574.935681
21
1251.068116
31
0.0
0
ARC
8
0
10
3573.135681
20
1251.068116
30
0.0
40
1.800000
50
360.000000
51
90.000000
0
ARC
8
0
10
3575.435681
20
1273.768116
30
0.0
40
0.500000
50
90.000000
51
180.000000
0
LINE
8
0
10
3575.435681
20
1274.268116
30
0.0
11
3577.935681
21
1274.268116
31
0.0
0
ARC
8
0
10
3577.935681
20
1273.768116
30
0.0
40
0.500000
50
360.000000
51
90.000000
0
LINE
8
0
10
3578.435681
20
1273.768116
30
0.0
11
3578.435681
21
1268.570193
31
0.0
0
ARC
8
0
10
3577.935681
20
1268.570193
30
0.0
40
0.500000
50
305.000000
51
360.000000
0
LINE
8
0
10
3578.222469
20
1268.160617
30
0.0
11
3565.685395
21
1259.382064
31
0.0
0
LINE
8
0
10
3565.685395
20
1259.382064
30
0.0
11
3565.286754
21
1259.951382
31
0.0
0
ARC
8
0
10
3565.041008
20
1259.779309
30
0.0
40
0.300000
50
35.000000
51
125.000000
0
LINE
8
0
10
3564.868935
20
1260.025055
30
0.0
11
3557.707754
21
1255.010742
31
0.0
0
ARC
8
0
10
3557.535681
20
1255.256487
30
0.0
40
0.300000
50
180.000000
51
305.000000
0
LINE
8
0
10
3557.235681
20
1255.256487
30
0.0
11
3557.235681
21
1269.168116
31
0.0
0
ARC
8
0
10
3557.735681
20
1269.168116
30
0.0
40
0.500000
50
90.000000
51
180.000000
0
LINE
8
0
10
3557.735681
20
1269.668116
30
0.0
11
3574.435681
21
1269.668116
31
0.0
0
ARC
8
0
10
3574.435681
20
1270.168116
30
0.0
40
0.500000
50
270.000000
51
360.000000
0
LINE
8
0
10
3574.935681
20
1270.168116
30
0.0
11
3574.935681
21
1273.768116
31
0.0
0
ARC
8
0
10
3553.433197
20
1254.326566
30
0.0
40
0.200000
50
325.950408
51
146.960191
0
LINE
8
0
10
3553.265538
20
1254.435611
30
0.0
11
3551.307500
21
1251.612698
31
0.0
0
ARC
8
0
10
3551.596934
20
1251.533782
30
0.0
40
0.300000
50
164.748585
51
270.000000
0
LINE
8
0
10
3551.604140
20
1251.233868
30
0.0
11
3552.662170
21
1251.259287
31
0.0
0
LINE
8
0
10
3552.662170
20
1251.259287
30
0.0
11
3552.714183
21
1251.467901
31
0.0
0
LINE
8
0
10
3552.714183
20
1251.467901
30
0.0
11
3553.142439
21
1252.044130
31
0.0
0
ARC
8
0
10
3553.945050
20
1251.447627
30
0.0
40
1.000000
50
56.890902
51
143.380135
0
LINE
8
0
10
3554.491285
20
1252.285259
30
0.0
11
3555.408798
21
1251.686932
31
0.0
0
ARC
8
0
10
3555.135681
20
1251.268116
30
0.0
40
0.500000
50
360.000000
51
56.890902
0
LINE
8
0
10
3555.635681
20
1251.268116
30
0.0
11
3556.935681
21
1251.268116
31
0.0
0
ARC
8
0
10
3556.935681
20
1251.568116
30
0.0
40
0.300000
50
270.000000
51
360.000000
0
LINE
8
0
10
3557.235681
20
1251.568116
30
0.0
11
3557.235681
21
1252.692861
31
0.0
0
ARC
8
0
10
3557.535681
20
1252.692861
30
0.0
40
0.300000
50
125.000000
51
180.000000
0
LINE
8
0
10
3557.363608
20
1252.938606
30
0.0
11
3564.746317
21
1258.108035
31
0.0
0
LINE
8
0
10
3564.746317
20
1258.108035
30
0.0
11
3569.535681
21
1251.268116
31
0.0
0
LINE
8
0
10
3569.535681
20
1251.268116
30
0.0
11
3572.935681
21
1251.268116
31
0.0
0
ARC
8
0
10
3572.935681
20
1250.768116
30
0.0
40
0.500000
50
360.000000
51
90.000000
0
LINE
8
0
10
3573.435681
20
1250.768116
30
0.0
11
3573.435681
21
1247.268116
31
0.0
0
ARC
8
0
10
3573.935681
20
1247.268116
30
0.0
40
0.500000
50
180.000000
51
270.000000
0
LINE
8
0
10
3573.935681
20
1246.768116
30
0.0
11
3605.657220
21
1246.768116
31
0.0
0
ARC
8
0
10
3605.657220
20
1247.268116
30
0.0
40
0.500000
50
270.000000
51
300.000000
0
LINE
8
0
10
3605.907220
20
1246.835103
30
0.0
11
3611.185681
21
1249.882624
31
0.0
0
ARC
8
0
10
3610.935681
20
1250.315637
30
0.0
40
0.500000
50
300.000000
51
360.000000
0
LINE
8
0
10
3611.435681
20
1250.315637
30
0.0
11
3611.435681
21
1272.220595
31
0.0
0
ARC
8
0
10
3610.935681
20
1272.220595
30
0.0
40
0.500000
50
360.000000
51
60.000000
0
LINE
8
0
10
3611.185681
20
1272.653608
30
0.0
11
3605.907220
21
1275.701128
31
0.0
0
ARC
8
0
10
3605.657220
20
1275.268116
30
0.0
40
0.500000
50
60.000000
51
90.000000
0
LINE
8
0
10
3605.657220
20
1275.768116
30
0.0
11
3573.935681
21
1275.768116
31
0.0
0
ARC
8
0
10
3573.935681
20
1275.268116
30
0.0
40
0.500000
50
90.000000
51
180.000000
0
LINE
8
0
10
3573.435681
20
1275.268116
30
0.0
11
3573.435681
21
1271.268116
31
0.0
0
LINE
8
0
10
3573.435681
20
1271.268116
30
0.0
11
3555.635681
21
1271.268116
31
0.0
0
ARC
8
0
10
3555.135681
20
1271.268116
30
0.0
40
0.500000
50
303.109098
51
360.000000
0
LINE
8
0
10
3555.408798
20
1270.849300
30
0.0
11
3554.491285
21
1270.250973
31
0.0
0
ARC
8
0
10
3553.945050
20
1271.088605
30
0.0
40
1.000000
50
216.619865
51
303.109098
0
LINE
8
0
10
3553.142439
20
1270.492102
30
0.0
11
3552.714183
21
1271.068331
31
0.0
0
LINE
8
0
10
3552.714183
20
1271.068331
30
0.0
11
3552.662170
21
1271.276945
31
0.0
0
LINE
8
0
10
3552.662170
20
1271.276945
30
0.0
11
3551.604140
21
1271.302363
31
0.0
0
ARC
8
0
10
3551.596934
20
1271.002450
30
0.0
40
0.300000
50
90.000000
51
195.251415
0
LINE
8
0
10
3551.307500
20
1270.923533
30
0.0
11
3553.265538
21
1268.100621
31
0.0
0
ARC
8
0
10
3553.433197
20
1268.209665
30
0.0
40
0.200000
50
213.039809
51
34.049592
0
LINE
8
0
10
3553.598907
20
1268.321647
30
0.0
11
3555.349672
21
1269.505736
31
0.0
0
ARC
8
0
10
3555.635681
20
1269.596286
30
0.0
40
0.300000
50
270.000000
51
197.567725
0
LINE
8
0
10
3555.635681
20
1269.296286
30
0.0
11
3555.635681
21
1264.796286
31
0.0
0
ARC
8
0
10
3555.435681
20
1264.796286
30
0.0
40
0.200000
50
240.000000
51
360.000000
0
LINE
8
0
10
3555.335681
20
1264.623080
30
0.0
11
3553.535584
21
1265.662367
31
0.0
0
ARC
8
0
10
3553.335681
20
1265.668589
30
0.0
40
0.200000
50
360.000000
51
180.000000
0
LINE
8
0
10
3553.135681
20
1265.668589
30
0.0
11
3553.135681
21
1264.276670
31
0.0
0
ARC
8
0
10
3553.335681
20
1264.276670
30
0.0
40
0.200000
50
180.000000
51
240.000000
0
LINE
8
0
10
3553.235681
20
1264.103465
30
0.0
11
3555.285681
21
1262.919897
31
0.0
0
ARC
8
0
10
3554.935681
20
1262.313679
30
0.0
40
0.700000
50
360.000000
51
60.000000
0
LINE
8
0
10
3555.635681
20
1262.313679
30
0.0
11
3555.635681
21
1260.222552
31
0.0
0
ARC
8
0
10
3554.935681
20
1260.222552
30
0.0
40
0.700000
50
300.000000
51
360.000000
0
LINE
8
0
10
3555.285681
20
1259.616334
30
0.0
11
3553.235681
21
1258.432766
31
0.0
0
ARC
8
0
10
3553.335681
20
1258.259561
30
0.0
40
0.200000
50
120.000000
51
180.000000
0
LINE
8
0
10
3553.135681
20
1258.259561
30
0.0
11
3553.135681
21
1256.867642
31
0.0
0
ARC
8
0
10
3553.335681
20
1256.867642
30
0.0
40
0.200000
50
180.000000
51
360.000000
0
LINE
8
0
10
3553.535584
20
1256.873865
30
0.0
11
3555.335681
21
1257.913151
31
0.0
0
ARC
8
0
10
3555.435681
20
1257.739946
30
0.0
40
0.200000
50
360.000000
51
120.000000
0
LINE
8
0
10
3555.635681
20
1257.739946
30
0.0
11
3555.635681
21
1253.239946
31
0.0
0
ARC
8
0
10
3555.635681
20
1252.939946
30
0.0
40
0.300000
50
162.432275
51
90.000000
0
LINE
8
0
10
3555.349672
20
1253.030496
30
0.0
11
3553.598907
21
1254.214584
31
0.0
0
LINE
8
0
10
3531.511212
20
1267.608902
30
0.0
11
3532.448056
21
1268.545746
31
0.0
0
LINE
8
0
10
3531.100268
20
1264.952894
30
0.0
11
3537.100275
21
1270.952900
31
0.0
0
LINE
8
0
10
3534.445345
20
1266.052907
30
0.0
11
3535.002718
21
1266.610280
31
0.0
0
LINE
8
0
10
3537.345339
20
1268.952900
30
0.0
11
3539.345338
21
1270.952899
31
0.0
0
LINE
8
0
10
3539.590402
20
1268.952899
30
0.0
11
3541.590401
21
1270.952899
31
0.0
0
LINE
8
0
10
3541.835465
20
1268.952898
30
0.0
11
3543.835464
21
1270.952898
31
0.0
0
LINE
8
0
10
3531.205589
20
1256.077959
30
0.0
11
3532.229820
21
1257.102190
31
0.0
0
LINE
8
0
10
3544.080528
20
1268.952898
30
0.0
11
3546.080527
21
1270.952897
31
0.0
0
LINE
8
0
10
3530.819488
20
1253.446793
30
0.0
11
3533.856021
21
1256.483326
31
0.0
0
LINE
8
0
10
3546.325591
20
1268.952897
30
0.0
11
3548.325591
21
1270.952896
31
0.0
0
LINE
8
0
10
3533.798530
20
1254.180772
30
0.0
11
3535.230372
21
1255.612613
31
0.0
0
LINE
8
0
10
3548.570654
20
1268.952896
30
0.0
11
3550.549472
21
1270.931713
31
0.0
0
LINE
8
0
10
3534.743270
20
1252.880448
30
0.0
11
3536.175112
21
1254.312290
31
0.0
0
LINE
8
0
10
3550.095681
20
1268.232859
30
0.0
11
3551.527522
21
1269.664700
31
0.0
0
LINE
8
0
10
3535.716958
20
1251.609072
30
0.0
11
3537.691218
21
1253.583332
31
0.0
0
LINE
8
0
10
3551.040421
20
1266.932535
30
0.0
11
3552.472263
21
1268.364376
31
0.0
0
LINE
8
0
10
3537.936282
20
1251.583332
30
0.0
11
3539.936283
21
1253.583333
31
0.0
0
LINE
8
0
10
3552.405856
20
1266.052906
30
0.0
11
3555.446054
21
1269.093104
31
0.0
0
LINE
8
0
10
3540.181347
20
1251.583333
30
0.0
11
3542.181348
21
1253.583334
31
0.0
0
LINE
8
0
10
3554.035527
20
1265.437512
30
0.0
11
3555.054928
21
1266.456914
31
0.0
0
LINE
8
0
10
3542.426412
20
1251.583334
30
0.0
11
3544.426413
21
1253.583335
31
0.0
0
LINE
8
0
10
3544.671477
20
1251.583334
30
0.0
11
3546.671478
21
1253.583335
31
0.0
0
LINE
8
0
10
3546.916542
20
1251.583335
30
0.0
11
3548.916543
21
1253.583336
31
0.0
0
LINE
8
0
10
3551.315455
20
1255.982249
30
0.0
11
3551.816090
21
1256.482884
31
0.0
0
LINE
8
0
10
3549.161607
20
1251.583336
30
0.0
11
3555.161609
21
1257.583338
31
0.0
0
LINE
8
0
10
3553.819455
20
1253.996120
30
0.0
11
3554.753434
21
1254.930099
31
0.0
0
LINE
8
0
10
3532.479223
20
1254.008480
30
0.0
11
3531.545298
21
1254.942405
31
0.0
0
LINE
8
0
10
3537.149435
20
1251.583332
30
0.0
11
3531.149429
21
1257.583338
31
0.0
0
LINE
8
0
10
3539.394499
20
1251.583332
30
0.0
11
3537.394499
21
1253.583332
31
0.0
0
LINE
8
0
10
3534.872104
20
1256.105727
30
0.0
11
3534.499519
21
1256.478312
31
0.0
0
LINE
8
0
10
3541.639562
20
1251.583333
30
0.0
11
3539.639563
21
1253.583333
31
0.0
0
LINE
8
0
10
3543.884625
20
1251.583334
30
0.0
11
3541.884626
21
1253.583334
31
0.0
0
LINE
8
0
10
3546.129688
20
1251.583335
30
0.0
11
3544.129689
21
1253.583334
31
0.0
0
LINE
8
0
10
3532.260987
20
1265.452036
30
0.0
11
3531.259550
21
1266.453473
31
0.0
0
LINE
8
0
10
3548.374751
20
1251.583336
30
0.0
11
3546.374752
21
1253.583335
31
0.0
0
LINE
8
0
10
3533.905182
20
1266.052906
30
0.0
11
3530.850591
21
1269.107497
31
0.0
0
LINE
8
0
10
3550.582906
20
1251.620245
30
0.0
11
3548.619815
21
1253.583336
31
0.0
0
LINE
8
0
10
3535.251059
20
1266.952092
30
0.0
11
3533.819217
21
1268.383934
31
0.0
0
LINE
8
0
10
3551.548210
20
1252.900006
30
0.0
11
3550.116368
21
1254.331847
31
0.0
0
LINE
8
0
10
3536.195800
20
1268.252416
30
0.0
11
3534.763958
21
1269.684258
31
0.0
0
LINE
8
0
10
3552.492950
20
1254.200329
30
0.0
11
3551.061109
21
1255.632171
31
0.0
0
LINE
8
0
10
3537.740379
20
1268.952900
30
0.0
11
3535.752870
21
1270.940409
31
0.0
0
LINE
8
0
10
3555.475294
20
1253.463049
30
0.0
11
3552.455017
21
1256.483326
31
0.0
0
LINE
8
0
10
3539.985444
20
1268.952899
30
0.0
11
3537.985443
21
1270.952900
31
0.0
0
LINE
8
0
10
3555.113951
20
1256.069456
30
0.0
11
3554.066693
21
1257.116714
31
0.0
0
LINE
8
0
10
3542.230509
20
1268.952898
30
0.0
11
3540.230508
21
1270.952899
31
0.0
0
LINE
8
0
10
3544.475574
20
1268.952897
30
0.0
11
3542.475573
21
1270.952898
31
0.0
0
LINE
8
0
10
3546.720639
20
1268.952896
30
0.0
11
3544.720638
21
1270.952897
31
0.0
0
LINE
8
0
10
3551.865693
20
1266.052906
30
0.0
11
3551.184841
21
1266.733759
31
0.0
0
LINE
8
0
10
3548.965704
20
1268.952896
30
0.0
11
3546.965703
21
1270.952897
31
0.0
0
LINE
8
0
10
3555.210770
20
1264.952894
30
0.0
11
3549.210768
21
1270.952896
31
0.0
0
LINE
8
0
10
3554.788982
20
1267.619746
30
0.0
11
3553.850622
21
1268.558106
31
0.0
0
LINE
8
0
10
3551.589661
20
1266.176571
30
0.0
11
3549.662387
21
1268.829236
31
0.0
0
ARC
8
0
10
3549.418898
20
1268.651349
30
0.0
40
0.301547
50
36.150851
51
90.000000
0
LINE
8
0
10
3549.419682
20
1268.952895
30
0.0
11
3536.857589
21
1268.952900
31
0.0
0
ARC
8
0
10
3536.857589
20
1268.652900
30
0.0
40
0.300000
50
90.000000
51
144.000001
0
LINE
8
0
10
3536.614884
20
1268.829236
30
0.0
11
3534.687610
21
1266.176571
31
0.0
0
ARC
8
0
10
3534.444905
20
1266.352907
30
0.0
40
0.300000
50
270.000000
51
324.000001
0
LINE
8
0
10
3534.444906
20
1266.052907
30
0.0
11
3533.623258
21
1266.052905
31
0.0
0
ARC
8
0
10
3533.623260
20
1264.852905
30
0.0
40
1.200000
50
90.000000
51
120.000027
0
LINE
8
0
10
3533.023260
20
1265.892135
30
0.0
11
3531.396447
21
1264.952894
31
0.0
0
LINE
8
0
10
3531.396447
20
1264.952894
30
0.0
11
3531.035677
21
1264.952894
31
0.0
0
ARC
8
0
10
3531.035677
20
1265.352894
30
0.0
40
0.400000
50
180.000000
51
270.000000
0
LINE
8
0
10
3530.635677
20
1265.352893
30
0.0
11
3530.635677
21
1265.952904
31
0.0
0
LINE
8
0
10
3530.635677
20
1265.952904
30
0.0
11
3530.685677
21
1265.952904
31
0.0
0
LINE
8
0
10
3530.685677
20
1265.952904
30
0.0
11
3530.685677
21
1266.527904
31
0.0
0
LINE
8
0
10
3530.685677
20
1266.527904
30
0.0
11
3530.995203
21
1266.527904
31
0.0
0
ARC
8
0
10
3531.285677
20
1267.052904
30
0.0
40
0.600000
50
241.044976
51
118.955024
0
LINE
8
0
10
3530.995203
20
1267.577904
30
0.0
11
3530.685676
21
1267.577904
31
0.0
0
LINE
8
0
10
3530.685676
20
1267.577904
30
0.0
11
3530.685676
21
1268.152904
31
0.0
0
LINE
8
0
10
3530.685676
20
1268.152904
30
0.0
11
3530.635676
21
1268.152904
31
0.0
0
LINE
8
0
10
3530.635676
20
1268.152904
30
0.0
11
3530.635676
21
1268.752893
31
0.0
0
ARC
8
0
10
3531.035676
20
1268.752893
30
0.0
40
0.400000
50
90.000000
51
180.000000
0
LINE
8
0
10
3531.035676
20
1269.152893
30
0.0
11
3531.396445
21
1269.152893
31
0.0
0
LINE
8
0
10
3531.396445
20
1269.152893
30
0.0
11
3533.232068
21
1268.093097
31
0.0
0
ARC
8
0
10
3533.382068
20
1268.352905
30
0.0
40
0.300000
50
240.000026
51
270.000000
0
LINE
8
0
10
3533.382068
20
1268.052905
30
0.0
11
3533.425854
21
1268.052905
31
0.0
0
ARC
8
0
10
3533.425853
20
1268.352905
30
0.0
40
0.300000
50
270.000000
51
324.000001
0
LINE
8
0
10
3533.668558
20
1268.176569
30
0.0
11
3535.595834
21
1270.829236
31
0.0
0
ARC
8
0
10
3535.838539
20
1270.652901
30
0.0
40
0.300000
50
90.000000
51
144.000008
0
LINE
8
0
10
3535.838539
20
1270.952901
30
0.0
11
3550.438732
21
1270.952895
31
0.0
0
ARC
8
0
10
3550.438749
20
1270.652920
30
0.0
40
0.299975
50
35.998861
51
90.000000
0
LINE
8
0
10
3550.681437
20
1270.829236
30
0.0
11
3552.608713
21
1268.176569
31
0.0
0
ARC
8
0
10
3552.851418
20
1268.352905
30
0.0
40
0.300000
50
215.999993
51
270.000000
0
LINE
8
0
10
3552.851417
20
1268.052905
30
0.0
11
3552.895202
21
1268.052905
31
0.0
0
ARC
8
0
10
3552.895203
20
1268.352905
30
0.0
40
0.300000
50
270.000000
51
299.999965
0
LINE
8
0
10
3553.045203
20
1268.093097
30
0.0
11
3554.880825
21
1269.152893
31
0.0
0
LINE
8
0
10
3554.880825
20
1269.152893
30
0.0
11
3555.235886
21
1269.152893
31
0.0
0
ARC
8
0
10
3555.235681
20
1268.752893
30
0.0
40
0.400000
50
360.000000
51
90.000000
0
LINE
8
0
10
3555.635681
20
1268.752893
30
0.0
11
3555.635681
21
1268.152904
31
0.0
0
LINE
8
0
10
3555.635681
20
1268.152904
30
0.0
11
3555.585681
21
1268.152904
31
0.0
0
LINE
8
0
10
3555.585681
20
1268.152904
30
0.0
11
3555.585680
21
1267.577904
31
0.0
0
LINE
8
0
10
3555.585680
20
1267.577904
30
0.0
11
3555.276154
21
1267.577904
31
0.0
0
ARC
8
0
10
3554.985680
20
1267.052904
30
0.0
40
0.600000
50
61.044976
51
298.955024
0
LINE
8
0
10
3555.276154
20
1266.527904
30
0.0
11
3555.585680
21
1266.527904
31
0.0
0
LINE
8
0
10
3555.585680
20
1266.527904
30
0.0
11
3555.585680
21
1265.952904
31
0.0
0
LINE
8
0
10
3555.585680
20
1265.952904
30
0.0
11
3555.635680
21
1265.952904
31
0.0
0
LINE
8
0
10
3555.635680
20
1265.952904
30
0.0
11
3555.635679
21
1265.352893
31
0.0
0
ARC
8
0
10
3555.235679
20
1265.352894
30
0.0
40
0.400000
50
270.000000
51
360.000000
0
LINE
8
0
10
3555.235679
20
1264.952894
30
0.0
11
3554.874910
21
1264.952894
31
0.0
0
LINE
8
0
10
3554.874910
20
1264.952894
30
0.0
11
3553.248097
21
1265.892135
31
0.0
0
ARC
8
0
10
3552.648096
20
1264.852905
30
0.0
40
1.200000
50
59.999976
51
90.000000
0
LINE
8
0
10
3552.648098
20
1266.052905
30
0.0
11
3551.832366
21
1266.052906
31
0.0
0
ARC
8
0
10
3551.832367
20
1266.352906
30
0.0
40
0.300000
50
215.999993
51
270.000000
0
LINE
8
0
10
3551.589661
20
1256.359661
30
0.0
11
3549.662387
21
1253.706996
31
0.0
0
ARC
8
0
10
3549.418898
20
1253.884882
30
0.0
40
0.301547
50
270.000000
51
323.849149
0
LINE
8
0
10
3549.419682
20
1253.583337
30
0.0
11
3536.857589
21
1253.583332
31
0.0
0
ARC
8
0
10
3536.857589
20
1253.883332
30
0.0
40
0.300000
50
215.999999
51
270.000000
0
LINE
8
0
10
3536.614884
20
1253.706996
30
0.0
11
3534.687610
21
1256.359661
31
0.0
0
ARC
8
0
10
3534.444905
20
1256.183325
30
0.0
40
0.300000
50
35.999999
51
90.000000
0
LINE
8
0
10
3534.444906
20
1256.483325
30
0.0
11
3533.623258
21
1256.483327
31
0.0
0
ARC
8
0
10
3533.623260
20
1257.683327
30
0.0
40
1.200000
50
239.999973
51
270.000000
0
LINE
8
0
10
3533.023260
20
1256.644096
30
0.0
11
3531.396447
21
1257.583338
31
0.0
0
LINE
8
0
10
3531.396447
20
1257.583338
30
0.0
11
3531.035677
21
1257.583338
31
0.0
0
ARC
8
0
10
3531.035677
20
1257.183338
30
0.0
40
0.400000
50
90.000000
51
180.000000
0
LINE
8
0
10
3530.635677
20
1257.183339
30
0.0
11
3530.635677
21
1256.583328
31
0.0
0
LINE
8
0
10
3530.635677
20
1256.583328
30
0.0
11
3530.685677
21
1256.583328
31
0.0
0
LINE
8
0
10
3530.685677
20
1256.583328
30
0.0
11
3530.685677
21
1256.008328
31
0.0
0
LINE
8
0
10
3530.685677
20
1256.008328
30
0.0
11
3530.995203
21
1256.008328
31
0.0
0
ARC
8
0
10
3531.285677
20
1255.483328
30
0.0
40
0.600000
50
241.044976
51
118.955024
0
LINE
8
0
10
3530.995203
20
1254.958328
30
0.0
11
3530.685676
21
1254.958328
31
0.0
0
LINE
8
0
10
3530.685676
20
1254.958328
30
0.0
11
3530.685676
21
1254.383328
31
0.0
0
LINE
8
0
10
3530.685676
20
1254.383328
30
0.0
11
3530.635676
21
1254.383328
31
0.0
0
LINE
8
0
10
3530.635676
20
1254.383328
30
0.0
11
3530.635676
21
1253.783339
31
0.0
0
ARC
8
0
10
3531.035676
20
1253.783339
30
0.0
40
0.400000
50
180.000000
51
270.000000
0
LINE
8
0
10
3531.035676
20
1253.383339
30
0.0
11
3531.396445
21
1253.383338
31
0.0
0
LINE
8
0
10
3531.396445
20
1253.383338
30
0.0
11
3533.232068
21
1254.443135
31
0.0
0
ARC
8
0
10
3533.382068
20
1254.183327
30
0.0
40
0.300000
50
90.000000
51
119.999974
0
LINE
8
0
10
3533.382068
20
1254.483327
30
0.0
11
3533.425854
21
1254.483327
31
0.0
0
ARC
8
0
10
3533.425853
20
1254.183327
30
0.0
40
0.300000
50
35.999999
51
90.000000
0
LINE
8
0
10
3533.668558
20
1254.359663
30
0.0
11
3535.595834
21
1251.706996
31
0.0
0
ARC
8
0
10
3535.838539
20
1251.883331
30
0.0
40
0.300000
50
215.999992
51
270.000000
0
LINE
8
0
10
3535.838539
20
1251.583331
30
0.0
11
3550.438732
21
1251.583337
31
0.0
0
ARC
8
0
10
3550.438749
20
1251.883312
30
0.0
40
0.299975
50
270.000000
51
324.001139
0
LINE
8
0
10
3550.681437
20
1251.706996
30
0.0
11
3552.608713
21
1254.359663
31
0.0
0
ARC
8
0
10
3552.851418
20
1254.183327
30
0.0
40
0.300000
50
90.000000
51
144.000007
0
LINE
8
0
10
3552.851417
20
1254.483327
30
0.0
11
3552.895202
21
1254.483327
31
0.0
0
ARC
8
0
10
3552.895203
20
1254.183327
30
0.0
40
0.300000
50
60.000035
51
90.000000
0
LINE
8
0
10
3553.045203
20
1254.443135
30
0.0
11
3554.880825
21
1253.383338
31
0.0
0
LINE
8
0
10
3554.880825
20
1253.383338
30
0.0
11
3555.235886
21
1253.383339
31
0.0
0
ARC
8
0
10
3555.235681
20
1253.783339
30
0.0
40
0.400000
50
270.000000
51
360.000000
0
LINE
8
0
10
3555.635681
20
1253.783339
30
0.0
11
3555.635681
21
1254.383328
31
0.0
0
LINE
8
0
10
3555.635681
20
1254.383328
30
0.0
11
3555.585681
21
1254.383328
31
0.0
0
LINE
8
0
10
3555.585681
20
1254.383328
30
0.0
11
3555.585680
21
1254.958328
31
0.0
0
LINE
8
0
10
3555.585680
20
1254.958328
30
0.0
11
3555.276154
21
1254.958328
31
0.0
0
ARC
8
0
10
3554.985680
20
1255.483328
30
0.0
40
0.600000
50
61.044976
51
298.955024
0
LINE
8
0
10
3555.276154
20
1256.008328
30
0.0
11
3555.585680
21
1256.008328
31
0.0
0
LINE
8
0
10
3555.585680
20
1256.008328
30
0.0
11
3555.585680
21
1256.583328
31
0.0
0
LINE
8
0
10
3555.585680
20
1256.583328
30
0.0
11
3555.635680
21
1256.583328
31
0.0
0
LINE
8
0
10
3555.635680
20
1256.583328
30
0.0
11
3555.635679
21
1257.183339
31
0.0
0
ARC
8
0
10
3555.235679
20
1257.183338
30
0.0
40
0.400000
50
360.000000
51
90.000000
0
LINE
8
0
10
3555.235679
20
1257.583338
30
0.0
11
3554.874910
21
1257.583338
31
0.0
0
LINE
8
0
10
3554.874910
20
1257.583338
30
0.0
11
3553.248097
21
1256.644096
31
0.0
0
ARC
8
0
10
3552.648096
20
1257.683327
30
0.0
40
1.200000
50
270.000000
51
300.000024
0
LINE
8
0
10
3552.648098
20
1256.483327
30
0.0
11
3551.832366
21
1256.483325
31
0.0
0
ARC
8
0
10
3551.832367
20
1256.183325
30
0.0
40
0.300000
50
90.000000
51
144.000007
0
ATTDEF
8
0
10
0.000000
20
0.000000
30
0.0
40
3.5
1

3

2
PANE_WIDTH:0
70
0
0
ATTDEF
8
0
10
0.000000
20
0.000000
30
0.0
40
3.5
1

3

2
MIN_VETRO:0
70
0
0
ATTDEF
8
0
10
0.000000
20
0.000000
30
0.0
40
3.5
1

3

2
MAX_VETRO:0
70
0
0
ATTDEF
8
0
10
0.000000
20
0.000000
30
0.0
40
3.5
1

3

2
JX:0
70
0
0
ATTDEF
8
0
10
0.000000
20
0.000000
30
0.0
40
3.5
1

3

2
WX:0
70
0
0
ATTDEF
8
0
10
0.000000
20
0.000000
30
0.0
40
3.5
1

3

2
JY:0
70
0
0
ATTDEF
8
0
10
0.000000
20
0.000000
30
0.0
40
3.5
1

3

2
WY:0
70
0
0
ATTDEF
8
0
10
0.000000
20
0.000000
30
0.0
40
3.5
1

3

2
DESC:Union marcos 65 c/refuerzo
70
0
0
ATTDEF
8
0
10
0.000000
20
0.000000
30
0.0
40
3.5
1

3

2
DENS:1.5646
70
0
0
ATTDEF
8
0
10
0.000000
20
0.000000
30
0.0
40
3.5
1

3

2
TDEV:63.21
70
0
0
ATTDEF
8
0
10
0.000000
20
0.000000
30
0.0
40
3.5
1

3

2
TDEV2:0
70
0
0
ATTDEF
8
0
10
0.000000
20
0.000000
30
0.0
40
3.5
1

3

2
TDEV3:0
70
0
0
ATTDEF
8
0
10
0.000000
20
0.000000
30
0.0
40
3.5
1

3

2
TDEV4:0
70
0
0
ATTDEF
8
0
10
0.000000
20
0.000000
30
0.0
40
3.5
1

3

2
TDEV5:0
70
0
0
ATTDEF
8
0
10
0.000000
20
0.000000
30
0.0
40
3.5
1

3

2
PANE_WIDTH:0
70
0
0
ATTDEF
8
0
10
0.000000
20
0.000000
30
0.0
40
3.5
1

3

2
MIN_VETRO:0
70
0
0
ATTDEF
8
0
10
0.000000
20
0.000000
30
0.0
40
3.5
1

3

2
MAX_VETRO:0
70
0
0
ATTDEF
8
0
10
0.000000
20
0.000000
30
0.0
40
3.5
1

3

2
JX:0
70
0
0
ATTDEF
8
0
10
0.000000
20
0.000000
30
0.0
40
3.5
1

3

2
WX:0
70
0
0
ATTDEF
8
0
10
0.000000
20
0.000000
30
0.0
40
3.5
1

3

2
JY:0
70
0
0
ATTDEF
8
0
10
0.000000
20
0.000000
30
0.0
40
3.5
1

3

2
WY:0
70
0
0
ATTDEF
8
0
10
3507.835681
20
1271.268116
30
0.0
40
3.5
1

3

2
VC_START
70
0
0
ATTDEF
8
0
10
3507.835681
20
1251.268116
30
0.0
40
3.5
1

3

2
VC_END
70
0
0
ATTDEF
8
0
10
3506.235681
20
1246.768116
30
0.0
40
3.5
1

3

2
FP_LCS_ORIG
70
0
0
ATTDEF
8
0
10
3516.235681
20
1246.768116
30
0.0
40
3.5
1

3

2
FP_LCS_HOT
70
0
0
ATTDEF
8
0
10
3506.235681
20
1256.768116
30
0.0
40
3.5
1

3

2
FP_LCS_INTERN
70
0
0
ENDSEC
0
EOF
