0
SECTION
2
ENTITIES
0
LINE
8
0
10
3434.250781
20
1243.076996
30
0.0
11
3434.876777
21
1243.702991
31
0.0
0
LINE
8
0
10
3434.361043
20
1240.942194
30
0.0
11
3434.487540
21
1241.068691
31
0.0
0
LINE
8
0
10
3435.435913
20
1242.017063
30
0.0
11
3436.313146
21
1242.894297
31
0.0
0
LINE
8
0
10
3435.519050
20
1239.855137
30
0.0
11
3438.167866
21
1242.503953
31
0.0
0
LINE
8
0
10
3438.612930
20
1240.703953
30
0.0
11
3440.412930
21
1242.503953
31
0.0
0
LINE
8
0
10
3440.857994
20
1240.703953
30
0.0
11
3442.657994
21
1242.503953
31
0.0
0
LINE
8
0
10
3443.103058
20
1240.703953
30
0.0
11
3444.903058
21
1242.503953
31
0.0
0
LINE
8
0
10
3445.348122
20
1240.703953
30
0.0
11
3448.348122
21
1243.703953
31
0.0
0
LINE
8
0
10
3447.051152
20
1240.161918
30
0.0
11
3447.920813
21
1241.031579
31
0.0
0
LINE
8
0
10
3434.960230
20
1239.532502
30
0.0
11
3434.250781
21
1240.241950
31
0.0
0
LINE
8
0
10
3436.383543
20
1240.354252
30
0.0
11
3435.486327
21
1241.251468
31
0.0
0
LINE
8
0
10
3434.602137
20
1242.135658
30
0.0
11
3434.350781
21
1242.387014
31
0.0
0
LINE
8
0
10
3438.278907
20
1240.703953
30
0.0
11
3435.781776
21
1243.201084
31
0.0
0
LINE
8
0
10
3440.523971
20
1240.703953
30
0.0
11
3438.723971
21
1242.503953
31
0.0
0
LINE
8
0
10
3442.769035
20
1240.703953
30
0.0
11
3440.969035
21
1242.503953
31
0.0
0
LINE
8
0
10
3445.014099
20
1240.703953
30
0.0
11
3443.214099
21
1242.503953
31
0.0
0
LINE
8
0
10
3448.459077
20
1239.504039
30
0.0
11
3445.459163
21
1242.503953
31
0.0
0
LINE
8
0
10
3448.010985
20
1242.197195
30
0.0
11
3447.121549
21
1243.086631
31
0.0
0
ARC
8
0
10
3448.438975
20
1242.328953
30
0.0
40
0.200000
50
244.992167
51
286.231301
0
ARC
8
0
10
3448.550781
20
1242.328953
30
0.0
40
0.200000
50
253.768699
51
360.000000
0
LINE
8
0
10
3448.750781
20
1242.328953
30
0.0
11
3448.750781
21
1242.703953
31
0.0
0
LINE
8
0
10
3448.750781
20
1242.703953
30
0.0
11
3448.850781
21
1242.703953
31
0.0
0
LINE
8
0
10
3448.850781
20
1242.703953
30
0.0
11
3448.850781
21
1243.303953
31
0.0
0
ARC
8
0
10
3448.450781
20
1243.303953
30
0.0
40
0.400000
50
360.000000
51
90.000000
0
LINE
8
0
10
3448.450781
20
1243.703953
30
0.0
11
3448.244371
21
1243.703953
31
0.0
0
ARC
8
0
10
3448.244371
20
1243.503953
30
0.0
40
0.200000
50
90.000000
51
120.000000
0
LINE
8
0
10
3448.144371
20
1243.677158
30
0.0
11
3446.297961
21
1242.611132
31
0.0
0
ARC
8
0
10
3445.897961
20
1243.303953
30
0.0
40
0.800000
50
270.000000
51
300.000000
0
LINE
8
0
10
3445.897961
20
1242.503953
30
0.0
11
3441.550781
21
1242.503953
31
0.0
0
LINE
8
0
10
3441.550781
20
1242.503953
30
0.0
11
3437.203602
21
1242.503953
31
0.0
0
ARC
8
0
10
3437.203602
20
1243.303953
30
0.0
40
0.800000
50
240.000000
51
270.000000
0
LINE
8
0
10
3436.803602
20
1242.611132
30
0.0
11
3434.957191
21
1243.677158
31
0.0
0
ARC
8
0
10
3434.857191
20
1243.503953
30
0.0
40
0.200000
50
60.000000
51
90.000000
0
LINE
8
0
10
3434.857191
20
1243.703953
30
0.0
11
3434.650781
21
1243.703953
31
0.0
0
ARC
8
0
10
3434.650781
20
1243.303953
30
0.0
40
0.400000
50
90.000000
51
180.000000
0
LINE
8
0
10
3434.250781
20
1243.303953
30
0.0
11
3434.250781
21
1242.703953
31
0.0
0
LINE
8
0
10
3434.250781
20
1242.703953
30
0.0
11
3434.350781
21
1242.703953
31
0.0
0
LINE
8
0
10
3434.350781
20
1242.703953
30
0.0
11
3434.350781
21
1242.328953
31
0.0
0
ARC
8
0
10
3434.550781
20
1242.328953
30
0.0
40
0.200000
50
180.000000
51
286.231301
0
ARC
8
0
10
3434.662588
20
1242.328953
30
0.0
40
0.200000
50
253.768699
51
295.007833
0
ARC
8
0
10
3435.000781
20
1241.603953
30
0.0
40
0.600000
50
360.000000
51
115.007833
0
ARC
8
0
10
3435.000781
20
1241.603953
30
0.0
40
0.600000
50
244.992167
51
360.000000
0
ARC
8
0
10
3434.662588
20
1240.878953
30
0.0
40
0.200000
50
64.992167
51
106.231301
0
ARC
8
0
10
3434.550781
20
1240.878953
30
0.0
40
0.200000
50
73.768699
51
180.000000
0
LINE
8
0
10
3434.350781
20
1240.878953
30
0.0
11
3434.350781
21
1240.503953
31
0.0
0
LINE
8
0
10
3434.350781
20
1240.503953
30
0.0
11
3434.250781
21
1240.503953
31
0.0
0
LINE
8
0
10
3434.250781
20
1240.503953
30
0.0
11
3434.250781
21
1239.903953
31
0.0
0
ARC
8
0
10
3434.650781
20
1239.903953
30
0.0
40
0.400000
50
180.000000
51
270.000000
0
LINE
8
0
10
3434.650781
20
1239.503953
30
0.0
11
3434.857191
21
1239.503953
31
0.0
0
ARC
8
0
10
3434.857191
20
1239.703953
30
0.0
40
0.200000
50
270.000000
51
300.000000
0
LINE
8
0
10
3434.957191
20
1239.530747
30
0.0
11
3436.803602
21
1240.596773
31
0.0
0
ARC
8
0
10
3437.203602
20
1239.903953
30
0.0
40
0.800000
50
90.000000
51
120.000000
0
LINE
8
0
10
3437.203602
20
1240.703953
30
0.0
11
3441.267939
21
1240.703953
31
0.0
0
ARC
8
0
10
3441.267939
20
1240.503953
30
0.0
40
0.200000
50
51.057559
51
90.000000
0
ARC
8
0
10
3441.550781
20
1240.853953
30
0.0
40
0.250000
50
231.057559
51
308.942441
0
ARC
8
0
10
3441.833624
20
1240.503953
30
0.0
40
0.200000
50
90.000000
51
128.942441
0
LINE
8
0
10
3441.833624
20
1240.703953
30
0.0
11
3445.897961
21
1240.703953
31
0.0
0
ARC
8
0
10
3445.897961
20
1239.903953
30
0.0
40
0.800000
50
60.000000
51
90.000000
0
LINE
8
0
10
3446.297961
20
1240.596773
30
0.0
11
3448.144371
21
1239.530747
31
0.0
0
ARC
8
0
10
3448.244371
20
1239.703953
30
0.0
40
0.200000
50
240.000000
51
270.000000
0
LINE
8
0
10
3448.244371
20
1239.503953
30
0.0
11
3448.450781
21
1239.503953
31
0.0
0
ARC
8
0
10
3448.450781
20
1239.903953
30
0.0
40
0.400000
50
270.000000
51
360.000000
0
LINE
8
0
10
3448.850781
20
1239.903953
30
0.0
11
3448.850781
21
1240.503953
31
0.0
0
LINE
8
0
10
3448.850781
20
1240.503953
30
0.0
11
3448.750781
21
1240.503953
31
0.0
0
LINE
8
0
10
3448.750781
20
1240.503953
30
0.0
11
3448.750781
21
1240.878953
31
0.0
0
ARC
8
0
10
3448.550781
20
1240.878953
30
0.0
40
0.200000
50
360.000000
51
106.231301
0
ARC
8
0
10
3448.438975
20
1240.878953
30
0.0
40
0.200000
50
73.768699
51
115.007833
0
ARC
8
0
10
3448.100781
20
1241.603953
30
0.0
40
0.600000
50
180.000000
51
295.007833
0
ARC
8
0
10
3448.100781
20
1241.603953
30
0.0
40
0.600000
50
64.992167
51
180.000000
0
LINE
8
0
10
3434.250781
20
1234.476996
30
0.0
11
3434.876777
21
1235.102991
31
0.0
0
LINE
8
0
10
3434.361043
20
1232.342194
30
0.0
11
3434.487540
21
1232.468691
31
0.0
0
LINE
8
0
10
3435.435913
20
1233.417063
30
0.0
11
3436.313146
21
1234.294297
31
0.0
0
LINE
8
0
10
3435.519050
20
1231.255137
30
0.0
11
3438.167866
21
1233.903953
31
0.0
0
LINE
8
0
10
3438.612930
20
1232.103953
30
0.0
11
3440.412930
21
1233.903953
31
0.0
0
LINE
8
0
10
3440.857994
20
1232.103953
30
0.0
11
3442.657994
21
1233.903953
31
0.0
0
LINE
8
0
10
3443.103058
20
1232.103953
30
0.0
11
3444.903058
21
1233.903953
31
0.0
0
LINE
8
0
10
3445.348122
20
1232.103953
30
0.0
11
3448.348122
21
1235.103953
31
0.0
0
LINE
8
0
10
3447.051152
20
1231.561918
30
0.0
11
3447.920813
21
1232.431579
31
0.0
0
LINE
8
0
10
3434.960230
20
1230.932502
30
0.0
11
3434.250781
21
1231.641950
31
0.0
0
LINE
8
0
10
3436.383543
20
1231.754252
30
0.0
11
3435.486327
21
1232.651468
31
0.0
0
LINE
8
0
10
3434.602137
20
1233.535658
30
0.0
11
3434.350781
21
1233.787014
31
0.0
0
LINE
8
0
10
3438.278907
20
1232.103953
30
0.0
11
3435.781776
21
1234.601084
31
0.0
0
LINE
8
0
10
3440.523971
20
1232.103953
30
0.0
11
3438.723971
21
1233.903953
31
0.0
0
LINE
8
0
10
3442.769035
20
1232.103953
30
0.0
11
3440.969035
21
1233.903953
31
0.0
0
LINE
8
0
10
3445.014099
20
1232.103953
30
0.0
11
3443.214099
21
1233.903953
31
0.0
0
LINE
8
0
10
3448.459077
20
1230.904039
30
0.0
11
3445.459163
21
1233.903953
31
0.0
0
LINE
8
0
10
3448.010985
20
1233.597195
30
0.0
11
3447.121549
21
1234.486631
31
0.0
0
ARC
8
0
10
3448.438975
20
1233.728953
30
0.0
40
0.200000
50
244.992167
51
286.231301
0
ARC
8
0
10
3448.550781
20
1233.728953
30
0.0
40
0.200000
50
253.768699
51
360.000000
0
LINE
8
0
10
3448.750781
20
1233.728953
30
0.0
11
3448.750781
21
1234.103953
31
0.0
0
LINE
8
0
10
3448.750781
20
1234.103953
30
0.0
11
3448.850781
21
1234.103953
31
0.0
0
LINE
8
0
10
3448.850781
20
1234.103953
30
0.0
11
3448.850781
21
1234.703953
31
0.0
0
ARC
8
0
10
3448.450781
20
1234.703953
30
0.0
40
0.400000
50
360.000000
51
90.000000
0
LINE
8
0
10
3448.450781
20
1235.103953
30
0.0
11
3448.244371
21
1235.103953
31
0.0
0
ARC
8
0
10
3448.244371
20
1234.903953
30
0.0
40
0.200000
50
90.000000
51
120.000000
0
LINE
8
0
10
3448.144371
20
1235.077158
30
0.0
11
3446.297961
21
1234.011132
31
0.0
0
ARC
8
0
10
3445.897961
20
1234.703953
30
0.0
40
0.800000
50
270.000000
51
300.000000
0
LINE
8
0
10
3445.897961
20
1233.903953
30
0.0
11
3441.550781
21
1233.903953
31
0.0
0
LINE
8
0
10
3441.550781
20
1233.903953
30
0.0
11
3437.203602
21
1233.903953
31
0.0
0
ARC
8
0
10
3437.203602
20
1234.703953
30
0.0
40
0.800000
50
240.000000
51
270.000000
0
LINE
8
0
10
3436.803602
20
1234.011132
30
0.0
11
3434.957191
21
1235.077158
31
0.0
0
ARC
8
0
10
3434.857191
20
1234.903953
30
0.0
40
0.200000
50
60.000000
51
90.000000
0
LINE
8
0
10
3434.857191
20
1235.103953
30
0.0
11
3434.650781
21
1235.103953
31
0.0
0
ARC
8
0
10
3434.650781
20
1234.703953
30
0.0
40
0.400000
50
90.000000
51
180.000000
0
LINE
8
0
10
3434.250781
20
1234.703953
30
0.0
11
3434.250781
21
1234.103953
31
0.0
0
LINE
8
0
10
3434.250781
20
1234.103953
30
0.0
11
3434.350781
21
1234.103953
31
0.0
0
LINE
8
0
10
3434.350781
20
1234.103953
30
0.0
11
3434.350781
21
1233.728953
31
0.0
0
ARC
8
0
10
3434.550781
20
1233.728953
30
0.0
40
0.200000
50
180.000000
51
286.231301
0
ARC
8
0
10
3434.662588
20
1233.728953
30
0.0
40
0.200000
50
253.768699
51
295.007833
0
ARC
8
0
10
3435.000781
20
1233.003953
30
0.0
40
0.600000
50
360.000000
51
115.007833
0
ARC
8
0
10
3435.000781
20
1233.003953
30
0.0
40
0.600000
50
244.992167
51
360.000000
0
ARC
8
0
10
3434.662588
20
1232.278953
30
0.0
40
0.200000
50
64.992167
51
106.231301
0
ARC
8
0
10
3434.550781
20
1232.278953
30
0.0
40
0.200000
50
73.768699
51
180.000000
0
LINE
8
0
10
3434.350781
20
1232.278953
30
0.0
11
3434.350781
21
1231.903953
31
0.0
0
LINE
8
0
10
3434.350781
20
1231.903953
30
0.0
11
3434.250781
21
1231.903953
31
0.0
0
LINE
8
0
10
3434.250781
20
1231.903953
30
0.0
11
3434.250781
21
1231.303953
31
0.0
0
ARC
8
0
10
3434.650781
20
1231.303953
30
0.0
40
0.400000
50
180.000000
51
270.000000
0
LINE
8
0
10
3434.650781
20
1230.903953
30
0.0
11
3434.857191
21
1230.903953
31
0.0
0
ARC
8
0
10
3434.857191
20
1231.103953
30
0.0
40
0.200000
50
270.000000
51
300.000000
0
LINE
8
0
10
3434.957191
20
1230.930747
30
0.0
11
3436.803602
21
1231.996773
31
0.0
0
ARC
8
0
10
3437.203602
20
1231.303953
30
0.0
40
0.800000
50
90.000000
51
120.000000
0
LINE
8
0
10
3437.203602
20
1232.103953
30
0.0
11
3441.267939
21
1232.103953
31
0.0
0
ARC
8
0
10
3441.267939
20
1231.903953
30
0.0
40
0.200000
50
51.057559
51
90.000000
0
ARC
8
0
10
3441.550781
20
1232.253953
30
0.0
40
0.250000
50
231.057559
51
308.942441
0
ARC
8
0
10
3441.833624
20
1231.903953
30
0.0
40
0.200000
50
90.000000
51
128.942441
0
LINE
8
0
10
3441.833624
20
1232.103953
30
0.0
11
3445.897961
21
1232.103953
31
0.0
0
ARC
8
0
10
3445.897961
20
1231.303953
30
0.0
40
0.800000
50
60.000000
51
90.000000
0
LINE
8
0
10
3446.297961
20
1231.996773
30
0.0
11
3448.144371
21
1230.930747
31
0.0
0
ARC
8
0
10
3448.244371
20
1231.103953
30
0.0
40
0.200000
50
240.000000
51
270.000000
0
LINE
8
0
10
3448.244371
20
1230.903953
30
0.0
11
3448.450781
21
1230.903953
31
0.0
0
ARC
8
0
10
3448.450781
20
1231.303953
30
0.0
40
0.400000
50
270.000000
51
360.000000
0
LINE
8
0
10
3448.850781
20
1231.303953
30
0.0
11
3448.850781
21
1231.903953
31
0.0
0
LINE
8
0
10
3448.850781
20
1231.903953
30
0.0
11
3448.750781
21
1231.903953
31
0.0
0
LINE
8
0
10
3448.750781
20
1231.903953
30
0.0
11
3448.750781
21
1232.278953
31
0.0
0
ARC
8
0
10
3448.550781
20
1232.278953
30
0.0
40
0.200000
50
360.000000
51
106.231301
0
ARC
8
0
10
3448.438975
20
1232.278953
30
0.0
40
0.200000
50
73.768699
51
115.007833
0
ARC
8
0
10
3448.100781
20
1233.003953
30
0.0
40
0.600000
50
180.000000
51
295.007833
0
ARC
8
0
10
3448.100781
20
1233.003953
30
0.0
40
0.600000
50
64.992167
51
180.000000
0
LINE
8
0
10
3517.250351
20
1265.387266
30
0.0
11
3515.760674
21
1263.897590
31
0.0
0
LINE
8
0
10
3515.760674
20
1263.897590
30
0.0
11
3508.150351
21
1263.897590
31
0.0
0
LINE
8
0
10
3508.150351
20
1263.897590
30
0.0
11
3508.150351
21
1275.164095
31
0.0
0
LINE
8
0
10
3508.150351
20
1275.164095
30
0.0
11
3511.050351
21
1275.941148
31
0.0
0
LINE
8
0
10
3511.050351
20
1275.941148
30
0.0
11
3514.150351
21
1275.110505
31
0.0
0
LINE
8
0
10
3514.150351
20
1275.110505
30
0.0
11
3514.150351
21
1272.797590
31
0.0
0
LINE
8
0
10
3514.150351
20
1272.797590
30
0.0
11
3515.350351
21
1272.797590
31
0.0
0
LINE
8
0
10
3515.350351
20
1272.797590
30
0.0
11
3515.350351
21
1274.788966
31
0.0
0
LINE
8
0
10
3515.350351
20
1274.788966
30
0.0
11
3517.250351
21
1274.279863
31
0.0
0
LINE
8
0
10
3517.250351
20
1274.279863
30
0.0
11
3517.250351
21
1265.387266
31
0.0
0
LINE
8
0
10
3514.049920
20
1244.297590
30
0.0
11
3516.049920
21
1244.297590
31
0.0
0
LINE
8
0
10
3516.049920
20
1244.297590
30
0.0
11
3516.049920
21
1230.297590
31
0.0
0
LINE
8
0
10
3516.049920
20
1230.297590
30
0.0
11
3450.350781
21
1230.297590
31
0.0
0
LINE
8
0
10
3450.350781
20
1230.297590
30
0.0
11
3450.350781
21
1244.297590
31
0.0
0
LINE
8
0
10
3450.350781
20
1244.297590
30
0.0
11
3470.050781
21
1244.297590
31
0.0
0
LINE
8
0
10
3470.050781
20
1244.297590
30
0.0
11
3470.050781
21
1241.797590
31
0.0
0
LINE
8
0
10
3470.050781
20
1241.797590
30
0.0
11
3471.550781
21
1241.797590
31
0.0
0
LINE
8
0
10
3471.550781
20
1241.797590
30
0.0
11
3471.550781
21
1244.297590
31
0.0
0
LINE
8
0
10
3471.550781
20
1244.297590
30
0.0
11
3494.849920
21
1244.297590
31
0.0
0
LINE
8
0
10
3494.849920
20
1244.297590
30
0.0
11
3494.849920
21
1241.797590
31
0.0
0
LINE
8
0
10
3494.849920
20
1241.797590
30
0.0
11
3496.349920
21
1241.797590
31
0.0
0
LINE
8
0
10
3496.349920
20
1241.797590
30
0.0
11
3496.349920
21
1244.297590
31
0.0
0
LINE
8
0
10
3496.349920
20
1244.297590
30
0.0
11
3508.550351
21
1244.297590
31
0.0
0
LINE
8
0
10
3508.550351
20
1244.297590
30
0.0
11
3508.550351
21
1246.307093
31
0.0
0
LINE
8
0
10
3508.550351
20
1246.307093
30
0.0
11
3514.049920
21
1244.833488
31
0.0
0
LINE
8
0
10
3514.049920
20
1244.833488
30
0.0
11
3514.049920
21
1244.297590
31
0.0
0
LINE
8
0
10
3462.151213
20
1275.164095
30
0.0
11
3465.051213
21
1275.941148
31
0.0
0
LINE
8
0
10
3465.051213
20
1275.941148
30
0.0
11
3467.951213
21
1275.164095
31
0.0
0
LINE
8
0
10
3467.951213
20
1275.164095
30
0.0
11
3467.951213
21
1245.797590
31
0.0
0
LINE
8
0
10
3467.951213
20
1245.797590
30
0.0
11
3462.151213
21
1245.797590
31
0.0
0
LINE
8
0
10
3462.151213
20
1245.797590
30
0.0
11
3462.151213
21
1275.164095
31
0.0
0
LINE
8
0
10
3448.850781
20
1235.253953
30
0.0
11
3448.850781
21
1230.753953
31
0.0
0
ARC
8
0
10
3448.850781
20
1230.453953
30
0.0
40
0.300000
50
253.000000
51
90.000000
0
LINE
8
0
10
3448.763070
20
1230.167061
30
0.0
11
3448.476178
21
1230.254773
31
0.0
0
ARC
8
0
10
3448.563890
20
1230.541664
30
0.0
40
0.300000
50
150.192367
51
253.000000
0
LINE
8
0
10
3448.303580
20
1230.690791
30
0.0
11
3446.763052
21
1231.854680
31
0.0
0
ARC
8
0
10
3446.603429
20
1231.975182
30
0.0
40
0.200000
50
322.950408
51
140.547648
0
LINE
8
0
10
3446.448998
20
1232.102269
30
0.0
11
3444.338612
21
1229.376283
31
0.0
0
ARC
8
0
10
3444.623520
20
1229.282327
30
0.0
40
0.300000
50
161.748585
51
267.394588
0
LINE
8
0
10
3444.620135
20
1228.982302
30
0.0
11
3445.672930
21
1228.952458
31
0.0
0
LINE
8
0
10
3445.672930
20
1228.952458
30
0.0
11
3445.735790
21
1229.158064
31
0.0
0
LINE
8
0
10
3445.735790
20
1229.158064
30
0.0
11
3446.123051
21
1229.625851
31
0.0
0
ARC
8
0
10
3446.958971
20
1229.077001
30
0.0
40
1.000000
50
56.490937
51
146.711802
0
LINE
8
0
10
3447.510718
20
1229.910314
30
0.0
11
3448.982359
21
1228.797590
31
0.0
0
LINE
8
0
10
3448.982359
20
1228.797590
30
0.0
11
3477.549920
21
1228.797590
31
0.0
0
LINE
8
0
10
3477.549920
20
1228.797590
30
0.0
11
3477.549920
21
1223.797590
31
0.0
0
LINE
8
0
10
3477.549920
20
1223.797590
30
0.0
11
3481.049920
21
1223.797590
31
0.0
0
LINE
8
0
10
3481.049920
20
1223.797590
30
0.0
11
3481.049920
21
1225.397590
31
0.0
0
LINE
8
0
10
3481.049920
20
1225.397590
30
0.0
11
3479.049920
21
1225.397590
31
0.0
0
LINE
8
0
10
3479.049920
20
1225.397590
30
0.0
11
3479.049920
21
1228.797590
31
0.0
0
LINE
8
0
10
3479.049920
20
1228.797590
30
0.0
11
3516.049920
21
1228.797590
31
0.0
0
LINE
8
0
10
3516.049920
20
1228.797590
30
0.0
11
3516.049920
21
1225.397590
31
0.0
0
LINE
8
0
10
3516.049920
20
1225.397590
30
0.0
11
3514.049920
21
1225.397590
31
0.0
0
LINE
8
0
10
3514.049920
20
1225.397590
30
0.0
11
3514.049920
21
1223.797590
31
0.0
0
LINE
8
0
10
3514.049920
20
1223.797590
30
0.0
11
3517.549920
21
1223.797590
31
0.0
0
LINE
8
0
10
3517.549920
20
1223.797590
30
0.0
11
3517.549920
21
1244.681253
31
0.0
0
ARC
8
0
10
3516.549920
20
1244.681253
30
0.0
40
1.000000
50
360.000000
51
75.000000
0
LINE
8
0
10
3516.808739
20
1245.647179
30
0.0
11
3508.550351
21
1247.860007
31
0.0
0
LINE
8
0
10
3508.550351
20
1247.860007
30
0.0
11
3508.550351
21
1262.597590
31
0.0
0
LINE
8
0
10
3508.550351
20
1262.597590
30
0.0
11
3516.299152
21
1262.597590
31
0.0
0
LINE
8
0
10
3516.299152
20
1262.597590
30
0.0
11
3518.550351
21
1264.848788
31
0.0
0
LINE
8
0
10
3518.550351
20
1264.848788
30
0.0
11
3518.550351
21
1275.587971
31
0.0
0
LINE
8
0
10
3518.550351
20
1275.587971
30
0.0
11
3511.050351
21
1277.597590
31
0.0
0
LINE
8
0
10
3511.050351
20
1277.597590
30
0.0
11
3503.550351
21
1275.587971
31
0.0
0
LINE
8
0
10
3503.550351
20
1275.587971
30
0.0
11
3503.550351
21
1272.797590
31
0.0
0
LINE
8
0
10
3503.550351
20
1272.797590
30
0.0
11
3505.050351
21
1272.797590
31
0.0
0
LINE
8
0
10
3505.050351
20
1272.797590
30
0.0
11
3505.050351
21
1274.097590
31
0.0
0
ARC
8
0
10
3505.550351
20
1274.097590
30
0.0
40
0.500000
50
90.000000
51
180.000000
0
LINE
8
0
10
3505.550351
20
1274.597590
30
0.0
11
3506.050351
21
1274.597590
31
0.0
0
ARC
8
0
10
3506.050351
20
1274.097590
30
0.0
40
0.500000
50
360.000000
51
90.000000
0
LINE
8
0
10
3506.550351
20
1274.097590
30
0.0
11
3506.550351
21
1245.797590
31
0.0
0
LINE
8
0
10
3506.550351
20
1245.797590
30
0.0
11
3496.349920
21
1245.797590
31
0.0
0
LINE
8
0
10
3496.349920
20
1245.797590
30
0.0
11
3496.349920
21
1247.297590
31
0.0
0
LINE
8
0
10
3496.349920
20
1247.297590
30
0.0
11
3494.849488
21
1247.297590
31
0.0
0
LINE
8
0
10
3494.849488
20
1247.297590
30
0.0
11
3494.849488
21
1245.797590
31
0.0
0
LINE
8
0
10
3494.849488
20
1245.797590
30
0.0
11
3480.250351
21
1245.797590
31
0.0
0
LINE
8
0
10
3480.250351
20
1245.797590
30
0.0
11
3480.250351
21
1247.297590
31
0.0
0
LINE
8
0
10
3480.250351
20
1247.297590
30
0.0
11
3478.750351
21
1247.297590
31
0.0
0
LINE
8
0
10
3478.750351
20
1247.297590
30
0.0
11
3478.750351
21
1245.797590
31
0.0
0
LINE
8
0
10
3478.750351
20
1245.797590
30
0.0
11
3469.550351
21
1245.797590
31
0.0
0
LINE
8
0
10
3469.550351
20
1245.797590
30
0.0
11
3469.550351
21
1274.097590
31
0.0
0
ARC
8
0
10
3470.050351
20
1274.097590
30
0.0
40
0.500000
50
90.000000
51
180.000000
0
LINE
8
0
10
3470.050351
20
1274.597590
30
0.0
11
3470.550351
21
1274.597590
31
0.0
0
ARC
8
0
10
3470.550351
20
1274.097590
30
0.0
40
0.500000
50
360.000000
51
90.000000
0
LINE
8
0
10
3471.050351
20
1274.097590
30
0.0
11
3471.050351
21
1272.797590
31
0.0
0
LINE
8
0
10
3471.050351
20
1272.797590
30
0.0
11
3472.550351
21
1272.797590
31
0.0
0
LINE
8
0
10
3472.550351
20
1272.797590
30
0.0
11
3472.550351
21
1275.588202
31
0.0
0
LINE
8
0
10
3472.550351
20
1275.588202
30
0.0
11
3465.051213
21
1277.597590
31
0.0
0
LINE
8
0
10
3465.051213
20
1277.597590
30
0.0
11
3457.551213
21
1275.587971
31
0.0
0
LINE
8
0
10
3457.551213
20
1275.587971
30
0.0
11
3457.551213
21
1272.797590
31
0.0
0
LINE
8
0
10
3457.551213
20
1272.797590
30
0.0
11
3459.051213
21
1272.797590
31
0.0
0
LINE
8
0
10
3459.051213
20
1272.797590
30
0.0
11
3459.051213
21
1274.097590
31
0.0
0
ARC
8
0
10
3459.551213
20
1274.097590
30
0.0
40
0.500000
50
90.000000
51
180.000000
0
LINE
8
0
10
3459.551213
20
1274.597590
30
0.0
11
3460.051213
21
1274.597590
31
0.0
0
ARC
8
0
10
3460.051213
20
1274.097590
30
0.0
40
0.500000
50
360.000000
51
90.000000
0
LINE
8
0
10
3460.551213
20
1274.097590
30
0.0
11
3460.551213
21
1245.797590
31
0.0
0
LINE
8
0
10
3460.551213
20
1245.797590
30
0.0
11
3450.350781
21
1245.797590
31
0.0
0
LINE
8
0
10
3450.350781
20
1245.797590
30
0.0
11
3450.350781
21
1247.297590
31
0.0
0
LINE
8
0
10
3450.350781
20
1247.297590
30
0.0
11
3448.850350
21
1247.297590
31
0.0
0
LINE
8
0
10
3448.850350
20
1247.297590
30
0.0
11
3448.850350
21
1245.959284
31
0.0
0
ARC
8
0
10
3448.350350
20
1245.959284
30
0.0
40
0.500000
50
307.093329
51
360.000000
0
LINE
8
0
10
3448.651907
20
1245.560457
30
0.0
11
3447.510718
21
1244.697592
31
0.0
0
ARC
8
0
10
3446.958971
20
1245.530904
30
0.0
40
1.000000
50
213.288198
51
303.509063
0
LINE
8
0
10
3446.123051
20
1244.982054
30
0.0
11
3445.735790
21
1245.449841
31
0.0
0
LINE
8
0
10
3445.735790
20
1245.449841
30
0.0
11
3445.672930
21
1245.655447
31
0.0
0
LINE
8
0
10
3445.672930
20
1245.655447
30
0.0
11
3444.620135
21
1245.625603
31
0.0
0
ARC
8
0
10
3444.623520
20
1245.325578
30
0.0
40
0.300000
50
92.605413
51
198.251415
0
LINE
8
0
10
3444.338612
20
1245.231622
30
0.0
11
3446.476527
21
1242.470077
31
0.0
0
ARC
8
0
10
3446.598286
20
1242.628742
30
0.0
40
0.200000
50
232.497444
51
37.071526
0
LINE
8
0
10
3446.757863
20
1242.749305
30
0.0
11
3448.303580
21
1243.917114
31
0.0
0
ARC
8
0
10
3448.563890
20
1244.066241
30
0.0
40
0.300000
50
107.000000
51
209.807633
0
LINE
8
0
10
3448.476178
20
1244.353132
30
0.0
11
3448.763070
21
1244.440844
31
0.0
0
ARC
8
0
10
3448.850781
20
1244.153953
30
0.0
40
0.300000
50
270.000000
51
107.000000
0
LINE
8
0
10
3448.850781
20
1243.853953
30
0.0
11
3448.850781
21
1239.353953
31
0.0
0
ARC
8
0
10
3448.650781
20
1239.364055
30
0.0
40
0.200000
50
240.153120
51
357.108405
0
LINE
8
0
10
3448.551245
20
1239.190583
30
0.0
11
3446.750781
21
1240.223675
31
0.0
0
ARC
8
0
10
3446.550781
20
1240.223411
30
0.0
40
0.200000
50
360.000000
51
180.000000
0
LINE
8
0
10
3446.350781
20
1240.223411
30
0.0
11
3446.350781
21
1238.839630
31
0.0
0
ARC
8
0
10
3446.550781
20
1238.839630
30
0.0
40
0.200000
50
180.000000
51
241.694535
0
LINE
8
0
10
3446.456165
20
1238.663335
30
0.0
11
3447.767147
21
1237.911104
31
0.0
0
ARC
8
0
10
3447.418769
20
1237.303953
30
0.0
40
0.700000
50
299.846880
51
60.153120
0
LINE
8
0
10
3447.767147
20
1236.696802
30
0.0
11
3446.456165
21
1235.944570
31
0.0
0
ARC
8
0
10
3446.550781
20
1235.768275
30
0.0
40
0.200000
50
118.305465
51
180.000000
0
LINE
8
0
10
3446.350781
20
1235.768275
30
0.0
11
3446.350781
21
1234.384495
31
0.0
0
ARC
8
0
10
3446.550781
20
1234.384495
30
0.0
40
0.200000
50
180.000000
51
360.000000
0
LINE
8
0
10
3446.750781
20
1234.384230
30
0.0
11
3448.551245
21
1235.417322
31
0.0
0
ARC
8
0
10
3448.650781
20
1235.243850
30
0.0
40
0.200000
50
2.891595
51
119.846880
0
LINE
8
0
10
3432.751213
20
1244.297590
30
0.0
11
3432.751213
21
1230.297590
31
0.0
0
LINE
8
0
10
3432.751213
20
1230.297590
30
0.0
11
3413.051213
21
1230.297590
31
0.0
0
LINE
8
0
10
3413.051213
20
1230.297590
30
0.0
11
3413.051213
21
1244.297590
31
0.0
0
LINE
8
0
10
3413.051213
20
1244.297590
30
0.0
11
3415.551213
21
1244.297590
31
0.0
0
LINE
8
0
10
3415.551213
20
1244.297590
30
0.0
11
3415.551213
21
1245.797590
31
0.0
0
LINE
8
0
10
3415.551213
20
1245.797590
30
0.0
11
3413.051213
21
1245.797590
31
0.0
0
LINE
8
0
10
3413.051213
20
1245.797590
30
0.0
11
3413.051213
21
1274.333222
31
0.0
0
LINE
8
0
10
3413.051213
20
1274.333222
30
0.0
11
3414.851213
21
1274.815530
31
0.0
0
LINE
8
0
10
3414.851213
20
1274.815530
30
0.0
11
3414.851213
21
1272.797590
31
0.0
0
LINE
8
0
10
3414.851213
20
1272.797590
30
0.0
11
3416.051213
21
1272.797590
31
0.0
0
LINE
8
0
10
3416.051213
20
1272.797590
30
0.0
11
3416.051213
21
1275.137069
31
0.0
0
LINE
8
0
10
3416.051213
20
1275.137069
30
0.0
11
3419.052075
21
1275.941148
31
0.0
0
LINE
8
0
10
3419.052075
20
1275.941148
30
0.0
11
3422.051213
21
1275.137531
31
0.0
0
LINE
8
0
10
3422.051213
20
1275.137531
30
0.0
11
3422.051213
21
1244.297590
31
0.0
0
LINE
8
0
10
3422.051213
20
1244.297590
30
0.0
11
3432.751213
21
1244.297590
31
0.0
0
ARC
8
0
10
3438.478043
20
1229.282327
30
0.0
40
0.300000
50
272.605413
51
18.251415
0
LINE
8
0
10
3436.659856
20
1232.092851
30
0.0
11
3438.762950
21
1229.376283
31
0.0
0
ARC
8
0
10
3436.498134
20
1231.975182
30
0.0
40
0.200000
50
36.039809
51
217.049592
0
LINE
8
0
10
3434.797982
20
1230.690791
30
0.0
11
3436.338511
21
1231.854680
31
0.0
0
ARC
8
0
10
3434.537673
20
1230.541664
30
0.0
40
0.300000
50
287.000000
51
29.807633
0
LINE
8
0
10
3434.338493
20
1230.167061
30
0.0
11
3434.625384
21
1230.254773
31
0.0
0
ARC
8
0
10
3434.250781
20
1230.453953
30
0.0
40
0.300000
50
90.000000
51
287.000000
0
LINE
8
0
10
3434.250781
20
1235.253953
30
0.0
11
3434.250781
21
1230.753953
31
0.0
0
ARC
8
0
10
3434.450781
20
1235.243850
30
0.0
40
0.200000
50
58.132675
51
177.108405
0
LINE
8
0
10
3436.350781
20
1234.384230
30
0.0
11
3434.556438
21
1235.413811
31
0.0
0
ARC
8
0
10
3436.550781
20
1234.384495
30
0.0
40
0.200000
50
180.000000
51
360.000000
0
LINE
8
0
10
3436.750781
20
1235.768275
30
0.0
11
3436.750781
21
1234.384495
31
0.0
0
ARC
8
0
10
3436.550781
20
1235.768275
30
0.0
40
0.200000
50
360.000000
51
61.694535
0
LINE
8
0
10
3435.343641
20
1236.691508
30
0.0
11
3436.645398
21
1235.944570
31
0.0
0
ARC
8
0
10
3435.682794
20
1237.303953
30
0.0
40
0.700000
50
118.976366
51
241.023634
0
LINE
8
0
10
3436.645398
20
1238.663335
30
0.0
11
3435.343641
21
1237.916397
31
0.0
0
ARC
8
0
10
3436.550781
20
1238.839630
30
0.0
40
0.200000
50
298.305465
51
360.000000
0
LINE
8
0
10
3436.750781
20
1240.223411
30
0.0
11
3436.750781
21
1238.839630
31
0.0
0
ARC
8
0
10
3436.550781
20
1240.223411
30
0.0
40
0.200000
50
360.000000
51
180.000000
0
LINE
8
0
10
3434.556438
20
1239.194094
30
0.0
11
3436.350781
21
1240.223675
31
0.0
0
ARC
8
0
10
3434.450781
20
1239.364055
30
0.0
40
0.200000
50
182.891595
51
301.867325
0
LINE
8
0
10
3434.250781
20
1243.853953
30
0.0
11
3434.250781
21
1239.353953
31
0.0
0
ARC
8
0
10
3434.250781
20
1244.153953
30
0.0
40
0.300000
50
73.000000
51
270.000000
0
LINE
8
0
10
3434.625384
20
1244.353132
30
0.0
11
3434.338493
21
1244.440844
31
0.0
0
ARC
8
0
10
3434.537673
20
1244.066241
30
0.0
40
0.300000
50
330.192367
51
73.000000
0
LINE
8
0
10
3436.343700
20
1242.749305
30
0.0
11
3434.797982
21
1243.917114
31
0.0
0
ARC
8
0
10
3436.503276
20
1242.628742
30
0.0
40
0.200000
50
142.928474
51
323.960191
0
LINE
8
0
10
3438.762950
20
1245.231622
30
0.0
11
3436.661938
21
1242.517744
31
0.0
0
ARC
8
0
10
3438.478043
20
1245.325578
30
0.0
40
0.300000
50
341.748585
51
87.394587
0
LINE
8
0
10
3437.428633
20
1245.655447
30
0.0
11
3438.481428
21
1245.625603
31
0.0
0
LINE
8
0
10
3437.365773
20
1245.449841
30
0.0
11
3437.428633
21
1245.655447
31
0.0
0
LINE
8
0
10
3436.980706
20
1244.984703
30
0.0
11
3437.365773
21
1245.449841
31
0.0
0
ARC
8
0
10
3436.142592
20
1245.530904
30
0.0
40
1.000000
50
236.490937
51
326.907609
0
LINE
8
0
10
3434.449655
20
1245.560457
30
0.0
11
3435.590844
21
1244.697592
31
0.0
0
ARC
8
0
10
3434.751213
20
1245.959284
30
0.0
40
0.500000
50
180.000000
51
232.906671
0
LINE
8
0
10
3434.251213
20
1247.297590
30
0.0
11
3434.251213
21
1245.959284
31
0.0
0
LINE
8
0
10
3432.751213
20
1247.297590
30
0.0
11
3434.251213
21
1247.297590
31
0.0
0
LINE
8
0
10
3432.751213
20
1245.797590
30
0.0
11
3432.751213
21
1247.297590
31
0.0
0
LINE
8
0
10
3423.551213
20
1245.797590
30
0.0
11
3432.751213
21
1245.797590
31
0.0
0
LINE
8
0
10
3423.551213
20
1274.097590
30
0.0
11
3423.551213
21
1245.797590
31
0.0
0
ARC
8
0
10
3424.051213
20
1274.097590
30
0.0
40
0.500000
50
90.000000
51
180.000000
0
LINE
8
0
10
3424.551213
20
1274.597590
30
0.0
11
3424.051213
21
1274.597590
31
0.0
0
ARC
8
0
10
3424.551213
20
1274.097590
30
0.0
40
0.500000
50
360.000000
51
90.000000
0
LINE
8
0
10
3425.051213
20
1272.797590
30
0.0
11
3425.051213
21
1274.097590
31
0.0
0
LINE
8
0
10
3426.551213
20
1272.797590
30
0.0
11
3425.051213
21
1272.797590
31
0.0
0
LINE
8
0
10
3426.551213
20
1275.588202
30
0.0
11
3426.551213
21
1272.797590
31
0.0
0
LINE
8
0
10
3419.052075
20
1277.597590
30
0.0
11
3426.551213
21
1275.588202
31
0.0
0
LINE
8
0
10
3411.551213
20
1275.587740
30
0.0
11
3419.052075
21
1277.597590
31
0.0
0
LINE
8
0
10
3411.551213
20
1223.797590
30
0.0
11
3411.551213
21
1275.587740
31
0.0
0
LINE
8
0
10
3415.051213
20
1223.797590
30
0.0
11
3411.551213
21
1223.797590
31
0.0
0
LINE
8
0
10
3415.051213
20
1225.397590
30
0.0
11
3415.051213
21
1223.797590
31
0.0
0
LINE
8
0
10
3413.051213
20
1225.397590
30
0.0
11
3415.051213
21
1225.397590
31
0.0
0
LINE
8
0
10
3413.051213
20
1228.797590
30
0.0
11
3413.051213
21
1225.397590
31
0.0
0
LINE
8
0
10
3434.119203
20
1228.797590
30
0.0
11
3413.051213
21
1228.797590
31
0.0
0
LINE
8
0
10
3435.590844
20
1229.910314
30
0.0
11
3434.119203
21
1228.797590
31
0.0
0
ARC
8
0
10
3436.142592
20
1229.077001
30
0.0
40
1.000000
50
33.092391
51
123.509063
0
LINE
8
0
10
3437.365773
20
1229.158064
30
0.0
11
3436.980706
21
1229.623202
31
0.0
0
LINE
8
0
10
3437.428633
20
1228.952458
30
0.0
11
3437.365773
21
1229.158064
31
0.0
0
LINE
8
0
10
3438.481428
20
1228.982302
30
0.0
11
3437.428633
21
1228.952458
31
0.0
0
ATTDEF
8
0
10
0.000000
20
0.000000
30
0.0
40
3.5
1

3

2
PANE_WIDTH:0
70
0
0
ATTDEF
8
0
10
0.000000
20
0.000000
30
0.0
40
3.5
1

3

2
MIN_VETRO:0
70
0
0
ATTDEF
8
0
10
0.000000
20
0.000000
30
0.0
40
3.5
1

3

2
MAX_VETRO:0
70
0
0
ATTDEF
8
0
10
0.000000
20
0.000000
30
0.0
40
3.5
1

3

2
JX:0
70
0
0
ATTDEF
8
0
10
0.000000
20
0.000000
30
0.0
40
3.5
1

3

2
WX:0
70
0
0
ATTDEF
8
0
10
0.000000
20
0.000000
30
0.0
40
3.5
1

3

2
JY:0
70
0
0
ATTDEF
8
0
10
0.000000
20
0.000000
30
0.0
40
3.5
1

3

2
WY:0
70
0
0
ATTDEF
8
0
10
0.000000
20
0.000000
30
0.0
40
3.5
1

3

2
DESC:Marco tricarril
70
0
0
ATTDEF
8
0
10
0.000000
20
0.000000
30
0.0
40
3.5
1

3

2
DENS:2.2303
70
0
0
ATTDEF
8
0
10
0.000000
20
0.000000
30
0.0
40
3.5
1

3

2
TDEV:102.91
70
0
0
ATTDEF
8
0
10
0.000000
20
0.000000
30
0.0
40
3.5
1

3

2
TDEV2:0
70
0
0
ATTDEF
8
0
10
0.000000
20
0.000000
30
0.0
40
3.5
1

3

2
TDEV3:0
70
0
0
ATTDEF
8
0
10
0.000000
20
0.000000
30
0.0
40
3.5
1

3

2
TDEV4:0
70
0
0
ATTDEF
8
0
10
0.000000
20
0.000000
30
0.0
40
3.5
1

3

2
TDEV5:0
70
0
0
ATTDEF
8
0
10
0.000000
20
0.000000
30
0.0
40
3.5
1

3

2
PANE_WIDTH:0
70
0
0
ATTDEF
8
0
10
0.000000
20
0.000000
30
0.0
40
3.5
1

3

2
MIN_VETRO:0
70
0
0
ATTDEF
8
0
10
0.000000
20
0.000000
30
0.0
40
3.5
1

3

2
MAX_VETRO:0
70
0
0
ATTDEF
8
0
10
0.000000
20
0.000000
30
0.0
40
3.5
1

3

2
JX:0
70
0
0
ATTDEF
8
0
10
0.000000
20
0.000000
30
0.0
40
3.5
1

3

2
WX:0
70
0
0
ATTDEF
8
0
10
0.000000
20
0.000000
30
0.0
40
3.5
1

3

2
JY:0
70
0
0
ATTDEF
8
0
10
0.000000
20
0.000000
30
0.0
40
3.5
1

3

2
WY:0
70
0
0
ATTDEF
8
0
10
3423.551213
20
1245.797590
30
0.0
40
3.5
1

3

2
VC_START
70
0
0
ATTDEF
8
0
10
3411.551213
20
1223.797590
30
0.0
40
3.5
1

3

2
VC_END
70
0
0
ATTDEF
8
0
10
3518.550351
20
1223.797590
30
0.0
40
3.5
1

3

2
FP_LCS_ORIG
70
0
0
ATTDEF
8
0
10
3508.550351
20
1223.797590
30
0.0
40
3.5
1

3

2
FP_LCS_HOT
70
0
0
ATTDEF
8
0
10
3518.550351
20
1233.797590
30
0.0
40
3.5
1

3

2
FP_LCS_INTERN
70
0
0
ENDSEC
0
EOF
