0
SECTION
2
ENTITIES
0
LINE
8
0
10
79.230943
20
129.515886
30
0.0
11
79.230943
21
115.915886
31
0.0
0
ARC
8
0
10
78.930943
20
115.915886
30
0.0
40
0.300000
50
270.000000
51
360.000000
0
LINE
8
0
10
78.930943
20
115.615886
30
0.0
11
78.530943
21
115.615886
31
0.0
0
ARC
8
0
10
78.530943
20
115.915886
30
0.0
40
0.300000
50
180.000000
51
270.000000
0
LINE
8
0
10
78.230943
20
115.915886
30
0.0
11
78.230943
21
116.715886
31
0.0
0
ARC
8
0
10
77.730943
20
116.715886
30
0.0
40
0.500000
50
360.000000
51
90.000000
0
LINE
8
0
10
77.730943
20
117.215886
30
0.0
11
77.130943
21
117.215886
31
0.0
0
LINE
8
0
10
77.130943
20
117.215886
30
0.0
11
77.130943
21
115.615886
31
0.0
0
LINE
8
0
10
77.130943
20
115.615886
30
0.0
11
69.930943
21
115.615886
31
0.0
0
LINE
8
0
10
69.930943
20
115.615886
30
0.0
11
69.930943
21
129.815886
31
0.0
0
LINE
8
0
10
69.930943
20
129.815886
30
0.0
11
77.130943
21
129.815886
31
0.0
0
LINE
8
0
10
77.130943
20
129.815886
30
0.0
11
77.130943
21
128.215886
31
0.0
0
LINE
8
0
10
77.130943
20
128.215886
30
0.0
11
77.730943
21
128.215886
31
0.0
0
ARC
8
0
10
77.730943
20
128.715886
30
0.0
40
0.500000
50
270.000000
51
360.000000
0
LINE
8
0
10
78.230943
20
128.715886
30
0.0
11
78.230943
21
129.515886
31
0.0
0
ARC
8
0
10
78.530943
20
129.515886
30
0.0
40
0.300000
50
90.000000
51
180.000000
0
LINE
8
0
10
78.530943
20
129.815886
30
0.0
11
78.930943
21
129.815886
31
0.0
0
ARC
8
0
10
78.930943
20
129.515886
30
0.0
40
0.300000
50
360.000000
51
90.000000
0
LINE
8
0
10
71.530943
20
114.115886
30
0.0
11
80.430943
21
114.115886
31
0.0
0
ARC
8
0
10
80.430943
20
114.415886
30
0.0
40
0.300000
50
270.000000
51
360.000000
0
LINE
8
0
10
80.730943
20
114.415886
30
0.0
11
80.730943
21
157.015868
31
0.0
0
ARC
8
0
10
80.230943
20
157.015868
30
0.0
40
0.500000
50
360.000000
51
90.000000
0
LINE
8
0
10
80.230943
20
157.515868
30
0.0
11
76.730925
21
157.515868
31
0.0
0
ARC
8
0
10
76.730925
20
157.015886
30
0.0
40
0.499982
50
90.000000
51
180.000000
0
LINE
8
0
10
76.230943
20
157.015886
30
0.0
11
76.230943
21
156.015922
31
0.0
0
LINE
8
0
10
76.230943
20
156.015922
30
0.0
11
76.730925
21
154.265986
31
0.0
0
LINE
8
0
10
76.730925
20
154.265986
30
0.0
11
77.230907
21
154.265986
31
0.0
0
LINE
8
0
10
77.230907
20
154.265986
30
0.0
11
77.230907
21
156.015922
31
0.0
0
LINE
8
0
10
77.230907
20
156.015922
30
0.0
11
79.230943
21
156.015922
31
0.0
0
LINE
8
0
10
79.230943
20
156.015922
30
0.0
11
79.230943
21
148.516193
31
0.0
0
LINE
8
0
10
79.230943
20
148.516193
30
0.0
11
77.230907
21
148.516193
31
0.0
0
LINE
8
0
10
77.230907
20
148.516193
30
0.0
11
77.230907
21
150.266130
31
0.0
0
LINE
8
0
10
77.230907
20
150.266130
30
0.0
11
76.730925
21
150.266130
31
0.0
0
LINE
8
0
10
76.730925
20
150.266130
30
0.0
11
76.230943
21
148.516193
31
0.0
0
LINE
8
0
10
76.230943
20
148.516193
30
0.0
11
76.230943
21
147.516229
31
0.0
0
ARC
8
0
10
76.730925
20
147.516229
30
0.0
40
0.499982
50
180.000000
51
270.000000
0
LINE
8
0
10
76.730925
20
147.016248
30
0.0
11
79.230943
21
147.016248
31
0.0
0
LINE
8
0
10
79.230943
20
147.016248
30
0.0
11
79.230943
21
145.714735
31
0.0
0
ARC
8
0
10
78.930943
20
145.714735
30
0.0
40
0.300000
50
270.000000
51
360.000000
0
LINE
8
0
10
78.930943
20
145.414735
30
0.0
11
77.030761
21
145.414735
31
0.0
0
ARC
8
0
10
77.030761
20
145.114735
30
0.0
40
0.300000
50
90.000000
51
180.000000
0
LINE
8
0
10
76.730761
20
145.114735
30
0.0
11
76.730761
21
143.497112
31
0.0
0
ARC
8
0
10
77.230456
20
143.514553
30
0.0
40
0.500000
50
181.998998
51
270.000000
0
LINE
8
0
10
77.230456
20
143.014553
30
0.0
11
77.830943
21
143.014553
31
0.0
0
LINE
8
0
10
77.830943
20
143.014553
30
0.0
11
77.830943
21
144.314553
31
0.0
0
LINE
8
0
10
77.830943
20
144.314553
30
0.0
11
79.130943
21
144.314553
31
0.0
0
LINE
8
0
10
79.130943
20
144.314553
30
0.0
11
79.130943
21
131.314553
31
0.0
0
LINE
8
0
10
79.130943
20
131.314553
30
0.0
11
76.930943
21
131.314553
31
0.0
0
LINE
8
0
10
76.930943
20
131.314553
30
0.0
11
76.930943
21
132.414553
31
0.0
0
LINE
8
0
10
76.930943
20
132.414553
30
0.0
11
76.130943
21
132.414553
31
0.0
0
ARC
8
0
10
76.130943
20
131.914553
30
0.0
40
0.500000
50
90.000000
51
180.000000
0
LINE
8
0
10
75.630943
20
131.914553
30
0.0
11
75.630943
21
131.314553
31
0.0
0
LINE
8
0
10
75.630943
20
131.314553
30
0.0
11
69.880943
21
131.314553
31
0.0
0
LINE
8
0
10
69.880943
20
131.314553
30
0.0
11
69.880943
21
136.315886
31
0.0
0
LINE
8
0
10
69.880943
20
136.315886
30
0.0
11
67.230943
21
136.315886
31
0.0
0
ARC
8
0
10
67.230943
20
136.015886
30
0.0
40
0.300000
50
90.000000
51
180.000000
0
LINE
8
0
10
66.930943
20
136.015886
30
0.0
11
66.930943
21
135.115886
31
0.0
0
ARC
8
0
10
67.230943
20
135.115886
30
0.0
40
0.300000
50
180.000000
51
270.000000
0
LINE
8
0
10
67.230943
20
134.815886
30
0.0
11
68.430943
21
134.815886
31
0.0
0
LINE
8
0
10
68.430943
20
134.815886
30
0.0
11
68.430943
21
131.641174
31
0.0
0
ARC
8
0
10
67.930943
20
131.641174
30
0.0
40
0.500000
50
296.127032
51
360.000000
0
LINE
8
0
10
68.151125
20
131.192265
30
0.0
11
67.535210
21
130.890170
31
0.0
0
ARC
8
0
10
66.416909
20
132.548303
30
0.0
40
2.000000
50
231.805773
51
303.997055
0
ARC
8
0
10
64.871086
20
130.583505
30
0.0
40
0.500000
50
51.805773
51
91.623749
0
LINE
8
0
10
64.856918
20
131.083304
30
0.0
11
64.200297
21
131.064691
31
0.0
0
ARC
8
0
10
64.203682
20
130.764666
30
0.0
40
0.300000
50
92.605412
51
198.251415
0
LINE
8
0
10
63.918774
20
130.670710
30
0.0
11
65.983062
21
128.004269
31
0.0
0
ARC
8
0
10
66.098209
20
128.093413
30
0.0
40
0.145621
50
217.746080
51
360.000000
0
LINE
8
0
10
66.243741
20
128.098495
30
0.0
11
66.238311
21
128.253982
31
0.0
0
ARC
8
0
10
66.438189
20
128.260962
30
0.0
40
0.200000
50
128.823976
51
180.000000
0
LINE
8
0
10
66.312803
20
128.416777
30
0.0
11
67.955973
21
129.739052
31
0.0
0
ARC
8
0
10
68.144052
20
129.505329
30
0.0
40
0.300000
50
107.000000
51
128.823976
0
LINE
8
0
10
68.056340
20
129.792220
30
0.0
11
68.430943
21
129.893041
31
0.0
0
ARC
8
0
10
68.430943
20
129.593041
30
0.0
40
0.300000
50
270.000000
51
90.000000
0
LINE
8
0
10
68.430943
20
129.293041
30
0.0
11
68.430943
21
124.793041
31
0.0
0
ARC
8
0
10
68.230943
20
124.793041
30
0.0
40
0.200000
50
270.000000
51
360.000000
0
LINE
8
0
10
68.230943
20
124.593041
30
0.0
11
68.163054
21
124.593041
31
0.0
0
ARC
8
0
10
68.163054
20
124.893041
30
0.0
40
0.300000
50
238.619868
51
270.000000
0
LINE
8
0
10
68.006840
20
124.636921
30
0.0
11
66.330847
21
125.659154
31
0.0
0
ARC
8
0
10
66.130943
20
125.665344
30
0.0
40
0.200000
50
360.000000
51
180.000000
0
LINE
8
0
10
65.930943
20
125.665344
30
0.0
11
65.930943
21
124.281564
31
0.0
0
ARC
8
0
10
66.130943
20
124.281564
30
0.0
40
0.200000
50
180.000000
51
241.694535
0
LINE
8
0
10
66.036327
20
124.105269
30
0.0
11
67.286311
21
123.388037
31
0.0
0
ARC
8
0
10
66.937933
20
122.780886
30
0.0
40
0.700000
50
299.846880
51
60.153120
0
LINE
8
0
10
67.286311
20
122.173735
30
0.0
11
66.036327
21
121.456504
31
0.0
0
ARC
8
0
10
66.130943
20
121.280208
30
0.0
40
0.200000
50
118.305465
51
180.000000
0
LINE
8
0
10
65.930943
20
121.280208
30
0.0
11
65.930943
21
119.896428
31
0.0
0
ARC
8
0
10
66.130943
20
119.896428
30
0.0
40
0.200000
50
180.000000
51
360.000000
0
LINE
8
0
10
66.330847
20
119.902618
30
0.0
11
68.006840
21
120.924851
31
0.0
0
ARC
8
0
10
68.163054
20
120.668732
30
0.0
40
0.300000
50
90.000000
51
121.380132
0
LINE
8
0
10
68.163054
20
120.968732
30
0.0
11
68.230943
21
120.968732
31
0.0
0
ARC
8
0
10
68.230943
20
120.768732
30
0.0
40
0.200000
50
360.000000
51
90.000000
0
LINE
8
0
10
68.430943
20
120.768732
30
0.0
11
68.430943
21
116.268732
31
0.0
0
ARC
8
0
10
68.430943
20
115.968732
30
0.0
40
0.300000
50
270.000000
51
90.000000
0
LINE
8
0
10
68.430943
20
115.668732
30
0.0
11
68.075918
21
115.764283
31
0.0
0
ARC
8
0
10
68.144052
20
116.056443
30
0.0
40
0.300000
50
231.176024
51
256.872879
0
LINE
8
0
10
67.955973
20
115.822721
30
0.0
11
66.312803
21
117.144995
31
0.0
0
ARC
8
0
10
66.438189
20
117.300811
30
0.0
40
0.200000
50
180.000000
51
231.176024
0
LINE
8
0
10
66.238311
20
117.307790
30
0.0
11
66.243741
21
117.463278
31
0.0
0
ARC
8
0
10
66.098209
20
117.468360
30
0.0
40
0.145621
50
360.000000
51
142.253920
0
LINE
8
0
10
65.983062
20
117.557503
30
0.0
11
63.918774
21
114.891062
31
0.0
0
ARC
8
0
10
64.203682
20
114.797106
30
0.0
40
0.300000
50
161.748585
51
270.000000
0
LINE
8
0
10
64.200297
20
114.497082
30
0.0
11
64.856918
21
114.478468
31
0.0
0
ARC
8
0
10
64.871086
20
114.978267
30
0.0
40
0.500000
50
268.376251
51
308.194227
0
ARC
8
0
10
66.416909
20
113.013469
30
0.0
40
2.000000
50
56.002945
51
128.194227
0
LINE
8
0
10
67.535210
20
114.671602
30
0.0
11
68.564050
21
114.166976
31
0.0
0
ARC
8
0
10
68.784231
20
114.615886
30
0.0
40
0.500000
50
243.872968
51
270.000000
0
LINE
8
0
10
68.784231
20
114.115886
30
0.0
11
69.330943
21
114.115886
31
0.0
0
ARC
8
0
10
69.330943
20
113.815886
30
0.0
40
0.300000
50
360.000000
51
90.000000
0
LINE
8
0
10
69.630943
20
113.815886
30
0.0
11
69.630943
21
111.415886
31
0.0
0
ARC
8
0
10
69.330943
20
111.415886
30
0.0
40
0.300000
50
270.000000
51
360.000000
0
LINE
8
0
10
69.330943
20
111.115886
30
0.0
11
67.730943
21
111.115886
31
0.0
0
LINE
8
0
10
67.730943
20
111.115886
30
0.0
11
67.730943
21
110.322993
31
0.0
0
ARC
8
0
10
68.230943
20
110.322993
30
0.0
40
0.500000
50
180.000000
51
225.000000
0
LINE
8
0
10
67.877390
20
109.969440
30
0.0
11
68.584496
21
109.262333
31
0.0
0
ARC
8
0
10
68.938050
20
109.615886
30
0.0
40
0.500000
50
225.000000
51
270.000000
0
LINE
8
0
10
68.938050
20
109.115886
30
0.0
11
70.930943
21
109.115886
31
0.0
0
ARC
8
0
10
70.930943
20
109.415886
30
0.0
40
0.300000
50
270.000000
51
360.000000
0
LINE
8
0
10
71.230943
20
109.415886
30
0.0
11
71.230943
21
110.515886
31
0.0
0
ARC
8
0
10
71.430943
20
110.515886
30
0.0
40
0.200000
50
90.000000
51
180.000000
0
LINE
8
0
10
71.430943
20
110.715886
30
0.0
11
77.467201
21
110.715886
31
0.0
0
ARC
8
0
10
77.467201
20
112.215886
30
0.0
40
1.500000
50
270.000000
51
305.278996
0
ARC
8
0
10
78.160271
20
111.236267
30
0.0
40
0.300000
50
305.278996
51
65.000000
0
LINE
8
0
10
78.287057
20
111.508159
30
0.0
11
76.829609
21
112.187779
31
0.0
0
ARC
8
0
10
76.702823
20
111.915886
30
0.0
40
0.300000
50
65.000000
51
150.000000
0
LINE
8
0
10
76.443016
20
112.065886
30
0.0
11
76.240943
21
111.715886
31
0.0
0
LINE
8
0
10
76.240943
20
111.715886
30
0.0
11
71.530943
21
111.715886
31
0.0
0
ARC
8
0
10
71.530943
20
112.015886
30
0.0
40
0.300000
50
180.000000
51
270.000000
0
LINE
8
0
10
71.230943
20
112.015886
30
0.0
11
71.230943
21
113.815886
31
0.0
0
ARC
8
0
10
71.530943
20
113.815886
30
0.0
40
0.300000
50
90.000000
51
180.000000
0
LINE
8
0
10
23.430943
20
118.783480
30
0.0
11
24.836477
21
120.189014
31
0.0
0
LINE
8
0
10
23.494661
20
116.602134
30
0.0
11
26.511259
21
119.618732
31
0.0
0
LINE
8
0
10
26.438749
20
117.301158
30
0.0
11
29.136696
21
119.999106
31
0.0
0
LINE
8
0
10
27.463072
20
116.080417
30
0.0
11
28.243860
21
116.861206
31
0.0
0
LINE
8
0
10
30.506287
20
119.123632
30
0.0
11
31.701387
21
120.318732
31
0.0
0
LINE
8
0
10
28.495510
20
114.867791
30
0.0
11
29.359211
21
115.731492
31
0.0
0
LINE
8
0
10
32.846451
20
119.218732
30
0.0
11
33.946451
21
120.318732
31
0.0
0
LINE
8
0
10
30.491515
20
114.618732
30
0.0
11
31.591515
21
115.718732
31
0.0
0
LINE
8
0
10
35.091515
20
119.218732
30
0.0
11
36.191515
21
120.318732
31
0.0
0
LINE
8
0
10
32.736579
20
114.618732
30
0.0
11
33.836579
21
115.718732
31
0.0
0
LINE
8
0
10
36.893062
20
118.775216
30
0.0
11
38.436579
21
120.318732
31
0.0
0
LINE
8
0
10
34.981643
20
114.618732
30
0.0
11
36.081643
21
115.718732
31
0.0
0
LINE
8
0
10
39.581643
20
119.218732
30
0.0
11
40.681643
21
120.318732
31
0.0
0
LINE
8
0
10
36.896263
20
116.533352
30
0.0
11
37.696263
21
117.333352
31
0.0
0
LINE
8
0
10
37.226707
20
114.618732
30
0.0
11
38.326707
21
115.718732
31
0.0
0
LINE
8
0
10
41.826707
20
119.218732
30
0.0
11
42.926707
21
120.318732
31
0.0
0
LINE
8
0
10
39.471771
20
114.618732
30
0.0
11
40.571771
21
115.718732
31
0.0
0
LINE
8
0
10
44.071771
20
119.218732
30
0.0
11
45.171771
21
120.318732
31
0.0
0
LINE
8
0
10
41.716835
20
114.618732
30
0.0
11
42.816835
21
115.718732
31
0.0
0
LINE
8
0
10
45.530943
20
118.432840
30
0.0
11
47.416835
21
120.318732
31
0.0
0
LINE
8
0
10
43.961899
20
114.618732
30
0.0
11
45.062923
21
115.719756
31
0.0
0
LINE
8
0
10
48.561899
20
119.218732
30
0.0
11
49.661899
21
120.318732
31
0.0
0
LINE
8
0
10
45.529919
20
116.186752
30
0.0
11
46.330943
21
116.987776
31
0.0
0
LINE
8
0
10
46.206963
20
114.618732
30
0.0
11
47.306963
21
115.718732
31
0.0
0
LINE
8
0
10
50.806963
20
119.218732
30
0.0
11
51.906963
21
120.318732
31
0.0
0
LINE
8
0
10
48.452027
20
114.618732
30
0.0
11
49.552027
21
115.718732
31
0.0
0
LINE
8
0
10
53.052027
20
119.218732
30
0.0
11
54.152027
21
120.318732
31
0.0
0
LINE
8
0
10
50.697091
20
114.618732
30
0.0
11
51.797091
21
115.718732
31
0.0
0
LINE
8
0
10
55.246536
20
119.168177
30
0.0
11
56.397091
21
120.318732
31
0.0
0
LINE
8
0
10
54.165623
20
118.087264
30
0.0
11
55.016178
21
118.937819
31
0.0
0
LINE
8
0
10
52.942155
20
114.618732
30
0.0
11
54.965623
21
116.642200
31
0.0
0
LINE
8
0
10
57.542155
20
119.218732
30
0.0
11
58.642155
21
120.318732
31
0.0
0
LINE
8
0
10
55.187219
20
114.618732
30
0.0
11
56.287219
21
115.718732
31
0.0
0
LINE
8
0
10
59.787219
20
119.218732
30
0.0
11
60.887217
21
120.318730
31
0.0
0
LINE
8
0
10
57.432283
20
114.618732
30
0.0
11
58.532283
21
115.718732
31
0.0
0
LINE
8
0
10
61.850006
20
119.036455
30
0.0
11
62.799546
21
119.985995
31
0.0
0
LINE
8
0
10
59.677347
20
114.618732
30
0.0
11
60.777347
21
115.718732
31
0.0
0
LINE
8
0
10
63.627179
20
118.568564
30
0.0
11
64.708083
21
119.649468
31
0.0
0
LINE
8
0
10
61.922411
20
114.618732
30
0.0
11
67.922411
21
120.618732
31
0.0
0
LINE
8
0
10
66.627369
20
117.078626
30
0.0
11
68.430943
21
118.882200
31
0.0
0
LINE
8
0
10
24.271900
20
116.521969
30
0.0
11
23.430943
21
117.362926
31
0.0
0
LINE
8
0
10
25.696451
20
117.342482
30
0.0
11
23.430943
21
119.607990
31
0.0
0
LINE
8
0
10
30.665265
20
114.618732
30
0.0
11
29.565265
21
115.718732
31
0.0
0
LINE
8
0
10
27.908435
20
117.375562
30
0.0
11
25.449449
21
119.834548
31
0.0
0
LINE
8
0
10
32.910329
20
114.618732
30
0.0
11
31.810329
21
115.718732
31
0.0
0
LINE
8
0
10
28.720902
20
118.808160
30
0.0
11
27.770800
21
119.758261
31
0.0
0
LINE
8
0
10
35.155393
20
114.618732
30
0.0
11
34.055393
21
115.718732
31
0.0
0
LINE
8
0
10
30.628877
20
119.145248
30
0.0
11
29.679337
21
120.094788
31
0.0
0
LINE
8
0
10
37.400457
20
114.618732
30
0.0
11
36.300457
21
115.718732
31
0.0
0
LINE
8
0
10
32.800457
20
119.218732
30
0.0
11
31.700457
21
120.318732
31
0.0
0
LINE
8
0
10
39.645521
20
114.618732
30
0.0
11
38.545521
21
115.718732
31
0.0
0
LINE
8
0
10
35.045521
20
119.218732
30
0.0
11
33.945521
21
120.318732
31
0.0
0
LINE
8
0
10
37.696263
20
116.567990
30
0.0
11
36.896263
21
117.367990
31
0.0
0
LINE
8
0
10
41.890585
20
114.618732
30
0.0
11
40.790585
21
115.718732
31
0.0
0
LINE
8
0
10
37.703845
20
118.805473
30
0.0
11
36.190585
21
120.318732
31
0.0
0
LINE
8
0
10
44.135649
20
114.618732
30
0.0
11
43.035649
21
115.718732
31
0.0
0
LINE
8
0
10
39.535649
20
119.218732
30
0.0
11
38.435649
21
120.318732
31
0.0
0
LINE
8
0
10
46.380713
20
114.618732
30
0.0
11
45.236504
21
115.762942
31
0.0
0
LINE
8
0
10
41.780713
20
119.218732
30
0.0
11
40.680713
21
120.318732
31
0.0
0
LINE
8
0
10
48.625778
20
114.618732
30
0.0
11
47.525778
21
115.718732
31
0.0
0
LINE
8
0
10
44.025778
20
119.218732
30
0.0
11
42.925778
21
120.318732
31
0.0
0
LINE
8
0
10
46.330943
20
116.913566
30
0.0
11
45.530943
21
117.713566
31
0.0
0
LINE
8
0
10
50.870842
20
114.618732
30
0.0
11
49.770842
21
115.718732
31
0.0
0
LINE
8
0
10
46.448618
20
119.040955
30
0.0
11
45.170842
21
120.318732
31
0.0
0
LINE
8
0
10
53.115906
20
114.618732
30
0.0
11
52.015906
21
115.718732
31
0.0
0
LINE
8
0
10
48.515906
20
119.218732
30
0.0
11
47.415906
21
120.318732
31
0.0
0
LINE
8
0
10
55.360970
20
114.618732
30
0.0
11
54.063621
21
115.916081
31
0.0
0
LINE
8
0
10
50.760970
20
119.218732
30
0.0
11
49.660970
21
120.318732
31
0.0
0
LINE
8
0
10
57.606034
20
114.618732
30
0.0
11
56.506034
21
115.718732
31
0.0
0
LINE
8
0
10
53.006034
20
119.218732
30
0.0
11
51.906034
21
120.318732
31
0.0
0
LINE
8
0
10
54.965623
20
117.259142
30
0.0
11
54.165623
21
118.059142
31
0.0
0
LINE
8
0
10
59.851098
20
114.618732
30
0.0
11
58.751098
21
115.718732
31
0.0
0
LINE
8
0
10
55.284901
20
119.184929
30
0.0
11
54.151098
21
120.318732
31
0.0
0
LINE
8
0
10
62.096162
20
114.618732
30
0.0
11
60.996162
21
115.718732
31
0.0
0
LINE
8
0
10
57.496162
20
119.218732
30
0.0
11
56.396162
21
120.318732
31
0.0
0
LINE
8
0
10
63.705637
20
115.254321
30
0.0
11
62.924848
21
116.035109
31
0.0
0
LINE
8
0
10
59.741226
20
119.218732
30
0.0
11
58.641226
21
120.318732
31
0.0
0
LINE
8
0
10
64.729960
20
116.475061
30
0.0
11
63.918535
21
117.286486
31
0.0
0
LINE
8
0
10
62.236762
20
118.968259
30
0.0
11
60.886290
21
120.318732
31
0.0
0
LINE
8
0
10
66.069897
20
117.380189
30
0.0
11
63.606353
21
119.843733
31
0.0
0
LINE
8
0
10
68.430943
20
117.264207
30
0.0
11
66.045351
21
119.649799
31
0.0
0
LINE
8
0
10
68.430943
20
119.509271
30
0.0
11
67.485272
21
120.454941
31
0.0
0
LINE
8
0
10
55.465623
20
115.718732
30
0.0
11
62.379592
21
115.718732
31
0.0
0
ARC
8
0
10
62.379592
20
116.318732
30
0.0
40
0.600000
50
270.000000
51
320.000000
0
LINE
8
0
10
62.839218
20
115.933059
30
0.0
11
63.755478
21
117.025015
31
0.0
0
ARC
8
0
10
62.912829
20
117.732081
30
0.0
40
1.100000
50
320.000000
51
80.000000
0
LINE
8
0
10
63.103842
20
118.815370
30
0.0
11
60.867957
21
119.209617
31
0.0
0
ARC
8
0
10
60.763768
20
118.618732
30
0.0
40
0.600000
50
80.000000
51
90.000000
0
LINE
8
0
10
60.763768
20
119.218732
30
0.0
11
55.465623
21
119.218732
31
0.0
0
ARC
8
0
10
55.465623
20
118.718732
30
0.0
40
0.500000
50
90.000000
51
180.000000
0
LINE
8
0
10
54.965623
20
118.718732
30
0.0
11
54.965623
21
116.218732
31
0.0
0
ARC
8
0
10
55.465623
20
116.218732
30
0.0
40
0.500000
50
180.000000
51
270.000000
0
ARC
8
0
10
53.665623
20
116.218732
30
0.0
40
0.500000
50
270.000000
51
360.000000
0
LINE
8
0
10
54.165623
20
116.218732
30
0.0
11
54.165623
21
118.718732
31
0.0
0
ARC
8
0
10
53.665623
20
118.718732
30
0.0
40
0.500000
50
360.000000
51
90.000000
0
LINE
8
0
10
53.665623
20
119.218732
30
0.0
11
46.830943
21
119.218732
31
0.0
0
ARC
8
0
10
46.830943
20
118.718732
30
0.0
40
0.500000
50
90.000000
51
180.000000
0
LINE
8
0
10
46.330943
20
118.718732
30
0.0
11
46.330943
21
116.218732
31
0.0
0
ARC
8
0
10
46.830943
20
116.218732
30
0.0
40
0.500000
50
180.000000
51
270.000000
0
LINE
8
0
10
46.830943
20
115.718732
30
0.0
11
53.665623
21
115.718732
31
0.0
0
ARC
8
0
10
38.196263
20
118.718732
30
0.0
40
0.500000
50
90.000000
51
180.000000
0
LINE
8
0
10
37.696263
20
118.718732
30
0.0
11
37.696263
21
116.218732
31
0.0
0
ARC
8
0
10
38.196263
20
116.218732
30
0.0
40
0.500000
50
180.000000
51
270.000000
0
LINE
8
0
10
38.196263
20
115.718732
30
0.0
11
45.030943
21
115.718732
31
0.0
0
ARC
8
0
10
45.030943
20
116.218732
30
0.0
40
0.500000
50
270.000000
51
360.000000
0
LINE
8
0
10
45.530943
20
116.218732
30
0.0
11
45.530943
21
118.718732
31
0.0
0
ARC
8
0
10
45.030943
20
118.718732
30
0.0
40
0.500000
50
360.000000
51
90.000000
0
LINE
8
0
10
45.030943
20
119.218732
30
0.0
11
38.196263
21
119.218732
31
0.0
0
LINE
8
0
10
67.726093
20
116.443262
30
0.0
11
67.822063
21
116.418732
31
0.0
0
LINE
8
0
10
67.822063
20
116.418732
30
0.0
11
68.030943
21
116.418732
31
0.0
0
ARC
8
0
10
68.030943
20
116.818732
30
0.0
40
0.400000
50
270.000000
51
360.000000
0
LINE
8
0
10
68.430943
20
116.818732
30
0.0
11
68.430943
21
120.218732
31
0.0
0
ARC
8
0
10
68.030943
20
120.218732
30
0.0
40
0.400000
50
360.000000
51
90.000000
0
LINE
8
0
10
68.030943
20
120.618732
30
0.0
11
67.822063
21
120.618732
31
0.0
0
LINE
8
0
10
67.822063
20
120.618732
30
0.0
11
67.726093
21
120.594202
31
0.0
0
LINE
8
0
10
67.726093
20
120.594202
30
0.0
11
66.225054
21
119.726189
31
0.0
0
ARC
8
0
10
65.824574
20
120.418732
30
0.0
40
0.800000
50
270.000000
51
300.039706
0
LINE
8
0
10
65.824574
20
119.618732
30
0.0
11
64.908643
21
119.618732
31
0.0
0
LINE
8
0
10
64.856548
20
119.623290
30
0.0
11
64.908643
21
119.618732
31
0.0
0
LINE
8
0
10
64.856548
20
119.623290
30
0.0
11
60.938347
21
120.314174
31
0.0
0
LINE
8
0
10
60.938347
20
120.314174
30
0.0
11
60.886252
21
120.318732
31
0.0
0
LINE
8
0
10
60.886252
20
120.318732
30
0.0
11
45.930943
21
120.318732
31
0.0
0
LINE
8
0
10
45.930943
20
120.318732
30
0.0
11
30.975634
21
120.318732
31
0.0
0
LINE
8
0
10
30.975634
20
120.318732
30
0.0
11
30.923539
21
120.314174
31
0.0
0
LINE
8
0
10
30.923539
20
120.314174
30
0.0
11
27.005338
21
119.623290
31
0.0
0
LINE
8
0
10
26.953243
20
119.618732
30
0.0
11
27.005338
21
119.623290
31
0.0
0
LINE
8
0
10
26.953243
20
119.618732
30
0.0
11
26.037312
21
119.618732
31
0.0
0
ARC
8
0
10
26.037312
20
120.418732
30
0.0
40
0.800000
50
239.960294
51
270.000000
0
LINE
8
0
10
25.636832
20
119.726189
30
0.0
11
24.135793
21
120.594202
31
0.0
0
LINE
8
0
10
24.135793
20
120.594202
30
0.0
11
24.039823
21
120.618732
31
0.0
0
LINE
8
0
10
24.039823
20
120.618732
30
0.0
11
23.830943
21
120.618732
31
0.0
0
ARC
8
0
10
23.830943
20
120.218732
30
0.0
40
0.400000
50
90.000000
51
180.000000
0
LINE
8
0
10
23.430943
20
120.218732
30
0.0
11
23.430943
21
116.818732
31
0.0
0
ARC
8
0
10
23.830943
20
116.818732
30
0.0
40
0.400000
50
180.000000
51
270.000000
0
LINE
8
0
10
23.830943
20
116.418732
30
0.0
11
24.039823
21
116.418732
31
0.0
0
LINE
8
0
10
24.039823
20
116.418732
30
0.0
11
24.135793
21
116.443262
31
0.0
0
LINE
8
0
10
24.135793
20
116.443262
30
0.0
11
25.636832
21
117.311275
31
0.0
0
ARC
8
0
10
26.037312
20
116.618732
30
0.0
40
0.800000
50
90.000000
51
120.039706
0
LINE
8
0
10
26.037312
20
117.418732
30
0.0
11
26.200209
21
117.418732
31
0.0
0
ARC
8
0
10
26.200209
20
117.118732
30
0.0
40
0.300000
50
39.610000
51
90.000000
0
LINE
8
0
10
26.431330
20
117.309999
30
0.0
11
28.389835
21
114.975944
31
0.0
0
ARC
8
0
10
29.155879
20
115.618732
30
0.0
40
1.000000
50
220.000000
51
270.000000
0
LINE
8
0
10
29.155879
20
114.618732
30
0.0
11
45.930943
21
114.618732
31
0.0
0
LINE
8
0
10
45.930943
20
114.618732
30
0.0
11
62.706007
21
114.618732
31
0.0
0
ARC
8
0
10
62.706007
20
115.618732
30
0.0
40
1.000000
50
270.000000
51
320.000000
0
LINE
8
0
10
63.472052
20
114.975944
30
0.0
11
65.430556
21
117.309999
31
0.0
0
ARC
8
0
10
65.661677
20
117.118732
30
0.0
40
0.300000
50
90.000000
51
140.390000
0
LINE
8
0
10
65.661677
20
117.418732
30
0.0
11
65.824574
21
117.418732
31
0.0
0
ARC
8
0
10
65.824574
20
116.618732
30
0.0
40
0.800000
50
59.960294
51
90.000000
0
LINE
8
0
10
66.225054
20
117.311275
30
0.0
11
67.726093
21
116.443262
31
0.0
0
ARC
8
0
10
29.482294
20
116.318732
30
0.0
40
0.600000
50
220.000000
51
270.000000
0
LINE
8
0
10
29.482294
20
115.718732
30
0.0
11
36.396263
21
115.718732
31
0.0
0
ARC
8
0
10
36.396263
20
116.218732
30
0.0
40
0.500000
50
270.000000
51
360.000000
0
LINE
8
0
10
36.896263
20
116.218732
30
0.0
11
36.896263
21
118.718732
31
0.0
0
ARC
8
0
10
36.396263
20
118.718732
30
0.0
40
0.500000
50
360.000000
51
90.000000
0
LINE
8
0
10
36.396263
20
119.218732
30
0.0
11
31.098118
21
119.218732
31
0.0
0
ARC
8
0
10
31.098118
20
118.618732
30
0.0
40
0.600000
50
90.000000
51
100.000000
0
LINE
8
0
10
30.993929
20
119.209617
30
0.0
11
28.758044
21
118.815370
31
0.0
0
ARC
8
0
10
28.949057
20
117.732081
30
0.0
40
1.100000
50
100.000000
51
220.000000
0
LINE
8
0
10
28.106408
20
117.025015
30
0.0
11
29.022668
21
115.933059
31
0.0
0
LINE
8
0
10
23.430943
20
127.637371
30
0.0
11
24.582943
21
128.789371
31
0.0
0
LINE
8
0
10
29.430943
20
133.637371
30
0.0
11
31.357886
21
135.564315
31
0.0
0
LINE
8
0
10
23.430943
20
125.392307
30
0.0
11
26.111113
21
128.072477
31
0.0
0
LINE
8
0
10
31.661113
20
133.622477
30
0.0
11
32.330943
21
134.292307
31
0.0
0
LINE
8
0
10
27.534228
20
129.495592
30
0.0
11
28.869113
21
130.830478
31
0.0
0
LINE
8
0
10
29.430943
20
131.392307
30
0.0
11
30.930943
21
132.892307
31
0.0
0
LINE
8
0
10
26.156177
20
125.872477
30
0.0
11
27.863734
21
127.580034
31
0.0
0
LINE
8
0
10
30.056177
20
129.772477
30
0.0
11
31.208422
21
130.924722
31
0.0
0
LINE
8
0
10
28.188126
20
125.659362
30
0.0
11
29.137665
21
126.608902
31
0.0
0
LINE
8
0
10
32.301241
20
129.772477
30
0.0
11
33.401241
21
130.872477
31
0.0
0
LINE
8
0
10
30.096663
20
125.322835
30
0.0
11
31.046203
21
126.272375
31
0.0
0
LINE
8
0
10
39.932236
20
135.158408
30
0.0
11
40.395012
21
135.621184
31
0.0
0
LINE
8
0
10
34.546305
20
129.772477
30
0.0
11
35.646305
21
130.872477
31
0.0
0
LINE
8
0
10
32.005200
20
124.986308
30
0.0
11
32.991369
21
125.972477
31
0.0
0
LINE
8
0
10
39.930943
20
132.912051
30
0.0
11
42.236156
21
135.217264
31
0.0
0
LINE
8
0
10
36.693458
20
129.674566
30
0.0
11
37.891369
21
130.872477
31
0.0
0
LINE
8
0
10
34.136433
20
124.872477
30
0.0
11
35.236433
21
125.972477
31
0.0
0
LINE
8
0
10
39.036433
20
129.772477
30
0.0
11
41.430943
21
132.166987
31
0.0
0
LINE
8
0
10
36.896263
20
127.632307
30
0.0
11
37.696263
21
128.432307
31
0.0
0
LINE
8
0
10
36.381497
20
124.872477
30
0.0
11
37.752029
21
126.243009
31
0.0
0
LINE
8
0
10
41.281497
20
129.772477
30
0.0
11
42.381497
21
130.872477
31
0.0
0
LINE
8
0
10
38.626561
20
124.872477
30
0.0
11
39.726561
21
125.972477
31
0.0
0
LINE
8
0
10
43.526561
20
129.772477
30
0.0
11
44.626561
21
130.872477
31
0.0
0
LINE
8
0
10
40.871625
20
124.872477
30
0.0
11
41.971625
21
125.972477
31
0.0
0
LINE
8
0
10
49.621625
20
133.622477
30
0.0
11
51.621625
21
135.622477
31
0.0
0
LINE
8
0
10
45.483727
20
129.484578
30
0.0
11
46.871625
21
130.872477
31
0.0
0
LINE
8
0
10
43.116689
20
124.872477
30
0.0
11
44.216689
21
125.972477
31
0.0
0
LINE
8
0
10
50.430943
20
132.186731
30
0.0
11
53.098816
21
134.854604
31
0.0
0
LINE
8
0
10
45.530943
20
127.286731
30
0.0
11
46.330943
21
128.086731
31
0.0
0
LINE
8
0
10
48.016689
20
129.772477
30
0.0
11
49.116689
21
130.872477
31
0.0
0
LINE
8
0
10
45.361753
20
124.872477
30
0.0
11
46.548897
21
126.059621
31
0.0
0
LINE
8
0
10
50.261753
20
129.772477
30
0.0
11
51.930943
21
131.441667
31
0.0
0
LINE
8
0
10
47.606817
20
124.872477
30
0.0
11
48.706817
21
125.972477
31
0.0
0
LINE
8
0
10
56.550437
20
133.816097
30
0.0
11
58.356817
21
135.622477
31
0.0
0
LINE
8
0
10
52.506817
20
129.772477
30
0.0
11
53.606817
21
130.872477
31
0.0
0
LINE
8
0
10
49.851881
20
124.872477
30
0.0
11
50.951881
21
125.972477
31
0.0
0
LINE
8
0
10
57.930943
20
132.951539
30
0.0
11
59.430943
21
134.451539
31
0.0
0
LINE
8
0
10
54.165623
20
129.186219
30
0.0
11
55.851881
21
130.872477
31
0.0
0
LINE
8
0
10
52.096945
20
124.872477
30
0.0
11
53.196945
21
125.972477
31
0.0
0
LINE
8
0
10
56.996945
20
129.772477
30
0.0
11
59.430943
21
132.206475
31
0.0
0
LINE
8
0
10
54.165623
20
126.941155
30
0.0
11
54.965623
21
127.741155
31
0.0
0
LINE
8
0
10
54.342009
20
124.872477
30
0.0
11
55.442542
21
125.973010
31
0.0
0
LINE
8
0
10
59.242009
20
129.772477
30
0.0
11
60.342009
21
130.872477
31
0.0
0
LINE
8
0
10
56.587073
20
124.872477
30
0.0
11
57.687073
21
125.972477
31
0.0
0
LINE
8
0
10
61.487073
20
129.772477
30
0.0
11
62.587073
21
130.872477
31
0.0
0
LINE
8
0
10
58.832137
20
124.872477
30
0.0
11
60.107091
21
126.147431
31
0.0
0
LINE
8
0
10
63.148830
20
129.189169
30
0.0
11
63.929618
21
129.969958
31
0.0
0
LINE
8
0
10
61.476682
20
125.271957
30
0.0
11
62.832765
21
126.628041
31
0.0
0
LINE
8
0
10
64.011784
20
127.807060
30
0.0
11
64.953941
21
128.749217
31
0.0
0
LINE
8
0
10
64.202356
20
125.752567
30
0.0
11
67.184608
21
128.734820
31
0.0
0
LINE
8
0
10
66.373835
20
125.678983
30
0.0
11
68.430943
21
127.736091
31
0.0
0
LINE
8
0
10
67.812616
20
124.872700
30
0.0
11
68.430943
21
125.491027
31
0.0
0
LINE
8
0
10
24.263541
20
124.970880
30
0.0
11
23.430943
21
125.803478
31
0.0
0
LINE
8
0
10
25.687529
20
125.791957
30
0.0
11
23.430943
21
128.048542
31
0.0
0
LINE
8
0
10
28.038870
20
125.685680
30
0.0
11
25.418166
21
128.306383
31
0.0
0
LINE
8
0
10
30.764544
20
125.205070
30
0.0
11
29.408460
21
126.561153
31
0.0
0
LINE
8
0
10
27.895207
20
128.074406
30
0.0
11
27.050503
21
128.919111
31
0.0
0
LINE
8
0
10
33.342201
20
124.872477
30
0.0
11
32.134134
21
126.080543
31
0.0
0
LINE
8
0
10
28.855614
20
129.359063
30
0.0
11
28.074826
21
130.139851
31
0.0
0
LINE
8
0
10
35.587265
20
124.872477
30
0.0
11
34.487265
21
125.972477
31
0.0
0
LINE
8
0
10
30.687265
20
129.772477
30
0.0
11
29.360357
21
131.099384
31
0.0
0
LINE
8
0
10
37.832329
20
124.872477
30
0.0
11
36.658216
21
126.046589
31
0.0
0
LINE
8
0
10
30.930943
20
131.773862
30
0.0
11
29.430943
21
133.273862
31
0.0
0
LINE
8
0
10
32.932329
20
129.772477
30
0.0
11
31.832329
21
130.872477
31
0.0
0
LINE
8
0
10
40.077393
20
124.872477
30
0.0
11
38.977393
21
125.972477
31
0.0
0
LINE
8
0
10
31.327393
20
133.622477
30
0.0
11
29.529426
21
135.420443
31
0.0
0
LINE
8
0
10
37.696263
20
127.253606
30
0.0
11
36.896263
21
128.053606
31
0.0
0
LINE
8
0
10
35.177393
20
129.772477
30
0.0
11
34.077393
21
130.872477
31
0.0
0
LINE
8
0
10
42.322457
20
124.872477
30
0.0
11
41.222457
21
125.972477
31
0.0
0
LINE
8
0
10
37.733388
20
129.461545
30
0.0
11
36.322457
21
130.872477
31
0.0
0
LINE
8
0
10
44.567521
20
124.872477
30
0.0
11
43.467521
21
125.972477
31
0.0
0
LINE
8
0
10
39.667521
20
129.772477
30
0.0
11
38.567521
21
130.872477
31
0.0
0
LINE
8
0
10
46.812585
20
124.872477
30
0.0
11
45.463453
21
126.221608
31
0.0
0
LINE
8
0
10
41.912585
20
129.772477
30
0.0
11
39.930943
21
131.754118
31
0.0
0
LINE
8
0
10
49.057649
20
124.872477
30
0.0
11
47.957649
21
125.972477
31
0.0
0
LINE
8
0
10
41.430943
20
132.499182
30
0.0
11
39.930943
21
133.999182
31
0.0
0
LINE
8
0
10
46.330943
20
127.599182
30
0.0
11
45.530943
21
128.399182
31
0.0
0
LINE
8
0
10
44.157649
20
129.772477
30
0.0
11
43.057649
21
130.872477
31
0.0
0
LINE
8
0
10
51.302713
20
124.872477
30
0.0
11
50.202713
21
125.972477
31
0.0
0
LINE
8
0
10
42.551975
20
133.623215
30
0.0
11
40.552713
21
135.622477
31
0.0
0
LINE
8
0
10
46.515100
20
129.660089
30
0.0
11
45.302713
21
130.872477
31
0.0
0
LINE
8
0
10
53.547777
20
124.872477
30
0.0
11
52.447777
21
125.972477
31
0.0
0
LINE
8
0
10
48.647777
20
129.772477
30
0.0
11
47.547777
21
130.872477
31
0.0
0
LINE
8
0
10
55.792841
20
124.872477
30
0.0
11
54.165623
21
126.499694
31
0.0
0
LINE
8
0
10
50.892841
20
129.772477
30
0.0
11
49.792841
21
130.872477
31
0.0
0
LINE
8
0
10
58.037905
20
124.872477
30
0.0
11
56.937905
21
125.972477
31
0.0
0
LINE
8
0
10
49.284249
20
133.626133
30
0.0
11
49.034599
21
133.875782
31
0.0
0
LINE
8
0
10
54.965623
20
127.944759
30
0.0
11
54.165623
21
128.744759
31
0.0
0
LINE
8
0
10
53.137905
20
129.772477
30
0.0
11
50.430943
21
132.479439
31
0.0
0
LINE
8
0
10
60.122302
20
125.033144
30
0.0
11
59.172762
21
125.982684
31
0.0
0
LINE
8
0
10
51.930943
20
133.224503
30
0.0
11
49.781956
21
135.373490
31
0.0
0
LINE
8
0
10
55.388892
20
129.766554
30
0.0
11
54.282969
21
130.872477
31
0.0
0
LINE
8
0
10
62.030839
20
125.369670
30
0.0
11
61.081300
21
126.319210
31
0.0
0
LINE
8
0
10
53.330943
20
134.069567
30
0.0
11
51.778033
21
135.622477
31
0.0
0
LINE
8
0
10
57.628033
20
129.772477
30
0.0
11
56.528033
21
130.872477
31
0.0
0
LINE
8
0
10
63.939377
20
125.706197
30
0.0
11
62.989837
21
126.655737
31
0.0
0
LINE
8
0
10
59.873097
20
129.772477
30
0.0
11
57.930943
21
131.714631
31
0.0
0
LINE
8
0
10
66.050820
20
125.839818
30
0.0
11
64.005599
21
127.885039
31
0.0
0
LINE
8
0
10
59.430943
20
132.459695
30
0.0
11
56.899552
21
134.991086
31
0.0
0
LINE
8
0
10
62.118161
20
129.772477
30
0.0
11
61.018161
21
130.872477
31
0.0
0
LINE
8
0
10
68.430943
20
125.704759
30
0.0
11
66.035043
21
128.100659
31
0.0
0
LINE
8
0
10
59.430943
20
134.704759
30
0.0
11
58.513225
21
135.622477
31
0.0
0
LINE
8
0
10
68.430943
20
127.949823
30
0.0
11
67.476913
21
128.903852
31
0.0
0
LINE
8
0
10
26.200209
20
128.072477
30
0.0
11
26.037312
21
128.072477
31
0.0
0
ARC
8
0
10
26.037312
20
128.872477
30
0.0
40
0.800000
50
239.960294
51
270.000000
0
LINE
8
0
10
25.636832
20
128.179934
30
0.0
11
24.135793
21
129.047947
31
0.0
0
LINE
8
0
10
24.135793
20
129.047947
30
0.0
11
24.039823
21
129.072477
31
0.0
0
LINE
8
0
10
24.039823
20
129.072477
30
0.0
11
23.830943
21
129.072477
31
0.0
0
ARC
8
0
10
23.830943
20
128.672477
30
0.0
40
0.400000
50
90.000000
51
180.000000
0
LINE
8
0
10
23.430943
20
128.672477
30
0.0
11
23.430943
21
125.272477
31
0.0
0
ARC
8
0
10
23.830943
20
125.272477
30
0.0
40
0.400000
50
180.000000
51
270.000000
0
LINE
8
0
10
23.830943
20
124.872477
30
0.0
11
24.039823
21
124.872477
31
0.0
0
LINE
8
0
10
24.039823
20
124.872477
30
0.0
11
24.135793
21
124.897007
31
0.0
0
LINE
8
0
10
24.135793
20
124.897007
30
0.0
11
25.636832
21
125.765020
31
0.0
0
ARC
8
0
10
26.037312
20
125.072477
30
0.0
40
0.800000
50
90.000000
51
120.039706
0
LINE
8
0
10
26.037312
20
125.872477
30
0.0
11
26.953243
21
125.872477
31
0.0
0
LINE
8
0
10
27.005338
20
125.867919
30
0.0
11
26.953243
21
125.872477
31
0.0
0
LINE
8
0
10
27.005338
20
125.867919
30
0.0
11
32.624924
21
124.877034
31
0.0
0
LINE
8
0
10
32.624924
20
124.877034
30
0.0
11
32.677018
21
124.872477
31
0.0
0
LINE
8
0
10
32.677018
20
124.872477
30
0.0
11
59.184868
21
124.872477
31
0.0
0
LINE
8
0
10
59.184868
20
124.872477
30
0.0
11
59.236962
21
124.877034
31
0.0
0
LINE
8
0
10
59.236962
20
124.877034
30
0.0
11
64.856548
21
125.867919
31
0.0
0
LINE
8
0
10
64.908643
20
125.872477
30
0.0
11
64.856548
21
125.867919
31
0.0
0
LINE
8
0
10
64.908643
20
125.872477
30
0.0
11
65.824574
21
125.872477
31
0.0
0
ARC
8
0
10
65.824574
20
125.072477
30
0.0
40
0.800000
50
59.960294
51
90.000000
0
LINE
8
0
10
66.225054
20
125.765020
30
0.0
11
67.726093
21
124.897007
31
0.0
0
LINE
8
0
10
67.726093
20
124.897007
30
0.0
11
67.822063
21
124.872477
31
0.0
0
LINE
8
0
10
67.822063
20
124.872477
30
0.0
11
68.030943
21
124.872477
31
0.0
0
ARC
8
0
10
68.030943
20
125.272477
30
0.0
40
0.400000
50
270.000000
51
360.000000
0
LINE
8
0
10
68.430943
20
125.272477
30
0.0
11
68.430943
21
128.672477
31
0.0
0
ARC
8
0
10
68.030943
20
128.672477
30
0.0
40
0.400000
50
360.000000
51
90.000000
0
LINE
8
0
10
68.030943
20
129.072477
30
0.0
11
67.822063
21
129.072477
31
0.0
0
LINE
8
0
10
67.822063
20
129.072477
30
0.0
11
67.726093
21
129.047947
31
0.0
0
LINE
8
0
10
67.726093
20
129.047947
30
0.0
11
66.225054
21
128.179934
31
0.0
0
ARC
8
0
10
65.824574
20
128.872477
30
0.0
40
0.800000
50
270.000000
51
300.039706
0
LINE
8
0
10
65.824574
20
128.072477
30
0.0
11
65.661677
21
128.072477
31
0.0
0
ARC
8
0
10
65.661677
20
128.372477
30
0.0
40
0.300000
50
219.610000
51
270.000000
0
LINE
8
0
10
65.430556
20
128.181209
30
0.0
11
63.472052
21
130.515264
31
0.0
0
ARC
8
0
10
62.706007
20
129.872477
30
0.0
40
1.000000
50
40.000000
51
90.000000
0
LINE
8
0
10
62.706007
20
130.872477
30
0.0
11
59.930943
21
130.872477
31
0.0
0
ARC
8
0
10
59.930943
20
131.372477
30
0.0
40
0.500000
50
180.000000
51
270.000000
0
LINE
8
0
10
59.430943
20
131.372477
30
0.0
11
59.430943
21
135.122477
31
0.0
0
ARC
8
0
10
58.930943
20
135.122477
30
0.0
40
0.500000
50
360.000000
51
90.000000
0
LINE
8
0
10
58.930943
20
135.622477
30
0.0
11
57.738050
21
135.622477
31
0.0
0
ARC
8
0
10
57.738050
20
135.122477
30
0.0
40
0.500000
50
90.000000
51
135.000000
0
LINE
8
0
10
57.384496
20
135.476030
30
0.0
11
56.677390
21
134.768923
31
0.0
0
ARC
8
0
10
57.030943
20
134.415370
30
0.0
40
0.500000
50
135.000000
51
180.000000
0
LINE
8
0
10
56.530943
20
134.415370
30
0.0
11
56.530943
21
133.922477
31
0.0
0
ARC
8
0
10
56.830943
20
133.922477
30
0.0
40
0.300000
50
180.000000
51
270.000000
0
LINE
8
0
10
56.830943
20
133.622477
30
0.0
11
57.630943
21
133.622477
31
0.0
0
ARC
8
0
10
57.630943
20
133.322477
30
0.0
40
0.300000
50
360.000000
51
90.000000
0
LINE
8
0
10
57.930943
20
133.322477
30
0.0
11
57.930943
21
131.372477
31
0.0
0
ARC
8
0
10
57.430943
20
131.372477
30
0.0
40
0.500000
50
270.000000
51
360.000000
0
LINE
8
0
10
57.430943
20
130.872477
30
0.0
11
52.430943
21
130.872477
31
0.0
0
ARC
8
0
10
52.430943
20
131.372477
30
0.0
40
0.500000
50
180.000000
51
270.000000
0
LINE
8
0
10
51.930943
20
131.372477
30
0.0
11
51.930943
21
133.322477
31
0.0
0
ARC
8
0
10
52.230943
20
133.322477
30
0.0
40
0.300000
50
90.000000
51
180.000000
0
LINE
8
0
10
52.230943
20
133.622477
30
0.0
11
53.030943
21
133.622477
31
0.0
0
ARC
8
0
10
53.030943
20
133.922477
30
0.0
40
0.300000
50
270.000000
51
360.000000
0
LINE
8
0
10
53.330943
20
133.922477
30
0.0
11
53.330943
21
134.415370
31
0.0
0
ARC
8
0
10
52.830943
20
134.415370
30
0.0
40
0.500000
50
360.000000
51
45.000000
0
LINE
8
0
10
53.184496
20
134.768923
30
0.0
11
52.477390
21
135.476030
31
0.0
0
ARC
8
0
10
52.123836
20
135.122477
30
0.0
40
0.500000
50
45.000000
51
90.000000
0
LINE
8
0
10
52.123836
20
135.622477
30
0.0
11
50.238050
21
135.622477
31
0.0
0
ARC
8
0
10
50.238050
20
135.122477
30
0.0
40
0.500000
50
90.000000
51
135.000000
0
LINE
8
0
10
49.884496
20
135.476030
30
0.0
11
49.177390
21
134.768923
31
0.0
0
ARC
8
0
10
49.530943
20
134.415370
30
0.0
40
0.500000
50
135.000000
51
180.000000
0
LINE
8
0
10
49.030943
20
134.415370
30
0.0
11
49.030943
21
133.922477
31
0.0
0
ARC
8
0
10
49.330943
20
133.922477
30
0.0
40
0.300000
50
180.000000
51
270.000000
0
LINE
8
0
10
49.330943
20
133.622477
30
0.0
11
50.130943
21
133.622477
31
0.0
0
ARC
8
0
10
50.130943
20
133.322477
30
0.0
40
0.300000
50
360.000000
51
90.000000
0
LINE
8
0
10
50.430943
20
133.322477
30
0.0
11
50.430943
21
131.372477
31
0.0
0
ARC
8
0
10
49.930943
20
131.372477
30
0.0
40
0.500000
50
270.000000
51
360.000000
0
LINE
8
0
10
49.930943
20
130.872477
30
0.0
11
41.930943
21
130.872477
31
0.0
0
ARC
8
0
10
41.930943
20
131.372477
30
0.0
40
0.500000
50
180.000000
51
270.000000
0
LINE
8
0
10
41.430943
20
131.372477
30
0.0
11
41.430943
21
133.322477
31
0.0
0
ARC
8
0
10
41.730943
20
133.322477
30
0.0
40
0.300000
50
90.000000
51
180.000000
0
LINE
8
0
10
41.730943
20
133.622477
30
0.0
11
42.530943
21
133.622477
31
0.0
0
ARC
8
0
10
42.530943
20
133.922477
30
0.0
40
0.300000
50
270.000000
51
360.000000
0
LINE
8
0
10
42.830943
20
133.922477
30
0.0
11
42.830943
21
134.415370
31
0.0
0
ARC
8
0
10
42.330943
20
134.415370
30
0.0
40
0.500000
50
360.000000
51
45.000000
0
LINE
8
0
10
42.684496
20
134.768923
30
0.0
11
41.977390
21
135.476030
31
0.0
0
ARC
8
0
10
41.623836
20
135.122477
30
0.0
40
0.500000
50
45.000000
51
90.000000
0
LINE
8
0
10
41.623836
20
135.622477
30
0.0
11
40.430943
21
135.622477
31
0.0
0
ARC
8
0
10
40.430943
20
135.122477
30
0.0
40
0.500000
50
90.000000
51
180.000000
0
LINE
8
0
10
39.930943
20
135.122477
30
0.0
11
39.930943
21
131.372477
31
0.0
0
ARC
8
0
10
39.430943
20
131.372477
30
0.0
40
0.500000
50
270.000000
51
360.000000
0
LINE
8
0
10
39.430943
20
130.872477
30
0.0
11
31.430943
21
130.872477
31
0.0
0
ARC
8
0
10
31.430943
20
131.372477
30
0.0
40
0.500000
50
180.000000
51
270.000000
0
LINE
8
0
10
30.930943
20
131.372477
30
0.0
11
30.930943
21
133.322477
31
0.0
0
ARC
8
0
10
31.230943
20
133.322477
30
0.0
40
0.300000
50
90.000000
51
180.000000
0
LINE
8
0
10
31.230943
20
133.622477
30
0.0
11
32.030943
21
133.622477
31
0.0
0
ARC
8
0
10
32.030943
20
133.922477
30
0.0
40
0.300000
50
270.000000
51
360.000000
0
LINE
8
0
10
32.330943
20
133.922477
30
0.0
11
32.330943
21
134.415370
31
0.0
0
ARC
8
0
10
31.830943
20
134.415370
30
0.0
40
0.500000
50
360.000000
51
45.000000
0
LINE
8
0
10
32.184496
20
134.768923
30
0.0
11
31.477390
21
135.476030
31
0.0
0
ARC
8
0
10
31.123836
20
135.122477
30
0.0
40
0.500000
50
45.000000
51
90.000000
0
LINE
8
0
10
31.123836
20
135.622477
30
0.0
11
29.930943
21
135.622477
31
0.0
0
ARC
8
0
10
29.930943
20
135.122477
30
0.0
40
0.500000
50
90.000000
51
180.000000
0
LINE
8
0
10
29.430943
20
135.122477
30
0.0
11
29.430943
21
131.355515
31
0.0
0
ARC
8
0
10
28.930943
20
131.355515
30
0.0
40
0.500000
50
278.624453
51
360.000000
0
ARC
8
0
10
29.155879
20
129.872477
30
0.0
40
1.000000
50
98.624453
51
140.000000
0
LINE
8
0
10
28.389835
20
130.515264
30
0.0
11
26.431330
21
128.181209
31
0.0
0
ARC
8
0
10
26.200209
20
128.372477
30
0.0
40
0.300000
50
270.000000
51
320.390000
0
ARC
8
0
10
45.030943
20
129.272477
30
0.0
40
0.500000
50
360.000000
51
90.000000
0
LINE
8
0
10
45.530943
20
129.272477
30
0.0
11
45.530943
21
126.472477
31
0.0
0
ARC
8
0
10
45.030943
20
126.472477
30
0.0
40
0.500000
50
270.000000
51
360.000000
0
LINE
8
0
10
45.030943
20
125.972477
30
0.0
11
38.196263
21
125.972477
31
0.0
0
ARC
8
0
10
38.196263
20
126.472477
30
0.0
40
0.500000
50
180.000000
51
270.000000
0
LINE
8
0
10
37.696263
20
126.472477
30
0.0
11
37.696263
21
129.272477
31
0.0
0
ARC
8
0
10
38.196263
20
129.272477
30
0.0
40
0.500000
50
90.000000
51
180.000000
0
LINE
8
0
10
38.196263
20
129.772477
30
0.0
11
45.030943
21
129.772477
31
0.0
0
ARC
8
0
10
29.482294
20
129.172477
30
0.0
40
0.600000
50
90.000000
51
140.000000
0
LINE
8
0
10
29.022668
20
129.558149
30
0.0
11
28.106408
21
128.466194
31
0.0
0
ARC
8
0
10
28.949057
20
127.759127
30
0.0
40
1.100000
50
140.000000
51
260.000000
0
LINE
8
0
10
28.758044
20
126.675839
30
0.0
11
32.703930
21
125.980073
31
0.0
0
LINE
8
0
10
32.703930
20
125.980073
30
0.0
11
32.790754
21
125.972477
31
0.0
0
LINE
8
0
10
32.790754
20
125.972477
30
0.0
11
36.396263
21
125.972477
31
0.0
0
ARC
8
0
10
36.396263
20
126.472477
30
0.0
40
0.500000
50
270.000000
51
360.000000
0
LINE
8
0
10
36.896263
20
126.472477
30
0.0
11
36.896263
21
129.272477
31
0.0
0
ARC
8
0
10
36.396263
20
129.272477
30
0.0
40
0.500000
50
360.000000
51
90.000000
0
LINE
8
0
10
36.396263
20
129.772477
30
0.0
11
29.482294
21
129.772477
31
0.0
0
ARC
8
0
10
53.665623
20
129.272477
30
0.0
40
0.500000
50
360.000000
51
90.000000
0
LINE
8
0
10
54.165623
20
129.272477
30
0.0
11
54.165623
21
126.472477
31
0.0
0
ARC
8
0
10
53.665623
20
126.472477
30
0.0
40
0.500000
50
270.000000
51
360.000000
0
LINE
8
0
10
53.665623
20
125.972477
30
0.0
11
46.830943
21
125.972477
31
0.0
0
ARC
8
0
10
46.830943
20
126.472477
30
0.0
40
0.500000
50
180.000000
51
270.000000
0
LINE
8
0
10
46.330943
20
126.472477
30
0.0
11
46.330943
21
129.272477
31
0.0
0
ARC
8
0
10
46.830943
20
129.272477
30
0.0
40
0.500000
50
90.000000
51
180.000000
0
LINE
8
0
10
46.830943
20
129.772477
30
0.0
11
53.665623
21
129.772477
31
0.0
0
LINE
8
0
10
62.839218
20
129.558149
30
0.0
11
63.755478
21
128.466194
31
0.0
0
ARC
8
0
10
62.912829
20
127.759127
30
0.0
40
1.100000
50
280.000000
51
40.000000
0
LINE
8
0
10
63.103842
20
126.675839
30
0.0
11
59.166573
21
125.981592
31
0.0
0
ARC
8
0
10
59.062384
20
126.572477
30
0.0
40
0.600000
50
270.000000
51
280.000000
0
LINE
8
0
10
59.062384
20
125.972477
30
0.0
11
55.465623
21
125.972477
31
0.0
0
ARC
8
0
10
55.465623
20
126.472477
30
0.0
40
0.500000
50
180.000000
51
270.000000
0
LINE
8
0
10
54.965623
20
126.472477
30
0.0
11
54.965623
21
129.272477
31
0.0
0
ARC
8
0
10
55.465623
20
129.272477
30
0.0
40
0.500000
50
90.000000
51
180.000000
0
LINE
8
0
10
55.465623
20
129.772477
30
0.0
11
62.379592
21
129.772477
31
0.0
0
ARC
8
0
10
62.379592
20
129.172477
30
0.0
40
0.600000
50
40.000000
51
90.000000
0
LINE
8
0
10
28.963575
20
122.838931
30
0.0
11
29.086026
21
122.984862
31
0.0
0
LINE
8
0
10
29.316009
20
120.928362
30
0.0
11
29.438460
21
121.074294
31
0.0
0
LINE
8
0
10
30.785422
20
122.679540
30
0.0
11
30.907873
21
122.825471
31
0.0
0
LINE
8
0
10
31.137856
20
120.768972
30
0.0
11
31.260307
21
120.914903
31
0.0
0
LINE
8
0
10
32.607269
20
122.520149
30
0.0
11
32.729720
21
122.666081
31
0.0
0
LINE
8
0
10
34.076681
20
124.271327
30
0.0
11
34.116459
21
124.318732
31
0.0
0
LINE
8
0
10
32.959703
20
120.609581
30
0.0
11
33.082154
21
120.755512
31
0.0
0
LINE
8
0
10
34.429115
20
122.360758
30
0.0
11
34.551566
21
122.506690
31
0.0
0
LINE
8
0
10
35.898528
20
124.111936
30
0.0
11
36.020979
21
124.257867
31
0.0
0
LINE
8
0
10
34.781550
20
120.450190
30
0.0
11
34.904001
21
120.596121
31
0.0
0
LINE
8
0
10
36.250962
20
122.201367
30
0.0
11
36.373413
21
122.347299
31
0.0
0
LINE
8
0
10
37.720374
20
123.952545
30
0.0
11
37.842825
21
124.098476
31
0.0
0
LINE
8
0
10
36.626835
20
120.318732
30
0.0
11
36.725847
21
120.436730
31
0.0
0
LINE
8
0
10
38.072809
20
122.041977
30
0.0
11
38.195260
21
122.187908
31
0.0
0
LINE
8
0
10
39.542221
20
123.793154
30
0.0
11
39.664672
21
123.939086
31
0.0
0
LINE
8
0
10
39.894655
20
121.882586
30
0.0
11
40.017106
21
122.028517
31
0.0
0
LINE
8
0
10
41.364068
20
123.633763
30
0.0
11
41.486519
21
123.779695
31
0.0
0
LINE
8
0
10
41.716502
20
121.723195
30
0.0
11
41.838953
21
121.869126
31
0.0
0
LINE
8
0
10
43.185915
20
123.474372
30
0.0
11
43.308366
21
123.620304
31
0.0
0
LINE
8
0
10
43.538349
20
121.563804
30
0.0
11
43.660800
21
121.709735
31
0.0
0
LINE
8
0
10
45.007761
20
123.314982
30
0.0
11
45.130212
21
123.460913
31
0.0
0
LINE
8
0
10
45.360195
20
121.404413
30
0.0
11
45.482646
21
121.550345
31
0.0
0
LINE
8
0
10
46.829608
20
123.155591
30
0.0
11
46.952059
21
123.301522
31
0.0
0
LINE
8
0
10
47.182042
20
121.245022
30
0.0
11
47.304493
21
121.390954
31
0.0
0
LINE
8
0
10
48.651455
20
122.996200
30
0.0
11
48.773906
21
123.142131
31
0.0
0
LINE
8
0
10
49.003889
20
121.085631
30
0.0
11
49.126340
21
121.231563
31
0.0
0
LINE
8
0
10
50.473301
20
122.836809
30
0.0
11
50.595752
21
122.982741
31
0.0
0
LINE
8
0
10
50.825735
20
120.926241
30
0.0
11
50.948187
21
121.072172
31
0.0
0
LINE
8
0
10
52.295148
20
122.677418
30
0.0
11
52.417599
21
122.823350
31
0.0
0
LINE
8
0
10
52.647582
20
120.766850
30
0.0
11
52.770033
21
120.912781
31
0.0
0
LINE
8
0
10
54.116995
20
122.518027
30
0.0
11
54.239446
21
122.663959
31
0.0
0
LINE
8
0
10
55.586407
20
124.269205
30
0.0
11
55.627965
21
124.318732
31
0.0
0
LINE
8
0
10
54.469429
20
120.607459
30
0.0
11
54.591880
21
120.753390
31
0.0
0
LINE
8
0
10
55.938841
20
122.358636
30
0.0
11
56.061292
21
122.504568
31
0.0
0
LINE
8
0
10
57.408254
20
124.109814
30
0.0
11
57.530705
21
124.255746
31
0.0
0
LINE
8
0
10
56.291276
20
120.448068
30
0.0
11
56.413727
21
120.593999
31
0.0
0
LINE
8
0
10
57.760688
20
122.199246
30
0.0
11
57.883139
21
122.345177
31
0.0
0
LINE
8
0
10
59.230101
20
123.950423
30
0.0
11
59.352552
21
124.096355
31
0.0
0
LINE
8
0
10
58.138341
20
120.318732
30
0.0
11
58.235573
21
120.434609
31
0.0
0
LINE
8
0
10
59.582535
20
122.039855
30
0.0
11
59.704986
21
122.185786
31
0.0
0
LINE
8
0
10
61.051947
20
123.791032
30
0.0
11
61.174398
21
123.936964
31
0.0
0
LINE
8
0
10
61.404381
20
121.880464
30
0.0
11
61.526832
21
122.026395
31
0.0
0
LINE
8
0
10
62.873794
20
123.631641
30
0.0
11
62.996245
21
123.777573
31
0.0
0
LINE
8
0
10
63.226228
20
121.721073
30
0.0
11
63.348679
21
121.867005
31
0.0
0
LINE
8
0
10
55.586397
20
124.269092
30
0.0
11
55.738217
21
124.255809
31
0.0
0
LINE
8
0
10
57.408244
20
124.109701
30
0.0
11
57.560064
21
124.096418
31
0.0
0
LINE
8
0
10
59.230091
20
123.950310
30
0.0
11
59.381911
21
123.937027
31
0.0
0
LINE
8
0
10
61.051937
20
123.790919
30
0.0
11
61.203757
21
123.777636
31
0.0
0
LINE
8
0
10
62.873784
20
123.631528
30
0.0
11
63.025604
21
123.618245
31
0.0
0
LINE
8
0
10
34.076671
20
124.271214
30
0.0
11
34.228491
21
124.257932
31
0.0
0
LINE
8
0
10
35.898518
20
124.111823
30
0.0
11
36.050338
21
124.098541
31
0.0
0
LINE
8
0
10
37.720365
20
123.952432
30
0.0
11
37.872185
21
123.939150
31
0.0
0
LINE
8
0
10
39.542211
20
123.793041
30
0.0
11
39.694031
21
123.779759
31
0.0
0
LINE
8
0
10
41.364058
20
123.633651
30
0.0
11
41.515878
21
123.620368
31
0.0
0
LINE
8
0
10
43.185905
20
123.474260
30
0.0
11
43.337725
21
123.460977
31
0.0
0
LINE
8
0
10
45.007751
20
123.314869
30
0.0
11
45.159571
21
123.301586
31
0.0
0
LINE
8
0
10
46.829598
20
123.155478
30
0.0
11
46.981418
21
123.142195
31
0.0
0
LINE
8
0
10
48.651445
20
122.996087
30
0.0
11
48.803265
21
122.982804
31
0.0
0
LINE
8
0
10
50.473291
20
122.836696
30
0.0
11
50.625112
21
122.823413
31
0.0
0
LINE
8
0
10
52.295138
20
122.677305
30
0.0
11
52.446958
21
122.664022
31
0.0
0
LINE
8
0
10
54.116985
20
122.517914
30
0.0
11
54.268805
21
122.504632
31
0.0
0
LINE
8
0
10
55.938831
20
122.358523
30
0.0
11
56.090652
21
122.345241
31
0.0
0
LINE
8
0
10
57.760678
20
122.199132
30
0.0
11
57.912498
21
122.185850
31
0.0
0
LINE
8
0
10
59.582525
20
122.039741
30
0.0
11
59.734345
21
122.026459
31
0.0
0
LINE
8
0
10
61.404372
20
121.880350
30
0.0
11
61.556192
21
121.867068
31
0.0
0
LINE
8
0
10
63.226218
20
121.720959
30
0.0
11
63.378038
21
121.707677
31
0.0
0
LINE
8
0
10
28.963565
20
122.838819
30
0.0
11
29.115386
21
122.825536
31
0.0
0
LINE
8
0
10
30.785412
20
122.679428
30
0.0
11
30.937232
21
122.666145
31
0.0
0
LINE
8
0
10
32.607259
20
122.520037
30
0.0
11
32.759079
21
122.506754
31
0.0
0
LINE
8
0
10
34.429105
20
122.360646
30
0.0
11
34.580926
21
122.347363
31
0.0
0
LINE
8
0
10
36.250952
20
122.201255
30
0.0
11
36.402772
21
122.187972
31
0.0
0
LINE
8
0
10
38.072799
20
122.041864
30
0.0
11
38.224619
21
122.028581
31
0.0
0
LINE
8
0
10
39.894646
20
121.882473
30
0.0
11
40.046466
21
121.869191
31
0.0
0
LINE
8
0
10
41.716492
20
121.723082
30
0.0
11
41.868312
21
121.709800
31
0.0
0
LINE
8
0
10
43.538339
20
121.563691
30
0.0
11
43.690159
21
121.550409
31
0.0
0
LINE
8
0
10
45.360186
20
121.404300
30
0.0
11
45.512006
21
121.391018
31
0.0
0
LINE
8
0
10
47.182032
20
121.244909
30
0.0
11
47.333852
21
121.231627
31
0.0
0
LINE
8
0
10
49.003879
20
121.085518
30
0.0
11
49.155699
21
121.072236
31
0.0
0
LINE
8
0
10
50.825726
20
120.926127
30
0.0
11
50.977546
21
120.912845
31
0.0
0
LINE
8
0
10
52.647572
20
120.766737
30
0.0
11
52.799392
21
120.753454
31
0.0
0
LINE
8
0
10
54.469419
20
120.607346
30
0.0
11
54.621239
21
120.594063
31
0.0
0
LINE
8
0
10
56.291266
20
120.447955
30
0.0
11
56.443086
21
120.434672
31
0.0
0
LINE
8
0
10
29.316000
20
120.928250
30
0.0
11
29.467820
21
120.914968
31
0.0
0
LINE
8
0
10
31.137846
20
120.768859
30
0.0
11
31.289666
21
120.755577
31
0.0
0
LINE
8
0
10
32.959693
20
120.609468
30
0.0
11
33.111513
21
120.596186
31
0.0
0
LINE
8
0
10
34.781540
20
120.450077
30
0.0
11
34.933360
21
120.436795
31
0.0
0
LINE
8
0
10
29.460674
20
120.913647
30
0.0
11
29.431305
21
121.072861
31
0.0
0
LINE
8
0
10
29.108245
20
122.824216
30
0.0
11
29.078876
21
122.983430
31
0.0
0
LINE
8
0
10
31.282515
20
120.754255
30
0.0
11
31.253146
21
120.913469
31
0.0
0
LINE
8
0
10
30.930086
20
122.664824
30
0.0
11
30.900717
21
122.824038
31
0.0
0
LINE
8
0
10
33.104356
20
120.594863
30
0.0
11
33.074987
21
120.754077
31
0.0
0
LINE
8
0
10
32.751928
20
122.505432
30
0.0
11
32.722559
21
122.664646
31
0.0
0
LINE
8
0
10
34.926197
20
120.435471
30
0.0
11
34.896828
21
120.594685
31
0.0
0
LINE
8
0
10
34.573769
20
122.346040
30
0.0
11
34.544400
21
122.505254
31
0.0
0
LINE
8
0
10
34.221340
20
124.256610
30
0.0
11
34.209881
21
124.318732
31
0.0
0
LINE
8
0
10
36.740171
20
120.318732
30
0.0
11
36.718669
21
120.435293
31
0.0
0
LINE
8
0
10
36.395610
20
122.186648
30
0.0
11
36.366241
21
122.345862
31
0.0
0
LINE
8
0
10
36.043181
20
124.097218
30
0.0
11
36.013812
21
124.256432
31
0.0
0
LINE
8
0
10
38.217451
20
122.027256
30
0.0
11
38.188082
21
122.186470
31
0.0
0
LINE
8
0
10
37.865022
20
123.937826
30
0.0
11
37.835653
21
124.097040
31
0.0
0
LINE
8
0
10
40.039292
20
121.867864
30
0.0
11
40.009923
21
122.027078
31
0.0
0
LINE
8
0
10
39.686863
20
123.778434
30
0.0
11
39.657494
21
123.937648
31
0.0
0
LINE
8
0
10
41.861133
20
121.708472
30
0.0
11
41.831764
21
121.867686
31
0.0
0
LINE
8
0
10
41.508705
20
123.619042
30
0.0
11
41.479336
21
123.778256
31
0.0
0
LINE
8
0
10
43.682974
20
121.549080
30
0.0
11
43.653605
21
121.708294
31
0.0
0
LINE
8
0
10
43.330546
20
123.459650
30
0.0
11
43.301177
21
123.618864
31
0.0
0
LINE
8
0
10
45.504816
20
121.389688
30
0.0
11
45.475446
21
121.548902
31
0.0
0
LINE
8
0
10
45.152387
20
123.300258
30
0.0
11
45.123018
21
123.459472
31
0.0
0
LINE
8
0
10
47.326657
20
121.230296
30
0.0
11
47.297288
21
121.389510
31
0.0
0
LINE
8
0
10
46.974228
20
123.140866
30
0.0
11
46.944859
21
123.300080
31
0.0
0
LINE
8
0
10
49.148498
20
121.070904
30
0.0
11
49.119129
21
121.230118
31
0.0
0
LINE
8
0
10
48.796069
20
122.981474
30
0.0
11
48.766700
21
123.140688
31
0.0
0
LINE
8
0
10
50.970339
20
120.911513
30
0.0
11
50.940970
21
121.070727
31
0.0
0
LINE
8
0
10
50.617910
20
122.822082
30
0.0
11
50.588541
21
122.981296
31
0.0
0
LINE
8
0
10
52.792180
20
120.752121
30
0.0
11
52.762811
21
120.911335
31
0.0
0
LINE
8
0
10
52.439751
20
122.662690
30
0.0
11
52.410382
21
122.821904
31
0.0
0
LINE
8
0
10
54.614021
20
120.592729
30
0.0
11
54.584652
21
120.751943
31
0.0
0
LINE
8
0
10
54.261592
20
122.503298
30
0.0
11
54.232223
21
122.662512
31
0.0
0
LINE
8
0
10
56.435862
20
120.433337
30
0.0
11
56.406493
21
120.592551
31
0.0
0
LINE
8
0
10
56.083434
20
122.343906
30
0.0
11
56.054065
21
122.503120
31
0.0
0
LINE
8
0
10
55.731005
20
124.254476
30
0.0
11
55.719152
21
124.318732
31
0.0
0
LINE
8
0
10
58.249442
20
120.318732
30
0.0
11
58.228334
21
120.433159
31
0.0
0
LINE
8
0
10
57.905275
20
122.184514
30
0.0
11
57.875906
21
122.343728
31
0.0
0
LINE
8
0
10
57.552846
20
124.095084
30
0.0
11
57.523477
21
124.254298
31
0.0
0
LINE
8
0
10
59.727116
20
122.025122
30
0.0
11
59.697747
21
122.184336
31
0.0
0
LINE
8
0
10
59.374687
20
123.935692
30
0.0
11
59.345318
21
124.094906
31
0.0
0
LINE
8
0
10
61.548957
20
121.865730
30
0.0
11
61.519588
21
122.024944
31
0.0
0
LINE
8
0
10
61.196528
20
123.776300
30
0.0
11
61.167159
21
123.935514
31
0.0
0
LINE
8
0
10
63.370798
20
121.706338
30
0.0
11
63.341429
21
121.865552
31
0.0
0
LINE
8
0
10
63.018369
20
123.616908
30
0.0
11
62.989000
21
123.776122
31
0.0
0
LINE
8
0
10
29.075888
20
123.422081
30
0.0
11
29.273725
21
123.628269
31
0.0
0
LINE
8
0
10
29.412637
20
120.527396
30
0.0
11
29.610474
21
120.733585
31
0.0
0
LINE
8
0
10
31.786679
20
123.001658
30
0.0
11
31.984515
21
123.207846
31
0.0
0
LINE
8
0
10
34.497469
20
122.581234
30
0.0
11
34.695306
21
122.787423
31
0.0
0
LINE
8
0
10
37.208259
20
122.160811
30
0.0
11
37.406096
21
122.366999
31
0.0
0
LINE
8
0
10
39.919050
20
121.740388
30
0.0
11
40.116887
21
121.946576
31
0.0
0
LINE
8
0
10
42.293091
20
124.214649
30
0.0
11
42.392958
21
124.318732
31
0.0
0
LINE
8
0
10
42.629840
20
121.319964
30
0.0
11
42.827677
21
121.526153
31
0.0
0
LINE
8
0
10
45.003882
20
123.794226
30
0.0
11
45.201718
21
124.000414
31
0.0
0
LINE
8
0
10
45.340631
20
120.899541
30
0.0
11
45.538467
21
121.105730
31
0.0
0
LINE
8
0
10
47.714672
20
123.373802
30
0.0
11
47.912509
21
123.579991
31
0.0
0
LINE
8
0
10
48.051421
20
120.479118
30
0.0
11
48.249258
21
120.685306
31
0.0
0
LINE
8
0
10
50.425462
20
122.953379
30
0.0
11
50.623299
21
123.159568
31
0.0
0
LINE
8
0
10
53.136253
20
122.532956
30
0.0
11
53.334090
21
122.739144
31
0.0
0
LINE
8
0
10
55.847043
20
122.112533
30
0.0
11
56.044880
21
122.318721
31
0.0
0
LINE
8
0
10
58.557834
20
121.692109
30
0.0
11
58.755670
21
121.898298
31
0.0
0
LINE
8
0
10
60.931875
20
124.166370
30
0.0
11
61.078065
21
124.318732
31
0.0
0
LINE
8
0
10
61.268624
20
121.271686
30
0.0
11
61.466461
21
121.477874
31
0.0
0
LINE
8
0
10
29.636930
20
120.492175
30
0.0
11
29.608868
21
120.733398
31
0.0
0
LINE
8
0
10
29.300183
20
123.386859
30
0.0
11
29.272121
21
123.628083
31
0.0
0
LINE
8
0
10
32.010971
20
122.966436
30
0.0
11
31.982909
21
123.207659
31
0.0
0
LINE
8
0
10
34.721760
20
122.546012
30
0.0
11
34.693698
21
122.787236
31
0.0
0
LINE
8
0
10
37.432548
20
122.125589
30
0.0
11
37.404486
21
122.366812
31
0.0
0
LINE
8
0
10
40.143337
20
121.705165
30
0.0
11
40.115274
21
121.946389
31
0.0
0
LINE
8
0
10
42.854125
20
121.284742
30
0.0
11
42.826063
21
121.525965
31
0.0
0
LINE
8
0
10
42.517378
20
124.179427
30
0.0
11
42.501172
21
124.318732
31
0.0
0
LINE
8
0
10
45.564913
20
120.864318
30
0.0
11
45.536851
21
121.105542
31
0.0
0
LINE
8
0
10
45.228166
20
123.759003
30
0.0
11
45.200104
21
124.000227
31
0.0
0
LINE
8
0
10
48.275702
20
120.443895
30
0.0
11
48.247640
21
120.685118
31
0.0
0
LINE
8
0
10
47.938955
20
123.338580
30
0.0
11
47.910892
21
123.579803
31
0.0
0
LINE
8
0
10
50.649743
20
122.918156
30
0.0
11
50.621681
21
123.159379
31
0.0
0
LINE
8
0
10
53.360532
20
122.497733
30
0.0
11
53.332469
21
122.738956
31
0.0
0
LINE
8
0
10
56.071320
20
122.077309
30
0.0
11
56.043258
21
122.318532
31
0.0
0
LINE
8
0
10
58.782108
20
121.656886
30
0.0
11
58.754046
21
121.898109
31
0.0
0
LINE
8
0
10
61.492897
20
121.236462
30
0.0
11
61.464835
21
121.477685
31
0.0
0
LINE
8
0
10
61.156150
20
124.131147
30
0.0
11
61.134327
21
124.318732
31
0.0
0
LINE
8
0
10
60.930675
20
124.168916
30
0.0
11
61.156574
21
124.133881
31
0.0
0
LINE
8
0
10
42.291900
20
124.217176
30
0.0
11
42.517799
21
124.182141
31
0.0
0
LINE
8
0
10
45.002689
20
123.796755
30
0.0
11
45.228588
21
123.761720
31
0.0
0
LINE
8
0
10
47.713478
20
123.376335
30
0.0
11
47.939377
21
123.341300
31
0.0
0
LINE
8
0
10
50.424267
20
122.955915
30
0.0
11
50.650166
21
122.920880
31
0.0
0
LINE
8
0
10
53.135056
20
122.535495
30
0.0
11
53.360955
21
122.500460
31
0.0
0
LINE
8
0
10
55.845845
20
122.115075
30
0.0
11
56.071744
21
122.080040
31
0.0
0
LINE
8
0
10
58.556633
20
121.694655
30
0.0
11
58.782532
21
121.659620
31
0.0
0
LINE
8
0
10
61.267422
20
121.274235
30
0.0
11
61.493321
21
121.239200
31
0.0
0
LINE
8
0
10
29.074703
20
123.424595
30
0.0
11
29.300602
21
123.389560
31
0.0
0
LINE
8
0
10
31.785492
20
123.004175
30
0.0
11
32.011391
21
122.969140
31
0.0
0
LINE
8
0
10
34.496281
20
122.583755
30
0.0
11
34.722180
21
122.548720
31
0.0
0
LINE
8
0
10
37.207070
20
122.163334
30
0.0
11
37.432969
21
122.128299
31
0.0
0
LINE
8
0
10
39.917859
20
121.742914
30
0.0
11
40.143758
21
121.707879
31
0.0
0
LINE
8
0
10
42.628647
20
121.322494
30
0.0
11
42.854546
21
121.287459
31
0.0
0
LINE
8
0
10
45.339436
20
120.902074
30
0.0
11
45.565335
21
120.867039
31
0.0
0
LINE
8
0
10
48.050225
20
120.481654
30
0.0
11
48.276124
21
120.446619
31
0.0
0
LINE
8
0
10
29.411450
20
120.529913
30
0.0
11
29.637349
21
120.494878
31
0.0
0
LINE
8
0
10
28.851242
20
123.256045
30
0.0
11
29.029089
21
123.324314
31
0.0
0
LINE
8
0
10
30.985407
20
124.075274
30
0.0
11
31.163254
21
124.143543
31
0.0
0
LINE
8
0
10
30.367386
20
122.233393
30
0.0
11
30.545233
21
122.301662
31
0.0
0
LINE
8
0
10
32.501551
20
123.052622
30
0.0
11
32.679398
21
123.120891
31
0.0
0
LINE
8
0
10
34.635715
20
123.871851
30
0.0
11
34.813562
21
123.940120
31
0.0
0
LINE
8
0
10
29.749365
20
120.391512
30
0.0
11
29.927212
21
120.459781
31
0.0
0
LINE
8
0
10
31.883530
20
121.210741
30
0.0
11
32.061377
21
121.279010
31
0.0
0
LINE
8
0
10
34.017694
20
122.029970
30
0.0
11
34.195542
21
122.098239
31
0.0
0
LINE
8
0
10
36.151859
20
122.849199
30
0.0
11
36.329706
21
122.917468
31
0.0
0
LINE
8
0
10
38.286024
20
123.668428
30
0.0
11
38.463871
21
123.736697
31
0.0
0
LINE
8
0
10
35.533838
20
121.007318
30
0.0
11
35.711685
21
121.075587
31
0.0
0
LINE
8
0
10
37.668003
20
121.826547
30
0.0
11
37.845850
21
121.894816
31
0.0
0
LINE
8
0
10
39.802168
20
122.645776
30
0.0
11
39.980015
21
122.714045
31
0.0
0
LINE
8
0
10
41.936333
20
123.465005
30
0.0
11
42.114180
21
123.533274
31
0.0
0
LINE
8
0
10
44.070498
20
124.284235
30
0.0
11
44.160366
21
124.318732
31
0.0
0
LINE
8
0
10
39.184147
20
120.803895
30
0.0
11
39.361994
21
120.872164
31
0.0
0
LINE
8
0
10
41.318312
20
121.623124
30
0.0
11
41.496159
21
121.691393
31
0.0
0
LINE
8
0
10
43.452477
20
122.442353
30
0.0
11
43.630324
21
122.510623
31
0.0
0
LINE
8
0
10
45.586642
20
123.261583
30
0.0
11
45.764489
21
123.329852
31
0.0
0
LINE
8
0
10
47.720807
20
124.080812
30
0.0
11
47.898654
21
124.149081
31
0.0
0
LINE
8
0
10
42.834456
20
120.600472
30
0.0
11
43.012303
21
120.668741
31
0.0
0
LINE
8
0
10
44.968621
20
121.419701
30
0.0
11
45.146468
21
121.487971
31
0.0
0
LINE
8
0
10
47.102786
20
122.238931
30
0.0
11
47.280633
21
122.307200
31
0.0
0
LINE
8
0
10
49.236950
20
123.058160
30
0.0
11
49.414798
21
123.126429
31
0.0
0
LINE
8
0
10
51.371115
20
123.877389
30
0.0
11
51.548962
21
123.945658
31
0.0
0
LINE
8
0
10
46.484765
20
120.397049
30
0.0
11
46.662612
21
120.465319
31
0.0
0
LINE
8
0
10
48.618930
20
121.216279
30
0.0
11
48.796777
21
121.284548
31
0.0
0
LINE
8
0
10
50.753094
20
122.035508
30
0.0
11
50.930941
21
122.103777
31
0.0
0
LINE
8
0
10
52.887259
20
122.854737
30
0.0
11
53.065106
21
122.923006
31
0.0
0
LINE
8
0
10
55.021424
20
123.673966
30
0.0
11
55.199271
21
123.742235
31
0.0
0
LINE
8
0
10
52.269238
20
121.012856
30
0.0
11
52.447085
21
121.081125
31
0.0
0
LINE
8
0
10
54.403403
20
121.832085
30
0.0
11
54.581250
21
121.900354
31
0.0
0
LINE
8
0
10
56.537568
20
122.651314
30
0.0
11
56.715415
21
122.719583
31
0.0
0
LINE
8
0
10
58.671733
20
123.470543
30
0.0
11
58.849580
21
123.538812
31
0.0
0
LINE
8
0
10
60.805898
20
124.289772
30
0.0
11
60.881340
21
124.318732
31
0.0
0
LINE
8
0
10
55.919547
20
120.809433
30
0.0
11
56.097394
21
120.877702
31
0.0
0
LINE
8
0
10
58.053712
20
121.628662
30
0.0
11
58.231559
21
121.696931
31
0.0
0
LINE
8
0
10
60.187877
20
122.447891
30
0.0
11
60.365724
21
122.516160
31
0.0
0
LINE
8
0
10
62.322042
20
123.267120
30
0.0
11
62.499889
21
123.335389
31
0.0
0
LINE
8
0
10
59.569856
20
120.606010
30
0.0
11
59.747703
21
120.674279
31
0.0
0
LINE
8
0
10
61.704021
20
121.425239
30
0.0
11
61.881868
21
121.493508
31
0.0
0
LINE
8
0
10
60.805338
20
124.288538
30
0.0
11
60.931684
21
124.203317
31
0.0
0
LINE
8
0
10
62.321482
20
123.265886
30
0.0
11
62.447828
21
123.180665
31
0.0
0
LINE
8
0
10
58.671174
20
123.469311
30
0.0
11
58.797520
21
123.384090
31
0.0
0
LINE
8
0
10
60.187318
20
122.446659
30
0.0
11
60.313663
21
122.361438
31
0.0
0
LINE
8
0
10
61.703462
20
121.424007
30
0.0
11
61.829807
21
121.338786
31
0.0
0
LINE
8
0
10
55.020866
20
123.672735
30
0.0
11
55.147211
21
123.587514
31
0.0
0
LINE
8
0
10
56.537010
20
122.650083
30
0.0
11
56.663355
21
122.564862
31
0.0
0
LINE
8
0
10
58.053154
20
121.627431
30
0.0
11
58.179499
21
121.542210
31
0.0
0
LINE
8
0
10
59.569298
20
120.604779
30
0.0
11
59.695643
21
120.519558
31
0.0
0
LINE
8
0
10
51.370558
20
123.876159
30
0.0
11
51.496903
21
123.790938
31
0.0
0
LINE
8
0
10
52.886702
20
122.853507
30
0.0
11
53.013047
21
122.768286
31
0.0
0
LINE
8
0
10
54.402846
20
121.830855
30
0.0
11
54.529191
21
121.745634
31
0.0
0
LINE
8
0
10
55.918990
20
120.808203
30
0.0
11
56.045335
21
120.722982
31
0.0
0
LINE
8
0
10
47.720250
20
124.079584
30
0.0
11
47.846595
21
123.994363
31
0.0
0
LINE
8
0
10
49.236394
20
123.056932
30
0.0
11
49.362739
21
122.971711
31
0.0
0
LINE
8
0
10
50.752538
20
122.034280
30
0.0
11
50.878883
21
121.949059
31
0.0
0
LINE
8
0
10
52.268682
20
121.011628
30
0.0
11
52.395027
21
120.926407
31
0.0
0
LINE
8
0
10
44.069942
20
124.283008
30
0.0
11
44.196287
21
124.197787
31
0.0
0
LINE
8
0
10
45.586086
20
123.260356
30
0.0
11
45.712431
21
123.175135
31
0.0
0
LINE
8
0
10
47.102230
20
122.237704
30
0.0
11
47.228575
21
122.152483
31
0.0
0
LINE
8
0
10
48.618374
20
121.215052
30
0.0
11
48.744719
21
121.129831
31
0.0
0
LINE
8
0
10
41.935778
20
123.463780
30
0.0
11
42.062123
21
123.378559
31
0.0
0
LINE
8
0
10
43.451921
20
122.441128
30
0.0
11
43.578267
21
122.355907
31
0.0
0
LINE
8
0
10
44.968065
20
121.418476
30
0.0
11
45.094411
21
121.333255
31
0.0
0
LINE
8
0
10
46.484209
20
120.395824
30
0.0
11
46.598504
21
120.318732
31
0.0
0
LINE
8
0
10
38.285469
20
123.667205
30
0.0
11
38.411815
21
123.581984
31
0.0
0
LINE
8
0
10
39.801613
20
122.644553
30
0.0
11
39.927959
21
122.559332
31
0.0
0
LINE
8
0
10
41.317757
20
121.621901
30
0.0
11
41.444103
21
121.536680
31
0.0
0
LINE
8
0
10
42.833901
20
120.599249
30
0.0
11
42.960247
21
120.514028
31
0.0
0
LINE
8
0
10
34.635161
20
123.870629
30
0.0
11
34.761507
21
123.785408
31
0.0
0
LINE
8
0
10
36.151305
20
122.847977
30
0.0
11
36.277651
21
122.762756
31
0.0
0
LINE
8
0
10
37.667449
20
121.825325
30
0.0
11
37.793795
21
121.740104
31
0.0
0
LINE
8
0
10
39.183593
20
120.802673
30
0.0
11
39.309938
21
120.717452
31
0.0
0
LINE
8
0
10
30.984853
20
124.074053
30
0.0
11
31.111199
21
123.988832
31
0.0
0
LINE
8
0
10
32.500997
20
123.051401
30
0.0
11
32.627342
21
122.966180
31
0.0
0
LINE
8
0
10
34.017141
20
122.028749
30
0.0
11
34.143486
21
121.943528
31
0.0
0
LINE
8
0
10
35.533285
20
121.006097
30
0.0
11
35.659630
21
120.920876
31
0.0
0
LINE
8
0
10
28.850689
20
123.254825
30
0.0
11
28.977034
21
123.169604
31
0.0
0
LINE
8
0
10
30.366833
20
122.232174
30
0.0
11
30.493178
21
122.146953
31
0.0
0
LINE
8
0
10
31.882977
20
121.209522
30
0.0
11
32.009322
21
121.124301
31
0.0
0
LINE
8
0
10
29.748813
20
120.390294
30
0.0
11
29.854908
21
120.318732
31
0.0
0
LINE
8
0
10
28.976950
20
123.169644
30
0.0
11
29.028452
21
123.323134
31
0.0
0
LINE
8
0
10
29.879643
20
120.318732
30
0.0
11
29.926575
21
120.458603
31
0.0
0
LINE
8
0
10
30.493094
20
122.146992
30
0.0
11
30.544596
21
122.300483
31
0.0
0
LINE
8
0
10
31.111114
20
123.988872
30
0.0
11
31.162616
21
124.142362
31
0.0
0
LINE
8
0
10
32.009238
20
121.124341
30
0.0
11
32.060739
21
121.277831
31
0.0
0
LINE
8
0
10
32.627258
20
122.966220
30
0.0
11
32.678760
21
123.119710
31
0.0
0
LINE
8
0
10
34.143402
20
121.943568
30
0.0
11
34.194904
21
122.097058
31
0.0
0
LINE
8
0
10
34.761422
20
123.785448
30
0.0
11
34.812924
21
123.938938
31
0.0
0
LINE
8
0
10
35.659546
20
120.920916
30
0.0
11
35.711047
21
121.074406
31
0.0
0
LINE
8
0
10
36.277566
20
122.762796
30
0.0
11
36.329068
21
122.916286
31
0.0
0
LINE
8
0
10
37.793710
20
121.740144
30
0.0
11
37.845211
21
121.893634
31
0.0
0
LINE
8
0
10
38.411730
20
123.582024
30
0.0
11
38.463232
21
123.735514
31
0.0
0
LINE
8
0
10
39.309853
20
120.717492
30
0.0
11
39.361355
21
120.870982
31
0.0
0
LINE
8
0
10
39.927874
20
122.559372
30
0.0
11
39.979376
21
122.712862
31
0.0
0
LINE
8
0
10
41.444018
20
121.536720
30
0.0
11
41.495519
21
121.690210
31
0.0
0
LINE
8
0
10
42.062038
20
123.378599
30
0.0
11
42.113540
21
123.532089
31
0.0
0
LINE
8
0
10
42.960161
20
120.514068
30
0.0
11
43.011663
21
120.667558
31
0.0
0
LINE
8
0
10
43.578182
20
122.355947
30
0.0
11
43.629684
21
122.509438
31
0.0
0
LINE
8
0
10
44.196202
20
124.197827
30
0.0
11
44.236770
21
124.318732
31
0.0
0
LINE
8
0
10
45.094326
20
121.333296
30
0.0
11
45.145827
21
121.486786
31
0.0
0
LINE
8
0
10
45.712346
20
123.175175
30
0.0
11
45.763848
21
123.328665
31
0.0
0
LINE
8
0
10
46.613183
20
120.318732
30
0.0
11
46.661971
21
120.464134
31
0.0
0
LINE
8
0
10
47.228490
20
122.152523
30
0.0
11
47.279992
21
122.306013
31
0.0
0
LINE
8
0
10
47.846510
20
123.994403
30
0.0
11
47.898012
21
124.147893
31
0.0
0
LINE
8
0
10
48.744634
20
121.129871
30
0.0
11
48.796135
21
121.283361
31
0.0
0
LINE
8
0
10
49.362654
20
122.971751
30
0.0
11
49.414156
21
123.125241
31
0.0
0
LINE
8
0
10
50.878798
20
121.949099
30
0.0
11
50.930300
21
122.102589
31
0.0
0
LINE
8
0
10
51.496818
20
123.790979
30
0.0
11
51.548320
21
123.944469
31
0.0
0
LINE
8
0
10
52.394942
20
120.926447
30
0.0
11
52.446443
21
121.079937
31
0.0
0
LINE
8
0
10
53.012962
20
122.768327
30
0.0
11
53.064464
21
122.921817
31
0.0
0
LINE
8
0
10
54.529106
20
121.745675
30
0.0
11
54.580607
21
121.899165
31
0.0
0
LINE
8
0
10
55.147126
20
123.587554
30
0.0
11
55.198628
21
123.741044
31
0.0
0
LINE
8
0
10
56.045250
20
120.723023
30
0.0
11
56.096751
21
120.876513
31
0.0
0
LINE
8
0
10
56.663270
20
122.564902
30
0.0
11
56.714772
21
122.718393
31
0.0
0
LINE
8
0
10
58.179414
20
121.542250
30
0.0
11
58.230915
21
121.695741
31
0.0
0
LINE
8
0
10
58.797434
20
123.384130
30
0.0
11
58.848936
21
123.537620
31
0.0
0
LINE
8
0
10
59.695557
20
120.519599
30
0.0
11
59.747059
21
120.673089
31
0.0
0
LINE
8
0
10
60.313578
20
122.361478
30
0.0
11
60.365080
21
122.514968
31
0.0
0
LINE
8
0
10
60.931598
20
124.203358
30
0.0
11
60.970311
21
124.318732
31
0.0
0
LINE
8
0
10
61.829722
20
121.338826
30
0.0
11
61.881223
21
121.492316
31
0.0
0
LINE
8
0
10
62.447742
20
123.180706
30
0.0
11
62.499244
21
123.334196
31
0.0
0
LINE
8
0
10
28.430943
20
123.818732
30
0.0
11
28.430943
21
120.818732
31
0.0
0
ARC
8
0
10
28.930943
20
120.818732
30
0.0
40
0.500000
50
180.000000
51
270.000000
0
LINE
8
0
10
28.930943
20
120.318732
30
0.0
11
62.930943
21
120.318732
31
0.0
0
ARC
8
0
10
62.930943
20
120.818732
30
0.0
40
0.500000
50
270.000000
51
360.000000
0
LINE
8
0
10
63.430943
20
120.818732
30
0.0
11
63.430943
21
123.818732
31
0.0
0
ARC
8
0
10
62.930943
20
123.818732
30
0.0
40
0.500000
50
360.000000
51
90.000000
0
LINE
8
0
10
62.930943
20
124.318732
30
0.0
11
28.930943
21
124.318732
31
0.0
0
ARC
8
0
10
28.930943
20
123.818732
30
0.0
40
0.500000
50
90.000000
51
180.000000
0
LINE
8
0
10
22.123836
20
109.115886
30
0.0
11
18.738050
21
109.115886
31
0.0
0
ARC
8
0
10
18.738050
20
109.615886
30
0.0
40
0.500000
50
225.000000
51
270.000000
0
LINE
8
0
10
18.384496
20
109.262333
30
0.0
11
17.677390
21
109.969440
31
0.0
0
ARC
8
0
10
18.030943
20
110.322993
30
0.0
40
0.500000
50
180.000000
51
225.000000
0
LINE
8
0
10
17.530943
20
110.322993
30
0.0
11
17.530943
21
111.115886
31
0.0
0
LINE
8
0
10
17.530943
20
111.115886
30
0.0
11
19.230943
21
111.115886
31
0.0
0
ARC
8
0
10
19.230943
20
111.415886
30
0.0
40
0.300000
50
270.000000
51
360.000000
0
LINE
8
0
10
19.530943
20
111.415886
30
0.0
11
19.530943
21
113.815886
31
0.0
0
ARC
8
0
10
19.230943
20
113.815886
30
0.0
40
0.300000
50
360.000000
51
90.000000
0
LINE
8
0
10
19.230943
20
114.115886
30
0.0
11
2.530943
21
114.115886
31
0.0
0
ARC
8
0
10
2.530943
20
113.815886
30
0.0
40
0.300000
50
90.000000
51
180.000000
0
LINE
8
0
10
2.230943
20
113.815886
30
0.0
11
2.230943
21
89.215886
31
0.0
0
LINE
8
0
10
2.230943
20
89.215886
30
0.0
11
3.730943
21
89.215886
31
0.0
0
ARC
8
0
10
3.730943
20
88.715886
30
0.0
40
0.500000
50
360.000000
51
90.000000
0
LINE
8
0
10
4.230943
20
88.715886
30
0.0
11
4.230943
21
86.765886
31
0.0
0
ARC
8
0
10
3.730943
20
86.765886
30
0.0
40
0.500000
50
180.000000
51
360.000000
0
LINE
8
0
10
3.230943
20
86.765886
30
0.0
11
3.230943
21
87.915886
31
0.0
0
LINE
8
0
10
3.230943
20
87.915886
30
0.0
11
1.930943
21
87.915886
31
0.0
0
LINE
8
0
10
1.930943
20
87.915886
30
0.0
11
1.930943
21
80.415886
31
0.0
0
LINE
8
0
10
1.930943
20
80.415886
30
0.0
11
3.230943
21
80.415886
31
0.0
0
LINE
8
0
10
3.230943
20
80.415886
30
0.0
11
3.230943
21
81.765886
31
0.0
0
ARC
8
0
10
3.730943
20
81.765886
30
0.0
40
0.500000
50
360.000000
51
180.000000
0
LINE
8
0
10
4.230943
20
81.765886
30
0.0
11
4.230943
21
79.615886
31
0.0
0
ARC
8
0
10
3.730943
20
79.615886
30
0.0
40
0.500000
50
270.000000
51
360.000000
0
LINE
8
0
10
3.730943
20
79.115886
30
0.0
11
1.230943
21
79.115886
31
0.0
0
ARC
8
0
10
1.230943
20
79.615886
30
0.0
40
0.500000
50
180.000000
51
270.000000
0
LINE
8
0
10
0.730943
20
79.615886
30
0.0
11
0.730943
21
136.015886
31
0.0
0
ARC
8
0
10
1.030943
20
136.015886
30
0.0
40
0.300000
50
90.000000
51
180.000000
0
LINE
8
0
10
1.030943
20
136.315886
30
0.0
11
3.023836
21
136.315886
31
0.0
0
ARC
8
0
10
3.023836
20
135.815886
30
0.0
40
0.500000
50
45.000000
51
90.000000
0
LINE
8
0
10
3.377390
20
136.169440
30
0.0
11
4.084496
21
135.462333
31
0.0
0
ARC
8
0
10
3.730943
20
135.108779
30
0.0
40
0.500000
50
360.000000
51
45.000000
0
LINE
8
0
10
4.230943
20
135.108779
30
0.0
11
4.230943
21
134.315886
31
0.0
0
LINE
8
0
10
4.230943
20
134.315886
30
0.0
11
2.530943
21
134.315886
31
0.0
0
ARC
8
0
10
2.530943
20
134.015886
30
0.0
40
0.300000
50
90.000000
51
180.000000
0
LINE
8
0
10
2.230943
20
134.015886
30
0.0
11
2.230943
21
131.615886
31
0.0
0
ARC
8
0
10
2.530943
20
131.615886
30
0.0
40
0.300000
50
180.000000
51
270.000000
0
LINE
8
0
10
2.530943
20
131.315886
30
0.0
11
19.930943
21
131.315886
31
0.0
0
ARC
8
0
10
19.930943
20
131.615886
30
0.0
40
0.300000
50
270.000000
51
360.000000
0
LINE
8
0
10
20.230943
20
131.615886
30
0.0
11
20.230943
21
134.015886
31
0.0
0
ARC
8
0
10
19.930943
20
134.015886
30
0.0
40
0.300000
50
360.000000
51
90.000000
0
LINE
8
0
10
19.930943
20
134.315886
30
0.0
11
18.230943
21
134.315886
31
0.0
0
LINE
8
0
10
18.230943
20
134.315886
30
0.0
11
18.230943
21
135.108779
31
0.0
0
ARC
8
0
10
18.730943
20
135.108779
30
0.0
40
0.500000
50
135.000000
51
180.000000
0
LINE
8
0
10
18.377390
20
135.462333
30
0.0
11
19.084496
21
136.169440
31
0.0
0
ARC
8
0
10
19.438050
20
135.815886
30
0.0
40
0.500000
50
90.000000
51
135.000000
0
LINE
8
0
10
19.438050
20
136.315886
30
0.0
11
21.530943
21
136.315886
31
0.0
0
ARC
8
0
10
21.530943
20
135.815886
30
0.0
40
0.500000
50
360.000000
51
90.000000
0
LINE
8
0
10
22.030943
20
135.815886
30
0.0
11
22.030943
21
131.945886
31
0.0
0
ARC
8
0
10
22.530943
20
131.945886
30
0.0
40
0.500000
50
180.000000
51
270.000000
0
LINE
8
0
10
22.530943
20
131.445886
30
0.0
11
23.622005
21
131.445886
31
0.0
0
ARC
8
0
10
23.622005
20
131.145886
30
0.0
40
0.300000
50
37.571175
51
90.000000
0
ARC
8
0
10
25.444977
20
132.548303
30
0.0
40
2.000000
50
217.571175
51
308.194227
0
ARC
8
0
10
26.990800
20
130.583505
30
0.0
40
0.500000
50
88.376251
51
128.194227
0
LINE
8
0
10
27.004968
20
131.083304
30
0.0
11
27.661590
21
131.064691
31
0.0
0
ARC
8
0
10
27.658205
20
130.764666
30
0.0
40
0.300000
50
341.748585
51
90.000000
0
LINE
8
0
10
27.943112
20
130.670710
30
0.0
11
25.878824
21
128.004269
31
0.0
0
ARC
8
0
10
25.763678
20
128.093413
30
0.0
40
0.145621
50
180.000000
51
322.253920
0
LINE
8
0
10
25.618146
20
128.098495
30
0.0
11
25.623575
21
128.253982
31
0.0
0
ARC
8
0
10
25.423697
20
128.260962
30
0.0
40
0.200000
50
360.000000
51
51.176024
0
LINE
8
0
10
25.549083
20
128.416777
30
0.0
11
23.905913
21
129.739052
31
0.0
0
ARC
8
0
10
23.717835
20
129.505329
30
0.0
40
0.300000
50
51.176024
51
76.872879
0
LINE
8
0
10
23.785968
20
129.797490
30
0.0
11
23.430943
21
129.893041
31
0.0
0
ARC
8
0
10
23.430943
20
129.593041
30
0.0
40
0.300000
50
90.000000
51
270.000000
0
LINE
8
0
10
23.430943
20
129.293041
30
0.0
11
23.430943
21
124.793041
31
0.0
0
ARC
8
0
10
23.630943
20
124.793041
30
0.0
40
0.200000
50
180.000000
51
270.000000
0
LINE
8
0
10
23.630943
20
124.593041
30
0.0
11
23.698832
21
124.593041
31
0.0
0
ARC
8
0
10
23.698832
20
124.893041
30
0.0
40
0.300000
50
270.000000
51
301.380132
0
LINE
8
0
10
23.855046
20
124.636921
30
0.0
11
25.531039
21
125.659154
31
0.0
0
ARC
8
0
10
25.730943
20
125.665344
30
0.0
40
0.200000
50
360.000000
51
180.000000
0
LINE
8
0
10
25.930943
20
125.665344
30
0.0
11
25.930943
21
124.339477
31
0.0
0
ARC
8
0
10
25.630943
20
124.339477
30
0.0
40
0.300000
50
299.846880
51
360.000000
0
LINE
8
0
10
25.780248
20
124.079270
30
0.0
11
24.575575
21
123.388037
31
0.0
0
ARC
8
0
10
24.923954
20
122.780886
30
0.0
40
0.700000
50
119.846880
51
240.153120
0
LINE
8
0
10
24.575575
20
122.173735
30
0.0
11
25.780248
21
121.482503
31
0.0
0
ARC
8
0
10
25.630943
20
121.222295
30
0.0
40
0.300000
50
360.000000
51
60.153120
0
LINE
8
0
10
25.930943
20
121.222295
30
0.0
11
25.930943
21
119.896428
31
0.0
0
ARC
8
0
10
25.730943
20
119.896428
30
0.0
40
0.200000
50
180.000000
51
360.000000
0
LINE
8
0
10
25.531039
20
119.902618
30
0.0
11
23.855046
21
120.924851
31
0.0
0
ARC
8
0
10
23.698832
20
120.668732
30
0.0
40
0.300000
50
58.619868
51
90.000000
0
LINE
8
0
10
23.698832
20
120.968732
30
0.0
11
23.630943
21
120.968732
31
0.0
0
ARC
8
0
10
23.630943
20
120.768732
30
0.0
40
0.200000
50
90.000000
51
180.000000
0
LINE
8
0
10
23.430943
20
120.768732
30
0.0
11
23.430943
21
116.268732
31
0.0
0
ARC
8
0
10
23.430943
20
115.968732
30
0.0
40
0.300000
50
90.000000
51
270.000000
0
LINE
8
0
10
23.430943
20
115.668732
30
0.0
11
23.805546
21
115.769552
31
0.0
0
ARC
8
0
10
23.717835
20
116.056443
30
0.0
40
0.300000
50
287.000000
51
308.823976
0
LINE
8
0
10
23.905913
20
115.822721
30
0.0
11
25.549083
21
117.144995
31
0.0
0
ARC
8
0
10
25.423697
20
117.300811
30
0.0
40
0.200000
50
308.823976
51
360.000000
0
LINE
8
0
10
25.623575
20
117.307790
30
0.0
11
25.618146
21
117.463278
31
0.0
0
ARC
8
0
10
25.763678
20
117.468360
30
0.0
40
0.145621
50
37.746080
51
180.000000
0
LINE
8
0
10
25.878824
20
117.557503
30
0.0
11
27.943112
21
114.891062
31
0.0
0
ARC
8
0
10
27.658205
20
114.797106
30
0.0
40
0.300000
50
272.605413
51
18.251415
0
LINE
8
0
10
27.661590
20
114.497082
30
0.0
11
27.004968
21
114.478468
31
0.0
0
ARC
8
0
10
26.990800
20
114.978267
30
0.0
40
0.500000
50
231.805773
51
271.623749
0
ARC
8
0
10
25.444977
20
113.013469
30
0.0
40
2.000000
50
51.805773
51
123.997055
0
LINE
8
0
10
24.326677
20
114.671602
30
0.0
11
23.711160
21
114.369703
31
0.0
0
ARC
8
0
10
23.931342
20
113.920793
30
0.0
40
0.500000
50
116.127032
51
135.965392
0
ARC
8
0
10
23.212422
20
114.615886
30
0.0
40
0.500000
50
270.000000
51
315.965392
0
LINE
8
0
10
23.212422
20
114.115886
30
0.0
11
21.630943
21
114.115886
31
0.0
0
ARC
8
0
10
21.630943
20
113.815886
30
0.0
40
0.300000
50
90.000000
51
180.000000
0
LINE
8
0
10
21.330943
20
113.815886
30
0.0
11
21.330943
21
111.415886
31
0.0
0
ARC
8
0
10
21.630943
20
111.415886
30
0.0
40
0.300000
50
180.000000
51
270.000000
0
LINE
8
0
10
21.630943
20
111.115886
30
0.0
11
23.330943
21
111.115886
31
0.0
0
LINE
8
0
10
23.330943
20
111.115886
30
0.0
11
23.330943
21
110.322993
31
0.0
0
ARC
8
0
10
22.830943
20
110.322993
30
0.0
40
0.500000
50
315.000000
51
360.000000
0
LINE
8
0
10
23.184496
20
109.969440
30
0.0
11
22.477390
21
109.262333
31
0.0
0
ARC
8
0
10
22.123836
20
109.615886
30
0.0
40
0.500000
50
270.000000
51
315.000000
0
LINE
8
0
10
21.930943
20
127.815886
30
0.0
11
21.930943
21
117.615886
31
0.0
0
LINE
8
0
10
21.930943
20
117.615886
30
0.0
11
21.830943
21
117.615886
31
0.0
0
LINE
8
0
10
21.830943
20
117.615886
30
0.0
11
21.830943
21
115.615886
31
0.0
0
LINE
8
0
10
21.830943
20
115.615886
30
0.0
11
2.230943
21
115.615886
31
0.0
0
LINE
8
0
10
2.230943
20
115.615886
30
0.0
11
2.230943
21
129.815886
31
0.0
0
LINE
8
0
10
2.230943
20
129.815886
30
0.0
11
21.830943
21
129.815886
31
0.0
0
LINE
8
0
10
21.830943
20
129.815886
30
0.0
11
21.830943
21
127.815886
31
0.0
0
LINE
8
0
10
21.830943
20
127.815886
30
0.0
11
21.930943
21
127.815886
31
0.0
0
ATTDEF
8
0
10
0.000000
20
0.000000
30
0.0
40
3.5
1

3

2
PANE_WIDTH:0
70
0
0
ATTDEF
8
0
10
0.000000
20
0.000000
30
0.0
40
3.5
1

3

2
MIN_VETRO:0
70
0
0
ATTDEF
8
0
10
0.000000
20
0.000000
30
0.0
40
3.5
1

3

2
MAX_VETRO:0
70
0
0
ATTDEF
8
0
10
0.000000
20
0.000000
30
0.0
40
3.5
1

3

2
JX:0
70
0
0
ATTDEF
8
0
10
0.000000
20
0.000000
30
0.0
40
3.5
1

3

2
WX:0
70
0
0
ATTDEF
8
0
10
0.000000
20
0.000000
30
0.0
40
3.5
1

3

2
JY:0
70
0
0
ATTDEF
8
0
10
0.000000
20
0.000000
30
0.0
40
3.5
1

3

2
WY:0
70
0
0
ATTDEF
8
0
10
0.000000
20
0.000000
30
0.0
40
3.5
1

3

2
DESC:Marco ventana A.I.HI c/solape 30mm.y eng
70
0
0
ATTDEF
8
0
10
0.000000
20
0.000000
30
0.0
40
3.5
1

3

2
DENS:1.7475
70
0
0
ATTDEF
8
0
10
0.000000
20
0.000000
30
0.0
40
3.5
1

3

2
TDEV:56.31
70
0
0
ATTDEF
8
0
10
0.000000
20
0.000000
30
0.0
40
3.5
1

3

2
TDEV2:0
70
0
0
ATTDEF
8
0
10
0.000000
20
0.000000
30
0.0
40
3.5
1

3

2
TDEV3:0
70
0
0
ATTDEF
8
0
10
0.000000
20
0.000000
30
0.0
40
3.5
1

3

2
TDEV4:0
70
0
0
ATTDEF
8
0
10
0.000000
20
0.000000
30
0.0
40
3.5
1

3

2
TDEV5:0
70
0
0
ATTDEF
8
0
10
0.000000
20
0.000000
30
0.0
40
3.5
1

3

2
PANE_WIDTH:0
70
0
0
ATTDEF
8
0
10
0.000000
20
0.000000
30
0.0
40
3.5
1

3

2
MIN_VETRO:0
70
0
0
ATTDEF
8
0
10
0.000000
20
0.000000
30
0.0
40
3.5
1

3

2
MAX_VETRO:0
70
0
0
ATTDEF
8
0
10
0.000000
20
0.000000
30
0.0
40
3.5
1

3

2
JX:0
70
0
0
ATTDEF
8
0
10
0.000000
20
0.000000
30
0.0
40
3.5
1

3

2
WX:0
70
0
0
ATTDEF
8
0
10
0.000000
20
0.000000
30
0.0
40
3.5
1

3

2
JY:0
70
0
0
ATTDEF
8
0
10
0.000000
20
0.000000
30
0.0
40
3.5
1

3

2
WY:0
70
0
0
ATTDEF
8
0
10
68.555943
20
136.315886
30
0.0
40
3.5
1

3

2
VC_START
70
0
0
ATTDEF
8
0
10
69.934496
20
109.115886
30
0.0
40
3.5
1

3

2
VC_END
70
0
0
ATTDEF
8
0
10
80.730943
20
79.115886
30
0.0
40
3.5
1

3

2
FP_LCS_ORIG
70
0
0
ATTDEF
8
0
10
70.730943
20
79.115886
30
0.0
40
3.5
1

3

2
FP_LCS_HOT
70
0
0
ATTDEF
8
0
10
80.730943
20
89.115886
30
0.0
40
3.5
1

3

2
FP_LCS_INTERN
70
0
0
ENDSEC
0
EOF
