0
SECTION
2
ENTITIES
0
LINE
8
0
10
212.426669
20
42.238138
30
0.0
11
213.754808
21
43.566277
31
0.0
0
LINE
8
0
10
212.450059
20
40.016463
30
0.0
11
215.384835
21
42.951240
31
0.0
0
LINE
8
0
10
215.372464
20
40.693804
30
0.0
11
217.984124
21
43.305464
31
0.0
0
LINE
8
0
10
216.403066
20
39.479343
30
0.0
11
217.183855
21
40.260132
31
0.0
0
LINE
8
0
10
219.353714
20
42.429991
30
0.0
11
220.574963
21
43.651240
31
0.0
0
LINE
8
0
10
217.428886
20
38.260098
30
0.0
11
218.260748
21
39.091961
31
0.0
0
LINE
8
0
10
221.720027
20
42.551240
30
0.0
11
222.820027
21
43.651240
31
0.0
0
LINE
8
0
10
219.365091
20
37.951240
30
0.0
11
220.465091
21
39.051240
31
0.0
0
LINE
8
0
10
223.965091
20
42.551240
30
0.0
11
225.065091
21
43.651240
31
0.0
0
LINE
8
0
10
221.610155
20
37.951240
30
0.0
11
222.710155
21
39.051240
31
0.0
0
LINE
8
0
10
225.866813
20
42.207898
30
0.0
11
227.310155
21
43.651240
31
0.0
0
LINE
8
0
10
223.855219
20
37.951240
30
0.0
11
224.955219
21
39.051240
31
0.0
0
LINE
8
0
10
228.455219
20
42.551240
30
0.0
11
229.555219
21
43.651240
31
0.0
0
LINE
8
0
10
225.891989
20
39.988010
30
0.0
11
226.691989
21
40.788010
31
0.0
0
LINE
8
0
10
226.100283
20
37.951240
30
0.0
11
227.200283
21
39.051240
31
0.0
0
LINE
8
0
10
230.700283
20
42.551240
30
0.0
11
231.800283
21
43.651240
31
0.0
0
LINE
8
0
10
228.345347
20
37.951240
30
0.0
11
229.445347
21
39.051240
31
0.0
0
LINE
8
0
10
232.945347
20
42.551240
30
0.0
11
234.045347
21
43.651240
31
0.0
0
LINE
8
0
10
230.590411
20
37.951240
30
0.0
11
231.690411
21
39.051240
31
0.0
0
LINE
8
0
10
234.526669
20
41.887497
30
0.0
11
236.290411
21
43.651240
31
0.0
0
LINE
8
0
10
232.835475
20
37.951240
30
0.0
11
233.935475
21
39.051240
31
0.0
0
LINE
8
0
10
237.435475
20
42.551240
30
0.0
11
238.535475
21
43.651240
31
0.0
0
LINE
8
0
10
234.526669
20
39.642433
30
0.0
11
235.326669
21
40.442433
31
0.0
0
LINE
8
0
10
235.080539
20
37.951240
30
0.0
11
236.180539
21
39.051240
31
0.0
0
LINE
8
0
10
239.680539
20
42.551240
30
0.0
11
240.780539
21
43.651240
31
0.0
0
LINE
8
0
10
237.325603
20
37.951240
30
0.0
11
238.425603
21
39.051240
31
0.0
0
LINE
8
0
10
241.925603
20
42.551240
30
0.0
11
243.025603
21
43.651240
31
0.0
0
LINE
8
0
10
239.570667
20
37.951240
30
0.0
11
240.670667
21
39.051240
31
0.0
0
LINE
8
0
10
243.161349
20
41.541921
30
0.0
11
245.270667
21
43.651240
31
0.0
0
LINE
8
0
10
241.815731
20
37.951240
30
0.0
11
243.961349
21
40.096857
31
0.0
0
LINE
8
0
10
246.415731
20
42.551240
30
0.0
11
247.515731
21
43.651240
31
0.0
0
LINE
8
0
10
244.060795
20
37.951240
30
0.0
11
245.160795
21
39.051240
31
0.0
0
LINE
8
0
10
248.660795
20
42.551240
30
0.0
11
249.760795
21
43.651240
31
0.0
0
LINE
8
0
10
246.305859
20
37.951240
30
0.0
11
247.405859
21
39.051240
31
0.0
0
LINE
8
0
10
250.741892
20
42.387272
30
0.0
11
251.691432
21
43.336812
31
0.0
0
LINE
8
0
10
248.550923
20
37.951240
30
0.0
11
249.650923
21
39.051240
31
0.0
0
LINE
8
0
10
252.554581
20
41.954898
30
0.0
11
253.599969
21
43.000286
31
0.0
0
LINE
8
0
10
250.795987
20
37.951240
30
0.0
11
256.794644
21
43.949896
31
0.0
0
LINE
8
0
10
255.545701
20
40.455889
30
0.0
11
257.426669
21
42.336857
31
0.0
0
LINE
8
0
10
257.091386
20
39.756510
30
0.0
11
257.421399
21
40.086523
31
0.0
0
LINE
8
0
10
213.966068
20
40.258368
30
0.0
11
212.426669
21
41.797768
31
0.0
0
LINE
8
0
10
218.518261
20
37.951240
30
0.0
11
212.593354
21
43.876146
31
0.0
0
LINE
8
0
10
220.763325
20
37.951240
30
0.0
11
219.663325
21
39.051240
31
0.0
0
LINE
8
0
10
217.033657
20
41.680908
30
0.0
11
215.763325
21
42.951240
31
0.0
0
LINE
8
0
10
223.008389
20
37.951240
30
0.0
11
221.908389
21
39.051240
31
0.0
0
LINE
8
0
10
218.653164
20
42.306465
30
0.0
11
217.703624
21
43.256005
31
0.0
0
LINE
8
0
10
225.253453
20
37.951240
30
0.0
11
224.153453
21
39.051240
31
0.0
0
LINE
8
0
10
220.653453
20
42.551240
30
0.0
11
219.612161
21
43.592531
31
0.0
0
LINE
8
0
10
227.498517
20
37.951240
30
0.0
11
225.891989
21
39.557768
31
0.0
0
LINE
8
0
10
222.898517
20
42.551240
30
0.0
11
221.798517
21
43.651240
31
0.0
0
LINE
8
0
10
229.743581
20
37.951240
30
0.0
11
228.643581
21
39.051240
31
0.0
0
LINE
8
0
10
225.143581
20
42.551240
30
0.0
11
224.043581
21
43.651240
31
0.0
0
LINE
8
0
10
226.691989
20
41.002832
30
0.0
11
225.891989
21
41.802832
31
0.0
0
LINE
8
0
10
231.988645
20
37.951240
30
0.0
11
230.888645
21
39.051240
31
0.0
0
LINE
8
0
10
227.388645
20
42.551240
30
0.0
11
226.288645
21
43.651240
31
0.0
0
LINE
8
0
10
234.233709
20
37.951240
30
0.0
11
233.133709
21
39.051240
31
0.0
0
LINE
8
0
10
229.633709
20
42.551240
30
0.0
11
228.533709
21
43.651240
31
0.0
0
LINE
8
0
10
236.478773
20
37.951240
30
0.0
11
234.526669
21
39.903344
31
0.0
0
LINE
8
0
10
231.878773
20
42.551240
30
0.0
11
230.778773
21
43.651240
31
0.0
0
LINE
8
0
10
238.723837
20
37.951240
30
0.0
11
237.623837
21
39.051240
31
0.0
0
LINE
8
0
10
234.135919
20
42.539158
30
0.0
11
233.023837
21
43.651240
31
0.0
0
LINE
8
0
10
235.326669
20
41.348408
30
0.0
11
234.514587
21
42.160490
31
0.0
0
LINE
8
0
10
240.968901
20
37.951240
30
0.0
11
239.868901
21
39.051240
31
0.0
0
LINE
8
0
10
236.368901
20
42.551240
30
0.0
11
235.268901
21
43.651240
31
0.0
0
LINE
8
0
10
243.213965
20
37.951240
30
0.0
11
242.113965
21
39.051240
31
0.0
0
LINE
8
0
10
238.613965
20
42.551240
30
0.0
11
237.513965
21
43.651240
31
0.0
0
LINE
8
0
10
245.459029
20
37.951240
30
0.0
11
244.345399
21
39.064870
31
0.0
0
LINE
8
0
10
240.859029
20
42.551240
30
0.0
11
239.759029
21
43.651240
31
0.0
0
LINE
8
0
10
243.974979
20
39.435290
30
0.0
11
243.161349
21
40.248920
31
0.0
0
LINE
8
0
10
247.704093
20
37.951240
30
0.0
11
246.604093
21
39.051240
31
0.0
0
LINE
8
0
10
243.961349
20
41.693984
30
0.0
11
242.004093
21
43.651240
31
0.0
0
LINE
8
0
10
249.949157
20
37.951240
30
0.0
11
248.849157
21
39.051240
31
0.0
0
LINE
8
0
10
245.349157
20
42.551240
30
0.0
11
244.249157
21
43.651240
31
0.0
0
LINE
8
0
10
252.107983
20
38.037478
30
0.0
11
251.094221
21
39.051240
31
0.0
0
LINE
8
0
10
247.594221
20
42.551240
30
0.0
11
246.494221
21
43.651240
31
0.0
0
LINE
8
0
10
253.204309
20
39.186216
30
0.0
11
252.423520
21
39.967005
31
0.0
0
LINE
8
0
10
249.845479
20
42.545047
30
0.0
11
248.739286
21
43.651240
31
0.0
0
LINE
8
0
10
254.228632
20
40.406957
30
0.0
11
251.214720
21
43.420869
31
0.0
0
LINE
8
0
10
257.118686
20
39.761967
30
0.0
11
253.929414
21
42.951240
31
0.0
0
LINE
8
0
10
257.426669
20
41.699048
30
0.0
11
255.756961
21
43.368757
31
0.0
0
LINE
8
0
10
225.391989
20
39.051240
30
0.0
11
218.478020
21
39.051240
31
0.0
0
ARC
8
0
10
218.478020
20
39.651240
30
0.0
40
0.600000
50
220.000000
51
270.000000
0
LINE
8
0
10
218.018394
20
39.265567
30
0.0
11
217.102134
21
40.357523
31
0.0
0
ARC
8
0
10
217.944783
20
41.064589
30
0.0
40
1.100000
50
100.000000
51
220.000000
0
LINE
8
0
10
217.753770
20
42.147878
30
0.0
11
219.989655
21
42.542124
31
0.0
0
ARC
8
0
10
220.093844
20
41.951240
30
0.0
40
0.600000
50
90.000000
51
100.000000
0
LINE
8
0
10
220.093844
20
42.551240
30
0.0
11
225.391989
21
42.551240
31
0.0
0
ARC
8
0
10
225.391989
20
42.051240
30
0.0
40
0.500000
50
360.000000
51
90.000000
0
LINE
8
0
10
225.891989
20
42.051240
30
0.0
11
225.891989
21
39.551240
31
0.0
0
ARC
8
0
10
225.391989
20
39.551240
30
0.0
40
0.500000
50
270.000000
51
360.000000
0
ARC
8
0
10
227.191989
20
39.551240
30
0.0
40
0.500000
50
180.000000
51
270.000000
0
LINE
8
0
10
226.691989
20
39.551240
30
0.0
11
226.691989
21
42.051240
31
0.0
0
ARC
8
0
10
227.191989
20
42.051240
30
0.0
40
0.500000
50
90.000000
51
180.000000
0
LINE
8
0
10
227.191989
20
42.551240
30
0.0
11
234.026669
21
42.551240
31
0.0
0
ARC
8
0
10
234.026669
20
42.051240
30
0.0
40
0.500000
50
360.000000
51
90.000000
0
LINE
8
0
10
234.526669
20
42.051240
30
0.0
11
234.526669
21
39.551240
31
0.0
0
ARC
8
0
10
234.026669
20
39.551240
30
0.0
40
0.500000
50
270.000000
51
360.000000
0
LINE
8
0
10
234.026669
20
39.051240
30
0.0
11
227.191989
21
39.051240
31
0.0
0
ARC
8
0
10
242.661349
20
42.051240
30
0.0
40
0.500000
50
360.000000
51
90.000000
0
LINE
8
0
10
243.161349
20
42.051240
30
0.0
11
243.161349
21
39.551240
31
0.0
0
ARC
8
0
10
242.661349
20
39.551240
30
0.0
40
0.500000
50
270.000000
51
360.000000
0
LINE
8
0
10
242.661349
20
39.051240
30
0.0
11
235.826669
21
39.051240
31
0.0
0
ARC
8
0
10
235.826669
20
39.551240
30
0.0
40
0.500000
50
180.000000
51
270.000000
0
LINE
8
0
10
235.326669
20
39.551240
30
0.0
11
235.326669
21
42.051240
31
0.0
0
ARC
8
0
10
235.826669
20
42.051240
30
0.0
40
0.500000
50
90.000000
51
180.000000
0
LINE
8
0
10
235.826669
20
42.551240
30
0.0
11
242.661349
21
42.551240
31
0.0
0
LINE
8
0
10
213.035549
20
39.751240
30
0.0
11
213.131519
21
39.775770
31
0.0
0
LINE
8
0
10
213.035549
20
39.751240
30
0.0
11
212.826669
21
39.751240
31
0.0
0
ARC
8
0
10
212.826669
20
40.151240
30
0.0
40
0.400000
50
180.000000
51
270.000000
0
LINE
8
0
10
212.426669
20
40.151240
30
0.0
11
212.426669
21
43.551240
31
0.0
0
ARC
8
0
10
212.826669
20
43.551240
30
0.0
40
0.400000
50
90.000000
51
180.000000
0
LINE
8
0
10
212.826669
20
43.951240
30
0.0
11
213.035549
21
43.951240
31
0.0
0
LINE
8
0
10
213.131519
20
43.926710
30
0.0
11
213.035549
21
43.951240
31
0.0
0
LINE
8
0
10
213.131519
20
43.926710
30
0.0
11
214.632558
21
43.058697
31
0.0
0
ARC
8
0
10
215.033038
20
43.751240
30
0.0
40
0.800000
50
239.960294
51
270.000000
0
LINE
8
0
10
215.033038
20
42.951240
30
0.0
11
215.948969
21
42.951240
31
0.0
0
LINE
8
0
10
215.948969
20
42.951240
30
0.0
11
216.001064
21
42.955797
31
0.0
0
LINE
8
0
10
216.001064
20
42.955797
30
0.0
11
219.919265
21
43.646682
31
0.0
0
LINE
8
0
10
219.971360
20
43.651240
30
0.0
11
219.919265
21
43.646682
31
0.0
0
LINE
8
0
10
219.971360
20
43.651240
30
0.0
11
234.926669
21
43.651240
31
0.0
0
LINE
8
0
10
234.926669
20
43.651240
30
0.0
11
249.881978
21
43.651240
31
0.0
0
LINE
8
0
10
249.934073
20
43.646682
30
0.0
11
249.881978
21
43.651240
31
0.0
0
LINE
8
0
10
249.934073
20
43.646682
30
0.0
11
253.852274
21
42.955797
31
0.0
0
LINE
8
0
10
253.852274
20
42.955797
30
0.0
11
253.904369
21
42.951240
31
0.0
0
LINE
8
0
10
253.904369
20
42.951240
30
0.0
11
254.820300
21
42.951240
31
0.0
0
ARC
8
0
10
254.820300
20
43.751240
30
0.0
40
0.800000
50
270.000000
51
300.039706
0
LINE
8
0
10
255.220780
20
43.058697
30
0.0
11
256.721819
21
43.926710
31
0.0
0
LINE
8
0
10
256.817789
20
43.951240
30
0.0
11
256.721819
21
43.926710
31
0.0
0
LINE
8
0
10
256.817789
20
43.951240
30
0.0
11
257.026669
21
43.951240
31
0.0
0
ARC
8
0
10
257.026669
20
43.551240
30
0.0
40
0.400000
50
360.000000
51
90.000000
0
LINE
8
0
10
257.426669
20
43.551240
30
0.0
11
257.426669
21
40.151240
31
0.0
0
ARC
8
0
10
257.026669
20
40.151240
30
0.0
40
0.400000
50
270.000000
51
360.000000
0
LINE
8
0
10
257.026669
20
39.751240
30
0.0
11
256.817789
21
39.751240
31
0.0
0
LINE
8
0
10
256.721819
20
39.775770
30
0.0
11
256.817789
21
39.751240
31
0.0
0
LINE
8
0
10
256.721819
20
39.775770
30
0.0
11
255.220780
21
40.643783
31
0.0
0
ARC
8
0
10
254.820300
20
39.951240
30
0.0
40
0.800000
50
59.960294
51
90.000000
0
LINE
8
0
10
254.820300
20
40.751240
30
0.0
11
254.657403
21
40.751240
31
0.0
0
ARC
8
0
10
254.657403
20
40.451240
30
0.0
40
0.300000
50
90.000000
51
140.390000
0
LINE
8
0
10
254.426282
20
40.642507
30
0.0
11
252.467777
21
38.308452
31
0.0
0
ARC
8
0
10
251.701733
20
38.951240
30
0.0
40
1.000000
50
270.000000
51
320.000000
0
LINE
8
0
10
251.701733
20
37.951240
30
0.0
11
234.926669
21
37.951240
31
0.0
0
LINE
8
0
10
234.926669
20
37.951240
30
0.0
11
218.151605
21
37.951240
31
0.0
0
ARC
8
0
10
218.151605
20
38.951240
30
0.0
40
1.000000
50
220.000000
51
270.000000
0
LINE
8
0
10
217.385561
20
38.308452
30
0.0
11
215.427056
21
40.642507
31
0.0
0
ARC
8
0
10
215.195935
20
40.451240
30
0.0
40
0.300000
50
39.610000
51
90.000000
0
LINE
8
0
10
215.195935
20
40.751240
30
0.0
11
215.033038
21
40.751240
31
0.0
0
ARC
8
0
10
215.033038
20
39.951240
30
0.0
40
0.800000
50
90.000000
51
120.039706
0
LINE
8
0
10
214.632558
20
40.643783
30
0.0
11
213.131519
21
39.775770
31
0.0
0
ARC
8
0
10
251.375318
20
39.651240
30
0.0
40
0.600000
50
270.000000
51
320.000000
0
LINE
8
0
10
251.375318
20
39.051240
30
0.0
11
244.461349
21
39.051240
31
0.0
0
ARC
8
0
10
244.461349
20
39.551240
30
0.0
40
0.500000
50
180.000000
51
270.000000
0
LINE
8
0
10
243.961349
20
39.551240
30
0.0
11
243.961349
21
42.051240
31
0.0
0
ARC
8
0
10
244.461349
20
42.051240
30
0.0
40
0.500000
50
90.000000
51
180.000000
0
LINE
8
0
10
244.461349
20
42.551240
30
0.0
11
249.759494
21
42.551240
31
0.0
0
ARC
8
0
10
249.759494
20
41.951240
30
0.0
40
0.600000
50
80.000000
51
90.000000
0
LINE
8
0
10
249.863683
20
42.542124
30
0.0
11
252.099568
21
42.147878
31
0.0
0
ARC
8
0
10
251.908555
20
41.064589
30
0.0
40
1.100000
50
320.000000
51
80.000000
0
LINE
8
0
10
252.751204
20
40.357523
30
0.0
11
251.834944
21
39.265567
31
0.0
0
LINE
8
0
10
218.361948
20
45.813253
30
0.0
11
218.484399
21
45.959185
31
0.0
0
LINE
8
0
10
219.831361
20
47.564431
30
0.0
11
219.904202
21
47.651240
31
0.0
0
LINE
8
0
10
218.714382
20
43.902685
30
0.0
11
218.836833
21
44.048616
31
0.0
0
LINE
8
0
10
220.183795
20
45.653862
30
0.0
11
220.306246
21
45.799794
31
0.0
0
LINE
8
0
10
221.653207
20
47.405040
30
0.0
11
221.775658
21
47.550971
31
0.0
0
LINE
8
0
10
220.536229
20
43.743294
30
0.0
11
220.658680
21
43.889225
31
0.0
0
LINE
8
0
10
222.005641
20
45.494471
30
0.0
11
222.128093
21
45.640403
31
0.0
0
LINE
8
0
10
223.475054
20
47.245649
30
0.0
11
223.597505
21
47.391580
31
0.0
0
LINE
8
0
10
222.414578
20
43.651240
30
0.0
11
222.480527
21
43.729834
31
0.0
0
LINE
8
0
10
223.827488
20
45.335081
30
0.0
11
223.949939
21
45.481012
31
0.0
0
LINE
8
0
10
225.296901
20
47.086258
30
0.0
11
225.419352
21
47.232190
31
0.0
0
LINE
8
0
10
225.649335
20
45.175690
30
0.0
11
225.771786
21
45.321621
31
0.0
0
LINE
8
0
10
227.118747
20
46.926867
30
0.0
11
227.241198
21
47.072799
31
0.0
0
LINE
8
0
10
227.471182
20
45.016299
30
0.0
11
227.593633
21
45.162230
31
0.0
0
LINE
8
0
10
228.940594
20
46.767476
30
0.0
11
229.063045
21
46.913408
31
0.0
0
LINE
8
0
10
229.293028
20
44.856908
30
0.0
11
229.415479
21
45.002839
31
0.0
0
LINE
8
0
10
230.762441
20
46.608086
30
0.0
11
230.884892
21
46.754017
31
0.0
0
LINE
8
0
10
231.114875
20
44.697517
30
0.0
11
231.237326
21
44.843449
31
0.0
0
LINE
8
0
10
232.584287
20
46.448695
30
0.0
11
232.706738
21
46.594626
31
0.0
0
LINE
8
0
10
232.936722
20
44.538126
30
0.0
11
233.059173
21
44.684058
31
0.0
0
LINE
8
0
10
234.406134
20
46.289304
30
0.0
11
234.528585
21
46.435235
31
0.0
0
LINE
8
0
10
234.758568
20
44.378735
30
0.0
11
234.881019
21
44.524667
31
0.0
0
LINE
8
0
10
236.227981
20
46.129913
30
0.0
11
236.350432
21
46.275844
31
0.0
0
LINE
8
0
10
236.580415
20
44.219345
30
0.0
11
236.702866
21
44.365276
31
0.0
0
LINE
8
0
10
238.049827
20
45.970522
30
0.0
11
238.172279
21
46.116454
31
0.0
0
LINE
8
0
10
238.402262
20
44.059954
30
0.0
11
238.524713
21
44.205885
31
0.0
0
LINE
8
0
10
239.871674
20
45.811131
30
0.0
11
239.994125
21
45.957063
31
0.0
0
LINE
8
0
10
241.341087
20
47.562309
30
0.0
11
241.415708
21
47.651240
31
0.0
0
LINE
8
0
10
240.224108
20
43.900563
30
0.0
11
240.346559
21
44.046494
31
0.0
0
LINE
8
0
10
241.693521
20
45.651740
30
0.0
11
241.815972
21
45.797672
31
0.0
0
LINE
8
0
10
243.162933
20
47.402918
30
0.0
11
243.285384
21
47.548849
31
0.0
0
LINE
8
0
10
242.045955
20
43.741172
30
0.0
11
242.168406
21
43.887103
31
0.0
0
LINE
8
0
10
243.515368
20
45.492350
30
0.0
11
243.637819
21
45.638281
31
0.0
0
LINE
8
0
10
244.984780
20
47.243527
30
0.0
11
245.107231
21
47.389459
31
0.0
0
LINE
8
0
10
243.926084
20
43.651240
30
0.0
11
243.990253
21
43.727713
31
0.0
0
LINE
8
0
10
245.337214
20
45.332959
30
0.0
11
245.459665
21
45.478890
31
0.0
0
LINE
8
0
10
246.806627
20
47.084136
30
0.0
11
246.929078
21
47.230068
31
0.0
0
LINE
8
0
10
247.159061
20
45.173568
30
0.0
11
247.281512
21
45.319499
31
0.0
0
LINE
8
0
10
248.628473
20
46.924745
30
0.0
11
248.750924
21
47.070677
31
0.0
0
LINE
8
0
10
248.980908
20
45.014177
30
0.0
11
249.103359
21
45.160108
31
0.0
0
LINE
8
0
10
250.450320
20
46.765355
30
0.0
11
250.572771
21
46.911286
31
0.0
0
LINE
8
0
10
250.802754
20
44.854786
30
0.0
11
250.925205
21
45.000718
31
0.0
0
LINE
8
0
10
252.272167
20
46.605964
30
0.0
11
252.394618
21
46.751895
31
0.0
0
LINE
8
0
10
241.346735
20
47.560276
30
0.0
11
241.498555
21
47.546994
31
0.0
0
LINE
8
0
10
243.168576
20
47.400886
30
0.0
11
243.320396
21
47.387604
31
0.0
0
LINE
8
0
10
244.990417
20
47.241496
30
0.0
11
245.142237
21
47.228213
31
0.0
0
LINE
8
0
10
246.812257
20
47.082105
30
0.0
11
246.964078
21
47.068823
31
0.0
0
LINE
8
0
10
248.634098
20
46.922715
30
0.0
11
248.785918
21
46.909432
31
0.0
0
LINE
8
0
10
250.455939
20
46.763324
30
0.0
11
250.607759
21
46.750042
31
0.0
0
LINE
8
0
10
252.277780
20
46.603934
30
0.0
11
252.426669
21
46.590908
31
0.0
0
LINE
8
0
10
219.837073
20
47.562395
30
0.0
11
219.988893
21
47.549113
31
0.0
0
LINE
8
0
10
221.658914
20
47.403005
30
0.0
11
221.810734
21
47.389722
31
0.0
0
LINE
8
0
10
223.480755
20
47.243614
30
0.0
11
223.632575
21
47.230332
31
0.0
0
LINE
8
0
10
225.302595
20
47.084224
30
0.0
11
225.454415
21
47.070941
31
0.0
0
LINE
8
0
10
227.124436
20
46.924833
30
0.0
11
227.276256
21
46.911551
31
0.0
0
LINE
8
0
10
228.946277
20
46.765443
30
0.0
11
229.098097
21
46.752160
31
0.0
0
LINE
8
0
10
230.768118
20
46.606053
30
0.0
11
230.919938
21
46.592770
31
0.0
0
LINE
8
0
10
232.589959
20
46.446662
30
0.0
11
232.741779
21
46.433380
31
0.0
0
LINE
8
0
10
234.411800
20
46.287272
30
0.0
11
234.563620
21
46.273989
31
0.0
0
LINE
8
0
10
236.233641
20
46.127881
30
0.0
11
236.385461
21
46.114599
31
0.0
0
LINE
8
0
10
238.055481
20
45.968491
30
0.0
11
238.207301
21
45.955208
31
0.0
0
LINE
8
0
10
239.877322
20
45.809100
30
0.0
11
240.029142
21
45.795818
31
0.0
0
LINE
8
0
10
241.699163
20
45.649710
30
0.0
11
241.850983
21
45.636428
31
0.0
0
LINE
8
0
10
243.521004
20
45.490320
30
0.0
11
243.672824
21
45.477037
31
0.0
0
LINE
8
0
10
245.342845
20
45.330929
30
0.0
11
245.494665
21
45.317647
31
0.0
0
LINE
8
0
10
247.164686
20
45.171539
30
0.0
11
247.316506
21
45.158256
31
0.0
0
LINE
8
0
10
248.986527
20
45.012148
30
0.0
11
249.138347
21
44.998866
31
0.0
0
LINE
8
0
10
250.808367
20
44.852758
30
0.0
11
250.960188
21
44.839475
31
0.0
0
LINE
8
0
10
218.367660
20
45.811219
30
0.0
11
218.519480
21
45.797937
31
0.0
0
LINE
8
0
10
220.189501
20
45.651829
30
0.0
11
220.341321
21
45.638546
31
0.0
0
LINE
8
0
10
222.011342
20
45.492438
30
0.0
11
222.163162
21
45.479156
31
0.0
0
LINE
8
0
10
223.833183
20
45.333048
30
0.0
11
223.985003
21
45.319765
31
0.0
0
LINE
8
0
10
225.655024
20
45.173657
30
0.0
11
225.806844
21
45.160375
31
0.0
0
LINE
8
0
10
227.476865
20
45.014267
30
0.0
11
227.628685
21
45.000984
31
0.0
0
LINE
8
0
10
229.298705
20
44.854877
30
0.0
11
229.450525
21
44.841594
31
0.0
0
LINE
8
0
10
231.120546
20
44.695486
30
0.0
11
231.272366
21
44.682204
31
0.0
0
LINE
8
0
10
232.942387
20
44.536096
30
0.0
11
233.094207
21
44.522813
31
0.0
0
LINE
8
0
10
234.764228
20
44.376705
30
0.0
11
234.916048
21
44.363423
31
0.0
0
LINE
8
0
10
236.586069
20
44.217315
30
0.0
11
236.737889
21
44.204032
31
0.0
0
LINE
8
0
10
238.407910
20
44.057924
30
0.0
11
238.559730
21
44.044642
31
0.0
0
LINE
8
0
10
240.229751
20
43.898534
30
0.0
11
240.381571
21
43.885252
31
0.0
0
LINE
8
0
10
242.051591
20
43.739144
30
0.0
11
242.203411
21
43.725861
31
0.0
0
LINE
8
0
10
218.720088
20
43.900653
30
0.0
11
218.871909
21
43.887370
31
0.0
0
LINE
8
0
10
220.541929
20
43.741262
30
0.0
11
220.693749
21
43.727980
31
0.0
0
LINE
8
0
10
218.886905
20
43.889973
30
0.0
11
218.857538
21
44.049187
31
0.0
0
LINE
8
0
10
218.534492
20
45.800543
30
0.0
11
218.505124
21
45.959757
31
0.0
0
LINE
8
0
10
220.708744
20
43.730570
30
0.0
11
220.679376
21
43.889784
31
0.0
0
LINE
8
0
10
220.356330
20
45.641140
30
0.0
11
220.326963
21
45.800354
31
0.0
0
LINE
8
0
10
220.003917
20
47.551710
30
0.0
11
219.985558
21
47.651240
31
0.0
0
LINE
8
0
10
222.515813
20
43.651240
30
0.0
11
222.501214
21
43.730382
31
0.0
0
LINE
8
0
10
222.178169
20
45.481737
30
0.0
11
222.148801
21
45.640951
31
0.0
0
LINE
8
0
10
221.825755
20
47.392307
30
0.0
11
221.796388
21
47.551521
31
0.0
0
LINE
8
0
10
224.000007
20
45.322334
30
0.0
11
223.970639
21
45.481548
31
0.0
0
LINE
8
0
10
223.647594
20
47.232904
30
0.0
11
223.618226
21
47.392118
31
0.0
0
LINE
8
0
10
225.821846
20
45.162931
30
0.0
11
225.792478
21
45.322146
31
0.0
0
LINE
8
0
10
225.469432
20
47.073501
30
0.0
11
225.440064
21
47.232715
31
0.0
0
LINE
8
0
10
227.643684
20
45.003529
30
0.0
11
227.614316
21
45.162743
31
0.0
0
LINE
8
0
10
227.291271
20
46.914098
30
0.0
11
227.261903
21
47.073312
31
0.0
0
LINE
8
0
10
229.465522
20
44.844126
30
0.0
11
229.436155
21
45.003340
31
0.0
0
LINE
8
0
10
229.113109
20
46.754695
30
0.0
11
229.083741
21
46.913910
31
0.0
0
LINE
8
0
10
231.287361
20
44.684723
30
0.0
11
231.257993
21
44.843937
31
0.0
0
LINE
8
0
10
230.934947
20
46.595293
30
0.0
11
230.905580
21
46.754507
31
0.0
0
LINE
8
0
10
233.109199
20
44.525320
30
0.0
11
233.079831
21
44.684534
31
0.0
0
LINE
8
0
10
232.756786
20
46.435890
30
0.0
11
232.727418
21
46.595104
31
0.0
0
LINE
8
0
10
234.931038
20
44.365917
30
0.0
11
234.901670
21
44.525131
31
0.0
0
LINE
8
0
10
234.578624
20
46.276487
30
0.0
11
234.549256
21
46.435701
31
0.0
0
LINE
8
0
10
236.752876
20
44.206514
30
0.0
11
236.723508
21
44.365728
31
0.0
0
LINE
8
0
10
236.400463
20
46.117084
30
0.0
11
236.371095
21
46.276298
31
0.0
0
LINE
8
0
10
238.574714
20
44.047112
30
0.0
11
238.545347
21
44.206326
31
0.0
0
LINE
8
0
10
238.222301
20
45.957681
30
0.0
11
238.192933
21
46.116895
31
0.0
0
LINE
8
0
10
240.396553
20
43.887709
30
0.0
11
240.367185
21
44.046923
31
0.0
0
LINE
8
0
10
240.044139
20
45.798278
30
0.0
11
240.014772
21
45.957493
31
0.0
0
LINE
8
0
10
242.218391
20
43.728306
30
0.0
11
242.189023
21
43.887520
31
0.0
0
LINE
8
0
10
241.865978
20
45.638876
30
0.0
11
241.836610
21
45.798090
31
0.0
0
LINE
8
0
10
241.513564
20
47.549445
30
0.0
11
241.494788
21
47.651240
31
0.0
0
LINE
8
0
10
244.025042
20
43.651240
30
0.0
11
244.010862
21
43.728117
31
0.0
0
LINE
8
0
10
243.687816
20
45.479473
30
0.0
11
243.658448
21
45.638687
31
0.0
0
LINE
8
0
10
243.335403
20
47.390042
30
0.0
11
243.306035
21
47.549257
31
0.0
0
LINE
8
0
10
245.509654
20
45.320070
30
0.0
11
245.480287
21
45.479284
31
0.0
0
LINE
8
0
10
245.157241
20
47.230640
30
0.0
11
245.127873
21
47.389854
31
0.0
0
LINE
8
0
10
247.331493
20
45.160667
30
0.0
11
247.302125
21
45.319881
31
0.0
0
LINE
8
0
10
246.979079
20
47.071237
30
0.0
11
246.949712
21
47.230451
31
0.0
0
LINE
8
0
10
249.153331
20
45.001264
30
0.0
11
249.123963
21
45.160478
31
0.0
0
LINE
8
0
10
248.800918
20
46.911834
30
0.0
11
248.771550
21
47.071048
31
0.0
0
LINE
8
0
10
250.975170
20
44.841861
30
0.0
11
250.945802
21
45.001075
31
0.0
0
LINE
8
0
10
250.622756
20
46.752431
30
0.0
11
250.593388
21
46.911645
31
0.0
0
LINE
8
0
10
252.426669
20
46.690210
30
0.0
11
252.415227
21
46.752242
31
0.0
0
LINE
8
0
10
218.820435
20
45.464408
30
0.0
11
219.018271
21
45.670596
31
0.0
0
LINE
8
0
10
221.531225
20
45.043984
30
0.0
11
221.729062
21
45.250173
31
0.0
0
LINE
8
0
10
223.905266
20
47.518246
30
0.0
11
224.032874
21
47.651240
31
0.0
0
LINE
8
0
10
224.242015
20
44.623561
30
0.0
11
224.439852
21
44.829750
31
0.0
0
LINE
8
0
10
226.616057
20
47.097822
30
0.0
11
226.813894
21
47.304011
31
0.0
0
LINE
8
0
10
226.952806
20
44.203138
30
0.0
11
227.150643
21
44.409326
31
0.0
0
LINE
8
0
10
229.326847
20
46.677399
30
0.0
11
229.524684
21
46.883588
31
0.0
0
LINE
8
0
10
229.663596
20
43.782715
30
0.0
11
229.861433
21
43.988903
31
0.0
0
LINE
8
0
10
232.037638
20
46.256976
30
0.0
11
232.235474
21
46.463164
31
0.0
0
LINE
8
0
10
234.748428
20
45.836553
30
0.0
11
234.946265
21
46.042741
31
0.0
0
LINE
8
0
10
237.459218
20
45.416129
30
0.0
11
237.657055
21
45.622318
31
0.0
0
LINE
8
0
10
240.170009
20
44.995706
30
0.0
11
240.367846
21
45.201894
31
0.0
0
LINE
8
0
10
242.544050
20
47.469967
30
0.0
11
242.717980
21
47.651240
31
0.0
0
LINE
8
0
10
242.880799
20
44.575283
30
0.0
11
243.078636
21
44.781471
31
0.0
0
LINE
8
0
10
245.254841
20
47.049544
30
0.0
11
245.452677
21
47.255732
31
0.0
0
LINE
8
0
10
245.591590
20
44.154859
30
0.0
11
245.789426
21
44.361048
31
0.0
0
LINE
8
0
10
247.965631
20
46.629121
30
0.0
11
248.163468
21
46.835309
31
0.0
0
LINE
8
0
10
248.302380
20
43.734436
30
0.0
11
248.500217
21
43.940625
31
0.0
0
LINE
8
0
10
250.676421
20
46.208697
30
0.0
11
250.874258
21
46.414886
31
0.0
0
LINE
8
0
10
219.046722
20
45.425174
30
0.0
11
219.018660
21
45.666397
31
0.0
0
LINE
8
0
10
221.757513
20
45.004751
30
0.0
11
221.729451
21
45.245974
31
0.0
0
LINE
8
0
10
224.468304
20
44.584328
30
0.0
11
224.440241
21
44.825552
31
0.0
0
LINE
8
0
10
224.131555
20
47.479007
30
0.0
11
224.111519
21
47.651240
31
0.0
0
LINE
8
0
10
227.179095
20
44.163906
30
0.0
11
227.151032
21
44.405129
31
0.0
0
LINE
8
0
10
226.842346
20
47.058584
30
0.0
11
226.814284
21
47.299807
31
0.0
0
LINE
8
0
10
229.889885
20
43.743483
30
0.0
11
229.861823
21
43.984706
31
0.0
0
LINE
8
0
10
229.553137
20
46.638161
30
0.0
11
229.525075
21
46.879384
31
0.0
0
LINE
8
0
10
232.263928
20
46.217739
30
0.0
11
232.235865
21
46.458962
31
0.0
0
LINE
8
0
10
234.974719
20
45.797316
30
0.0
11
234.946656
21
46.038539
31
0.0
0
LINE
8
0
10
237.685509
20
45.376893
30
0.0
11
237.657447
21
45.618116
31
0.0
0
LINE
8
0
10
240.396300
20
44.956471
30
0.0
11
240.368238
21
45.197694
31
0.0
0
LINE
8
0
10
243.107091
20
44.536048
30
0.0
11
243.079029
21
44.777271
31
0.0
0
LINE
8
0
10
242.770343
20
47.430726
30
0.0
11
242.744689
21
47.651240
31
0.0
0
LINE
8
0
10
245.817882
20
44.115625
30
0.0
11
245.789819
21
44.356848
31
0.0
0
LINE
8
0
10
245.481133
20
47.010303
30
0.0
11
245.453071
21
47.251527
31
0.0
0
LINE
8
0
10
248.528673
20
43.695202
30
0.0
11
248.500610
21
43.936426
31
0.0
0
LINE
8
0
10
248.191924
20
46.589881
30
0.0
11
248.163862
21
46.831104
31
0.0
0
LINE
8
0
10
250.902715
20
46.169458
30
0.0
11
250.874653
21
46.410681
31
0.0
0
LINE
8
0
10
242.546947
20
47.466229
30
0.0
11
242.772846
21
47.431193
31
0.0
0
LINE
8
0
10
245.257738
20
47.045801
30
0.0
11
245.483637
21
47.010765
31
0.0
0
LINE
8
0
10
247.968529
20
46.625373
30
0.0
11
248.194428
21
46.590337
31
0.0
0
LINE
8
0
10
250.679319
20
46.204945
30
0.0
11
250.905219
21
46.169910
31
0.0
0
LINE
8
0
10
223.908156
20
47.514544
30
0.0
11
224.134055
21
47.479508
31
0.0
0
LINE
8
0
10
226.618947
20
47.094116
30
0.0
11
226.844846
21
47.059081
31
0.0
0
LINE
8
0
10
229.329738
20
46.673688
30
0.0
11
229.555637
21
46.638653
31
0.0
0
LINE
8
0
10
232.040529
20
46.253261
30
0.0
11
232.266428
21
46.218225
31
0.0
0
LINE
8
0
10
234.751319
20
45.832833
30
0.0
11
234.977219
21
45.797797
31
0.0
0
LINE
8
0
10
237.462110
20
45.412405
30
0.0
11
237.688009
21
45.377369
31
0.0
0
LINE
8
0
10
240.172901
20
44.991977
30
0.0
11
240.398800
21
44.956942
31
0.0
0
LINE
8
0
10
242.883692
20
44.571550
30
0.0
11
243.109591
21
44.536514
31
0.0
0
LINE
8
0
10
245.594483
20
44.151122
30
0.0
11
245.820382
21
44.116086
31
0.0
0
LINE
8
0
10
248.305273
20
43.730694
30
0.0
11
248.531173
21
43.695658
31
0.0
0
LINE
8
0
10
218.823319
20
45.460720
30
0.0
11
219.049219
21
45.425685
31
0.0
0
LINE
8
0
10
221.534110
20
45.040293
30
0.0
11
221.760009
21
45.005257
31
0.0
0
LINE
8
0
10
224.244901
20
44.619865
30
0.0
11
224.470800
21
44.584829
31
0.0
0
LINE
8
0
10
226.955692
20
44.199437
30
0.0
11
227.181591
21
44.164402
31
0.0
0
LINE
8
0
10
229.666483
20
43.779009
30
0.0
11
229.892382
21
43.743974
31
0.0
0
LINE
8
0
10
217.555715
20
46.117666
30
0.0
11
217.733562
21
46.185935
31
0.0
0
LINE
8
0
10
219.689880
20
46.936895
30
0.0
11
219.867727
21
47.005164
31
0.0
0
LINE
8
0
10
219.071863
20
45.095011
30
0.0
11
219.249711
21
45.163280
31
0.0
0
LINE
8
0
10
221.206028
20
45.914240
30
0.0
11
221.383875
21
45.982509
31
0.0
0
LINE
8
0
10
223.340193
20
46.733469
30
0.0
11
223.518040
21
46.801738
31
0.0
0
LINE
8
0
10
225.474358
20
47.552698
30
0.0
11
225.652205
21
47.620967
31
0.0
0
LINE
8
0
10
220.588012
20
44.072356
30
0.0
11
220.765859
21
44.140625
31
0.0
0
LINE
8
0
10
222.722177
20
44.891585
30
0.0
11
222.900024
21
44.959854
31
0.0
0
LINE
8
0
10
224.856342
20
45.710814
30
0.0
11
225.034189
21
45.779083
31
0.0
0
LINE
8
0
10
226.990507
20
46.530043
30
0.0
11
227.168354
21
46.598312
31
0.0
0
LINE
8
0
10
229.124672
20
47.349272
30
0.0
11
229.302519
21
47.417541
31
0.0
0
LINE
8
0
10
224.238326
20
43.868930
30
0.0
11
224.416173
21
43.937199
31
0.0
0
LINE
8
0
10
226.372491
20
44.688159
30
0.0
11
226.550338
21
44.756428
31
0.0
0
LINE
8
0
10
228.506656
20
45.507388
30
0.0
11
228.684503
21
45.575657
31
0.0
0
LINE
8
0
10
230.640820
20
46.326617
30
0.0
11
230.818668
21
46.394886
31
0.0
0
LINE
8
0
10
232.774985
20
47.145846
30
0.0
11
232.952832
21
47.214115
31
0.0
0
LINE
8
0
10
227.888640
20
43.665504
30
0.0
11
228.066487
21
43.733773
31
0.0
0
LINE
8
0
10
230.022804
20
44.484733
30
0.0
11
230.200651
21
44.553002
31
0.0
0
LINE
8
0
10
232.156969
20
45.303962
30
0.0
11
232.334816
21
45.372231
31
0.0
0
LINE
8
0
10
234.291134
20
46.123191
30
0.0
11
234.468981
21
46.191460
31
0.0
0
LINE
8
0
10
236.425299
20
46.942420
30
0.0
11
236.603146
21
47.010689
31
0.0
0
LINE
8
0
10
233.673118
20
44.281307
30
0.0
11
233.850965
21
44.349576
31
0.0
0
LINE
8
0
10
235.807283
20
45.100536
30
0.0
11
235.985130
21
45.168805
31
0.0
0
LINE
8
0
10
237.941448
20
45.919765
30
0.0
11
238.119295
21
45.988034
31
0.0
0
LINE
8
0
10
240.075613
20
46.738994
30
0.0
11
240.253460
21
46.807263
31
0.0
0
LINE
8
0
10
242.209777
20
47.558223
30
0.0
11
242.387625
21
47.626492
31
0.0
0
LINE
8
0
10
237.323432
20
44.077881
30
0.0
11
237.501279
21
44.146150
31
0.0
0
LINE
8
0
10
239.457597
20
44.897110
30
0.0
11
239.635444
21
44.965379
31
0.0
0
LINE
8
0
10
241.591761
20
45.716339
30
0.0
11
241.769609
21
45.784608
31
0.0
0
LINE
8
0
10
243.725926
20
46.535568
30
0.0
11
243.903773
21
46.603837
31
0.0
0
LINE
8
0
10
245.860091
20
47.354797
30
0.0
11
246.037938
21
47.423066
31
0.0
0
LINE
8
0
10
240.973745
20
43.874455
30
0.0
11
241.151592
21
43.942724
31
0.0
0
LINE
8
0
10
243.107910
20
44.693684
30
0.0
11
243.285757
21
44.761953
31
0.0
0
LINE
8
0
10
245.242075
20
45.512913
30
0.0
11
245.419922
21
45.581182
31
0.0
0
LINE
8
0
10
247.376240
20
46.332142
30
0.0
11
247.554087
21
46.400411
31
0.0
0
LINE
8
0
10
249.510405
20
47.151371
30
0.0
11
249.688252
21
47.219640
31
0.0
0
LINE
8
0
10
244.624059
20
43.671029
30
0.0
11
244.801906
21
43.739298
31
0.0
0
LINE
8
0
10
246.758224
20
44.490258
30
0.0
11
246.936071
21
44.558527
31
0.0
0
LINE
8
0
10
248.892389
20
45.309487
30
0.0
11
249.070236
21
45.377756
31
0.0
0
LINE
8
0
10
251.026554
20
46.128716
30
0.0
11
251.204401
21
46.196985
31
0.0
0
LINE
8
0
10
250.408538
20
44.286832
30
0.0
11
250.586385
21
44.355101
31
0.0
0
LINE
8
0
10
249.516034
20
47.146187
30
0.0
11
249.642379
21
47.060966
31
0.0
0
LINE
8
0
10
251.032178
20
46.123535
30
0.0
11
251.158523
21
46.038314
31
0.0
0
LINE
8
0
10
245.865726
20
47.349611
30
0.0
11
245.992071
21
47.264390
31
0.0
0
LINE
8
0
10
247.381870
20
46.326959
30
0.0
11
247.508215
21
46.241738
31
0.0
0
LINE
8
0
10
248.898014
20
45.304307
30
0.0
11
249.024359
21
45.219086
31
0.0
0
LINE
8
0
10
250.414158
20
44.281655
30
0.0
11
250.540503
21
44.196434
31
0.0
0
LINE
8
0
10
242.215418
20
47.553036
30
0.0
11
242.341763
21
47.467815
31
0.0
0
LINE
8
0
10
243.731562
20
46.530384
30
0.0
11
243.857907
21
46.445163
31
0.0
0
LINE
8
0
10
245.247706
20
45.507732
30
0.0
11
245.374051
21
45.422511
31
0.0
0
LINE
8
0
10
246.763850
20
44.485080
30
0.0
11
246.890195
21
44.399859
31
0.0
0
LINE
8
0
10
240.081254
20
46.733808
30
0.0
11
240.207599
21
46.648587
31
0.0
0
LINE
8
0
10
241.597398
20
45.711156
30
0.0
11
241.723743
21
45.625935
31
0.0
0
LINE
8
0
10
243.113541
20
44.688504
30
0.0
11
243.239887
21
44.603283
31
0.0
0
LINE
8
0
10
244.629685
20
43.665852
30
0.0
11
244.651349
21
43.651240
31
0.0
0
LINE
8
0
10
236.430946
20
46.937232
30
0.0
11
236.557291
21
46.852011
31
0.0
0
LINE
8
0
10
237.947089
20
45.914580
30
0.0
11
238.073435
21
45.829359
31
0.0
0
LINE
8
0
10
239.463233
20
44.891928
30
0.0
11
239.589579
21
44.806707
31
0.0
0
LINE
8
0
10
240.979377
20
43.869276
30
0.0
11
241.105723
21
43.784055
31
0.0
0
LINE
8
0
10
232.780637
20
47.140657
30
0.0
11
232.906983
21
47.055436
31
0.0
0
LINE
8
0
10
234.296781
20
46.118005
30
0.0
11
234.423127
21
46.032784
31
0.0
0
LINE
8
0
10
235.812925
20
45.095353
30
0.0
11
235.939271
21
45.010132
31
0.0
0
LINE
8
0
10
237.329069
20
44.072701
30
0.0
11
237.455415
21
43.987480
31
0.0
0
LINE
8
0
10
229.130329
20
47.344081
30
0.0
11
229.256675
21
47.258860
31
0.0
0
LINE
8
0
10
230.646473
20
46.321429
30
0.0
11
230.772819
21
46.236208
31
0.0
0
LINE
8
0
10
232.162617
20
45.298777
30
0.0
11
232.288962
21
45.213556
31
0.0
0
LINE
8
0
10
233.678761
20
44.276125
30
0.0
11
233.805106
21
44.190904
31
0.0
0
LINE
8
0
10
225.480021
20
47.547505
30
0.0
11
225.606367
21
47.462284
31
0.0
0
LINE
8
0
10
226.996165
20
46.524853
30
0.0
11
227.122510
21
46.439632
31
0.0
0
LINE
8
0
10
228.512309
20
45.502201
30
0.0
11
228.638654
21
45.416980
31
0.0
0
LINE
8
0
10
230.028453
20
44.479549
30
0.0
11
230.154798
21
44.394328
31
0.0
0
LINE
8
0
10
223.345857
20
46.728278
30
0.0
11
223.472202
21
46.643057
31
0.0
0
LINE
8
0
10
224.862001
20
45.705626
30
0.0
11
224.988346
21
45.620405
31
0.0
0
LINE
8
0
10
226.378145
20
44.682974
30
0.0
11
226.504490
21
44.597753
31
0.0
0
LINE
8
0
10
219.695549
20
46.931702
30
0.0
11
219.821894
21
46.846481
31
0.0
0
LINE
8
0
10
221.211693
20
45.909050
30
0.0
11
221.338038
21
45.823829
31
0.0
0
LINE
8
0
10
222.727837
20
44.886398
30
0.0
11
222.854182
21
44.801177
31
0.0
0
LINE
8
0
10
224.243981
20
43.863746
30
0.0
11
224.370326
21
43.778525
31
0.0
0
LINE
8
0
10
217.561385
20
46.112474
30
0.0
11
217.687730
21
46.027253
31
0.0
0
LINE
8
0
10
219.077529
20
45.089822
30
0.0
11
219.203874
21
45.004601
31
0.0
0
LINE
8
0
10
220.593673
20
44.067170
30
0.0
11
220.720018
21
43.981949
31
0.0
0
LINE
8
0
10
217.689617
20
46.026786
30
0.0
11
217.741119
21
46.180276
31
0.0
0
LINE
8
0
10
219.205760
20
45.004135
30
0.0
11
219.257262
21
45.157625
31
0.0
0
LINE
8
0
10
219.823782
20
46.846014
30
0.0
11
219.875284
21
46.999504
31
0.0
0
LINE
8
0
10
220.721903
20
43.981484
30
0.0
11
220.773405
21
44.134974
31
0.0
0
LINE
8
0
10
221.339925
20
45.823363
30
0.0
11
221.391427
21
45.976853
31
0.0
0
LINE
8
0
10
222.856068
20
44.800712
30
0.0
11
222.907569
21
44.954202
31
0.0
0
LINE
8
0
10
223.474090
20
46.642592
30
0.0
11
223.525591
21
46.796082
31
0.0
0
LINE
8
0
10
224.372210
20
43.778061
30
0.0
11
224.423712
21
43.931551
31
0.0
0
LINE
8
0
10
224.990232
20
45.619941
30
0.0
11
225.041734
21
45.773431
31
0.0
0
LINE
8
0
10
225.608255
20
47.461820
30
0.0
11
225.659756
21
47.615310
31
0.0
0
LINE
8
0
10
226.506375
20
44.597290
30
0.0
11
226.557877
21
44.750780
31
0.0
0
LINE
8
0
10
227.124397
20
46.439169
30
0.0
11
227.175899
21
46.592659
31
0.0
0
LINE
8
0
10
228.048221
20
43.651240
30
0.0
11
228.074020
21
43.728129
31
0.0
0
LINE
8
0
10
228.640540
20
45.416518
30
0.0
11
228.692042
21
45.570008
31
0.0
0
LINE
8
0
10
229.258562
20
47.258398
30
0.0
11
229.310064
21
47.411888
31
0.0
0
LINE
8
0
10
230.156683
20
44.393867
30
0.0
11
230.208185
21
44.547357
31
0.0
0
LINE
8
0
10
230.774705
20
46.235747
30
0.0
11
230.826207
21
46.389237
31
0.0
0
LINE
8
0
10
232.290848
20
45.213096
30
0.0
11
232.342350
21
45.366586
31
0.0
0
LINE
8
0
10
232.908870
20
47.054975
30
0.0
11
232.960372
21
47.208465
31
0.0
0
LINE
8
0
10
233.806991
20
44.190445
30
0.0
11
233.858493
21
44.343935
31
0.0
0
LINE
8
0
10
234.425013
20
46.032324
30
0.0
11
234.476515
21
46.185814
31
0.0
0
LINE
8
0
10
235.941156
20
45.009673
30
0.0
11
235.992658
21
45.163163
31
0.0
0
LINE
8
0
10
236.559178
20
46.851553
30
0.0
11
236.610680
21
47.005043
31
0.0
0
LINE
8
0
10
237.457299
20
43.987022
30
0.0
11
237.508800
21
44.140512
31
0.0
0
LINE
8
0
10
238.075321
20
45.828902
30
0.0
11
238.126823
21
45.982392
31
0.0
0
LINE
8
0
10
239.591464
20
44.806251
30
0.0
11
239.642965
21
44.959741
31
0.0
0
LINE
8
0
10
240.209486
20
46.648130
30
0.0
11
240.260987
21
46.801620
31
0.0
0
LINE
8
0
10
241.107606
20
43.783600
30
0.0
11
241.159108
21
43.937090
31
0.0
0
LINE
8
0
10
241.725628
20
45.625479
30
0.0
11
241.777130
21
45.778969
31
0.0
0
LINE
8
0
10
242.343651
20
47.467359
30
0.0
11
242.395152
21
47.620849
31
0.0
0
LINE
8
0
10
243.241771
20
44.602828
30
0.0
11
243.293273
21
44.756318
31
0.0
0
LINE
8
0
10
243.859793
20
46.444708
30
0.0
11
243.911295
21
46.598198
31
0.0
0
LINE
8
0
10
244.781758
20
43.651240
30
0.0
11
244.809416
21
43.733667
31
0.0
0
LINE
8
0
10
245.375936
20
45.422057
30
0.0
11
245.427438
21
45.575547
31
0.0
0
LINE
8
0
10
245.993958
20
47.263937
30
0.0
11
246.045460
21
47.417426
31
0.0
0
LINE
8
0
10
246.892079
20
44.399406
30
0.0
11
246.943581
21
44.552896
31
0.0
0
LINE
8
0
10
247.510101
20
46.241285
30
0.0
11
247.561603
21
46.394775
31
0.0
0
LINE
8
0
10
249.026244
20
45.218634
30
0.0
11
249.077746
21
45.372124
31
0.0
0
LINE
8
0
10
249.644266
20
47.060514
30
0.0
11
249.695768
21
47.214004
31
0.0
0
LINE
8
0
10
250.542387
20
44.195983
30
0.0
11
250.593889
21
44.349473
31
0.0
0
LINE
8
0
10
251.160409
20
46.037863
30
0.0
11
251.211911
21
46.191353
31
0.0
0
LINE
8
0
10
252.426669
20
47.151240
30
0.0
11
252.426669
21
44.151240
31
0.0
0
ARC
8
0
10
251.926669
20
44.151240
30
0.0
40
0.500000
50
270.000000
51
360.000000
0
LINE
8
0
10
251.926669
20
43.651240
30
0.0
11
217.926669
21
43.651240
31
0.0
0
ARC
8
0
10
217.926669
20
44.151240
30
0.0
40
0.500000
50
180.000000
51
270.000000
0
LINE
8
0
10
217.426669
20
44.151240
30
0.0
11
217.426669
21
47.151240
31
0.0
0
ARC
8
0
10
217.926669
20
47.151240
30
0.0
40
0.500000
50
90.000000
51
180.000000
0
LINE
8
0
10
217.926669
20
47.651240
30
0.0
11
251.926669
21
47.651240
31
0.0
0
ARC
8
0
10
251.926669
20
47.151240
30
0.0
40
0.500000
50
360.000000
51
90.000000
0
ARC
8
0
10
212.713119
20
39.389010
30
0.0
40
0.300000
50
285.063560
51
311.538507
0
LINE
8
0
10
212.791086
20
39.099318
30
0.0
11
212.426669
21
39.001240
31
0.0
0
ARC
8
0
10
212.426669
20
39.301240
30
0.0
40
0.300000
50
90.000000
51
270.000000
0
LINE
8
0
10
212.426669
20
39.601240
30
0.0
11
212.426669
21
44.101240
31
0.0
0
ARC
8
0
10
212.626669
20
44.101240
30
0.0
40
0.200000
50
90.000000
51
180.000000
0
LINE
8
0
10
212.626669
20
44.301240
30
0.0
11
212.694558
21
44.301240
31
0.0
0
ARC
8
0
10
212.694558
20
44.001240
30
0.0
40
0.300000
50
58.619868
51
90.000000
0
LINE
8
0
10
212.850772
20
44.257359
30
0.0
11
214.526765
21
43.235126
31
0.0
0
ARC
8
0
10
214.726669
20
43.228936
30
0.0
40
0.200000
50
180.000000
51
360.000000
0
LINE
8
0
10
214.926669
20
43.228936
30
0.0
11
214.926669
21
44.612716
31
0.0
0
ARC
8
0
10
214.726669
20
44.612716
30
0.0
40
0.200000
50
360.000000
51
61.694535
0
LINE
8
0
10
214.821285
20
44.789011
30
0.0
11
213.571301
21
45.506243
31
0.0
0
ARC
8
0
10
213.919679
20
46.113394
30
0.0
40
0.700000
50
119.846880
51
240.153120
0
LINE
8
0
10
213.571301
20
46.720545
30
0.0
11
214.821285
21
47.437777
31
0.0
0
ARC
8
0
10
214.726669
20
47.614072
30
0.0
40
0.200000
50
298.305465
51
360.000000
0
LINE
8
0
10
214.926669
20
47.614072
30
0.0
11
214.926669
21
48.997852
31
0.0
0
ARC
8
0
10
214.726669
20
48.997852
30
0.0
40
0.200000
50
360.000000
51
180.000000
0
LINE
8
0
10
214.526765
20
48.991662
30
0.0
11
212.850772
21
47.969429
31
0.0
0
ARC
8
0
10
212.694558
20
48.225548
30
0.0
40
0.300000
50
270.000000
51
301.380132
0
LINE
8
0
10
212.694558
20
47.925548
30
0.0
11
212.626669
21
47.925548
31
0.0
0
ARC
8
0
10
212.626669
20
48.125548
30
0.0
40
0.200000
50
180.000000
51
270.000000
0
LINE
8
0
10
212.426669
20
48.125548
30
0.0
11
212.426669
21
52.625548
31
0.0
0
ARC
8
0
10
212.426669
20
52.925548
30
0.0
40
0.300000
50
90.000000
51
270.000000
0
LINE
8
0
10
212.426669
20
53.225548
30
0.0
11
212.791086
21
53.127470
31
0.0
0
ARC
8
0
10
212.713119
20
52.837778
30
0.0
40
0.300000
50
48.461493
51
74.936440
0
LINE
8
0
10
212.912056
20
53.062331
30
0.0
11
214.458041
21
51.692705
31
0.0
0
ARC
8
0
10
214.259104
20
51.468152
30
0.0
40
0.300000
50
344.307229
51
48.461493
0
ARC
8
0
10
214.692331
20
51.346437
30
0.0
40
0.150000
50
164.307229
51
322.253920
0
LINE
8
0
10
214.810941
20
51.254612
30
0.0
11
216.938838
21
54.003218
31
0.0
0
ARC
8
0
10
216.653930
20
54.097174
30
0.0
40
0.300000
50
341.748585
51
90.000000
0
LINE
8
0
10
216.657316
20
54.397199
30
0.0
11
216.000694
21
54.415812
31
0.0
0
ARC
8
0
10
215.986526
20
53.916013
30
0.0
40
0.500000
50
88.376251
51
128.194227
0
ARC
8
0
10
214.440703
20
55.880811
30
0.0
40
2.000000
50
236.002945
51
308.194227
0
LINE
8
0
10
213.322403
20
54.222678
30
0.0
11
212.706488
21
54.524772
31
0.0
0
ARC
8
0
10
212.926669
20
54.973682
30
0.0
40
0.500000
50
180.000000
51
243.872968
0
LINE
8
0
10
212.426669
20
54.973682
30
0.0
11
212.426669
21
58.148394
31
0.0
0
LINE
8
0
10
212.426669
20
58.148394
30
0.0
11
213.626669
21
58.148394
31
0.0
0
ARC
8
0
10
213.626669
20
58.448394
30
0.0
40
0.300000
50
270.000000
51
360.000000
0
LINE
8
0
10
213.926669
20
58.448394
30
0.0
11
213.926669
21
59.348394
31
0.0
0
ARC
8
0
10
213.626669
20
59.348394
30
0.0
40
0.300000
50
360.000000
51
90.000000
0
LINE
8
0
10
213.626669
20
59.648394
30
0.0
11
210.976669
21
59.648394
31
0.0
0
LINE
8
0
10
210.976669
20
59.648394
30
0.0
11
210.976669
21
54.647061
31
0.0
0
LINE
8
0
10
210.976669
20
54.647061
30
0.0
11
205.226669
21
54.647061
31
0.0
0
LINE
8
0
10
205.226669
20
54.647061
30
0.0
11
205.226669
21
55.247061
31
0.0
0
ARC
8
0
10
204.726669
20
55.247061
30
0.0
40
0.500000
50
360.000000
51
90.000000
0
LINE
8
0
10
204.726669
20
55.747061
30
0.0
11
203.926669
21
55.747061
31
0.0
0
LINE
8
0
10
203.926669
20
55.747061
30
0.0
11
203.926669
21
54.647061
31
0.0
0
LINE
8
0
10
203.926669
20
54.647061
30
0.0
11
201.726669
21
54.647061
31
0.0
0
LINE
8
0
10
201.726669
20
54.647061
30
0.0
11
201.726669
21
67.647061
31
0.0
0
LINE
8
0
10
201.726669
20
67.647061
30
0.0
11
203.026669
21
67.647061
31
0.0
0
LINE
8
0
10
203.026669
20
67.647061
30
0.0
11
203.026669
21
66.347061
31
0.0
0
LINE
8
0
10
203.026669
20
66.347061
30
0.0
11
203.627156
21
66.347061
31
0.0
0
ARC
8
0
10
203.627156
20
66.847061
30
0.0
40
0.500000
50
270.000000
51
358.001002
0
LINE
8
0
10
204.126852
20
66.829620
30
0.0
11
204.126852
21
68.447243
31
0.0
0
ARC
8
0
10
203.826852
20
68.447243
30
0.0
40
0.300000
50
360.000000
51
90.000000
0
LINE
8
0
10
203.826852
20
68.747243
30
0.0
11
201.926669
21
68.747243
31
0.0
0
ARC
8
0
10
201.926669
20
69.047243
30
0.0
40
0.300000
50
180.000000
51
270.000000
0
LINE
8
0
10
201.626669
20
69.047243
30
0.0
11
201.626669
21
70.348755
31
0.0
0
LINE
8
0
10
201.626669
20
70.348755
30
0.0
11
204.126687
21
70.348755
31
0.0
0
ARC
8
0
10
204.126687
20
70.848737
30
0.0
40
0.499982
50
270.000000
51
360.000000
0
LINE
8
0
10
204.626669
20
70.848737
30
0.0
11
204.626669
21
71.848701
31
0.0
0
LINE
8
0
10
204.626669
20
71.848701
30
0.0
11
204.126687
21
73.598638
31
0.0
0
LINE
8
0
10
204.126687
20
73.598638
30
0.0
11
203.626705
21
73.598638
31
0.0
0
LINE
8
0
10
203.626705
20
73.598638
30
0.0
11
203.626705
21
71.848701
31
0.0
0
LINE
8
0
10
203.626705
20
71.848701
30
0.0
11
201.626669
21
71.848701
31
0.0
0
LINE
8
0
10
201.626669
20
71.848701
30
0.0
11
201.626669
21
79.348430
31
0.0
0
LINE
8
0
10
201.626669
20
79.348430
30
0.0
11
203.626705
21
79.348430
31
0.0
0
LINE
8
0
10
203.626705
20
79.348430
30
0.0
11
203.626705
21
77.598493
31
0.0
0
LINE
8
0
10
203.626705
20
77.598493
30
0.0
11
204.126687
21
77.598493
31
0.0
0
LINE
8
0
10
204.126687
20
77.598493
30
0.0
11
204.626669
21
79.348430
31
0.0
0
LINE
8
0
10
204.626669
20
79.348430
30
0.0
11
204.626669
21
80.348394
31
0.0
0
ARC
8
0
10
204.126687
20
80.348394
30
0.0
40
0.499982
50
360.000000
51
90.000000
0
LINE
8
0
10
204.126687
20
80.848376
30
0.0
11
200.626669
21
80.848376
31
0.0
0
ARC
8
0
10
200.626669
20
80.348376
30
0.0
40
0.500000
50
90.000000
51
180.000000
0
LINE
8
0
10
200.126669
20
80.348376
30
0.0
11
200.126669
21
32.948394
31
0.0
0
ARC
8
0
10
200.626669
20
32.948394
30
0.0
40
0.500000
50
180.000000
51
270.000000
0
LINE
8
0
10
200.626669
20
32.448394
30
0.0
11
202.719562
21
32.448394
31
0.0
0
ARC
8
0
10
202.719562
20
32.948394
30
0.0
40
0.500000
50
270.000000
51
315.000000
0
LINE
8
0
10
203.073116
20
32.594841
30
0.0
11
203.780222
21
33.301947
31
0.0
0
ARC
8
0
10
203.426669
20
33.655501
30
0.0
40
0.500000
50
315.000000
51
360.000000
0
LINE
8
0
10
203.926669
20
33.655501
30
0.0
11
203.926669
21
34.448394
31
0.0
0
LINE
8
0
10
203.926669
20
34.448394
30
0.0
11
202.226669
21
34.448394
31
0.0
0
ARC
8
0
10
202.226669
20
34.748394
30
0.0
40
0.300000
50
180.000000
51
270.000000
0
LINE
8
0
10
201.926669
20
34.748394
30
0.0
11
201.926669
21
37.148394
31
0.0
0
ARC
8
0
10
202.226669
20
37.148394
30
0.0
40
0.300000
50
90.000000
51
180.000000
0
LINE
8
0
10
202.226669
20
37.448394
30
0.0
11
212.073381
21
37.448394
31
0.0
0
ARC
8
0
10
212.073381
20
37.948394
30
0.0
40
0.500000
50
270.000000
51
296.127032
0
LINE
8
0
10
212.293562
20
37.499484
30
0.0
11
213.322403
21
38.004110
31
0.0
0
ARC
8
0
10
214.440703
20
36.345977
30
0.0
40
2.000000
50
51.805773
51
123.997055
0
ARC
8
0
10
215.986526
20
38.310775
30
0.0
40
0.500000
50
231.805773
51
271.623749
0
LINE
8
0
10
216.000694
20
37.810976
30
0.0
11
216.657316
21
37.829589
31
0.0
0
ARC
8
0
10
216.653930
20
38.129614
30
0.0
40
0.300000
50
270.000000
51
18.251415
0
LINE
8
0
10
216.938838
20
38.223570
30
0.0
11
214.810941
21
40.972176
31
0.0
0
ARC
8
0
10
214.692331
20
40.880351
30
0.0
40
0.150000
50
37.746080
51
195.692771
0
ARC
8
0
10
214.259104
20
40.758636
30
0.0
40
0.300000
50
311.538507
51
15.692771
0
LINE
8
0
10
214.458041
20
40.534083
30
0.0
11
212.912056
21
39.164457
31
0.0
0
LINE
8
0
10
259.026669
20
51.148394
30
0.0
11
258.926669
21
51.148394
31
0.0
0
LINE
8
0
10
258.926669
20
51.148394
30
0.0
11
258.926669
21
40.948394
31
0.0
0
LINE
8
0
10
258.926669
20
40.948394
30
0.0
11
259.026669
21
40.948394
31
0.0
0
LINE
8
0
10
259.026669
20
40.948394
30
0.0
11
259.026669
21
38.948394
31
0.0
0
LINE
8
0
10
259.026669
20
38.948394
30
0.0
11
278.626669
21
38.948394
31
0.0
0
LINE
8
0
10
278.626669
20
38.948394
30
0.0
11
278.626669
21
53.148394
31
0.0
0
LINE
8
0
10
278.626669
20
53.148394
30
0.0
11
259.026669
21
53.148394
31
0.0
0
LINE
8
0
10
259.026669
20
53.148394
30
0.0
11
259.026669
21
51.148394
31
0.0
0
LINE
8
0
10
203.726669
20
53.148394
30
0.0
11
210.926669
21
53.148394
31
0.0
0
LINE
8
0
10
210.926669
20
53.148394
30
0.0
11
210.926669
21
38.948394
31
0.0
0
LINE
8
0
10
210.926669
20
38.948394
30
0.0
11
203.726669
21
38.948394
31
0.0
0
LINE
8
0
10
203.726669
20
38.948394
30
0.0
11
203.726669
21
40.548394
31
0.0
0
LINE
8
0
10
203.726669
20
40.548394
30
0.0
11
203.126669
21
40.548394
31
0.0
0
ARC
8
0
10
203.126669
20
40.048394
30
0.0
40
0.500000
50
90.000000
51
180.000000
0
LINE
8
0
10
202.626669
20
40.048394
30
0.0
11
202.626669
21
39.448394
31
0.0
0
ARC
8
0
10
202.126669
20
39.448394
30
0.0
40
0.500000
50
270.000000
51
360.000000
0
ARC
8
0
10
202.126669
20
39.448394
30
0.0
40
0.500000
50
180.000000
51
270.000000
0
LINE
8
0
10
201.626669
20
39.448394
30
0.0
11
201.626669
21
52.648394
31
0.0
0
ARC
8
0
10
202.126669
20
52.648394
30
0.0
40
0.500000
50
90.000000
51
180.000000
0
ARC
8
0
10
202.126669
20
52.648394
30
0.0
40
0.500000
50
360.000000
51
90.000000
0
LINE
8
0
10
202.626669
20
52.648394
30
0.0
11
202.626669
21
52.048394
31
0.0
0
ARC
8
0
10
203.126669
20
52.048394
30
0.0
40
0.500000
50
180.000000
51
270.000000
0
LINE
8
0
10
203.126669
20
51.548394
30
0.0
11
203.726669
21
51.548394
31
0.0
0
LINE
8
0
10
203.726669
20
51.548394
30
0.0
11
203.726669
21
53.148394
31
0.0
0
LINE
8
0
10
258.380222
20
32.594841
30
0.0
11
257.673116
21
33.301947
31
0.0
0
ARC
8
0
10
258.026669
20
33.655501
30
0.0
40
0.500000
50
180.000000
51
225.000000
0
LINE
8
0
10
257.526669
20
33.655501
30
0.0
11
257.526669
21
34.448394
31
0.0
0
LINE
8
0
10
257.526669
20
34.448394
30
0.0
11
259.226669
21
34.448394
31
0.0
0
ARC
8
0
10
259.226669
20
34.748394
30
0.0
40
0.300000
50
270.000000
51
360.000000
0
LINE
8
0
10
259.526669
20
34.748394
30
0.0
11
259.526669
21
37.148394
31
0.0
0
ARC
8
0
10
259.226669
20
37.148394
30
0.0
40
0.300000
50
360.000000
51
90.000000
0
LINE
8
0
10
259.226669
20
37.448394
30
0.0
11
257.645190
21
37.448394
31
0.0
0
ARC
8
0
10
257.645190
20
37.948394
30
0.0
40
0.500000
50
224.034608
51
270.000000
0
ARC
8
0
10
256.926270
20
37.253301
30
0.0
40
0.500000
50
44.034608
51
63.872968
0
LINE
8
0
10
257.146452
20
37.702211
30
0.0
11
256.530935
21
38.004110
31
0.0
0
ARC
8
0
10
255.412635
20
36.345977
30
0.0
40
2.000000
50
56.002945
51
128.194227
0
ARC
8
0
10
253.866812
20
38.310775
30
0.0
40
0.500000
50
268.376251
51
308.194227
0
LINE
8
0
10
253.852644
20
37.810976
30
0.0
11
253.196022
21
37.829589
31
0.0
0
ARC
8
0
10
253.199408
20
38.129614
30
0.0
40
0.300000
50
161.748585
51
267.394588
0
LINE
8
0
10
252.914500
20
38.223570
30
0.0
11
254.978788
21
40.890011
31
0.0
0
ARC
8
0
10
255.093934
20
40.800867
30
0.0
40
0.145621
50
360.000000
51
142.253920
0
LINE
8
0
10
255.239466
20
40.795785
30
0.0
11
255.234037
21
40.640298
31
0.0
0
ARC
8
0
10
255.433915
20
40.633318
30
0.0
40
0.200000
50
180.000000
51
231.176024
0
LINE
8
0
10
255.308529
20
40.477503
30
0.0
11
256.951699
21
39.155229
31
0.0
0
ARC
8
0
10
257.139778
20
39.388951
30
0.0
40
0.300000
50
231.176024
51
253.000000
0
LINE
8
0
10
257.052066
20
39.102060
30
0.0
11
257.426669
21
39.001240
31
0.0
0
ARC
8
0
10
257.426669
20
39.301240
30
0.0
40
0.300000
50
270.000000
51
90.000000
0
LINE
8
0
10
257.426669
20
39.601240
30
0.0
11
257.426669
21
44.101240
31
0.0
0
ARC
8
0
10
257.226669
20
44.101240
30
0.0
40
0.200000
50
360.000000
51
90.000000
0
LINE
8
0
10
257.226669
20
44.301240
30
0.0
11
257.158780
21
44.301240
31
0.0
0
ARC
8
0
10
257.158780
20
44.001240
30
0.0
40
0.300000
50
90.000000
51
121.380132
0
LINE
8
0
10
257.002566
20
44.257359
30
0.0
11
255.326573
21
43.235126
31
0.0
0
ARC
8
0
10
255.126669
20
43.228936
30
0.0
40
0.200000
50
180.000000
51
360.000000
0
LINE
8
0
10
254.926669
20
43.228936
30
0.0
11
254.926669
21
44.612716
31
0.0
0
ARC
8
0
10
255.126669
20
44.612716
30
0.0
40
0.200000
50
118.305465
51
180.000000
0
LINE
8
0
10
255.032053
20
44.789011
30
0.0
11
256.282037
21
45.506243
31
0.0
0
ARC
8
0
10
255.933659
20
46.113394
30
0.0
40
0.700000
50
299.846880
51
60.153120
0
LINE
8
0
10
256.282037
20
46.720545
30
0.0
11
255.032053
21
47.437777
31
0.0
0
ARC
8
0
10
255.126669
20
47.614072
30
0.0
40
0.200000
50
180.000000
51
241.694535
0
LINE
8
0
10
254.926669
20
47.614072
30
0.0
11
254.926669
21
48.997852
31
0.0
0
ARC
8
0
10
255.126669
20
48.997852
30
0.0
40
0.200000
50
360.000000
51
180.000000
0
LINE
8
0
10
255.326573
20
48.991662
30
0.0
11
257.002566
21
47.969429
31
0.0
0
ARC
8
0
10
257.158780
20
48.225548
30
0.0
40
0.300000
50
238.619868
51
270.000000
0
LINE
8
0
10
257.158780
20
47.925548
30
0.0
11
257.226669
21
47.925548
31
0.0
0
ARC
8
0
10
257.226669
20
48.125548
30
0.0
40
0.200000
50
270.000000
51
360.000000
0
LINE
8
0
10
257.426669
20
48.125548
30
0.0
11
257.426669
21
52.625548
31
0.0
0
ARC
8
0
10
257.426669
20
52.925548
30
0.0
40
0.300000
50
270.000000
51
90.000000
0
LINE
8
0
10
257.426669
20
53.225548
30
0.0
11
257.071644
21
53.129997
31
0.0
0
ARC
8
0
10
257.139778
20
52.837837
30
0.0
40
0.300000
50
103.127121
51
128.823976
0
LINE
8
0
10
256.951699
20
53.071560
30
0.0
11
255.308529
21
51.749285
31
0.0
0
ARC
8
0
10
255.433915
20
51.593470
30
0.0
40
0.200000
50
128.823976
51
180.000000
0
LINE
8
0
10
255.234037
20
51.586490
30
0.0
11
255.239466
21
51.431003
31
0.0
0
ARC
8
0
10
255.093934
20
51.425921
30
0.0
40
0.145621
50
217.746080
51
360.000000
0
LINE
8
0
10
254.978788
20
51.336777
30
0.0
11
252.914500
21
54.003218
31
0.0
0
ARC
8
0
10
253.199408
20
54.097174
30
0.0
40
0.300000
50
90.000000
51
198.251415
0
LINE
8
0
10
253.196022
20
54.397199
30
0.0
11
253.852644
21
54.415812
31
0.0
0
ARC
8
0
10
253.866812
20
53.916013
30
0.0
40
0.500000
50
51.805773
51
91.623749
0
ARC
8
0
10
255.412635
20
55.880811
30
0.0
40
2.000000
50
231.805773
51
322.428825
0
ARC
8
0
10
257.235607
20
54.478394
30
0.0
40
0.300000
50
90.000000
51
142.428825
0
LINE
8
0
10
257.235607
20
54.778394
30
0.0
11
258.326669
21
54.778394
31
0.0
0
ARC
8
0
10
258.326669
20
55.278394
30
0.0
40
0.500000
50
270.000000
51
360.000000
0
LINE
8
0
10
258.826669
20
55.278394
30
0.0
11
258.826669
21
59.148394
31
0.0
0
ARC
8
0
10
259.326669
20
59.148394
30
0.0
40
0.500000
50
90.000000
51
180.000000
0
LINE
8
0
10
259.326669
20
59.648394
30
0.0
11
261.419562
21
59.648394
31
0.0
0
ARC
8
0
10
261.419562
20
59.148394
30
0.0
40
0.500000
50
45.000000
51
90.000000
0
LINE
8
0
10
261.773116
20
59.501947
30
0.0
11
262.480222
21
58.794841
31
0.0
0
ARC
8
0
10
262.126669
20
58.441287
30
0.0
40
0.500000
50
360.000000
51
45.000000
0
LINE
8
0
10
262.626669
20
58.441287
30
0.0
11
262.626669
21
57.648394
31
0.0
0
LINE
8
0
10
262.626669
20
57.648394
30
0.0
11
260.926669
21
57.648394
31
0.0
0
ARC
8
0
10
260.926669
20
57.348394
30
0.0
40
0.300000
50
90.000000
51
180.000000
0
LINE
8
0
10
260.626669
20
57.348394
30
0.0
11
260.626669
21
54.948394
31
0.0
0
ARC
8
0
10
260.926669
20
54.948394
30
0.0
40
0.300000
50
180.000000
51
270.000000
0
LINE
8
0
10
260.926669
20
54.648394
30
0.0
11
278.326669
21
54.648394
31
0.0
0
ARC
8
0
10
278.326669
20
54.948394
30
0.0
40
0.300000
50
270.000000
51
360.000000
0
LINE
8
0
10
278.626669
20
54.948394
30
0.0
11
278.626669
21
57.348394
31
0.0
0
ARC
8
0
10
278.326669
20
57.348394
30
0.0
40
0.300000
50
360.000000
51
90.000000
0
LINE
8
0
10
278.326669
20
57.648394
30
0.0
11
276.626669
21
57.648394
31
0.0
0
LINE
8
0
10
276.626669
20
57.648394
30
0.0
11
276.626669
21
58.441287
31
0.0
0
ARC
8
0
10
277.126669
20
58.441287
30
0.0
40
0.500000
50
135.000000
51
180.000000
0
LINE
8
0
10
276.773116
20
58.794841
30
0.0
11
277.480222
21
59.501947
31
0.0
0
ARC
8
0
10
277.833776
20
59.148394
30
0.0
40
0.500000
50
90.000000
51
135.000000
0
LINE
8
0
10
277.833776
20
59.648394
30
0.0
11
279.826669
21
59.648394
31
0.0
0
ARC
8
0
10
279.826669
20
59.348394
30
0.0
40
0.300000
50
360.000000
51
90.000000
0
LINE
8
0
10
280.126669
20
59.348394
30
0.0
11
280.126669
21
32.948394
31
0.0
0
ARC
8
0
10
279.626669
20
32.948394
30
0.0
40
0.500000
50
270.000000
51
360.000000
0
LINE
8
0
10
279.626669
20
32.448394
30
0.0
11
277.533776
21
32.448394
31
0.0
0
ARC
8
0
10
277.533776
20
32.948394
30
0.0
40
0.500000
50
225.000000
51
270.000000
0
LINE
8
0
10
277.180222
20
32.594841
30
0.0
11
276.473116
21
33.301947
31
0.0
0
ARC
8
0
10
276.826669
20
33.655501
30
0.0
40
0.500000
50
180.000000
51
225.000000
0
LINE
8
0
10
276.326669
20
33.655501
30
0.0
11
276.326669
21
34.448394
31
0.0
0
LINE
8
0
10
276.326669
20
34.448394
30
0.0
11
278.026669
21
34.448394
31
0.0
0
ARC
8
0
10
278.026669
20
34.748394
30
0.0
40
0.300000
50
270.000000
51
360.000000
0
LINE
8
0
10
278.326669
20
34.748394
30
0.0
11
278.326669
21
37.148394
31
0.0
0
ARC
8
0
10
278.026669
20
37.148394
30
0.0
40
0.300000
50
360.000000
51
90.000000
0
LINE
8
0
10
278.026669
20
37.448394
30
0.0
11
261.626669
21
37.448394
31
0.0
0
ARC
8
0
10
261.626669
20
37.148394
30
0.0
40
0.300000
50
90.000000
51
180.000000
0
LINE
8
0
10
261.326669
20
37.148394
30
0.0
11
261.326669
21
34.748394
31
0.0
0
ARC
8
0
10
261.626669
20
34.748394
30
0.0
40
0.300000
50
180.000000
51
270.000000
0
LINE
8
0
10
261.626669
20
34.448394
30
0.0
11
262.026669
21
34.848394
31
0.0
0
LINE
8
0
10
262.026669
20
34.848394
30
0.0
11
262.426669
21
34.448394
31
0.0
0
LINE
8
0
10
262.426669
20
34.448394
30
0.0
11
263.326669
21
34.448394
31
0.0
0
LINE
8
0
10
263.326669
20
34.448394
30
0.0
11
263.326669
21
33.655501
31
0.0
0
ARC
8
0
10
262.826669
20
33.655501
30
0.0
40
0.500000
50
315.000000
51
360.000000
0
LINE
8
0
10
263.180222
20
33.301947
30
0.0
11
262.473116
21
32.594841
31
0.0
0
ARC
8
0
10
262.119562
20
32.948394
30
0.0
40
0.500000
50
270.000000
51
315.000000
0
LINE
8
0
10
262.119562
20
32.448394
30
0.0
11
258.733776
21
32.448394
31
0.0
0
ARC
8
0
10
258.733776
20
32.948394
30
0.0
40
0.500000
50
225.000000
51
270.000000
0
LINE
8
0
10
212.426669
20
51.218394
30
0.0
11
213.421209
21
52.212934
31
0.0
0
LINE
8
0
10
212.426669
20
48.973330
30
0.0
11
214.874242
21
51.420903
31
0.0
0
LINE
8
0
10
214.890606
20
49.192203
30
0.0
11
216.846219
21
51.147816
31
0.0
0
LINE
8
0
10
218.803388
20
53.104985
30
0.0
11
219.903388
21
54.204985
31
0.0
0
LINE
8
0
10
216.972588
20
49.029121
30
0.0
11
217.922128
21
49.978661
31
0.0
0
LINE
8
0
10
221.048452
20
53.104985
30
0.0
11
222.148452
21
54.204985
31
0.0
0
LINE
8
0
10
218.881126
20
48.692594
30
0.0
11
219.830665
21
49.642134
31
0.0
0
LINE
8
0
10
223.293516
20
53.104985
30
0.0
11
224.393516
21
54.204985
31
0.0
0
LINE
8
0
10
220.938580
20
48.504985
30
0.0
11
222.038580
21
49.604985
31
0.0
0
LINE
8
0
10
225.521512
20
53.087917
30
0.0
11
226.638580
21
54.204985
31
0.0
0
LINE
8
0
10
223.183644
20
48.504985
30
0.0
11
224.283644
21
49.604985
31
0.0
0
LINE
8
0
10
227.783644
20
53.104985
30
0.0
11
228.883644
21
54.204985
31
0.0
0
LINE
8
0
10
225.891989
20
51.213330
30
0.0
11
226.691989
21
52.013330
31
0.0
0
LINE
8
0
10
225.428708
20
48.504985
30
0.0
11
226.766350
21
49.842627
31
0.0
0
LINE
8
0
10
230.028708
20
53.104985
30
0.0
11
231.128708
21
54.204985
31
0.0
0
LINE
8
0
10
227.673772
20
48.504985
30
0.0
11
228.773772
21
49.604985
31
0.0
0
LINE
8
0
10
232.273772
20
53.104985
30
0.0
11
233.373772
21
54.204985
31
0.0
0
LINE
8
0
10
229.918836
20
48.504985
30
0.0
11
231.018836
21
49.604985
31
0.0
0
LINE
8
0
10
234.376284
20
52.962433
30
0.0
11
235.618836
21
54.204985
31
0.0
0
LINE
8
0
10
232.163900
20
48.504985
30
0.0
11
233.263900
21
49.604985
31
0.0
0
LINE
8
0
10
236.763900
20
53.104985
30
0.0
11
237.863900
21
54.204985
31
0.0
0
LINE
8
0
10
234.526669
20
50.867754
30
0.0
11
235.326669
21
51.667754
31
0.0
0
LINE
8
0
10
234.408964
20
48.504985
30
0.0
11
235.576214
21
49.672235
31
0.0
0
LINE
8
0
10
239.008964
20
53.104985
30
0.0
11
240.108964
21
54.204985
31
0.0
0
LINE
8
0
10
236.654028
20
48.504985
30
0.0
11
237.754028
21
49.604985
31
0.0
0
LINE
8
0
10
241.254028
20
53.104985
30
0.0
11
242.354028
21
54.204985
31
0.0
0
LINE
8
0
10
238.899092
20
48.504985
30
0.0
11
239.999092
21
49.604985
31
0.0
0
LINE
8
0
10
243.140837
20
52.746729
30
0.0
11
244.599092
21
54.204985
31
0.0
0
LINE
8
0
10
241.144156
20
48.504985
30
0.0
11
242.244156
21
49.604985
31
0.0
0
LINE
8
0
10
245.744156
20
53.104985
30
0.0
11
246.844156
21
54.204985
31
0.0
0
LINE
8
0
10
243.161349
20
50.522177
30
0.0
11
243.961349
21
51.322177
31
0.0
0
LINE
8
0
10
243.389220
20
48.504985
30
0.0
11
244.489220
21
49.604985
31
0.0
0
LINE
8
0
10
247.989220
20
53.104985
30
0.0
11
249.089220
21
54.204985
31
0.0
0
LINE
8
0
10
245.634284
20
48.504985
30
0.0
11
246.734284
21
49.604985
31
0.0
0
LINE
8
0
10
250.234284
20
53.104985
30
0.0
11
251.334284
21
54.204985
31
0.0
0
LINE
8
0
10
247.879348
20
48.504985
30
0.0
11
248.979348
21
49.604985
31
0.0
0
LINE
8
0
10
252.031169
20
52.656806
30
0.0
11
252.811958
21
53.437594
31
0.0
0
LINE
8
0
10
250.170692
20
48.551265
30
0.0
11
251.526776
21
49.907348
31
0.0
0
LINE
8
0
10
252.976139
20
51.356711
30
0.0
11
253.836281
21
52.216853
31
0.0
0
LINE
8
0
10
252.896366
20
49.031875
30
0.0
11
255.591053
21
51.726561
31
0.0
0
LINE
8
0
10
255.212055
20
49.102500
30
0.0
11
257.426669
21
51.317113
31
0.0
0
LINE
8
0
10
256.634582
20
48.279962
30
0.0
11
257.426669
21
49.072049
31
0.0
0
LINE
8
0
10
212.746535
20
48.213094
30
0.0
11
212.434778
21
48.524851
31
0.0
0
LINE
8
0
10
214.299668
20
48.905025
30
0.0
11
212.426669
21
50.778024
31
0.0
0
LINE
8
0
10
216.302477
20
49.147280
30
0.0
11
213.044995
21
52.404761
31
0.0
0
LINE
8
0
10
219.028151
20
48.666670
30
0.0
11
217.667722
21
50.027099
31
0.0
0
LINE
8
0
10
216.880247
20
50.814574
30
0.0
11
215.771094
21
51.923726
31
0.0
0
LINE
8
0
10
221.434900
20
48.504985
30
0.0
11
220.334900
21
49.604985
31
0.0
0
LINE
8
0
10
217.576206
20
52.363679
30
0.0
11
216.795418
21
53.144467
31
0.0
0
LINE
8
0
10
223.679964
20
48.504985
30
0.0
11
222.579964
21
49.604985
31
0.0
0
LINE
8
0
10
219.079964
20
53.104985
30
0.0
11
217.992675
21
54.192274
31
0.0
0
LINE
8
0
10
225.925028
20
48.504985
30
0.0
11
224.825028
21
49.604985
31
0.0
0
LINE
8
0
10
221.325028
20
53.104985
30
0.0
11
220.225028
21
54.204985
31
0.0
0
LINE
8
0
10
228.170092
20
48.504985
30
0.0
11
227.049300
21
49.625777
31
0.0
0
LINE
8
0
10
223.570092
20
53.104985
30
0.0
11
222.470092
21
54.204985
31
0.0
0
LINE
8
0
10
226.712781
20
49.962296
30
0.0
11
225.891989
21
50.783088
31
0.0
0
LINE
8
0
10
230.415156
20
48.504985
30
0.0
11
229.315156
21
49.604985
31
0.0
0
LINE
8
0
10
226.691989
20
52.228152
30
0.0
11
224.715156
21
54.204985
31
0.0
0
LINE
8
0
10
232.660220
20
48.504985
30
0.0
11
231.560220
21
49.604985
31
0.0
0
LINE
8
0
10
228.060220
20
53.104985
30
0.0
11
226.960220
21
54.204985
31
0.0
0
LINE
8
0
10
234.905284
20
48.504985
30
0.0
11
233.805284
21
49.604985
31
0.0
0
LINE
8
0
10
230.305284
20
53.104985
30
0.0
11
229.205284
21
54.204985
31
0.0
0
LINE
8
0
10
237.150349
20
48.504985
30
0.0
11
236.050349
21
49.604985
31
0.0
0
LINE
8
0
10
232.550349
20
53.104985
30
0.0
11
231.450349
21
54.204985
31
0.0
0
LINE
8
0
10
235.326669
20
50.328664
30
0.0
11
234.526669
21
51.128664
31
0.0
0
LINE
8
0
10
239.395413
20
48.504985
30
0.0
11
238.295413
21
49.604985
31
0.0
0
LINE
8
0
10
235.326669
20
52.573728
30
0.0
11
233.695413
21
54.204985
31
0.0
0
LINE
8
0
10
241.640477
20
48.504985
30
0.0
11
240.540477
21
49.604985
31
0.0
0
LINE
8
0
10
237.040477
20
53.104985
30
0.0
11
235.940477
21
54.204985
31
0.0
0
LINE
8
0
10
243.885541
20
48.504985
30
0.0
11
242.772931
21
49.617594
31
0.0
0
LINE
8
0
10
239.285541
20
53.104985
30
0.0
11
238.185541
21
54.204985
31
0.0
0
LINE
8
0
10
246.130605
20
48.504985
30
0.0
11
245.030605
21
49.604985
31
0.0
0
LINE
8
0
10
241.530605
20
53.104985
30
0.0
11
240.430605
21
54.204985
31
0.0
0
LINE
8
0
10
243.961349
20
50.674240
30
0.0
11
243.161349
21
51.474240
31
0.0
0
LINE
8
0
10
248.375669
20
48.504985
30
0.0
11
247.275669
21
49.604985
31
0.0
0
LINE
8
0
10
244.027363
20
52.853291
30
0.0
11
242.675669
21
54.204985
31
0.0
0
LINE
8
0
10
250.513930
20
48.611787
30
0.0
11
249.520733
21
49.604985
31
0.0
0
LINE
8
0
10
246.020733
20
53.104985
30
0.0
11
244.920733
21
54.204985
31
0.0
0
LINE
8
0
10
252.422468
20
48.948314
30
0.0
11
251.472928
21
49.897853
31
0.0
0
LINE
8
0
10
248.265797
20
53.104985
30
0.0
11
247.165797
21
54.204985
31
0.0
0
LINE
8
0
10
254.410861
20
49.204985
30
0.0
11
252.930695
21
50.685151
31
0.0
0
LINE
8
0
10
250.510861
20
53.104985
30
0.0
11
249.410861
21
54.204985
31
0.0
0
LINE
8
0
10
257.399871
20
48.461039
30
0.0
11
251.655925
21
54.204985
31
0.0
0
LINE
8
0
10
257.426669
20
50.679304
30
0.0
11
256.090560
21
52.015414
31
0.0
0
LINE
8
0
10
225.391989
20
53.104985
30
0.0
11
218.478020
21
53.104985
31
0.0
0
ARC
8
0
10
218.478020
20
52.504985
30
0.0
40
0.600000
50
90.000000
51
140.000000
0
LINE
8
0
10
218.018394
20
52.890657
30
0.0
11
217.102134
21
51.798702
31
0.0
0
ARC
8
0
10
217.944783
20
51.091635
30
0.0
40
1.100000
50
140.000000
51
260.000000
0
LINE
8
0
10
217.753770
20
50.008347
30
0.0
11
219.989655
21
49.614100
31
0.0
0
ARC
8
0
10
220.093844
20
50.204985
30
0.0
40
0.600000
50
260.000000
51
270.000000
0
LINE
8
0
10
220.093844
20
49.604985
30
0.0
11
225.391989
21
49.604985
31
0.0
0
ARC
8
0
10
225.391989
20
50.104985
30
0.0
40
0.500000
50
270.000000
51
360.000000
0
LINE
8
0
10
225.891989
20
50.104985
30
0.0
11
225.891989
21
52.604985
31
0.0
0
ARC
8
0
10
225.391989
20
52.604985
30
0.0
40
0.500000
50
360.000000
51
90.000000
0
ARC
8
0
10
227.191989
20
52.604985
30
0.0
40
0.500000
50
90.000000
51
180.000000
0
LINE
8
0
10
226.691989
20
52.604985
30
0.0
11
226.691989
21
50.104985
31
0.0
0
ARC
8
0
10
227.191989
20
50.104985
30
0.0
40
0.500000
50
180.000000
51
270.000000
0
LINE
8
0
10
227.191989
20
49.604985
30
0.0
11
234.026669
21
49.604985
31
0.0
0
ARC
8
0
10
234.026669
20
50.104985
30
0.0
40
0.500000
50
270.000000
51
360.000000
0
LINE
8
0
10
234.526669
20
50.104985
30
0.0
11
234.526669
21
52.604985
31
0.0
0
ARC
8
0
10
234.026669
20
52.604985
30
0.0
40
0.500000
50
360.000000
51
90.000000
0
LINE
8
0
10
234.026669
20
53.104985
30
0.0
11
227.191989
21
53.104985
31
0.0
0
ARC
8
0
10
242.661349
20
50.104985
30
0.0
40
0.500000
50
270.000000
51
360.000000
0
LINE
8
0
10
243.161349
20
50.104985
30
0.0
11
243.161349
21
52.604985
31
0.0
0
ARC
8
0
10
242.661349
20
52.604985
30
0.0
40
0.500000
50
360.000000
51
90.000000
0
LINE
8
0
10
242.661349
20
53.104985
30
0.0
11
235.826669
21
53.104985
31
0.0
0
ARC
8
0
10
235.826669
20
52.604985
30
0.0
40
0.500000
50
90.000000
51
180.000000
0
LINE
8
0
10
235.326669
20
52.604985
30
0.0
11
235.326669
21
50.104985
31
0.0
0
ARC
8
0
10
235.826669
20
50.104985
30
0.0
40
0.500000
50
180.000000
51
270.000000
0
LINE
8
0
10
235.826669
20
49.604985
30
0.0
11
242.661349
21
49.604985
31
0.0
0
LINE
8
0
10
213.131519
20
52.380454
30
0.0
11
213.035549
21
52.404985
31
0.0
0
LINE
8
0
10
213.035549
20
52.404985
30
0.0
11
212.826669
21
52.404985
31
0.0
0
ARC
8
0
10
212.826669
20
52.004985
30
0.0
40
0.400000
50
90.000000
51
180.000000
0
LINE
8
0
10
212.426669
20
52.004985
30
0.0
11
212.426669
21
48.604985
31
0.0
0
ARC
8
0
10
212.826669
20
48.604985
30
0.0
40
0.400000
50
180.000000
51
270.000000
0
LINE
8
0
10
212.826669
20
48.204985
30
0.0
11
213.035549
21
48.204985
31
0.0
0
LINE
8
0
10
213.035549
20
48.204985
30
0.0
11
213.131519
21
48.229515
31
0.0
0
LINE
8
0
10
213.131519
20
48.229515
30
0.0
11
214.632558
21
49.097528
31
0.0
0
ARC
8
0
10
215.033038
20
48.404985
30
0.0
40
0.800000
50
90.000000
51
120.039706
0
LINE
8
0
10
215.033038
20
49.204985
30
0.0
11
215.948969
21
49.204985
31
0.0
0
LINE
8
0
10
216.001064
20
49.200427
30
0.0
11
215.948969
21
49.204985
31
0.0
0
LINE
8
0
10
216.001064
20
49.200427
30
0.0
11
219.919265
21
48.509542
31
0.0
0
LINE
8
0
10
219.919265
20
48.509542
30
0.0
11
219.971360
21
48.504985
31
0.0
0
LINE
8
0
10
219.971360
20
48.504985
30
0.0
11
234.926669
21
48.504985
31
0.0
0
LINE
8
0
10
234.926669
20
48.504985
30
0.0
11
249.881978
21
48.504985
31
0.0
0
LINE
8
0
10
249.881978
20
48.504985
30
0.0
11
249.934073
21
48.509542
31
0.0
0
LINE
8
0
10
249.934073
20
48.509542
30
0.0
11
253.852274
21
49.200427
31
0.0
0
LINE
8
0
10
253.904369
20
49.204985
30
0.0
11
253.852274
21
49.200427
31
0.0
0
LINE
8
0
10
253.904369
20
49.204985
30
0.0
11
254.820300
21
49.204985
31
0.0
0
ARC
8
0
10
254.820300
20
48.404985
30
0.0
40
0.800000
50
59.960294
51
90.000000
0
LINE
8
0
10
255.220780
20
49.097528
30
0.0
11
256.721819
21
48.229515
31
0.0
0
LINE
8
0
10
256.721819
20
48.229515
30
0.0
11
256.817789
21
48.204985
31
0.0
0
LINE
8
0
10
256.817789
20
48.204985
30
0.0
11
257.026669
21
48.204985
31
0.0
0
ARC
8
0
10
257.026669
20
48.604985
30
0.0
40
0.400000
50
270.000000
51
360.000000
0
LINE
8
0
10
257.426669
20
48.604985
30
0.0
11
257.426669
21
52.004985
31
0.0
0
ARC
8
0
10
257.026669
20
52.004985
30
0.0
40
0.400000
50
360.000000
51
90.000000
0
LINE
8
0
10
257.026669
20
52.404985
30
0.0
11
256.817789
21
52.404985
31
0.0
0
LINE
8
0
10
256.817789
20
52.404985
30
0.0
11
256.721819
21
52.380454
31
0.0
0
LINE
8
0
10
256.721819
20
52.380454
30
0.0
11
255.220780
21
51.512442
31
0.0
0
ARC
8
0
10
254.820300
20
52.204985
30
0.0
40
0.800000
50
270.000000
51
300.039706
0
LINE
8
0
10
254.820300
20
51.404985
30
0.0
11
254.657403
21
51.404985
31
0.0
0
ARC
8
0
10
254.657403
20
51.704985
30
0.0
40
0.300000
50
219.610000
51
270.000000
0
LINE
8
0
10
254.426282
20
51.513717
30
0.0
11
252.467777
21
53.847772
31
0.0
0
ARC
8
0
10
251.701733
20
53.204985
30
0.0
40
1.000000
50
40.000000
51
90.000000
0
LINE
8
0
10
251.701733
20
54.204985
30
0.0
11
234.926669
21
54.204985
31
0.0
0
LINE
8
0
10
234.926669
20
54.204985
30
0.0
11
218.151605
21
54.204985
31
0.0
0
ARC
8
0
10
218.151605
20
53.204985
30
0.0
40
1.000000
50
90.000000
51
140.000000
0
LINE
8
0
10
217.385561
20
53.847772
30
0.0
11
215.427056
21
51.513717
31
0.0
0
ARC
8
0
10
215.195935
20
51.704985
30
0.0
40
0.300000
50
270.000000
51
320.390000
0
LINE
8
0
10
215.195935
20
51.404985
30
0.0
11
215.033038
21
51.404985
31
0.0
0
ARC
8
0
10
215.033038
20
52.204985
30
0.0
40
0.800000
50
239.960294
51
270.000000
0
LINE
8
0
10
214.632558
20
51.512442
30
0.0
11
213.131519
21
52.380454
31
0.0
0
ARC
8
0
10
251.375318
20
52.504985
30
0.0
40
0.600000
50
40.000000
51
90.000000
0
LINE
8
0
10
251.375318
20
53.104985
30
0.0
11
244.461349
21
53.104985
31
0.0
0
ARC
8
0
10
244.461349
20
52.604985
30
0.0
40
0.500000
50
90.000000
51
180.000000
0
LINE
8
0
10
243.961349
20
52.604985
30
0.0
11
243.961349
21
50.104985
31
0.0
0
ARC
8
0
10
244.461349
20
50.104985
30
0.0
40
0.500000
50
180.000000
51
270.000000
0
LINE
8
0
10
244.461349
20
49.604985
30
0.0
11
249.759494
21
49.604985
31
0.0
0
ARC
8
0
10
249.759494
20
50.204985
30
0.0
40
0.600000
50
270.000000
51
280.000000
0
LINE
8
0
10
249.863683
20
49.614100
30
0.0
11
252.099568
21
50.008347
31
0.0
0
ARC
8
0
10
251.908555
20
51.091635
30
0.0
40
1.100000
50
280.000000
51
40.000000
0
LINE
8
0
10
252.751204
20
51.798702
30
0.0
11
251.834944
21
52.890657
31
0.0
0
ATTDEF
8
0
10
0.000000
20
0.000000
30
0.0
40
3.5
1

3

2
PANE_WIDTH:0
70
0
0
ATTDEF
8
0
10
0.000000
20
0.000000
30
0.0
40
3.5
1

3

2
MIN_VETRO:0
70
0
0
ATTDEF
8
0
10
0.000000
20
0.000000
30
0.0
40
3.5
1

3

2
MAX_VETRO:0
70
0
0
ATTDEF
8
0
10
0.000000
20
0.000000
30
0.0
40
3.5
1

3

2
JX:0
70
0
0
ATTDEF
8
0
10
0.000000
20
0.000000
30
0.0
40
3.5
1

3

2
WX:0
70
0
0
ATTDEF
8
0
10
0.000000
20
0.000000
30
0.0
40
3.5
1

3

2
JY:0
70
0
0
ATTDEF
8
0
10
0.000000
20
0.000000
30
0.0
40
3.5
1

3

2
WY:0
70
0
0
ATTDEF
8
0
10
0.000000
20
0.000000
30
0.0
40
3.5
1

3

2
DESC:Marco ventana apert.exter.HI
70
0
0
ATTDEF
8
0
10
0.000000
20
0.000000
30
0.0
40
3.5
1

3

2
DENS:1.6098
70
0
0
ATTDEF
8
0
10
0.000000
20
0.000000
30
0.0
40
3.5
1

3

2
TDEV:47.37
70
0
0
ATTDEF
8
0
10
0.000000
20
0.000000
30
0.0
40
3.5
1

3

2
TDEV2:0
70
0
0
ATTDEF
8
0
10
0.000000
20
0.000000
30
0.0
40
3.5
1

3

2
TDEV3:0
70
0
0
ATTDEF
8
0
10
0.000000
20
0.000000
30
0.0
40
3.5
1

3

2
TDEV4:0
70
0
0
ATTDEF
8
0
10
0.000000
20
0.000000
30
0.0
40
3.5
1

3

2
TDEV5:0
70
0
0
ATTDEF
8
0
10
0.000000
20
0.000000
30
0.0
40
3.5
1

3

2
PANE_WIDTH:0
70
0
0
ATTDEF
8
0
10
0.000000
20
0.000000
30
0.0
40
3.5
1

3

2
MIN_VETRO:0
70
0
0
ATTDEF
8
0
10
0.000000
20
0.000000
30
0.0
40
3.5
1

3

2
MAX_VETRO:0
70
0
0
ATTDEF
8
0
10
0.000000
20
0.000000
30
0.0
40
3.5
1

3

2
JX:0
70
0
0
ATTDEF
8
0
10
0.000000
20
0.000000
30
0.0
40
3.5
1

3

2
WX:0
70
0
0
ATTDEF
8
0
10
0.000000
20
0.000000
30
0.0
40
3.5
1

3

2
JY:0
70
0
0
ATTDEF
8
0
10
0.000000
20
0.000000
30
0.0
40
3.5
1

3

2
WY:0
70
0
0
ATTDEF
8
0
10
278.830222
20
59.648394
30
0.0
40
3.5
1

3

2
VC_START
70
0
0
ATTDEF
8
0
10
201.673115
20
32.448394
30
0.0
40
3.5
1

3

2
VC_END
70
0
0
ATTDEF
8
0
10
200.126669
20
32.448394
30
0.0
40
3.5
1

3

2
FP_LCS_ORIG
70
0
0
ATTDEF
8
0
10
210.126669
20
32.448394
30
0.0
40
3.5
1

3

2
FP_LCS_HOT
70
0
0
ATTDEF
8
0
10
200.126669
20
42.448394
30
0.0
40
3.5
1

3

2
FP_LCS_INTERN
70
0
0
ENDSEC
0
EOF
