0
SECTION
2
ENTITIES
0
LINE
8
0
10
198.109029
20
-13.442204
30
0.0
11
198.109029
21
-5.442204
31
0.0
0
LINE
8
0
10
198.109029
20
-5.442204
30
0.0
11
198.409029
21
-5.442204
31
0.0
0
LINE
8
0
10
198.409029
20
-5.442204
30
0.0
11
198.409029
21
0.409410
31
0.0
0
LINE
8
0
10
198.409029
20
0.409410
30
0.0
11
187.709029
21
0.409410
31
0.0
0
LINE
8
0
10
187.709029
20
0.409410
30
0.0
11
187.709029
21
-19.192204
31
0.0
0
LINE
8
0
10
187.709029
20
-19.192204
30
0.0
11
198.409029
21
-19.192204
31
0.0
0
LINE
8
0
10
198.409029
20
-19.192204
30
0.0
11
198.409029
21
-13.442204
31
0.0
0
LINE
8
0
10
198.409029
20
-13.442204
30
0.0
11
198.109029
21
-13.442204
31
0.0
0
LINE
8
0
10
171.902254
20
57.807796
30
0.0
11
171.902254
21
54.657796
31
0.0
0
LINE
8
0
10
171.902254
20
54.657796
30
0.0
11
175.636759
21
54.657796
31
0.0
0
LINE
8
0
10
175.636759
20
54.657796
30
0.0
11
175.636759
21
50.907796
31
0.0
0
LINE
8
0
10
175.636759
20
50.907796
30
0.0
11
175.107006
21
50.907796
31
0.0
0
LINE
8
0
10
175.107006
20
50.907796
30
0.0
11
175.107006
21
48.507796
31
0.0
0
LINE
8
0
10
175.107006
20
48.507796
30
0.0
11
203.109029
21
48.507796
31
0.0
0
LINE
8
0
10
203.109029
20
48.507796
30
0.0
11
203.109029
21
57.807796
31
0.0
0
LINE
8
0
10
203.109029
20
57.807796
30
0.0
11
171.902254
21
57.807796
31
0.0
0
LINE
8
0
10
197.287999
20
44.508851
30
0.0
11
197.313135
21
44.507796
31
0.0
0
LINE
8
0
10
197.313135
20
44.507796
30
0.0
11
198.828487
21
44.507796
31
0.0
0
ARC
8
0
10
198.828487
20
44.707796
30
0.0
40
0.200000
50
270.000000
51
90.000000
0
LINE
8
0
10
198.822296
20
44.907700
30
0.0
11
197.800064
21
46.583693
31
0.0
0
ARC
8
0
10
198.056183
20
46.739907
30
0.0
40
0.300000
50
180.000000
51
211.380132
0
LINE
8
0
10
197.756183
20
46.739907
30
0.0
11
197.756183
21
46.807796
31
0.0
0
ARC
8
0
10
197.956183
20
46.807796
30
0.0
40
0.200000
50
90.000000
51
180.000000
0
LINE
8
0
10
197.956183
20
47.007796
30
0.0
11
202.456183
21
47.007796
31
0.0
0
ARC
8
0
10
202.756183
20
47.007796
30
0.0
40
0.300000
50
360.000000
51
180.000000
0
LINE
8
0
10
203.056183
20
47.007796
30
0.0
11
202.960632
21
46.652771
31
0.0
0
ARC
8
0
10
202.668471
20
46.720904
30
0.0
40
0.300000
50
321.176024
51
346.872879
0
LINE
8
0
10
202.902194
20
46.532825
30
0.0
11
201.579919
21
44.889656
31
0.0
0
ARC
8
0
10
201.424104
20
45.015042
30
0.0
40
0.200000
50
270.000000
51
321.176024
0
LINE
8
0
10
201.417124
20
44.815164
30
0.0
11
201.261637
21
44.820593
31
0.0
0
ARC
8
0
10
201.256555
20
44.675061
30
0.0
40
0.145621
50
90.000000
51
232.253920
0
LINE
8
0
10
201.167412
20
44.559914
30
0.0
11
203.833853
21
42.495627
31
0.0
0
ARC
8
0
10
203.927809
20
42.780534
30
0.0
40
0.300000
50
251.748585
51
360.000000
0
LINE
8
0
10
204.227833
20
42.777149
30
0.0
11
204.246447
21
43.433771
31
0.0
0
ARC
8
0
10
203.746648
20
43.447939
30
0.0
40
0.500000
50
358.376251
51
38.194227
0
ARC
8
0
10
205.711446
20
44.993762
30
0.0
40
2.000000
50
146.002945
51
218.194227
0
LINE
8
0
10
204.053313
20
46.112062
30
0.0
11
204.258522
21
46.530446
31
0.0
0
ARC
8
0
10
204.975762
20
46.311204
30
0.0
40
0.750000
50
129.418775
51
163.002946
0
LINE
8
0
10
204.499524
20
46.890598
30
0.0
11
204.525904
21
46.915076
31
0.0
0
ARC
8
0
10
204.742780
20
46.707796
30
0.0
40
0.300000
50
90.000000
51
136.295996
0
LINE
8
0
10
204.742780
20
47.007796
30
0.0
11
208.111777
21
47.007796
31
0.0
0
LINE
8
0
10
208.111777
20
47.007796
30
0.0
11
208.111777
21
45.807796
31
0.0
0
ARC
8
0
10
208.411777
20
45.807796
30
0.0
40
0.300000
50
180.000000
51
270.000000
0
LINE
8
0
10
208.411777
20
45.507796
30
0.0
11
209.311777
21
45.507796
31
0.0
0
ARC
8
0
10
209.311777
20
45.807796
30
0.0
40
0.300000
50
270.000000
51
360.000000
0
LINE
8
0
10
209.611777
20
45.807796
30
0.0
11
209.611777
21
48.457796
31
0.0
0
LINE
8
0
10
209.611777
20
48.457796
30
0.0
11
204.909029
21
48.457796
31
0.0
0
ARC
8
0
10
204.909029
20
48.757796
30
0.0
40
0.300000
50
180.000000
51
270.000000
0
LINE
8
0
10
204.609029
20
48.757796
30
0.0
11
204.609029
21
57.807796
31
0.0
0
LINE
8
0
10
204.609029
20
57.807796
30
0.0
11
220.312138
21
57.807796
31
0.0
0
LINE
8
0
10
220.312138
20
57.807796
30
0.0
11
220.312138
21
55.307778
31
0.0
0
ARC
8
0
10
220.812120
20
55.307778
30
0.0
40
0.499982
50
180.000000
51
270.000000
0
LINE
8
0
10
220.812120
20
54.807796
30
0.0
11
221.812084
21
54.807796
31
0.0
0
LINE
8
0
10
221.812084
20
54.807796
30
0.0
11
223.562020
21
55.307778
31
0.0
0
LINE
8
0
10
223.562020
20
55.307778
30
0.0
11
223.562020
21
55.807760
31
0.0
0
LINE
8
0
10
223.562020
20
55.807760
30
0.0
11
221.812084
21
55.807760
31
0.0
0
LINE
8
0
10
221.812084
20
55.807760
30
0.0
11
221.812084
21
57.807796
31
0.0
0
LINE
8
0
10
221.812084
20
57.807796
30
0.0
11
229.311813
21
57.807796
31
0.0
0
LINE
8
0
10
229.311813
20
57.807796
30
0.0
11
229.311813
21
55.807760
31
0.0
0
LINE
8
0
10
229.311813
20
55.807760
30
0.0
11
227.561876
21
55.807760
31
0.0
0
LINE
8
0
10
227.561876
20
55.807760
30
0.0
11
227.561876
21
55.307778
31
0.0
0
LINE
8
0
10
227.561876
20
55.307778
30
0.0
11
229.311813
21
54.807796
31
0.0
0
LINE
8
0
10
229.311813
20
54.807796
30
0.0
11
230.311777
21
54.807796
31
0.0
0
ARC
8
0
10
230.311777
20
55.307778
30
0.0
40
0.499982
50
270.000000
51
360.000000
0
LINE
8
0
10
230.811759
20
55.307778
30
0.0
11
230.811759
21
58.807796
31
0.0
0
ARC
8
0
10
230.311759
20
58.807796
30
0.0
40
0.500000
50
360.000000
51
90.000000
0
LINE
8
0
10
230.311759
20
59.307796
30
0.0
11
170.902254
21
59.307796
31
0.0
0
ARC
8
0
10
170.902254
20
58.807796
30
0.0
40
0.500000
50
90.000000
51
180.000000
0
LINE
8
0
10
170.402254
20
58.807796
30
0.0
11
170.402254
21
53.257796
31
0.0
0
ARC
8
0
10
170.902254
20
53.257796
30
0.0
40
0.500000
50
180.000000
51
270.000000
0
LINE
8
0
10
170.902254
20
52.757796
30
0.0
11
171.227254
21
53.157796
31
0.0
0
LINE
8
0
10
171.227254
20
53.157796
30
0.0
11
171.552254
21
52.757796
31
0.0
0
LINE
8
0
10
171.552254
20
52.757796
30
0.0
11
171.877254
21
53.157796
31
0.0
0
LINE
8
0
10
171.877254
20
53.157796
30
0.0
11
172.207006
21
52.757796
31
0.0
0
LINE
8
0
10
172.207006
20
52.757796
30
0.0
11
172.532006
21
53.157796
31
0.0
0
LINE
8
0
10
172.532006
20
53.157796
30
0.0
11
172.861759
21
52.757796
31
0.0
0
LINE
8
0
10
172.861759
20
52.757796
30
0.0
11
173.126730
21
53.083914
31
0.0
0
ARC
8
0
10
173.281953
20
52.957796
30
0.0
40
0.200000
50
90.000000
51
140.906141
0
LINE
8
0
10
173.281953
20
53.157796
30
0.0
11
173.936759
21
53.157796
31
0.0
0
ARC
8
0
10
173.936759
20
52.957796
30
0.0
40
0.200000
50
360.000000
51
90.000000
0
LINE
8
0
10
174.136759
20
52.957796
30
0.0
11
174.136759
21
52.357796
31
0.0
0
ARC
8
0
10
173.936759
20
52.357796
30
0.0
40
0.200000
50
270.000000
51
360.000000
0
LINE
8
0
10
173.936759
20
52.157796
30
0.0
11
173.807006
21
52.157796
31
0.0
0
ARC
8
0
10
173.807006
20
51.957796
30
0.0
40
0.200000
50
90.000000
51
180.000000
0
LINE
8
0
10
173.607006
20
51.957796
30
0.0
11
173.607006
21
47.307796
31
0.0
0
ARC
8
0
10
173.907006
20
47.307796
30
0.0
40
0.300000
50
180.000000
51
270.000000
0
LINE
8
0
10
173.907006
20
47.007796
30
0.0
11
183.954933
21
47.007796
31
0.0
0
ARC
8
0
10
183.954933
20
46.707796
30
0.0
40
0.300000
50
61.801483
51
90.000000
0
ARC
8
0
10
183.742296
20
46.311204
30
0.0
40
0.750000
50
16.997055
51
61.801484
0
LINE
8
0
10
184.459536
20
46.530446
30
0.0
11
184.664744
21
46.112062
31
0.0
0
ARC
8
0
10
183.006612
20
44.993762
30
0.0
40
2.000000
50
321.805773
51
33.997055
0
ARC
8
0
10
184.971410
20
43.447939
30
0.0
40
0.500000
50
141.805773
51
181.623749
0
LINE
8
0
10
184.471610
20
43.433771
30
0.0
11
184.490224
21
42.777149
31
0.0
0
ARC
8
0
10
184.790249
20
42.780534
30
0.0
40
0.300000
50
180.000000
51
288.251415
0
LINE
8
0
10
184.884205
20
42.495627
30
0.0
11
187.550646
21
44.559914
31
0.0
0
ARC
8
0
10
187.461502
20
44.675061
30
0.0
40
0.145621
50
307.746080
51
90.000000
0
LINE
8
0
10
187.456420
20
44.820593
30
0.0
11
187.300933
21
44.815164
31
0.0
0
ARC
8
0
10
187.293953
20
45.015042
30
0.0
40
0.200000
50
218.823976
51
270.000000
0
LINE
8
0
10
187.138138
20
44.889656
30
0.0
11
185.815863
21
46.532825
31
0.0
0
ARC
8
0
10
186.049586
20
46.720904
30
0.0
40
0.300000
50
193.127121
51
218.823976
0
LINE
8
0
10
185.757425
20
46.652771
30
0.0
11
185.661874
21
47.007796
31
0.0
0
ARC
8
0
10
185.961874
20
47.007796
30
0.0
40
0.300000
50
360.000000
51
180.000000
0
LINE
8
0
10
186.261874
20
47.007796
30
0.0
11
190.761874
21
47.007796
31
0.0
0
ARC
8
0
10
190.761874
20
46.807796
30
0.0
40
0.200000
50
360.000000
51
90.000000
0
LINE
8
0
10
190.961874
20
46.807796
30
0.0
11
190.961874
21
46.739907
31
0.0
0
ARC
8
0
10
190.661874
20
46.739907
30
0.0
40
0.300000
50
328.619868
51
360.000000
0
LINE
8
0
10
190.917994
20
46.583693
30
0.0
11
189.895761
21
44.907700
31
0.0
0
ARC
8
0
10
189.889571
20
44.707796
30
0.0
40
0.200000
50
90.000000
51
270.000000
0
LINE
8
0
10
189.889571
20
44.507796
30
0.0
11
191.404922
21
44.507796
31
0.0
0
LINE
8
0
10
191.404922
20
44.507796
30
0.0
11
191.430058
21
44.508851
31
0.0
0
ARC
8
0
10
194.359029
20
45.157796
30
0.0
40
3.000000
50
192.492689
51
228.463041
0
ARC
8
0
10
192.701271
20
43.286475
30
0.0
40
0.500000
50
228.463041
51
330.000000
0
LINE
8
0
10
193.134284
20
43.036475
30
0.0
11
193.339225
21
43.391444
31
0.0
0
ARC
8
0
10
192.906212
20
43.641444
30
0.0
40
0.500000
50
330.000000
51
46.225853
0
ARC
8
0
10
194.359029
20
45.157796
30
0.0
40
1.600000
50
201.613846
51
226.225853
0
LINE
8
0
10
192.871529
20
44.568437
30
0.0
11
192.605416
21
44.568437
31
0.0
0
ARC
8
0
10
194.359029
20
45.157796
30
0.0
40
1.850000
50
161.423394
51
198.576606
0
LINE
8
0
10
192.605416
20
45.747155
30
0.0
11
192.871529
21
45.747155
31
0.0
0
ARC
8
0
10
194.359029
20
45.157796
30
0.0
40
1.600000
50
111.613846
51
158.386154
0
LINE
8
0
10
193.769670
20
46.645296
30
0.0
11
193.769670
21
46.911408
31
0.0
0
ARC
8
0
10
194.359029
20
45.157796
30
0.0
40
1.850000
50
71.423394
51
108.576606
0
LINE
8
0
10
194.948387
20
46.911408
30
0.0
11
194.948387
21
46.645296
31
0.0
0
ARC
8
0
10
194.359029
20
45.157796
30
0.0
40
1.600000
50
21.613846
51
68.386154
0
LINE
8
0
10
195.846529
20
45.747155
30
0.0
11
196.112641
21
45.747155
31
0.0
0
ARC
8
0
10
194.359029
20
45.157796
30
0.0
40
1.850000
50
341.423394
51
18.576606
0
LINE
8
0
10
196.112641
20
44.568437
30
0.0
11
195.846529
21
44.568437
31
0.0
0
ARC
8
0
10
194.359029
20
45.157796
30
0.0
40
1.600000
50
313.774147
51
338.386154
0
ARC
8
0
10
195.811845
20
43.641444
30
0.0
40
0.500000
50
133.774147
51
210.000000
0
LINE
8
0
10
195.378833
20
43.391444
30
0.0
11
195.583774
21
43.036475
31
0.0
0
ARC
8
0
10
196.016786
20
43.286475
30
0.0
40
0.500000
50
210.000000
51
311.536959
0
ARC
8
0
10
194.359029
20
45.157796
30
0.0
40
3.000000
50
311.536959
51
347.507311
0
LINE
8
0
10
198.109029
20
-13.442204
30
0.0
11
198.409029
21
-13.442204
31
0.0
0
LINE
8
0
10
198.409029
20
-13.442204
30
0.0
11
198.409029
21
-19.192204
31
0.0
0
LINE
8
0
10
198.409029
20
-19.192204
30
0.0
11
187.709029
21
-19.192204
31
0.0
0
LINE
8
0
10
187.709029
20
-19.192204
30
0.0
11
187.709029
21
0.409410
31
0.0
0
LINE
8
0
10
187.709029
20
0.409410
30
0.0
11
198.409029
21
0.409410
31
0.0
0
LINE
8
0
10
198.409029
20
0.409410
30
0.0
11
198.409029
21
-5.442204
31
0.0
0
LINE
8
0
10
198.409029
20
-5.442204
30
0.0
11
198.109029
21
-5.442204
31
0.0
0
LINE
8
0
10
198.109029
20
-5.442204
30
0.0
11
198.109029
21
-13.442204
31
0.0
0
ARC
8
0
10
209.109029
20
-18.399311
30
0.0
40
0.500000
50
360.000000
51
45.000000
0
LINE
8
0
10
209.462582
20
-18.045758
30
0.0
11
208.755475
21
-17.338651
31
0.0
0
ARC
8
0
10
208.401922
20
-17.692204
30
0.0
40
0.500000
50
45.000000
51
90.000000
0
LINE
8
0
10
208.401922
20
-17.192204
30
0.0
11
207.609029
21
-17.192204
31
0.0
0
LINE
8
0
10
207.609029
20
-17.192204
30
0.0
11
207.609029
21
-19.192204
31
0.0
0
LINE
8
0
10
207.609029
20
-19.192204
30
0.0
11
204.609029
21
-19.192204
31
0.0
0
LINE
8
0
10
204.609029
20
-19.192204
30
0.0
11
204.609029
21
-16.991426
31
0.0
0
LINE
8
0
10
204.609029
20
-16.991426
30
0.0
11
203.009029
21
-16.991426
31
0.0
0
LINE
8
0
10
203.009029
20
-16.991426
30
0.0
11
203.009029
21
-19.442204
31
0.0
0
LINE
8
0
10
203.009029
20
-19.442204
30
0.0
11
200.009029
21
-19.442204
31
0.0
0
LINE
8
0
10
200.009029
20
-19.442204
30
0.0
11
200.009029
21
-9.942204
31
0.0
0
LINE
8
0
10
200.009029
20
-9.942204
30
0.0
11
199.509029
21
-9.442204
31
0.0
0
LINE
8
0
10
199.509029
20
-9.442204
30
0.0
11
200.009029
21
-8.942204
31
0.0
0
LINE
8
0
10
200.009029
20
-8.942204
30
0.0
11
200.009029
21
0.557796
31
0.0
0
LINE
8
0
10
200.009029
20
0.557796
30
0.0
11
203.009029
21
0.557796
31
0.0
0
LINE
8
0
10
203.009029
20
0.557796
30
0.0
11
203.009029
21
-1.992204
31
0.0
0
LINE
8
0
10
203.009029
20
-1.992204
30
0.0
11
204.609029
21
-1.992204
31
0.0
0
LINE
8
0
10
204.609029
20
-1.992204
30
0.0
11
204.609029
21
-0.992204
31
0.0
0
LINE
8
0
10
204.609029
20
-0.992204
30
0.0
11
207.609029
21
-0.992204
31
0.0
0
LINE
8
0
10
207.609029
20
-0.992204
30
0.0
11
207.609029
21
-3.192204
31
0.0
0
LINE
8
0
10
207.609029
20
-3.192204
30
0.0
11
208.401922
21
-3.192204
31
0.0
0
ARC
8
0
10
208.401922
20
-2.692204
30
0.0
40
0.500000
50
270.000000
51
315.000000
0
LINE
8
0
10
208.755475
20
-3.045758
30
0.0
11
209.462582
21
-2.338651
31
0.0
0
ARC
8
0
10
209.109029
20
-1.985097
30
0.0
40
0.500000
50
315.000000
51
360.000000
0
LINE
8
0
10
209.609029
20
-1.985097
30
0.0
11
209.609029
21
0.109205
31
0.0
0
ARC
8
0
10
209.109029
20
0.109205
30
0.0
40
0.500000
50
360.000000
51
90.000000
0
LINE
8
0
10
209.109029
20
0.609205
30
0.0
11
204.609029
21
0.609205
31
0.0
0
LINE
8
0
10
204.609029
20
0.609205
30
0.0
11
204.609029
21
1.893236
31
0.0
0
ARC
8
0
10
204.309029
20
1.893236
30
0.0
40
0.300000
50
360.000000
51
50.581225
0
ARC
8
0
10
204.975762
20
2.704388
30
0.0
40
0.750000
50
196.997055
51
230.581226
0
LINE
8
0
10
204.258522
20
2.485146
30
0.0
11
204.053313
21
2.903529
31
0.0
0
ARC
8
0
10
205.711446
20
4.021830
30
0.0
40
2.000000
50
141.805773
51
213.997055
0
ARC
8
0
10
203.746648
20
5.567653
30
0.0
40
0.500000
50
321.805773
51
1.623749
0
LINE
8
0
10
204.246447
20
5.581821
30
0.0
11
204.227833
21
6.238442
31
0.0
0
ARC
8
0
10
203.927809
20
6.235057
30
0.0
40
0.300000
50
2.605413
51
108.251415
0
LINE
8
0
10
203.833853
20
6.519965
30
0.0
11
201.167412
21
4.455677
31
0.0
0
ARC
8
0
10
201.237247
20
4.309082
30
0.0
40
0.162380
50
115.472270
51
307.320431
0
ARC
8
0
10
201.424104
20
4.000550
30
0.0
40
0.200000
50
38.823976
51
116.234983
0
LINE
8
0
10
201.579919
20
4.125936
30
0.0
11
202.902194
21
2.482766
31
0.0
0
ARC
8
0
10
202.668471
20
2.294687
30
0.0
40
0.300000
50
17.000000
51
38.823976
0
LINE
8
0
10
202.955363
20
2.382399
30
0.0
11
203.056183
21
2.007796
31
0.0
0
ARC
8
0
10
202.756183
20
2.007796
30
0.0
40
0.300000
50
180.000000
51
360.000000
0
LINE
8
0
10
202.456183
20
2.007796
30
0.0
11
197.956183
21
2.007796
31
0.0
0
ARC
8
0
10
197.956183
20
2.207796
30
0.0
40
0.200000
50
180.000000
51
270.000000
0
LINE
8
0
10
197.756183
20
2.207796
30
0.0
11
197.756183
21
2.275685
31
0.0
0
ARC
8
0
10
198.056183
20
2.275685
30
0.0
40
0.300000
50
148.619868
51
180.000000
0
LINE
8
0
10
197.800064
20
2.431899
30
0.0
11
198.822296
21
4.107892
31
0.0
0
ARC
8
0
10
198.828487
20
4.307796
30
0.0
40
0.200000
50
270.000000
51
90.000000
0
LINE
8
0
10
198.828487
20
4.507796
30
0.0
11
197.313135
21
4.507796
31
0.0
0
LINE
8
0
10
197.313135
20
4.507796
30
0.0
11
197.287999
21
4.506741
31
0.0
0
ARC
8
0
10
194.359029
20
3.857796
30
0.0
40
3.000000
50
12.492689
51
48.463041
0
ARC
8
0
10
196.016786
20
5.729116
30
0.0
40
0.500000
50
48.463041
51
150.000000
0
LINE
8
0
10
195.583774
20
5.979116
30
0.0
11
195.378833
21
5.624148
31
0.0
0
ARC
8
0
10
195.811845
20
5.374148
30
0.0
40
0.500000
50
150.000000
51
226.225853
0
ARC
8
0
10
194.359029
20
3.857796
30
0.0
40
1.600000
50
21.613846
51
46.225853
0
LINE
8
0
10
195.846529
20
4.447155
30
0.0
11
196.112641
21
4.447155
31
0.0
0
ARC
8
0
10
194.359029
20
3.857796
30
0.0
40
1.850000
50
341.423394
51
18.576606
0
LINE
8
0
10
196.112641
20
3.268437
30
0.0
11
195.846529
21
3.268437
31
0.0
0
ARC
8
0
10
194.359029
20
3.857796
30
0.0
40
1.600000
50
291.613846
51
338.386154
0
LINE
8
0
10
194.948387
20
2.370296
30
0.0
11
194.948387
21
2.104183
31
0.0
0
ARC
8
0
10
194.359029
20
3.857796
30
0.0
40
1.850000
50
251.423394
51
288.576606
0
LINE
8
0
10
193.769670
20
2.104183
30
0.0
11
193.769670
21
2.370296
31
0.0
0
ARC
8
0
10
194.359029
20
3.857796
30
0.0
40
1.600000
50
201.613846
51
248.386154
0
LINE
8
0
10
192.871529
20
3.268437
30
0.0
11
192.605416
21
3.268437
31
0.0
0
ARC
8
0
10
194.359029
20
3.857796
30
0.0
40
1.850000
50
161.423394
51
198.576606
0
LINE
8
0
10
192.605416
20
4.447155
30
0.0
11
192.871529
21
4.447155
31
0.0
0
ARC
8
0
10
194.359029
20
3.857796
30
0.0
40
1.600000
50
133.774147
51
158.386154
0
ARC
8
0
10
192.906212
20
5.374148
30
0.0
40
0.500000
50
313.774147
51
30.000000
0
LINE
8
0
10
193.339225
20
5.624148
30
0.0
11
193.134284
21
5.979116
31
0.0
0
ARC
8
0
10
192.701271
20
5.729116
30
0.0
40
0.500000
50
30.000000
51
131.536959
0
ARC
8
0
10
194.359029
20
3.857796
30
0.0
40
3.000000
50
131.536959
51
167.507311
0
LINE
8
0
10
191.430058
20
4.506741
30
0.0
11
191.404922
21
4.507796
31
0.0
0
LINE
8
0
10
191.404922
20
4.507796
30
0.0
11
189.889571
21
4.507796
31
0.0
0
ARC
8
0
10
189.889571
20
4.307796
30
0.0
40
0.200000
50
90.000000
51
270.000000
0
LINE
8
0
10
189.895761
20
4.107892
30
0.0
11
190.917994
21
2.431899
31
0.0
0
ARC
8
0
10
190.661874
20
2.275685
30
0.0
40
0.300000
50
360.000000
51
31.380132
0
LINE
8
0
10
190.961874
20
2.275685
30
0.0
11
190.961874
21
2.207796
31
0.0
0
ARC
8
0
10
190.761874
20
2.207796
30
0.0
40
0.200000
50
270.000000
51
360.000000
0
LINE
8
0
10
190.761874
20
2.007796
30
0.0
11
186.261874
21
2.007796
31
0.0
0
ARC
8
0
10
185.961874
20
2.007796
30
0.0
40
0.300000
50
180.000000
51
360.000000
0
LINE
8
0
10
185.661874
20
2.007796
30
0.0
11
185.757425
21
2.362821
31
0.0
0
ARC
8
0
10
186.049586
20
2.294687
30
0.0
40
0.300000
50
141.176024
51
166.872879
0
LINE
8
0
10
185.815863
20
2.482766
30
0.0
11
187.138138
21
4.125936
31
0.0
0
ARC
8
0
10
187.293953
20
4.000550
30
0.0
40
0.200000
50
90.000000
51
141.176024
0
LINE
8
0
10
187.300933
20
4.200428
30
0.0
11
187.456420
21
4.194998
31
0.0
0
ARC
8
0
10
187.461502
20
4.340530
30
0.0
40
0.145621
50
270.000000
51
52.253920
0
LINE
8
0
10
187.550646
20
4.455677
30
0.0
11
184.884205
21
6.519965
31
0.0
0
ARC
8
0
10
184.790249
20
6.235057
30
0.0
40
0.300000
50
71.748585
51
180.000000
0
LINE
8
0
10
184.490224
20
6.238442
30
0.0
11
184.471610
21
5.581821
31
0.0
0
ARC
8
0
10
184.971410
20
5.567653
30
0.0
40
0.500000
50
178.376251
51
218.194227
0
ARC
8
0
10
183.006612
20
4.021830
30
0.0
40
2.000000
50
326.002945
51
38.194227
0
LINE
8
0
10
184.664744
20
2.903529
30
0.0
11
184.447693
21
2.464702
31
0.0
0
ARC
8
0
10
183.757334
20
2.757796
30
0.0
40
0.750000
50
270.000000
51
336.996263
0
LINE
8
0
10
183.757334
20
2.007796
30
0.0
11
183.058132
21
2.007796
31
0.0
0
LINE
8
0
10
183.058132
20
2.007796
30
0.0
11
181.708056
21
2.608601
31
0.0
0
LINE
8
0
10
181.708056
20
2.608601
30
0.0
11
177.107006
21
2.608601
31
0.0
0
LINE
8
0
10
177.107006
20
2.608601
30
0.0
11
177.107006
21
1.894188
31
0.0
0
ARC
8
0
10
177.607006
20
1.894188
30
0.0
40
0.500000
50
180.000000
51
255.000000
0
LINE
8
0
10
177.477597
20
1.411225
30
0.0
11
178.568856
21
1.118823
31
0.0
0
LINE
8
0
10
178.568856
20
1.118823
30
0.0
11
178.646502
21
1.108601
31
0.0
0
LINE
8
0
10
178.646502
20
1.108601
30
0.0
11
180.307006
21
1.108601
31
0.0
0
LINE
8
0
10
180.307006
20
1.108601
30
0.0
11
180.307006
21
-2.105795
31
0.0
0
LINE
8
0
10
180.307006
20
-2.105795
30
0.0
11
182.307006
21
-2.105795
31
0.0
0
LINE
8
0
10
182.307006
20
-2.105795
30
0.0
11
182.307006
21
0.598979
31
0.0
0
LINE
8
0
10
182.307006
20
0.598979
30
0.0
11
184.209029
21
0.598979
31
0.0
0
ARC
8
0
10
184.209029
20
-1.401021
30
0.0
40
2.000000
50
360.000000
51
90.000000
0
LINE
8
0
10
186.209029
20
-1.401021
30
0.0
11
186.209029
21
-19.192204
31
0.0
0
LINE
8
0
10
186.209029
20
-19.192204
30
0.0
11
180.307006
21
-19.192204
31
0.0
0
LINE
8
0
10
180.307006
20
-19.192204
30
0.0
11
180.307006
21
-22.492982
31
0.0
0
LINE
8
0
10
180.307006
20
-22.492982
30
0.0
11
178.607006
21
-22.492982
31
0.0
0
LINE
8
0
10
178.607006
20
-22.492982
30
0.0
11
177.477597
21
-22.795606
31
0.0
0
ARC
8
0
10
177.607006
20
-23.278569
30
0.0
40
0.500000
50
105.000000
51
180.000000
0
LINE
8
0
10
177.107006
20
-23.278569
30
0.0
11
177.107006
21
-23.992982
31
0.0
0
LINE
8
0
10
177.107006
20
-23.992982
30
0.0
11
181.907006
21
-23.992982
31
0.0
0
LINE
8
0
10
181.907006
20
-23.992982
30
0.0
11
181.907006
21
-20.692204
31
0.0
0
LINE
8
0
10
181.907006
20
-20.692204
30
0.0
11
209.309029
21
-20.692204
31
0.0
0
ARC
8
0
10
209.309029
20
-20.392204
30
0.0
40
0.300000
50
270.000000
51
360.000000
0
LINE
8
0
10
209.609029
20
-20.392204
30
0.0
11
209.609029
21
-18.399311
31
0.0
0
LINE
8
0
10
198.526150
20
45.502826
30
0.0
11
200.031120
21
47.007796
31
0.0
0
LINE
8
0
10
199.038931
20
43.770543
30
0.0
11
202.139786
21
46.871398
31
0.0
0
LINE
8
0
10
198.624961
20
41.111509
30
0.0
11
201.441839
21
43.928387
31
0.0
0
LINE
8
0
10
198.144351
20
38.385835
30
0.0
11
199.500435
21
39.741919
31
0.0
0
LINE
8
0
10
201.881791
20
42.123275
30
0.0
11
202.662579
21
42.904064
31
0.0
0
LINE
8
0
10
198.038931
20
36.035351
30
0.0
11
199.138931
21
37.135351
31
0.0
0
LINE
8
0
10
202.938931
20
40.935351
30
0.0
11
203.858878
21
41.855299
31
0.0
0
LINE
8
0
10
198.038931
20
33.790287
30
0.0
11
199.138931
21
34.890287
31
0.0
0
LINE
8
0
10
202.938931
20
38.690287
30
0.0
11
204.038931
21
39.790287
31
0.0
0
LINE
8
0
10
198.038931
20
31.545223
30
0.0
11
200.036184
21
33.542476
31
0.0
0
LINE
8
0
10
202.938931
20
36.445223
30
0.0
11
204.502810
21
38.009102
31
0.0
0
LINE
8
0
10
198.038931
20
29.300159
30
0.0
11
199.138931
21
30.400159
31
0.0
0
LINE
8
0
10
205.246568
20
36.507796
30
0.0
11
206.746568
21
38.007796
31
0.0
0
LINE
8
0
10
201.481248
20
32.742476
30
0.0
11
202.281248
21
33.542476
31
0.0
0
LINE
8
0
10
202.938931
20
34.200159
30
0.0
11
204.038931
21
35.300159
31
0.0
0
LINE
8
0
10
198.038931
20
27.055095
30
0.0
11
199.138931
21
28.155095
31
0.0
0
LINE
8
0
10
206.788931
20
35.805095
30
0.0
11
208.728997
21
37.745161
31
0.0
0
LINE
8
0
10
202.938931
20
31.955095
30
0.0
11
204.038931
21
33.055095
31
0.0
0
LINE
8
0
10
198.038931
20
24.810031
30
0.0
11
199.138931
21
25.910031
31
0.0
0
LINE
8
0
10
202.938931
20
29.710031
30
0.0
11
204.068183
21
30.839283
31
0.0
0
LINE
8
0
10
198.038931
20
22.564967
30
0.0
11
199.142653
21
23.668689
31
0.0
0
LINE
8
0
10
206.788931
20
31.314967
30
0.0
11
207.381760
21
31.907796
31
0.0
0
LINE
8
0
10
199.578038
20
24.104074
30
0.0
11
200.381760
21
24.907796
31
0.0
0
LINE
8
0
10
204.478038
20
29.004074
30
0.0
11
205.981760
21
30.507796
31
0.0
0
LINE
8
0
10
202.938931
20
27.464967
30
0.0
11
204.042653
21
28.568689
31
0.0
0
LINE
8
0
10
198.038931
20
20.319903
30
0.0
11
199.138931
21
21.419903
31
0.0
0
LINE
8
0
10
206.667724
20
28.948696
30
0.0
11
208.701777
21
30.982749
31
0.0
0
LINE
8
0
10
201.826824
20
24.107796
30
0.0
11
202.701019
21
24.981991
31
0.0
0
LINE
8
0
10
202.864736
20
25.145708
30
0.0
11
204.038931
21
26.319903
31
0.0
0
LINE
8
0
10
198.038931
20
18.074839
30
0.0
11
199.138931
21
19.174839
31
0.0
0
LINE
8
0
10
207.571888
20
27.607796
30
0.0
11
208.788931
21
28.824839
31
0.0
0
LINE
8
0
10
202.938931
20
22.974839
30
0.0
11
204.038931
21
24.074839
31
0.0
0
LINE
8
0
10
198.038931
20
15.829775
30
0.0
11
199.138931
21
16.929775
31
0.0
0
LINE
8
0
10
202.938931
20
20.729775
30
0.0
11
204.038931
21
21.829775
31
0.0
0
LINE
8
0
10
198.038931
20
13.584711
30
0.0
11
199.138931
21
14.684711
31
0.0
0
LINE
8
0
10
202.938931
20
18.484711
30
0.0
11
204.467190
21
20.012969
31
0.0
0
LINE
8
0
10
199.927336
20
15.473116
30
0.0
11
200.727336
21
16.273116
31
0.0
0
LINE
8
0
10
198.038931
20
11.339647
30
0.0
11
199.138931
21
12.439647
31
0.0
0
LINE
8
0
10
205.207080
20
18.507796
30
0.0
11
207.948005
21
21.248721
31
0.0
0
LINE
8
0
10
202.172400
20
15.473116
30
0.0
11
204.038931
21
17.339647
31
0.0
0
LINE
8
0
10
198.358666
20
9.414318
30
0.0
11
199.308206
21
10.363857
31
0.0
0
LINE
8
0
10
207.452144
20
18.507796
30
0.0
11
208.788931
21
19.844583
31
0.0
0
LINE
8
0
10
202.938931
20
13.994583
30
0.0
11
204.038931
21
15.094583
31
0.0
0
LINE
8
0
10
198.695192
20
7.505780
30
0.0
11
199.644732
21
8.455320
31
0.0
0
LINE
8
0
10
202.938931
20
11.749519
30
0.0
11
204.038931
21
12.849519
31
0.0
0
LINE
8
0
10
199.031719
20
5.597243
30
0.0
11
200.165361
21
6.730885
31
0.0
0
LINE
8
0
10
202.938931
20
9.504455
30
0.0
11
204.038931
21
10.604455
31
0.0
0
LINE
8
0
10
198.041559
20
2.362019
30
0.0
11
205.187336
21
9.507796
31
0.0
0
LINE
8
0
10
199.932400
20
2.007796
30
0.0
11
201.636538
21
3.711934
31
0.0
0
LINE
8
0
10
205.932400
20
8.007796
30
0.0
11
208.310666
21
10.386061
31
0.0
0
LINE
8
0
10
208.177464
20
8.007796
30
0.0
11
208.788931
21
8.619263
31
0.0
0
LINE
8
0
10
198.483807
20
2.007796
30
0.0
11
198.038931
21
2.452672
31
0.0
0
LINE
8
0
10
200.728871
20
2.007796
30
0.0
11
198.781804
21
3.954863
31
0.0
0
LINE
8
0
10
202.139418
20
2.842313
30
0.0
11
198.956201
21
6.025530
31
0.0
0
LINE
8
0
10
201.821237
20
5.405558
30
0.0
11
200.792847
21
6.433948
31
0.0
0
LINE
8
0
10
199.831674
20
7.395120
30
0.0
11
198.475591
21
8.751204
31
0.0
0
LINE
8
0
10
203.041978
20
6.429881
30
0.0
11
202.261189
21
7.210670
31
0.0
0
LINE
8
0
10
199.351064
20
10.120794
30
0.0
11
198.038931
21
11.432928
31
0.0
0
LINE
8
0
10
204.048480
20
7.668443
30
0.0
11
202.938931
21
8.777992
31
0.0
0
LINE
8
0
10
199.138931
20
12.577992
30
0.0
11
198.038931
21
13.677992
31
0.0
0
LINE
8
0
10
205.954191
20
8.007796
30
0.0
11
204.445357
21
9.516630
31
0.0
0
LINE
8
0
10
199.138931
20
14.823056
30
0.0
11
198.038931
21
15.923056
31
0.0
0
LINE
8
0
10
204.047765
20
9.914222
30
0.0
11
202.938931
21
11.023056
31
0.0
0
LINE
8
0
10
208.199255
20
8.007796
30
0.0
11
206.651432
21
9.555619
31
0.0
0
LINE
8
0
10
199.138931
20
17.068120
30
0.0
11
198.038931
21
18.168120
31
0.0
0
LINE
8
0
10
204.038931
20
12.168120
30
0.0
11
202.938931
21
13.268120
31
0.0
0
LINE
8
0
10
200.733935
20
15.473116
30
0.0
11
199.933935
21
16.273116
31
0.0
0
LINE
8
0
10
208.788931
20
9.663184
30
0.0
11
207.544319
21
10.907796
31
0.0
0
LINE
8
0
10
199.138931
20
19.313184
30
0.0
11
198.038931
21
20.413184
31
0.0
0
LINE
8
0
10
204.038931
20
14.413184
30
0.0
11
202.178999
21
16.273116
31
0.0
0
LINE
8
0
10
204.038931
20
16.658248
30
0.0
11
202.938931
21
17.758248
31
0.0
0
LINE
8
0
10
199.138931
20
21.558248
30
0.0
11
198.038931
21
22.658248
31
0.0
0
LINE
8
0
10
204.443616
20
18.498627
30
0.0
11
202.938931
21
20.003312
31
0.0
0
LINE
8
0
10
199.167593
20
23.774650
30
0.0
11
198.038931
21
24.903312
31
0.0
0
LINE
8
0
10
206.679511
20
18.507796
30
0.0
11
205.179511
21
20.007796
31
0.0
0
LINE
8
0
10
199.138931
20
26.048376
30
0.0
11
198.038931
21
27.148376
31
0.0
0
LINE
8
0
10
204.038931
20
21.148376
30
0.0
11
202.938931
21
22.248376
31
0.0
0
LINE
8
0
10
201.079511
20
24.107796
30
0.0
11
200.279511
21
24.907796
31
0.0
0
LINE
8
0
10
208.703740
20
18.728631
30
0.0
11
206.788931
21
20.643440
31
0.0
0
LINE
8
0
10
199.138931
20
28.293440
30
0.0
11
198.038931
21
29.393440
31
0.0
0
LINE
8
0
10
204.038931
20
23.393440
30
0.0
11
202.518244
21
24.914127
31
0.0
0
LINE
8
0
10
204.038931
20
25.638504
30
0.0
11
202.938931
21
26.738504
31
0.0
0
LINE
8
0
10
199.138931
20
30.538504
30
0.0
11
198.038931
21
31.638504
31
0.0
0
LINE
8
0
10
204.038931
20
27.883568
30
0.0
11
202.938931
21
28.983568
31
0.0
0
LINE
8
0
10
199.306521
20
32.615978
30
0.0
11
198.038931
21
33.883568
31
0.0
0
LINE
8
0
10
205.159767
20
29.007796
30
0.0
11
202.938931
21
31.228632
31
0.0
0
LINE
8
0
10
199.138931
20
35.028632
30
0.0
11
198.038931
21
36.128632
31
0.0
0
LINE
8
0
10
201.425087
20
32.742476
30
0.0
11
200.625087
21
33.542476
31
0.0
0
LINE
8
0
10
208.296881
20
28.115746
30
0.0
11
205.904831
21
30.507796
31
0.0
0
LINE
8
0
10
199.138931
20
37.273696
30
0.0
11
198.126729
21
38.285897
31
0.0
0
LINE
8
0
10
204.038931
20
32.373696
30
0.0
11
202.756418
21
33.656209
31
0.0
0
LINE
8
0
10
208.788931
20
29.868760
30
0.0
11
206.858181
21
31.799510
31
0.0
0
LINE
8
0
10
199.412796
20
39.244895
30
0.0
11
198.463256
21
40.194435
31
0.0
0
LINE
8
0
10
204.038931
20
34.618760
30
0.0
11
202.938931
21
35.718760
31
0.0
0
LINE
8
0
10
204.411477
20
36.491278
30
0.0
11
202.938931
21
37.963824
31
0.0
0
LINE
8
0
10
199.749323
20
41.153432
30
0.0
11
198.799783
21
42.102972
31
0.0
0
LINE
8
0
10
207.913859
20
35.233960
30
0.0
11
205.140023
21
38.007796
31
0.0
0
LINE
8
0
10
200.605681
20
42.542138
30
0.0
11
199.038931
21
44.108888
31
0.0
0
LINE
8
0
10
204.038931
20
39.108888
30
0.0
11
202.938931
21
40.208888
31
0.0
0
LINE
8
0
10
208.788931
20
36.603952
30
0.0
11
207.385087
21
38.007796
31
0.0
0
LINE
8
0
10
201.257060
20
44.135823
30
0.0
11
198.388304
21
47.004579
31
0.0
0
LINE
8
0
10
204.036202
20
41.356681
30
0.0
11
201.582657
21
43.810226
31
0.0
0
LINE
8
0
10
201.892192
20
45.745755
30
0.0
11
200.630151
21
47.007796
31
0.0
0
LINE
8
0
10
201.238931
20
4.777062
30
0.0
11
201.238931
21
4.614165
31
0.0
0
ARC
8
0
10
202.038931
20
4.614165
30
0.0
40
0.800000
50
180.000000
51
210.039706
0
LINE
8
0
10
201.346388
20
4.213685
30
0.0
11
202.214401
21
2.712646
31
0.0
0
LINE
8
0
10
202.238931
20
2.616676
30
0.0
11
202.214401
21
2.712646
31
0.0
0
LINE
8
0
10
202.238931
20
2.616676
30
0.0
11
202.238931
21
2.407796
31
0.0
0
ARC
8
0
10
201.838931
20
2.407796
30
0.0
40
0.400000
50
270.000000
51
360.000000
0
LINE
8
0
10
201.838931
20
2.007796
30
0.0
11
198.438931
21
2.007796
31
0.0
0
ARC
8
0
10
198.438931
20
2.407796
30
0.0
40
0.400000
50
180.000000
51
270.000000
0
LINE
8
0
10
198.038931
20
2.407796
30
0.0
11
198.038931
21
2.616676
31
0.0
0
LINE
8
0
10
198.063461
20
2.712646
30
0.0
11
198.038931
21
2.616676
31
0.0
0
LINE
8
0
10
198.063461
20
2.712646
30
0.0
11
198.931474
21
4.213685
31
0.0
0
ARC
8
0
10
198.238931
20
4.614165
30
0.0
40
0.800000
50
329.960294
51
360.000000
0
LINE
8
0
10
199.038931
20
4.614165
30
0.0
11
199.038931
21
5.530096
31
0.0
0
LINE
8
0
10
199.038931
20
5.530096
30
0.0
11
199.034373
21
5.582191
31
0.0
0
LINE
8
0
10
199.034373
20
5.582191
30
0.0
11
198.043489
21
11.201777
31
0.0
0
LINE
8
0
10
198.038931
20
11.253871
30
0.0
11
198.043489
21
11.201777
31
0.0
0
LINE
8
0
10
198.038931
20
11.253871
30
0.0
11
198.038931
21
37.761720
31
0.0
0
LINE
8
0
10
198.043489
20
37.813815
30
0.0
11
198.038931
21
37.761720
31
0.0
0
LINE
8
0
10
198.043489
20
37.813815
30
0.0
11
199.034373
21
43.433401
31
0.0
0
LINE
8
0
10
199.034373
20
43.433401
30
0.0
11
199.038931
21
43.485495
31
0.0
0
LINE
8
0
10
199.038931
20
43.485495
30
0.0
11
199.038931
21
44.401426
31
0.0
0
ARC
8
0
10
198.238931
20
44.401426
30
0.0
40
0.800000
50
360.000000
51
30.039706
0
LINE
8
0
10
198.931474
20
44.801907
30
0.0
11
198.063461
21
46.302946
31
0.0
0
LINE
8
0
10
198.038931
20
46.398916
30
0.0
11
198.063461
21
46.302946
31
0.0
0
LINE
8
0
10
198.038931
20
46.398916
30
0.0
11
198.038931
21
46.607796
31
0.0
0
ARC
8
0
10
198.438931
20
46.607796
30
0.0
40
0.400000
50
90.000000
51
180.000000
0
LINE
8
0
10
198.438931
20
47.007796
30
0.0
11
201.838931
21
47.007796
31
0.0
0
ARC
8
0
10
201.838931
20
46.607796
30
0.0
40
0.400000
50
360.000000
51
90.000000
0
LINE
8
0
10
202.238931
20
46.607796
30
0.0
11
202.238931
21
46.398916
31
0.0
0
LINE
8
0
10
202.214401
20
46.302946
30
0.0
11
202.238931
21
46.398916
31
0.0
0
LINE
8
0
10
202.214401
20
46.302946
30
0.0
11
201.346388
21
44.801907
31
0.0
0
ARC
8
0
10
202.038931
20
44.401426
30
0.0
40
0.800000
50
149.960294
51
180.000000
0
LINE
8
0
10
201.238931
20
44.401426
30
0.0
11
201.238931
21
44.238530
31
0.0
0
ARC
8
0
10
201.538931
20
44.238530
30
0.0
40
0.300000
50
180.000000
51
230.390000
0
LINE
8
0
10
201.347663
20
44.007409
30
0.0
11
203.681719
21
42.048904
31
0.0
0
ARC
8
0
10
203.038931
20
41.282860
30
0.0
40
1.000000
50
360.000000
51
50.000000
0
LINE
8
0
10
204.038931
20
41.282860
30
0.0
11
204.038931
21
38.507796
31
0.0
0
ARC
8
0
10
204.538931
20
38.507796
30
0.0
40
0.500000
50
180.000000
51
270.000000
0
LINE
8
0
10
204.538931
20
38.007796
30
0.0
11
208.288931
21
38.007796
31
0.0
0
ARC
8
0
10
208.288931
20
37.507796
30
0.0
40
0.500000
50
360.000000
51
90.000000
0
LINE
8
0
10
208.788931
20
37.507796
30
0.0
11
208.788931
21
36.314903
31
0.0
0
ARC
8
0
10
208.288931
20
36.314903
30
0.0
40
0.500000
50
315.000000
51
360.000000
0
LINE
8
0
10
208.642484
20
35.961349
30
0.0
11
207.935378
21
35.254242
31
0.0
0
ARC
8
0
10
207.581824
20
35.607796
30
0.0
40
0.500000
50
270.000000
51
315.000000
0
LINE
8
0
10
207.581824
20
35.107796
30
0.0
11
207.088931
21
35.107796
31
0.0
0
ARC
8
0
10
207.088931
20
35.407796
30
0.0
40
0.300000
50
180.000000
51
270.000000
0
LINE
8
0
10
206.788931
20
35.407796
30
0.0
11
206.788931
21
36.207796
31
0.0
0
ARC
8
0
10
206.488931
20
36.207796
30
0.0
40
0.300000
50
360.000000
51
90.000000
0
LINE
8
0
10
206.488931
20
36.507796
30
0.0
11
204.538931
21
36.507796
31
0.0
0
ARC
8
0
10
204.538931
20
36.007796
30
0.0
40
0.500000
50
90.000000
51
180.000000
0
LINE
8
0
10
204.038931
20
36.007796
30
0.0
11
204.038931
21
31.007796
31
0.0
0
ARC
8
0
10
204.538931
20
31.007796
30
0.0
40
0.500000
50
180.000000
51
270.000000
0
LINE
8
0
10
204.538931
20
30.507796
30
0.0
11
206.488931
21
30.507796
31
0.0
0
ARC
8
0
10
206.488931
20
30.807796
30
0.0
40
0.300000
50
270.000000
51
360.000000
0
LINE
8
0
10
206.788931
20
30.807796
30
0.0
11
206.788931
21
31.607796
31
0.0
0
ARC
8
0
10
207.088931
20
31.607796
30
0.0
40
0.300000
50
90.000000
51
180.000000
0
LINE
8
0
10
207.088931
20
31.907796
30
0.0
11
207.581824
21
31.907796
31
0.0
0
ARC
8
0
10
207.581824
20
31.407796
30
0.0
40
0.500000
50
45.000000
51
90.000000
0
LINE
8
0
10
207.935378
20
31.761349
30
0.0
11
208.642484
21
31.054242
31
0.0
0
ARC
8
0
10
208.288931
20
30.700689
30
0.0
40
0.500000
50
360.000000
51
45.000000
0
LINE
8
0
10
208.788931
20
30.700689
30
0.0
11
208.788931
21
28.814903
31
0.0
0
ARC
8
0
10
208.288931
20
28.814903
30
0.0
40
0.500000
50
315.000000
51
360.000000
0
LINE
8
0
10
208.642484
20
28.461349
30
0.0
11
207.935378
21
27.754242
31
0.0
0
ARC
8
0
10
207.581824
20
28.107796
30
0.0
40
0.500000
50
270.000000
51
315.000000
0
LINE
8
0
10
207.581824
20
27.607796
30
0.0
11
207.088931
21
27.607796
31
0.0
0
ARC
8
0
10
207.088931
20
27.907796
30
0.0
40
0.300000
50
180.000000
51
270.000000
0
LINE
8
0
10
206.788931
20
27.907796
30
0.0
11
206.788931
21
28.707796
31
0.0
0
ARC
8
0
10
206.488931
20
28.707796
30
0.0
40
0.300000
50
360.000000
51
90.000000
0
LINE
8
0
10
206.488931
20
29.007796
30
0.0
11
204.538931
21
29.007796
31
0.0
0
ARC
8
0
10
204.538931
20
28.507796
30
0.0
40
0.500000
50
90.000000
51
180.000000
0
LINE
8
0
10
204.038931
20
28.507796
30
0.0
11
204.038931
21
20.507796
31
0.0
0
ARC
8
0
10
204.538931
20
20.507796
30
0.0
40
0.500000
50
180.000000
51
270.000000
0
LINE
8
0
10
204.538931
20
20.007796
30
0.0
11
206.488931
21
20.007796
31
0.0
0
ARC
8
0
10
206.488931
20
20.307796
30
0.0
40
0.300000
50
270.000000
51
360.000000
0
LINE
8
0
10
206.788931
20
20.307796
30
0.0
11
206.788931
21
21.107796
31
0.0
0
ARC
8
0
10
207.088931
20
21.107796
30
0.0
40
0.300000
50
90.000000
51
180.000000
0
LINE
8
0
10
207.088931
20
21.407796
30
0.0
11
207.581824
21
21.407796
31
0.0
0
ARC
8
0
10
207.581824
20
20.907796
30
0.0
40
0.500000
50
45.000000
51
90.000000
0
LINE
8
0
10
207.935378
20
21.261349
30
0.0
11
208.642484
21
20.554242
31
0.0
0
ARC
8
0
10
208.288931
20
20.200689
30
0.0
40
0.500000
50
360.000000
51
45.000000
0
LINE
8
0
10
208.788931
20
20.200689
30
0.0
11
208.788931
21
19.007796
31
0.0
0
ARC
8
0
10
208.288931
20
19.007796
30
0.0
40
0.500000
50
270.000000
51
360.000000
0
LINE
8
0
10
208.288931
20
18.507796
30
0.0
11
204.538931
21
18.507796
31
0.0
0
ARC
8
0
10
204.538931
20
18.007796
30
0.0
40
0.500000
50
90.000000
51
180.000000
0
LINE
8
0
10
204.038931
20
18.007796
30
0.0
11
204.038931
21
10.007796
31
0.0
0
ARC
8
0
10
204.538931
20
10.007796
30
0.0
40
0.500000
50
180.000000
51
270.000000
0
LINE
8
0
10
204.538931
20
9.507796
30
0.0
11
206.488931
21
9.507796
31
0.0
0
ARC
8
0
10
206.488931
20
9.807796
30
0.0
40
0.300000
50
270.000000
51
360.000000
0
LINE
8
0
10
206.788931
20
9.807796
30
0.0
11
206.788931
21
10.607796
31
0.0
0
ARC
8
0
10
207.088931
20
10.607796
30
0.0
40
0.300000
50
90.000000
51
180.000000
0
LINE
8
0
10
207.088931
20
10.907796
30
0.0
11
207.581824
21
10.907796
31
0.0
0
ARC
8
0
10
207.581824
20
10.407796
30
0.0
40
0.500000
50
45.000000
51
90.000000
0
LINE
8
0
10
207.935378
20
10.761349
30
0.0
11
208.642484
21
10.054242
31
0.0
0
ARC
8
0
10
208.288931
20
9.700689
30
0.0
40
0.500000
50
360.000000
51
45.000000
0
LINE
8
0
10
208.788931
20
9.700689
30
0.0
11
208.788931
21
8.507796
31
0.0
0
ARC
8
0
10
208.288931
20
8.507796
30
0.0
40
0.500000
50
270.000000
51
360.000000
0
LINE
8
0
10
208.288931
20
8.007796
30
0.0
11
204.521970
21
8.007796
31
0.0
0
ARC
8
0
10
204.521970
20
7.507796
30
0.0
40
0.500000
50
90.000000
51
171.375547
0
ARC
8
0
10
203.038931
20
7.732732
30
0.0
40
1.000000
50
310.000000
51
351.375547
0
LINE
8
0
10
203.681719
20
6.966687
30
0.0
11
201.347663
21
5.008183
31
0.0
0
ARC
8
0
10
201.538931
20
4.777062
30
0.0
40
0.300000
50
129.610000
51
180.000000
0
ARC
8
0
10
202.438931
20
23.607796
30
0.0
40
0.500000
50
360.000000
51
90.000000
0
LINE
8
0
10
202.438931
20
24.107796
30
0.0
11
199.638931
21
24.107796
31
0.0
0
ARC
8
0
10
199.638931
20
23.607796
30
0.0
40
0.500000
50
90.000000
51
180.000000
0
LINE
8
0
10
199.138931
20
23.607796
30
0.0
11
199.138931
21
16.773116
31
0.0
0
ARC
8
0
10
199.638931
20
16.773116
30
0.0
40
0.500000
50
180.000000
51
270.000000
0
LINE
8
0
10
199.638931
20
16.273116
30
0.0
11
202.438931
21
16.273116
31
0.0
0
ARC
8
0
10
202.438931
20
16.773116
30
0.0
40
0.500000
50
270.000000
51
360.000000
0
LINE
8
0
10
202.938931
20
16.773116
30
0.0
11
202.938931
21
23.607796
31
0.0
0
ARC
8
0
10
202.338931
20
8.059147
30
0.0
40
0.600000
50
310.000000
51
360.000000
0
LINE
8
0
10
202.724603
20
7.599520
30
0.0
11
201.632648
21
6.683261
31
0.0
0
ARC
8
0
10
200.925582
20
7.525910
30
0.0
40
1.100000
50
190.000000
51
310.000000
0
LINE
8
0
10
199.842293
20
7.334897
30
0.0
11
199.146527
21
11.280782
31
0.0
0
LINE
8
0
10
199.138931
20
11.367606
30
0.0
11
199.146527
21
11.280782
31
0.0
0
LINE
8
0
10
199.138931
20
11.367606
30
0.0
11
199.138931
21
14.973116
31
0.0
0
ARC
8
0
10
199.638931
20
14.973116
30
0.0
40
0.500000
50
90.000000
51
180.000000
0
LINE
8
0
10
199.638931
20
15.473116
30
0.0
11
202.438931
21
15.473116
31
0.0
0
ARC
8
0
10
202.438931
20
14.973116
30
0.0
40
0.500000
50
360.000000
51
90.000000
0
LINE
8
0
10
202.938931
20
14.973116
30
0.0
11
202.938931
21
8.059147
31
0.0
0
ARC
8
0
10
202.438931
20
32.242476
30
0.0
40
0.500000
50
360.000000
51
90.000000
0
LINE
8
0
10
202.438931
20
32.742476
30
0.0
11
199.638931
21
32.742476
31
0.0
0
ARC
8
0
10
199.638931
20
32.242476
30
0.0
40
0.500000
50
90.000000
51
180.000000
0
LINE
8
0
10
199.138931
20
32.242476
30
0.0
11
199.138931
21
25.407796
31
0.0
0
ARC
8
0
10
199.638931
20
25.407796
30
0.0
40
0.500000
50
180.000000
51
270.000000
0
LINE
8
0
10
199.638931
20
24.907796
30
0.0
11
202.438931
21
24.907796
31
0.0
0
ARC
8
0
10
202.438931
20
25.407796
30
0.0
40
0.500000
50
270.000000
51
360.000000
0
LINE
8
0
10
202.938931
20
25.407796
30
0.0
11
202.938931
21
32.242476
31
0.0
0
LINE
8
0
10
202.724603
20
41.416071
30
0.0
11
201.632648
21
42.332331
31
0.0
0
ARC
8
0
10
200.925582
20
41.489682
30
0.0
40
1.100000
50
50.000000
51
170.000000
0
LINE
8
0
10
199.842293
20
41.680695
30
0.0
11
199.148046
21
37.743425
31
0.0
0
ARC
8
0
10
199.738931
20
37.639236
30
0.0
40
0.600000
50
170.000000
51
180.000000
0
LINE
8
0
10
199.138931
20
37.639236
30
0.0
11
199.138931
21
34.042476
31
0.0
0
ARC
8
0
10
199.638931
20
34.042476
30
0.0
40
0.500000
50
180.000000
51
270.000000
0
LINE
8
0
10
199.638931
20
33.542476
30
0.0
11
202.438931
21
33.542476
31
0.0
0
ARC
8
0
10
202.438931
20
34.042476
30
0.0
40
0.500000
50
270.000000
51
360.000000
0
LINE
8
0
10
202.938931
20
34.042476
30
0.0
11
202.938931
21
40.956444
31
0.0
0
ARC
8
0
10
202.338931
20
40.956444
30
0.0
40
0.600000
50
360.000000
51
50.000000
0
LINE
8
0
10
187.046288
20
45.248285
30
0.0
11
188.805799
21
47.007796
31
0.0
0
LINE
8
0
10
184.611874
20
40.568807
30
0.0
11
190.611874
21
46.568807
31
0.0
0
LINE
8
0
10
184.611874
20
38.323743
30
0.0
11
185.711874
21
39.423743
31
0.0
0
LINE
8
0
10
188.528891
20
42.240760
30
0.0
11
189.632186
21
43.344055
31
0.0
0
LINE
8
0
10
184.611874
20
36.078679
30
0.0
11
185.711874
21
37.178679
31
0.0
0
LINE
8
0
10
189.019173
20
40.485977
30
0.0
11
189.968713
21
41.435517
31
0.0
0
LINE
8
0
10
184.611874
20
33.833615
30
0.0
11
185.711874
21
34.933615
31
0.0
0
LINE
8
0
10
189.211874
20
38.433615
30
0.0
11
190.305239
21
39.526980
31
0.0
0
LINE
8
0
10
184.611874
20
31.588551
30
0.0
11
186.565800
21
33.542476
31
0.0
0
LINE
8
0
10
189.211874
20
36.188551
30
0.0
11
190.311874
21
37.288551
31
0.0
0
LINE
8
0
10
184.611874
20
29.343487
30
0.0
11
185.711874
21
30.443487
31
0.0
0
LINE
8
0
10
189.199260
20
33.930872
30
0.0
11
190.311874
21
35.043487
31
0.0
0
LINE
8
0
10
188.010864
20
32.742476
30
0.0
11
188.823478
21
33.555090
31
0.0
0
LINE
8
0
10
184.611874
20
27.098423
30
0.0
11
185.711874
21
28.198423
31
0.0
0
LINE
8
0
10
189.211874
20
31.698423
30
0.0
11
190.311874
21
32.798423
31
0.0
0
LINE
8
0
10
184.611874
20
24.853359
30
0.0
11
185.711874
21
25.953359
31
0.0
0
LINE
8
0
10
189.211874
20
29.453359
30
0.0
11
190.311874
21
30.553359
31
0.0
0
LINE
8
0
10
184.611874
20
22.608294
30
0.0
11
185.724943
21
23.721363
31
0.0
0
LINE
8
0
10
189.211874
20
27.208294
30
0.0
11
190.311874
21
28.308294
31
0.0
0
LINE
8
0
10
186.098307
20
24.094728
30
0.0
11
186.911376
21
24.907796
31
0.0
0
LINE
8
0
10
184.611874
20
20.363230
30
0.0
11
185.711874
21
21.463230
31
0.0
0
LINE
8
0
10
188.356440
20
24.107796
30
0.0
11
190.311874
21
26.063230
31
0.0
0
LINE
8
0
10
184.611874
20
18.118166
30
0.0
11
185.711874
21
19.218166
31
0.0
0
LINE
8
0
10
189.211874
20
22.718166
30
0.0
11
190.311874
21
23.818166
31
0.0
0
LINE
8
0
10
184.611874
20
15.873102
30
0.0
11
185.711874
21
16.973102
31
0.0
0
LINE
8
0
10
189.211874
20
20.473102
30
0.0
11
190.311874
21
21.573102
31
0.0
0
LINE
8
0
10
184.611874
20
13.628038
30
0.0
11
185.711874
21
14.728038
31
0.0
0
LINE
8
0
10
189.211874
20
18.228038
30
0.0
11
190.311874
21
19.328038
31
0.0
0
LINE
8
0
10
186.456952
20
15.473116
30
0.0
11
187.256952
21
16.273116
31
0.0
0
LINE
8
0
10
184.611874
20
11.382974
30
0.0
11
185.711874
21
12.482974
31
0.0
0
LINE
8
0
10
188.702016
20
15.473116
30
0.0
11
190.311874
21
17.082974
31
0.0
0
LINE
8
0
10
184.611874
20
9.137910
30
0.0
11
185.711874
21
10.237910
31
0.0
0
LINE
8
0
10
189.211874
20
13.737910
30
0.0
11
190.311874
21
14.837910
31
0.0
0
LINE
8
0
10
184.829257
20
7.110229
30
0.0
11
185.715189
21
7.996161
31
0.0
0
LINE
8
0
10
189.211874
20
11.492846
30
0.0
11
190.311874
21
12.592846
31
0.0
0
LINE
8
0
10
186.035746
20
6.071654
30
0.0
11
186.816535
21
6.852443
31
0.0
0
LINE
8
0
10
189.131662
20
9.167570
30
0.0
11
190.311874
21
10.347782
31
0.0
0
LINE
8
0
10
187.256487
20
5.047331
30
0.0
11
190.007135
21
7.797979
31
0.0
0
LINE
8
0
10
186.555216
20
2.100996
30
0.0
11
189.611874
21
5.157654
31
0.0
0
LINE
8
0
10
188.707080
20
2.007796
30
0.0
11
190.156676
21
3.457392
31
0.0
0
LINE
8
0
10
187.258486
20
2.007796
30
0.0
11
186.479358
21
2.786924
31
0.0
0
LINE
8
0
10
189.503550
20
2.007796
30
0.0
11
187.301942
21
4.209404
31
0.0
0
LINE
8
0
10
189.961496
20
3.794915
30
0.0
11
187.193386
21
6.563024
31
0.0
0
LINE
8
0
10
185.712057
20
8.044354
30
0.0
11
184.611874
21
9.144536
31
0.0
0
LINE
8
0
10
189.736776
20
6.264698
30
0.0
11
188.781751
21
7.219723
31
0.0
0
LINE
8
0
10
185.711874
20
10.289600
30
0.0
11
184.611874
21
11.389600
31
0.0
0
LINE
8
0
10
190.073303
20
8.173235
30
0.0
11
189.123763
21
9.122775
31
0.0
0
LINE
8
0
10
185.711874
20
12.534664
30
0.0
11
184.611874
21
13.634664
31
0.0
0
LINE
8
0
10
190.311874
20
10.179728
30
0.0
11
189.211874
21
11.279728
31
0.0
0
LINE
8
0
10
185.711874
20
14.779728
30
0.0
11
184.611874
21
15.879728
31
0.0
0
LINE
8
0
10
190.311874
20
12.424792
30
0.0
11
189.211874
21
13.524792
31
0.0
0
LINE
8
0
10
185.711874
20
17.024792
30
0.0
11
184.611874
21
18.124792
31
0.0
0
LINE
8
0
10
187.263551
20
15.473116
30
0.0
11
186.463551
21
16.273116
31
0.0
0
LINE
8
0
10
190.311874
20
14.669856
30
0.0
11
188.708615
21
16.273116
31
0.0
0
LINE
8
0
10
185.711874
20
19.269856
30
0.0
11
184.611874
21
20.369856
31
0.0
0
LINE
8
0
10
190.311874
20
16.914920
30
0.0
11
189.211874
21
18.014920
31
0.0
0
LINE
8
0
10
185.711874
20
21.514920
30
0.0
11
184.611874
21
22.614920
31
0.0
0
LINE
8
0
10
190.311874
20
19.159984
30
0.0
11
189.211874
21
20.259984
31
0.0
0
LINE
8
0
10
185.730143
20
23.741716
30
0.0
11
184.611874
21
24.859984
31
0.0
0
LINE
8
0
10
190.311874
20
21.405048
30
0.0
11
189.211874
21
22.505048
31
0.0
0
LINE
8
0
10
185.711874
20
26.005048
30
0.0
11
184.611874
21
27.105048
31
0.0
0
LINE
8
0
10
187.609127
20
24.107796
30
0.0
11
186.809127
21
24.907796
31
0.0
0
LINE
8
0
10
190.311874
20
23.650112
30
0.0
11
188.977683
21
24.984304
31
0.0
0
LINE
8
0
10
185.711874
20
28.250112
30
0.0
11
184.611874
21
29.350112
31
0.0
0
LINE
8
0
10
190.311874
20
25.895176
30
0.0
11
189.211874
21
26.995176
31
0.0
0
LINE
8
0
10
185.711874
20
30.495176
30
0.0
11
184.611874
21
31.595176
31
0.0
0
LINE
8
0
10
190.311874
20
28.140240
30
0.0
11
189.211874
21
29.240240
31
0.0
0
LINE
8
0
10
185.857205
20
32.594910
30
0.0
11
184.611874
21
33.840240
31
0.0
0
LINE
8
0
10
190.311874
20
30.385304
30
0.0
11
189.211874
21
31.485304
31
0.0
0
LINE
8
0
10
185.711874
20
34.985304
30
0.0
11
184.611874
21
36.085304
31
0.0
0
LINE
8
0
10
187.954703
20
32.742476
30
0.0
11
187.154703
21
33.542476
31
0.0
0
LINE
8
0
10
190.311874
20
32.630368
30
0.0
11
189.146664
21
33.795579
31
0.0
0
LINE
8
0
10
185.711874
20
37.230368
30
0.0
11
184.611874
21
38.330368
31
0.0
0
LINE
8
0
10
190.311874
20
34.875432
30
0.0
11
189.211874
21
35.975432
31
0.0
0
LINE
8
0
10
185.711874
20
39.475432
30
0.0
11
184.611874
21
40.575432
31
0.0
0
LINE
8
0
10
190.311874
20
37.120496
30
0.0
11
189.211874
21
38.220496
31
0.0
0
LINE
8
0
10
185.975192
20
41.457179
30
0.0
11
185.194403
21
42.237967
31
0.0
0
LINE
8
0
10
190.311874
20
39.365560
30
0.0
11
188.982291
21
40.695143
31
0.0
0
LINE
8
0
10
187.213847
20
42.463588
30
0.0
11
186.415144
21
43.262291
31
0.0
0
LINE
8
0
10
189.857765
20
42.064734
30
0.0
11
187.403133
21
44.519366
31
0.0
0
LINE
8
0
10
189.624510
20
44.543053
30
0.0
11
187.159767
21
47.007796
31
0.0
0
LINE
8
0
10
190.412330
20
46.000297
30
0.0
11
189.404831
21
47.007796
31
0.0
0
LINE
8
0
10
185.711874
20
34.042476
30
0.0
11
185.711874
21
40.956444
31
0.0
0
ARC
8
0
10
186.311874
20
40.956444
30
0.0
40
0.600000
50
130.000000
51
180.000000
0
LINE
8
0
10
185.926202
20
41.416071
30
0.0
11
187.018157
21
42.332331
31
0.0
0
ARC
8
0
10
187.725224
20
41.489682
30
0.0
40
1.100000
50
10.000000
51
130.000000
0
LINE
8
0
10
188.808512
20
41.680695
30
0.0
11
189.202759
21
39.444810
31
0.0
0
ARC
8
0
10
188.611874
20
39.340621
30
0.0
40
0.600000
50
360.000000
51
10.000000
0
LINE
8
0
10
189.211874
20
39.340621
30
0.0
11
189.211874
21
34.042476
31
0.0
0
ARC
8
0
10
188.711874
20
34.042476
30
0.0
40
0.500000
50
270.000000
51
360.000000
0
LINE
8
0
10
188.711874
20
33.542476
30
0.0
11
186.211874
21
33.542476
31
0.0
0
ARC
8
0
10
186.211874
20
34.042476
30
0.0
40
0.500000
50
180.000000
51
270.000000
0
ARC
8
0
10
186.211874
20
32.242476
30
0.0
40
0.500000
50
90.000000
51
180.000000
0
LINE
8
0
10
186.211874
20
32.742476
30
0.0
11
188.711874
21
32.742476
31
0.0
0
ARC
8
0
10
188.711874
20
32.242476
30
0.0
40
0.500000
50
360.000000
51
90.000000
0
LINE
8
0
10
189.211874
20
32.242476
30
0.0
11
189.211874
21
25.407796
31
0.0
0
ARC
8
0
10
188.711874
20
25.407796
30
0.0
40
0.500000
50
270.000000
51
360.000000
0
LINE
8
0
10
188.711874
20
24.907796
30
0.0
11
186.211874
21
24.907796
31
0.0
0
ARC
8
0
10
186.211874
20
25.407796
30
0.0
40
0.500000
50
180.000000
51
270.000000
0
LINE
8
0
10
185.711874
20
25.407796
30
0.0
11
185.711874
21
32.242476
31
0.0
0
ARC
8
0
10
188.711874
20
16.773116
30
0.0
40
0.500000
50
270.000000
51
360.000000
0
LINE
8
0
10
188.711874
20
16.273116
30
0.0
11
186.211874
21
16.273116
31
0.0
0
ARC
8
0
10
186.211874
20
16.773116
30
0.0
40
0.500000
50
180.000000
51
270.000000
0
LINE
8
0
10
185.711874
20
16.773116
30
0.0
11
185.711874
21
23.607796
31
0.0
0
ARC
8
0
10
186.211874
20
23.607796
30
0.0
40
0.500000
50
90.000000
51
180.000000
0
LINE
8
0
10
186.211874
20
24.107796
30
0.0
11
188.711874
21
24.107796
31
0.0
0
ARC
8
0
10
188.711874
20
23.607796
30
0.0
40
0.500000
50
360.000000
51
90.000000
0
LINE
8
0
10
189.211874
20
23.607796
30
0.0
11
189.211874
21
16.773116
31
0.0
0
LINE
8
0
10
186.411874
20
46.398916
30
0.0
11
186.436404
21
46.302946
31
0.0
0
LINE
8
0
10
186.411874
20
46.398916
30
0.0
11
186.411874
21
46.607796
31
0.0
0
ARC
8
0
10
186.811874
20
46.607796
30
0.0
40
0.400000
50
90.000000
51
180.000000
0
LINE
8
0
10
186.811874
20
47.007796
30
0.0
11
190.211874
21
47.007796
31
0.0
0
ARC
8
0
10
190.211874
20
46.607796
30
0.0
40
0.400000
50
360.000000
51
90.000000
0
LINE
8
0
10
190.611874
20
46.607796
30
0.0
11
190.611874
21
46.398916
31
0.0
0
LINE
8
0
10
190.587344
20
46.302946
30
0.0
11
190.611874
21
46.398916
31
0.0
0
LINE
8
0
10
190.587344
20
46.302946
30
0.0
11
189.719331
21
44.801907
31
0.0
0
ARC
8
0
10
190.411874
20
44.401426
30
0.0
40
0.800000
50
149.960294
51
180.000000
0
LINE
8
0
10
189.611874
20
44.401426
30
0.0
11
189.611874
21
43.485495
31
0.0
0
LINE
8
0
10
189.611874
20
43.485495
30
0.0
11
189.616432
21
43.433401
31
0.0
0
LINE
8
0
10
189.616432
20
43.433401
30
0.0
11
190.307317
21
39.515199
31
0.0
0
LINE
8
0
10
190.311874
20
39.463105
30
0.0
11
190.307317
21
39.515199
31
0.0
0
LINE
8
0
10
190.311874
20
39.463105
30
0.0
11
190.311874
21
24.507796
31
0.0
0
LINE
8
0
10
190.311874
20
24.507796
30
0.0
11
190.311874
21
9.552487
31
0.0
0
LINE
8
0
10
190.307317
20
9.500392
30
0.0
11
190.311874
21
9.552487
31
0.0
0
LINE
8
0
10
190.307317
20
9.500392
30
0.0
11
189.616432
21
5.582191
31
0.0
0
LINE
8
0
10
189.616432
20
5.582191
30
0.0
11
189.611874
21
5.530096
31
0.0
0
LINE
8
0
10
189.611874
20
5.530096
30
0.0
11
189.611874
21
4.614165
31
0.0
0
ARC
8
0
10
190.411874
20
4.614165
30
0.0
40
0.800000
50
180.000000
51
210.039706
0
LINE
8
0
10
189.719331
20
4.213685
30
0.0
11
190.587344
21
2.712646
31
0.0
0
LINE
8
0
10
190.611874
20
2.616676
30
0.0
11
190.587344
21
2.712646
31
0.0
0
LINE
8
0
10
190.611874
20
2.616676
30
0.0
11
190.611874
21
2.407796
31
0.0
0
ARC
8
0
10
190.211874
20
2.407796
30
0.0
40
0.400000
50
270.000000
51
360.000000
0
LINE
8
0
10
190.211874
20
2.007796
30
0.0
11
186.811874
21
2.007796
31
0.0
0
ARC
8
0
10
186.811874
20
2.407796
30
0.0
40
0.400000
50
180.000000
51
270.000000
0
LINE
8
0
10
186.411874
20
2.407796
30
0.0
11
186.411874
21
2.616676
31
0.0
0
LINE
8
0
10
186.436404
20
2.712646
30
0.0
11
186.411874
21
2.616676
31
0.0
0
LINE
8
0
10
186.436404
20
2.712646
30
0.0
11
187.304417
21
4.213685
31
0.0
0
ARC
8
0
10
186.611874
20
4.614165
30
0.0
40
0.800000
50
329.960294
51
360.000000
0
LINE
8
0
10
187.411874
20
4.614165
30
0.0
11
187.411874
21
4.777062
31
0.0
0
ARC
8
0
10
187.111874
20
4.777062
30
0.0
40
0.300000
50
360.000000
51
50.390000
0
LINE
8
0
10
187.303142
20
5.008183
30
0.0
11
184.969087
21
6.966687
31
0.0
0
ARC
8
0
10
185.611874
20
7.732732
30
0.0
40
1.000000
50
180.000000
51
230.000000
0
LINE
8
0
10
184.611874
20
7.732732
30
0.0
11
184.611874
21
24.507796
31
0.0
0
LINE
8
0
10
184.611874
20
24.507796
30
0.0
11
184.611874
21
41.282860
31
0.0
0
ARC
8
0
10
185.611874
20
41.282860
30
0.0
40
1.000000
50
130.000000
51
180.000000
0
LINE
8
0
10
184.969087
20
42.048904
30
0.0
11
187.303142
21
44.007409
31
0.0
0
ARC
8
0
10
187.111874
20
44.238530
30
0.0
40
0.300000
50
309.610000
51
360.000000
0
LINE
8
0
10
187.411874
20
44.238530
30
0.0
11
187.411874
21
44.401426
31
0.0
0
ARC
8
0
10
186.611874
20
44.401426
30
0.0
40
0.800000
50
360.000000
51
30.039706
0
LINE
8
0
10
187.304417
20
44.801907
30
0.0
11
186.436404
21
46.302946
31
0.0
0
ARC
8
0
10
186.311874
20
8.059147
30
0.0
40
0.600000
50
180.000000
51
230.000000
0
LINE
8
0
10
185.711874
20
8.059147
30
0.0
11
185.711874
21
14.973116
31
0.0
0
ARC
8
0
10
186.211874
20
14.973116
30
0.0
40
0.500000
50
90.000000
51
180.000000
0
LINE
8
0
10
186.211874
20
15.473116
30
0.0
11
188.711874
21
15.473116
31
0.0
0
ARC
8
0
10
188.711874
20
14.973116
30
0.0
40
0.500000
50
360.000000
51
90.000000
0
LINE
8
0
10
189.211874
20
14.973116
30
0.0
11
189.211874
21
9.674971
31
0.0
0
ARC
8
0
10
188.611874
20
9.674971
30
0.0
40
0.600000
50
350.000000
51
360.000000
0
LINE
8
0
10
189.202759
20
9.570782
30
0.0
11
188.808512
21
7.334897
31
0.0
0
ARC
8
0
10
187.725224
20
7.525910
30
0.0
40
1.100000
50
230.000000
51
350.000000
0
LINE
8
0
10
187.018157
20
6.683261
30
0.0
11
185.926202
21
7.599520
31
0.0
0
LINE
8
0
10
196.426736
20
41.122103
30
0.0
11
196.549187
21
40.976172
31
0.0
0
LINE
8
0
10
197.896149
20
39.370926
30
0.0
11
198.018600
21
39.224994
31
0.0
0
LINE
8
0
10
196.074302
20
39.211535
30
0.0
11
196.196753
21
39.065603
31
0.0
0
LINE
8
0
10
197.543715
20
37.460357
30
0.0
11
197.666166
21
37.314426
31
0.0
0
LINE
8
0
10
195.721868
20
37.300966
30
0.0
11
195.844319
21
37.155035
31
0.0
0
LINE
8
0
10
197.191280
20
35.549789
30
0.0
11
197.313731
21
35.403857
31
0.0
0
LINE
8
0
10
195.369434
20
35.390398
30
0.0
11
195.491885
21
35.244466
31
0.0
0
LINE
8
0
10
196.838846
20
33.639220
30
0.0
11
196.961297
21
33.493289
31
0.0
0
LINE
8
0
10
195.038931
20
33.453693
30
0.0
11
195.139451
21
33.333898
31
0.0
0
LINE
8
0
10
196.486412
20
31.728652
30
0.0
11
196.608863
21
31.582720
31
0.0
0
LINE
8
0
10
197.955824
20
29.977474
30
0.0
11
198.038931
21
29.878432
31
0.0
0
LINE
8
0
10
196.133978
20
29.818083
30
0.0
11
196.256429
21
29.672152
31
0.0
0
LINE
8
0
10
197.603390
20
28.066906
30
0.0
11
197.725841
21
27.920974
31
0.0
0
LINE
8
0
10
195.781544
20
27.907515
30
0.0
11
195.903995
21
27.761583
31
0.0
0
LINE
8
0
10
197.250956
20
26.156337
30
0.0
11
197.373407
21
26.010406
31
0.0
0
LINE
8
0
10
195.429109
20
25.996946
30
0.0
11
195.551560
21
25.851015
31
0.0
0
LINE
8
0
10
196.898522
20
24.245769
30
0.0
11
197.020973
21
24.099837
31
0.0
0
LINE
8
0
10
195.076675
20
24.086378
30
0.0
11
195.199126
21
23.940447
31
0.0
0
LINE
8
0
10
196.546088
20
22.335200
30
0.0
11
196.668539
21
22.189269
31
0.0
0
LINE
8
0
10
198.015500
20
20.584023
30
0.0
11
198.038931
21
20.556099
31
0.0
0
LINE
8
0
10
196.193653
20
20.424632
30
0.0
11
196.316104
21
20.278701
31
0.0
0
LINE
8
0
10
197.663066
20
18.673454
30
0.0
11
197.785517
21
18.527523
31
0.0
0
LINE
8
0
10
195.841219
20
18.514064
30
0.0
11
195.963670
21
18.368132
31
0.0
0
LINE
8
0
10
197.310632
20
16.762886
30
0.0
11
197.433083
21
16.616954
31
0.0
0
LINE
8
0
10
195.488785
20
16.603495
30
0.0
11
195.611236
21
16.457564
31
0.0
0
LINE
8
0
10
196.958197
20
14.852317
30
0.0
11
197.080648
21
14.706386
31
0.0
0
LINE
8
0
10
195.136351
20
14.692927
30
0.0
11
195.258802
21
14.546995
31
0.0
0
LINE
8
0
10
196.605763
20
12.941749
30
0.0
11
196.728214
21
12.795818
31
0.0
0
LINE
8
0
10
196.253329
20
11.031181
30
0.0
11
196.375780
21
10.885249
31
0.0
0
LINE
8
0
10
197.722741
20
9.280003
30
0.0
11
197.845193
21
9.134072
31
0.0
0
LINE
8
0
10
195.900895
20
9.120612
30
0.0
11
196.023346
21
8.974681
31
0.0
0
LINE
8
0
10
197.370307
20
7.369435
30
0.0
11
197.492758
21
7.223503
31
0.0
0
LINE
8
0
10
195.548461
20
7.210044
30
0.0
11
195.653246
21
7.085165
31
0.0
0
LINE
8
0
10
196.426740
20
41.122066
30
0.0
11
196.578560
21
41.135348
31
0.0
0
LINE
8
0
10
196.074305
20
39.211497
30
0.0
11
196.226125
21
39.224780
31
0.0
0
LINE
8
0
10
197.896152
20
39.370888
30
0.0
11
198.038931
21
39.383380
31
0.0
0
LINE
8
0
10
195.721871
20
37.300929
30
0.0
11
195.873691
21
37.314211
31
0.0
0
LINE
8
0
10
197.543718
20
37.460320
30
0.0
11
197.695538
21
37.473602
31
0.0
0
LINE
8
0
10
195.369437
20
35.390360
30
0.0
11
195.521257
21
35.403643
31
0.0
0
LINE
8
0
10
197.191284
20
35.549751
30
0.0
11
197.343104
21
35.563034
31
0.0
0
LINE
8
0
10
195.038931
20
33.481710
30
0.0
11
195.168823
21
33.493074
31
0.0
0
LINE
8
0
10
196.838849
20
33.639183
30
0.0
11
196.990670
21
33.652465
31
0.0
0
LINE
8
0
10
196.486415
20
31.728614
30
0.0
11
196.638235
21
31.741897
31
0.0
0
LINE
8
0
10
196.133981
20
29.818046
30
0.0
11
196.285801
21
29.831328
31
0.0
0
LINE
8
0
10
197.955828
20
29.977437
30
0.0
11
198.038931
21
29.984707
31
0.0
0
LINE
8
0
10
195.781547
20
27.907477
30
0.0
11
195.933367
21
27.920760
31
0.0
0
LINE
8
0
10
197.603393
20
28.066868
30
0.0
11
197.755214
21
28.080151
31
0.0
0
LINE
8
0
10
195.429113
20
25.996909
30
0.0
11
195.580933
21
26.010191
31
0.0
0
LINE
8
0
10
197.250959
20
26.156300
30
0.0
11
197.402779
21
26.169582
31
0.0
0
LINE
8
0
10
195.076678
20
24.086340
30
0.0
11
195.228498
21
24.099623
31
0.0
0
LINE
8
0
10
196.898525
20
24.245731
30
0.0
11
197.050345
21
24.259014
31
0.0
0
LINE
8
0
10
196.546091
20
22.335163
30
0.0
11
196.697911
21
22.348445
31
0.0
0
LINE
8
0
10
196.193657
20
20.424594
30
0.0
11
196.345477
21
20.437877
31
0.0
0
LINE
8
0
10
198.015503
20
20.583985
30
0.0
11
198.038931
21
20.586035
31
0.0
0
LINE
8
0
10
195.841222
20
18.514026
30
0.0
11
195.993042
21
18.527309
31
0.0
0
LINE
8
0
10
197.663069
20
18.673417
30
0.0
11
197.814889
21
18.686699
31
0.0
0
LINE
8
0
10
195.488788
20
16.603458
30
0.0
11
195.640608
21
16.616740
31
0.0
0
LINE
8
0
10
197.310635
20
16.762849
30
0.0
11
197.462455
21
16.776131
31
0.0
0
LINE
8
0
10
195.136354
20
14.692889
30
0.0
11
195.288174
21
14.706172
31
0.0
0
LINE
8
0
10
196.958201
20
14.852280
30
0.0
11
197.110021
21
14.865563
31
0.0
0
LINE
8
0
10
196.605766
20
12.941712
30
0.0
11
196.757587
21
12.954994
31
0.0
0
LINE
8
0
10
196.253332
20
11.031143
30
0.0
11
196.405152
21
11.044426
31
0.0
0
LINE
8
0
10
195.900898
20
9.120575
30
0.0
11
196.052718
21
9.133857
31
0.0
0
LINE
8
0
10
197.722745
20
9.279966
30
0.0
11
197.874565
21
9.293248
31
0.0
0
LINE
8
0
10
195.548464
20
7.210006
30
0.0
11
195.700284
21
7.223289
31
0.0
0
LINE
8
0
10
197.370310
20
7.369397
30
0.0
11
197.522131
21
7.382680
31
0.0
0
LINE
8
0
10
197.879072
20
9.292416
30
0.0
11
197.849703
21
9.133202
31
0.0
0
LINE
8
0
10
197.526643
20
7.381846
30
0.0
11
197.497274
21
7.222632
31
0.0
0
LINE
8
0
10
197.819374
20
18.685871
30
0.0
11
197.790005
21
18.526657
31
0.0
0
LINE
8
0
10
197.466945
20
16.775302
30
0.0
11
197.437576
21
16.616088
31
0.0
0
LINE
8
0
10
197.114517
20
14.864732
30
0.0
11
197.085148
21
14.705518
31
0.0
0
LINE
8
0
10
196.762088
20
12.954163
30
0.0
11
196.732719
21
12.794949
31
0.0
0
LINE
8
0
10
196.409659
20
11.043593
30
0.0
11
196.380290
21
10.884379
31
0.0
0
LINE
8
0
10
196.057231
20
9.133024
30
0.0
11
196.027862
21
8.973810
31
0.0
0
LINE
8
0
10
195.704802
20
7.222454
30
0.0
11
195.677664
21
7.075333
31
0.0
0
LINE
8
0
10
197.759676
20
28.079327
30
0.0
11
197.730307
21
27.920113
31
0.0
0
LINE
8
0
10
197.407248
20
26.168757
30
0.0
11
197.377879
21
26.009543
31
0.0
0
LINE
8
0
10
197.054819
20
24.258188
30
0.0
11
197.025450
21
24.098974
31
0.0
0
LINE
8
0
10
196.702390
20
22.347618
30
0.0
11
196.673021
21
22.188404
31
0.0
0
LINE
8
0
10
196.349962
20
20.437049
30
0.0
11
196.320593
21
20.277835
31
0.0
0
LINE
8
0
10
195.997533
20
18.526479
30
0.0
11
195.968164
21
18.367265
31
0.0
0
LINE
8
0
10
195.645104
20
16.615910
30
0.0
11
195.615735
21
16.456696
31
0.0
0
LINE
8
0
10
195.292676
20
14.705340
30
0.0
11
195.263307
21
14.546126
31
0.0
0
LINE
8
0
10
198.038931
20
39.310295
30
0.0
11
198.023038
21
39.224138
31
0.0
0
LINE
8
0
10
197.699978
20
37.472782
30
0.0
11
197.670609
21
37.313568
31
0.0
0
LINE
8
0
10
197.347550
20
35.562213
30
0.0
11
197.318181
21
35.402999
31
0.0
0
LINE
8
0
10
196.995121
20
33.651643
30
0.0
11
196.965752
21
33.492429
31
0.0
0
LINE
8
0
10
196.642692
20
31.741074
30
0.0
11
196.613323
21
31.581860
31
0.0
0
LINE
8
0
10
196.290264
20
29.830504
30
0.0
11
196.260895
21
29.671290
31
0.0
0
LINE
8
0
10
195.937835
20
27.919935
30
0.0
11
195.908466
21
27.760721
31
0.0
0
LINE
8
0
10
195.585406
20
26.009365
30
0.0
11
195.556037
21
25.850151
31
0.0
0
LINE
8
0
10
195.232978
20
24.098796
30
0.0
11
195.203609
21
23.939582
31
0.0
0
LINE
8
0
10
196.582995
20
41.134529
30
0.0
11
196.553626
21
40.975315
31
0.0
0
LINE
8
0
10
196.230566
20
39.223960
30
0.0
11
196.201197
21
39.064746
31
0.0
0
LINE
8
0
10
195.878137
20
37.313390
30
0.0
11
195.848768
21
37.154176
31
0.0
0
LINE
8
0
10
195.525709
20
35.402821
30
0.0
11
195.496340
21
35.243607
31
0.0
0
LINE
8
0
10
195.173280
20
33.492251
30
0.0
11
195.143911
21
33.333037
31
0.0
0
LINE
8
0
10
196.983936
20
41.802194
30
0.0
11
197.181772
21
41.596005
31
0.0
0
LINE
8
0
10
196.647187
20
38.907509
30
0.0
11
196.845023
21
38.701321
31
0.0
0
LINE
8
0
10
196.310438
20
36.012825
30
0.0
11
196.508274
21
35.806636
31
0.0
0
LINE
8
0
10
195.973688
20
33.118140
30
0.0
11
196.171525
21
32.911952
31
0.0
0
LINE
8
0
10
195.636939
20
30.223455
30
0.0
11
195.834776
21
30.017267
31
0.0
0
LINE
8
0
10
198.010981
20
27.749194
30
0.0
11
198.038931
21
27.720064
31
0.0
0
LINE
8
0
10
195.300190
20
27.328771
30
0.0
11
195.498027
21
27.122582
31
0.0
0
LINE
8
0
10
197.674232
20
24.854510
30
0.0
11
197.872068
21
24.648321
31
0.0
0
LINE
8
0
10
195.038931
20
24.355410
30
0.0
11
195.161278
21
24.227898
31
0.0
0
LINE
8
0
10
197.337483
20
21.959825
30
0.0
11
197.535319
21
21.753637
31
0.0
0
LINE
8
0
10
197.000734
20
19.065141
30
0.0
11
197.198570
21
18.858952
31
0.0
0
LINE
8
0
10
196.663984
20
16.170456
30
0.0
11
196.861821
21
15.964268
31
0.0
0
LINE
8
0
10
196.327235
20
13.275772
30
0.0
11
196.525072
21
13.069583
31
0.0
0
LINE
8
0
10
195.990486
20
10.381087
30
0.0
11
196.188323
21
10.174899
31
0.0
0
LINE
8
0
10
195.653737
20
7.486403
30
0.0
11
195.851574
21
7.280214
31
0.0
0
LINE
8
0
10
197.901193
20
24.889421
30
0.0
11
197.873131
21
24.648198
31
0.0
0
LINE
8
0
10
197.564446
20
21.994736
30
0.0
11
197.536384
21
21.753513
31
0.0
0
LINE
8
0
10
197.227699
20
19.100052
30
0.0
11
197.199636
21
18.858828
31
0.0
0
LINE
8
0
10
196.890952
20
16.205367
30
0.0
11
196.862889
21
15.964144
31
0.0
0
LINE
8
0
10
196.554205
20
13.310682
30
0.0
11
196.526142
21
13.069459
31
0.0
0
LINE
8
0
10
196.217457
20
10.415997
30
0.0
11
196.189395
21
10.174774
31
0.0
0
LINE
8
0
10
195.880710
20
7.521313
30
0.0
11
195.852648
21
7.280089
31
0.0
0
LINE
8
0
10
197.210887
20
41.837106
30
0.0
11
197.182825
21
41.595883
31
0.0
0
LINE
8
0
10
196.874140
20
38.942421
30
0.0
11
196.846078
21
38.701198
31
0.0
0
LINE
8
0
10
196.537393
20
36.047737
30
0.0
11
196.509330
21
35.806513
31
0.0
0
LINE
8
0
10
196.200646
20
33.153052
30
0.0
11
196.172583
21
32.911829
31
0.0
0
LINE
8
0
10
195.863899
20
30.258367
30
0.0
11
195.835836
21
30.017144
31
0.0
0
LINE
8
0
10
195.527151
20
27.363682
30
0.0
11
195.499089
21
27.122459
31
0.0
0
LINE
8
0
10
195.190404
20
24.468998
30
0.0
11
195.162342
21
24.227774
31
0.0
0
LINE
8
0
10
196.984713
20
41.803842
30
0.0
11
197.210612
21
41.838877
31
0.0
0
LINE
8
0
10
196.647966
20
38.909161
30
0.0
11
196.873865
21
38.944196
31
0.0
0
LINE
8
0
10
196.311218
20
36.014480
30
0.0
11
196.537117
21
36.049515
31
0.0
0
LINE
8
0
10
195.974470
20
33.119798
30
0.0
11
196.200369
21
33.154833
31
0.0
0
LINE
8
0
10
195.637723
20
30.225117
30
0.0
11
195.863622
21
30.260152
31
0.0
0
LINE
8
0
10
195.300975
20
27.330435
30
0.0
11
195.526874
21
27.365470
31
0.0
0
LINE
8
0
10
198.011764
20
27.750856
30
0.0
11
198.038931
21
27.755069
31
0.0
0
LINE
8
0
10
195.038931
20
24.447340
30
0.0
11
195.190127
21
24.470789
31
0.0
0
LINE
8
0
10
197.675017
20
24.856174
30
0.0
11
197.900916
21
24.891209
31
0.0
0
LINE
8
0
10
197.338269
20
21.961493
30
0.0
11
197.564168
21
21.996528
31
0.0
0
LINE
8
0
10
197.001521
20
19.066811
30
0.0
11
197.227420
21
19.101846
31
0.0
0
LINE
8
0
10
196.664774
20
16.172130
30
0.0
11
196.890673
21
16.207165
31
0.0
0
LINE
8
0
10
196.328026
20
13.277449
30
0.0
11
196.553925
21
13.312484
31
0.0
0
LINE
8
0
10
195.991279
20
10.382767
30
0.0
11
196.217178
21
10.417802
31
0.0
0
LINE
8
0
10
195.654531
20
7.488086
30
0.0
11
195.880430
21
7.523121
31
0.0
0
LINE
8
0
10
196.931079
20
40.987669
30
0.0
11
197.108926
21
40.919400
31
0.0
0
LINE
8
0
10
195.414935
20
39.965017
30
0.0
11
195.592782
21
39.896748
31
0.0
0
LINE
8
0
10
197.549100
20
39.145788
30
0.0
11
197.726947
21
39.077519
31
0.0
0
LINE
8
0
10
196.032956
20
38.123136
30
0.0
11
196.210803
21
38.054867
31
0.0
0
LINE
8
0
10
196.650977
20
36.281255
30
0.0
11
196.828824
21
36.212986
31
0.0
0
LINE
8
0
10
195.134833
20
35.258603
30
0.0
11
195.312680
21
35.190334
31
0.0
0
LINE
8
0
10
197.268998
20
34.439374
30
0.0
11
197.446845
21
34.371104
31
0.0
0
LINE
8
0
10
195.752854
20
33.416722
30
0.0
11
195.930701
21
33.348452
31
0.0
0
LINE
8
0
10
197.887019
20
32.597492
30
0.0
11
198.038931
21
32.539179
31
0.0
0
LINE
8
0
10
196.370875
20
31.574840
30
0.0
11
196.548722
21
31.506571
31
0.0
0
LINE
8
0
10
196.988896
20
29.732959
30
0.0
11
197.166743
21
29.664690
31
0.0
0
LINE
8
0
10
195.472752
20
28.710307
30
0.0
11
195.650599
21
28.642038
31
0.0
0
LINE
8
0
10
197.606917
20
27.891078
30
0.0
11
197.784764
21
27.822809
31
0.0
0
LINE
8
0
10
196.090773
20
26.868426
30
0.0
11
196.268620
21
26.800157
31
0.0
0
LINE
8
0
10
196.708794
20
25.026545
30
0.0
11
196.886641
21
24.958276
31
0.0
0
LINE
8
0
10
195.192650
20
24.003893
30
0.0
11
195.370497
21
23.935624
31
0.0
0
LINE
8
0
10
197.326815
20
23.184664
30
0.0
11
197.504662
21
23.116395
31
0.0
0
LINE
8
0
10
195.810671
20
22.162012
30
0.0
11
195.988518
21
22.093743
31
0.0
0
LINE
8
0
10
197.944836
20
21.342783
30
0.0
11
198.038931
21
21.306663
31
0.0
0
LINE
8
0
10
196.428692
20
20.320131
30
0.0
11
196.606539
21
20.251862
31
0.0
0
LINE
8
0
10
195.038931
20
19.248965
30
0.0
11
195.090395
21
19.229210
31
0.0
0
LINE
8
0
10
197.046713
20
18.478250
30
0.0
11
197.224560
21
18.409981
31
0.0
0
LINE
8
0
10
195.530569
20
17.455598
30
0.0
11
195.708416
21
17.387329
31
0.0
0
LINE
8
0
10
197.664734
20
16.636369
30
0.0
11
197.842581
21
16.568100
31
0.0
0
LINE
8
0
10
196.148590
20
15.613717
30
0.0
11
196.326437
21
15.545448
31
0.0
0
LINE
8
0
10
196.766611
20
13.771836
30
0.0
11
196.944458
21
13.703566
31
0.0
0
LINE
8
0
10
195.250467
20
12.749184
30
0.0
11
195.428314
21
12.680915
31
0.0
0
LINE
8
0
10
197.384632
20
11.929954
30
0.0
11
197.562479
21
11.861685
31
0.0
0
LINE
8
0
10
195.868488
20
10.907302
30
0.0
11
196.046335
21
10.839033
31
0.0
0
LINE
8
0
10
198.002653
20
10.088073
30
0.0
11
198.038931
21
10.074147
31
0.0
0
LINE
8
0
10
196.486509
20
9.065421
30
0.0
11
196.664356
21
8.997152
31
0.0
0
LINE
8
0
10
195.038931
20
8.016449
30
0.0
11
195.148212
21
7.974500
31
0.0
0
LINE
8
0
10
197.104530
20
7.223540
30
0.0
11
197.282377
21
7.155271
31
0.0
0
LINE
8
0
10
195.414942
20
39.965002
30
0.0
11
195.541287
21
40.050223
31
0.0
0
LINE
8
0
10
196.931086
20
40.987654
30
0.0
11
197.057431
21
41.072875
31
0.0
0
LINE
8
0
10
196.032962
20
38.123123
30
0.0
11
196.159307
21
38.208344
31
0.0
0
LINE
8
0
10
197.549106
20
39.145775
30
0.0
11
197.675451
21
39.230996
31
0.0
0
LINE
8
0
10
195.134838
20
35.258591
30
0.0
11
195.261184
21
35.343812
31
0.0
0
LINE
8
0
10
196.650982
20
36.281243
30
0.0
11
196.777328
21
36.366464
31
0.0
0
LINE
8
0
10
195.752859
20
33.416711
30
0.0
11
195.879204
21
33.501932
31
0.0
0
LINE
8
0
10
197.269003
20
34.439363
30
0.0
11
197.395348
21
34.524584
31
0.0
0
LINE
8
0
10
196.370879
20
31.574832
30
0.0
11
196.497224
21
31.660053
31
0.0
0
LINE
8
0
10
197.887023
20
32.597484
30
0.0
11
198.013368
21
32.682705
31
0.0
0
LINE
8
0
10
195.472755
20
28.710300
30
0.0
11
195.599101
21
28.795521
31
0.0
0
LINE
8
0
10
196.988899
20
29.732952
30
0.0
11
197.115245
21
29.818173
31
0.0
0
LINE
8
0
10
196.090776
20
26.868420
30
0.0
11
196.217121
21
26.953641
31
0.0
0
LINE
8
0
10
197.606920
20
27.891072
30
0.0
11
197.733265
21
27.976293
31
0.0
0
LINE
8
0
10
195.192652
20
24.003889
30
0.0
11
195.318997
21
24.089110
31
0.0
0
LINE
8
0
10
196.708796
20
25.026541
30
0.0
11
196.835141
21
25.111762
31
0.0
0
LINE
8
0
10
195.810672
20
22.162009
30
0.0
11
195.937018
21
22.247230
31
0.0
0
LINE
8
0
10
197.326816
20
23.184661
30
0.0
11
197.453162
21
23.269882
31
0.0
0
LINE
8
0
10
196.428693
20
20.320129
30
0.0
11
196.555038
21
20.405350
31
0.0
0
LINE
8
0
10
197.944836
20
21.342781
30
0.0
11
198.038931
21
21.406249
31
0.0
0
LINE
8
0
10
195.530569
20
17.455598
30
0.0
11
195.656914
21
17.540819
31
0.0
0
LINE
8
0
10
197.046713
20
18.478250
30
0.0
11
197.173058
21
18.563471
31
0.0
0
LINE
8
0
10
196.148589
20
15.613718
30
0.0
11
196.274935
21
15.698939
31
0.0
0
LINE
8
0
10
197.664733
20
16.636370
30
0.0
11
197.791078
21
16.721591
31
0.0
0
LINE
8
0
10
195.250466
20
12.749187
30
0.0
11
195.376811
21
12.834408
31
0.0
0
LINE
8
0
10
196.766610
20
13.771838
30
0.0
11
196.892955
21
13.857059
31
0.0
0
LINE
8
0
10
195.868486
20
10.907307
30
0.0
11
195.994831
21
10.992528
31
0.0
0
LINE
8
0
10
197.384630
20
11.929959
30
0.0
11
197.510975
21
12.015180
31
0.0
0
LINE
8
0
10
195.038931
20
8.089025
30
0.0
11
195.096708
21
8.127996
31
0.0
0
LINE
8
0
10
196.486506
20
9.065427
30
0.0
11
196.612851
21
9.150648
31
0.0
0
LINE
8
0
10
198.002650
20
10.088079
30
0.0
11
198.038931
21
10.112551
31
0.0
0
LINE
8
0
10
197.104526
20
7.223548
30
0.0
11
197.230872
21
7.308769
31
0.0
0
LINE
8
0
10
197.057528
20
41.072913
30
0.0
11
197.109030
21
40.919423
31
0.0
0
LINE
8
0
10
197.675548
20
39.231034
30
0.0
11
197.727050
21
39.077544
31
0.0
0
LINE
8
0
10
195.541384
20
40.050261
30
0.0
11
195.592886
21
39.896771
31
0.0
0
LINE
8
0
10
196.159405
20
38.208382
30
0.0
11
196.210906
21
38.054892
31
0.0
0
LINE
8
0
10
196.777425
20
36.366502
30
0.0
11
196.828927
21
36.213012
31
0.0
0
LINE
8
0
10
197.395446
20
34.524623
30
0.0
11
197.446947
21
34.371133
31
0.0
0
LINE
8
0
10
198.013466
20
32.682743
30
0.0
11
198.038931
21
32.606850
31
0.0
0
LINE
8
0
10
195.261281
20
35.343850
30
0.0
11
195.312783
21
35.190360
31
0.0
0
LINE
8
0
10
195.879302
20
33.501971
30
0.0
11
195.930804
21
33.348481
31
0.0
0
LINE
8
0
10
196.497322
20
31.660091
30
0.0
11
196.548824
21
31.506601
31
0.0
0
LINE
8
0
10
197.115343
20
29.818212
30
0.0
11
197.166844
21
29.664721
31
0.0
0
LINE
8
0
10
197.733363
20
27.976332
30
0.0
11
197.784865
21
27.822842
31
0.0
0
LINE
8
0
10
195.599199
20
28.795560
30
0.0
11
195.650701
21
28.642069
31
0.0
0
LINE
8
0
10
196.217219
20
26.953680
30
0.0
11
196.268721
21
26.800190
31
0.0
0
LINE
8
0
10
196.835240
20
25.111800
30
0.0
11
196.886741
21
24.958310
31
0.0
0
LINE
8
0
10
197.453260
20
23.269921
30
0.0
11
197.504762
21
23.116431
31
0.0
0
LINE
8
0
10
195.319096
20
24.089148
30
0.0
11
195.370598
21
23.935658
31
0.0
0
LINE
8
0
10
195.937116
20
22.247269
30
0.0
11
195.988618
21
22.093779
31
0.0
0
LINE
8
0
10
196.555137
20
20.405389
30
0.0
11
196.606639
21
20.251899
31
0.0
0
LINE
8
0
10
197.173157
20
18.563510
30
0.0
11
197.224659
21
18.410020
31
0.0
0
LINE
8
0
10
197.791178
20
16.721630
30
0.0
11
197.842679
21
16.568140
31
0.0
0
LINE
8
0
10
195.038993
20
19.382737
30
0.0
11
195.090495
21
19.229247
31
0.0
0
LINE
8
0
10
195.657013
20
17.540858
30
0.0
11
195.708515
21
17.387368
31
0.0
0
LINE
8
0
10
196.275034
20
15.698978
30
0.0
11
196.326536
21
15.545488
31
0.0
0
LINE
8
0
10
196.893054
20
13.857098
30
0.0
11
196.944556
21
13.703608
31
0.0
0
LINE
8
0
10
197.511075
20
12.015219
30
0.0
11
197.562577
21
11.861729
31
0.0
0
LINE
8
0
10
195.376911
20
12.834447
30
0.0
11
195.428412
21
12.680956
31
0.0
0
LINE
8
0
10
195.994931
20
10.992567
30
0.0
11
196.046433
21
10.839077
31
0.0
0
LINE
8
0
10
196.612951
20
9.150687
30
0.0
11
196.664453
21
8.997197
31
0.0
0
LINE
8
0
10
197.230972
20
7.308808
30
0.0
11
197.282474
21
7.155318
31
0.0
0
LINE
8
0
10
195.096808
20
8.128035
30
0.0
11
195.148309
21
7.974545
31
0.0
0
LINE
8
0
10
197.538931
20
7.007796
30
0.0
11
195.538931
21
7.007796
31
0.0
0
ARC
8
0
10
195.538931
20
7.507796
30
0.0
40
0.500000
50
180.000000
51
270.000000
0
LINE
8
0
10
195.038931
20
7.507796
30
0.0
11
195.038931
21
41.507796
31
0.0
0
ARC
8
0
10
195.538931
20
41.507796
30
0.0
40
0.500000
50
90.000000
51
180.000000
0
LINE
8
0
10
195.538931
20
42.007796
30
0.0
11
197.538931
21
42.007796
31
0.0
0
ARC
8
0
10
197.538931
20
41.507796
30
0.0
40
0.500000
50
360.000000
51
90.000000
0
LINE
8
0
10
198.038931
20
41.507796
30
0.0
11
198.038931
21
7.507796
31
0.0
0
ARC
8
0
10
197.538931
20
7.507796
30
0.0
40
0.500000
50
270.000000
51
360.000000
0
LINE
8
0
10
192.802345
20
7.210044
30
0.0
11
192.697559
21
7.085165
31
0.0
0
LINE
8
0
10
192.449910
20
9.120612
30
0.0
11
192.327459
21
8.974681
31
0.0
0
LINE
8
0
10
190.980498
20
7.369435
30
0.0
11
190.858047
21
7.223503
31
0.0
0
LINE
8
0
10
192.097476
20
11.031181
30
0.0
11
191.975025
21
10.885249
31
0.0
0
LINE
8
0
10
190.628064
20
9.280003
30
0.0
11
190.505613
21
9.134072
31
0.0
0
LINE
8
0
10
193.214454
20
14.692927
30
0.0
11
193.092003
21
14.546995
31
0.0
0
LINE
8
0
10
191.745042
20
12.941749
30
0.0
11
191.622591
21
12.795818
31
0.0
0
LINE
8
0
10
192.862020
20
16.603495
30
0.0
11
192.739569
21
16.457564
31
0.0
0
LINE
8
0
10
191.392608
20
14.852317
30
0.0
11
191.270157
21
14.706386
31
0.0
0
LINE
8
0
10
192.509586
20
18.514064
30
0.0
11
192.387135
21
18.368132
31
0.0
0
LINE
8
0
10
191.040174
20
16.762886
30
0.0
11
190.917723
21
16.616954
31
0.0
0
LINE
8
0
10
192.157152
20
20.424632
30
0.0
11
192.034701
21
20.278701
31
0.0
0
LINE
8
0
10
190.687739
20
18.673454
30
0.0
11
190.565288
21
18.527523
31
0.0
0
LINE
8
0
10
193.274130
20
24.086378
30
0.0
11
193.151679
21
23.940447
31
0.0
0
LINE
8
0
10
191.804718
20
22.335200
30
0.0
11
191.682267
21
22.189269
31
0.0
0
LINE
8
0
10
190.335305
20
20.584023
30
0.0
11
190.311874
21
20.556099
31
0.0
0
LINE
8
0
10
192.921696
20
25.996946
30
0.0
11
192.799245
21
25.851015
31
0.0
0
LINE
8
0
10
191.452283
20
24.245769
30
0.0
11
191.329832
21
24.099837
31
0.0
0
LINE
8
0
10
192.569262
20
27.907515
30
0.0
11
192.446811
21
27.761583
31
0.0
0
LINE
8
0
10
191.099849
20
26.156337
30
0.0
11
190.977398
21
26.010406
31
0.0
0
LINE
8
0
10
192.216827
20
29.818083
30
0.0
11
192.094376
21
29.672152
31
0.0
0
LINE
8
0
10
190.747415
20
28.066906
30
0.0
11
190.624964
21
27.920974
31
0.0
0
LINE
8
0
10
193.311874
20
33.453693
30
0.0
11
193.211355
21
33.333898
31
0.0
0
LINE
8
0
10
191.864393
20
31.728652
30
0.0
11
191.741942
21
31.582720
31
0.0
0
LINE
8
0
10
190.394981
20
29.977474
30
0.0
11
190.311874
21
29.878432
31
0.0
0
LINE
8
0
10
192.981372
20
35.390398
30
0.0
11
192.858920
21
35.244466
31
0.0
0
LINE
8
0
10
191.511959
20
33.639220
30
0.0
11
191.389508
21
33.493289
31
0.0
0
LINE
8
0
10
192.628937
20
37.300966
30
0.0
11
192.506486
21
37.155035
31
0.0
0
LINE
8
0
10
191.159525
20
35.549789
30
0.0
11
191.037074
21
35.403857
31
0.0
0
LINE
8
0
10
192.276503
20
39.211535
30
0.0
11
192.154052
21
39.065603
31
0.0
0
LINE
8
0
10
190.807091
20
37.460357
30
0.0
11
190.684640
21
37.314426
31
0.0
0
LINE
8
0
10
191.924069
20
41.122103
30
0.0
11
191.801618
21
40.976172
31
0.0
0
LINE
8
0
10
190.454656
20
39.370926
30
0.0
11
190.332205
21
39.224994
31
0.0
0
LINE
8
0
10
192.802341
20
7.210006
30
0.0
11
192.650521
21
7.223289
31
0.0
0
LINE
8
0
10
190.980495
20
7.369397
30
0.0
11
190.828675
21
7.382680
31
0.0
0
LINE
8
0
10
192.449907
20
9.120575
30
0.0
11
192.298087
21
9.133857
31
0.0
0
LINE
8
0
10
190.628061
20
9.279966
30
0.0
11
190.476240
21
9.293248
31
0.0
0
LINE
8
0
10
192.097473
20
11.031143
30
0.0
11
191.945653
21
11.044426
31
0.0
0
LINE
8
0
10
191.745039
20
12.941712
30
0.0
11
191.593219
21
12.954994
31
0.0
0
LINE
8
0
10
193.214451
20
14.692889
30
0.0
11
193.062631
21
14.706172
31
0.0
0
LINE
8
0
10
191.392605
20
14.852280
30
0.0
11
191.240784
21
14.865563
31
0.0
0
LINE
8
0
10
192.862017
20
16.603458
30
0.0
11
192.710197
21
16.616740
31
0.0
0
LINE
8
0
10
191.040170
20
16.762849
30
0.0
11
190.888350
21
16.776131
31
0.0
0
LINE
8
0
10
192.509583
20
18.514026
30
0.0
11
192.357763
21
18.527309
31
0.0
0
LINE
8
0
10
190.687736
20
18.673417
30
0.0
11
190.535916
21
18.686699
31
0.0
0
LINE
8
0
10
192.157149
20
20.424594
30
0.0
11
192.005329
21
20.437877
31
0.0
0
LINE
8
0
10
190.335302
20
20.583985
30
0.0
11
190.311874
21
20.586035
31
0.0
0
LINE
8
0
10
191.804714
20
22.335163
30
0.0
11
191.652894
21
22.348445
31
0.0
0
LINE
8
0
10
193.274127
20
24.086340
30
0.0
11
193.122307
21
24.099623
31
0.0
0
LINE
8
0
10
191.452280
20
24.245731
30
0.0
11
191.300460
21
24.259014
31
0.0
0
LINE
8
0
10
192.921693
20
25.996909
30
0.0
11
192.769873
21
26.010191
31
0.0
0
LINE
8
0
10
191.099846
20
26.156300
30
0.0
11
190.948026
21
26.169582
31
0.0
0
LINE
8
0
10
192.569258
20
27.907477
30
0.0
11
192.417438
21
27.920760
31
0.0
0
LINE
8
0
10
190.747412
20
28.066868
30
0.0
11
190.595592
21
28.080151
31
0.0
0
LINE
8
0
10
192.216824
20
29.818046
30
0.0
11
192.065004
21
29.831328
31
0.0
0
LINE
8
0
10
190.394978
20
29.977437
30
0.0
11
190.311874
21
29.984707
31
0.0
0
LINE
8
0
10
191.864390
20
31.728614
30
0.0
11
191.712570
21
31.741897
31
0.0
0
LINE
8
0
10
193.311874
20
33.481710
30
0.0
11
193.181982
21
33.493074
31
0.0
0
LINE
8
0
10
191.511956
20
33.639183
30
0.0
11
191.360136
21
33.652465
31
0.0
0
LINE
8
0
10
192.981368
20
35.390360
30
0.0
11
192.829548
21
35.403643
31
0.0
0
LINE
8
0
10
191.159522
20
35.549751
30
0.0
11
191.007701
21
35.563034
31
0.0
0
LINE
8
0
10
192.628934
20
37.300929
30
0.0
11
192.477114
21
37.314211
31
0.0
0
LINE
8
0
10
190.807087
20
37.460320
30
0.0
11
190.655267
21
37.473602
31
0.0
0
LINE
8
0
10
192.276500
20
39.211497
30
0.0
11
192.124680
21
39.224780
31
0.0
0
LINE
8
0
10
190.454653
20
39.370888
30
0.0
11
190.311874
21
39.383380
31
0.0
0
LINE
8
0
10
191.924066
20
41.122066
30
0.0
11
191.772246
21
41.135348
31
0.0
0
LINE
8
0
10
191.767811
20
41.134529
30
0.0
11
191.797180
21
40.975315
31
0.0
0
LINE
8
0
10
192.120239
20
39.223960
30
0.0
11
192.149608
21
39.064746
31
0.0
0
LINE
8
0
10
192.472668
20
37.313390
30
0.0
11
192.502037
21
37.154176
31
0.0
0
LINE
8
0
10
192.825097
20
35.402821
30
0.0
11
192.854466
21
35.243607
31
0.0
0
LINE
8
0
10
193.177525
20
33.492251
30
0.0
11
193.206894
21
33.333037
31
0.0
0
LINE
8
0
10
190.311874
20
39.310295
30
0.0
11
190.327767
21
39.224138
31
0.0
0
LINE
8
0
10
190.650827
20
37.472782
30
0.0
11
190.680196
21
37.313568
31
0.0
0
LINE
8
0
10
191.003255
20
35.562213
30
0.0
11
191.032625
21
35.402999
31
0.0
0
LINE
8
0
10
191.355684
20
33.651643
30
0.0
11
191.385053
21
33.492429
31
0.0
0
LINE
8
0
10
191.708113
20
31.741074
30
0.0
11
191.737482
21
31.581860
31
0.0
0
LINE
8
0
10
192.060541
20
29.830504
30
0.0
11
192.089910
21
29.671290
31
0.0
0
LINE
8
0
10
192.412970
20
27.919935
30
0.0
11
192.442339
21
27.760721
31
0.0
0
LINE
8
0
10
192.765399
20
26.009365
30
0.0
11
192.794768
21
25.850151
31
0.0
0
LINE
8
0
10
193.117827
20
24.098796
30
0.0
11
193.147196
21
23.939582
31
0.0
0
LINE
8
0
10
190.591129
20
28.079327
30
0.0
11
190.620498
21
27.920113
31
0.0
0
LINE
8
0
10
190.943558
20
26.168757
30
0.0
11
190.972927
21
26.009543
31
0.0
0
LINE
8
0
10
191.295986
20
24.258188
30
0.0
11
191.325355
21
24.098974
31
0.0
0
LINE
8
0
10
191.648415
20
22.347618
30
0.0
11
191.677784
21
22.188404
31
0.0
0
LINE
8
0
10
192.000844
20
20.437049
30
0.0
11
192.030213
21
20.277835
31
0.0
0
LINE
8
0
10
192.353272
20
18.526479
30
0.0
11
192.382641
21
18.367265
31
0.0
0
LINE
8
0
10
192.705701
20
16.615910
30
0.0
11
192.735070
21
16.456696
31
0.0
0
LINE
8
0
10
193.058130
20
14.705340
30
0.0
11
193.087499
21
14.546126
31
0.0
0
LINE
8
0
10
190.531431
20
18.685871
30
0.0
11
190.560800
21
18.526657
31
0.0
0
LINE
8
0
10
190.883860
20
16.775302
30
0.0
11
190.913229
21
16.616088
31
0.0
0
LINE
8
0
10
191.236288
20
14.864732
30
0.0
11
191.265657
21
14.705518
31
0.0
0
LINE
8
0
10
191.588717
20
12.954163
30
0.0
11
191.618086
21
12.794949
31
0.0
0
LINE
8
0
10
191.941146
20
11.043593
30
0.0
11
191.970515
21
10.884379
31
0.0
0
LINE
8
0
10
192.293574
20
9.133024
30
0.0
11
192.322943
21
8.973810
31
0.0
0
LINE
8
0
10
192.646003
20
7.222454
30
0.0
11
192.673141
21
7.075333
31
0.0
0
LINE
8
0
10
190.471733
20
9.292416
30
0.0
11
190.501102
21
9.133202
31
0.0
0
LINE
8
0
10
190.824162
20
7.381846
30
0.0
11
190.853531
21
7.222632
31
0.0
0
LINE
8
0
10
192.697068
20
7.486403
30
0.0
11
192.499231
21
7.280214
31
0.0
0
LINE
8
0
10
192.360319
20
10.381087
30
0.0
11
192.162482
21
10.174899
31
0.0
0
LINE
8
0
10
192.023570
20
13.275772
30
0.0
11
191.825733
21
13.069583
31
0.0
0
LINE
8
0
10
191.686821
20
16.170456
30
0.0
11
191.488984
21
15.964268
31
0.0
0
LINE
8
0
10
191.350072
20
19.065141
30
0.0
11
191.152235
21
18.858952
31
0.0
0
LINE
8
0
10
193.311874
20
24.355410
30
0.0
11
193.189527
21
24.227898
31
0.0
0
LINE
8
0
10
191.013323
20
21.959825
30
0.0
11
190.815486
21
21.753637
31
0.0
0
LINE
8
0
10
193.050615
20
27.328771
30
0.0
11
192.852778
21
27.122582
31
0.0
0
LINE
8
0
10
190.676574
20
24.854510
30
0.0
11
190.478737
21
24.648321
31
0.0
0
LINE
8
0
10
192.713866
20
30.223455
30
0.0
11
192.516029
21
30.017267
31
0.0
0
LINE
8
0
10
190.339824
20
27.749194
30
0.0
11
190.311874
21
27.720064
31
0.0
0
LINE
8
0
10
192.377117
20
33.118140
30
0.0
11
192.179280
21
32.911952
31
0.0
0
LINE
8
0
10
192.040368
20
36.012825
30
0.0
11
191.842531
21
35.806636
31
0.0
0
LINE
8
0
10
191.703619
20
38.907509
30
0.0
11
191.505782
21
38.701321
31
0.0
0
LINE
8
0
10
191.366870
20
41.802194
30
0.0
11
191.169033
21
41.596005
31
0.0
0
LINE
8
0
10
191.139918
20
41.837106
30
0.0
11
191.167981
21
41.595883
31
0.0
0
LINE
8
0
10
191.476665
20
38.942421
30
0.0
11
191.504728
21
38.701198
31
0.0
0
LINE
8
0
10
191.813413
20
36.047737
30
0.0
11
191.841475
21
35.806513
31
0.0
0
LINE
8
0
10
192.150160
20
33.153052
30
0.0
11
192.178222
21
32.911829
31
0.0
0
LINE
8
0
10
192.486907
20
30.258367
30
0.0
11
192.514969
21
30.017144
31
0.0
0
LINE
8
0
10
192.823654
20
27.363682
30
0.0
11
192.851716
21
27.122459
31
0.0
0
LINE
8
0
10
193.160401
20
24.468998
30
0.0
11
193.188463
21
24.227774
31
0.0
0
LINE
8
0
10
190.449612
20
24.889421
30
0.0
11
190.477675
21
24.648198
31
0.0
0
LINE
8
0
10
190.786359
20
21.994736
30
0.0
11
190.814422
21
21.753513
31
0.0
0
LINE
8
0
10
191.123107
20
19.100052
30
0.0
11
191.151169
21
18.858828
31
0.0
0
LINE
8
0
10
191.459854
20
16.205367
30
0.0
11
191.487916
21
15.964144
31
0.0
0
LINE
8
0
10
191.796601
20
13.310682
30
0.0
11
191.824663
21
13.069459
31
0.0
0
LINE
8
0
10
192.133348
20
10.415997
30
0.0
11
192.161410
21
10.174774
31
0.0
0
LINE
8
0
10
192.470095
20
7.521313
30
0.0
11
192.498157
21
7.280089
31
0.0
0
LINE
8
0
10
192.696274
20
7.488086
30
0.0
11
192.470375
21
7.523121
31
0.0
0
LINE
8
0
10
192.359527
20
10.382767
30
0.0
11
192.133628
21
10.417802
31
0.0
0
LINE
8
0
10
192.022779
20
13.277449
30
0.0
11
191.796880
21
13.312484
31
0.0
0
LINE
8
0
10
191.686031
20
16.172130
30
0.0
11
191.460132
21
16.207165
31
0.0
0
LINE
8
0
10
191.349284
20
19.066811
30
0.0
11
191.123385
21
19.101846
31
0.0
0
LINE
8
0
10
191.012536
20
21.961493
30
0.0
11
190.786637
21
21.996528
31
0.0
0
LINE
8
0
10
193.311874
20
24.447340
30
0.0
11
193.160679
21
24.470789
31
0.0
0
LINE
8
0
10
190.675789
20
24.856174
30
0.0
11
190.449890
21
24.891209
31
0.0
0
LINE
8
0
10
193.049830
20
27.330435
30
0.0
11
192.823931
21
27.365470
31
0.0
0
LINE
8
0
10
190.339041
20
27.750856
30
0.0
11
190.311874
21
27.755069
31
0.0
0
LINE
8
0
10
192.713082
20
30.225117
30
0.0
11
192.487183
21
30.260152
31
0.0
0
LINE
8
0
10
192.376335
20
33.119798
30
0.0
11
192.150436
21
33.154833
31
0.0
0
LINE
8
0
10
192.039587
20
36.014480
30
0.0
11
191.813688
21
36.049515
31
0.0
0
LINE
8
0
10
191.702840
20
38.909161
30
0.0
11
191.476941
21
38.944196
31
0.0
0
LINE
8
0
10
191.366092
20
41.803842
30
0.0
11
191.140193
21
41.838877
31
0.0
0
LINE
8
0
10
193.311874
20
8.016449
30
0.0
11
193.202593
21
7.974500
31
0.0
0
LINE
8
0
10
191.246275
20
7.223540
30
0.0
11
191.068428
21
7.155271
31
0.0
0
LINE
8
0
10
191.864296
20
9.065421
30
0.0
11
191.686449
21
8.997152
31
0.0
0
LINE
8
0
10
192.482317
20
10.907302
30
0.0
11
192.304470
21
10.839033
31
0.0
0
LINE
8
0
10
190.348153
20
10.088073
30
0.0
11
190.311874
21
10.074147
31
0.0
0
LINE
8
0
10
193.100338
20
12.749184
30
0.0
11
192.922491
21
12.680915
31
0.0
0
LINE
8
0
10
190.966173
20
11.929954
30
0.0
11
190.788326
21
11.861685
31
0.0
0
LINE
8
0
10
191.584194
20
13.771836
30
0.0
11
191.406347
21
13.703566
31
0.0
0
LINE
8
0
10
192.202215
20
15.613717
30
0.0
11
192.024368
21
15.545448
31
0.0
0
LINE
8
0
10
192.820236
20
17.455598
30
0.0
11
192.642389
21
17.387329
31
0.0
0
LINE
8
0
10
190.686071
20
16.636369
30
0.0
11
190.508224
21
16.568100
31
0.0
0
LINE
8
0
10
193.311874
20
19.248965
30
0.0
11
193.260410
21
19.229210
31
0.0
0
LINE
8
0
10
191.304092
20
18.478250
30
0.0
11
191.126245
21
18.409981
31
0.0
0
LINE
8
0
10
191.922113
20
20.320131
30
0.0
11
191.744266
21
20.251862
31
0.0
0
LINE
8
0
10
192.540134
20
22.162012
30
0.0
11
192.362287
21
22.093743
31
0.0
0
LINE
8
0
10
190.405969
20
21.342783
30
0.0
11
190.311874
21
21.306663
31
0.0
0
LINE
8
0
10
193.158155
20
24.003893
30
0.0
11
192.980308
21
23.935624
31
0.0
0
LINE
8
0
10
191.023990
20
23.184664
30
0.0
11
190.846143
21
23.116395
31
0.0
0
LINE
8
0
10
191.642011
20
25.026545
30
0.0
11
191.464164
21
24.958276
31
0.0
0
LINE
8
0
10
192.260032
20
26.868426
30
0.0
11
192.082185
21
26.800157
31
0.0
0
LINE
8
0
10
192.878053
20
28.710307
30
0.0
11
192.700206
21
28.642038
31
0.0
0
LINE
8
0
10
190.743888
20
27.891078
30
0.0
11
190.566041
21
27.822809
31
0.0
0
LINE
8
0
10
191.361909
20
29.732959
30
0.0
11
191.184062
21
29.664690
31
0.0
0
LINE
8
0
10
191.979930
20
31.574840
30
0.0
11
191.802083
21
31.506571
31
0.0
0
LINE
8
0
10
192.597951
20
33.416722
30
0.0
11
192.420104
21
33.348452
31
0.0
0
LINE
8
0
10
190.463786
20
32.597492
30
0.0
11
190.311874
21
32.539179
31
0.0
0
LINE
8
0
10
193.215972
20
35.258603
30
0.0
11
193.038125
21
35.190334
31
0.0
0
LINE
8
0
10
191.081807
20
34.439374
30
0.0
11
190.903960
21
34.371104
31
0.0
0
LINE
8
0
10
191.699828
20
36.281255
30
0.0
11
191.521981
21
36.212986
31
0.0
0
LINE
8
0
10
192.317849
20
38.123136
30
0.0
11
192.140002
21
38.054867
31
0.0
0
LINE
8
0
10
192.935870
20
39.965017
30
0.0
11
192.758023
21
39.896748
31
0.0
0
LINE
8
0
10
190.801705
20
39.145788
30
0.0
11
190.623858
21
39.077519
31
0.0
0
LINE
8
0
10
191.419726
20
40.987669
30
0.0
11
191.241879
21
40.919400
31
0.0
0
LINE
8
0
10
191.246279
20
7.223548
30
0.0
11
191.119933
21
7.308769
31
0.0
0
LINE
8
0
10
193.311874
20
8.089025
30
0.0
11
193.254098
21
8.127996
31
0.0
0
LINE
8
0
10
191.864299
20
9.065427
30
0.0
11
191.737954
21
9.150648
31
0.0
0
LINE
8
0
10
190.348155
20
10.088079
30
0.0
11
190.311874
21
10.112551
31
0.0
0
LINE
8
0
10
192.482319
20
10.907307
30
0.0
11
192.355974
21
10.992528
31
0.0
0
LINE
8
0
10
190.966175
20
11.929959
30
0.0
11
190.839830
21
12.015180
31
0.0
0
LINE
8
0
10
193.100340
20
12.749187
30
0.0
11
192.973994
21
12.834408
31
0.0
0
LINE
8
0
10
191.584196
20
13.771838
30
0.0
11
191.457850
21
13.857059
31
0.0
0
LINE
8
0
10
192.202216
20
15.613718
30
0.0
11
192.075871
21
15.698939
31
0.0
0
LINE
8
0
10
190.686072
20
16.636370
30
0.0
11
190.559727
21
16.721591
31
0.0
0
LINE
8
0
10
192.820236
20
17.455598
30
0.0
11
192.693891
21
17.540819
31
0.0
0
LINE
8
0
10
191.304092
20
18.478250
30
0.0
11
191.177747
21
18.563471
31
0.0
0
LINE
8
0
10
191.922113
20
20.320129
30
0.0
11
191.795767
21
20.405350
31
0.0
0
LINE
8
0
10
190.405969
20
21.342781
30
0.0
11
190.311874
21
21.406249
31
0.0
0
LINE
8
0
10
192.540133
20
22.162009
30
0.0
11
192.413788
21
22.247230
31
0.0
0
LINE
8
0
10
191.023989
20
23.184661
30
0.0
11
190.897644
21
23.269882
31
0.0
0
LINE
8
0
10
193.158153
20
24.003889
30
0.0
11
193.031808
21
24.089110
31
0.0
0
LINE
8
0
10
191.642009
20
25.026541
30
0.0
11
191.515664
21
25.111762
31
0.0
0
LINE
8
0
10
192.260030
20
26.868420
30
0.0
11
192.133684
21
26.953641
31
0.0
0
LINE
8
0
10
190.743886
20
27.891072
30
0.0
11
190.617540
21
27.976293
31
0.0
0
LINE
8
0
10
192.878050
20
28.710300
30
0.0
11
192.751705
21
28.795521
31
0.0
0
LINE
8
0
10
191.361906
20
29.732952
30
0.0
11
191.235561
21
29.818173
31
0.0
0
LINE
8
0
10
191.979926
20
31.574832
30
0.0
11
191.853581
21
31.660053
31
0.0
0
LINE
8
0
10
190.463782
20
32.597484
30
0.0
11
190.337437
21
32.682705
31
0.0
0
LINE
8
0
10
192.597947
20
33.416711
30
0.0
11
192.471601
21
33.501932
31
0.0
0
LINE
8
0
10
191.081803
20
34.439363
30
0.0
11
190.955457
21
34.524584
31
0.0
0
LINE
8
0
10
193.215967
20
35.258591
30
0.0
11
193.089621
21
35.343812
31
0.0
0
LINE
8
0
10
191.699823
20
36.281243
30
0.0
11
191.573478
21
36.366464
31
0.0
0
LINE
8
0
10
192.317843
20
38.123123
30
0.0
11
192.191498
21
38.208344
31
0.0
0
LINE
8
0
10
190.801699
20
39.145775
30
0.0
11
190.675354
21
39.230996
31
0.0
0
LINE
8
0
10
192.935863
20
39.965002
30
0.0
11
192.809518
21
40.050223
31
0.0
0
LINE
8
0
10
191.419720
20
40.987654
30
0.0
11
191.293374
21
41.072875
31
0.0
0
LINE
8
0
10
193.253998
20
8.128035
30
0.0
11
193.202496
21
7.974545
31
0.0
0
LINE
8
0
10
192.973895
20
12.834447
30
0.0
11
192.922393
21
12.680956
31
0.0
0
LINE
8
0
10
192.355874
20
10.992567
30
0.0
11
192.304372
21
10.839077
31
0.0
0
LINE
8
0
10
191.737854
20
9.150687
30
0.0
11
191.686352
21
8.997197
31
0.0
0
LINE
8
0
10
191.119833
20
7.308808
30
0.0
11
191.068332
21
7.155318
31
0.0
0
LINE
8
0
10
193.311812
20
19.382737
30
0.0
11
193.260310
21
19.229247
31
0.0
0
LINE
8
0
10
192.693792
20
17.540858
30
0.0
11
192.642290
21
17.387368
31
0.0
0
LINE
8
0
10
192.075771
20
15.698978
30
0.0
11
192.024270
21
15.545488
31
0.0
0
LINE
8
0
10
191.457751
20
13.857098
30
0.0
11
191.406249
21
13.703608
31
0.0
0
LINE
8
0
10
190.839730
20
12.015219
30
0.0
11
190.788229
21
11.861729
31
0.0
0
LINE
8
0
10
193.031709
20
24.089148
30
0.0
11
192.980208
21
23.935658
31
0.0
0
LINE
8
0
10
192.413689
20
22.247269
30
0.0
11
192.362187
21
22.093779
31
0.0
0
LINE
8
0
10
191.795668
20
20.405389
30
0.0
11
191.744167
21
20.251899
31
0.0
0
LINE
8
0
10
191.177648
20
18.563510
30
0.0
11
191.126146
21
18.410020
31
0.0
0
LINE
8
0
10
190.559628
20
16.721630
30
0.0
11
190.508126
21
16.568140
31
0.0
0
LINE
8
0
10
192.751606
20
28.795560
30
0.0
11
192.700105
21
28.642069
31
0.0
0
LINE
8
0
10
192.133586
20
26.953680
30
0.0
11
192.082084
21
26.800190
31
0.0
0
LINE
8
0
10
191.515565
20
25.111800
30
0.0
11
191.464064
21
24.958310
31
0.0
0
LINE
8
0
10
190.897545
20
23.269921
30
0.0
11
190.846043
21
23.116431
31
0.0
0
LINE
8
0
10
193.089524
20
35.343850
30
0.0
11
193.038022
21
35.190360
31
0.0
0
LINE
8
0
10
192.471503
20
33.501971
30
0.0
11
192.420002
21
33.348481
31
0.0
0
LINE
8
0
10
191.853483
20
31.660091
30
0.0
11
191.801981
21
31.506601
31
0.0
0
LINE
8
0
10
191.235463
20
29.818212
30
0.0
11
191.183961
21
29.664721
31
0.0
0
LINE
8
0
10
190.617442
20
27.976332
30
0.0
11
190.565940
21
27.822842
31
0.0
0
LINE
8
0
10
192.809421
20
40.050261
30
0.0
11
192.757919
21
39.896771
31
0.0
0
LINE
8
0
10
192.191401
20
38.208382
30
0.0
11
192.139899
21
38.054892
31
0.0
0
LINE
8
0
10
191.573380
20
36.366502
30
0.0
11
191.521878
21
36.213012
31
0.0
0
LINE
8
0
10
190.955360
20
34.524623
30
0.0
11
190.903858
21
34.371133
31
0.0
0
LINE
8
0
10
190.337339
20
32.682743
30
0.0
11
190.311874
21
32.606850
31
0.0
0
LINE
8
0
10
191.293277
20
41.072913
30
0.0
11
191.241775
21
40.919423
31
0.0
0
LINE
8
0
10
190.675257
20
39.231034
30
0.0
11
190.623755
21
39.077544
31
0.0
0
LINE
8
0
10
190.811874
20
7.007796
30
0.0
11
192.811874
21
7.007796
31
0.0
0
ARC
8
0
10
192.811874
20
7.507796
30
0.0
40
0.500000
50
270.000000
51
360.000000
0
LINE
8
0
10
193.311874
20
7.507796
30
0.0
11
193.311874
21
41.507796
31
0.0
0
ARC
8
0
10
192.811874
20
41.507796
30
0.0
40
0.500000
50
360.000000
51
90.000000
0
LINE
8
0
10
192.811874
20
42.007796
30
0.0
11
190.811874
21
42.007796
31
0.0
0
ARC
8
0
10
190.811874
20
41.507796
30
0.0
40
0.500000
50
90.000000
51
180.000000
0
LINE
8
0
10
190.311874
20
41.507796
30
0.0
11
190.311874
21
7.507796
31
0.0
0
ARC
8
0
10
190.811874
20
7.507796
30
0.0
40
0.500000
50
180.000000
51
270.000000
0
ATTDEF
8
0
10
0.000000
20
-0.000000
30
0.0
40
3.5
1

3

2
PANE_WIDTH:0
70
0
0
ATTDEF
8
0
10
0.000000
20
-0.000000
30
0.0
40
3.5
1

3

2
MIN_VETRO:0
70
0
0
ATTDEF
8
0
10
0.000000
20
-0.000000
30
0.0
40
3.5
1

3

2
MAX_VETRO:0
70
0
0
ATTDEF
8
0
10
0.000000
20
-0.000000
30
0.0
40
3.5
1

3

2
JX:0
70
0
0
ATTDEF
8
0
10
0.000000
20
-0.000000
30
0.0
40
3.5
1

3

2
WX:0
70
0
0
ATTDEF
8
0
10
0.000000
20
-0.000000
30
0.0
40
3.5
1

3

2
JY:0
70
0
0
ATTDEF
8
0
10
0.000000
20
-0.000000
30
0.0
40
3.5
1

3

2
WY:0
70
0
0
ATTDEF
8
0
10
0.000000
20
-0.000000
30
0.0
40
3.5
1

3

2
DESC:Inversor apertura interior HI
70
0
0
ATTDEF
8
0
10
0.000000
20
-0.000000
30
0.0
40
3.5
1

3

2
DENS:1.8015
70
0
0
ATTDEF
8
0
10
0.000000
20
-0.000000
30
0.0
40
3.5
1

3

2
TDEV:57.59
70
0
0
ATTDEF
8
0
10
0.000000
20
-0.000000
30
0.0
40
3.5
1

3

2
TDEV2:0
70
0
0
ATTDEF
8
0
10
0.000000
20
-0.000000
30
0.0
40
3.5
1

3

2
TDEV3:0
70
0
0
ATTDEF
8
0
10
0.000000
20
-0.000000
30
0.0
40
3.5
1

3

2
TDEV4:0
70
0
0
ATTDEF
8
0
10
0.000000
20
-0.000000
30
0.0
40
3.5
1

3

2
TDEV5:0
70
0
0
ATTDEF
8
0
10
0.000000
20
-0.000000
30
0.0
40
3.5
1

3

2
PANE_WIDTH:0
70
0
0
ATTDEF
8
0
10
0.000000
20
-0.000000
30
0.0
40
3.5
1

3

2
MIN_VETRO:0
70
0
0
ATTDEF
8
0
10
0.000000
20
-0.000000
30
0.0
40
3.5
1

3

2
MAX_VETRO:0
70
0
0
ATTDEF
8
0
10
0.000000
20
-0.000000
30
0.0
40
3.5
1

3

2
JX:0
70
0
0
ATTDEF
8
0
10
0.000000
20
-0.000000
30
0.0
40
3.5
1

3

2
WX:0
70
0
0
ATTDEF
8
0
10
0.000000
20
-0.000000
30
0.0
40
3.5
1

3

2
JY:0
70
0
0
ATTDEF
8
0
10
0.000000
20
-0.000000
30
0.0
40
3.5
1

3

2
WY:0
70
0
0
ATTDEF
8
0
10
177.107006
20
-23.992982
30
0.0
40
3.5
1

3

2
HC_START
70
0
0
ATTDEF
8
0
10
209.611777
20
47.132796
30
0.0
40
3.5
1

3

2
HC_END
70
0
0
ATTDEF
8
0
10
230.811759
20
59.307796
30
0.0
40
3.5
1

3

2
FP_LCS_ORIG
70
0
0
ATTDEF
8
0
10
230.811759
20
49.307796
30
0.0
40
3.5
1

3

2
FP_LCS_HOT
70
0
0
ATTDEF
8
0
10
220.811759
20
59.307796
30
0.0
40
3.5
1

3

2
FP_LCS_INTERN
70
0
0
ENDSEC
0
EOF
