0
SECTION
2
ENTITIES
0
LINE
8
00_ALUMINIO
10
239.466923
20
124.450239
30
0.0
11
240.466923
21
123.450239
31
0.0
0
LINE
8
00_ALUMINIO
10
240.466923
20
123.450239
30
0.0
11
240.466923
21
112.449788
31
0.0
0
ARC
8
00_ALUMINIO
10
240.166923
20
112.449788
30
0.0
40
0.300000
50
270.000000
51
0.000000
0
LINE
8
00_ALUMINIO
10
240.166923
20
112.149788
30
0.0
11
219.466923
21
112.149788
31
0.0
0
ARC
8
00_ALUMINIO
10
219.466923
20
112.449788
30
0.0
40
0.300000
50
180.000000
51
270.000000
0
LINE
8
00_ALUMINIO
10
219.166923
20
112.449788
30
0.0
11
219.166923
21
133.449788
31
0.0
0
ARC
8
00_ALUMINIO
10
219.466923
20
133.449788
30
0.0
40
0.300000
50
90.000000
51
180.000000
0
LINE
8
00_ALUMINIO
10
219.466923
20
133.749788
30
0.0
11
240.166923
21
133.749788
31
0.0
0
ARC
8
00_ALUMINIO
10
240.166923
20
133.449788
30
0.0
40
0.300000
50
0.000000
51
90.000000
0
LINE
8
00_ALUMINIO
10
240.466923
20
133.449788
30
0.0
11
240.466923
21
130.450239
31
0.0
0
LINE
8
00_ALUMINIO
10
240.466923
20
130.450239
30
0.0
11
239.466923
21
129.450239
31
0.0
0
LINE
8
00_ALUMINIO
10
239.466923
20
129.450239
30
0.0
11
239.466923
21
124.450239
31
0.0
0
ARC
8
00_ALUMINIO
10
242.681755
20
136.199788
30
0.0
40
0.750000
50
216.561026
51
248.260305
0
LINE
8
00_ALUMINIO
10
242.079338
20
135.753029
30
0.0
11
241.879548
21
136.022429
31
0.0
0
ARC
8
00_ALUMINIO
10
243.485994
20
137.213787
30
0.0
40
2.000000
50
127.418197
51
216.561026
0
ARC
8
00_ALUMINIO
10
241.966923
20
139.199341
30
0.0
40
0.500000
50
307.418197
51
0.000000
0
LINE
8
00_ALUMINIO
10
242.466923
20
139.199341
30
0.0
11
242.466923
21
139.888137
31
0.0
0
ARC
8
00_ALUMINIO
10
242.166923
20
139.888137
30
0.0
40
0.300000
50
0.000000
51
120.202719
0
LINE
8
00_ALUMINIO
10
242.016005
20
140.147413
30
0.0
11
239.277850
21
138.553594
31
0.0
0
ARC
8
00_ALUMINIO
10
239.428768
20
138.294319
30
0.0
40
0.300000
50
120.202719
51
148.749887
0
LINE
8
00_ALUMINIO
10
239.172295
20
138.449951
30
0.0
11
238.786192
21
137.813676
31
0.0
0
ARC
8
00_ALUMINIO
10
238.910684
20
137.738132
30
0.0
40
0.145621
50
148.749887
51
273.658900
0
LINE
8
00_ALUMINIO
10
238.919977
20
137.592808
30
0.0
11
239.075242
21
137.602737
31
0.0
0
ARC
8
00_ALUMINIO
10
239.088005
20
137.403144
30
0.0
40
0.200000
50
40.482877
51
93.658900
0
LINE
8
00_ALUMINIO
10
239.240125
20
137.532988
30
0.0
11
240.609415
21
135.928786
31
0.0
0
ARC
8
00_ALUMINIO
10
240.381235
20
135.734020
30
0.0
40
0.300000
50
18.658900
51
40.482877
0
LINE
8
00_ALUMINIO
10
240.665467
20
135.830000
30
0.0
11
240.761447
21
135.545768
31
0.0
0
ARC
8
00_ALUMINIO
10
240.477215
20
135.449788
30
0.0
40
0.300000
50
180.000000
51
18.658900
0
LINE
8
00_ALUMINIO
10
240.177215
20
135.449788
30
0.0
11
235.677215
21
135.449788
31
0.0
0
ARC
8
00_ALUMINIO
10
235.677215
20
135.649788
30
0.0
40
0.200000
50
180.000000
51
270.000000
0
LINE
8
00_ALUMINIO
10
235.477215
20
135.649788
30
0.0
11
235.477215
21
135.717677
31
0.0
0
ARC
8
00_ALUMINIO
10
235.777215
20
135.717677
30
0.0
40
0.300000
50
148.619868
51
180.000000
0
LINE
8
00_ALUMINIO
10
235.521095
20
135.873891
30
0.0
11
236.543328
21
137.549884
31
0.0
0
ARC
8
00_ALUMINIO
10
236.549518
20
137.749788
30
0.0
40
0.200000
50
268.226373
51
90.000000
0
LINE
8
00_ALUMINIO
10
236.549518
20
137.949788
30
0.0
11
235.142528
21
137.949788
31
0.0
0
ARC
8
00_ALUMINIO
10
235.142528
20
137.749788
30
0.0
40
0.200000
50
90.000000
51
148.619868
0
LINE
8
00_ALUMINIO
10
234.971782
20
137.853931
30
0.0
11
233.724678
21
135.809253
31
0.0
0
ARC
8
00_ALUMINIO
10
233.084379
20
136.199788
30
0.0
40
0.750000
50
270.000000
51
328.619868
0
LINE
8
00_ALUMINIO
10
233.084379
20
135.449788
30
0.0
11
226.849468
21
135.449788
31
0.0
0
ARC
8
00_ALUMINIO
10
226.849468
20
136.199788
30
0.0
40
0.750000
50
211.380132
51
270.000000
0
LINE
8
00_ALUMINIO
10
226.209169
20
135.809253
30
0.0
11
224.962065
21
137.853931
31
0.0
0
ARC
8
00_ALUMINIO
10
224.791319
20
137.749788
30
0.0
40
0.200000
50
31.380132
51
90.000000
0
LINE
8
00_ALUMINIO
10
224.791319
20
137.949788
30
0.0
11
223.384329
21
137.949788
31
0.0
0
ARC
8
00_ALUMINIO
10
223.384329
20
137.749788
30
0.0
40
0.200000
50
90.000000
51
271.773628
0
LINE
8
00_ALUMINIO
10
223.390519
20
137.549884
30
0.0
11
224.412752
21
135.873891
31
0.0
0
ARC
8
00_ALUMINIO
10
224.156632
20
135.717677
30
0.0
40
0.300000
50
0.000000
51
31.380132
0
LINE
8
00_ALUMINIO
10
224.456632
20
135.717677
30
0.0
11
224.456632
21
135.649788
31
0.0
0
ARC
8
00_ALUMINIO
10
224.256632
20
135.649788
30
0.0
40
0.200000
50
270.000000
51
0.000000
0
LINE
8
00_ALUMINIO
10
224.256632
20
135.449788
30
0.0
11
219.756632
21
135.449788
31
0.0
0
ARC
8
00_ALUMINIO
10
219.456632
20
135.449788
30
0.0
40
0.300000
50
161.341100
51
0.000000
0
LINE
8
00_ALUMINIO
10
219.172400
20
135.545768
30
0.0
11
219.268380
21
135.830000
31
0.0
0
ARC
8
00_ALUMINIO
10
219.552612
20
135.734020
30
0.0
40
0.300000
50
139.517123
51
161.341100
0
LINE
8
00_ALUMINIO
10
219.324432
20
135.928786
30
0.0
11
220.693722
21
137.532988
31
0.0
0
ARC
8
00_ALUMINIO
10
220.845842
20
137.403144
30
0.0
40
0.200000
50
86.341100
51
139.517123
0
LINE
8
00_ALUMINIO
10
220.858605
20
137.602737
30
0.0
11
221.013870
21
137.592808
31
0.0
0
ARC
8
00_ALUMINIO
10
221.023163
20
137.738132
30
0.0
40
0.145621
50
266.341100
51
31.250113
0
LINE
8
00_ALUMINIO
10
221.147655
20
137.813676
30
0.0
11
220.761552
21
138.449951
31
0.0
0
ARC
8
00_ALUMINIO
10
220.505079
20
138.294319
30
0.0
40
0.300000
50
31.250113
51
59.797281
0
LINE
8
00_ALUMINIO
10
220.655997
20
138.553594
30
0.0
11
217.917842
21
140.147413
31
0.0
0
ARC
8
00_ALUMINIO
10
217.766923
20
139.888137
30
0.0
40
0.300000
50
59.797281
51
180.000000
0
LINE
8
00_ALUMINIO
10
217.466923
20
139.888137
30
0.0
11
217.466923
21
139.199341
31
0.0
0
ARC
8
00_ALUMINIO
10
217.966923
20
139.199341
30
0.0
40
0.500000
50
180.000000
51
232.581803
0
ARC
8
00_ALUMINIO
10
216.447853
20
137.213787
30
0.0
40
2.000000
50
323.438974
51
52.581803
0
LINE
8
00_ALUMINIO
10
218.054299
20
136.022429
30
0.0
11
217.854509
21
135.753029
31
0.0
0
ARC
8
00_ALUMINIO
10
217.252092
20
136.199788
30
0.0
40
0.750000
50
291.739695
51
323.438974
0
ARC
8
00_ALUMINIO
10
217.566923
20
135.410243
30
0.0
40
0.100000
50
111.739695
51
180.000000
0
LINE
8
00_ALUMINIO
10
217.466923
20
135.410243
30
0.0
11
217.466923
21
110.949788
31
0.0
0
ARC
8
00_ALUMINIO
10
217.966923
20
110.949788
30
0.0
40
0.500000
50
180.000000
51
270.000000
0
LINE
8
00_ALUMINIO
10
217.966923
20
110.449788
30
0.0
11
229.166923
21
110.449788
31
0.0
0
ARC
8
00_ALUMINIO
10
229.166923
20
110.149788
30
0.0
40
0.300000
50
0.000000
51
90.000000
0
LINE
8
00_ALUMINIO
10
229.466923
20
110.149788
30
0.0
11
229.466923
21
109.399788
31
0.0
0
ARC
8
00_ALUMINIO
10
229.166923
20
109.399788
30
0.0
40
0.300000
50
270.000000
51
0.000000
0
LINE
8
00_ALUMINIO
10
229.166923
20
109.099788
30
0.0
11
228.119472
21
109.099788
31
0.0
0
ARC
8
00_ALUMINIO
10
228.119472
20
108.799788
30
0.0
40
0.300000
50
90.000000
51
130.100908
0
LINE
8
00_ALUMINIO
10
227.926231
20
109.029262
30
0.0
11
225.073683
21
106.627116
31
0.0
0
ARC
8
00_ALUMINIO
10
225.266923
20
106.397642
30
0.0
40
0.300000
50
130.100908
51
180.000000
0
LINE
8
00_ALUMINIO
10
224.966923
20
106.397642
30
0.0
11
224.966923
21
102.263402
31
0.0
0
ARC
8
00_ALUMINIO
10
225.266923
20
102.263402
30
0.0
40
0.300000
50
180.000000
51
229.899093
0
LINE
8
00_ALUMINIO
10
225.073683
20
102.033929
30
0.0
11
226.151517
21
101.126279
31
0.0
0
ARC
8
00_ALUMINIO
10
226.087103
20
101.049788
30
0.0
40
0.100000
50
270.000000
51
49.899092
0
LINE
8
00_ALUMINIO
10
226.087103
20
100.949788
30
0.0
11
225.266923
21
100.949788
31
0.0
0
ARC
8
00_ALUMINIO
10
225.266923
20
100.649788
30
0.0
40
0.300000
50
90.000000
51
180.000000
0
LINE
8
00_ALUMINIO
10
224.966923
20
100.649788
30
0.0
11
224.966923
21
100.249788
31
0.0
0
ARC
8
00_ALUMINIO
10
225.266923
20
100.249788
30
0.0
40
0.300000
50
180.000000
51
270.000000
0
LINE
8
00_ALUMINIO
10
225.266923
20
99.949788
30
0.0
11
230.966923
21
99.949788
31
0.0
0
ARC
8
00_ALUMINIO
10
230.966923
20
100.449788
30
0.0
40
0.500000
50
270.000000
51
0.000000
0
LINE
8
00_ALUMINIO
10
231.466923
20
100.449788
30
0.0
11
231.466923
21
101.799788
31
0.0
0
ARC
8
00_ALUMINIO
10
230.716923
20
101.799788
30
0.0
40
0.750000
50
0.000000
51
90.000000
0
LINE
8
00_ALUMINIO
10
230.716923
20
102.549788
30
0.0
11
230.566923
21
102.549788
31
0.0
0
ARC
8
00_ALUMINIO
10
230.566923
20
102.249788
30
0.0
40
0.300000
50
90.000000
51
180.000000
0
LINE
8
00_ALUMINIO
10
230.266923
20
102.249788
30
0.0
11
230.266923
21
101.399788
31
0.0
0
ARC
8
00_ALUMINIO
10
229.966923
20
101.399788
30
0.0
40
0.300000
50
270.000000
51
0.000000
0
LINE
8
00_ALUMINIO
10
229.966923
20
101.099788
30
0.0
11
228.666923
21
101.099788
31
0.0
0
LINE
8
00_ALUMINIO
10
228.666923
20
101.099788
30
0.0
11
226.766923
21
102.699788
31
0.0
0
LINE
8
00_ALUMINIO
10
226.766923
20
102.699788
30
0.0
11
226.766923
21
103.899788
31
0.0
0
LINE
8
00_ALUMINIO
10
226.766923
20
103.899788
30
0.0
11
226.466923
21
104.199788
31
0.0
0
LINE
8
00_ALUMINIO
10
226.466923
20
104.199788
30
0.0
11
226.766923
21
104.499788
31
0.0
0
LINE
8
00_ALUMINIO
10
226.766923
20
104.499788
30
0.0
11
226.766923
21
105.699788
31
0.0
0
LINE
8
00_ALUMINIO
10
226.766923
20
105.699788
30
0.0
11
228.666923
21
107.299788
31
0.0
0
LINE
8
00_ALUMINIO
10
228.666923
20
107.299788
30
0.0
11
230.266923
21
107.299788
31
0.0
0
LINE
8
00_ALUMINIO
10
230.266923
20
107.299788
30
0.0
11
230.266923
21
106.349788
31
0.0
0
ARC
8
00_ALUMINIO
10
230.566923
20
106.349788
30
0.0
40
0.300000
50
180.000000
51
270.000000
0
LINE
8
00_ALUMINIO
10
230.566923
20
106.049788
30
0.0
11
230.716923
21
106.049788
31
0.0
0
ARC
8
00_ALUMINIO
10
230.716923
20
106.799788
30
0.0
40
0.750000
50
270.000000
51
0.000000
0
LINE
8
00_ALUMINIO
10
231.466923
20
106.799788
30
0.0
11
231.466923
21
110.149788
31
0.0
0
ARC
8
00_ALUMINIO
10
231.766923
20
110.149788
30
0.0
40
0.300000
50
90.000000
51
180.000000
0
LINE
8
00_ALUMINIO
10
231.766923
20
110.449788
30
0.0
11
241.966923
21
110.449788
31
0.0
0
ARC
8
00_ALUMINIO
10
241.966923
20
110.949788
30
0.0
40
0.500000
50
270.000000
51
0.000000
0
LINE
8
00_ALUMINIO
10
242.466923
20
110.949788
30
0.0
11
242.466923
21
126.450239
31
0.0
0
LINE
8
00_ALUMINIO
10
242.466923
20
126.450239
30
0.0
11
241.966923
21
126.950239
31
0.0
0
LINE
8
00_ALUMINIO
10
241.966923
20
126.950239
30
0.0
11
242.466923
21
127.450239
31
0.0
0
LINE
8
00_ALUMINIO
10
242.466923
20
127.450239
30
0.0
11
242.466923
21
135.410243
31
0.0
0
ARC
8
00_ALUMINIO
10
242.366923
20
135.410243
30
0.0
40
0.100000
50
0.000000
51
68.260305
0
LINE
8
00_POLIAMIDAS
10
239.756254
20
136.483309
30
0.0
11
238.822734
21
135.549788
31
0.0
0
LINE
8
00_POLIAMIDAS
10
241.571299
20
140.543418
30
0.0
11
240.866267
21
139.838386
31
0.0
0
LINE
8
00_POLIAMIDAS
10
237.273192
20
136.245310
30
0.0
11
236.477670
21
135.449788
31
0.0
0
LINE
8
00_POLIAMIDAS
10
238.937349
20
137.909467
30
0.0
11
237.825940
21
136.798059
31
0.0
0
LINE
8
00_POLIAMIDAS
10
241.571462
20
142.788645
30
0.0
11
236.874560
21
138.091743
31
0.0
0
LINE
8
00_POLIAMIDAS
10
241.571462
20
145.033709
30
0.0
11
239.671462
21
143.133709
31
0.0
0
LINE
8
00_POLIAMIDAS
10
241.571462
20
147.278773
30
0.0
11
239.671462
21
145.378773
31
0.0
0
LINE
8
00_POLIAMIDAS
10
241.571462
20
149.523837
30
0.0
11
239.671462
21
147.623837
31
0.0
0
LINE
8
00_POLIAMIDAS
10
241.571462
20
151.768901
30
0.0
11
239.671462
21
149.868901
31
0.0
0
LINE
8
00_POLIAMIDAS
10
240.713898
20
153.156401
30
0.0
11
239.335056
21
151.777559
31
0.0
0
LINE
8
00_POLIAMIDAS
10
223.981447
20
136.423950
30
0.0
11
223.107285
21
135.549788
31
0.0
0
LINE
8
00_POLIAMIDAS
10
239.332209
20
154.019776
30
0.0
11
237.953367
21
152.640934
31
0.0
0
LINE
8
00_POLIAMIDAS
10
221.464301
20
136.151868
30
0.0
11
220.762221
21
135.449788
31
0.0
0
LINE
8
00_POLIAMIDAS
10
223.159919
20
137.847486
30
0.0
11
222.110305
21
136.797871
31
0.0
0
LINE
8
00_POLIAMIDAS
10
239.971462
20
156.904093
30
0.0
11
236.921462
21
153.854093
31
0.0
0
LINE
8
00_POLIAMIDAS
10
222.808566
20
139.741197
30
0.0
11
221.012881
21
137.945512
31
0.0
0
LINE
8
00_POLIAMIDAS
10
237.310144
20
156.487839
30
0.0
11
236.444898
21
155.622593
31
0.0
0
LINE
8
00_POLIAMIDAS
10
221.426877
20
140.604572
30
0.0
11
220.048035
21
139.225730
31
0.0
0
LINE
8
00_POLIAMIDAS
10
235.976045
20
157.398804
30
0.0
11
235.822446
21
157.245205
31
0.0
0
LINE
8
00_POLIAMIDAS
10
220.262385
20
141.685144
30
0.0
11
218.666346
21
140.089105
31
0.0
0
LINE
8
00_POLIAMIDAS
10
220.262385
20
143.930208
30
0.0
11
218.362385
21
142.030208
31
0.0
0
LINE
8
00_POLIAMIDAS
10
220.262385
20
146.175272
30
0.0
11
218.362385
21
144.275272
31
0.0
0
LINE
8
00_POLIAMIDAS
10
220.262385
20
148.420336
30
0.0
11
218.362385
21
146.520336
31
0.0
0
LINE
8
00_POLIAMIDAS
10
223.009812
20
153.412827
30
0.0
11
222.666743
21
153.069758
31
0.0
0
LINE
8
00_POLIAMIDAS
10
220.262385
20
150.665400
30
0.0
11
218.362385
21
148.765400
31
0.0
0
LINE
8
00_POLIAMIDAS
10
224.154950
20
156.803029
30
0.0
11
218.362385
21
151.010464
31
0.0
0
LINE
8
00_POLIAMIDAS
10
221.529979
20
156.423122
30
0.0
11
220.670092
21
155.563235
31
0.0
0
LINE
8
00_POLIAMIDAS
10
220.307845
20
157.446053
30
0.0
11
219.966120
21
157.104328
31
0.0
0
LINE
8
00_POLIAMIDAS
10
238.470211
20
156.661058
30
0.0
11
239.375129
21
155.756140
31
0.0
0
LINE
8
00_POLIAMIDAS
10
235.776045
20
157.110161
30
0.0
11
241.571462
21
151.314743
31
0.0
0
LINE
8
00_POLIAMIDAS
10
236.921462
20
153.719679
30
0.0
11
238.078232
21
152.562909
31
0.0
0
LINE
8
00_POLIAMIDAS
10
239.671462
20
150.969679
30
0.0
11
241.571462
21
149.069679
31
0.0
0
LINE
8
00_POLIAMIDAS
10
239.671462
20
148.724615
30
0.0
11
241.571462
21
146.824615
31
0.0
0
LINE
8
00_POLIAMIDAS
10
239.671462
20
146.479551
30
0.0
11
241.571462
21
144.579551
31
0.0
0
LINE
8
00_POLIAMIDAS
10
239.671462
20
144.234487
30
0.0
11
241.571462
21
142.334487
31
0.0
0
LINE
8
00_POLIAMIDAS
10
239.671462
20
141.989423
30
0.0
11
241.441239
21
140.219646
31
0.0
0
LINE
8
00_POLIAMIDAS
10
222.659738
20
156.756083
30
0.0
11
223.600323
21
155.815498
31
0.0
0
LINE
8
00_POLIAMIDAS
10
238.694234
20
140.721588
30
0.0
11
240.073076
21
139.342745
31
0.0
0
LINE
8
00_POLIAMIDAS
10
219.985885
20
157.184872
30
0.0
11
223.012385
21
154.158372
31
0.0
0
LINE
8
00_POLIAMIDAS
10
237.312545
20
139.858213
30
0.0
11
238.823944
21
138.346813
31
0.0
0
LINE
8
00_POLIAMIDAS
10
220.788902
20
154.136792
30
0.0
11
222.167744
21
152.757949
31
0.0
0
LINE
8
00_POLIAMIDAS
10
236.865120
20
138.060573
30
0.0
11
239.475905
21
135.449788
31
0.0
0
LINE
8
00_POLIAMIDAS
10
219.407213
20
153.273416
30
0.0
11
220.786055
21
151.894574
31
0.0
0
LINE
8
00_POLIAMIDAS
10
236.063773
20
136.616856
30
0.0
11
237.130841
21
135.549788
31
0.0
0
LINE
8
00_POLIAMIDAS
10
218.362385
20
152.073180
30
0.0
11
220.262385
21
150.173180
31
0.0
0
LINE
8
00_POLIAMIDAS
10
218.362385
20
149.828116
30
0.0
11
220.262385
21
147.928116
31
0.0
0
LINE
8
00_POLIAMIDAS
10
218.362385
20
147.583052
30
0.0
11
220.262385
21
145.683052
31
0.0
0
LINE
8
00_POLIAMIDAS
10
218.362385
20
145.337988
30
0.0
11
220.262385
21
143.437988
31
0.0
0
LINE
8
00_POLIAMIDAS
10
218.362385
20
143.092924
30
0.0
11
223.012385
21
138.442924
31
0.0
0
LINE
8
00_POLIAMIDAS
10
218.362385
20
140.847860
30
0.0
11
219.878708
21
139.331537
31
0.0
0
LINE
8
00_POLIAMIDAS
10
221.076711
20
138.133534
30
0.0
11
223.760457
21
135.449788
31
0.0
0
LINE
8
00_POLIAMIDAS
10
220.288967
20
136.676214
30
0.0
11
221.403980
21
135.561201
31
0.0
0
ARC
8
00_POLIAMIDAS
10
220.762385
20
141.609382
30
0.0
40
0.500000
50
180.000000
51
238.000000
0
LINE
8
00_POLIAMIDAS
10
220.497425
20
141.185358
30
0.0
11
222.871361
21
139.701959
31
0.0
0
ARC
8
00_POLIAMIDAS
10
222.712385
20
139.447544
30
0.0
40
0.300000
50
0.000000
51
58.000000
0
LINE
8
00_POLIAMIDAS
10
223.012385
20
139.447544
30
0.0
11
223.012385
21
138.423955
31
0.0
0
ARC
8
00_POLIAMIDAS
10
224.212385
20
138.423955
30
0.0
40
1.200000
50
180.000000
51
210.000000
0
LINE
8
00_POLIAMIDAS
10
223.173154
20
137.823955
30
0.0
11
224.122192
21
136.180173
31
0.0
0
ARC
8
00_POLIAMIDAS
10
223.862385
20
136.030173
30
0.0
40
0.300000
50
0.000000
51
30.000000
0
LINE
8
00_POLIAMIDAS
10
224.162385
20
136.030173
30
0.0
11
224.162385
21
135.849788
31
0.0
0
ARC
8
00_POLIAMIDAS
10
223.762385
20
135.849788
30
0.0
40
0.400000
50
270.000000
51
0.000000
0
LINE
8
00_POLIAMIDAS
10
223.762385
20
135.449788
30
0.0
11
223.162385
21
135.449788
31
0.0
0
LINE
8
00_POLIAMIDAS
10
223.162385
20
135.449788
30
0.0
11
223.162385
21
135.549788
31
0.0
0
LINE
8
00_POLIAMIDAS
10
223.162385
20
135.549788
30
0.0
11
222.787385
21
135.549788
31
0.0
0
ARC
8
00_POLIAMIDAS
10
222.787385
20
135.749788
30
0.0
40
0.200000
50
180.000000
51
270.000000
0
LINE
8
00_POLIAMIDAS
10
222.587385
20
135.749788
30
0.0
11
222.587385
21
135.909314
31
0.0
0
ARC
8
00_POLIAMIDAS
10
222.062385
20
136.199788
30
0.0
40
0.600000
50
331.044976
51
208.955024
0
LINE
8
00_POLIAMIDAS
10
221.537385
20
135.909314
30
0.0
11
221.537385
21
135.749788
31
0.0
0
ARC
8
00_POLIAMIDAS
10
221.337385
20
135.749788
30
0.0
40
0.200000
50
270.000000
51
0.000000
0
LINE
8
00_POLIAMIDAS
10
221.337385
20
135.549788
30
0.0
11
220.962385
21
135.549788
31
0.0
0
LINE
8
00_POLIAMIDAS
10
220.962385
20
135.549788
30
0.0
11
220.962385
21
135.449788
31
0.0
0
LINE
8
00_POLIAMIDAS
10
220.962385
20
135.449788
30
0.0
11
220.362385
21
135.449788
31
0.0
0
ARC
8
00_POLIAMIDAS
10
220.362385
20
135.849788
30
0.0
40
0.400000
50
180.000000
51
270.000000
0
LINE
8
00_POLIAMIDAS
10
219.962385
20
135.849788
30
0.0
11
219.962385
21
136.030173
31
0.0
0
ARC
8
00_POLIAMIDAS
10
220.262385
20
136.030173
30
0.0
40
0.300000
50
150.000000
51
180.000000
0
LINE
8
00_POLIAMIDAS
10
220.002577
20
136.180173
30
0.0
11
220.951615
21
137.823955
31
0.0
0
ARC
8
00_POLIAMIDAS
10
219.912385
20
138.423955
30
0.0
40
1.200000
50
330.000000
51
0.000000
0
LINE
8
00_POLIAMIDAS
10
221.112385
20
138.423955
30
0.0
11
221.112385
21
138.449788
31
0.0
0
ARC
8
00_POLIAMIDAS
10
220.912385
20
138.449788
30
0.0
40
0.200000
50
0.000000
51
58.000000
0
LINE
8
00_POLIAMIDAS
10
221.018369
20
138.619398
30
0.0
11
218.597425
21
140.132171
31
0.0
0
ARC
8
00_POLIAMIDAS
10
218.862385
20
140.556195
30
0.0
40
0.500000
50
180.000000
51
238.000000
0
LINE
8
00_POLIAMIDAS
10
218.362385
20
140.556195
30
0.0
11
218.362385
21
146.449788
31
0.0
0
LINE
8
00_POLIAMIDAS
10
218.362385
20
146.449788
30
0.0
11
218.362385
21
152.343381
31
0.0
0
ARC
8
00_POLIAMIDAS
10
218.862385
20
152.343381
30
0.0
40
0.500000
50
122.000000
51
180.000000
0
LINE
8
00_POLIAMIDAS
10
218.597425
20
152.767405
30
0.0
11
221.018369
21
154.280179
31
0.0
0
ARC
8
00_POLIAMIDAS
10
220.912385
20
154.449788
30
0.0
40
0.200000
50
302.000000
51
0.000000
0
LINE
8
00_POLIAMIDAS
10
221.112385
20
154.449788
30
0.0
11
221.112385
21
154.475621
31
0.0
0
ARC
8
00_POLIAMIDAS
10
219.912385
20
154.475621
30
0.0
40
1.200000
50
0.000000
51
30.000000
0
LINE
8
00_POLIAMIDAS
10
220.951615
20
155.075621
30
0.0
11
220.002577
21
156.719403
31
0.0
0
ARC
8
00_POLIAMIDAS
10
220.262385
20
156.869403
30
0.0
40
0.300000
50
180.000000
51
210.000000
0
LINE
8
00_POLIAMIDAS
10
219.962385
20
156.869403
30
0.0
11
219.962385
21
157.049788
31
0.0
0
ARC
8
00_POLIAMIDAS
10
220.362385
20
157.049788
30
0.0
40
0.400000
50
90.000000
51
180.000000
0
LINE
8
00_POLIAMIDAS
10
220.362385
20
157.449788
30
0.0
11
220.962385
21
157.449788
31
0.0
0
LINE
8
00_POLIAMIDAS
10
220.962385
20
157.449788
30
0.0
11
220.962385
21
157.349788
31
0.0
0
LINE
8
00_POLIAMIDAS
10
220.962385
20
157.349788
30
0.0
11
221.337385
21
157.349788
31
0.0
0
ARC
8
00_POLIAMIDAS
10
221.337385
20
157.149788
30
0.0
40
0.200000
50
0.000000
51
90.000000
0
LINE
8
00_POLIAMIDAS
10
221.537385
20
157.149788
30
0.0
11
221.537385
21
156.990262
31
0.0
0
ARC
8
00_POLIAMIDAS
10
222.062385
20
156.699788
30
0.0
40
0.600000
50
151.044976
51
28.955024
0
LINE
8
00_POLIAMIDAS
10
222.587385
20
156.990262
30
0.0
11
222.587385
21
157.149788
31
0.0
0
ARC
8
00_POLIAMIDAS
10
222.787385
20
157.149788
30
0.0
40
0.200000
50
90.000000
51
180.000000
0
LINE
8
00_POLIAMIDAS
10
222.787385
20
157.349788
30
0.0
11
223.162385
21
157.349788
31
0.0
0
LINE
8
00_POLIAMIDAS
10
223.162385
20
157.349788
30
0.0
11
223.162385
21
157.449788
31
0.0
0
LINE
8
00_POLIAMIDAS
10
223.162385
20
157.449788
30
0.0
11
223.762385
21
157.449788
31
0.0
0
ARC
8
00_POLIAMIDAS
10
223.762385
20
157.049788
30
0.0
40
0.400000
50
0.000000
51
90.000000
0
LINE
8
00_POLIAMIDAS
10
224.162385
20
157.049788
30
0.0
11
224.162385
21
156.869403
31
0.0
0
ARC
8
00_POLIAMIDAS
10
223.862385
20
156.869403
30
0.0
40
0.300000
50
330.000000
51
0.000000
0
LINE
8
00_POLIAMIDAS
10
224.122192
20
156.719403
30
0.0
11
223.173154
21
155.075621
31
0.0
0
ARC
8
00_POLIAMIDAS
10
224.212385
20
154.475621
30
0.0
40
1.200000
50
150.000000
51
180.000000
0
LINE
8
00_POLIAMIDAS
10
223.012385
20
154.475621
30
0.0
11
223.012385
21
153.452032
31
0.0
0
ARC
8
00_POLIAMIDAS
10
222.712385
20
153.452032
30
0.0
40
0.300000
50
302.000000
51
0.000000
0
LINE
8
00_POLIAMIDAS
10
222.871361
20
153.197617
30
0.0
11
220.497425
21
151.714218
31
0.0
0
ARC
8
00_POLIAMIDAS
10
220.762385
20
151.290194
30
0.0
40
0.500000
50
122.000000
51
180.000000
0
LINE
8
00_POLIAMIDAS
10
220.262385
20
151.290194
30
0.0
11
220.262385
21
146.449788
31
0.0
0
LINE
8
00_POLIAMIDAS
10
220.262385
20
146.449788
30
0.0
11
220.262385
21
141.609382
31
0.0
0
ARC
8
00_POLIAMIDAS
10
239.171462
20
141.609382
30
0.0
40
0.500000
50
302.000000
51
0.000000
0
LINE
8
00_POLIAMIDAS
10
239.436422
20
141.185358
30
0.0
11
237.062486
21
139.701959
31
0.0
0
ARC
8
00_POLIAMIDAS
10
237.221462
20
139.447544
30
0.0
40
0.300000
50
122.000000
51
180.000000
0
LINE
8
00_POLIAMIDAS
10
236.921462
20
139.447544
30
0.0
11
236.921462
21
138.423955
31
0.0
0
ARC
8
00_POLIAMIDAS
10
235.721462
20
138.423955
30
0.0
40
1.200000
50
330.000000
51
0.000000
0
LINE
8
00_POLIAMIDAS
10
236.760693
20
137.823955
30
0.0
11
235.811655
21
136.180173
31
0.0
0
ARC
8
00_POLIAMIDAS
10
236.071462
20
136.030173
30
0.0
40
0.300000
50
150.000000
51
180.000000
0
LINE
8
00_POLIAMIDAS
10
235.771462
20
136.030173
30
0.0
11
235.771462
21
135.849788
31
0.0
0
ARC
8
00_POLIAMIDAS
10
236.171462
20
135.849788
30
0.0
40
0.400000
50
180.000000
51
270.000000
0
LINE
8
00_POLIAMIDAS
10
236.171462
20
135.449788
30
0.0
11
236.771462
21
135.449788
31
0.0
0
LINE
8
00_POLIAMIDAS
10
236.771462
20
135.449788
30
0.0
11
236.771462
21
135.549788
31
0.0
0
LINE
8
00_POLIAMIDAS
10
236.771462
20
135.549788
30
0.0
11
237.146462
21
135.549788
31
0.0
0
ARC
8
00_POLIAMIDAS
10
237.146462
20
135.749788
30
0.0
40
0.200000
50
270.000000
51
0.000000
0
LINE
8
00_POLIAMIDAS
10
237.346462
20
135.749788
30
0.0
11
237.346462
21
135.909314
31
0.0
0
ARC
8
00_POLIAMIDAS
10
237.871462
20
136.199788
30
0.0
40
0.600000
50
331.044976
51
208.955024
0
LINE
8
00_POLIAMIDAS
10
238.396462
20
135.909314
30
0.0
11
238.396462
21
135.749788
31
0.0
0
ARC
8
00_POLIAMIDAS
10
238.596462
20
135.749788
30
0.0
40
0.200000
50
180.000000
51
270.000000
0
LINE
8
00_POLIAMIDAS
10
238.596462
20
135.549788
30
0.0
11
238.971462
21
135.549788
31
0.0
0
LINE
8
00_POLIAMIDAS
10
238.971462
20
135.549788
30
0.0
11
238.971462
21
135.449788
31
0.0
0
LINE
8
00_POLIAMIDAS
10
238.971462
20
135.449788
30
0.0
11
239.571462
21
135.449788
31
0.0
0
ARC
8
00_POLIAMIDAS
10
239.571462
20
135.849788
30
0.0
40
0.400000
50
270.000000
51
0.000000
0
LINE
8
00_POLIAMIDAS
10
239.971462
20
135.849788
30
0.0
11
239.971462
21
136.030173
31
0.0
0
ARC
8
00_POLIAMIDAS
10
239.671462
20
136.030173
30
0.0
40
0.300000
50
0.000000
51
30.000000
0
LINE
8
00_POLIAMIDAS
10
239.931270
20
136.180173
30
0.0
11
238.982232
21
137.823955
31
0.0
0
ARC
8
00_POLIAMIDAS
10
240.021462
20
138.423955
30
0.0
40
1.200000
50
180.000000
51
210.000000
0
LINE
8
00_POLIAMIDAS
10
238.821462
20
138.423955
30
0.0
11
238.821462
21
138.449788
31
0.0
0
ARC
8
00_POLIAMIDAS
10
239.021462
20
138.449788
30
0.0
40
0.200000
50
122.000000
51
180.000000
0
LINE
8
00_POLIAMIDAS
10
238.915478
20
138.619398
30
0.0
11
241.336422
21
140.132171
31
0.0
0
ARC
8
00_POLIAMIDAS
10
241.071462
20
140.556195
30
0.0
40
0.500000
50
302.000000
51
0.000000
0
LINE
8
00_POLIAMIDAS
10
241.571462
20
140.556195
30
0.0
11
241.571462
21
146.449788
31
0.0
0
LINE
8
00_POLIAMIDAS
10
241.571462
20
146.449788
30
0.0
11
241.571462
21
152.343381
31
0.0
0
ARC
8
00_POLIAMIDAS
10
241.071462
20
152.343381
30
0.0
40
0.500000
50
0.000000
51
58.000000
0
LINE
8
00_POLIAMIDAS
10
241.336422
20
152.767405
30
0.0
11
238.915478
21
154.280179
31
0.0
0
ARC
8
00_POLIAMIDAS
10
239.021462
20
154.449788
30
0.0
40
0.200000
50
180.000000
51
238.000000
0
LINE
8
00_POLIAMIDAS
10
238.821462
20
154.449788
30
0.0
11
238.821462
21
154.475621
31
0.0
0
ARC
8
00_POLIAMIDAS
10
240.021462
20
154.475621
30
0.0
40
1.200000
50
150.000000
51
180.000000
0
LINE
8
00_POLIAMIDAS
10
238.982232
20
155.075621
30
0.0
11
239.931270
21
156.719403
31
0.0
0
ARC
8
00_POLIAMIDAS
10
239.671462
20
156.869403
30
0.0
40
0.300000
50
330.000000
51
0.000000
0
LINE
8
00_POLIAMIDAS
10
239.971462
20
156.869403
30
0.0
11
239.971462
21
157.049788
31
0.0
0
ARC
8
00_POLIAMIDAS
10
239.571462
20
157.049788
30
0.0
40
0.400000
50
0.000000
51
90.000000
0
LINE
8
00_POLIAMIDAS
10
239.571462
20
157.449788
30
0.0
11
238.971462
21
157.449788
31
0.0
0
LINE
8
00_POLIAMIDAS
10
238.971462
20
157.449788
30
0.0
11
238.971462
21
157.349788
31
0.0
0
LINE
8
00_POLIAMIDAS
10
238.971462
20
157.349788
30
0.0
11
238.596462
21
157.349788
31
0.0
0
ARC
8
00_POLIAMIDAS
10
238.596462
20
157.149788
30
0.0
40
0.200000
50
90.000000
51
180.000000
0
LINE
8
00_POLIAMIDAS
10
238.396462
20
157.149788
30
0.0
11
238.396462
21
156.990262
31
0.0
0
ARC
8
00_POLIAMIDAS
10
237.871462
20
156.699788
30
0.0
40
0.600000
50
151.044976
51
28.955024
0
LINE
8
00_POLIAMIDAS
10
237.346462
20
156.990262
30
0.0
11
237.346462
21
157.149788
31
0.0
0
ARC
8
00_POLIAMIDAS
10
237.146462
20
157.149788
30
0.0
40
0.200000
50
0.000000
51
90.000000
0
LINE
8
00_POLIAMIDAS
10
237.146462
20
157.349788
30
0.0
11
236.771462
21
157.349788
31
0.0
0
LINE
8
00_POLIAMIDAS
10
236.771462
20
157.349788
30
0.0
11
236.771462
21
157.449788
31
0.0
0
LINE
8
00_POLIAMIDAS
10
236.771462
20
157.449788
30
0.0
11
236.171462
21
157.449788
31
0.0
0
ARC
8
00_POLIAMIDAS
10
236.171462
20
157.049788
30
0.0
40
0.400000
50
90.000000
51
180.000000
0
LINE
8
00_POLIAMIDAS
10
235.771462
20
157.049788
30
0.0
11
235.771462
21
156.869403
31
0.0
0
ARC
8
00_POLIAMIDAS
10
236.071462
20
156.869403
30
0.0
40
0.300000
50
180.000000
51
210.000000
0
LINE
8
00_POLIAMIDAS
10
235.811655
20
156.719403
30
0.0
11
236.760693
21
155.075621
31
0.0
0
ARC
8
00_POLIAMIDAS
10
235.721462
20
154.475621
30
0.0
40
1.200000
50
0.000000
51
30.000000
0
LINE
8
00_POLIAMIDAS
10
236.921462
20
154.475621
30
0.0
11
236.921462
21
153.452032
31
0.0
0
ARC
8
00_POLIAMIDAS
10
237.221462
20
153.452032
30
0.0
40
0.300000
50
180.000000
51
238.000000
0
LINE
8
00_POLIAMIDAS
10
237.062486
20
153.197617
30
0.0
11
239.436422
21
151.714218
31
0.0
0
ARC
8
00_POLIAMIDAS
10
239.171462
20
151.290194
30
0.0
40
0.500000
50
0.000000
51
58.000000
0
LINE
8
00_POLIAMIDAS
10
239.671462
20
151.290194
30
0.0
11
239.671462
21
146.449788
31
0.0
0
LINE
8
00_POLIAMIDAS
10
239.671462
20
146.449788
30
0.0
11
239.671462
21
141.609382
31
0.0
0
ARC
8
00_ALUMINIO
10
225.266923
20
167.636174
30
0.0
40
0.300000
50
130.100908
51
180.000000
0
LINE
8
00_ALUMINIO
10
224.966923
20
167.636174
30
0.0
11
224.966923
21
163.501934
31
0.0
0
ARC
8
00_ALUMINIO
10
225.266923
20
163.501934
30
0.0
40
0.300000
50
180.000000
51
229.899093
0
LINE
8
00_ALUMINIO
10
225.073683
20
163.272461
30
0.0
11
227.926231
21
160.870315
31
0.0
0
ARC
8
00_ALUMINIO
10
228.119472
20
161.099788
30
0.0
40
0.300000
50
229.899093
51
270.000000
0
LINE
8
00_ALUMINIO
10
228.119472
20
160.799788
30
0.0
11
229.166923
21
160.799788
31
0.0
0
ARC
8
00_ALUMINIO
10
229.166923
20
160.499788
30
0.0
40
0.300000
50
0.000000
51
90.000000
0
LINE
8
00_ALUMINIO
10
229.466923
20
160.499788
30
0.0
11
229.466923
21
159.749788
31
0.0
0
ARC
8
00_ALUMINIO
10
229.166923
20
159.749788
30
0.0
40
0.300000
50
270.000000
51
0.000000
0
LINE
8
00_ALUMINIO
10
229.166923
20
159.449788
30
0.0
11
217.766923
21
159.449788
31
0.0
0
ARC
8
00_ALUMINIO
10
217.766923
20
159.149788
30
0.0
40
0.300000
50
90.000000
51
180.000000
0
LINE
8
00_ALUMINIO
10
217.466923
20
159.149788
30
0.0
11
217.466923
21
157.489333
31
0.0
0
ARC
8
00_ALUMINIO
10
217.566923
20
157.489333
30
0.0
40
0.100000
50
180.000000
51
248.260305
0
ARC
8
00_ALUMINIO
10
217.252092
20
156.699788
30
0.0
40
0.750000
50
36.561026
51
68.260305
0
LINE
8
00_ALUMINIO
10
217.854509
20
157.146547
30
0.0
11
218.054299
21
156.877147
31
0.0
0
ARC
8
00_ALUMINIO
10
216.447853
20
155.685790
30
0.0
40
2.000000
50
307.418197
51
36.561026
0
ARC
8
00_ALUMINIO
10
217.966923
20
153.700235
30
0.0
40
0.500000
50
127.418197
51
180.000000
0
LINE
8
00_ALUMINIO
10
217.466923
20
153.700235
30
0.0
11
217.466923
21
153.011439
31
0.0
0
ARC
8
00_ALUMINIO
10
217.766923
20
153.011439
30
0.0
40
0.300000
50
180.000000
51
300.202719
0
LINE
8
00_ALUMINIO
10
217.917842
20
152.752164
30
0.0
11
220.655997
21
154.345982
31
0.0
0
ARC
8
00_ALUMINIO
10
220.505079
20
154.605258
30
0.0
40
0.300000
50
300.202719
51
328.749887
0
LINE
8
00_ALUMINIO
10
220.761552
20
154.449625
30
0.0
11
221.147655
21
155.085900
31
0.0
0
ARC
8
00_ALUMINIO
10
221.023163
20
155.161444
30
0.0
40
0.145621
50
328.749887
51
93.658900
0
LINE
8
00_ALUMINIO
10
221.013870
20
155.306768
30
0.0
11
220.858605
21
155.296840
31
0.0
0
ARC
8
00_ALUMINIO
10
220.845842
20
155.496432
30
0.0
40
0.200000
50
220.482877
51
273.658900
0
LINE
8
00_ALUMINIO
10
220.693722
20
155.366588
30
0.0
11
219.324432
21
156.970790
31
0.0
0
ARC
8
00_ALUMINIO
10
219.552612
20
157.165556
30
0.0
40
0.300000
50
198.658900
51
220.482877
0
LINE
8
00_ALUMINIO
10
219.268380
20
157.069576
30
0.0
11
219.172400
21
157.353808
31
0.0
0
ARC
8
00_ALUMINIO
10
219.456632
20
157.449788
30
0.0
40
0.300000
50
0.000000
51
198.658900
0
LINE
8
00_ALUMINIO
10
219.756632
20
157.449788
30
0.0
11
224.256632
21
157.449788
31
0.0
0
ARC
8
00_ALUMINIO
10
224.256632
20
157.249788
30
0.0
40
0.200000
50
0.000000
51
90.000000
0
LINE
8
00_ALUMINIO
10
224.456632
20
157.249788
30
0.0
11
224.456632
21
157.181899
31
0.0
0
ARC
8
00_ALUMINIO
10
224.156632
20
157.181899
30
0.0
40
0.300000
50
328.619868
51
0.000000
0
LINE
8
00_ALUMINIO
10
224.412752
20
157.025685
30
0.0
11
223.390519
21
155.349692
31
0.0
0
ARC
8
00_ALUMINIO
10
223.384329
20
155.149788
30
0.0
40
0.200000
50
88.226373
51
270.000000
0
LINE
8
00_ALUMINIO
10
223.384329
20
154.949788
30
0.0
11
224.791319
21
154.949788
31
0.0
0
ARC
8
00_ALUMINIO
10
224.791319
20
155.149788
30
0.0
40
0.200000
50
270.000000
51
328.619868
0
LINE
8
00_ALUMINIO
10
224.962065
20
155.045645
30
0.0
11
226.209169
21
157.090323
31
0.0
0
ARC
8
00_ALUMINIO
10
226.849468
20
156.699788
30
0.0
40
0.750000
50
90.000000
51
148.619868
0
LINE
8
00_ALUMINIO
10
226.849468
20
157.449788
30
0.0
11
233.084379
21
157.449788
31
0.0
0
ARC
8
00_ALUMINIO
10
233.084379
20
156.699788
30
0.0
40
0.750000
50
31.380132
51
90.000000
0
LINE
8
00_ALUMINIO
10
233.724678
20
157.090323
30
0.0
11
234.971782
21
155.045645
31
0.0
0
ARC
8
00_ALUMINIO
10
235.142528
20
155.149788
30
0.0
40
0.200000
50
211.380132
51
270.000000
0
LINE
8
00_ALUMINIO
10
235.142528
20
154.949788
30
0.0
11
236.549518
21
154.949788
31
0.0
0
ARC
8
00_ALUMINIO
10
236.549518
20
155.149788
30
0.0
40
0.200000
50
270.000000
51
91.773627
0
LINE
8
00_ALUMINIO
10
236.543328
20
155.349692
30
0.0
11
235.521095
21
157.025685
31
0.0
0
ARC
8
00_ALUMINIO
10
235.777215
20
157.181899
30
0.0
40
0.300000
50
180.000000
51
211.380132
0
LINE
8
00_ALUMINIO
10
235.477215
20
157.181899
30
0.0
11
235.477215
21
157.249788
31
0.0
0
ARC
8
00_ALUMINIO
10
235.677215
20
157.249788
30
0.0
40
0.200000
50
90.000000
51
180.000000
0
LINE
8
00_ALUMINIO
10
235.677215
20
157.449788
30
0.0
11
240.177215
21
157.449788
31
0.0
0
ARC
8
00_ALUMINIO
10
240.477215
20
157.449788
30
0.0
40
0.300000
50
341.341100
51
180.000000
0
LINE
8
00_ALUMINIO
10
240.761447
20
157.353808
30
0.0
11
240.665467
21
157.069576
31
0.0
0
ARC
8
00_ALUMINIO
10
240.381235
20
157.165556
30
0.0
40
0.300000
50
319.517123
51
341.341100
0
LINE
8
00_ALUMINIO
10
240.609415
20
156.970790
30
0.0
11
239.240125
21
155.366588
31
0.0
0
ARC
8
00_ALUMINIO
10
239.088005
20
155.496432
30
0.0
40
0.200000
50
266.341100
51
319.517123
0
LINE
8
00_ALUMINIO
10
239.075242
20
155.296840
30
0.0
11
238.919977
21
155.306768
31
0.0
0
ARC
8
00_ALUMINIO
10
238.910684
20
155.161444
30
0.0
40
0.145621
50
86.341100
51
211.250114
0
LINE
8
00_ALUMINIO
10
238.786192
20
155.085900
30
0.0
11
239.172295
21
154.449625
31
0.0
0
ARC
8
00_ALUMINIO
10
239.428768
20
154.605258
30
0.0
40
0.300000
50
211.250114
51
239.797281
0
LINE
8
00_ALUMINIO
10
239.277850
20
154.345982
30
0.0
11
242.016005
21
152.752164
31
0.0
0
ARC
8
00_ALUMINIO
10
242.166923
20
153.011439
30
0.0
40
0.300000
50
239.797281
51
0.000000
0
LINE
8
00_ALUMINIO
10
242.466923
20
153.011439
30
0.0
11
242.466923
21
153.700235
31
0.0
0
ARC
8
00_ALUMINIO
10
241.966923
20
153.700235
30
0.0
40
0.500000
50
0.000000
51
52.581803
0
ARC
8
00_ALUMINIO
10
243.485994
20
155.685790
30
0.0
40
2.000000
50
143.438974
51
232.581803
0
LINE
8
00_ALUMINIO
10
241.879548
20
156.877147
30
0.0
11
242.079338
21
157.146547
31
0.0
0
ARC
8
00_ALUMINIO
10
242.681755
20
156.699788
30
0.0
40
0.750000
50
111.739695
51
143.438974
0
ARC
8
00_ALUMINIO
10
242.366923
20
157.489333
30
0.0
40
0.100000
50
291.739695
51
0.000000
0
LINE
8
00_ALUMINIO
10
242.466923
20
157.489333
30
0.0
11
242.466923
21
159.149788
31
0.0
0
ARC
8
00_ALUMINIO
10
242.166923
20
159.149788
30
0.0
40
0.300000
50
0.000000
51
90.000000
0
LINE
8
00_ALUMINIO
10
242.166923
20
159.449788
30
0.0
11
231.766923
21
159.449788
31
0.0
0
ARC
8
00_ALUMINIO
10
231.766923
20
159.749788
30
0.0
40
0.300000
50
180.000000
51
270.000000
0
LINE
8
00_ALUMINIO
10
231.466923
20
159.749788
30
0.0
11
231.466923
21
163.099788
31
0.0
0
ARC
8
00_ALUMINIO
10
230.716923
20
163.099788
30
0.0
40
0.750000
50
0.000000
51
90.000000
0
LINE
8
00_ALUMINIO
10
230.716923
20
163.849788
30
0.0
11
230.566923
21
163.849788
31
0.0
0
ARC
8
00_ALUMINIO
10
230.566923
20
163.549788
30
0.0
40
0.300000
50
90.000000
51
180.000000
0
LINE
8
00_ALUMINIO
10
230.266923
20
163.549788
30
0.0
11
230.266923
21
162.599788
31
0.0
0
LINE
8
00_ALUMINIO
10
230.266923
20
162.599788
30
0.0
11
228.666923
21
162.599788
31
0.0
0
LINE
8
00_ALUMINIO
10
228.666923
20
162.599788
30
0.0
11
226.766923
21
164.199788
31
0.0
0
LINE
8
00_ALUMINIO
10
226.766923
20
164.199788
30
0.0
11
226.766923
21
165.399788
31
0.0
0
LINE
8
00_ALUMINIO
10
226.766923
20
165.399788
30
0.0
11
226.466923
21
165.699788
31
0.0
0
LINE
8
00_ALUMINIO
10
226.466923
20
165.699788
30
0.0
11
226.766923
21
165.999788
31
0.0
0
LINE
8
00_ALUMINIO
10
226.766923
20
165.999788
30
0.0
11
226.766923
21
167.199788
31
0.0
0
LINE
8
00_ALUMINIO
10
226.766923
20
167.199788
30
0.0
11
228.666923
21
168.799788
31
0.0
0
LINE
8
00_ALUMINIO
10
228.666923
20
168.799788
30
0.0
11
229.966923
21
168.799788
31
0.0
0
ARC
8
00_ALUMINIO
10
229.966923
20
168.499788
30
0.0
40
0.300000
50
0.000000
51
90.000000
0
LINE
8
00_ALUMINIO
10
230.266923
20
168.499788
30
0.0
11
230.266923
21
167.649788
31
0.0
0
ARC
8
00_ALUMINIO
10
230.566923
20
167.649788
30
0.0
40
0.300000
50
180.000000
51
270.000000
0
LINE
8
00_ALUMINIO
10
230.566923
20
167.349788
30
0.0
11
230.716923
21
167.349788
31
0.0
0
ARC
8
00_ALUMINIO
10
230.716923
20
168.099788
30
0.0
40
0.750000
50
270.000000
51
0.000000
0
LINE
8
00_ALUMINIO
10
231.466923
20
168.099788
30
0.0
11
231.466923
21
169.449788
31
0.0
0
ARC
8
00_ALUMINIO
10
230.966923
20
169.449788
30
0.0
40
0.500000
50
0.000000
51
90.000000
0
LINE
8
00_ALUMINIO
10
230.966923
20
169.949788
30
0.0
11
225.266923
21
169.949788
31
0.0
0
ARC
8
00_ALUMINIO
10
225.266923
20
169.649788
30
0.0
40
0.300000
50
90.000000
51
180.000000
0
LINE
8
00_ALUMINIO
10
224.966923
20
169.649788
30
0.0
11
224.966923
21
169.249788
31
0.0
0
ARC
8
00_ALUMINIO
10
225.266923
20
169.249788
30
0.0
40
0.300000
50
180.000000
51
270.000000
0
LINE
8
00_ALUMINIO
10
225.266923
20
168.949788
30
0.0
11
226.087103
21
168.949788
31
0.0
0
ARC
8
00_ALUMINIO
10
226.087103
20
168.849788
30
0.0
40
0.100000
50
310.100908
51
90.000000
0
LINE
8
00_ALUMINIO
10
226.151517
20
168.773297
30
0.0
11
225.073683
21
167.865647
31
0.0
0
ATTDEF
8
0
10
0.000000
20
0.000000
30
0.0
40
3.5
1

3

2
PANE_WIDTH:0
70
0
0
ATTDEF
8
0
10
0.000000
20
0.000000
30
0.0
40
3.5
1

3

2
MIN_VETRO:0
70
0
0
ATTDEF
8
0
10
0.000000
20
0.000000
30
0.0
40
3.5
1

3

2
MAX_VETRO:0
70
0
0
ATTDEF
8
0
10
0.000000
20
0.000000
30
0.0
40
3.5
1

3

2
JX:0
70
0
0
ATTDEF
8
0
10
0.000000
20
0.000000
30
0.0
40
3.5
1

3

2
WX:0
70
0
0
ATTDEF
8
0
10
0.000000
20
0.000000
30
0.0
40
3.5
1

3

2
JY:0
70
0
0
ATTDEF
8
0
10
0.000000
20
0.000000
30
0.0
40
3.5
1

3

2
WY:0
70
0
0
ATTDEF
8
0
10
0.000000
20
0.000000
30
0.0
40
3.5
1

3

2
DESC:Encuentro de hojas
70
0
0
ATTDEF
8
0
10
0.000000
20
0.000000
30
0.0
40
3.5
1

3

2
DENS:1.1207
70
0
0
ATTDEF
8
0
10
0.000000
20
0.000000
30
0.0
40
3.5
1

3

2
TDEV:38.76
70
0
0
ATTDEF
8
0
10
0.000000
20
0.000000
30
0.0
40
3.5
1

3

2
TDEV2:0
70
0
0
ATTDEF
8
0
10
0.000000
20
0.000000
30
0.0
40
3.5
1

3

2
TDEV3:0
70
0
0
ATTDEF
8
0
10
0.000000
20
0.000000
30
0.0
40
3.5
1

3

2
TDEV4:0
70
0
0
ATTDEF
8
0
10
0.000000
20
0.000000
30
0.0
40
3.5
1

3

2
TDEV5:0
70
0
0
ATTDEF
8
0
10
0.000000
20
0.000000
30
0.0
40
3.5
1

3

2
PANE_WIDTH:0
70
0
0
ATTDEF
8
0
10
0.000000
20
0.000000
30
0.0
40
3.5
1

3

2
MIN_VETRO:0
70
0
0
ATTDEF
8
0
10
0.000000
20
0.000000
30
0.0
40
3.5
1

3

2
MAX_VETRO:0
70
0
0
ATTDEF
8
0
10
0.000000
20
0.000000
30
0.0
40
3.5
1

3

2
JX:0
70
0
0
ATTDEF
8
0
10
0.000000
20
0.000000
30
0.0
40
3.5
1

3

2
WX:0
70
0
0
ATTDEF
8
0
10
0.000000
20
0.000000
30
0.0
40
3.5
1

3

2
JY:0
70
0
0
ATTDEF
8
0
10
0.000000
20
0.000000
30
0.0
40
3.5
1

3

2
WY:0
70
0
0
ENDSEC
0
EOF
