0
SECTION
2
ENTITIES
0
LINE
8
00_POLIAMIDAS
10
-82.027785
20
209.656114
30
0.0
11
-80.636599
21
211.798353
31
0.0
0
LINE
8
00_POLIAMIDAS
10
-82.392842
20
209.344786
30
0.0
11
-82.647212
21
209.344786
31
0.0
0
LINE
8
00_POLIAMIDAS
10
37.300808
20
209.656114
30
0.0
11
35.909622
21
211.798353
31
0.0
0
LINE
8
00_POLIAMIDAS
10
37.665865
20
209.344786
30
0.0
11
37.920234
21
209.344786
31
0.0
0
LINE
8
00_ALUMINIO
10
-87.362108
20
212.382080
30
0.0
11
-84.962108
21
212.382080
31
0.0
0
LINE
8
00_ALUMINIO
10
-87.162108
20
218.382080
30
0.0
11
-85.162108
21
218.382080
31
0.0
0
LINE
8
00_ALUMINIO
10
-116.961659
20
277.927170
30
0.0
11
-116.961659
21
275.927170
31
0.0
0
LINE
8
00_ALUMINIO
10
-122.961659
20
277.927170
30
0.0
11
-122.961659
21
275.927170
31
0.0
0
LINE
8
00_ALUMINIO
10
-87.362108
20
212.382080
30
0.0
11
-84.962108
21
212.382080
31
0.0
0
LINE
8
00_ALUMINIO
10
-87.162108
20
218.382080
30
0.0
11
-85.162108
21
218.382080
31
0.0
0
LINE
8
00_ALUMINIO
10
-116.961659
20
277.927170
30
0.0
11
-116.961659
21
275.927170
31
0.0
0
LINE
8
00_ALUMINIO
10
-122.961659
20
277.927170
30
0.0
11
-122.961659
21
275.927170
31
0.0
0
LINE
8
00_ALUMINIO
10
-19.363489
20
277.927170
30
0.0
11
-19.363489
21
275.927170
31
0.0
0
LINE
8
00_ALUMINIO
10
-25.363489
20
277.927170
30
0.0
11
-25.363489
21
275.927170
31
0.0
0
LINE
8
00_ALUMINIO
10
3.287323
20
212.427170
30
0.0
11
5.582940
21
212.427170
31
0.0
0
LINE
8
00_ALUMINIO
10
3.435131
20
218.427170
30
0.0
11
5.435131
21
218.427170
31
0.0
0
LINE
8
00_ALUMINIO
10
-48.014300
20
212.427170
30
0.0
11
-50.309917
21
212.427170
31
0.0
0
LINE
8
00_ALUMINIO
10
-48.162108
20
218.427170
30
0.0
11
-50.162108
21
218.427170
31
0.0
0
LINE
8
00_ALUMINIO
10
42.635131
20
212.382080
30
0.0
11
40.235131
21
212.382080
31
0.0
0
LINE
8
00_ALUMINIO
10
42.435131
20
218.382080
30
0.0
11
40.435131
21
218.382080
31
0.0
0
LINE
8
00_ALUMINIO
10
72.234682
20
277.927170
30
0.0
11
72.234682
21
275.927170
31
0.0
0
LINE
8
00_ALUMINIO
10
78.234682
20
277.927170
30
0.0
11
78.234682
21
275.927170
31
0.0
0
LINE
8
00_ALUMINIO
10
42.635131
20
212.382080
30
0.0
11
40.235131
21
212.382080
31
0.0
0
LINE
8
00_ALUMINIO
10
42.435131
20
218.382080
30
0.0
11
40.435131
21
218.382080
31
0.0
0
LINE
8
00_ALUMINIO
10
72.234682
20
277.927170
30
0.0
11
72.234682
21
275.927170
31
0.0
0
LINE
8
00_ALUMINIO
10
78.234682
20
277.927170
30
0.0
11
78.234682
21
275.927170
31
0.0
0
LINE
8
00_POLIAMIDAS
10
-50.352011
20
269.323073
30
0.0
11
-51.400853
21
268.274232
31
0.0
0
LINE
8
00_POLIAMIDAS
10
-50.205342
20
271.714807
30
0.0
11
-53.086223
21
268.833926
31
0.0
0
LINE
8
00_POLIAMIDAS
10
-53.087475
20
271.077737
30
0.0
11
-54.554642
21
269.610571
31
0.0
0
LINE
8
00_POLIAMIDAS
10
-53.992764
20
272.417512
30
0.0
11
-55.438572
21
270.971704
31
0.0
0
LINE
8
00_POLIAMIDAS
10
-54.911585
20
273.743756
30
0.0
11
-56.515038
21
272.140303
31
0.0
0
LINE
8
00_POLIAMIDAS
10
-56.866479
20
274.033926
30
0.0
11
-58.666479
21
272.233926
31
0.0
0
LINE
8
00_POLIAMIDAS
10
-59.111543
20
274.033926
30
0.0
11
-60.911543
21
272.233926
31
0.0
0
LINE
8
00_POLIAMIDAS
10
-61.356607
20
274.033926
30
0.0
11
-63.156607
21
272.233926
31
0.0
0
LINE
8
00_POLIAMIDAS
10
-63.601671
20
274.033926
30
0.0
11
-65.401671
21
272.233926
31
0.0
0
LINE
8
00_POLIAMIDAS
10
-65.846735
20
274.033926
30
0.0
11
-67.646735
21
272.233926
31
0.0
0
LINE
8
00_POLIAMIDAS
10
-68.091799
20
274.033926
30
0.0
11
-69.891799
21
272.233926
31
0.0
0
LINE
8
00_POLIAMIDAS
10
-70.336863
20
274.033926
30
0.0
11
-72.136863
21
272.233926
31
0.0
0
LINE
8
00_POLIAMIDAS
10
-72.581927
20
274.033926
30
0.0
11
-74.381927
21
272.233926
31
0.0
0
LINE
8
00_POLIAMIDAS
10
-74.826991
20
274.033926
30
0.0
11
-76.626991
21
272.233926
31
0.0
0
LINE
8
00_POLIAMIDAS
10
-77.072055
20
274.033926
30
0.0
11
-79.172871
21
271.933110
31
0.0
0
LINE
8
00_POLIAMIDAS
10
-79.404994
20
271.700987
30
0.0
11
-82.272055
21
268.833926
31
0.0
0
LINE
8
00_POLIAMIDAS
10
-79.317119
20
274.033926
30
0.0
11
-82.068525
21
271.282520
31
0.0
0
LINE
8
00_POLIAMIDAS
10
-82.303510
20
271.047535
30
0.0
11
-85.142086
21
268.208959
31
0.0
0
LINE
8
00_POLIAMIDAS
10
-83.973561
20
271.622548
30
0.0
11
-85.008430
21
270.587679
31
0.0
0
LINE
8
00_POLIAMIDAS
10
-51.937932
20
271.276572
30
0.0
11
-51.147278
21
270.485918
31
0.0
0
LINE
8
00_POLIAMIDAS
10
-56.940350
20
274.033926
30
0.0
11
-50.869554
21
267.963130
31
0.0
0
LINE
8
00_POLIAMIDAS
10
-59.185414
20
274.033926
30
0.0
11
-57.385414
21
272.233926
31
0.0
0
LINE
8
00_POLIAMIDAS
10
-61.430478
20
274.033926
30
0.0
11
-59.630478
21
272.233926
31
0.0
0
LINE
8
00_POLIAMIDAS
10
-63.675542
20
274.033926
30
0.0
11
-61.875542
21
272.233926
31
0.0
0
LINE
8
00_POLIAMIDAS
10
-65.920606
20
274.033926
30
0.0
11
-64.120606
21
272.233926
31
0.0
0
LINE
8
00_POLIAMIDAS
10
-68.165670
20
274.033926
30
0.0
11
-66.365670
21
272.233926
31
0.0
0
LINE
8
00_POLIAMIDAS
10
-70.410734
20
274.033926
30
0.0
11
-68.610734
21
272.233926
31
0.0
0
LINE
8
00_POLIAMIDAS
10
-72.655798
20
274.033926
30
0.0
11
-70.855798
21
272.233926
31
0.0
0
LINE
8
00_POLIAMIDAS
10
-74.900862
20
274.033926
30
0.0
11
-73.100862
21
272.233926
31
0.0
0
LINE
8
00_POLIAMIDAS
10
-77.145926
20
274.033926
30
0.0
11
-75.345926
21
272.233926
31
0.0
0
LINE
8
00_POLIAMIDAS
10
-79.390990
20
274.033926
30
0.0
11
-77.590990
21
272.233926
31
0.0
0
LINE
8
00_POLIAMIDAS
10
-80.814964
20
273.212835
30
0.0
11
-79.358737
21
271.756609
31
0.0
0
LINE
8
00_POLIAMIDAS
10
-81.698894
20
271.851702
30
0.0
11
-80.253086
21
270.405894
31
0.0
0
LINE
8
00_POLIAMIDAS
10
-83.343801
20
271.251544
30
0.0
11
-81.183258
21
269.091002
31
0.0
0
LINE
8
00_POLIAMIDAS
10
-85.059898
20
270.722578
30
0.0
11
-84.798456
21
270.461136
31
0.0
0
LINE
8
00_POLIAMIDAS
10
-83.923300
20
269.585980
30
0.0
11
-83.086872
21
268.749551
31
0.0
0
LINE
8
00_POLIAMIDAS
10
-85.162108
20
268.579724
30
0.0
11
-84.522611
21
267.940227
31
0.0
0
LINE
8
00_POLIAMIDAS
10
-50.162108
20
268.733926
30
0.0
11
-50.162108
21
268.333926
31
0.0
0
ARC
8
00_POLIAMIDAS
10
-50.562108
20
268.333926
30
0.0
40
0.400000
50
270.000000
51
0.000000
0
LINE
8
00_POLIAMIDAS
10
-50.562108
20
267.933926
30
0.0
11
-50.740443
21
267.933926
31
0.0
0
ARC
8
00_POLIAMIDAS
10
-50.740443
20
268.233926
30
0.0
40
0.300000
50
239.544173
51
270.000000
0
LINE
8
00_POLIAMIDAS
10
-50.892505
20
267.975320
30
0.0
11
-52.071114
21
268.668350
31
0.0
0
ARC
8
00_POLIAMIDAS
10
-52.679363
20
267.633926
30
0.0
40
1.200000
50
59.544173
51
90.000000
0
LINE
8
00_POLIAMIDAS
10
-52.679363
20
268.833926
30
0.0
11
-53.398736
21
268.833926
31
0.0
0
ARC
8
00_POLIAMIDAS
10
-53.398736
20
270.033926
30
0.0
40
1.200000
50
213.000000
51
270.000000
0
LINE
8
00_POLIAMIDAS
10
-54.405141
20
269.380359
30
0.0
11
-55.844268
21
271.596421
31
0.0
0
ARC
8
00_POLIAMIDAS
10
-57.018407
20
270.833926
30
0.0
40
1.400000
50
33.000000
51
90.000000
0
LINE
8
00_POLIAMIDAS
10
-57.018407
20
272.233926
30
0.0
11
-78.305810
21
272.233926
31
0.0
0
ARC
8
00_POLIAMIDAS
10
-78.305810
20
270.833926
30
0.0
40
1.400000
50
90.000000
51
147.000000
0
LINE
8
00_POLIAMIDAS
10
-79.479949
20
271.596421
30
0.0
11
-80.919076
21
269.380359
31
0.0
0
ARC
8
00_POLIAMIDAS
10
-81.925481
20
270.033926
30
0.0
40
1.200000
50
270.000000
51
327.000000
0
LINE
8
00_POLIAMIDAS
10
-81.925481
20
268.833926
30
0.0
11
-82.644854
21
268.833926
31
0.0
0
ARC
8
00_POLIAMIDAS
10
-82.644854
20
267.633926
30
0.0
40
1.200000
50
90.000000
51
120.455827
0
LINE
8
00_POLIAMIDAS
10
-83.253103
20
268.668350
30
0.0
11
-84.431711
21
267.975320
31
0.0
0
ARC
8
00_POLIAMIDAS
10
-84.583774
20
268.233926
30
0.0
40
0.300000
50
270.000000
51
300.455827
0
LINE
8
00_POLIAMIDAS
10
-84.583774
20
267.933926
30
0.0
11
-84.762108
21
267.933926
31
0.0
0
ARC
8
00_POLIAMIDAS
10
-84.762108
20
268.333926
30
0.0
40
0.400000
50
180.000000
51
270.000000
0
LINE
8
00_POLIAMIDAS
10
-85.162108
20
268.333926
30
0.0
11
-85.162108
21
268.733926
31
0.0
0
ARC
8
00_POLIAMIDAS
10
-85.062108
20
268.733926
30
0.0
40
0.100000
50
90.000000
51
180.000000
0
LINE
8
00_POLIAMIDAS
10
-85.062108
20
268.833926
30
0.0
11
-85.062108
21
269.108926
31
0.0
0
ARC
8
00_POLIAMIDAS
10
-84.762108
20
269.108926
30
0.0
40
0.300000
50
90.000000
51
180.000000
0
LINE
8
00_POLIAMIDAS
10
-84.762108
20
269.408926
30
0.0
11
-84.702582
21
269.408926
31
0.0
0
ARC
8
00_POLIAMIDAS
10
-84.412108
20
269.933926
30
0.0
40
0.600000
50
241.044976
51
118.955024
0
LINE
8
00_POLIAMIDAS
10
-84.702582
20
270.458926
30
0.0
11
-84.762108
21
270.458926
31
0.0
0
ARC
8
00_POLIAMIDAS
10
-84.762108
20
270.758926
30
0.0
40
0.300000
50
180.000000
51
270.000000
0
LINE
8
00_POLIAMIDAS
10
-85.062108
20
270.758926
30
0.0
11
-85.062108
21
271.033926
31
0.0
0
ARC
8
00_POLIAMIDAS
10
-85.062108
20
271.133926
30
0.0
40
0.100000
50
180.000000
51
270.000000
0
LINE
8
00_POLIAMIDAS
10
-85.162108
20
271.133926
30
0.0
11
-85.162108
21
271.533926
31
0.0
0
ARC
8
00_POLIAMIDAS
10
-84.762108
20
271.533926
30
0.0
40
0.400000
50
90.000000
51
180.000000
0
LINE
8
00_POLIAMIDAS
10
-84.762108
20
271.933926
30
0.0
11
-84.583907
21
271.933926
31
0.0
0
ARC
8
00_POLIAMIDAS
10
-84.583907
20
271.633926
30
0.0
40
0.300000
50
59.496833
51
90.000000
0
LINE
8
00_POLIAMIDAS
10
-84.431631
20
271.892406
30
0.0
11
-83.256315
21
271.200005
31
0.0
0
ARC
8
00_POLIAMIDAS
10
-82.647212
20
272.233926
30
0.0
40
1.200000
50
239.496833
51
270.000000
0
LINE
8
00_POLIAMIDAS
10
-82.647212
20
271.033926
30
0.0
11
-82.392842
21
271.033926
31
0.0
0
ARC
8
00_POLIAMIDAS
10
-82.392842
20
271.333926
30
0.0
40
0.300000
50
270.000000
51
327.390000
0
LINE
8
00_POLIAMIDAS
10
-82.140135
20
271.172251
30
0.0
11
-80.636599
21
273.487493
31
0.0
0
ARC
8
00_POLIAMIDAS
10
-79.630194
20
272.833926
30
0.0
40
1.200000
50
90.000000
51
147.000000
0
LINE
8
00_POLIAMIDAS
10
-79.630194
20
274.033926
30
0.0
11
-55.694023
21
274.033926
31
0.0
0
ARC
8
00_POLIAMIDAS
10
-55.694023
20
272.833926
30
0.0
40
1.200000
50
33.000000
51
90.000000
0
LINE
8
00_POLIAMIDAS
10
-54.687618
20
273.487493
30
0.0
11
-53.184082
21
271.172251
31
0.0
0
ARC
8
00_POLIAMIDAS
10
-52.931375
20
271.333926
30
0.0
40
0.300000
50
212.610000
51
270.000000
0
LINE
8
00_POLIAMIDAS
10
-52.931375
20
271.033926
30
0.0
11
-52.677005
21
271.033926
31
0.0
0
ARC
8
00_POLIAMIDAS
10
-52.677005
20
272.233926
30
0.0
40
1.200000
50
270.000000
51
300.503167
0
LINE
8
00_POLIAMIDAS
10
-52.067902
20
271.200005
30
0.0
11
-50.892586
21
271.892406
31
0.0
0
ARC
8
00_POLIAMIDAS
10
-50.740310
20
271.633926
30
0.0
40
0.300000
50
90.000000
51
120.503167
0
LINE
8
00_POLIAMIDAS
10
-50.740310
20
271.933926
30
0.0
11
-50.562108
21
271.933926
31
0.0
0
ARC
8
00_POLIAMIDAS
10
-50.562108
20
271.533926
30
0.0
40
0.400000
50
0.000000
51
90.000000
0
LINE
8
00_POLIAMIDAS
10
-50.162108
20
271.533926
30
0.0
11
-50.162108
21
271.133926
31
0.0
0
ARC
8
00_POLIAMIDAS
10
-50.262108
20
271.133926
30
0.0
40
0.100000
50
270.000000
51
0.000000
0
LINE
8
00_POLIAMIDAS
10
-50.262108
20
271.033926
30
0.0
11
-50.262108
21
270.758926
31
0.0
0
ARC
8
00_POLIAMIDAS
10
-50.562108
20
270.758926
30
0.0
40
0.300000
50
270.000000
51
0.000000
0
LINE
8
00_POLIAMIDAS
10
-50.562108
20
270.458926
30
0.0
11
-50.621635
21
270.458926
31
0.0
0
ARC
8
00_POLIAMIDAS
10
-50.912108
20
269.933926
30
0.0
40
0.600000
50
61.044976
51
298.955024
0
LINE
8
00_POLIAMIDAS
10
-50.621635
20
269.408926
30
0.0
11
-50.562108
21
269.408926
31
0.0
0
ARC
8
00_POLIAMIDAS
10
-50.562108
20
269.108926
30
0.0
40
0.300000
50
0.000000
51
90.000000
0
LINE
8
00_POLIAMIDAS
10
-50.262108
20
269.108926
30
0.0
11
-50.262108
21
268.833926
31
0.0
0
ARC
8
00_POLIAMIDAS
10
-50.262108
20
268.733926
30
0.0
40
0.100000
50
0.000000
51
90.000000
0
LINE
8
00_POLIAMIDAS
10
-50.162108
20
206.651183
30
0.0
11
-50.568506
21
206.244786
31
0.0
0
LINE
8
00_POLIAMIDAS
10
-51.284233
20
207.774123
30
0.0
11
-52.076182
21
206.982174
31
0.0
0
LINE
8
00_POLIAMIDAS
10
-51.397763
20
209.905657
30
0.0
11
-53.998183
21
207.305237
31
0.0
0
LINE
8
00_POLIAMIDAS
10
-53.531065
20
210.017418
30
0.0
11
-54.976873
21
208.571610
31
0.0
0
LINE
8
00_POLIAMIDAS
10
-54.414996
20
211.378552
30
0.0
11
-55.861041
21
209.932507
31
0.0
0
LINE
8
00_POLIAMIDAS
10
-55.693826
20
212.344786
30
0.0
11
-57.493826
21
210.544786
31
0.0
0
LINE
8
00_POLIAMIDAS
10
-57.938890
20
212.344786
30
0.0
11
-59.738890
21
210.544786
31
0.0
0
LINE
8
00_POLIAMIDAS
10
-60.183954
20
212.344786
30
0.0
11
-61.983954
21
210.544786
31
0.0
0
LINE
8
00_POLIAMIDAS
10
-62.429018
20
212.344786
30
0.0
11
-64.229018
21
210.544786
31
0.0
0
LINE
8
00_POLIAMIDAS
10
-64.674082
20
212.344786
30
0.0
11
-66.474082
21
210.544786
31
0.0
0
LINE
8
00_POLIAMIDAS
10
-66.919146
20
212.344786
30
0.0
11
-68.719146
21
210.544786
31
0.0
0
LINE
8
00_POLIAMIDAS
10
-69.164210
20
212.344786
30
0.0
11
-70.964210
21
210.544786
31
0.0
0
LINE
8
00_POLIAMIDAS
10
-71.409274
20
212.344786
30
0.0
11
-73.209274
21
210.544786
31
0.0
0
LINE
8
00_POLIAMIDAS
10
-73.654338
20
212.344786
30
0.0
11
-75.454338
21
210.544786
31
0.0
0
LINE
8
00_POLIAMIDAS
10
-75.899402
20
212.344786
30
0.0
11
-77.699402
21
210.544786
31
0.0
0
LINE
8
00_POLIAMIDAS
10
-78.144466
20
212.344786
30
0.0
11
-83.876752
21
206.612500
31
0.0
0
LINE
8
00_POLIAMIDAS
10
-83.235458
20
209.498858
30
0.0
11
-84.028325
21
208.705991
31
0.0
0
LINE
8
00_POLIAMIDAS
10
-84.734594
20
210.244786
30
0.0
11
-85.162108
21
209.817272
31
0.0
0
LINE
8
00_POLIAMIDAS
10
-51.263086
20
209.984997
30
0.0
11
-50.271891
21
208.993802
31
0.0
0
LINE
8
00_POLIAMIDAS
10
-55.867939
20
212.344786
30
0.0
11
-53.513458
21
209.990305
31
0.0
0
LINE
8
00_POLIAMIDAS
10
-52.867939
20
209.344786
30
0.0
11
-50.162150
21
206.638997
31
0.0
0
LINE
8
00_POLIAMIDAS
10
-58.113003
20
212.344786
30
0.0
11
-52.913003
21
207.144786
31
0.0
0
LINE
8
00_POLIAMIDAS
10
-60.358067
20
212.344786
30
0.0
11
-58.558067
21
210.544786
31
0.0
0
LINE
8
00_POLIAMIDAS
10
-62.603131
20
212.344786
30
0.0
11
-60.803131
21
210.544786
31
0.0
0
LINE
8
00_POLIAMIDAS
10
-64.848195
20
212.344786
30
0.0
11
-63.048195
21
210.544786
31
0.0
0
LINE
8
00_POLIAMIDAS
10
-67.093259
20
212.344786
30
0.0
11
-65.293259
21
210.544786
31
0.0
0
LINE
8
00_POLIAMIDAS
10
-69.338323
20
212.344786
30
0.0
11
-67.538323
21
210.544786
31
0.0
0
LINE
8
00_POLIAMIDAS
10
-71.583387
20
212.344786
30
0.0
11
-69.783387
21
210.544786
31
0.0
0
LINE
8
00_POLIAMIDAS
10
-73.828451
20
212.344786
30
0.0
11
-72.028451
21
210.544786
31
0.0
0
LINE
8
00_POLIAMIDAS
10
-76.073515
20
212.344786
30
0.0
11
-74.273515
21
210.544786
31
0.0
0
LINE
8
00_POLIAMIDAS
10
-78.318579
20
212.344786
30
0.0
11
-76.518579
21
210.544786
31
0.0
0
LINE
8
00_POLIAMIDAS
10
-80.334915
20
212.116058
30
0.0
11
-78.705405
21
210.486548
31
0.0
0
LINE
8
00_POLIAMIDAS
10
-81.276663
20
210.812741
30
0.0
11
-79.830855
21
209.366933
31
0.0
0
LINE
8
00_POLIAMIDAS
10
-82.162076
20
209.453091
30
0.0
11
-80.714785
21
208.005800
31
0.0
0
LINE
8
00_POLIAMIDAS
10
-85.062718
20
210.108669
30
0.0
11
-82.098835
21
207.144786
31
0.0
0
LINE
8
00_POLIAMIDAS
10
-84.890186
20
207.691072
30
0.0
11
-83.835733
21
206.636620
31
0.0
0
LINE
8
00_POLIAMIDAS
10
-50.162108
20
207.044786
30
0.0
11
-50.162108
21
206.644786
31
0.0
0
ARC
8
00_POLIAMIDAS
10
-50.562108
20
206.644786
30
0.0
40
0.400000
50
270.000000
51
0.000000
0
LINE
8
00_POLIAMIDAS
10
-50.562108
20
206.244786
30
0.0
11
-50.740443
21
206.244786
31
0.0
0
ARC
8
00_POLIAMIDAS
10
-50.740443
20
206.544786
30
0.0
40
0.300000
50
239.544173
51
270.000000
0
LINE
8
00_POLIAMIDAS
10
-50.892505
20
206.286180
30
0.0
11
-52.071114
21
206.979210
31
0.0
0
ARC
8
00_POLIAMIDAS
10
-52.679363
20
205.944786
30
0.0
40
1.200000
50
59.544173
51
90.000000
0
LINE
8
00_POLIAMIDAS
10
-52.679363
20
207.144786
30
0.0
11
-53.398736
21
207.144786
31
0.0
0
ARC
8
00_POLIAMIDAS
10
-53.398736
20
208.344786
30
0.0
40
1.200000
50
213.000000
51
270.000000
0
LINE
8
00_POLIAMIDAS
10
-54.405141
20
207.691219
30
0.0
11
-55.844268
21
209.907281
31
0.0
0
ARC
8
00_POLIAMIDAS
10
-57.018407
20
209.144786
30
0.0
40
1.400000
50
33.000000
51
90.000000
0
LINE
8
00_POLIAMIDAS
10
-57.018407
20
210.544786
30
0.0
11
-78.305810
21
210.544786
31
0.0
0
ARC
8
00_POLIAMIDAS
10
-78.305810
20
209.144786
30
0.0
40
1.400000
50
90.000000
51
147.000000
0
LINE
8
00_POLIAMIDAS
10
-79.479949
20
209.907281
30
0.0
11
-80.919076
21
207.691219
31
0.0
0
ARC
8
00_POLIAMIDAS
10
-81.925481
20
208.344786
30
0.0
40
1.200000
50
270.000000
51
327.000000
0
LINE
8
00_POLIAMIDAS
10
-81.925481
20
207.144786
30
0.0
11
-82.644854
21
207.144786
31
0.0
0
ARC
8
00_POLIAMIDAS
10
-82.644854
20
205.944786
30
0.0
40
1.200000
50
90.000000
51
120.455827
0
LINE
8
00_POLIAMIDAS
10
-83.253103
20
206.979210
30
0.0
11
-84.431711
21
206.286180
31
0.0
0
ARC
8
00_POLIAMIDAS
10
-84.583774
20
206.544786
30
0.0
40
0.300000
50
270.000000
51
300.455827
0
LINE
8
00_POLIAMIDAS
10
-84.583774
20
206.244786
30
0.0
11
-84.762108
21
206.244786
31
0.0
0
ARC
8
00_POLIAMIDAS
10
-84.762108
20
206.644786
30
0.0
40
0.400000
50
180.000000
51
270.000000
0
LINE
8
00_POLIAMIDAS
10
-85.162108
20
206.644786
30
0.0
11
-85.162108
21
207.044786
31
0.0
0
ARC
8
00_POLIAMIDAS
10
-85.062108
20
207.044786
30
0.0
40
0.100000
50
90.000000
51
180.000000
0
LINE
8
00_POLIAMIDAS
10
-85.062108
20
207.144786
30
0.0
11
-85.062108
21
207.419786
31
0.0
0
ARC
8
00_POLIAMIDAS
10
-84.762108
20
207.419786
30
0.0
40
0.300000
50
90.000000
51
180.000000
0
LINE
8
00_POLIAMIDAS
10
-84.762108
20
207.719786
30
0.0
11
-84.702582
21
207.719786
31
0.0
0
ARC
8
00_POLIAMIDAS
10
-84.412108
20
208.244786
30
0.0
40
0.600000
50
241.044976
51
118.955024
0
LINE
8
00_POLIAMIDAS
10
-84.702582
20
208.769786
30
0.0
11
-84.762108
21
208.769786
31
0.0
0
ARC
8
00_POLIAMIDAS
10
-84.762108
20
209.069786
30
0.0
40
0.300000
50
180.000000
51
270.000000
0
LINE
8
00_POLIAMIDAS
10
-85.062108
20
209.069786
30
0.0
11
-85.062108
21
209.344786
31
0.0
0
ARC
8
00_POLIAMIDAS
10
-85.062108
20
209.444786
30
0.0
40
0.100000
50
180.000000
51
270.000000
0
LINE
8
00_POLIAMIDAS
10
-85.162108
20
209.444786
30
0.0
11
-85.162108
21
209.844786
31
0.0
0
ARC
8
00_POLIAMIDAS
10
-84.762108
20
209.844786
30
0.0
40
0.400000
50
90.000000
51
180.000000
0
LINE
8
00_POLIAMIDAS
10
-84.762108
20
210.244786
30
0.0
11
-84.583907
21
210.244786
31
0.0
0
ARC
8
00_POLIAMIDAS
10
-84.583907
20
209.944786
30
0.0
40
0.300000
50
59.496833
51
90.000000
0
LINE
8
00_POLIAMIDAS
10
-84.431631
20
210.203266
30
0.0
11
-83.256315
21
209.510865
31
0.0
0
ARC
8
00_POLIAMIDAS
10
-82.647212
20
210.544786
30
0.0
40
1.200000
50
239.496833
51
270.000000
0
LINE
8
00_POLIAMIDAS
10
-82.647212
20
209.344786
30
0.0
11
-82.392842
21
209.344786
31
0.0
0
ARC
8
00_POLIAMIDAS
10
-82.392842
20
209.644786
30
0.0
40
0.300000
50
270.000000
51
327.390000
0
LINE
8
00_POLIAMIDAS
10
-82.140135
20
209.483111
30
0.0
11
-80.636599
21
211.798353
31
0.0
0
ARC
8
00_POLIAMIDAS
10
-79.630194
20
211.144786
30
0.0
40
1.200000
50
90.000000
51
147.000000
0
LINE
8
00_POLIAMIDAS
10
-79.630194
20
212.344786
30
0.0
11
-55.694023
21
212.344786
31
0.0
0
ARC
8
00_POLIAMIDAS
10
-55.694023
20
211.144786
30
0.0
40
1.200000
50
33.000000
51
90.000000
0
LINE
8
00_POLIAMIDAS
10
-54.687618
20
211.798353
30
0.0
11
-53.184082
21
209.483111
31
0.0
0
ARC
8
00_POLIAMIDAS
10
-52.931375
20
209.644786
30
0.0
40
0.300000
50
212.610000
51
270.000000
0
LINE
8
00_POLIAMIDAS
10
-52.931375
20
209.344786
30
0.0
11
-52.677005
21
209.344786
31
0.0
0
ARC
8
00_POLIAMIDAS
10
-52.677005
20
210.544786
30
0.0
40
1.200000
50
270.000000
51
300.503167
0
LINE
8
00_POLIAMIDAS
10
-52.067902
20
209.510865
30
0.0
11
-50.892586
21
210.203266
31
0.0
0
ARC
8
00_POLIAMIDAS
10
-50.740310
20
209.944786
30
0.0
40
0.300000
50
90.000000
51
120.503167
0
LINE
8
00_POLIAMIDAS
10
-50.740310
20
210.244786
30
0.0
11
-50.562108
21
210.244786
31
0.0
0
ARC
8
00_POLIAMIDAS
10
-50.562108
20
209.844786
30
0.0
40
0.400000
50
0.000000
51
90.000000
0
LINE
8
00_POLIAMIDAS
10
-50.162108
20
209.844786
30
0.0
11
-50.162108
21
209.444786
31
0.0
0
ARC
8
00_POLIAMIDAS
10
-50.262108
20
209.444786
30
0.0
40
0.100000
50
270.000000
51
0.000000
0
LINE
8
00_POLIAMIDAS
10
-50.262108
20
209.344786
30
0.0
11
-50.262108
21
209.069786
31
0.0
0
ARC
8
00_POLIAMIDAS
10
-50.562108
20
209.069786
30
0.0
40
0.300000
50
270.000000
51
0.000000
0
LINE
8
00_POLIAMIDAS
10
-50.562108
20
208.769786
30
0.0
11
-50.621635
21
208.769786
31
0.0
0
ARC
8
00_POLIAMIDAS
10
-50.912108
20
208.244786
30
0.0
40
0.600000
50
61.044976
51
298.955024
0
LINE
8
00_POLIAMIDAS
10
-50.621635
20
207.719786
30
0.0
11
-50.562108
21
207.719786
31
0.0
0
ARC
8
00_POLIAMIDAS
10
-50.562108
20
207.419786
30
0.0
40
0.300000
50
0.000000
51
90.000000
0
LINE
8
00_POLIAMIDAS
10
-50.262108
20
207.419786
30
0.0
11
-50.262108
21
207.144786
31
0.0
0
ARC
8
00_POLIAMIDAS
10
-50.262108
20
207.044786
30
0.0
40
0.100000
50
0.000000
51
90.000000
0
LINE
8
00_POLIAMIDAS
10
39.492997
20
269.365521
30
0.0
11
38.695962
21
268.568485
31
0.0
0
LINE
8
00_POLIAMIDAS
10
39.813123
20
271.930710
30
0.0
11
36.788540
21
268.906127
31
0.0
0
LINE
8
00_POLIAMIDAS
10
37.175524
20
271.538175
30
0.0
11
35.729716
21
270.092367
31
0.0
0
LINE
8
00_POLIAMIDAS
10
36.291593
20
272.899309
30
0.0
11
34.845785
21
271.453501
31
0.0
0
LINE
8
00_POLIAMIDAS
10
35.154535
20
274.007314
30
0.0
11
33.381146
21
272.233926
31
0.0
0
LINE
8
00_POLIAMIDAS
10
32.936082
20
274.033926
30
0.0
11
31.136082
21
272.233926
31
0.0
0
LINE
8
00_POLIAMIDAS
10
30.691018
20
274.033926
30
0.0
11
28.891018
21
272.233926
31
0.0
0
LINE
8
00_POLIAMIDAS
10
28.445954
20
274.033926
30
0.0
11
26.645954
21
272.233926
31
0.0
0
LINE
8
00_POLIAMIDAS
10
26.200890
20
274.033926
30
0.0
11
24.400890
21
272.233926
31
0.0
0
LINE
8
00_POLIAMIDAS
10
23.955826
20
274.033926
30
0.0
11
22.155826
21
272.233926
31
0.0
0
LINE
8
00_POLIAMIDAS
10
21.710762
20
274.033926
30
0.0
11
19.910762
21
272.233926
31
0.0
0
LINE
8
00_POLIAMIDAS
10
19.465698
20
274.033926
30
0.0
11
17.665698
21
272.233926
31
0.0
0
LINE
8
00_POLIAMIDAS
10
17.220634
20
274.033926
30
0.0
11
15.420634
21
272.233926
31
0.0
0
LINE
8
00_POLIAMIDAS
10
14.975570
20
274.033926
30
0.0
11
13.175570
21
272.233926
31
0.0
0
LINE
8
00_POLIAMIDAS
10
12.730506
20
274.033926
30
0.0
11
7.391199
21
268.694619
31
0.0
0
LINE
8
00_POLIAMIDAS
10
10.240491
20
273.788975
30
0.0
11
10.011996
21
273.560480
31
0.0
0
LINE
8
00_POLIAMIDAS
10
5.860442
20
269.408926
30
0.0
11
5.535131
21
269.083615
31
0.0
0
LINE
8
00_POLIAMIDAS
10
7.553018
20
271.101502
30
0.0
11
6.697560
21
270.246043
31
0.0
0
LINE
8
00_POLIAMIDAS
10
6.120561
20
271.914108
30
0.0
11
5.435131
21
271.228679
31
0.0
0
LINE
8
00_POLIAMIDAS
10
39.572005
20
271.814260
30
0.0
11
40.351062
21
271.035203
31
0.0
0
LINE
8
00_POLIAMIDAS
10
35.128638
20
274.012563
30
0.0
11
36.383654
21
272.757547
31
0.0
0
LINE
8
00_POLIAMIDAS
10
39.796793
20
269.344408
30
0.0
11
40.435131
21
268.706070
31
0.0
0
LINE
8
00_POLIAMIDAS
10
38.094547
20
271.046654
30
0.0
11
39.095613
21
270.045588
31
0.0
0
LINE
8
00_POLIAMIDAS
10
32.862211
20
274.033926
30
0.0
11
38.072172
21
268.823965
31
0.0
0
LINE
8
00_POLIAMIDAS
10
30.617147
20
274.033926
30
0.0
11
32.417147
21
272.233926
31
0.0
0
LINE
8
00_POLIAMIDAS
10
28.372083
20
274.033926
30
0.0
11
30.172083
21
272.233926
31
0.0
0
LINE
8
00_POLIAMIDAS
10
26.127019
20
274.033926
30
0.0
11
27.927019
21
272.233926
31
0.0
0
LINE
8
00_POLIAMIDAS
10
23.881955
20
274.033926
30
0.0
11
25.681955
21
272.233926
31
0.0
0
LINE
8
00_POLIAMIDAS
10
21.636891
20
274.033926
30
0.0
11
23.436891
21
272.233926
31
0.0
0
LINE
8
00_POLIAMIDAS
10
19.391827
20
274.033926
30
0.0
11
21.191827
21
272.233926
31
0.0
0
LINE
8
00_POLIAMIDAS
10
17.146763
20
274.033926
30
0.0
11
18.946763
21
272.233926
31
0.0
0
LINE
8
00_POLIAMIDAS
10
14.901699
20
274.033926
30
0.0
11
16.701699
21
272.233926
31
0.0
0
LINE
8
00_POLIAMIDAS
10
12.656635
20
274.033926
30
0.0
11
14.456635
21
272.233926
31
0.0
0
LINE
8
00_POLIAMIDAS
10
10.504358
20
273.941139
30
0.0
11
12.213729
21
272.231768
31
0.0
0
LINE
8
00_POLIAMIDAS
10
9.469394
20
272.731039
30
0.0
11
10.915202
21
271.285231
31
0.0
0
LINE
8
00_POLIAMIDAS
10
8.585463
20
271.369905
30
0.0
11
10.031271
21
269.924097
31
0.0
0
LINE
8
00_POLIAMIDAS
10
5.780172
20
271.930132
30
0.0
11
8.861313
21
268.848992
31
0.0
0
LINE
8
00_POLIAMIDAS
10
6.128651
20
269.336590
30
0.0
11
6.999525
21
268.465716
31
0.0
0
LINE
8
00_POLIAMIDAS
10
5.435131
20
268.733926
30
0.0
11
5.435131
21
268.333926
31
0.0
0
ARC
8
00_POLIAMIDAS
10
5.835131
20
268.333926
30
0.0
40
0.400000
50
180.000000
51
270.000000
0
LINE
8
00_POLIAMIDAS
10
5.835131
20
267.933926
30
0.0
11
6.013466
21
267.933926
31
0.0
0
ARC
8
00_POLIAMIDAS
10
6.013466
20
268.233926
30
0.0
40
0.300000
50
270.000000
51
300.455827
0
LINE
8
00_POLIAMIDAS
10
6.165528
20
267.975320
30
0.0
11
7.344137
21
268.668350
31
0.0
0
ARC
8
00_POLIAMIDAS
10
7.952386
20
267.633926
30
0.0
40
1.200000
50
90.000000
51
120.455827
0
LINE
8
00_POLIAMIDAS
10
7.952386
20
268.833926
30
0.0
11
8.671759
21
268.833926
31
0.0
0
ARC
8
00_POLIAMIDAS
10
8.671759
20
270.033926
30
0.0
40
1.200000
50
270.000000
51
327.000000
0
LINE
8
00_POLIAMIDAS
10
9.678164
20
269.380359
30
0.0
11
11.117291
21
271.596421
31
0.0
0
ARC
8
00_POLIAMIDAS
10
12.291430
20
270.833926
30
0.0
40
1.400000
50
90.000000
51
147.000000
0
LINE
8
00_POLIAMIDAS
10
12.291430
20
272.233926
30
0.0
11
33.578833
21
272.233926
31
0.0
0
ARC
8
00_POLIAMIDAS
10
33.578833
20
270.833926
30
0.0
40
1.400000
50
33.000000
51
90.000000
0
LINE
8
00_POLIAMIDAS
10
34.752972
20
271.596421
30
0.0
11
36.192099
21
269.380359
31
0.0
0
ARC
8
00_POLIAMIDAS
10
37.198504
20
270.033926
30
0.0
40
1.200000
50
213.000000
51
270.000000
0
LINE
8
00_POLIAMIDAS
10
37.198504
20
268.833926
30
0.0
11
37.917877
21
268.833926
31
0.0
0
ARC
8
00_POLIAMIDAS
10
37.917877
20
267.633926
30
0.0
40
1.200000
50
59.544173
51
90.000000
0
LINE
8
00_POLIAMIDAS
10
38.526125
20
268.668350
30
0.0
11
39.704734
21
267.975320
31
0.0
0
ARC
8
00_POLIAMIDAS
10
39.856796
20
268.233926
30
0.0
40
0.300000
50
239.544173
51
270.000000
0
LINE
8
00_POLIAMIDAS
10
39.856796
20
267.933926
30
0.0
11
40.035131
21
267.933926
31
0.0
0
ARC
8
00_POLIAMIDAS
10
40.035131
20
268.333926
30
0.0
40
0.400000
50
270.000000
51
0.000000
0
LINE
8
00_POLIAMIDAS
10
40.435131
20
268.333926
30
0.0
11
40.435131
21
268.733926
31
0.0
0
ARC
8
00_POLIAMIDAS
10
40.335131
20
268.733926
30
0.0
40
0.100000
50
0.000000
51
90.000000
0
LINE
8
00_POLIAMIDAS
10
40.335131
20
268.833926
30
0.0
11
40.335131
21
269.108926
31
0.0
0
ARC
8
00_POLIAMIDAS
10
40.035131
20
269.108926
30
0.0
40
0.300000
50
0.000000
51
90.000000
0
LINE
8
00_POLIAMIDAS
10
40.035131
20
269.408926
30
0.0
11
39.975605
21
269.408926
31
0.0
0
ARC
8
00_POLIAMIDAS
10
39.685131
20
269.933926
30
0.0
40
0.600000
50
61.044976
51
298.955024
0
LINE
8
00_POLIAMIDAS
10
39.975605
20
270.458926
30
0.0
11
40.035131
21
270.458926
31
0.0
0
ARC
8
00_POLIAMIDAS
10
40.035131
20
270.758926
30
0.0
40
0.300000
50
270.000000
51
0.000000
0
LINE
8
00_POLIAMIDAS
10
40.335131
20
270.758926
30
0.0
11
40.335131
21
271.033926
31
0.0
0
ARC
8
00_POLIAMIDAS
10
40.335131
20
271.133926
30
0.0
40
0.100000
50
270.000000
51
0.000000
0
LINE
8
00_POLIAMIDAS
10
40.435131
20
271.133926
30
0.0
11
40.435131
21
271.533926
31
0.0
0
ARC
8
00_POLIAMIDAS
10
40.035131
20
271.533926
30
0.0
40
0.400000
50
0.000000
51
90.000000
0
LINE
8
00_POLIAMIDAS
10
40.035131
20
271.933926
30
0.0
11
39.856930
21
271.933926
31
0.0
0
ARC
8
00_POLIAMIDAS
10
39.856930
20
271.633926
30
0.0
40
0.300000
50
90.000000
51
120.503167
0
LINE
8
00_POLIAMIDAS
10
39.704654
20
271.892406
30
0.0
11
38.529338
21
271.200005
31
0.0
0
ARC
8
00_POLIAMIDAS
10
37.920234
20
272.233926
30
0.0
40
1.200000
50
270.000000
51
300.503167
0
LINE
8
00_POLIAMIDAS
10
37.920234
20
271.033926
30
0.0
11
37.665865
21
271.033926
31
0.0
0
ARC
8
00_POLIAMIDAS
10
37.665865
20
271.333926
30
0.0
40
0.300000
50
212.610000
51
270.000000
0
LINE
8
00_POLIAMIDAS
10
37.413158
20
271.172251
30
0.0
11
35.909622
21
273.487493
31
0.0
0
ARC
8
00_POLIAMIDAS
10
34.903217
20
272.833926
30
0.0
40
1.200000
50
33.000000
51
90.000000
0
LINE
8
00_POLIAMIDAS
10
34.903217
20
274.033926
30
0.0
11
10.967045
21
274.033926
31
0.0
0
ARC
8
00_POLIAMIDAS
10
10.967045
20
272.833926
30
0.0
40
1.200000
50
90.000000
51
147.000000
0
LINE
8
00_POLIAMIDAS
10
9.960641
20
273.487493
30
0.0
11
8.457105
21
271.172251
31
0.0
0
ARC
8
00_POLIAMIDAS
10
8.204397
20
271.333926
30
0.0
40
0.300000
50
270.000000
51
327.390000
0
LINE
8
00_POLIAMIDAS
10
8.204397
20
271.033926
30
0.0
11
7.950028
21
271.033926
31
0.0
0
ARC
8
00_POLIAMIDAS
10
7.950028
20
272.233926
30
0.0
40
1.200000
50
239.496833
51
270.000000
0
LINE
8
00_POLIAMIDAS
10
7.340925
20
271.200005
30
0.0
11
6.165609
21
271.892406
31
0.0
0
ARC
8
00_POLIAMIDAS
10
6.013333
20
271.633926
30
0.0
40
0.300000
50
59.496833
51
90.000000
0
LINE
8
00_POLIAMIDAS
10
6.013333
20
271.933926
30
0.0
11
5.835131
21
271.933926
31
0.0
0
ARC
8
00_POLIAMIDAS
10
5.835131
20
271.533926
30
0.0
40
0.400000
50
90.000000
51
180.000000
0
LINE
8
00_POLIAMIDAS
10
5.435131
20
271.533926
30
0.0
11
5.435131
21
271.133926
31
0.0
0
ARC
8
00_POLIAMIDAS
10
5.535131
20
271.133926
30
0.0
40
0.100000
50
180.000000
51
270.000000
0
LINE
8
00_POLIAMIDAS
10
5.535131
20
271.033926
30
0.0
11
5.535131
21
270.758926
31
0.0
0
ARC
8
00_POLIAMIDAS
10
5.835131
20
270.758926
30
0.0
40
0.300000
50
180.000000
51
270.000000
0
LINE
8
00_POLIAMIDAS
10
5.835131
20
270.458926
30
0.0
11
5.894658
21
270.458926
31
0.0
0
ARC
8
00_POLIAMIDAS
10
6.185131
20
269.933926
30
0.0
40
0.600000
50
241.044976
51
118.955024
0
LINE
8
00_POLIAMIDAS
10
5.894658
20
269.408926
30
0.0
11
5.835131
21
269.408926
31
0.0
0
ARC
8
00_POLIAMIDAS
10
5.835131
20
269.108926
30
0.0
40
0.300000
50
90.000000
51
180.000000
0
LINE
8
00_POLIAMIDAS
10
5.535131
20
269.108926
30
0.0
11
5.535131
21
268.833926
31
0.0
0
ARC
8
00_POLIAMIDAS
10
5.535131
20
268.733926
30
0.0
40
0.100000
50
90.000000
51
180.000000
0
LINE
8
00_POLIAMIDAS
10
40.335131
20
207.345862
30
0.0
11
39.434405
21
206.445136
31
0.0
0
LINE
8
00_POLIAMIDAS
10
40.435131
20
209.690926
30
0.0
11
39.579646
21
208.835441
31
0.0
0
LINE
8
00_POLIAMIDAS
10
39.094477
20
208.350271
30
0.0
11
37.888992
21
207.144786
31
0.0
0
LINE
8
00_POLIAMIDAS
10
37.843928
20
209.344786
30
0.0
11
36.191415
21
207.692273
31
0.0
0
LINE
8
00_POLIAMIDAS
10
36.753292
20
210.499215
30
0.0
11
35.307484
21
209.053407
31
0.0
0
LINE
8
00_POLIAMIDAS
10
35.867735
20
211.858722
30
0.0
11
34.333186
21
210.324172
31
0.0
0
LINE
8
00_POLIAMIDAS
10
34.108735
20
212.344786
30
0.0
11
32.308735
21
210.544786
31
0.0
0
LINE
8
00_POLIAMIDAS
10
31.863671
20
212.344786
30
0.0
11
30.063671
21
210.544786
31
0.0
0
LINE
8
00_POLIAMIDAS
10
29.618607
20
212.344786
30
0.0
11
27.818607
21
210.544786
31
0.0
0
LINE
8
00_POLIAMIDAS
10
27.373543
20
212.344786
30
0.0
11
25.573543
21
210.544786
31
0.0
0
LINE
8
00_POLIAMIDAS
10
25.128479
20
212.344786
30
0.0
11
23.328479
21
210.544786
31
0.0
0
LINE
8
00_POLIAMIDAS
10
22.883415
20
212.344786
30
0.0
11
21.083415
21
210.544786
31
0.0
0
LINE
8
00_POLIAMIDAS
10
20.638351
20
212.344786
30
0.0
11
18.838351
21
210.544786
31
0.0
0
LINE
8
00_POLIAMIDAS
10
18.393287
20
212.344786
30
0.0
11
16.593287
21
210.544786
31
0.0
0
LINE
8
00_POLIAMIDAS
10
16.148223
20
212.344786
30
0.0
11
14.348223
21
210.544786
31
0.0
0
LINE
8
00_POLIAMIDAS
10
13.903159
20
212.344786
30
0.0
11
12.088352
21
210.529979
31
0.0
0
LINE
8
00_POLIAMIDAS
10
10.472013
20
208.913640
30
0.0
11
8.703581
21
207.145208
31
0.0
0
LINE
8
00_POLIAMIDAS
10
11.658095
20
212.344786
30
0.0
11
5.620534
21
206.307225
31
0.0
0
LINE
8
00_POLIAMIDAS
10
6.861530
20
209.793285
30
0.0
11
5.838031
21
208.769786
31
0.0
0
LINE
8
00_POLIAMIDAS
10
38.834079
20
209.690394
30
0.0
11
39.679711
21
208.844762
31
0.0
0
LINE
8
00_POLIAMIDAS
10
33.934622
20
212.344786
30
0.0
11
40.034622
21
206.244786
31
0.0
0
LINE
8
00_POLIAMIDAS
10
31.689558
20
212.344786
30
0.0
11
33.489558
21
210.544786
31
0.0
0
LINE
8
00_POLIAMIDAS
10
35.912351
20
208.121993
30
0.0
11
36.832323
21
207.202021
31
0.0
0
LINE
8
00_POLIAMIDAS
10
29.444494
20
212.344786
30
0.0
11
31.244494
21
210.544786
31
0.0
0
LINE
8
00_POLIAMIDAS
10
27.199430
20
212.344786
30
0.0
11
28.999430
21
210.544786
31
0.0
0
LINE
8
00_POLIAMIDAS
10
24.954366
20
212.344786
30
0.0
11
26.754366
21
210.544786
31
0.0
0
LINE
8
00_POLIAMIDAS
10
22.709302
20
212.344786
30
0.0
11
24.509302
21
210.544786
31
0.0
0
LINE
8
00_POLIAMIDAS
10
20.464238
20
212.344786
30
0.0
11
22.264238
21
210.544786
31
0.0
0
LINE
8
00_POLIAMIDAS
10
18.219174
20
212.344786
30
0.0
11
20.019174
21
210.544786
31
0.0
0
LINE
8
00_POLIAMIDAS
10
15.974110
20
212.344786
30
0.0
11
17.774110
21
210.544786
31
0.0
0
LINE
8
00_POLIAMIDAS
10
13.729046
20
212.344786
30
0.0
11
15.529046
21
210.544786
31
0.0
0
LINE
8
00_POLIAMIDAS
10
11.483982
20
212.344786
30
0.0
11
13.283982
21
210.544786
31
0.0
0
LINE
8
00_POLIAMIDAS
10
9.891625
20
211.692079
30
0.0
11
11.377975
21
210.205729
31
0.0
0
LINE
8
00_POLIAMIDAS
10
9.007695
20
210.330945
30
0.0
11
10.453503
21
208.885137
31
0.0
0
LINE
8
00_POLIAMIDAS
10
7.728087
20
209.365489
30
0.0
11
9.557928
21
207.535648
31
0.0
0
LINE
8
00_POLIAMIDAS
10
5.443291
20
209.405221
30
0.0
11
5.495566
21
209.352946
31
0.0
0
LINE
8
00_POLIAMIDAS
10
6.763474
20
208.085038
30
0.0
11
7.725391
21
207.123121
31
0.0
0
LINE
8
00_POLIAMIDAS
10
5.535131
20
209.313381
30
0.0
11
6.025383
21
208.823129
31
0.0
0
LINE
8
00_POLIAMIDAS
10
5.477172
20
207.126276
30
0.0
11
6.261082
21
206.342366
31
0.0
0
LINE
8
00_POLIAMIDAS
10
5.435131
20
207.044786
30
0.0
11
5.435131
21
206.644786
31
0.0
0
ARC
8
00_POLIAMIDAS
10
5.835131
20
206.644786
30
0.0
40
0.400000
50
180.000000
51
270.000000
0
LINE
8
00_POLIAMIDAS
10
5.835131
20
206.244786
30
0.0
11
6.013466
21
206.244786
31
0.0
0
ARC
8
00_POLIAMIDAS
10
6.013466
20
206.544786
30
0.0
40
0.300000
50
270.000000
51
300.455827
0
LINE
8
00_POLIAMIDAS
10
6.165528
20
206.286180
30
0.0
11
7.344137
21
206.979210
31
0.0
0
ARC
8
00_POLIAMIDAS
10
7.952386
20
205.944786
30
0.0
40
1.200000
50
90.000000
51
120.455827
0
LINE
8
00_POLIAMIDAS
10
7.952386
20
207.144786
30
0.0
11
8.671759
21
207.144786
31
0.0
0
ARC
8
00_POLIAMIDAS
10
8.671759
20
208.344786
30
0.0
40
1.200000
50
270.000000
51
327.000000
0
LINE
8
00_POLIAMIDAS
10
9.678164
20
207.691219
30
0.0
11
11.117291
21
209.907281
31
0.0
0
ARC
8
00_POLIAMIDAS
10
12.291430
20
209.144786
30
0.0
40
1.400000
50
90.000000
51
147.000000
0
LINE
8
00_POLIAMIDAS
10
12.291430
20
210.544786
30
0.0
11
33.578833
21
210.544786
31
0.0
0
ARC
8
00_POLIAMIDAS
10
33.578833
20
209.144786
30
0.0
40
1.400000
50
33.000000
51
90.000000
0
LINE
8
00_POLIAMIDAS
10
34.752972
20
209.907281
30
0.0
11
36.192099
21
207.691219
31
0.0
0
ARC
8
00_POLIAMIDAS
10
37.198504
20
208.344786
30
0.0
40
1.200000
50
213.000000
51
270.000000
0
LINE
8
00_POLIAMIDAS
10
37.198504
20
207.144786
30
0.0
11
37.917877
21
207.144786
31
0.0
0
ARC
8
00_POLIAMIDAS
10
37.917877
20
205.944786
30
0.0
40
1.200000
50
59.544173
51
90.000000
0
LINE
8
00_POLIAMIDAS
10
38.526125
20
206.979210
30
0.0
11
39.704734
21
206.286180
31
0.0
0
ARC
8
00_POLIAMIDAS
10
39.856796
20
206.544786
30
0.0
40
0.300000
50
239.544173
51
270.000000
0
LINE
8
00_POLIAMIDAS
10
39.856796
20
206.244786
30
0.0
11
40.035131
21
206.244786
31
0.0
0
ARC
8
00_POLIAMIDAS
10
40.035131
20
206.644786
30
0.0
40
0.400000
50
270.000000
51
0.000000
0
LINE
8
00_POLIAMIDAS
10
40.435131
20
206.644786
30
0.0
11
40.435131
21
207.044786
31
0.0
0
ARC
8
00_POLIAMIDAS
10
40.335131
20
207.044786
30
0.0
40
0.100000
50
0.000000
51
90.000000
0
LINE
8
00_POLIAMIDAS
10
40.335131
20
207.144786
30
0.0
11
40.335131
21
207.419786
31
0.0
0
ARC
8
00_POLIAMIDAS
10
40.035131
20
207.419786
30
0.0
40
0.300000
50
0.000000
51
90.000000
0
LINE
8
00_POLIAMIDAS
10
40.035131
20
207.719786
30
0.0
11
39.975605
21
207.719786
31
0.0
0
ARC
8
00_POLIAMIDAS
10
39.685131
20
208.244786
30
0.0
40
0.600000
50
61.044976
51
298.955024
0
LINE
8
00_POLIAMIDAS
10
39.975605
20
208.769786
30
0.0
11
40.035131
21
208.769786
31
0.0
0
ARC
8
00_POLIAMIDAS
10
40.035131
20
209.069786
30
0.0
40
0.300000
50
270.000000
51
0.000000
0
LINE
8
00_POLIAMIDAS
10
40.335131
20
209.069786
30
0.0
11
40.335131
21
209.344786
31
0.0
0
ARC
8
00_POLIAMIDAS
10
40.335131
20
209.444786
30
0.0
40
0.100000
50
270.000000
51
0.000000
0
LINE
8
00_POLIAMIDAS
10
40.435131
20
209.444786
30
0.0
11
40.435131
21
209.844786
31
0.0
0
ARC
8
00_POLIAMIDAS
10
40.035131
20
209.844786
30
0.0
40
0.400000
50
0.000000
51
90.000000
0
LINE
8
00_POLIAMIDAS
10
40.035131
20
210.244786
30
0.0
11
39.856930
21
210.244786
31
0.0
0
ARC
8
00_POLIAMIDAS
10
39.856930
20
209.944786
30
0.0
40
0.300000
50
90.000000
51
120.503167
0
LINE
8
00_POLIAMIDAS
10
39.704654
20
210.203266
30
0.0
11
38.529338
21
209.510865
31
0.0
0
ARC
8
00_POLIAMIDAS
10
37.920234
20
210.544786
30
0.0
40
1.200000
50
270.000000
51
300.503167
0
LINE
8
00_POLIAMIDAS
10
37.920234
20
209.344786
30
0.0
11
37.665865
21
209.344786
31
0.0
0
ARC
8
00_POLIAMIDAS
10
37.665865
20
209.644786
30
0.0
40
0.300000
50
212.610000
51
270.000000
0
LINE
8
00_POLIAMIDAS
10
37.413158
20
209.483111
30
0.0
11
35.909622
21
211.798353
31
0.0
0
ARC
8
00_POLIAMIDAS
10
34.903217
20
211.144786
30
0.0
40
1.200000
50
33.000000
51
90.000000
0
LINE
8
00_POLIAMIDAS
10
34.903217
20
212.344786
30
0.0
11
10.967045
21
212.344786
31
0.0
0
ARC
8
00_POLIAMIDAS
10
10.967045
20
211.144786
30
0.0
40
1.200000
50
90.000000
51
147.000000
0
LINE
8
00_POLIAMIDAS
10
9.960641
20
211.798353
30
0.0
11
8.457105
21
209.483111
31
0.0
0
ARC
8
00_POLIAMIDAS
10
8.204397
20
209.644786
30
0.0
40
0.300000
50
270.000000
51
327.390000
0
LINE
8
00_POLIAMIDAS
10
8.204397
20
209.344786
30
0.0
11
7.950028
21
209.344786
31
0.0
0
ARC
8
00_POLIAMIDAS
10
7.950028
20
210.544786
30
0.0
40
1.200000
50
239.496833
51
270.000000
0
LINE
8
00_POLIAMIDAS
10
7.340925
20
209.510865
30
0.0
11
6.165609
21
210.203266
31
0.0
0
ARC
8
00_POLIAMIDAS
10
6.013333
20
209.944786
30
0.0
40
0.300000
50
59.496833
51
90.000000
0
LINE
8
00_POLIAMIDAS
10
6.013333
20
210.244786
30
0.0
11
5.835131
21
210.244786
31
0.0
0
ARC
8
00_POLIAMIDAS
10
5.835131
20
209.844786
30
0.0
40
0.400000
50
90.000000
51
180.000000
0
LINE
8
00_POLIAMIDAS
10
5.435131
20
209.844786
30
0.0
11
5.435131
21
209.444786
31
0.0
0
ARC
8
00_POLIAMIDAS
10
5.535131
20
209.444786
30
0.0
40
0.100000
50
180.000000
51
270.000000
0
LINE
8
00_POLIAMIDAS
10
5.535131
20
209.344786
30
0.0
11
5.535131
21
209.069786
31
0.0
0
ARC
8
00_POLIAMIDAS
10
5.835131
20
209.069786
30
0.0
40
0.300000
50
180.000000
51
270.000000
0
LINE
8
00_POLIAMIDAS
10
5.835131
20
208.769786
30
0.0
11
5.894658
21
208.769786
31
0.0
0
ARC
8
00_POLIAMIDAS
10
6.185131
20
208.244786
30
0.0
40
0.600000
50
241.044976
51
118.955024
0
LINE
8
00_POLIAMIDAS
10
5.894658
20
207.719786
30
0.0
11
5.835131
21
207.719786
31
0.0
0
ARC
8
00_POLIAMIDAS
10
5.835131
20
207.419786
30
0.0
40
0.300000
50
90.000000
51
180.000000
0
LINE
8
00_POLIAMIDAS
10
5.535131
20
207.419786
30
0.0
11
5.535131
21
207.144786
31
0.0
0
ARC
8
00_POLIAMIDAS
10
5.535131
20
207.044786
30
0.0
40
0.100000
50
90.000000
51
180.000000
0
LINE
8
00_ALUMINIO
10
-122.961659
20
275.927170
30
0.0
11
-140.781358
21
275.927170
31
0.0
0
ARC
8
00_ALUMINIO
10
-140.781358
20
275.627170
30
0.0
40
0.300000
50
90.000000
51
211.407863
0
ARC
8
00_ALUMINIO
10
-143.811210
20
273.777170
30
0.0
40
3.250000
50
355.475682
51
31.407863
0
ARC
8
00_ALUMINIO
10
-141.069779
20
273.560244
30
0.0
40
0.500000
50
255.000000
51
355.475682
0
LINE
8
00_ALUMINIO
10
-141.199188
20
273.077281
30
0.0
11
-141.692218
21
273.209388
31
0.0
0
ARC
8
00_ALUMINIO
10
-141.562809
20
273.692351
30
0.0
40
0.500000
50
177.839588
51
255.000000
0
ARC
8
00_ALUMINIO
10
-143.811210
20
273.777170
30
0.0
40
1.750000
50
357.839588
51
18.574039
0
LINE
8
00_ALUMINIO
10
-142.152362
20
274.334597
30
0.0
11
-141.919616
21
274.567343
31
0.0
0
ARC
8
00_ALUMINIO
10
-143.811210
20
273.777170
30
0.0
40
2.050000
50
22.671704
51
67.328296
0
LINE
8
00_ALUMINIO
10
-143.021036
20
275.668763
30
0.0
11
-143.253782
21
275.436017
31
0.0
0
ARC
8
00_ALUMINIO
10
-143.811210
20
273.777170
30
0.0
40
1.750000
50
71.425961
51
108.574039
0
LINE
8
00_ALUMINIO
10
-144.368637
20
275.436017
30
0.0
11
-144.601383
21
275.668763
31
0.0
0
ARC
8
00_ALUMINIO
10
-143.811210
20
273.777170
30
0.0
40
2.050000
50
112.671704
51
157.328296
0
LINE
8
00_ALUMINIO
10
-145.702803
20
274.567343
30
0.0
11
-145.470057
21
274.334597
31
0.0
0
ARC
8
00_ALUMINIO
10
-143.811210
20
273.777170
30
0.0
40
1.750000
50
161.425961
51
198.574039
0
LINE
8
00_ALUMINIO
10
-145.470057
20
273.219743
30
0.0
11
-145.702803
21
272.986996
31
0.0
0
ARC
8
00_ALUMINIO
10
-143.811210
20
273.777170
30
0.0
40
2.050000
50
202.671704
51
247.328296
0
LINE
8
00_ALUMINIO
10
-144.601383
20
271.885576
30
0.0
11
-144.368637
21
272.118322
31
0.0
0
ARC
8
00_ALUMINIO
10
-143.811210
20
273.777170
30
0.0
40
1.750000
50
251.425961
51
272.160412
0
ARC
8
00_ALUMINIO
10
-143.726390
20
271.528769
30
0.0
40
0.500000
50
15.000000
51
92.160412
0
LINE
8
00_ALUMINIO
10
-143.243428
20
271.658179
30
0.0
11
-143.111321
21
271.165148
31
0.0
0
ARC
8
00_ALUMINIO
10
-143.594283
20
271.035739
30
0.0
40
0.500000
50
274.524318
51
15.000000
0
ARC
8
00_ALUMINIO
10
-143.811210
20
273.777170
30
0.0
40
3.250000
50
238.592137
51
274.524318
0
ARC
8
00_ALUMINIO
10
-145.661210
20
270.747318
30
0.0
40
0.300000
50
58.592137
51
180.000000
0
LINE
8
00_ALUMINIO
10
-145.961210
20
270.747318
30
0.0
11
-145.961210
21
250.727170
31
0.0
0
ARC
8
00_ALUMINIO
10
-145.461210
20
250.727170
30
0.0
40
0.500000
50
180.000000
51
270.000000
0
LINE
8
00_ALUMINIO
10
-145.461210
20
250.227170
30
0.0
11
-92.341960
21
250.227170
31
0.0
0
ARC
8
00_ALUMINIO
10
-92.341960
20
250.527170
30
0.0
40
0.300000
50
270.000000
51
31.407863
0
ARC
8
00_ALUMINIO
10
-89.312108
20
252.377170
30
0.0
40
3.250000
50
175.475682
51
211.407863
0
ARC
8
00_ALUMINIO
10
-92.053539
20
252.594096
30
0.0
40
0.500000
50
75.000000
51
175.475682
0
LINE
8
00_ALUMINIO
10
-91.924130
20
253.077059
30
0.0
11
-91.431100
21
252.944952
31
0.0
0
ARC
8
00_ALUMINIO
10
-91.560509
20
252.461989
30
0.0
40
0.500000
50
357.839588
51
75.000000
0
ARC
8
00_ALUMINIO
10
-89.312108
20
252.377170
30
0.0
40
1.750000
50
177.839588
51
198.574039
0
LINE
8
00_ALUMINIO
10
-90.970956
20
251.819743
30
0.0
11
-91.203702
21
251.586996
31
0.0
0
ARC
8
00_ALUMINIO
10
-89.312108
20
252.377170
30
0.0
40
2.050000
50
202.671704
51
247.328296
0
LINE
8
00_ALUMINIO
10
-90.102282
20
250.485576
30
0.0
11
-89.869536
21
250.718322
31
0.0
0
ARC
8
00_ALUMINIO
10
-89.312108
20
252.377170
30
0.0
40
1.750000
50
251.425961
51
288.574039
0
LINE
8
00_ALUMINIO
10
-88.754681
20
250.718322
30
0.0
11
-88.521935
21
250.485576
31
0.0
0
ARC
8
00_ALUMINIO
10
-89.312108
20
252.377170
30
0.0
40
2.050000
50
292.671704
51
337.328296
0
LINE
8
00_ALUMINIO
10
-87.420515
20
251.586996
30
0.0
11
-87.653261
21
251.819743
31
0.0
0
ARC
8
00_ALUMINIO
10
-89.312108
20
252.377170
30
0.0
40
1.750000
50
341.425961
51
18.574039
0
LINE
8
00_ALUMINIO
10
-87.653261
20
252.934597
30
0.0
11
-87.420515
21
253.167343
31
0.0
0
ARC
8
00_ALUMINIO
10
-89.312108
20
252.377170
30
0.0
40
2.050000
50
22.671704
51
67.328296
0
LINE
8
00_ALUMINIO
10
-88.521935
20
254.268763
30
0.0
11
-88.754681
21
254.036017
31
0.0
0
ARC
8
00_ALUMINIO
10
-89.312108
20
252.377170
30
0.0
40
1.750000
50
71.425961
51
92.160412
0
ARC
8
00_ALUMINIO
10
-89.396927
20
254.625570
30
0.0
40
0.500000
50
195.000000
51
272.160412
0
LINE
8
00_ALUMINIO
10
-89.879890
20
254.496161
30
0.0
11
-90.011997
21
254.989191
31
0.0
0
ARC
8
00_ALUMINIO
10
-89.529034
20
255.118601
30
0.0
40
0.500000
50
94.524318
51
195.000000
0
ARC
8
00_ALUMINIO
10
-89.312108
20
252.377170
30
0.0
40
3.250000
50
58.592137
51
94.524318
0
ARC
8
00_ALUMINIO
10
-87.462108
20
255.407021
30
0.0
40
0.300000
50
238.592137
51
0.000000
0
LINE
8
00_ALUMINIO
10
-87.162108
20
255.407021
30
0.0
11
-87.162108
21
275.427170
31
0.0
0
ARC
8
00_ALUMINIO
10
-87.662108
20
275.427170
30
0.0
40
0.500000
50
0.000000
51
90.000000
0
LINE
8
00_ALUMINIO
10
-87.662108
20
275.927170
30
0.0
11
-116.961659
21
275.927170
31
0.0
0
LINE
8
00_ALUMINIO
10
-116.961659
20
275.927170
30
0.0
11
-122.961659
21
275.927170
31
0.0
0
LINE
8
00_ALUMINIO
10
-87.162108
20
218.382080
30
0.0
11
-87.162108
21
247.727170
31
0.0
0
ARC
8
00_ALUMINIO
10
-87.662108
20
247.727170
30
0.0
40
0.500000
50
0.000000
51
90.000000
0
LINE
8
00_ALUMINIO
10
-87.662108
20
248.227170
30
0.0
11
-144.684174
21
248.227170
31
0.0
0
ARC
8
00_ALUMINIO
10
-144.684174
20
247.727170
30
0.0
40
0.500000
50
90.000000
51
225.000000
0
LINE
8
00_ALUMINIO
10
-145.037727
20
247.373616
30
0.0
11
-142.893443
21
245.229331
31
0.0
0
ARC
8
00_ALUMINIO
10
-144.661210
20
243.461564
30
0.0
40
2.500000
50
0.000000
51
45.000000
0
LINE
8
00_ALUMINIO
10
-142.161210
20
243.461564
30
0.0
11
-142.161210
21
239.399090
31
0.0
0
ARC
8
00_ALUMINIO
10
-144.461210
20
239.399090
30
0.0
40
2.300000
50
315.000000
51
0.000000
0
LINE
8
00_ALUMINIO
10
-142.834864
20
237.772745
30
0.0
11
-145.814763
21
234.792846
31
0.0
0
ARC
8
00_ALUMINIO
10
-145.461210
20
234.439292
30
0.0
40
0.500000
50
135.000000
51
180.000000
0
LINE
8
00_ALUMINIO
10
-145.961210
20
234.439292
30
0.0
11
-145.961210
21
212.782080
31
0.0
0
ARC
8
00_ALUMINIO
10
-145.461210
20
212.782080
30
0.0
40
0.500000
50
180.000000
51
270.000000
0
LINE
8
00_ALUMINIO
10
-145.461210
20
212.282080
30
0.0
11
-87.662108
21
212.282080
31
0.0
0
ARC
8
00_ALUMINIO
10
-87.662108
20
212.782080
30
0.0
40
0.500000
50
270.000000
51
306.869899
0
ARC
8
00_ALUMINIO
10
-87.662108
20
212.782080
30
0.0
40
0.500000
50
306.869899
51
0.000000
0
LINE
8
00_ALUMINIO
10
-87.162108
20
212.782080
30
0.0
11
-87.162108
21
218.382080
31
0.0
0
LINE
8
00_ALUMINIO
10
-116.961659
20
277.927170
30
0.0
11
-119.461659
21
277.927170
31
0.0
0
LINE
8
00_ALUMINIO
10
-119.461659
20
277.927170
30
0.0
11
-119.749527
21
277.639302
31
0.0
0
ARC
8
00_ALUMINIO
10
-119.961659
20
277.851434
30
0.0
40
0.300000
50
225.000000
51
315.000000
0
LINE
8
00_ALUMINIO
10
-120.173791
20
277.639302
30
0.0
11
-120.461659
21
277.927170
31
0.0
0
LINE
8
00_ALUMINIO
10
-120.461659
20
277.927170
30
0.0
11
-122.961659
21
277.927170
31
0.0
0
LINE
8
00_ALUMINIO
10
-122.961659
20
277.927170
30
0.0
11
-141.361210
21
277.927170
31
0.0
0
ARC
8
00_ALUMINIO
10
-141.361210
20
278.227170
30
0.0
40
0.300000
50
180.000000
51
270.000000
0
LINE
8
00_ALUMINIO
10
-141.661210
20
278.227170
30
0.0
11
-141.666226
21
282.127170
31
0.0
0
ARC
8
00_ALUMINIO
10
-142.166226
20
282.127170
30
0.0
40
0.500000
50
0.000000
51
90.000000
0
LINE
8
00_ALUMINIO
10
-142.166226
20
282.627170
30
0.0
11
-143.166226
21
282.627170
31
0.0
0
ARC
8
00_ALUMINIO
10
-143.166226
20
282.127170
30
0.0
40
0.500000
50
90.000000
51
180.000000
0
LINE
8
00_ALUMINIO
10
-143.666226
20
282.127170
30
0.0
11
-143.663947
21
278.427478
31
0.0
0
ARC
8
00_ALUMINIO
10
-144.163947
20
278.427170
30
0.0
40
0.500000
50
270.000000
51
0.035287
0
LINE
8
00_ALUMINIO
10
-144.163947
20
277.927170
30
0.0
11
-147.461210
21
277.927170
31
0.0
0
ARC
8
00_ALUMINIO
10
-147.461210
20
277.427170
30
0.0
40
0.500000
50
90.000000
51
180.000000
0
LINE
8
00_ALUMINIO
10
-147.961210
20
277.427170
30
0.0
11
-147.961210
21
254.727170
31
0.0
0
LINE
8
00_ALUMINIO
10
-147.961210
20
254.727170
30
0.0
11
-147.673342
21
254.439302
31
0.0
0
ARC
8
00_ALUMINIO
10
-147.885474
20
254.227170
30
0.0
40
0.300000
50
315.000000
51
45.000000
0
LINE
8
00_ALUMINIO
10
-147.673342
20
254.015038
30
0.0
11
-147.961210
21
253.727170
31
0.0
0
LINE
8
00_ALUMINIO
10
-147.961210
20
253.727170
30
0.0
11
-147.961210
21
247.675778
31
0.0
0
ARC
8
00_ALUMINIO
10
-147.461210
20
247.675778
30
0.0
40
0.500000
50
180.000000
51
225.000000
0
LINE
8
00_ALUMINIO
10
-147.814763
20
247.322225
30
0.0
11
-144.307656
21
243.815118
31
0.0
0
ARC
8
00_ALUMINIO
10
-144.661210
20
243.461564
30
0.0
40
0.500000
50
0.000000
51
45.000000
0
LINE
8
00_ALUMINIO
10
-144.161210
20
243.461564
30
0.0
11
-144.161210
21
239.399090
31
0.0
0
ARC
8
00_ALUMINIO
10
-144.461210
20
239.399090
30
0.0
40
0.300000
50
315.000000
51
0.000000
0
LINE
8
00_ALUMINIO
10
-144.249077
20
239.186958
30
0.0
11
-145.577069
21
237.858967
31
0.0
0
LINE
8
00_ALUMINIO
10
-145.577069
20
237.858967
30
0.0
11
-145.577069
21
237.451860
31
0.0
0
ARC
8
00_ALUMINIO
10
-145.877069
20
237.451860
30
0.0
40
0.300000
50
270.000000
51
0.000000
0
LINE
8
00_ALUMINIO
10
-145.877069
20
237.151860
30
0.0
11
-146.284176
21
237.151860
31
0.0
0
LINE
8
00_ALUMINIO
10
-146.284176
20
237.151860
30
0.0
11
-147.420998
21
236.015038
31
0.0
0
ARC
8
00_ALUMINIO
10
-147.633130
20
236.227170
30
0.0
40
0.300000
50
270.000000
51
315.000000
0
LINE
8
00_ALUMINIO
10
-147.633130
20
235.927170
30
0.0
11
-147.661210
21
235.927170
31
0.0
0
ARC
8
00_ALUMINIO
10
-147.661210
20
235.627170
30
0.0
40
0.300000
50
90.000000
51
180.000000
0
LINE
8
00_ALUMINIO
10
-147.961210
20
235.627170
30
0.0
11
-147.961210
21
216.782080
31
0.0
0
LINE
8
00_ALUMINIO
10
-147.961210
20
216.782080
30
0.0
11
-147.673342
21
216.494212
31
0.0
0
ARC
8
00_ALUMINIO
10
-147.885474
20
216.282080
30
0.0
40
0.300000
50
315.000000
51
45.000000
0
LINE
8
00_ALUMINIO
10
-147.673342
20
216.069948
30
0.0
11
-147.961210
21
215.782080
31
0.0
0
LINE
8
00_ALUMINIO
10
-147.961210
20
215.782080
30
0.0
11
-147.961210
21
201.427170
31
0.0
0
ARC
8
00_ALUMINIO
10
-147.461210
20
201.427170
30
0.0
40
0.500000
50
180.000000
51
270.000000
0
LINE
8
00_ALUMINIO
10
-147.461210
20
200.927170
30
0.0
11
-144.961210
21
200.927170
31
0.0
0
ARC
8
00_ALUMINIO
10
-144.961210
20
201.427170
30
0.0
40
0.500000
50
270.000000
51
0.000000
0
LINE
8
00_ALUMINIO
10
-144.461210
20
201.427170
30
0.0
11
-144.461210
21
202.127170
31
0.0
0
ARC
8
00_ALUMINIO
10
-144.761210
20
202.127170
30
0.0
40
0.300000
50
0.000000
51
90.000000
0
LINE
8
00_ALUMINIO
10
-144.761210
20
202.427170
30
0.0
11
-145.861210
21
202.427170
31
0.0
0
ARC
8
00_ALUMINIO
10
-145.861210
20
202.727170
30
0.0
40
0.300000
50
180.000000
51
270.000000
0
LINE
8
00_ALUMINIO
10
-146.161210
20
202.727170
30
0.0
11
-146.161210
21
205.633804
31
0.0
0
ARC
8
00_ALUMINIO
10
-145.861210
20
205.633804
30
0.0
40
0.300000
50
54.727574
51
180.000000
0
ARC
8
00_ALUMINIO
10
-143.811210
20
208.532080
30
0.0
40
3.250000
50
234.727574
51
274.524318
0
ARC
8
00_ALUMINIO
10
-143.594283
20
205.790649
30
0.0
40
0.500000
50
274.524318
51
15.000000
0
LINE
8
00_ALUMINIO
10
-143.111321
20
205.920058
30
0.0
11
-143.243428
21
206.413089
31
0.0
0
ARC
8
00_ALUMINIO
10
-143.726390
20
206.283679
30
0.0
40
0.500000
50
15.000000
51
92.160412
0
ARC
8
00_ALUMINIO
10
-143.811210
20
208.532080
30
0.0
40
1.750000
50
251.425961
51
272.160412
0
LINE
8
00_ALUMINIO
10
-144.368637
20
206.873232
30
0.0
11
-144.601383
21
206.640486
31
0.0
0
ARC
8
00_ALUMINIO
10
-143.811210
20
208.532080
30
0.0
40
2.050000
50
202.671704
51
247.328296
0
LINE
8
00_ALUMINIO
10
-145.702803
20
207.741906
30
0.0
11
-145.470057
21
207.974652
31
0.0
0
ARC
8
00_ALUMINIO
10
-143.811210
20
208.532080
30
0.0
40
1.750000
50
161.425961
51
198.574039
0
LINE
8
00_ALUMINIO
10
-145.470057
20
209.089507
30
0.0
11
-145.702803
21
209.322253
31
0.0
0
ARC
8
00_ALUMINIO
10
-143.811210
20
208.532080
30
0.0
40
2.050000
50
112.671704
51
157.328296
0
LINE
8
00_ALUMINIO
10
-144.601383
20
210.423673
30
0.0
11
-144.368637
21
210.190927
31
0.0
0
ARC
8
00_ALUMINIO
10
-143.811210
20
208.532080
30
0.0
40
1.750000
50
71.425961
51
108.574039
0
LINE
8
00_ALUMINIO
10
-143.253782
20
210.190927
30
0.0
11
-143.021036
21
210.423673
31
0.0
0
ARC
8
00_ALUMINIO
10
-143.811210
20
208.532080
30
0.0
40
2.050000
50
22.671704
51
67.328296
0
LINE
8
00_ALUMINIO
10
-141.919616
20
209.322253
30
0.0
11
-142.152362
21
209.089507
31
0.0
0
ARC
8
00_ALUMINIO
10
-143.811210
20
208.532080
30
0.0
40
1.750000
50
357.839588
51
18.574039
0
ARC
8
00_ALUMINIO
10
-141.562809
20
208.447261
30
0.0
40
0.500000
50
177.839588
51
255.000000
0
LINE
8
00_ALUMINIO
10
-141.692218
20
207.964298
30
0.0
11
-141.199188
21
207.832191
31
0.0
0
ARC
8
00_ALUMINIO
10
-141.069779
20
208.315154
30
0.0
40
0.500000
50
255.000000
51
355.475682
0
ARC
8
00_ALUMINIO
10
-143.811210
20
208.532080
30
0.0
40
3.250000
50
355.475682
51
24.107402
0
ARC
8
00_ALUMINIO
10
-140.570839
20
209.982080
30
0.0
40
0.300000
50
90.000000
51
204.109121
0
LINE
8
00_ALUMINIO
10
-140.570839
20
210.282080
30
0.0
11
-87.662108
21
210.282080
31
0.0
0
ARC
8
00_ALUMINIO
10
-87.662108
20
209.782080
30
0.0
40
0.500000
50
0.000000
51
90.000000
0
LINE
8
00_ALUMINIO
10
-87.162108
20
209.782080
30
0.0
11
-87.162108
21
202.727170
31
0.0
0
ARC
8
00_ALUMINIO
10
-87.462108
20
202.727170
30
0.0
40
0.300000
50
270.000000
51
0.000000
0
LINE
8
00_ALUMINIO
10
-87.462108
20
202.427170
30
0.0
11
-88.362108
21
202.427170
31
0.0
0
ARC
8
00_ALUMINIO
10
-88.362108
20
202.127170
30
0.0
40
0.300000
50
90.000000
51
180.000000
0
LINE
8
00_ALUMINIO
10
-88.662108
20
202.127170
30
0.0
11
-88.662108
21
201.427170
31
0.0
0
ARC
8
00_ALUMINIO
10
-88.162108
20
201.427170
30
0.0
40
0.500000
50
180.000000
51
270.000000
0
LINE
8
00_ALUMINIO
10
-88.162108
20
200.927170
30
0.0
11
-85.462108
21
200.927170
31
0.0
0
ARC
8
00_ALUMINIO
10
-85.462108
20
201.227170
30
0.0
40
0.300000
50
270.000000
51
0.000000
0
LINE
8
00_ALUMINIO
10
-85.162108
20
201.227170
30
0.0
11
-85.162108
21
203.442659
31
0.0
0
ARC
8
00_ALUMINIO
10
-84.662108
20
203.442659
30
0.0
40
0.500000
50
140.076656
51
180.000000
0
ARC
8
00_ALUMINIO
10
-83.511753
20
202.480015
30
0.0
40
2.000000
50
46.465725
51
140.076656
0
ARC
8
00_ALUMINIO
10
-81.789782
20
204.292421
30
0.0
40
0.500000
50
226.465725
51
270.000000
0
LINE
8
00_ALUMINIO
10
-81.789782
20
203.792421
30
0.0
11
-81.100985
21
203.792421
31
0.0
0
ARC
8
00_ALUMINIO
10
-81.100985
20
204.092421
30
0.0
40
0.300000
50
270.000000
51
30.497622
0
LINE
8
00_ALUMINIO
10
-80.842490
20
204.244672
30
0.0
11
-82.266194
21
206.661871
31
0.0
0
LINE
8
00_ALUMINIO
10
-82.266194
20
206.661871
30
0.0
11
-82.308808
21
206.717936
31
0.0
0
LINE
8
00_ALUMINIO
10
-82.308808
20
206.717936
30
0.0
11
-82.768975
21
207.194817
31
0.0
0
ARC
8
00_ALUMINIO
10
-82.873765
20
207.093700
30
0.0
40
0.145621
50
43.978161
51
183.658900
0
LINE
8
00_ALUMINIO
10
-83.019089
20
207.084407
30
0.0
11
-83.009160
21
206.929142
31
0.0
0
ARC
8
00_ALUMINIO
10
-83.208752
20
206.916379
30
0.0
40
0.200000
50
310.482877
51
3.658900
0
LINE
8
00_ALUMINIO
10
-83.078908
20
206.764259
30
0.0
11
-84.683110
21
205.394970
31
0.0
0
ARC
8
00_ALUMINIO
10
-84.877876
20
205.623150
30
0.0
40
0.300000
50
288.658900
51
310.482877
0
LINE
8
00_ALUMINIO
10
-84.781896
20
205.338918
30
0.0
11
-85.066128
21
205.242938
31
0.0
0
ARC
8
00_ALUMINIO
10
-85.162108
20
205.527170
30
0.0
40
0.300000
50
90.000000
51
288.658900
0
LINE
8
00_ALUMINIO
10
-85.162108
20
205.827170
30
0.0
11
-85.162108
21
210.327170
31
0.0
0
ARC
8
00_ALUMINIO
10
-84.962108
20
210.327170
30
0.0
40
0.200000
50
90.000000
51
180.000000
0
LINE
8
00_ALUMINIO
10
-84.962108
20
210.527170
30
0.0
11
-84.894220
21
210.527170
31
0.0
0
ARC
8
00_ALUMINIO
10
-84.894220
20
210.227170
30
0.0
40
0.300000
50
58.619868
51
90.000000
0
LINE
8
00_ALUMINIO
10
-84.738006
20
210.483289
30
0.0
11
-83.062013
21
209.461056
31
0.0
0
ARC
8
00_ALUMINIO
10
-82.862108
20
209.454866
30
0.0
40
0.200000
50
178.226373
51
357.111080
0
LINE
8
00_ALUMINIO
10
-82.662363
20
209.444786
30
0.0
11
-82.566382
21
209.444786
31
0.0
0
ARC
8
00_ALUMINIO
10
-82.566382
20
209.744786
30
0.0
40
0.300000
50
270.000000
51
327.000000
0
LINE
8
00_ALUMINIO
10
-82.314781
20
209.581394
30
0.0
11
-80.761556
21
211.973152
31
0.0
0
ARC
8
00_ALUMINIO
10
-80.929290
20
212.082080
30
0.0
40
0.200000
50
327.000000
51
90.000000
0
LINE
8
00_ALUMINIO
10
-80.929290
20
212.282080
30
0.0
11
-84.662108
21
212.282080
31
0.0
0
ARC
8
00_ALUMINIO
10
-84.662108
20
212.782080
30
0.0
40
0.500000
50
233.130102
51
270.000000
0
ARC
8
00_ALUMINIO
10
-84.662108
20
212.782080
30
0.0
40
0.500000
50
180.000000
51
233.130102
0
LINE
8
00_ALUMINIO
10
-85.162108
20
212.782080
30
0.0
11
-85.162108
21
218.382080
31
0.0
0
LINE
8
00_ALUMINIO
10
-85.162108
20
218.382080
30
0.0
11
-85.162108
21
264.884091
31
0.0
0
ARC
8
00_ALUMINIO
10
-84.162108
20
264.884091
30
0.0
40
1.000000
50
121.380132
51
180.000000
0
LINE
8
00_ALUMINIO
10
-84.682822
20
265.737822
30
0.0
11
-83.141395
21
266.677980
31
0.0
0
ARC
8
00_ALUMINIO
10
-83.662108
20
267.531711
30
0.0
40
1.000000
50
301.380132
51
0.000000
0
LINE
8
00_ALUMINIO
10
-82.662108
20
267.531711
30
0.0
11
-82.662108
21
268.723846
31
0.0
0
ARC
8
00_ALUMINIO
10
-82.862108
20
268.723846
30
0.0
40
0.200000
50
0.000000
51
181.773628
0
LINE
8
00_ALUMINIO
10
-83.062013
20
268.717656
30
0.0
11
-84.738006
21
267.695423
31
0.0
0
ARC
8
00_ALUMINIO
10
-84.894220
20
267.951542
30
0.0
40
0.300000
50
270.000000
51
301.380132
0
LINE
8
00_ALUMINIO
10
-84.894220
20
267.651542
30
0.0
11
-84.962108
21
267.651542
31
0.0
0
ARC
8
00_ALUMINIO
10
-84.962108
20
267.851542
30
0.0
40
0.200000
50
180.000000
51
270.000000
0
LINE
8
00_ALUMINIO
10
-85.162108
20
267.851542
30
0.0
11
-85.162108
21
272.351542
31
0.0
0
ARC
8
00_ALUMINIO
10
-85.162108
20
272.651542
30
0.0
40
0.300000
50
71.341100
51
270.000000
0
LINE
8
00_ALUMINIO
10
-85.066128
20
272.935774
30
0.0
11
-84.781896
21
272.839794
31
0.0
0
ARC
8
00_ALUMINIO
10
-84.877876
20
272.555562
30
0.0
40
0.300000
50
49.517123
51
71.341100
0
LINE
8
00_ALUMINIO
10
-84.683110
20
272.783742
30
0.0
11
-83.078908
21
271.414453
31
0.0
0
ARC
8
00_ALUMINIO
10
-83.208752
20
271.262333
30
0.0
40
0.200000
50
356.341100
51
49.517123
0
LINE
8
00_ALUMINIO
10
-83.009160
20
271.249570
30
0.0
11
-83.019089
21
271.094305
31
0.0
0
ARC
8
00_ALUMINIO
10
-82.873765
20
271.085012
30
0.0
40
0.145621
50
176.341100
51
316.021840
0
LINE
8
00_ALUMINIO
10
-82.768975
20
270.983895
30
0.0
11
-82.308808
21
271.460776
31
0.0
0
LINE
8
00_ALUMINIO
10
-82.308808
20
271.460776
30
0.0
11
-82.266194
21
271.516841
31
0.0
0
LINE
8
00_ALUMINIO
10
-82.266194
20
271.516841
30
0.0
11
-80.842490
21
273.934040
31
0.0
0
ARC
8
00_ALUMINIO
10
-81.100985
20
274.086291
30
0.0
40
0.300000
50
329.502378
51
90.000000
0
LINE
8
00_ALUMINIO
10
-81.100985
20
274.386291
30
0.0
11
-81.789782
21
274.386291
31
0.0
0
ARC
8
00_ALUMINIO
10
-81.789782
20
273.886291
30
0.0
40
0.500000
50
90.000000
51
133.534275
0
ARC
8
00_ALUMINIO
10
-83.511753
20
275.698697
30
0.0
40
2.000000
50
219.923344
51
313.534275
0
ARC
8
00_ALUMINIO
10
-84.662108
20
274.736053
30
0.0
40
0.500000
50
180.000000
51
219.923344
0
LINE
8
00_ALUMINIO
10
-85.162108
20
274.736053
30
0.0
11
-85.162108
21
277.427170
31
0.0
0
ARC
8
00_ALUMINIO
10
-85.662108
20
277.427170
30
0.0
40
0.500000
50
0.000000
51
90.000000
0
LINE
8
00_ALUMINIO
10
-85.662108
20
277.927170
30
0.0
11
-95.959371
21
277.927170
31
0.0
0
ARC
8
00_ALUMINIO
10
-95.959371
20
278.427170
30
0.0
40
0.500000
50
179.964713
51
270.000000
0
LINE
8
00_ALUMINIO
10
-96.459371
20
278.427478
30
0.0
11
-96.457092
21
282.127170
31
0.0
0
ARC
8
00_ALUMINIO
10
-96.957092
20
282.127170
30
0.0
40
0.500000
50
0.000000
51
90.000000
0
LINE
8
00_ALUMINIO
10
-96.957092
20
282.627170
30
0.0
11
-97.957092
21
282.627170
31
0.0
0
ARC
8
00_ALUMINIO
10
-97.957092
20
282.127170
30
0.0
40
0.500000
50
90.000000
51
180.000000
0
LINE
8
00_ALUMINIO
10
-98.457092
20
282.127170
30
0.0
11
-98.462108
21
278.227170
31
0.0
0
ARC
8
00_ALUMINIO
10
-98.762108
20
278.227170
30
0.0
40
0.300000
50
270.000000
51
0.000000
0
LINE
8
00_ALUMINIO
10
-98.762108
20
277.927170
30
0.0
11
-116.961659
21
277.927170
31
0.0
0
LINE
8
00_ALUMINIO
10
5.435131
20
218.427170
30
0.0
11
5.435131
21
264.884091
31
0.0
0
ARC
8
00_ALUMINIO
10
6.435131
20
264.884091
30
0.0
40
1.000000
50
121.380132
51
180.000000
0
LINE
8
00_ALUMINIO
10
5.914418
20
265.737822
30
0.0
11
7.455845
21
266.677980
31
0.0
0
ARC
8
00_ALUMINIO
10
6.935131
20
267.531711
30
0.0
40
1.000000
50
301.380132
51
0.000000
0
LINE
8
00_ALUMINIO
10
7.935131
20
267.531711
30
0.0
11
7.935131
21
268.723846
31
0.0
0
ARC
8
00_ALUMINIO
10
7.735131
20
268.723846
30
0.0
40
0.200000
50
0.000000
51
181.773628
0
LINE
8
00_ALUMINIO
10
7.535227
20
268.717656
30
0.0
11
5.859234
21
267.695423
31
0.0
0
ARC
8
00_ALUMINIO
10
5.703020
20
267.951542
30
0.0
40
0.300000
50
270.000000
51
301.380132
0
LINE
8
00_ALUMINIO
10
5.703020
20
267.651542
30
0.0
11
5.635131
21
267.651542
31
0.0
0
ARC
8
00_ALUMINIO
10
5.635131
20
267.851542
30
0.0
40
0.200000
50
180.000000
51
270.000000
0
LINE
8
00_ALUMINIO
10
5.435131
20
267.851542
30
0.0
11
5.435131
21
272.351542
31
0.0
0
ARC
8
00_ALUMINIO
10
5.435131
20
272.651542
30
0.0
40
0.300000
50
71.341100
51
270.000000
0
LINE
8
00_ALUMINIO
10
5.531111
20
272.935774
30
0.0
11
5.815343
21
272.839794
31
0.0
0
ARC
8
00_ALUMINIO
10
5.719363
20
272.555562
30
0.0
40
0.300000
50
49.517123
51
71.341100
0
LINE
8
00_ALUMINIO
10
5.914130
20
272.783742
30
0.0
11
7.518332
21
271.414453
31
0.0
0
ARC
8
00_ALUMINIO
10
7.388488
20
271.262333
30
0.0
40
0.200000
50
356.341100
51
49.517123
0
LINE
8
00_ALUMINIO
10
7.588080
20
271.249570
30
0.0
11
7.578151
21
271.094305
31
0.0
0
ARC
8
00_ALUMINIO
10
7.723475
20
271.085012
30
0.0
40
0.145621
50
176.341100
51
316.021840
0
LINE
8
00_ALUMINIO
10
7.828264
20
270.983895
30
0.0
11
8.288432
21
271.460776
31
0.0
0
LINE
8
00_ALUMINIO
10
8.288432
20
271.460776
30
0.0
11
8.331046
21
271.516841
31
0.0
0
LINE
8
00_ALUMINIO
10
8.331046
20
271.516841
30
0.0
11
9.754749
21
273.934040
31
0.0
0
ARC
8
00_ALUMINIO
10
9.496254
20
274.086291
30
0.0
40
0.300000
50
329.502378
51
90.000000
0
LINE
8
00_ALUMINIO
10
9.496254
20
274.386291
30
0.0
11
8.807458
21
274.386291
31
0.0
0
ARC
8
00_ALUMINIO
10
8.807458
20
273.886291
30
0.0
40
0.500000
50
90.000000
51
133.534275
0
ARC
8
00_ALUMINIO
10
7.085487
20
275.698697
30
0.0
40
2.000000
50
219.923344
51
313.534275
0
ARC
8
00_ALUMINIO
10
5.935131
20
274.736053
30
0.0
40
0.500000
50
180.000000
51
219.923344
0
LINE
8
00_ALUMINIO
10
5.435131
20
274.736053
30
0.0
11
5.435131
21
277.427170
31
0.0
0
ARC
8
00_ALUMINIO
10
4.935131
20
277.427170
30
0.0
40
0.500000
50
0.000000
51
90.000000
0
LINE
8
00_ALUMINIO
10
4.935131
20
277.927170
30
0.0
11
-0.062131
21
277.927170
31
0.0
0
ARC
8
00_ALUMINIO
10
-0.062131
20
278.427170
30
0.0
40
0.500000
50
179.964713
51
270.000000
0
LINE
8
00_ALUMINIO
10
-0.562131
20
278.427478
30
0.0
11
-0.559852
21
282.127170
31
0.0
0
ARC
8
00_ALUMINIO
10
-1.059852
20
282.127170
30
0.0
40
0.500000
50
0.000000
51
90.000000
0
LINE
8
00_ALUMINIO
10
-1.059852
20
282.627170
30
0.0
11
-2.059852
21
282.627170
31
0.0
0
ARC
8
00_ALUMINIO
10
-2.059852
20
282.127170
30
0.0
40
0.500000
50
90.000000
51
180.000000
0
LINE
8
00_ALUMINIO
10
-2.559852
20
282.127170
30
0.0
11
-2.564869
21
278.227170
31
0.0
0
ARC
8
00_ALUMINIO
10
-2.864869
20
278.227170
30
0.0
40
0.300000
50
270.000000
51
0.000000
0
LINE
8
00_ALUMINIO
10
-2.864869
20
277.927170
30
0.0
11
-19.363489
21
277.927170
31
0.0
0
LINE
8
00_ALUMINIO
10
-19.363489
20
277.927170
30
0.0
11
-21.863489
21
277.927170
31
0.0
0
LINE
8
00_ALUMINIO
10
-21.863489
20
277.927170
30
0.0
11
-22.151357
21
277.639302
31
0.0
0
ARC
8
00_ALUMINIO
10
-22.363489
20
277.851434
30
0.0
40
0.300000
50
270.000000
51
315.000000
0
ARC
8
00_ALUMINIO
10
-22.363489
20
277.851434
30
0.0
40
0.300000
50
225.000000
51
270.000000
0
LINE
8
00_ALUMINIO
10
-22.575621
20
277.639302
30
0.0
11
-22.863489
21
277.927170
31
0.0
0
LINE
8
00_ALUMINIO
10
-22.863489
20
277.927170
30
0.0
11
-25.363489
21
277.927170
31
0.0
0
LINE
8
00_ALUMINIO
10
-25.363489
20
277.927170
30
0.0
11
-41.862108
21
277.927170
31
0.0
0
ARC
8
00_ALUMINIO
10
-41.862108
20
278.227170
30
0.0
40
0.300000
50
180.000000
51
270.000000
0
LINE
8
00_ALUMINIO
10
-42.162108
20
278.227170
30
0.0
11
-42.167125
21
282.127170
31
0.0
0
ARC
8
00_ALUMINIO
10
-42.667125
20
282.127170
30
0.0
40
0.500000
50
0.000000
51
90.000000
0
LINE
8
00_ALUMINIO
10
-42.667125
20
282.627170
30
0.0
11
-43.667125
21
282.627170
31
0.0
0
ARC
8
00_ALUMINIO
10
-43.667125
20
282.127170
30
0.0
40
0.500000
50
90.000000
51
180.000000
0
LINE
8
00_ALUMINIO
10
-44.167125
20
282.127170
30
0.0
11
-44.164846
21
278.427478
31
0.0
0
ARC
8
00_ALUMINIO
10
-44.664846
20
278.427170
30
0.0
40
0.500000
50
270.000000
51
0.035287
0
LINE
8
00_ALUMINIO
10
-44.664846
20
277.927170
30
0.0
11
-49.662108
21
277.927170
31
0.0
0
ARC
8
00_ALUMINIO
10
-49.662108
20
277.427170
30
0.0
40
0.500000
50
90.000000
51
180.000000
0
LINE
8
00_ALUMINIO
10
-50.162108
20
277.427170
30
0.0
11
-50.162108
21
274.736053
31
0.0
0
ARC
8
00_ALUMINIO
10
-50.662108
20
274.736053
30
0.0
40
0.500000
50
320.076656
51
0.000000
0
ARC
8
00_ALUMINIO
10
-51.812464
20
275.698697
30
0.0
40
2.000000
50
226.465725
51
320.076656
0
ARC
8
00_ALUMINIO
10
-53.534435
20
273.886291
30
0.0
40
0.500000
50
46.465725
51
90.000000
0
LINE
8
00_ALUMINIO
10
-53.534435
20
274.386291
30
0.0
11
-54.223231
21
274.386291
31
0.0
0
ARC
8
00_ALUMINIO
10
-54.223231
20
274.086291
30
0.0
40
0.300000
50
90.000000
51
210.497622
0
LINE
8
00_ALUMINIO
10
-54.481727
20
273.934040
30
0.0
11
-53.058023
21
271.516841
31
0.0
0
LINE
8
00_ALUMINIO
10
-53.058023
20
271.516841
30
0.0
11
-53.015409
21
271.460776
31
0.0
0
LINE
8
00_ALUMINIO
10
-53.015409
20
271.460776
30
0.0
11
-52.555241
21
270.983895
31
0.0
0
ARC
8
00_ALUMINIO
10
-52.450452
20
271.085012
30
0.0
40
0.145621
50
223.978161
51
3.658900
0
LINE
8
00_ALUMINIO
10
-52.305128
20
271.094305
30
0.0
11
-52.315057
21
271.249570
31
0.0
0
ARC
8
00_ALUMINIO
10
-52.115465
20
271.262333
30
0.0
40
0.200000
50
130.482877
51
183.658900
0
LINE
8
00_ALUMINIO
10
-52.245309
20
271.414453
30
0.0
11
-50.641107
21
272.783742
31
0.0
0
ARC
8
00_ALUMINIO
10
-50.446340
20
272.555562
30
0.0
40
0.300000
50
108.658900
51
130.482877
0
LINE
8
00_ALUMINIO
10
-50.542320
20
272.839794
30
0.0
11
-50.258088
21
272.935774
31
0.0
0
ARC
8
00_ALUMINIO
10
-50.162108
20
272.651542
30
0.0
40
0.300000
50
270.000000
51
108.658900
0
LINE
8
00_ALUMINIO
10
-50.162108
20
272.351542
30
0.0
11
-50.162108
21
267.851542
31
0.0
0
ARC
8
00_ALUMINIO
10
-50.362108
20
267.851542
30
0.0
40
0.200000
50
270.000000
51
0.000000
0
LINE
8
00_ALUMINIO
10
-50.362108
20
267.651542
30
0.0
11
-50.429997
21
267.651542
31
0.0
0
ARC
8
00_ALUMINIO
10
-50.429997
20
267.951542
30
0.0
40
0.300000
50
238.619868
51
270.000000
0
LINE
8
00_ALUMINIO
10
-50.586211
20
267.695423
30
0.0
11
-52.262204
21
268.717656
31
0.0
0
ARC
8
00_ALUMINIO
10
-52.462108
20
268.723846
30
0.0
40
0.200000
50
358.226373
51
180.000000
0
LINE
8
00_ALUMINIO
10
-52.662108
20
268.723846
30
0.0
11
-52.662108
21
267.531711
31
0.0
0
ARC
8
00_ALUMINIO
10
-51.662108
20
267.531711
30
0.0
40
1.000000
50
180.000000
51
238.619868
0
LINE
8
00_ALUMINIO
10
-52.182822
20
266.677980
30
0.0
11
-50.641395
21
265.737822
31
0.0
0
ARC
8
00_ALUMINIO
10
-51.162108
20
264.884091
30
0.0
40
1.000000
50
0.000000
51
58.619868
0
LINE
8
00_ALUMINIO
10
-50.162108
20
264.884091
30
0.0
11
-50.162108
21
212.782080
31
0.0
0
ARC
8
00_ALUMINIO
10
-50.662108
20
212.782080
30
0.0
40
0.500000
50
270.000000
51
0.000000
0
LINE
8
00_ALUMINIO
10
-50.662108
20
212.282080
30
0.0
11
-54.394927
21
212.282080
31
0.0
0
ARC
8
00_ALUMINIO
10
-54.394927
20
212.082080
30
0.0
40
0.200000
50
90.000000
51
213.000000
0
LINE
8
00_ALUMINIO
10
-54.562661
20
211.973152
30
0.0
11
-53.009436
21
209.581394
31
0.0
0
ARC
8
00_ALUMINIO
10
-52.757834
20
209.744786
30
0.0
40
0.300000
50
213.000000
51
270.000000
0
LINE
8
00_ALUMINIO
10
-52.757834
20
209.444786
30
0.0
11
-52.661854
21
209.444786
31
0.0
0
ARC
8
00_ALUMINIO
10
-52.462108
20
209.454866
30
0.0
40
0.200000
50
182.888920
51
1.773627
0
LINE
8
00_ALUMINIO
10
-52.262204
20
209.461056
30
0.0
11
-50.586211
21
210.483289
31
0.0
0
ARC
8
00_ALUMINIO
10
-50.429997
20
210.227170
30
0.0
40
0.300000
50
90.000000
51
121.380132
0
LINE
8
00_ALUMINIO
10
-50.429997
20
210.527170
30
0.0
11
-50.362108
21
210.527170
31
0.0
0
ARC
8
00_ALUMINIO
10
-50.362108
20
210.327170
30
0.0
40
0.200000
50
0.000000
51
90.000000
0
LINE
8
00_ALUMINIO
10
-50.162108
20
210.327170
30
0.0
11
-50.162108
21
205.827170
31
0.0
0
ARC
8
00_ALUMINIO
10
-50.162108
20
205.527170
30
0.0
40
0.300000
50
251.341100
51
90.000000
0
LINE
8
00_ALUMINIO
10
-50.258088
20
205.242938
30
0.0
11
-50.542320
21
205.338918
31
0.0
0
ARC
8
00_ALUMINIO
10
-50.446340
20
205.623150
30
0.0
40
0.300000
50
229.517123
51
251.341100
0
LINE
8
00_ALUMINIO
10
-50.641107
20
205.394970
30
0.0
11
-52.245309
21
206.764259
31
0.0
0
ARC
8
00_ALUMINIO
10
-52.115465
20
206.916379
30
0.0
40
0.200000
50
176.341100
51
229.517123
0
LINE
8
00_ALUMINIO
10
-52.315057
20
206.929142
30
0.0
11
-52.305128
21
207.084407
31
0.0
0
ARC
8
00_ALUMINIO
10
-52.450452
20
207.093700
30
0.0
40
0.145621
50
356.341100
51
136.021839
0
LINE
8
00_ALUMINIO
10
-52.555241
20
207.194817
30
0.0
11
-53.015409
21
206.717936
31
0.0
0
LINE
8
00_ALUMINIO
10
-53.015409
20
206.717936
30
0.0
11
-53.058023
21
206.661871
31
0.0
0
LINE
8
00_ALUMINIO
10
-53.058023
20
206.661871
30
0.0
11
-54.481727
21
204.244672
31
0.0
0
ARC
8
00_ALUMINIO
10
-54.223231
20
204.092421
30
0.0
40
0.300000
50
149.502378
51
270.000000
0
LINE
8
00_ALUMINIO
10
-54.223231
20
203.792421
30
0.0
11
-53.534435
21
203.792421
31
0.0
0
ARC
8
00_ALUMINIO
10
-53.534435
20
204.292421
30
0.0
40
0.500000
50
270.000000
51
313.534275
0
ARC
8
00_ALUMINIO
10
-51.812464
20
202.480015
30
0.0
40
2.000000
50
39.923344
51
133.534275
0
ARC
8
00_ALUMINIO
10
-50.662108
20
203.442659
30
0.0
40
0.500000
50
0.000000
51
39.923344
0
LINE
8
00_ALUMINIO
10
-50.162108
20
203.442659
30
0.0
11
-50.162108
21
201.227170
31
0.0
0
ARC
8
00_ALUMINIO
10
-49.862108
20
201.227170
30
0.0
40
0.300000
50
180.000000
51
270.000000
0
LINE
8
00_ALUMINIO
10
-49.862108
20
200.927170
30
0.0
11
-47.162108
21
200.927170
31
0.0
0
ARC
8
00_ALUMINIO
10
-47.162108
20
201.427170
30
0.0
40
0.500000
50
270.000000
51
0.000000
0
LINE
8
00_ALUMINIO
10
-46.662108
20
201.427170
30
0.0
11
-46.662108
21
202.127170
31
0.0
0
ARC
8
00_ALUMINIO
10
-46.962108
20
202.127170
30
0.0
40
0.300000
50
0.000000
51
90.000000
0
LINE
8
00_ALUMINIO
10
-46.962108
20
202.427170
30
0.0
11
-47.862108
21
202.427170
31
0.0
0
ARC
8
00_ALUMINIO
10
-47.862108
20
202.727170
30
0.0
40
0.300000
50
180.000000
51
270.000000
0
LINE
8
00_ALUMINIO
10
-48.162108
20
202.727170
30
0.0
11
-48.162108
21
209.782080
31
0.0
0
ARC
8
00_ALUMINIO
10
-47.662108
20
209.782080
30
0.0
40
0.500000
50
90.000000
51
180.000000
0
LINE
8
00_ALUMINIO
10
-47.662108
20
210.282080
30
0.0
11
-25.603859
21
210.282080
31
0.0
0
ARC
8
00_ALUMINIO
10
-25.603859
20
209.982080
30
0.0
40
0.300000
50
335.892453
51
90.000000
0
ARC
8
00_ALUMINIO
10
-22.363489
20
208.532080
30
0.0
40
3.250000
50
155.892453
51
229.524318
0
ARC
8
00_ALUMINIO
10
-24.148583
20
206.440205
30
0.0
40
0.500000
50
229.524318
51
330.000000
0
LINE
8
00_ALUMINIO
10
-23.715570
20
206.190205
30
0.0
11
-23.460359
21
206.632244
31
0.0
0
ARC
8
00_ALUMINIO
10
-23.893372
20
206.882244
30
0.0
40
0.500000
50
330.000000
51
47.160412
0
ARC
8
00_ALUMINIO
10
-22.363489
20
208.532080
30
0.0
40
1.750000
50
206.425961
51
227.160412
0
LINE
8
00_ALUMINIO
10
-23.930631
20
207.753258
30
0.0
11
-24.259784
21
207.753258
31
0.0
0
ARC
8
00_ALUMINIO
10
-22.363489
20
208.532080
30
0.0
40
2.050000
50
157.671704
51
202.328296
0
LINE
8
00_ALUMINIO
10
-24.259784
20
209.310901
30
0.0
11
-23.930631
21
209.310901
31
0.0
0
ARC
8
00_ALUMINIO
10
-22.363489
20
208.532080
30
0.0
40
1.750000
50
116.425961
51
153.574039
0
LINE
8
00_ALUMINIO
10
-23.142310
20
210.099223
30
0.0
11
-23.142310
21
210.428375
31
0.0
0
ARC
8
00_ALUMINIO
10
-22.363489
20
208.532080
30
0.0
40
2.050000
50
67.671704
51
112.328296
0
LINE
8
00_ALUMINIO
10
-21.584667
20
210.428375
30
0.0
11
-21.584667
21
210.099223
31
0.0
0
ARC
8
00_ALUMINIO
10
-22.363489
20
208.532080
30
0.0
40
1.750000
50
26.425961
51
63.574039
0
LINE
8
00_ALUMINIO
10
-20.796346
20
209.310901
30
0.0
11
-20.467193
21
209.310901
31
0.0
0
ARC
8
00_ALUMINIO
10
-22.363489
20
208.532080
30
0.0
40
2.050000
50
337.671704
51
22.328296
0
LINE
8
00_ALUMINIO
10
-20.467193
20
207.753258
30
0.0
11
-20.796346
21
207.753258
31
0.0
0
ARC
8
00_ALUMINIO
10
-22.363489
20
208.532080
30
0.0
40
1.750000
50
312.839588
51
333.574039
0
ARC
8
00_ALUMINIO
10
-20.833605
20
206.882244
30
0.0
40
0.500000
50
132.839588
51
210.000000
0
LINE
8
00_ALUMINIO
10
-21.266618
20
206.632244
30
0.0
11
-21.011407
21
206.190205
31
0.0
0
ARC
8
00_ALUMINIO
10
-20.578394
20
206.440205
30
0.0
40
0.500000
50
210.000000
51
310.475682
0
ARC
8
00_ALUMINIO
10
-22.363489
20
208.532080
30
0.0
40
3.250000
50
310.475682
51
24.107547
0
ARC
8
00_ALUMINIO
10
-19.123118
20
209.982080
30
0.0
40
0.300000
50
90.000000
51
204.107548
0
LINE
8
00_ALUMINIO
10
-19.123118
20
210.282080
30
0.0
11
2.935131
21
210.282080
31
0.0
0
ARC
8
00_ALUMINIO
10
2.935131
20
209.782080
30
0.0
40
0.500000
50
0.000000
51
90.000000
0
LINE
8
00_ALUMINIO
10
3.435131
20
209.782080
30
0.0
11
3.435131
21
202.727170
31
0.0
0
ARC
8
00_ALUMINIO
10
3.135131
20
202.727170
30
0.0
40
0.300000
50
270.000000
51
0.000000
0
LINE
8
00_ALUMINIO
10
3.135131
20
202.427170
30
0.0
11
2.235131
21
202.427170
31
0.0
0
ARC
8
00_ALUMINIO
10
2.235131
20
202.127170
30
0.0
40
0.300000
50
90.000000
51
180.000000
0
LINE
8
00_ALUMINIO
10
1.935131
20
202.127170
30
0.0
11
1.935131
21
201.427170
31
0.0
0
ARC
8
00_ALUMINIO
10
2.435131
20
201.427170
30
0.0
40
0.500000
50
180.000000
51
270.000000
0
LINE
8
00_ALUMINIO
10
2.435131
20
200.927170
30
0.0
11
5.135131
21
200.927170
31
0.0
0
ARC
8
00_ALUMINIO
10
5.135131
20
201.227170
30
0.0
40
0.300000
50
270.000000
51
0.000000
0
LINE
8
00_ALUMINIO
10
5.435131
20
201.227170
30
0.0
11
5.435131
21
203.442659
31
0.0
0
ARC
8
00_ALUMINIO
10
5.935131
20
203.442659
30
0.0
40
0.500000
50
140.076656
51
180.000000
0
ARC
8
00_ALUMINIO
10
7.085487
20
202.480015
30
0.0
40
2.000000
50
46.465725
51
140.076656
0
ARC
8
00_ALUMINIO
10
8.807458
20
204.292421
30
0.0
40
0.500000
50
226.465725
51
270.000000
0
LINE
8
00_ALUMINIO
10
8.807458
20
203.792421
30
0.0
11
9.496254
21
203.792421
31
0.0
0
ARC
8
00_ALUMINIO
10
9.496254
20
204.092421
30
0.0
40
0.300000
50
270.000000
51
30.497622
0
LINE
8
00_ALUMINIO
10
9.754749
20
204.244672
30
0.0
11
8.331046
21
206.661871
31
0.0
0
LINE
8
00_ALUMINIO
10
8.331046
20
206.661871
30
0.0
11
8.288432
21
206.717936
31
0.0
0
LINE
8
00_ALUMINIO
10
8.288432
20
206.717936
30
0.0
11
7.828264
21
207.194817
31
0.0
0
ARC
8
00_ALUMINIO
10
7.723475
20
207.093700
30
0.0
40
0.145621
50
43.978161
51
183.658900
0
LINE
8
00_ALUMINIO
10
7.578151
20
207.084407
30
0.0
11
7.588080
21
206.929142
31
0.0
0
ARC
8
00_ALUMINIO
10
7.388488
20
206.916379
30
0.0
40
0.200000
50
310.482877
51
3.658900
0
LINE
8
00_ALUMINIO
10
7.518332
20
206.764259
30
0.0
11
5.914130
21
205.394970
31
0.0
0
ARC
8
00_ALUMINIO
10
5.719363
20
205.623150
30
0.0
40
0.300000
50
288.658900
51
310.482877
0
LINE
8
00_ALUMINIO
10
5.815343
20
205.338918
30
0.0
11
5.531111
21
205.242938
31
0.0
0
ARC
8
00_ALUMINIO
10
5.435131
20
205.527170
30
0.0
40
0.300000
50
90.000000
51
288.658900
0
LINE
8
00_ALUMINIO
10
5.435131
20
205.827170
30
0.0
11
5.435131
21
210.327170
31
0.0
0
ARC
8
00_ALUMINIO
10
5.635131
20
210.327170
30
0.0
40
0.200000
50
90.000000
51
180.000000
0
LINE
8
00_ALUMINIO
10
5.635131
20
210.527170
30
0.0
11
5.703020
21
210.527170
31
0.0
0
ARC
8
00_ALUMINIO
10
5.703020
20
210.227170
30
0.0
40
0.300000
50
58.619868
51
90.000000
0
LINE
8
00_ALUMINIO
10
5.859234
20
210.483289
30
0.0
11
7.535227
21
209.461056
31
0.0
0
ARC
8
00_ALUMINIO
10
7.735131
20
209.454866
30
0.0
40
0.200000
50
178.226373
51
357.111080
0
LINE
8
00_ALUMINIO
10
7.934877
20
209.444786
30
0.0
11
8.030857
21
209.444786
31
0.0
0
ARC
8
00_ALUMINIO
10
8.030857
20
209.744786
30
0.0
40
0.300000
50
270.000000
51
327.000000
0
LINE
8
00_ALUMINIO
10
8.282458
20
209.581394
30
0.0
11
9.835684
21
211.973152
31
0.0
0
ARC
8
00_ALUMINIO
10
9.667950
20
212.082080
30
0.0
40
0.200000
50
327.000000
51
90.000000
0
LINE
8
00_ALUMINIO
10
9.667950
20
212.282080
30
0.0
11
5.935131
21
212.282080
31
0.0
0
ARC
8
00_ALUMINIO
10
5.935131
20
212.782080
30
0.0
40
0.500000
50
225.220268
51
270.000000
0
ARC
8
00_ALUMINIO
10
5.935131
20
212.782080
30
0.0
40
0.500000
50
180.000000
51
225.220268
0
LINE
8
00_ALUMINIO
10
5.435131
20
212.782080
30
0.0
11
5.435131
21
218.427170
31
0.0
0
LINE
8
00_ALUMINIO
10
3.435131
20
218.427170
30
0.0
11
3.435131
21
275.427170
31
0.0
0
ARC
8
00_ALUMINIO
10
2.935131
20
275.427170
30
0.0
40
0.500000
50
0.000000
51
90.000000
0
LINE
8
00_ALUMINIO
10
2.935131
20
275.927170
30
0.0
11
-19.363489
21
275.927170
31
0.0
0
LINE
8
00_ALUMINIO
10
-19.363489
20
275.927170
30
0.0
11
-22.363489
21
275.927170
31
0.0
0
LINE
8
00_ALUMINIO
10
-22.363489
20
275.927170
30
0.0
11
-25.363489
21
275.927170
31
0.0
0
LINE
8
00_ALUMINIO
10
-25.363489
20
275.927170
30
0.0
11
-47.662108
21
275.927170
31
0.0
0
ARC
8
00_ALUMINIO
10
-47.662108
20
275.427170
30
0.0
40
0.500000
50
90.000000
51
180.000000
0
LINE
8
00_ALUMINIO
10
-48.162108
20
275.427170
30
0.0
11
-48.162108
21
212.782080
31
0.0
0
ARC
8
00_ALUMINIO
10
-47.662108
20
212.782080
30
0.0
40
0.500000
50
180.000000
51
270.000000
0
LINE
8
00_ALUMINIO
10
-47.662108
20
212.282080
30
0.0
11
-22.363489
21
212.282080
31
0.0
0
LINE
8
00_ALUMINIO
10
-22.363489
20
212.282080
30
0.0
11
2.935131
21
212.282080
31
0.0
0
ARC
8
00_ALUMINIO
10
2.935131
20
212.782080
30
0.0
40
0.500000
50
270.000000
51
314.779733
0
ARC
8
00_ALUMINIO
10
2.935131
20
212.782080
30
0.0
40
0.500000
50
314.779733
51
0.000000
0
LINE
8
00_ALUMINIO
10
3.435131
20
212.782080
30
0.0
11
3.435131
21
218.427170
31
0.0
0
LINE
8
00_ALUMINIO
10
78.234682
20
275.927170
30
0.0
11
96.054381
21
275.927170
31
0.0
0
ARC
8
00_ALUMINIO
10
96.054381
20
275.627170
30
0.0
40
0.300000
50
328.592137
51
90.000000
0
ARC
8
00_ALUMINIO
10
99.084232
20
273.777170
30
0.0
40
3.250000
50
148.592137
51
184.524318
0
ARC
8
00_ALUMINIO
10
96.342802
20
273.560244
30
0.0
40
0.500000
50
184.524318
51
285.000000
0
LINE
8
00_ALUMINIO
10
96.472211
20
273.077281
30
0.0
11
96.965241
21
273.209388
31
0.0
0
ARC
8
00_ALUMINIO
10
96.835832
20
273.692351
30
0.0
40
0.500000
50
285.000000
51
2.160412
0
ARC
8
00_ALUMINIO
10
99.084232
20
273.777170
30
0.0
40
1.750000
50
161.425961
51
182.160412
0
LINE
8
00_ALUMINIO
10
97.425385
20
274.334597
30
0.0
11
97.192639
21
274.567343
31
0.0
0
ARC
8
00_ALUMINIO
10
99.084232
20
273.777170
30
0.0
40
2.050000
50
112.671704
51
157.328296
0
LINE
8
00_ALUMINIO
10
98.294059
20
275.668763
30
0.0
11
98.526805
21
275.436017
31
0.0
0
ARC
8
00_ALUMINIO
10
99.084232
20
273.777170
30
0.0
40
1.750000
50
71.425961
51
108.574039
0
LINE
8
00_ALUMINIO
10
99.641660
20
275.436017
30
0.0
11
99.874406
21
275.668763
31
0.0
0
ARC
8
00_ALUMINIO
10
99.084232
20
273.777170
30
0.0
40
2.050000
50
22.671704
51
67.328296
0
LINE
8
00_ALUMINIO
10
100.975826
20
274.567343
30
0.0
11
100.743080
21
274.334597
31
0.0
0
ARC
8
00_ALUMINIO
10
99.084232
20
273.777170
30
0.0
40
1.750000
50
341.425961
51
18.574039
0
LINE
8
00_ALUMINIO
10
100.743080
20
273.219743
30
0.0
11
100.975826
21
272.986996
31
0.0
0
ARC
8
00_ALUMINIO
10
99.084232
20
273.777170
30
0.0
40
2.050000
50
292.671704
51
337.328296
0
LINE
8
00_ALUMINIO
10
99.874406
20
271.885576
30
0.0
11
99.641660
21
272.118322
31
0.0
0
ARC
8
00_ALUMINIO
10
99.084232
20
273.777170
30
0.0
40
1.750000
50
267.839588
51
288.574039
0
ARC
8
00_ALUMINIO
10
98.999413
20
271.528769
30
0.0
40
0.500000
50
87.839588
51
165.000000
0
LINE
8
00_ALUMINIO
10
98.516450
20
271.658179
30
0.0
11
98.384343
21
271.165148
31
0.0
0
ARC
8
00_ALUMINIO
10
98.867306
20
271.035739
30
0.0
40
0.500000
50
165.000000
51
265.475682
0
ARC
8
00_ALUMINIO
10
99.084232
20
273.777170
30
0.0
40
3.250000
50
265.475682
51
301.407863
0
ARC
8
00_ALUMINIO
10
100.934232
20
270.747318
30
0.0
40
0.300000
50
0.000000
51
121.407863
0
LINE
8
00_ALUMINIO
10
101.234232
20
270.747318
30
0.0
11
101.234232
21
250.727170
31
0.0
0
ARC
8
00_ALUMINIO
10
100.734232
20
250.727170
30
0.0
40
0.500000
50
270.000000
51
0.000000
0
LINE
8
00_ALUMINIO
10
100.734232
20
250.227170
30
0.0
11
47.614983
21
250.227170
31
0.0
0
ARC
8
00_ALUMINIO
10
47.614983
20
250.527170
30
0.0
40
0.300000
50
148.592137
51
270.000000
0
ARC
8
00_ALUMINIO
10
44.585131
20
252.377170
30
0.0
40
3.250000
50
328.592137
51
4.524318
0
ARC
8
00_ALUMINIO
10
47.326562
20
252.594096
30
0.0
40
0.500000
50
4.524318
51
105.000000
0
LINE
8
00_ALUMINIO
10
47.197153
20
253.077059
30
0.0
11
46.704123
21
252.944952
31
0.0
0
ARC
8
00_ALUMINIO
10
46.833532
20
252.461989
30
0.0
40
0.500000
50
105.000000
51
182.160412
0
ARC
8
00_ALUMINIO
10
44.585131
20
252.377170
30
0.0
40
1.750000
50
341.425961
51
2.160412
0
LINE
8
00_ALUMINIO
10
46.243979
20
251.819743
30
0.0
11
46.476725
21
251.586996
31
0.0
0
ARC
8
00_ALUMINIO
10
44.585131
20
252.377170
30
0.0
40
2.050000
50
292.671704
51
337.328296
0
LINE
8
00_ALUMINIO
10
45.375305
20
250.485576
30
0.0
11
45.142559
21
250.718322
31
0.0
0
ARC
8
00_ALUMINIO
10
44.585131
20
252.377170
30
0.0
40
1.750000
50
251.425961
51
288.574039
0
LINE
8
00_ALUMINIO
10
44.027704
20
250.718322
30
0.0
11
43.794958
21
250.485576
31
0.0
0
ARC
8
00_ALUMINIO
10
44.585131
20
252.377170
30
0.0
40
2.050000
50
202.671704
51
247.328296
0
LINE
8
00_ALUMINIO
10
42.693538
20
251.586996
30
0.0
11
42.926284
21
251.819743
31
0.0
0
ARC
8
00_ALUMINIO
10
44.585131
20
252.377170
30
0.0
40
1.750000
50
161.425961
51
198.574039
0
LINE
8
00_ALUMINIO
10
42.926284
20
252.934597
30
0.0
11
42.693538
21
253.167343
31
0.0
0
ARC
8
00_ALUMINIO
10
44.585131
20
252.377170
30
0.0
40
2.050000
50
112.671704
51
157.328296
0
LINE
8
00_ALUMINIO
10
43.794958
20
254.268763
30
0.0
11
44.027704
21
254.036017
31
0.0
0
ARC
8
00_ALUMINIO
10
44.585131
20
252.377170
30
0.0
40
1.750000
50
87.839588
51
108.574039
0
ARC
8
00_ALUMINIO
10
44.669950
20
254.625570
30
0.0
40
0.500000
50
267.839588
51
345.000000
0
LINE
8
00_ALUMINIO
10
45.152913
20
254.496161
30
0.0
11
45.285020
21
254.989191
31
0.0
0
ARC
8
00_ALUMINIO
10
44.802057
20
255.118601
30
0.0
40
0.500000
50
345.000000
51
85.475682
0
ARC
8
00_ALUMINIO
10
44.585131
20
252.377170
30
0.0
40
3.250000
50
85.475682
51
121.407863
0
ARC
8
00_ALUMINIO
10
42.735131
20
255.407021
30
0.0
40
0.300000
50
180.000000
51
301.407863
0
LINE
8
00_ALUMINIO
10
42.435131
20
255.407021
30
0.0
11
42.435131
21
275.427170
31
0.0
0
ARC
8
00_ALUMINIO
10
42.935131
20
275.427170
30
0.0
40
0.500000
50
90.000000
51
180.000000
0
LINE
8
00_ALUMINIO
10
42.935131
20
275.927170
30
0.0
11
72.234682
21
275.927170
31
0.0
0
LINE
8
00_ALUMINIO
10
72.234682
20
275.927170
30
0.0
11
78.234682
21
275.927170
31
0.0
0
LINE
8
00_ALUMINIO
10
42.435131
20
218.382080
30
0.0
11
42.435131
21
247.727170
31
0.0
0
ARC
8
00_ALUMINIO
10
42.935131
20
247.727170
30
0.0
40
0.500000
50
90.000000
51
180.000000
0
LINE
8
00_ALUMINIO
10
42.935131
20
248.227170
30
0.0
11
99.957197
21
248.227170
31
0.0
0
ARC
8
00_ALUMINIO
10
99.957197
20
247.727170
30
0.0
40
0.500000
50
315.000000
51
90.000000
0
LINE
8
00_ALUMINIO
10
100.310750
20
247.373616
30
0.0
11
98.166465
21
245.229331
31
0.0
0
ARC
8
00_ALUMINIO
10
99.934232
20
243.461564
30
0.0
40
2.500000
50
135.000000
51
180.000000
0
LINE
8
00_ALUMINIO
10
97.434232
20
243.461564
30
0.0
11
97.434232
21
239.399090
31
0.0
0
ARC
8
00_ALUMINIO
10
99.734232
20
239.399090
30
0.0
40
2.300000
50
180.000000
51
225.000000
0
LINE
8
00_ALUMINIO
10
98.107887
20
237.772745
30
0.0
11
101.087786
21
234.792846
31
0.0
0
ARC
8
00_ALUMINIO
10
100.734232
20
234.439292
30
0.0
40
0.500000
50
0.000000
51
45.000000
0
LINE
8
00_ALUMINIO
10
101.234232
20
234.439292
30
0.0
11
101.234232
21
212.782080
31
0.0
0
ARC
8
00_ALUMINIO
10
100.734232
20
212.782080
30
0.0
40
0.500000
50
270.000000
51
0.000000
0
LINE
8
00_ALUMINIO
10
100.734232
20
212.282080
30
0.0
11
42.935131
21
212.282080
31
0.0
0
ARC
8
00_ALUMINIO
10
42.935131
20
212.782080
30
0.0
40
0.500000
50
233.130101
51
270.000000
0
ARC
8
00_ALUMINIO
10
42.935131
20
212.782080
30
0.0
40
0.500000
50
180.000000
51
233.130101
0
LINE
8
00_ALUMINIO
10
42.435131
20
212.782080
30
0.0
11
42.435131
21
218.382080
31
0.0
0
LINE
8
00_ALUMINIO
10
72.234682
20
277.927170
30
0.0
11
74.734682
21
277.927170
31
0.0
0
LINE
8
00_ALUMINIO
10
74.734682
20
277.927170
30
0.0
11
75.022550
21
277.639302
31
0.0
0
ARC
8
00_ALUMINIO
10
75.234682
20
277.851434
30
0.0
40
0.300000
50
225.000000
51
315.000000
0
LINE
8
00_ALUMINIO
10
75.446814
20
277.639302
30
0.0
11
75.734682
21
277.927170
31
0.0
0
LINE
8
00_ALUMINIO
10
75.734682
20
277.927170
30
0.0
11
78.234682
21
277.927170
31
0.0
0
LINE
8
00_ALUMINIO
10
78.234682
20
277.927170
30
0.0
11
96.634232
21
277.927170
31
0.0
0
ARC
8
00_ALUMINIO
10
96.634232
20
278.227170
30
0.0
40
0.300000
50
270.000000
51
0.000000
0
LINE
8
00_ALUMINIO
10
96.934232
20
278.227170
30
0.0
11
96.939249
21
282.127170
31
0.0
0
ARC
8
00_ALUMINIO
10
97.439249
20
282.127170
30
0.0
40
0.500000
50
90.000000
51
180.000000
0
LINE
8
00_ALUMINIO
10
97.439249
20
282.627170
30
0.0
11
98.439249
21
282.627170
31
0.0
0
ARC
8
00_ALUMINIO
10
98.439249
20
282.127170
30
0.0
40
0.500000
50
0.000000
51
90.000000
0
LINE
8
00_ALUMINIO
10
98.939249
20
282.127170
30
0.0
11
98.936970
21
278.427478
31
0.0
0
ARC
8
00_ALUMINIO
10
99.436970
20
278.427170
30
0.0
40
0.500000
50
179.964713
51
270.000000
0
LINE
8
00_ALUMINIO
10
99.436970
20
277.927170
30
0.0
11
102.734232
21
277.927170
31
0.0
0
ARC
8
00_ALUMINIO
10
102.734232
20
277.427170
30
0.0
40
0.500000
50
0.000000
51
90.000000
0
LINE
8
00_ALUMINIO
10
103.234232
20
277.427170
30
0.0
11
103.234232
21
254.727170
31
0.0
0
LINE
8
00_ALUMINIO
10
103.234232
20
254.727170
30
0.0
11
102.946364
21
254.439302
31
0.0
0
ARC
8
00_ALUMINIO
10
103.158497
20
254.227170
30
0.0
40
0.300000
50
135.000000
51
225.000000
0
LINE
8
00_ALUMINIO
10
102.946364
20
254.015038
30
0.0
11
103.234232
21
253.727170
31
0.0
0
LINE
8
00_ALUMINIO
10
103.234232
20
253.727170
30
0.0
11
103.234232
21
247.675778
31
0.0
0
ARC
8
00_ALUMINIO
10
102.734232
20
247.675778
30
0.0
40
0.500000
50
315.000000
51
0.000000
0
LINE
8
00_ALUMINIO
10
103.087786
20
247.322225
30
0.0
11
99.580679
21
243.815118
31
0.0
0
ARC
8
00_ALUMINIO
10
99.934232
20
243.461564
30
0.0
40
0.500000
50
135.000000
51
180.000000
0
LINE
8
00_ALUMINIO
10
99.434232
20
243.461564
30
0.0
11
99.434232
21
239.399090
31
0.0
0
ARC
8
00_ALUMINIO
10
99.734232
20
239.399090
30
0.0
40
0.300000
50
180.000000
51
225.000000
0
LINE
8
00_ALUMINIO
10
99.522100
20
239.186958
30
0.0
11
100.850092
21
237.858967
31
0.0
0
LINE
8
00_ALUMINIO
10
100.850092
20
237.858967
30
0.0
11
100.850092
21
237.451860
31
0.0
0
ARC
8
00_ALUMINIO
10
101.150092
20
237.451860
30
0.0
40
0.300000
50
180.000000
51
270.000000
0
LINE
8
00_ALUMINIO
10
101.150092
20
237.151860
30
0.0
11
101.557198
21
237.151860
31
0.0
0
LINE
8
00_ALUMINIO
10
101.557198
20
237.151860
30
0.0
11
102.694021
21
236.015038
31
0.0
0
ARC
8
00_ALUMINIO
10
102.906153
20
236.227170
30
0.0
40
0.300000
50
225.000000
51
270.000000
0
LINE
8
00_ALUMINIO
10
102.906153
20
235.927170
30
0.0
11
102.934232
21
235.927170
31
0.0
0
ARC
8
00_ALUMINIO
10
102.934232
20
235.627170
30
0.0
40
0.300000
50
0.000000
51
90.000000
0
LINE
8
00_ALUMINIO
10
103.234232
20
235.627170
30
0.0
11
103.234232
21
216.782080
31
0.0
0
LINE
8
00_ALUMINIO
10
103.234232
20
216.782080
30
0.0
11
102.946364
21
216.494212
31
0.0
0
ARC
8
00_ALUMINIO
10
103.158497
20
216.282080
30
0.0
40
0.300000
50
135.000000
51
225.000000
0
LINE
8
00_ALUMINIO
10
102.946364
20
216.069948
30
0.0
11
103.234232
21
215.782080
31
0.0
0
LINE
8
00_ALUMINIO
10
103.234232
20
215.782080
30
0.0
11
103.234232
21
201.427170
31
0.0
0
ARC
8
00_ALUMINIO
10
102.734232
20
201.427170
30
0.0
40
0.500000
50
270.000000
51
0.000000
0
LINE
8
00_ALUMINIO
10
102.734232
20
200.927170
30
0.0
11
100.234232
21
200.927170
31
0.0
0
ARC
8
00_ALUMINIO
10
100.234232
20
201.427170
30
0.0
40
0.500000
50
180.000000
51
270.000000
0
LINE
8
00_ALUMINIO
10
99.734232
20
201.427170
30
0.0
11
99.734232
21
202.127170
31
0.0
0
ARC
8
00_ALUMINIO
10
100.034232
20
202.127170
30
0.0
40
0.300000
50
90.000000
51
180.000000
0
LINE
8
00_ALUMINIO
10
100.034232
20
202.427170
30
0.0
11
101.134232
21
202.427170
31
0.0
0
ARC
8
00_ALUMINIO
10
101.134232
20
202.727170
30
0.0
40
0.300000
50
270.000000
51
0.000000
0
LINE
8
00_ALUMINIO
10
101.434232
20
202.727170
30
0.0
11
101.434232
21
205.633804
31
0.0
0
ARC
8
00_ALUMINIO
10
101.134232
20
205.633804
30
0.0
40
0.300000
50
0.000000
51
125.272426
0
ARC
8
00_ALUMINIO
10
99.084232
20
208.532080
30
0.0
40
3.250000
50
265.475682
51
305.272426
0
ARC
8
00_ALUMINIO
10
98.867306
20
205.790649
30
0.0
40
0.500000
50
165.000000
51
265.475682
0
LINE
8
00_ALUMINIO
10
98.384343
20
205.920058
30
0.0
11
98.516450
21
206.413089
31
0.0
0
ARC
8
00_ALUMINIO
10
98.999413
20
206.283679
30
0.0
40
0.500000
50
87.839588
51
165.000000
0
ARC
8
00_ALUMINIO
10
99.084232
20
208.532080
30
0.0
40
1.750000
50
267.839588
51
288.574039
0
LINE
8
00_ALUMINIO
10
99.641660
20
206.873232
30
0.0
11
99.874406
21
206.640486
31
0.0
0
ARC
8
00_ALUMINIO
10
99.084232
20
208.532080
30
0.0
40
2.050000
50
292.671704
51
337.328296
0
LINE
8
00_ALUMINIO
10
100.975826
20
207.741906
30
0.0
11
100.743080
21
207.974652
31
0.0
0
ARC
8
00_ALUMINIO
10
99.084232
20
208.532080
30
0.0
40
1.750000
50
341.425961
51
18.574039
0
LINE
8
00_ALUMINIO
10
100.743080
20
209.089507
30
0.0
11
100.975826
21
209.322253
31
0.0
0
ARC
8
00_ALUMINIO
10
99.084232
20
208.532080
30
0.0
40
2.050000
50
22.671704
51
67.328296
0
LINE
8
00_ALUMINIO
10
99.874406
20
210.423673
30
0.0
11
99.641660
21
210.190927
31
0.0
0
ARC
8
00_ALUMINIO
10
99.084232
20
208.532080
30
0.0
40
1.750000
50
71.425961
51
108.574039
0
LINE
8
00_ALUMINIO
10
98.526805
20
210.190927
30
0.0
11
98.294059
21
210.423673
31
0.0
0
ARC
8
00_ALUMINIO
10
99.084232
20
208.532080
30
0.0
40
2.050000
50
112.671704
51
157.328296
0
LINE
8
00_ALUMINIO
10
97.192639
20
209.322253
30
0.0
11
97.425385
21
209.089507
31
0.0
0
ARC
8
00_ALUMINIO
10
99.084232
20
208.532080
30
0.0
40
1.750000
50
161.425961
51
182.160412
0
ARC
8
00_ALUMINIO
10
96.835832
20
208.447261
30
0.0
40
0.500000
50
285.000000
51
2.160412
0
LINE
8
00_ALUMINIO
10
96.965241
20
207.964298
30
0.0
11
96.472211
21
207.832191
31
0.0
0
ARC
8
00_ALUMINIO
10
96.342802
20
208.315154
30
0.0
40
0.500000
50
184.524318
51
285.000000
0
ARC
8
00_ALUMINIO
10
99.084232
20
208.532080
30
0.0
40
3.250000
50
155.892598
51
184.524318
0
ARC
8
00_ALUMINIO
10
95.843862
20
209.982080
30
0.0
40
0.300000
50
335.890879
51
90.000000
0
LINE
8
00_ALUMINIO
10
95.843862
20
210.282080
30
0.0
11
42.935131
21
210.282080
31
0.0
0
ARC
8
00_ALUMINIO
10
42.935131
20
209.782080
30
0.0
40
0.500000
50
90.000000
51
180.000000
0
LINE
8
00_ALUMINIO
10
42.435131
20
209.782080
30
0.0
11
42.435131
21
202.727170
31
0.0
0
ARC
8
00_ALUMINIO
10
42.735131
20
202.727170
30
0.0
40
0.300000
50
180.000000
51
270.000000
0
LINE
8
00_ALUMINIO
10
42.735131
20
202.427170
30
0.0
11
43.635131
21
202.427170
31
0.0
0
ARC
8
00_ALUMINIO
10
43.635131
20
202.127170
30
0.0
40
0.300000
50
0.000000
51
90.000000
0
LINE
8
00_ALUMINIO
10
43.935131
20
202.127170
30
0.0
11
43.935131
21
201.427170
31
0.0
0
ARC
8
00_ALUMINIO
10
43.435131
20
201.427170
30
0.0
40
0.500000
50
270.000000
51
0.000000
0
LINE
8
00_ALUMINIO
10
43.435131
20
200.927170
30
0.0
11
40.735131
21
200.927170
31
0.0
0
ARC
8
00_ALUMINIO
10
40.735131
20
201.227170
30
0.0
40
0.300000
50
180.000000
51
270.000000
0
LINE
8
00_ALUMINIO
10
40.435131
20
201.227170
30
0.0
11
40.435131
21
203.442659
31
0.0
0
ARC
8
00_ALUMINIO
10
39.935131
20
203.442659
30
0.0
40
0.500000
50
0.000000
51
39.923344
0
ARC
8
00_ALUMINIO
10
38.784776
20
202.480015
30
0.0
40
2.000000
50
39.923344
51
133.534275
0
ARC
8
00_ALUMINIO
10
37.062805
20
204.292421
30
0.0
40
0.500000
50
270.000000
51
313.534275
0
LINE
8
00_ALUMINIO
10
37.062805
20
203.792421
30
0.0
11
36.374008
21
203.792421
31
0.0
0
ARC
8
00_ALUMINIO
10
36.374008
20
204.092421
30
0.0
40
0.300000
50
149.502378
51
270.000000
0
LINE
8
00_ALUMINIO
10
36.115513
20
204.244672
30
0.0
11
37.539217
21
206.661871
31
0.0
0
LINE
8
00_ALUMINIO
10
37.581831
20
206.717936
30
0.0
11
37.539217
21
206.661871
31
0.0
0
LINE
8
00_ALUMINIO
10
37.581831
20
206.717936
30
0.0
11
38.041998
21
207.194817
31
0.0
0
ARC
8
00_ALUMINIO
10
38.146788
20
207.093700
30
0.0
40
0.145621
50
356.341100
51
136.021839
0
LINE
8
00_ALUMINIO
10
38.292111
20
207.084407
30
0.0
11
38.282183
21
206.929142
31
0.0
0
ARC
8
00_ALUMINIO
10
38.481775
20
206.916379
30
0.0
40
0.200000
50
176.341100
51
229.517123
0
LINE
8
00_ALUMINIO
10
38.351931
20
206.764259
30
0.0
11
39.956133
21
205.394970
31
0.0
0
ARC
8
00_ALUMINIO
10
40.150899
20
205.623150
30
0.0
40
0.300000
50
229.517123
51
251.341100
0
LINE
8
00_ALUMINIO
10
40.054919
20
205.338918
30
0.0
11
40.339151
21
205.242938
31
0.0
0
ARC
8
00_ALUMINIO
10
40.435131
20
205.527170
30
0.0
40
0.300000
50
251.341100
51
90.000000
0
LINE
8
00_ALUMINIO
10
40.435131
20
205.827170
30
0.0
11
40.435131
21
210.327170
31
0.0
0
ARC
8
00_ALUMINIO
10
40.235131
20
210.327170
30
0.0
40
0.200000
50
0.000000
51
90.000000
0
LINE
8
00_ALUMINIO
10
40.235131
20
210.527170
30
0.0
11
40.167243
21
210.527170
31
0.0
0
ARC
8
00_ALUMINIO
10
40.167243
20
210.227170
30
0.0
40
0.300000
50
90.000000
51
121.380132
0
LINE
8
00_ALUMINIO
10
40.011028
20
210.483289
30
0.0
11
38.335036
21
209.461056
31
0.0
0
ARC
8
00_ALUMINIO
10
38.135131
20
209.454866
30
0.0
40
0.200000
50
182.888920
51
1.773627
0
LINE
8
00_ALUMINIO
10
37.935385
20
209.444786
30
0.0
11
37.839405
21
209.444786
31
0.0
0
ARC
8
00_ALUMINIO
10
37.839405
20
209.744786
30
0.0
40
0.300000
50
213.000000
51
270.000000
0
LINE
8
00_ALUMINIO
10
37.587804
20
209.581394
30
0.0
11
36.034579
21
211.973152
31
0.0
0
ARC
8
00_ALUMINIO
10
36.202313
20
212.082080
30
0.0
40
0.200000
50
90.000000
51
213.000000
0
LINE
8
00_ALUMINIO
10
36.202313
20
212.282080
30
0.0
11
39.935131
21
212.282080
31
0.0
0
ARC
8
00_ALUMINIO
10
39.935131
20
212.782080
30
0.0
40
0.500000
50
270.000000
51
306.869898
0
ARC
8
00_ALUMINIO
10
39.935131
20
212.782080
30
0.0
40
0.500000
50
306.869898
51
0.000000
0
LINE
8
00_ALUMINIO
10
40.435131
20
212.782080
30
0.0
11
40.435131
21
218.382080
31
0.0
0
LINE
8
00_ALUMINIO
10
40.435131
20
218.382080
30
0.0
11
40.435131
21
264.884091
31
0.0
0
ARC
8
00_ALUMINIO
10
39.435131
20
264.884091
30
0.0
40
1.000000
50
0.000000
51
58.619868
0
LINE
8
00_ALUMINIO
10
39.955845
20
265.737822
30
0.0
11
38.414418
21
266.677980
31
0.0
0
ARC
8
00_ALUMINIO
10
38.935131
20
267.531711
30
0.0
40
1.000000
50
180.000000
51
238.619868
0
LINE
8
00_ALUMINIO
10
37.935131
20
267.531711
30
0.0
11
37.935131
21
268.723846
31
0.0
0
ARC
8
00_ALUMINIO
10
38.135131
20
268.723846
30
0.0
40
0.200000
50
358.226373
51
180.000000
0
LINE
8
00_ALUMINIO
10
38.335036
20
268.717656
30
0.0
11
40.011028
21
267.695423
31
0.0
0
ARC
8
00_ALUMINIO
10
40.167243
20
267.951542
30
0.0
40
0.300000
50
238.619868
51
270.000000
0
LINE
8
00_ALUMINIO
10
40.167243
20
267.651542
30
0.0
11
40.235131
21
267.651542
31
0.0
0
ARC
8
00_ALUMINIO
10
40.235131
20
267.851542
30
0.0
40
0.200000
50
270.000000
51
0.000000
0
LINE
8
00_ALUMINIO
10
40.435131
20
267.851542
30
0.0
11
40.435131
21
272.351542
31
0.0
0
ARC
8
00_ALUMINIO
10
40.435131
20
272.651542
30
0.0
40
0.300000
50
270.000000
51
108.658900
0
LINE
8
00_ALUMINIO
10
40.339151
20
272.935774
30
0.0
11
40.054919
21
272.839794
31
0.0
0
ARC
8
00_ALUMINIO
10
40.150899
20
272.555562
30
0.0
40
0.300000
50
108.658900
51
130.482877
0
LINE
8
00_ALUMINIO
10
39.956133
20
272.783742
30
0.0
11
38.351931
21
271.414453
31
0.0
0
ARC
8
00_ALUMINIO
10
38.481775
20
271.262333
30
0.0
40
0.200000
50
130.482877
51
183.658900
0
LINE
8
00_ALUMINIO
10
38.282183
20
271.249570
30
0.0
11
38.292111
21
271.094305
31
0.0
0
ARC
8
00_ALUMINIO
10
38.146788
20
271.085012
30
0.0
40
0.145621
50
223.978161
51
3.658900
0
LINE
8
00_ALUMINIO
10
38.041998
20
270.983895
30
0.0
11
37.581831
21
271.460776
31
0.0
0
LINE
8
00_ALUMINIO
10
37.539217
20
271.516841
30
0.0
11
37.581831
21
271.460776
31
0.0
0
LINE
8
00_ALUMINIO
10
37.539217
20
271.516841
30
0.0
11
36.115513
21
273.934040
31
0.0
0
ARC
8
00_ALUMINIO
10
36.374008
20
274.086291
30
0.0
40
0.300000
50
90.000000
51
210.497622
0
LINE
8
00_ALUMINIO
10
36.374008
20
274.386291
30
0.0
11
37.062805
21
274.386291
31
0.0
0
ARC
8
00_ALUMINIO
10
37.062805
20
273.886291
30
0.0
40
0.500000
50
46.465725
51
90.000000
0
ARC
8
00_ALUMINIO
10
38.784776
20
275.698697
30
0.0
40
2.000000
50
226.465725
51
320.076656
0
ARC
8
00_ALUMINIO
10
39.935131
20
274.736053
30
0.0
40
0.500000
50
320.076656
51
0.000000
0
LINE
8
00_ALUMINIO
10
40.435131
20
274.736053
30
0.0
11
40.435131
21
277.427170
31
0.0
0
ARC
8
00_ALUMINIO
10
40.935131
20
277.427170
30
0.0
40
0.500000
50
90.000000
51
180.000000
0
LINE
8
00_ALUMINIO
10
40.935131
20
277.927170
30
0.0
11
51.232394
21
277.927170
31
0.0
0
ARC
8
00_ALUMINIO
10
51.232394
20
278.427170
30
0.0
40
0.500000
50
270.000000
51
0.035287
0
LINE
8
00_ALUMINIO
10
51.732393
20
278.427478
30
0.0
11
51.730115
21
282.127170
31
0.0
0
ARC
8
00_ALUMINIO
10
52.230115
20
282.127170
30
0.0
40
0.500000
50
90.000000
51
180.000000
0
LINE
8
00_ALUMINIO
10
52.230115
20
282.627170
30
0.0
11
53.230115
21
282.627170
31
0.0
0
ARC
8
00_ALUMINIO
10
53.230115
20
282.127170
30
0.0
40
0.500000
50
0.000000
51
90.000000
0
LINE
8
00_ALUMINIO
10
53.730115
20
282.127170
30
0.0
11
53.735131
21
278.227170
31
0.0
0
ARC
8
00_ALUMINIO
10
54.035131
20
278.227170
30
0.0
40
0.300000
50
180.000000
51
270.000000
0
LINE
8
00_ALUMINIO
10
54.035131
20
277.927170
30
0.0
11
72.234682
21
277.927170
31
0.0
0
ATTDEF
8
0
10
0.000000
20
0.000000
30
0.0
40
3.5
1

3

2
PANE_WIDTH:0
70
0
0
ATTDEF
8
0
10
0.000000
20
0.000000
30
0.0
40
3.5
1

3

2
MIN_VETRO:0
70
0
0
ATTDEF
8
0
10
0.000000
20
0.000000
30
0.0
40
3.5
1

3

2
MAX_VETRO:0
70
0
0
ATTDEF
8
0
10
0.000000
20
0.000000
30
0.0
40
3.5
1

3

2
JX:0
70
0
0
ATTDEF
8
0
10
0.000000
20
0.000000
30
0.0
40
3.5
1

3

2
WX:0
70
0
0
ATTDEF
8
0
10
0.000000
20
0.000000
30
0.0
40
3.5
1

3

2
JY:0
70
0
0
ATTDEF
8
0
10
0.000000
20
0.000000
30
0.0
40
3.5
1

3

2
WY:0
70
0
0
ATTDEF
8
0
10
0.000000
20
0.000000
30
0.0
40
3.5
1

3

2
DESC:Acople solera marco inferior tricarril
70
0
0
ATTDEF
8
0
10
0.000000
20
0.000000
30
0.0
40
3.5
1

3

2
DENS:6.2489
70
0
0
ATTDEF
8
0
10
0.000000
20
0.000000
30
0.0
40
3.5
1

3

2
TDEV:211.19
70
0
0
ATTDEF
8
0
10
0.000000
20
0.000000
30
0.0
40
3.5
1

3

2
TDEV2:0
70
0
0
ATTDEF
8
0
10
0.000000
20
0.000000
30
0.0
40
3.5
1

3

2
TDEV3:0
70
0
0
ATTDEF
8
0
10
0.000000
20
0.000000
30
0.0
40
3.5
1

3

2
TDEV4:0
70
0
0
ATTDEF
8
0
10
0.000000
20
0.000000
30
0.0
40
3.5
1

3

2
TDEV5:0
70
0
0
ATTDEF
8
0
10
0.000000
20
0.000000
30
0.0
40
3.5
1

3

2
PANE_WIDTH:0
70
0
0
ATTDEF
8
0
10
0.000000
20
0.000000
30
0.0
40
3.5
1

3

2
MIN_VETRO:0
70
0
0
ATTDEF
8
0
10
0.000000
20
0.000000
30
0.0
40
3.5
1

3

2
MAX_VETRO:0
70
0
0
ATTDEF
8
0
10
0.000000
20
0.000000
30
0.0
40
3.5
1

3

2
JX:0
70
0
0
ATTDEF
8
0
10
0.000000
20
0.000000
30
0.0
40
3.5
1

3

2
WX:0
70
0
0
ATTDEF
8
0
10
0.000000
20
0.000000
30
0.0
40
3.5
1

3

2
JY:0
70
0
0
ATTDEF
8
0
10
0.000000
20
0.000000
30
0.0
40
3.5
1

3

2
WY:0
70
0
0
ENDSEC
0
EOF
