0
SECTION
2
ENTITIES
0
ARC
8
0
10
3060.091865
20
1244.227760
30
0.0
40
0.600000
50
0.000000
51
180.000000
0
ARC
8
0
10
3060.091865
20
1244.227760
30
0.0
40
0.600000
50
180.000000
51
0.000000
0
ARC
8
0
10
3082.591865
20
1244.227760
30
0.0
40
0.600000
50
0.000000
51
180.000000
0
ARC
8
0
10
3082.591865
20
1244.227760
30
0.0
40
0.600000
50
180.000000
51
0.000000
0
ARC
8
0
10
3082.591865
20
1217.808089
30
0.0
40
0.600000
50
0.000000
51
180.000000
0
ARC
8
0
10
3082.591865
20
1217.808089
30
0.0
40
0.600000
50
180.000000
51
0.000000
0
ARC
8
0
10
3060.091865
20
1217.808089
30
0.0
40
0.600000
50
0.000000
51
180.000000
0
ARC
8
0
10
3060.091865
20
1217.808089
30
0.0
40
0.600000
50
180.000000
51
0.000000
0
LINE
8
0
10
3059.341865
20
1245.330128
30
0.0
11
3060.216680
21
1246.204943
31
0.0
0
LINE
8
0
10
3059.341865
20
1243.085064
30
0.0
11
3059.384560
21
1243.127760
31
0.0
0
LINE
8
0
10
3063.608547
20
1247.351747
30
0.0
11
3064.584560
21
1248.327760
31
0.0
0
LINE
8
0
10
3059.441865
20
1243.185064
30
0.0
11
3059.912117
21
1243.655317
31
0.0
0
LINE
8
0
10
3060.664308
20
1244.407507
30
0.0
11
3061.641985
21
1245.385185
31
0.0
0
LINE
8
0
10
3061.487082
20
1242.985218
30
0.0
11
3066.829624
21
1248.327760
31
0.0
0
LINE
8
0
10
3067.074688
20
1246.327760
30
0.0
11
3069.074688
21
1248.327760
31
0.0
0
LINE
8
0
10
3069.319752
20
1246.327760
30
0.0
11
3071.319752
21
1248.327760
31
0.0
0
LINE
8
0
10
3071.564816
20
1246.327760
30
0.0
11
3073.564816
21
1248.327760
31
0.0
0
LINE
8
0
10
3073.809880
20
1246.327760
30
0.0
11
3075.809880
21
1248.327760
31
0.0
0
LINE
8
0
10
3076.054945
20
1246.327760
30
0.0
11
3078.054945
21
1248.327760
31
0.0
0
LINE
8
0
10
3077.735232
20
1245.762983
30
0.0
11
3079.174029
21
1247.201781
31
0.0
0
LINE
8
0
10
3078.624072
20
1244.406760
30
0.0
11
3080.065934
21
1245.848622
31
0.0
0
LINE
8
0
10
3079.653159
20
1243.190782
30
0.0
11
3082.790137
21
1246.327760
31
0.0
0
LINE
8
0
10
3081.510922
20
1242.803481
30
0.0
11
3082.375551
21
1243.668110
31
0.0
0
LINE
8
0
10
3059.445853
20
1218.493348
30
0.0
11
3060.546849
21
1219.594344
31
0.0
0
LINE
8
0
10
3083.124281
20
1242.171776
30
0.0
11
3083.297848
21
1242.345344
31
0.0
0
LINE
8
0
10
3059.341865
20
1216.144296
30
0.0
11
3062.105657
21
1218.908089
31
0.0
0
LINE
8
0
10
3062.118569
20
1216.675936
30
0.0
11
3063.668525
21
1218.225892
31
0.0
0
LINE
8
0
10
3063.117219
20
1215.429522
30
0.0
11
3064.557366
21
1216.869669
31
0.0
0
LINE
8
0
10
3064.009124
20
1214.076364
30
0.0
11
3065.660688
21
1215.727927
31
0.0
0
LINE
8
0
10
3065.885914
20
1213.708089
30
0.0
11
3067.885914
21
1215.708089
31
0.0
0
LINE
8
0
10
3068.130978
20
1213.708089
30
0.0
11
3070.130978
21
1215.708089
31
0.0
0
LINE
8
0
10
3070.376042
20
1213.708089
30
0.0
11
3072.376042
21
1215.708089
31
0.0
0
LINE
8
0
10
3072.272412
20
1213.359395
30
0.0
11
3074.621106
21
1215.708089
31
0.0
0
LINE
8
0
10
3072.411865
20
1211.253784
30
0.0
11
3074.228509
21
1213.070428
31
0.0
0
LINE
8
0
10
3078.313903
20
1217.155822
30
0.0
11
3080.066170
21
1218.908089
31
0.0
0
LINE
8
0
10
3074.849525
20
1213.691444
30
0.0
11
3076.867061
21
1215.708980
31
0.0
0
LINE
8
0
10
3072.411865
20
1209.008720
30
0.0
11
3074.211865
21
1210.808720
31
0.0
0
LINE
8
0
10
3077.111234
20
1213.708089
30
0.0
11
3083.208977
21
1219.805832
31
0.0
0
LINE
8
0
10
3073.167889
20
1207.519680
30
0.0
11
3074.211865
21
1208.563656
31
0.0
0
LINE
8
0
10
3081.841091
20
1216.192881
30
0.0
11
3082.931298
21
1217.283089
31
0.0
0
LINE
8
0
10
3060.723178
20
1216.123800
30
0.0
11
3059.575294
21
1217.271684
31
0.0
0
LINE
8
0
10
3065.383953
20
1213.708089
30
0.0
11
3059.391310
21
1219.700732
31
0.0
0
LINE
8
0
10
3073.727365
20
1207.609741
30
0.0
11
3072.411865
21
1208.925241
31
0.0
0
LINE
8
0
10
3064.728386
20
1216.608720
30
0.0
11
3062.429017
21
1218.908089
31
0.0
0
LINE
8
0
10
3067.629017
20
1213.708089
30
0.0
11
3065.593029
21
1215.744077
31
0.0
0
LINE
8
0
10
3074.211865
20
1209.370305
30
0.0
11
3072.411865
21
1211.170305
31
0.0
0
LINE
8
0
10
3069.874081
20
1213.708089
30
0.0
11
3067.874081
21
1215.708089
31
0.0
0
LINE
8
0
10
3074.211865
20
1211.615369
30
0.0
11
3070.119145
21
1215.708089
31
0.0
0
LINE
8
0
10
3074.527504
20
1213.544794
30
0.0
11
3072.364209
21
1215.708089
31
0.0
0
LINE
8
0
10
3076.609273
20
1213.708089
30
0.0
11
3074.609273
21
1215.708089
31
0.0
0
LINE
8
0
10
3078.599702
20
1213.962724
30
0.0
11
3076.853915
21
1215.708511
31
0.0
0
LINE
8
0
10
3079.491607
20
1215.315883
30
0.0
11
3078.051718
21
1216.755772
31
0.0
0
LINE
8
0
10
3080.434577
20
1216.617977
30
0.0
11
3078.940559
21
1218.111995
31
0.0
0
LINE
8
0
10
3083.319991
20
1215.977627
30
0.0
11
3080.389529
21
1218.908089
31
0.0
0
LINE
8
0
10
3083.166227
20
1218.376455
30
0.0
11
3082.017420
21
1219.525262
31
0.0
0
LINE
8
0
10
3061.053347
20
1242.734399
30
0.0
11
3060.156495
21
1243.631251
31
0.0
0
LINE
8
0
10
3062.884221
20
1243.148589
30
0.0
11
3059.706607
21
1246.326203
31
0.0
0
LINE
8
0
10
3063.985012
20
1244.292863
30
0.0
11
3062.542892
21
1245.734982
31
0.0
0
LINE
8
0
10
3064.873852
20
1245.649086
30
0.0
11
3063.434797
21
1247.088141
31
0.0
0
LINE
8
0
10
3066.440242
20
1246.327760
30
0.0
11
3064.445931
21
1248.322071
31
0.0
0
LINE
8
0
10
3068.685306
20
1246.327760
30
0.0
11
3066.685306
21
1248.327760
31
0.0
0
LINE
8
0
10
3070.930370
20
1246.327760
30
0.0
11
3068.930370
21
1248.327760
31
0.0
0
LINE
8
0
10
3073.175434
20
1246.327760
30
0.0
11
3071.175434
21
1248.327760
31
0.0
0
LINE
8
0
10
3075.420498
20
1246.327760
30
0.0
11
3073.420498
21
1248.327760
31
0.0
0
LINE
8
0
10
3080.878436
20
1243.114886
30
0.0
11
3075.665562
21
1248.327760
31
0.0
0
LINE
8
0
10
3083.341865
20
1242.896521
30
0.0
11
3082.610342
21
1243.628044
31
0.0
0
LINE
8
0
10
3079.439759
20
1246.798627
30
0.0
11
3077.910626
21
1248.327760
31
0.0
0
LINE
8
0
10
3081.992149
20
1244.246237
30
0.0
11
3080.898291
21
1245.340096
31
0.0
0
LINE
8
0
10
3083.241865
20
1245.241586
30
0.0
11
3082.347588
21
1246.135862
31
0.0
0
LINE
8
0
10
3074.211865
20
1212.908089
30
0.0
11
3074.211865
21
1208.408089
31
0.0
0
ARC
8
0
10
3075.011865
20
1212.908089
30
0.0
40
0.800000
50
90.000000
51
180.000000
0
LINE
8
0
10
3078.162586
20
1213.708089
30
0.0
11
3075.011865
21
1213.708089
31
0.0
0
ARC
8
0
10
3078.162586
20
1214.208089
30
0.0
40
0.500000
50
270.000000
51
326.610000
0
LINE
8
0
10
3078.580058
20
1213.932921
30
0.0
11
3080.210562
21
1216.406650
31
0.0
0
ARC
8
0
10
3080.770279
20
1216.037723
30
0.0
40
0.670365
50
59.960294
51
146.609962
0
LINE
8
0
10
3082.628772
20
1215.737385
30
0.0
11
3081.105864
21
1216.618044
31
0.0
0
ARC
8
0
10
3082.732985
20
1215.908089
30
0.0
40
0.200000
50
238.596344
51
270.000000
0
LINE
8
0
10
3082.941865
20
1215.708089
30
0.0
11
3082.732985
21
1215.708089
31
0.0
0
ARC
8
0
10
3082.941865
20
1216.108089
30
0.0
40
0.400000
50
270.000000
51
0.000000
0
LINE
8
0
10
3083.341865
20
1216.708089
30
0.0
11
3083.341865
21
1216.108089
31
0.0
0
LINE
8
0
10
3083.241865
20
1216.708089
30
0.0
11
3083.341865
21
1216.708089
31
0.0
0
LINE
8
0
10
3083.241865
20
1217.083089
30
0.0
11
3083.241865
21
1216.708089
31
0.0
0
ARC
8
0
10
3083.041865
20
1217.083089
30
0.0
40
0.200000
50
0.000000
51
90.000000
0
LINE
8
0
10
3082.882339
20
1217.283089
30
0.0
11
3083.041865
21
1217.283089
31
0.0
0
ARC
8
0
10
3082.591865
20
1217.808089
30
0.0
40
0.600000
50
180.000000
51
298.955024
0
ARC
8
0
10
3082.591865
20
1217.808089
30
0.0
40
0.600000
50
61.044976
51
180.000000
0
LINE
8
0
10
3083.041865
20
1218.333089
30
0.0
11
3082.882339
21
1218.333089
31
0.0
0
ARC
8
0
10
3083.041865
20
1218.533089
30
0.0
40
0.200000
50
270.000000
51
0.000000
0
LINE
8
0
10
3083.241865
20
1218.908089
30
0.0
11
3083.241865
21
1218.533089
31
0.0
0
LINE
8
0
10
3083.341865
20
1218.908089
30
0.0
11
3083.241865
21
1218.908089
31
0.0
0
LINE
8
0
10
3083.341865
20
1219.508089
30
0.0
11
3083.341865
21
1218.908089
31
0.0
0
ARC
8
0
10
3082.941865
20
1219.508089
30
0.0
40
0.400000
50
0.000000
51
90.000000
0
LINE
8
0
10
3082.732985
20
1219.908089
30
0.0
11
3082.941865
21
1219.908089
31
0.0
0
ARC
8
0
10
3082.732985
20
1219.708089
30
0.0
40
0.200000
50
90.000000
51
121.403656
0
LINE
8
0
10
3081.135976
20
1219.015546
30
0.0
11
3082.628772
21
1219.878792
31
0.0
0
ARC
8
0
10
3080.735496
20
1219.708089
30
0.0
40
0.800000
50
270.000000
51
300.039706
0
LINE
8
0
10
3080.002549
20
1218.908089
30
0.0
11
3080.735496
21
1218.908089
31
0.0
0
ARC
8
0
10
3080.002549
20
1217.908089
30
0.0
40
1.000000
50
90.000000
51
146.760000
0
LINE
8
0
10
3077.661224
20
1216.159941
30
0.0
11
3079.166167
21
1218.456236
31
0.0
0
ARC
8
0
10
3076.824842
20
1216.708089
30
0.0
40
1.000000
50
270.000000
51
326.760000
0
LINE
8
0
10
3071.341865
20
1215.708089
30
0.0
11
3076.824842
21
1215.708089
31
0.0
0
LINE
8
0
10
3065.858888
20
1215.708089
30
0.0
11
3071.341865
21
1215.708089
31
0.0
0
ARC
8
0
10
3065.858888
20
1216.708089
30
0.0
40
1.000000
50
213.240000
51
270.000000
0
LINE
8
0
10
3063.517562
20
1218.456236
30
0.0
11
3065.022506
21
1216.159941
31
0.0
0
ARC
8
0
10
3062.681181
20
1217.908089
30
0.0
40
1.000000
50
33.240000
51
90.000000
0
LINE
8
0
10
3061.948234
20
1218.908089
30
0.0
11
3062.681181
21
1218.908089
31
0.0
0
ARC
8
0
10
3061.948234
20
1219.708089
30
0.0
40
0.800000
50
239.960294
51
270.000000
0
LINE
8
0
10
3060.054957
20
1219.878792
30
0.0
11
3061.547754
21
1219.015546
31
0.0
0
ARC
8
0
10
3059.950745
20
1219.708089
30
0.0
40
0.200000
50
58.596344
51
90.000000
0
LINE
8
0
10
3059.741865
20
1219.908089
30
0.0
11
3059.950745
21
1219.908089
31
0.0
0
ARC
8
0
10
3059.741865
20
1219.508089
30
0.0
40
0.400000
50
90.000000
51
180.000000
0
LINE
8
0
10
3059.341865
20
1218.908089
30
0.0
11
3059.341865
21
1219.508089
31
0.0
0
LINE
8
0
10
3059.441865
20
1218.908089
30
0.0
11
3059.341865
21
1218.908089
31
0.0
0
LINE
8
0
10
3059.441865
20
1218.533089
30
0.0
11
3059.441865
21
1218.908089
31
0.0
0
ARC
8
0
10
3059.641865
20
1218.533089
30
0.0
40
0.200000
50
180.000000
51
270.000000
0
LINE
8
0
10
3059.801391
20
1218.333089
30
0.0
11
3059.641865
21
1218.333089
31
0.0
0
ARC
8
0
10
3060.091865
20
1217.808089
30
0.0
40
0.600000
50
0.000000
51
118.955024
0
ARC
8
0
10
3060.091865
20
1217.808089
30
0.0
40
0.600000
50
241.044976
51
0.000000
0
LINE
8
0
10
3059.641865
20
1217.283089
30
0.0
11
3059.801391
21
1217.283089
31
0.0
0
ARC
8
0
10
3059.641865
20
1217.083089
30
0.0
40
0.200000
50
90.000000
51
180.000000
0
LINE
8
0
10
3059.441865
20
1216.708089
30
0.0
11
3059.441865
21
1217.083089
31
0.0
0
LINE
8
0
10
3059.341865
20
1216.708089
30
0.0
11
3059.441865
21
1216.708089
31
0.0
0
LINE
8
0
10
3059.341865
20
1216.108089
30
0.0
11
3059.341865
21
1216.708089
31
0.0
0
ARC
8
0
10
3059.741865
20
1216.108089
30
0.0
40
0.400000
50
180.000000
51
270.000000
0
LINE
8
0
10
3059.950745
20
1215.708089
30
0.0
11
3059.741865
21
1215.708089
31
0.0
0
ARC
8
0
10
3059.950745
20
1215.908089
30
0.0
40
0.200000
50
270.000000
51
301.403656
0
LINE
8
0
10
3060.054958
20
1215.737384
30
0.0
11
3061.577866
21
1216.618045
31
0.0
0
ARC
8
0
10
3061.913451
20
1216.037723
30
0.0
40
0.670365
50
33.390000
51
120.039653
0
LINE
8
0
10
3064.103671
20
1213.932921
30
0.0
11
3062.473168
21
1216.406649
31
0.0
0
ARC
8
0
10
3064.521143
20
1214.208089
30
0.0
40
0.500000
50
213.390000
51
270.000000
0
LINE
8
0
10
3071.611865
20
1213.708089
30
0.0
11
3064.521143
21
1213.708089
31
0.0
0
ARC
8
0
10
3071.611865
20
1212.908089
30
0.0
40
0.800000
50
0.000000
51
90.000000
0
LINE
8
0
10
3072.411865
20
1208.408089
30
0.0
11
3072.411865
21
1212.908089
31
0.0
0
ARC
8
0
10
3073.311865
20
1208.408089
30
0.0
40
0.900000
50
180.000000
51
0.000000
0
LINE
8
0
10
3080.210562
20
1245.629200
30
0.0
11
3078.580058
21
1248.102927
31
0.0
0
ARC
8
0
10
3078.162586
20
1247.827760
30
0.0
40
0.500000
50
33.390000
51
90.000000
0
LINE
8
0
10
3078.162586
20
1248.327760
30
0.0
11
3071.341865
21
1248.327760
31
0.0
0
LINE
8
0
10
3071.341865
20
1248.327760
30
0.0
11
3064.521143
21
1248.327760
31
0.0
0
ARC
8
0
10
3064.521143
20
1247.827760
30
0.0
40
0.500000
50
90.000000
51
146.610000
0
LINE
8
0
10
3064.103671
20
1248.102927
30
0.0
11
3062.473168
21
1245.629200
31
0.0
0
ARC
8
0
10
3061.913451
20
1245.998125
30
0.0
40
0.670365
50
239.960294
51
326.610000
0
LINE
8
0
10
3061.577866
20
1245.417804
30
0.0
11
3060.046715
21
1246.303230
31
0.0
0
LINE
8
0
10
3060.046715
20
1246.303230
30
0.0
11
3059.950745
21
1246.327760
31
0.0
0
LINE
8
0
10
3059.950745
20
1246.327760
30
0.0
11
3059.741865
21
1246.327760
31
0.0
0
ARC
8
0
10
3059.741865
20
1245.927760
30
0.0
40
0.400000
50
90.000000
51
180.000000
0
LINE
8
0
10
3059.341865
20
1245.927760
30
0.0
11
3059.341865
21
1245.327760
31
0.0
0
LINE
8
0
10
3059.341865
20
1245.327760
30
0.0
11
3059.441865
21
1245.327760
31
0.0
0
LINE
8
0
10
3059.441865
20
1245.327760
30
0.0
11
3059.441865
21
1244.952760
31
0.0
0
ARC
8
0
10
3059.641865
20
1244.952760
30
0.0
40
0.200000
50
180.000000
51
270.000000
0
LINE
8
0
10
3059.641865
20
1244.752760
30
0.0
11
3059.801391
21
1244.752760
31
0.0
0
ARC
8
0
10
3060.091865
20
1244.227760
30
0.0
40
0.600000
50
0.000000
51
118.955024
0
ARC
8
0
10
3060.091865
20
1244.227760
30
0.0
40
0.600000
50
241.044976
51
0.000000
0
LINE
8
0
10
3059.801391
20
1243.702760
30
0.0
11
3059.641865
21
1243.702760
31
0.0
0
ARC
8
0
10
3059.641865
20
1243.502760
30
0.0
40
0.200000
50
90.000000
51
180.000000
0
LINE
8
0
10
3059.441865
20
1243.502760
30
0.0
11
3059.441865
21
1243.127760
31
0.0
0
LINE
8
0
10
3059.441865
20
1243.127760
30
0.0
11
3059.341865
21
1243.127760
31
0.0
0
LINE
8
0
10
3059.341865
20
1243.127760
30
0.0
11
3059.341865
21
1242.527760
31
0.0
0
ARC
8
0
10
3059.741865
20
1242.527760
30
0.0
40
0.400000
50
180.000000
51
270.000000
0
LINE
8
0
10
3059.741865
20
1242.127760
30
0.0
11
3059.950745
21
1242.127760
31
0.0
0
LINE
8
0
10
3059.950745
20
1242.127760
30
0.0
11
3060.046715
21
1242.152290
31
0.0
0
LINE
8
0
10
3060.046715
20
1242.152290
30
0.0
11
3061.547754
21
1243.020303
31
0.0
0
ARC
8
0
10
3061.948234
20
1242.327760
30
0.0
40
0.800000
50
90.000000
51
120.039706
0
LINE
8
0
10
3061.948234
20
1243.127760
30
0.0
11
3062.681181
21
1243.127760
31
0.0
0
ARC
8
0
10
3062.681181
20
1244.127760
30
0.0
40
1.000000
50
270.000000
51
326.760000
0
LINE
8
0
10
3063.517562
20
1243.579613
30
0.0
11
3065.022506
21
1245.875907
31
0.0
0
ARC
8
0
10
3065.858888
20
1245.327760
30
0.0
40
1.000000
50
90.000000
51
146.760000
0
LINE
8
0
10
3065.858888
20
1246.327760
30
0.0
11
3071.341865
21
1246.327760
31
0.0
0
LINE
8
0
10
3071.341865
20
1246.327760
30
0.0
11
3076.674281
21
1246.327760
31
0.0
0
LINE
8
0
10
3076.674281
20
1246.327760
30
0.0
11
3076.824842
21
1246.327760
31
0.0
0
ARC
8
0
10
3076.824842
20
1245.327760
30
0.0
40
1.000000
50
33.240000
51
90.000000
0
LINE
8
0
10
3077.661224
20
1245.875907
30
0.0
11
3079.166167
21
1243.579613
31
0.0
0
ARC
8
0
10
3080.002549
20
1244.127760
30
0.0
40
1.000000
50
213.240000
51
270.000000
0
LINE
8
0
10
3080.002549
20
1243.127760
30
0.0
11
3080.735496
21
1243.127760
31
0.0
0
ARC
8
0
10
3080.735496
20
1242.327760
30
0.0
40
0.800000
50
59.960294
51
90.000000
0
LINE
8
0
10
3081.135976
20
1243.020303
30
0.0
11
3082.637015
21
1242.152290
31
0.0
0
LINE
8
0
10
3082.637015
20
1242.152290
30
0.0
11
3082.732985
21
1242.127760
31
0.0
0
LINE
8
0
10
3082.732985
20
1242.127760
30
0.0
11
3082.941865
21
1242.127760
31
0.0
0
ARC
8
0
10
3082.941865
20
1242.527760
30
0.0
40
0.400000
50
270.000000
51
0.000000
0
LINE
8
0
10
3083.341865
20
1242.527760
30
0.0
11
3083.341865
21
1243.127760
31
0.0
0
LINE
8
0
10
3083.341865
20
1243.127760
30
0.0
11
3083.241865
21
1243.127760
31
0.0
0
LINE
8
0
10
3083.241865
20
1243.127760
30
0.0
11
3083.241865
21
1243.502760
31
0.0
0
ARC
8
0
10
3083.041865
20
1243.502760
30
0.0
40
0.200000
50
0.000000
51
90.000000
0
LINE
8
0
10
3083.041865
20
1243.702760
30
0.0
11
3082.882339
21
1243.702760
31
0.0
0
ARC
8
0
10
3082.591865
20
1244.227760
30
0.0
40
0.600000
50
61.044976
51
298.955024
0
LINE
8
0
10
3082.882339
20
1244.752760
30
0.0
11
3083.041865
21
1244.752760
31
0.0
0
ARC
8
0
10
3083.041865
20
1244.952760
30
0.0
40
0.200000
50
270.000000
51
0.000000
0
LINE
8
0
10
3083.241865
20
1244.952760
30
0.0
11
3083.241865
21
1245.327760
31
0.0
0
LINE
8
0
10
3083.241865
20
1245.327760
30
0.0
11
3083.341865
21
1245.327760
31
0.0
0
LINE
8
0
10
3083.341865
20
1245.327760
30
0.0
11
3083.341865
21
1245.927760
31
0.0
0
ARC
8
0
10
3082.941865
20
1245.927760
30
0.0
40
0.400000
50
0.000000
51
90.000000
0
LINE
8
0
10
3082.941865
20
1246.327760
30
0.0
11
3082.732985
21
1246.327760
31
0.0
0
LINE
8
0
10
3082.732985
20
1246.327760
30
0.0
11
3082.637015
21
1246.303230
31
0.0
0
LINE
8
0
10
3082.637015
20
1246.303230
30
0.0
11
3081.105864
21
1245.417804
31
0.0
0
ARC
8
0
10
3080.770279
20
1245.998125
30
0.0
40
0.670365
50
213.390000
51
300.039706
0
LINE
8
0
10
3085.541433
20
1264.913190
30
0.0
11
3085.541433
21
1271.313190
31
0.0
0
ARC
8
0
10
3086.041433
20
1271.313190
30
0.0
40
0.500000
50
90.000000
51
180.000000
0
LINE
8
0
10
3086.041433
20
1271.813190
30
0.0
11
3089.941433
21
1271.813190
31
0.0
0
ARC
8
0
10
3089.941433
20
1271.313190
30
0.0
40
0.500000
50
0.000000
51
90.000000
0
LINE
8
0
10
3090.441433
20
1271.313190
30
0.0
11
3090.441433
21
1224.209044
31
0.0
0
ARC
8
0
10
3089.941433
20
1224.209044
30
0.0
40
0.500000
50
270.000000
51
0.000000
0
LINE
8
0
10
3089.941433
20
1223.709044
30
0.0
11
3086.041433
21
1223.709044
31
0.0
0
ARC
8
0
10
3086.041433
20
1224.209044
30
0.0
40
0.500000
50
182.380459
51
270.000000
0
LINE
8
0
10
3085.541865
20
1224.188277
30
0.0
11
3085.541865
21
1251.413190
31
0.0
0
ARC
8
0
10
3085.841865
20
1251.413190
30
0.0
40
0.300000
50
90.000000
51
180.000000
0
LINE
8
0
10
3085.841865
20
1251.713190
30
0.0
11
3086.491433
21
1251.713190
31
0.0
0
ARC
8
0
10
3086.491433
20
1252.013190
30
0.0
40
0.300000
50
270.000000
51
0.000000
0
LINE
8
0
10
3086.791433
20
1252.013190
30
0.0
11
3086.791433
21
1264.313190
31
0.0
0
ARC
8
0
10
3086.491433
20
1264.313190
30
0.0
40
0.300000
50
0.000000
51
90.000000
0
LINE
8
0
10
3086.491433
20
1264.613190
30
0.0
11
3085.841433
21
1264.613190
31
0.0
0
ARC
8
0
10
3085.841433
20
1264.913190
30
0.0
40
0.300000
50
180.000000
51
270.000000
0
LINE
8
0
10
3085.641433
20
1213.509044
30
0.0
11
3083.341433
21
1213.509044
31
0.0
0
ARC
8
0
10
3080.167923
20
1210.631599
30
0.0
40
4.283790
50
42.198829
51
53.185249
0
LINE
8
0
10
3082.734898
20
1214.061103
30
0.0
11
3082.001802
21
1214.615405
31
0.0
0
ARC
8
0
10
3081.450055
20
1213.782092
30
0.0
40
1.000000
50
56.490937
51
146.907609
0
LINE
8
0
10
3080.611941
20
1214.328293
30
0.0
11
3080.226873
21
1213.863155
31
0.0
0
LINE
8
0
10
3080.226873
20
1213.863155
30
0.0
11
3080.164013
21
1213.657550
31
0.0
0
LINE
8
0
10
3080.164013
20
1213.657550
30
0.0
11
3079.111218
21
1213.687394
31
0.0
0
ARC
8
0
10
3079.114603
20
1213.987418
30
0.0
40
0.300000
50
161.748585
51
267.394587
0
LINE
8
0
10
3078.829696
20
1214.081374
30
0.0
11
3080.927648
21
1216.801924
31
0.0
0
ARC
8
0
10
3081.089370
20
1216.684254
30
0.0
40
0.200000
50
322.928474
51
143.960191
0
LINE
8
0
10
3081.248947
20
1216.563692
30
0.0
11
3082.793589
21
1215.396694
31
0.0
0
ARC
8
0
10
3083.080487
20
1215.259121
30
0.0
40
0.319960
50
157.541853
51
249.275644
0
LINE
8
0
10
3082.967262
20
1214.959864
30
0.0
11
3083.254153
21
1214.872153
31
0.0
0
ARC
8
0
10
3083.341865
20
1215.159044
30
0.0
40
0.300000
50
253.000000
51
90.000000
0
LINE
8
0
10
3083.341865
20
1215.459044
30
0.0
11
3083.341865
21
1219.959044
31
0.0
0
ARC
8
0
10
3083.141865
20
1219.948942
30
0.0
40
0.200000
50
2.891595
51
121.867325
0
LINE
8
0
10
3083.036208
20
1220.118902
30
0.0
11
3081.241865
21
1219.089321
31
0.0
0
ARC
8
0
10
3081.041865
20
1219.089586
30
0.0
40
0.200000
50
188.682564
51
0.000000
0
LINE
8
0
10
3080.841865
20
1219.059044
30
0.0
11
3080.841865
21
1220.473366
31
0.0
0
ARC
8
0
10
3081.041865
20
1220.473366
30
0.0
40
0.200000
50
118.305465
51
180.000000
0
LINE
8
0
10
3080.947249
20
1220.649661
30
0.0
11
3083.590707
21
1222.166458
31
0.0
0
ARC
8
0
10
3083.341865
20
1222.600137
30
0.0
40
0.500000
50
299.846880
51
0.000000
0
LINE
8
0
10
3083.841865
20
1222.600137
30
0.0
11
3083.841865
21
1239.417951
31
0.0
0
ARC
8
0
10
3083.341865
20
1239.417951
30
0.0
40
0.500000
50
0.000000
51
60.153120
0
LINE
8
0
10
3083.590707
20
1239.851630
30
0.0
11
3080.947249
21
1241.368427
31
0.0
0
ARC
8
0
10
3081.041865
20
1241.544722
30
0.0
40
0.200000
50
180.000000
51
241.694535
0
LINE
8
0
10
3080.841865
20
1241.544722
30
0.0
11
3080.841865
21
1242.959044
31
0.0
0
ARC
8
0
10
3081.041865
20
1242.928502
30
0.0
40
0.200000
50
0.000000
51
171.317436
0
LINE
8
0
10
3081.241865
20
1242.928767
30
0.0
11
3083.036208
21
1241.899186
31
0.0
0
ARC
8
0
10
3083.141865
20
1242.069146
30
0.0
40
0.200000
50
238.132675
51
357.108405
0
LINE
8
0
10
3083.341865
20
1242.059044
30
0.0
11
3083.341865
21
1246.559044
31
0.0
0
ARC
8
0
10
3083.341865
20
1246.859044
30
0.0
40
0.300000
50
270.000000
51
90.000000
0
LINE
8
0
10
3083.341865
20
1247.159044
30
0.0
11
3082.967262
21
1247.058224
31
0.0
0
ARC
8
0
10
3083.080487
20
1246.758967
30
0.0
40
0.319960
50
110.724356
51
202.458147
0
LINE
8
0
10
3082.793589
20
1246.621394
30
0.0
11
3081.248947
21
1245.454396
31
0.0
0
ARC
8
0
10
3081.089370
20
1245.333834
30
0.0
40
0.200000
50
216.039809
51
37.071526
0
LINE
8
0
10
3080.927648
20
1245.216164
30
0.0
11
3078.829696
21
1247.936714
31
0.0
0
ARC
8
0
10
3079.114603
20
1248.030670
30
0.0
40
0.300000
50
92.605413
51
198.251415
0
LINE
8
0
10
3079.111218
20
1248.330694
30
0.0
11
3080.164013
21
1248.360538
31
0.0
0
LINE
8
0
10
3080.164013
20
1248.360538
30
0.0
11
3080.226873
21
1248.154933
31
0.0
0
LINE
8
0
10
3080.226873
20
1248.154933
30
0.0
11
3080.611941
21
1247.689795
31
0.0
0
ARC
8
0
10
3081.450055
20
1248.235996
30
0.0
40
1.000000
50
213.092391
51
303.509063
0
LINE
8
0
10
3082.001802
20
1247.402683
30
0.0
11
3083.082426
21
1248.086470
31
0.0
0
ARC
8
0
10
3082.824779
20
1248.535053
30
0.0
40
0.517309
50
299.871270
51
357.118130
0
LINE
8
0
10
3083.341433
20
1248.509044
30
0.0
11
3083.541865
21
1248.509044
31
0.0
0
ARC
8
0
10
3083.541865
20
1248.809044
30
0.0
40
0.300000
50
270.000000
51
0.000000
0
LINE
8
0
10
3083.841865
20
1248.809044
30
0.0
11
3083.841865
21
1251.513190
31
0.0
0
ARC
8
0
10
3083.541865
20
1251.513190
30
0.0
40
0.300000
50
0.000000
51
90.000000
0
LINE
8
0
10
3083.541865
20
1251.813190
30
0.0
11
3082.141433
21
1251.813190
31
0.0
0
ARC
8
0
10
3082.141433
20
1252.313190
30
0.0
40
0.500000
50
180.000000
51
270.000000
0
LINE
8
0
10
3081.641433
20
1252.313190
30
0.0
11
3081.641433
21
1254.413190
31
0.0
0
ARC
8
0
10
3082.116433
20
1254.438190
30
0.0
40
0.475657
50
356.987212
51
183.012788
0
LINE
8
0
10
3082.591433
20
1254.413190
30
0.0
11
3082.591433
21
1253.413190
31
0.0
0
LINE
8
0
10
3082.591433
20
1253.413190
30
0.0
11
3085.091433
21
1253.413190
31
0.0
0
LINE
8
0
10
3085.091433
20
1253.413190
30
0.0
11
3085.091433
21
1262.913190
31
0.0
0
LINE
8
0
10
3085.091433
20
1262.913190
30
0.0
11
3082.591433
21
1262.913190
31
0.0
0
LINE
8
0
10
3082.591433
20
1262.913190
30
0.0
11
3082.591433
21
1261.913190
31
0.0
0
ARC
8
0
10
3082.116433
20
1261.888190
30
0.0
40
0.475657
50
176.987212
51
3.012788
0
LINE
8
0
10
3081.641433
20
1261.913190
30
0.0
11
3081.641433
21
1265.763190
31
0.0
0
ARC
8
0
10
3082.141433
20
1265.763190
30
0.0
40
0.500000
50
0.000000
51
180.000000
0
LINE
8
0
10
3082.641433
20
1265.763190
30
0.0
11
3082.641433
21
1264.513190
31
0.0
0
LINE
8
0
10
3082.641433
20
1264.513190
30
0.0
11
3083.841433
21
1264.513190
31
0.0
0
LINE
8
0
10
3083.841433
20
1264.513190
30
0.0
11
3083.841433
21
1272.013190
31
0.0
0
LINE
8
0
10
3083.841433
20
1272.013190
30
0.0
11
3082.641433
21
1272.013190
31
0.0
0
LINE
8
0
10
3082.641433
20
1272.013190
30
0.0
11
3082.641433
21
1270.763190
31
0.0
0
ARC
8
0
10
3082.141433
20
1270.763190
30
0.0
40
0.500000
50
180.000000
51
0.000000
0
LINE
8
0
10
3081.641433
20
1270.763190
30
0.0
11
3081.641433
21
1273.013190
31
0.0
0
ARC
8
0
10
3082.141433
20
1273.013190
30
0.0
40
0.500000
50
90.000000
51
180.000000
0
LINE
8
0
10
3082.141433
20
1273.513190
30
0.0
11
3091.641433
21
1273.513190
31
0.0
0
ARC
8
0
10
3091.641433
20
1273.013190
30
0.0
40
0.500000
50
0.000000
51
90.000000
0
LINE
8
0
10
3092.141433
20
1273.013190
30
0.0
11
3092.141433
21
1222.509044
31
0.0
0
ARC
8
0
10
3091.641433
20
1222.509044
30
0.0
40
0.500000
50
270.000000
51
0.000000
0
LINE
8
0
10
3091.641433
20
1222.009044
30
0.0
11
3086.141433
21
1222.009044
31
0.0
0
ARC
8
0
10
3086.141433
20
1221.509044
30
0.0
40
0.500000
50
90.000000
51
180.000000
0
LINE
8
0
10
3085.641433
20
1221.509044
30
0.0
11
3085.641433
21
1213.509044
31
0.0
0
LINE
8
0
10
3032.441865
20
1246.809044
30
0.0
11
3057.641865
21
1246.809044
31
0.0
0
LINE
8
0
10
3057.641865
20
1246.809044
30
0.0
11
3057.641865
21
1215.209044
31
0.0
0
LINE
8
0
10
3057.641865
20
1215.209044
30
0.0
11
3032.441865
21
1215.209044
31
0.0
0
LINE
8
0
10
3032.441865
20
1215.209044
30
0.0
11
3032.441865
21
1216.709044
31
0.0
0
LINE
8
0
10
3032.441865
20
1216.709044
30
0.0
11
3031.441904
21
1216.709044
31
0.0
0
LINE
8
0
10
3031.441904
20
1216.709044
30
0.0
11
3031.441904
21
1245.309044
31
0.0
0
LINE
8
0
10
3031.441904
20
1245.309044
30
0.0
11
3032.441865
21
1245.309044
31
0.0
0
LINE
8
0
10
3032.441865
20
1245.309044
30
0.0
11
3032.441865
21
1246.809044
31
0.0
0
LINE
8
0
10
3063.572511
20
1248.328391
30
0.0
11
3062.915890
21
1248.347004
31
0.0
0
ARC
8
0
10
3062.901722
20
1247.847205
30
0.0
40
0.500000
50
88.376251
51
128.194227
0
ARC
8
0
10
3061.355899
20
1249.812003
30
0.0
40
2.000000
50
236.002945
51
308.194227
0
LINE
8
0
10
3060.237598
20
1248.153870
30
0.0
11
3059.575962
21
1248.478390
31
0.0
0
ARC
8
0
10
3059.443853
20
1248.209044
30
0.0
40
0.300000
50
63.872968
51
90.000000
0
LINE
8
0
10
3059.443853
20
1248.509044
30
0.0
11
3050.741904
21
1248.509044
31
0.0
0
LINE
8
0
10
3050.741904
20
1248.509044
30
0.0
11
3050.741904
21
1253.509044
31
0.0
0
LINE
8
0
10
3050.741904
20
1253.509044
30
0.0
11
3048.241904
21
1253.509044
31
0.0
0
LINE
8
0
10
3048.241904
20
1253.509044
30
0.0
11
3047.241904
21
1252.509044
31
0.0
0
LINE
8
0
10
3047.241904
20
1252.509044
30
0.0
11
3047.241904
21
1251.509044
31
0.0
0
LINE
8
0
10
3047.241904
20
1251.509044
30
0.0
11
3049.241904
21
1251.509044
31
0.0
0
LINE
8
0
10
3049.241904
20
1251.509044
30
0.0
11
3049.241904
21
1248.509044
31
0.0
0
LINE
8
0
10
3049.241904
20
1248.509044
30
0.0
11
3031.241904
21
1248.509044
31
0.0
0
LINE
8
0
10
3031.241904
20
1248.509044
30
0.0
11
3031.241904
21
1251.509044
31
0.0
0
LINE
8
0
10
3031.241904
20
1251.509044
30
0.0
11
3033.241904
21
1251.509044
31
0.0
0
LINE
8
0
10
3033.241904
20
1251.509044
30
0.0
11
3033.241904
21
1252.509044
31
0.0
0
LINE
8
0
10
3033.241904
20
1252.509044
30
0.0
11
3032.241904
21
1253.509044
31
0.0
0
LINE
8
0
10
3032.241904
20
1253.509044
30
0.0
11
3029.741904
21
1253.509044
31
0.0
0
LINE
8
0
10
3029.741904
20
1253.509044
30
0.0
11
3029.741904
21
1192.009044
31
0.0
0
ARC
8
0
10
3030.241904
20
1192.009044
30
0.0
40
0.500000
50
180.000000
51
270.000000
0
LINE
8
0
10
3030.241904
20
1191.509044
30
0.0
11
3032.741904
21
1191.509044
31
0.0
0
ARC
8
0
10
3032.741904
20
1192.009044
30
0.0
40
0.500000
50
270.000000
51
0.000000
0
LINE
8
0
10
3033.241904
20
1192.009044
30
0.0
11
3033.241904
21
1192.759044
31
0.0
0
LINE
8
0
10
3033.241904
20
1192.759044
30
0.0
11
3032.741904
21
1194.259044
31
0.0
0
LINE
8
0
10
3032.741904
20
1194.259044
30
0.0
11
3032.241904
21
1194.259044
31
0.0
0
LINE
8
0
10
3032.241904
20
1194.259044
30
0.0
11
3032.241904
21
1192.759044
31
0.0
0
LINE
8
0
10
3032.241904
20
1192.759044
30
0.0
11
3030.941904
21
1192.759044
31
0.0
0
LINE
8
0
10
3030.941904
20
1192.759044
30
0.0
11
3030.941904
21
1199.259044
31
0.0
0
LINE
8
0
10
3030.941904
20
1199.259044
30
0.0
11
3032.241904
21
1199.259044
31
0.0
0
LINE
8
0
10
3032.241904
20
1199.259044
30
0.0
11
3032.241904
21
1197.759044
31
0.0
0
LINE
8
0
10
3032.241904
20
1197.759044
30
0.0
11
3032.741904
21
1197.759044
31
0.0
0
LINE
8
0
10
3032.741904
20
1197.759044
30
0.0
11
3033.241904
21
1199.259044
31
0.0
0
LINE
8
0
10
3033.241904
20
1199.259044
30
0.0
11
3033.241904
21
1201.508520
31
0.0
0
ARC
8
0
10
3032.941904
20
1201.508520
30
0.0
40
0.300000
50
0.000000
51
104.693265
0
ARC
8
0
10
3032.789718
20
1201.508520
30
0.0
40
0.300000
50
75.306735
51
180.000000
0
LINE
8
0
10
3032.489718
20
1201.508520
30
0.0
11
3032.489718
21
1200.709044
31
0.0
0
LINE
8
0
10
3032.489718
20
1200.709044
30
0.0
11
3031.341904
21
1200.709044
31
0.0
0
LINE
8
0
10
3031.341904
20
1200.709044
30
0.0
11
3031.341904
21
1213.509044
31
0.0
0
LINE
8
0
10
3031.341904
20
1213.509044
30
0.0
11
3032.489718
21
1213.509044
31
0.0
0
LINE
8
0
10
3032.489718
20
1213.509044
30
0.0
11
3032.489718
21
1212.709568
31
0.0
0
ARC
8
0
10
3032.789718
20
1212.709568
30
0.0
40
0.300000
50
180.000000
51
284.693265
0
ARC
8
0
10
3032.941904
20
1212.709568
30
0.0
40
0.300000
50
255.306735
51
0.000000
0
LINE
8
0
10
3033.241904
20
1212.709568
30
0.0
11
3033.241904
21
1213.509044
31
0.0
0
LINE
8
0
10
3033.241904
20
1213.509044
30
0.0
11
3036.241865
21
1213.509044
31
0.0
0
LINE
8
0
10
3036.241865
20
1213.509044
30
0.0
11
3036.241865
21
1210.509044
31
0.0
0
ARC
8
0
10
3036.241904
20
1210.009044
30
0.0
40
0.500000
50
90.000000
51
180.000000
0
LINE
8
0
10
3035.741904
20
1210.009044
30
0.0
11
3035.741904
21
1209.509044
31
0.0
0
ARC
8
0
10
3036.241904
20
1209.509044
30
0.0
40
0.500000
50
180.000000
51
270.000000
0
LINE
8
0
10
3036.241904
20
1209.009044
30
0.0
11
3040.241865
21
1209.009044
31
0.0
0
LINE
8
0
10
3040.241865
20
1209.009044
30
0.0
11
3040.241865
21
1210.509044
31
0.0
0
LINE
8
0
10
3040.241865
20
1210.509044
30
0.0
11
3037.741865
21
1210.509044
31
0.0
0
LINE
8
0
10
3037.741865
20
1210.509044
30
0.0
11
3037.741865
21
1213.509044
31
0.0
0
LINE
8
0
10
3037.741865
20
1213.509044
30
0.0
11
3057.741865
21
1213.509044
31
0.0
0
LINE
8
0
10
3057.741865
20
1213.509044
30
0.0
11
3057.741865
21
1210.509044
31
0.0
0
LINE
8
0
10
3057.741865
20
1210.509044
30
0.0
11
3055.241865
21
1210.509044
31
0.0
0
LINE
8
0
10
3055.241865
20
1210.509044
30
0.0
11
3055.241865
21
1209.009044
31
0.0
0
LINE
8
0
10
3055.241865
20
1209.009044
30
0.0
11
3059.441865
21
1209.009044
31
0.0
0
LINE
8
0
10
3059.441865
20
1209.009044
30
0.0
11
3060.218917
21
1211.909044
31
0.0
0
LINE
8
0
10
3060.218917
20
1211.909044
30
0.0
11
3059.341865
21
1211.909044
31
0.0
0
LINE
8
0
10
3059.341865
20
1211.909044
30
0.0
11
3059.341865
21
1213.244243
31
0.0
0
ARC
8
0
10
3059.641865
20
1213.244243
30
0.0
40
0.300000
50
116.127032
51
180.000000
0
LINE
8
0
10
3059.509756
20
1213.513588
30
0.0
11
3060.237598
21
1213.870581
31
0.0
0
ARC
8
0
10
3061.355899
20
1212.212448
30
0.0
40
2.000000
50
51.805773
51
123.997055
0
ARC
8
0
10
3062.901722
20
1214.177246
30
0.0
40
0.500000
50
231.805773
51
271.623749
0
LINE
8
0
10
3062.915890
20
1213.677447
30
0.0
11
3063.572511
21
1213.696060
31
0.0
0
ARC
8
0
10
3063.569126
20
1213.996085
30
0.0
40
0.300000
50
272.605413
51
18.251415
0
LINE
8
0
10
3063.854034
20
1214.090041
30
0.0
11
3061.789746
21
1216.756482
31
0.0
0
ARC
8
0
10
3061.643151
20
1216.686647
30
0.0
40
0.162380
50
25.472270
51
217.320431
0
ARC
8
0
10
3061.334619
20
1216.499789
30
0.0
40
0.200000
50
308.823976
51
26.234983
0
LINE
8
0
10
3061.460005
20
1216.343974
30
0.0
11
3059.816835
21
1215.021699
31
0.0
0
ARC
8
0
10
3059.628756
20
1215.255422
30
0.0
40
0.300000
50
287.000000
51
308.823976
0
LINE
8
0
10
3059.716468
20
1214.968531
30
0.0
11
3059.341865
21
1214.867711
31
0.0
0
ARC
8
0
10
3059.341865
20
1215.167711
30
0.0
40
0.300000
50
90.000000
51
270.000000
0
LINE
8
0
10
3059.341865
20
1215.467711
30
0.0
11
3059.341865
21
1219.967711
31
0.0
0
ARC
8
0
10
3059.541865
20
1219.967711
30
0.0
40
0.200000
50
90.000000
51
180.000000
0
LINE
8
0
10
3059.541865
20
1220.167711
30
0.0
11
3059.609754
21
1220.167711
31
0.0
0
ARC
8
0
10
3059.609754
20
1219.867711
30
0.0
40
0.300000
50
58.619868
51
90.000000
0
LINE
8
0
10
3059.765968
20
1220.123830
30
0.0
11
3061.441961
21
1219.101597
31
0.0
0
ARC
8
0
10
3061.641865
20
1219.095407
30
0.0
40
0.200000
50
180.000000
51
0.000000
0
LINE
8
0
10
3061.841865
20
1219.095407
30
0.0
11
3061.841865
21
1220.502397
31
0.0
0
ARC
8
0
10
3061.641865
20
1220.502397
30
0.0
40
0.200000
50
0.000000
51
58.619868
0
LINE
8
0
10
3061.746008
20
1220.673144
30
0.0
11
3059.677365
21
1221.934864
31
0.0
0
ARC
8
0
10
3060.041865
20
1222.532476
30
0.0
40
0.700000
50
180.000000
51
238.619868
0
LINE
8
0
10
3059.341865
20
1222.532476
30
0.0
11
3059.341865
21
1239.491975
31
0.0
0
ARC
8
0
10
3060.041865
20
1239.491975
30
0.0
40
0.700000
50
121.380132
51
180.000000
0
LINE
8
0
10
3059.677365
20
1240.089587
30
0.0
11
3061.746008
21
1241.351307
31
0.0
0
ARC
8
0
10
3061.641865
20
1241.522054
30
0.0
40
0.200000
50
301.380132
51
0.000000
0
LINE
8
0
10
3061.841865
20
1241.522054
30
0.0
11
3061.841865
21
1242.929044
31
0.0
0
ARC
8
0
10
3061.641865
20
1242.929044
30
0.0
40
0.200000
50
0.000000
51
180.000000
0
LINE
8
0
10
3061.441961
20
1242.922854
30
0.0
11
3059.765968
21
1241.900621
31
0.0
0
ARC
8
0
10
3059.609754
20
1242.156740
30
0.0
40
0.300000
50
270.000000
51
301.380132
0
LINE
8
0
10
3059.609754
20
1241.856740
30
0.0
11
3059.541865
21
1241.856740
31
0.0
0
ARC
8
0
10
3059.541865
20
1242.056740
30
0.0
40
0.200000
50
180.000000
51
270.000000
0
LINE
8
0
10
3059.341865
20
1242.056740
30
0.0
11
3059.341865
21
1246.556740
31
0.0
0
ARC
8
0
10
3059.341865
20
1246.856740
30
0.0
40
0.300000
50
90.000000
51
270.000000
0
LINE
8
0
10
3059.341865
20
1247.156740
30
0.0
11
3059.767998
21
1247.042052
31
0.0
0
LINE
8
0
10
3059.767998
20
1247.042052
30
0.0
11
3061.460005
21
1245.680477
31
0.0
0
ARC
8
0
10
3061.334619
20
1245.524662
30
0.0
40
0.200000
50
0.000000
51
51.176024
0
LINE
8
0
10
3061.534497
20
1245.517682
30
0.0
11
3061.529067
21
1245.362195
31
0.0
0
ARC
8
0
10
3061.674599
20
1245.357113
30
0.0
40
0.145621
50
180.000000
51
322.253920
0
LINE
8
0
10
3061.789746
20
1245.267969
30
0.0
11
3063.854034
21
1247.934410
31
0.0
0
ARC
8
0
10
3063.569126
20
1248.028366
30
0.0
40
0.300000
50
341.748585
51
90.000000
0
ATTDEF
8
0
10
3050.741904
20
1253.509044
30
0.0
40
3.5
1

3

2
VC_START
70
0
0
ATTDEF
8
0
10
3057.341865
20
1209.009044
30
0.0
40
3.5
1

3

2
VC_END
70
0
0
ATTDEF
8
0
10
3092.141433
20
1191.509044
30
0.0
40
3.5
1

3

2
FP_LCS_ORIG
70
0
0
ATTDEF
8
0
10
3082.141433
20
1191.509044
30
0.0
40
3.5
1

3

2
FP_LCS_HOT
70
0
0
ATTDEF
8
0
10
3092.141433
20
1201.509044
30
0.0
40
3.5
1

3

2
FP_LCS_INTERN
70
0
0
ATTDEF
8
0
10
0.000000
20
0.000000
30
0.0
40
3.5
1

3

2
PANE_WIDTH:0
70
0
0
ATTDEF
8
0
10
0.000000
20
0.000000
30
0.0
40
3.5
1

3

2
MIN_VETRO:0
70
0
0
ATTDEF
8
0
10
0.000000
20
0.000000
30
0.0
40
3.5
1

3

2
MAX_VETRO:0
70
0
0
ATTDEF
8
0
10
0.000000
20
0.000000
30
0.0
40
3.5
1

3

2
JX:0
70
0
0
ATTDEF
8
0
10
0.000000
20
0.000000
30
0.0
40
3.5
1

3

2
WX:0
70
0
0
ATTDEF
8
0
10
0.000000
20
0.000000
30
0.0
40
3.5
1

3

2
JY:0
70
0
0
ATTDEF
8
0
10
0.000000
20
0.000000
30
0.0
40
3.5
1

3

2
WY:0
70
0
0
ATTDEF
8
0
10
0.000000
20
0.000000
30
0.0
40
3.5
1

3

2
DESC:H.balconera canto recto
70
0
0
ATTDEF
8
0
10
0.000000
20
0.000000
30
0.0
40
3.5
1

3

2
DENS:1.791
70
0
0
ATTDEF
8
0
10
0.000000
20
0.000000
30
0.0
40
3.5
1

3

2
TDEV:69.61
70
0
0
ATTDEF
8
0
10
0.000000
20
0.000000
30
0.0
40
3.5
1

3

2
TDEV2:0
70
0
0
ATTDEF
8
0
10
0.000000
20
0.000000
30
0.0
40
3.5
1

3

2
TDEV3:0
70
0
0
ATTDEF
8
0
10
0.000000
20
0.000000
30
0.0
40
3.5
1

3

2
TDEV4:0
70
0
0
ATTDEF
8
0
10
0.000000
20
0.000000
30
0.0
40
3.5
1

3

2
TDEV5:0
70
0
0
ATTDEF
8
0
10
0.000000
20
0.000000
30
0.0
40
3.5
1

3

2
PANE_WIDTH:0
70
0
0
ATTDEF
8
0
10
0.000000
20
0.000000
30
0.0
40
3.5
1

3

2
MIN_VETRO:0
70
0
0
ATTDEF
8
0
10
0.000000
20
0.000000
30
0.0
40
3.5
1

3

2
MAX_VETRO:0
70
0
0
ATTDEF
8
0
10
0.000000
20
0.000000
30
0.0
40
3.5
1

3

2
JX:0
70
0
0
ATTDEF
8
0
10
0.000000
20
0.000000
30
0.0
40
3.5
1

3

2
WX:0
70
0
0
ATTDEF
8
0
10
0.000000
20
0.000000
30
0.0
40
3.5
1

3

2
JY:0
70
0
0
ATTDEF
8
0
10
0.000000
20
0.000000
30
0.0
40
3.5
1

3

2
WY:0
70
0
0
ENDSEC
0
EOF
