0
SECTION
2
ENTITIES
0
ARC
8
0
10
25.046064
20
48.320166
30
0.0
40
0.600000
50
0.000000
51
180.000000
0
ARC
8
0
10
25.046064
20
48.320166
30
0.0
40
0.600000
50
180.000000
51
0.000000
0
ARC
8
0
10
2.546064
20
48.320166
30
0.0
40
0.600000
50
0.000000
51
180.000000
0
ARC
8
0
10
2.546064
20
48.320166
30
0.0
40
0.600000
50
180.000000
51
0.000000
0
ARC
8
0
10
25.050133
20
39.794390
30
0.0
40
0.600000
50
0.000000
51
180.000000
0
ARC
8
0
10
25.050133
20
39.794390
30
0.0
40
0.600000
50
180.000000
51
0.000000
0
ARC
8
0
10
2.550133
20
39.794390
30
0.0
40
0.600000
50
0.000000
51
180.000000
0
ARC
8
0
10
2.550133
20
39.794390
30
0.0
40
0.600000
50
180.000000
51
0.000000
0
LINE
8
0
10
52.900133
20
51.000000
30
0.0
11
27.300133
21
51.000000
31
0.0
0
LINE
8
0
10
27.300133
20
51.000000
30
0.0
11
27.300133
21
37.000000
31
0.0
0
LINE
8
0
10
27.300133
20
37.000000
30
0.0
11
52.900133
21
37.000000
31
0.0
0
LINE
8
0
10
52.900133
20
37.000000
30
0.0
11
52.900133
21
51.000000
31
0.0
0
ARC
8
0
10
25.665752
20
35.700000
30
0.0
40
0.200000
50
226.442716
51
270.000000
0
LINE
8
0
10
25.665752
20
35.500000
30
0.0
11
52.899701
21
35.500000
31
0.0
0
LINE
8
0
10
52.899701
20
35.500000
30
0.0
11
52.899701
21
32.000000
31
0.0
0
LINE
8
0
10
52.899701
20
32.000000
30
0.0
11
50.707992
21
32.000000
31
0.0
0
LINE
8
0
10
50.707992
20
32.000000
30
0.0
11
50.505919
21
32.350000
31
0.0
0
LINE
8
0
10
50.505919
20
32.350000
30
0.0
11
49.899701
21
32.000000
31
0.0
0
LINE
8
0
10
49.899701
20
32.000000
30
0.0
11
50.765727
21
30.500000
31
0.0
0
LINE
8
0
10
50.765727
20
30.500000
30
0.0
11
54.399701
21
30.500000
31
0.0
0
LINE
8
0
10
54.399701
20
30.500000
30
0.0
11
54.399701
21
57.500000
31
0.0
0
LINE
8
0
10
54.399701
20
57.500000
30
0.0
11
51.899701
21
57.500000
31
0.0
0
LINE
8
0
10
51.899701
20
57.500000
30
0.0
11
50.899701
21
56.500000
31
0.0
0
LINE
8
0
10
50.899701
20
56.500000
30
0.0
11
50.899701
21
55.500000
31
0.0
0
LINE
8
0
10
50.899701
20
55.500000
30
0.0
11
52.899701
21
55.500000
31
0.0
0
LINE
8
0
10
52.899701
20
55.500000
30
0.0
11
52.899701
21
52.500000
31
0.0
0
LINE
8
0
10
52.899701
20
52.500000
30
0.0
11
34.899701
21
52.500000
31
0.0
0
LINE
8
0
10
34.899701
20
52.500000
30
0.0
11
34.899701
21
55.500000
31
0.0
0
LINE
8
0
10
34.899701
20
55.500000
30
0.0
11
36.899701
21
55.500000
31
0.0
0
LINE
8
0
10
36.899701
20
55.500000
30
0.0
11
36.899701
21
56.500000
31
0.0
0
LINE
8
0
10
36.899701
20
56.500000
30
0.0
11
35.899701
21
57.500000
31
0.0
0
LINE
8
0
10
35.899701
20
57.500000
30
0.0
11
32.949701
21
57.500000
31
0.0
0
LINE
8
0
10
32.949701
20
57.500000
30
0.0
11
31.949701
21
56.500000
31
0.0
0
LINE
8
0
10
31.949701
20
56.500000
30
0.0
11
31.949701
21
55.500000
31
0.0
0
LINE
8
0
10
31.949701
20
55.500000
30
0.0
11
33.399701
21
55.500000
31
0.0
0
LINE
8
0
10
33.399701
20
55.500000
30
0.0
11
33.399701
21
52.500000
31
0.0
0
LINE
8
0
10
33.399701
20
52.500000
30
0.0
11
27.299701
21
52.500000
31
0.0
0
LINE
8
0
10
27.299701
20
52.500000
30
0.0
11
27.299701
21
55.500000
31
0.0
0
LINE
8
0
10
27.299701
20
55.500000
30
0.0
11
28.749701
21
55.500000
31
0.0
0
LINE
8
0
10
28.749701
20
55.500000
30
0.0
11
28.749701
21
56.500000
31
0.0
0
LINE
8
0
10
28.749701
20
56.500000
30
0.0
11
27.749701
21
57.500000
31
0.0
0
LINE
8
0
10
27.749701
20
57.500000
30
0.0
11
25.799701
21
57.500000
31
0.0
0
LINE
8
0
10
25.799701
20
57.500000
30
0.0
11
25.799701
21
53.026762
31
0.0
0
ARC
8
0
10
25.049701
20
53.026762
30
0.0
40
0.750000
50
316.049470
51
0.000000
0
ARC
8
0
10
24.149777
20
53.894308
30
0.0
40
2.000000
50
226.465725
51
316.049470
0
ARC
8
0
10
22.427806
20
52.081902
30
0.0
40
0.500000
50
46.465725
51
90.000000
0
LINE
8
0
10
22.427806
20
52.581902
30
0.0
11
21.739010
21
52.581902
31
0.0
0
ARC
8
0
10
21.739010
20
52.281902
30
0.0
40
0.300000
50
90.000000
51
210.497622
0
LINE
8
0
10
21.480515
20
52.129651
30
0.0
11
22.904218
21
49.712453
31
0.0
0
LINE
8
0
10
22.946832
20
49.656388
30
0.0
11
22.904218
21
49.712453
31
0.0
0
LINE
8
0
10
22.946832
20
49.656388
30
0.0
11
23.407000
21
49.179507
31
0.0
0
ARC
8
0
10
23.511789
20
49.280624
30
0.0
40
0.145621
50
223.978161
51
0.000000
0
LINE
8
0
10
23.657113
20
49.289917
30
0.0
11
23.647184
21
49.445182
31
0.0
0
ARC
8
0
10
23.846777
20
49.457945
30
0.0
40
0.200000
50
130.482877
51
183.658900
0
LINE
8
0
10
23.716932
20
49.610065
30
0.0
11
25.321135
21
50.979354
31
0.0
0
ARC
8
0
10
25.515901
20
50.751174
30
0.0
40
0.300000
50
108.658900
51
130.482877
0
LINE
8
0
10
25.419921
20
51.035406
30
0.0
11
25.704153
21
51.131386
31
0.0
0
ARC
8
0
10
25.800133
20
50.847154
30
0.0
40
0.300000
50
270.000000
51
108.658900
0
LINE
8
0
10
25.800133
20
50.547154
30
0.0
11
25.800133
21
46.047154
31
0.0
0
ARC
8
0
10
25.600133
20
46.047154
30
0.0
40
0.200000
50
270.000000
51
0.000000
0
LINE
8
0
10
25.600133
20
45.847154
30
0.0
11
25.532244
21
45.847154
31
0.0
0
ARC
8
0
10
25.532244
20
46.147154
30
0.0
40
0.300000
50
238.619868
51
270.000000
0
LINE
8
0
10
25.376030
20
45.891035
30
0.0
11
23.700037
21
46.913268
31
0.0
0
ARC
8
0
10
23.500133
20
46.919458
30
0.0
40
0.200000
50
0.000000
51
180.000000
0
LINE
8
0
10
23.300133
20
46.919458
30
0.0
11
23.300133
21
45.512467
31
0.0
0
ARC
8
0
10
23.500133
20
45.512467
30
0.0
40
0.200000
50
180.000000
51
238.619868
0
LINE
8
0
10
23.395990
20
45.341721
30
0.0
11
24.610221
21
44.601129
31
0.0
0
ARC
8
0
10
24.245722
20
44.003517
30
0.0
40
0.700000
50
0.000000
51
58.619868
0
ARC
8
0
10
24.245722
20
43.996482
30
0.0
40
0.700000
50
301.380132
51
0.000000
0
LINE
8
0
10
24.610221
20
43.398870
30
0.0
11
23.395990
21
42.658278
31
0.0
0
ARC
8
0
10
23.500133
20
42.487532
30
0.0
40
0.200000
50
121.380132
51
180.000000
0
LINE
8
0
10
23.300133
20
42.487532
30
0.0
11
23.300133
21
41.080542
31
0.0
0
ARC
8
0
10
23.500133
20
41.080542
30
0.0
40
0.200000
50
180.000000
51
0.000000
0
LINE
8
0
10
23.700037
20
41.086732
30
0.0
11
25.376030
21
42.108965
31
0.0
0
ARC
8
0
10
25.532244
20
41.852845
30
0.0
40
0.300000
50
90.000000
51
121.380132
0
LINE
8
0
10
25.532244
20
42.152845
30
0.0
11
25.600133
21
42.152845
31
0.0
0
ARC
8
0
10
25.600133
20
41.952845
30
0.0
40
0.200000
50
0.000000
51
90.000000
0
LINE
8
0
10
25.800133
20
41.952845
30
0.0
11
25.800133
21
37.452845
31
0.0
0
ARC
8
0
10
25.800133
20
37.152845
30
0.0
40
0.300000
50
251.341100
51
90.000000
0
LINE
8
0
10
25.704153
20
36.868613
30
0.0
11
25.419921
21
36.964593
31
0.0
0
ARC
8
0
10
25.515901
20
37.248825
30
0.0
40
0.300000
50
229.517123
51
251.341100
0
LINE
8
0
10
25.321135
20
37.020645
30
0.0
11
23.716932
21
38.389934
31
0.0
0
ARC
8
0
10
23.846777
20
38.542054
30
0.0
40
0.200000
50
176.341100
51
229.517123
0
LINE
8
0
10
23.647184
20
38.554818
30
0.0
11
23.657113
21
38.710082
31
0.0
0
ARC
8
0
10
23.511789
20
38.719375
30
0.0
40
0.145621
50
0.000000
51
136.021839
0
LINE
8
0
10
23.407000
20
38.820492
30
0.0
11
22.946832
21
38.343611
31
0.0
0
LINE
8
0
10
22.904218
20
38.287547
30
0.0
11
22.946832
21
38.343611
31
0.0
0
LINE
8
0
10
22.904218
20
38.287547
30
0.0
11
21.480515
21
35.870348
31
0.0
0
ARC
8
0
10
21.739010
20
35.718097
30
0.0
40
0.300000
50
149.502378
51
270.000000
0
LINE
8
0
10
21.739010
20
35.418097
30
0.0
11
22.427806
21
35.418097
31
0.0
0
ARC
8
0
10
22.427806
20
35.918097
30
0.0
40
0.500000
50
270.000000
51
313.534275
0
ARC
8
0
10
24.149777
20
34.105691
30
0.0
40
2.000000
50
46.442716
51
133.534275
0
ARC
8
0
10
2.000133
20
51.148093
30
0.0
40
0.350000
50
330.489758
51
219.715137
0
ARC
8
0
10
1.500133
20
50.732761
30
0.0
40
0.300000
50
0.000000
51
39.715137
0
LINE
8
0
10
1.800133
20
50.732761
30
0.0
11
1.800133
21
46.053517
31
0.0
0
ARC
8
0
10
2.000133
20
46.053517
30
0.0
40
0.200000
50
180.000000
51
270.000000
0
LINE
8
0
10
2.000133
20
45.853517
30
0.0
11
2.068022
21
45.853517
31
0.0
0
ARC
8
0
10
2.068022
20
46.153517
30
0.0
40
0.300000
50
270.000000
51
301.380132
0
LINE
8
0
10
2.224236
20
45.897398
30
0.0
11
3.900229
21
46.919630
31
0.0
0
ARC
8
0
10
4.100133
20
46.925821
30
0.0
40
0.200000
50
0.000000
51
180.000000
0
LINE
8
0
10
4.300133
20
46.925821
30
0.0
11
4.300133
21
45.518830
31
0.0
0
ARC
8
0
10
4.100133
20
45.518830
30
0.0
40
0.200000
50
301.380132
51
0.000000
0
LINE
8
0
10
4.204275
20
45.348084
30
0.0
11
2.984278
21
44.603975
31
0.0
0
ARC
8
0
10
3.348777
20
44.006363
30
0.0
40
0.700000
50
121.380132
51
238.619868
0
LINE
8
0
10
2.984278
20
43.408751
30
0.0
11
4.204275
21
42.664641
31
0.0
0
ARC
8
0
10
4.100133
20
42.493895
30
0.0
40
0.200000
50
0.000000
51
58.619868
0
LINE
8
0
10
4.300133
20
42.493895
30
0.0
11
4.300133
21
41.086905
31
0.0
0
ARC
8
0
10
4.100133
20
41.086905
30
0.0
40
0.200000
50
180.000000
51
0.000000
0
LINE
8
0
10
3.900229
20
41.093095
30
0.0
11
2.224236
21
42.115328
31
0.0
0
ARC
8
0
10
2.068022
20
41.859208
30
0.0
40
0.300000
50
58.619868
51
90.000000
0
LINE
8
0
10
2.068022
20
42.159208
30
0.0
11
2.000133
21
42.159208
31
0.0
0
ARC
8
0
10
2.000133
20
41.959208
30
0.0
40
0.200000
50
90.000000
51
180.000000
0
LINE
8
0
10
1.800133
20
41.959208
30
0.0
11
1.800133
21
37.279964
31
0.0
0
ARC
8
0
10
1.500133
20
37.279964
30
0.0
40
0.300000
50
320.284863
51
0.000000
0
ARC
8
0
10
2.000133
20
36.864633
30
0.0
40
0.350000
50
140.284863
51
29.510242
0
LINE
8
0
10
2.304726
20
37.037035
30
0.0
11
3.918273
21
38.335472
31
0.0
0
ARC
8
0
10
3.792887
20
38.491287
30
0.0
40
0.200000
50
308.823976
51
0.000000
0
LINE
8
0
10
3.992765
20
38.498267
30
0.0
11
3.987335
21
38.653754
31
0.0
0
ARC
8
0
10
4.132867
20
38.658836
30
0.0
40
0.145621
50
37.746080
51
180.000000
0
LINE
8
0
10
4.248014
20
38.747980
30
0.0
11
6.312302
21
36.081539
31
0.0
0
ARC
8
0
10
6.027394
20
35.987583
30
0.0
40
0.300000
50
270.000000
51
18.251415
0
LINE
8
0
10
6.030779
20
35.687558
30
0.0
11
5.374158
21
35.668945
31
0.0
0
ARC
8
0
10
5.359990
20
36.168744
30
0.0
40
0.500000
50
231.805773
51
271.623749
0
ARC
8
0
10
3.814167
20
34.203946
30
0.0
40
2.000000
50
51.805773
51
123.997055
0
LINE
8
0
10
2.695866
20
35.862078
30
0.0
11
2.277483
21
35.656870
31
0.0
0
ARC
8
0
10
2.651047
20
34.831487
30
0.0
40
0.905984
50
114.351295
51
171.933337
0
LINE
8
0
10
1.754028
20
34.958619
30
0.0
11
1.500432
21
32.000000
31
0.0
0
LINE
8
0
10
1.500432
20
32.000000
30
0.0
11
1.691710
21
32.000000
31
0.0
0
LINE
8
0
10
1.691710
20
32.000000
30
0.0
11
1.893783
21
32.350000
31
0.0
0
LINE
8
0
10
1.893783
20
32.350000
30
0.0
11
2.500000
21
32.000000
31
0.0
0
LINE
8
0
10
2.500000
20
32.000000
30
0.0
11
1.633975
21
30.500000
31
0.0
0
LINE
8
0
10
1.633975
20
30.500000
30
0.0
11
0.000000
21
30.500000
31
0.0
0
LINE
8
0
10
0.000000
20
30.500000
30
0.0
11
0.000000
21
77.000000
31
0.0
0
ARC
8
0
10
0.500000
20
77.000000
30
0.0
40
0.500000
50
90.000000
51
180.000000
0
LINE
8
0
10
0.500000
20
77.500000
30
0.0
11
3.000000
21
77.500000
31
0.0
0
ARC
8
0
10
3.000000
20
77.000000
30
0.0
40
0.500000
50
0.000000
51
90.000000
0
LINE
8
0
10
3.500000
20
77.000000
30
0.0
11
3.500000
21
74.750000
31
0.0
0
ARC
8
0
10
3.000000
20
74.750000
30
0.0
40
0.500000
50
180.000000
51
0.000000
0
LINE
8
0
10
2.500000
20
74.750000
30
0.0
11
2.500000
21
76.000000
31
0.0
0
LINE
8
0
10
2.500000
20
76.000000
30
0.0
11
1.300000
21
76.000000
31
0.0
0
LINE
8
0
10
1.300000
20
76.000000
30
0.0
11
1.300000
21
68.500000
31
0.0
0
LINE
8
0
10
1.300000
20
68.500000
30
0.0
11
2.500000
21
68.500000
31
0.0
0
LINE
8
0
10
2.500000
20
68.500000
30
0.0
11
2.500000
21
69.750000
31
0.0
0
ARC
8
0
10
3.000000
20
69.750000
30
0.0
40
0.500000
50
0.000000
51
180.000000
0
LINE
8
0
10
3.500000
20
69.750000
30
0.0
11
3.500000
21
67.500000
31
0.0
0
ARC
8
0
10
3.000000
20
67.500000
30
0.0
40
0.500000
50
270.000000
51
0.000000
0
LINE
8
0
10
3.000000
20
67.000000
30
0.0
11
1.500000
21
67.000000
31
0.0
0
LINE
8
0
10
1.500000
20
67.000000
30
0.0
11
1.500000
21
57.500000
31
0.0
0
LINE
8
0
10
1.500000
20
57.500000
30
0.0
11
1.500000
21
55.500000
31
0.0
0
LINE
8
0
10
1.500000
20
55.500000
30
0.0
11
1.745098
21
53.052546
31
0.0
0
ARC
8
0
10
2.672253
20
53.209285
30
0.0
40
0.940311
50
189.595290
51
242.569775
0
LINE
8
0
10
2.239082
20
52.374690
30
0.0
11
2.695866
21
52.150647
31
0.0
0
ARC
8
0
10
3.814167
20
53.808780
30
0.0
40
2.000000
50
236.002945
51
308.194227
0
ARC
8
0
10
5.359990
20
51.843982
30
0.0
40
0.500000
50
88.376251
51
128.194227
0
LINE
8
0
10
5.374158
20
52.343781
30
0.0
11
6.030779
21
52.325167
31
0.0
0
ARC
8
0
10
6.027394
20
52.025143
30
0.0
40
0.300000
50
341.748585
51
87.394587
0
LINE
8
0
10
6.312302
20
51.931187
30
0.0
11
4.248014
21
49.264746
31
0.0
0
ARC
8
0
10
4.101418
20
49.334581
30
0.0
40
0.162380
50
142.679569
51
334.527730
0
ARC
8
0
10
3.792887
20
49.521438
30
0.0
40
0.200000
50
333.765017
51
51.176024
0
LINE
8
0
10
3.918273
20
49.677253
30
0.0
11
2.304726
21
50.975690
31
0.0
0
LINE
8
0
10
25.796064
20
49.733763
30
0.0
11
25.120947
21
50.408879
31
0.0
0
LINE
8
0
10
19.046064
20
56.483763
30
0.0
11
18.109660
21
57.420166
31
0.0
0
LINE
8
0
10
25.696064
20
47.588699
30
0.0
11
25.489596
21
47.795166
31
0.0
0
LINE
8
0
10
17.365548
20
55.919215
30
0.0
11
16.046853
21
57.237910
31
0.0
0
LINE
8
0
10
24.583026
20
48.701737
30
0.0
11
23.695964
21
49.588799
31
0.0
0
LINE
8
0
10
19.046064
20
54.238699
30
0.0
11
17.545113
21
55.739650
31
0.0
0
LINE
8
0
10
24.388833
20
46.650866
30
0.0
11
17.546064
21
53.493634
31
0.0
0
LINE
8
0
10
18.374468
20
50.420166
30
0.0
11
16.374468
21
52.420166
31
0.0
0
LINE
8
0
10
11.543680
20
57.250954
30
0.0
11
11.376852
21
57.417782
31
0.0
0
LINE
8
0
10
25.700133
20
40.849438
30
0.0
11
24.831975
21
41.717596
31
0.0
0
LINE
8
0
10
10.629404
20
55.920166
30
0.0
11
9.129404
21
57.420166
31
0.0
0
LINE
8
0
10
16.129404
20
50.420166
30
0.0
11
14.129404
21
52.420166
31
0.0
0
LINE
8
0
10
25.800133
20
38.504374
30
0.0
11
25.107380
21
39.197127
31
0.0
0
LINE
8
0
10
10.046064
20
54.258442
30
0.0
11
8.546064
21
55.758442
31
0.0
0
LINE
8
0
10
24.452870
20
39.851637
30
0.0
11
23.386542
21
40.917964
31
0.0
0
LINE
8
0
10
13.884340
20
50.420166
30
0.0
11
11.884340
21
52.420166
31
0.0
0
LINE
8
0
10
23.383116
20
38.676327
30
0.0
11
21.621454
21
40.437988
31
0.0
0
LINE
8
0
10
11.639276
20
50.420166
30
0.0
11
8.546064
21
53.513378
31
0.0
0
LINE
8
0
10
22.173270
20
37.641109
30
0.0
11
20.732614
21
39.081765
31
0.0
0
LINE
8
0
10
9.394212
20
50.420166
30
0.0
11
7.394212
21
52.420166
31
0.0
0
LINE
8
0
10
21.281365
20
36.287950
30
0.0
11
19.756030
21
37.813284
31
0.0
0
LINE
8
0
10
7.528778
20
50.040536
30
0.0
11
6.087542
21
51.481772
31
0.0
0
LINE
8
0
10
19.629861
20
35.694390
30
0.0
11
17.629861
21
37.694390
31
0.0
0
LINE
8
0
10
6.637074
20
48.687176
30
0.0
11
5.195637
21
50.128613
31
0.0
0
LINE
8
0
10
17.384797
20
35.694390
30
0.0
11
15.384797
21
37.694390
31
0.0
0
LINE
8
0
10
5.690674
20
47.388512
30
0.0
11
2.933982
21
50.145204
31
0.0
0
LINE
8
0
10
15.139733
20
35.694390
30
0.0
11
13.139733
21
37.694390
31
0.0
0
LINE
8
0
10
3.824202
20
47.009920
30
0.0
11
2.953970
21
47.880152
31
0.0
0
LINE
8
0
10
12.894669
20
35.694390
30
0.0
11
10.894669
21
37.694390
31
0.0
0
LINE
8
0
10
2.368892
20
46.220166
30
0.0
11
1.796064
21
46.792994
31
0.0
0
LINE
8
0
10
10.649605
20
35.694390
30
0.0
11
8.649605
21
37.694390
31
0.0
0
LINE
8
0
10
6.117268
20
40.226726
30
0.0
11
5.528307
21
40.815687
31
0.0
0
LINE
8
0
10
8.404540
20
35.694390
30
0.0
11
2.204540
21
41.894390
31
0.0
0
LINE
8
0
10
3.537733
20
38.316133
30
0.0
11
2.650946
21
39.202920
31
0.0
0
LINE
8
0
10
24.025256
20
38.337689
30
0.0
11
24.900830
21
39.213263
31
0.0
0
LINE
8
0
10
19.136893
20
35.694390
30
0.0
11
25.336893
21
41.894390
31
0.0
0
LINE
8
0
10
16.891829
20
35.694390
30
0.0
11
18.891829
21
37.694390
31
0.0
0
LINE
8
0
10
21.594880
20
40.397440
30
0.0
11
21.953716
21
40.756276
31
0.0
0
LINE
8
0
10
14.646765
20
35.694390
30
0.0
11
16.646765
21
37.694390
31
0.0
0
LINE
8
0
10
25.173043
20
46.220667
30
0.0
11
25.796064
21
46.843689
31
0.0
0
LINE
8
0
10
12.401701
20
35.694390
30
0.0
11
14.401701
21
37.694390
31
0.0
0
LINE
8
0
10
25.564580
20
48.857269
30
0.0
11
25.683962
21
48.976650
31
0.0
0
LINE
8
0
10
23.735806
20
47.028494
30
0.0
11
24.612609
21
47.905297
31
0.0
0
LINE
8
0
10
10.156637
20
35.694390
30
0.0
11
12.156637
21
37.694390
31
0.0
0
LINE
8
0
10
21.871535
20
47.409287
30
0.0
11
24.537939
21
50.075691
31
0.0
0
LINE
8
0
10
7.911573
20
35.694390
30
0.0
11
9.911573
21
37.694390
31
0.0
0
LINE
8
0
10
20.934984
20
48.717800
30
0.0
11
22.376352
21
50.159168
31
0.0
0
LINE
8
0
10
6.295528
20
36.323409
30
0.0
11
7.806641
21
37.834521
31
0.0
0
LINE
8
0
10
20.040500
20
50.068380
30
0.0
11
21.484447
21
51.512327
31
0.0
0
LINE
8
0
10
5.403623
20
37.676568
30
0.0
11
6.844360
21
39.117305
31
0.0
0
LINE
8
0
10
18.147222
20
50.420166
30
0.0
11
20.147222
21
52.420166
31
0.0
0
LINE
8
0
10
4.132089
20
38.650097
30
0.0
11
5.955027
21
40.473036
31
0.0
0
LINE
8
0
10
15.902158
20
50.420166
30
0.0
11
19.046064
21
53.564073
31
0.0
0
LINE
8
0
10
1.800133
20
38.563205
30
0.0
11
2.441275
21
39.204347
31
0.0
0
LINE
8
0
10
17.546064
20
54.309137
30
0.0
11
19.046064
21
55.809137
31
0.0
0
LINE
8
0
10
3.140175
20
39.903248
30
0.0
11
4.167769
21
40.930841
31
0.0
0
LINE
8
0
10
13.657094
20
50.420166
30
0.0
11
15.657094
21
52.420166
31
0.0
0
LINE
8
0
10
1.886253
20
40.894390
30
0.0
11
2.731015
21
41.739151
31
0.0
0
LINE
8
0
10
16.912030
20
55.920166
30
0.0
11
18.412030
21
57.420166
31
0.0
0
LINE
8
0
10
11.412030
20
50.420166
30
0.0
11
13.412030
21
52.420166
31
0.0
0
LINE
8
0
10
9.166966
20
50.420166
30
0.0
11
11.166966
21
52.420166
31
0.0
0
LINE
8
0
10
16.083580
20
57.336781
30
0.0
11
16.129450
21
57.382651
31
0.0
0
LINE
8
0
10
3.083088
20
46.581353
30
0.0
11
10.046064
21
53.544329
31
0.0
0
LINE
8
0
10
1.902618
20
47.645947
30
0.0
11
2.045284
21
47.788612
31
0.0
0
LINE
8
0
10
10.154801
20
55.898130
30
0.0
11
11.536849
21
57.280177
31
0.0
0
LINE
8
0
10
2.985436
20
48.728765
30
0.0
11
3.864044
21
49.607373
31
0.0
0
LINE
8
0
10
8.546064
20
54.289393
30
0.0
11
10.068100
21
55.811429
31
0.0
0
LINE
8
0
10
1.796064
20
49.784457
30
0.0
11
2.430176
21
50.418568
31
0.0
0
LINE
8
0
10
8.546064
20
56.534457
30
0.0
11
9.431774
21
57.420166
31
0.0
0
LINE
8
0
10
19.279041
20
50.420166
30
0.0
11
8.313087
21
50.420166
31
0.0
0
ARC
8
0
10
8.313087
20
49.420166
30
0.0
40
1.000000
50
90.000000
51
146.760000
0
LINE
8
0
10
7.476705
20
49.968314
30
0.0
11
5.971762
21
47.672019
31
0.0
0
ARC
8
0
10
5.135380
20
48.220166
30
0.0
40
1.000000
50
270.000000
51
326.760000
0
LINE
8
0
10
5.135380
20
47.220166
30
0.0
11
4.402433
21
47.220166
31
0.0
0
ARC
8
0
10
4.402433
20
46.420166
30
0.0
40
0.800000
50
90.000000
51
120.039706
0
LINE
8
0
10
4.001953
20
47.112709
30
0.0
11
2.500914
21
46.244697
31
0.0
0
LINE
8
0
10
2.500914
20
46.244697
30
0.0
11
2.404944
21
46.220166
31
0.0
0
LINE
8
0
10
2.404944
20
46.220166
30
0.0
11
2.196064
21
46.220166
31
0.0
0
ARC
8
0
10
2.196064
20
46.620166
30
0.0
40
0.400000
50
180.000000
51
270.000000
0
LINE
8
0
10
1.796064
20
46.620166
30
0.0
11
1.796064
21
47.220166
31
0.0
0
LINE
8
0
10
1.796064
20
47.220166
30
0.0
11
1.896064
21
47.220166
31
0.0
0
LINE
8
0
10
1.896064
20
47.220166
30
0.0
11
1.896064
21
47.595166
31
0.0
0
ARC
8
0
10
2.096064
20
47.595166
30
0.0
40
0.200000
50
90.000000
51
180.000000
0
LINE
8
0
10
2.096064
20
47.795166
30
0.0
11
2.255590
21
47.795166
31
0.0
0
ARC
8
0
10
2.546064
20
48.320166
30
0.0
40
0.600000
50
241.044976
51
0.000000
0
ARC
8
0
10
2.546064
20
48.320166
30
0.0
40
0.600000
50
0.000000
51
118.955024
0
LINE
8
0
10
2.255590
20
48.845166
30
0.0
11
2.096064
21
48.845166
31
0.0
0
ARC
8
0
10
2.096064
20
49.045166
30
0.0
40
0.200000
50
180.000000
51
270.000000
0
LINE
8
0
10
1.896064
20
49.045166
30
0.0
11
1.896064
21
49.420166
31
0.0
0
LINE
8
0
10
1.896064
20
49.420166
30
0.0
11
1.796064
21
49.420166
31
0.0
0
LINE
8
0
10
1.796064
20
49.420166
30
0.0
11
1.796064
21
50.020166
31
0.0
0
ARC
8
0
10
2.196064
20
50.020166
30
0.0
40
0.400000
50
90.000000
51
180.000000
0
LINE
8
0
10
2.196064
20
50.420166
30
0.0
11
2.404944
21
50.420166
31
0.0
0
LINE
8
0
10
2.404944
20
50.420166
30
0.0
11
2.500914
21
50.395636
31
0.0
0
LINE
8
0
10
2.500914
20
50.395636
30
0.0
11
4.032065
21
49.510211
31
0.0
0
ARC
8
0
10
4.367650
20
50.090532
30
0.0
40
0.670365
50
239.960294
51
326.610000
0
LINE
8
0
10
4.927367
20
49.721606
30
0.0
11
6.557871
21
52.195334
31
0.0
0
ARC
8
0
10
6.975343
20
51.920166
30
0.0
40
0.500000
50
90.000000
51
146.610000
0
LINE
8
0
10
6.975343
20
52.420166
30
0.0
11
8.046064
21
52.420166
31
0.0
0
ARC
8
0
10
8.046064
20
52.920166
30
0.0
40
0.500000
50
270.000000
51
0.000000
0
LINE
8
0
10
8.546064
20
52.920166
30
0.0
11
8.546064
21
57.220166
31
0.0
0
ARC
8
0
10
8.746064
20
57.220166
30
0.0
40
0.200000
50
90.000000
51
180.000000
0
LINE
8
0
10
8.746064
20
57.420166
30
0.0
11
11.346064
21
57.420166
31
0.0
0
ARC
8
0
10
11.346064
20
57.220166
30
0.0
40
0.200000
50
0.000000
51
90.000000
0
LINE
8
0
10
11.546064
20
57.220166
30
0.0
11
11.546064
21
56.120166
31
0.0
0
ARC
8
0
10
11.346064
20
56.120166
30
0.0
40
0.200000
50
270.000000
51
0.000000
0
LINE
8
0
10
11.346064
20
55.920166
30
0.0
11
10.246064
21
55.920166
31
0.0
0
ARC
8
0
10
10.246064
20
55.720166
30
0.0
40
0.200000
50
90.000000
51
180.000000
0
LINE
8
0
10
10.046064
20
55.720166
30
0.0
11
10.046064
21
52.920166
31
0.0
0
ARC
8
0
10
10.546064
20
52.920166
30
0.0
40
0.500000
50
180.000000
51
270.000000
0
LINE
8
0
10
10.546064
20
52.420166
30
0.0
11
13.796064
21
52.420166
31
0.0
0
LINE
8
0
10
13.796064
20
52.420166
30
0.0
11
17.046064
21
52.420166
31
0.0
0
ARC
8
0
10
17.046064
20
52.920166
30
0.0
40
0.500000
50
270.000000
51
0.000000
0
LINE
8
0
10
17.546064
20
52.920166
30
0.0
11
17.546064
21
55.720166
31
0.0
0
ARC
8
0
10
17.346064
20
55.720166
30
0.0
40
0.200000
50
0.000000
51
90.000000
0
LINE
8
0
10
17.346064
20
55.920166
30
0.0
11
16.246064
21
55.920166
31
0.0
0
ARC
8
0
10
16.246064
20
56.120166
30
0.0
40
0.200000
50
180.000000
51
270.000000
0
LINE
8
0
10
16.046064
20
56.120166
30
0.0
11
16.046064
21
57.220166
31
0.0
0
ARC
8
0
10
16.246064
20
57.220166
30
0.0
40
0.200000
50
90.000000
51
180.000000
0
LINE
8
0
10
16.246064
20
57.420166
30
0.0
11
18.846064
21
57.420166
31
0.0
0
ARC
8
0
10
18.846064
20
57.220166
30
0.0
40
0.200000
50
0.000000
51
90.000000
0
LINE
8
0
10
19.046064
20
57.220166
30
0.0
11
19.046064
21
52.920166
31
0.0
0
ARC
8
0
10
19.546064
20
52.920166
30
0.0
40
0.500000
50
180.000000
51
270.000000
0
LINE
8
0
10
19.546064
20
52.420166
30
0.0
11
20.616786
21
52.420166
31
0.0
0
ARC
8
0
10
20.616786
20
51.920166
30
0.0
40
0.500000
50
33.390000
51
90.000000
0
LINE
8
0
10
21.034258
20
52.195334
30
0.0
11
22.664761
21
49.721606
31
0.0
0
ARC
8
0
10
23.224478
20
50.090532
30
0.0
40
0.670365
50
213.390000
51
300.039706
0
LINE
8
0
10
23.560063
20
49.510211
30
0.0
11
25.091214
21
50.395636
31
0.0
0
LINE
8
0
10
25.091214
20
50.395636
30
0.0
11
25.187184
21
50.420166
31
0.0
0
LINE
8
0
10
25.187184
20
50.420166
30
0.0
11
25.396064
21
50.420166
31
0.0
0
ARC
8
0
10
25.396064
20
50.020166
30
0.0
40
0.400000
50
0.000000
51
90.000000
0
LINE
8
0
10
25.796064
20
50.020166
30
0.0
11
25.796064
21
49.420166
31
0.0
0
LINE
8
0
10
25.796064
20
49.420166
30
0.0
11
25.696064
21
49.420166
31
0.0
0
LINE
8
0
10
25.696064
20
49.420166
30
0.0
11
25.696064
21
49.045166
31
0.0
0
ARC
8
0
10
25.496064
20
49.045166
30
0.0
40
0.200000
50
270.000000
51
0.000000
0
LINE
8
0
10
25.496064
20
48.845166
30
0.0
11
25.336538
21
48.845166
31
0.0
0
ARC
8
0
10
25.046064
20
48.320166
30
0.0
40
0.600000
50
61.044976
51
180.000000
0
ARC
8
0
10
25.046064
20
48.320166
30
0.0
40
0.600000
50
180.000000
51
298.955024
0
LINE
8
0
10
25.336538
20
47.795166
30
0.0
11
25.496064
21
47.795166
31
0.0
0
ARC
8
0
10
25.496064
20
47.595166
30
0.0
40
0.200000
50
0.000000
51
90.000000
0
LINE
8
0
10
25.696064
20
47.595166
30
0.0
11
25.696064
21
47.220166
31
0.0
0
LINE
8
0
10
25.696064
20
47.220166
30
0.0
11
25.796064
21
47.220166
31
0.0
0
LINE
8
0
10
25.796064
20
47.220166
30
0.0
11
25.796064
21
46.620166
31
0.0
0
ARC
8
0
10
25.396064
20
46.620166
30
0.0
40
0.400000
50
270.000000
51
0.000000
0
LINE
8
0
10
25.396064
20
46.220166
30
0.0
11
25.187184
21
46.220166
31
0.0
0
LINE
8
0
10
25.187184
20
46.220166
30
0.0
11
25.091214
21
46.244697
31
0.0
0
LINE
8
0
10
25.091214
20
46.244697
30
0.0
11
23.590175
21
47.112709
31
0.0
0
ARC
8
0
10
23.189695
20
46.420166
30
0.0
40
0.800000
50
59.960294
51
90.000000
0
LINE
8
0
10
23.189695
20
47.220166
30
0.0
11
22.456748
21
47.220166
31
0.0
0
ARC
8
0
10
22.456748
20
48.220166
30
0.0
40
1.000000
50
213.240000
51
270.000000
0
LINE
8
0
10
21.620367
20
47.672019
30
0.0
11
20.115423
21
49.968314
31
0.0
0
ARC
8
0
10
19.279041
20
49.420166
30
0.0
40
1.000000
50
33.240000
51
90.000000
0
ARC
8
0
10
20.620854
20
36.194390
30
0.0
40
0.500000
50
270.000000
51
326.610000
0
LINE
8
0
10
20.620854
20
35.694390
30
0.0
11
13.800133
21
35.694390
31
0.0
0
LINE
8
0
10
13.800133
20
35.694390
30
0.0
11
6.979411
21
35.694390
31
0.0
0
ARC
8
0
10
6.979411
20
36.194390
30
0.0
40
0.500000
50
213.390000
51
270.000000
0
LINE
8
0
10
6.561939
20
35.919222
30
0.0
11
4.931436
21
38.392950
31
0.0
0
ARC
8
0
10
4.371718
20
38.024024
30
0.0
40
0.670365
50
33.390000
51
120.039706
0
LINE
8
0
10
4.036134
20
38.604345
30
0.0
11
2.504983
21
37.718920
31
0.0
0
LINE
8
0
10
2.504983
20
37.718920
30
0.0
11
2.409013
21
37.694390
31
0.0
0
LINE
8
0
10
2.409013
20
37.694390
30
0.0
11
2.200133
21
37.694390
31
0.0
0
ARC
8
0
10
2.200133
20
38.094390
30
0.0
40
0.400000
50
180.000000
51
270.000000
0
LINE
8
0
10
1.800133
20
38.094390
30
0.0
11
1.800133
21
38.694390
31
0.0
0
LINE
8
0
10
1.800133
20
38.694390
30
0.0
11
1.900133
21
38.694390
31
0.0
0
LINE
8
0
10
1.900133
20
38.694390
30
0.0
11
1.900133
21
39.069390
31
0.0
0
ARC
8
0
10
2.100133
20
39.069390
30
0.0
40
0.200000
50
90.000000
51
180.000000
0
LINE
8
0
10
2.100133
20
39.269390
30
0.0
11
2.259659
21
39.269390
31
0.0
0
ARC
8
0
10
2.550133
20
39.794390
30
0.0
40
0.600000
50
241.044976
51
0.000000
0
ARC
8
0
10
2.550133
20
39.794390
30
0.0
40
0.600000
50
0.000000
51
118.955024
0
LINE
8
0
10
2.259659
20
40.319390
30
0.0
11
2.100133
21
40.319390
31
0.0
0
ARC
8
0
10
2.100133
20
40.519390
30
0.0
40
0.200000
50
180.000000
51
270.000000
0
LINE
8
0
10
1.900133
20
40.519390
30
0.0
11
1.900133
21
40.894390
31
0.0
0
LINE
8
0
10
1.900133
20
40.894390
30
0.0
11
1.800133
21
40.894390
31
0.0
0
LINE
8
0
10
1.800133
20
40.894390
30
0.0
11
1.800133
21
41.494390
31
0.0
0
ARC
8
0
10
2.200133
20
41.494390
30
0.0
40
0.400000
50
90.000000
51
180.000000
0
LINE
8
0
10
2.200133
20
41.894390
30
0.0
11
2.409013
21
41.894390
31
0.0
0
LINE
8
0
10
2.409013
20
41.894390
30
0.0
11
2.504983
21
41.869860
31
0.0
0
LINE
8
0
10
2.504983
20
41.869860
30
0.0
11
4.006022
21
41.001847
31
0.0
0
ARC
8
0
10
4.406502
20
41.694390
30
0.0
40
0.800000
50
239.960294
51
270.000000
0
LINE
8
0
10
4.406502
20
40.894390
30
0.0
11
5.139448
21
40.894390
31
0.0
0
ARC
8
0
10
5.139448
20
39.894390
30
0.0
40
1.000000
50
33.240000
51
90.000000
0
LINE
8
0
10
5.975830
20
40.442537
30
0.0
11
7.480774
21
38.146242
31
0.0
0
ARC
8
0
10
8.317156
20
38.694390
30
0.0
40
1.000000
50
213.240000
51
270.000000
0
LINE
8
0
10
8.317156
20
37.694390
30
0.0
11
13.800133
21
37.694390
31
0.0
0
LINE
8
0
10
13.800133
20
37.694390
30
0.0
11
19.132549
21
37.694390
31
0.0
0
LINE
8
0
10
19.132549
20
37.694390
30
0.0
11
19.283110
21
37.694390
31
0.0
0
ARC
8
0
10
19.283110
20
38.694390
30
0.0
40
1.000000
50
270.000000
51
326.760000
0
LINE
8
0
10
20.119492
20
38.146242
30
0.0
11
21.624435
21
40.442537
31
0.0
0
ARC
8
0
10
22.460817
20
39.894390
30
0.0
40
1.000000
50
90.000000
51
146.760000
0
LINE
8
0
10
22.460817
20
40.894390
30
0.0
11
23.193763
21
40.894390
31
0.0
0
ARC
8
0
10
23.193763
20
41.694390
30
0.0
40
0.800000
50
270.000000
51
300.039706
0
LINE
8
0
10
23.594243
20
41.001847
30
0.0
11
25.095282
21
41.869860
31
0.0
0
LINE
8
0
10
25.095282
20
41.869860
30
0.0
11
25.191253
21
41.894390
31
0.0
0
LINE
8
0
10
25.191253
20
41.894390
30
0.0
11
25.400133
21
41.894390
31
0.0
0
ARC
8
0
10
25.400133
20
41.494390
30
0.0
40
0.400000
50
0.000000
51
90.000000
0
LINE
8
0
10
25.800133
20
41.494390
30
0.0
11
25.800133
21
40.894390
31
0.0
0
LINE
8
0
10
25.800133
20
40.894390
30
0.0
11
25.700133
21
40.894390
31
0.0
0
LINE
8
0
10
25.700133
20
40.894390
30
0.0
11
25.700133
21
40.519390
31
0.0
0
ARC
8
0
10
25.500133
20
40.519390
30
0.0
40
0.200000
50
270.000000
51
0.000000
0
LINE
8
0
10
25.500133
20
40.319390
30
0.0
11
25.340607
21
40.319390
31
0.0
0
ARC
8
0
10
25.050133
20
39.794390
30
0.0
40
0.600000
50
61.044976
51
180.000000
0
ARC
8
0
10
25.050133
20
39.794390
30
0.0
40
0.600000
50
180.000000
51
298.955024
0
LINE
8
0
10
25.340607
20
39.269390
30
0.0
11
25.500133
21
39.269390
31
0.0
0
ARC
8
0
10
25.500133
20
39.069390
30
0.0
40
0.200000
50
0.000000
51
90.000000
0
LINE
8
0
10
25.700133
20
39.069390
30
0.0
11
25.700133
21
38.694390
31
0.0
0
LINE
8
0
10
25.700133
20
38.694390
30
0.0
11
25.800133
21
38.694390
31
0.0
0
LINE
8
0
10
25.800133
20
38.694390
30
0.0
11
25.800133
21
38.094390
31
0.0
0
ARC
8
0
10
25.400133
20
38.094390
30
0.0
40
0.400000
50
270.000000
51
0.000000
0
LINE
8
0
10
25.400133
20
37.694390
30
0.0
11
25.191253
21
37.694390
31
0.0
0
LINE
8
0
10
25.191253
20
37.694390
30
0.0
11
25.095282
21
37.718920
31
0.0
0
LINE
8
0
10
25.095282
20
37.718920
30
0.0
11
23.564132
21
38.604345
31
0.0
0
ARC
8
0
10
23.228547
20
38.024024
30
0.0
40
0.670365
50
59.960294
51
146.610000
0
LINE
8
0
10
22.668830
20
38.392950
30
0.0
11
21.038326
21
35.919222
31
0.0
0
LINE
8
0
10
58.849701
20
8.450000
30
0.0
11
58.849701
21
32.000000
31
0.0
0
ARC
8
0
10
57.099701
20
32.000000
30
0.0
40
1.750000
50
0.000000
51
90.000000
0
LINE
8
0
10
56.749701
20
33.750000
30
0.0
11
57.099701
21
33.750000
31
0.0
0
ARC
8
0
10
56.749701
20
33.450000
30
0.0
40
0.300000
50
90.000000
51
180.000000
0
LINE
8
0
10
56.449701
20
32.550000
30
0.0
11
56.449701
21
33.450000
31
0.0
0
LINE
8
0
10
56.449701
20
32.550000
30
0.0
11
57.287572
21
32.116443
31
0.0
0
ARC
8
0
10
57.149701
20
31.850000
30
0.0
40
0.300000
50
270.000000
51
62.640631
0
LINE
8
0
10
56.449701
20
31.550000
30
0.0
11
57.149701
21
31.550000
31
0.0
0
LINE
8
0
10
56.449701
20
30.050000
30
0.0
11
56.449701
21
31.550000
31
0.0
0
ARC
8
0
10
56.149701
20
30.050000
30
0.0
40
0.300000
50
210.000000
51
0.000000
0
LINE
8
0
10
55.249701
20
31.008846
30
0.0
11
55.889894
21
29.900000
31
0.0
0
LINE
8
0
10
55.249701
20
31.008846
30
0.0
11
55.249701
21
33.750000
31
0.0
0
LINE
8
0
10
54.699701
20
33.750000
30
0.0
11
55.249701
21
33.750000
31
0.0
0
ARC
8
0
10
54.699701
20
34.050000
30
0.0
40
0.300000
50
180.000000
51
270.000000
0
LINE
8
0
10
54.399701
20
34.700000
30
0.0
11
54.399701
21
34.050000
31
0.0
0
ARC
8
0
10
54.699701
20
34.700000
30
0.0
40
0.300000
50
90.000000
51
180.000000
0
LINE
8
0
10
54.699701
20
35.000000
30
0.0
11
57.099701
21
35.000000
31
0.0
0
ARC
8
0
10
57.099701
20
32.000000
30
0.0
40
3.000000
50
0.000000
51
90.000000
0
LINE
8
0
10
60.099701
20
3.000000
30
0.0
11
60.099701
21
32.000000
31
0.0
0
ARC
8
0
10
57.099701
20
3.000000
30
0.0
40
3.000000
50
270.000000
51
0.000000
0
LINE
8
0
10
54.699701
20
0.000000
30
0.0
11
57.099701
21
0.000000
31
0.0
0
ARC
8
0
10
54.699701
20
0.300000
30
0.0
40
0.300000
50
180.000000
51
270.000000
0
LINE
8
0
10
54.399701
20
0.300000
30
0.0
11
54.399701
21
0.950000
31
0.0
0
ARC
8
0
10
54.699701
20
0.950000
30
0.0
40
0.300000
50
90.000000
51
180.000000
0
LINE
8
0
10
55.249701
20
1.250000
30
0.0
11
54.699701
21
1.250000
31
0.0
0
LINE
8
0
10
55.249701
20
2.100000
30
0.0
11
55.249701
21
1.250000
31
0.0
0
ARC
8
0
10
55.549701
20
2.100000
30
0.0
40
0.300000
50
90.000000
51
180.000000
0
LINE
8
0
10
56.449701
20
2.400000
30
0.0
11
55.549701
21
2.400000
31
0.0
0
LINE
8
0
10
56.449701
20
1.100000
30
0.0
11
56.449701
21
2.400000
31
0.0
0
LINE
8
0
10
56.449701
20
1.100000
30
0.0
11
57.749701
21
1.100000
31
0.0
0
LINE
8
0
10
57.749701
20
1.100000
30
0.0
11
57.749701
21
2.400000
31
0.0
0
LINE
8
0
10
57.749701
20
2.400000
30
0.0
11
58.743630
21
2.400000
31
0.0
0
ARC
8
0
10
57.099701
20
3.000000
30
0.0
40
1.750000
50
339.948957
51
0.000000
0
LINE
8
0
10
58.849701
20
3.000000
30
0.0
11
58.849701
21
5.900000
31
0.0
0
LINE
8
0
10
57.749701
20
5.900000
30
0.0
11
58.849701
21
5.900000
31
0.0
0
LINE
8
0
10
57.749701
20
7.200000
30
0.0
11
57.749701
21
5.900000
31
0.0
0
LINE
8
0
10
56.449701
20
7.200000
30
0.0
11
57.749701
21
7.200000
31
0.0
0
LINE
8
0
10
56.449701
20
5.900000
30
0.0
11
56.449701
21
7.200000
31
0.0
0
LINE
8
0
10
56.449701
20
5.900000
30
0.0
11
55.549701
21
5.900000
31
0.0
0
ARC
8
0
10
55.549701
20
6.200000
30
0.0
40
0.300000
50
180.000000
51
270.000000
0
LINE
8
0
10
55.249701
20
7.200000
30
0.0
11
55.249701
21
6.200000
31
0.0
0
LINE
8
0
10
55.249701
20
8.991155
30
0.0
11
55.249701
21
7.200000
31
0.0
0
LINE
8
0
10
55.249701
20
8.991155
30
0.0
11
55.889894
21
10.100000
31
0.0
0
ARC
8
0
10
56.149701
20
9.950000
30
0.0
40
0.300000
50
0.000000
51
150.000000
0
LINE
8
0
10
56.449701
20
9.950000
30
0.0
11
56.449701
21
8.450000
31
0.0
0
LINE
8
0
10
56.449701
20
8.450000
30
0.0
11
58.849701
21
8.450000
31
0.0
0
ATTDEF
8
0
10
0.000000
20
0.000000
30
0.0
40
3.5
1

3

2
GLASS_MIN:0.000000
70
0
0
ATTDEF
8
0
10
0.000000
20
0.000000
30
0.0
40
3.5
1

3

2
GLASS_MAX:0.000000
70
0
0
ATTDEF
8
0
10
0.000000
20
0.000000
30
0.0
40
3.5
1

3

2
HW_START
70
0
0
ATTDEF
8
0
10
60.099701
20
77.500000
30
0.0
40
3.5
1

3

2
HW_END
70
0
0
ATTDEF
8
0
10
26.774701
20
57.500000
30
0.0
40
3.5
1

3

2
VC_START
70
0
0
ATTDEF
8
0
10
0.816987
20
30.500000
30
0.0
40
3.5
1

3

2
VC_END
70
0
0
ATTDEF
8
0
10
0.000000
20
0.000000
30
0.0
40
3.5
1

3

2
FP_LCS_ORIG
70
0
0
ATTDEF
8
0
10
10.000000
20
0.000000
30
0.0
40
3.5
1

3

2
FP_LCS_HOT
70
0
0
ATTDEF
8
0
10
0.000000
20
10.000000
30
0.0
40
3.5
1

3

2
FP_LCS_INTERN
70
0
0
ATTDEF
8
0
10
0.000000
20
0.000000
30
0.0
40
3.5
1

3

2
PANE_WIDTH:50.9
70
0
0
ATTDEF
8
0
10
0.000000
20
0.000000
30
0.0
40
3.5
1

3

2
MIN_VETRO:0
70
0
0
ATTDEF
8
0
10
0.000000
20
0.000000
30
0.0
40
3.5
1

3

2
MAX_VETRO:0
70
0
0
ATTDEF
8
0
10
0.000000
20
0.000000
30
0.0
40
3.5
1

3

2
JX:0
70
0
0
ATTDEF
8
0
10
0.000000
20
0.000000
30
0.0
40
3.5
1

3

2
WX:0
70
0
0
ATTDEF
8
0
10
0.000000
20
0.000000
30
0.0
40
3.5
1

3

2
JY:0
70
0
0
ATTDEF
8
0
10
0.000000
20
0.000000
30
0.0
40
3.5
1

3

2
WY:0
70
0
0
ATTDEF
8
0
10
0.000000
20
0.000000
30
0.0
40
3.5
1

3

2
DESC:COR-3522 - COR-2731
70
0
0
ATTDEF
8
0
10
0.000000
20
0.000000
30
0.0
40
3.5
1

3

2
DENS:0
70
0
0
ATTDEF
8
0
10
0.000000
20
0.000000
30
0.0
40
3.5
1

3

2
TDEV:0
70
0
0
ATTDEF
8
0
10
0.000000
20
0.000000
30
0.0
40
3.5
1

3

2
TDEV2:0
70
0
0
ATTDEF
8
0
10
0.000000
20
0.000000
30
0.0
40
3.5
1

3

2
TDEV3:0
70
0
0
ATTDEF
8
0
10
0.000000
20
0.000000
30
0.0
40
3.5
1

3

2
TDEV4:0
70
0
0
ATTDEF
8
0
10
0.000000
20
0.000000
30
0.0
40
3.5
1

3

2
TDEV5:0
70
0
0
ATTDEF
8
0
10
0.000000
20
0.000000
30
0.0
40
3.5
1

3

2
PANE_WIDTH:50.9
70
0
0
ATTDEF
8
0
10
0.000000
20
0.000000
30
0.0
40
3.5
1

3

2
MIN_VETRO:0
70
0
0
ATTDEF
8
0
10
0.000000
20
0.000000
30
0.0
40
3.5
1

3

2
MAX_VETRO:0
70
0
0
ATTDEF
8
0
10
0.000000
20
0.000000
30
0.0
40
3.5
1

3

2
JX:0
70
0
0
ATTDEF
8
0
10
0.000000
20
0.000000
30
0.0
40
3.5
1

3

2
WX:0
70
0
0
ATTDEF
8
0
10
0.000000
20
0.000000
30
0.0
40
3.5
1

3

2
JY:0
70
0
0
ATTDEF
8
0
10
0.000000
20
0.000000
30
0.0
40
3.5
1

3

2
WY:0
70
0
0
ENDSEC
0
EOF
