0
SECTION
2
ENTITIES
0
ARC
8
0
10
3597.955012
20
1213.936277
30
0.0
40
0.600000
50
0.000000
51
180.000000
0
ARC
8
0
10
3597.955012
20
1213.936277
30
0.0
40
0.600000
50
180.000000
51
0.000000
0
ARC
8
0
10
3574.455012
20
1213.936277
30
0.0
40
0.600000
50
0.000000
51
180.000000
0
ARC
8
0
10
3574.455012
20
1213.936277
30
0.0
40
0.600000
50
180.000000
51
0.000000
0
ARC
8
0
10
3597.955012
20
1222.407160
30
0.0
40
0.600000
50
0.000000
51
180.000000
0
ARC
8
0
10
3597.955012
20
1222.407160
30
0.0
40
0.600000
50
180.000000
51
0.000000
0
ARC
8
0
10
3574.455012
20
1222.407160
30
0.0
40
0.600000
50
0.000000
51
180.000000
0
ARC
8
0
10
3574.455012
20
1222.407160
30
0.0
40
0.600000
50
180.000000
51
0.000000
0
LINE
8
0
10
3574.410374
20
1211.862035
30
0.0
11
3573.705012
21
1212.567398
31
0.0
0
LINE
8
0
10
3575.790419
20
1212.727055
30
0.0
11
3574.937651
21
1213.579823
31
0.0
0
LINE
8
0
10
3574.077671
20
1214.439802
30
0.0
11
3573.805012
21
1214.712462
31
0.0
0
LINE
8
0
10
3577.826261
20
1212.936277
30
0.0
11
3575.218913
21
1215.543624
31
0.0
0
LINE
8
0
10
3580.071325
20
1212.936277
30
0.0
11
3578.071325
21
1214.936277
31
0.0
0
LINE
8
0
10
3577.605012
20
1215.402590
30
0.0
11
3576.805012
21
1216.202590
31
0.0
0
LINE
8
0
10
3582.316389
20
1212.936277
30
0.0
11
3580.316389
21
1214.936277
31
0.0
0
LINE
8
0
10
3574.733312
20
1220.519354
30
0.0
11
3573.805012
21
1221.447654
31
0.0
0
LINE
8
0
10
3584.561453
20
1212.936277
30
0.0
11
3582.561453
21
1214.936277
31
0.0
0
LINE
8
0
10
3574.491691
20
1223.006038
30
0.0
11
3573.788268
21
1223.709462
31
0.0
0
LINE
8
0
10
3577.605012
20
1219.892718
30
0.0
11
3576.805012
21
1220.692718
31
0.0
0
LINE
8
0
10
3576.168138
20
1221.329592
30
0.0
11
3575.053890
21
1222.443840
31
0.0
0
LINE
8
0
10
3586.806517
20
1212.936277
30
0.0
11
3584.806517
21
1214.936277
31
0.0
0
LINE
8
0
10
3578.335633
20
1221.407160
30
0.0
11
3576.299225
21
1223.443569
31
0.0
0
LINE
8
0
10
3589.051581
20
1212.936277
30
0.0
11
3587.051581
21
1214.936277
31
0.0
0
LINE
8
0
10
3580.580697
20
1221.407160
30
0.0
11
3578.580697
21
1223.407160
31
0.0
0
LINE
8
0
10
3591.296645
20
1212.936277
30
0.0
11
3589.296645
21
1214.936277
31
0.0
0
LINE
8
0
10
3582.825761
20
1221.407160
30
0.0
11
3580.825761
21
1223.407160
31
0.0
0
LINE
8
0
10
3593.541709
20
1212.936277
30
0.0
11
3591.541709
21
1214.936277
31
0.0
0
LINE
8
0
10
3585.070825
20
1221.407160
30
0.0
11
3583.070825
21
1223.407160
31
0.0
0
LINE
8
0
10
3595.786773
20
1212.936277
30
0.0
11
3593.786773
21
1214.936277
31
0.0
0
LINE
8
0
10
3587.315889
20
1221.407160
30
0.0
11
3585.315889
21
1223.407160
31
0.0
0
LINE
8
0
10
3598.647710
20
1212.320404
30
0.0
11
3596.015398
21
1214.952716
31
0.0
0
LINE
8
0
10
3589.560953
20
1221.407160
30
0.0
11
3587.560953
21
1223.407160
31
0.0
0
LINE
8
0
10
3595.605012
20
1215.363102
30
0.0
11
3594.805012
21
1216.163102
31
0.0
0
LINE
8
0
10
3598.599311
20
1214.613866
30
0.0
11
3597.494370
21
1215.718808
31
0.0
0
LINE
8
0
10
3591.806017
20
1221.407160
30
0.0
11
3589.806017
21
1223.407160
31
0.0
0
LINE
8
0
10
3595.605012
20
1219.853230
30
0.0
11
3594.805012
21
1220.653230
31
0.0
0
LINE
8
0
10
3594.051081
20
1221.407160
30
0.0
11
3592.051081
21
1223.407160
31
0.0
0
LINE
8
0
10
3596.415946
20
1221.287360
30
0.0
11
3594.296145
21
1223.407160
31
0.0
0
LINE
8
0
10
3598.605012
20
1221.343358
30
0.0
11
3598.118505
21
1221.829865
31
0.0
0
LINE
8
0
10
3597.377716
20
1222.570653
30
0.0
11
3596.597362
21
1223.351007
31
0.0
0
LINE
8
0
10
3598.686274
20
1223.507160
30
0.0
11
3597.817299
21
1224.376135
31
0.0
0
LINE
8
0
10
3573.805012
20
1223.427075
30
0.0
11
3574.650299
21
1224.272362
31
0.0
0
LINE
8
0
10
3573.705012
20
1221.082011
30
0.0
11
3574.430656
21
1221.807655
31
0.0
0
LINE
8
0
10
3575.054517
20
1222.431517
30
0.0
11
3575.919797
21
1223.296796
31
0.0
0
LINE
8
0
10
3576.213915
20
1221.345851
30
0.0
11
3578.275225
21
1223.407160
31
0.0
0
LINE
8
0
10
3576.805012
20
1219.691883
30
0.0
11
3577.605012
21
1220.491883
31
0.0
0
LINE
8
0
10
3578.520289
20
1221.407160
30
0.0
11
3580.520289
21
1223.407160
31
0.0
0
LINE
8
0
10
3573.851208
20
1214.493016
30
0.0
11
3575.004721
21
1215.646528
31
0.0
0
LINE
8
0
10
3580.765353
20
1221.407160
30
0.0
11
3582.765353
21
1223.407160
31
0.0
0
LINE
8
0
10
3573.722512
20
1212.119256
30
0.0
11
3576.540657
21
1214.937401
31
0.0
0
LINE
8
0
10
3583.010417
20
1221.407160
30
0.0
11
3585.010417
21
1223.407160
31
0.0
0
LINE
8
0
10
3576.805012
20
1215.201755
30
0.0
11
3577.605012
21
1216.001755
31
0.0
0
LINE
8
0
10
3576.784598
20
1212.936277
30
0.0
11
3578.784598
21
1214.936277
31
0.0
0
LINE
8
0
10
3585.255481
20
1221.407160
30
0.0
11
3587.255481
21
1223.407160
31
0.0
0
LINE
8
0
10
3579.029662
20
1212.936277
30
0.0
11
3581.029662
21
1214.936277
31
0.0
0
LINE
8
0
10
3587.500545
20
1221.407160
30
0.0
11
3589.500545
21
1223.407160
31
0.0
0
LINE
8
0
10
3581.274726
20
1212.936277
30
0.0
11
3583.274726
21
1214.936277
31
0.0
0
LINE
8
0
10
3589.745609
20
1221.407160
30
0.0
11
3591.745609
21
1223.407160
31
0.0
0
LINE
8
0
10
3583.519790
20
1212.936277
30
0.0
11
3585.519790
21
1214.936277
31
0.0
0
LINE
8
0
10
3591.990673
20
1221.407160
30
0.0
11
3593.990673
21
1223.407160
31
0.0
0
LINE
8
0
10
3585.764854
20
1212.936277
30
0.0
11
3587.764854
21
1214.936277
31
0.0
0
LINE
8
0
10
3594.235737
20
1221.407160
30
0.0
11
3596.256271
21
1223.427694
31
0.0
0
LINE
8
0
10
3588.009918
20
1212.936277
30
0.0
11
3590.009918
21
1214.936277
31
0.0
0
LINE
8
0
10
3598.069732
20
1222.996091
30
0.0
11
3598.705012
21
1223.631371
31
0.0
0
LINE
8
0
10
3594.805012
20
1219.731371
30
0.0
11
3595.605012
21
1220.531371
31
0.0
0
LINE
8
0
10
3596.354928
20
1221.281287
30
0.0
11
3597.366081
21
1222.292440
31
0.0
0
LINE
8
0
10
3590.254982
20
1212.936277
30
0.0
11
3592.254982
21
1214.936277
31
0.0
0
LINE
8
0
10
3597.817556
20
1220.498852
30
0.0
11
3598.606762
21
1221.288057
31
0.0
0
LINE
8
0
10
3592.500046
20
1212.936277
30
0.0
11
3594.500046
21
1214.936277
31
0.0
0
LINE
8
0
10
3594.805012
20
1215.241243
30
0.0
11
3595.605012
21
1216.041243
31
0.0
0
LINE
8
0
10
3594.745110
20
1212.936277
30
0.0
11
3597.573090
21
1215.764257
31
0.0
0
LINE
8
0
10
3596.711513
20
1212.657616
30
0.0
11
3597.548693
21
1213.494796
31
0.0
0
LINE
8
0
10
3598.161767
20
1211.862806
30
0.0
11
3598.645543
21
1212.346582
31
0.0
0
ARC
8
0
10
3595.705012
20
1215.036277
30
0.0
40
0.100000
50
180.000000
51
270.000000
0
LINE
8
0
10
3595.605012
20
1215.036277
30
0.0
11
3595.605012
21
1217.236277
31
0.0
0
ARC
8
0
10
3595.405012
20
1217.236277
30
0.0
40
0.200000
50
0.000000
51
90.000000
0
LINE
8
0
10
3595.405012
20
1217.436277
30
0.0
11
3595.005012
21
1217.436277
31
0.0
0
ARC
8
0
10
3595.005012
20
1217.236277
30
0.0
40
0.200000
50
90.000000
51
180.000000
0
LINE
8
0
10
3594.805012
20
1217.236277
30
0.0
11
3594.805012
21
1215.036277
31
0.0
0
ARC
8
0
10
3594.705012
20
1215.036277
30
0.0
40
0.100000
50
270.000000
51
0.000000
0
LINE
8
0
10
3594.705012
20
1214.936277
30
0.0
11
3577.705012
21
1214.936277
31
0.0
0
ARC
8
0
10
3577.705012
20
1215.036277
30
0.0
40
0.100000
50
180.000000
51
270.000000
0
LINE
8
0
10
3577.605012
20
1215.036277
30
0.0
11
3577.605012
21
1217.236277
31
0.0
0
ARC
8
0
10
3577.405012
20
1217.236277
30
0.0
40
0.200000
50
0.000000
51
90.000000
0
LINE
8
0
10
3577.405012
20
1217.436277
30
0.0
11
3577.005012
21
1217.436277
31
0.0
0
ARC
8
0
10
3577.005012
20
1217.236277
30
0.0
40
0.200000
50
90.000000
51
180.000000
0
LINE
8
0
10
3576.805012
20
1217.236277
30
0.0
11
3576.805012
21
1215.036277
31
0.0
0
ARC
8
0
10
3576.705012
20
1215.036277
30
0.0
40
0.100000
50
270.000000
51
0.000000
0
LINE
8
0
10
3576.705012
20
1214.936277
30
0.0
11
3576.592576
21
1214.936277
31
0.0
0
ARC
8
0
10
3576.592576
20
1216.136277
30
0.0
40
1.200000
50
240.000000
51
270.000000
0
LINE
8
0
10
3575.992576
20
1215.097046
30
0.0
11
3574.412192
21
1216.009482
31
0.0
0
ARC
8
0
10
3574.312192
20
1215.836277
30
0.0
40
0.200000
50
60.000000
51
90.000000
0
LINE
8
0
10
3574.312192
20
1216.036277
30
0.0
11
3574.105012
21
1216.036277
31
0.0
0
ARC
8
0
10
3574.105012
20
1215.636277
30
0.0
40
0.400000
50
90.000000
51
180.000000
0
LINE
8
0
10
3573.705012
20
1215.636277
30
0.0
11
3573.705012
21
1215.036277
31
0.0
0
LINE
8
0
10
3573.705012
20
1215.036277
30
0.0
11
3573.805012
21
1215.036277
31
0.0
0
LINE
8
0
10
3573.805012
20
1215.036277
30
0.0
11
3573.805012
21
1214.661277
31
0.0
0
ARC
8
0
10
3574.005012
20
1214.661277
30
0.0
40
0.200000
50
180.000000
51
270.000000
0
LINE
8
0
10
3574.005012
20
1214.461277
30
0.0
11
3574.116818
21
1214.461277
31
0.0
0
LINE
8
0
10
3574.116818
20
1214.461277
30
0.0
11
3574.201367
21
1214.480027
31
0.0
0
ARC
8
0
10
3574.455012
20
1213.936277
30
0.0
40
0.600000
50
244.992167
51
115.007833
0
LINE
8
0
10
3574.201367
20
1213.392527
30
0.0
11
3574.116818
21
1213.411277
31
0.0
0
LINE
8
0
10
3574.116818
20
1213.411277
30
0.0
11
3574.005012
21
1213.411277
31
0.0
0
ARC
8
0
10
3574.005012
20
1213.211277
30
0.0
40
0.200000
50
90.000000
51
180.000000
0
LINE
8
0
10
3573.805012
20
1213.211277
30
0.0
11
3573.805012
21
1212.836277
31
0.0
0
LINE
8
0
10
3573.805012
20
1212.836277
30
0.0
11
3573.705012
21
1212.836277
31
0.0
0
LINE
8
0
10
3573.705012
20
1212.836277
30
0.0
11
3573.705012
21
1212.236277
31
0.0
0
ARC
8
0
10
3574.105012
20
1212.236277
30
0.0
40
0.400000
50
180.000000
51
270.000000
0
LINE
8
0
10
3574.105012
20
1211.836277
30
0.0
11
3574.312192
21
1211.836277
31
0.0
0
ARC
8
0
10
3574.312192
20
1212.036277
30
0.0
40
0.200000
50
270.000000
51
300.000000
0
LINE
8
0
10
3574.412192
20
1211.863072
30
0.0
11
3575.992576
21
1212.775507
31
0.0
0
ARC
8
0
10
3576.592576
20
1211.736277
30
0.0
40
1.200000
50
90.000000
51
120.000000
0
LINE
8
0
10
3576.592576
20
1212.936277
30
0.0
11
3595.817447
21
1212.936277
31
0.0
0
ARC
8
0
10
3595.817447
20
1211.736277
30
0.0
40
1.200000
50
60.000000
51
90.000000
0
LINE
8
0
10
3596.417447
20
1212.775507
30
0.0
11
3597.997832
21
1211.863072
31
0.0
0
ARC
8
0
10
3598.097832
20
1212.036277
30
0.0
40
0.200000
50
240.000000
51
270.000000
0
LINE
8
0
10
3598.097832
20
1211.836277
30
0.0
11
3598.305012
21
1211.836277
31
0.0
0
ARC
8
0
10
3598.305012
20
1212.236277
30
0.0
40
0.400000
50
270.000000
51
0.000000
0
LINE
8
0
10
3598.705012
20
1212.236277
30
0.0
11
3598.705012
21
1212.836277
31
0.0
0
LINE
8
0
10
3598.705012
20
1212.836277
30
0.0
11
3598.605012
21
1212.836277
31
0.0
0
LINE
8
0
10
3598.605012
20
1212.836277
30
0.0
11
3598.605012
21
1213.211277
31
0.0
0
ARC
8
0
10
3598.405012
20
1213.211277
30
0.0
40
0.200000
50
0.000000
51
90.000000
0
LINE
8
0
10
3598.405012
20
1213.411277
30
0.0
11
3598.293206
21
1213.411277
31
0.0
0
LINE
8
0
10
3598.293206
20
1213.411277
30
0.0
11
3598.208657
21
1213.392527
31
0.0
0
ARC
8
0
10
3597.955012
20
1213.936277
30
0.0
40
0.600000
50
64.992167
51
295.007833
0
LINE
8
0
10
3598.208657
20
1214.480027
30
0.0
11
3598.293206
21
1214.461277
31
0.0
0
LINE
8
0
10
3598.293206
20
1214.461277
30
0.0
11
3598.405012
21
1214.461277
31
0.0
0
ARC
8
0
10
3598.405012
20
1214.661277
30
0.0
40
0.200000
50
270.000000
51
0.000000
0
LINE
8
0
10
3598.605012
20
1214.661277
30
0.0
11
3598.605012
21
1215.036277
31
0.0
0
LINE
8
0
10
3598.605012
20
1215.036277
30
0.0
11
3598.705012
21
1215.036277
31
0.0
0
LINE
8
0
10
3598.705012
20
1215.036277
30
0.0
11
3598.705012
21
1215.636277
31
0.0
0
ARC
8
0
10
3598.305012
20
1215.636277
30
0.0
40
0.400000
50
0.000000
51
90.000000
0
LINE
8
0
10
3598.305012
20
1216.036277
30
0.0
11
3598.097832
21
1216.036277
31
0.0
0
ARC
8
0
10
3598.097832
20
1215.836277
30
0.0
40
0.200000
50
90.000000
51
120.000000
0
LINE
8
0
10
3597.997832
20
1216.009482
30
0.0
11
3596.417447
21
1215.097046
31
0.0
0
ARC
8
0
10
3595.817447
20
1216.136277
30
0.0
40
1.200000
50
270.000000
51
300.000000
0
LINE
8
0
10
3595.817447
20
1214.936277
30
0.0
11
3595.705012
21
1214.936277
31
0.0
0
ARC
8
0
10
3595.705012
20
1221.307160
30
0.0
40
0.100000
50
90.000000
51
180.000000
0
LINE
8
0
10
3595.605012
20
1221.307160
30
0.0
11
3595.605012
21
1219.107160
31
0.0
0
ARC
8
0
10
3595.405012
20
1219.107160
30
0.0
40
0.200000
50
270.000000
51
0.000000
0
LINE
8
0
10
3595.405012
20
1218.907160
30
0.0
11
3595.005012
21
1218.907160
31
0.0
0
ARC
8
0
10
3595.005012
20
1219.107160
30
0.0
40
0.200000
50
180.000000
51
270.000000
0
LINE
8
0
10
3594.805012
20
1219.107160
30
0.0
11
3594.805012
21
1221.307160
31
0.0
0
ARC
8
0
10
3594.705012
20
1221.307160
30
0.0
40
0.100000
50
0.000000
51
90.000000
0
LINE
8
0
10
3594.705012
20
1221.407160
30
0.0
11
3577.705012
21
1221.407160
31
0.0
0
ARC
8
0
10
3577.705012
20
1221.307160
30
0.0
40
0.100000
50
90.000000
51
180.000000
0
LINE
8
0
10
3577.605012
20
1221.307160
30
0.0
11
3577.605012
21
1219.107160
31
0.0
0
ARC
8
0
10
3577.405012
20
1219.107160
30
0.0
40
0.200000
50
270.000000
51
0.000000
0
LINE
8
0
10
3577.405012
20
1218.907160
30
0.0
11
3577.005012
21
1218.907160
31
0.0
0
ARC
8
0
10
3577.005012
20
1219.107160
30
0.0
40
0.200000
50
180.000000
51
270.000000
0
LINE
8
0
10
3576.805012
20
1219.107160
30
0.0
11
3576.805012
21
1221.307160
31
0.0
0
ARC
8
0
10
3576.705012
20
1221.307160
30
0.0
40
0.100000
50
0.000000
51
90.000000
0
LINE
8
0
10
3576.705012
20
1221.407160
30
0.0
11
3576.592576
21
1221.407160
31
0.0
0
ARC
8
0
10
3576.592576
20
1220.207160
30
0.0
40
1.200000
50
90.000000
51
120.000000
0
LINE
8
0
10
3575.992576
20
1221.246391
30
0.0
11
3574.412192
21
1220.333955
31
0.0
0
ARC
8
0
10
3574.312192
20
1220.507160
30
0.0
40
0.200000
50
270.000000
51
300.000000
0
LINE
8
0
10
3574.312192
20
1220.307160
30
0.0
11
3574.105012
21
1220.307160
31
0.0
0
ARC
8
0
10
3574.105012
20
1220.707160
30
0.0
40
0.400000
50
180.000000
51
270.000000
0
LINE
8
0
10
3573.705012
20
1220.707160
30
0.0
11
3573.705012
21
1221.307160
31
0.0
0
LINE
8
0
10
3573.705012
20
1221.307160
30
0.0
11
3573.805012
21
1221.307160
31
0.0
0
LINE
8
0
10
3573.805012
20
1221.307160
30
0.0
11
3573.805012
21
1221.682160
31
0.0
0
ARC
8
0
10
3574.005012
20
1221.682160
30
0.0
40
0.200000
50
90.000000
51
180.000000
0
LINE
8
0
10
3574.005012
20
1221.882160
30
0.0
11
3574.116818
21
1221.882160
31
0.0
0
LINE
8
0
10
3574.201367
20
1221.863410
30
0.0
11
3574.116818
21
1221.882160
31
0.0
0
ARC
8
0
10
3574.455012
20
1222.407160
30
0.0
40
0.600000
50
244.992167
51
115.007833
0
LINE
8
0
10
3574.116818
20
1222.932160
30
0.0
11
3574.201367
21
1222.950910
31
0.0
0
LINE
8
0
10
3574.116818
20
1222.932160
30
0.0
11
3574.005012
21
1222.932160
31
0.0
0
ARC
8
0
10
3574.005012
20
1223.132160
30
0.0
40
0.200000
50
180.000000
51
270.000000
0
LINE
8
0
10
3573.805012
20
1223.132160
30
0.0
11
3573.805012
21
1223.507160
31
0.0
0
LINE
8
0
10
3573.805012
20
1223.507160
30
0.0
11
3573.705012
21
1223.507160
31
0.0
0
LINE
8
0
10
3573.705012
20
1223.507160
30
0.0
11
3573.705012
21
1224.107160
31
0.0
0
ARC
8
0
10
3574.105012
20
1224.107160
30
0.0
40
0.400000
50
90.000000
51
180.000000
0
LINE
8
0
10
3574.105012
20
1224.507160
30
0.0
11
3574.312192
21
1224.507160
31
0.0
0
ARC
8
0
10
3574.312192
20
1224.307160
30
0.0
40
0.200000
50
60.000000
51
90.000000
0
LINE
8
0
10
3574.412192
20
1224.480365
30
0.0
11
3575.992576
21
1223.567930
31
0.0
0
ARC
8
0
10
3576.592576
20
1224.607160
30
0.0
40
1.200000
50
240.000000
51
270.000000
0
LINE
8
0
10
3576.592576
20
1223.407160
30
0.0
11
3595.817447
21
1223.407160
31
0.0
0
ARC
8
0
10
3595.817447
20
1224.607160
30
0.0
40
1.200000
50
270.000000
51
300.000000
0
LINE
8
0
10
3596.417447
20
1223.567930
30
0.0
11
3597.997832
21
1224.480365
31
0.0
0
ARC
8
0
10
3598.097832
20
1224.307160
30
0.0
40
0.200000
50
90.000000
51
120.000000
0
LINE
8
0
10
3598.097832
20
1224.507160
30
0.0
11
3598.305012
21
1224.507160
31
0.0
0
ARC
8
0
10
3598.305012
20
1224.107160
30
0.0
40
0.400000
50
0.000000
51
90.000000
0
LINE
8
0
10
3598.705012
20
1224.107160
30
0.0
11
3598.705012
21
1223.507160
31
0.0
0
LINE
8
0
10
3598.705012
20
1223.507160
30
0.0
11
3598.605012
21
1223.507160
31
0.0
0
LINE
8
0
10
3598.605012
20
1223.507160
30
0.0
11
3598.605012
21
1223.132160
31
0.0
0
ARC
8
0
10
3598.405012
20
1223.132160
30
0.0
40
0.200000
50
270.000000
51
0.000000
0
LINE
8
0
10
3598.405012
20
1222.932160
30
0.0
11
3598.293206
21
1222.932160
31
0.0
0
LINE
8
0
10
3598.208657
20
1222.950910
30
0.0
11
3598.293206
21
1222.932160
31
0.0
0
ARC
8
0
10
3597.955012
20
1222.407160
30
0.0
40
0.600000
50
64.992167
51
295.007833
0
LINE
8
0
10
3598.293206
20
1221.882160
30
0.0
11
3598.208657
21
1221.863410
31
0.0
0
LINE
8
0
10
3598.293206
20
1221.882160
30
0.0
11
3598.405012
21
1221.882160
31
0.0
0
ARC
8
0
10
3598.405012
20
1221.682160
30
0.0
40
0.200000
50
0.000000
51
90.000000
0
LINE
8
0
10
3598.605012
20
1221.682160
30
0.0
11
3598.605012
21
1221.307160
31
0.0
0
LINE
8
0
10
3598.605012
20
1221.307160
30
0.0
11
3598.705012
21
1221.307160
31
0.0
0
LINE
8
0
10
3598.705012
20
1221.307160
30
0.0
11
3598.705012
21
1220.707160
31
0.0
0
ARC
8
0
10
3598.305012
20
1220.707160
30
0.0
40
0.400000
50
270.000000
51
0.000000
0
LINE
8
0
10
3598.305012
20
1220.307160
30
0.0
11
3598.097832
21
1220.307160
31
0.0
0
ARC
8
0
10
3598.097832
20
1220.507160
30
0.0
40
0.200000
50
240.000000
51
270.000000
0
LINE
8
0
10
3597.997832
20
1220.333955
30
0.0
11
3596.417447
21
1221.246391
31
0.0
0
ARC
8
0
10
3595.817447
20
1220.207160
30
0.0
40
1.200000
50
60.000000
51
90.000000
0
LINE
8
0
10
3595.817447
20
1221.407160
30
0.0
11
3595.705012
21
1221.407160
31
0.0
0
ARC
8
0
10
3594.477750
20
1226.186981
30
0.0
40
0.300000
50
92.605413
51
198.251415
0
LINE
8
0
10
3594.192843
20
1226.093025
30
0.0
11
3596.295938
21
1223.376457
31
0.0
0
ARC
8
0
10
3596.457659
20
1223.494126
30
0.0
40
0.200000
50
216.039809
51
37.049592
0
LINE
8
0
10
3596.617282
20
1223.614628
30
0.0
11
3598.157811
21
1224.778517
31
0.0
0
ARC
8
0
10
3598.418120
20
1224.927644
30
0.0
40
0.300000
50
107.000000
51
209.807633
0
LINE
8
0
10
3598.330409
20
1225.214536
30
0.0
11
3598.617300
21
1225.302247
31
0.0
0
ARC
8
0
10
3598.705012
20
1225.015356
30
0.0
40
0.300000
50
270.000000
51
107.000000
0
LINE
8
0
10
3598.705012
20
1224.715356
30
0.0
11
3598.705012
21
1220.215356
31
0.0
0
ARC
8
0
10
3598.505012
20
1220.215356
30
0.0
40
0.200000
50
240.000000
51
0.000000
0
LINE
8
0
10
3598.405012
20
1220.042151
30
0.0
11
3596.604915
21
1221.081437
31
0.0
0
ARC
8
0
10
3596.405012
20
1221.087659
30
0.0
40
0.200000
50
0.000000
51
180.000000
0
LINE
8
0
10
3596.205012
20
1221.087659
30
0.0
11
3596.205012
21
1219.695740
31
0.0
0
ARC
8
0
10
3596.405012
20
1219.695740
30
0.0
40
0.200000
50
180.000000
51
240.000000
0
LINE
8
0
10
3596.305012
20
1219.522535
30
0.0
11
3597.594695
21
1218.777936
31
0.0
0
ARC
8
0
10
3597.244695
20
1218.171719
30
0.0
40
0.700000
50
300.000000
51
60.000000
0
LINE
8
0
10
3597.594695
20
1217.565501
30
0.0
11
3596.305012
21
1216.820902
31
0.0
0
ARC
8
0
10
3596.405012
20
1216.647697
30
0.0
40
0.200000
50
120.000000
51
180.000000
0
LINE
8
0
10
3596.205012
20
1216.647697
30
0.0
11
3596.205012
21
1215.255778
31
0.0
0
ARC
8
0
10
3596.405012
20
1215.255778
30
0.0
40
0.200000
50
180.000000
51
0.000000
0
LINE
8
0
10
3596.604915
20
1215.262000
30
0.0
11
3598.405012
21
1216.301287
31
0.0
0
ARC
8
0
10
3598.505012
20
1216.128082
30
0.0
40
0.200000
50
0.000000
51
120.000000
0
LINE
8
0
10
3598.705012
20
1216.128082
30
0.0
11
3598.705012
21
1211.628082
31
0.0
0
ARC
8
0
10
3598.705012
20
1211.328082
30
0.0
40
0.300000
50
253.000000
51
90.000000
0
LINE
8
0
10
3598.617300
20
1211.041190
30
0.0
11
3598.330409
21
1211.128902
31
0.0
0
ARC
8
0
10
3598.418120
20
1211.415793
30
0.0
40
0.300000
50
150.192367
51
253.000000
0
LINE
8
0
10
3598.157811
20
1211.564920
30
0.0
11
3596.617282
21
1212.728809
31
0.0
0
ARC
8
0
10
3596.457659
20
1212.849311
30
0.0
40
0.200000
50
322.950408
51
143.960191
0
LINE
8
0
10
3596.295938
20
1212.966980
30
0.0
11
3594.192843
21
1210.250412
31
0.0
0
ARC
8
0
10
3594.477750
20
1210.156456
30
0.0
40
0.300000
50
161.748585
51
267.394587
0
LINE
8
0
10
3594.474365
20
1209.856431
30
0.0
11
3595.527160
21
1209.826587
31
0.0
0
LINE
8
0
10
3595.527160
20
1209.826587
30
0.0
11
3595.590020
21
1210.032193
31
0.0
0
LINE
8
0
10
3595.590020
20
1210.032193
30
0.0
11
3595.975088
21
1210.497331
31
0.0
0
ARC
8
0
10
3596.813202
20
1209.951130
30
0.0
40
1.000000
50
56.490937
51
146.907609
0
LINE
8
0
10
3597.364949
20
1210.784443
30
0.0
11
3598.520223
21
1209.910927
31
0.0
0
ARC
8
0
10
3598.218665
20
1209.512100
30
0.0
40
0.500000
50
5.806727
51
52.906671
0
LINE
8
0
10
3598.716100
20
1209.562686
30
0.0
11
3599.005012
21
1206.721719
31
0.0
0
LINE
8
0
10
3599.005012
20
1206.721719
30
0.0
11
3599.005012
21
1195.171719
31
0.0
0
LINE
8
0
10
3599.005012
20
1195.171719
30
0.0
11
3597.505012
21
1195.171719
31
0.0
0
ARC
8
0
10
3597.505012
20
1194.671719
30
0.0
40
0.500000
50
90.000000
51
180.000000
0
LINE
8
0
10
3597.005012
20
1194.671719
30
0.0
11
3597.005012
21
1192.421719
31
0.0
0
ARC
8
0
10
3597.505012
20
1192.421719
30
0.0
40
0.500000
50
180.000000
51
0.000000
0
LINE
8
0
10
3598.005012
20
1192.421719
30
0.0
11
3598.005012
21
1193.671719
31
0.0
0
LINE
8
0
10
3598.005012
20
1193.671719
30
0.0
11
3599.205012
21
1193.671719
31
0.0
0
LINE
8
0
10
3599.205012
20
1193.671719
30
0.0
11
3599.205012
21
1186.171719
31
0.0
0
LINE
8
0
10
3599.205012
20
1186.171719
30
0.0
11
3598.005012
21
1186.171719
31
0.0
0
LINE
8
0
10
3598.005012
20
1186.171719
30
0.0
11
3598.005012
21
1187.371719
31
0.0
0
ARC
8
0
10
3597.505012
20
1187.371719
30
0.0
40
0.500000
50
0.000000
51
180.000000
0
LINE
8
0
10
3597.005012
20
1187.371719
30
0.0
11
3597.005012
21
1185.171719
31
0.0
0
ARC
8
0
10
3597.505012
20
1185.171719
30
0.0
40
0.500000
50
180.000000
51
270.000000
0
LINE
8
0
10
3597.505012
20
1184.671719
30
0.0
11
3600.005012
21
1184.671719
31
0.0
0
ARC
8
0
10
3600.005012
20
1185.171719
30
0.0
40
0.500000
50
270.000000
51
0.000000
0
LINE
8
0
10
3600.505012
20
1185.171719
30
0.0
11
3600.505012
21
1251.171719
31
0.0
0
ARC
8
0
10
3600.005012
20
1251.171719
30
0.0
40
0.500000
50
0.000000
51
90.000000
0
LINE
8
0
10
3600.005012
20
1251.671719
30
0.0
11
3597.505012
21
1251.671719
31
0.0
0
ARC
8
0
10
3597.505012
20
1251.171719
30
0.0
40
0.500000
50
90.000000
51
180.000000
0
LINE
8
0
10
3597.005012
20
1251.171719
30
0.0
11
3597.005012
21
1248.971719
31
0.0
0
ARC
8
0
10
3597.505012
20
1248.971719
30
0.0
40
0.500000
50
180.000000
51
0.000000
0
LINE
8
0
10
3598.005012
20
1248.971719
30
0.0
11
3598.005012
21
1250.171719
31
0.0
0
LINE
8
0
10
3598.005012
20
1250.171719
30
0.0
11
3599.205012
21
1250.171719
31
0.0
0
LINE
8
0
10
3599.205012
20
1250.171719
30
0.0
11
3599.205012
21
1242.671719
31
0.0
0
LINE
8
0
10
3599.205012
20
1242.671719
30
0.0
11
3598.005012
21
1242.671719
31
0.0
0
LINE
8
0
10
3598.005012
20
1242.671719
30
0.0
11
3598.005012
21
1243.921719
31
0.0
0
ARC
8
0
10
3597.505012
20
1243.921719
30
0.0
40
0.500000
50
0.000000
51
180.000000
0
LINE
8
0
10
3597.005012
20
1243.921719
30
0.0
11
3597.005012
21
1241.671719
31
0.0
0
ARC
8
0
10
3597.505012
20
1241.671719
30
0.0
40
0.500000
50
180.000000
51
270.000000
0
LINE
8
0
10
3597.505012
20
1241.171719
30
0.0
11
3599.005012
21
1241.171719
31
0.0
0
LINE
8
0
10
3599.005012
20
1241.171719
30
0.0
11
3599.005012
21
1229.621719
31
0.0
0
LINE
8
0
10
3599.005012
20
1229.621719
30
0.0
11
3598.716100
21
1226.780751
31
0.0
0
ARC
8
0
10
3598.218665
20
1226.831337
30
0.0
40
0.500000
50
307.093329
51
354.193273
0
LINE
8
0
10
3598.520223
20
1226.432510
30
0.0
11
3597.364949
21
1225.558995
31
0.0
0
ARC
8
0
10
3596.813202
20
1226.392307
30
0.0
40
1.000000
50
213.092391
51
303.509063
0
LINE
8
0
10
3595.975088
20
1225.846106
30
0.0
11
3595.590020
21
1226.311244
31
0.0
0
LINE
8
0
10
3595.590020
20
1226.311244
30
0.0
11
3595.527160
21
1226.516850
31
0.0
0
LINE
8
0
10
3595.527160
20
1226.516850
30
0.0
11
3594.474365
21
1226.487006
31
0.0
0
LINE
8
0
10
3546.605012
20
1211.171719
30
0.0
11
3572.205012
21
1211.171719
31
0.0
0
LINE
8
0
10
3572.205012
20
1211.171719
30
0.0
11
3572.205012
21
1225.171719
31
0.0
0
LINE
8
0
10
3572.205012
20
1225.171719
30
0.0
11
3546.605012
21
1225.171719
31
0.0
0
LINE
8
0
10
3546.605012
20
1225.171719
30
0.0
11
3546.605012
21
1211.171719
31
0.0
0
LINE
8
0
10
3548.605012
20
1206.671719
30
0.0
11
3546.605012
21
1206.671719
31
0.0
0
LINE
8
0
10
3546.605012
20
1206.671719
30
0.0
11
3546.605012
21
1209.671719
31
0.0
0
LINE
8
0
10
3546.605012
20
1209.671719
30
0.0
11
3564.605012
21
1209.671719
31
0.0
0
LINE
8
0
10
3564.605012
20
1209.671719
30
0.0
11
3564.605012
21
1206.671719
31
0.0
0
LINE
8
0
10
3564.605012
20
1206.671719
30
0.0
11
3562.605012
21
1206.671719
31
0.0
0
LINE
8
0
10
3562.605012
20
1206.671719
30
0.0
11
3562.605012
21
1205.671719
31
0.0
0
LINE
8
0
10
3562.605012
20
1205.671719
30
0.0
11
3563.605012
21
1204.671719
31
0.0
0
LINE
8
0
10
3563.605012
20
1204.671719
30
0.0
11
3566.555012
21
1204.671719
31
0.0
0
LINE
8
0
10
3566.555012
20
1204.671719
30
0.0
11
3567.555012
21
1205.671719
31
0.0
0
LINE
8
0
10
3567.555012
20
1205.671719
30
0.0
11
3567.555012
21
1206.671719
31
0.0
0
LINE
8
0
10
3567.555012
20
1206.671719
30
0.0
11
3566.105012
21
1206.671719
31
0.0
0
LINE
8
0
10
3566.105012
20
1206.671719
30
0.0
11
3566.105012
21
1209.671719
31
0.0
0
LINE
8
0
10
3566.105012
20
1209.671719
30
0.0
11
3572.205012
21
1209.671719
31
0.0
0
LINE
8
0
10
3572.205012
20
1209.671719
30
0.0
11
3572.205012
21
1206.671719
31
0.0
0
LINE
8
0
10
3572.205012
20
1206.671719
30
0.0
11
3570.755012
21
1206.671719
31
0.0
0
LINE
8
0
10
3570.755012
20
1206.671719
30
0.0
11
3570.755012
21
1205.671719
31
0.0
0
LINE
8
0
10
3570.755012
20
1205.671719
30
0.0
11
3571.755012
21
1204.671719
31
0.0
0
LINE
8
0
10
3571.755012
20
1204.671719
30
0.0
11
3573.705012
21
1204.671719
31
0.0
0
LINE
8
0
10
3573.705012
20
1204.671719
30
0.0
11
3573.705012
21
1209.522424
31
0.0
0
ARC
8
0
10
3574.205012
20
1209.522424
30
0.0
40
0.500000
50
127.093329
51
180.000000
0
LINE
8
0
10
3573.903454
20
1209.921251
30
0.0
11
3575.045075
21
1210.784443
31
0.0
0
ARC
8
0
10
3575.596822
20
1209.951130
30
0.0
40
1.000000
50
33.092391
51
123.509063
0
LINE
8
0
10
3576.434936
20
1210.497331
30
0.0
11
3576.820003
21
1210.032193
31
0.0
0
LINE
8
0
10
3576.820003
20
1210.032193
30
0.0
11
3576.882863
21
1209.826587
31
0.0
0
LINE
8
0
10
3576.882863
20
1209.826587
30
0.0
11
3577.935658
21
1209.856431
31
0.0
0
ARC
8
0
10
3577.932273
20
1210.156456
30
0.0
40
0.300000
50
272.605413
51
18.251415
0
LINE
8
0
10
3578.217181
20
1210.250412
30
0.0
11
3576.114086
21
1212.966980
31
0.0
0
ARC
8
0
10
3575.952365
20
1212.849311
30
0.0
40
0.200000
50
36.039809
51
217.049592
0
LINE
8
0
10
3575.792742
20
1212.728809
30
0.0
11
3574.252213
21
1211.564920
31
0.0
0
ARC
8
0
10
3573.991903
20
1211.415793
30
0.0
40
0.300000
50
287.000000
51
29.807633
0
LINE
8
0
10
3574.079615
20
1211.128902
30
0.0
11
3573.792723
21
1211.041190
31
0.0
0
ARC
8
0
10
3573.705012
20
1211.328082
30
0.0
40
0.300000
50
90.000000
51
287.000000
0
LINE
8
0
10
3573.705012
20
1211.628082
30
0.0
11
3573.705012
21
1216.128082
31
0.0
0
ARC
8
0
10
3573.905012
20
1216.128082
30
0.0
40
0.200000
50
60.000000
51
180.000000
0
LINE
8
0
10
3574.005012
20
1216.301287
30
0.0
11
3575.805109
21
1215.262000
31
0.0
0
ARC
8
0
10
3576.005012
20
1215.255778
30
0.0
40
0.200000
50
180.000000
51
0.000000
0
LINE
8
0
10
3576.205012
20
1215.255778
30
0.0
11
3576.205012
21
1216.647697
31
0.0
0
ARC
8
0
10
3576.005012
20
1216.647697
30
0.0
40
0.200000
50
0.000000
51
60.000000
0
LINE
8
0
10
3576.105012
20
1216.820902
30
0.0
11
3574.815329
21
1217.565501
31
0.0
0
ARC
8
0
10
3575.165329
20
1218.171719
30
0.0
40
0.700000
50
120.000000
51
240.000000
0
LINE
8
0
10
3574.815329
20
1218.777936
30
0.0
11
3576.105012
21
1219.522535
31
0.0
0
ARC
8
0
10
3576.005012
20
1219.695740
30
0.0
40
0.200000
50
300.000000
51
0.000000
0
LINE
8
0
10
3576.205012
20
1219.695740
30
0.0
11
3576.205012
21
1221.087659
31
0.0
0
ARC
8
0
10
3576.005012
20
1221.087659
30
0.0
40
0.200000
50
0.000000
51
180.000000
0
LINE
8
0
10
3575.805109
20
1221.081437
30
0.0
11
3574.005012
21
1220.042151
31
0.0
0
ARC
8
0
10
3573.905012
20
1220.215356
30
0.0
40
0.200000
50
180.000000
51
300.000000
0
LINE
8
0
10
3573.705012
20
1220.215356
30
0.0
11
3573.705012
21
1224.715356
31
0.0
0
ARC
8
0
10
3573.705012
20
1225.015356
30
0.0
40
0.300000
50
73.000000
51
270.000000
0
LINE
8
0
10
3573.792723
20
1225.302247
30
0.0
11
3574.079615
21
1225.214536
31
0.0
0
ARC
8
0
10
3573.991903
20
1224.927644
30
0.0
40
0.300000
50
330.192367
51
73.000000
0
LINE
8
0
10
3574.252213
20
1224.778517
30
0.0
11
3575.792742
21
1223.614628
31
0.0
0
ARC
8
0
10
3575.952365
20
1223.494126
30
0.0
40
0.200000
50
142.950408
51
323.960191
0
LINE
8
0
10
3576.114086
20
1223.376457
30
0.0
11
3578.217181
21
1226.093025
31
0.0
0
ARC
8
0
10
3577.932273
20
1226.186981
30
0.0
40
0.300000
50
341.748585
51
87.394587
0
LINE
8
0
10
3577.935658
20
1226.487006
30
0.0
11
3576.882863
21
1226.516850
31
0.0
0
LINE
8
0
10
3576.882863
20
1226.516850
30
0.0
11
3576.820003
21
1226.311244
31
0.0
0
LINE
8
0
10
3576.820003
20
1226.311244
30
0.0
11
3576.434936
21
1225.846106
31
0.0
0
ARC
8
0
10
3575.596822
20
1226.392307
30
0.0
40
1.000000
50
236.490937
51
326.907609
0
LINE
8
0
10
3575.045075
20
1225.558995
30
0.0
11
3573.903454
21
1226.422187
31
0.0
0
ARC
8
0
10
3574.205012
20
1226.821014
30
0.0
40
0.500000
50
180.000000
51
232.906671
0
LINE
8
0
10
3573.705012
20
1226.821014
30
0.0
11
3573.705012
21
1231.671719
31
0.0
0
LINE
8
0
10
3573.705012
20
1231.671719
30
0.0
11
3571.755012
21
1231.671719
31
0.0
0
LINE
8
0
10
3571.755012
20
1231.671719
30
0.0
11
3570.755012
21
1230.671719
31
0.0
0
LINE
8
0
10
3570.755012
20
1230.671719
30
0.0
11
3570.755012
21
1229.671719
31
0.0
0
LINE
8
0
10
3570.755012
20
1229.671719
30
0.0
11
3572.205012
21
1229.671719
31
0.0
0
LINE
8
0
10
3572.205012
20
1229.671719
30
0.0
11
3572.205012
21
1226.671719
31
0.0
0
LINE
8
0
10
3572.205012
20
1226.671719
30
0.0
11
3566.105012
21
1226.671719
31
0.0
0
LINE
8
0
10
3566.105012
20
1226.671719
30
0.0
11
3566.105012
21
1229.671719
31
0.0
0
LINE
8
0
10
3566.105012
20
1229.671719
30
0.0
11
3567.555012
21
1229.671719
31
0.0
0
LINE
8
0
10
3567.555012
20
1229.671719
30
0.0
11
3567.555012
21
1230.671719
31
0.0
0
LINE
8
0
10
3567.555012
20
1230.671719
30
0.0
11
3566.555012
21
1231.671719
31
0.0
0
LINE
8
0
10
3566.555012
20
1231.671719
30
0.0
11
3563.605012
21
1231.671719
31
0.0
0
LINE
8
0
10
3563.605012
20
1231.671719
30
0.0
11
3562.605012
21
1230.671719
31
0.0
0
LINE
8
0
10
3562.605012
20
1230.671719
30
0.0
11
3562.605012
21
1229.671719
31
0.0
0
LINE
8
0
10
3562.605012
20
1229.671719
30
0.0
11
3564.605012
21
1229.671719
31
0.0
0
LINE
8
0
10
3564.605012
20
1229.671719
30
0.0
11
3564.605012
21
1226.671719
31
0.0
0
LINE
8
0
10
3564.605012
20
1226.671719
30
0.0
11
3546.605012
21
1226.671719
31
0.0
0
LINE
8
0
10
3546.605012
20
1226.671719
30
0.0
11
3546.605012
21
1229.671719
31
0.0
0
LINE
8
0
10
3546.605012
20
1229.671719
30
0.0
11
3548.605012
21
1229.671719
31
0.0
0
LINE
8
0
10
3548.605012
20
1229.671719
30
0.0
11
3548.605012
21
1230.671719
31
0.0
0
LINE
8
0
10
3548.605012
20
1230.671719
30
0.0
11
3547.605012
21
1231.671719
31
0.0
0
LINE
8
0
10
3547.605012
20
1231.671719
30
0.0
11
3545.105012
21
1231.671719
31
0.0
0
LINE
8
0
10
3545.105012
20
1231.671719
30
0.0
11
3545.105012
21
1204.671719
31
0.0
0
LINE
8
0
10
3545.105012
20
1204.671719
30
0.0
11
3547.605012
21
1204.671719
31
0.0
0
LINE
8
0
10
3547.605012
20
1204.671719
30
0.0
11
3548.605012
21
1205.671719
31
0.0
0
LINE
8
0
10
3548.605012
20
1205.671719
30
0.0
11
3548.605012
21
1206.671719
31
0.0
0
ATTDEF
8
0
10
3573.705012
20
1231.671719
30
0.0
40
3.5
1

3

2
VC_START
70
0
0
ATTDEF
8
0
10
3573.705012
20
1204.671719
30
0.0
40
3.5
1

3

2
VC_END
70
0
0
ATTDEF
8
0
10
3600.505012
20
1184.671719
30
0.0
40
3.5
1

3

2
FP_LCS_ORIG
70
0
0
ATTDEF
8
0
10
3590.505012
20
1184.671719
30
0.0
40
3.5
1

3

2
FP_LCS_HOT
70
0
0
ATTDEF
8
0
10
3600.505012
20
1194.671719
30
0.0
40
3.5
1

3

2
FP_LCS_INTERN
70
0
0
ATTDEF
8
0
10
0.000000
20
0.000000
30
0.0
40
3.5
1

3

2
PANE_WIDTH:0
70
0
0
ATTDEF
8
0
10
0.000000
20
0.000000
30
0.0
40
3.5
1

3

2
MIN_VETRO:0
70
0
0
ATTDEF
8
0
10
0.000000
20
0.000000
30
0.0
40
3.5
1

3

2
MAX_VETRO:0
70
0
0
ATTDEF
8
0
10
0.000000
20
0.000000
30
0.0
40
3.5
1

3

2
JX:0
70
0
0
ATTDEF
8
0
10
0.000000
20
0.000000
30
0.0
40
3.5
1

3

2
WX:0
70
0
0
ATTDEF
8
0
10
0.000000
20
0.000000
30
0.0
40
3.5
1

3

2
JY:0
70
0
0
ATTDEF
8
0
10
0.000000
20
0.000000
30
0.0
40
3.5
1

3

2
WY:0
70
0
0
ATTDEF
8
0
10
0.000000
20
0.000000
30
0.0
40
3.5
1

3

2
DESC:Div.vid.p/h.Cor-3505
70
0
0
ATTDEF
8
0
10
0.000000
20
0.000000
30
0.0
40
3.5
1

3

2
DENS:1.2287
70
0
0
ATTDEF
8
0
10
0.000000
20
0.000000
30
0.0
40
3.5
1

3

2
TDEV:47.83
70
0
0
ATTDEF
8
0
10
0.000000
20
0.000000
30
0.0
40
3.5
1

3

2
TDEV2:0
70
0
0
ATTDEF
8
0
10
0.000000
20
0.000000
30
0.0
40
3.5
1

3

2
TDEV3:0
70
0
0
ATTDEF
8
0
10
0.000000
20
0.000000
30
0.0
40
3.5
1

3

2
TDEV4:0
70
0
0
ATTDEF
8
0
10
0.000000
20
0.000000
30
0.0
40
3.5
1

3

2
TDEV5:0
70
0
0
ATTDEF
8
0
10
0.000000
20
0.000000
30
0.0
40
3.5
1

3

2
PANE_WIDTH:0
70
0
0
ATTDEF
8
0
10
0.000000
20
0.000000
30
0.0
40
3.5
1

3

2
MIN_VETRO:0
70
0
0
ATTDEF
8
0
10
0.000000
20
0.000000
30
0.0
40
3.5
1

3

2
MAX_VETRO:0
70
0
0
ATTDEF
8
0
10
0.000000
20
0.000000
30
0.0
40
3.5
1

3

2
JX:0
70
0
0
ATTDEF
8
0
10
0.000000
20
0.000000
30
0.0
40
3.5
1

3

2
WX:0
70
0
0
ATTDEF
8
0
10
0.000000
20
0.000000
30
0.0
40
3.5
1

3

2
JY:0
70
0
0
ATTDEF
8
0
10
0.000000
20
0.000000
30
0.0
40
3.5
1

3

2
WY:0
70
0
0
ENDSEC
0
EOF
