0
SECTION
2
ENTITIES
0
ARC
8
0
10
3589.620709
20
1222.302498
30
0.0
40
0.145621
50
217.746080
51
0.000000
0
LINE
8
0
10
3589.505562
20
1222.213354
30
0.0
11
3587.441274
21
1224.879795
31
0.0
0
ARC
8
0
10
3587.726182
20
1224.973751
30
0.0
40
0.300000
50
90.000000
51
198.251415
0
LINE
8
0
10
3587.722797
20
1225.273776
30
0.0
11
3588.379418
21
1225.292389
31
0.0
0
ARC
8
0
10
3588.393586
20
1224.792590
30
0.0
40
0.500000
50
51.805773
51
91.623749
0
ARC
8
0
10
3589.939409
20
1226.757388
30
0.0
40
2.000000
50
231.805773
51
303.997055
0
LINE
8
0
10
3591.057710
20
1225.099255
30
0.0
11
3591.533715
21
1225.332727
31
0.0
0
ARC
8
0
10
3591.203443
20
1226.006092
30
0.0
40
0.750000
50
296.127032
51
0.000000
0
LINE
8
0
10
3591.953443
20
1226.006092
30
0.0
11
3591.953443
21
1239.961334
31
0.0
0
LINE
8
0
10
3591.953443
20
1239.961334
30
0.0
11
3590.653443
21
1239.961334
31
0.0
0
ARC
8
0
10
3590.653443
20
1240.461334
30
0.0
40
0.500000
50
180.000000
51
270.000000
0
LINE
8
0
10
3590.153443
20
1240.461334
30
0.0
11
3590.153443
21
1242.711334
31
0.0
0
ARC
8
0
10
3590.653443
20
1242.711334
30
0.0
40
0.500000
50
0.000000
51
180.000000
0
LINE
8
0
10
3591.153443
20
1242.711334
30
0.0
11
3591.153443
21
1241.461334
31
0.0
0
LINE
8
0
10
3591.153443
20
1241.461334
30
0.0
11
3592.353443
21
1241.461334
31
0.0
0
LINE
8
0
10
3592.353443
20
1241.461334
30
0.0
11
3592.353443
21
1248.961334
31
0.0
0
LINE
8
0
10
3592.353443
20
1248.961334
30
0.0
11
3591.153443
21
1248.961334
31
0.0
0
LINE
8
0
10
3591.153443
20
1248.961334
30
0.0
11
3591.153443
21
1247.711334
31
0.0
0
ARC
8
0
10
3590.653443
20
1247.711334
30
0.0
40
0.500000
50
180.000000
51
0.000000
0
LINE
8
0
10
3590.153443
20
1247.711334
30
0.0
11
3590.153443
21
1249.961334
31
0.0
0
ARC
8
0
10
3590.653443
20
1249.961334
30
0.0
40
0.500000
50
90.000000
51
180.000000
0
LINE
8
0
10
3590.653443
20
1250.461334
30
0.0
11
3593.153443
21
1250.461334
31
0.0
0
ARC
8
0
10
3593.153443
20
1249.961334
30
0.0
40
0.500000
50
0.000000
51
90.000000
0
LINE
8
0
10
3593.653443
20
1249.961334
30
0.0
11
3593.653443
21
1165.961334
31
0.0
0
ARC
8
0
10
3593.153443
20
1165.961334
30
0.0
40
0.500000
50
270.000000
51
0.000000
0
LINE
8
0
10
3593.153443
20
1165.461334
30
0.0
11
3590.653443
21
1165.461334
31
0.0
0
ARC
8
0
10
3590.653443
20
1165.961334
30
0.0
40
0.500000
50
180.000000
51
270.000000
0
LINE
8
0
10
3590.153443
20
1165.961334
30
0.0
11
3590.153443
21
1168.211334
31
0.0
0
ARC
8
0
10
3590.653443
20
1168.211334
30
0.0
40
0.500000
50
0.000000
51
180.000000
0
LINE
8
0
10
3591.153443
20
1168.211334
30
0.0
11
3591.153443
21
1166.961334
31
0.0
0
LINE
8
0
10
3591.153443
20
1166.961334
30
0.0
11
3592.353443
21
1166.961334
31
0.0
0
LINE
8
0
10
3592.353443
20
1166.961334
30
0.0
11
3592.353443
21
1174.461334
31
0.0
0
LINE
8
0
10
3592.353443
20
1174.461334
30
0.0
11
3591.153443
21
1174.461334
31
0.0
0
LINE
8
0
10
3591.153443
20
1174.461334
30
0.0
11
3591.153443
21
1173.211334
31
0.0
0
ARC
8
0
10
3590.653443
20
1173.211334
30
0.0
40
0.500000
50
180.000000
51
0.000000
0
LINE
8
0
10
3590.153443
20
1173.211334
30
0.0
11
3590.153443
21
1175.461334
31
0.0
0
ARC
8
0
10
3590.653443
20
1175.461334
30
0.0
40
0.500000
50
90.000000
51
180.000000
0
LINE
8
0
10
3590.653443
20
1175.961334
30
0.0
11
3591.953443
21
1175.961334
31
0.0
0
LINE
8
0
10
3591.953443
20
1175.961334
30
0.0
11
3591.953443
21
1189.916576
31
0.0
0
ARC
8
0
10
3591.203443
20
1189.916576
30
0.0
40
0.750000
50
0.000000
51
63.872968
0
LINE
8
0
10
3591.533715
20
1190.589941
30
0.0
11
3591.057710
21
1190.823413
31
0.0
0
ARC
8
0
10
3589.939409
20
1189.165280
30
0.0
40
2.000000
50
56.002945
51
128.194227
0
ARC
8
0
10
3588.393586
20
1191.130078
30
0.0
40
0.500000
50
268.376251
51
308.194227
0
LINE
8
0
10
3588.379418
20
1190.630279
30
0.0
11
3587.722797
21
1190.648892
31
0.0
0
ARC
8
0
10
3587.726182
20
1190.948917
30
0.0
40
0.300000
50
161.748585
51
270.000000
0
LINE
8
0
10
3587.441274
20
1191.042873
30
0.0
11
3589.505562
21
1193.709314
31
0.0
0
ARC
8
0
10
3589.620709
20
1193.620170
30
0.0
40
0.145621
50
0.000000
51
142.253920
0
LINE
8
0
10
3589.766241
20
1193.615088
30
0.0
11
3589.760811
21
1193.459601
31
0.0
0
ARC
8
0
10
3589.960689
20
1193.452621
30
0.0
40
0.200000
50
180.000000
51
231.176024
0
LINE
8
0
10
3589.835303
20
1193.296806
30
0.0
11
3591.478473
21
1191.974531
31
0.0
0
ARC
8
0
10
3591.666552
20
1192.208254
30
0.0
40
0.300000
50
231.176024
51
256.872879
0
LINE
8
0
10
3591.598418
20
1191.916094
30
0.0
11
3591.953443
21
1191.820543
31
0.0
0
ARC
8
0
10
3591.953443
20
1192.120543
30
0.0
40
0.300000
50
270.000000
51
90.000000
0
LINE
8
0
10
3591.953443
20
1192.420543
30
0.0
11
3591.953443
21
1196.920543
31
0.0
0
ARC
8
0
10
3591.753443
20
1196.920543
30
0.0
40
0.200000
50
0.000000
51
90.000000
0
LINE
8
0
10
3591.753443
20
1197.120543
30
0.0
11
3591.685555
21
1197.120543
31
0.0
0
ARC
8
0
10
3591.685555
20
1196.820543
30
0.0
40
0.300000
50
90.000000
51
121.380132
0
LINE
8
0
10
3591.529340
20
1197.076662
30
0.0
11
3589.853347
21
1196.054429
31
0.0
0
ARC
8
0
10
3589.653443
20
1196.048239
30
0.0
40
0.200000
50
180.000000
51
0.000000
0
LINE
8
0
10
3589.453443
20
1196.048239
30
0.0
11
3589.453443
21
1197.455229
31
0.0
0
ARC
8
0
10
3589.653443
20
1197.455229
30
0.0
40
0.200000
50
121.380132
51
180.000000
0
LINE
8
0
10
3589.549301
20
1197.625976
30
0.0
11
3591.617943
21
1198.887696
31
0.0
0
ARC
8
0
10
3591.253443
20
1199.485308
30
0.0
40
0.700000
50
301.380132
51
0.000000
0
LINE
8
0
10
3591.953443
20
1199.485308
30
0.0
11
3591.953443
21
1216.437360
31
0.0
0
ARC
8
0
10
3591.253443
20
1216.437360
30
0.0
40
0.700000
50
0.000000
51
58.619868
0
LINE
8
0
10
3591.617943
20
1217.034972
30
0.0
11
3589.549301
21
1218.296692
31
0.0
0
ARC
8
0
10
3589.653443
20
1218.467439
30
0.0
40
0.200000
50
180.000000
51
238.619868
0
LINE
8
0
10
3589.453443
20
1218.467439
30
0.0
11
3589.453443
21
1219.874429
31
0.0
0
ARC
8
0
10
3589.653443
20
1219.874429
30
0.0
40
0.200000
50
0.000000
51
180.000000
0
LINE
8
0
10
3589.853347
20
1219.868239
30
0.0
11
3591.529340
21
1218.846006
31
0.0
0
ARC
8
0
10
3591.685555
20
1219.102125
30
0.0
40
0.300000
50
238.619868
51
270.000000
0
LINE
8
0
10
3591.685555
20
1218.802125
30
0.0
11
3591.753443
21
1218.802125
31
0.0
0
ARC
8
0
10
3591.753443
20
1219.002125
30
0.0
40
0.200000
50
270.000000
51
0.000000
0
LINE
8
0
10
3591.953443
20
1219.002125
30
0.0
11
3591.953443
21
1223.502125
31
0.0
0
ARC
8
0
10
3591.953443
20
1223.802125
30
0.0
40
0.300000
50
270.000000
51
90.000000
0
LINE
8
0
10
3591.953443
20
1224.102125
30
0.0
11
3591.598418
21
1224.006574
31
0.0
0
ARC
8
0
10
3591.666552
20
1223.714414
30
0.0
40
0.300000
50
103.127121
51
128.823976
0
LINE
8
0
10
3591.478473
20
1223.948137
30
0.0
11
3589.835303
21
1222.625862
31
0.0
0
ARC
8
0
10
3589.960689
20
1222.470047
30
0.0
40
0.200000
50
128.823976
51
180.000000
0
LINE
8
0
10
3589.760811
20
1222.463067
30
0.0
11
3589.766241
21
1222.307580
31
0.0
0
LINE
8
0
10
3570.053539
20
1219.868239
30
0.0
11
3568.377546
21
1218.846006
31
0.0
0
ARC
8
0
10
3568.221332
20
1219.102125
30
0.0
40
0.300000
50
270.000000
51
301.380132
0
LINE
8
0
10
3568.221332
20
1218.802125
30
0.0
11
3568.153443
21
1218.802125
31
0.0
0
ARC
8
0
10
3568.153443
20
1219.002125
30
0.0
40
0.200000
50
180.000000
51
270.000000
0
LINE
8
0
10
3567.953443
20
1219.002125
30
0.0
11
3567.953443
21
1223.502125
31
0.0
0
ARC
8
0
10
3567.953443
20
1223.802125
30
0.0
40
0.300000
50
90.000000
51
270.000000
0
LINE
8
0
10
3567.953443
20
1224.102125
30
0.0
11
3568.308468
21
1224.006574
31
0.0
0
ARC
8
0
10
3568.240335
20
1223.714414
30
0.0
40
0.300000
50
51.176024
51
76.872879
0
LINE
8
0
10
3568.428414
20
1223.948137
30
0.0
11
3570.071583
21
1222.625862
31
0.0
0
ARC
8
0
10
3569.946197
20
1222.470047
30
0.0
40
0.200000
50
0.000000
51
51.176024
0
LINE
8
0
10
3570.146076
20
1222.463067
30
0.0
11
3570.140646
21
1222.307580
31
0.0
0
ARC
8
0
10
3570.286178
20
1222.302498
30
0.0
40
0.145621
50
180.000000
51
322.253920
0
LINE
8
0
10
3570.401325
20
1222.213354
30
0.0
11
3572.465612
21
1224.879795
31
0.0
0
ARC
8
0
10
3572.180705
20
1224.973751
30
0.0
40
0.300000
50
341.748585
51
90.000000
0
LINE
8
0
10
3572.184090
20
1225.273776
30
0.0
11
3571.527468
21
1225.292389
31
0.0
0
ARC
8
0
10
3571.513300
20
1224.792590
30
0.0
40
0.500000
50
88.376251
51
128.194227
0
ARC
8
0
10
3569.967477
20
1226.757388
30
0.0
40
2.000000
50
236.002945
51
308.194227
0
LINE
8
0
10
3568.849177
20
1225.099255
30
0.0
11
3568.065802
21
1225.483485
31
0.0
0
ARC
8
0
10
3568.153875
20
1225.663049
30
0.0
40
0.200000
50
180.000000
51
243.872968
0
LINE
8
0
10
3567.953875
20
1225.663049
30
0.0
11
3567.953875
21
1230.461334
31
0.0
0
LINE
8
0
10
3567.953875
20
1230.461334
30
0.0
11
3566.003875
21
1230.461334
31
0.0
0
LINE
8
0
10
3566.003875
20
1230.461334
30
0.0
11
3565.003875
21
1229.461334
31
0.0
0
LINE
8
0
10
3565.003875
20
1229.461334
30
0.0
11
3565.003875
21
1228.461334
31
0.0
0
LINE
8
0
10
3565.003875
20
1228.461334
30
0.0
11
3566.453875
21
1228.461334
31
0.0
0
LINE
8
0
10
3566.453875
20
1228.461334
30
0.0
11
3566.453875
21
1225.461334
31
0.0
0
LINE
8
0
10
3566.453875
20
1225.461334
30
0.0
11
3560.353875
21
1225.461334
31
0.0
0
LINE
8
0
10
3560.353875
20
1225.461334
30
0.0
11
3560.353875
21
1228.461334
31
0.0
0
LINE
8
0
10
3560.353875
20
1228.461334
30
0.0
11
3561.803875
21
1228.461334
31
0.0
0
LINE
8
0
10
3561.803875
20
1228.461334
30
0.0
11
3561.803875
21
1229.461334
31
0.0
0
LINE
8
0
10
3561.803875
20
1229.461334
30
0.0
11
3560.803875
21
1230.461334
31
0.0
0
LINE
8
0
10
3560.803875
20
1230.461334
30
0.0
11
3557.853875
21
1230.461334
31
0.0
0
LINE
8
0
10
3557.853875
20
1230.461334
30
0.0
11
3556.853875
21
1229.461334
31
0.0
0
LINE
8
0
10
3556.853875
20
1229.461334
30
0.0
11
3556.853875
21
1228.461334
31
0.0
0
LINE
8
0
10
3556.853875
20
1228.461334
30
0.0
11
3558.853875
21
1228.461334
31
0.0
0
LINE
8
0
10
3558.853875
20
1228.461334
30
0.0
11
3558.853875
21
1225.461334
31
0.0
0
LINE
8
0
10
3558.853875
20
1225.461334
30
0.0
11
3540.853875
21
1225.461334
31
0.0
0
LINE
8
0
10
3540.853875
20
1225.461334
30
0.0
11
3540.853875
21
1228.461334
31
0.0
0
LINE
8
0
10
3540.853875
20
1228.461334
30
0.0
11
3542.853875
21
1228.461334
31
0.0
0
LINE
8
0
10
3542.853875
20
1228.461334
30
0.0
11
3542.853875
21
1229.461334
31
0.0
0
LINE
8
0
10
3542.853875
20
1229.461334
30
0.0
11
3541.853875
21
1230.461334
31
0.0
0
LINE
8
0
10
3541.853875
20
1230.461334
30
0.0
11
3539.353875
21
1230.461334
31
0.0
0
LINE
8
0
10
3539.353875
20
1230.461334
30
0.0
11
3539.353875
21
1185.461334
31
0.0
0
LINE
8
0
10
3539.353875
20
1185.461334
30
0.0
11
3541.853875
21
1185.461334
31
0.0
0
LINE
8
0
10
3541.853875
20
1185.461334
30
0.0
11
3542.853875
21
1186.461334
31
0.0
0
LINE
8
0
10
3542.853875
20
1186.461334
30
0.0
11
3542.853875
21
1187.461334
31
0.0
0
LINE
8
0
10
3542.853875
20
1187.461334
30
0.0
11
3540.853875
21
1187.461334
31
0.0
0
LINE
8
0
10
3540.853875
20
1187.461334
30
0.0
11
3540.853875
21
1190.461334
31
0.0
0
LINE
8
0
10
3540.853875
20
1190.461334
30
0.0
11
3558.853875
21
1190.461334
31
0.0
0
LINE
8
0
10
3558.853875
20
1190.461334
30
0.0
11
3558.853875
21
1187.461334
31
0.0
0
LINE
8
0
10
3558.853875
20
1187.461334
30
0.0
11
3556.853875
21
1187.461334
31
0.0
0
LINE
8
0
10
3556.853875
20
1187.461334
30
0.0
11
3556.853875
21
1186.461334
31
0.0
0
LINE
8
0
10
3556.853875
20
1186.461334
30
0.0
11
3557.853875
21
1185.461334
31
0.0
0
LINE
8
0
10
3557.853875
20
1185.461334
30
0.0
11
3560.803875
21
1185.461334
31
0.0
0
LINE
8
0
10
3560.803875
20
1185.461334
30
0.0
11
3561.803875
21
1186.461334
31
0.0
0
LINE
8
0
10
3561.803875
20
1186.461334
30
0.0
11
3561.803875
21
1187.461334
31
0.0
0
LINE
8
0
10
3561.803875
20
1187.461334
30
0.0
11
3560.353875
21
1187.461334
31
0.0
0
LINE
8
0
10
3560.353875
20
1187.461334
30
0.0
11
3560.353875
21
1190.461334
31
0.0
0
LINE
8
0
10
3560.353875
20
1190.461334
30
0.0
11
3566.453875
21
1190.461334
31
0.0
0
LINE
8
0
10
3566.453875
20
1190.461334
30
0.0
11
3566.453875
21
1187.461334
31
0.0
0
LINE
8
0
10
3566.453875
20
1187.461334
30
0.0
11
3565.003875
21
1187.461334
31
0.0
0
LINE
8
0
10
3565.003875
20
1187.461334
30
0.0
11
3565.003875
21
1186.461334
31
0.0
0
LINE
8
0
10
3565.003875
20
1186.461334
30
0.0
11
3566.003875
21
1185.461334
31
0.0
0
LINE
8
0
10
3566.003875
20
1185.461334
30
0.0
11
3567.953875
21
1185.461334
31
0.0
0
LINE
8
0
10
3567.953875
20
1185.461334
30
0.0
11
3567.953875
21
1190.259619
31
0.0
0
ARC
8
0
10
3568.153875
20
1190.259619
30
0.0
40
0.200000
50
116.127032
51
180.000000
0
LINE
8
0
10
3568.065802
20
1190.439183
30
0.0
11
3568.849177
21
1190.823413
31
0.0
0
ARC
8
0
10
3569.967477
20
1189.165280
30
0.0
40
2.000000
50
51.805773
51
123.997055
0
ARC
8
0
10
3571.513300
20
1191.130078
30
0.0
40
0.500000
50
231.805773
51
271.623749
0
LINE
8
0
10
3571.527468
20
1190.630279
30
0.0
11
3572.184090
21
1190.648892
31
0.0
0
ARC
8
0
10
3572.180705
20
1190.948917
30
0.0
40
0.300000
50
270.000000
51
18.251415
0
LINE
8
0
10
3572.465612
20
1191.042873
30
0.0
11
3570.401325
21
1193.709314
31
0.0
0
ARC
8
0
10
3570.286178
20
1193.620170
30
0.0
40
0.145621
50
37.746080
51
180.000000
0
LINE
8
0
10
3570.140646
20
1193.615088
30
0.0
11
3570.146076
21
1193.459601
31
0.0
0
ARC
8
0
10
3569.946197
20
1193.452621
30
0.0
40
0.200000
50
308.823976
51
0.000000
0
LINE
8
0
10
3570.071583
20
1193.296806
30
0.0
11
3568.428414
21
1191.974531
31
0.0
0
ARC
8
0
10
3568.240335
20
1192.208254
30
0.0
40
0.300000
50
283.127121
51
308.823976
0
LINE
8
0
10
3568.308468
20
1191.916094
30
0.0
11
3567.953443
21
1191.820543
31
0.0
0
ARC
8
0
10
3567.953443
20
1192.120543
30
0.0
40
0.300000
50
90.000000
51
270.000000
0
LINE
8
0
10
3567.953443
20
1192.420543
30
0.0
11
3567.953443
21
1196.920543
31
0.0
0
ARC
8
0
10
3568.153443
20
1196.920543
30
0.0
40
0.200000
50
90.000000
51
180.000000
0
LINE
8
0
10
3568.153443
20
1197.120543
30
0.0
11
3568.221332
21
1197.120543
31
0.0
0
ARC
8
0
10
3568.221332
20
1196.820543
30
0.0
40
0.300000
50
58.619868
51
90.000000
0
LINE
8
0
10
3568.377546
20
1197.076662
30
0.0
11
3570.053539
21
1196.054429
31
0.0
0
ARC
8
0
10
3570.253443
20
1196.048239
30
0.0
40
0.200000
50
180.000000
51
0.000000
0
LINE
8
0
10
3570.453443
20
1196.048239
30
0.0
11
3570.453443
21
1197.432019
31
0.0
0
ARC
8
0
10
3570.253443
20
1197.432019
30
0.0
40
0.200000
50
0.000000
51
60.153120
0
LINE
8
0
10
3570.352980
20
1197.605491
30
0.0
11
3568.205033
21
1198.837967
31
0.0
0
ARC
8
0
10
3568.453875
20
1199.271646
30
0.0
40
0.500000
50
180.000000
51
240.153120
0
LINE
8
0
10
3567.953875
20
1199.271646
30
0.0
11
3567.953875
21
1216.651022
31
0.0
0
ARC
8
0
10
3568.453875
20
1216.651022
30
0.0
40
0.500000
50
119.846880
51
180.000000
0
LINE
8
0
10
3568.205033
20
1217.084701
30
0.0
11
3570.352980
21
1218.317177
31
0.0
0
ARC
8
0
10
3570.253443
20
1218.490649
30
0.0
40
0.200000
50
299.846880
51
0.000000
0
LINE
8
0
10
3570.453443
20
1218.490649
30
0.0
11
3570.453443
21
1219.874429
31
0.0
0
ARC
8
0
10
3570.253443
20
1219.874429
30
0.0
40
0.200000
50
0.000000
51
180.000000
0
LINE
8
0
10
3566.253875
20
1223.761334
30
0.0
11
3566.253875
21
1192.161334
31
0.0
0
LINE
8
0
10
3566.253875
20
1192.161334
30
0.0
11
3541.053875
21
1192.161334
31
0.0
0
LINE
8
0
10
3541.053875
20
1192.161334
30
0.0
11
3541.053875
21
1223.761334
31
0.0
0
LINE
8
0
10
3541.053875
20
1223.761334
30
0.0
11
3566.253875
21
1223.761334
31
0.0
0
ARC
8
0
10
3568.703443
20
1221.178991
30
0.0
40
0.600000
50
0.000000
51
180.000000
0
ARC
8
0
10
3568.703443
20
1221.178991
30
0.0
40
0.600000
50
180.000000
51
0.000000
0
ARC
8
0
10
3568.703443
20
1194.743677
30
0.0
40
0.600000
50
0.000000
51
180.000000
0
ARC
8
0
10
3568.703443
20
1194.743677
30
0.0
40
0.600000
50
180.000000
51
0.000000
0
ARC
8
0
10
3591.203443
20
1221.178991
30
0.0
40
0.600000
50
0.000000
51
180.000000
0
ARC
8
0
10
3591.203443
20
1221.178991
30
0.0
40
0.600000
50
180.000000
51
0.000000
0
ARC
8
0
10
3591.203443
20
1194.743677
30
0.0
40
0.600000
50
0.000000
51
180.000000
0
ARC
8
0
10
3591.203443
20
1194.743677
30
0.0
40
0.600000
50
180.000000
51
0.000000
0
LINE
8
0
10
3574.703443
20
1230.008008
30
0.0
11
3574.974426
21
1230.278991
31
0.0
0
LINE
8
0
10
3568.719281
20
1221.778782
30
0.0
11
3569.631930
21
1222.691431
31
0.0
0
LINE
8
0
10
3574.703443
20
1227.762944
30
0.0
11
3577.219490
21
1230.278991
31
0.0
0
LINE
8
0
10
3568.272773
20
1219.087210
30
0.0
11
3576.203443
21
1227.017880
31
0.0
0
LINE
8
0
10
3571.540892
20
1220.110265
30
0.0
11
3572.448006
21
1221.017379
31
0.0
0
LINE
8
0
10
3574.709618
20
1223.278991
30
0.0
11
3576.709618
21
1225.278991
31
0.0
0
LINE
8
0
10
3576.954682
20
1223.278991
30
0.0
11
3578.954682
21
1225.278991
31
0.0
0
LINE
8
0
10
3582.454682
20
1228.778991
30
0.0
11
3583.954682
21
1230.278991
31
0.0
0
LINE
8
0
10
3579.199746
20
1223.278991
30
0.0
11
3581.199746
21
1225.278991
31
0.0
0
LINE
8
0
10
3583.703443
20
1227.782688
30
0.0
11
3585.203443
21
1229.282688
31
0.0
0
LINE
8
0
10
3581.444810
20
1223.278991
30
0.0
11
3585.203443
21
1227.037624
31
0.0
0
LINE
8
0
10
3583.689874
20
1223.278991
30
0.0
11
3585.690053
21
1225.279170
31
0.0
0
LINE
8
0
10
3585.846836
20
1223.190889
30
0.0
11
3587.397611
21
1224.741663
31
0.0
0
LINE
8
0
10
3586.848987
20
1221.947976
30
0.0
11
3588.289516
21
1223.388505
31
0.0
0
LINE
8
0
10
3587.737827
20
1220.591752
30
0.0
11
3589.426558
21
1222.280483
31
0.0
0
LINE
8
0
10
3589.461853
20
1220.070714
30
0.0
11
3590.604424
21
1221.213285
31
0.0
0
LINE
8
0
10
3591.169149
20
1221.778010
30
0.0
11
3591.953443
21
1222.562304
31
0.0
0
LINE
8
0
10
3567.953443
20
1196.317240
30
0.0
11
3568.479881
21
1196.843677
31
0.0
0
LINE
8
0
10
3590.926172
20
1219.289969
30
0.0
11
3591.853443
21
1220.217240
31
0.0
0
LINE
8
0
10
3569.086639
20
1195.205371
30
0.0
11
3569.952188
21
1196.070921
31
0.0
0
LINE
8
0
10
3568.981360
20
1192.855029
30
0.0
11
3571.819830
21
1195.693499
31
0.0
0
LINE
8
0
10
3571.334587
20
1192.963191
30
0.0
11
3572.776087
21
1194.404692
31
0.0
0
LINE
8
0
10
3572.226492
20
1191.610032
30
0.0
11
3573.666059
21
1193.049599
31
0.0
0
LINE
8
0
10
3573.505201
20
1190.643677
30
0.0
11
3575.505201
21
1192.643677
31
0.0
0
LINE
8
0
10
3574.703443
20
1189.596856
30
0.0
11
3577.750265
21
1192.643677
31
0.0
0
LINE
8
0
10
3574.703443
20
1187.351792
30
0.0
11
3576.203443
21
1188.851792
31
0.0
0
LINE
8
0
10
3577.995329
20
1190.643677
30
0.0
11
3579.995329
21
1192.643677
31
0.0
0
LINE
8
0
10
3575.240393
20
1185.643677
30
0.0
11
3576.740393
21
1187.143677
31
0.0
0
LINE
8
0
10
3580.240393
20
1190.643677
30
0.0
11
3582.240393
21
1192.643677
31
0.0
0
LINE
8
0
10
3577.485457
20
1185.643677
30
0.0
11
3577.703443
21
1185.861664
31
0.0
0
LINE
8
0
10
3582.485457
20
1190.643677
30
0.0
11
3584.485457
21
1192.643677
31
0.0
0
LINE
8
0
10
3583.703443
20
1189.616600
30
0.0
11
3590.436211
21
1196.349367
31
0.0
0
LINE
8
0
10
3582.203443
20
1185.871536
30
0.0
11
3583.475585
21
1187.143677
31
0.0
0
LINE
8
0
10
3591.600585
20
1195.268677
30
0.0
11
3591.853443
21
1195.521536
31
0.0
0
LINE
8
0
10
3583.703443
20
1187.371536
30
0.0
11
3585.203443
21
1188.871536
31
0.0
0
LINE
8
0
10
3589.823950
20
1193.492042
30
0.0
11
3590.720094
21
1194.388187
31
0.0
0
LINE
8
0
10
3587.080127
20
1190.748220
30
0.0
11
3587.169623
21
1190.837715
31
0.0
0
LINE
8
0
10
3584.220649
20
1185.643677
30
0.0
11
3585.203443
21
1186.626472
31
0.0
0
LINE
8
0
10
3591.246430
20
1192.669458
30
0.0
11
3591.953443
21
1193.376472
31
0.0
0
LINE
8
0
10
3575.855498
20
1185.643677
30
0.0
11
3574.703443
21
1186.795732
31
0.0
0
LINE
8
0
10
3568.767700
20
1192.731475
30
0.0
11
3567.953443
21
1193.545732
31
0.0
0
LINE
8
0
10
3577.703443
20
1186.040796
30
0.0
11
3576.600562
21
1187.143677
31
0.0
0
LINE
8
0
10
3568.454598
20
1195.289641
30
0.0
11
3568.053443
21
1195.690796
31
0.0
0
LINE
8
0
10
3576.203443
20
1187.540796
30
0.0
11
3574.703443
21
1189.040796
31
0.0
0
LINE
8
0
10
3570.190181
20
1193.554058
30
0.0
11
3569.249407
21
1194.494832
31
0.0
0
LINE
8
0
10
3573.099454
20
1190.644785
30
0.0
11
3572.404939
21
1191.339301
31
0.0
0
LINE
8
0
10
3576.203443
20
1189.785860
30
0.0
11
3569.872027
21
1196.117276
31
0.0
0
LINE
8
0
10
3582.590690
20
1185.643677
30
0.0
11
3582.203443
21
1186.030924
31
0.0
0
LINE
8
0
10
3577.590690
20
1190.643677
30
0.0
11
3575.590690
21
1192.643677
31
0.0
0
LINE
8
0
10
3584.835754
20
1185.643677
30
0.0
11
3583.335754
21
1187.143677
31
0.0
0
LINE
8
0
10
3579.835754
20
1190.643677
30
0.0
11
3577.835754
21
1192.643677
31
0.0
0
LINE
8
0
10
3585.203443
20
1187.521052
30
0.0
11
3583.703443
21
1189.021052
31
0.0
0
LINE
8
0
10
3582.080818
20
1190.643677
30
0.0
11
3580.080818
21
1192.643677
31
0.0
0
LINE
8
0
10
3585.203443
20
1189.766116
30
0.0
11
3582.325882
21
1192.643677
31
0.0
0
LINE
8
0
10
3586.570946
20
1190.643677
30
0.0
11
3584.570946
21
1192.643677
31
0.0
0
LINE
8
0
10
3587.747638
20
1191.712050
30
0.0
11
3586.308970
21
1193.150717
31
0.0
0
LINE
8
0
10
3588.639543
20
1193.065209
30
0.0
11
3587.197811
21
1194.506940
31
0.0
0
LINE
8
0
10
3591.301432
20
1192.648384
30
0.0
11
3588.197199
21
1195.752617
31
0.0
0
LINE
8
0
10
3590.921547
20
1195.273332
30
0.0
11
3590.061942
21
1196.132937
31
0.0
0
LINE
8
0
10
3591.950858
20
1196.489086
30
0.0
11
3591.598852
21
1196.841092
31
0.0
0
LINE
8
0
10
3569.087958
20
1219.351985
30
0.0
11
3568.053443
21
1220.386500
31
0.0
0
LINE
8
0
10
3570.606017
20
1220.078991
30
0.0
11
3569.242458
21
1221.442550
31
0.0
0
LINE
8
0
10
3568.967002
20
1221.718005
30
0.0
11
3567.953443
21
1222.731564
31
0.0
0
LINE
8
0
10
3572.236071
20
1220.694001
30
0.0
11
3570.640977
21
1222.289094
31
0.0
0
LINE
8
0
10
3573.124911
20
1222.050224
30
0.0
11
3571.684613
21
1223.490522
31
0.0
0
LINE
8
0
10
3574.183322
20
1223.236878
30
0.0
11
3572.576519
21
1224.843681
31
0.0
0
LINE
8
0
10
3576.386273
20
1223.278991
30
0.0
11
3574.360850
21
1225.304414
31
0.0
0
LINE
8
0
10
3578.631337
20
1223.278991
30
0.0
11
3576.625173
21
1225.285155
31
0.0
0
LINE
8
0
10
3576.209608
20
1225.700720
30
0.0
11
3574.703443
21
1227.206884
31
0.0
0
LINE
8
0
10
3580.876401
20
1223.278991
30
0.0
11
3578.876401
21
1225.278991
31
0.0
0
LINE
8
0
10
3576.203443
20
1227.951948
30
0.0
11
3574.703443
21
1229.451948
31
0.0
0
LINE
8
0
10
3583.121465
20
1223.278991
30
0.0
11
3581.121465
21
1225.278991
31
0.0
0
LINE
8
0
10
3577.597805
20
1228.802650
30
0.0
11
3576.121465
21
1230.278991
31
0.0
0
LINE
8
0
10
3588.565338
20
1220.080182
30
0.0
11
3587.136991
21
1221.508528
31
0.0
0
LINE
8
0
10
3585.366529
20
1223.278991
30
0.0
11
3583.345827
21
1225.299692
31
0.0
0
LINE
8
0
10
3591.756324
20
1219.134260
30
0.0
11
3585.600982
21
1225.289601
31
0.0
0
LINE
8
0
10
3585.214054
20
1225.676530
30
0.0
11
3583.703443
21
1227.187140
31
0.0
0
LINE
8
0
10
3591.384686
20
1221.750962
30
0.0
11
3590.382200
21
1222.753447
31
0.0
0
LINE
8
0
10
3585.203443
20
1227.932204
30
0.0
11
3582.856657
21
1230.278991
31
0.0
0
ARC
8
0
10
3586.774165
20
1224.778991
30
0.0
40
0.500000
50
33.390000
51
90.000000
0
LINE
8
0
10
3586.774165
20
1225.278991
30
0.0
11
3585.703443
21
1225.278991
31
0.0
0
ARC
8
0
10
3585.703443
20
1225.778991
30
0.0
40
0.500000
50
180.000000
51
270.000000
0
LINE
8
0
10
3585.203443
20
1225.778991
30
0.0
11
3585.203443
21
1230.078991
31
0.0
0
ARC
8
0
10
3585.003443
20
1230.078991
30
0.0
40
0.200000
50
0.000000
51
90.000000
0
LINE
8
0
10
3585.003443
20
1230.278991
30
0.0
11
3582.403443
21
1230.278991
31
0.0
0
ARC
8
0
10
3582.403443
20
1230.078991
30
0.0
40
0.200000
50
90.000000
51
180.000000
0
LINE
8
0
10
3582.203443
20
1230.078991
30
0.0
11
3582.203443
21
1228.978991
31
0.0
0
ARC
8
0
10
3582.403443
20
1228.978991
30
0.0
40
0.200000
50
180.000000
51
270.000000
0
LINE
8
0
10
3582.403443
20
1228.778991
30
0.0
11
3583.503443
21
1228.778991
31
0.0
0
ARC
8
0
10
3583.503443
20
1228.578991
30
0.0
40
0.200000
50
0.000000
51
90.000000
0
LINE
8
0
10
3583.703443
20
1228.578991
30
0.0
11
3583.703443
21
1225.778991
31
0.0
0
ARC
8
0
10
3583.203443
20
1225.778991
30
0.0
40
0.500000
50
270.000000
51
0.000000
0
LINE
8
0
10
3583.203443
20
1225.278991
30
0.0
11
3579.953443
21
1225.278991
31
0.0
0
LINE
8
0
10
3579.953443
20
1225.278991
30
0.0
11
3576.703443
21
1225.278991
31
0.0
0
ARC
8
0
10
3576.703443
20
1225.778991
30
0.0
40
0.500000
50
180.000000
51
270.000000
0
LINE
8
0
10
3576.203443
20
1225.778991
30
0.0
11
3576.203443
21
1228.578991
31
0.0
0
ARC
8
0
10
3576.403443
20
1228.578991
30
0.0
40
0.200000
50
90.000000
51
180.000000
0
LINE
8
0
10
3576.403443
20
1228.778991
30
0.0
11
3577.503443
21
1228.778991
31
0.0
0
ARC
8
0
10
3577.503443
20
1228.978991
30
0.0
40
0.200000
50
270.000000
51
0.000000
0
LINE
8
0
10
3577.703443
20
1228.978991
30
0.0
11
3577.703443
21
1230.078991
31
0.0
0
ARC
8
0
10
3577.503443
20
1230.078991
30
0.0
40
0.200000
50
0.000000
51
90.000000
0
LINE
8
0
10
3577.503443
20
1230.278991
30
0.0
11
3574.903443
21
1230.278991
31
0.0
0
ARC
8
0
10
3574.903443
20
1230.078991
30
0.0
40
0.200000
50
90.000000
51
180.000000
0
LINE
8
0
10
3574.703443
20
1230.078991
30
0.0
11
3574.703443
21
1225.778991
31
0.0
0
ARC
8
0
10
3574.203443
20
1225.778991
30
0.0
40
0.500000
50
270.000000
51
0.000000
0
LINE
8
0
10
3574.203443
20
1225.278991
30
0.0
11
3573.132722
21
1225.278991
31
0.0
0
ARC
8
0
10
3573.132722
20
1224.778991
30
0.0
40
0.500000
50
90.000000
51
146.610000
0
LINE
8
0
10
3572.715250
20
1225.054158
30
0.0
11
3571.084746
21
1222.580430
31
0.0
0
ARC
8
0
10
3570.525029
20
1222.949356
30
0.0
40
0.670365
50
239.960294
51
326.610000
0
LINE
8
0
10
3570.189444
20
1222.369035
30
0.0
11
3568.658294
21
1223.254460
31
0.0
0
LINE
8
0
10
3568.658294
20
1223.254460
30
0.0
11
3568.562323
21
1223.278991
31
0.0
0
LINE
8
0
10
3568.562323
20
1223.278991
30
0.0
11
3568.353443
21
1223.278991
31
0.0
0
ARC
8
0
10
3568.353443
20
1222.878991
30
0.0
40
0.400000
50
90.000000
51
180.000000
0
LINE
8
0
10
3567.953443
20
1222.878991
30
0.0
11
3567.953443
21
1222.278991
31
0.0
0
LINE
8
0
10
3567.953443
20
1222.278991
30
0.0
11
3568.053443
21
1222.278991
31
0.0
0
LINE
8
0
10
3568.053443
20
1222.278991
30
0.0
11
3568.053443
21
1221.903991
31
0.0
0
ARC
8
0
10
3568.253443
20
1221.903991
30
0.0
40
0.200000
50
180.000000
51
270.000000
0
LINE
8
0
10
3568.253443
20
1221.703991
30
0.0
11
3568.412970
21
1221.703991
31
0.0
0
ARC
8
0
10
3568.703443
20
1221.178991
30
0.0
40
0.600000
50
0.000000
51
118.955024
0
ARC
8
0
10
3568.703443
20
1221.178991
30
0.0
40
0.600000
50
241.044976
51
0.000000
0
LINE
8
0
10
3568.412970
20
1220.653991
30
0.0
11
3568.253443
21
1220.653991
31
0.0
0
ARC
8
0
10
3568.253443
20
1220.453991
30
0.0
40
0.200000
50
90.000000
51
180.000000
0
LINE
8
0
10
3568.053443
20
1220.453991
30
0.0
11
3568.053443
21
1220.078991
31
0.0
0
LINE
8
0
10
3568.053443
20
1220.078991
30
0.0
11
3567.953443
21
1220.078991
31
0.0
0
LINE
8
0
10
3567.953443
20
1220.078991
30
0.0
11
3567.953443
21
1219.478991
31
0.0
0
ARC
8
0
10
3568.353443
20
1219.478991
30
0.0
40
0.400000
50
180.000000
51
270.000000
0
LINE
8
0
10
3568.353443
20
1219.078991
30
0.0
11
3568.562323
21
1219.078991
31
0.0
0
LINE
8
0
10
3568.562323
20
1219.078991
30
0.0
11
3568.658294
21
1219.103521
31
0.0
0
LINE
8
0
10
3568.658294
20
1219.103521
30
0.0
11
3570.159333
21
1219.971534
31
0.0
0
ARC
8
0
10
3570.559813
20
1219.278991
30
0.0
40
0.800000
50
90.000000
51
120.039706
0
LINE
8
0
10
3570.559813
20
1220.078991
30
0.0
11
3571.292759
21
1220.078991
31
0.0
0
ARC
8
0
10
3571.292759
20
1221.078991
30
0.0
40
1.000000
50
270.000000
51
326.760000
0
LINE
8
0
10
3572.129141
20
1220.530843
30
0.0
11
3573.634084
21
1222.827138
31
0.0
0
ARC
8
0
10
3574.470466
20
1222.278991
30
0.0
40
1.000000
50
90.000000
51
146.760000
0
LINE
8
0
10
3574.470466
20
1223.278991
30
0.0
11
3585.436420
21
1223.278991
31
0.0
0
ARC
8
0
10
3585.436420
20
1222.278991
30
0.0
40
1.000000
50
33.240000
51
90.000000
0
LINE
8
0
10
3586.272802
20
1222.827138
30
0.0
11
3587.777746
21
1220.530843
31
0.0
0
ARC
8
0
10
3588.614128
20
1221.078991
30
0.0
40
1.000000
50
213.240000
51
270.000000
0
LINE
8
0
10
3588.614128
20
1220.078991
30
0.0
11
3589.347074
21
1220.078991
31
0.0
0
ARC
8
0
10
3589.347074
20
1219.278991
30
0.0
40
0.800000
50
59.960294
51
90.000000
0
LINE
8
0
10
3589.747554
20
1219.971534
30
0.0
11
3591.248593
21
1219.103521
31
0.0
0
LINE
8
0
10
3591.248593
20
1219.103521
30
0.0
11
3591.344563
21
1219.078991
31
0.0
0
LINE
8
0
10
3591.344563
20
1219.078991
30
0.0
11
3591.553443
21
1219.078991
31
0.0
0
ARC
8
0
10
3591.553443
20
1219.478991
30
0.0
40
0.400000
50
270.000000
51
0.000000
0
LINE
8
0
10
3591.953443
20
1219.478991
30
0.0
11
3591.953443
21
1220.078991
31
0.0
0
LINE
8
0
10
3591.953443
20
1220.078991
30
0.0
11
3591.853443
21
1220.078991
31
0.0
0
LINE
8
0
10
3591.853443
20
1220.078991
30
0.0
11
3591.853443
21
1220.453991
31
0.0
0
ARC
8
0
10
3591.653443
20
1220.453991
30
0.0
40
0.200000
50
0.000000
51
90.000000
0
LINE
8
0
10
3591.653443
20
1220.653991
30
0.0
11
3591.493917
21
1220.653991
31
0.0
0
ARC
8
0
10
3591.203443
20
1221.178991
30
0.0
40
0.600000
50
180.000000
51
298.955024
0
ARC
8
0
10
3591.203443
20
1221.178991
30
0.0
40
0.600000
50
61.044976
51
180.000000
0
LINE
8
0
10
3591.493917
20
1221.703991
30
0.0
11
3591.653443
21
1221.703991
31
0.0
0
ARC
8
0
10
3591.653443
20
1221.903991
30
0.0
40
0.200000
50
270.000000
51
0.000000
0
LINE
8
0
10
3591.853443
20
1221.903991
30
0.0
11
3591.853443
21
1222.278991
31
0.0
0
LINE
8
0
10
3591.853443
20
1222.278991
30
0.0
11
3591.953443
21
1222.278991
31
0.0
0
LINE
8
0
10
3591.953443
20
1222.278991
30
0.0
11
3591.953443
21
1222.878991
31
0.0
0
ARC
8
0
10
3591.553443
20
1222.878991
30
0.0
40
0.400000
50
0.000000
51
90.000000
0
LINE
8
0
10
3591.553443
20
1223.278991
30
0.0
11
3591.344563
21
1223.278991
31
0.0
0
LINE
8
0
10
3591.344563
20
1223.278991
30
0.0
11
3591.248593
21
1223.254460
31
0.0
0
LINE
8
0
10
3591.248593
20
1223.254460
30
0.0
11
3589.717443
21
1222.369035
31
0.0
0
ARC
8
0
10
3589.381858
20
1222.949356
30
0.0
40
0.670365
50
213.390000
51
300.039706
0
LINE
8
0
10
3588.822140
20
1222.580430
30
0.0
11
3587.191637
21
1225.054158
31
0.0
0
ARC
8
0
10
3586.774165
20
1191.143677
30
0.0
40
0.500000
50
270.000000
51
326.610000
0
LINE
8
0
10
3586.774165
20
1190.643677
30
0.0
11
3585.703443
21
1190.643677
31
0.0
0
ARC
8
0
10
3585.703443
20
1190.143677
30
0.0
40
0.500000
50
90.000000
51
180.000000
0
LINE
8
0
10
3585.203443
20
1190.143677
30
0.0
11
3585.203443
21
1185.843677
31
0.0
0
ARC
8
0
10
3585.003443
20
1185.843677
30
0.0
40
0.200000
50
270.000000
51
0.000000
0
LINE
8
0
10
3585.003443
20
1185.643677
30
0.0
11
3582.403443
21
1185.643677
31
0.0
0
ARC
8
0
10
3582.403443
20
1185.843677
30
0.0
40
0.200000
50
180.000000
51
270.000000
0
LINE
8
0
10
3582.203443
20
1185.843677
30
0.0
11
3582.203443
21
1186.943677
31
0.0
0
ARC
8
0
10
3582.403443
20
1186.943677
30
0.0
40
0.200000
50
90.000000
51
180.000000
0
LINE
8
0
10
3582.403443
20
1187.143677
30
0.0
11
3583.503443
21
1187.143677
31
0.0
0
ARC
8
0
10
3583.503443
20
1187.343677
30
0.0
40
0.200000
50
270.000000
51
0.000000
0
LINE
8
0
10
3583.703443
20
1187.343677
30
0.0
11
3583.703443
21
1190.143677
31
0.0
0
ARC
8
0
10
3583.203443
20
1190.143677
30
0.0
40
0.500000
50
0.000000
51
90.000000
0
LINE
8
0
10
3583.203443
20
1190.643677
30
0.0
11
3579.953443
21
1190.643677
31
0.0
0
LINE
8
0
10
3579.953443
20
1190.643677
30
0.0
11
3576.703443
21
1190.643677
31
0.0
0
ARC
8
0
10
3576.703443
20
1190.143677
30
0.0
40
0.500000
50
90.000000
51
180.000000
0
LINE
8
0
10
3576.203443
20
1190.143677
30
0.0
11
3576.203443
21
1187.343677
31
0.0
0
ARC
8
0
10
3576.403443
20
1187.343677
30
0.0
40
0.200000
50
180.000000
51
270.000000
0
LINE
8
0
10
3576.403443
20
1187.143677
30
0.0
11
3577.503443
21
1187.143677
31
0.0
0
ARC
8
0
10
3577.503443
20
1186.943677
30
0.0
40
0.200000
50
0.000000
51
90.000000
0
LINE
8
0
10
3577.703443
20
1186.943677
30
0.0
11
3577.703443
21
1185.843677
31
0.0
0
ARC
8
0
10
3577.503443
20
1185.843677
30
0.0
40
0.200000
50
270.000000
51
0.000000
0
LINE
8
0
10
3577.503443
20
1185.643677
30
0.0
11
3574.903443
21
1185.643677
31
0.0
0
ARC
8
0
10
3574.903443
20
1185.843677
30
0.0
40
0.200000
50
180.000000
51
270.000000
0
LINE
8
0
10
3574.703443
20
1185.843677
30
0.0
11
3574.703443
21
1190.143677
31
0.0
0
ARC
8
0
10
3574.203443
20
1190.143677
30
0.0
40
0.500000
50
0.000000
51
90.000000
0
LINE
8
0
10
3574.203443
20
1190.643677
30
0.0
11
3573.132722
21
1190.643677
31
0.0
0
ARC
8
0
10
3573.132722
20
1191.143677
30
0.0
40
0.500000
50
213.390000
51
270.000000
0
LINE
8
0
10
3572.715250
20
1190.868510
30
0.0
11
3571.084746
21
1193.342238
31
0.0
0
ARC
8
0
10
3570.525029
20
1192.973312
30
0.0
40
0.670365
50
33.390000
51
120.039706
0
LINE
8
0
10
3570.189444
20
1193.553633
30
0.0
11
3568.658294
21
1192.668208
31
0.0
0
LINE
8
0
10
3568.562323
20
1192.643677
30
0.0
11
3568.658294
21
1192.668208
31
0.0
0
LINE
8
0
10
3568.562323
20
1192.643677
30
0.0
11
3568.353443
21
1192.643677
31
0.0
0
ARC
8
0
10
3568.353443
20
1193.043677
30
0.0
40
0.400000
50
180.000000
51
270.000000
0
LINE
8
0
10
3567.953443
20
1193.043677
30
0.0
11
3567.953443
21
1193.643677
31
0.0
0
LINE
8
0
10
3567.953443
20
1193.643677
30
0.0
11
3568.053443
21
1193.643677
31
0.0
0
LINE
8
0
10
3568.053443
20
1193.643677
30
0.0
11
3568.053443
21
1194.018677
31
0.0
0
ARC
8
0
10
3568.253443
20
1194.018677
30
0.0
40
0.200000
50
90.000000
51
180.000000
0
LINE
8
0
10
3568.253443
20
1194.218677
30
0.0
11
3568.412970
21
1194.218677
31
0.0
0
ARC
8
0
10
3568.703443
20
1194.743677
30
0.0
40
0.600000
50
241.044976
51
0.000000
0
ARC
8
0
10
3568.703443
20
1194.743677
30
0.0
40
0.600000
50
0.000000
51
118.955024
0
LINE
8
0
10
3568.412970
20
1195.268677
30
0.0
11
3568.253443
21
1195.268677
31
0.0
0
ARC
8
0
10
3568.253443
20
1195.468677
30
0.0
40
0.200000
50
180.000000
51
270.000000
0
LINE
8
0
10
3568.053443
20
1195.468677
30
0.0
11
3568.053443
21
1195.843677
31
0.0
0
LINE
8
0
10
3568.053443
20
1195.843677
30
0.0
11
3567.953443
21
1195.843677
31
0.0
0
LINE
8
0
10
3567.953443
20
1195.843677
30
0.0
11
3567.953443
21
1196.443677
31
0.0
0
ARC
8
0
10
3568.353443
20
1196.443677
30
0.0
40
0.400000
50
90.000000
51
180.000000
0
LINE
8
0
10
3568.353443
20
1196.843677
30
0.0
11
3568.562323
21
1196.843677
31
0.0
0
LINE
8
0
10
3568.658294
20
1196.819147
30
0.0
11
3568.562323
21
1196.843677
31
0.0
0
LINE
8
0
10
3568.658294
20
1196.819147
30
0.0
11
3570.159333
21
1195.951134
31
0.0
0
ARC
8
0
10
3570.559813
20
1196.643677
30
0.0
40
0.800000
50
239.960294
51
270.000000
0
LINE
8
0
10
3570.559813
20
1195.843677
30
0.0
11
3571.292759
21
1195.843677
31
0.0
0
ARC
8
0
10
3571.292759
20
1194.843677
30
0.0
40
1.000000
50
33.240000
51
90.000000
0
LINE
8
0
10
3572.129141
20
1195.391825
30
0.0
11
3573.634084
21
1193.095530
31
0.0
0
ARC
8
0
10
3574.470466
20
1193.643677
30
0.0
40
1.000000
50
213.240000
51
270.000000
0
LINE
8
0
10
3574.470466
20
1192.643677
30
0.0
11
3585.436420
21
1192.643677
31
0.0
0
ARC
8
0
10
3585.436420
20
1193.643677
30
0.0
40
1.000000
50
270.000000
51
326.760000
0
LINE
8
0
10
3586.272802
20
1193.095530
30
0.0
11
3587.777746
21
1195.391825
31
0.0
0
ARC
8
0
10
3588.614128
20
1194.843677
30
0.0
40
1.000000
50
90.000000
51
146.760000
0
LINE
8
0
10
3588.614128
20
1195.843677
30
0.0
11
3589.347074
21
1195.843677
31
0.0
0
ARC
8
0
10
3589.347074
20
1196.643677
30
0.0
40
0.800000
50
270.000000
51
300.039706
0
LINE
8
0
10
3589.747554
20
1195.951134
30
0.0
11
3591.248593
21
1196.819147
31
0.0
0
LINE
8
0
10
3591.344563
20
1196.843677
30
0.0
11
3591.248593
21
1196.819147
31
0.0
0
LINE
8
0
10
3591.344563
20
1196.843677
30
0.0
11
3591.553443
21
1196.843677
31
0.0
0
ARC
8
0
10
3591.553443
20
1196.443677
30
0.0
40
0.400000
50
0.000000
51
90.000000
0
LINE
8
0
10
3591.953443
20
1196.443677
30
0.0
11
3591.953443
21
1195.843677
31
0.0
0
LINE
8
0
10
3591.953443
20
1195.843677
30
0.0
11
3591.853443
21
1195.843677
31
0.0
0
LINE
8
0
10
3591.853443
20
1195.843677
30
0.0
11
3591.853443
21
1195.468677
31
0.0
0
ARC
8
0
10
3591.653443
20
1195.468677
30
0.0
40
0.200000
50
270.000000
51
0.000000
0
LINE
8
0
10
3591.653443
20
1195.268677
30
0.0
11
3591.493917
21
1195.268677
31
0.0
0
ARC
8
0
10
3591.203443
20
1194.743677
30
0.0
40
0.600000
50
61.044976
51
180.000000
0
ARC
8
0
10
3591.203443
20
1194.743677
30
0.0
40
0.600000
50
180.000000
51
298.955024
0
LINE
8
0
10
3591.493917
20
1194.218677
30
0.0
11
3591.653443
21
1194.218677
31
0.0
0
ARC
8
0
10
3591.653443
20
1194.018677
30
0.0
40
0.200000
50
0.000000
51
90.000000
0
LINE
8
0
10
3591.853443
20
1194.018677
30
0.0
11
3591.853443
21
1193.643677
31
0.0
0
LINE
8
0
10
3591.853443
20
1193.643677
30
0.0
11
3591.953443
21
1193.643677
31
0.0
0
LINE
8
0
10
3591.953443
20
1193.643677
30
0.0
11
3591.953443
21
1193.043677
31
0.0
0
ARC
8
0
10
3591.553443
20
1193.043677
30
0.0
40
0.400000
50
270.000000
51
0.000000
0
LINE
8
0
10
3591.553443
20
1192.643677
30
0.0
11
3591.344563
21
1192.643677
31
0.0
0
LINE
8
0
10
3591.248593
20
1192.668208
30
0.0
11
3591.344563
21
1192.643677
31
0.0
0
LINE
8
0
10
3591.248593
20
1192.668208
30
0.0
11
3589.717443
21
1193.553633
31
0.0
0
ARC
8
0
10
3589.381858
20
1192.973312
30
0.0
40
0.670365
50
59.960294
51
146.610000
0
LINE
8
0
10
3588.822140
20
1193.342238
30
0.0
11
3587.191637
21
1190.868510
31
0.0
0
ATTDEF
8
0
10
3567.953875
20
1230.461334
30
0.0
40
3.5
1

3

2
VC_START
70
0
0
ATTDEF
8
0
10
3567.953875
20
1185.461334
30
0.0
40
3.5
1

3

2
VC_END
70
0
0
ATTDEF
8
0
10
3593.653443
20
1165.461334
30
0.0
40
3.5
1

3

2
FP_LCS_ORIG
70
0
0
ATTDEF
8
0
10
3583.653443
20
1165.461334
30
0.0
40
3.5
1

3

2
FP_LCS_HOT
70
0
0
ATTDEF
8
0
10
3593.653443
20
1175.461334
30
0.0
40
3.5
1

3

2
FP_LCS_INTERN
70
0
0
ATTDEF
8
0
10
0.000000
20
0.000000
30
0.0
40
3.5
1

3

2
PANE_WIDTH:0
70
0
0
ATTDEF
8
0
10
0.000000
20
0.000000
30
0.0
40
3.5
1

3

2
MIN_VETRO:0
70
0
0
ATTDEF
8
0
10
0.000000
20
0.000000
30
0.0
40
3.5
1

3

2
MAX_VETRO:0
70
0
0
ATTDEF
8
0
10
0.000000
20
0.000000
30
0.0
40
3.5
1

3

2
JX:0
70
0
0
ATTDEF
8
0
10
0.000000
20
0.000000
30
0.0
40
3.5
1

3

2
WX:0
70
0
0
ATTDEF
8
0
10
0.000000
20
0.000000
30
0.0
40
3.5
1

3

2
JY:0
70
0
0
ATTDEF
8
0
10
0.000000
20
0.000000
30
0.0
40
3.5
1

3

2
WY:0
70
0
0
ATTDEF
8
0
10
0.000000
20
0.000000
30
0.0
40
3.5
1

3

2
DESC:Zanca puerta
70
0
0
ATTDEF
8
0
10
0.000000
20
0.000000
30
0.0
40
3.5
1

3

2
DENS:1.5825
70
0
0
ATTDEF
8
0
10
0.000000
20
0.000000
30
0.0
40
3.5
1

3

2
TDEV:58.61
70
0
0
ATTDEF
8
0
10
0.000000
20
0.000000
30
0.0
40
3.5
1

3

2
TDEV2:0
70
0
0
ATTDEF
8
0
10
0.000000
20
0.000000
30
0.0
40
3.5
1

3

2
TDEV3:0
70
0
0
ATTDEF
8
0
10
0.000000
20
0.000000
30
0.0
40
3.5
1

3

2
TDEV4:0
70
0
0
ATTDEF
8
0
10
0.000000
20
0.000000
30
0.0
40
3.5
1

3

2
TDEV5:0
70
0
0
ATTDEF
8
0
10
0.000000
20
0.000000
30
0.0
40
3.5
1

3

2
PANE_WIDTH:0
70
0
0
ATTDEF
8
0
10
0.000000
20
0.000000
30
0.0
40
3.5
1

3

2
MIN_VETRO:0
70
0
0
ATTDEF
8
0
10
0.000000
20
0.000000
30
0.0
40
3.5
1

3

2
MAX_VETRO:0
70
0
0
ATTDEF
8
0
10
0.000000
20
0.000000
30
0.0
40
3.5
1

3

2
JX:0
70
0
0
ATTDEF
8
0
10
0.000000
20
0.000000
30
0.0
40
3.5
1

3

2
WX:0
70
0
0
ATTDEF
8
0
10
0.000000
20
0.000000
30
0.0
40
3.5
1

3

2
JY:0
70
0
0
ATTDEF
8
0
10
0.000000
20
0.000000
30
0.0
40
3.5
1

3

2
WY:0
70
0
0
ENDSEC
0
EOF
