0
SECTION
2
ENTITIES
0
ARC
8
0
10
3407.862619
20
1214.720326
30
0.0
40
0.600000
50
0.000000
51
180.000000
0
ARC
8
0
10
3407.862619
20
1214.720326
30
0.0
40
0.600000
50
180.000000
51
0.000000
0
ARC
8
0
10
3407.862619
20
1223.314634
30
0.0
40
0.600000
50
0.000000
51
180.000000
0
ARC
8
0
10
3407.862619
20
1223.314634
30
0.0
40
0.600000
50
180.000000
51
0.000000
0
ARC
8
0
10
3430.362619
20
1223.314634
30
0.0
40
0.600000
50
0.000000
51
180.000000
0
ARC
8
0
10
3430.362619
20
1223.314634
30
0.0
40
0.600000
50
180.000000
51
0.000000
0
ARC
8
0
10
3430.362619
20
1214.720326
30
0.0
40
0.600000
50
0.000000
51
180.000000
0
ARC
8
0
10
3430.362619
20
1214.720326
30
0.0
40
0.600000
50
180.000000
51
0.000000
0
ARC
8
0
10
3428.812619
20
1220.553158
30
0.0
40
0.200000
50
180.000000
51
241.694535
0
LINE
8
0
10
3428.718003
20
1220.376863
30
0.0
11
3430.019760
21
1219.629925
31
0.0
0
ARC
8
0
10
3429.680606
20
1219.017480
30
0.0
40
0.700000
50
298.976366
51
61.023634
0
LINE
8
0
10
3430.019760
20
1218.405036
30
0.0
11
3428.718003
21
1217.658097
31
0.0
0
ARC
8
0
10
3428.812619
20
1217.481802
30
0.0
40
0.200000
50
118.305465
51
180.000000
0
LINE
8
0
10
3428.612619
20
1217.481802
30
0.0
11
3428.612619
21
1216.098022
31
0.0
0
ARC
8
0
10
3428.812619
20
1216.098022
30
0.0
40
0.200000
50
180.000000
51
0.000000
0
LINE
8
0
10
3429.012523
20
1216.104212
30
0.0
11
3430.688516
21
1217.126445
31
0.0
0
ARC
8
0
10
3430.844730
20
1216.870326
30
0.0
40
0.300000
50
90.000000
51
121.380132
0
LINE
8
0
10
3430.844730
20
1217.170326
30
0.0
11
3430.912619
21
1217.170326
31
0.0
0
ARC
8
0
10
3430.912619
20
1216.970326
30
0.0
40
0.200000
50
0.000000
51
90.000000
0
LINE
8
0
10
3431.112619
20
1216.970326
30
0.0
11
3431.112619
21
1212.470326
31
0.0
0
ARC
8
0
10
3431.112619
20
1212.170326
30
0.0
40
0.300000
50
270.000000
51
90.000000
0
LINE
8
0
10
3431.112619
20
1211.870326
30
0.0
11
3430.757594
21
1211.965877
31
0.0
0
ARC
8
0
10
3430.825728
20
1212.258037
30
0.0
40
0.300000
50
231.176024
51
256.872879
0
LINE
8
0
10
3430.637649
20
1212.024315
30
0.0
11
3428.994479
21
1213.346589
31
0.0
0
ARC
8
0
10
3429.119865
20
1213.502405
30
0.0
40
0.200000
50
180.000000
51
231.176024
0
LINE
8
0
10
3428.919987
20
1213.509384
30
0.0
11
3428.925417
21
1213.664872
31
0.0
0
ARC
8
0
10
3428.779885
20
1213.669954
30
0.0
40
0.145621
50
0.000000
51
142.253920
0
LINE
8
0
10
3428.664738
20
1213.759097
30
0.0
11
3426.600450
21
1211.092656
31
0.0
0
ARC
8
0
10
3426.885358
20
1210.998700
30
0.0
40
0.300000
50
161.748585
51
270.000000
0
LINE
8
0
10
3426.881973
20
1210.698675
30
0.0
11
3427.538594
21
1210.680062
31
0.0
0
ARC
8
0
10
3427.552762
20
1211.179861
30
0.0
40
0.500000
50
268.376251
51
308.194227
0
ARC
8
0
10
3429.098585
20
1209.215063
30
0.0
40
2.000000
50
56.002945
51
128.194227
0
LINE
8
0
10
3430.216886
20
1210.873196
30
0.0
11
3431.020699
21
1210.478942
31
0.0
0
ARC
8
0
10
3430.932626
20
1210.299378
30
0.0
40
0.200000
50
5.726911
51
63.872968
0
LINE
8
0
10
3431.131628
20
1210.319335
30
0.0
11
3431.412619
21
1207.517480
31
0.0
0
LINE
8
0
10
3431.412619
20
1207.517480
30
0.0
11
3431.412619
21
1204.511117
31
0.0
0
LINE
8
0
10
3431.412619
20
1204.511117
30
0.0
11
3429.912619
21
1204.511117
31
0.0
0
ARC
8
0
10
3429.912619
20
1204.011117
30
0.0
40
0.500000
50
90.000000
51
180.000000
0
LINE
8
0
10
3429.412619
20
1204.011117
30
0.0
11
3429.412619
21
1201.661117
31
0.0
0
ARC
8
0
10
3429.812619
20
1201.661117
30
0.0
40
0.400000
50
180.000000
51
270.000000
0
LINE
8
0
10
3429.812619
20
1201.261117
30
0.0
11
3430.012619
21
1201.261117
31
0.0
0
ARC
8
0
10
3430.012619
20
1201.661117
30
0.0
40
0.400000
50
270.000000
51
0.000000
0
LINE
8
0
10
3430.412619
20
1201.661117
30
0.0
11
3430.412619
21
1203.011117
31
0.0
0
LINE
8
0
10
3430.412619
20
1203.011117
30
0.0
11
3431.612619
21
1203.011117
31
0.0
0
LINE
8
0
10
3431.612619
20
1203.011117
30
0.0
11
3431.612619
21
1195.511117
31
0.0
0
LINE
8
0
10
3431.612619
20
1195.511117
30
0.0
11
3430.412619
21
1195.511117
31
0.0
0
LINE
8
0
10
3430.412619
20
1195.511117
30
0.0
11
3430.412619
21
1196.861117
31
0.0
0
ARC
8
0
10
3430.012619
20
1196.861117
30
0.0
40
0.400000
50
0.000000
51
90.000000
0
LINE
8
0
10
3430.012619
20
1197.261117
30
0.0
11
3429.812619
21
1197.261117
31
0.0
0
ARC
8
0
10
3429.812619
20
1196.861117
30
0.0
40
0.400000
50
90.000000
51
180.000000
0
LINE
8
0
10
3429.412619
20
1196.861117
30
0.0
11
3429.412619
21
1194.511117
31
0.0
0
ARC
8
0
10
3429.912619
20
1194.511117
30
0.0
40
0.500000
50
180.000000
51
270.000000
0
LINE
8
0
10
3429.912619
20
1194.011117
30
0.0
11
3432.412619
21
1194.011117
31
0.0
0
ARC
8
0
10
3432.412619
20
1194.511117
30
0.0
40
0.500000
50
270.000000
51
0.000000
0
LINE
8
0
10
3432.912619
20
1194.511117
30
0.0
11
3432.912619
21
1252.511117
31
0.0
0
ARC
8
0
10
3432.412619
20
1252.511117
30
0.0
40
0.500000
50
0.000000
51
90.000000
0
LINE
8
0
10
3432.412619
20
1253.011117
30
0.0
11
3429.912619
21
1253.011117
31
0.0
0
ARC
8
0
10
3429.912619
20
1252.511117
30
0.0
40
0.500000
50
90.000000
51
180.000000
0
LINE
8
0
10
3429.412619
20
1252.511117
30
0.0
11
3429.412619
21
1250.161117
31
0.0
0
ARC
8
0
10
3429.812619
20
1250.161117
30
0.0
40
0.400000
50
180.000000
51
270.000000
0
LINE
8
0
10
3429.812619
20
1249.761117
30
0.0
11
3430.012619
21
1249.761117
31
0.0
0
ARC
8
0
10
3430.012619
20
1250.161117
30
0.0
40
0.400000
50
270.000000
51
0.000000
0
LINE
8
0
10
3430.412619
20
1250.161117
30
0.0
11
3430.412619
21
1251.511117
31
0.0
0
LINE
8
0
10
3430.412619
20
1251.511117
30
0.0
11
3431.612619
21
1251.511117
31
0.0
0
LINE
8
0
10
3431.612619
20
1251.511117
30
0.0
11
3431.612619
21
1244.011117
31
0.0
0
LINE
8
0
10
3431.612619
20
1244.011117
30
0.0
11
3430.412619
21
1244.011117
31
0.0
0
LINE
8
0
10
3430.412619
20
1244.011117
30
0.0
11
3430.412619
21
1245.361117
31
0.0
0
ARC
8
0
10
3430.012619
20
1245.361117
30
0.0
40
0.400000
50
0.000000
51
90.000000
0
LINE
8
0
10
3430.012619
20
1245.761117
30
0.0
11
3429.812619
21
1245.761117
31
0.0
0
ARC
8
0
10
3429.812619
20
1245.361117
30
0.0
40
0.400000
50
90.000000
51
180.000000
0
LINE
8
0
10
3429.412619
20
1245.361117
30
0.0
11
3429.412619
21
1243.011117
31
0.0
0
ARC
8
0
10
3429.912619
20
1243.011117
30
0.0
40
0.500000
50
180.000000
51
270.000000
0
LINE
8
0
10
3429.912619
20
1242.511117
30
0.0
11
3431.412619
21
1242.511117
31
0.0
0
LINE
8
0
10
3431.412619
20
1242.511117
30
0.0
11
3431.412619
21
1230.517480
31
0.0
0
LINE
8
0
10
3431.412619
20
1230.517480
30
0.0
11
3431.131628
21
1227.715625
31
0.0
0
ARC
8
0
10
3430.932626
20
1227.735583
30
0.0
40
0.200000
50
296.127032
51
354.273089
0
LINE
8
0
10
3431.020699
20
1227.556019
30
0.0
11
3430.216886
21
1227.161764
31
0.0
0
ARC
8
0
10
3429.098585
20
1228.819897
30
0.0
40
2.000000
50
231.805773
51
303.997055
0
ARC
8
0
10
3427.552762
20
1226.855099
30
0.0
40
0.500000
50
51.805773
51
91.623749
0
LINE
8
0
10
3427.538594
20
1227.354898
30
0.0
11
3426.881973
21
1227.336285
31
0.0
0
ARC
8
0
10
3426.885358
20
1227.036260
30
0.0
40
0.300000
50
90.000000
51
198.251415
0
LINE
8
0
10
3426.600450
20
1226.942304
30
0.0
11
3428.664738
21
1224.275863
31
0.0
0
ARC
8
0
10
3428.779885
20
1224.365007
30
0.0
40
0.145621
50
217.746080
51
0.000000
0
LINE
8
0
10
3428.925417
20
1224.370089
30
0.0
11
3428.919987
21
1224.525576
31
0.0
0
ARC
8
0
10
3429.119865
20
1224.532556
30
0.0
40
0.200000
50
128.823976
51
180.000000
0
LINE
8
0
10
3428.994479
20
1224.688371
30
0.0
11
3430.637649
21
1226.010646
31
0.0
0
ARC
8
0
10
3430.825728
20
1225.776923
30
0.0
40
0.300000
50
103.127121
51
128.823976
0
LINE
8
0
10
3430.757594
20
1226.069084
30
0.0
11
3431.112619
21
1226.164634
31
0.0
0
ARC
8
0
10
3431.112619
20
1225.864634
30
0.0
40
0.300000
50
270.000000
51
90.000000
0
LINE
8
0
10
3431.112619
20
1225.564634
30
0.0
11
3431.112619
21
1221.064634
31
0.0
0
ARC
8
0
10
3430.912619
20
1221.064634
30
0.0
40
0.200000
50
270.000000
51
0.000000
0
LINE
8
0
10
3430.912619
20
1220.864634
30
0.0
11
3430.844730
21
1220.864634
31
0.0
0
ARC
8
0
10
3430.844730
20
1221.164634
30
0.0
40
0.300000
50
238.619868
51
270.000000
0
LINE
8
0
10
3430.688516
20
1220.908515
30
0.0
11
3429.012523
21
1221.930748
31
0.0
0
ARC
8
0
10
3428.812619
20
1221.936938
30
0.0
40
0.200000
50
0.000000
51
180.000000
0
LINE
8
0
10
3428.612619
20
1221.936938
30
0.0
11
3428.612619
21
1220.553158
31
0.0
0
ARC
8
0
10
3411.339881
20
1227.036260
30
0.0
40
0.300000
50
341.748585
51
90.000000
0
LINE
8
0
10
3411.343266
20
1227.336285
30
0.0
11
3410.686644
21
1227.354898
31
0.0
0
ARC
8
0
10
3410.672476
20
1226.855099
30
0.0
40
0.500000
50
88.376251
51
128.194227
0
ARC
8
0
10
3409.126653
20
1228.819897
30
0.0
40
2.000000
50
236.002945
51
308.194227
0
LINE
8
0
10
3408.008353
20
1227.161764
30
0.0
11
3407.224547
21
1227.546206
31
0.0
0
ARC
8
0
10
3407.312619
20
1227.725770
30
0.0
40
0.200000
50
180.000000
51
243.872968
0
LINE
8
0
10
3407.112619
20
1227.725770
30
0.0
11
3407.112619
21
1232.513843
31
0.0
0
LINE
8
0
10
3407.112619
20
1232.513843
30
0.0
11
3405.162619
21
1232.513843
31
0.0
0
LINE
8
0
10
3405.162619
20
1232.513843
30
0.0
11
3404.162619
21
1231.513843
31
0.0
0
LINE
8
0
10
3404.162619
20
1231.513843
30
0.0
11
3404.162619
21
1230.513843
31
0.0
0
LINE
8
0
10
3404.162619
20
1230.513843
30
0.0
11
3405.612619
21
1230.513843
31
0.0
0
LINE
8
0
10
3405.612619
20
1230.513843
30
0.0
11
3405.612619
21
1227.513843
31
0.0
0
LINE
8
0
10
3405.612619
20
1227.513843
30
0.0
11
3399.512619
21
1227.513843
31
0.0
0
LINE
8
0
10
3399.512619
20
1227.513843
30
0.0
11
3399.512619
21
1230.513843
31
0.0
0
LINE
8
0
10
3399.512619
20
1230.513843
30
0.0
11
3400.962619
21
1230.513843
31
0.0
0
LINE
8
0
10
3400.962619
20
1230.513843
30
0.0
11
3400.962619
21
1231.513843
31
0.0
0
LINE
8
0
10
3400.962619
20
1231.513843
30
0.0
11
3399.962619
21
1232.513843
31
0.0
0
LINE
8
0
10
3399.962619
20
1232.513843
30
0.0
11
3397.512619
21
1232.513843
31
0.0
0
LINE
8
0
10
3397.512619
20
1232.513843
30
0.0
11
3396.512619
21
1231.513843
31
0.0
0
LINE
8
0
10
3396.512619
20
1231.513843
30
0.0
11
3396.512619
21
1230.513843
31
0.0
0
LINE
8
0
10
3396.512619
20
1230.513843
30
0.0
11
3398.012619
21
1230.513843
31
0.0
0
LINE
8
0
10
3398.012619
20
1230.513843
30
0.0
11
3398.012619
21
1227.513843
31
0.0
0
LINE
8
0
10
3398.012619
20
1227.513843
30
0.0
11
3397.012619
21
1227.513843
31
0.0
0
LINE
8
0
10
3397.012619
20
1227.513843
30
0.0
11
3397.012619
21
1226.013843
31
0.0
0
LINE
8
0
10
3397.012619
20
1226.013843
30
0.0
11
3399.612619
21
1226.013843
31
0.0
0
LINE
8
0
10
3399.612619
20
1226.013843
30
0.0
11
3399.612619
21
1223.013843
31
0.0
0
LINE
8
0
10
3399.612619
20
1223.013843
30
0.0
11
3379.612619
21
1223.013843
31
0.0
0
LINE
8
0
10
3379.612619
20
1223.013843
30
0.0
11
3379.612619
21
1226.013843
31
0.0
0
LINE
8
0
10
3379.612619
20
1226.013843
30
0.0
11
3382.012619
21
1226.013843
31
0.0
0
LINE
8
0
10
3382.012619
20
1226.013843
30
0.0
11
3382.012619
21
1227.513843
31
0.0
0
LINE
8
0
10
3382.012619
20
1227.513843
30
0.0
11
3380.012619
21
1227.513843
31
0.0
0
LINE
8
0
10
3380.012619
20
1227.513843
30
0.0
11
3380.012619
21
1230.513843
31
0.0
0
LINE
8
0
10
3380.012619
20
1230.513843
30
0.0
11
3382.012619
21
1230.513843
31
0.0
0
LINE
8
0
10
3382.012619
20
1230.513843
30
0.0
11
3382.012619
21
1231.513843
31
0.0
0
LINE
8
0
10
3382.012619
20
1231.513843
30
0.0
11
3381.012619
21
1232.513843
31
0.0
0
LINE
8
0
10
3381.012619
20
1232.513843
30
0.0
11
3378.512619
21
1232.513843
31
0.0
0
LINE
8
0
10
3378.512619
20
1232.513843
30
0.0
11
3378.512619
21
1221.663843
31
0.0
0
LINE
8
0
10
3378.512619
20
1221.663843
30
0.0
11
3376.112619
21
1221.663843
31
0.0
0
ARC
8
0
10
3376.112619
20
1221.163843
30
0.0
40
0.500000
50
90.000000
51
180.000000
0
LINE
8
0
10
3375.612619
20
1221.163843
30
0.0
11
3375.612619
21
1203.463843
31
0.0
0
ARC
8
0
10
3376.112619
20
1203.463843
30
0.0
40
0.500000
50
180.000000
51
270.000000
0
LINE
8
0
10
3376.112619
20
1202.963843
30
0.0
11
3381.212619
21
1202.963843
31
0.0
0
LINE
8
0
10
3381.212619
20
1202.963843
30
0.0
11
3381.212619
21
1201.663843
31
0.0
0
LINE
8
0
10
3381.212619
20
1201.663843
30
0.0
11
3381.735991
21
1200.012735
31
0.0
0
ARC
8
0
10
3382.212619
20
1200.163818
30
0.0
40
0.500000
50
197.587701
51
0.000000
0
LINE
8
0
10
3382.712619
20
1200.163818
30
0.0
11
3382.712619
21
1203.163843
31
0.0
0
LINE
8
0
10
3382.712619
20
1203.163843
30
0.0
11
3394.212619
21
1203.163843
31
0.0
0
LINE
8
0
10
3394.212619
20
1203.163843
30
0.0
11
3394.212619
21
1200.163818
31
0.0
0
ARC
8
0
10
3394.712619
20
1200.163818
30
0.0
40
0.500000
50
180.000000
51
342.412299
0
LINE
8
0
10
3395.189247
20
1200.012735
30
0.0
11
3395.712619
21
1201.663843
31
0.0
0
LINE
8
0
10
3395.712619
20
1201.663843
30
0.0
11
3395.712619
21
1202.963843
31
0.0
0
LINE
8
0
10
3395.712619
20
1202.963843
30
0.0
11
3400.912619
21
1202.963843
31
0.0
0
LINE
8
0
10
3400.912619
20
1202.963843
30
0.0
11
3400.912619
21
1203.163843
31
0.0
0
LINE
8
0
10
3400.912619
20
1203.163843
30
0.0
11
3406.612619
21
1203.163843
31
0.0
0
ARC
8
0
10
3406.612619
20
1203.663843
30
0.0
40
0.500000
50
270.000000
51
0.000000
0
LINE
8
0
10
3407.112619
20
1203.663843
30
0.0
11
3407.112619
21
1210.309191
31
0.0
0
ARC
8
0
10
3407.312619
20
1210.309191
30
0.0
40
0.200000
50
116.127032
51
180.000000
0
LINE
8
0
10
3407.224547
20
1210.488755
30
0.0
11
3408.008353
21
1210.873196
31
0.0
0
ARC
8
0
10
3409.126653
20
1209.215063
30
0.0
40
2.000000
50
51.805773
51
123.997055
0
ARC
8
0
10
3410.672476
20
1211.179861
30
0.0
40
0.500000
50
231.805773
51
271.623749
0
LINE
8
0
10
3410.686644
20
1210.680062
30
0.0
11
3411.343266
21
1210.698675
31
0.0
0
ARC
8
0
10
3411.339881
20
1210.998700
30
0.0
40
0.300000
50
270.000000
51
18.251415
0
LINE
8
0
10
3411.624788
20
1211.092656
30
0.0
11
3409.560501
21
1213.759097
31
0.0
0
ARC
8
0
10
3409.445354
20
1213.669954
30
0.0
40
0.145621
50
37.746080
51
180.000000
0
LINE
8
0
10
3409.299822
20
1213.664872
30
0.0
11
3409.305251
21
1213.509384
31
0.0
0
ARC
8
0
10
3409.105373
20
1213.502405
30
0.0
40
0.200000
50
308.823976
51
0.000000
0
LINE
8
0
10
3409.230759
20
1213.346589
30
0.0
11
3407.587590
21
1212.024315
31
0.0
0
ARC
8
0
10
3407.399511
20
1212.258037
30
0.0
40
0.300000
50
283.127121
51
308.823976
0
LINE
8
0
10
3407.467644
20
1211.965877
30
0.0
11
3407.112619
21
1211.870326
31
0.0
0
ARC
8
0
10
3407.112619
20
1212.170326
30
0.0
40
0.300000
50
90.000000
51
270.000000
0
LINE
8
0
10
3407.112619
20
1212.470326
30
0.0
11
3407.112619
21
1216.970326
31
0.0
0
ARC
8
0
10
3407.312619
20
1216.970326
30
0.0
40
0.200000
50
90.000000
51
180.000000
0
LINE
8
0
10
3407.312619
20
1217.170326
30
0.0
11
3407.380508
21
1217.170326
31
0.0
0
ARC
8
0
10
3407.380508
20
1216.870326
30
0.0
40
0.300000
50
58.619868
51
90.000000
0
LINE
8
0
10
3407.536722
20
1217.126445
30
0.0
11
3409.212715
21
1216.104212
31
0.0
0
ARC
8
0
10
3409.412619
20
1216.098022
30
0.0
40
0.200000
50
180.000000
51
0.000000
0
LINE
8
0
10
3409.612619
20
1216.098022
30
0.0
11
3409.612619
21
1216.218355
31
0.0
0
ARC
8
0
10
3409.682619
20
1219.017480
30
0.0
40
2.800000
50
268.567456
51
310.878635
0
ARC
8
0
10
3411.024260
20
1217.467480
30
0.0
40
0.750000
50
310.878635
51
130.878635
0
ARC
8
0
10
3409.682619
20
1219.017480
30
0.0
40
1.300000
50
289.612941
51
310.878635
0
LINE
8
0
10
3410.118983
20
1217.792904
30
0.0
11
3410.118983
21
1217.478134
31
0.0
0
ARC
8
0
10
3409.682619
20
1219.017480
30
0.0
40
1.600000
50
254.173380
51
285.826620
0
LINE
8
0
10
3409.246256
20
1217.478134
30
0.0
11
3409.246256
21
1217.792904
31
0.0
0
ARC
8
0
10
3409.682619
20
1219.017480
30
0.0
40
1.300000
50
199.612941
51
250.387059
0
LINE
8
0
10
3408.458043
20
1218.581117
30
0.0
11
3408.143273
21
1218.581117
31
0.0
0
ARC
8
0
10
3409.682619
20
1219.017480
30
0.0
40
1.600000
50
164.173380
51
195.826620
0
LINE
8
0
10
3408.143273
20
1219.453844
30
0.0
11
3408.458043
21
1219.453844
31
0.0
0
ARC
8
0
10
3409.682619
20
1219.017480
30
0.0
40
1.300000
50
109.612941
51
160.387059
0
LINE
8
0
10
3409.246256
20
1220.242056
30
0.0
11
3409.246256
21
1220.556826
31
0.0
0
ARC
8
0
10
3409.682619
20
1219.017480
30
0.0
40
1.600000
50
74.173380
51
105.826620
0
LINE
8
0
10
3410.118983
20
1220.556826
30
0.0
11
3410.118983
21
1220.242056
31
0.0
0
ARC
8
0
10
3409.682619
20
1219.017480
30
0.0
40
1.300000
50
49.121365
51
70.387059
0
ARC
8
0
10
3411.024260
20
1220.567480
30
0.0
40
0.750000
50
229.121365
51
49.121365
0
ARC
8
0
10
3409.682619
20
1219.017480
30
0.0
40
2.800000
50
49.121365
51
91.432544
0
LINE
8
0
10
3409.612619
20
1221.816605
30
0.0
11
3409.612619
21
1221.936938
31
0.0
0
ARC
8
0
10
3409.412619
20
1221.936938
30
0.0
40
0.200000
50
0.000000
51
180.000000
0
LINE
8
0
10
3409.212715
20
1221.930748
30
0.0
11
3407.536722
21
1220.908515
31
0.0
0
ARC
8
0
10
3407.380508
20
1221.164634
30
0.0
40
0.300000
50
270.000000
51
301.380132
0
LINE
8
0
10
3407.380508
20
1220.864634
30
0.0
11
3407.312619
21
1220.864634
31
0.0
0
ARC
8
0
10
3407.312619
20
1221.064634
30
0.0
40
0.200000
50
180.000000
51
270.000000
0
LINE
8
0
10
3407.112619
20
1221.064634
30
0.0
11
3407.112619
21
1225.564634
31
0.0
0
ARC
8
0
10
3407.112619
20
1225.864634
30
0.0
40
0.300000
50
90.000000
51
270.000000
0
LINE
8
0
10
3407.112619
20
1226.164634
30
0.0
11
3407.467644
21
1226.069084
31
0.0
0
ARC
8
0
10
3407.399511
20
1225.776923
30
0.0
40
0.300000
50
51.176024
51
76.872879
0
LINE
8
0
10
3407.587590
20
1226.010646
30
0.0
11
3409.230759
21
1224.688371
31
0.0
0
ARC
8
0
10
3409.105373
20
1224.532556
30
0.0
40
0.200000
50
0.000000
51
51.176024
0
LINE
8
0
10
3409.305251
20
1224.525576
30
0.0
11
3409.299822
21
1224.370089
31
0.0
0
ARC
8
0
10
3409.445354
20
1224.365007
30
0.0
40
0.145621
50
180.000000
51
322.253920
0
LINE
8
0
10
3409.560501
20
1224.275863
30
0.0
11
3411.624788
21
1226.942304
31
0.0
0
LINE
8
0
10
3401.112619
20
1221.513843
30
0.0
11
3401.112619
21
1226.013843
31
0.0
0
LINE
8
0
10
3401.112619
20
1226.013843
30
0.0
11
3405.612619
21
1226.013843
31
0.0
0
LINE
8
0
10
3405.612619
20
1226.013843
30
0.0
11
3405.612619
21
1204.663843
31
0.0
0
LINE
8
0
10
3405.612619
20
1204.663843
30
0.0
11
3377.112619
21
1204.663843
31
0.0
0
LINE
8
0
10
3377.112619
20
1204.663843
30
0.0
11
3377.112619
21
1220.163843
31
0.0
0
LINE
8
0
10
3377.112619
20
1220.163843
30
0.0
11
3379.612619
21
1220.163843
31
0.0
0
LINE
8
0
10
3379.612619
20
1220.163843
30
0.0
11
3379.612619
21
1221.513843
31
0.0
0
LINE
8
0
10
3379.612619
20
1221.513843
30
0.0
11
3401.112619
21
1221.513843
31
0.0
0
LINE
8
0
10
3410.243922
20
1213.318886
30
0.0
11
3411.874426
21
1210.845158
31
0.0
0
ARC
8
0
10
3412.291898
20
1211.120326
30
0.0
40
0.500000
50
213.390000
51
270.000000
0
LINE
8
0
10
3412.291898
20
1210.620326
30
0.0
11
3419.112619
21
1210.620326
31
0.0
0
LINE
8
0
10
3419.112619
20
1210.620326
30
0.0
11
3425.933341
21
1210.620326
31
0.0
0
ARC
8
0
10
3425.933341
20
1211.120326
30
0.0
40
0.500000
50
270.000000
51
326.610000
0
LINE
8
0
10
3426.350813
20
1210.845158
30
0.0
11
3427.981316
21
1213.318886
31
0.0
0
ARC
8
0
10
3428.541034
20
1212.949961
30
0.0
40
0.670365
50
59.960294
51
146.610000
0
LINE
8
0
10
3428.876618
20
1213.530282
30
0.0
11
3430.407769
21
1212.644856
31
0.0
0
LINE
8
0
10
3430.407769
20
1212.644856
30
0.0
11
3430.503739
21
1212.620326
31
0.0
0
LINE
8
0
10
3430.503739
20
1212.620326
30
0.0
11
3430.712619
21
1212.620326
31
0.0
0
ARC
8
0
10
3430.712619
20
1213.020326
30
0.0
40
0.400000
50
270.000000
51
0.000000
0
LINE
8
0
10
3431.112619
20
1213.020326
30
0.0
11
3431.112619
21
1213.620326
31
0.0
0
LINE
8
0
10
3431.112619
20
1213.620326
30
0.0
11
3431.012619
21
1213.620326
31
0.0
0
LINE
8
0
10
3431.012619
20
1213.620326
30
0.0
11
3431.012619
21
1213.995326
31
0.0
0
ARC
8
0
10
3430.812619
20
1213.995326
30
0.0
40
0.200000
50
0.000000
51
90.000000
0
LINE
8
0
10
3430.812619
20
1214.195326
30
0.0
11
3430.653093
21
1214.195326
31
0.0
0
ARC
8
0
10
3430.362619
20
1214.720326
30
0.0
40
0.600000
50
180.000000
51
298.955024
0
ARC
8
0
10
3430.362619
20
1214.720326
30
0.0
40
0.600000
50
61.044976
51
180.000000
0
LINE
8
0
10
3430.653093
20
1215.245326
30
0.0
11
3430.812619
21
1215.245326
31
0.0
0
ARC
8
0
10
3430.812619
20
1215.445326
30
0.0
40
0.200000
50
270.000000
51
0.000000
0
LINE
8
0
10
3431.012619
20
1215.445326
30
0.0
11
3431.012619
21
1215.820326
31
0.0
0
LINE
8
0
10
3431.012619
20
1215.820326
30
0.0
11
3431.112619
21
1215.820326
31
0.0
0
LINE
8
0
10
3431.112619
20
1215.820326
30
0.0
11
3431.112619
21
1216.420326
31
0.0
0
ARC
8
0
10
3430.712619
20
1216.420326
30
0.0
40
0.400000
50
0.000000
51
90.000000
0
LINE
8
0
10
3430.712619
20
1216.820326
30
0.0
11
3430.503739
21
1216.820326
31
0.0
0
LINE
8
0
10
3430.503739
20
1216.820326
30
0.0
11
3430.407769
21
1216.795796
31
0.0
0
LINE
8
0
10
3430.407769
20
1216.795796
30
0.0
11
3428.906730
21
1215.927783
31
0.0
0
ARC
8
0
10
3428.506250
20
1216.620326
30
0.0
40
0.800000
50
270.000000
51
300.039706
0
LINE
8
0
10
3428.506250
20
1215.820326
30
0.0
11
3427.773304
21
1215.820326
31
0.0
0
ARC
8
0
10
3427.773304
20
1214.820326
30
0.0
40
1.000000
50
90.000000
51
146.760000
0
LINE
8
0
10
3426.936922
20
1215.368473
30
0.0
11
3425.431978
21
1213.072179
31
0.0
0
ARC
8
0
10
3424.595596
20
1213.620326
30
0.0
40
1.000000
50
270.000000
51
326.760000
0
LINE
8
0
10
3424.595596
20
1212.620326
30
0.0
11
3419.112619
21
1212.620326
31
0.0
0
LINE
8
0
10
3419.112619
20
1212.620326
30
0.0
11
3413.780203
21
1212.620326
31
0.0
0
LINE
8
0
10
3413.780203
20
1212.620326
30
0.0
11
3413.629642
21
1212.620326
31
0.0
0
ARC
8
0
10
3413.629642
20
1213.620326
30
0.0
40
1.000000
50
213.240000
51
270.000000
0
LINE
8
0
10
3412.793260
20
1213.072179
30
0.0
11
3411.288317
21
1215.368473
31
0.0
0
ARC
8
0
10
3410.451935
20
1214.820326
30
0.0
40
1.000000
50
33.240000
51
90.000000
0
LINE
8
0
10
3410.451935
20
1215.820326
30
0.0
11
3409.718989
21
1215.820326
31
0.0
0
ARC
8
0
10
3409.718989
20
1216.620326
30
0.0
40
0.800000
50
239.960294
51
270.000000
0
LINE
8
0
10
3409.318508
20
1215.927783
30
0.0
11
3407.817469
21
1216.795796
31
0.0
0
LINE
8
0
10
3407.817469
20
1216.795796
30
0.0
11
3407.721499
21
1216.820326
31
0.0
0
LINE
8
0
10
3407.721499
20
1216.820326
30
0.0
11
3407.512619
21
1216.820326
31
0.0
0
ARC
8
0
10
3407.512619
20
1216.420326
30
0.0
40
0.400000
50
90.000000
51
180.000000
0
LINE
8
0
10
3407.112619
20
1216.420326
30
0.0
11
3407.112619
21
1215.820326
31
0.0
0
LINE
8
0
10
3407.112619
20
1215.820326
30
0.0
11
3407.212619
21
1215.820326
31
0.0
0
LINE
8
0
10
3407.212619
20
1215.820326
30
0.0
11
3407.212619
21
1215.445326
31
0.0
0
ARC
8
0
10
3407.412619
20
1215.445326
30
0.0
40
0.200000
50
180.000000
51
270.000000
0
LINE
8
0
10
3407.412619
20
1215.245326
30
0.0
11
3407.572145
21
1215.245326
31
0.0
0
ARC
8
0
10
3407.862619
20
1214.720326
30
0.0
40
0.600000
50
0.000000
51
118.955024
0
ARC
8
0
10
3407.862619
20
1214.720326
30
0.0
40
0.600000
50
241.044976
51
0.000000
0
LINE
8
0
10
3407.572145
20
1214.195326
30
0.0
11
3407.412619
21
1214.195326
31
0.0
0
ARC
8
0
10
3407.412619
20
1213.995326
30
0.0
40
0.200000
50
90.000000
51
180.000000
0
LINE
8
0
10
3407.212619
20
1213.995326
30
0.0
11
3407.212619
21
1213.620326
31
0.0
0
LINE
8
0
10
3407.212619
20
1213.620326
30
0.0
11
3407.112619
21
1213.620326
31
0.0
0
LINE
8
0
10
3407.112619
20
1213.620326
30
0.0
11
3407.112619
21
1213.020326
31
0.0
0
ARC
8
0
10
3407.512619
20
1213.020326
30
0.0
40
0.400000
50
180.000000
51
270.000000
0
LINE
8
0
10
3407.512619
20
1212.620326
30
0.0
11
3407.721499
21
1212.620326
31
0.0
0
LINE
8
0
10
3407.721499
20
1212.620326
30
0.0
11
3407.817469
21
1212.644856
31
0.0
0
LINE
8
0
10
3407.817469
20
1212.644856
30
0.0
11
3409.348620
21
1213.530282
31
0.0
0
ARC
8
0
10
3409.684205
20
1212.949961
30
0.0
40
0.670365
50
33.390000
51
120.039706
0
LINE
8
0
10
3407.112619
20
1224.910382
30
0.0
11
3407.616872
21
1225.414634
31
0.0
0
LINE
8
0
10
3413.862619
20
1231.660382
30
0.0
11
3414.616872
21
1232.414634
31
0.0
0
LINE
8
0
10
3408.233544
20
1223.786243
30
0.0
11
3409.097308
21
1224.650006
31
0.0
0
LINE
8
0
10
3413.862619
20
1229.415318
30
0.0
11
3416.803699
21
1232.356397
31
0.0
0
LINE
8
0
10
3408.087931
20
1221.395566
30
0.0
11
3415.362619
21
1228.670254
31
0.0
0
LINE
8
0
10
3414.352064
20
1225.414634
30
0.0
11
3416.352064
21
1227.414634
31
0.0
0
LINE
8
0
10
3407.112619
20
1215.930126
30
0.0
11
3407.919365
21
1216.736872
31
0.0
0
LINE
8
0
10
3422.097128
20
1230.914634
30
0.0
11
3423.597128
21
1232.414634
31
0.0
0
LINE
8
0
10
3416.597128
20
1225.414634
30
0.0
11
3418.597128
21
1227.414634
31
0.0
0
LINE
8
0
10
3407.212619
20
1213.785062
30
0.0
11
3407.605681
21
1214.178124
31
0.0
0
LINE
8
0
10
3422.862619
20
1229.435062
30
0.0
11
3424.362619
21
1230.935062
31
0.0
0
LINE
8
0
10
3408.404821
20
1214.977264
30
0.0
11
3409.342181
21
1215.914623
31
0.0
0
LINE
8
0
10
3418.842192
20
1225.414634
30
0.0
11
3420.842192
21
1227.414634
31
0.0
0
LINE
8
0
10
3409.003094
20
1213.330473
30
0.0
11
3411.179251
21
1215.506629
31
0.0
0
LINE
8
0
10
3421.087256
20
1225.414634
30
0.0
11
3424.362619
21
1228.689998
31
0.0
0
LINE
8
0
10
3410.638276
20
1212.720590
30
0.0
11
3412.079280
21
1214.161594
31
0.0
0
LINE
8
0
10
3423.332320
20
1225.414634
30
0.0
11
3425.332320
21
1227.414634
31
0.0
0
LINE
8
0
10
3411.530181
20
1211.367431
30
0.0
11
3413.003426
21
1212.840676
31
0.0
0
LINE
8
0
10
3425.293538
20
1225.130789
30
0.0
11
3426.748777
21
1226.586028
31
0.0
0
LINE
8
0
10
3413.028140
20
1210.620326
30
0.0
11
3415.028140
21
1212.620326
31
0.0
0
LINE
8
0
10
3426.199494
20
1223.791680
30
0.0
11
3427.640682
21
1225.232869
31
0.0
0
LINE
8
0
10
3415.273204
20
1210.620326
30
0.0
11
3417.273204
21
1212.620326
31
0.0
0
LINE
8
0
10
3427.114872
20
1222.461994
30
0.0
11
3429.542782
21
1224.889904
31
0.0
0
LINE
8
0
10
3417.518268
20
1210.620326
30
0.0
11
3419.518268
21
1212.620326
31
0.0
0
LINE
8
0
10
3430.737576
20
1223.839634
30
0.0
11
3431.012619
21
1224.114677
31
0.0
0
LINE
8
0
10
3428.969070
20
1222.071128
30
0.0
11
3429.870019
21
1222.972077
31
0.0
0
LINE
8
0
10
3419.763332
20
1210.620326
30
0.0
11
3421.763332
21
1212.620326
31
0.0
0
LINE
8
0
10
3430.391550
20
1221.248544
30
0.0
11
3431.112619
21
1221.969613
31
0.0
0
LINE
8
0
10
3422.008396
20
1210.620326
30
0.0
11
3424.008396
21
1212.620326
31
0.0
0
LINE
8
0
10
3424.253460
20
1210.620326
30
0.0
11
3430.444478
21
1216.811345
31
0.0
0
LINE
8
0
10
3429.213607
20
1213.335409
30
0.0
11
3430.073033
21
1214.194836
31
0.0
0
LINE
8
0
10
3430.744892
20
1212.621630
30
0.0
11
3431.111315
21
1212.988053
31
0.0
0
LINE
8
0
10
3407.721448
20
1212.620326
30
0.0
11
3407.112619
21
1213.229155
31
0.0
0
LINE
8
0
10
3409.163568
20
1213.423271
30
0.0
11
3408.288825
21
1214.298013
31
0.0
0
LINE
8
0
10
3407.317381
20
1215.269458
30
0.0
11
3407.236751
21
1215.350087
31
0.0
0
LINE
8
0
10
3414.211577
20
1210.620326
30
0.0
11
3408.335904
21
1216.495998
31
0.0
0
LINE
8
0
10
3416.456641
20
1210.620326
30
0.0
11
3414.456641
21
1212.620326
31
0.0
0
LINE
8
0
10
3418.701705
20
1210.620326
30
0.0
11
3416.701705
21
1212.620326
31
0.0
0
LINE
8
0
10
3407.985625
20
1221.336405
30
0.0
11
3407.112619
21
1222.209411
31
0.0
0
LINE
8
0
10
3420.946769
20
1210.620326
30
0.0
11
3418.946769
21
1212.620326
31
0.0
0
LINE
8
0
10
3407.152460
20
1224.414634
30
0.0
11
3407.112619
21
1224.454475
31
0.0
0
LINE
8
0
10
3409.413206
20
1222.153889
30
0.0
11
3408.434376
21
1223.132718
31
0.0
0
LINE
8
0
10
3407.680703
20
1223.886392
30
0.0
11
3407.212619
21
1224.354475
31
0.0
0
LINE
8
0
10
3423.191833
20
1210.620326
30
0.0
11
3421.191833
21
1212.620326
31
0.0
0
LINE
8
0
10
3411.228079
20
1222.584079
30
0.0
11
3409.251068
21
1224.561091
31
0.0
0
LINE
8
0
10
3425.436897
20
1210.620326
30
0.0
11
3423.436897
21
1212.620326
31
0.0
0
LINE
8
0
10
3412.120683
20
1223.936540
30
0.0
11
3410.679821
21
1225.377401
31
0.0
0
LINE
8
0
10
3426.790323
20
1211.511964
30
0.0
11
3425.344565
21
1212.957721
31
0.0
0
LINE
8
0
10
3413.063408
20
1225.238879
30
0.0
11
3411.571726
21
1226.730560
31
0.0
0
LINE
8
0
10
3427.682228
20
1212.865123
30
0.0
11
3426.240896
21
1214.306454
31
0.0
0
LINE
8
0
10
3415.132716
20
1225.414634
30
0.0
11
3413.132716
21
1227.414634
31
0.0
0
LINE
8
0
10
3429.790755
20
1213.001659
30
0.0
11
3427.172610
21
1215.619805
31
0.0
0
LINE
8
0
10
3417.377780
20
1225.414634
30
0.0
11
3413.862619
21
1228.929795
31
0.0
0
LINE
8
0
10
3431.010021
20
1214.027457
30
0.0
11
3430.844751
21
1214.192728
31
0.0
0
LINE
8
0
10
3415.362619
20
1229.674859
30
0.0
11
3413.862619
21
1231.174859
31
0.0
0
LINE
8
0
10
3429.916231
20
1215.121247
30
0.0
11
3429.035330
21
1216.002149
31
0.0
0
LINE
8
0
10
3419.622844
20
1225.414634
30
0.0
11
3417.622844
21
1227.414634
31
0.0
0
LINE
8
0
10
3431.112619
20
1216.169923
30
0.0
11
3430.465840
21
1216.816702
31
0.0
0
LINE
8
0
10
3416.367908
20
1230.914634
30
0.0
11
3414.867908
21
1232.414634
31
0.0
0
LINE
8
0
10
3421.867908
20
1225.414634
30
0.0
11
3419.867908
21
1227.414634
31
0.0
0
LINE
8
0
10
3424.112972
20
1225.414634
30
0.0
11
3422.112972
21
1227.414634
31
0.0
0
LINE
8
0
10
3430.558036
20
1221.214634
30
0.0
11
3422.862619
21
1228.910052
31
0.0
0
LINE
8
0
10
3430.144249
20
1223.873486
30
0.0
11
3429.279867
21
1224.737867
31
0.0
0
LINE
8
0
10
3424.362619
20
1229.655116
30
0.0
11
3421.603100
21
1232.414634
31
0.0
0
LINE
8
0
10
3431.071484
20
1225.191314
30
0.0
11
3430.889299
21
1225.373500
31
0.0
0
LINE
8
0
10
3424.362619
20
1231.900180
30
0.0
11
3423.848164
21
1232.414634
31
0.0
0
LINE
8
0
10
3412.291898
20
1210.620326
30
0.0
11
3419.112619
21
1210.620326
31
0.0
0
LINE
8
0
10
3419.112619
20
1210.620326
30
0.0
11
3425.933341
21
1210.620326
31
0.0
0
ARC
8
0
10
3425.933341
20
1211.120326
30
0.0
40
0.500000
50
270.000000
51
326.610000
0
LINE
8
0
10
3426.350813
20
1210.845158
30
0.0
11
3427.981316
21
1213.318886
31
0.0
0
ARC
8
0
10
3428.541034
20
1212.949961
30
0.0
40
0.670365
50
59.960294
51
146.610000
0
LINE
8
0
10
3428.876618
20
1213.530282
30
0.0
11
3430.407769
21
1212.644856
31
0.0
0
LINE
8
0
10
3430.407769
20
1212.644856
30
0.0
11
3430.503739
21
1212.620326
31
0.0
0
LINE
8
0
10
3430.503739
20
1212.620326
30
0.0
11
3430.712619
21
1212.620326
31
0.0
0
ARC
8
0
10
3430.712619
20
1213.020326
30
0.0
40
0.400000
50
270.000000
51
0.000000
0
LINE
8
0
10
3431.112619
20
1213.020326
30
0.0
11
3431.112619
21
1213.620326
31
0.0
0
LINE
8
0
10
3431.112619
20
1213.620326
30
0.0
11
3431.012619
21
1213.620326
31
0.0
0
LINE
8
0
10
3431.012619
20
1213.620326
30
0.0
11
3431.012619
21
1213.995326
31
0.0
0
ARC
8
0
10
3430.812619
20
1213.995326
30
0.0
40
0.200000
50
0.000000
51
90.000000
0
LINE
8
0
10
3430.812619
20
1214.195326
30
0.0
11
3430.653093
21
1214.195326
31
0.0
0
ARC
8
0
10
3430.362619
20
1214.720326
30
0.0
40
0.600000
50
180.000000
51
298.955024
0
ARC
8
0
10
3430.362619
20
1214.720326
30
0.0
40
0.600000
50
61.044976
51
180.000000
0
LINE
8
0
10
3430.653093
20
1215.245326
30
0.0
11
3430.812619
21
1215.245326
31
0.0
0
ARC
8
0
10
3430.812619
20
1215.445326
30
0.0
40
0.200000
50
270.000000
51
0.000000
0
LINE
8
0
10
3431.012619
20
1215.445326
30
0.0
11
3431.012619
21
1215.820326
31
0.0
0
LINE
8
0
10
3431.012619
20
1215.820326
30
0.0
11
3431.112619
21
1215.820326
31
0.0
0
LINE
8
0
10
3431.112619
20
1215.820326
30
0.0
11
3431.112619
21
1216.420326
31
0.0
0
ARC
8
0
10
3430.712619
20
1216.420326
30
0.0
40
0.400000
50
0.000000
51
90.000000
0
LINE
8
0
10
3430.712619
20
1216.820326
30
0.0
11
3430.503739
21
1216.820326
31
0.0
0
LINE
8
0
10
3430.503739
20
1216.820326
30
0.0
11
3430.407769
21
1216.795796
31
0.0
0
LINE
8
0
10
3430.407769
20
1216.795796
30
0.0
11
3428.906730
21
1215.927783
31
0.0
0
ARC
8
0
10
3428.506250
20
1216.620326
30
0.0
40
0.800000
50
270.000000
51
300.039706
0
LINE
8
0
10
3428.506250
20
1215.820326
30
0.0
11
3427.773304
21
1215.820326
31
0.0
0
ARC
8
0
10
3427.773304
20
1214.820326
30
0.0
40
1.000000
50
90.000000
51
146.760000
0
LINE
8
0
10
3426.936922
20
1215.368473
30
0.0
11
3425.431978
21
1213.072179
31
0.0
0
ARC
8
0
10
3424.595596
20
1213.620326
30
0.0
40
1.000000
50
270.000000
51
326.760000
0
LINE
8
0
10
3424.595596
20
1212.620326
30
0.0
11
3419.112619
21
1212.620326
31
0.0
0
LINE
8
0
10
3419.112619
20
1212.620326
30
0.0
11
3413.780203
21
1212.620326
31
0.0
0
LINE
8
0
10
3413.780203
20
1212.620326
30
0.0
11
3413.629642
21
1212.620326
31
0.0
0
ARC
8
0
10
3413.629642
20
1213.620326
30
0.0
40
1.000000
50
213.240000
51
270.000000
0
LINE
8
0
10
3412.793260
20
1213.072179
30
0.0
11
3411.288317
21
1215.368473
31
0.0
0
ARC
8
0
10
3410.451935
20
1214.820326
30
0.0
40
1.000000
50
33.240000
51
90.000000
0
LINE
8
0
10
3410.451935
20
1215.820326
30
0.0
11
3409.718989
21
1215.820326
31
0.0
0
ARC
8
0
10
3409.718989
20
1216.620326
30
0.0
40
0.800000
50
239.960294
51
270.000000
0
LINE
8
0
10
3409.318508
20
1215.927783
30
0.0
11
3407.817469
21
1216.795796
31
0.0
0
LINE
8
0
10
3407.817469
20
1216.795796
30
0.0
11
3407.721499
21
1216.820326
31
0.0
0
LINE
8
0
10
3407.721499
20
1216.820326
30
0.0
11
3407.512619
21
1216.820326
31
0.0
0
ARC
8
0
10
3407.512619
20
1216.420326
30
0.0
40
0.400000
50
90.000000
51
180.000000
0
LINE
8
0
10
3407.112619
20
1216.420326
30
0.0
11
3407.112619
21
1215.820326
31
0.0
0
LINE
8
0
10
3407.112619
20
1215.820326
30
0.0
11
3407.212619
21
1215.820326
31
0.0
0
LINE
8
0
10
3407.212619
20
1215.820326
30
0.0
11
3407.212619
21
1215.445326
31
0.0
0
ARC
8
0
10
3407.412619
20
1215.445326
30
0.0
40
0.200000
50
180.000000
51
270.000000
0
LINE
8
0
10
3407.412619
20
1215.245326
30
0.0
11
3407.572145
21
1215.245326
31
0.0
0
ARC
8
0
10
3407.862619
20
1214.720326
30
0.0
40
0.600000
50
241.044976
51
118.955024
0
LINE
8
0
10
3407.572145
20
1214.195326
30
0.0
11
3407.412619
21
1214.195326
31
0.0
0
ARC
8
0
10
3407.412619
20
1213.995326
30
0.0
40
0.200000
50
90.000000
51
180.000000
0
LINE
8
0
10
3407.212619
20
1213.995326
30
0.0
11
3407.212619
21
1213.620326
31
0.0
0
LINE
8
0
10
3407.212619
20
1213.620326
30
0.0
11
3407.112619
21
1213.620326
31
0.0
0
LINE
8
0
10
3407.112619
20
1213.620326
30
0.0
11
3407.112619
21
1213.020326
31
0.0
0
ARC
8
0
10
3407.512619
20
1213.020326
30
0.0
40
0.400000
50
180.000000
51
270.000000
0
LINE
8
0
10
3407.512619
20
1212.620326
30
0.0
11
3407.721499
21
1212.620326
31
0.0
0
LINE
8
0
10
3407.721499
20
1212.620326
30
0.0
11
3407.817469
21
1212.644856
31
0.0
0
LINE
8
0
10
3407.817469
20
1212.644856
30
0.0
11
3409.348620
21
1213.530282
31
0.0
0
ARC
8
0
10
3409.684205
20
1212.949961
30
0.0
40
0.670365
50
33.390000
51
120.039706
0
LINE
8
0
10
3410.243922
20
1213.318886
30
0.0
11
3411.874426
21
1210.845158
31
0.0
0
ARC
8
0
10
3412.291898
20
1211.120326
30
0.0
40
0.500000
50
213.390000
51
270.000000
0
ARC
8
0
10
3425.933341
20
1226.914634
30
0.0
40
0.500000
50
33.390000
51
90.000000
0
LINE
8
0
10
3425.933341
20
1227.414634
30
0.0
11
3424.862619
21
1227.414634
31
0.0
0
ARC
8
0
10
3424.862619
20
1227.914634
30
0.0
40
0.500000
50
180.000000
51
270.000000
0
LINE
8
0
10
3424.362619
20
1227.914634
30
0.0
11
3424.362619
21
1232.214634
31
0.0
0
ARC
8
0
10
3424.162619
20
1232.214634
30
0.0
40
0.200000
50
0.000000
51
90.000000
0
LINE
8
0
10
3424.162619
20
1232.414634
30
0.0
11
3421.562619
21
1232.414634
31
0.0
0
ARC
8
0
10
3421.562619
20
1232.214634
30
0.0
40
0.200000
50
90.000000
51
180.000000
0
LINE
8
0
10
3421.362619
20
1232.214634
30
0.0
11
3421.362619
21
1231.114634
31
0.0
0
ARC
8
0
10
3421.562619
20
1231.114634
30
0.0
40
0.200000
50
180.000000
51
270.000000
0
LINE
8
0
10
3421.562619
20
1230.914634
30
0.0
11
3422.662619
21
1230.914634
31
0.0
0
ARC
8
0
10
3422.662619
20
1230.714634
30
0.0
40
0.200000
50
0.000000
51
90.000000
0
LINE
8
0
10
3422.862619
20
1230.714634
30
0.0
11
3422.862619
21
1227.914634
31
0.0
0
ARC
8
0
10
3422.362619
20
1227.914634
30
0.0
40
0.500000
50
270.000000
51
0.000000
0
LINE
8
0
10
3422.362619
20
1227.414634
30
0.0
11
3419.112619
21
1227.414634
31
0.0
0
LINE
8
0
10
3419.112619
20
1227.414634
30
0.0
11
3415.862619
21
1227.414634
31
0.0
0
ARC
8
0
10
3415.862619
20
1227.914634
30
0.0
40
0.500000
50
180.000000
51
270.000000
0
LINE
8
0
10
3415.362619
20
1227.914634
30
0.0
11
3415.362619
21
1230.714634
31
0.0
0
ARC
8
0
10
3415.562619
20
1230.714634
30
0.0
40
0.200000
50
90.000000
51
180.000000
0
LINE
8
0
10
3415.562619
20
1230.914634
30
0.0
11
3416.662619
21
1230.914634
31
0.0
0
ARC
8
0
10
3416.662619
20
1231.114634
30
0.0
40
0.200000
50
270.000000
51
0.000000
0
LINE
8
0
10
3416.862619
20
1231.114634
30
0.0
11
3416.862619
21
1232.214634
31
0.0
0
ARC
8
0
10
3416.662619
20
1232.214634
30
0.0
40
0.200000
50
0.000000
51
90.000000
0
LINE
8
0
10
3416.662619
20
1232.414634
30
0.0
11
3414.062619
21
1232.414634
31
0.0
0
ARC
8
0
10
3414.062619
20
1232.214634
30
0.0
40
0.200000
50
90.000000
51
180.000000
0
LINE
8
0
10
3413.862619
20
1232.214634
30
0.0
11
3413.862619
21
1227.914634
31
0.0
0
ARC
8
0
10
3413.362619
20
1227.914634
30
0.0
40
0.500000
50
270.000000
51
0.000000
0
LINE
8
0
10
3413.362619
20
1227.414634
30
0.0
11
3412.291898
21
1227.414634
31
0.0
0
ARC
8
0
10
3412.291898
20
1226.914634
30
0.0
40
0.500000
50
90.000000
51
146.610000
0
LINE
8
0
10
3411.874426
20
1227.189802
30
0.0
11
3410.243922
21
1224.716074
31
0.0
0
ARC
8
0
10
3409.684205
20
1225.085000
30
0.0
40
0.670365
50
239.960294
51
326.610000
0
LINE
8
0
10
3409.348620
20
1224.504679
30
0.0
11
3407.817469
21
1225.390104
31
0.0
0
LINE
8
0
10
3407.817469
20
1225.390104
30
0.0
11
3407.721499
21
1225.414634
31
0.0
0
LINE
8
0
10
3407.721499
20
1225.414634
30
0.0
11
3407.512619
21
1225.414634
31
0.0
0
ARC
8
0
10
3407.512619
20
1225.014634
30
0.0
40
0.400000
50
90.000000
51
180.000000
0
LINE
8
0
10
3407.112619
20
1225.014634
30
0.0
11
3407.112619
21
1224.414634
31
0.0
0
LINE
8
0
10
3407.112619
20
1224.414634
30
0.0
11
3407.212619
21
1224.414634
31
0.0
0
LINE
8
0
10
3407.212619
20
1224.414634
30
0.0
11
3407.212619
21
1224.039634
31
0.0
0
ARC
8
0
10
3407.412619
20
1224.039634
30
0.0
40
0.200000
50
180.000000
51
270.000000
0
LINE
8
0
10
3407.412619
20
1223.839634
30
0.0
11
3407.572145
21
1223.839634
31
0.0
0
ARC
8
0
10
3407.862619
20
1223.314634
30
0.0
40
0.600000
50
0.000000
51
118.955024
0
ARC
8
0
10
3407.862619
20
1223.314634
30
0.0
40
0.600000
50
241.044976
51
0.000000
0
LINE
8
0
10
3407.572145
20
1222.789634
30
0.0
11
3407.412619
21
1222.789634
31
0.0
0
ARC
8
0
10
3407.412619
20
1222.589634
30
0.0
40
0.200000
50
90.000000
51
180.000000
0
LINE
8
0
10
3407.212619
20
1222.589634
30
0.0
11
3407.212619
21
1222.214634
31
0.0
0
LINE
8
0
10
3407.212619
20
1222.214634
30
0.0
11
3407.112619
21
1222.214634
31
0.0
0
LINE
8
0
10
3407.112619
20
1222.214634
30
0.0
11
3407.112619
21
1221.614634
31
0.0
0
ARC
8
0
10
3407.512619
20
1221.614634
30
0.0
40
0.400000
50
180.000000
51
270.000000
0
LINE
8
0
10
3407.512619
20
1221.214634
30
0.0
11
3407.721499
21
1221.214634
31
0.0
0
LINE
8
0
10
3407.721499
20
1221.214634
30
0.0
11
3407.817469
21
1221.239165
31
0.0
0
LINE
8
0
10
3407.817469
20
1221.239165
30
0.0
11
3409.318508
21
1222.107177
31
0.0
0
ARC
8
0
10
3409.718989
20
1221.414634
30
0.0
40
0.800000
50
90.000000
51
120.039706
0
LINE
8
0
10
3409.718989
20
1222.214634
30
0.0
11
3410.451935
21
1222.214634
31
0.0
0
ARC
8
0
10
3410.451935
20
1223.214634
30
0.0
40
1.000000
50
270.000000
51
326.760000
0
LINE
8
0
10
3411.288317
20
1222.666487
30
0.0
11
3412.793260
21
1224.962782
31
0.0
0
ARC
8
0
10
3413.629642
20
1224.414634
30
0.0
40
1.000000
50
90.000000
51
146.760000
0
LINE
8
0
10
3413.629642
20
1225.414634
30
0.0
11
3424.595596
21
1225.414634
31
0.0
0
ARC
8
0
10
3424.595596
20
1224.414634
30
0.0
40
1.000000
50
33.240000
51
90.000000
0
LINE
8
0
10
3425.431978
20
1224.962782
30
0.0
11
3426.936922
21
1222.666487
31
0.0
0
ARC
8
0
10
3427.773304
20
1223.214634
30
0.0
40
1.000000
50
213.240000
51
270.000000
0
LINE
8
0
10
3427.773304
20
1222.214634
30
0.0
11
3428.506250
21
1222.214634
31
0.0
0
ARC
8
0
10
3428.506250
20
1221.414634
30
0.0
40
0.800000
50
59.960294
51
90.000000
0
LINE
8
0
10
3428.906730
20
1222.107177
30
0.0
11
3430.407769
21
1221.239165
31
0.0
0
LINE
8
0
10
3430.407769
20
1221.239165
30
0.0
11
3430.503739
21
1221.214634
31
0.0
0
LINE
8
0
10
3430.503739
20
1221.214634
30
0.0
11
3430.712619
21
1221.214634
31
0.0
0
ARC
8
0
10
3430.712619
20
1221.614634
30
0.0
40
0.400000
50
270.000000
51
0.000000
0
LINE
8
0
10
3431.112619
20
1221.614634
30
0.0
11
3431.112619
21
1222.214634
31
0.0
0
LINE
8
0
10
3431.112619
20
1222.214634
30
0.0
11
3431.012619
21
1222.214634
31
0.0
0
LINE
8
0
10
3431.012619
20
1222.214634
30
0.0
11
3431.012619
21
1222.589634
31
0.0
0
ARC
8
0
10
3430.812619
20
1222.589634
30
0.0
40
0.200000
50
0.000000
51
90.000000
0
LINE
8
0
10
3430.812619
20
1222.789634
30
0.0
11
3430.653093
21
1222.789634
31
0.0
0
ARC
8
0
10
3430.362619
20
1223.314634
30
0.0
40
0.600000
50
180.000000
51
298.955024
0
ARC
8
0
10
3430.362619
20
1223.314634
30
0.0
40
0.600000
50
61.044976
51
180.000000
0
LINE
8
0
10
3430.653093
20
1223.839634
30
0.0
11
3430.812619
21
1223.839634
31
0.0
0
ARC
8
0
10
3430.812619
20
1224.039634
30
0.0
40
0.200000
50
270.000000
51
0.000000
0
LINE
8
0
10
3431.012619
20
1224.039634
30
0.0
11
3431.012619
21
1224.414634
31
0.0
0
LINE
8
0
10
3431.012619
20
1224.414634
30
0.0
11
3431.112619
21
1224.414634
31
0.0
0
LINE
8
0
10
3431.112619
20
1224.414634
30
0.0
11
3431.112619
21
1225.014634
31
0.0
0
ARC
8
0
10
3430.712619
20
1225.014634
30
0.0
40
0.400000
50
0.000000
51
90.000000
0
LINE
8
0
10
3430.712619
20
1225.414634
30
0.0
11
3430.503739
21
1225.414634
31
0.0
0
LINE
8
0
10
3430.503739
20
1225.414634
30
0.0
11
3430.407769
21
1225.390104
31
0.0
0
LINE
8
0
10
3430.407769
20
1225.390104
30
0.0
11
3428.876618
21
1224.504679
31
0.0
0
ARC
8
0
10
3428.541034
20
1225.085000
30
0.0
40
0.670365
50
213.390000
51
300.039706
0
LINE
8
0
10
3427.981316
20
1224.716074
30
0.0
11
3426.350813
21
1227.189802
31
0.0
0
ATTDEF
8
0
10
3407.112619
20
1232.513843
30
0.0
40
3.5
1

3

2
VC_START
70
0
0
ATTDEF
8
0
10
3376.112619
20
1202.963843
30
0.0
40
3.5
1

3

2
VC_END
70
0
0
ATTDEF
8
0
10
3432.912619
20
1194.011117
30
0.0
40
3.5
1

3

2
FP_LCS_ORIG
70
0
0
ATTDEF
8
0
10
3422.912619
20
1194.011117
30
0.0
40
3.5
1

3

2
FP_LCS_HOT
70
0
0
ATTDEF
8
0
10
3432.912619
20
1204.011117
30
0.0
40
3.5
1

3

2
FP_LCS_INTERN
70
0
0
ATTDEF
8
0
10
0.000000
20
0.000000
30
0.0
40
3.5
1

3

2
TDEV5:0
70
0
0
ATTDEF
8
0
10
0.000000
20
0.000000
30
0.0
40
3.5
1

3

2
PANE_WIDTH:0
70
0
0
ATTDEF
8
0
10
0.000000
20
0.000000
30
0.0
40
3.5
1

3

2
MIN_VETRO:0
70
0
0
ATTDEF
8
0
10
0.000000
20
0.000000
30
0.0
40
3.5
1

3

2
MAX_VETRO:0
70
0
0
ATTDEF
8
0
10
0.000000
20
0.000000
30
0.0
40
3.5
1

3

2
JX:0
70
0
0
ATTDEF
8
0
10
0.000000
20
0.000000
30
0.0
40
3.5
1

3

2
WX:0
70
0
0
ATTDEF
8
0
10
0.000000
20
0.000000
30
0.0
40
3.5
1

3

2
JY:0
70
0
0
ATTDEF
8
0
10
0.000000
20
0.000000
30
0.0
40
3.5
1

3

2
WY:0
70
0
0
ATTDEF
8
0
10
0.000000
20
0.000000
30
0.0
40
3.5
1

3

2
DESC:Inversor
70
0
0
ATTDEF
8
0
10
0.000000
20
0.000000
30
0.0
40
3.5
1

3

2
DENS:1.2679
70
0
0
ATTDEF
8
0
10
0.000000
20
0.000000
30
0.0
40
3.5
1

3

2
TDEV:500.5
70
0
0
ATTDEF
8
0
10
0.000000
20
0.000000
30
0.0
40
3.5
1

3

2
TDEV2:0
70
0
0
ATTDEF
8
0
10
0.000000
20
0.000000
30
0.0
40
3.5
1

3

2
TDEV3:0
70
0
0
ATTDEF
8
0
10
0.000000
20
0.000000
30
0.0
40
3.5
1

3

2
TDEV4:0
70
0
0
ATTDEF
8
0
10
0.000000
20
0.000000
30
0.0
40
3.5
1

3

2
TDEV5:0
70
0
0
ATTDEF
8
0
10
0.000000
20
0.000000
30
0.0
40
3.5
1

3

2
PANE_WIDTH:0
70
0
0
ATTDEF
8
0
10
0.000000
20
0.000000
30
0.0
40
3.5
1

3

2
MIN_VETRO:0
70
0
0
ATTDEF
8
0
10
0.000000
20
0.000000
30
0.0
40
3.5
1

3

2
MAX_VETRO:0
70
0
0
ATTDEF
8
0
10
0.000000
20
0.000000
30
0.0
40
3.5
1

3

2
JX:0
70
0
0
ATTDEF
8
0
10
0.000000
20
0.000000
30
0.0
40
3.5
1

3

2
WX:0
70
0
0
ATTDEF
8
0
10
0.000000
20
0.000000
30
0.0
40
3.5
1

3

2
JY:0
70
0
0
ATTDEF
8
0
10
0.000000
20
0.000000
30
0.0
40
3.5
1

3

2
WY:0
70
0
0
ENDSEC
0
EOF
