0
SECTION
2
ENTITIES
0
ARC
8
0
10
3393.146273
20
1224.601441
30
0.0
40
0.600000
50
0.000000
51
180.000000
0
ARC
8
0
10
3393.146273
20
1224.601441
30
0.0
40
0.600000
50
180.000000
51
0.000000
0
ARC
8
0
10
3393.146273
20
1233.226117
30
0.0
40
0.600000
50
0.000000
51
180.000000
0
ARC
8
0
10
3393.146273
20
1233.226117
30
0.0
40
0.600000
50
180.000000
51
0.000000
0
ARC
8
0
10
3415.646273
20
1233.226117
30
0.0
40
0.600000
50
0.000000
51
180.000000
0
ARC
8
0
10
3415.646273
20
1233.226117
30
0.0
40
0.600000
50
180.000000
51
0.000000
0
ARC
8
0
10
3415.646273
20
1224.601441
30
0.0
40
0.600000
50
0.000000
51
180.000000
0
ARC
8
0
10
3415.646273
20
1224.601441
30
0.0
40
0.600000
50
180.000000
51
0.000000
0
LINE
8
0
10
3416.404062
20
1221.757905
30
0.0
11
3416.122550
21
1221.833336
31
0.0
0
ARC
8
0
10
3416.200196
20
1222.123114
30
0.0
40
0.300000
50
152.192367
51
255.000000
0
LINE
8
0
10
3415.934840
20
1222.263065
30
0.0
11
3414.354631
21
1223.372482
31
0.0
0
ARC
8
0
10
3414.190900
20
1223.487339
30
0.0
40
0.200000
50
324.950408
51
142.547648
0
LINE
8
0
10
3414.032128
20
1223.608959
30
0.0
11
3412.018164
21
1220.810983
31
0.0
0
ARC
8
0
10
3412.306177
20
1220.727027
30
0.0
40
0.300000
50
163.748585
51
270.000000
0
LINE
8
0
10
3412.313264
20
1220.427067
30
0.0
11
3413.366460
21
1220.433983
31
0.0
0
LINE
8
0
10
3413.366460
20
1220.433983
30
0.0
11
3413.422106
21
1220.641657
31
0.0
0
LINE
8
0
10
3413.422106
20
1220.641657
30
0.0
11
3413.792805
21
1221.122675
31
0.0
0
ARC
8
0
10
3414.647371
20
1220.603332
30
0.0
40
1.000000
50
58.490937
51
148.711802
0
LINE
8
0
10
3415.169700
20
1221.455393
30
0.0
11
3415.976150
21
1220.888750
31
0.0
0
ARC
8
0
10
3414.673452
20
1218.956340
30
0.0
40
2.330500
50
42.332481
51
56.014863
0
LINE
8
0
10
3416.396273
20
1220.525773
30
0.0
11
3416.396273
21
1218.758858
31
0.0
0
ARC
8
0
10
3416.896273
20
1218.758858
30
0.0
40
0.500000
50
180.000000
51
224.900528
0
ARC
8
0
10
3416.046273
20
1217.911804
30
0.0
40
0.700000
50
300.000000
51
44.900528
0
LINE
8
0
10
3416.396273
20
1217.305586
30
0.0
11
3415.696273
21
1216.901441
31
0.0
0
LINE
8
0
10
3415.696273
20
1216.901441
30
0.0
11
3416.562299
21
1215.401441
31
0.0
0
LINE
8
0
10
3416.562299
20
1215.401441
30
0.0
11
3421.788747
21
1215.401441
31
0.0
0
LINE
8
0
10
3421.788747
20
1215.401441
30
0.0
11
3422.146273
21
1215.701441
31
0.0
0
LINE
8
0
10
3422.146273
20
1215.701441
30
0.0
11
3422.503799
21
1215.401441
31
0.0
0
LINE
8
0
10
3422.503799
20
1215.401441
30
0.0
11
3424.796273
21
1215.401441
31
0.0
0
ARC
8
0
10
3424.796273
20
1215.701441
30
0.0
40
0.300000
50
270.000000
51
0.000000
0
LINE
8
0
10
3425.096273
20
1215.701441
30
0.0
11
3425.096273
21
1216.406150
31
0.0
0
ARC
8
0
10
3424.796273
20
1216.406150
30
0.0
40
0.300000
50
0.000000
51
69.730110
0
LINE
8
0
10
3424.900206
20
1216.687572
30
0.0
11
3423.965254
21
1217.032862
31
0.0
0
ARC
8
0
10
3423.861321
20
1216.751441
30
0.0
40
0.300000
50
69.730110
51
151.486532
0
LINE
8
0
10
3423.597710
20
1216.894651
30
0.0
11
3423.492747
21
1216.701441
31
0.0
0
LINE
8
0
10
3423.492747
20
1216.701441
30
0.0
11
3420.910932
21
1216.701441
31
0.0
0
LINE
8
0
10
3420.910932
20
1216.701441
30
0.0
11
3420.837224
21
1216.878358
31
0.0
0
ARC
8
0
10
3420.652606
20
1216.801441
30
0.0
40
0.200000
50
22.617875
51
154.161696
0
ARC
8
0
10
3420.202592
20
1217.019357
30
0.0
40
0.300000
50
265.000000
51
334.161696
0
LINE
8
0
10
3420.176445
20
1216.720499
30
0.0
11
3418.652695
21
1216.853810
31
0.0
0
ARC
8
0
10
3418.696273
20
1217.351907
30
0.0
40
0.500000
50
180.000000
51
265.000000
0
LINE
8
0
10
3418.196273
20
1217.351907
30
0.0
11
3418.196273
21
1218.451441
31
0.0
0
ARC
8
0
10
3418.696273
20
1218.451441
30
0.0
40
0.500000
50
90.000000
51
180.000000
0
LINE
8
0
10
3418.696273
20
1218.951441
30
0.0
11
3426.496273
21
1218.951441
31
0.0
0
ARC
8
0
10
3426.496273
20
1219.251441
30
0.0
40
0.300000
50
270.000000
51
0.000000
0
LINE
8
0
10
3426.796273
20
1219.251441
30
0.0
11
3426.796273
21
1228.930881
31
0.0
0
ARC
8
0
10
3420.296273
20
1228.930881
30
0.0
40
6.500000
50
0.000000
51
80.000000
0
LINE
8
0
10
3421.424986
20
1235.332132
30
0.0
11
3418.444179
21
1235.857729
31
0.0
0
ARC
8
0
10
3418.496273
20
1236.153171
30
0.0
40
0.300000
50
180.000000
51
260.000000
0
LINE
8
0
10
3418.196273
20
1236.153171
30
0.0
11
3418.196273
21
1261.901441
31
0.0
0
ARC
8
0
10
3417.696273
20
1261.901441
30
0.0
40
0.500000
50
0.000000
51
90.000000
0
LINE
8
0
10
3417.696273
20
1262.401441
30
0.0
11
3415.196273
21
1262.401441
31
0.0
0
ARC
8
0
10
3415.196273
20
1261.901441
30
0.0
40
0.500000
50
90.000000
51
180.000000
0
LINE
8
0
10
3414.696273
20
1261.901441
30
0.0
11
3414.696273
21
1259.651441
31
0.0
0
ARC
8
0
10
3415.196273
20
1259.651441
30
0.0
40
0.500000
50
180.000000
51
0.000000
0
LINE
8
0
10
3415.696273
20
1259.651441
30
0.0
11
3415.696273
21
1260.901441
31
0.0
0
LINE
8
0
10
3415.696273
20
1260.901441
30
0.0
11
3416.896273
21
1260.901441
31
0.0
0
LINE
8
0
10
3416.896273
20
1260.901441
30
0.0
11
3416.896273
21
1253.401441
31
0.0
0
LINE
8
0
10
3416.896273
20
1253.401441
30
0.0
11
3415.696273
21
1253.401441
31
0.0
0
LINE
8
0
10
3415.696273
20
1253.401441
30
0.0
11
3415.696273
21
1254.651441
31
0.0
0
ARC
8
0
10
3415.196273
20
1254.651441
30
0.0
40
0.500000
50
0.000000
51
180.000000
0
LINE
8
0
10
3414.696273
20
1254.651441
30
0.0
11
3414.696273
21
1252.401441
31
0.0
0
ARC
8
0
10
3415.196273
20
1252.401441
30
0.0
40
0.500000
50
180.000000
51
270.000000
0
LINE
8
0
10
3415.196273
20
1251.901441
30
0.0
11
3416.696273
21
1251.901441
31
0.0
0
LINE
8
0
10
3416.696273
20
1251.901441
30
0.0
11
3416.696273
21
1240.401441
31
0.0
0
LINE
8
0
10
3416.696273
20
1240.401441
30
0.0
11
3416.395030
21
1237.393338
31
0.0
0
ARC
8
0
10
3414.472909
20
1238.679112
30
0.0
40
2.312523
50
309.639660
51
326.220041
0
LINE
8
0
10
3415.948440
20
1236.892443
30
0.0
11
3415.196446
21
1236.364064
31
0.0
0
ARC
8
0
10
3414.674117
20
1237.216125
30
0.0
40
1.000000
50
211.288198
51
301.509063
0
LINE
8
0
10
3413.819551
20
1236.696782
30
0.0
11
3413.448852
21
1237.177799
31
0.0
0
LINE
8
0
10
3413.448852
20
1237.177799
30
0.0
11
3413.393206
21
1237.385473
31
0.0
0
LINE
8
0
10
3413.393206
20
1237.385473
30
0.0
11
3412.340010
21
1237.392390
31
0.0
0
ARC
8
0
10
3412.332923
20
1237.092430
30
0.0
40
0.300000
50
90.000000
51
196.251415
0
LINE
8
0
10
3412.044910
20
1237.008474
30
0.0
11
3414.049929
21
1234.222925
31
0.0
0
ARC
8
0
10
3414.212368
20
1234.328318
30
0.0
40
0.200000
50
214.039809
51
35.071526
0
LINE
8
0
10
3414.376055
20
1234.443238
30
0.0
11
3415.961586
21
1235.556391
31
0.0
0
ARC
8
0
10
3416.226942
20
1235.696343
30
0.0
40
0.300000
50
105.000000
51
207.807633
0
LINE
8
0
10
3416.149296
20
1235.986120
30
0.0
11
3416.414707
21
1236.057237
31
0.0
0
ARC
8
0
10
3416.396273
20
1235.757804
30
0.0
40
0.300000
50
270.000000
51
86.477089
0
LINE
8
0
10
3416.396273
20
1235.457804
30
0.0
11
3416.396273
21
1230.957804
31
0.0
0
ARC
8
0
10
3416.196273
20
1230.967906
30
0.0
40
0.200000
50
240.153120
51
357.108405
0
LINE
8
0
10
3416.096736
20
1230.794434
30
0.0
11
3414.296273
21
1231.827527
31
0.0
0
ARC
8
0
10
3414.096273
20
1231.827262
30
0.0
40
0.200000
50
0.000000
51
180.000000
0
LINE
8
0
10
3413.896273
20
1231.827262
30
0.0
11
3413.896273
21
1230.443482
31
0.0
0
ARC
8
0
10
3414.096273
20
1230.443482
30
0.0
40
0.200000
50
180.000000
51
241.694535
0
LINE
8
0
10
3414.001657
20
1230.267187
30
0.0
11
3415.312639
21
1229.514955
31
0.0
0
ARC
8
0
10
3414.964260
20
1228.907804
30
0.0
40
0.700000
50
299.846880
51
60.153120
0
LINE
8
0
10
3415.312639
20
1228.300653
30
0.0
11
3414.001657
21
1227.548421
31
0.0
0
ARC
8
0
10
3414.096273
20
1227.372126
30
0.0
40
0.200000
50
118.305465
51
180.000000
0
LINE
8
0
10
3413.896273
20
1227.372126
30
0.0
11
3413.896273
21
1225.988346
31
0.0
0
ARC
8
0
10
3414.096273
20
1225.988346
30
0.0
40
0.200000
50
180.000000
51
0.000000
0
LINE
8
0
10
3414.296273
20
1225.988081
30
0.0
11
3416.096736
21
1227.021174
31
0.0
0
ARC
8
0
10
3416.196273
20
1226.847702
30
0.0
40
0.200000
50
2.891595
51
119.846880
0
LINE
8
0
10
3416.396273
20
1226.857804
30
0.0
11
3416.396273
21
1222.357804
31
0.0
0
ARC
8
0
10
3416.396273
20
1222.057804
30
0.0
40
0.300000
50
270.000000
51
90.000000
0
LINE
8
0
10
3418.196273
20
1220.745078
30
0.0
11
3418.196273
21
1234.014412
31
0.0
0
ARC
8
0
10
3418.496273
20
1234.014412
30
0.0
40
0.300000
50
80.000000
51
180.000000
0
LINE
8
0
10
3418.548368
20
1234.309854
30
0.0
11
3421.164514
21
1233.848557
31
0.0
0
ARC
8
0
10
3420.296273
20
1228.924518
30
0.0
40
5.000000
50
0.000000
51
80.000000
0
LINE
8
0
10
3425.296273
20
1228.924518
30
0.0
11
3425.296273
21
1220.745078
31
0.0
0
ARC
8
0
10
3424.996273
20
1220.745078
30
0.0
40
0.300000
50
270.000000
51
0.000000
0
LINE
8
0
10
3424.996273
20
1220.445078
30
0.0
11
3418.496273
21
1220.445078
31
0.0
0
ARC
8
0
10
3418.496273
20
1220.745078
30
0.0
40
0.300000
50
180.000000
51
270.000000
0
LINE
8
0
10
3395.249574
20
1234.557830
30
0.0
11
3394.789406
21
1234.080949
31
0.0
0
ARC
8
0
10
3394.684617
20
1234.182065
30
0.0
40
0.145621
50
180.000000
51
316.021839
0
LINE
8
0
10
3394.539293
20
1234.191358
30
0.0
11
3394.549222
21
1234.346623
31
0.0
0
ARC
8
0
10
3394.349629
20
1234.359386
30
0.0
40
0.200000
50
356.341100
51
49.517123
0
LINE
8
0
10
3394.479474
20
1234.511506
30
0.0
11
3392.875271
21
1235.880795
31
0.0
0
ARC
8
0
10
3392.680505
20
1235.652615
30
0.0
40
0.300000
50
49.517123
51
71.341100
0
LINE
8
0
10
3392.776485
20
1235.936847
30
0.0
11
3392.492253
21
1236.032827
31
0.0
0
ARC
8
0
10
3392.396273
20
1235.748595
30
0.0
40
0.300000
50
71.341100
51
270.000000
0
LINE
8
0
10
3392.396273
20
1235.448595
30
0.0
11
3392.396273
21
1230.948595
31
0.0
0
ARC
8
0
10
3392.596273
20
1230.948595
30
0.0
40
0.200000
50
180.000000
51
270.000000
0
LINE
8
0
10
3392.596273
20
1230.748595
30
0.0
11
3392.664162
21
1230.748595
31
0.0
0
ARC
8
0
10
3392.664162
20
1231.048595
30
0.0
40
0.300000
50
270.000000
51
301.380132
0
LINE
8
0
10
3392.820376
20
1230.792476
30
0.0
11
3394.496369
21
1231.814709
31
0.0
0
ARC
8
0
10
3394.696273
20
1231.820899
30
0.0
40
0.200000
50
0.000000
51
180.000000
0
LINE
8
0
10
3394.896273
20
1231.820899
30
0.0
11
3394.896273
21
1230.413909
31
0.0
0
ARC
8
0
10
3394.696273
20
1230.413909
30
0.0
40
0.200000
50
301.380132
51
0.000000
0
LINE
8
0
10
3394.800416
20
1230.243162
30
0.0
11
3393.586185
21
1229.502570
31
0.0
0
ARC
8
0
10
3393.950684
20
1228.904958
30
0.0
40
0.700000
50
121.380132
51
180.000000
0
ARC
8
0
10
3393.950684
20
1228.897924
30
0.0
40
0.700000
50
180.000000
51
238.619868
0
LINE
8
0
10
3393.586185
20
1228.300312
30
0.0
11
3394.800416
21
1227.559720
31
0.0
0
ARC
8
0
10
3394.696273
20
1227.388973
30
0.0
40
0.200000
50
0.000000
51
58.619868
0
LINE
8
0
10
3394.896273
20
1227.388973
30
0.0
11
3394.896273
21
1225.981983
31
0.0
0
ARC
8
0
10
3394.696273
20
1225.981983
30
0.0
40
0.200000
50
180.000000
51
0.000000
0
LINE
8
0
10
3394.496369
20
1225.988173
30
0.0
11
3392.820376
21
1227.010406
31
0.0
0
ARC
8
0
10
3392.664162
20
1226.754287
30
0.0
40
0.300000
50
58.619868
51
90.000000
0
LINE
8
0
10
3392.664162
20
1227.054287
30
0.0
11
3392.596273
21
1227.054287
31
0.0
0
ARC
8
0
10
3392.596273
20
1226.854287
30
0.0
40
0.200000
50
90.000000
51
180.000000
0
LINE
8
0
10
3392.396273
20
1226.854287
30
0.0
11
3392.396273
21
1222.354287
31
0.0
0
ARC
8
0
10
3392.396273
20
1222.054287
30
0.0
40
0.300000
50
90.000000
51
288.658900
0
LINE
8
0
10
3392.492253
20
1221.770055
30
0.0
11
3392.776485
21
1221.866035
31
0.0
0
ARC
8
0
10
3392.680505
20
1222.150267
30
0.0
40
0.300000
50
288.658900
51
310.482877
0
LINE
8
0
10
3392.875271
20
1221.922087
30
0.0
11
3394.479474
21
1223.291376
31
0.0
0
ARC
8
0
10
3394.349629
20
1223.443496
30
0.0
40
0.200000
50
310.482877
51
3.658900
0
LINE
8
0
10
3394.549222
20
1223.456259
30
0.0
11
3394.539293
21
1223.611524
31
0.0
0
ARC
8
0
10
3394.684617
20
1223.620817
30
0.0
40
0.145621
50
43.978161
51
180.000000
0
LINE
8
0
10
3394.789406
20
1223.721934
30
0.0
11
3395.249574
21
1223.245053
31
0.0
0
LINE
8
0
10
3395.292187
20
1223.188988
30
0.0
11
3395.249574
21
1223.245053
31
0.0
0
LINE
8
0
10
3395.292187
20
1223.188988
30
0.0
11
3396.715891
21
1220.771789
31
0.0
0
ARC
8
0
10
3396.457396
20
1220.619538
30
0.0
40
0.300000
50
270.000000
51
30.497622
0
LINE
8
0
10
3396.457396
20
1220.319538
30
0.0
11
3395.768600
21
1220.319538
31
0.0
0
ARC
8
0
10
3395.768600
20
1220.819538
30
0.0
40
0.500000
50
226.465725
51
270.000000
0
ARC
8
0
10
3394.046629
20
1219.007132
30
0.0
40
2.000000
50
46.465725
51
133.557284
0
ARC
8
0
10
3392.530654
20
1220.601441
30
0.0
40
0.200000
50
270.000000
51
313.557284
0
LINE
8
0
10
3392.530654
20
1220.401441
30
0.0
11
3365.296705
21
1220.401441
31
0.0
0
LINE
8
0
10
3365.296705
20
1220.401441
30
0.0
11
3365.296705
21
1216.901441
31
0.0
0
LINE
8
0
10
3365.296705
20
1216.901441
30
0.0
11
3367.488414
21
1216.901441
31
0.0
0
LINE
8
0
10
3367.488414
20
1216.901441
30
0.0
11
3367.690487
21
1217.251441
31
0.0
0
LINE
8
0
10
3367.690487
20
1217.251441
30
0.0
11
3368.296705
21
1216.901441
31
0.0
0
LINE
8
0
10
3368.296705
20
1216.901441
30
0.0
11
3367.430679
21
1215.401441
31
0.0
0
LINE
8
0
10
3367.430679
20
1215.401441
30
0.0
11
3363.796705
21
1215.401441
31
0.0
0
LINE
8
0
10
3363.796705
20
1215.401441
30
0.0
11
3363.796705
21
1242.401441
31
0.0
0
LINE
8
0
10
3363.796705
20
1242.401441
30
0.0
11
3366.296705
21
1242.401441
31
0.0
0
LINE
8
0
10
3366.296705
20
1242.401441
30
0.0
11
3367.296705
21
1241.401441
31
0.0
0
LINE
8
0
10
3367.296705
20
1241.401441
30
0.0
11
3367.296705
21
1240.401441
31
0.0
0
LINE
8
0
10
3367.296705
20
1240.401441
30
0.0
11
3365.296705
21
1240.401441
31
0.0
0
LINE
8
0
10
3365.296705
20
1240.401441
30
0.0
11
3365.296705
21
1237.401441
31
0.0
0
LINE
8
0
10
3365.296705
20
1237.401441
30
0.0
11
3383.296705
21
1237.401441
31
0.0
0
LINE
8
0
10
3383.296705
20
1237.401441
30
0.0
11
3383.296705
21
1240.401441
31
0.0
0
LINE
8
0
10
3383.296705
20
1240.401441
30
0.0
11
3381.296705
21
1240.401441
31
0.0
0
LINE
8
0
10
3381.296705
20
1240.401441
30
0.0
11
3381.296705
21
1241.401441
31
0.0
0
LINE
8
0
10
3381.296705
20
1241.401441
30
0.0
11
3382.296705
21
1242.401441
31
0.0
0
LINE
8
0
10
3382.296705
20
1242.401441
30
0.0
11
3385.246705
21
1242.401441
31
0.0
0
LINE
8
0
10
3385.246705
20
1242.401441
30
0.0
11
3386.246705
21
1241.401441
31
0.0
0
LINE
8
0
10
3386.246705
20
1241.401441
30
0.0
11
3386.246705
21
1240.401441
31
0.0
0
LINE
8
0
10
3386.246705
20
1240.401441
30
0.0
11
3384.796705
21
1240.401441
31
0.0
0
LINE
8
0
10
3384.796705
20
1240.401441
30
0.0
11
3384.796705
21
1237.401441
31
0.0
0
LINE
8
0
10
3384.796705
20
1237.401441
30
0.0
11
3390.896705
21
1237.401441
31
0.0
0
LINE
8
0
10
3390.896705
20
1237.401441
30
0.0
11
3390.896705
21
1240.401441
31
0.0
0
LINE
8
0
10
3390.896705
20
1240.401441
30
0.0
11
3389.446705
21
1240.401441
31
0.0
0
LINE
8
0
10
3389.446705
20
1240.401441
30
0.0
11
3389.446705
21
1241.401441
31
0.0
0
LINE
8
0
10
3389.446705
20
1241.401441
30
0.0
11
3390.446705
21
1242.401441
31
0.0
0
LINE
8
0
10
3390.446705
20
1242.401441
30
0.0
11
3392.396705
21
1242.401441
31
0.0
0
LINE
8
0
10
3392.396705
20
1242.401441
30
0.0
11
3392.396705
21
1237.928203
31
0.0
0
ARC
8
0
10
3393.146705
20
1237.928203
30
0.0
40
0.750000
50
180.000000
51
223.950530
0
ARC
8
0
10
3394.046629
20
1238.795750
30
0.0
40
2.000000
50
223.950530
51
313.534275
0
ARC
8
0
10
3395.768600
20
1236.983344
30
0.0
40
0.500000
50
90.000000
51
133.534275
0
LINE
8
0
10
3395.768600
20
1237.483344
30
0.0
11
3396.457396
21
1237.483344
31
0.0
0
ARC
8
0
10
3396.457396
20
1237.183344
30
0.0
40
0.300000
50
329.502378
51
90.000000
0
LINE
8
0
10
3396.715891
20
1237.031093
30
0.0
11
3395.292187
21
1234.613894
31
0.0
0
LINE
8
0
10
3395.249574
20
1234.557830
30
0.0
11
3395.292187
21
1234.613894
31
0.0
0
LINE
8
0
10
3365.296273
20
1235.901441
30
0.0
11
3390.896273
21
1235.901441
31
0.0
0
LINE
8
0
10
3390.896273
20
1235.901441
30
0.0
11
3390.896273
21
1221.901441
31
0.0
0
LINE
8
0
10
3390.896273
20
1221.901441
30
0.0
11
3365.296273
21
1221.901441
31
0.0
0
LINE
8
0
10
3365.296273
20
1221.901441
30
0.0
11
3365.296273
21
1235.901441
31
0.0
0
LINE
8
0
10
3392.507842
20
1233.884081
30
0.0
11
3393.623355
21
1234.999593
31
0.0
0
LINE
8
0
10
3399.146273
20
1240.522511
30
0.0
11
3400.949879
21
1242.326117
31
0.0
0
LINE
8
0
10
3392.396273
20
1231.527447
30
0.0
11
3395.263806
21
1234.394980
31
0.0
0
LINE
8
0
10
3401.694943
20
1240.826117
30
0.0
11
3402.146273
21
1241.277447
31
0.0
0
LINE
8
0
10
3395.587894
20
1234.719068
30
0.0
11
3398.194943
21
1237.326117
31
0.0
0
LINE
8
0
10
3399.146273
20
1238.277447
30
0.0
11
3400.646273
21
1239.777447
31
0.0
0
LINE
8
0
10
3395.240007
20
1232.126117
30
0.0
11
3400.704963
21
1237.591073
31
0.0
0
LINE
8
0
10
3400.685071
20
1235.326117
30
0.0
11
3402.685071
21
1237.326117
31
0.0
0
LINE
8
0
10
3406.646273
20
1241.287319
30
0.0
11
3407.685071
21
1242.326117
31
0.0
0
LINE
8
0
10
3392.730459
20
1225.126441
30
0.0
11
3393.848652
21
1226.244634
31
0.0
0
LINE
8
0
10
3408.146273
20
1240.542255
30
0.0
11
3409.646273
21
1242.042255
31
0.0
0
LINE
8
0
10
3402.930135
20
1235.326117
30
0.0
11
3404.930135
21
1237.326117
31
0.0
0
LINE
8
0
10
3392.491482
20
1222.642400
30
0.0
11
3395.550523
21
1225.701441
31
0.0
0
LINE
8
0
10
3408.146273
20
1238.297191
30
0.0
11
3409.646273
21
1239.797191
31
0.0
0
LINE
8
0
10
3405.175199
20
1235.326117
30
0.0
11
3407.175199
21
1237.326117
31
0.0
0
LINE
8
0
10
3395.420080
20
1223.325935
30
0.0
11
3396.877519
21
1224.783373
31
0.0
0
LINE
8
0
10
3407.420263
20
1235.326117
30
0.0
11
3409.698261
21
1237.604115
31
0.0
0
LINE
8
0
10
3396.326746
20
1221.987536
30
0.0
11
3397.766359
21
1223.427149
31
0.0
0
LINE
8
0
10
3409.665327
20
1235.326117
30
0.0
11
3411.543769
21
1237.204559
31
0.0
0
LINE
8
0
10
3397.227117
20
1220.642842
30
0.0
11
3399.085715
21
1222.501441
31
0.0
0
LINE
8
0
10
3411.009755
20
1234.425481
30
0.0
11
3412.449312
21
1235.865038
31
0.0
0
LINE
8
0
10
3399.330779
20
1220.501441
30
0.0
11
3401.330779
21
1222.501441
31
0.0
0
LINE
8
0
10
3411.898596
20
1233.069258
30
0.0
11
3413.351234
21
1234.521896
31
0.0
0
LINE
8
0
10
3401.575843
20
1220.501441
30
0.0
11
3403.575843
21
1222.501441
31
0.0
0
LINE
8
0
10
3413.200519
20
1232.126117
30
0.0
11
3416.281231
21
1235.206829
31
0.0
0
LINE
8
0
10
3403.820907
20
1220.501441
30
0.0
11
3405.820907
21
1222.501441
31
0.0
0
LINE
8
0
10
3414.917597
20
1231.598131
30
0.0
11
3416.020583
21
1232.701117
31
0.0
0
LINE
8
0
10
3406.065971
20
1220.501441
30
0.0
11
3408.065971
21
1222.501441
31
0.0
0
LINE
8
0
10
3408.311035
20
1220.501441
30
0.0
11
3413.511035
21
1225.701441
31
0.0
0
LINE
8
0
10
3410.556099
20
1220.501441
30
0.0
11
3413.289740
21
1223.235082
31
0.0
0
LINE
8
0
10
3413.420681
20
1223.366023
30
0.0
11
3416.394432
21
1226.339774
31
0.0
0
LINE
8
0
10
3415.142894
20
1222.843172
30
0.0
11
3416.271881
21
1223.972159
31
0.0
0
LINE
8
0
10
3394.183612
20
1223.151947
30
0.0
11
3393.311048
21
1224.024510
31
0.0
0
LINE
8
0
10
3399.079181
20
1220.501441
30
0.0
11
3392.879181
21
1226.701441
31
0.0
0
LINE
8
0
10
3401.324245
20
1220.501441
30
0.0
11
3399.324245
21
1222.501441
31
0.0
0
LINE
8
0
10
3396.563739
20
1225.261947
30
0.0
11
3396.296095
21
1225.529591
31
0.0
0
LINE
8
0
10
3403.569309
20
1220.501441
30
0.0
11
3401.569309
21
1222.501441
31
0.0
0
LINE
8
0
10
3392.944633
20
1231.126117
30
0.0
11
3392.396273
21
1231.674477
31
0.0
0
LINE
8
0
10
3405.814373
20
1220.501441
30
0.0
11
3403.814373
21
1222.501441
31
0.0
0
LINE
8
0
10
3394.408908
20
1231.906906
30
0.0
11
3393.541305
21
1232.774509
31
0.0
0
LINE
8
0
10
3408.059437
20
1220.501441
30
0.0
11
3406.059437
21
1222.501441
31
0.0
0
LINE
8
0
10
3396.276099
20
1232.284779
30
0.0
11
3393.476173
21
1235.084705
31
0.0
0
LINE
8
0
10
3410.304501
20
1220.501441
30
0.0
11
3408.304501
21
1222.501441
31
0.0
0
LINE
8
0
10
3397.227596
20
1233.578346
30
0.0
11
3395.786126
21
1235.019817
31
0.0
0
LINE
8
0
10
3411.908691
20
1221.142315
30
0.0
11
3410.402032
21
1222.648974
31
0.0
0
LINE
8
0
10
3398.118289
20
1234.932717
30
0.0
11
3396.678031
21
1236.372976
31
0.0
0
LINE
8
0
10
3412.800596
20
1222.495474
30
0.0
11
3411.359833
21
1223.936238
31
0.0
0
LINE
8
0
10
3399.969953
20
1235.326117
30
0.0
11
3397.969953
21
1237.326117
31
0.0
0
LINE
8
0
10
3414.097891
20
1223.443244
30
0.0
11
3412.249613
21
1225.291521
31
0.0
0
LINE
8
0
10
3402.215018
20
1235.326117
30
0.0
11
3399.146273
21
1238.394861
31
0.0
0
LINE
8
0
10
3416.396273
20
1223.389925
30
0.0
11
3415.771536
21
1224.014662
31
0.0
0
LINE
8
0
10
3400.646273
20
1239.139925
30
0.0
11
3399.146273
21
1240.639925
31
0.0
0
LINE
8
0
10
3415.059494
20
1224.726704
30
0.0
11
3414.043499
21
1225.742699
31
0.0
0
LINE
8
0
10
3404.460082
20
1235.326117
30
0.0
11
3402.460082
21
1237.326117
31
0.0
0
LINE
8
0
10
3416.329821
20
1225.701441
30
0.0
11
3415.477853
21
1226.553409
31
0.0
0
LINE
8
0
10
3401.205146
20
1240.826117
30
0.0
11
3399.705146
21
1242.326117
31
0.0
0
LINE
8
0
10
3406.705146
20
1235.326117
30
0.0
11
3404.705146
21
1237.326117
31
0.0
0
LINE
8
0
10
3408.950210
20
1235.326117
30
0.0
11
3406.950210
21
1237.326117
31
0.0
0
LINE
8
0
10
3402.146234
20
1242.130093
30
0.0
11
3401.950249
21
1242.326077
31
0.0
0
LINE
8
0
10
3414.931024
20
1231.590366
30
0.0
11
3408.146273
21
1238.375117
31
0.0
0
LINE
8
0
10
3416.296273
20
1232.470181
30
0.0
11
3416.065338
21
1232.701117
31
0.0
0
LINE
8
0
10
3407.940338
20
1240.826117
30
0.0
11
3406.646273
21
1242.120181
31
0.0
0
LINE
8
0
10
3415.172361
20
1233.594094
30
0.0
11
3414.280670
21
1234.485784
31
0.0
0
LINE
8
0
10
3409.646273
20
1239.120181
30
0.0
11
3408.146273
21
1240.620181
31
0.0
0
LINE
8
0
10
3416.396273
20
1234.615245
30
0.0
11
3415.703738
21
1235.307781
31
0.0
0
LINE
8
0
10
3409.646273
20
1241.365245
30
0.0
11
3408.685402
21
1242.326117
31
0.0
0
LINE
8
0
10
3413.789904
20
1225.701441
30
0.0
11
3413.056957
21
1225.701441
31
0.0
0
ARC
8
0
10
3413.056957
20
1224.701441
30
0.0
40
1.000000
50
90.000000
51
146.760000
0
LINE
8
0
10
3412.220576
20
1225.249588
30
0.0
11
3410.715632
21
1222.953294
31
0.0
0
ARC
8
0
10
3409.879250
20
1223.501441
30
0.0
40
1.000000
50
270.000000
51
326.760000
0
LINE
8
0
10
3409.879250
20
1222.501441
30
0.0
11
3404.396273
21
1222.501441
31
0.0
0
LINE
8
0
10
3404.396273
20
1222.501441
30
0.0
11
3399.063857
21
1222.501441
31
0.0
0
LINE
8
0
10
3399.063857
20
1222.501441
30
0.0
11
3398.913296
21
1222.501441
31
0.0
0
ARC
8
0
10
3398.913296
20
1223.501441
30
0.0
40
1.000000
50
213.240000
51
270.000000
0
LINE
8
0
10
3398.076914
20
1222.953294
30
0.0
11
3396.571971
21
1225.249588
31
0.0
0
ARC
8
0
10
3395.735589
20
1224.701441
30
0.0
40
1.000000
50
33.240000
51
90.000000
0
LINE
8
0
10
3395.735589
20
1225.701441
30
0.0
11
3395.002642
21
1225.701441
31
0.0
0
ARC
8
0
10
3395.002642
20
1226.501441
30
0.0
40
0.800000
50
239.960294
51
270.000000
0
LINE
8
0
10
3394.602162
20
1225.808898
30
0.0
11
3393.101123
21
1226.676911
31
0.0
0
LINE
8
0
10
3393.101123
20
1226.676911
30
0.0
11
3393.005153
21
1226.701441
31
0.0
0
LINE
8
0
10
3393.005153
20
1226.701441
30
0.0
11
3392.796273
21
1226.701441
31
0.0
0
ARC
8
0
10
3392.796273
20
1226.301441
30
0.0
40
0.400000
50
90.000000
51
180.000000
0
LINE
8
0
10
3392.396273
20
1226.301441
30
0.0
11
3392.396273
21
1225.701441
31
0.0
0
LINE
8
0
10
3392.396273
20
1225.701441
30
0.0
11
3392.496273
21
1225.701441
31
0.0
0
LINE
8
0
10
3392.496273
20
1225.701441
30
0.0
11
3392.496273
21
1225.326441
31
0.0
0
ARC
8
0
10
3392.696273
20
1225.326441
30
0.0
40
0.200000
50
180.000000
51
270.000000
0
LINE
8
0
10
3392.696273
20
1225.126441
30
0.0
11
3392.855799
21
1225.126441
31
0.0
0
ARC
8
0
10
3393.146273
20
1224.601441
30
0.0
40
0.600000
50
0.000000
51
118.955024
0
ARC
8
0
10
3393.146273
20
1224.601441
30
0.0
40
0.600000
50
241.044976
51
0.000000
0
LINE
8
0
10
3392.855799
20
1224.076441
30
0.0
11
3392.696273
21
1224.076441
31
0.0
0
ARC
8
0
10
3392.696273
20
1223.876441
30
0.0
40
0.200000
50
90.000000
51
180.000000
0
LINE
8
0
10
3392.496273
20
1223.876441
30
0.0
11
3392.496273
21
1223.501441
31
0.0
0
LINE
8
0
10
3392.496273
20
1223.501441
30
0.0
11
3392.396273
21
1223.501441
31
0.0
0
LINE
8
0
10
3392.396273
20
1223.501441
30
0.0
11
3392.396273
21
1222.901441
31
0.0
0
ARC
8
0
10
3392.796273
20
1222.901441
30
0.0
40
0.400000
50
180.000000
51
270.000000
0
LINE
8
0
10
3392.796273
20
1222.501441
30
0.0
11
3393.005153
21
1222.501441
31
0.0
0
LINE
8
0
10
3393.005153
20
1222.501441
30
0.0
11
3393.101123
21
1222.525971
31
0.0
0
LINE
8
0
10
3393.101123
20
1222.525971
30
0.0
11
3394.632274
21
1223.411397
31
0.0
0
ARC
8
0
10
3394.967859
20
1222.831076
30
0.0
40
0.670365
50
33.390000
51
120.039706
0
LINE
8
0
10
3395.527576
20
1223.200001
30
0.0
11
3397.158080
21
1220.726274
31
0.0
0
ARC
8
0
10
3397.575552
20
1221.001441
30
0.0
40
0.500000
50
213.390000
51
270.000000
0
LINE
8
0
10
3397.575552
20
1220.501441
30
0.0
11
3404.396273
21
1220.501441
31
0.0
0
LINE
8
0
10
3404.396273
20
1220.501441
30
0.0
11
3411.216995
21
1220.501441
31
0.0
0
ARC
8
0
10
3411.216995
20
1221.001441
30
0.0
40
0.500000
50
270.000000
51
326.610000
0
LINE
8
0
10
3411.634467
20
1220.726274
30
0.0
11
3413.264970
21
1223.200001
31
0.0
0
ARC
8
0
10
3413.824687
20
1222.831076
30
0.0
40
0.670365
50
59.960294
51
146.610000
0
LINE
8
0
10
3414.160272
20
1223.411397
30
0.0
11
3415.691423
21
1222.525971
31
0.0
0
LINE
8
0
10
3415.691423
20
1222.525971
30
0.0
11
3415.787393
21
1222.501441
31
0.0
0
LINE
8
0
10
3415.787393
20
1222.501441
30
0.0
11
3415.996273
21
1222.501441
31
0.0
0
ARC
8
0
10
3415.996273
20
1222.901441
30
0.0
40
0.400000
50
270.000000
51
0.000000
0
LINE
8
0
10
3416.396273
20
1222.901441
30
0.0
11
3416.396273
21
1223.501441
31
0.0
0
LINE
8
0
10
3416.396273
20
1223.501441
30
0.0
11
3416.296273
21
1223.501441
31
0.0
0
LINE
8
0
10
3416.296273
20
1223.501441
30
0.0
11
3416.296273
21
1223.876441
31
0.0
0
ARC
8
0
10
3416.096273
20
1223.876441
30
0.0
40
0.200000
50
0.000000
51
90.000000
0
LINE
8
0
10
3416.096273
20
1224.076441
30
0.0
11
3415.936747
21
1224.076441
31
0.0
0
ARC
8
0
10
3415.646273
20
1224.601441
30
0.0
40
0.600000
50
180.000000
51
298.955024
0
ARC
8
0
10
3415.646273
20
1224.601441
30
0.0
40
0.600000
50
61.044976
51
180.000000
0
LINE
8
0
10
3415.936747
20
1225.126441
30
0.0
11
3416.096273
21
1225.126441
31
0.0
0
ARC
8
0
10
3416.096273
20
1225.326441
30
0.0
40
0.200000
50
270.000000
51
0.000000
0
LINE
8
0
10
3416.296273
20
1225.326441
30
0.0
11
3416.296273
21
1225.701441
31
0.0
0
LINE
8
0
10
3416.296273
20
1225.701441
30
0.0
11
3416.396273
21
1225.701441
31
0.0
0
LINE
8
0
10
3416.396273
20
1225.701441
30
0.0
11
3416.396273
21
1226.301441
31
0.0
0
ARC
8
0
10
3415.996273
20
1226.301441
30
0.0
40
0.400000
50
0.000000
51
90.000000
0
LINE
8
0
10
3415.996273
20
1226.701441
30
0.0
11
3415.787393
21
1226.701441
31
0.0
0
LINE
8
0
10
3415.787393
20
1226.701441
30
0.0
11
3415.691423
21
1226.676911
31
0.0
0
LINE
8
0
10
3415.691423
20
1226.676911
30
0.0
11
3414.190384
21
1225.808898
31
0.0
0
ARC
8
0
10
3413.789904
20
1226.501441
30
0.0
40
0.800000
50
270.000000
51
300.039706
0
ARC
8
0
10
3411.216995
20
1236.826117
30
0.0
40
0.500000
50
33.390000
51
90.000000
0
LINE
8
0
10
3411.216995
20
1237.326117
30
0.0
11
3410.146273
21
1237.326117
31
0.0
0
ARC
8
0
10
3410.146273
20
1237.826117
30
0.0
40
0.500000
50
180.000000
51
270.000000
0
LINE
8
0
10
3409.646273
20
1237.826117
30
0.0
11
3409.646273
21
1242.126117
31
0.0
0
ARC
8
0
10
3409.446273
20
1242.126117
30
0.0
40
0.200000
50
0.000000
51
90.000000
0
LINE
8
0
10
3409.446273
20
1242.326117
30
0.0
11
3406.846273
21
1242.326117
31
0.0
0
ARC
8
0
10
3406.846273
20
1242.126117
30
0.0
40
0.200000
50
90.000000
51
180.000000
0
LINE
8
0
10
3406.646273
20
1242.126117
30
0.0
11
3406.646273
21
1241.026117
31
0.0
0
ARC
8
0
10
3406.846273
20
1241.026117
30
0.0
40
0.200000
50
180.000000
51
270.000000
0
LINE
8
0
10
3406.846273
20
1240.826117
30
0.0
11
3407.946273
21
1240.826117
31
0.0
0
ARC
8
0
10
3407.946273
20
1240.626117
30
0.0
40
0.200000
50
0.000000
51
90.000000
0
LINE
8
0
10
3408.146273
20
1240.626117
30
0.0
11
3408.146273
21
1237.826117
31
0.0
0
ARC
8
0
10
3407.646273
20
1237.826117
30
0.0
40
0.500000
50
270.000000
51
0.000000
0
LINE
8
0
10
3407.646273
20
1237.326117
30
0.0
11
3404.396273
21
1237.326117
31
0.0
0
LINE
8
0
10
3404.396273
20
1237.326117
30
0.0
11
3401.146273
21
1237.326117
31
0.0
0
ARC
8
0
10
3401.146273
20
1237.826117
30
0.0
40
0.500000
50
180.000000
51
270.000000
0
LINE
8
0
10
3400.646273
20
1237.826117
30
0.0
11
3400.646273
21
1240.626117
31
0.0
0
ARC
8
0
10
3400.846273
20
1240.626117
30
0.0
40
0.200000
50
90.000000
51
180.000000
0
LINE
8
0
10
3400.846273
20
1240.826117
30
0.0
11
3401.946273
21
1240.826117
31
0.0
0
ARC
8
0
10
3401.946273
20
1241.026117
30
0.0
40
0.200000
50
270.000000
51
0.000000
0
LINE
8
0
10
3402.146273
20
1241.026117
30
0.0
11
3402.146273
21
1242.126117
31
0.0
0
ARC
8
0
10
3401.946273
20
1242.126117
30
0.0
40
0.200000
50
0.000000
51
90.000000
0
LINE
8
0
10
3401.946273
20
1242.326117
30
0.0
11
3399.346273
21
1242.326117
31
0.0
0
ARC
8
0
10
3399.346273
20
1242.126117
30
0.0
40
0.200000
50
90.000000
51
180.000000
0
LINE
8
0
10
3399.146273
20
1242.126117
30
0.0
11
3399.146273
21
1237.826117
31
0.0
0
ARC
8
0
10
3398.646273
20
1237.826117
30
0.0
40
0.500000
50
270.000000
51
0.000000
0
LINE
8
0
10
3398.646273
20
1237.326117
30
0.0
11
3397.575552
21
1237.326117
31
0.0
0
ARC
8
0
10
3397.575552
20
1236.826117
30
0.0
40
0.500000
50
90.000000
51
146.610000
0
LINE
8
0
10
3397.158080
20
1237.101284
30
0.0
11
3395.527576
21
1234.627557
31
0.0
0
ARC
8
0
10
3394.967859
20
1234.996482
30
0.0
40
0.670365
50
239.960294
51
326.610000
0
LINE
8
0
10
3394.632274
20
1234.416161
30
0.0
11
3393.101123
21
1235.301587
31
0.0
0
LINE
8
0
10
3393.101123
20
1235.301587
30
0.0
11
3393.005153
21
1235.326117
31
0.0
0
LINE
8
0
10
3393.005153
20
1235.326117
30
0.0
11
3392.796273
21
1235.326117
31
0.0
0
ARC
8
0
10
3392.796273
20
1234.926117
30
0.0
40
0.400000
50
90.000000
51
180.000000
0
LINE
8
0
10
3392.396273
20
1234.926117
30
0.0
11
3392.396273
21
1234.326117
31
0.0
0
LINE
8
0
10
3392.396273
20
1234.326117
30
0.0
11
3392.496273
21
1234.326117
31
0.0
0
LINE
8
0
10
3392.496273
20
1234.326117
30
0.0
11
3392.496273
21
1233.951117
31
0.0
0
ARC
8
0
10
3392.696273
20
1233.951117
30
0.0
40
0.200000
50
180.000000
51
270.000000
0
LINE
8
0
10
3392.696273
20
1233.751117
30
0.0
11
3392.855799
21
1233.751117
31
0.0
0
ARC
8
0
10
3393.146273
20
1233.226117
30
0.0
40
0.600000
50
0.000000
51
118.955024
0
ARC
8
0
10
3393.146273
20
1233.226117
30
0.0
40
0.600000
50
241.044976
51
0.000000
0
LINE
8
0
10
3392.855799
20
1232.701117
30
0.0
11
3392.696273
21
1232.701117
31
0.0
0
ARC
8
0
10
3392.696273
20
1232.501117
30
0.0
40
0.200000
50
90.000000
51
180.000000
0
LINE
8
0
10
3392.496273
20
1232.501117
30
0.0
11
3392.496273
21
1232.126117
31
0.0
0
LINE
8
0
10
3392.496273
20
1232.126117
30
0.0
11
3392.396273
21
1232.126117
31
0.0
0
LINE
8
0
10
3392.396273
20
1232.126117
30
0.0
11
3392.396273
21
1231.526117
31
0.0
0
ARC
8
0
10
3392.796273
20
1231.526117
30
0.0
40
0.400000
50
180.000000
51
270.000000
0
LINE
8
0
10
3392.796273
20
1231.126117
30
0.0
11
3393.005153
21
1231.126117
31
0.0
0
LINE
8
0
10
3393.005153
20
1231.126117
30
0.0
11
3393.101123
21
1231.150647
31
0.0
0
LINE
8
0
10
3393.101123
20
1231.150647
30
0.0
11
3394.602162
21
1232.018660
31
0.0
0
ARC
8
0
10
3395.002642
20
1231.326117
30
0.0
40
0.800000
50
90.000000
51
120.039706
0
LINE
8
0
10
3395.002642
20
1232.126117
30
0.0
11
3395.735589
21
1232.126117
31
0.0
0
ARC
8
0
10
3395.735589
20
1233.126117
30
0.0
40
1.000000
50
270.000000
51
326.760000
0
LINE
8
0
10
3396.571971
20
1232.577970
30
0.0
11
3398.076914
21
1234.874264
31
0.0
0
ARC
8
0
10
3398.913296
20
1234.326117
30
0.0
40
1.000000
50
90.000000
51
146.760000
0
LINE
8
0
10
3398.913296
20
1235.326117
30
0.0
11
3409.879250
21
1235.326117
31
0.0
0
ARC
8
0
10
3409.879250
20
1234.326117
30
0.0
40
1.000000
50
33.240000
51
90.000000
0
LINE
8
0
10
3410.715632
20
1234.874264
30
0.0
11
3412.220576
21
1232.577970
31
0.0
0
ARC
8
0
10
3413.056957
20
1233.126117
30
0.0
40
1.000000
50
213.240000
51
270.000000
0
LINE
8
0
10
3413.056957
20
1232.126117
30
0.0
11
3413.789904
21
1232.126117
31
0.0
0
ARC
8
0
10
3413.789904
20
1231.326117
30
0.0
40
0.800000
50
59.960294
51
90.000000
0
LINE
8
0
10
3414.190384
20
1232.018660
30
0.0
11
3415.691423
21
1231.150647
31
0.0
0
LINE
8
0
10
3415.691423
20
1231.150647
30
0.0
11
3415.787393
21
1231.126117
31
0.0
0
LINE
8
0
10
3415.787393
20
1231.126117
30
0.0
11
3415.996273
21
1231.126117
31
0.0
0
ARC
8
0
10
3415.996273
20
1231.526117
30
0.0
40
0.400000
50
270.000000
51
0.000000
0
LINE
8
0
10
3416.396273
20
1231.526117
30
0.0
11
3416.396273
21
1232.126117
31
0.0
0
LINE
8
0
10
3416.396273
20
1232.126117
30
0.0
11
3416.296273
21
1232.126117
31
0.0
0
LINE
8
0
10
3416.296273
20
1232.126117
30
0.0
11
3416.296273
21
1232.501117
31
0.0
0
ARC
8
0
10
3416.096273
20
1232.501117
30
0.0
40
0.200000
50
0.000000
51
90.000000
0
LINE
8
0
10
3416.096273
20
1232.701117
30
0.0
11
3415.936747
21
1232.701117
31
0.0
0
ARC
8
0
10
3415.646273
20
1233.226117
30
0.0
40
0.600000
50
180.000000
51
298.955024
0
ARC
8
0
10
3415.646273
20
1233.226117
30
0.0
40
0.600000
50
61.044976
51
180.000000
0
LINE
8
0
10
3415.936747
20
1233.751117
30
0.0
11
3416.096273
21
1233.751117
31
0.0
0
ARC
8
0
10
3416.096273
20
1233.951117
30
0.0
40
0.200000
50
270.000000
51
0.000000
0
LINE
8
0
10
3416.296273
20
1233.951117
30
0.0
11
3416.296273
21
1234.326117
31
0.0
0
LINE
8
0
10
3416.296273
20
1234.326117
30
0.0
11
3416.396273
21
1234.326117
31
0.0
0
LINE
8
0
10
3416.396273
20
1234.326117
30
0.0
11
3416.396273
21
1234.926117
31
0.0
0
ARC
8
0
10
3415.996273
20
1234.926117
30
0.0
40
0.400000
50
0.000000
51
90.000000
0
LINE
8
0
10
3415.996273
20
1235.326117
30
0.0
11
3415.787393
21
1235.326117
31
0.0
0
LINE
8
0
10
3415.787393
20
1235.326117
30
0.0
11
3415.691423
21
1235.301587
31
0.0
0
LINE
8
0
10
3415.691423
20
1235.301587
30
0.0
11
3414.160272
21
1234.416161
31
0.0
0
ARC
8
0
10
3413.824687
20
1234.996482
30
0.0
40
0.670365
50
213.390000
51
300.039706
0
LINE
8
0
10
3413.264970
20
1234.627557
30
0.0
11
3411.634467
21
1237.101284
31
0.0
0
ATTDEF
8
0
10
3392.396705
20
1242.401441
30
0.0
40
3.5
1

3

2
VC_START
70
0
0
ATTDEF
8
0
10
3419.175523
20
1215.401441
30
0.0
40
3.5
1

3

2
VC_END
70
0
0
ATTDEF
8
0
10
3426.796273
20
1215.401441
30
0.0
40
3.5
1

3

2
FP_LCS_ORIG
70
0
0
ATTDEF
8
0
10
3416.796273
20
1215.401441
30
0.0
40
3.5
1

3

2
FP_LCS_HOT
70
0
0
ATTDEF
8
0
10
3426.796273
20
1225.401441
30
0.0
40
3.5
1

3

2
FP_LCS_INTERN
70
0
0
ATTDEF
8
0
10
0.000000
20
0.000000
30
0.0
40
3.5
1

3

2
PANE_WIDTH:0
70
0
0
ATTDEF
8
0
10
0.000000
20
0.000000
30
0.0
40
3.5
1

3

2
MIN_VETRO:0
70
0
0
ATTDEF
8
0
10
0.000000
20
0.000000
30
0.0
40
3.5
1

3

2
MAX_VETRO:0
70
0
0
ATTDEF
8
0
10
0.000000
20
0.000000
30
0.0
40
3.5
1

3

2
JX:0
70
0
0
ATTDEF
8
0
10
0.000000
20
0.000000
30
0.0
40
3.5
1

3

2
WX:0
70
0
0
ATTDEF
8
0
10
0.000000
20
0.000000
30
0.0
40
3.5
1

3

2
JY:0
70
0
0
ATTDEF
8
0
10
0.000000
20
0.000000
30
0.0
40
3.5
1

3

2
WY:0
70
0
0
ATTDEF
8
0
10
0.000000
20
0.000000
30
0.0
40
3.5
1

3

2
DESC:Marco vtana.c/enganche
70
0
0
ATTDEF
8
0
10
0.000000
20
0.000000
30
0.0
40
3.5
1

3

2
DENS:1.2166
70
0
0
ATTDEF
8
0
10
0.000000
20
0.000000
30
0.0
40
3.5
1

3

2
TDEV:46.82
70
0
0
ATTDEF
8
0
10
0.000000
20
0.000000
30
0.0
40
3.5
1

3

2
TDEV2:0
70
0
0
ATTDEF
8
0
10
0.000000
20
0.000000
30
0.0
40
3.5
1

3

2
TDEV3:0
70
0
0
ATTDEF
8
0
10
0.000000
20
0.000000
30
0.0
40
3.5
1

3

2
TDEV4:0
70
0
0
ATTDEF
8
0
10
0.000000
20
0.000000
30
0.0
40
3.5
1

3

2
TDEV5:0
70
0
0
ATTDEF
8
0
10
0.000000
20
0.000000
30
0.0
40
3.5
1

3

2
PANE_WIDTH:0
70
0
0
ATTDEF
8
0
10
0.000000
20
0.000000
30
0.0
40
3.5
1

3

2
MIN_VETRO:0
70
0
0
ATTDEF
8
0
10
0.000000
20
0.000000
30
0.0
40
3.5
1

3

2
MAX_VETRO:0
70
0
0
ATTDEF
8
0
10
0.000000
20
0.000000
30
0.0
40
3.5
1

3

2
JX:0
70
0
0
ATTDEF
8
0
10
0.000000
20
0.000000
30
0.0
40
3.5
1

3

2
WX:0
70
0
0
ATTDEF
8
0
10
0.000000
20
0.000000
30
0.0
40
3.5
1

3

2
JY:0
70
0
0
ATTDEF
8
0
10
0.000000
20
0.000000
30
0.0
40
3.5
1

3

2
WY:0
70
0
0
ENDSEC
0
EOF
