0
SECTION
2
ENTITIES
0
LINE
8
0
10
3260.458033
20
1233.165214
30
0.0
11
3260.928304
21
1233.635485
31
0.0
0
LINE
8
0
10
3261.559588
20
1232.021704
30
0.0
11
3262.421191
21
1232.883307
31
0.0
0
LINE
8
0
10
3261.352768
20
1229.569821
30
0.0
11
3264.289143
21
1232.506196
31
0.0
0
LINE
8
0
10
3263.816863
20
1229.788851
30
0.0
11
3265.258440
21
1231.230429
31
0.0
0
LINE
8
0
10
3264.708768
20
1228.435692
30
0.0
11
3266.147369
21
1229.874294
31
0.0
0
LINE
8
0
10
3265.953624
20
1227.435485
30
0.0
11
3267.953624
21
1229.435485
31
0.0
0
LINE
8
0
10
3268.198688
20
1227.435485
30
0.0
11
3270.198688
21
1229.435485
31
0.0
0
LINE
8
0
10
3270.443752
20
1227.435485
30
0.0
11
3272.443752
21
1229.435485
31
0.0
0
LINE
8
0
10
3272.688816
20
1227.435485
30
0.0
11
3274.688816
21
1229.435485
31
0.0
0
LINE
8
0
10
3274.933881
20
1227.435485
30
0.0
11
3276.933881
21
1229.435485
31
0.0
0
LINE
8
0
10
3277.178945
20
1227.435485
30
0.0
11
3282.807619
21
1233.064159
31
0.0
0
LINE
8
0
10
3279.456773
20
1227.468249
30
0.0
11
3279.787853
21
1227.799329
31
0.0
0
LINE
8
0
10
3284.049009
20
1232.060485
30
0.0
11
3284.358033
21
1232.369509
31
0.0
0
LINE
8
0
10
3282.292953
20
1230.304429
30
0.0
11
3283.201854
21
1231.213331
31
0.0
0
LINE
8
0
10
3283.715433
20
1229.481845
30
0.0
11
3284.458033
21
1230.224445
31
0.0
0
LINE
8
0
10
3260.583337
20
1229.544724
30
0.0
11
3260.567271
21
1229.560789
31
0.0
0
LINE
8
0
10
3262.271832
20
1230.101292
30
0.0
11
3261.404546
21
1230.968579
31
0.0
0
LINE
8
0
10
3267.182704
20
1227.435485
30
0.0
11
3260.982704
21
1233.635485
31
0.0
0
LINE
8
0
10
3269.427768
20
1227.435485
30
0.0
11
3267.427768
21
1229.435485
31
0.0
0
LINE
8
0
10
3271.672832
20
1227.435485
30
0.0
11
3269.672832
21
1229.435485
31
0.0
0
LINE
8
0
10
3273.917896
20
1227.435485
30
0.0
11
3271.917896
21
1229.435485
31
0.0
0
LINE
8
0
10
3276.162960
20
1227.435485
30
0.0
11
3274.162960
21
1229.435485
31
0.0
0
LINE
8
0
10
3278.408024
20
1227.435485
30
0.0
11
3276.408024
21
1229.435485
31
0.0
0
LINE
8
0
10
3279.987042
20
1228.101531
30
0.0
11
3278.489346
21
1229.599227
31
0.0
0
LINE
8
0
10
3280.878947
20
1229.454689
30
0.0
11
3279.438127
21
1230.895510
31
0.0
0
LINE
8
0
10
3282.248656
20
1230.330044
30
0.0
11
3280.329326
21
1232.249375
31
0.0
0
LINE
8
0
10
3284.458033
20
1230.365732
30
0.0
11
3284.388280
21
1230.435485
31
0.0
0
LINE
8
0
10
3283.129440
20
1231.694325
30
0.0
11
3282.136033
21
1232.687732
31
0.0
0
LINE
8
0
10
3284.358033
20
1230.465732
30
0.0
11
3283.866873
21
1230.956892
31
0.0
0
LINE
8
0
10
3284.433344
20
1232.635485
30
0.0
11
3283.566074
21
1233.502755
31
0.0
0
LINE
8
0
10
3281.851664
20
1232.635485
30
0.0
11
3281.118717
21
1232.635485
31
0.0
0
ARC
8
0
10
3281.118717
20
1231.635485
30
0.0
40
1.000000
50
90.000000
51
146.760000
0
LINE
8
0
10
3280.282335
20
1232.183632
30
0.0
11
3278.777392
21
1229.887338
31
0.0
0
ARC
8
0
10
3277.941010
20
1230.435485
30
0.0
40
1.000000
50
270.000000
51
326.760000
0
LINE
8
0
10
3277.941010
20
1229.435485
30
0.0
11
3272.458033
21
1229.435485
31
0.0
0
LINE
8
0
10
3272.458033
20
1229.435485
30
0.0
11
3267.125617
21
1229.435485
31
0.0
0
LINE
8
0
10
3267.125617
20
1229.435485
30
0.0
11
3266.975056
21
1229.435485
31
0.0
0
ARC
8
0
10
3266.975056
20
1230.435485
30
0.0
40
1.000000
50
213.240000
51
270.000000
0
LINE
8
0
10
3266.138674
20
1229.887338
30
0.0
11
3264.633730
21
1232.183632
31
0.0
0
ARC
8
0
10
3263.797349
20
1231.635485
30
0.0
40
1.000000
50
33.240000
51
90.000000
0
LINE
8
0
10
3263.797349
20
1232.635485
30
0.0
11
3263.064402
21
1232.635485
31
0.0
0
ARC
8
0
10
3263.064402
20
1233.435485
30
0.0
40
0.800000
50
239.960294
51
270.000000
0
LINE
8
0
10
3262.663922
20
1232.742942
30
0.0
11
3261.162883
21
1233.610955
31
0.0
0
LINE
8
0
10
3261.162883
20
1233.610955
30
0.0
11
3261.066913
21
1233.635485
31
0.0
0
LINE
8
0
10
3261.066913
20
1233.635485
30
0.0
11
3260.858033
21
1233.635485
31
0.0
0
ARC
8
0
10
3260.858033
20
1233.235485
30
0.0
40
0.400000
50
90.000000
51
180.000000
0
LINE
8
0
10
3260.458033
20
1233.235485
30
0.0
11
3260.458033
21
1232.635485
31
0.0
0
LINE
8
0
10
3260.458033
20
1232.635485
30
0.0
11
3260.558033
21
1232.635485
31
0.0
0
LINE
8
0
10
3260.558033
20
1232.635485
30
0.0
11
3260.558033
21
1232.260485
31
0.0
0
ARC
8
0
10
3260.758033
20
1232.260485
30
0.0
40
0.200000
50
180.000000
51
270.000000
0
LINE
8
0
10
3260.758033
20
1232.060485
30
0.0
11
3260.917559
21
1232.060485
31
0.0
0
ARC
8
0
10
3261.208033
20
1231.535485
30
0.0
40
0.600000
50
0.000000
51
118.955024
0
ARC
8
0
10
3261.208033
20
1231.535485
30
0.0
40
0.600000
50
241.044976
51
0.000000
0
LINE
8
0
10
3260.917559
20
1231.010485
30
0.0
11
3260.758033
21
1231.010485
31
0.0
0
ARC
8
0
10
3260.758033
20
1230.810485
30
0.0
40
0.200000
50
90.000000
51
180.000000
0
LINE
8
0
10
3260.558033
20
1230.810485
30
0.0
11
3260.558033
21
1230.435485
31
0.0
0
LINE
8
0
10
3260.558033
20
1230.435485
30
0.0
11
3260.458033
21
1230.435485
31
0.0
0
LINE
8
0
10
3260.458033
20
1230.435485
30
0.0
11
3260.458033
21
1229.835485
31
0.0
0
ARC
8
0
10
3260.858033
20
1229.835485
30
0.0
40
0.400000
50
180.000000
51
270.000000
0
LINE
8
0
10
3260.858033
20
1229.435485
30
0.0
11
3261.066913
21
1229.435485
31
0.0
0
LINE
8
0
10
3261.066913
20
1229.435485
30
0.0
11
3261.162883
21
1229.460015
31
0.0
0
LINE
8
0
10
3261.162883
20
1229.460015
30
0.0
11
3262.694034
21
1230.345441
31
0.0
0
ARC
8
0
10
3263.029619
20
1229.765120
30
0.0
40
0.670365
50
33.390000
51
120.039706
0
LINE
8
0
10
3263.589336
20
1230.134045
30
0.0
11
3265.219839
21
1227.660317
31
0.0
0
ARC
8
0
10
3265.637311
20
1227.935485
30
0.0
40
0.500000
50
213.390000
51
270.000000
0
LINE
8
0
10
3265.637311
20
1227.435485
30
0.0
11
3272.458033
21
1227.435485
31
0.0
0
LINE
8
0
10
3272.458033
20
1227.435485
30
0.0
11
3279.278754
21
1227.435485
31
0.0
0
ARC
8
0
10
3279.278754
20
1227.935485
30
0.0
40
0.500000
50
270.000000
51
326.610000
0
LINE
8
0
10
3279.696226
20
1227.660317
30
0.0
11
3281.326730
21
1230.134045
31
0.0
0
ARC
8
0
10
3281.886447
20
1229.765120
30
0.0
40
0.670365
50
59.960294
51
146.610000
0
LINE
8
0
10
3282.222032
20
1230.345441
30
0.0
11
3283.753183
21
1229.460015
31
0.0
0
LINE
8
0
10
3283.753183
20
1229.460015
30
0.0
11
3283.849153
21
1229.435485
31
0.0
0
LINE
8
0
10
3283.849153
20
1229.435485
30
0.0
11
3284.058033
21
1229.435485
31
0.0
0
ARC
8
0
10
3284.058033
20
1229.835485
30
0.0
40
0.400000
50
270.000000
51
0.000000
0
LINE
8
0
10
3284.458033
20
1229.835485
30
0.0
11
3284.458033
21
1230.435485
31
0.0
0
LINE
8
0
10
3284.458033
20
1230.435485
30
0.0
11
3284.358033
21
1230.435485
31
0.0
0
LINE
8
0
10
3284.358033
20
1230.435485
30
0.0
11
3284.358033
21
1230.810485
31
0.0
0
ARC
8
0
10
3284.158033
20
1230.810485
30
0.0
40
0.200000
50
0.000000
51
90.000000
0
LINE
8
0
10
3284.158033
20
1231.010485
30
0.0
11
3283.998507
21
1231.010485
31
0.0
0
ARC
8
0
10
3283.708033
20
1231.535485
30
0.0
40
0.600000
50
180.000000
51
298.955024
0
ARC
8
0
10
3283.708033
20
1231.535485
30
0.0
40
0.600000
50
61.044976
51
180.000000
0
LINE
8
0
10
3283.998507
20
1232.060485
30
0.0
11
3284.158033
21
1232.060485
31
0.0
0
ARC
8
0
10
3284.158033
20
1232.260485
30
0.0
40
0.200000
50
270.000000
51
0.000000
0
LINE
8
0
10
3284.358033
20
1232.260485
30
0.0
11
3284.358033
21
1232.635485
31
0.0
0
LINE
8
0
10
3284.358033
20
1232.635485
30
0.0
11
3284.458033
21
1232.635485
31
0.0
0
LINE
8
0
10
3284.458033
20
1232.635485
30
0.0
11
3284.458033
21
1233.235485
31
0.0
0
ARC
8
0
10
3284.058033
20
1233.235485
30
0.0
40
0.400000
50
0.000000
51
90.000000
0
LINE
8
0
10
3284.058033
20
1233.635485
30
0.0
11
3283.849153
21
1233.635485
31
0.0
0
LINE
8
0
10
3283.849153
20
1233.635485
30
0.0
11
3283.753183
21
1233.610955
31
0.0
0
LINE
8
0
10
3283.753183
20
1233.610955
30
0.0
11
3282.252144
21
1232.742942
31
0.0
0
ARC
8
0
10
3281.851664
20
1233.435485
30
0.0
40
0.800000
50
270.000000
51
300.039706
0
LINE
8
0
10
3258.958033
20
1242.835485
30
0.0
11
3258.958033
21
1228.835485
31
0.0
0
LINE
8
0
10
3258.958033
20
1228.835485
30
0.0
11
3233.358033
21
1228.835485
31
0.0
0
LINE
8
0
10
3233.358033
20
1228.835485
30
0.0
11
3233.358033
21
1242.835485
31
0.0
0
LINE
8
0
10
3233.358033
20
1242.835485
30
0.0
11
3258.958033
21
1242.835485
31
0.0
0
LINE
8
0
10
3264.688679
20
1244.157135
30
0.0
11
3263.635884
21
1244.186979
31
0.0
0
LINE
8
0
10
3263.635884
20
1244.186979
30
0.0
11
3263.573024
21
1243.981374
31
0.0
0
LINE
8
0
10
3263.573024
20
1243.981374
30
0.0
11
3263.187957
21
1243.516236
31
0.0
0
ARC
8
0
10
3262.349843
20
1244.062437
30
0.0
40
1.000000
50
236.490937
51
326.907609
0
LINE
8
0
10
3261.798096
20
1243.229124
30
0.0
11
3260.656907
21
1244.091990
31
0.0
0
ARC
8
0
10
3260.958464
20
1244.490817
30
0.0
40
0.500000
50
180.000000
51
232.906671
0
LINE
8
0
10
3260.458464
20
1244.490817
30
0.0
11
3260.458464
21
1249.335485
31
0.0
0
LINE
8
0
10
3260.458464
20
1249.335485
30
0.0
11
3258.508464
21
1249.335485
31
0.0
0
LINE
8
0
10
3258.508464
20
1249.335485
30
0.0
11
3257.508464
21
1248.335485
31
0.0
0
LINE
8
0
10
3257.508464
20
1248.335485
30
0.0
11
3257.508464
21
1247.335485
31
0.0
0
LINE
8
0
10
3257.508464
20
1247.335485
30
0.0
11
3258.958464
21
1247.335485
31
0.0
0
LINE
8
0
10
3258.958464
20
1247.335485
30
0.0
11
3258.958464
21
1244.335485
31
0.0
0
LINE
8
0
10
3258.958464
20
1244.335485
30
0.0
11
3252.858464
21
1244.335485
31
0.0
0
LINE
8
0
10
3252.858464
20
1244.335485
30
0.0
11
3252.858464
21
1247.335485
31
0.0
0
LINE
8
0
10
3252.858464
20
1247.335485
30
0.0
11
3254.308464
21
1247.335485
31
0.0
0
LINE
8
0
10
3254.308464
20
1247.335485
30
0.0
11
3254.308464
21
1248.335485
31
0.0
0
LINE
8
0
10
3254.308464
20
1248.335485
30
0.0
11
3253.308464
21
1249.335485
31
0.0
0
LINE
8
0
10
3253.308464
20
1249.335485
30
0.0
11
3250.358464
21
1249.335485
31
0.0
0
LINE
8
0
10
3250.358464
20
1249.335485
30
0.0
11
3249.358464
21
1248.335485
31
0.0
0
LINE
8
0
10
3249.358464
20
1248.335485
30
0.0
11
3249.358464
21
1247.335485
31
0.0
0
LINE
8
0
10
3249.358464
20
1247.335485
30
0.0
11
3251.358464
21
1247.335485
31
0.0
0
LINE
8
0
10
3251.358464
20
1247.335485
30
0.0
11
3251.358464
21
1244.335485
31
0.0
0
LINE
8
0
10
3251.358464
20
1244.335485
30
0.0
11
3233.358464
21
1244.335485
31
0.0
0
LINE
8
0
10
3233.358464
20
1244.335485
30
0.0
11
3233.358464
21
1247.335485
31
0.0
0
LINE
8
0
10
3233.358464
20
1247.335485
30
0.0
11
3235.358464
21
1247.335485
31
0.0
0
LINE
8
0
10
3235.358464
20
1247.335485
30
0.0
11
3235.358464
21
1248.335485
31
0.0
0
LINE
8
0
10
3235.358464
20
1248.335485
30
0.0
11
3234.358464
21
1249.335485
31
0.0
0
LINE
8
0
10
3234.358464
20
1249.335485
30
0.0
11
3231.858464
21
1249.335485
31
0.0
0
LINE
8
0
10
3231.858464
20
1249.335485
30
0.0
11
3231.858464
21
1199.835485
31
0.0
0
ARC
8
0
10
3234.358464
20
1199.835485
30
0.0
40
2.500000
50
180.000000
51
270.000000
0
LINE
8
0
10
3234.358464
20
1197.335485
30
0.0
11
3234.858464
21
1197.335485
31
0.0
0
ARC
8
0
10
3234.858464
20
1197.835485
30
0.0
40
0.500000
50
270.000000
51
0.000000
0
LINE
8
0
10
3235.358464
20
1197.835485
30
0.0
11
3235.358464
21
1200.085485
31
0.0
0
ARC
8
0
10
3234.858464
20
1200.085485
30
0.0
40
0.500000
50
0.000000
51
180.000000
0
LINE
8
0
10
3234.358464
20
1200.085485
30
0.0
11
3234.358464
21
1198.835485
31
0.0
0
LINE
8
0
10
3234.358464
20
1198.835485
30
0.0
11
3233.158464
21
1198.835485
31
0.0
0
LINE
8
0
10
3233.158464
20
1198.835485
30
0.0
11
3233.158464
21
1206.335485
31
0.0
0
LINE
8
0
10
3233.158464
20
1206.335485
30
0.0
11
3234.358464
21
1206.335485
31
0.0
0
LINE
8
0
10
3234.358464
20
1206.335485
30
0.0
11
3234.358464
21
1205.085485
31
0.0
0
ARC
8
0
10
3234.858464
20
1205.085485
30
0.0
40
0.500000
50
180.000000
51
0.000000
0
LINE
8
0
10
3235.358464
20
1205.085485
30
0.0
11
3235.358464
21
1207.335485
31
0.0
0
ARC
8
0
10
3234.858464
20
1207.335485
30
0.0
40
0.500000
50
0.000000
51
90.000000
0
LINE
8
0
10
3234.858464
20
1207.835485
30
0.0
11
3233.358464
21
1207.835485
31
0.0
0
LINE
8
0
10
3233.358464
20
1207.835485
30
0.0
11
3233.358464
21
1222.335485
31
0.0
0
LINE
8
0
10
3233.358464
20
1222.335485
30
0.0
11
3237.858464
21
1222.335485
31
0.0
0
ARC
8
0
10
3237.858464
20
1222.835485
30
0.0
40
0.500000
50
270.000000
51
0.000000
0
LINE
8
0
10
3238.358464
20
1222.835485
30
0.0
11
3238.358464
21
1223.335485
31
0.0
0
ARC
8
0
10
3237.858464
20
1223.335485
30
0.0
40
0.500000
50
0.000000
51
90.000000
0
LINE
8
0
10
3237.858464
20
1223.835485
30
0.0
11
3233.358464
21
1223.835485
31
0.0
0
LINE
8
0
10
3233.358464
20
1223.835485
30
0.0
11
3233.358464
21
1227.335485
31
0.0
0
LINE
8
0
10
3233.358464
20
1227.335485
30
0.0
11
3260.334870
21
1227.335485
31
0.0
0
LINE
8
0
10
3260.334870
20
1227.335485
30
0.0
11
3261.798096
21
1228.441846
31
0.0
0
ARC
8
0
10
3262.349843
20
1227.608533
30
0.0
40
1.000000
50
33.092391
51
123.509063
0
LINE
8
0
10
3263.187957
20
1228.154734
30
0.0
11
3263.573024
21
1227.689596
31
0.0
0
LINE
8
0
10
3263.573024
20
1227.689596
30
0.0
11
3263.635884
21
1227.483991
31
0.0
0
LINE
8
0
10
3263.635884
20
1227.483991
30
0.0
11
3264.688679
21
1227.513835
31
0.0
0
ARC
8
0
10
3264.685294
20
1227.813859
30
0.0
40
0.300000
50
272.605413
51
18.251415
0
LINE
8
0
10
3264.970202
20
1227.907815
30
0.0
11
3262.869190
21
1230.621693
31
0.0
0
ARC
8
0
10
3262.710528
20
1230.510695
30
0.0
40
0.200000
50
36.039809
51
217.071526
0
LINE
8
0
10
3262.550951
20
1230.390133
30
0.0
11
3261.006309
21
1229.223135
31
0.0
0
ARC
8
0
10
3260.741168
20
1229.085484
30
0.0
40
0.300000
50
287.000000
51
24.059472
0
LINE
8
0
10
3260.832636
20
1228.786305
30
0.0
11
3260.545744
21
1228.698593
31
0.0
0
ARC
8
0
10
3260.458033
20
1228.985485
30
0.0
40
0.300000
50
90.000000
51
287.000000
0
LINE
8
0
10
3260.458033
20
1229.285485
30
0.0
11
3260.458033
21
1233.785485
31
0.0
0
ARC
8
0
10
3260.658033
20
1233.775383
30
0.0
40
0.200000
50
58.132675
51
177.108405
0
LINE
8
0
10
3260.763689
20
1233.945343
30
0.0
11
3262.558033
21
1232.915762
31
0.0
0
ARC
8
0
10
3262.758033
20
1232.916027
30
0.0
40
0.200000
50
180.000000
51
351.317436
0
LINE
8
0
10
3262.958033
20
1232.885485
30
0.0
11
3262.958033
21
1234.299807
31
0.0
0
ARC
8
0
10
3262.758033
20
1234.299807
30
0.0
40
0.200000
50
0.000000
51
61.694535
0
LINE
8
0
10
3262.852649
20
1234.476102
30
0.0
11
3261.550892
21
1235.223041
31
0.0
0
ARC
8
0
10
3261.890046
20
1235.835485
30
0.0
40
0.700000
50
118.976366
51
241.023634
0
LINE
8
0
10
3261.550892
20
1236.447929
30
0.0
11
3262.852649
21
1237.194868
31
0.0
0
ARC
8
0
10
3262.758033
20
1237.371163
30
0.0
40
0.200000
50
298.305465
51
0.000000
0
LINE
8
0
10
3262.958033
20
1237.371163
30
0.0
11
3262.958033
21
1238.785485
31
0.0
0
ARC
8
0
10
3262.758033
20
1238.754943
30
0.0
40
0.200000
50
8.682564
51
180.000000
0
LINE
8
0
10
3262.558033
20
1238.755208
30
0.0
11
3260.763689
21
1237.725627
31
0.0
0
ARC
8
0
10
3260.658033
20
1237.895587
30
0.0
40
0.200000
50
182.891595
51
301.867325
0
LINE
8
0
10
3260.458033
20
1237.885485
30
0.0
11
3260.458033
21
1242.385485
31
0.0
0
ARC
8
0
10
3260.458033
20
1242.685485
30
0.0
40
0.300000
50
73.000000
51
270.000000
0
LINE
8
0
10
3260.545744
20
1242.972376
30
0.0
11
3260.832636
21
1242.884665
31
0.0
0
ARC
8
0
10
3260.741168
20
1242.585486
30
0.0
40
0.300000
50
335.940528
51
73.000000
0
LINE
8
0
10
3261.006309
20
1242.447835
30
0.0
11
3262.550951
21
1241.280837
31
0.0
0
ARC
8
0
10
3262.710528
20
1241.160275
30
0.0
40
0.200000
50
142.928474
51
323.960191
0
LINE
8
0
10
3262.869190
20
1241.049276
30
0.0
11
3264.970202
21
1243.763155
31
0.0
0
ARC
8
0
10
3264.685294
20
1243.857111
30
0.0
40
0.300000
50
341.748585
51
87.394587
0
ARC
8
0
10
3288.358033
20
1235.858562
30
0.0
40
5.000000
50
0.000000
51
80.000000
0
LINE
8
0
10
3293.358033
20
1235.858562
30
0.0
11
3293.358033
21
1227.679122
31
0.0
0
ARC
8
0
10
3293.058033
20
1227.679122
30
0.0
40
0.300000
50
270.000000
51
0.000000
0
LINE
8
0
10
3293.058033
20
1227.379122
30
0.0
11
3286.558033
21
1227.379122
31
0.0
0
ARC
8
0
10
3286.558033
20
1227.679122
30
0.0
40
0.300000
50
180.000000
51
270.000000
0
LINE
8
0
10
3286.258033
20
1227.679122
30
0.0
11
3286.258033
21
1240.948456
31
0.0
0
ARC
8
0
10
3286.558033
20
1240.948456
30
0.0
40
0.300000
50
80.000000
51
180.000000
0
LINE
8
0
10
3286.610127
20
1241.243898
30
0.0
11
3289.226274
21
1240.782601
31
0.0
0
ARC
8
0
10
3286.558033
20
1243.080852
30
0.0
40
0.300000
50
180.000000
51
260.000000
0
LINE
8
0
10
3286.258033
20
1243.080852
30
0.0
11
3286.258033
21
1268.829122
31
0.0
0
ARC
8
0
10
3285.758033
20
1268.829122
30
0.0
40
0.500000
50
0.000000
51
90.000000
0
LINE
8
0
10
3285.758033
20
1269.329122
30
0.0
11
3283.258033
21
1269.329122
31
0.0
0
ARC
8
0
10
3283.258033
20
1268.829122
30
0.0
40
0.500000
50
90.000000
51
180.000000
0
LINE
8
0
10
3282.758033
20
1268.829122
30
0.0
11
3282.758033
21
1266.579122
31
0.0
0
ARC
8
0
10
3283.258033
20
1266.579122
30
0.0
40
0.500000
50
180.000000
51
0.000000
0
LINE
8
0
10
3283.758033
20
1266.579122
30
0.0
11
3283.758033
21
1267.829122
31
0.0
0
LINE
8
0
10
3283.758033
20
1267.829122
30
0.0
11
3284.958033
21
1267.829122
31
0.0
0
LINE
8
0
10
3284.958033
20
1267.829122
30
0.0
11
3284.958033
21
1260.329122
31
0.0
0
LINE
8
0
10
3284.958033
20
1260.329122
30
0.0
11
3283.758033
21
1260.329122
31
0.0
0
LINE
8
0
10
3283.758033
20
1260.329122
30
0.0
11
3283.758033
21
1261.579122
31
0.0
0
ARC
8
0
10
3283.258033
20
1261.579122
30
0.0
40
0.500000
50
0.000000
51
180.000000
0
LINE
8
0
10
3282.758033
20
1261.579122
30
0.0
11
3282.758033
21
1259.329122
31
0.0
0
ARC
8
0
10
3283.258033
20
1259.329122
30
0.0
40
0.500000
50
180.000000
51
270.000000
0
LINE
8
0
10
3283.258033
20
1258.829122
30
0.0
11
3284.758033
21
1258.829122
31
0.0
0
LINE
8
0
10
3284.758033
20
1258.829122
30
0.0
11
3284.758033
21
1247.329122
31
0.0
0
LINE
8
0
10
3284.758033
20
1247.329122
30
0.0
11
3284.469926
21
1244.452195
31
0.0
0
ARC
8
0
10
3283.972415
20
1244.502017
30
0.0
40
0.500000
50
307.093329
51
354.281248
0
LINE
8
0
10
3284.273972
20
1244.103190
30
0.0
11
3283.117970
21
1243.229124
31
0.0
0
ARC
8
0
10
3282.566223
20
1244.062437
30
0.0
40
1.000000
50
213.288198
51
303.509063
0
LINE
8
0
10
3281.730302
20
1243.513586
30
0.0
11
3281.343041
21
1243.981374
31
0.0
0
LINE
8
0
10
3281.343041
20
1243.981374
30
0.0
11
3281.280181
21
1244.186979
31
0.0
0
LINE
8
0
10
3281.280181
20
1244.186979
30
0.0
11
3280.227386
21
1244.157135
31
0.0
0
ARC
8
0
10
3280.230771
20
1243.857111
30
0.0
40
0.300000
50
92.605413
51
198.251415
0
LINE
8
0
10
3279.945864
20
1243.763155
30
0.0
11
3282.046876
21
1241.049276
31
0.0
0
ARC
8
0
10
3282.205538
20
1241.160275
30
0.0
40
0.200000
50
216.039809
51
37.071526
0
LINE
8
0
10
3282.365115
20
1241.280837
30
0.0
11
3283.910832
21
1242.448647
31
0.0
0
ARC
8
0
10
3284.171141
20
1242.597773
30
0.0
40
0.300000
50
107.000000
51
209.807633
0
LINE
8
0
10
3284.083430
20
1242.884665
30
0.0
11
3284.370321
21
1242.972376
31
0.0
0
ARC
8
0
10
3284.458033
20
1242.685485
30
0.0
40
0.300000
50
270.000000
51
107.000000
0
LINE
8
0
10
3284.458033
20
1242.385485
30
0.0
11
3284.458033
21
1237.885485
31
0.0
0
ARC
8
0
10
3284.258033
20
1237.895587
30
0.0
40
0.200000
50
240.153120
51
357.108405
0
LINE
8
0
10
3284.158496
20
1237.722115
30
0.0
11
3282.358033
21
1238.755208
31
0.0
0
ARC
8
0
10
3282.158033
20
1238.754943
30
0.0
40
0.200000
50
0.000000
51
180.000000
0
LINE
8
0
10
3281.958033
20
1238.754943
30
0.0
11
3281.958033
21
1237.371163
31
0.0
0
ARC
8
0
10
3282.158033
20
1237.371163
30
0.0
40
0.200000
50
180.000000
51
241.694535
0
LINE
8
0
10
3282.063417
20
1237.194868
30
0.0
11
3283.374399
21
1236.442636
31
0.0
0
ARC
8
0
10
3283.026020
20
1235.835485
30
0.0
40
0.700000
50
299.846880
51
60.153120
0
LINE
8
0
10
3283.374399
20
1235.228334
30
0.0
11
3282.063417
21
1234.476102
31
0.0
0
ARC
8
0
10
3282.158033
20
1234.299807
30
0.0
40
0.200000
50
118.305465
51
180.000000
0
LINE
8
0
10
3281.958033
20
1234.299807
30
0.0
11
3281.958033
21
1232.916027
31
0.0
0
ARC
8
0
10
3282.158033
20
1232.916027
30
0.0
40
0.200000
50
180.000000
51
0.000000
0
LINE
8
0
10
3282.358033
20
1232.915762
30
0.0
11
3284.158496
21
1233.948854
31
0.0
0
ARC
8
0
10
3284.258033
20
1233.775383
30
0.0
40
0.200000
50
2.891595
51
119.846880
0
LINE
8
0
10
3284.458033
20
1233.785485
30
0.0
11
3284.458033
21
1229.285485
31
0.0
0
ARC
8
0
10
3284.458033
20
1228.985485
30
0.0
40
0.300000
50
253.000000
51
90.000000
0
LINE
8
0
10
3284.370321
20
1228.698593
30
0.0
11
3284.083430
21
1228.786305
31
0.0
0
ARC
8
0
10
3284.171141
20
1229.073196
30
0.0
40
0.300000
50
150.192367
51
253.000000
0
LINE
8
0
10
3283.910832
20
1229.222323
30
0.0
11
3282.370303
21
1230.386213
31
0.0
0
ARC
8
0
10
3282.210680
20
1230.506714
30
0.0
40
0.200000
50
322.950408
51
140.547648
0
LINE
8
0
10
3282.056250
20
1230.633801
30
0.0
11
3279.945864
21
1227.907815
31
0.0
0
ARC
8
0
10
3280.230771
20
1227.813859
30
0.0
40
0.300000
50
161.748585
51
267.394587
0
LINE
8
0
10
3280.227386
20
1227.513835
30
0.0
11
3281.280181
21
1227.483991
31
0.0
0
LINE
8
0
10
3281.280181
20
1227.483991
30
0.0
11
3281.343041
21
1227.689596
31
0.0
0
LINE
8
0
10
3281.343041
20
1227.689596
30
0.0
11
3281.730302
21
1228.157384
31
0.0
0
ARC
8
0
10
3282.566223
20
1227.608533
30
0.0
40
1.000000
50
56.490937
51
146.711802
0
LINE
8
0
10
3283.117970
20
1228.441846
30
0.0
11
3284.259590
21
1227.578654
31
0.0
0
ARC
8
0
10
3283.958033
20
1227.179827
30
0.0
40
0.500000
50
0.000000
51
52.906671
0
LINE
8
0
10
3284.458033
20
1227.179827
30
0.0
11
3284.458033
21
1225.686539
31
0.0
0
ARC
8
0
10
3284.958033
20
1225.686539
30
0.0
40
0.500000
50
180.000000
51
224.900528
0
ARC
8
0
10
3284.108033
20
1224.839485
30
0.0
40
0.700000
50
300.000000
51
44.900528
0
LINE
8
0
10
3284.458033
20
1224.233267
30
0.0
11
3283.758033
21
1223.829122
31
0.0
0
LINE
8
0
10
3283.758033
20
1223.829122
30
0.0
11
3284.624058
21
1222.329122
31
0.0
0
LINE
8
0
10
3284.624058
20
1222.329122
30
0.0
11
3289.850507
21
1222.329122
31
0.0
0
LINE
8
0
10
3289.850507
20
1222.329122
30
0.0
11
3290.208033
21
1222.629122
31
0.0
0
LINE
8
0
10
3290.208033
20
1222.629122
30
0.0
11
3290.565559
21
1222.329122
31
0.0
0
LINE
8
0
10
3290.565559
20
1222.329122
30
0.0
11
3292.858033
21
1222.329122
31
0.0
0
ARC
8
0
10
3292.858033
20
1222.629122
30
0.0
40
0.300000
50
270.000000
51
0.000000
0
LINE
8
0
10
3293.158033
20
1222.629122
30
0.0
11
3293.158033
21
1223.333831
31
0.0
0
ARC
8
0
10
3292.858033
20
1223.333831
30
0.0
40
0.300000
50
0.000000
51
69.730110
0
LINE
8
0
10
3292.961966
20
1223.615253
30
0.0
11
3292.027014
21
1223.960543
31
0.0
0
ARC
8
0
10
3291.923081
20
1223.679122
30
0.0
40
0.300000
50
69.730110
51
151.486532
0
LINE
8
0
10
3291.659469
20
1223.822332
30
0.0
11
3291.554506
21
1223.629122
31
0.0
0
LINE
8
0
10
3291.554506
20
1223.629122
30
0.0
11
3288.972691
21
1223.629122
31
0.0
0
LINE
8
0
10
3288.972691
20
1223.629122
30
0.0
11
3288.898983
21
1223.806039
31
0.0
0
ARC
8
0
10
3288.714365
20
1223.729122
30
0.0
40
0.200000
50
22.617875
51
154.161696
0
ARC
8
0
10
3288.264352
20
1223.947038
30
0.0
40
0.300000
50
265.000000
51
334.161696
0
LINE
8
0
10
3288.238205
20
1223.648180
30
0.0
11
3286.714455
21
1223.781491
31
0.0
0
ARC
8
0
10
3286.758033
20
1224.279588
30
0.0
40
0.500000
50
180.000000
51
265.000000
0
LINE
8
0
10
3286.258033
20
1224.279588
30
0.0
11
3286.258033
21
1225.379122
31
0.0
0
ARC
8
0
10
3286.758033
20
1225.379122
30
0.0
40
0.500000
50
90.000000
51
180.000000
0
LINE
8
0
10
3286.758033
20
1225.879122
30
0.0
11
3294.558033
21
1225.879122
31
0.0
0
ARC
8
0
10
3294.558033
20
1226.179122
30
0.0
40
0.300000
50
270.000000
51
0.000000
0
LINE
8
0
10
3294.858033
20
1226.179122
30
0.0
11
3294.858033
21
1235.858562
31
0.0
0
ARC
8
0
10
3288.358033
20
1235.858562
30
0.0
40
6.500000
50
0.000000
51
80.000000
0
LINE
8
0
10
3289.486746
20
1242.259813
30
0.0
11
3286.505938
21
1242.785410
31
0.0
0
LINE
8
0
10
3260.458033
20
1241.314205
30
0.0
11
3261.165455
21
1242.021627
31
0.0
0
LINE
8
0
10
3267.208033
20
1248.064205
30
0.0
11
3268.191472
21
1249.047644
31
0.0
0
LINE
8
0
10
3260.558033
20
1239.169141
30
0.0
11
3260.811536
21
1239.422644
31
0.0
0
LINE
8
0
10
3268.936536
20
1247.547644
30
0.0
11
3270.208033
21
1248.819141
31
0.0
0
LINE
8
0
10
3261.691655
20
1240.302763
30
0.0
11
3262.587935
21
1241.199043
31
0.0
0
LINE
8
0
10
3267.208033
20
1245.819141
30
0.0
11
3268.708033
21
1247.319141
31
0.0
0
LINE
8
0
10
3265.239717
20
1243.850825
30
0.0
11
3265.334131
21
1243.945239
31
0.0
0
LINE
8
0
10
3261.976795
20
1238.342839
30
0.0
11
3268.708033
21
1245.074077
31
0.0
0
LINE
8
0
10
3267.926664
20
1242.047644
30
0.0
11
3269.926664
21
1244.047644
31
0.0
0
LINE
8
0
10
3274.708033
20
1248.829013
30
0.0
11
3274.926664
21
1249.047644
31
0.0
0
LINE
8
0
10
3270.171728
20
1242.047644
30
0.0
11
3272.171728
21
1244.047644
31
0.0
0
LINE
8
0
10
3275.671728
20
1247.547644
30
0.0
11
3277.171728
21
1249.047644
31
0.0
0
LINE
8
0
10
3272.416792
20
1242.047644
30
0.0
11
3274.416792
21
1244.047644
31
0.0
0
LINE
8
0
10
3276.208033
20
1245.838885
30
0.0
11
3277.708033
21
1247.338885
31
0.0
0
LINE
8
0
10
3274.661856
20
1242.047644
30
0.0
11
3277.708033
21
1245.093821
31
0.0
0
LINE
8
0
10
3276.906920
20
1242.047644
30
0.0
11
3278.906920
21
1244.047644
31
0.0
0
LINE
8
0
10
3278.745691
20
1241.641351
30
0.0
11
3280.185241
21
1243.080900
31
0.0
0
LINE
8
0
10
3279.635644
20
1240.286240
30
0.0
11
3281.077146
21
1241.727741
31
0.0
0
LINE
8
0
10
3280.592044
20
1238.997576
30
0.0
11
3283.431646
21
1241.837177
31
0.0
0
LINE
8
0
10
3282.459697
20
1238.620164
30
0.0
11
3283.325190
21
1239.485658
31
0.0
0
LINE
8
0
10
3283.932240
20
1237.847644
30
0.0
11
3284.458033
21
1238.373436
31
0.0
0
LINE
8
0
10
3261.366889
20
1237.990146
30
0.0
11
3260.509391
21
1238.847644
31
0.0
0
LINE
8
0
10
3262.799564
20
1238.802535
30
0.0
11
3261.792044
21
1239.810055
31
0.0
0
LINE
8
0
10
3260.554455
20
1241.047644
30
0.0
11
3260.458033
21
1241.144066
31
0.0
0
LINE
8
0
10
3261.070444
20
1240.531655
30
0.0
11
3260.558033
21
1241.044066
31
0.0
0
LINE
8
0
10
3264.598278
20
1239.248885
30
0.0
11
3262.727662
21
1241.119501
31
0.0
0
LINE
8
0
10
3265.488498
20
1240.603730
30
0.0
11
3264.047713
21
1242.044514
31
0.0
0
LINE
8
0
10
3266.442962
20
1241.894329
30
0.0
11
3264.939619
21
1243.397673
31
0.0
0
LINE
8
0
10
3268.534711
20
1242.047644
30
0.0
11
3266.534711
21
1244.047644
31
0.0
0
LINE
8
0
10
3270.779775
20
1242.047644
30
0.0
11
3267.208033
21
1245.619386
31
0.0
0
LINE
8
0
10
3273.024839
20
1242.047644
30
0.0
11
3271.024839
21
1244.047644
31
0.0
0
LINE
8
0
10
3268.708033
20
1246.364450
30
0.0
11
3267.208033
21
1247.864450
31
0.0
0
LINE
8
0
10
3275.269903
20
1242.047644
30
0.0
11
3273.269903
21
1244.047644
31
0.0
0
LINE
8
0
10
3269.769903
20
1247.547644
30
0.0
11
3268.269903
21
1249.047644
31
0.0
0
LINE
8
0
10
3280.502700
20
1239.059911
30
0.0
11
3280.330984
21
1239.231627
31
0.0
0
LINE
8
0
10
3277.514967
20
1242.047644
30
0.0
11
3275.514967
21
1244.047644
31
0.0
0
LINE
8
0
10
3283.960031
20
1237.847644
30
0.0
11
3276.208033
21
1245.599643
31
0.0
0
LINE
8
0
10
3283.531617
20
1240.521122
30
0.0
11
3282.661131
21
1241.391608
31
0.0
0
LINE
8
0
10
3277.708033
20
1246.344707
30
0.0
11
3275.005095
21
1249.047644
31
0.0
0
LINE
8
0
10
3277.708033
20
1248.589771
30
0.0
11
3277.250159
21
1249.047644
31
0.0
0
ARC
8
0
10
3279.278754
20
1243.547644
30
0.0
40
0.500000
50
33.390000
51
90.000000
0
LINE
8
0
10
3279.278754
20
1244.047644
30
0.0
11
3278.208033
21
1244.047644
31
0.0
0
ARC
8
0
10
3278.208033
20
1244.547644
30
0.0
40
0.500000
50
180.000000
51
270.000000
0
LINE
8
0
10
3277.708033
20
1244.547644
30
0.0
11
3277.708033
21
1248.847644
31
0.0
0
ARC
8
0
10
3277.508033
20
1248.847644
30
0.0
40
0.200000
50
0.000000
51
90.000000
0
LINE
8
0
10
3277.508033
20
1249.047644
30
0.0
11
3274.908033
21
1249.047644
31
0.0
0
ARC
8
0
10
3274.908033
20
1248.847644
30
0.0
40
0.200000
50
90.000000
51
180.000000
0
LINE
8
0
10
3274.708033
20
1248.847644
30
0.0
11
3274.708033
21
1247.747644
31
0.0
0
ARC
8
0
10
3274.908033
20
1247.747644
30
0.0
40
0.200000
50
180.000000
51
270.000000
0
LINE
8
0
10
3274.908033
20
1247.547644
30
0.0
11
3276.008033
21
1247.547644
31
0.0
0
ARC
8
0
10
3276.008033
20
1247.347644
30
0.0
40
0.200000
50
0.000000
51
90.000000
0
LINE
8
0
10
3276.208033
20
1247.347644
30
0.0
11
3276.208033
21
1244.547644
31
0.0
0
ARC
8
0
10
3275.708033
20
1244.547644
30
0.0
40
0.500000
50
270.000000
51
0.000000
0
LINE
8
0
10
3275.708033
20
1244.047644
30
0.0
11
3272.458033
21
1244.047644
31
0.0
0
LINE
8
0
10
3272.458033
20
1244.047644
30
0.0
11
3269.208033
21
1244.047644
31
0.0
0
ARC
8
0
10
3269.208033
20
1244.547644
30
0.0
40
0.500000
50
180.000000
51
270.000000
0
LINE
8
0
10
3268.708033
20
1244.547644
30
0.0
11
3268.708033
21
1247.347644
31
0.0
0
ARC
8
0
10
3268.908033
20
1247.347644
30
0.0
40
0.200000
50
90.000000
51
180.000000
0
LINE
8
0
10
3268.908033
20
1247.547644
30
0.0
11
3270.008033
21
1247.547644
31
0.0
0
ARC
8
0
10
3270.008033
20
1247.747644
30
0.0
40
0.200000
50
270.000000
51
0.000000
0
LINE
8
0
10
3270.208033
20
1247.747644
30
0.0
11
3270.208033
21
1248.847644
31
0.0
0
ARC
8
0
10
3270.008033
20
1248.847644
30
0.0
40
0.200000
50
0.000000
51
90.000000
0
LINE
8
0
10
3270.008033
20
1249.047644
30
0.0
11
3267.408033
21
1249.047644
31
0.0
0
ARC
8
0
10
3267.408033
20
1248.847644
30
0.0
40
0.200000
50
90.000000
51
180.000000
0
LINE
8
0
10
3267.208033
20
1248.847644
30
0.0
11
3267.208033
21
1244.547644
31
0.0
0
ARC
8
0
10
3266.708033
20
1244.547644
30
0.0
40
0.500000
50
270.000000
51
0.000000
0
LINE
8
0
10
3266.708033
20
1244.047644
30
0.0
11
3265.637311
21
1244.047644
31
0.0
0
ARC
8
0
10
3265.637311
20
1243.547644
30
0.0
40
0.500000
50
90.000000
51
146.610000
0
LINE
8
0
10
3265.219839
20
1243.822812
30
0.0
11
3263.589336
21
1241.349084
31
0.0
0
ARC
8
0
10
3263.029619
20
1241.718009
30
0.0
40
0.670365
50
239.960294
51
326.610000
0
LINE
8
0
10
3262.694034
20
1241.137688
30
0.0
11
3261.162883
21
1242.023114
31
0.0
0
LINE
8
0
10
3261.162883
20
1242.023114
30
0.0
11
3261.066913
21
1242.047644
31
0.0
0
LINE
8
0
10
3261.066913
20
1242.047644
30
0.0
11
3260.858033
21
1242.047644
31
0.0
0
ARC
8
0
10
3260.858033
20
1241.647644
30
0.0
40
0.400000
50
90.000000
51
180.000000
0
LINE
8
0
10
3260.458033
20
1241.647644
30
0.0
11
3260.458033
21
1241.047644
31
0.0
0
LINE
8
0
10
3260.458033
20
1241.047644
30
0.0
11
3260.558033
21
1241.047644
31
0.0
0
LINE
8
0
10
3260.558033
20
1241.047644
30
0.0
11
3260.558033
21
1240.672644
31
0.0
0
ARC
8
0
10
3260.758033
20
1240.672644
30
0.0
40
0.200000
50
180.000000
51
270.000000
0
LINE
8
0
10
3260.758033
20
1240.472644
30
0.0
11
3260.917559
21
1240.472644
31
0.0
0
ARC
8
0
10
3261.208033
20
1239.947644
30
0.0
40
0.600000
50
0.000000
51
118.955024
0
ARC
8
0
10
3261.208033
20
1239.947644
30
0.0
40
0.600000
50
241.044976
51
0.000000
0
LINE
8
0
10
3260.917559
20
1239.422644
30
0.0
11
3260.758033
21
1239.422644
31
0.0
0
ARC
8
0
10
3260.758033
20
1239.222644
30
0.0
40
0.200000
50
90.000000
51
180.000000
0
LINE
8
0
10
3260.558033
20
1239.222644
30
0.0
11
3260.558033
21
1238.847644
31
0.0
0
LINE
8
0
10
3260.558033
20
1238.847644
30
0.0
11
3260.458033
21
1238.847644
31
0.0
0
LINE
8
0
10
3260.458033
20
1238.847644
30
0.0
11
3260.458033
21
1238.247644
31
0.0
0
ARC
8
0
10
3260.858033
20
1238.247644
30
0.0
40
0.400000
50
180.000000
51
270.000000
0
LINE
8
0
10
3260.858033
20
1237.847644
30
0.0
11
3261.066913
21
1237.847644
31
0.0
0
LINE
8
0
10
3261.066913
20
1237.847644
30
0.0
11
3261.162883
21
1237.872174
31
0.0
0
LINE
8
0
10
3261.162883
20
1237.872174
30
0.0
11
3262.663922
21
1238.740187
31
0.0
0
ARC
8
0
10
3263.064402
20
1238.047644
30
0.0
40
0.800000
50
90.000000
51
120.039706
0
LINE
8
0
10
3263.064402
20
1238.847644
30
0.0
11
3263.797349
21
1238.847644
31
0.0
0
ARC
8
0
10
3263.797349
20
1239.847644
30
0.0
40
1.000000
50
270.000000
51
326.760000
0
LINE
8
0
10
3264.633730
20
1239.299497
30
0.0
11
3266.138674
21
1241.595791
31
0.0
0
ARC
8
0
10
3266.975056
20
1241.047644
30
0.0
40
1.000000
50
90.000000
51
146.760000
0
LINE
8
0
10
3266.975056
20
1242.047644
30
0.0
11
3277.941010
21
1242.047644
31
0.0
0
ARC
8
0
10
3277.941010
20
1241.047644
30
0.0
40
1.000000
50
33.240000
51
90.000000
0
LINE
8
0
10
3278.777392
20
1241.595791
30
0.0
11
3280.282335
21
1239.299497
31
0.0
0
ARC
8
0
10
3281.118717
20
1239.847644
30
0.0
40
1.000000
50
213.240000
51
270.000000
0
LINE
8
0
10
3281.118717
20
1238.847644
30
0.0
11
3281.851664
21
1238.847644
31
0.0
0
ARC
8
0
10
3281.851664
20
1238.047644
30
0.0
40
0.800000
50
59.960294
51
90.000000
0
LINE
8
0
10
3282.252144
20
1238.740187
30
0.0
11
3283.753183
21
1237.872174
31
0.0
0
LINE
8
0
10
3283.753183
20
1237.872174
30
0.0
11
3283.849153
21
1237.847644
31
0.0
0
LINE
8
0
10
3283.849153
20
1237.847644
30
0.0
11
3284.058033
21
1237.847644
31
0.0
0
ARC
8
0
10
3284.058033
20
1238.247644
30
0.0
40
0.400000
50
270.000000
51
0.000000
0
LINE
8
0
10
3284.458033
20
1238.247644
30
0.0
11
3284.458033
21
1238.847644
31
0.0
0
LINE
8
0
10
3284.458033
20
1238.847644
30
0.0
11
3284.358033
21
1238.847644
31
0.0
0
LINE
8
0
10
3284.358033
20
1238.847644
30
0.0
11
3284.358033
21
1239.222644
31
0.0
0
ARC
8
0
10
3284.158033
20
1239.222644
30
0.0
40
0.200000
50
0.000000
51
90.000000
0
LINE
8
0
10
3284.158033
20
1239.422644
30
0.0
11
3283.998507
21
1239.422644
31
0.0
0
ARC
8
0
10
3283.708033
20
1239.947644
30
0.0
40
0.600000
50
180.000000
51
298.955024
0
ARC
8
0
10
3283.708033
20
1239.947644
30
0.0
40
0.600000
50
61.044976
51
180.000000
0
LINE
8
0
10
3283.998507
20
1240.472644
30
0.0
11
3284.158033
21
1240.472644
31
0.0
0
ARC
8
0
10
3284.158033
20
1240.672644
30
0.0
40
0.200000
50
270.000000
51
0.000000
0
LINE
8
0
10
3284.358033
20
1240.672644
30
0.0
11
3284.358033
21
1241.047644
31
0.0
0
LINE
8
0
10
3284.358033
20
1241.047644
30
0.0
11
3284.458033
21
1241.047644
31
0.0
0
LINE
8
0
10
3284.458033
20
1241.047644
30
0.0
11
3284.458033
21
1241.647644
31
0.0
0
ARC
8
0
10
3284.058033
20
1241.647644
30
0.0
40
0.400000
50
0.000000
51
90.000000
0
LINE
8
0
10
3284.058033
20
1242.047644
30
0.0
11
3283.849153
21
1242.047644
31
0.0
0
LINE
8
0
10
3283.849153
20
1242.047644
30
0.0
11
3283.753183
21
1242.023114
31
0.0
0
LINE
8
0
10
3283.753183
20
1242.023114
30
0.0
11
3282.222032
21
1241.137688
31
0.0
0
ARC
8
0
10
3281.886447
20
1241.718009
30
0.0
40
0.670365
50
213.390000
51
300.039706
0
LINE
8
0
10
3281.326730
20
1241.349084
30
0.0
11
3279.696226
21
1243.822812
31
0.0
0
ATTDEF
8
0
10
3260.458464
20
1249.335485
30
0.0
40
3.5
1

3

2
VC_START
70
0
0
ATTDEF
8
0
10
3287.237283
20
1222.329122
30
0.0
40
3.5
1

3

2
VC_END
70
0
0
ATTDEF
8
0
10
3294.858033
20
1197.335485
30
0.0
40
3.5
1

3

2
FP_LCS_ORIG
70
0
0
ATTDEF
8
0
10
3284.858033
20
1197.335485
30
0.0
40
3.5
1

3

2
FP_LCS_HOT
70
0
0
ATTDEF
8
0
10
3294.858033
20
1207.335485
30
0.0
40
3.5
1

3

2
FP_LCS_INTERN
70
0
0
ATTDEF
8
0
10
0.000000
20
0.000000
30
0.0
40
3.5
1

3

2
PANE_WIDTH:0
70
0
0
ATTDEF
8
0
10
0.000000
20
0.000000
30
0.0
40
3.5
1

3

2
MIN_VETRO:0
70
0
0
ATTDEF
8
0
10
0.000000
20
0.000000
30
0.0
40
3.5
1

3

2
MAX_VETRO:0
70
0
0
ATTDEF
8
0
10
0.000000
20
0.000000
30
0.0
40
3.5
1

3

2
JX:0
70
0
0
ATTDEF
8
0
10
0.000000
20
0.000000
30
0.0
40
3.5
1

3

2
WX:0
70
0
0
ATTDEF
8
0
10
0.000000
20
0.000000
30
0.0
40
3.5
1

3

2
JY:0
70
0
0
ATTDEF
8
0
10
0.000000
20
0.000000
30
0.0
40
3.5
1

3

2
WY:0
70
0
0
ATTDEF
8
0
10
0.000000
20
0.000000
30
0.0
40
3.5
1

3

2
DESC:M.vtna.solp.25 y eng
70
0
0
ATTDEF
8
0
10
0.000000
20
0.000000
30
0.0
40
3.5
1

3

2
DENS:1.3408
70
0
0
ATTDEF
8
0
10
0.000000
20
0.000000
30
0.0
40
3.5
1

3

2
TDEV:54.33
70
0
0
ATTDEF
8
0
10
0.000000
20
0.000000
30
0.0
40
3.5
1

3

2
TDEV2:0
70
0
0
ATTDEF
8
0
10
0.000000
20
0.000000
30
0.0
40
3.5
1

3

2
TDEV3:0
70
0
0
ATTDEF
8
0
10
0.000000
20
0.000000
30
0.0
40
3.5
1

3

2
TDEV4:0
70
0
0
ATTDEF
8
0
10
0.000000
20
0.000000
30
0.0
40
3.5
1

3

2
TDEV5:0
70
0
0
ATTDEF
8
0
10
0.000000
20
0.000000
30
0.0
40
3.5
1

3

2
PANE_WIDTH:0
70
0
0
ATTDEF
8
0
10
0.000000
20
0.000000
30
0.0
40
3.5
1

3

2
MIN_VETRO:0
70
0
0
ATTDEF
8
0
10
0.000000
20
0.000000
30
0.0
40
3.5
1

3

2
MAX_VETRO:0
70
0
0
ATTDEF
8
0
10
0.000000
20
0.000000
30
0.0
40
3.5
1

3

2
JX:0
70
0
0
ATTDEF
8
0
10
0.000000
20
0.000000
30
0.0
40
3.5
1

3

2
WX:0
70
0
0
ATTDEF
8
0
10
0.000000
20
0.000000
30
0.0
40
3.5
1

3

2
JY:0
70
0
0
ATTDEF
8
0
10
0.000000
20
0.000000
30
0.0
40
3.5
1

3

2
WY:0
70
0
0
ENDSEC
0
EOF
