0
SECTION
2
ENTITIES
0
ARC
8
0
10
2822.521395
20
1222.375231
30
0.0
40
0.600000
50
0.000000
51
180.000000
0
ARC
8
0
10
2822.521395
20
1222.375231
30
0.0
40
0.600000
50
180.000000
51
0.000000
0
ARC
8
0
10
2845.021395
20
1222.375231
30
0.0
40
0.600000
50
0.000000
51
180.000000
0
ARC
8
0
10
2845.021395
20
1222.375231
30
0.0
40
0.600000
50
180.000000
51
0.000000
0
ARC
8
0
10
2845.017326
20
1213.849454
30
0.0
40
0.600000
50
0.000000
51
180.000000
0
ARC
8
0
10
2845.017326
20
1213.849454
30
0.0
40
0.600000
50
180.000000
51
0.000000
0
ARC
8
0
10
2822.517326
20
1213.849454
30
0.0
40
0.600000
50
0.000000
51
180.000000
0
ARC
8
0
10
2822.517326
20
1213.849454
30
0.0
40
0.600000
50
180.000000
51
0.000000
0
LINE
8
0
10
2824.271395
20
1221.032158
30
0.0
11
2824.271395
21
1219.625168
31
0.0
0
ARC
8
0
10
2824.071395
20
1219.625168
30
0.0
40
0.200000
50
301.380132
51
0.000000
0
LINE
8
0
10
2824.175537
20
1219.454421
30
0.0
11
2822.961306
21
1218.713829
31
0.0
0
ARC
8
0
10
2823.325806
20
1218.116217
30
0.0
40
0.700000
50
121.380132
51
180.000000
0
ARC
8
0
10
2823.325806
20
1218.109183
30
0.0
40
0.700000
50
180.000000
51
238.619868
0
LINE
8
0
10
2822.961306
20
1217.511571
30
0.0
11
2824.175537
21
1216.770979
31
0.0
0
ARC
8
0
10
2824.071395
20
1216.600232
30
0.0
40
0.200000
50
0.000000
51
58.619868
0
LINE
8
0
10
2824.271395
20
1216.600232
30
0.0
11
2824.271395
21
1215.193242
31
0.0
0
ARC
8
0
10
2824.071395
20
1215.193242
30
0.0
40
0.200000
50
180.000000
51
0.000000
0
LINE
8
0
10
2823.871490
20
1215.199432
30
0.0
11
2822.195497
21
1216.221665
31
0.0
0
ARC
8
0
10
2822.039283
20
1215.965546
30
0.0
40
0.300000
50
58.619868
51
90.000000
0
LINE
8
0
10
2822.039283
20
1216.265546
30
0.0
11
2821.971395
21
1216.265546
31
0.0
0
ARC
8
0
10
2821.971395
20
1216.065546
30
0.0
40
0.200000
50
90.000000
51
180.000000
0
LINE
8
0
10
2821.771395
20
1216.065546
30
0.0
11
2821.771395
21
1211.565546
31
0.0
0
ARC
8
0
10
2821.771395
20
1211.265546
30
0.0
40
0.300000
50
90.000000
51
270.000000
0
LINE
8
0
10
2821.771395
20
1210.965546
30
0.0
11
2822.126420
21
1211.061097
31
0.0
0
ARC
8
0
10
2822.058286
20
1211.353257
30
0.0
40
0.300000
50
283.127121
51
308.823976
0
LINE
8
0
10
2822.246365
20
1211.119534
30
0.0
11
2823.889535
21
1212.441809
31
0.0
0
ARC
8
0
10
2823.764149
20
1212.597624
30
0.0
40
0.200000
50
308.823976
51
0.000000
0
LINE
8
0
10
2823.964027
20
1212.604604
30
0.0
11
2823.958597
21
1212.760091
31
0.0
0
ARC
8
0
10
2824.104129
20
1212.765173
30
0.0
40
0.145621
50
37.746080
51
180.000000
0
LINE
8
0
10
2824.219276
20
1212.854317
30
0.0
11
2826.283563
21
1210.187876
31
0.0
0
ARC
8
0
10
2825.998656
20
1210.093920
30
0.0
40
0.300000
50
270.000000
51
18.251415
0
LINE
8
0
10
2826.002041
20
1209.793895
30
0.0
11
2825.345420
21
1209.775282
31
0.0
0
ARC
8
0
10
2825.331252
20
1210.275081
30
0.0
40
0.500000
50
231.805773
51
271.623749
0
ARC
8
0
10
2823.785429
20
1208.310283
30
0.0
40
2.000000
50
51.805773
51
123.997055
0
LINE
8
0
10
2822.667128
20
1209.968416
30
0.0
11
2822.098133
21
1209.689335
31
0.0
0
ARC
8
0
10
2821.767861
20
1210.362700
30
0.0
40
0.750000
50
270.000000
51
296.127032
0
LINE
8
0
10
2821.767861
20
1209.612700
30
0.0
11
2794.671826
21
1209.612700
31
0.0
0
LINE
8
0
10
2794.671826
20
1209.612700
30
0.0
11
2794.671826
21
1199.112700
31
0.0
0
LINE
8
0
10
2794.671826
20
1199.112700
30
0.0
11
2796.863536
21
1199.112700
31
0.0
0
LINE
8
0
10
2796.863536
20
1199.112700
30
0.0
11
2797.065608
21
1199.462700
31
0.0
0
LINE
8
0
10
2797.065608
20
1199.462700
30
0.0
11
2797.671826
21
1199.112700
31
0.0
0
LINE
8
0
10
2797.671826
20
1199.112700
30
0.0
11
2796.805801
21
1197.612700
31
0.0
0
LINE
8
0
10
2796.805801
20
1197.612700
30
0.0
11
2793.171826
21
1197.612700
31
0.0
0
LINE
8
0
10
2793.171826
20
1197.612700
30
0.0
11
2793.171826
21
1231.612700
31
0.0
0
LINE
8
0
10
2793.171826
20
1231.612700
30
0.0
11
2795.671826
21
1231.612700
31
0.0
0
LINE
8
0
10
2795.671826
20
1231.612700
30
0.0
11
2796.671826
21
1230.612700
31
0.0
0
LINE
8
0
10
2796.671826
20
1230.612700
30
0.0
11
2796.671826
21
1229.612700
31
0.0
0
LINE
8
0
10
2796.671826
20
1229.612700
30
0.0
11
2794.671826
21
1229.612700
31
0.0
0
LINE
8
0
10
2794.671826
20
1229.612700
30
0.0
11
2794.671826
21
1226.612700
31
0.0
0
LINE
8
0
10
2794.671826
20
1226.612700
30
0.0
11
2812.671826
21
1226.612700
31
0.0
0
LINE
8
0
10
2812.671826
20
1226.612700
30
0.0
11
2812.671826
21
1229.612700
31
0.0
0
LINE
8
0
10
2812.671826
20
1229.612700
30
0.0
11
2810.671826
21
1229.612700
31
0.0
0
LINE
8
0
10
2810.671826
20
1229.612700
30
0.0
11
2810.671826
21
1230.612700
31
0.0
0
LINE
8
0
10
2810.671826
20
1230.612700
30
0.0
11
2811.671826
21
1231.612700
31
0.0
0
LINE
8
0
10
2811.671826
20
1231.612700
30
0.0
11
2814.621826
21
1231.612700
31
0.0
0
LINE
8
0
10
2814.621826
20
1231.612700
30
0.0
11
2815.621826
21
1230.612700
31
0.0
0
LINE
8
0
10
2815.621826
20
1230.612700
30
0.0
11
2815.621826
21
1229.612700
31
0.0
0
LINE
8
0
10
2815.621826
20
1229.612700
30
0.0
11
2814.171826
21
1229.612700
31
0.0
0
LINE
8
0
10
2814.171826
20
1229.612700
30
0.0
11
2814.171826
21
1226.612700
31
0.0
0
LINE
8
0
10
2814.171826
20
1226.612700
30
0.0
11
2820.271826
21
1226.612700
31
0.0
0
LINE
8
0
10
2820.271826
20
1226.612700
30
0.0
11
2820.271826
21
1229.612700
31
0.0
0
LINE
8
0
10
2820.271826
20
1229.612700
30
0.0
11
2818.821826
21
1229.612700
31
0.0
0
LINE
8
0
10
2818.821826
20
1229.612700
30
0.0
11
2818.821826
21
1230.612700
31
0.0
0
LINE
8
0
10
2818.821826
20
1230.612700
30
0.0
11
2819.821826
21
1231.612700
31
0.0
0
LINE
8
0
10
2819.821826
20
1231.612700
30
0.0
11
2821.771826
21
1231.612700
31
0.0
0
LINE
8
0
10
2821.771826
20
1231.612700
30
0.0
11
2821.771826
21
1227.163609
31
0.0
0
ARC
8
0
10
2822.521826
20
1227.163609
30
0.0
40
0.750000
50
180.000000
51
243.872968
0
LINE
8
0
10
2822.191554
20
1226.490244
30
0.0
11
2822.667128
21
1226.256984
31
0.0
0
ARC
8
0
10
2823.785429
20
1227.915117
30
0.0
40
2.000000
50
236.002945
51
308.194227
0
ARC
8
0
10
2825.331252
20
1225.950319
30
0.0
40
0.500000
50
88.376251
51
128.194227
0
LINE
8
0
10
2825.345420
20
1226.450118
30
0.0
11
2826.002041
21
1226.431505
31
0.0
0
ARC
8
0
10
2825.998656
20
1226.131480
30
0.0
40
0.300000
50
341.748585
51
90.000000
0
LINE
8
0
10
2826.283563
20
1226.037524
30
0.0
11
2824.219276
21
1223.371083
31
0.0
0
ARC
8
0
10
2824.104129
20
1223.460227
30
0.0
40
0.145621
50
180.000000
51
322.253920
0
LINE
8
0
10
2823.958597
20
1223.465309
30
0.0
11
2823.964027
21
1223.620796
31
0.0
0
ARC
8
0
10
2823.764149
20
1223.627776
30
0.0
40
0.200000
50
0.000000
51
51.176024
0
LINE
8
0
10
2823.889535
20
1223.783591
30
0.0
11
2822.246365
21
1225.105866
31
0.0
0
ARC
8
0
10
2822.058286
20
1224.872143
30
0.0
40
0.300000
50
51.176024
51
76.872879
0
LINE
8
0
10
2822.126420
20
1225.164303
30
0.0
11
2821.771395
21
1225.259854
31
0.0
0
ARC
8
0
10
2821.771395
20
1224.959854
30
0.0
40
0.300000
50
90.000000
51
270.000000
0
LINE
8
0
10
2821.771395
20
1224.659854
30
0.0
11
2821.771395
21
1220.159854
31
0.0
0
ARC
8
0
10
2821.971395
20
1220.159854
30
0.0
40
0.200000
50
180.000000
51
270.000000
0
LINE
8
0
10
2821.971395
20
1219.959854
30
0.0
11
2822.039283
21
1219.959854
31
0.0
0
ARC
8
0
10
2822.039283
20
1220.259854
30
0.0
40
0.300000
50
270.000000
51
301.380132
0
LINE
8
0
10
2822.195497
20
1220.003735
30
0.0
11
2823.871490
21
1221.025968
31
0.0
0
ARC
8
0
10
2824.071395
20
1221.032158
30
0.0
40
0.200000
50
0.000000
51
180.000000
0
LINE
8
0
10
2794.671395
20
1225.112700
30
0.0
11
2820.271395
21
1225.112700
31
0.0
0
LINE
8
0
10
2820.271395
20
1225.112700
30
0.0
11
2820.271395
21
1211.112700
31
0.0
0
LINE
8
0
10
2820.271395
20
1211.112700
30
0.0
11
2794.671395
21
1211.112700
31
0.0
0
LINE
8
0
10
2794.671395
20
1211.112700
30
0.0
11
2794.671395
21
1225.112700
31
0.0
0
LINE
8
0
10
2847.571527
20
1197.612700
30
0.0
11
2847.571527
21
1251.112700
31
0.0
0
ARC
8
0
10
2847.071527
20
1251.112700
30
0.0
40
0.500000
50
0.000000
51
90.000000
0
LINE
8
0
10
2847.071527
20
1251.612700
30
0.0
11
2844.571527
21
1251.612700
31
0.0
0
ARC
8
0
10
2844.571527
20
1251.112700
30
0.0
40
0.500000
50
90.000000
51
180.000000
0
LINE
8
0
10
2844.071527
20
1251.112700
30
0.0
11
2844.071527
21
1248.862700
31
0.0
0
ARC
8
0
10
2844.571527
20
1248.862700
30
0.0
40
0.500000
50
180.000000
51
0.000000
0
LINE
8
0
10
2845.071527
20
1248.862700
30
0.0
11
2845.071527
21
1250.112700
31
0.0
0
LINE
8
0
10
2845.071527
20
1250.112700
30
0.0
11
2846.271527
21
1250.112700
31
0.0
0
LINE
8
0
10
2846.271527
20
1250.112700
30
0.0
11
2846.271527
21
1242.612700
31
0.0
0
LINE
8
0
10
2846.271527
20
1242.612700
30
0.0
11
2845.071527
21
1242.612700
31
0.0
0
LINE
8
0
10
2845.071527
20
1242.612700
30
0.0
11
2845.071527
21
1243.862700
31
0.0
0
ARC
8
0
10
2844.571527
20
1243.862700
30
0.0
40
0.500000
50
0.000000
51
180.000000
0
LINE
8
0
10
2844.071527
20
1243.862700
30
0.0
11
2844.071527
21
1241.612700
31
0.0
0
ARC
8
0
10
2844.571527
20
1241.612700
30
0.0
40
0.500000
50
180.000000
51
270.000000
0
LINE
8
0
10
2844.571527
20
1241.112700
30
0.0
11
2846.071527
21
1241.112700
31
0.0
0
LINE
8
0
10
2846.071527
20
1241.112700
30
0.0
11
2846.071527
21
1229.606337
31
0.0
0
LINE
8
0
10
2846.071527
20
1229.606337
30
0.0
11
2845.826430
21
1227.158884
31
0.0
0
ARC
8
0
10
2844.931791
20
1227.300595
30
0.0
40
0.905793
50
286.497249
51
350.999068
0
LINE
8
0
10
2845.189008
20
1226.432091
30
0.0
11
2844.926901
21
1226.310993
31
0.0
0
ARC
8
0
10
2843.834747
20
1227.986463
30
0.0
40
2.000000
50
231.805773
51
303.098281
0
ARC
8
0
10
2842.288924
20
1226.021665
30
0.0
40
0.500000
50
51.805773
51
91.623749
0
LINE
8
0
10
2842.274756
20
1226.521464
30
0.0
11
2841.618135
21
1226.502851
31
0.0
0
ARC
8
0
10
2841.621520
20
1226.202826
30
0.0
40
0.300000
50
92.605413
51
198.251415
0
LINE
8
0
10
2841.336612
20
1226.108870
30
0.0
11
2843.400900
21
1223.442429
31
0.0
0
ARC
8
0
10
2843.516047
20
1223.531572
30
0.0
40
0.145621
50
217.746080
51
0.000000
0
LINE
8
0
10
2843.661579
20
1223.536655
30
0.0
11
2843.656149
21
1223.692142
31
0.0
0
ARC
8
0
10
2843.856027
20
1223.699121
30
0.0
40
0.200000
50
128.823976
51
180.000000
0
LINE
8
0
10
2843.730641
20
1223.854937
30
0.0
11
2845.263331
21
1225.088307
31
0.0
0
ARC
8
0
10
2845.571395
20
1225.254430
30
0.0
40
0.350000
50
320.284863
51
208.335696
0
ARC
8
0
10
2846.071395
20
1224.839099
30
0.0
40
0.300000
50
140.284863
51
180.000000
0
LINE
8
0
10
2845.771395
20
1224.839099
30
0.0
11
2845.771395
21
1220.159854
31
0.0
0
ARC
8
0
10
2845.571395
20
1220.159854
30
0.0
40
0.200000
50
270.000000
51
0.000000
0
LINE
8
0
10
2845.571395
20
1219.959854
30
0.0
11
2845.503506
21
1219.959854
31
0.0
0
ARC
8
0
10
2845.503506
20
1220.259854
30
0.0
40
0.300000
50
238.619868
51
270.000000
0
LINE
8
0
10
2845.347292
20
1220.003735
30
0.0
11
2843.671299
21
1221.025968
31
0.0
0
ARC
8
0
10
2843.471395
20
1221.032158
30
0.0
40
0.200000
50
0.000000
51
180.000000
0
LINE
8
0
10
2843.271395
20
1221.032158
30
0.0
11
2843.271395
21
1219.625168
31
0.0
0
ARC
8
0
10
2843.471395
20
1219.625168
30
0.0
40
0.200000
50
180.000000
51
238.619868
0
LINE
8
0
10
2843.367252
20
1219.454421
30
0.0
11
2844.587250
21
1218.710312
31
0.0
0
ARC
8
0
10
2844.222750
20
1218.112700
30
0.0
40
0.700000
50
301.380132
51
58.619868
0
LINE
8
0
10
2844.587250
20
1217.515088
30
0.0
11
2843.367252
21
1216.770979
31
0.0
0
ARC
8
0
10
2843.471395
20
1216.600232
30
0.0
40
0.200000
50
121.380132
51
180.000000
0
LINE
8
0
10
2843.271395
20
1216.600232
30
0.0
11
2843.271395
21
1215.193242
31
0.0
0
ARC
8
0
10
2843.471395
20
1215.193242
30
0.0
40
0.200000
50
180.000000
51
0.000000
0
LINE
8
0
10
2843.671299
20
1215.199432
30
0.0
11
2845.347292
21
1216.221665
31
0.0
0
ARC
8
0
10
2845.503506
20
1215.965546
30
0.0
40
0.300000
50
90.000000
51
121.380132
0
LINE
8
0
10
2845.503506
20
1216.265546
30
0.0
11
2845.571395
21
1216.265546
31
0.0
0
ARC
8
0
10
2845.571395
20
1216.065546
30
0.0
40
0.200000
50
0.000000
51
90.000000
0
LINE
8
0
10
2845.771395
20
1216.065546
30
0.0
11
2845.771395
21
1211.386301
31
0.0
0
ARC
8
0
10
2846.071395
20
1211.386301
30
0.0
40
0.300000
50
180.000000
51
219.715137
0
ARC
8
0
10
2845.571395
20
1210.970970
30
0.0
40
0.350000
50
151.664304
51
39.715137
0
LINE
8
0
10
2845.263331
20
1211.137093
30
0.0
11
2843.730641
21
1212.370463
31
0.0
0
ARC
8
0
10
2843.856027
20
1212.526279
30
0.0
40
0.200000
50
180.000000
51
231.176024
0
LINE
8
0
10
2843.656149
20
1212.533258
30
0.0
11
2843.661579
21
1212.688746
31
0.0
0
ARC
8
0
10
2843.516047
20
1212.693828
30
0.0
40
0.145621
50
0.000000
51
142.253920
0
LINE
8
0
10
2843.400900
20
1212.782971
30
0.0
11
2841.336612
21
1210.116530
31
0.0
0
ARC
8
0
10
2841.621520
20
1210.022574
30
0.0
40
0.300000
50
161.748585
51
267.394587
0
LINE
8
0
10
2841.618135
20
1209.722549
30
0.0
11
2842.274756
21
1209.703936
31
0.0
0
ARC
8
0
10
2842.288924
20
1210.203735
30
0.0
40
0.500000
50
268.376251
51
308.194227
0
ARC
8
0
10
2843.834747
20
1208.238937
30
0.0
40
2.000000
50
58.546382
51
128.194227
0
LINE
8
0
10
2844.878363
20
1209.945063
30
0.0
11
2845.208592
21
1209.787267
31
0.0
0
ARC
8
0
10
2844.948496
20
1208.950197
30
0.0
40
0.876549
50
7.522921
51
72.738851
0
LINE
8
0
10
2845.817500
20
1209.064957
30
0.0
11
2846.071096
21
1206.106337
31
0.0
0
LINE
8
0
10
2846.071096
20
1206.106337
30
0.0
11
2846.071096
21
1199.112700
31
0.0
0
LINE
8
0
10
2846.071096
20
1199.112700
30
0.0
11
2845.879817
21
1199.112700
31
0.0
0
LINE
8
0
10
2845.879817
20
1199.112700
30
0.0
11
2845.677745
21
1199.462700
31
0.0
0
LINE
8
0
10
2845.677745
20
1199.462700
30
0.0
11
2845.071527
21
1199.112700
31
0.0
0
LINE
8
0
10
2845.071527
20
1199.112700
30
0.0
11
2845.937552
21
1197.612700
31
0.0
0
LINE
8
0
10
2845.937552
20
1197.612700
30
0.0
11
2847.571527
21
1197.612700
31
0.0
0
LINE
8
0
10
2822.017202
20
1222.907713
30
0.0
11
2823.163036
21
1224.053547
31
0.0
0
LINE
8
0
10
2828.521395
20
1229.411906
30
0.0
11
2830.584719
21
1231.475231
31
0.0
0
LINE
8
0
10
2821.826752
20
1220.472199
30
0.0
11
2827.829783
21
1226.475231
31
0.0
0
LINE
8
0
10
2831.329967
20
1229.975414
30
0.0
11
2831.521211
21
1230.166658
31
0.0
0
LINE
8
0
10
2828.521395
20
1227.166842
30
0.0
11
2830.021395
21
1228.666842
31
0.0
0
LINE
8
0
10
2824.874847
20
1221.275231
30
0.0
11
2827.126916
21
1223.527299
31
0.0
0
LINE
8
0
10
2828.044692
20
1224.445075
30
0.0
11
2830.195579
21
1226.595962
31
0.0
0
LINE
8
0
10
2830.319912
20
1224.475231
30
0.0
11
2832.319912
21
1226.475231
31
0.0
0
LINE
8
0
10
2836.021395
20
1230.176714
30
0.0
11
2837.319912
21
1231.475231
31
0.0
0
LINE
8
0
10
2822.538814
20
1214.449069
30
0.0
11
2823.449505
21
1215.359760
31
0.0
0
LINE
8
0
10
2837.521395
20
1229.431650
30
0.0
11
2839.021395
21
1230.931650
31
0.0
0
LINE
8
0
10
2832.564976
20
1224.475231
30
0.0
11
2834.564976
21
1226.475231
31
0.0
0
LINE
8
0
10
2822.091513
20
1211.756704
30
0.0
11
2825.270712
21
1214.935903
31
0.0
0
LINE
8
0
10
2837.521395
20
1227.186586
30
0.0
11
2839.021395
21
1228.686586
31
0.0
0
LINE
8
0
10
2834.810040
20
1224.475231
30
0.0
11
2836.810040
21
1226.475231
31
0.0
0
LINE
8
0
10
2824.949980
20
1212.370107
30
0.0
11
2826.392163
21
1213.812289
31
0.0
0
LINE
8
0
10
2837.055104
20
1224.475231
30
0.0
11
2839.185098
21
1226.605225
31
0.0
0
LINE
8
0
10
2825.841885
20
1211.016948
30
0.0
11
2827.281003
21
1212.456066
31
0.0
0
LINE
8
0
10
2839.299164
20
1224.474227
30
0.0
11
2841.035708
21
1226.210771
31
0.0
0
LINE
8
0
10
2826.832621
20
1209.762620
30
0.0
11
2828.819455
21
1211.749454
31
0.0
0
LINE
8
0
10
2840.487702
20
1223.417701
30
0.0
11
2841.927613
21
1224.857612
31
0.0
0
LINE
8
0
10
2829.064519
20
1209.749454
30
0.0
11
2831.064519
21
1211.749454
31
0.0
0
LINE
8
0
10
2841.376542
20
1222.061477
30
0.0
11
2842.874512
21
1223.559446
31
0.0
0
LINE
8
0
10
2831.309583
20
1209.749454
30
0.0
11
2833.309583
21
1211.749454
31
0.0
0
LINE
8
0
10
2842.835360
20
1221.275231
30
0.0
11
2845.753538
21
1224.193409
31
0.0
0
LINE
8
0
10
2833.554647
20
1209.749454
30
0.0
11
2835.554647
21
1211.749454
31
0.0
0
LINE
8
0
10
2844.457277
20
1220.652084
30
0.0
11
2845.604605
21
1221.799412
31
0.0
0
LINE
8
0
10
2835.799711
20
1209.749454
30
0.0
11
2837.799711
21
1211.749454
31
0.0
0
LINE
8
0
10
2838.044775
20
1209.749454
30
0.0
11
2843.249714
21
1214.954393
31
0.0
0
LINE
8
0
10
2840.289839
20
1209.749454
30
0.0
11
2841.954649
21
1211.414263
31
0.0
0
LINE
8
0
10
2844.989179
20
1214.448793
30
0.0
11
2845.767326
21
1215.226941
31
0.0
0
LINE
8
0
10
2843.284003
20
1212.743618
30
0.0
11
2844.417987
21
1213.877601
31
0.0
0
LINE
8
0
10
2844.743746
20
1211.958297
30
0.0
11
2845.667326
21
1212.881877
31
0.0
0
LINE
8
0
10
2822.881062
20
1212.010433
30
0.0
11
2821.867326
21
1213.024169
31
0.0
0
LINE
8
0
10
2827.387105
20
1209.749454
30
0.0
11
2825.304859
21
1211.831700
31
0.0
0
LINE
8
0
10
2822.723722
20
1214.412837
30
0.0
11
2821.767326
21
1215.369233
31
0.0
0
LINE
8
0
10
2824.388977
20
1212.747582
30
0.0
11
2823.080709
21
1214.055850
31
0.0
0
LINE
8
0
10
2829.632169
20
1209.749454
30
0.0
11
2824.432169
21
1214.949454
31
0.0
0
LINE
8
0
10
2831.877233
20
1209.749454
30
0.0
11
2829.877233
21
1211.749454
31
0.0
0
LINE
8
0
10
2834.122297
20
1209.749454
30
0.0
11
2832.122297
21
1211.749454
31
0.0
0
LINE
8
0
10
2823.170513
20
1220.701238
30
0.0
11
2822.026601
21
1221.845150
31
0.0
0
LINE
8
0
10
2836.367361
20
1209.749454
30
0.0
11
2834.367361
21
1211.749454
31
0.0
0
LINE
8
0
10
2824.841585
20
1221.275231
30
0.0
11
2821.831195
21
1224.285621
31
0.0
0
LINE
8
0
10
2838.612425
20
1209.749454
30
0.0
11
2836.612425
21
1211.749454
31
0.0
0
LINE
8
0
10
2826.219360
20
1222.142519
30
0.0
11
2824.749400
21
1223.612480
31
0.0
0
LINE
8
0
10
2840.807000
20
1209.799943
30
0.0
11
2838.857489
21
1211.749454
31
0.0
0
LINE
8
0
10
2827.108201
20
1223.498743
30
0.0
11
2825.668473
21
1224.938470
31
0.0
0
LINE
8
0
10
2841.749296
20
1211.102711
30
0.0
11
2840.309984
21
1212.542024
31
0.0
0
LINE
8
0
10
2828.376777
20
1224.475231
30
0.0
11
2826.562107
21
1226.289900
31
0.0
0
LINE
8
0
10
2842.641249
20
1212.455823
30
0.0
11
2841.198824
21
1213.898247
31
0.0
0
LINE
8
0
10
2830.621841
20
1224.475231
30
0.0
11
2828.421586
21
1226.675486
31
0.0
0
LINE
8
0
10
2845.549029
20
1211.793106
30
0.0
11
2842.393285
21
1214.948851
31
0.0
0
LINE
8
0
10
2830.021395
20
1227.320741
30
0.0
11
2828.521395
21
1228.820741
31
0.0
0
LINE
8
0
10
2832.866905
20
1224.475231
30
0.0
11
2830.866905
21
1226.475231
31
0.0
0
LINE
8
0
10
2845.153373
20
1214.433826
30
0.0
11
2844.175304
21
1215.411895
31
0.0
0
LINE
8
0
10
2830.021395
20
1229.565805
30
0.0
11
2828.521395
21
1231.065805
31
0.0
0
LINE
8
0
10
2835.111969
20
1224.475231
30
0.0
11
2833.111969
21
1226.475231
31
0.0
0
LINE
8
0
10
2837.357033
20
1224.475231
30
0.0
11
2835.357033
21
1226.475231
31
0.0
0
LINE
8
0
10
2831.521395
20
1230.310869
30
0.0
11
2830.357033
21
1231.475231
31
0.0
0
LINE
8
0
10
2842.802097
20
1221.275231
30
0.0
11
2840.160745
21
1223.916583
31
0.0
0
LINE
8
0
10
2839.713970
20
1224.363357
30
0.0
11
2837.412989
21
1226.664338
31
0.0
0
LINE
8
0
10
2845.756236
20
1220.566156
30
0.0
11
2839.847161
21
1226.475231
31
0.0
0
LINE
8
0
10
2836.347161
20
1229.975231
30
0.0
11
2836.021395
21
1230.300997
31
0.0
0
LINE
8
0
10
2839.021395
20
1227.300997
30
0.0
11
2837.521395
21
1228.800997
31
0.0
0
LINE
8
0
10
2845.610716
20
1222.956740
30
0.0
11
2844.464755
21
1224.102701
31
0.0
0
LINE
8
0
10
2839.021395
20
1229.546061
30
0.0
11
2837.092225
21
1231.475231
31
0.0
0
LINE
8
0
10
2828.288418
20
1224.475231
30
0.0
11
2839.254372
21
1224.475231
31
0.0
0
ARC
8
0
10
2839.254372
20
1223.475231
30
0.0
40
1.000000
50
33.240000
51
90.000000
0
LINE
8
0
10
2840.090753
20
1224.023378
30
0.0
11
2841.595697
21
1221.727083
31
0.0
0
ARC
8
0
10
2842.432079
20
1222.275231
30
0.0
40
1.000000
50
213.240000
51
270.000000
0
LINE
8
0
10
2842.432079
20
1221.275231
30
0.0
11
2843.165025
21
1221.275231
31
0.0
0
ARC
8
0
10
2843.165025
20
1220.475231
30
0.0
40
0.800000
50
59.960294
51
90.000000
0
LINE
8
0
10
2843.565505
20
1221.167773
30
0.0
11
2845.066544
21
1220.299761
31
0.0
0
LINE
8
0
10
2845.066544
20
1220.299761
30
0.0
11
2845.162515
21
1220.275231
31
0.0
0
LINE
8
0
10
2845.162515
20
1220.275231
30
0.0
11
2845.371395
21
1220.275231
31
0.0
0
ARC
8
0
10
2845.371395
20
1220.675231
30
0.0
40
0.400000
50
270.000000
51
0.000000
0
LINE
8
0
10
2845.771395
20
1220.675231
30
0.0
11
2845.771395
21
1221.275231
31
0.0
0
LINE
8
0
10
2845.771395
20
1221.275231
30
0.0
11
2845.671395
21
1221.275231
31
0.0
0
LINE
8
0
10
2845.671395
20
1221.275231
30
0.0
11
2845.671395
21
1221.650231
31
0.0
0
ARC
8
0
10
2845.471395
20
1221.650231
30
0.0
40
0.200000
50
0.000000
51
90.000000
0
LINE
8
0
10
2845.471395
20
1221.850231
30
0.0
11
2845.311868
21
1221.850231
31
0.0
0
ARC
8
0
10
2845.021395
20
1222.375231
30
0.0
40
0.600000
50
180.000000
51
298.955024
0
ARC
8
0
10
2845.021395
20
1222.375231
30
0.0
40
0.600000
50
61.044976
51
180.000000
0
LINE
8
0
10
2845.311868
20
1222.900231
30
0.0
11
2845.471395
21
1222.900231
31
0.0
0
ARC
8
0
10
2845.471395
20
1223.100231
30
0.0
40
0.200000
50
270.000000
51
0.000000
0
LINE
8
0
10
2845.671395
20
1223.100231
30
0.0
11
2845.671395
21
1223.475231
31
0.0
0
LINE
8
0
10
2845.671395
20
1223.475231
30
0.0
11
2845.771395
21
1223.475231
31
0.0
0
LINE
8
0
10
2845.771395
20
1223.475231
30
0.0
11
2845.771395
21
1224.075231
31
0.0
0
ARC
8
0
10
2845.371395
20
1224.075231
30
0.0
40
0.400000
50
0.000000
51
90.000000
0
LINE
8
0
10
2845.371395
20
1224.475231
30
0.0
11
2845.162515
21
1224.475231
31
0.0
0
LINE
8
0
10
2845.162515
20
1224.475231
30
0.0
11
2845.066544
21
1224.450700
31
0.0
0
LINE
8
0
10
2845.066544
20
1224.450700
30
0.0
11
2843.535394
21
1223.565275
31
0.0
0
ARC
8
0
10
2843.199809
20
1224.145596
30
0.0
40
0.670365
50
213.390000
51
300.039706
0
LINE
8
0
10
2842.640092
20
1223.776670
30
0.0
11
2841.009588
21
1226.250398
31
0.0
0
ARC
8
0
10
2840.592116
20
1225.975231
30
0.0
40
0.500000
50
33.390000
51
90.000000
0
LINE
8
0
10
2840.592116
20
1226.475231
30
0.0
11
2839.521395
21
1226.475231
31
0.0
0
ARC
8
0
10
2839.521395
20
1226.975231
30
0.0
40
0.500000
50
180.000000
51
270.000000
0
LINE
8
0
10
2839.021395
20
1226.975231
30
0.0
11
2839.021395
21
1231.275231
31
0.0
0
ARC
8
0
10
2838.821395
20
1231.275231
30
0.0
40
0.200000
50
0.000000
51
90.000000
0
LINE
8
0
10
2838.821395
20
1231.475231
30
0.0
11
2836.221395
21
1231.475231
31
0.0
0
ARC
8
0
10
2836.221395
20
1231.275231
30
0.0
40
0.200000
50
90.000000
51
180.000000
0
LINE
8
0
10
2836.021395
20
1231.275231
30
0.0
11
2836.021395
21
1230.175231
31
0.0
0
ARC
8
0
10
2836.221395
20
1230.175231
30
0.0
40
0.200000
50
180.000000
51
270.000000
0
LINE
8
0
10
2836.221395
20
1229.975231
30
0.0
11
2837.321395
21
1229.975231
31
0.0
0
ARC
8
0
10
2837.321395
20
1229.775231
30
0.0
40
0.200000
50
0.000000
51
90.000000
0
LINE
8
0
10
2837.521395
20
1229.775231
30
0.0
11
2837.521395
21
1226.975231
31
0.0
0
ARC
8
0
10
2837.021395
20
1226.975231
30
0.0
40
0.500000
50
270.000000
51
0.000000
0
LINE
8
0
10
2837.021395
20
1226.475231
30
0.0
11
2833.771395
21
1226.475231
31
0.0
0
LINE
8
0
10
2833.771395
20
1226.475231
30
0.0
11
2830.521395
21
1226.475231
31
0.0
0
ARC
8
0
10
2830.521395
20
1226.975231
30
0.0
40
0.500000
50
180.000000
51
270.000000
0
LINE
8
0
10
2830.021395
20
1226.975231
30
0.0
11
2830.021395
21
1229.775231
31
0.0
0
ARC
8
0
10
2830.221395
20
1229.775231
30
0.0
40
0.200000
50
90.000000
51
180.000000
0
LINE
8
0
10
2830.221395
20
1229.975231
30
0.0
11
2831.321395
21
1229.975231
31
0.0
0
ARC
8
0
10
2831.321395
20
1230.175231
30
0.0
40
0.200000
50
270.000000
51
0.000000
0
LINE
8
0
10
2831.521395
20
1230.175231
30
0.0
11
2831.521395
21
1231.275231
31
0.0
0
ARC
8
0
10
2831.321395
20
1231.275231
30
0.0
40
0.200000
50
0.000000
51
90.000000
0
LINE
8
0
10
2831.321395
20
1231.475231
30
0.0
11
2828.721395
21
1231.475231
31
0.0
0
ARC
8
0
10
2828.721395
20
1231.275231
30
0.0
40
0.200000
50
90.000000
51
180.000000
0
LINE
8
0
10
2828.521395
20
1231.275231
30
0.0
11
2828.521395
21
1226.975231
31
0.0
0
ARC
8
0
10
2828.021395
20
1226.975231
30
0.0
40
0.500000
50
270.000000
51
0.000000
0
LINE
8
0
10
2828.021395
20
1226.475231
30
0.0
11
2826.950673
21
1226.475231
31
0.0
0
ARC
8
0
10
2826.950673
20
1225.975231
30
0.0
40
0.500000
50
90.000000
51
146.610000
0
LINE
8
0
10
2826.533201
20
1226.250398
30
0.0
11
2824.902698
21
1223.776670
31
0.0
0
ARC
8
0
10
2824.342980
20
1224.145596
30
0.0
40
0.670365
50
239.960294
51
326.610000
0
LINE
8
0
10
2824.007395
20
1223.565275
30
0.0
11
2822.476245
21
1224.450700
31
0.0
0
LINE
8
0
10
2822.476245
20
1224.450700
30
0.0
11
2822.380274
21
1224.475231
31
0.0
0
LINE
8
0
10
2822.380274
20
1224.475231
30
0.0
11
2822.171395
21
1224.475231
31
0.0
0
ARC
8
0
10
2822.171395
20
1224.075231
30
0.0
40
0.400000
50
90.000000
51
180.000000
0
LINE
8
0
10
2821.771395
20
1224.075231
30
0.0
11
2821.771395
21
1223.475231
31
0.0
0
LINE
8
0
10
2821.771395
20
1223.475231
30
0.0
11
2821.871395
21
1223.475231
31
0.0
0
LINE
8
0
10
2821.871395
20
1223.475231
30
0.0
11
2821.871395
21
1223.100231
31
0.0
0
ARC
8
0
10
2822.071395
20
1223.100231
30
0.0
40
0.200000
50
180.000000
51
270.000000
0
LINE
8
0
10
2822.071395
20
1222.900231
30
0.0
11
2822.230921
21
1222.900231
31
0.0
0
ARC
8
0
10
2822.521395
20
1222.375231
30
0.0
40
0.600000
50
0.000000
51
118.955024
0
ARC
8
0
10
2822.521395
20
1222.375231
30
0.0
40
0.600000
50
241.044976
51
0.000000
0
LINE
8
0
10
2822.230921
20
1221.850231
30
0.0
11
2822.071395
21
1221.850231
31
0.0
0
ARC
8
0
10
2822.071395
20
1221.650231
30
0.0
40
0.200000
50
90.000000
51
180.000000
0
LINE
8
0
10
2821.871395
20
1221.650231
30
0.0
11
2821.871395
21
1221.275231
31
0.0
0
LINE
8
0
10
2821.871395
20
1221.275231
30
0.0
11
2821.771395
21
1221.275231
31
0.0
0
LINE
8
0
10
2821.771395
20
1221.275231
30
0.0
11
2821.771395
21
1220.675231
31
0.0
0
ARC
8
0
10
2822.171395
20
1220.675231
30
0.0
40
0.400000
50
180.000000
51
270.000000
0
LINE
8
0
10
2822.171395
20
1220.275231
30
0.0
11
2822.380274
21
1220.275231
31
0.0
0
LINE
8
0
10
2822.380274
20
1220.275231
30
0.0
11
2822.476245
21
1220.299761
31
0.0
0
LINE
8
0
10
2822.476245
20
1220.299761
30
0.0
11
2823.977284
21
1221.167773
31
0.0
0
ARC
8
0
10
2824.377764
20
1220.475231
30
0.0
40
0.800000
50
90.000000
51
120.039706
0
LINE
8
0
10
2824.377764
20
1221.275231
30
0.0
11
2825.110710
21
1221.275231
31
0.0
0
ARC
8
0
10
2825.110710
20
1222.275231
30
0.0
40
1.000000
50
270.000000
51
326.760000
0
LINE
8
0
10
2825.947092
20
1221.727083
30
0.0
11
2827.452036
21
1224.023378
31
0.0
0
ARC
8
0
10
2828.288418
20
1223.475231
30
0.0
40
1.000000
50
90.000000
51
146.760000
0
ARC
8
0
10
2826.946604
20
1210.249454
30
0.0
40
0.500000
50
213.390000
51
270.000000
0
LINE
8
0
10
2826.946604
20
1209.749454
30
0.0
11
2833.767326
21
1209.749454
31
0.0
0
LINE
8
0
10
2833.767326
20
1209.749454
30
0.0
11
2840.588047
21
1209.749454
31
0.0
0
ARC
8
0
10
2840.588047
20
1210.249454
30
0.0
40
0.500000
50
270.000000
51
326.610000
0
LINE
8
0
10
2841.005519
20
1209.974286
30
0.0
11
2842.636023
21
1212.448014
31
0.0
0
ARC
8
0
10
2843.195740
20
1212.079089
30
0.0
40
0.670365
50
59.960294
51
146.610000
0
LINE
8
0
10
2843.531325
20
1212.659410
30
0.0
11
2845.062476
21
1211.773984
31
0.0
0
LINE
8
0
10
2845.062476
20
1211.773984
30
0.0
11
2845.158446
21
1211.749454
31
0.0
0
LINE
8
0
10
2845.158446
20
1211.749454
30
0.0
11
2845.367326
21
1211.749454
31
0.0
0
ARC
8
0
10
2845.367326
20
1212.149454
30
0.0
40
0.400000
50
270.000000
51
0.000000
0
LINE
8
0
10
2845.767326
20
1212.149454
30
0.0
11
2845.767326
21
1212.749454
31
0.0
0
LINE
8
0
10
2845.767326
20
1212.749454
30
0.0
11
2845.667326
21
1212.749454
31
0.0
0
LINE
8
0
10
2845.667326
20
1212.749454
30
0.0
11
2845.667326
21
1213.124454
31
0.0
0
ARC
8
0
10
2845.467326
20
1213.124454
30
0.0
40
0.200000
50
0.000000
51
90.000000
0
LINE
8
0
10
2845.467326
20
1213.324454
30
0.0
11
2845.307800
21
1213.324454
31
0.0
0
ARC
8
0
10
2845.017326
20
1213.849454
30
0.0
40
0.600000
50
180.000000
51
298.955024
0
ARC
8
0
10
2845.017326
20
1213.849454
30
0.0
40
0.600000
50
61.044976
51
180.000000
0
LINE
8
0
10
2845.307800
20
1214.374454
30
0.0
11
2845.467326
21
1214.374454
31
0.0
0
ARC
8
0
10
2845.467326
20
1214.574454
30
0.0
40
0.200000
50
270.000000
51
0.000000
0
LINE
8
0
10
2845.667326
20
1214.574454
30
0.0
11
2845.667326
21
1214.949454
31
0.0
0
LINE
8
0
10
2845.667326
20
1214.949454
30
0.0
11
2845.767326
21
1214.949454
31
0.0
0
LINE
8
0
10
2845.767326
20
1214.949454
30
0.0
11
2845.767326
21
1215.549454
31
0.0
0
ARC
8
0
10
2845.367326
20
1215.549454
30
0.0
40
0.400000
50
0.000000
51
90.000000
0
LINE
8
0
10
2845.367326
20
1215.949454
30
0.0
11
2845.158446
21
1215.949454
31
0.0
0
LINE
8
0
10
2845.158446
20
1215.949454
30
0.0
11
2845.062476
21
1215.924924
31
0.0
0
LINE
8
0
10
2845.062476
20
1215.924924
30
0.0
11
2843.561437
21
1215.056911
31
0.0
0
ARC
8
0
10
2843.160957
20
1215.749454
30
0.0
40
0.800000
50
270.000000
51
300.039706
0
LINE
8
0
10
2843.160957
20
1214.949454
30
0.0
11
2842.428010
21
1214.949454
31
0.0
0
ARC
8
0
10
2842.428010
20
1213.949454
30
0.0
40
1.000000
50
90.000000
51
146.760000
0
LINE
8
0
10
2841.591628
20
1214.497601
30
0.0
11
2840.086685
21
1212.201307
31
0.0
0
ARC
8
0
10
2839.250303
20
1212.749454
30
0.0
40
1.000000
50
270.000000
51
326.760000
0
LINE
8
0
10
2839.250303
20
1211.749454
30
0.0
11
2833.767326
21
1211.749454
31
0.0
0
LINE
8
0
10
2833.767326
20
1211.749454
30
0.0
11
2828.434910
21
1211.749454
31
0.0
0
LINE
8
0
10
2828.434910
20
1211.749454
30
0.0
11
2828.284349
21
1211.749454
31
0.0
0
ARC
8
0
10
2828.284349
20
1212.749454
30
0.0
40
1.000000
50
213.240000
51
270.000000
0
LINE
8
0
10
2827.447967
20
1212.201307
30
0.0
11
2825.943023
21
1214.497601
31
0.0
0
ARC
8
0
10
2825.106642
20
1213.949454
30
0.0
40
1.000000
50
33.240000
51
90.000000
0
LINE
8
0
10
2825.106642
20
1214.949454
30
0.0
11
2824.373695
21
1214.949454
31
0.0
0
ARC
8
0
10
2824.373695
20
1215.749454
30
0.0
40
0.800000
50
239.960294
51
270.000000
0
LINE
8
0
10
2823.973215
20
1215.056911
30
0.0
11
2822.472176
21
1215.924924
31
0.0
0
LINE
8
0
10
2822.472176
20
1215.924924
30
0.0
11
2822.376206
21
1215.949454
31
0.0
0
LINE
8
0
10
2822.376206
20
1215.949454
30
0.0
11
2822.167326
21
1215.949454
31
0.0
0
ARC
8
0
10
2822.167326
20
1215.549454
30
0.0
40
0.400000
50
90.000000
51
180.000000
0
LINE
8
0
10
2821.767326
20
1215.549454
30
0.0
11
2821.767326
21
1214.949454
31
0.0
0
LINE
8
0
10
2821.767326
20
1214.949454
30
0.0
11
2821.867326
21
1214.949454
31
0.0
0
LINE
8
0
10
2821.867326
20
1214.949454
30
0.0
11
2821.867326
21
1214.574454
31
0.0
0
ARC
8
0
10
2822.067326
20
1214.574454
30
0.0
40
0.200000
50
180.000000
51
270.000000
0
LINE
8
0
10
2822.067326
20
1214.374454
30
0.0
11
2822.226852
21
1214.374454
31
0.0
0
ARC
8
0
10
2822.517326
20
1213.849454
30
0.0
40
0.600000
50
0.000000
51
118.955024
0
ARC
8
0
10
2822.517326
20
1213.849454
30
0.0
40
0.600000
50
241.044976
51
0.000000
0
LINE
8
0
10
2822.226852
20
1213.324454
30
0.0
11
2822.067326
21
1213.324454
31
0.0
0
ARC
8
0
10
2822.067326
20
1213.124454
30
0.0
40
0.200000
50
90.000000
51
180.000000
0
LINE
8
0
10
2821.867326
20
1213.124454
30
0.0
11
2821.867326
21
1212.749454
31
0.0
0
LINE
8
0
10
2821.867326
20
1212.749454
30
0.0
11
2821.767326
21
1212.749454
31
0.0
0
LINE
8
0
10
2821.767326
20
1212.749454
30
0.0
11
2821.767326
21
1212.149454
31
0.0
0
ARC
8
0
10
2822.167326
20
1212.149454
30
0.0
40
0.400000
50
180.000000
51
270.000000
0
LINE
8
0
10
2822.167326
20
1211.749454
30
0.0
11
2822.376206
21
1211.749454
31
0.0
0
LINE
8
0
10
2822.376206
20
1211.749454
30
0.0
11
2822.472176
21
1211.773984
31
0.0
0
LINE
8
0
10
2822.472176
20
1211.773984
30
0.0
11
2824.003327
21
1212.659410
31
0.0
0
ARC
8
0
10
2824.338912
20
1212.079089
30
0.0
40
0.670365
50
33.390000
51
120.039706
0
LINE
8
0
10
2824.898629
20
1212.448014
30
0.0
11
2826.529133
21
1209.974286
31
0.0
0
ATTDEF
8
0
10
2821.771826
20
1231.612700
30
0.0
40
3.5
1

3

2
VC_START
70
0
0
ATTDEF
8
0
10
2847.571527
20
1197.612700
30
0.0
40
3.5
1

3

2
VC_END
70
0
0
ATTDEF
8
0
10
2847.571527
20
1197.612700
30
0.0
40
3.5
1

3

2
FP_LCS_ORIG
70
0
0
ATTDEF
8
0
10
2837.571527
20
1197.612700
30
0.0
40
3.5
1

3

2
FP_LCS_HOT
70
0
0
ATTDEF
8
0
10
2847.571527
20
1207.612700
30
0.0
40
3.5
1

3

2
FP_LCS_INTERN
70
0
0
ATTDEF
8
0
10
0.000000
20
0.000000
30
0.0
40
3.5
1

3

2
PANE_WIDTH:0
70
0
0
ATTDEF
8
0
10
0.000000
20
0.000000
30
0.0
40
3.5
1

3

2
MIN_VETRO:0
70
0
0
ATTDEF
8
0
10
0.000000
20
0.000000
30
0.0
40
3.5
1

3

2
MAX_VETRO:0
70
0
0
ATTDEF
8
0
10
0.000000
20
0.000000
30
0.0
40
3.5
1

3

2
JX:0
70
0
0
ATTDEF
8
0
10
0.000000
20
0.000000
30
0.0
40
3.5
1

3

2
WX:0
70
0
0
ATTDEF
8
0
10
0.000000
20
0.000000
30
0.0
40
3.5
1

3

2
JY:0
70
0
0
ATTDEF
8
0
10
0.000000
20
0.000000
30
0.0
40
3.5
1

3

2
WY:0
70
0
0
ATTDEF
8
0
10
0.000000
20
0.000000
30
0.0
40
3.5
1

3

2
DESC:Marco ventana alto
70
0
0
ATTDEF
8
0
10
0.000000
20
0.000000
30
0.0
40
3.5
1

3

2
DENS:1.1302
70
0
0
ATTDEF
8
0
10
0.000000
20
0.000000
30
0.0
40
3.5
1

3

2
TDEV:42.84
70
0
0
ATTDEF
8
0
10
0.000000
20
0.000000
30
0.0
40
3.5
1

3

2
TDEV2:0
70
0
0
ATTDEF
8
0
10
0.000000
20
0.000000
30
0.0
40
3.5
1

3

2
TDEV3:0
70
0
0
ATTDEF
8
0
10
0.000000
20
0.000000
30
0.0
40
3.5
1

3

2
TDEV4:0
70
0
0
ATTDEF
8
0
10
0.000000
20
0.000000
30
0.0
40
3.5
1

3

2
TDEV5:0
70
0
0
ATTDEF
8
0
10
0.000000
20
0.000000
30
0.0
40
3.5
1

3

2
PANE_WIDTH:0
70
0
0
ATTDEF
8
0
10
0.000000
20
0.000000
30
0.0
40
3.5
1

3

2
MIN_VETRO:0
70
0
0
ATTDEF
8
0
10
0.000000
20
0.000000
30
0.0
40
3.5
1

3

2
MAX_VETRO:0
70
0
0
ATTDEF
8
0
10
0.000000
20
0.000000
30
0.0
40
3.5
1

3

2
JX:0
70
0
0
ATTDEF
8
0
10
0.000000
20
0.000000
30
0.0
40
3.5
1

3

2
WX:0
70
0
0
ATTDEF
8
0
10
0.000000
20
0.000000
30
0.0
40
3.5
1

3

2
JY:0
70
0
0
ATTDEF
8
0
10
0.000000
20
0.000000
30
0.0
40
3.5
1

3

2
WY:0
70
0
0
ENDSEC
0
EOF
