0
SECTION
2
ENTITIES
0
ARC
8
0
10
3450.910898
20
1272.955044
30
0.0
40
0.600000
50
0.000000
51
180.000000
0
ARC
8
0
10
3450.910898
20
1272.955044
30
0.0
40
0.600000
50
180.000000
51
0.000000
0
ARC
8
0
10
3420.410898
20
1272.955044
30
0.0
40
0.600000
50
0.000000
51
180.000000
0
ARC
8
0
10
3420.410898
20
1272.955044
30
0.0
40
0.600000
50
180.000000
51
0.000000
0
ARC
8
0
10
3450.910898
20
1211.566950
30
0.0
40
0.600000
50
0.000000
51
180.000000
0
ARC
8
0
10
3450.910898
20
1211.566950
30
0.0
40
0.600000
50
180.000000
51
0.000000
0
ARC
8
0
10
3420.410898
20
1211.566950
30
0.0
40
0.600000
50
0.000000
51
180.000000
0
ARC
8
0
10
3420.410898
20
1211.566950
30
0.0
40
0.600000
50
180.000000
51
0.000000
0
LINE
8
0
10
3420.269177
20
1210.983928
30
0.0
11
3419.827875
21
1211.425230
31
0.0
0
LINE
8
0
10
3420.460849
20
1210.969033
30
0.0
11
3419.812981
21
1211.616901
31
0.0
0
LINE
8
0
10
3420.606819
20
1210.999839
30
0.0
11
3419.843787
21
1211.762871
31
0.0
0
LINE
8
0
10
3420.726670
20
1211.056766
30
0.0
11
3419.900713
21
1211.882722
31
0.0
0
LINE
8
0
10
3420.826252
20
1211.133960
30
0.0
11
3419.977907
21
1211.982304
31
0.0
0
LINE
8
0
10
3420.907204
20
1211.229785
30
0.0
11
3420.073733
21
1212.063256
31
0.0
0
LINE
8
0
10
3420.968459
20
1211.345306
30
0.0
11
3420.189254
21
1212.124511
31
0.0
0
LINE
8
0
10
3421.005307
20
1211.485235
30
0.0
11
3420.329182
21
1212.161360
31
0.0
0
LINE
8
0
10
3421.002934
20
1211.664385
30
0.0
11
3420.508333
21
1212.158986
31
0.0
0
LINE
8
0
10
3450.611992
20
1211.046705
30
0.0
11
3450.390653
21
1211.268044
31
0.0
0
LINE
8
0
10
3450.866908
20
1210.968565
30
0.0
11
3450.312513
21
1211.522961
31
0.0
0
LINE
8
0
10
3451.032788
20
1210.979462
30
0.0
11
3450.323409
21
1211.688841
31
0.0
0
LINE
8
0
10
3451.165418
20
1211.023609
30
0.0
11
3450.367557
21
1211.821470
31
0.0
0
LINE
8
0
10
3451.275425
20
1211.090379
30
0.0
11
3450.434327
21
1211.931477
31
0.0
0
LINE
8
0
10
3451.366292
20
1211.176288
30
0.0
11
3450.520236
21
1212.022344
31
0.0
0
LINE
8
0
10
3451.438369
20
1211.280988
30
0.0
11
3450.624936
21
1212.094421
31
0.0
0
LINE
8
0
10
3451.489174
20
1211.406960
30
0.0
11
3450.750907
21
1212.145226
31
0.0
0
LINE
8
0
10
3451.510878
20
1211.562032
30
0.0
11
3450.905980
21
1212.166930
31
0.0
0
LINE
8
0
10
3451.473073
20
1211.776614
30
0.0
11
3451.120561
21
1212.129126
31
0.0
0
LINE
8
0
10
3420.202055
20
1272.392563
30
0.0
11
3419.848417
21
1272.746201
31
0.0
0
LINE
8
0
10
3420.416327
20
1272.355068
30
0.0
11
3419.810922
21
1272.960473
31
0.0
0
LINE
8
0
10
3420.571292
20
1272.376880
30
0.0
11
3419.832734
21
1273.115438
31
0.0
0
LINE
8
0
10
3420.697194
20
1272.427754
30
0.0
11
3419.883608
21
1273.241340
31
0.0
0
LINE
8
0
10
3420.801837
20
1272.499888
30
0.0
11
3419.955742
21
1273.345983
31
0.0
0
LINE
8
0
10
3420.887693
20
1272.590809
30
0.0
11
3420.046663
21
1273.431839
31
0.0
0
LINE
8
0
10
3420.954403
20
1272.700875
30
0.0
11
3420.156729
21
1273.498549
31
0.0
0
LINE
8
0
10
3420.998475
20
1272.833580
30
0.0
11
3420.289434
21
1273.542621
31
0.0
0
LINE
8
0
10
3421.009242
20
1272.999590
30
0.0
11
3420.455444
21
1273.553388
31
0.0
0
LINE
8
0
10
3420.930443
20
1273.255166
30
0.0
11
3420.711020
21
1273.474589
31
0.0
0
LINE
8
0
10
3450.814080
20
1272.362907
30
0.0
11
3450.318761
21
1272.858226
31
0.0
0
LINE
8
0
10
3450.993066
20
1272.360697
30
0.0
11
3450.316551
21
1273.037212
31
0.0
0
LINE
8
0
10
3451.132910
20
1272.397630
30
0.0
11
3450.353484
21
1273.177056
31
0.0
0
LINE
8
0
10
3451.248370
20
1272.458947
30
0.0
11
3450.414801
21
1273.292516
31
0.0
0
LINE
8
0
10
3451.344141
20
1272.539953
30
0.0
11
3450.495807
21
1273.388287
31
0.0
0
LINE
8
0
10
3451.421279
20
1272.639591
30
0.0
11
3450.595445
21
1273.465425
31
0.0
0
LINE
8
0
10
3451.478141
20
1272.759506
30
0.0
11
3450.715360
21
1273.522287
31
0.0
0
LINE
8
0
10
3451.508855
20
1272.905569
30
0.0
11
3450.861423
21
1273.553001
31
0.0
0
LINE
8
0
10
3451.493754
20
1273.097446
30
0.0
11
3451.053300
21
1273.537900
31
0.0
0
LINE
8
0
10
3419.819656
20
1273.538443
30
0.0
11
3420.964891
21
1274.683678
31
0.0
0
LINE
8
0
10
3419.675225
20
1271.148948
30
0.0
11
3422.483102
21
1273.956825
31
0.0
0
LINE
8
0
10
3422.726385
20
1271.955044
30
0.0
11
3424.726385
21
1273.955044
31
0.0
0
LINE
8
0
10
3424.971449
20
1271.955044
30
0.0
11
3426.971449
21
1273.955044
31
0.0
0
LINE
8
0
10
3427.216513
20
1271.955044
30
0.0
11
3429.216513
21
1273.955044
31
0.0
0
LINE
8
0
10
3429.461577
20
1271.955044
30
0.0
11
3431.461577
21
1273.955044
31
0.0
0
LINE
8
0
10
3431.706641
20
1271.955044
30
0.0
11
3433.706641
21
1273.955044
31
0.0
0
LINE
8
0
10
3433.951705
20
1271.955044
30
0.0
11
3435.951705
21
1273.955044
31
0.0
0
LINE
8
0
10
3436.196769
20
1271.955044
30
0.0
11
3438.196769
21
1273.955044
31
0.0
0
LINE
8
0
10
3438.441833
20
1271.955044
30
0.0
11
3440.441833
21
1273.955044
31
0.0
0
LINE
8
0
10
3440.686897
20
1271.955044
30
0.0
11
3442.686897
21
1273.955044
31
0.0
0
LINE
8
0
10
3442.931961
20
1271.955044
30
0.0
11
3444.931961
21
1273.955044
31
0.0
0
LINE
8
0
10
3445.177025
20
1271.955044
30
0.0
11
3447.177025
21
1273.955044
31
0.0
0
LINE
8
0
10
3447.422089
20
1271.955044
30
0.0
11
3449.869076
21
1274.402030
31
0.0
0
LINE
8
0
10
3449.457684
20
1271.745575
30
0.0
11
3450.382643
21
1272.670533
31
0.0
0
LINE
8
0
10
3451.198625
20
1273.486516
30
0.0
11
3451.560898
21
1273.848789
31
0.0
0
LINE
8
0
10
3450.880998
20
1270.923824
30
0.0
11
3451.660898
21
1271.703725
31
0.0
0
LINE
8
0
10
3419.660898
20
1212.762956
30
0.0
11
3420.475866
21
1213.577924
31
0.0
0
LINE
8
0
10
3419.760898
20
1210.617892
30
0.0
11
3420.163387
21
1211.020381
31
0.0
0
LINE
8
0
10
3420.957467
20
1211.814462
30
0.0
11
3421.899179
21
1212.756173
31
0.0
0
LINE
8
0
10
3421.583593
20
1210.195523
30
0.0
11
3423.955020
21
1212.566950
31
0.0
0
LINE
8
0
10
3424.200084
20
1210.566950
30
0.0
11
3426.200084
21
1212.566950
31
0.0
0
LINE
8
0
10
3426.445148
20
1210.566950
30
0.0
11
3428.445148
21
1212.566950
31
0.0
0
LINE
8
0
10
3428.690212
20
1210.566950
30
0.0
11
3430.690212
21
1212.566950
31
0.0
0
LINE
8
0
10
3430.935276
20
1210.566950
30
0.0
11
3432.935276
21
1212.566950
31
0.0
0
LINE
8
0
10
3433.180340
20
1210.566950
30
0.0
11
3435.180340
21
1212.566950
31
0.0
0
LINE
8
0
10
3435.425404
20
1210.566950
30
0.0
11
3437.425404
21
1212.566950
31
0.0
0
LINE
8
0
10
3437.670468
20
1210.566950
30
0.0
11
3439.670468
21
1212.566950
31
0.0
0
LINE
8
0
10
3439.915532
20
1210.566950
30
0.0
11
3441.915532
21
1212.566950
31
0.0
0
LINE
8
0
10
3442.160596
20
1210.566950
30
0.0
11
3444.160596
21
1212.566950
31
0.0
0
LINE
8
0
10
3444.405660
20
1210.566950
30
0.0
11
3446.405660
21
1212.566950
31
0.0
0
LINE
8
0
10
3446.650724
20
1210.566950
30
0.0
11
3448.650724
21
1212.566950
31
0.0
0
LINE
8
0
10
3448.890094
20
1210.561256
30
0.0
11
3451.656295
21
1213.327457
31
0.0
0
LINE
8
0
10
3450.391972
20
1209.818070
30
0.0
11
3451.527101
21
1210.953199
31
0.0
0
LINE
8
0
10
3421.449177
20
1210.117918
30
0.0
11
3420.576763
21
1210.990332
31
0.0
0
LINE
8
0
10
3423.245208
20
1210.566950
30
0.0
11
3420.145208
21
1213.666950
31
0.0
0
LINE
8
0
10
3425.490272
20
1210.566950
30
0.0
11
3423.490272
21
1212.566950
31
0.0
0
LINE
8
0
10
3427.735336
20
1210.566950
30
0.0
11
3425.735336
21
1212.566950
31
0.0
0
LINE
8
0
10
3429.980400
20
1210.566950
30
0.0
11
3427.980400
21
1212.566950
31
0.0
0
LINE
8
0
10
3432.225464
20
1210.566950
30
0.0
11
3430.225464
21
1212.566950
31
0.0
0
LINE
8
0
10
3434.470528
20
1210.566950
30
0.0
11
3432.470528
21
1212.566950
31
0.0
0
LINE
8
0
10
3436.715593
20
1210.566950
30
0.0
11
3434.715593
21
1212.566950
31
0.0
0
LINE
8
0
10
3438.960657
20
1210.566950
30
0.0
11
3436.960657
21
1212.566950
31
0.0
0
LINE
8
0
10
3441.205721
20
1210.566950
30
0.0
11
3439.205721
21
1212.566950
31
0.0
0
LINE
8
0
10
3443.450785
20
1210.566950
30
0.0
11
3441.450785
21
1212.566950
31
0.0
0
LINE
8
0
10
3445.695849
20
1210.566950
30
0.0
11
3443.695849
21
1212.566950
31
0.0
0
LINE
8
0
10
3447.940913
20
1210.566950
30
0.0
11
3445.940913
21
1212.566950
31
0.0
0
LINE
8
0
10
3451.285236
20
1209.467691
30
0.0
11
3448.185977
21
1212.566950
31
0.0
0
LINE
8
0
10
3450.835764
20
1212.162227
30
0.0
11
3449.941969
21
1213.056022
31
0.0
0
LINE
8
0
10
3420.960151
20
1271.223672
30
0.0
11
3419.815962
21
1272.367861
31
0.0
0
LINE
8
0
10
3422.476031
20
1271.952856
30
0.0
11
3419.673650
21
1274.755238
31
0.0
0
LINE
8
0
10
3424.718907
20
1271.955044
30
0.0
11
3422.718907
21
1273.955044
31
0.0
0
LINE
8
0
10
3426.963971
20
1271.955044
30
0.0
11
3424.963971
21
1273.955044
31
0.0
0
LINE
8
0
10
3429.209035
20
1271.955044
30
0.0
11
3427.209035
21
1273.955044
31
0.0
0
LINE
8
0
10
3431.454099
20
1271.955044
30
0.0
11
3429.454099
21
1273.955044
31
0.0
0
LINE
8
0
10
3433.699164
20
1271.955044
30
0.0
11
3431.699164
21
1273.955044
31
0.0
0
LINE
8
0
10
3435.944228
20
1271.955044
30
0.0
11
3433.944228
21
1273.955044
31
0.0
0
LINE
8
0
10
3438.189292
20
1271.955044
30
0.0
11
3436.189292
21
1273.955044
31
0.0
0
LINE
8
0
10
3440.434356
20
1271.955044
30
0.0
11
3438.434356
21
1273.955044
31
0.0
0
LINE
8
0
10
3442.679420
20
1271.955044
30
0.0
11
3440.679420
21
1273.955044
31
0.0
0
LINE
8
0
10
3444.924484
20
1271.955044
30
0.0
11
3442.924484
21
1273.955044
31
0.0
0
LINE
8
0
10
3447.169548
20
1271.955044
30
0.0
11
3445.169548
21
1273.955044
31
0.0
0
LINE
8
0
10
3449.851384
20
1271.518272
30
0.0
11
3447.414612
21
1273.955044
31
0.0
0
LINE
8
0
10
3451.560898
20
1272.053822
30
0.0
11
3451.192770
21
1272.421950
31
0.0
0
LINE
8
0
10
3450.380044
20
1273.234676
30
0.0
11
3449.452943
21
1274.161776
31
0.0
0
LINE
8
0
10
3451.660898
20
1274.198886
30
0.0
11
3450.876257
21
1274.983527
31
0.0
0
ARC
8
0
10
3422.548462
20
1270.755044
30
0.0
40
1.200000
50
90.000000
51
120.000000
0
LINE
8
0
10
3422.548462
20
1271.955044
30
0.0
11
3448.773333
21
1271.955044
31
0.0
0
ARC
8
0
10
3448.773333
20
1270.755044
30
0.0
40
1.200000
50
60.000000
51
90.000000
0
LINE
8
0
10
3449.373333
20
1271.794274
30
0.0
11
3450.953718
21
1270.881839
31
0.0
0
ARC
8
0
10
3451.053718
20
1271.055044
30
0.0
40
0.200000
50
240.000000
51
270.000000
0
LINE
8
0
10
3451.053718
20
1270.855044
30
0.0
11
3451.260898
21
1270.855044
31
0.0
0
ARC
8
0
10
3451.260898
20
1271.255044
30
0.0
40
0.400000
50
270.000000
51
0.000000
0
LINE
8
0
10
3451.660898
20
1271.255044
30
0.0
11
3451.660898
21
1271.855044
31
0.0
0
LINE
8
0
10
3451.660898
20
1271.855044
30
0.0
11
3451.560898
21
1271.855044
31
0.0
0
LINE
8
0
10
3451.560898
20
1271.855044
30
0.0
11
3451.560898
21
1272.230044
31
0.0
0
ARC
8
0
10
3451.360898
20
1272.230044
30
0.0
40
0.200000
50
0.000000
51
90.000000
0
LINE
8
0
10
3451.360898
20
1272.430044
30
0.0
11
3451.249092
21
1272.430044
31
0.0
0
LINE
8
0
10
3451.249092
20
1272.430044
30
0.0
11
3451.164543
21
1272.411294
31
0.0
0
ARC
8
0
10
3450.910898
20
1272.955044
30
0.0
40
0.600000
50
64.992167
51
295.007833
0
LINE
8
0
10
3451.164543
20
1273.498794
30
0.0
11
3451.249092
21
1273.480044
31
0.0
0
LINE
8
0
10
3451.249092
20
1273.480044
30
0.0
11
3451.360898
21
1273.480044
31
0.0
0
ARC
8
0
10
3451.360898
20
1273.680044
30
0.0
40
0.200000
50
270.000000
51
0.000000
0
LINE
8
0
10
3451.560898
20
1273.680044
30
0.0
11
3451.560898
21
1274.055044
31
0.0
0
LINE
8
0
10
3451.560898
20
1274.055044
30
0.0
11
3451.660898
21
1274.055044
31
0.0
0
LINE
8
0
10
3451.660898
20
1274.055044
30
0.0
11
3451.660898
21
1274.655044
31
0.0
0
ARC
8
0
10
3451.260898
20
1274.655044
30
0.0
40
0.400000
50
0.000000
51
90.000000
0
LINE
8
0
10
3451.260898
20
1275.055044
30
0.0
11
3451.053718
21
1275.055044
31
0.0
0
ARC
8
0
10
3451.053718
20
1274.855044
30
0.0
40
0.200000
50
90.000000
51
120.000000
0
LINE
8
0
10
3450.953718
20
1275.028249
30
0.0
11
3449.373333
21
1274.115813
31
0.0
0
ARC
8
0
10
3448.773333
20
1275.155044
30
0.0
40
1.200000
50
270.000000
51
300.000000
0
LINE
8
0
10
3448.773333
20
1273.955044
30
0.0
11
3422.548462
21
1273.955044
31
0.0
0
ARC
8
0
10
3422.548462
20
1275.155044
30
0.0
40
1.200000
50
240.000000
51
270.000000
0
LINE
8
0
10
3421.948462
20
1274.115813
30
0.0
11
3420.368078
21
1275.028249
31
0.0
0
ARC
8
0
10
3420.268078
20
1274.855044
30
0.0
40
0.200000
50
60.000000
51
90.000000
0
LINE
8
0
10
3420.268078
20
1275.055044
30
0.0
11
3420.060898
21
1275.055044
31
0.0
0
ARC
8
0
10
3420.060898
20
1274.655044
30
0.0
40
0.400000
50
90.000000
51
180.000000
0
LINE
8
0
10
3419.660898
20
1274.655044
30
0.0
11
3419.660898
21
1274.055044
31
0.0
0
LINE
8
0
10
3419.660898
20
1274.055044
30
0.0
11
3419.760898
21
1274.055044
31
0.0
0
LINE
8
0
10
3419.760898
20
1274.055044
30
0.0
11
3419.760898
21
1273.680044
31
0.0
0
ARC
8
0
10
3419.960898
20
1273.680044
30
0.0
40
0.200000
50
180.000000
51
270.000000
0
LINE
8
0
10
3419.960898
20
1273.480044
30
0.0
11
3420.072704
21
1273.480044
31
0.0
0
LINE
8
0
10
3420.072704
20
1273.480044
30
0.0
11
3420.157253
21
1273.498794
31
0.0
0
ARC
8
0
10
3420.410898
20
1272.955044
30
0.0
40
0.600000
50
244.992167
51
115.007833
0
LINE
8
0
10
3420.157253
20
1272.411294
30
0.0
11
3420.072704
21
1272.430044
31
0.0
0
LINE
8
0
10
3420.072704
20
1272.430044
30
0.0
11
3419.960898
21
1272.430044
31
0.0
0
ARC
8
0
10
3419.960898
20
1272.230044
30
0.0
40
0.200000
50
90.000000
51
180.000000
0
LINE
8
0
10
3419.760898
20
1272.230044
30
0.0
11
3419.760898
21
1271.855044
31
0.0
0
LINE
8
0
10
3419.760898
20
1271.855044
30
0.0
11
3419.660898
21
1271.855044
31
0.0
0
LINE
8
0
10
3419.660898
20
1271.855044
30
0.0
11
3419.660898
21
1271.255044
31
0.0
0
ARC
8
0
10
3420.060898
20
1271.255044
30
0.0
40
0.400000
50
180.000000
51
270.000000
0
LINE
8
0
10
3420.060898
20
1270.855044
30
0.0
11
3420.268078
21
1270.855044
31
0.0
0
ARC
8
0
10
3420.268078
20
1271.055044
30
0.0
40
0.200000
50
270.000000
51
300.000000
0
LINE
8
0
10
3420.368078
20
1270.881839
30
0.0
11
3421.948462
21
1271.794274
31
0.0
0
ARC
8
0
10
3422.548462
20
1213.766950
30
0.0
40
1.200000
50
240.000000
51
270.000000
0
LINE
8
0
10
3422.548462
20
1212.566950
30
0.0
11
3448.773333
21
1212.566950
31
0.0
0
ARC
8
0
10
3448.773333
20
1213.766950
30
0.0
40
1.200000
50
270.000000
51
300.000000
0
LINE
8
0
10
3449.373333
20
1212.727720
30
0.0
11
3450.953718
21
1213.640155
31
0.0
0
ARC
8
0
10
3451.053718
20
1213.466950
30
0.0
40
0.200000
50
90.000000
51
120.000000
0
LINE
8
0
10
3451.053718
20
1213.666950
30
0.0
11
3451.260898
21
1213.666950
31
0.0
0
ARC
8
0
10
3451.260898
20
1213.266950
30
0.0
40
0.400000
50
0.000000
51
90.000000
0
LINE
8
0
10
3451.660898
20
1213.266950
30
0.0
11
3451.660898
21
1212.666950
31
0.0
0
LINE
8
0
10
3451.660898
20
1212.666950
30
0.0
11
3451.560898
21
1212.666950
31
0.0
0
LINE
8
0
10
3451.560898
20
1212.666950
30
0.0
11
3451.560898
21
1212.291950
31
0.0
0
ARC
8
0
10
3451.360898
20
1212.291950
30
0.0
40
0.200000
50
270.000000
51
0.000000
0
LINE
8
0
10
3451.360898
20
1212.091950
30
0.0
11
3451.249092
21
1212.091950
31
0.0
0
LINE
8
0
10
3451.164543
20
1212.110700
30
0.0
11
3451.249092
21
1212.091950
31
0.0
0
ARC
8
0
10
3450.910898
20
1211.566950
30
0.0
40
0.600000
50
64.992167
51
295.007833
0
LINE
8
0
10
3451.249092
20
1211.041950
30
0.0
11
3451.164543
21
1211.023200
31
0.0
0
LINE
8
0
10
3451.249092
20
1211.041950
30
0.0
11
3451.360898
21
1211.041950
31
0.0
0
ARC
8
0
10
3451.360898
20
1210.841950
30
0.0
40
0.200000
50
0.000000
51
90.000000
0
LINE
8
0
10
3451.560898
20
1210.841950
30
0.0
11
3451.560898
21
1210.466950
31
0.0
0
LINE
8
0
10
3451.560898
20
1210.466950
30
0.0
11
3451.660898
21
1210.466950
31
0.0
0
LINE
8
0
10
3451.660898
20
1210.466950
30
0.0
11
3451.660898
21
1209.866950
31
0.0
0
ARC
8
0
10
3451.260898
20
1209.866950
30
0.0
40
0.400000
50
270.000000
51
0.000000
0
LINE
8
0
10
3451.260898
20
1209.466950
30
0.0
11
3451.053718
21
1209.466950
31
0.0
0
ARC
8
0
10
3451.053718
20
1209.666950
30
0.0
40
0.200000
50
240.000000
51
270.000000
0
LINE
8
0
10
3450.953718
20
1209.493745
30
0.0
11
3449.373333
21
1210.406181
31
0.0
0
ARC
8
0
10
3448.773333
20
1209.366950
30
0.0
40
1.200000
50
60.000000
51
90.000000
0
LINE
8
0
10
3448.773333
20
1210.566950
30
0.0
11
3422.548462
21
1210.566950
31
0.0
0
ARC
8
0
10
3422.548462
20
1209.366950
30
0.0
40
1.200000
50
90.000000
51
120.000000
0
LINE
8
0
10
3421.948462
20
1210.406181
30
0.0
11
3420.368078
21
1209.493745
31
0.0
0
ARC
8
0
10
3420.268078
20
1209.666950
30
0.0
40
0.200000
50
270.000000
51
300.000000
0
LINE
8
0
10
3420.268078
20
1209.466950
30
0.0
11
3420.060898
21
1209.466950
31
0.0
0
ARC
8
0
10
3420.060898
20
1209.866950
30
0.0
40
0.400000
50
180.000000
51
270.000000
0
LINE
8
0
10
3419.660898
20
1209.866950
30
0.0
11
3419.660898
21
1210.466950
31
0.0
0
LINE
8
0
10
3419.660898
20
1210.466950
30
0.0
11
3419.760898
21
1210.466950
31
0.0
0
LINE
8
0
10
3419.760898
20
1210.466950
30
0.0
11
3419.760898
21
1210.841950
31
0.0
0
ARC
8
0
10
3419.960898
20
1210.841950
30
0.0
40
0.200000
50
90.000000
51
180.000000
0
LINE
8
0
10
3419.960898
20
1211.041950
30
0.0
11
3420.072704
21
1211.041950
31
0.0
0
LINE
8
0
10
3420.157253
20
1211.023200
30
0.0
11
3420.072704
21
1211.041950
31
0.0
0
ARC
8
0
10
3420.410898
20
1211.566950
30
0.0
40
0.600000
50
244.992167
51
115.007833
0
LINE
8
0
10
3420.072704
20
1212.091950
30
0.0
11
3420.157253
21
1212.110700
31
0.0
0
LINE
8
0
10
3420.072704
20
1212.091950
30
0.0
11
3419.960898
21
1212.091950
31
0.0
0
ARC
8
0
10
3419.960898
20
1212.291950
30
0.0
40
0.200000
50
180.000000
51
270.000000
0
LINE
8
0
10
3419.760898
20
1212.291950
30
0.0
11
3419.760898
21
1212.666950
31
0.0
0
LINE
8
0
10
3419.760898
20
1212.666950
30
0.0
11
3419.660898
21
1212.666950
31
0.0
0
LINE
8
0
10
3419.660898
20
1212.666950
30
0.0
11
3419.660898
21
1213.266950
31
0.0
0
ARC
8
0
10
3420.060898
20
1213.266950
30
0.0
40
0.400000
50
90.000000
51
180.000000
0
LINE
8
0
10
3420.060898
20
1213.666950
30
0.0
11
3420.268078
21
1213.666950
31
0.0
0
ARC
8
0
10
3420.268078
20
1213.466950
30
0.0
40
0.200000
50
60.000000
51
90.000000
0
LINE
8
0
10
3420.368078
20
1213.640155
30
0.0
11
3421.948462
21
1212.727720
31
0.0
0
LINE
8
0
10
3408.614132
20
1275.560997
30
0.0
11
3417.960898
21
1275.560997
31
0.0
0
LINE
8
0
10
3417.960898
20
1275.560997
30
0.0
11
3417.960898
21
1208.960997
31
0.0
0
LINE
8
0
10
3417.960898
20
1208.960997
30
0.0
11
3408.614132
21
1208.960997
31
0.0
0
ARC
8
0
10
3408.614132
20
1209.460997
30
0.0
40
0.500000
50
154.815663
51
270.000000
0
ARC
8
0
10
3404.360898
20
1211.460997
30
0.0
40
4.200000
50
334.815663
51
45.301576
0
ARC
8
0
10
3406.717205
20
1213.842240
30
0.0
40
0.850000
50
45.301576
51
225.301576
0
ARC
8
0
10
3404.360898
20
1211.460997
30
0.0
40
2.500000
50
134.698424
51
45.301576
0
ARC
8
0
10
3402.004591
20
1213.842240
30
0.0
40
0.850000
50
314.698424
51
134.698424
0
ARC
8
0
10
3404.360898
20
1211.460997
30
0.0
40
4.200000
50
134.698424
51
205.184337
0
ARC
8
0
10
3400.107664
20
1209.460997
30
0.0
40
0.500000
50
270.000000
51
25.184337
0
LINE
8
0
10
3400.107664
20
1208.960997
30
0.0
11
3392.760898
21
1208.960997
31
0.0
0
LINE
8
0
10
3392.760898
20
1208.960997
30
0.0
11
3392.760898
21
1275.560997
31
0.0
0
LINE
8
0
10
3392.760898
20
1275.560997
30
0.0
11
3400.107664
21
1275.560997
31
0.0
0
ARC
8
0
10
3400.107664
20
1275.060997
30
0.0
40
0.500000
50
334.815663
51
90.000000
0
ARC
8
0
10
3404.360898
20
1273.060997
30
0.0
40
4.200000
50
154.815663
51
225.301576
0
ARC
8
0
10
3402.004591
20
1270.679754
30
0.0
40
0.850000
50
225.301576
51
45.301576
0
ARC
8
0
10
3404.360898
20
1273.060997
30
0.0
40
2.500000
50
314.698424
51
225.301576
0
ARC
8
0
10
3406.717205
20
1270.679754
30
0.0
40
0.850000
50
134.698424
51
314.698424
0
ARC
8
0
10
3404.360898
20
1273.060997
30
0.0
40
4.200000
50
314.698424
51
25.184337
0
ARC
8
0
10
3408.614132
20
1275.060997
30
0.0
40
0.500000
50
90.000000
51
205.184337
0
LINE
8
0
10
3422.160898
20
1212.841539
30
0.0
11
3422.160898
21
1214.233458
31
0.0
0
ARC
8
0
10
3421.960898
20
1214.233458
30
0.0
40
0.200000
50
0.000000
51
60.000000
0
LINE
8
0
10
3422.060898
20
1214.406663
30
0.0
11
3420.010898
21
1215.590231
31
0.0
0
ARC
8
0
10
3420.360898
20
1216.196449
30
0.0
40
0.700000
50
180.000000
51
240.000000
0
LINE
8
0
10
3419.660898
20
1216.196449
30
0.0
11
3419.660898
21
1268.325545
31
0.0
0
ARC
8
0
10
3420.360898
20
1268.325545
30
0.0
40
0.700000
50
120.000000
51
180.000000
0
LINE
8
0
10
3420.010898
20
1268.931763
30
0.0
11
3422.060898
21
1270.115331
31
0.0
0
ARC
8
0
10
3421.960898
20
1270.288536
30
0.0
40
0.200000
50
300.000000
51
0.000000
0
LINE
8
0
10
3422.160898
20
1271.680455
30
0.0
11
3422.160898
21
1270.288536
31
0.0
0
ARC
8
0
10
3421.960898
20
1271.680455
30
0.0
40
0.200000
50
0.000000
51
180.000000
0
LINE
8
0
10
3420.085001
20
1270.652032
30
0.0
11
3421.760994
21
1271.674265
31
0.0
0
ARC
8
0
10
3419.928787
20
1270.908151
30
0.0
40
0.300000
50
270.000000
51
301.380132
0
LINE
8
0
10
3419.860898
20
1270.608151
30
0.0
11
3419.928787
21
1270.608151
31
0.0
0
ARC
8
0
10
3419.860898
20
1270.808151
30
0.0
40
0.200000
50
180.000000
51
270.000000
0
LINE
8
0
10
3419.660898
20
1275.308151
30
0.0
11
3419.660898
21
1270.808151
31
0.0
0
ARC
8
0
10
3419.660898
20
1275.608151
30
0.0
40
0.300000
50
90.000000
51
270.000000
0
LINE
8
0
10
3420.015923
20
1275.812600
30
0.0
11
3419.660898
21
1275.908151
31
0.0
0
ARC
8
0
10
3419.947789
20
1275.520440
30
0.0
40
0.300000
50
51.176024
51
76.872879
0
LINE
8
0
10
3421.779038
20
1274.431888
30
0.0
11
3420.135868
21
1275.754163
31
0.0
0
ARC
8
0
10
3421.653652
20
1274.276073
30
0.0
40
0.200000
50
0.000000
51
51.176024
0
LINE
8
0
10
3421.848100
20
1274.113606
30
0.0
11
3421.853530
21
1274.269093
31
0.0
0
ARC
8
0
10
3421.993632
20
1274.108524
30
0.0
40
0.145621
50
180.000000
51
322.253920
0
LINE
8
0
10
3424.173067
20
1276.685821
30
0.0
11
3422.108779
21
1274.019380
31
0.0
0
ARC
8
0
10
3423.888159
20
1276.779777
30
0.0
40
0.300000
50
341.748585
51
90.000000
0
LINE
8
0
10
3423.234923
20
1277.098415
30
0.0
11
3423.891544
21
1277.079802
31
0.0
0
ARC
8
0
10
3423.220755
20
1276.598616
30
0.0
40
0.500000
50
88.376251
51
128.194227
0
ARC
8
0
10
3421.674932
20
1278.563414
30
0.0
40
2.000000
50
236.002945
51
308.194227
0
LINE
8
0
10
3420.138248
20
1277.110490
30
0.0
11
3420.556631
21
1276.905281
31
0.0
0
ARC
8
0
10
3420.357490
20
1277.827730
30
0.0
40
0.750000
50
208.430167
51
253.002945
0
ARC
8
0
10
3419.961761
20
1277.613491
30
0.0
40
0.300000
50
180.000000
51
208.430167
0
LINE
8
0
10
3419.661761
20
1277.613491
30
0.0
11
3419.661761
21
1282.260997
31
0.0
0
LINE
8
0
10
3419.661761
20
1282.260997
30
0.0
11
3417.711761
21
1282.260997
31
0.0
0
LINE
8
0
10
3417.711761
20
1282.260997
30
0.0
11
3416.711761
21
1281.260997
31
0.0
0
LINE
8
0
10
3416.711761
20
1281.260997
30
0.0
11
3416.711761
21
1280.260997
31
0.0
0
LINE
8
0
10
3416.711761
20
1280.260997
30
0.0
11
3418.161761
21
1280.260997
31
0.0
0
LINE
8
0
10
3418.161761
20
1280.260997
30
0.0
11
3418.161761
21
1277.260997
31
0.0
0
LINE
8
0
10
3418.161761
20
1277.260997
30
0.0
11
3412.061761
21
1277.260997
31
0.0
0
LINE
8
0
10
3412.061761
20
1277.260997
30
0.0
11
3412.061761
21
1280.260997
31
0.0
0
LINE
8
0
10
3412.061761
20
1280.260997
30
0.0
11
3413.511761
21
1280.260997
31
0.0
0
LINE
8
0
10
3413.511761
20
1280.260997
30
0.0
11
3413.511761
21
1281.260997
31
0.0
0
LINE
8
0
10
3413.511761
20
1281.260997
30
0.0
11
3412.511761
21
1282.260997
31
0.0
0
LINE
8
0
10
3412.511761
20
1282.260997
30
0.0
11
3409.561761
21
1282.260997
31
0.0
0
LINE
8
0
10
3409.561761
20
1282.260997
30
0.0
11
3408.561761
21
1281.260997
31
0.0
0
LINE
8
0
10
3408.561761
20
1281.260997
30
0.0
11
3408.561761
21
1280.260997
31
0.0
0
LINE
8
0
10
3408.561761
20
1280.260997
30
0.0
11
3410.561761
21
1280.260997
31
0.0
0
LINE
8
0
10
3410.561761
20
1280.260997
30
0.0
11
3410.561761
21
1277.260997
31
0.0
0
LINE
8
0
10
3410.561761
20
1277.260997
30
0.0
11
3392.561761
21
1277.260997
31
0.0
0
LINE
8
0
10
3392.561761
20
1277.260997
30
0.0
11
3392.561761
21
1280.260997
31
0.0
0
LINE
8
0
10
3392.561761
20
1280.260997
30
0.0
11
3394.561761
21
1280.260997
31
0.0
0
LINE
8
0
10
3394.561761
20
1280.260997
30
0.0
11
3394.561761
21
1281.260997
31
0.0
0
LINE
8
0
10
3394.561761
20
1281.260997
30
0.0
11
3393.561761
21
1282.260997
31
0.0
0
LINE
8
0
10
3393.561761
20
1282.260997
30
0.0
11
3391.061761
21
1282.260997
31
0.0
0
LINE
8
0
10
3391.061761
20
1282.260997
30
0.0
11
3391.061761
21
1202.260997
31
0.0
0
LINE
8
0
10
3391.061761
20
1202.260997
30
0.0
11
3393.561761
21
1202.260997
31
0.0
0
LINE
8
0
10
3393.561761
20
1202.260997
30
0.0
11
3394.561761
21
1203.260997
31
0.0
0
LINE
8
0
10
3394.561761
20
1203.260997
30
0.0
11
3394.561761
21
1204.260997
31
0.0
0
LINE
8
0
10
3394.561761
20
1204.260997
30
0.0
11
3392.561761
21
1204.260997
31
0.0
0
LINE
8
0
10
3392.561761
20
1204.260997
30
0.0
11
3392.561761
21
1207.260997
31
0.0
0
LINE
8
0
10
3392.561761
20
1207.260997
30
0.0
11
3410.561761
21
1207.260997
31
0.0
0
LINE
8
0
10
3410.561761
20
1207.260997
30
0.0
11
3410.561761
21
1204.260997
31
0.0
0
LINE
8
0
10
3410.561761
20
1204.260997
30
0.0
11
3408.561761
21
1204.260997
31
0.0
0
LINE
8
0
10
3408.561761
20
1204.260997
30
0.0
11
3408.561761
21
1203.260997
31
0.0
0
LINE
8
0
10
3408.561761
20
1203.260997
30
0.0
11
3409.561761
21
1202.260997
31
0.0
0
LINE
8
0
10
3409.561761
20
1202.260997
30
0.0
11
3412.511761
21
1202.260997
31
0.0
0
LINE
8
0
10
3412.511761
20
1202.260997
30
0.0
11
3413.511761
21
1203.260997
31
0.0
0
LINE
8
0
10
3413.511761
20
1203.260997
30
0.0
11
3413.511761
21
1204.260997
31
0.0
0
LINE
8
0
10
3413.511761
20
1204.260997
30
0.0
11
3412.061761
21
1204.260997
31
0.0
0
LINE
8
0
10
3412.061761
20
1204.260997
30
0.0
11
3412.061761
21
1207.260997
31
0.0
0
LINE
8
0
10
3412.061761
20
1207.260997
30
0.0
11
3418.161761
21
1207.260997
31
0.0
0
LINE
8
0
10
3418.161761
20
1207.260997
30
0.0
11
3418.161761
21
1204.260997
31
0.0
0
LINE
8
0
10
3418.161761
20
1204.260997
30
0.0
11
3416.711761
21
1204.260997
31
0.0
0
LINE
8
0
10
3416.711761
20
1204.260997
30
0.0
11
3416.711761
21
1203.260997
31
0.0
0
LINE
8
0
10
3416.711761
20
1203.260997
30
0.0
11
3417.711761
21
1202.260997
31
0.0
0
LINE
8
0
10
3417.711761
20
1202.260997
30
0.0
11
3419.661761
21
1202.260997
31
0.0
0
LINE
8
0
10
3419.661761
20
1202.260997
30
0.0
11
3419.661761
21
1206.908503
31
0.0
0
ARC
8
0
10
3419.961761
20
1206.908503
30
0.0
40
0.300000
50
151.569833
51
180.000000
0
ARC
8
0
10
3420.357490
20
1206.694264
30
0.0
40
0.750000
50
106.997055
51
151.569833
0
LINE
8
0
10
3420.138248
20
1207.411504
30
0.0
11
3420.556631
21
1207.616713
31
0.0
0
ARC
8
0
10
3421.674932
20
1205.958580
30
0.0
40
2.000000
50
51.805773
51
123.997055
0
ARC
8
0
10
3423.220755
20
1207.923378
30
0.0
40
0.500000
50
231.805773
51
271.623749
0
LINE
8
0
10
3423.234923
20
1207.423579
30
0.0
11
3423.891544
21
1207.442192
31
0.0
0
ARC
8
0
10
3423.888159
20
1207.742217
30
0.0
40
0.300000
50
270.000000
51
18.251415
0
LINE
8
0
10
3424.173067
20
1207.836173
30
0.0
11
3422.108779
21
1210.502614
31
0.0
0
ARC
8
0
10
3421.993632
20
1210.413470
30
0.0
40
0.145621
50
37.746080
51
180.000000
0
LINE
8
0
10
3421.848100
20
1210.408388
30
0.0
11
3421.853530
21
1210.252901
31
0.0
0
ARC
8
0
10
3421.653652
20
1210.245921
30
0.0
40
0.200000
50
308.823976
51
0.000000
0
LINE
8
0
10
3421.779038
20
1210.090106
30
0.0
11
3420.135868
21
1208.767832
31
0.0
0
ARC
8
0
10
3419.947789
20
1209.001554
30
0.0
40
0.300000
50
283.127121
51
308.823976
0
LINE
8
0
10
3420.015923
20
1208.709394
30
0.0
11
3419.660898
21
1208.613843
31
0.0
0
ARC
8
0
10
3419.660898
20
1208.913843
30
0.0
40
0.300000
50
90.000000
51
270.000000
0
LINE
8
0
10
3419.660898
20
1209.213843
30
0.0
11
3419.660898
21
1213.713843
31
0.0
0
ARC
8
0
10
3419.860898
20
1213.713843
30
0.0
40
0.200000
50
90.000000
51
180.000000
0
LINE
8
0
10
3419.860898
20
1213.913843
30
0.0
11
3419.928787
21
1213.913843
31
0.0
0
ARC
8
0
10
3419.928787
20
1213.613843
30
0.0
40
0.300000
50
58.619868
51
90.000000
0
LINE
8
0
10
3420.085001
20
1213.869962
30
0.0
11
3421.760994
21
1212.847729
31
0.0
0
ARC
8
0
10
3421.960898
20
1212.841539
30
0.0
40
0.200000
50
180.000000
51
0.000000
0
LINE
8
0
10
3449.960898
20
1300.760997
30
0.0
11
3450.460898
21
1299.010997
31
0.0
0
LINE
8
0
10
3450.460898
20
1299.010997
30
0.0
11
3450.960898
21
1299.010997
31
0.0
0
LINE
8
0
10
3450.960898
20
1299.010997
30
0.0
11
3450.960898
21
1300.760997
31
0.0
0
LINE
8
0
10
3450.960898
20
1300.760997
30
0.0
11
3452.160898
21
1300.760997
31
0.0
0
LINE
8
0
10
3452.160898
20
1300.760997
30
0.0
11
3452.160898
21
1293.260997
31
0.0
0
LINE
8
0
10
3452.160898
20
1293.260997
30
0.0
11
3450.960898
21
1293.260997
31
0.0
0
LINE
8
0
10
3450.960898
20
1293.260997
30
0.0
11
3450.960898
21
1295.010997
31
0.0
0
LINE
8
0
10
3450.960898
20
1295.010997
30
0.0
11
3450.460898
21
1295.010997
31
0.0
0
LINE
8
0
10
3450.460898
20
1295.010997
30
0.0
11
3449.960898
21
1293.260997
31
0.0
0
LINE
8
0
10
3449.960898
20
1293.260997
30
0.0
11
3449.960898
21
1291.760997
31
0.0
0
LINE
8
0
10
3449.960898
20
1291.760997
30
0.0
11
3451.660898
21
1291.760997
31
0.0
0
LINE
8
0
10
3451.660898
20
1291.760997
30
0.0
11
3451.660898
21
1277.279982
31
0.0
0
ARC
8
0
10
3450.946653
20
1277.377709
30
0.0
40
0.720899
50
285.741218
51
352.208844
0
LINE
8
0
10
3451.142228
20
1276.683845
30
0.0
11
3450.467556
21
1276.173718
31
0.0
0
ARC
8
0
10
3449.915809
20
1277.007031
30
0.0
40
1.000000
50
213.092391
51
303.509063
0
LINE
8
0
10
3449.077695
20
1276.460830
30
0.0
11
3448.692627
21
1276.925968
31
0.0
0
LINE
8
0
10
3448.692627
20
1276.925968
30
0.0
11
3448.629767
21
1277.131573
31
0.0
0
LINE
8
0
10
3448.629767
20
1277.131573
30
0.0
11
3447.576972
21
1277.101729
31
0.0
0
ARC
8
0
10
3447.580357
20
1276.801705
30
0.0
40
0.300000
50
92.605413
51
198.251415
0
LINE
8
0
10
3447.295450
20
1276.707749
30
0.0
11
3449.398545
21
1273.991180
31
0.0
0
ARC
8
0
10
3449.560266
20
1274.108850
30
0.0
40
0.200000
50
216.039809
51
37.049592
0
LINE
8
0
10
3449.719889
20
1274.229351
30
0.0
11
3451.260418
21
1275.393241
31
0.0
0
ARC
8
0
10
3451.520727
20
1275.542367
30
0.0
40
0.300000
50
107.000000
51
209.807633
0
LINE
8
0
10
3451.433016
20
1275.829259
30
0.0
11
3451.687264
21
1275.906990
31
0.0
0
ARC
8
0
10
3451.660898
20
1275.608151
30
0.0
40
0.300000
50
270.000000
51
84.957850
0
LINE
8
0
10
3451.660898
20
1275.308151
30
0.0
11
3451.660898
21
1270.808151
31
0.0
0
ARC
8
0
10
3451.460898
20
1270.808151
30
0.0
40
0.200000
50
240.000000
51
0.000000
0
LINE
8
0
10
3451.360898
20
1270.634946
30
0.0
11
3449.560801
21
1271.674233
31
0.0
0
ARC
8
0
10
3449.360898
20
1271.680455
30
0.0
40
0.200000
50
0.000000
51
180.000000
0
LINE
8
0
10
3449.160898
20
1271.680455
30
0.0
11
3449.160898
21
1270.288536
31
0.0
0
ARC
8
0
10
3449.360898
20
1270.288536
30
0.0
40
0.200000
50
180.000000
51
240.000000
0
LINE
8
0
10
3449.260898
20
1270.115331
30
0.0
11
3451.310898
21
1268.931763
31
0.0
0
ARC
8
0
10
3450.960898
20
1268.325545
30
0.0
40
0.700000
50
0.000000
51
60.000000
0
LINE
8
0
10
3451.660898
20
1268.325545
30
0.0
11
3451.660898
21
1216.196449
31
0.0
0
ARC
8
0
10
3450.960898
20
1216.196449
30
0.0
40
0.700000
50
300.000000
51
0.000000
0
LINE
8
0
10
3451.310898
20
1215.590231
30
0.0
11
3449.260898
21
1214.406663
31
0.0
0
ARC
8
0
10
3449.360898
20
1214.233458
30
0.0
40
0.200000
50
120.000000
51
180.000000
0
LINE
8
0
10
3449.160898
20
1214.233458
30
0.0
11
3449.160898
21
1212.841539
31
0.0
0
ARC
8
0
10
3449.360898
20
1212.841539
30
0.0
40
0.200000
50
180.000000
51
0.000000
0
LINE
8
0
10
3449.560801
20
1212.847761
30
0.0
11
3451.360898
21
1213.887048
31
0.0
0
ARC
8
0
10
3451.460898
20
1213.713843
30
0.0
40
0.200000
50
0.000000
51
120.000000
0
LINE
8
0
10
3451.660898
20
1213.713843
30
0.0
11
3451.660898
21
1209.213843
31
0.0
0
ARC
8
0
10
3451.660898
20
1208.913843
30
0.0
40
0.300000
50
275.042150
51
90.000000
0
LINE
8
0
10
3451.687264
20
1208.615004
30
0.0
11
3451.433016
21
1208.692735
31
0.0
0
ARC
8
0
10
3451.520727
20
1208.979627
30
0.0
40
0.300000
50
150.192367
51
253.000000
0
LINE
8
0
10
3451.260418
20
1209.128754
30
0.0
11
3449.719889
21
1210.292643
31
0.0
0
ARC
8
0
10
3449.560266
20
1210.413144
30
0.0
40
0.200000
50
322.950408
51
143.960191
0
LINE
8
0
10
3449.398545
20
1210.530814
30
0.0
11
3447.295450
21
1207.814245
31
0.0
0
ARC
8
0
10
3447.580357
20
1207.720289
30
0.0
40
0.300000
50
161.748585
51
267.394587
0
LINE
8
0
10
3447.576972
20
1207.420265
30
0.0
11
3448.629767
21
1207.390421
31
0.0
0
LINE
8
0
10
3448.629767
20
1207.390421
30
0.0
11
3448.692627
21
1207.596026
31
0.0
0
LINE
8
0
10
3448.692627
20
1207.596026
30
0.0
11
3449.077695
21
1208.061164
31
0.0
0
ARC
8
0
10
3449.915809
20
1207.514963
30
0.0
40
1.000000
50
56.490937
51
146.907609
0
LINE
8
0
10
3450.467556
20
1208.348276
30
0.0
11
3451.142228
21
1207.838149
31
0.0
0
ARC
8
0
10
3450.882028
20
1207.088058
30
0.0
40
0.793940
50
11.181181
51
70.868757
0
LINE
8
0
10
3451.660898
20
1207.242013
30
0.0
11
3451.660898
21
1192.760997
31
0.0
0
LINE
8
0
10
3451.660898
20
1192.760997
30
0.0
11
3449.960898
21
1192.760997
31
0.0
0
LINE
8
0
10
3449.960898
20
1192.760997
30
0.0
11
3449.960898
21
1191.260997
31
0.0
0
LINE
8
0
10
3449.960898
20
1191.260997
30
0.0
11
3450.460898
21
1189.510997
31
0.0
0
LINE
8
0
10
3450.460898
20
1189.510997
30
0.0
11
3450.960898
21
1189.510997
31
0.0
0
LINE
8
0
10
3450.960898
20
1189.510997
30
0.0
11
3450.960898
21
1191.260997
31
0.0
0
LINE
8
0
10
3450.960898
20
1191.260997
30
0.0
11
3452.160898
21
1191.260997
31
0.0
0
LINE
8
0
10
3452.160898
20
1191.260997
30
0.0
11
3452.160898
21
1183.760997
31
0.0
0
LINE
8
0
10
3452.160898
20
1183.760997
30
0.0
11
3450.960898
21
1183.760997
31
0.0
0
LINE
8
0
10
3450.960898
20
1183.760997
30
0.0
11
3450.960898
21
1185.510997
31
0.0
0
LINE
8
0
10
3450.960898
20
1185.510997
30
0.0
11
3450.460898
21
1185.510997
31
0.0
0
LINE
8
0
10
3450.460898
20
1185.510997
30
0.0
11
3449.960898
21
1183.760997
31
0.0
0
LINE
8
0
10
3449.960898
20
1183.760997
30
0.0
11
3449.960898
21
1182.260997
31
0.0
0
LINE
8
0
10
3449.960898
20
1182.260997
30
0.0
11
3453.460898
21
1182.260997
31
0.0
0
LINE
8
0
10
3453.460898
20
1182.260997
30
0.0
11
3453.460898
21
1302.260997
31
0.0
0
LINE
8
0
10
3453.460898
20
1302.260997
30
0.0
11
3449.960898
21
1302.260997
31
0.0
0
LINE
8
0
10
3449.960898
20
1302.260997
30
0.0
11
3449.960898
21
1300.760997
31
0.0
0
ATTDEF
8
0
10
3419.661761
20
1282.260997
30
0.0
40
3.5
1

3

2
VC_START
70
0
0
ATTDEF
8
0
10
3419.661761
20
1202.260997
30
0.0
40
3.5
1

3

2
VC_END
70
0
0
ATTDEF
8
0
10
3453.460898
20
1182.260997
30
0.0
40
3.5
1

3

2
FP_LCS_ORIG
70
0
0
ATTDEF
8
0
10
3443.460898
20
1182.260997
30
0.0
40
3.5
1

3

2
FP_LCS_HOT
70
0
0
ATTDEF
8
0
10
3453.460898
20
1192.260997
30
0.0
40
3.5
1

3

2
FP_LCS_INTERN
70
0
0
ATTDEF
8
0
10
0.000000
20
0.000000
30
0.0
40
3.5
1

3

2
PANE_WIDTH:0
70
0
0
ATTDEF
8
0
10
0.000000
20
0.000000
30
0.0
40
3.5
1

3

2
MIN_VETRO:0
70
0
0
ATTDEF
8
0
10
0.000000
20
0.000000
30
0.0
40
3.5
1

3

2
MAX_VETRO:0
70
0
0
ATTDEF
8
0
10
0.000000
20
0.000000
30
0.0
40
3.5
1

3

2
JX:0
70
0
0
ATTDEF
8
0
10
0.000000
20
0.000000
30
0.0
40
3.5
1

3

2
WX:0
70
0
0
ATTDEF
8
0
10
0.000000
20
0.000000
30
0.0
40
3.5
1

3

2
JY:0
70
0
0
ATTDEF
8
0
10
0.000000
20
0.000000
30
0.0
40
3.5
1

3

2
WY:0
70
0
0
ATTDEF
8
0
10
0.000000
20
0.000000
30
0.0
40
3.5
1

3

2
DESC:Zocalo 120x62
70
0
0
ATTDEF
8
0
10
0.000000
20
0.000000
30
0.0
40
3.5
1

3

2
DENS:2.2035
70
0
0
ATTDEF
8
0
10
0.000000
20
0.000000
30
0.0
40
3.5
1

3

2
TDEV:83.93
70
0
0
ATTDEF
8
0
10
0.000000
20
0.000000
30
0.0
40
3.5
1

3

2
TDEV2:0
70
0
0
ATTDEF
8
0
10
0.000000
20
0.000000
30
0.0
40
3.5
1

3

2
TDEV3:0
70
0
0
ATTDEF
8
0
10
0.000000
20
0.000000
30
0.0
40
3.5
1

3

2
TDEV4:0
70
0
0
ATTDEF
8
0
10
0.000000
20
0.000000
30
0.0
40
3.5
1

3

2
TDEV5:0
70
0
0
ATTDEF
8
0
10
0.000000
20
0.000000
30
0.0
40
3.5
1

3

2
PANE_WIDTH:0
70
0
0
ATTDEF
8
0
10
0.000000
20
0.000000
30
0.0
40
3.5
1

3

2
MIN_VETRO:0
70
0
0
ATTDEF
8
0
10
0.000000
20
0.000000
30
0.0
40
3.5
1

3

2
MAX_VETRO:0
70
0
0
ATTDEF
8
0
10
0.000000
20
0.000000
30
0.0
40
3.5
1

3

2
JX:0
70
0
0
ATTDEF
8
0
10
0.000000
20
0.000000
30
0.0
40
3.5
1

3

2
WX:0
70
0
0
ATTDEF
8
0
10
0.000000
20
0.000000
30
0.0
40
3.5
1

3

2
JY:0
70
0
0
ATTDEF
8
0
10
0.000000
20
0.000000
30
0.0
40
3.5
1

3

2
WY:0
70
0
0
ENDSEC
0
EOF
