0
SECTION
2
ENTITIES
0
ARC
8
0
10
4190.369138
20
343.715206
30
0.0
40
0.300000
50
180.000000
51
270.000000
0
LINE
8
0
10
4190.369138
20
343.415206
30
0.0
11
4191.569138
21
343.415206
31
0.0
0
ARC
8
0
10
4191.569138
20
342.915206
30
0.0
40
0.500000
50
0.000000
51
90.000000
0
LINE
8
0
10
4192.069138
20
342.915206
30
0.0
11
4192.069138
21
327.815206
31
0.0
0
ARC
8
0
10
4192.369138
20
327.815206
30
0.0
40
0.300000
50
180.000000
51
270.000000
0
LINE
8
0
10
4192.369138
20
327.515206
30
0.0
11
4201.569138
21
327.515206
31
0.0
0
ARC
8
0
10
4201.569138
20
327.815206
30
0.0
40
0.300000
50
270.000000
51
0.000000
0
LINE
8
0
10
4201.869138
20
327.815206
30
0.0
11
4201.869138
21
351.615165
31
0.0
0
ARC
8
0
10
4201.569138
20
351.615165
30
0.0
40
0.300000
50
0.000000
51
90.000000
0
LINE
8
0
10
4201.569138
20
351.915165
30
0.0
11
4191.120048
21
351.915165
31
0.0
0
ARC
8
0
10
4191.120048
20
351.615165
30
0.0
40
0.300000
50
90.000000
51
155.000000
0
LINE
8
0
10
4190.848155
20
351.741950
30
0.0
11
4190.097246
21
350.131619
31
0.0
0
ARC
8
0
10
4190.369138
20
350.004833
30
0.0
40
0.300000
50
155.000000
51
180.000000
0
LINE
8
0
10
4190.069138
20
350.004833
30
0.0
11
4190.069138
21
343.715206
31
0.0
0
LINE
8
0
10
4190.269137
20
341.715206
30
0.0
11
4190.269137
21
333.215206
31
0.0
0
LINE
8
0
10
4190.269137
20
333.215206
30
0.0
11
4190.557005
21
332.927338
31
0.0
0
ARC
8
0
10
4190.344873
20
332.715206
30
0.0
40
0.300000
50
314.999999
51
44.999999
0
LINE
8
0
10
4190.557005
20
332.503074
30
0.0
11
4190.269137
21
332.215206
31
0.0
0
LINE
8
0
10
4190.269137
20
332.215206
30
0.0
11
4190.269137
21
324.215206
31
0.0
0
ARC
8
0
10
4190.769137
20
324.215206
30
0.0
40
0.500000
50
179.999993
51
269.999877
0
LINE
8
0
10
4190.769136
20
323.715206
30
0.0
11
4194.519138
21
323.715199
31
0.0
0
ARC
8
0
10
4194.519134
20
324.265203
30
0.0
40
0.550003
50
270.000357
51
89.999643
0
LINE
8
0
10
4194.519138
20
324.815206
30
0.0
11
4193.019138
21
324.815206
31
0.0
0
ARC
8
0
10
4193.019138
20
325.115206
30
0.0
40
0.300000
50
180.000000
51
270.000000
0
LINE
8
0
10
4192.719138
20
325.115206
30
0.0
11
4192.719138
21
325.815206
31
0.0
0
ARC
8
0
10
4193.019138
20
325.815206
30
0.0
40
0.300000
50
90.000000
51
180.000000
0
LINE
8
0
10
4193.019138
20
326.115206
30
0.0
11
4200.719138
21
326.115206
31
0.0
0
ARC
8
0
10
4200.719138
20
325.815206
30
0.0
40
0.300000
50
0.000000
51
90.000000
0
LINE
8
0
10
4201.019138
20
325.815206
30
0.0
11
4201.019138
21
325.115206
31
0.0
0
ARC
8
0
10
4200.719138
20
325.115206
30
0.0
40
0.300000
50
270.000000
51
0.000000
0
LINE
8
0
10
4200.719138
20
324.815206
30
0.0
11
4199.519138
21
324.815206
31
0.0
0
ARC
8
0
10
4199.519146
20
324.265198
30
0.0
40
0.550008
50
90.000827
51
269.999173
0
LINE
8
0
10
4199.519138
20
323.715190
30
0.0
11
4218.869137
21
323.715150
31
0.0
0
ARC
8
0
10
4218.869138
20
324.215150
30
0.0
40
0.500000
50
269.999877
51
0.000000
0
LINE
8
0
10
4219.369138
20
324.215150
30
0.0
11
4219.369138
21
327.415168
31
0.0
0
ARC
8
0
10
4219.069138
20
327.415168
30
0.0
40
0.300000
50
0.000000
51
90.000000
0
LINE
8
0
10
4219.069138
20
327.715168
30
0.0
11
4217.869138
21
327.715168
31
0.0
0
LINE
8
0
10
4217.869138
20
327.715168
30
0.0
11
4217.869138
21
325.715176
31
0.0
0
ARC
8
0
10
4217.369138
20
325.715176
30
0.0
40
0.500000
50
270.000000
51
0.000000
0
LINE
8
0
10
4217.369138
20
325.215176
30
0.0
11
4203.869138
21
325.215176
31
0.0
0
ARC
8
0
10
4203.869138
20
325.715176
30
0.0
40
0.500000
50
180.000000
51
270.000000
0
LINE
8
0
10
4203.369138
20
325.715176
30
0.0
11
4203.369138
21
353.815193
31
0.0
0
ARC
8
0
10
4203.869138
20
353.815193
30
0.0
40
0.500000
50
90.000000
51
180.000000
0
LINE
8
0
10
4203.869138
20
354.315193
30
0.0
11
4214.603452
21
354.315193
31
0.0
0
ARC
8
0
10
4214.603452
20
354.615193
30
0.0
40
0.300000
50
270.000000
51
340.528779
0
ARC
8
0
10
4215.169138
20
354.415193
30
0.0
40
0.300000
50
90.000000
51
160.528779
0
LINE
8
0
10
4215.169138
20
354.715193
30
0.0
11
4217.569138
21
354.715193
31
0.0
0
ARC
8
0
10
4217.569138
20
354.415193
30
0.0
40
0.300000
50
0.000000
51
90.000000
0
LINE
8
0
10
4217.869138
20
354.415193
30
0.0
11
4217.869138
21
354.315193
31
0.0
0
LINE
8
0
10
4217.869138
20
354.315193
30
0.0
11
4219.069138
21
354.315193
31
0.0
0
ARC
8
0
10
4219.069138
20
354.615193
30
0.0
40
0.300000
50
270.000000
51
0.000000
0
LINE
8
0
10
4219.369138
20
354.615193
30
0.0
11
4219.369138
21
355.215219
31
0.0
0
ARC
8
0
10
4218.869138
20
355.215219
30
0.0
40
0.500000
50
0.000000
51
90.846462
0
LINE
8
0
10
4218.861751
20
355.715165
30
0.0
11
4199.519138
21
355.715165
31
0.0
0
ARC
8
0
10
4199.519138
20
355.165165
30
0.0
40
0.550000
50
90.000000
51
270.000000
0
LINE
8
0
10
4199.519138
20
354.615165
30
0.0
11
4200.719138
21
354.615165
31
0.0
0
ARC
8
0
10
4200.719138
20
354.315165
30
0.0
40
0.300000
50
0.000000
51
90.000000
0
LINE
8
0
10
4201.019138
20
354.315165
30
0.0
11
4201.019138
21
353.615165
31
0.0
0
ARC
8
0
10
4200.719138
20
353.615165
30
0.0
40
0.300000
50
270.000000
51
0.000000
0
LINE
8
0
10
4200.719138
20
353.315165
30
0.0
11
4193.019138
21
353.315165
31
0.0
0
ARC
8
0
10
4193.019138
20
353.615165
30
0.0
40
0.300000
50
180.000000
51
270.000000
0
LINE
8
0
10
4192.719138
20
353.615165
30
0.0
11
4192.719138
21
354.315165
31
0.0
0
ARC
8
0
10
4193.019138
20
354.315165
30
0.0
40
0.300000
50
90.000000
51
180.000000
0
LINE
8
0
10
4193.019138
20
354.615165
30
0.0
11
4194.519138
21
354.615165
31
0.0
0
ARC
8
0
10
4194.519138
20
355.165165
30
0.0
40
0.550000
50
270.000000
51
90.000000
0
LINE
8
0
10
4194.519138
20
355.715165
30
0.0
11
4191.793237
21
355.715165
31
0.0
0
ARC
8
0
10
4191.793237
20
354.715165
30
0.0
40
1.000000
50
90.000000
51
155.000000
0
LINE
8
0
10
4190.886929
20
355.137783
30
0.0
11
4188.697246
21
350.441991
31
0.0
0
ARC
8
0
10
4188.969138
20
350.315206
30
0.0
40
0.300000
50
155.000000
51
180.000000
0
LINE
8
0
10
4188.669138
20
350.315206
30
0.0
11
4188.669138
21
342.315206
31
0.0
0
ARC
8
0
10
4188.969138
20
342.315206
30
0.0
40
0.300000
50
180.000000
51
270.000000
0
LINE
8
0
10
4188.969138
20
342.015206
30
0.0
11
4189.969137
21
342.015206
31
0.0
0
ARC
8
0
10
4189.969137
20
341.715206
30
0.0
40
0.300000
50
0.000000
51
90.000000
0
ATTDEF
8
0
10
0.000000
20
0.000000
30
0.0
40
3.5
1

3

2
PANE_WIDTH:0
70
0
0
ATTDEF
8
0
10
0.000000
20
0.000000
30
0.0
40
3.5
1

3

2
MIN_VETRO:0
70
0
0
ATTDEF
8
0
10
0.000000
20
0.000000
30
0.0
40
3.5
1

3

2
MAX_VETRO:0
70
0
0
ATTDEF
8
0
10
0.000000
20
0.000000
30
0.0
40
3.5
1

3

2
JX:0
70
0
0
ATTDEF
8
0
10
0.000000
20
0.000000
30
0.0
40
3.5
1

3

2
WX:0
70
0
0
ATTDEF
8
0
10
0.000000
20
0.000000
30
0.0
40
3.5
1

3

2
JY:0
70
0
0
ATTDEF
8
0
10
0.000000
20
0.000000
30
0.0
40
3.5
1

3

2
WY:0
70
0
0
ATTDEF
8
0
10
0.000000
20
0.000000
30
0.0
40
3.5
1

3

2
DESC:Hoja lateral
70
0
0
ATTDEF
8
0
10
0.000000
20
0.000000
30
0.0
40
3.5
1

3

2
DENS:0.5319
70
0
0
ATTDEF
8
0
10
0.000000
20
0.000000
30
0.0
40
3.5
1

3

2
TDEV:25.45
70
0
0
ATTDEF
8
0
10
0.000000
20
0.000000
30
0.0
40
3.5
1

3

2
TDEV2:0
70
0
0
ATTDEF
8
0
10
0.000000
20
0.000000
30
0.0
40
3.5
1

3

2
TDEV3:0
70
0
0
ATTDEF
8
0
10
0.000000
20
0.000000
30
0.0
40
3.5
1

3

2
TDEV4:0
70
0
0
ATTDEF
8
0
10
0.000000
20
0.000000
30
0.0
40
3.5
1

3

2
TDEV5:0
70
0
0
ATTDEF
8
0
10
0.000000
20
0.000000
30
0.0
40
3.5
1

3

2
PANE_WIDTH:0
70
0
0
ATTDEF
8
0
10
0.000000
20
0.000000
30
0.0
40
3.5
1

3

2
MIN_VETRO:0
70
0
0
ATTDEF
8
0
10
0.000000
20
0.000000
30
0.0
40
3.5
1

3

2
MAX_VETRO:0
70
0
0
ATTDEF
8
0
10
0.000000
20
0.000000
30
0.0
40
3.5
1

3

2
JX:0
70
0
0
ATTDEF
8
0
10
0.000000
20
0.000000
30
0.0
40
3.5
1

3

2
WX:0
70
0
0
ATTDEF
8
0
10
0.000000
20
0.000000
30
0.0
40
3.5
1

3

2
JY:0
70
0
0
ATTDEF
8
0
10
0.000000
20
0.000000
30
0.0
40
3.5
1

3

2
WY:0
70
0
0
ENDSEC
0
EOF
