0
SECTION
2
ENTITIES
0
LINE
8
0
10
12152.421907
20
3162.161350
30
0.0
11
12152.421907
21
3136.661350
31
0.0
0
LINE
8
0
10
12152.421907
20
3136.661350
30
0.0
11
12132.921907
21
3136.661350
31
0.0
0
LINE
8
0
10
12132.921907
20
3136.661350
30
0.0
11
12132.921907
21
3162.161350
31
0.0
0
LINE
8
0
10
12132.921907
20
3162.161350
30
0.0
11
12152.421907
21
3162.161350
31
0.0
0
LINE
8
0
10
12132.621907
20
3173.361350
30
0.0
11
12132.921907
21
3173.361350
31
0.0
0
LINE
8
0
10
12132.921907
20
3173.361350
30
0.0
11
12132.921907
21
3174.361350
31
0.0
0
LINE
8
0
10
12132.921907
20
3174.361350
30
0.0
11
12132.621907
21
3175.361350
31
0.0
0
LINE
8
0
10
12132.621907
20
3175.361350
30
0.0
11
12132.921907
21
3175.361350
31
0.0
0
LINE
8
0
10
12132.921907
20
3175.361350
30
0.0
11
12132.921907
21
3177.361350
31
0.0
0
LINE
8
0
10
12132.921907
20
3177.361350
30
0.0
11
12132.171907
21
3177.361350
31
0.0
0
ARC
8
0
10
12132.171907
20
3176.861350
30
0.0
40
0.500000
50
90.000000
51
180.000000
0
LINE
8
0
10
12131.671907
20
3176.861350
30
0.0
11
12131.671907
21
3122.861350
31
0.0
0
ARC
8
0
10
12132.171907
20
3122.861350
30
0.0
40
0.500000
50
180.000000
51
270.000000
0
LINE
8
0
10
12132.171907
20
3122.361350
30
0.0
11
12134.671907
21
3122.361350
31
0.0
0
ARC
8
0
10
12134.671907
20
3122.861350
30
0.0
40
0.500000
50
270.000000
51
0.000000
0
LINE
8
0
10
12135.171907
20
3122.861350
30
0.0
11
12135.171907
21
3125.061350
31
0.0
0
ARC
8
0
10
12134.871907
20
3125.061350
30
0.0
40
0.300000
50
0.000000
51
90.000000
0
LINE
8
0
10
12134.871907
20
3125.361350
30
0.0
11
12134.471907
21
3125.361350
31
0.0
0
ARC
8
0
10
12134.471907
20
3125.061350
30
0.0
40
0.300000
50
90.000000
51
180.000000
0
LINE
8
0
10
12134.171907
20
3125.061350
30
0.0
11
12134.171907
21
3123.611350
31
0.0
0
LINE
8
0
10
12134.171907
20
3123.611350
30
0.0
11
12132.871907
21
3123.611350
31
0.0
0
LINE
8
0
10
12132.871907
20
3123.611350
30
0.0
11
12132.871907
21
3131.111350
31
0.0
0
LINE
8
0
10
12132.871907
20
3131.111350
30
0.0
11
12134.171907
21
3131.111350
31
0.0
0
LINE
8
0
10
12134.171907
20
3131.111350
30
0.0
11
12134.171907
21
3129.661350
31
0.0
0
ARC
8
0
10
12134.471907
20
3129.661350
30
0.0
40
0.300000
50
180.000000
51
270.000000
0
LINE
8
0
10
12134.471907
20
3129.361350
30
0.0
11
12134.871907
21
3129.361350
31
0.0
0
ARC
8
0
10
12134.871907
20
3129.661350
30
0.0
40
0.300000
50
270.000000
51
0.000000
0
LINE
8
0
10
12135.171907
20
3129.661350
30
0.0
11
12135.171907
21
3131.861350
31
0.0
0
ARC
8
0
10
12134.671907
20
3131.861350
30
0.0
40
0.500000
50
0.000000
51
90.000000
0
LINE
8
0
10
12134.671907
20
3132.361350
30
0.0
11
12132.921907
21
3132.361350
31
0.0
0
LINE
8
0
10
12132.921907
20
3132.361350
30
0.0
11
12132.921907
21
3135.361350
31
0.0
0
LINE
8
0
10
12132.921907
20
3135.361350
30
0.0
11
12152.421907
21
3135.361350
31
0.0
0
LINE
8
0
10
12152.421907
20
3135.361350
30
0.0
11
12152.421907
21
3132.361350
31
0.0
0
LINE
8
0
10
12152.421907
20
3132.361350
30
0.0
11
12150.671907
21
3132.361350
31
0.0
0
ARC
8
0
10
12150.671907
20
3131.861350
30
0.0
40
0.500000
50
90.000000
51
180.000000
0
LINE
8
0
10
12150.171907
20
3131.861350
30
0.0
11
12150.171907
21
3129.661350
31
0.0
0
ARC
8
0
10
12150.471907
20
3129.661350
30
0.0
40
0.300000
50
180.000000
51
270.000000
0
LINE
8
0
10
12150.471907
20
3129.361350
30
0.0
11
12150.871907
21
3129.361350
31
0.0
0
ARC
8
0
10
12150.871907
20
3129.661350
30
0.0
40
0.300000
50
270.000000
51
0.000000
0
LINE
8
0
10
12151.171907
20
3129.661350
30
0.0
11
12151.171907
21
3131.111350
31
0.0
0
LINE
8
0
10
12151.171907
20
3131.111350
30
0.0
11
12152.471907
21
3131.111350
31
0.0
0
LINE
8
0
10
12152.471907
20
3131.111350
30
0.0
11
12152.471907
21
3123.611350
31
0.0
0
LINE
8
0
10
12152.471907
20
3123.611350
30
0.0
11
12151.171907
21
3123.611350
31
0.0
0
LINE
8
0
10
12151.171907
20
3123.611350
30
0.0
11
12151.171907
21
3125.061350
31
0.0
0
ARC
8
0
10
12150.871907
20
3125.061350
30
0.0
40
0.300000
50
0.000000
51
90.000000
0
LINE
8
0
10
12150.871907
20
3125.361350
30
0.0
11
12150.471907
21
3125.361350
31
0.0
0
ARC
8
0
10
12150.471907
20
3125.061350
30
0.0
40
0.300000
50
90.000000
51
180.000000
0
LINE
8
0
10
12150.171907
20
3125.061350
30
0.0
11
12150.171907
21
3122.861350
31
0.0
0
ARC
8
0
10
12150.671907
20
3122.861350
30
0.0
40
0.500000
50
180.000000
51
270.000000
0
LINE
8
0
10
12150.671907
20
3122.361350
30
0.0
11
12153.171907
21
3122.361350
31
0.0
0
ARC
8
0
10
12153.171907
20
3122.861350
30
0.0
40
0.500000
50
270.000000
51
0.000000
0
LINE
8
0
10
12153.671907
20
3122.861350
30
0.0
11
12153.671907
21
3176.861350
31
0.0
0
ARC
8
0
10
12153.171907
20
3176.861350
30
0.0
40
0.500000
50
0.000000
51
90.000000
0
LINE
8
0
10
12153.171907
20
3177.361350
30
0.0
11
12152.421907
21
3177.361350
31
0.0
0
LINE
8
0
10
12152.421907
20
3177.361350
30
0.0
11
12152.421907
21
3175.361350
31
0.0
0
LINE
8
0
10
12152.421907
20
3175.361350
30
0.0
11
12152.721907
21
3175.361350
31
0.0
0
LINE
8
0
10
12152.721907
20
3175.361350
30
0.0
11
12152.421907
21
3174.361350
31
0.0
0
LINE
8
0
10
12152.421907
20
3174.361350
30
0.0
11
12152.421907
21
3173.361350
31
0.0
0
LINE
8
0
10
12152.421907
20
3173.361350
30
0.0
11
12152.721907
21
3173.361350
31
0.0
0
LINE
8
0
10
12152.721907
20
3173.361350
30
0.0
11
12152.421907
21
3172.361350
31
0.0
0
LINE
8
0
10
12152.421907
20
3172.361350
30
0.0
11
12152.421907
21
3171.361350
31
0.0
0
LINE
8
0
10
12152.421907
20
3171.361350
30
0.0
11
12152.721907
21
3171.361350
31
0.0
0
LINE
8
0
10
12152.721907
20
3171.361350
30
0.0
11
12152.421907
21
3170.361350
31
0.0
0
LINE
8
0
10
12152.421907
20
3170.361350
30
0.0
11
12152.421907
21
3169.361350
31
0.0
0
LINE
8
0
10
12152.421907
20
3169.361350
30
0.0
11
12152.721907
21
3169.361350
31
0.0
0
LINE
8
0
10
12152.721907
20
3169.361350
30
0.0
11
12152.421907
21
3168.361350
31
0.0
0
LINE
8
0
10
12152.421907
20
3168.361350
30
0.0
11
12152.421907
21
3163.361350
31
0.0
0
LINE
8
0
10
12152.421907
20
3163.361350
30
0.0
11
12132.921907
21
3163.361350
31
0.0
0
LINE
8
0
10
12132.921907
20
3163.361350
30
0.0
11
12132.921907
21
3168.361350
31
0.0
0
LINE
8
0
10
12132.921907
20
3168.361350
30
0.0
11
12132.621907
21
3169.361350
31
0.0
0
LINE
8
0
10
12132.621907
20
3169.361350
30
0.0
11
12132.921907
21
3169.361350
31
0.0
0
LINE
8
0
10
12132.921907
20
3169.361350
30
0.0
11
12132.921907
21
3170.361350
31
0.0
0
LINE
8
0
10
12132.921907
20
3170.361350
30
0.0
11
12132.621907
21
3171.361350
31
0.0
0
LINE
8
0
10
12132.621907
20
3171.361350
30
0.0
11
12132.921907
21
3171.361350
31
0.0
0
LINE
8
0
10
12132.921907
20
3171.361350
30
0.0
11
12132.921907
21
3172.361350
31
0.0
0
LINE
8
0
10
12132.921907
20
3172.361350
30
0.0
11
12132.621907
21
3173.361350
31
0.0
0
ATTDEF
8
0
10
0.000000
20
0.000000
30
0.0
40
3.5
1

3

2
PANE_WIDTH:0
70
0
0
ATTDEF
8
0
10
0.000000
20
0.000000
30
0.0
40
3.5
1

3

2
MIN_VETRO:0
70
0
0
ATTDEF
8
0
10
0.000000
20
0.000000
30
0.0
40
3.5
1

3

2
MAX_VETRO:0
70
0
0
ATTDEF
8
0
10
0.000000
20
0.000000
30
0.0
40
3.5
1

3

2
JX:0
70
0
0
ATTDEF
8
0
10
0.000000
20
0.000000
30
0.0
40
3.5
1

3

2
WX:0
70
0
0
ATTDEF
8
0
10
0.000000
20
0.000000
30
0.0
40
3.5
1

3

2
JY:0
70
0
0
ATTDEF
8
0
10
0.000000
20
0.000000
30
0.0
40
3.5
1

3

2
WY:0
70
0
0
ATTDEF
8
0
10
0.000000
20
0.000000
30
0.0
40
3.5
1

3

2
DESC:Hoja lateral climali
70
0
0
ATTDEF
8
0
10
0.000000
20
0.000000
30
0.0
40
3.5
1

3

2
DENS:0.5508
70
0
0
ATTDEF
8
0
10
0.000000
20
0.000000
30
0.0
40
3.5
1

3

2
TDEV:33.23
70
0
0
ATTDEF
8
0
10
0.000000
20
0.000000
30
0.0
40
3.5
1

3

2
TDEV2:0
70
0
0
ATTDEF
8
0
10
0.000000
20
0.000000
30
0.0
40
3.5
1

3

2
TDEV3:0
70
0
0
ATTDEF
8
0
10
0.000000
20
0.000000
30
0.0
40
3.5
1

3

2
TDEV4:0
70
0
0
ATTDEF
8
0
10
0.000000
20
0.000000
30
0.0
40
3.5
1

3

2
TDEV5:0
70
0
0
ATTDEF
8
0
10
0.000000
20
0.000000
30
0.0
40
3.5
1

3

2
PANE_WIDTH:0
70
0
0
ATTDEF
8
0
10
0.000000
20
0.000000
30
0.0
40
3.5
1

3

2
MIN_VETRO:0
70
0
0
ATTDEF
8
0
10
0.000000
20
0.000000
30
0.0
40
3.5
1

3

2
MAX_VETRO:0
70
0
0
ATTDEF
8
0
10
0.000000
20
0.000000
30
0.0
40
3.5
1

3

2
JX:0
70
0
0
ATTDEF
8
0
10
0.000000
20
0.000000
30
0.0
40
3.5
1

3

2
WX:0
70
0
0
ATTDEF
8
0
10
0.000000
20
0.000000
30
0.0
40
3.5
1

3

2
JY:0
70
0
0
ATTDEF
8
0
10
0.000000
20
0.000000
30
0.0
40
3.5
1

3

2
WY:0
70
0
0
ENDSEC
0
EOF
