0
SECTION
2
ENTITIES
0
LINE
8
0
10
10411.646575
20
1956.336054
30
0.0
11
10371.420592
21
1957.624772
31
0.0
0
ARC
8
0
10
10371.404582
20
1957.125028
30
0.0
40
0.500000
50
88.165046
51
200.398318
0
ARC
8
0
10
10367.936600
20
1955.835413
30
0.0
40
3.200000
50
314.767776
51
20.398318
0
ARC
8
0
10
10369.732400
20
1954.024998
30
0.0
40
0.650000
50
134.767776
51
314.767776
0
ARC
8
0
10
10367.936600
20
1955.835413
30
0.0
40
1.900000
50
314.767776
51
225.232224
0
ARC
8
0
10
10366.140801
20
1954.024998
30
0.0
40
0.650000
50
225.232224
51
45.232224
0
ARC
8
0
10
10367.936600
20
1955.835413
30
0.0
40
3.200000
50
155.931774
51
225.232224
0
ARC
8
0
10
10364.558277
20
1957.344363
30
0.0
40
0.500000
50
335.931774
51
88.165046
0
LINE
8
0
10
10364.574287
20
1957.844106
30
0.0
11
10354.186600
21
1958.176896
31
0.0
0
LINE
8
0
10
10354.186600
20
1958.176896
30
0.0
11
10354.186600
21
1951.635413
31
0.0
0
LINE
8
0
10
10354.186600
20
1951.635413
30
0.0
11
10356.636600
21
1951.635413
31
0.0
0
ARC
8
0
10
10356.636600
20
1951.335413
30
0.0
40
0.300000
50
330.000000
51
90.000000
0
LINE
8
0
10
10356.896408
20
1951.185413
30
0.0
11
10356.405660
21
1950.335413
31
0.0
0
LINE
8
0
10
10356.405660
20
1950.335413
30
0.0
11
10352.936600
21
1950.335413
31
0.0
0
LINE
8
0
10
10352.936600
20
1950.335413
30
0.0
11
10352.936600
21
1981.835413
31
0.0
0
ARC
8
0
10
10353.436600
20
1981.835413
30
0.0
40
0.500000
50
90.000000
51
180.000000
0
LINE
8
0
10
10353.436600
20
1982.335413
30
0.0
11
10353.686600
21
1982.335413
31
0.0
0
ARC
8
0
10
10353.686600
20
1981.835413
30
0.0
40
0.500000
50
0.000000
51
90.000000
0
LINE
8
0
10
10354.186600
20
1981.835413
30
0.0
11
10354.186600
21
1969.335413
31
0.0
0
LINE
8
0
10
10354.186600
20
1969.335413
30
0.0
11
10370.136600
21
1969.335413
31
0.0
0
LINE
8
0
10
10370.136600
20
1969.335413
30
0.0
11
10370.136600
21
1977.924902
31
0.0
0
LINE
8
0
10
10370.136600
20
1977.924902
30
0.0
11
10368.886600
21
1980.089965
31
0.0
0
ARC
8
0
10
10367.936600
20
1981.735413
30
0.0
40
1.900000
50
300.000000
51
240.000000
0
LINE
8
0
10
10366.986600
20
1980.089965
30
0.0
11
10365.736600
21
1977.924902
31
0.0
0
LINE
8
0
10
10365.736600
20
1977.924902
30
0.0
11
10365.736600
21
1977.835413
31
0.0
0
ARC
8
0
10
10365.236600
20
1977.835413
30
0.0
40
0.500000
50
270.000000
51
0.000000
0
LINE
8
0
10
10365.236600
20
1977.335413
30
0.0
11
10364.936600
21
1977.335413
31
0.0
0
ARC
8
0
10
10364.936600
20
1977.835413
30
0.0
40
0.500000
50
180.000000
51
270.000000
0
LINE
8
0
10
10364.436600
20
1977.835413
30
0.0
11
10364.436600
21
1984.288400
31
0.0
0
ARC
8
0
10
10364.936600
20
1984.288400
30
0.0
40
0.500000
50
110.667316
51
180.000000
0
ARC
8
0
10
10367.936600
20
1976.335413
30
0.0
40
9.000000
50
69.332684
51
110.667316
0
ARC
8
0
10
10370.936600
20
1984.288400
30
0.0
40
0.500000
50
0.000000
51
69.332684
0
LINE
8
0
10
10371.436600
20
1984.288400
30
0.0
11
10371.436600
21
1969.335413
31
0.0
0
LINE
8
0
10
10371.436600
20
1969.335413
30
0.0
11
10394.436600
21
1969.335413
31
0.0
0
LINE
8
0
10
10394.436600
20
1969.335413
30
0.0
11
10394.436600
21
1984.288400
31
0.0
0
ARC
8
0
10
10394.936600
20
1984.288400
30
0.0
40
0.500000
50
110.667316
51
180.000000
0
ARC
8
0
10
10397.936600
20
1976.335413
30
0.0
40
9.000000
50
69.332684
51
110.667316
0
ARC
8
0
10
10400.936600
20
1984.288400
30
0.0
40
0.500000
50
0.000000
51
69.332684
0
LINE
8
0
10
10401.436600
20
1984.288400
30
0.0
11
10401.436600
21
1977.835413
31
0.0
0
ARC
8
0
10
10400.936600
20
1977.835413
30
0.0
40
0.500000
50
270.000000
51
0.000000
0
LINE
8
0
10
10400.936600
20
1977.335413
30
0.0
11
10400.636600
21
1977.335413
31
0.0
0
ARC
8
0
10
10400.636600
20
1977.835413
30
0.0
40
0.500000
50
180.000000
51
270.000000
0
LINE
8
0
10
10400.136600
20
1977.835413
30
0.0
11
10400.136600
21
1977.924902
31
0.0
0
LINE
8
0
10
10400.136600
20
1977.924902
30
0.0
11
10398.886600
21
1980.089965
31
0.0
0
ARC
8
0
10
10397.936600
20
1981.735413
30
0.0
40
1.900000
50
300.000000
51
240.000000
0
LINE
8
0
10
10396.986600
20
1980.089965
30
0.0
11
10395.736600
21
1977.924902
31
0.0
0
LINE
8
0
10
10395.736600
20
1977.924902
30
0.0
11
10395.736600
21
1969.335413
31
0.0
0
LINE
8
0
10
10395.736600
20
1969.335413
30
0.0
11
10409.631193
21
1966.885422
31
0.0
0
ARC
8
0
10
10408.936600
20
1962.946191
30
0.0
40
4.000000
50
0.000000
51
80.000000
0
LINE
8
0
10
10412.936600
20
1962.946191
30
0.0
11
10412.936600
21
1950.335413
31
0.0
0
LINE
8
0
10
10412.936600
20
1950.335413
30
0.0
11
10409.467541
21
1950.335413
31
0.0
0
LINE
8
0
10
10409.467541
20
1950.335413
30
0.0
11
10408.976793
21
1951.185413
31
0.0
0
ARC
8
0
10
10409.236600
20
1951.335413
30
0.0
40
0.300000
50
90.000000
51
210.000000
0
LINE
8
0
10
10409.236600
20
1951.635413
30
0.0
11
10411.686600
21
1951.635413
31
0.0
0
LINE
8
0
10
10411.686600
20
1951.635413
30
0.0
11
10411.686600
21
1956.335413
31
0.0
0
LINE
8
0
10
10411.686600
20
1956.335413
30
0.0
11
10411.646575
21
1956.336054
31
0.0
0
LINE
8
0
10
10368.037465
20
1958.983798
30
0.0
11
10411.686600
21
1957.585413
31
0.0
0
LINE
8
0
10
10411.686600
20
1957.585413
30
0.0
11
10411.686600
21
1962.946191
31
0.0
0
ARC
8
0
10
10408.936600
20
1962.946191
30
0.0
40
2.750000
50
0.000000
51
80.000000
0
LINE
8
0
10
10409.414133
20
1965.654412
30
0.0
11
10395.627240
21
1968.085413
31
0.0
0
LINE
8
0
10
10395.627240
20
1968.085413
30
0.0
11
10354.186600
21
1968.085413
31
0.0
0
LINE
8
0
10
10354.186600
20
1968.085413
30
0.0
11
10354.186600
21
1959.427537
31
0.0
0
LINE
8
0
10
10354.186600
20
1959.427537
30
0.0
11
10368.037465
21
1958.983798
31
0.0
0
ATTDEF
8
0
10
0.000000
20
0.000000
30
0.0
40
3.5
1

3

2
PANE_WIDTH:0
70
0
0
ATTDEF
8
0
10
0.000000
20
0.000000
30
0.0
40
3.5
1

3

2
MIN_VETRO:0
70
0
0
ATTDEF
8
0
10
0.000000
20
0.000000
30
0.0
40
3.5
1

3

2
MAX_VETRO:0
70
0
0
ATTDEF
8
0
10
0.000000
20
0.000000
30
0.0
40
3.5
1

3

2
JX:0
70
0
0
ATTDEF
8
0
10
0.000000
20
0.000000
30
0.0
40
3.5
1

3

2
WX:0
70
0
0
ATTDEF
8
0
10
0.000000
20
0.000000
30
0.0
40
3.5
1

3

2
JY:0
70
0
0
ATTDEF
8
0
10
0.000000
20
0.000000
30
0.0
40
3.5
1

3

2
WY:0
70
0
0
ATTDEF
8
0
10
0.000000
20
0.000000
30
0.0
40
3.5
1

3

2
DESC:Marco Inferior Clip
70
0
0
ATTDEF
8
0
10
0.000000
20
0.000000
30
0.0
40
3.5
1

3

2
DENS:0.8424
70
0
0
ATTDEF
8
0
10
0.000000
20
0.000000
30
0.0
40
3.5
1

3

2
TDEV:45.88
70
0
0
ATTDEF
8
0
10
0.000000
20
0.000000
30
0.0
40
3.5
1

3

2
TDEV2:0
70
0
0
ATTDEF
8
0
10
0.000000
20
0.000000
30
0.0
40
3.5
1

3

2
TDEV3:0
70
0
0
ATTDEF
8
0
10
0.000000
20
0.000000
30
0.0
40
3.5
1

3

2
TDEV4:0
70
0
0
ATTDEF
8
0
10
0.000000
20
0.000000
30
0.0
40
3.5
1

3

2
TDEV5:0
70
0
0
ATTDEF
8
0
10
0.000000
20
0.000000
30
0.0
40
3.5
1

3

2
PANE_WIDTH:0
70
0
0
ATTDEF
8
0
10
0.000000
20
0.000000
30
0.0
40
3.5
1

3

2
MIN_VETRO:0
70
0
0
ATTDEF
8
0
10
0.000000
20
0.000000
30
0.0
40
3.5
1

3

2
MAX_VETRO:0
70
0
0
ATTDEF
8
0
10
0.000000
20
0.000000
30
0.0
40
3.5
1

3

2
JX:0
70
0
0
ATTDEF
8
0
10
0.000000
20
0.000000
30
0.0
40
3.5
1

3

2
WX:0
70
0
0
ATTDEF
8
0
10
0.000000
20
0.000000
30
0.0
40
3.5
1

3

2
JY:0
70
0
0
ATTDEF
8
0
10
0.000000
20
0.000000
30
0.0
40
3.5
1

3

2
WY:0
70
0
0
ENDSEC
0
EOF
