0
SECTION
2
ENTITIES
0
LINE
8
0
10
12066.116948
20
3133.699498
30
0.0
11
12085.616948
21
3133.699498
31
0.0
0
LINE
8
0
10
12085.616948
20
3133.699498
30
0.0
11
12085.616948
21
3108.199498
31
0.0
0
LINE
8
0
10
12085.616948
20
3108.199498
30
0.0
11
12066.116948
21
3108.199498
31
0.0
0
LINE
8
0
10
12066.116948
20
3108.199498
30
0.0
11
12066.116948
21
3133.699498
31
0.0
0
LINE
8
0
10
12067.366948
20
3096.599498
30
0.0
11
12067.366948
21
3095.149498
31
0.0
0
LINE
8
0
10
12067.366948
20
3095.149498
30
0.0
11
12066.066948
21
3095.149498
31
0.0
0
LINE
8
0
10
12066.066948
20
3095.149498
30
0.0
11
12066.066948
21
3102.649498
31
0.0
0
LINE
8
0
10
12066.066948
20
3102.649498
30
0.0
11
12067.366948
21
3102.649498
31
0.0
0
LINE
8
0
10
12067.366948
20
3102.649498
30
0.0
11
12067.366948
21
3101.199498
31
0.0
0
ARC
8
0
10
12067.666948
20
3101.199498
30
0.0
40
0.300000
50
180.000000
51
270.000000
0
LINE
8
0
10
12067.666948
20
3100.899498
30
0.0
11
12068.066948
21
3100.899498
31
0.0
0
ARC
8
0
10
12068.066948
20
3101.199498
30
0.0
40
0.300000
50
270.000000
51
0.000000
0
LINE
8
0
10
12068.366948
20
3101.199498
30
0.0
11
12068.366948
21
3103.399498
31
0.0
0
ARC
8
0
10
12067.866948
20
3103.399498
30
0.0
40
0.500000
50
0.000000
51
90.000000
0
LINE
8
0
10
12067.866948
20
3103.899498
30
0.0
11
12066.116948
21
3103.899498
31
0.0
0
LINE
8
0
10
12066.116948
20
3103.899498
30
0.0
11
12066.116948
21
3106.899498
31
0.0
0
LINE
8
0
10
12066.116948
20
3106.899498
30
0.0
11
12085.616948
21
3106.899498
31
0.0
0
LINE
8
0
10
12085.616948
20
3106.899498
30
0.0
11
12085.616948
21
3103.899498
31
0.0
0
LINE
8
0
10
12085.616948
20
3103.899498
30
0.0
11
12083.866948
21
3103.899498
31
0.0
0
ARC
8
0
10
12083.866948
20
3103.399498
30
0.0
40
0.500000
50
90.000000
51
180.000000
0
LINE
8
0
10
12083.366948
20
3103.399498
30
0.0
11
12083.366948
21
3101.199498
31
0.0
0
ARC
8
0
10
12083.666948
20
3101.199498
30
0.0
40
0.300000
50
180.000000
51
270.000000
0
LINE
8
0
10
12083.666948
20
3100.899498
30
0.0
11
12084.066948
21
3100.899498
31
0.0
0
ARC
8
0
10
12084.066948
20
3101.199498
30
0.0
40
0.300000
50
270.000000
51
0.000000
0
LINE
8
0
10
12084.366948
20
3101.199498
30
0.0
11
12084.366948
21
3102.649498
31
0.0
0
LINE
8
0
10
12084.366948
20
3102.649498
30
0.0
11
12085.666948
21
3102.649498
31
0.0
0
LINE
8
0
10
12085.666948
20
3102.649498
30
0.0
11
12085.666948
21
3095.149498
31
0.0
0
LINE
8
0
10
12085.666948
20
3095.149498
30
0.0
11
12084.366948
21
3095.149498
31
0.0
0
LINE
8
0
10
12084.366948
20
3095.149498
30
0.0
11
12084.366948
21
3096.599498
31
0.0
0
ARC
8
0
10
12084.066948
20
3096.599498
30
0.0
40
0.300000
50
0.000000
51
90.000000
0
LINE
8
0
10
12084.066948
20
3096.899498
30
0.0
11
12083.666948
21
3096.899498
31
0.0
0
ARC
8
0
10
12083.666948
20
3096.599498
30
0.0
40
0.300000
50
90.000000
51
180.000000
0
LINE
8
0
10
12083.366948
20
3096.599498
30
0.0
11
12083.366948
21
3094.399498
31
0.0
0
ARC
8
0
10
12083.866948
20
3094.399498
30
0.0
40
0.500000
50
180.000000
51
270.000000
0
LINE
8
0
10
12083.866948
20
3093.899498
30
0.0
11
12086.366948
21
3093.899498
31
0.0
0
ARC
8
0
10
12086.366948
20
3094.399498
30
0.0
40
0.500000
50
270.000000
51
0.000000
0
LINE
8
0
10
12086.866948
20
3094.399498
30
0.0
11
12086.866948
21
3148.399498
31
0.0
0
ARC
8
0
10
12086.366948
20
3148.399498
30
0.0
40
0.500000
50
0.000000
51
90.000000
0
LINE
8
0
10
12086.366948
20
3148.899498
30
0.0
11
12080.866948
21
3148.899498
31
0.0
0
LINE
8
0
10
12080.866948
20
3148.899498
30
0.0
11
12080.866948
21
3147.649498
31
0.0
0
LINE
8
0
10
12080.866948
20
3147.649498
30
0.0
11
12085.616948
21
3147.649498
31
0.0
0
LINE
8
0
10
12085.616948
20
3147.649498
30
0.0
11
12085.616948
21
3134.899498
31
0.0
0
LINE
8
0
10
12085.616948
20
3134.899498
30
0.0
11
12066.116948
21
3134.899498
31
0.0
0
LINE
8
0
10
12066.116948
20
3134.899498
30
0.0
11
12066.116948
21
3147.649498
31
0.0
0
LINE
8
0
10
12066.116948
20
3147.649498
30
0.0
11
12070.866948
21
3147.649498
31
0.0
0
LINE
8
0
10
12070.866948
20
3147.649498
30
0.0
11
12070.866948
21
3148.899498
31
0.0
0
LINE
8
0
10
12070.866948
20
3148.899498
30
0.0
11
12065.366948
21
3148.899498
31
0.0
0
ARC
8
0
10
12065.366948
20
3148.399498
30
0.0
40
0.500000
50
90.000000
51
180.000000
0
LINE
8
0
10
12064.866948
20
3148.399498
30
0.0
11
12064.866948
21
3094.399498
31
0.0
0
ARC
8
0
10
12065.366948
20
3094.399498
30
0.0
40
0.500000
50
180.000000
51
270.000000
0
LINE
8
0
10
12065.366948
20
3093.899498
30
0.0
11
12067.866948
21
3093.899498
31
0.0
0
ARC
8
0
10
12067.866948
20
3094.399498
30
0.0
40
0.500000
50
270.000000
51
0.000000
0
LINE
8
0
10
12068.366948
20
3094.399498
30
0.0
11
12068.366948
21
3096.599498
31
0.0
0
ARC
8
0
10
12068.066948
20
3096.599498
30
0.0
40
0.300000
50
0.000000
51
90.000000
0
LINE
8
0
10
12068.066948
20
3096.899498
30
0.0
11
12067.666948
21
3096.899498
31
0.0
0
ARC
8
0
10
12067.666948
20
3096.599498
30
0.0
40
0.300000
50
90.000000
51
180.000000
0
ATTDEF
8
0
10
0.000000
20
0.000000
30
0.0
40
3.5
1

3

2
PANE_WIDTH:0
70
0
0
ATTDEF
8
0
10
0.000000
20
0.000000
30
0.0
40
3.5
1

3

2
MIN_VETRO:0
70
0
0
ATTDEF
8
0
10
0.000000
20
0.000000
30
0.0
40
3.5
1

3

2
MAX_VETRO:0
70
0
0
ATTDEF
8
0
10
0.000000
20
0.000000
30
0.0
40
3.5
1

3

2
JX:0
70
0
0
ATTDEF
8
0
10
0.000000
20
0.000000
30
0.0
40
3.5
1

3

2
WX:0
70
0
0
ATTDEF
8
0
10
0.000000
20
0.000000
30
0.0
40
3.5
1

3

2
JY:0
70
0
0
ATTDEF
8
0
10
0.000000
20
0.000000
30
0.0
40
3.5
1

3

2
WY:0
70
0
0
ATTDEF
8
0
10
0.000000
20
0.000000
30
0.0
40
3.5
1

3

2
DESC:Hoja lateral 55 mm
70
0
0
ATTDEF
8
0
10
0.000000
20
0.000000
30
0.0
40
3.5
1

3

2
DENS:0.5859
70
0
0
ATTDEF
8
0
10
0.000000
20
0.000000
30
0.0
40
3.5
1

3

2
TDEV:34.85
70
0
0
ATTDEF
8
0
10
0.000000
20
0.000000
30
0.0
40
3.5
1

3

2
TDEV2:0
70
0
0
ATTDEF
8
0
10
0.000000
20
0.000000
30
0.0
40
3.5
1

3

2
TDEV3:0
70
0
0
ATTDEF
8
0
10
0.000000
20
0.000000
30
0.0
40
3.5
1

3

2
TDEV4:0
70
0
0
ATTDEF
8
0
10
0.000000
20
0.000000
30
0.0
40
3.5
1

3

2
TDEV5:0
70
0
0
ATTDEF
8
0
10
0.000000
20
0.000000
30
0.0
40
3.5
1

3

2
PANE_WIDTH:0
70
0
0
ATTDEF
8
0
10
0.000000
20
0.000000
30
0.0
40
3.5
1

3

2
MIN_VETRO:0
70
0
0
ATTDEF
8
0
10
0.000000
20
0.000000
30
0.0
40
3.5
1

3

2
MAX_VETRO:0
70
0
0
ATTDEF
8
0
10
0.000000
20
0.000000
30
0.0
40
3.5
1

3

2
JX:0
70
0
0
ATTDEF
8
0
10
0.000000
20
0.000000
30
0.0
40
3.5
1

3

2
WX:0
70
0
0
ATTDEF
8
0
10
0.000000
20
0.000000
30
0.0
40
3.5
1

3

2
JY:0
70
0
0
ATTDEF
8
0
10
0.000000
20
0.000000
30
0.0
40
3.5
1

3

2
WY:0
70
0
0
ENDSEC
0
EOF
