0
SECTION
2
ENTITIES
0
LINE
8
0
10
10869.414779
20
2387.950691
30
0.0
11
10869.414779
21
2408.903677
31
0.0
0
ARC
8
0
10
10869.914779
20
2408.903677
30
0.0
40
0.500000
50
110.667316
51
180.000000
0
ARC
8
0
10
10872.914779
20
2400.950691
30
0.0
40
9.000000
50
69.332684
51
110.667316
0
ARC
8
0
10
10875.914779
20
2408.903677
30
0.0
40
0.500000
50
0.000000
51
69.332684
0
LINE
8
0
10
10876.414779
20
2408.903677
30
0.0
11
10876.414779
21
2402.503651
31
0.0
0
ARC
8
0
10
10876.114779
20
2402.503651
30
0.0
40
0.300000
50
215.000000
51
0.000000
0
LINE
8
0
10
10875.869034
20
2402.331578
30
0.0
11
10874.113815
21
2404.838291
31
0.0
0
ARC
8
0
10
10874.277645
20
2404.953006
30
0.0
40
0.200000
50
130.465024
51
215.000000
0
ARC
8
0
10
10872.914779
20
2406.550691
30
0.0
40
1.900000
50
310.465024
51
229.534976
0
ARC
8
0
10
10871.551913
20
2404.953006
30
0.0
40
0.200000
50
325.000000
51
49.534976
0
LINE
8
0
10
10871.715744
20
2404.838291
30
0.0
11
10870.664779
21
2403.337358
31
0.0
0
LINE
8
0
10
10870.664779
20
2403.337358
30
0.0
11
10870.664779
21
2393.950691
31
0.0
0
LINE
8
0
10
10870.664779
20
2393.950691
30
0.0
11
10884.173598
21
2390.331013
31
0.0
0
ARC
8
0
10
10883.914779
20
2389.365088
30
0.0
40
1.000000
50
179.477512
51
75.000000
0
LINE
8
0
10
10882.914821
20
2389.374207
30
0.0
11
10870.664779
21
2392.656595
31
0.0
0
LINE
8
0
10
10870.664779
20
2392.656595
30
0.0
11
10870.664779
21
2382.950691
31
0.0
0
LINE
8
0
10
10870.664779
20
2382.950691
30
0.0
11
10886.432417
21
2378.725765
31
0.0
0
ARC
8
0
10
10885.914779
20
2376.793913
30
0.0
40
2.000000
50
0.000000
51
75.000000
0
LINE
8
0
10
10887.914779
20
2376.793913
30
0.0
11
10887.914779
21
2372.950691
31
0.0
0
LINE
8
0
10
10887.914779
20
2372.950691
30
0.0
11
10883.747279
21
2372.950691
31
0.0
0
LINE
8
0
10
10883.747279
20
2372.950691
30
0.0
11
10883.014090
21
2373.648966
31
0.0
0
ARC
8
0
10
10883.234779
20
2373.880691
30
0.0
40
0.320000
50
90.000000
51
226.397181
0
LINE
8
0
10
10883.234779
20
2374.200691
30
0.0
11
10886.664779
21
2374.200691
31
0.0
0
LINE
8
0
10
10886.664779
20
2374.200691
30
0.0
11
10886.664779
21
2376.793913
31
0.0
0
ARC
8
0
10
10885.914779
20
2376.793913
30
0.0
40
0.750000
50
0.000000
51
75.000000
0
LINE
8
0
10
10886.108894
20
2377.518357
30
0.0
11
10870.664779
21
2381.656595
31
0.0
0
LINE
8
0
10
10870.664779
20
2381.656595
30
0.0
11
10870.664779
21
2377.250691
31
0.0
0
LINE
8
0
10
10870.664779
20
2377.250691
30
0.0
11
10872.364779
21
2377.250691
31
0.0
0
LINE
8
0
10
10872.364779
20
2377.250691
30
0.0
11
10872.364779
21
2376.000691
31
0.0
0
LINE
8
0
10
10872.364779
20
2376.000691
30
0.0
11
10870.664779
21
2376.000691
31
0.0
0
LINE
8
0
10
10870.664779
20
2376.000691
30
0.0
11
10870.664779
21
2374.200691
31
0.0
0
LINE
8
0
10
10870.664779
20
2374.200691
30
0.0
11
10872.042231
21
2374.200691
31
0.0
0
ARC
8
0
10
10872.042231
20
2373.880691
30
0.0
40
0.320000
50
315.000000
51
90.000000
0
LINE
8
0
10
10872.268505
20
2373.654416
30
0.0
11
10871.564779
21
2372.950691
31
0.0
0
LINE
8
0
10
10871.564779
20
2372.950691
30
0.0
11
10869.414779
21
2372.950691
31
0.0
0
LINE
8
0
10
10869.414779
20
2372.950691
30
0.0
11
10869.414779
21
2386.656595
31
0.0
0
LINE
8
0
10
10869.414779
20
2386.656595
30
0.0
11
10829.164779
21
2397.441550
31
0.0
0
LINE
8
0
10
10829.164779
20
2397.441550
30
0.0
11
10829.164779
21
2374.200691
31
0.0
0
LINE
8
0
10
10829.164779
20
2374.200691
30
0.0
11
10832.842231
21
2374.200691
31
0.0
0
ARC
8
0
10
10832.842231
20
2373.880691
30
0.0
40
0.320000
50
315.000000
51
90.000000
0
LINE
8
0
10
10833.068505
20
2373.654416
30
0.0
11
10832.364779
21
2372.950691
31
0.0
0
LINE
8
0
10
10832.364779
20
2372.950691
30
0.0
11
10827.914779
21
2372.950691
31
0.0
0
LINE
8
0
10
10827.914779
20
2372.950691
30
0.0
11
10827.914779
21
2409.450691
31
0.0
0
ARC
8
0
10
10828.414779
20
2409.450691
30
0.0
40
0.500000
50
90.000000
51
180.000000
0
LINE
8
0
10
10828.414779
20
2409.950691
30
0.0
11
10828.664779
21
2409.950691
31
0.0
0
ARC
8
0
10
10828.664779
20
2409.450691
30
0.0
40
0.500000
50
0.000000
51
90.000000
0
LINE
8
0
10
10829.164779
20
2409.450691
30
0.0
11
10829.164779
21
2398.735646
31
0.0
0
LINE
8
0
10
10829.164779
20
2398.735646
30
0.0
11
10840.464779
21
2395.707820
31
0.0
0
LINE
8
0
10
10840.464779
20
2395.707820
30
0.0
11
10840.464779
21
2400.900691
31
0.0
0
LINE
8
0
10
10840.464779
20
2400.900691
30
0.0
11
10839.914779
21
2400.900691
31
0.0
0
ARC
8
0
10
10839.914779
20
2401.400691
30
0.0
40
0.500000
50
180.000000
51
270.000000
0
LINE
8
0
10
10839.414779
20
2401.400691
30
0.0
11
10839.414779
21
2408.903677
31
0.0
0
ARC
8
0
10
10839.914779
20
2408.903677
30
0.0
40
0.500000
50
110.667316
51
180.000000
0
ARC
8
0
10
10842.914779
20
2400.950691
30
0.0
40
9.000000
50
69.332684
51
110.667316
0
ARC
8
0
10
10845.914779
20
2408.903677
30
0.0
40
0.500000
50
0.000000
51
69.332684
0
LINE
8
0
10
10846.414779
20
2408.903677
30
0.0
11
10846.414779
21
2402.503651
31
0.0
0
ARC
8
0
10
10846.114779
20
2402.503651
30
0.0
40
0.300000
50
215.000000
51
0.000000
0
LINE
8
0
10
10845.869034
20
2402.331578
30
0.0
11
10844.113815
21
2404.838291
31
0.0
0
ARC
8
0
10
10844.277645
20
2404.953006
30
0.0
40
0.200000
50
130.465024
51
215.000000
0
ARC
8
0
10
10842.914779
20
2406.550691
30
0.0
40
1.900000
50
310.465024
51
229.534976
0
ARC
8
0
10
10841.551913
20
2404.953006
30
0.0
40
0.200000
50
325.000000
51
49.534976
0
LINE
8
0
10
10841.715744
20
2404.838291
30
0.0
11
10840.664779
21
2403.337358
31
0.0
0
LINE
8
0
10
10840.664779
20
2403.337358
30
0.0
11
10840.664779
21
2402.150691
31
0.0
0
LINE
8
0
10
10840.664779
20
2402.150691
30
0.0
11
10841.214779
21
2402.150691
31
0.0
0
ARC
8
0
10
10841.214779
20
2401.650691
30
0.0
40
0.500000
50
0.000000
51
90.000000
0
LINE
8
0
10
10841.714779
20
2401.650691
30
0.0
11
10841.714779
21
2395.372883
31
0.0
0
LINE
8
0
10
10841.714779
20
2395.372883
30
0.0
11
10869.414779
21
2387.950691
31
0.0
0
ATTDEF
8
0
10
0.000000
20
0.000000
30
0.0
40
3.5
1

3

2
PANE_WIDTH:0
70
0
0
ATTDEF
8
0
10
0.000000
20
0.000000
30
0.0
40
3.5
1

3

2
MIN_VETRO:0
70
0
0
ATTDEF
8
0
10
0.000000
20
0.000000
30
0.0
40
3.5
1

3

2
MAX_VETRO:0
70
0
0
ATTDEF
8
0
10
0.000000
20
0.000000
30
0.0
40
3.5
1

3

2
JX:0
70
0
0
ATTDEF
8
0
10
0.000000
20
0.000000
30
0.0
40
3.5
1

3

2
WX:0
70
0
0
ATTDEF
8
0
10
0.000000
20
0.000000
30
0.0
40
3.5
1

3

2
JY:0
70
0
0
ATTDEF
8
0
10
0.000000
20
0.000000
30
0.0
40
3.5
1

3

2
WY:0
70
0
0
ATTDEF
8
0
10
0.000000
20
0.000000
30
0.0
40
3.5
1

3

2
DESC:Marco inferior
70
0
0
ATTDEF
8
0
10
0.000000
20
0.000000
30
0.0
40
3.5
1

3

2
DENS:0.7128
70
0
0
ATTDEF
8
0
10
0.000000
20
0.000000
30
0.0
40
3.5
1

3

2
TDEV:39.65
70
0
0
ATTDEF
8
0
10
0.000000
20
0.000000
30
0.0
40
3.5
1

3

2
TDEV2:0
70
0
0
ATTDEF
8
0
10
0.000000
20
0.000000
30
0.0
40
3.5
1

3

2
TDEV3:0
70
0
0
ATTDEF
8
0
10
0.000000
20
0.000000
30
0.0
40
3.5
1

3

2
TDEV4:0
70
0
0
ATTDEF
8
0
10
0.000000
20
0.000000
30
0.0
40
3.5
1

3

2
TDEV5:0
70
0
0
ATTDEF
8
0
10
0.000000
20
0.000000
30
0.0
40
3.5
1

3

2
PANE_WIDTH:0
70
0
0
ATTDEF
8
0
10
0.000000
20
0.000000
30
0.0
40
3.5
1

3

2
MIN_VETRO:0
70
0
0
ATTDEF
8
0
10
0.000000
20
0.000000
30
0.0
40
3.5
1

3

2
MAX_VETRO:0
70
0
0
ATTDEF
8
0
10
0.000000
20
0.000000
30
0.0
40
3.5
1

3

2
JX:0
70
0
0
ATTDEF
8
0
10
0.000000
20
0.000000
30
0.0
40
3.5
1

3

2
WX:0
70
0
0
ATTDEF
8
0
10
0.000000
20
0.000000
30
0.0
40
3.5
1

3

2
JY:0
70
0
0
ATTDEF
8
0
10
0.000000
20
0.000000
30
0.0
40
3.5
1

3

2
WY:0
70
0
0
ENDSEC
0
EOF
