0
SECTION
2
ENTITIES
0
LINE
8
0
10
10508.313474
20
2155.227679
30
0.0
11
10510.263474
21
2152.727679
31
0.0
0
LINE
8
0
10
10510.263474
20
2152.727679
30
0.0
11
10510.263474
21
2145.227679
31
0.0
0
ARC
8
0
10
10510.763474
20
2145.227679
30
0.0
40
0.500000
50
180.000000
51
270.000000
0
LINE
8
0
10
10510.763474
20
2144.727679
30
0.0
11
10511.063474
21
2144.727679
31
0.0
0
ARC
8
0
10
10511.063474
20
2145.227679
30
0.0
40
0.500000
50
270.000000
51
0.000000
0
LINE
8
0
10
10511.563474
20
2145.227679
30
0.0
11
10511.563474
21
2152.727679
31
0.0
0
LINE
8
0
10
10511.563474
20
2152.727679
30
0.0
11
10510.121412
21
2156.227679
31
0.0
0
LINE
8
0
10
10510.121412
20
2156.227679
30
0.0
11
10509.913474
21
2156.227679
31
0.0
0
ARC
8
0
10
10509.913474
20
2156.527679
30
0.0
40
0.300000
50
180.000000
51
270.000000
0
LINE
8
0
10
10509.613474
20
2156.527679
30
0.0
11
10509.613474
21
2156.727679
31
0.0
0
LINE
8
0
10
10509.613474
20
2156.727679
30
0.0
11
10521.013474
21
2156.727679
31
0.0
0
LINE
8
0
10
10521.013474
20
2156.727679
30
0.0
11
10521.013474
21
2156.527679
31
0.0
0
ARC
8
0
10
10520.713474
20
2156.527679
30
0.0
40
0.300000
50
270.000000
51
0.000000
0
LINE
8
0
10
10520.713474
20
2156.227679
30
0.0
11
10520.505537
21
2156.227679
31
0.0
0
LINE
8
0
10
10520.505537
20
2156.227679
30
0.0
11
10519.063474
21
2152.727679
31
0.0
0
LINE
8
0
10
10519.063474
20
2152.727679
30
0.0
11
10519.063474
21
2145.227679
31
0.0
0
ARC
8
0
10
10519.563474
20
2145.227679
30
0.0
40
0.500000
50
180.000000
51
270.000000
0
LINE
8
0
10
10519.563474
20
2144.727679
30
0.0
11
10519.863474
21
2144.727679
31
0.0
0
ARC
8
0
10
10519.863474
20
2145.227679
30
0.0
40
0.500000
50
270.000000
51
0.000000
0
LINE
8
0
10
10520.363474
20
2145.227679
30
0.0
11
10520.363474
21
2152.727679
31
0.0
0
LINE
8
0
10
10520.363474
20
2152.727679
30
0.0
11
10522.313474
21
2155.227679
31
0.0
0
LINE
8
0
10
10522.313474
20
2155.227679
30
0.0
11
10522.313474
21
2156.727679
31
0.0
0
LINE
8
0
10
10522.313474
20
2156.727679
30
0.0
11
10530.563474
21
2156.727679
31
0.0
0
LINE
8
0
10
10530.563474
20
2156.727679
30
0.0
11
10530.563474
21
2145.227679
31
0.0
0
ARC
8
0
10
10531.063474
20
2145.227679
30
0.0
40
0.500000
50
180.000000
51
270.000000
0
LINE
8
0
10
10531.063474
20
2144.727679
30
0.0
11
10531.263474
21
2144.727679
31
0.0
0
ARC
8
0
10
10531.270505
20
2145.272445
30
0.0
40
0.544812
50
269.260583
51
355.286795
0
LINE
8
0
10
10531.813474
20
2145.227679
30
0.0
11
10531.813474
21
2176.227679
31
0.0
0
ARC
8
0
10
10531.313474
20
2176.227679
30
0.0
40
0.500000
50
0.000000
51
90.000000
0
LINE
8
0
10
10531.313474
20
2176.727679
30
0.0
11
10520.344415
21
2176.727679
31
0.0
0
LINE
8
0
10
10520.344415
20
2176.727679
30
0.0
11
10519.853667
21
2175.877679
31
0.0
0
ARC
8
0
10
10520.113474
20
2175.727679
30
0.0
40
0.300000
50
150.000000
51
270.000000
0
LINE
8
0
10
10520.113474
20
2175.427679
30
0.0
11
10530.563474
21
2175.427679
31
0.0
0
LINE
8
0
10
10530.563474
20
2175.427679
30
0.0
11
10530.563474
21
2157.977679
31
0.0
0
LINE
8
0
10
10530.563474
20
2157.977679
30
0.0
11
10520.890825
21
2157.977679
31
0.0
0
LINE
8
0
10
10520.890825
20
2157.977679
30
0.0
11
10520.313474
21
2158.977679
31
0.0
0
LINE
8
0
10
10520.313474
20
2158.977679
30
0.0
11
10515.813474
21
2158.977679
31
0.0
0
LINE
8
0
10
10515.813474
20
2158.977679
30
0.0
11
10515.313474
21
2158.477679
31
0.0
0
LINE
8
0
10
10515.313474
20
2158.477679
30
0.0
11
10514.813474
21
2158.977679
31
0.0
0
LINE
8
0
10
10514.813474
20
2158.977679
30
0.0
11
10510.313474
21
2158.977679
31
0.0
0
LINE
8
0
10
10510.313474
20
2158.977679
30
0.0
11
10509.736124
21
2157.977679
31
0.0
0
LINE
8
0
10
10509.736124
20
2157.977679
30
0.0
11
10490.890825
21
2157.977679
31
0.0
0
LINE
8
0
10
10490.890825
20
2157.977679
30
0.0
11
10490.313474
21
2158.977679
31
0.0
0
LINE
8
0
10
10490.313474
20
2158.977679
30
0.0
11
10485.813474
21
2158.977679
31
0.0
0
LINE
8
0
10
10485.813474
20
2158.977679
30
0.0
11
10485.313474
21
2158.477679
31
0.0
0
LINE
8
0
10
10485.313474
20
2158.477679
30
0.0
11
10484.813474
21
2158.977679
31
0.0
0
LINE
8
0
10
10484.813474
20
2158.977679
30
0.0
11
10480.313474
21
2158.977679
31
0.0
0
LINE
8
0
10
10480.313474
20
2158.977679
30
0.0
11
10479.736124
21
2157.977679
31
0.0
0
LINE
8
0
10
10479.736124
20
2157.977679
30
0.0
11
10470.063474
21
2157.977679
31
0.0
0
LINE
8
0
10
10470.063474
20
2157.977679
30
0.0
11
10470.063474
21
2175.427679
31
0.0
0
LINE
8
0
10
10470.063474
20
2175.427679
30
0.0
11
10480.513474
21
2175.427679
31
0.0
0
ARC
8
0
10
10480.513474
20
2175.727679
30
0.0
40
0.300000
50
270.000000
51
30.000000
0
LINE
8
0
10
10480.773282
20
2175.877679
30
0.0
11
10480.282534
21
2176.727679
31
0.0
0
LINE
8
0
10
10480.282534
20
2176.727679
30
0.0
11
10469.313474
21
2176.727679
31
0.0
0
ARC
8
0
10
10469.313474
20
2176.227679
30
0.0
40
0.500000
50
90.000000
51
180.000000
0
LINE
8
0
10
10468.813474
20
2176.227679
30
0.0
11
10468.813474
21
2145.227679
31
0.0
0
ARC
8
0
10
10469.313474
20
2145.227679
30
0.0
40
0.500000
50
180.000000
51
270.000000
0
LINE
8
0
10
10469.313474
20
2144.727679
30
0.0
11
10469.563474
21
2144.727679
31
0.0
0
ARC
8
0
10
10469.563474
20
2145.227679
30
0.0
40
0.500000
50
270.000000
51
0.000000
0
LINE
8
0
10
10470.063474
20
2145.227679
30
0.0
11
10470.063474
21
2156.727679
31
0.0
0
LINE
8
0
10
10470.063474
20
2156.727679
30
0.0
11
10498.813474
21
2156.727679
31
0.0
0
LINE
8
0
10
10498.813474
20
2156.727679
30
0.0
11
10498.813474
21
2145.227679
31
0.0
0
ARC
8
0
10
10499.313474
20
2145.227679
30
0.0
40
0.500000
50
180.000000
51
270.000000
0
LINE
8
0
10
10499.313474
20
2144.727679
30
0.0
11
10499.563474
21
2144.727679
31
0.0
0
ARC
8
0
10
10499.563474
20
2145.227679
30
0.0
40
0.500000
50
270.000000
51
0.000000
0
LINE
8
0
10
10500.063474
20
2145.227679
30
0.0
11
10500.063474
21
2156.727679
31
0.0
0
LINE
8
0
10
10500.063474
20
2156.727679
30
0.0
11
10508.313474
21
2156.727679
31
0.0
0
LINE
8
0
10
10508.313474
20
2156.727679
30
0.0
11
10508.313474
21
2155.227679
31
0.0
0
ATTDEF
8
0
10
0.000000
20
0.000000
30
0.0
40
3.5
1

3

2
PANE_WIDTH:0
70
0
0
ATTDEF
8
0
10
0.000000
20
0.000000
30
0.0
40
3.5
1

3

2
MIN_VETRO:0
70
0
0
ATTDEF
8
0
10
0.000000
20
0.000000
30
0.0
40
3.5
1

3

2
MAX_VETRO:0
70
0
0
ATTDEF
8
0
10
0.000000
20
0.000000
30
0.0
40
3.5
1

3

2
JX:0
70
0
0
ATTDEF
8
0
10
0.000000
20
0.000000
30
0.0
40
3.5
1

3

2
WX:0
70
0
0
ATTDEF
8
0
10
0.000000
20
0.000000
30
0.0
40
3.5
1

3

2
JY:0
70
0
0
ATTDEF
8
0
10
0.000000
20
0.000000
30
0.0
40
3.5
1

3

2
WY:0
70
0
0
ATTDEF
8
0
10
0.000000
20
0.000000
30
0.0
40
3.5
1

3

2
DESC:Marco lateral
70
0
0
ATTDEF
8
0
10
0.000000
20
0.000000
30
0.0
40
3.5
1

3

2
DENS:0.6831
70
0
0
ATTDEF
8
0
10
0.000000
20
0.000000
30
0.0
40
3.5
1

3

2
TDEV:36.87
70
0
0
ATTDEF
8
0
10
0.000000
20
0.000000
30
0.0
40
3.5
1

3

2
TDEV2:0
70
0
0
ATTDEF
8
0
10
0.000000
20
0.000000
30
0.0
40
3.5
1

3

2
TDEV3:0
70
0
0
ATTDEF
8
0
10
0.000000
20
0.000000
30
0.0
40
3.5
1

3

2
TDEV4:0
70
0
0
ATTDEF
8
0
10
0.000000
20
0.000000
30
0.0
40
3.5
1

3

2
TDEV5:0
70
0
0
ATTDEF
8
0
10
0.000000
20
0.000000
30
0.0
40
3.5
1

3

2
PANE_WIDTH:0
70
0
0
ATTDEF
8
0
10
0.000000
20
0.000000
30
0.0
40
3.5
1

3

2
MIN_VETRO:0
70
0
0
ATTDEF
8
0
10
0.000000
20
0.000000
30
0.0
40
3.5
1

3

2
MAX_VETRO:0
70
0
0
ATTDEF
8
0
10
0.000000
20
0.000000
30
0.0
40
3.5
1

3

2
JX:0
70
0
0
ATTDEF
8
0
10
0.000000
20
0.000000
30
0.0
40
3.5
1

3

2
WX:0
70
0
0
ATTDEF
8
0
10
0.000000
20
0.000000
30
0.0
40
3.5
1

3

2
JY:0
70
0
0
ATTDEF
8
0
10
0.000000
20
0.000000
30
0.0
40
3.5
1

3

2
WY:0
70
0
0
ENDSEC
0
EOF
