0
SECTION
2
ENTITIES
0
LINE
8
00_POLIAMIDAS
10
195.634614
20
44.310971
30
0.0
11
196.103531
21
44.779888
31
0.0
0
LINE
8
00_POLIAMIDAS
10
195.684615
20
42.115908
30
0.0
11
195.723605
21
42.154899
31
0.0
0
LINE
8
00_POLIAMIDAS
10
196.690492
20
43.121785
30
0.0
11
197.631505
21
44.062799
31
0.0
0
LINE
8
00_POLIAMIDAS
10
196.393659
20
40.579888
30
0.0
11
202.393666
21
46.579895
31
0.0
0
LINE
8
00_POLIAMIDAS
10
195.634615
20
37.575780
30
0.0
11
196.490456
21
38.431621
31
0.0
0
LINE
8
00_POLIAMIDAS
10
202.638730
20
44.579895
30
0.0
11
204.638729
21
46.579894
31
0.0
0
LINE
8
00_POLIAMIDAS
10
195.684614
20
35.380715
30
0.0
11
196.114901
21
35.811003
31
0.0
0
LINE
8
00_POLIAMIDAS
10
204.883794
20
44.579895
30
0.0
11
206.883792
21
46.579894
31
0.0
0
LINE
8
00_POLIAMIDAS
10
196.860112
20
36.556213
30
0.0
11
197.913769
21
37.609870
31
0.0
0
LINE
8
00_POLIAMIDAS
10
197.444726
20
34.895763
30
0.0
11
199.735828
21
37.186865
31
0.0
0
LINE
8
00_POLIAMIDAS
10
207.128858
20
44.579895
30
0.0
11
209.128856
21
46.579893
31
0.0
0
LINE
8
00_POLIAMIDAS
10
199.248726
20
34.454699
30
0.0
11
200.680568
21
35.886541
31
0.0
0
LINE
8
00_POLIAMIDAS
10
209.373922
20
44.579895
30
0.0
11
211.373921
21
46.579894
31
0.0
0
LINE
8
00_POLIAMIDAS
10
200.193467
20
33.154376
30
0.0
11
201.626341
21
34.587250
31
0.0
0
LINE
8
00_POLIAMIDAS
10
211.618986
20
44.579895
30
0.0
11
213.618986
21
46.579895
31
0.0
0
LINE
8
00_POLIAMIDAS
10
201.770663
20
32.486508
30
0.0
11
203.770662
21
34.486508
31
0.0
0
LINE
8
00_POLIAMIDAS
10
213.864050
20
44.579895
30
0.0
11
215.702203
21
46.418048
31
0.0
0
LINE
8
00_POLIAMIDAS
10
204.015726
20
32.486508
30
0.0
11
206.015726
21
34.486507
31
0.0
0
LINE
8
00_POLIAMIDAS
10
215.215101
20
43.685882
30
0.0
11
216.646943
21
45.117724
31
0.0
0
LINE
8
00_POLIAMIDAS
10
206.260790
20
32.486507
30
0.0
11
208.260789
21
34.486506
31
0.0
0
LINE
8
00_POLIAMIDAS
10
216.159842
20
42.385559
30
0.0
11
217.591684
21
43.817401
31
0.0
0
LINE
8
00_POLIAMIDAS
10
208.505853
20
32.486506
30
0.0
11
210.505852
21
34.486505
31
0.0
0
LINE
8
00_POLIAMIDAS
10
217.698157
20
41.678811
30
0.0
11
220.587529
21
44.568182
31
0.0
0
LINE
8
00_POLIAMIDAS
10
210.750916
20
32.486505
30
0.0
11
212.750915
21
34.486504
31
0.0
0
LINE
8
00_POLIAMIDAS
10
219.221140
20
40.956729
30
0.0
11
220.419310
21
42.154899
31
0.0
0
LINE
8
00_POLIAMIDAS
10
212.995979
20
32.486504
30
0.0
11
217.929754
21
37.420279
31
0.0
0
LINE
8
00_POLIAMIDAS
10
215.241042
20
32.486503
30
0.0
11
216.497439
21
33.742900
31
0.0
0
LINE
8
00_POLIAMIDAS
10
219.608587
20
36.854048
30
0.0
11
220.634617
21
37.880078
31
0.0
0
LINE
8
00_POLIAMIDAS
10
218.077926
20
35.323387
30
0.0
11
219.517070
21
36.762531
31
0.0
0
LINE
8
00_POLIAMIDAS
10
219.501240
20
34.501637
30
0.0
11
220.584618
21
35.585015
31
0.0
0
LINE
8
00_POLIAMIDAS
10
196.670987
20
34.449045
30
0.0
11
195.684614
21
35.435418
31
0.0
0
LINE
8
00_POLIAMIDAS
10
200.878588
20
32.486509
30
0.0
11
200.147624
21
33.217472
31
0.0
0
LINE
8
00_POLIAMIDAS
10
196.387480
20
36.977617
30
0.0
11
195.634615
21
37.730482
31
0.0
0
LINE
8
00_POLIAMIDAS
10
198.094301
20
35.270795
30
0.0
11
196.875731
21
36.489365
31
0.0
0
LINE
8
00_POLIAMIDAS
10
203.123653
20
32.486508
30
0.0
11
198.107833
21
37.502327
31
0.0
0
LINE
8
00_POLIAMIDAS
10
205.368717
20
32.486507
30
0.0
11
203.368717
21
34.486508
31
0.0
0
LINE
8
00_POLIAMIDAS
10
196.953251
20
40.901973
30
0.0
11
195.700326
21
42.154899
31
0.0
0
LINE
8
00_POLIAMIDAS
10
207.613782
20
32.486506
30
0.0
11
205.613782
21
34.486507
31
0.0
0
LINE
8
00_POLIAMIDAS
10
198.435069
20
41.665220
30
0.0
11
195.642310
21
44.457978
31
0.0
0
LINE
8
00_POLIAMIDAS
10
209.858847
20
32.486505
30
0.0
11
207.858847
21
34.486506
31
0.0
0
LINE
8
00_POLIAMIDAS
10
200.043013
20
42.302339
30
0.0
11
198.602608
21
43.742744
31
0.0
0
LINE
8
00_POLIAMIDAS
10
212.103912
20
32.486505
30
0.0
11
210.103911
21
34.486505
31
0.0
0
LINE
8
00_POLIAMIDAS
10
200.987754
20
43.602663
30
0.0
11
199.555912
21
45.034505
31
0.0
0
LINE
8
00_POLIAMIDAS
10
214.348977
20
32.486504
30
0.0
11
212.348976
21
34.486504
31
0.0
0
LINE
8
00_POLIAMIDAS
10
202.255585
20
44.579895
30
0.0
11
200.500652
21
46.334828
31
0.0
0
LINE
8
00_POLIAMIDAS
10
216.009389
20
33.071156
30
0.0
11
214.557039
21
34.523506
31
0.0
0
LINE
8
00_POLIAMIDAS
10
204.500649
20
44.579895
30
0.0
11
202.500650
21
46.579895
31
0.0
0
LINE
8
00_POLIAMIDAS
10
216.954129
20
34.371480
30
0.0
11
215.522287
21
35.803322
31
0.0
0
LINE
8
00_POLIAMIDAS
10
206.745713
20
44.579895
30
0.0
11
204.745714
21
46.579894
31
0.0
0
LINE
8
00_POLIAMIDAS
10
218.478636
20
35.092037
30
0.0
11
216.467027
21
37.103645
31
0.0
0
LINE
8
00_POLIAMIDAS
10
208.990777
20
44.579895
30
0.0
11
206.990779
21
46.579893
31
0.0
0
LINE
8
00_POLIAMIDAS
10
220.634618
20
35.181118
30
0.0
11
220.027689
21
35.788048
31
0.0
0
LINE
8
00_POLIAMIDAS
10
211.235842
20
44.579895
30
0.0
11
209.235843
21
46.579893
31
0.0
0
LINE
8
00_POLIAMIDAS
10
219.386166
20
36.429571
30
0.0
11
218.260623
21
37.555114
31
0.0
0
LINE
8
00_POLIAMIDAS
10
220.584617
20
37.476183
30
0.0
11
219.683936
21
38.376865
31
0.0
0
LINE
8
00_POLIAMIDAS
10
213.480906
20
44.579895
30
0.0
11
211.480906
21
46.579894
31
0.0
0
LINE
8
00_POLIAMIDAS
10
219.523980
20
40.781885
30
0.0
11
213.725970
21
46.579895
31
0.0
0
LINE
8
00_POLIAMIDAS
10
220.584618
20
41.966311
30
0.0
11
220.396030
21
42.154899
31
0.0
0
LINE
8
00_POLIAMIDAS
10
219.507378
20
43.043551
30
0.0
11
218.540721
21
44.010207
31
0.0
0
LINE
8
00_POLIAMIDAS
10
220.634618
20
44.161374
30
0.0
11
220.016105
21
44.779888
31
0.0
0
ARC
8
00_POLIAMIDAS
10
200.831562
20
46.279896
30
0.0
40
0.300000
50
90.000023
51
144.000000
0
LINE
8
00_POLIAMIDAS
10
200.588857
20
46.456231
30
0.0
11
198.661581
21
43.803564
31
0.0
0
ARC
8
00_POLIAMIDAS
10
198.418876
20
43.979900
30
0.0
40
0.300000
50
270.000090
51
324.000000
0
LINE
8
00_POLIAMIDAS
10
198.418877
20
43.679900
30
0.0
11
198.375092
21
43.679900
31
0.0
0
ARC
8
00_POLIAMIDAS
10
198.375091
20
43.979900
30
0.0
40
0.300000
50
240.000023
51
270.000090
0
LINE
8
00_POLIAMIDAS
10
198.225091
20
43.720092
30
0.0
11
196.389469
21
44.779888
31
0.0
0
LINE
8
00_POLIAMIDAS
10
196.389469
20
44.779888
30
0.0
11
196.034614
21
44.779888
31
0.0
0
ARC
8
00_POLIAMIDAS
10
196.034614
20
44.379888
30
0.0
40
0.400000
50
90.000023
51
180.000023
0
LINE
8
00_POLIAMIDAS
10
195.634614
20
44.379888
30
0.0
11
195.634614
21
43.779899
31
0.0
0
LINE
8
00_POLIAMIDAS
10
195.634614
20
43.779899
30
0.0
11
195.684614
21
43.779899
31
0.0
0
LINE
8
00_POLIAMIDAS
10
195.684614
20
43.779899
30
0.0
11
195.684614
21
43.204899
31
0.0
0
LINE
8
00_POLIAMIDAS
10
195.684614
20
43.204899
30
0.0
11
195.994141
21
43.204899
31
0.0
0
ARC
8
00_POLIAMIDAS
10
196.284615
20
42.679899
30
0.0
40
0.600000
50
241.044976
51
118.955024
0
LINE
8
00_POLIAMIDAS
10
195.994141
20
42.154899
30
0.0
11
195.684615
21
42.154899
31
0.0
0
LINE
8
00_POLIAMIDAS
10
195.684615
20
42.154899
30
0.0
11
195.684615
21
41.579899
31
0.0
0
LINE
8
00_POLIAMIDAS
10
195.684615
20
41.579899
30
0.0
11
195.634615
21
41.579899
31
0.0
0
LINE
8
00_POLIAMIDAS
10
195.634615
20
41.579899
30
0.0
11
195.634615
21
40.979888
31
0.0
0
ARC
8
00_POLIAMIDAS
10
196.034615
20
40.979888
30
0.0
40
0.400000
50
180.000023
51
270.000023
0
LINE
8
00_POLIAMIDAS
10
196.034615
20
40.579888
30
0.0
11
196.395385
21
40.579888
31
0.0
0
LINE
8
00_POLIAMIDAS
10
196.395385
20
40.579888
30
0.0
11
198.022198
21
41.519130
31
0.0
0
ARC
8
00_POLIAMIDAS
10
198.622198
20
40.479900
30
0.0
40
1.200000
50
90.000091
51
120.000023
0
LINE
8
00_POLIAMIDAS
10
198.622196
20
41.679900
30
0.0
11
199.081037
21
41.679901
31
0.0
0
LINE
8
00_POLIAMIDAS
10
199.081037
20
41.679901
30
0.0
11
199.437929
21
41.679901
31
0.0
0
ARC
8
00_POLIAMIDAS
10
199.437928
20
41.979901
30
0.0
40
0.300000
50
270.000090
51
324.000000
0
LINE
8
00_POLIAMIDAS
10
199.680633
20
41.803566
30
0.0
11
201.607907
21
44.456231
31
0.0
0
ARC
8
00_POLIAMIDAS
10
201.850612
20
44.279895
30
0.0
40
0.300000
50
90.000023
51
144.000000
0
LINE
8
00_POLIAMIDAS
10
201.850612
20
44.579895
30
0.0
11
214.412705
21
44.579895
31
0.0
0
LINE
8
00_POLIAMIDAS
10
214.412705
20
44.579895
30
0.0
11
208.131659
21
44.579893
31
0.0
0
LINE
8
00_POLIAMIDAS
10
208.131659
20
44.579893
30
0.0
11
214.412705
21
44.579895
31
0.0
0
ARC
8
00_POLIAMIDAS
10
214.412705
20
44.279895
30
0.0
40
0.300000
50
36.000000
51
90.000023
0
LINE
8
00_POLIAMIDAS
10
214.655410
20
44.456231
30
0.0
11
216.582684
21
41.803566
31
0.0
0
ARC
8
00_POLIAMIDAS
10
216.825389
20
41.979901
30
0.0
40
0.300000
50
216.000000
51
269.999910
0
LINE
8
00_POLIAMIDAS
10
216.825389
20
41.679901
30
0.0
11
217.647036
21
41.679900
31
0.0
0
ARC
8
00_POLIAMIDAS
10
217.647034
20
40.479900
30
0.0
40
1.200000
50
59.999977
51
89.999910
0
LINE
8
00_POLIAMIDAS
10
218.247034
20
41.519130
30
0.0
11
219.873847
21
40.579888
31
0.0
0
LINE
8
00_POLIAMIDAS
10
219.873847
20
40.579888
30
0.0
11
220.234617
21
40.579888
31
0.0
0
ARC
8
00_POLIAMIDAS
10
220.234617
20
40.979888
30
0.0
40
0.400000
50
269.999977
51
359.999977
0
LINE
8
00_POLIAMIDAS
10
220.634617
20
40.979888
30
0.0
11
220.634617
21
41.579899
31
0.0
0
LINE
8
00_POLIAMIDAS
10
220.634617
20
41.579899
30
0.0
11
220.584617
21
41.579899
31
0.0
0
LINE
8
00_POLIAMIDAS
10
220.584617
20
41.579899
30
0.0
11
220.584618
21
42.154899
31
0.0
0
LINE
8
00_POLIAMIDAS
10
220.584618
20
42.154899
30
0.0
11
220.275091
21
42.154899
31
0.0
0
ARC
8
00_POLIAMIDAS
10
219.984618
20
42.679899
30
0.0
40
0.600000
50
61.044976
51
298.955024
0
LINE
8
00_POLIAMIDAS
10
220.275091
20
43.204899
30
0.0
11
220.584618
21
43.204899
31
0.0
0
LINE
8
00_POLIAMIDAS
10
220.584618
20
43.204899
30
0.0
11
220.584618
21
43.779899
31
0.0
0
LINE
8
00_POLIAMIDAS
10
220.584618
20
43.779899
30
0.0
11
220.634618
21
43.779899
31
0.0
0
LINE
8
00_POLIAMIDAS
10
220.634618
20
43.779899
30
0.0
11
220.634619
21
44.379888
31
0.0
0
ARC
8
00_POLIAMIDAS
10
220.234619
20
44.379888
30
0.0
40
0.400000
50
359.999977
51
89.999977
0
LINE
8
00_POLIAMIDAS
10
220.234619
20
44.779888
30
0.0
11
219.873849
21
44.779888
31
0.0
0
LINE
8
00_POLIAMIDAS
10
219.873849
20
44.779888
30
0.0
11
218.038226
21
43.720092
31
0.0
0
ARC
8
00_POLIAMIDAS
10
217.888226
20
43.979900
30
0.0
40
0.300000
50
269.999910
51
299.999977
0
LINE
8
00_POLIAMIDAS
10
217.888226
20
43.679900
30
0.0
11
217.844441
21
43.679900
31
0.0
0
ARC
8
00_POLIAMIDAS
10
217.844441
20
43.979900
30
0.0
40
0.300000
50
216.000000
51
269.999910
0
LINE
8
00_POLIAMIDAS
10
217.601736
20
43.803564
30
0.0
11
215.674461
21
46.456231
31
0.0
0
ARC
8
00_POLIAMIDAS
10
215.431756
20
46.279896
30
0.0
40
0.300000
50
36.000000
51
90.000023
0
LINE
8
00_POLIAMIDAS
10
215.431756
20
46.579896
30
0.0
11
208.131659
21
46.579893
31
0.0
0
LINE
8
00_POLIAMIDAS
10
208.131659
20
46.579893
30
0.0
11
200.831562
21
46.579896
31
0.0
0
LINE
8
00_POLIAMIDAS
10
219.873847
20
38.486511
30
0.0
11
218.247034
21
37.547269
31
0.0
0
ARC
8
00_POLIAMIDAS
10
217.647034
20
38.586499
30
0.0
40
1.200000
50
270.000090
51
300.000023
0
LINE
8
00_POLIAMIDAS
10
217.647036
20
37.386499
30
0.0
11
216.825389
21
37.386498
31
0.0
0
ARC
8
00_POLIAMIDAS
10
216.825389
20
37.086498
30
0.0
40
0.300000
50
90.000090
51
144.000000
0
LINE
8
00_POLIAMIDAS
10
216.582684
20
37.262833
30
0.0
11
214.655410
21
34.610168
31
0.0
0
ARC
8
00_POLIAMIDAS
10
214.412705
20
34.786504
30
0.0
40
0.300000
50
269.999977
51
324.000000
0
LINE
8
00_POLIAMIDAS
10
214.412705
20
34.486504
30
0.0
11
208.131659
21
34.486506
31
0.0
0
LINE
8
00_POLIAMIDAS
10
208.131659
20
34.486506
30
0.0
11
201.850609
21
34.486508
31
0.0
0
ARC
8
00_POLIAMIDAS
10
201.850609
20
34.786508
30
0.0
40
0.300000
50
216.000000
51
269.999977
0
LINE
8
00_POLIAMIDAS
10
201.607904
20
34.610173
30
0.0
11
199.680633
21
37.262833
31
0.0
0
ARC
8
00_POLIAMIDAS
10
199.437928
20
37.086498
30
0.0
40
0.300000
50
36.000000
51
89.999910
0
LINE
8
00_POLIAMIDAS
10
199.437929
20
37.386498
30
0.0
11
199.081037
21
37.386498
31
0.0
0
LINE
8
00_POLIAMIDAS
10
199.081037
20
37.386498
30
0.0
11
198.622196
21
37.386499
31
0.0
0
ARC
8
00_POLIAMIDAS
10
198.622198
20
38.586499
30
0.0
40
1.200000
50
239.999977
51
269.999910
0
LINE
8
00_POLIAMIDAS
10
198.022198
20
37.547269
30
0.0
11
196.395385
21
38.486511
31
0.0
0
LINE
8
00_POLIAMIDAS
10
196.395385
20
38.486511
30
0.0
11
196.034615
21
38.486511
31
0.0
0
ARC
8
00_POLIAMIDAS
10
196.034615
20
38.086511
30
0.0
40
0.400000
50
89.999977
51
179.999977
0
LINE
8
00_POLIAMIDAS
10
195.634615
20
38.086511
30
0.0
11
195.634615
21
37.486500
31
0.0
0
LINE
8
00_POLIAMIDAS
10
195.634615
20
37.486500
30
0.0
11
195.684615
21
37.486500
31
0.0
0
LINE
8
00_POLIAMIDAS
10
195.684615
20
37.486500
30
0.0
11
195.684615
21
36.911500
31
0.0
0
LINE
8
00_POLIAMIDAS
10
195.684615
20
36.911500
30
0.0
11
195.994141
21
36.911500
31
0.0
0
ARC
8
00_POLIAMIDAS
10
196.284615
20
36.386500
30
0.0
40
0.600000
50
241.044976
51
118.955024
0
LINE
8
00_POLIAMIDAS
10
195.994141
20
35.861500
30
0.0
11
195.684614
21
35.861500
31
0.0
0
LINE
8
00_POLIAMIDAS
10
195.684614
20
35.861500
30
0.0
11
195.684614
21
35.286500
31
0.0
0
LINE
8
00_POLIAMIDAS
10
195.684614
20
35.286500
30
0.0
11
195.634614
21
35.286500
31
0.0
0
LINE
8
00_POLIAMIDAS
10
195.634614
20
35.286500
30
0.0
11
195.634614
21
34.686511
31
0.0
0
ARC
8
00_POLIAMIDAS
10
196.034614
20
34.686511
30
0.0
40
0.400000
50
179.999977
51
269.999977
0
LINE
8
00_POLIAMIDAS
10
196.034614
20
34.286511
30
0.0
11
196.389469
21
34.286511
31
0.0
0
LINE
8
00_POLIAMIDAS
10
196.389469
20
34.286511
30
0.0
11
198.225091
21
35.346307
31
0.0
0
ARC
8
00_POLIAMIDAS
10
198.375091
20
35.086499
30
0.0
40
0.300000
50
89.999910
51
119.999977
0
LINE
8
00_POLIAMIDAS
10
198.375092
20
35.386499
30
0.0
11
198.418877
21
35.386499
31
0.0
0
ARC
8
00_POLIAMIDAS
10
198.418876
20
35.086499
30
0.0
40
0.300000
50
36.000000
51
89.999910
0
LINE
8
00_POLIAMIDAS
10
198.661581
20
35.262835
30
0.0
11
200.588853
21
32.610173
31
0.0
0
ARC
8
00_POLIAMIDAS
10
200.831558
20
32.786509
30
0.0
40
0.300000
50
216.000000
51
269.999977
0
LINE
8
00_POLIAMIDAS
10
200.831558
20
32.486509
30
0.0
11
208.131659
21
32.486506
31
0.0
0
LINE
8
00_POLIAMIDAS
10
208.131659
20
32.486506
30
0.0
11
215.431756
21
32.486503
31
0.0
0
ARC
8
00_POLIAMIDAS
10
215.431756
20
32.786503
30
0.0
40
0.300000
50
269.999977
51
324.000000
0
LINE
8
00_POLIAMIDAS
10
215.674461
20
32.610168
30
0.0
11
217.601736
21
35.262835
31
0.0
0
ARC
8
00_POLIAMIDAS
10
217.844441
20
35.086499
30
0.0
40
0.300000
50
90.000090
51
144.000000
0
LINE
8
00_POLIAMIDAS
10
217.844441
20
35.386499
30
0.0
11
217.888226
21
35.386499
31
0.0
0
ARC
8
00_POLIAMIDAS
10
217.888226
20
35.086499
30
0.0
40
0.300000
50
60.000023
51
90.000090
0
LINE
8
00_POLIAMIDAS
10
218.038226
20
35.346307
30
0.0
11
219.873849
21
34.286511
31
0.0
0
LINE
8
00_POLIAMIDAS
10
219.873849
20
34.286511
30
0.0
11
220.234619
21
34.286511
31
0.0
0
ARC
8
00_POLIAMIDAS
10
220.234619
20
34.686511
30
0.0
40
0.400000
50
270.000023
51
0.000023
0
LINE
8
00_POLIAMIDAS
10
220.634619
20
34.686511
30
0.0
11
220.634618
21
35.286500
31
0.0
0
LINE
8
00_POLIAMIDAS
10
220.634618
20
35.286500
30
0.0
11
220.584618
21
35.286500
31
0.0
0
LINE
8
00_POLIAMIDAS
10
220.584618
20
35.286500
30
0.0
11
220.584618
21
35.861500
31
0.0
0
LINE
8
00_POLIAMIDAS
10
220.584618
20
35.861500
30
0.0
11
220.275091
21
35.861500
31
0.0
0
ARC
8
00_POLIAMIDAS
10
219.984618
20
36.386500
30
0.0
40
0.600000
50
61.044976
51
298.955024
0
LINE
8
00_POLIAMIDAS
10
220.275091
20
36.911500
30
0.0
11
220.584618
21
36.911500
31
0.0
0
LINE
8
00_POLIAMIDAS
10
220.584618
20
36.911500
30
0.0
11
220.584617
21
37.486500
31
0.0
0
LINE
8
00_POLIAMIDAS
10
220.584617
20
37.486500
30
0.0
11
220.634617
21
37.486500
31
0.0
0
LINE
8
00_POLIAMIDAS
10
220.634617
20
37.486500
30
0.0
11
220.634617
21
38.086511
31
0.0
0
ARC
8
00_POLIAMIDAS
10
220.234617
20
38.086511
30
0.0
40
0.400000
50
0.000023
51
90.000023
0
LINE
8
00_POLIAMIDAS
10
220.234617
20
38.486511
30
0.0
11
219.873847
21
38.486511
31
0.0
0
ARC
8
00_ALUMINIO
10
176.123973
20
34.860448
30
0.0
40
0.300000
50
280.759275
51
0.000000
0
ARC
8
00_ALUMINIO
10
175.834614
20
36.383199
30
0.0
40
1.850000
50
259.240725
51
280.759275
0
ARC
8
00_ALUMINIO
10
175.545255
20
34.860448
30
0.0
40
0.300000
50
180.000000
51
259.240725
0
LINE
8
00_ALUMINIO
10
175.245255
20
34.860448
30
0.0
11
175.245255
21
34.895699
31
0.0
0
ARC
8
00_ALUMINIO
10
175.834614
20
36.383199
30
0.0
40
1.600000
50
201.613846
51
248.386154
0
LINE
8
00_ALUMINIO
10
174.347114
20
35.793841
30
0.0
11
174.311862
21
35.793841
31
0.0
0
ARC
8
00_ALUMINIO
10
174.311862
20
36.093841
30
0.0
40
0.300000
50
190.759275
51
270.000000
0
ARC
8
00_ALUMINIO
10
175.834614
20
36.383199
30
0.0
40
1.850000
50
169.240725
51
190.759275
0
ARC
8
00_ALUMINIO
10
174.311862
20
36.672558
30
0.0
40
0.300000
50
90.000000
51
169.240725
0
LINE
8
00_ALUMINIO
10
174.311862
20
36.972558
30
0.0
11
174.347114
21
36.972558
31
0.0
0
ARC
8
00_ALUMINIO
10
175.834614
20
36.383199
30
0.0
40
1.600000
50
132.536898
51
158.386154
0
ARC
8
00_ALUMINIO
10
174.550091
20
37.783199
30
0.0
40
0.300000
50
312.536898
51
90.000000
0
LINE
8
00_ALUMINIO
10
174.550091
20
38.083199
30
0.0
11
173.961114
21
38.083199
31
0.0
0
ARC
8
00_ALUMINIO
10
173.961114
20
37.083199
30
0.0
40
1.000000
50
90.000000
51
159.512685
0
ARC
8
00_ALUMINIO
10
175.834614
20
36.383199
30
0.0
40
3.000000
50
159.512685
51
213.055731
0
ARC
8
00_ALUMINIO
10
173.068750
20
34.583199
30
0.0
40
0.300000
50
270.000000
51
33.055731
0
LINE
8
00_ALUMINIO
10
173.068750
20
34.283199
30
0.0
11
169.434614
21
34.283199
31
0.0
0
ARC
8
00_ALUMINIO
10
169.434614
20
34.783199
30
0.0
40
0.500000
50
180.000000
51
270.000000
0
LINE
8
00_ALUMINIO
10
168.934614
20
34.783199
30
0.0
11
168.934614
21
43.583199
31
0.0
0
ARC
8
00_ALUMINIO
10
169.434614
20
43.583199
30
0.0
40
0.500000
50
90.000000
51
180.000000
0
LINE
8
00_ALUMINIO
10
169.434614
20
44.083199
30
0.0
11
191.154614
21
44.083199
31
0.0
0
ARC
8
00_ALUMINIO
10
191.154614
20
45.083199
30
0.0
40
1.000000
50
270.000000
51
292.619865
0
LINE
8
00_ALUMINIO
10
191.539229
20
44.160123
30
0.0
11
193.342306
21
44.911405
31
0.0
0
ARC
8
00_ALUMINIO
10
193.534614
20
44.449866
30
0.0
40
0.500000
50
0.000000
51
112.619865
0
LINE
8
00_ALUMINIO
10
194.034614
20
44.449866
30
0.0
11
194.034614
21
34.374090
31
0.0
0
ARC
8
00_ALUMINIO
10
193.534614
20
34.374090
30
0.0
40
0.500000
50
237.421030
51
0.000000
0
ARC
8
00_ALUMINIO
10
192.134614
20
32.183199
30
0.0
40
2.100000
50
57.421030
51
90.000000
0
LINE
8
00_ALUMINIO
10
192.134614
20
34.283199
30
0.0
11
178.600477
21
34.283199
31
0.0
0
ARC
8
00_ALUMINIO
10
178.600477
20
34.583199
30
0.0
40
0.300000
50
146.944269
51
270.000000
0
ARC
8
00_ALUMINIO
10
175.834614
20
36.383199
30
0.0
40
3.000000
50
326.944269
51
20.487315
0
ARC
8
00_ALUMINIO
10
177.708113
20
37.083199
30
0.0
40
1.000000
50
20.487315
51
90.000000
0
LINE
8
00_ALUMINIO
10
177.708113
20
38.083199
30
0.0
11
177.119137
21
38.083199
31
0.0
0
ARC
8
00_ALUMINIO
10
177.119137
20
37.783199
30
0.0
40
0.300000
50
90.000000
51
227.463102
0
ARC
8
00_ALUMINIO
10
175.834614
20
36.383199
30
0.0
40
1.600000
50
21.613846
51
47.463102
0
LINE
8
00_ALUMINIO
10
177.322114
20
36.972558
30
0.0
11
177.357365
21
36.972558
31
0.0
0
ARC
8
00_ALUMINIO
10
177.357365
20
36.672558
30
0.0
40
0.300000
50
10.759275
51
90.000000
0
ARC
8
00_ALUMINIO
10
175.834614
20
36.383199
30
0.0
40
1.850000
50
349.240725
51
10.759275
0
ARC
8
00_ALUMINIO
10
177.357365
20
36.093841
30
0.0
40
0.300000
50
270.000000
51
349.240725
0
LINE
8
00_ALUMINIO
10
177.357365
20
35.793841
30
0.0
11
177.322114
21
35.793841
31
0.0
0
ARC
8
00_ALUMINIO
10
175.834614
20
36.383199
30
0.0
40
1.600000
50
291.613846
51
338.386154
0
LINE
8
00_ALUMINIO
10
176.423973
20
34.895699
30
0.0
11
176.423973
21
34.860448
31
0.0
0
ARC
8
00_ALUMINIO
10
192.134614
20
32.183199
30
0.0
40
0.500000
50
0.000000
51
90.000000
0
LINE
8
00_ALUMINIO
10
192.134614
20
32.683199
30
0.0
11
170.834614
21
32.683199
31
0.0
0
ARC
8
00_ALUMINIO
10
170.834614
20
32.183199
30
0.0
40
0.500000
50
90.000000
51
180.000000
0
LINE
8
00_ALUMINIO
10
170.334614
20
32.183199
30
0.0
11
167.834614
21
32.183199
31
0.0
0
ARC
8
00_ALUMINIO
10
167.834614
20
32.683199
30
0.0
40
0.500000
50
180.000000
51
270.000000
0
LINE
8
00_ALUMINIO
10
167.334614
20
32.683199
30
0.0
11
167.334614
21
44.183199
31
0.0
0
ARC
8
00_ALUMINIO
10
169.334614
20
44.183199
30
0.0
40
2.000000
50
90.000000
51
180.000000
0
LINE
8
00_ALUMINIO
10
169.334614
20
46.183199
30
0.0
11
170.702445
21
46.183199
31
0.0
0
ARC
8
00_ALUMINIO
10
170.737580
20
45.684435
30
0.0
40
0.500000
50
67.380135
51
94.029485
0
LINE
8
00_ALUMINIO
10
170.929888
20
46.145974
30
0.0
11
171.745272
21
45.806230
31
0.0
0
ARC
8
00_ALUMINIO
10
171.937580
20
46.267769
30
0.0
40
0.500000
50
247.380135
51
292.619865
0
LINE
8
00_ALUMINIO
10
172.129888
20
45.806230
30
0.0
11
172.945272
21
46.145974
31
0.0
0
ARC
8
00_ALUMINIO
10
173.137580
20
45.684435
30
0.0
40
0.500000
50
67.380135
51
112.619865
0
LINE
8
00_ALUMINIO
10
173.329888
20
46.145974
30
0.0
11
174.145272
21
45.806230
31
0.0
0
ARC
8
00_ALUMINIO
10
174.337580
20
46.267769
30
0.0
40
0.500000
50
247.380135
51
292.619865
0
LINE
8
00_ALUMINIO
10
174.529888
20
45.806230
30
0.0
11
175.345272
21
46.145974
31
0.0
0
ARC
8
00_ALUMINIO
10
175.537580
20
45.684435
30
0.0
40
0.500000
50
67.380135
51
112.619865
0
LINE
8
00_ALUMINIO
10
175.729888
20
46.145974
30
0.0
11
176.545272
21
45.806230
31
0.0
0
ARC
8
00_ALUMINIO
10
176.737580
20
46.267769
30
0.0
40
0.500000
50
247.380135
51
292.619865
0
LINE
8
00_ALUMINIO
10
176.929888
20
45.806230
30
0.0
11
177.745272
21
46.145974
31
0.0
0
ARC
8
00_ALUMINIO
10
177.937580
20
45.684435
30
0.0
40
0.500000
50
67.380135
51
112.619865
0
LINE
8
00_ALUMINIO
10
178.129888
20
46.145974
30
0.0
11
178.945272
21
45.806230
31
0.0
0
ARC
8
00_ALUMINIO
10
179.137580
20
46.267769
30
0.0
40
0.500000
50
247.380135
51
292.619865
0
LINE
8
00_ALUMINIO
10
179.329888
20
45.806230
30
0.0
11
180.145272
21
46.145974
31
0.0
0
ARC
8
00_ALUMINIO
10
180.337580
20
45.684435
30
0.0
40
0.500000
50
67.380135
51
112.619865
0
LINE
8
00_ALUMINIO
10
180.529888
20
46.145974
30
0.0
11
181.345272
21
45.806230
31
0.0
0
ARC
8
00_ALUMINIO
10
181.537580
20
46.267769
30
0.0
40
0.500000
50
247.380135
51
292.619865
0
LINE
8
00_ALUMINIO
10
181.729888
20
45.806230
30
0.0
11
182.545272
21
46.145974
31
0.0
0
ARC
8
00_ALUMINIO
10
182.737580
20
45.684435
30
0.0
40
0.500000
50
67.380135
51
112.619865
0
LINE
8
00_ALUMINIO
10
182.929888
20
46.145974
30
0.0
11
183.745272
21
45.806230
31
0.0
0
ARC
8
00_ALUMINIO
10
183.937580
20
46.267769
30
0.0
40
0.500000
50
247.380135
51
292.619865
0
LINE
8
00_ALUMINIO
10
184.129888
20
45.806230
30
0.0
11
184.945272
21
46.145974
31
0.0
0
ARC
8
00_ALUMINIO
10
185.137580
20
45.684435
30
0.0
40
0.500000
50
67.380135
51
112.619865
0
LINE
8
00_ALUMINIO
10
185.329888
20
46.145974
30
0.0
11
186.145272
21
45.806230
31
0.0
0
ARC
8
00_ALUMINIO
10
186.337580
20
46.267769
30
0.0
40
0.500000
50
247.380135
51
292.619865
0
LINE
8
00_ALUMINIO
10
186.529888
20
45.806230
30
0.0
11
187.345272
21
46.145974
31
0.0
0
ARC
8
00_ALUMINIO
10
187.537580
20
45.684435
30
0.0
40
0.500000
50
67.380135
51
112.619865
0
LINE
8
00_ALUMINIO
10
187.729888
20
46.145974
30
0.0
11
188.545272
21
45.806230
31
0.0
0
ARC
8
00_ALUMINIO
10
188.737580
20
46.267769
30
0.0
40
0.500000
50
247.380135
51
292.619865
0
LINE
8
00_ALUMINIO
10
188.929888
20
45.806230
30
0.0
11
189.745272
21
46.145974
31
0.0
0
ARC
8
00_ALUMINIO
10
189.937580
20
45.684435
30
0.0
40
0.500000
50
67.380135
51
112.619865
0
LINE
8
00_ALUMINIO
10
190.129888
20
46.145974
30
0.0
11
190.945272
21
45.806230
31
0.0
0
ARC
8
00_ALUMINIO
10
191.137580
20
46.267769
30
0.0
40
0.500000
50
247.380135
51
292.619865
0
LINE
8
00_ALUMINIO
10
191.329888
20
45.806230
30
0.0
11
193.729998
21
46.806276
31
0.0
0
ARC
8
00_ALUMINIO
10
194.114614
20
45.883199
30
0.0
40
1.000000
50
90.000000
51
112.619865
0
LINE
8
00_ALUMINIO
10
194.114614
20
46.883199
30
0.0
11
195.643992
21
46.883199
31
0.0
0
ARC
8
00_ALUMINIO
10
195.643992
20
46.583199
30
0.0
40
0.300000
50
37.461924
51
90.000000
0
ARC
8
00_ALUMINIO
10
196.698006
20
47.390861
30
0.0
40
1.027879
50
217.461924
51
248.202660
0
LINE
8
00_ALUMINIO
10
196.316329
20
46.436472
30
0.0
11
196.862857
21
46.269382
31
0.0
0
ARC
8
00_ALUMINIO
10
196.950568
20
46.556273
30
0.0
40
0.300000
50
253.000000
51
348.943882
0
ARC
8
00_ALUMINIO
10
197.539432
20
46.441211
30
0.0
40
0.300000
50
93.000000
51
168.943882
0
LINE
8
00_ALUMINIO
10
197.523731
20
46.740800
30
0.0
11
199.911791
21
46.865953
31
0.0
0
ARC
8
00_ALUMINIO
10
199.927492
20
46.566364
30
0.0
40
0.300000
50
322.753920
51
93.000000
0
LINE
8
00_ALUMINIO
10
200.166305
20
46.384792
30
0.0
11
198.085254
21
43.647683
31
0.0
0
ARC
8
00_ALUMINIO
10
197.967348
20
43.733144
30
0.0
40
0.145621
50
178.000000
51
324.064292
0
LINE
8
00_ALUMINIO
10
197.821816
20
43.738226
30
0.0
11
197.827246
21
43.893713
31
0.0
0
ARC
8
00_ALUMINIO
10
197.627368
20
43.900693
30
0.0
40
0.200000
50
358.000000
51
59.256452
0
LINE
8
00_ALUMINIO
10
197.729607
20
44.072586
30
0.0
11
196.198347
21
45.029480
31
0.0
0
ARC
8
00_ALUMINIO
10
195.921505
20
45.145061
30
0.0
40
0.300000
50
337.339688
51
73.000000
0
LINE
8
00_ALUMINIO
10
196.009217
20
45.431952
30
0.0
11
195.722325
21
45.519663
31
0.0
0
ARC
8
00_ALUMINIO
10
195.634614
20
45.232772
30
0.0
40
0.300000
50
73.000000
51
240.000000
0
ARC
8
00_ALUMINIO
10
195.334614
20
44.713157
30
0.0
40
0.300000
50
0.000000
51
60.000000
0
LINE
8
00_ALUMINIO
10
195.634614
20
44.713157
30
0.0
11
195.634614
21
40.653190
31
0.0
0
ARC
8
00_ALUMINIO
10
195.904614
20
40.653190
30
0.0
40
0.270000
50
180.000000
51
270.000000
0
LINE
8
00_ALUMINIO
10
195.904614
20
40.383190
30
0.0
11
196.234614
21
40.383190
31
0.0
0
LINE
8
00_ALUMINIO
10
196.234614
20
40.383190
30
0.0
11
197.734711
21
41.298853
31
0.0
0
ARC
8
00_ALUMINIO
10
197.934614
20
41.305076
30
0.0
40
0.200000
50
0.000000
51
181.782862
0
LINE
8
00_ALUMINIO
10
198.134614
20
41.305076
30
0.0
11
198.134614
21
37.761323
31
0.0
0
ARC
8
00_ALUMINIO
10
197.934614
20
37.761323
30
0.0
40
0.200000
50
178.217138
51
0.000000
0
LINE
8
00_ALUMINIO
10
197.734711
20
37.767546
30
0.0
11
196.234614
21
38.683209
31
0.0
0
LINE
8
00_ALUMINIO
10
196.234614
20
38.683209
30
0.0
11
195.904614
21
38.683209
31
0.0
0
ARC
8
00_ALUMINIO
10
195.904614
20
38.413209
30
0.0
40
0.270000
50
90.000000
51
180.000000
0
LINE
8
00_ALUMINIO
10
195.634614
20
38.413209
30
0.0
11
195.634614
21
34.353242
31
0.0
0
ARC
8
00_ALUMINIO
10
195.334614
20
34.353242
30
0.0
40
0.300000
50
300.000000
51
0.000000
0
ARC
8
00_ALUMINIO
10
195.634614
20
33.833627
30
0.0
40
0.300000
50
120.000000
51
287.000000
0
LINE
8
00_ALUMINIO
10
195.722325
20
33.546736
30
0.0
11
196.009217
21
33.634447
31
0.0
0
ARC
8
00_ALUMINIO
10
195.921505
20
33.921338
30
0.0
40
0.300000
50
287.000000
51
22.660312
0
LINE
8
00_ALUMINIO
10
196.198347
20
34.036919
30
0.0
11
197.737054
21
34.998467
31
0.0
0
ARC
8
00_ALUMINIO
10
197.627368
20
35.165706
30
0.0
40
0.200000
50
303.259504
51
2.000000
0
LINE
8
00_ALUMINIO
10
197.827246
20
35.172686
30
0.0
11
197.821816
21
35.328173
31
0.0
0
ARC
8
00_ALUMINIO
10
197.967348
20
35.333255
30
0.0
40
0.145621
50
38.556452
51
182.000000
0
LINE
8
00_ALUMINIO
10
198.081223
20
35.424018
30
0.0
11
200.166305
21
32.681607
31
0.0
0
ARC
8
00_ALUMINIO
10
199.927492
20
32.500035
30
0.0
40
0.300000
50
267.000000
51
37.246080
0
LINE
8
00_ALUMINIO
10
199.911791
20
32.200446
30
0.0
11
197.523731
21
32.325599
31
0.0
0
ARC
8
00_ALUMINIO
10
197.539432
20
32.625188
30
0.0
40
0.300000
50
191.056118
51
267.000000
0
ARC
8
00_ALUMINIO
10
196.950568
20
32.510126
30
0.0
40
0.300000
50
11.056118
51
107.000000
0
LINE
8
00_ALUMINIO
10
196.862857
20
32.797017
30
0.0
11
196.316329
21
32.629927
31
0.0
0
ARC
8
00_ALUMINIO
10
196.698006
20
31.675538
30
0.0
40
1.027879
50
111.797340
51
142.538076
0
ARC
8
00_ALUMINIO
10
195.643992
20
32.483199
30
0.0
40
0.300000
50
270.000000
51
322.538076
0
LINE
8
00_ALUMINIO
10
195.643992
20
32.183199
30
0.0
11
192.634614
21
32.183199
31
0.0
0
ARC
8
00_ALUMINIO
10
229.611487
20
49.957103
30
0.0
40
0.500000
50
49.308702
51
120.635342
0
LINE
8
00_ALUMINIO
10
229.937479
20
50.336220
30
0.0
11
234.860174
21
46.103335
31
0.0
0
ARC
8
00_ALUMINIO
10
234.534183
20
45.724218
30
0.0
40
0.500000
50
0.000000
51
49.308702
0
LINE
8
00_ALUMINIO
10
235.034183
20
45.724218
30
0.0
11
235.034183
21
34.483202
31
0.0
0
ARC
8
00_ALUMINIO
10
234.734183
20
34.483202
30
0.0
40
0.300000
50
270.000000
51
0.000000
0
LINE
8
00_ALUMINIO
10
234.734183
20
34.183202
30
0.0
11
233.313778
21
34.183202
31
0.0
0
ARC
8
00_ALUMINIO
10
233.313778
20
34.683202
30
0.0
40
0.500000
50
157.311909
51
270.000000
0
ARC
8
00_ALUMINIO
10
230.084614
20
36.033202
30
0.0
40
3.000000
50
337.311909
51
20.487315
0
ARC
8
00_ALUMINIO
10
231.958113
20
36.733202
30
0.0
40
1.000000
50
20.487315
51
90.000000
0
LINE
8
00_ALUMINIO
10
231.958113
20
37.733202
30
0.0
11
231.369137
21
37.733202
31
0.0
0
ARC
8
00_ALUMINIO
10
231.369137
20
37.433202
30
0.0
40
0.300000
50
90.000000
51
227.463102
0
ARC
8
00_ALUMINIO
10
230.084614
20
36.033202
30
0.0
40
1.600000
50
21.613846
51
47.463102
0
LINE
8
00_ALUMINIO
10
231.572114
20
36.622560
30
0.0
11
231.607365
21
36.622560
31
0.0
0
ARC
8
00_ALUMINIO
10
231.607365
20
36.322560
30
0.0
40
0.300000
50
10.759275
51
90.000000
0
ARC
8
00_ALUMINIO
10
230.084614
20
36.033202
30
0.0
40
1.850000
50
349.240725
51
10.759275
0
ARC
8
00_ALUMINIO
10
231.607365
20
35.743843
30
0.0
40
0.300000
50
270.000000
51
349.240725
0
LINE
8
00_ALUMINIO
10
231.607365
20
35.443843
30
0.0
11
231.572114
21
35.443843
31
0.0
0
ARC
8
00_ALUMINIO
10
230.084614
20
36.033202
30
0.0
40
1.600000
50
291.613846
51
338.386154
0
LINE
8
00_ALUMINIO
10
230.673973
20
34.545702
30
0.0
11
230.673973
21
34.510450
31
0.0
0
ARC
8
00_ALUMINIO
10
230.373973
20
34.510450
30
0.0
40
0.300000
50
280.759275
51
0.000000
0
ARC
8
00_ALUMINIO
10
230.084614
20
36.033202
30
0.0
40
1.850000
50
259.240725
51
280.759275
0
ARC
8
00_ALUMINIO
10
229.795255
20
34.510450
30
0.0
40
0.300000
50
180.000000
51
259.240725
0
LINE
8
00_ALUMINIO
10
229.495255
20
34.510450
30
0.0
11
229.495255
21
34.545702
31
0.0
0
ARC
8
00_ALUMINIO
10
230.084614
20
36.033202
30
0.0
40
1.600000
50
201.613846
51
248.386154
0
LINE
8
00_ALUMINIO
10
228.597114
20
35.443843
30
0.0
11
228.561862
21
35.443843
31
0.0
0
ARC
8
00_ALUMINIO
10
228.561862
20
35.743843
30
0.0
40
0.300000
50
190.759275
51
270.000000
0
ARC
8
00_ALUMINIO
10
230.084614
20
36.033202
30
0.0
40
1.850000
50
169.240725
51
190.759275
0
ARC
8
00_ALUMINIO
10
228.561862
20
36.322560
30
0.0
40
0.300000
50
90.000000
51
169.240725
0
LINE
8
00_ALUMINIO
10
228.561862
20
36.622560
30
0.0
11
228.597114
21
36.622560
31
0.0
0
ARC
8
00_ALUMINIO
10
230.084614
20
36.033202
30
0.0
40
1.600000
50
132.536898
51
158.386154
0
ARC
8
00_ALUMINIO
10
228.800091
20
37.433202
30
0.0
40
0.300000
50
312.536898
51
90.000000
0
LINE
8
00_ALUMINIO
10
228.800091
20
37.733202
30
0.0
11
228.211114
21
37.733202
31
0.0
0
ARC
8
00_ALUMINIO
10
228.211114
20
36.733202
30
0.0
40
1.000000
50
90.000000
51
159.512685
0
ARC
8
00_ALUMINIO
10
230.084614
20
36.033202
30
0.0
40
3.000000
50
159.512685
51
202.688091
0
ARC
8
00_ALUMINIO
10
226.855450
20
34.683202
30
0.0
40
0.500000
50
270.000000
51
22.688091
0
LINE
8
00_ALUMINIO
10
226.855450
20
34.183202
30
0.0
11
222.734614
21
34.183202
31
0.0
0
ARC
8
00_ALUMINIO
10
222.734614
20
34.683202
30
0.0
40
0.500000
50
180.000000
51
270.000000
0
LINE
8
00_ALUMINIO
10
222.234614
20
34.683202
30
0.0
11
222.234614
21
45.884404
31
0.0
0
ARC
8
00_ALUMINIO
10
222.734614
20
45.884404
30
0.0
40
0.500000
50
120.635342
51
180.000000
0
LINE
8
00_ALUMINIO
10
222.479828
20
46.314618
30
0.0
11
229.356701
21
50.387317
31
0.0
0
ARC
8
00_ALUMINIO
10
219.571221
20
31.675538
30
0.0
40
1.027879
50
37.461924
51
68.202660
0
LINE
8
00_ALUMINIO
10
219.952898
20
32.629927
30
0.0
11
219.406371
21
32.797017
31
0.0
0
ARC
8
00_ALUMINIO
10
219.318659
20
32.510126
30
0.0
40
0.300000
50
73.000000
51
168.943882
0
ARC
8
00_ALUMINIO
10
218.729795
20
32.625188
30
0.0
40
0.300000
50
273.000000
51
348.943882
0
LINE
8
00_ALUMINIO
10
218.745496
20
32.325599
30
0.0
11
216.357437
21
32.200446
31
0.0
0
ARC
8
00_ALUMINIO
10
216.341736
20
32.500035
30
0.0
40
0.300000
50
142.753920
51
273.000000
0
LINE
8
00_ALUMINIO
10
216.102923
20
32.681607
30
0.0
11
218.183974
21
35.418716
31
0.0
0
ARC
8
00_ALUMINIO
10
218.301879
20
35.333255
30
0.0
40
0.145621
50
358.000000
51
144.064292
0
LINE
8
00_ALUMINIO
10
218.447411
20
35.328173
30
0.0
11
218.441982
21
35.172686
31
0.0
0
ARC
8
00_ALUMINIO
10
218.641860
20
35.165706
30
0.0
40
0.200000
50
178.000000
51
239.256452
0
LINE
8
00_ALUMINIO
10
218.539620
20
34.993813
30
0.0
11
220.070881
21
34.036919
31
0.0
0
ARC
8
00_ALUMINIO
10
220.347722
20
33.921338
30
0.0
40
0.300000
50
157.339688
51
253.000000
0
LINE
8
00_ALUMINIO
10
220.260011
20
33.634447
30
0.0
11
220.546902
21
33.546736
31
0.0
0
ARC
8
00_ALUMINIO
10
220.634614
20
33.833627
30
0.0
40
0.300000
50
253.000000
51
60.000000
0
ARC
8
00_ALUMINIO
10
220.934614
20
34.353242
30
0.0
40
0.300000
50
180.000000
51
240.000000
0
LINE
8
00_ALUMINIO
10
220.634614
20
34.353242
30
0.0
11
220.634614
21
38.413209
31
0.0
0
ARC
8
00_ALUMINIO
10
220.364614
20
38.413209
30
0.0
40
0.270000
50
0.000000
51
90.000000
0
LINE
8
00_ALUMINIO
10
220.364614
20
38.683209
30
0.0
11
220.034614
21
38.683209
31
0.0
0
LINE
8
00_ALUMINIO
10
220.034614
20
38.683209
30
0.0
11
218.534517
21
37.767546
31
0.0
0
ARC
8
00_ALUMINIO
10
218.334614
20
37.761323
30
0.0
40
0.200000
50
180.000000
51
1.782862
0
LINE
8
00_ALUMINIO
10
218.134614
20
37.761323
30
0.0
11
218.134614
21
41.305076
31
0.0
0
ARC
8
00_ALUMINIO
10
218.334614
20
41.305076
30
0.0
40
0.200000
50
358.217138
51
180.000000
0
LINE
8
00_ALUMINIO
10
218.534517
20
41.298853
30
0.0
11
220.034614
21
40.383190
31
0.0
0
LINE
8
00_ALUMINIO
10
220.034614
20
40.383190
30
0.0
11
220.364614
21
40.383190
31
0.0
0
ARC
8
00_ALUMINIO
10
220.364614
20
40.653190
30
0.0
40
0.270000
50
270.000000
51
0.000000
0
LINE
8
00_ALUMINIO
10
220.634614
20
40.653190
30
0.0
11
220.634614
21
44.713157
31
0.0
0
ARC
8
00_ALUMINIO
10
220.934614
20
44.713157
30
0.0
40
0.300000
50
120.000000
51
180.000000
0
ARC
8
00_ALUMINIO
10
220.634614
20
45.232772
30
0.0
40
0.300000
50
300.000000
51
107.000000
0
LINE
8
00_ALUMINIO
10
220.546902
20
45.519663
30
0.0
11
220.260011
21
45.431952
31
0.0
0
ARC
8
00_ALUMINIO
10
220.347722
20
45.145061
30
0.0
40
0.300000
50
107.000000
51
202.660312
0
LINE
8
00_ALUMINIO
10
220.070881
20
45.029480
30
0.0
11
218.532173
21
44.067932
31
0.0
0
ARC
8
00_ALUMINIO
10
218.612468
20
43.884758
30
0.0
40
0.200000
50
113.670442
51
205.862297
0
ARC
8
00_ALUMINIO
10
218.301879
20
43.733144
30
0.0
40
0.145621
50
218.556452
51
26.234983
0
LINE
8
00_ALUMINIO
10
218.188005
20
43.642381
30
0.0
11
216.102923
21
46.384792
31
0.0
0
ARC
8
00_ALUMINIO
10
216.341736
20
46.566364
30
0.0
40
0.300000
50
87.000000
51
217.246080
0
LINE
8
00_ALUMINIO
10
216.357437
20
46.865953
30
0.0
11
218.745496
21
46.740800
31
0.0
0
ARC
8
00_ALUMINIO
10
218.729795
20
46.441211
30
0.0
40
0.300000
50
11.056118
51
87.000000
0
ARC
8
00_ALUMINIO
10
219.318659
20
46.556273
30
0.0
40
0.300000
50
191.056118
51
287.000000
0
LINE
8
00_ALUMINIO
10
219.406371
20
46.269382
30
0.0
11
219.952898
21
46.436472
31
0.0
0
ARC
8
00_ALUMINIO
10
219.571221
20
47.390861
30
0.0
40
1.027879
50
291.797340
51
325.150342
0
ARC
8
00_ALUMINIO
10
220.660951
20
46.632077
30
0.0
40
0.300000
50
120.635342
51
145.150342
0
LINE
8
00_ALUMINIO
10
220.508079
20
46.890206
30
0.0
11
229.209788
21
52.043629
31
0.0
0
ARC
8
00_ALUMINIO
10
229.719360
20
51.183202
30
0.0
40
1.000000
50
49.308702
51
120.635342
0
LINE
8
00_ALUMINIO
10
230.371343
20
51.941435
30
0.0
11
236.186166
21
46.941435
31
0.0
0
ARC
8
00_ALUMINIO
10
235.534183
20
46.183202
30
0.0
40
1.000000
50
0.000000
51
49.308702
0
LINE
8
00_ALUMINIO
10
236.534183
20
46.183202
30
0.0
11
236.534183
21
32.683202
31
0.0
0
ARC
8
00_ALUMINIO
10
236.034183
20
32.683202
30
0.0
40
0.500000
50
270.000000
51
0.000000
0
LINE
8
00_ALUMINIO
10
236.034183
20
32.183202
30
0.0
11
233.534183
21
32.183202
31
0.0
0
ARC
8
00_ALUMINIO
10
233.534183
20
32.683202
30
0.0
40
0.500000
50
202.024313
51
270.000000
0
ARC
8
00_ALUMINIO
10
232.792563
20
32.383202
30
0.0
40
0.300000
50
22.024313
51
90.000000
0
LINE
8
00_ALUMINIO
10
232.792563
20
32.683202
30
0.0
11
222.753954
21
32.683202
31
0.0
0
ARC
8
00_ALUMINIO
10
222.753954
20
32.383202
30
0.0
40
0.300000
50
90.000000
51
157.975687
0
ARC
8
00_ALUMINIO
10
222.012334
20
32.683202
30
0.0
40
0.500000
50
270.000000
51
337.975687
0
LINE
8
00_ALUMINIO
10
222.012334
20
32.183202
30
0.0
11
220.625236
21
32.183199
31
0.0
0
ARC
8
00_ALUMINIO
10
220.625236
20
32.483199
30
0.0
40
0.300000
50
217.461924
51
270.000000
0
ATTDEF
8
0
10
0.000000
20
0.000000
30
0.0
40
3.5
1

3

2
PANE_WIDTH:0
70
0
0
ATTDEF
8
0
10
0.000000
20
0.000000
30
0.0
40
3.5
1

3

2
MIN_VETRO:0
70
0
0
ATTDEF
8
0
10
0.000000
20
0.000000
30
0.0
40
3.5
1

3

2
MAX_VETRO:0
70
0
0
ATTDEF
8
0
10
0.000000
20
0.000000
30
0.0
40
3.5
1

3

2
JX:0
70
0
0
ATTDEF
8
0
10
0.000000
20
0.000000
30
0.0
40
3.5
1

3

2
WX:0
70
0
0
ATTDEF
8
0
10
0.000000
20
0.000000
30
0.0
40
3.5
1

3

2
JY:0
70
0
0
ATTDEF
8
0
10
0.000000
20
0.000000
30
0.0
40
3.5
1

3

2
WY:0
70
0
0
ATTDEF
8
0
10
0.000000
20
0.000000
30
0.0
40
3.5
1

3

2
DESC:Umbral puerta apertura interior
70
0
0
ATTDEF
8
0
10
0.000000
20
0.000000
30
0.0
40
3.5
1

3

2
DENS:1.0084
70
0
0
ATTDEF
8
0
10
0.000000
20
0.000000
30
0.0
40
3.5
1

3

2
TDEV:36.06
70
0
0
ATTDEF
8
0
10
0.000000
20
0.000000
30
0.0
40
3.5
1

3

2
TDEV2:0
70
0
0
ATTDEF
8
0
10
0.000000
20
0.000000
30
0.0
40
3.5
1

3

2
TDEV3:0
70
0
0
ATTDEF
8
0
10
0.000000
20
0.000000
30
0.0
40
3.5
1

3

2
TDEV4:0
70
0
0
ATTDEF
8
0
10
0.000000
20
0.000000
30
0.0
40
3.5
1

3

2
TDEV5:0
70
0
0
ATTDEF
8
0
10
0.000000
20
0.000000
30
0.0
40
3.5
1

3

2
PANE_WIDTH:0
70
0
0
ATTDEF
8
0
10
0.000000
20
0.000000
30
0.0
40
3.5
1

3

2
MIN_VETRO:0
70
0
0
ATTDEF
8
0
10
0.000000
20
0.000000
30
0.0
40
3.5
1

3

2
MAX_VETRO:0
70
0
0
ATTDEF
8
0
10
0.000000
20
0.000000
30
0.0
40
3.5
1

3

2
JX:0
70
0
0
ATTDEF
8
0
10
0.000000
20
0.000000
30
0.0
40
3.5
1

3

2
WX:0
70
0
0
ATTDEF
8
0
10
0.000000
20
0.000000
30
0.0
40
3.5
1

3

2
JY:0
70
0
0
ATTDEF
8
0
10
0.000000
20
0.000000
30
0.0
40
3.5
1

3

2
WY:0
70
0
0
ENDSEC
0
EOF
