0
SECTION
2
ENTITIES
0
LINE
8
00_POLIAMIDAS
10
238.313901
20
65.106539
30
0.0
11
239.307179
21
66.099817
31
0.0
0
LINE
8
00_POLIAMIDAS
10
238.203203
20
62.750777
30
0.0
11
240.913881
21
65.461455
31
0.0
0
LINE
8
00_POLIAMIDAS
10
241.545167
20
66.092742
30
0.0
11
243.913881
21
68.461455
31
0.0
0
LINE
8
00_POLIAMIDAS
10
240.958945
20
63.261455
30
0.0
11
246.158945
21
68.461455
31
0.0
0
LINE
8
00_POLIAMIDAS
10
247.203061
20
69.505571
30
0.0
11
249.356417
21
71.658927
31
0.0
0
LINE
8
00_POLIAMIDAS
10
246.804009
20
66.861455
30
0.0
11
248.549982
21
68.607428
31
0.0
0
LINE
8
00_POLIAMIDAS
10
238.944304
20
56.756686
30
0.0
11
239.795870
21
57.608252
31
0.0
0
LINE
8
00_POLIAMIDAS
10
249.049073
20
66.861455
30
0.0
11
250.649073
21
68.461455
31
0.0
0
LINE
8
00_POLIAMIDAS
10
238.589657
20
54.156975
30
0.0
11
241.667591
21
57.234910
31
0.0
0
LINE
8
00_POLIAMIDAS
10
255.203061
20
70.770379
30
0.0
11
257.373599
21
72.940917
31
0.0
0
LINE
8
00_POLIAMIDAS
10
251.294137
20
66.861455
30
0.0
11
252.894137
21
68.461455
31
0.0
0
LINE
8
00_POLIAMIDAS
10
241.371159
20
54.693413
30
0.0
11
242.816967
21
56.139221
31
0.0
0
LINE
8
00_POLIAMIDAS
10
257.908245
20
71.230499
30
0.0
11
258.084017
21
71.406271
31
0.0
0
LINE
8
00_POLIAMIDAS
10
253.539201
20
66.861455
30
0.0
11
256.703061
21
70.025315
31
0.0
0
LINE
8
00_POLIAMIDAS
10
242.255089
20
53.332279
30
0.0
11
243.700897
21
54.778087
31
0.0
0
LINE
8
00_POLIAMIDAS
10
255.784265
20
66.861455
30
0.0
11
257.384265
21
68.461455
31
0.0
0
LINE
8
00_POLIAMIDAS
10
243.304496
20
52.136622
30
0.0
11
245.025045
21
53.857170
31
0.0
0
LINE
8
00_POLIAMIDAS
10
262.379329
20
71.211455
30
0.0
11
264.133587
21
72.965713
31
0.0
0
LINE
8
00_POLIAMIDAS
10
258.029329
20
66.861455
30
0.0
11
259.629329
21
68.461455
31
0.0
0
LINE
8
00_POLIAMIDAS
10
245.469688
20
52.056750
30
0.0
11
247.269688
21
53.856750
31
0.0
0
LINE
8
00_POLIAMIDAS
10
262.703061
20
69.290123
30
0.0
11
264.203061
21
70.790123
31
0.0
0
LINE
8
00_POLIAMIDAS
10
260.274393
20
66.861455
30
0.0
11
261.874393
21
68.461455
31
0.0
0
LINE
8
00_POLIAMIDAS
10
247.714752
20
52.056750
30
0.0
11
249.514752
21
53.856750
31
0.0
0
LINE
8
00_POLIAMIDAS
10
262.519457
20
66.861455
30
0.0
11
264.310186
21
68.652183
31
0.0
0
LINE
8
00_POLIAMIDAS
10
249.959816
20
52.056750
30
0.0
11
251.759816
21
53.856750
31
0.0
0
LINE
8
00_POLIAMIDAS
10
264.764521
20
66.861455
30
0.0
11
266.364521
21
68.461455
31
0.0
0
LINE
8
00_POLIAMIDAS
10
252.204880
20
52.056750
30
0.0
11
254.004880
21
53.856750
31
0.0
0
LINE
8
00_POLIAMIDAS
10
266.855464
20
66.707333
30
0.0
11
268.378755
21
68.230625
31
0.0
0
LINE
8
00_POLIAMIDAS
10
254.449944
20
52.056750
30
0.0
11
256.249944
21
53.856750
31
0.0
0
LINE
8
00_POLIAMIDAS
10
267.873772
20
65.480577
30
0.0
11
269.319580
21
66.926385
31
0.0
0
LINE
8
00_POLIAMIDAS
10
256.695008
20
52.056750
30
0.0
11
258.495008
21
53.856750
31
0.0
0
LINE
8
00_POLIAMIDAS
10
268.757702
20
64.119444
30
0.0
11
270.205308
21
65.567049
31
0.0
0
LINE
8
00_POLIAMIDAS
10
258.940072
20
52.056750
30
0.0
11
260.740072
21
53.856750
31
0.0
0
LINE
8
00_POLIAMIDAS
10
270.144778
20
63.261455
30
0.0
11
273.105992
21
66.222669
31
0.0
0
LINE
8
00_POLIAMIDAS
10
261.185136
20
52.056750
30
0.0
11
262.985136
21
53.856750
31
0.0
0
LINE
8
00_POLIAMIDAS
10
271.879827
20
62.751441
30
0.0
11
272.934510
21
63.806124
31
0.0
0
LINE
8
00_POLIAMIDAS
10
263.430200
20
52.056750
30
0.0
11
265.230200
21
53.856750
31
0.0
0
LINE
8
00_POLIAMIDAS
10
265.675264
20
52.056750
30
0.0
11
270.893348
21
57.274833
31
0.0
0
LINE
8
00_POLIAMIDAS
10
267.954185
20
52.090607
30
0.0
11
269.068000
21
53.204422
31
0.0
0
LINE
8
00_POLIAMIDAS
10
273.122171
20
57.258593
30
0.0
11
273.201218
21
57.337639
31
0.0
0
LINE
8
00_POLIAMIDAS
10
270.901257
20
55.037678
30
0.0
11
271.871748
21
56.008170
31
0.0
0
LINE
8
00_POLIAMIDAS
10
272.601641
20
56.738062
30
0.0
11
273.103061
21
57.239482
31
0.0
0
LINE
8
00_POLIAMIDAS
10
272.368330
20
54.259687
30
0.0
11
273.152383
21
55.043740
31
0.0
0
LINE
8
00_POLIAMIDAS
10
238.865559
20
54.168837
30
0.0
11
238.203061
21
54.831335
31
0.0
0
LINE
8
00_POLIAMIDAS
10
240.298433
20
54.981027
30
0.0
11
239.453583
21
55.825877
31
0.0
0
LINE
8
00_POLIAMIDAS
10
238.597662
20
56.681798
30
0.0
11
238.303109
21
56.976351
31
0.0
0
LINE
8
00_POLIAMIDAS
10
245.467774
20
52.056750
30
0.0
11
240.088115
21
57.436410
31
0.0
0
LINE
8
00_POLIAMIDAS
10
247.712838
20
52.056750
30
0.0
11
245.912838
21
53.856750
31
0.0
0
LINE
8
00_POLIAMIDAS
10
249.957902
20
52.056750
30
0.0
11
248.157902
21
53.856750
31
0.0
0
LINE
8
00_POLIAMIDAS
10
239.360625
20
62.654027
30
0.0
11
238.337892
21
63.676760
31
0.0
0
LINE
8
00_POLIAMIDAS
10
252.202966
20
52.056750
30
0.0
11
250.402966
21
53.856750
31
0.0
0
LINE
8
00_POLIAMIDAS
10
240.998261
20
63.261455
30
0.0
11
238.212387
21
66.047329
31
0.0
0
LINE
8
00_POLIAMIDAS
10
254.448030
20
52.056750
30
0.0
11
252.648030
21
53.856750
31
0.0
0
LINE
8
00_POLIAMIDAS
10
242.544838
20
63.959942
30
0.0
11
241.036402
21
65.468378
31
0.0
0
LINE
8
00_POLIAMIDAS
10
256.693094
20
52.056750
30
0.0
11
254.893094
21
53.856750
31
0.0
0
LINE
8
00_POLIAMIDAS
10
243.428768
20
65.321076
30
0.0
11
241.982961
21
66.766884
31
0.0
0
LINE
8
00_POLIAMIDAS
10
258.938158
20
52.056750
30
0.0
11
257.138158
21
53.856750
31
0.0
0
LINE
8
00_POLIAMIDAS
10
244.386473
20
66.608436
30
0.0
11
242.885686
21
68.109222
31
0.0
0
LINE
8
00_POLIAMIDAS
10
261.183223
20
52.056750
30
0.0
11
259.383223
21
53.856750
31
0.0
0
LINE
8
00_POLIAMIDAS
10
246.378517
20
66.861455
30
0.0
11
244.778517
21
68.461455
31
0.0
0
LINE
8
00_POLIAMIDAS
10
263.428287
20
52.056750
30
0.0
11
261.628287
21
53.856750
31
0.0
0
LINE
8
00_POLIAMIDAS
10
248.623581
20
66.861455
30
0.0
11
246.955296
21
68.529741
31
0.0
0
LINE
8
00_POLIAMIDAS
10
265.673351
20
52.056750
30
0.0
11
263.873351
21
53.856750
31
0.0
0
LINE
8
00_POLIAMIDAS
10
248.403061
20
69.327040
30
0.0
11
247.203061
21
70.527040
31
0.0
0
LINE
8
00_POLIAMIDAS
10
250.868645
20
66.861455
30
0.0
11
249.268645
21
68.461455
31
0.0
0
LINE
8
00_POLIAMIDAS
10
267.896974
20
52.078191
30
0.0
11
266.118415
21
53.856750
31
0.0
0
LINE
8
00_POLIAMIDAS
10
249.313709
20
70.661455
30
0.0
11
248.113709
21
71.861455
31
0.0
0
LINE
8
00_POLIAMIDAS
10
253.113709
20
66.861455
30
0.0
11
251.513709
21
68.461455
31
0.0
0
LINE
8
00_POLIAMIDAS
10
269.047451
20
53.172778
30
0.0
11
267.601643
21
54.618586
31
0.0
0
LINE
8
00_POLIAMIDAS
10
255.358773
20
66.861455
30
0.0
11
253.758773
21
68.461455
31
0.0
0
LINE
8
00_POLIAMIDAS
10
269.931381
20
54.533912
30
0.0
11
268.485573
21
55.979719
31
0.0
0
LINE
8
00_POLIAMIDAS
10
257.603837
20
66.861455
30
0.0
11
255.203061
21
69.262232
31
0.0
0
LINE
8
00_POLIAMIDAS
10
272.541912
20
54.168445
30
0.0
11
269.534167
21
57.176190
31
0.0
0
LINE
8
00_POLIAMIDAS
10
256.703061
20
70.007296
30
0.0
11
255.203061
21
71.507296
31
0.0
0
LINE
8
00_POLIAMIDAS
10
259.848901
20
66.861455
30
0.0
11
258.248901
21
68.461455
31
0.0
0
LINE
8
00_POLIAMIDAS
10
272.238389
20
56.717032
30
0.0
11
271.444583
21
57.510837
31
0.0
0
LINE
8
00_POLIAMIDAS
10
257.743965
20
71.211455
30
0.0
11
255.743965
21
73.211455
31
0.0
0
LINE
8
00_POLIAMIDAS
10
262.093965
20
66.861455
30
0.0
11
260.493965
21
68.461455
31
0.0
0
LINE
8
00_POLIAMIDAS
10
264.339029
20
66.861455
30
0.0
11
262.574141
21
68.626344
31
0.0
0
LINE
8
00_POLIAMIDAS
10
270.184093
20
63.261455
30
0.0
11
267.704841
21
65.740708
31
0.0
0
LINE
8
00_POLIAMIDAS
10
262.234093
20
71.211455
30
0.0
11
261.318380
21
72.127168
31
0.0
0
LINE
8
00_POLIAMIDAS
10
266.654124
20
66.791425
30
0.0
11
264.984093
21
68.461455
31
0.0
0
LINE
8
00_POLIAMIDAS
10
264.203061
20
69.242488
30
0.0
11
262.703061
21
70.742488
31
0.0
0
LINE
8
00_POLIAMIDAS
10
273.141835
20
62.548777
30
0.0
11
267.229157
21
68.461455
31
0.0
0
LINE
8
00_POLIAMIDAS
10
264.203061
20
71.487552
30
0.0
11
262.480064
21
73.210548
31
0.0
0
LINE
8
00_POLIAMIDAS
10
272.986558
20
64.949119
30
0.0
11
271.933390
21
66.002286
31
0.0
0
LINE
8
00_ALUMINIO
10
236.895954
20
46.590445
30
0.0
11
233.510168
21
46.590445
31
0.0
0
ARC
8
00_ALUMINIO
10
233.510168
20
47.090445
30
0.0
40
0.500000
50
225.000000
51
270.000000
0
LINE
8
00_ALUMINIO
10
233.156614
20
46.736891
30
0.0
11
232.449507
21
47.443998
31
0.0
0
ARC
8
00_ALUMINIO
10
232.803061
20
47.797552
30
0.0
40
0.500000
50
180.000000
51
225.000000
0
LINE
8
00_ALUMINIO
10
232.303061
20
47.797552
30
0.0
11
232.303061
21
48.590445
31
0.0
0
LINE
8
00_ALUMINIO
10
232.303061
20
48.590445
30
0.0
11
234.003061
21
48.590445
31
0.0
0
ARC
8
00_ALUMINIO
10
234.003061
20
48.890445
30
0.0
40
0.300000
50
270.000000
51
0.000000
0
LINE
8
00_ALUMINIO
10
234.303061
20
48.890445
30
0.0
11
234.303061
21
51.290445
31
0.0
0
ARC
8
00_ALUMINIO
10
234.003061
20
51.290445
30
0.0
40
0.300000
50
0.000000
51
90.000000
0
LINE
8
00_ALUMINIO
10
234.003061
20
51.590445
30
0.0
11
217.303061
21
51.590445
31
0.0
0
ARC
8
00_ALUMINIO
10
217.303061
20
51.290445
30
0.0
40
0.300000
50
90.000000
51
180.000000
0
LINE
8
00_ALUMINIO
10
217.003061
20
51.290445
30
0.0
11
217.003061
21
26.690445
31
0.0
0
LINE
8
00_ALUMINIO
10
217.003061
20
26.690445
30
0.0
11
218.503061
21
26.690445
31
0.0
0
ARC
8
00_ALUMINIO
10
218.503061
20
26.190445
30
0.0
40
0.500000
50
0.000000
51
90.000000
0
LINE
8
00_ALUMINIO
10
219.003061
20
26.190445
30
0.0
11
219.003061
21
24.240445
31
0.0
0
ARC
8
00_ALUMINIO
10
218.503061
20
24.240445
30
0.0
40
0.500000
50
180.000000
51
0.000000
0
LINE
8
00_ALUMINIO
10
218.003061
20
24.240445
30
0.0
11
218.003061
21
25.390445
31
0.0
0
LINE
8
00_ALUMINIO
10
218.003061
20
25.390445
30
0.0
11
216.703061
21
25.390445
31
0.0
0
LINE
8
00_ALUMINIO
10
216.703061
20
25.390445
30
0.0
11
216.703061
21
17.890445
31
0.0
0
LINE
8
00_ALUMINIO
10
216.703061
20
17.890445
30
0.0
11
218.003061
21
17.890445
31
0.0
0
LINE
8
00_ALUMINIO
10
218.003061
20
17.890445
30
0.0
11
218.003061
21
19.240445
31
0.0
0
ARC
8
00_ALUMINIO
10
218.503061
20
19.240445
30
0.0
40
0.500000
50
0.000000
51
180.000000
0
LINE
8
00_ALUMINIO
10
219.003061
20
19.240445
30
0.0
11
219.003061
21
17.090445
31
0.0
0
ARC
8
00_ALUMINIO
10
218.503061
20
17.090445
30
0.0
40
0.500000
50
270.000000
51
0.000000
0
LINE
8
00_ALUMINIO
10
218.503061
20
16.590445
30
0.0
11
216.003061
21
16.590445
31
0.0
0
ARC
8
00_ALUMINIO
10
216.003061
20
17.090445
30
0.0
40
0.500000
50
180.000000
51
270.000000
0
LINE
8
00_ALUMINIO
10
215.503061
20
17.090445
30
0.0
11
215.503061
21
73.490445
31
0.0
0
ARC
8
00_ALUMINIO
10
215.803061
20
73.490445
30
0.0
40
0.300000
50
90.000000
51
180.000000
0
LINE
8
00_ALUMINIO
10
215.803061
20
73.790445
30
0.0
11
217.795954
21
73.790445
31
0.0
0
ARC
8
00_ALUMINIO
10
217.795954
20
73.290445
30
0.0
40
0.500000
50
45.000000
51
90.000000
0
LINE
8
00_ALUMINIO
10
218.149507
20
73.643998
30
0.0
11
218.856614
21
72.936891
31
0.0
0
ARC
8
00_ALUMINIO
10
218.503061
20
72.583338
30
0.0
40
0.500000
50
0.000000
51
45.000000
0
LINE
8
00_ALUMINIO
10
219.003061
20
72.583338
30
0.0
11
219.003061
21
71.790445
31
0.0
0
LINE
8
00_ALUMINIO
10
219.003061
20
71.790445
30
0.0
11
217.303061
21
71.790445
31
0.0
0
ARC
8
00_ALUMINIO
10
217.303061
20
71.490445
30
0.0
40
0.300000
50
90.000000
51
180.000000
0
LINE
8
00_ALUMINIO
10
217.003061
20
71.490445
30
0.0
11
217.003061
21
69.090445
31
0.0
0
ARC
8
00_ALUMINIO
10
217.303061
20
69.090445
30
0.0
40
0.300000
50
180.000000
51
270.000000
0
LINE
8
00_ALUMINIO
10
217.303061
20
68.790445
30
0.0
11
234.703061
21
68.790445
31
0.0
0
ARC
8
00_ALUMINIO
10
234.703061
20
69.090445
30
0.0
40
0.300000
50
270.000000
51
0.000000
0
LINE
8
00_ALUMINIO
10
235.003061
20
69.090445
30
0.0
11
235.003061
21
71.490445
31
0.0
0
ARC
8
00_ALUMINIO
10
234.703061
20
71.490445
30
0.0
40
0.300000
50
0.000000
51
90.000000
0
LINE
8
00_ALUMINIO
10
234.703061
20
71.790445
30
0.0
11
233.003061
21
71.790445
31
0.0
0
LINE
8
00_ALUMINIO
10
233.003061
20
71.790445
30
0.0
11
233.003061
21
72.583338
31
0.0
0
ARC
8
00_ALUMINIO
10
233.503061
20
72.583338
30
0.0
40
0.500000
50
135.000000
51
180.000000
0
LINE
8
00_ALUMINIO
10
233.149507
20
72.936891
30
0.0
11
233.856614
21
73.643998
31
0.0
0
ARC
8
00_ALUMINIO
10
234.210168
20
73.290445
30
0.0
40
0.500000
50
90.000000
51
135.000000
0
LINE
8
00_ALUMINIO
10
234.210168
20
73.790445
30
0.0
11
236.303061
21
73.790445
31
0.0
0
ARC
8
00_ALUMINIO
10
236.303061
20
73.290445
30
0.0
40
0.500000
50
0.000000
51
90.000000
0
LINE
8
00_ALUMINIO
10
236.803061
20
73.290445
30
0.0
11
236.803061
21
69.420445
31
0.0
0
ARC
8
00_ALUMINIO
10
237.303061
20
69.420445
30
0.0
40
0.500000
50
180.000000
51
270.000000
0
LINE
8
00_ALUMINIO
10
237.303061
20
68.920445
30
0.0
11
238.394123
21
68.920445
31
0.0
0
ARC
8
00_ALUMINIO
10
238.394123
20
68.620445
30
0.0
40
0.300000
50
37.571175
51
90.000000
0
ARC
8
00_ALUMINIO
10
240.217095
20
70.022862
30
0.0
40
2.000000
50
217.571175
51
308.194227
0
ARC
8
00_ALUMINIO
10
241.762918
20
68.058064
30
0.0
40
0.500000
50
88.376251
51
128.194227
0
LINE
8
00_ALUMINIO
10
241.777086
20
68.557863
30
0.0
11
242.433707
21
68.539249
31
0.0
0
ARC
8
00_ALUMINIO
10
242.430322
20
68.239225
30
0.0
40
0.300000
50
341.748585
51
88.866021
0
LINE
8
00_ALUMINIO
10
242.715230
20
68.145269
30
0.0
11
240.650942
21
65.478828
31
0.0
0
ARC
8
00_ALUMINIO
10
240.535795
20
65.567971
30
0.0
40
0.145621
50
178.000000
51
322.253920
0
LINE
8
00_ALUMINIO
10
240.390263
20
65.573053
30
0.0
11
240.395693
21
65.728540
31
0.0
0
ARC
8
00_ALUMINIO
10
240.195815
20
65.735520
30
0.0
40
0.200000
50
358.000000
51
51.176024
0
LINE
8
00_ALUMINIO
10
240.321201
20
65.891335
30
0.0
11
238.678031
21
67.213610
31
0.0
0
ARC
8
00_ALUMINIO
10
238.489952
20
66.979888
30
0.0
40
0.300000
50
51.176024
51
76.872879
0
LINE
8
00_ALUMINIO
10
238.558086
20
67.272048
30
0.0
11
238.203061
21
67.367599
31
0.0
0
ARC
8
00_ALUMINIO
10
238.203061
20
67.067599
30
0.0
40
0.300000
50
90.000000
51
270.000000
0
LINE
8
00_ALUMINIO
10
238.203061
20
66.767599
30
0.0
11
238.203061
21
62.267599
31
0.0
0
ARC
8
00_ALUMINIO
10
238.403061
20
62.267599
30
0.0
40
0.200000
50
180.000000
51
270.000000
0
LINE
8
00_ALUMINIO
10
238.403061
20
62.067599
30
0.0
11
238.470950
21
62.067599
31
0.0
0
ARC
8
00_ALUMINIO
10
238.470950
20
62.367599
30
0.0
40
0.300000
50
270.000000
51
301.380132
0
LINE
8
00_ALUMINIO
10
238.627164
20
62.111480
30
0.0
11
240.303157
21
63.133713
31
0.0
0
ARC
8
00_ALUMINIO
10
240.503061
20
63.139903
30
0.0
40
0.200000
50
0.000000
51
181.773628
0
LINE
8
00_ALUMINIO
10
240.703061
20
63.139903
30
0.0
11
240.703061
21
61.814036
31
0.0
0
ARC
8
00_ALUMINIO
10
240.403061
20
61.814036
30
0.0
40
0.300000
50
299.846880
51
0.000000
0
LINE
8
00_ALUMINIO
10
240.552366
20
61.553828
30
0.0
11
239.347693
21
60.862596
31
0.0
0
ARC
8
00_ALUMINIO
10
239.696071
20
60.255445
30
0.0
40
0.700000
50
119.846880
51
240.153120
0
LINE
8
00_ALUMINIO
10
239.347693
20
59.648294
30
0.0
11
240.552366
21
58.957061
31
0.0
0
ARC
8
00_ALUMINIO
10
240.403061
20
58.696854
30
0.0
40
0.300000
50
0.000000
51
60.153120
0
LINE
8
00_ALUMINIO
10
240.703061
20
58.696854
30
0.0
11
240.703061
21
57.370987
31
0.0
0
ARC
8
00_ALUMINIO
10
240.503061
20
57.370987
30
0.0
40
0.200000
50
178.226373
51
0.000000
0
LINE
8
00_ALUMINIO
10
240.303157
20
57.377177
30
0.0
11
238.627164
21
58.399410
31
0.0
0
ARC
8
00_ALUMINIO
10
238.470950
20
58.143290
30
0.0
40
0.300000
50
58.619868
51
90.000000
0
LINE
8
00_ALUMINIO
10
238.470950
20
58.443290
30
0.0
11
238.403061
21
58.443290
31
0.0
0
ARC
8
00_ALUMINIO
10
238.403061
20
58.243290
30
0.0
40
0.200000
50
90.000000
51
180.000000
0
LINE
8
00_ALUMINIO
10
238.203061
20
58.243290
30
0.0
11
238.203061
21
53.743290
31
0.0
0
ARC
8
00_ALUMINIO
10
238.203061
20
53.443290
30
0.0
40
0.300000
50
90.000000
51
270.000000
0
LINE
8
00_ALUMINIO
10
238.203061
20
53.143290
30
0.0
11
238.577664
21
53.244111
31
0.0
0
ARC
8
00_ALUMINIO
10
238.489952
20
53.531002
30
0.0
40
0.300000
50
287.000000
51
308.823976
0
LINE
8
00_ALUMINIO
10
238.678031
20
53.297279
30
0.0
11
240.321201
21
54.619554
31
0.0
0
ARC
8
00_ALUMINIO
10
240.195815
20
54.775369
30
0.0
40
0.200000
50
308.823976
51
2.000000
0
LINE
8
00_ALUMINIO
10
240.395693
20
54.782349
30
0.0
11
240.390263
21
54.937836
31
0.0
0
ARC
8
00_ALUMINIO
10
240.535795
20
54.942918
30
0.0
40
0.145621
50
37.746080
51
182.000000
0
LINE
8
00_ALUMINIO
10
240.650942
20
55.032062
30
0.0
11
242.715230
21
52.365621
31
0.0
0
ARC
8
00_ALUMINIO
10
242.430322
20
52.271665
30
0.0
40
0.300000
50
272.605413
51
18.251415
0
LINE
8
00_ALUMINIO
10
242.443959
20
51.971975
30
0.0
11
242.433707
21
51.971640
31
0.0
0
LINE
8
00_ALUMINIO
10
242.433707
20
51.971640
30
0.0
11
241.777086
21
51.953027
31
0.0
0
ARC
8
00_ALUMINIO
10
241.762918
20
52.452826
30
0.0
40
0.500000
50
231.805773
51
271.623749
0
ARC
8
00_ALUMINIO
10
240.217095
20
50.488028
30
0.0
40
2.000000
50
51.805773
51
123.997055
0
LINE
8
00_ALUMINIO
10
239.098794
20
52.146160
30
0.0
11
238.483278
21
51.844262
31
0.0
0
ARC
8
00_ALUMINIO
10
238.703459
20
51.395352
30
0.0
40
0.500000
50
116.127032
51
135.965392
0
ARC
8
00_ALUMINIO
10
237.984539
20
52.090445
30
0.0
40
0.500000
50
270.000000
51
315.965392
0
LINE
8
00_ALUMINIO
10
237.984539
20
51.590445
30
0.0
11
236.403061
21
51.590445
31
0.0
0
ARC
8
00_ALUMINIO
10
236.403061
20
51.290445
30
0.0
40
0.300000
50
90.000000
51
180.000000
0
LINE
8
00_ALUMINIO
10
236.103061
20
51.290445
30
0.0
11
236.103061
21
48.890445
31
0.0
0
ARC
8
00_ALUMINIO
10
236.403061
20
48.890445
30
0.0
40
0.300000
50
180.000000
51
270.000000
0
LINE
8
00_ALUMINIO
10
236.403061
20
48.590445
30
0.0
11
238.103061
21
48.590445
31
0.0
0
LINE
8
00_ALUMINIO
10
238.103061
20
48.590445
30
0.0
11
238.103061
21
47.797552
31
0.0
0
ARC
8
00_ALUMINIO
10
237.603061
20
47.797552
30
0.0
40
0.500000
50
315.000000
51
0.000000
0
LINE
8
00_ALUMINIO
10
237.956614
20
47.443998
30
0.0
11
237.249507
21
46.736891
31
0.0
0
ARC
8
00_ALUMINIO
10
236.895954
20
47.090445
30
0.0
40
0.500000
50
270.000000
51
315.000000
0
LINE
8
00_ALUMINIO
10
236.703061
20
65.290445
30
0.0
11
236.703061
21
55.090445
31
0.0
0
LINE
8
00_ALUMINIO
10
236.703061
20
55.090445
30
0.0
11
236.603061
21
55.090445
31
0.0
0
LINE
8
00_ALUMINIO
10
236.603061
20
55.090445
30
0.0
11
236.603061
21
53.090445
31
0.0
0
LINE
8
00_ALUMINIO
10
236.603061
20
53.090445
30
0.0
11
217.003061
21
53.090445
31
0.0
0
LINE
8
00_ALUMINIO
10
217.003061
20
53.090445
30
0.0
11
217.003061
21
67.290445
31
0.0
0
LINE
8
00_ALUMINIO
10
217.003061
20
67.290445
30
0.0
11
236.603061
21
67.290445
31
0.0
0
LINE
8
00_ALUMINIO
10
236.603061
20
67.290445
30
0.0
11
236.603061
21
65.290445
31
0.0
0
LINE
8
00_ALUMINIO
10
236.603061
20
65.290445
30
0.0
11
236.703061
21
65.290445
31
0.0
0
LINE
8
00_ALUMINIO
10
284.003061
20
66.990445
30
0.0
11
284.003061
21
53.390445
31
0.0
0
ARC
8
00_ALUMINIO
10
283.703061
20
53.390445
30
0.0
40
0.300000
50
270.000000
51
0.000000
0
LINE
8
00_ALUMINIO
10
283.703061
20
53.090445
30
0.0
11
283.303061
21
53.090445
31
0.0
0
ARC
8
00_ALUMINIO
10
283.303061
20
53.390445
30
0.0
40
0.300000
50
180.000000
51
270.000000
0
LINE
8
00_ALUMINIO
10
283.003061
20
53.390445
30
0.0
11
283.003061
21
54.190445
31
0.0
0
ARC
8
00_ALUMINIO
10
282.503061
20
54.190445
30
0.0
40
0.500000
50
0.000000
51
90.000000
0
LINE
8
00_ALUMINIO
10
282.503061
20
54.690445
30
0.0
11
281.903061
21
54.690445
31
0.0
0
LINE
8
00_ALUMINIO
10
281.903061
20
54.690445
30
0.0
11
281.903061
21
53.090445
31
0.0
0
LINE
8
00_ALUMINIO
10
281.903061
20
53.090445
30
0.0
11
274.703061
21
53.090445
31
0.0
0
LINE
8
00_ALUMINIO
10
274.703061
20
53.090445
30
0.0
11
274.703061
21
67.290445
31
0.0
0
LINE
8
00_ALUMINIO
10
274.703061
20
67.290445
30
0.0
11
281.903061
21
67.290445
31
0.0
0
LINE
8
00_ALUMINIO
10
281.903061
20
67.290445
30
0.0
11
281.903061
21
65.690445
31
0.0
0
LINE
8
00_ALUMINIO
10
281.903061
20
65.690445
30
0.0
11
282.503061
21
65.690445
31
0.0
0
ARC
8
00_ALUMINIO
10
282.503061
20
66.190445
30
0.0
40
0.500000
50
270.000000
51
0.000000
0
LINE
8
00_ALUMINIO
10
283.003061
20
66.190445
30
0.0
11
283.003061
21
66.990445
31
0.0
0
ARC
8
00_ALUMINIO
10
283.303061
20
66.990445
30
0.0
40
0.300000
50
90.000000
51
180.000000
0
LINE
8
00_ALUMINIO
10
283.303061
20
67.290445
30
0.0
11
283.703061
21
67.290445
31
0.0
0
ARC
8
00_ALUMINIO
10
283.703061
20
66.990445
30
0.0
40
0.300000
50
0.000000
51
90.000000
0
LINE
8
00_ALUMINIO
10
276.303061
20
51.590445
30
0.0
11
285.203061
21
51.590445
31
0.0
0
ARC
8
00_ALUMINIO
10
285.203061
20
51.890445
30
0.0
40
0.300000
50
270.000000
51
0.000000
0
LINE
8
00_ALUMINIO
10
285.503061
20
51.890445
30
0.0
11
285.503061
21
94.490427
31
0.0
0
ARC
8
00_ALUMINIO
10
285.003061
20
94.490427
30
0.0
40
0.500000
50
0.000000
51
90.000000
0
LINE
8
00_ALUMINIO
10
285.003061
20
94.990427
30
0.0
11
281.503043
21
94.990427
31
0.0
0
ARC
8
00_ALUMINIO
10
281.503043
20
94.490445
30
0.0
40
0.499982
50
90.000000
51
180.000000
0
LINE
8
00_ALUMINIO
10
281.003061
20
94.490445
30
0.0
11
281.003061
21
93.490481
31
0.0
0
LINE
8
00_ALUMINIO
10
281.003061
20
93.490481
30
0.0
11
281.503043
21
91.740544
31
0.0
0
LINE
8
00_ALUMINIO
10
281.503043
20
91.740544
30
0.0
11
282.003025
21
91.740544
31
0.0
0
LINE
8
00_ALUMINIO
10
282.003025
20
91.740544
30
0.0
11
282.003025
21
93.490481
31
0.0
0
LINE
8
00_ALUMINIO
10
282.003025
20
93.490481
30
0.0
11
284.003061
21
93.490481
31
0.0
0
LINE
8
00_ALUMINIO
10
284.003061
20
93.490481
30
0.0
11
284.003061
21
85.990752
31
0.0
0
LINE
8
00_ALUMINIO
10
284.003061
20
85.990752
30
0.0
11
282.003025
21
85.990752
31
0.0
0
LINE
8
00_ALUMINIO
10
282.003025
20
85.990752
30
0.0
11
282.003025
21
87.740689
31
0.0
0
LINE
8
00_ALUMINIO
10
282.003025
20
87.740689
30
0.0
11
281.503043
21
87.740689
31
0.0
0
LINE
8
00_ALUMINIO
10
281.503043
20
87.740689
30
0.0
11
281.003061
21
85.990752
31
0.0
0
LINE
8
00_ALUMINIO
10
281.003061
20
85.990752
30
0.0
11
281.003061
21
84.990788
31
0.0
0
ARC
8
00_ALUMINIO
10
281.503043
20
84.990788
30
0.0
40
0.499982
50
180.000000
51
270.000000
0
LINE
8
00_ALUMINIO
10
281.503043
20
84.490806
30
0.0
11
284.003061
21
84.490806
31
0.0
0
LINE
8
00_ALUMINIO
10
284.003061
20
84.490806
30
0.0
11
284.003061
21
83.189294
31
0.0
0
ARC
8
00_ALUMINIO
10
283.703061
20
83.189294
30
0.0
40
0.300000
50
270.000000
51
0.000000
0
LINE
8
00_ALUMINIO
10
283.703061
20
82.889294
30
0.0
11
281.802878
21
82.889294
31
0.0
0
ARC
8
00_ALUMINIO
10
281.802878
20
82.589294
30
0.0
40
0.300000
50
90.000000
51
180.000000
0
LINE
8
00_ALUMINIO
10
281.502878
20
82.589294
30
0.0
11
281.502878
21
80.971670
31
0.0
0
ARC
8
00_ALUMINIO
10
282.002574
20
80.989111
30
0.0
40
0.500000
50
181.998998
51
270.000000
0
LINE
8
00_ALUMINIO
10
282.002574
20
80.489111
30
0.0
11
282.603061
21
80.489111
31
0.0
0
LINE
8
00_ALUMINIO
10
282.603061
20
80.489111
30
0.0
11
282.603061
21
81.789111
31
0.0
0
LINE
8
00_ALUMINIO
10
282.603061
20
81.789111
30
0.0
11
283.903061
21
81.789111
31
0.0
0
LINE
8
00_ALUMINIO
10
283.903061
20
81.789111
30
0.0
11
283.903061
21
68.789111
31
0.0
0
LINE
8
00_ALUMINIO
10
283.903061
20
68.789111
30
0.0
11
281.703061
21
68.789111
31
0.0
0
LINE
8
00_ALUMINIO
10
281.703061
20
68.789111
30
0.0
11
281.703061
21
69.889111
31
0.0
0
LINE
8
00_ALUMINIO
10
281.703061
20
69.889111
30
0.0
11
280.903061
21
69.889111
31
0.0
0
ARC
8
00_ALUMINIO
10
280.903061
20
69.389111
30
0.0
40
0.500000
50
90.000000
51
180.000000
0
LINE
8
00_ALUMINIO
10
280.403061
20
69.389111
30
0.0
11
280.403061
21
68.789111
31
0.0
0
LINE
8
00_ALUMINIO
10
280.403061
20
68.789111
30
0.0
11
274.653061
21
68.789111
31
0.0
0
LINE
8
00_ALUMINIO
10
274.653061
20
68.789111
30
0.0
11
274.653061
21
73.790445
31
0.0
0
LINE
8
00_ALUMINIO
10
274.653061
20
73.790445
30
0.0
11
272.003061
21
73.790445
31
0.0
0
ARC
8
00_ALUMINIO
10
272.003061
20
73.490445
30
0.0
40
0.300000
50
90.000000
51
180.000000
0
LINE
8
00_ALUMINIO
10
271.703061
20
73.490445
30
0.0
11
271.703061
21
72.590445
31
0.0
0
ARC
8
00_ALUMINIO
10
272.003061
20
72.590445
30
0.0
40
0.300000
50
180.000000
51
270.000000
0
LINE
8
00_ALUMINIO
10
272.003061
20
72.290445
30
0.0
11
273.203061
21
72.290445
31
0.0
0
LINE
8
00_ALUMINIO
10
273.203061
20
72.290445
30
0.0
11
273.203061
21
69.115733
31
0.0
0
ARC
8
00_ALUMINIO
10
272.703061
20
69.115733
30
0.0
40
0.500000
50
296.127032
51
0.000000
0
LINE
8
00_ALUMINIO
10
272.923242
20
68.666823
30
0.0
11
272.307327
21
68.364729
31
0.0
0
ARC
8
00_ALUMINIO
10
271.189027
20
70.022862
30
0.0
40
2.000000
50
231.805773
51
303.997055
0
ARC
8
00_ALUMINIO
10
269.643204
20
68.058064
30
0.0
40
0.500000
50
51.805773
51
91.623749
0
LINE
8
00_ALUMINIO
10
269.629036
20
68.557863
30
0.0
11
268.972414
21
68.539249
31
0.0
0
LINE
8
00_ALUMINIO
10
268.972414
20
68.539249
30
0.0
11
268.962162
21
68.538915
31
0.0
0
ARC
8
00_ALUMINIO
10
268.975799
20
68.239225
30
0.0
40
0.300000
50
92.605412
51
198.251415
0
LINE
8
00_ALUMINIO
10
268.690892
20
68.145269
30
0.0
11
270.755179
21
65.478828
31
0.0
0
ARC
8
00_ALUMINIO
10
270.870326
20
65.567971
30
0.0
40
0.145621
50
217.746080
51
2.000000
0
LINE
8
00_ALUMINIO
10
271.015858
20
65.573053
30
0.0
11
271.010429
21
65.728540
31
0.0
0
ARC
8
00_ALUMINIO
10
271.210307
20
65.735520
30
0.0
40
0.200000
50
128.823976
51
182.000000
0
LINE
8
00_ALUMINIO
10
271.084921
20
65.891335
30
0.0
11
272.728090
21
67.213610
31
0.0
0
ARC
8
00_ALUMINIO
10
272.916169
20
66.979888
30
0.0
40
0.300000
50
107.000000
51
128.823976
0
LINE
8
00_ALUMINIO
10
272.828458
20
67.266779
30
0.0
11
273.203061
21
67.367599
31
0.0
0
ARC
8
00_ALUMINIO
10
273.203061
20
67.067599
30
0.0
40
0.300000
50
270.000000
51
90.000000
0
LINE
8
00_ALUMINIO
10
273.203061
20
66.767599
30
0.0
11
273.203061
21
62.267599
31
0.0
0
ARC
8
00_ALUMINIO
10
273.003061
20
62.267599
30
0.0
40
0.200000
50
270.000000
51
0.000000
0
LINE
8
00_ALUMINIO
10
273.003061
20
62.067599
30
0.0
11
272.935172
21
62.067599
31
0.0
0
ARC
8
00_ALUMINIO
10
272.935172
20
62.367599
30
0.0
40
0.300000
50
238.619868
51
270.000000
0
LINE
8
00_ALUMINIO
10
272.778958
20
62.111480
30
0.0
11
271.102965
21
63.133713
31
0.0
0
ARC
8
00_ALUMINIO
10
270.903061
20
63.139903
30
0.0
40
0.200000
50
358.226373
51
180.000000
0
LINE
8
00_ALUMINIO
10
270.703061
20
63.139903
30
0.0
11
270.703061
21
61.756122
31
0.0
0
ARC
8
00_ALUMINIO
10
270.903061
20
61.756122
30
0.0
40
0.200000
50
180.000000
51
241.694535
0
LINE
8
00_ALUMINIO
10
270.808444
20
61.579827
30
0.0
11
272.058429
21
60.862596
31
0.0
0
ARC
8
00_ALUMINIO
10
271.710050
20
60.255445
30
0.0
40
0.700000
50
299.846880
51
60.153120
0
LINE
8
00_ALUMINIO
10
272.058429
20
59.648294
30
0.0
11
270.808444
21
58.931062
31
0.0
0
ARC
8
00_ALUMINIO
10
270.903061
20
58.754767
30
0.0
40
0.200000
50
118.305465
51
180.000000
0
LINE
8
00_ALUMINIO
10
270.703061
20
58.754767
30
0.0
11
270.703061
21
57.370987
31
0.0
0
ARC
8
00_ALUMINIO
10
270.903061
20
57.370987
30
0.0
40
0.200000
50
180.000000
51
1.773627
0
LINE
8
00_ALUMINIO
10
271.102965
20
57.377177
30
0.0
11
272.778958
21
58.399410
31
0.0
0
ARC
8
00_ALUMINIO
10
272.935172
20
58.143290
30
0.0
40
0.300000
50
90.000000
51
121.380132
0
LINE
8
00_ALUMINIO
10
272.935172
20
58.443290
30
0.0
11
273.003061
21
58.443290
31
0.0
0
ARC
8
00_ALUMINIO
10
273.003061
20
58.243290
30
0.0
40
0.200000
50
0.000000
51
90.000000
0
LINE
8
00_ALUMINIO
10
273.203061
20
58.243290
30
0.0
11
273.203061
21
53.743290
31
0.0
0
ARC
8
00_ALUMINIO
10
273.203061
20
53.443290
30
0.0
40
0.300000
50
270.000000
51
90.000000
0
LINE
8
00_ALUMINIO
10
273.203061
20
53.143290
30
0.0
11
272.848036
21
53.238841
31
0.0
0
ARC
8
00_ALUMINIO
10
272.916169
20
53.531002
30
0.0
40
0.300000
50
231.176024
51
256.872879
0
LINE
8
00_ALUMINIO
10
272.728090
20
53.297279
30
0.0
11
271.084921
21
54.619554
31
0.0
0
ARC
8
00_ALUMINIO
10
271.210307
20
54.775369
30
0.0
40
0.200000
50
178.000000
51
231.176024
0
LINE
8
00_ALUMINIO
10
271.010429
20
54.782349
30
0.0
11
271.015858
21
54.937836
31
0.0
0
ARC
8
00_ALUMINIO
10
270.870326
20
54.942918
30
0.0
40
0.145621
50
358.000000
51
142.253920
0
LINE
8
00_ALUMINIO
10
270.755179
20
55.032062
30
0.0
11
268.690892
21
52.365621
31
0.0
0
ARC
8
00_ALUMINIO
10
268.975799
20
52.271665
30
0.0
40
0.300000
50
161.748585
51
268.866021
0
LINE
8
00_ALUMINIO
10
268.972414
20
51.971640
30
0.0
11
269.629036
21
51.953027
31
0.0
0
ARC
8
00_ALUMINIO
10
269.643204
20
52.452826
30
0.0
40
0.500000
50
268.376251
51
308.194227
0
ARC
8
00_ALUMINIO
10
271.189027
20
50.488028
30
0.0
40
2.000000
50
56.002945
51
128.194227
0
LINE
8
00_ALUMINIO
10
272.307327
20
52.146160
30
0.0
11
273.336167
21
51.641535
31
0.0
0
ARC
8
00_ALUMINIO
10
273.556349
20
52.090445
30
0.0
40
0.500000
50
243.872968
51
270.000000
0
LINE
8
00_ALUMINIO
10
273.556349
20
51.590445
30
0.0
11
274.103061
21
51.590445
31
0.0
0
ARC
8
00_ALUMINIO
10
274.103061
20
51.290445
30
0.0
40
0.300000
50
0.000000
51
90.000000
0
LINE
8
00_ALUMINIO
10
274.403061
20
51.290445
30
0.0
11
274.403061
21
48.890445
31
0.0
0
ARC
8
00_ALUMINIO
10
274.103061
20
48.890445
30
0.0
40
0.300000
50
270.000000
51
0.000000
0
LINE
8
00_ALUMINIO
10
274.103061
20
48.590445
30
0.0
11
272.503061
21
48.590445
31
0.0
0
LINE
8
00_ALUMINIO
10
272.503061
20
48.590445
30
0.0
11
272.503061
21
47.797552
31
0.0
0
ARC
8
00_ALUMINIO
10
273.003061
20
47.797552
30
0.0
40
0.500000
50
180.000000
51
225.000000
0
LINE
8
00_ALUMINIO
10
272.649507
20
47.443998
30
0.0
11
273.356614
21
46.736891
31
0.0
0
ARC
8
00_ALUMINIO
10
273.710168
20
47.090445
30
0.0
40
0.500000
50
225.000000
51
270.000000
0
LINE
8
00_ALUMINIO
10
273.710168
20
46.590445
30
0.0
11
275.703061
21
46.590445
31
0.0
0
ARC
8
00_ALUMINIO
10
275.703061
20
46.890445
30
0.0
40
0.300000
50
270.000000
51
0.000000
0
LINE
8
00_ALUMINIO
10
276.003061
20
46.890445
30
0.0
11
276.003061
21
47.990445
31
0.0
0
ARC
8
00_ALUMINIO
10
276.203061
20
47.990445
30
0.0
40
0.200000
50
90.000000
51
180.000000
0
LINE
8
00_ALUMINIO
10
276.203061
20
48.190445
30
0.0
11
282.239319
21
48.190445
31
0.0
0
ARC
8
00_ALUMINIO
10
282.239319
20
49.690445
30
0.0
40
1.500000
50
270.000000
51
305.278996
0
ARC
8
00_ALUMINIO
10
282.932389
20
48.710826
30
0.0
40
0.300000
50
305.278996
51
65.000000
0
LINE
8
00_ALUMINIO
10
283.059175
20
48.982718
30
0.0
11
281.601726
21
49.662337
31
0.0
0
ARC
8
00_ALUMINIO
10
281.474941
20
49.390445
30
0.0
40
0.300000
50
65.000000
51
150.000000
0
LINE
8
00_ALUMINIO
10
281.215133
20
49.540445
30
0.0
11
281.013061
21
49.190445
31
0.0
0
LINE
8
00_ALUMINIO
10
281.013061
20
49.190445
30
0.0
11
276.303061
21
49.190445
31
0.0
0
ARC
8
00_ALUMINIO
10
276.303061
20
49.490445
30
0.0
40
0.300000
50
180.000000
51
270.000000
0
LINE
8
00_ALUMINIO
10
276.003061
20
49.490445
30
0.0
11
276.003061
21
51.290445
31
0.0
0
ARC
8
00_ALUMINIO
10
276.303061
20
51.290445
30
0.0
40
0.300000
50
90.000000
51
180.000000
0
LINE
8
00_POLIAMIDAS
10
267.671147
20
68.461455
30
0.0
11
264.703061
21
68.461455
31
0.0
0
ARC
8
00_POLIAMIDAS
10
264.703061
20
68.961455
30
0.0
40
0.500000
50
180.000000
51
270.000000
0
LINE
8
00_POLIAMIDAS
10
264.203061
20
68.961455
30
0.0
11
264.203061
21
72.711455
31
0.0
0
ARC
8
00_POLIAMIDAS
10
263.703061
20
72.711455
30
0.0
40
0.500000
50
0.000000
51
90.000000
0
LINE
8
00_POLIAMIDAS
10
263.703061
20
73.211455
30
0.0
11
262.510168
21
73.211455
31
0.0
0
ARC
8
00_POLIAMIDAS
10
262.510168
20
72.711455
30
0.0
40
0.500000
50
90.000000
51
135.000000
0
LINE
8
00_POLIAMIDAS
10
262.156614
20
73.065009
30
0.0
11
261.449507
21
72.357902
31
0.0
0
ARC
8
00_POLIAMIDAS
10
261.803061
20
72.004348
30
0.0
40
0.500000
50
135.000000
51
180.000000
0
LINE
8
00_POLIAMIDAS
10
261.303061
20
72.004348
30
0.0
11
261.303061
21
71.511455
31
0.0
0
ARC
8
00_POLIAMIDAS
10
261.603061
20
71.511455
30
0.0
40
0.300000
50
180.000000
51
270.000000
0
LINE
8
00_POLIAMIDAS
10
261.603061
20
71.211455
30
0.0
11
262.403061
21
71.211455
31
0.0
0
ARC
8
00_POLIAMIDAS
10
262.403061
20
70.911455
30
0.0
40
0.300000
50
0.000000
51
90.000000
0
LINE
8
00_POLIAMIDAS
10
262.703061
20
70.911455
30
0.0
11
262.703061
21
68.961455
31
0.0
0
ARC
8
00_POLIAMIDAS
10
262.203061
20
68.961455
30
0.0
40
0.500000
50
270.000000
51
0.000000
0
LINE
8
00_POLIAMIDAS
10
262.203061
20
68.461455
30
0.0
11
257.203061
21
68.461455
31
0.0
0
ARC
8
00_POLIAMIDAS
10
257.203061
20
68.961455
30
0.0
40
0.500000
50
180.000000
51
270.000000
0
LINE
8
00_POLIAMIDAS
10
256.703061
20
68.961455
30
0.0
11
256.703061
21
70.911455
31
0.0
0
ARC
8
00_POLIAMIDAS
10
257.003061
20
70.911455
30
0.0
40
0.300000
50
90.000000
51
180.000000
0
LINE
8
00_POLIAMIDAS
10
257.003061
20
71.211455
30
0.0
11
257.803061
21
71.211455
31
0.0
0
ARC
8
00_POLIAMIDAS
10
257.803061
20
71.511455
30
0.0
40
0.300000
50
270.000000
51
0.000000
0
LINE
8
00_POLIAMIDAS
10
258.103061
20
71.511455
30
0.0
11
258.103061
21
72.004348
31
0.0
0
ARC
8
00_POLIAMIDAS
10
257.603061
20
72.004348
30
0.0
40
0.500000
50
0.000000
51
45.000000
0
LINE
8
00_POLIAMIDAS
10
257.956614
20
72.357902
30
0.0
11
257.249507
21
73.065009
31
0.0
0
ARC
8
00_POLIAMIDAS
10
256.895954
20
72.711455
30
0.0
40
0.500000
50
45.000000
51
90.000000
0
LINE
8
00_POLIAMIDAS
10
256.895954
20
73.211455
30
0.0
11
255.703061
21
73.211455
31
0.0
0
ARC
8
00_POLIAMIDAS
10
255.703061
20
72.711455
30
0.0
40
0.500000
50
90.000000
51
180.000000
0
LINE
8
00_POLIAMIDAS
10
255.203061
20
72.711455
30
0.0
11
255.203061
21
68.961455
31
0.0
0
ARC
8
00_POLIAMIDAS
10
254.703061
20
68.961455
30
0.0
40
0.500000
50
270.000000
51
0.000000
0
LINE
8
00_POLIAMIDAS
10
254.703061
20
68.461455
30
0.0
11
248.903061
21
68.461455
31
0.0
0
ARC
8
00_POLIAMIDAS
10
248.903061
20
68.961455
30
0.0
40
0.500000
50
180.000000
51
270.000000
0
LINE
8
00_POLIAMIDAS
10
248.403061
20
68.961455
30
0.0
11
248.403061
21
70.361455
31
0.0
0
ARC
8
00_POLIAMIDAS
10
248.703061
20
70.361455
30
0.0
40
0.300000
50
90.000000
51
180.000000
0
LINE
8
00_POLIAMIDAS
10
248.703061
20
70.661455
30
0.0
11
249.553061
21
70.661455
31
0.0
0
ARC
8
00_POLIAMIDAS
10
249.553061
20
70.861455
30
0.0
40
0.200000
50
270.000000
51
0.000000
0
ARC
8
00_POLIAMIDAS
10
248.753061
20
70.861455
30
0.0
40
1.000000
50
0.000000
51
90.000000
0
LINE
8
00_POLIAMIDAS
10
248.753061
20
71.861455
30
0.0
11
248.403061
21
71.861455
31
0.0
0
LINE
8
00_POLIAMIDAS
10
248.403061
20
71.861455
30
0.0
11
247.503061
21
71.861455
31
0.0
0
ARC
8
00_POLIAMIDAS
10
247.503061
20
71.561455
30
0.0
40
0.300000
50
90.000000
51
180.000000
0
LINE
8
00_POLIAMIDAS
10
247.203061
20
71.561455
30
0.0
11
247.203061
21
68.961455
31
0.0
0
ARC
8
00_POLIAMIDAS
10
246.703061
20
68.961455
30
0.0
40
0.500000
50
270.000000
51
0.000000
0
LINE
8
00_POLIAMIDAS
10
246.703061
20
68.461455
30
0.0
11
243.734975
21
68.461455
31
0.0
0
ARC
8
00_POLIAMIDAS
10
243.734975
20
67.261455
30
0.0
40
1.200000
50
90.000000
51
147.000000
0
LINE
8
00_POLIAMIDAS
10
242.728570
20
67.915022
30
0.0
11
241.225034
21
65.599780
31
0.0
0
ARC
8
00_POLIAMIDAS
10
240.972327
20
65.761455
30
0.0
40
0.300000
50
270.000000
51
327.390000
0
LINE
8
00_POLIAMIDAS
10
240.972327
20
65.461455
30
0.0
11
240.717958
21
65.461455
31
0.0
0
ARC
8
00_POLIAMIDAS
10
240.717958
20
66.661455
30
0.0
40
1.200000
50
239.496833
51
270.000000
0
LINE
8
00_POLIAMIDAS
10
240.108854
20
65.627534
30
0.0
11
238.933538
21
66.319936
31
0.0
0
ARC
8
00_POLIAMIDAS
10
238.781262
20
66.061455
30
0.0
40
0.300000
50
59.496833
51
90.000000
0
LINE
8
00_POLIAMIDAS
10
238.781262
20
66.361455
30
0.0
11
238.603061
21
66.361455
31
0.0
0
ARC
8
00_POLIAMIDAS
10
238.603061
20
65.961455
30
0.0
40
0.400000
50
90.000000
51
180.000000
0
LINE
8
00_POLIAMIDAS
10
238.203061
20
65.961455
30
0.0
11
238.203061
21
65.561455
31
0.0
0
ARC
8
00_POLIAMIDAS
10
238.303061
20
65.561455
30
0.0
40
0.100000
50
180.000000
51
270.000000
0
LINE
8
00_POLIAMIDAS
10
238.303061
20
65.461455
30
0.0
11
238.303061
21
65.186455
31
0.0
0
ARC
8
00_POLIAMIDAS
10
238.603061
20
65.186455
30
0.0
40
0.300000
50
180.000000
51
270.000000
0
LINE
8
00_POLIAMIDAS
10
238.603061
20
64.886455
30
0.0
11
238.662587
21
64.886455
31
0.0
0
ARC
8
00_POLIAMIDAS
10
238.953061
20
64.361455
30
0.0
40
0.600000
50
241.044976
51
118.955024
0
LINE
8
00_POLIAMIDAS
10
238.662587
20
63.836455
30
0.0
11
238.603061
21
63.836455
31
0.0
0
ARC
8
00_POLIAMIDAS
10
238.603061
20
63.536455
30
0.0
40
0.300000
50
90.000000
51
180.000000
0
LINE
8
00_POLIAMIDAS
10
238.303061
20
63.536455
30
0.0
11
238.303061
21
63.261455
31
0.0
0
ARC
8
00_POLIAMIDAS
10
238.303061
20
63.161455
30
0.0
40
0.100000
50
90.000000
51
180.000000
0
LINE
8
00_POLIAMIDAS
10
238.203061
20
63.161455
30
0.0
11
238.203061
21
62.761455
31
0.0
0
ARC
8
00_POLIAMIDAS
10
238.603061
20
62.761455
30
0.0
40
0.400000
50
180.000000
51
270.000000
0
LINE
8
00_POLIAMIDAS
10
238.603061
20
62.361455
30
0.0
11
238.781396
21
62.361455
31
0.0
0
ARC
8
00_POLIAMIDAS
10
238.781396
20
62.661455
30
0.0
40
0.300000
50
270.000000
51
300.455827
0
LINE
8
00_POLIAMIDAS
10
238.933458
20
62.402849
30
0.0
11
240.112067
21
63.095879
31
0.0
0
ARC
8
00_POLIAMIDAS
10
240.720315
20
62.061455
30
0.0
40
1.200000
50
90.000000
51
120.455827
0
LINE
8
00_POLIAMIDAS
10
240.720315
20
63.261455
30
0.0
11
240.920240
21
63.261455
31
0.0
0
LINE
8
00_POLIAMIDAS
10
240.920240
20
63.261455
30
0.0
11
241.439688
21
63.261455
31
0.0
0
ARC
8
00_POLIAMIDAS
10
241.439688
20
64.461455
30
0.0
40
1.200000
50
270.000000
51
327.000000
0
LINE
8
00_POLIAMIDAS
10
242.446093
20
63.807888
30
0.0
11
244.015102
21
66.223950
31
0.0
0
ARC
8
00_POLIAMIDAS
10
245.189241
20
65.461455
30
0.0
40
1.400000
50
90.000000
51
147.000000
0
LINE
8
00_POLIAMIDAS
10
245.189241
20
66.861455
30
0.0
11
247.203061
21
66.861455
31
0.0
0
LINE
8
00_POLIAMIDAS
10
247.203061
20
66.861455
30
0.0
11
266.216881
21
66.861455
31
0.0
0
ARC
8
00_POLIAMIDAS
10
266.216881
20
65.461455
30
0.0
40
1.400000
50
33.000000
51
90.000000
0
LINE
8
00_POLIAMIDAS
10
267.391020
20
66.223950
30
0.0
11
268.960028
21
63.807888
31
0.0
0
ARC
8
00_POLIAMIDAS
10
269.966433
20
64.461455
30
0.0
40
1.200000
50
213.000000
51
270.000000
0
LINE
8
00_POLIAMIDAS
10
269.966433
20
63.261455
30
0.0
11
270.685806
21
63.261455
31
0.0
0
ARC
8
00_POLIAMIDAS
10
270.685806
20
62.061455
30
0.0
40
1.200000
50
59.544173
51
90.000000
0
LINE
8
00_POLIAMIDAS
10
271.294055
20
63.095879
30
0.0
11
272.472664
21
62.402849
31
0.0
0
ARC
8
00_POLIAMIDAS
10
272.624726
20
62.661455
30
0.0
40
0.300000
50
239.544173
51
270.000000
0
LINE
8
00_POLIAMIDAS
10
272.624726
20
62.361455
30
0.0
11
272.803061
21
62.361455
31
0.0
0
ARC
8
00_POLIAMIDAS
10
272.803061
20
62.761455
30
0.0
40
0.400000
50
270.000000
51
0.000000
0
LINE
8
00_POLIAMIDAS
10
273.203061
20
62.761455
30
0.0
11
273.203061
21
63.161455
31
0.0
0
ARC
8
00_POLIAMIDAS
10
273.103061
20
63.161455
30
0.0
40
0.100000
50
0.000000
51
90.000000
0
LINE
8
00_POLIAMIDAS
10
273.103061
20
63.261455
30
0.0
11
273.103061
21
63.536455
31
0.0
0
ARC
8
00_POLIAMIDAS
10
272.803061
20
63.536455
30
0.0
40
0.300000
50
0.000000
51
90.000000
0
LINE
8
00_POLIAMIDAS
10
272.803061
20
63.836455
30
0.0
11
272.743535
21
63.836455
31
0.0
0
ARC
8
00_POLIAMIDAS
10
272.453061
20
64.361455
30
0.0
40
0.600000
50
61.044976
51
298.955024
0
LINE
8
00_POLIAMIDAS
10
272.743535
20
64.886455
30
0.0
11
272.803061
21
64.886455
31
0.0
0
ARC
8
00_POLIAMIDAS
10
272.803061
20
65.186455
30
0.0
40
0.300000
50
270.000000
51
0.000000
0
LINE
8
00_POLIAMIDAS
10
273.103061
20
65.186455
30
0.0
11
273.103061
21
65.461455
31
0.0
0
ARC
8
00_POLIAMIDAS
10
273.103061
20
65.561455
30
0.0
40
0.100000
50
270.000000
51
0.000000
0
LINE
8
00_POLIAMIDAS
10
273.203061
20
65.561455
30
0.0
11
273.203061
21
65.961455
31
0.0
0
ARC
8
00_POLIAMIDAS
10
272.803061
20
65.961455
30
0.0
40
0.400000
50
0.000000
51
90.000000
0
LINE
8
00_POLIAMIDAS
10
272.803061
20
66.361455
30
0.0
11
272.624859
21
66.361455
31
0.0
0
ARC
8
00_POLIAMIDAS
10
272.624859
20
66.061455
30
0.0
40
0.300000
50
90.000000
51
120.503167
0
LINE
8
00_POLIAMIDAS
10
272.472583
20
66.319936
30
0.0
11
271.297267
21
65.627534
31
0.0
0
ARC
8
00_POLIAMIDAS
10
270.688164
20
66.661455
30
0.0
40
1.200000
50
270.000000
51
300.503167
0
LINE
8
00_POLIAMIDAS
10
270.688164
20
65.461455
30
0.0
11
270.488255
21
65.461455
31
0.0
0
LINE
8
00_POLIAMIDAS
10
270.488255
20
65.461455
30
0.0
11
270.433795
21
65.461455
31
0.0
0
ARC
8
00_POLIAMIDAS
10
270.433795
20
65.761455
30
0.0
40
0.300000
50
212.610000
51
270.000000
0
LINE
8
00_POLIAMIDAS
10
270.181087
20
65.599780
30
0.0
11
268.677551
21
67.915022
31
0.0
0
ARC
8
00_POLIAMIDAS
10
267.671147
20
67.261455
30
0.0
40
1.200000
50
33.000000
51
90.000000
0
ARC
8
00_POLIAMIDAS
10
267.671147
20
53.256750
30
0.0
40
1.200000
50
270.000000
51
327.000000
0
LINE
8
00_POLIAMIDAS
10
268.677551
20
52.603183
30
0.0
11
270.181087
21
54.918425
31
0.0
0
ARC
8
00_POLIAMIDAS
10
270.433795
20
54.756750
30
0.0
40
0.300000
50
90.000000
51
147.390000
0
LINE
8
00_POLIAMIDAS
10
270.433795
20
55.056750
30
0.0
11
270.688164
21
55.056750
31
0.0
0
ARC
8
00_POLIAMIDAS
10
270.688164
20
53.856750
30
0.0
40
1.200000
50
59.496833
51
90.000000
0
LINE
8
00_POLIAMIDAS
10
271.297267
20
54.890671
30
0.0
11
272.472583
21
54.198270
31
0.0
0
ARC
8
00_POLIAMIDAS
10
272.624859
20
54.456750
30
0.0
40
0.300000
50
239.496833
51
270.000000
0
LINE
8
00_POLIAMIDAS
10
272.624859
20
54.156750
30
0.0
11
272.803061
21
54.156750
31
0.0
0
ARC
8
00_POLIAMIDAS
10
272.803061
20
54.556750
30
0.0
40
0.400000
50
270.000000
51
0.000000
0
LINE
8
00_POLIAMIDAS
10
273.203061
20
54.556750
30
0.0
11
273.203061
21
54.956750
31
0.0
0
ARC
8
00_POLIAMIDAS
10
273.103061
20
54.956750
30
0.0
40
0.100000
50
0.000000
51
90.000000
0
LINE
8
00_POLIAMIDAS
10
273.103061
20
55.056750
30
0.0
11
273.103061
21
55.331750
31
0.0
0
ARC
8
00_POLIAMIDAS
10
272.803061
20
55.331750
30
0.0
40
0.300000
50
0.000000
51
90.000000
0
LINE
8
00_POLIAMIDAS
10
272.803061
20
55.631750
30
0.0
11
272.743535
21
55.631750
31
0.0
0
ARC
8
00_POLIAMIDAS
10
272.453061
20
56.156750
30
0.0
40
0.600000
50
61.044976
51
298.955024
0
LINE
8
00_POLIAMIDAS
10
272.743535
20
56.681750
30
0.0
11
272.803061
21
56.681750
31
0.0
0
ARC
8
00_POLIAMIDAS
10
272.803061
20
56.981750
30
0.0
40
0.300000
50
270.000000
51
0.000000
0
LINE
8
00_POLIAMIDAS
10
273.103061
20
56.981750
30
0.0
11
273.103061
21
57.256750
31
0.0
0
ARC
8
00_POLIAMIDAS
10
273.103061
20
57.356750
30
0.0
40
0.100000
50
270.000000
51
0.000000
0
LINE
8
00_POLIAMIDAS
10
273.203061
20
57.356750
30
0.0
11
273.203061
21
57.756750
31
0.0
0
ARC
8
00_POLIAMIDAS
10
272.803061
20
57.756750
30
0.0
40
0.400000
50
0.000000
51
90.000000
0
LINE
8
00_POLIAMIDAS
10
272.803061
20
58.156750
30
0.0
11
272.624726
21
58.156750
31
0.0
0
ARC
8
00_POLIAMIDAS
10
272.624726
20
57.856750
30
0.0
40
0.300000
50
90.000000
51
120.455827
0
LINE
8
00_POLIAMIDAS
10
272.472664
20
58.115356
30
0.0
11
271.294055
21
57.422326
31
0.0
0
ARC
8
00_POLIAMIDAS
10
270.685806
20
58.456750
30
0.0
40
1.200000
50
270.000000
51
300.455827
0
LINE
8
00_POLIAMIDAS
10
270.685806
20
57.256750
30
0.0
11
269.966433
21
57.256750
31
0.0
0
ARC
8
00_POLIAMIDAS
10
269.966433
20
56.056750
30
0.0
40
1.200000
50
90.000000
51
147.000000
0
LINE
8
00_POLIAMIDAS
10
268.960028
20
56.710317
30
0.0
11
267.520901
21
54.494255
31
0.0
0
ARC
8
00_POLIAMIDAS
10
266.346763
20
55.256750
30
0.0
40
1.400000
50
270.000000
51
327.000000
0
LINE
8
00_POLIAMIDAS
10
266.346763
20
53.856750
30
0.0
11
245.059359
21
53.856750
31
0.0
0
ARC
8
00_POLIAMIDAS
10
245.059359
20
55.256750
30
0.0
40
1.400000
50
213.000000
51
270.000000
0
LINE
8
00_POLIAMIDAS
10
243.885220
20
54.494255
30
0.0
11
242.446093
21
56.710317
31
0.0
0
ARC
8
00_POLIAMIDAS
10
241.439688
20
56.056750
30
0.0
40
1.200000
50
33.000000
51
90.000000
0
LINE
8
00_POLIAMIDAS
10
241.439688
20
57.256750
30
0.0
11
240.720315
21
57.256750
31
0.0
0
ARC
8
00_POLIAMIDAS
10
240.720315
20
58.456750
30
0.0
40
1.200000
50
239.544173
51
270.000000
0
LINE
8
00_POLIAMIDAS
10
240.112067
20
57.422326
30
0.0
11
238.933458
21
58.115356
31
0.0
0
ARC
8
00_POLIAMIDAS
10
238.781396
20
57.856750
30
0.0
40
0.300000
50
59.544173
51
90.000000
0
LINE
8
00_POLIAMIDAS
10
238.781396
20
58.156750
30
0.0
11
238.603061
21
58.156750
31
0.0
0
ARC
8
00_POLIAMIDAS
10
238.603061
20
57.756750
30
0.0
40
0.400000
50
90.000000
51
180.000000
0
LINE
8
00_POLIAMIDAS
10
238.203061
20
57.756750
30
0.0
11
238.203061
21
57.356750
31
0.0
0
ARC
8
00_POLIAMIDAS
10
238.303061
20
57.356750
30
0.0
40
0.100000
50
180.000000
51
270.000000
0
LINE
8
00_POLIAMIDAS
10
238.303061
20
57.256750
30
0.0
11
238.303061
21
56.981750
31
0.0
0
ARC
8
00_POLIAMIDAS
10
238.603061
20
56.981750
30
0.0
40
0.300000
50
180.000000
51
270.000000
0
LINE
8
00_POLIAMIDAS
10
238.603061
20
56.681750
30
0.0
11
238.662587
21
56.681750
31
0.0
0
ARC
8
00_POLIAMIDAS
10
238.953061
20
56.156750
30
0.0
40
0.600000
50
241.044976
51
118.955024
0
LINE
8
00_POLIAMIDAS
10
238.662587
20
55.631750
30
0.0
11
238.603061
21
55.631750
31
0.0
0
ARC
8
00_POLIAMIDAS
10
238.603061
20
55.331750
30
0.0
40
0.300000
50
90.000000
51
180.000000
0
LINE
8
00_POLIAMIDAS
10
238.303061
20
55.331750
30
0.0
11
238.303061
21
55.056750
31
0.0
0
ARC
8
00_POLIAMIDAS
10
238.303061
20
54.956750
30
0.0
40
0.100000
50
90.000000
51
180.000000
0
LINE
8
00_POLIAMIDAS
10
238.203061
20
54.956750
30
0.0
11
238.203061
21
54.556750
31
0.0
0
ARC
8
00_POLIAMIDAS
10
238.603061
20
54.556750
30
0.0
40
0.400000
50
180.000000
51
270.000000
0
LINE
8
00_POLIAMIDAS
10
238.603061
20
54.156750
30
0.0
11
238.781262
21
54.156750
31
0.0
0
ARC
8
00_POLIAMIDAS
10
238.781262
20
54.456750
30
0.0
40
0.300000
50
270.000000
51
300.503167
0
LINE
8
00_POLIAMIDAS
10
238.933538
20
54.198270
30
0.0
11
240.108854
21
54.890671
31
0.0
0
ARC
8
00_POLIAMIDAS
10
240.717958
20
53.856750
30
0.0
40
1.200000
50
90.000000
51
120.503167
0
LINE
8
00_POLIAMIDAS
10
240.717958
20
55.056750
30
0.0
11
240.972327
21
55.056750
31
0.0
0
ARC
8
00_POLIAMIDAS
10
240.972327
20
54.756750
30
0.0
40
0.300000
50
32.610000
51
90.000000
0
LINE
8
00_POLIAMIDAS
10
241.225034
20
54.918425
30
0.0
11
242.728570
21
52.603183
31
0.0
0
ARC
8
00_POLIAMIDAS
10
243.734975
20
53.256750
30
0.0
40
1.200000
50
213.000000
51
270.000000
0
LINE
8
00_POLIAMIDAS
10
243.734975
20
52.056750
30
0.0
11
267.671147
21
52.056750
31
0.0
0
ATTDEF
8
0
10
0.000000
20
0.000000
30
0.0
40
3.5
1

3

2
PANE_WIDTH:0
70
0
0
ATTDEF
8
0
10
0.000000
20
0.000000
30
0.0
40
3.5
1

3

2
MIN_VETRO:0
70
0
0
ATTDEF
8
0
10
0.000000
20
0.000000
30
0.0
40
3.5
1

3

2
MAX_VETRO:0
70
0
0
ATTDEF
8
0
10
0.000000
20
0.000000
30
0.0
40
3.5
1

3

2
JX:0
70
0
0
ATTDEF
8
0
10
0.000000
20
0.000000
30
0.0
40
3.5
1

3

2
WX:0
70
0
0
ATTDEF
8
0
10
0.000000
20
0.000000
30
0.0
40
3.5
1

3

2
JY:0
70
0
0
ATTDEF
8
0
10
0.000000
20
0.000000
30
0.0
40
3.5
1

3

2
WY:0
70
0
0
ATTDEF
8
0
10
0.000000
20
0.000000
30
0.0
40
3.5
1

3

2
DESC:Marco vtana.A.I.c/solape 30mm.y enganche
70
0
0
ATTDEF
8
0
10
0.000000
20
0.000000
30
0.0
40
3.5
1

3

2
DENS:1.4225
70
0
0
ATTDEF
8
0
10
0.000000
20
0.000000
30
0.0
40
3.5
1

3

2
TDEV:56.31
70
0
0
ATTDEF
8
0
10
0.000000
20
0.000000
30
0.0
40
3.5
1

3

2
TDEV2:0
70
0
0
ATTDEF
8
0
10
0.000000
20
0.000000
30
0.0
40
3.5
1

3

2
TDEV3:0
70
0
0
ATTDEF
8
0
10
0.000000
20
0.000000
30
0.0
40
3.5
1

3

2
TDEV4:0
70
0
0
ATTDEF
8
0
10
0.000000
20
0.000000
30
0.0
40
3.5
1

3

2
TDEV5:0
70
0
0
ATTDEF
8
0
10
0.000000
20
0.000000
30
0.0
40
3.5
1

3

2
PANE_WIDTH:0
70
0
0
ATTDEF
8
0
10
0.000000
20
0.000000
30
0.0
40
3.5
1

3

2
MIN_VETRO:0
70
0
0
ATTDEF
8
0
10
0.000000
20
0.000000
30
0.0
40
3.5
1

3

2
MAX_VETRO:0
70
0
0
ATTDEF
8
0
10
0.000000
20
0.000000
30
0.0
40
3.5
1

3

2
JX:0
70
0
0
ATTDEF
8
0
10
0.000000
20
0.000000
30
0.0
40
3.5
1

3

2
WX:0
70
0
0
ATTDEF
8
0
10
0.000000
20
0.000000
30
0.0
40
3.5
1

3

2
JY:0
70
0
0
ATTDEF
8
0
10
0.000000
20
0.000000
30
0.0
40
3.5
1

3

2
WY:0
70
0
0
ENDSEC
0
EOF
