0
SECTION
2
ENTITIES
0
LINE
8
00_Gris
10
3222.853570
20
1311.885372
30
0.0
11
3223.642606
21
1312.674408
31
0.0
0
LINE
8
00_Gris
10
3229.940021
20
1318.971823
30
0.0
11
3231.105511
21
1320.137313
31
0.0
0
LINE
8
00_Gris
10
3222.647636
20
1309.434374
30
0.0
11
3225.558620
21
1312.345358
31
0.0
0
LINE
8
00_Gris
10
3229.940021
20
1316.726759
30
0.0
11
3231.140021
21
1317.926759
31
0.0
0
LINE
8
00_Gris
10
3225.138911
20
1309.680585
30
0.0
11
3226.584718
21
1311.126393
31
0.0
0
LINE
8
00_Gris
10
3229.940021
20
1314.481695
30
0.0
11
3231.140021
21
1315.681695
31
0.0
0
LINE
8
00_Gris
10
3226.022841
20
1308.319451
30
0.0
11
3227.468649
21
1309.765259
31
0.0
0
LINE
8
00_Gris
10
3237.140021
20
1319.436631
30
0.0
11
3238.103311
21
1320.399921
31
0.0
0
LINE
8
00_Gris
10
3229.940021
20
1312.236631
30
0.0
11
3231.140021
21
1313.436631
31
0.0
0
LINE
8
00_Gris
10
3227.206596
20
1307.258142
30
0.0
11
3228.995287
21
1309.046833
31
0.0
0
LINE
8
00_Gris
10
3237.140021
20
1317.191567
30
0.0
11
3238.340021
21
1318.391567
31
0.0
0
LINE
8
00_Gris
10
3229.940021
20
1309.991567
30
0.0
11
3231.140021
21
1311.191567
31
0.0
0
LINE
8
00_Gris
10
3229.440351
20
1307.246833
30
0.0
11
3231.340210
21
1309.146692
31
0.0
0
LINE
8
00_Gris
10
3237.140021
20
1314.946503
30
0.0
11
3238.340021
21
1316.146503
31
0.0
0
LINE
8
00_Gris
10
3231.685415
20
1307.246833
30
0.0
11
3233.485415
21
1309.046833
31
0.0
0
LINE
8
00_Gris
10
3244.340021
20
1319.901439
30
0.0
11
3244.958431
21
1320.519849
31
0.0
0
LINE
8
00_Gris
10
3237.140021
20
1312.701439
30
0.0
11
3238.340021
21
1313.901439
31
0.0
0
LINE
8
00_Gris
10
3233.930479
20
1307.246833
30
0.0
11
3235.730479
21
1309.046833
31
0.0
0
LINE
8
00_Gris
10
3244.340021
20
1317.656375
30
0.0
11
3245.540021
21
1318.856375
31
0.0
0
LINE
8
00_Gris
10
3237.140021
20
1310.456375
30
0.0
11
3238.340021
21
1311.656375
31
0.0
0
LINE
8
00_Gris
10
3236.175543
20
1307.246833
30
0.0
11
3238.354815
21
1309.426105
31
0.0
0
LINE
8
00_Gris
10
3244.340021
20
1315.411311
30
0.0
11
3245.540021
21
1316.611311
31
0.0
0
LINE
8
00_Gris
10
3238.420607
20
1307.246833
30
0.0
11
3240.220607
21
1309.046833
31
0.0
0
LINE
8
00_Gris
10
3244.340021
20
1313.166247
30
0.0
11
3245.540021
21
1314.366247
31
0.0
0
LINE
8
00_Gris
10
3240.665671
20
1307.246833
30
0.0
11
3242.465671
21
1309.046833
31
0.0
0
LINE
8
00_Gris
10
3244.340021
20
1310.921183
30
0.0
11
3245.540021
21
1312.121183
31
0.0
0
LINE
8
00_Gris
10
3242.910735
20
1307.246833
30
0.0
11
3245.540021
21
1309.876119
31
0.0
0
LINE
8
00_Gris
10
3245.155799
20
1307.246833
30
0.0
11
3246.967828
21
1309.058862
31
0.0
0
LINE
8
00_Gris
10
3248.635934
20
1310.726968
30
0.0
11
3250.354774
21
1312.445808
31
0.0
0
LINE
8
00_Gris
10
3245.781104
20
1305.627074
30
0.0
11
3253.444959
21
1313.290929
31
0.0
0
LINE
8
00_Gris
10
3245.781104
20
1303.382010
30
0.0
11
3247.581104
21
1305.182010
31
0.0
0
LINE
8
00_Gris
10
3252.203795
20
1309.804701
30
0.0
11
3253.220927
21
1310.821833
31
0.0
0
LINE
8
00_Gris
10
3245.781104
20
1301.136946
30
0.0
11
3247.581104
21
1302.936946
31
0.0
0
LINE
8
00_Gris
10
3222.458002
20
1309.349615
30
0.0
11
3221.839040
21
1309.968577
31
0.0
0
LINE
8
00_Gris
10
3223.896468
20
1310.156213
30
0.0
11
3223.067669
21
1310.985012
31
0.0
0
LINE
8
00_Gris
10
3222.173630
20
1311.879051
30
0.0
11
3221.946257
21
1312.106423
31
0.0
0
LINE
8
00_Gris
10
3229.050912
20
1307.246833
30
0.0
11
3223.595834
21
1312.701910
31
0.0
0
LINE
8
00_Gris
10
3231.295976
20
1307.246833
30
0.0
11
3229.493145
21
1309.049664
31
0.0
0
LINE
8
00_Gris
10
3233.541040
20
1307.246833
30
0.0
11
3231.741040
21
1309.046833
31
0.0
0
LINE
8
00_Gris
10
3231.140021
20
1309.647852
30
0.0
11
3229.940021
21
1310.847852
31
0.0
0
LINE
8
00_Gris
10
3235.786104
20
1307.246833
30
0.0
11
3233.986104
21
1309.046833
31
0.0
0
LINE
8
00_Gris
10
3231.140021
20
1311.892916
30
0.0
11
3229.940021
21
1313.092916
31
0.0
0
LINE
8
00_Gris
10
3238.031168
20
1307.246833
30
0.0
11
3236.231168
21
1309.046833
31
0.0
0
LINE
8
00_Gris
10
3231.140021
20
1314.137980
30
0.0
11
3229.940021
21
1315.337980
31
0.0
0
LINE
8
00_Gris
10
3246.907147
20
1300.615918
30
0.0
11
3245.781104
21
1301.741961
31
0.0
0
LINE
8
00_Gris
10
3231.140021
20
1316.383044
30
0.0
11
3229.940021
21
1317.583044
31
0.0
0
LINE
8
00_Gris
10
3240.276232
20
1307.246833
30
0.0
11
3237.140021
21
1310.383044
31
0.0
0
LINE
8
00_Gris
10
3247.581104
20
1302.187025
30
0.0
11
3245.781104
21
1303.987025
31
0.0
0
LINE
8
00_Gris
10
3231.140021
20
1318.628108
30
0.0
11
3229.940021
21
1319.828108
31
0.0
0
LINE
8
00_Gris
10
3242.521296
20
1307.246833
30
0.0
11
3240.721296
21
1309.046833
31
0.0
0
LINE
8
00_Gris
10
3238.340021
20
1311.428108
30
0.0
11
3237.140021
21
1312.628108
31
0.0
0
LINE
8
00_Gris
10
3247.581104
20
1304.432089
30
0.0
11
3245.781104
21
1306.232089
31
0.0
0
LINE
8
00_Gris
10
3238.340021
20
1313.673172
30
0.0
11
3237.140021
21
1314.873172
31
0.0
0
LINE
8
00_Gris
10
3244.766360
20
1307.246833
30
0.0
11
3242.966360
21
1309.046833
31
0.0
0
LINE
8
00_Gris
10
3247.581104
20
1306.677153
30
0.0
11
3244.340021
21
1309.918236
31
0.0
0
LINE
8
00_Gris
10
3238.340021
20
1315.918236
30
0.0
11
3237.140021
21
1317.118236
31
0.0
0
LINE
8
00_Gris
10
3248.930908
20
1307.572413
30
0.0
11
3247.341153
21
1309.162168
31
0.0
0
LINE
8
00_Gris
10
3238.340021
20
1318.163300
30
0.0
11
3237.140021
21
1319.363300
31
0.0
0
LINE
8
00_Gris
10
3245.540021
20
1310.963300
30
0.0
11
3244.340021
21
1312.163300
31
0.0
0
LINE
8
00_Gris
10
3249.839793
20
1308.908592
30
0.0
11
3248.393985
21
1310.354400
31
0.0
0
LINE
8
00_Gris
10
3245.540021
20
1313.208364
30
0.0
11
3244.340021
21
1314.408364
31
0.0
0
LINE
8
00_Gris
10
3250.765903
20
1310.227546
30
0.0
11
3249.277916
21
1311.715533
31
0.0
0
LINE
8
00_Gris
10
3245.540021
20
1315.453428
30
0.0
11
3244.340021
21
1316.653428
31
0.0
0
LINE
8
00_Gris
10
3253.619896
20
1309.618617
30
0.0
11
3250.791680
21
1312.446833
31
0.0
0
LINE
8
00_Gris
10
3245.540021
20
1317.698492
30
0.0
11
3244.340021
21
1318.898492
31
0.0
0
LINE
8
00_Gris
10
3253.485535
20
1311.998042
30
0.0
11
3252.449356
21
1313.034222
31
0.0
0
LINE
8
00_Gris
10
3245.540021
20
1319.943556
30
0.0
11
3244.963919
21
1320.519658
31
0.0
0
LINE
8
00_Gris
10
3218.939216
20
1337.156851
30
0.0
11
3219.990327
21
1338.207962
31
0.0
0
LINE
8
00_Gris
10
3218.758401
20
1334.730972
30
0.0
11
3224.741485
21
1340.714056
31
0.0
0
LINE
8
00_Gris
10
3221.786549
20
1335.514056
30
0.0
11
3223.904756
21
1337.632263
31
0.0
0
LINE
8
00_Gris
10
3225.361015
20
1339.088521
30
0.0
11
3226.986549
21
1340.714056
31
0.0
0
LINE
8
00_Gris
10
3227.631613
20
1339.114056
30
0.0
11
3229.231613
21
1340.714056
31
0.0
0
LINE
8
00_Gris
10
3228.141002
20
1337.378381
30
0.0
11
3229.341002
21
1338.578381
31
0.0
0
LINE
8
00_Gris
10
3229.876677
20
1339.114056
30
0.0
11
3231.476677
21
1340.714056
31
0.0
0
LINE
8
00_Gris
10
3228.141002
20
1335.133317
30
0.0
11
3229.341002
21
1336.333317
31
0.0
0
LINE
8
00_Gris
10
3232.121741
20
1339.114056
30
0.0
11
3233.721741
21
1340.714056
31
0.0
0
LINE
8
00_Gris
10
3228.141002
20
1332.888253
30
0.0
11
3229.341002
21
1334.088253
31
0.0
0
LINE
8
00_Gris
10
3234.366805
20
1339.114056
30
0.0
11
3235.966805
21
1340.714056
31
0.0
0
LINE
8
00_Gris
10
3228.141002
20
1330.643189
30
0.0
11
3229.341002
21
1331.843189
31
0.0
0
LINE
8
00_Gris
10
3235.541002
20
1338.043189
30
0.0
11
3238.211870
21
1340.714056
31
0.0
0
LINE
8
00_Gris
10
3228.141002
20
1328.398125
30
0.0
11
3229.341002
21
1329.598125
31
0.0
0
LINE
8
00_Gris
10
3238.856934
20
1339.114056
30
0.0
11
3240.456934
21
1340.714056
31
0.0
0
LINE
8
00_Gris
10
3235.541002
20
1335.798125
30
0.0
11
3236.741002
21
1336.998125
31
0.0
0
LINE
8
00_Gris
10
3228.141002
20
1326.153061
30
0.0
11
3229.341002
21
1327.353061
31
0.0
0
LINE
8
00_Gris
10
3241.101998
20
1339.114056
30
0.0
11
3242.701998
21
1340.714056
31
0.0
0
LINE
8
00_Gris
10
3235.541002
20
1333.553061
30
0.0
11
3236.741002
21
1334.753061
31
0.0
0
LINE
8
00_Gris
10
3228.250917
20
1324.017911
30
0.0
11
3229.341002
21
1325.107997
31
0.0
0
LINE
8
00_Gris
10
3242.841002
20
1338.607997
30
0.0
11
3244.947062
21
1340.714056
31
0.0
0
LINE
8
00_Gris
10
3235.541002
20
1331.307997
30
0.0
11
3236.741002
21
1332.507997
31
0.0
0
LINE
8
00_Gris
10
3235.541002
20
1329.062933
30
0.0
11
3236.741002
21
1330.262933
31
0.0
0
LINE
8
00_Gris
10
3245.592126
20
1339.114056
30
0.0
11
3247.192126
21
1340.714056
31
0.0
0
LINE
8
00_Gris
10
3242.841002
20
1336.362933
30
0.0
11
3244.041002
21
1337.562933
31
0.0
0
LINE
8
00_Gris
10
3235.541002
20
1326.817868
30
0.0
11
3236.741002
21
1328.017868
31
0.0
0
LINE
8
00_Gris
10
3247.529957
20
1338.806823
30
0.0
11
3249.019246
21
1340.296112
31
0.0
0
LINE
8
00_Gris
10
3242.841002
20
1334.117868
30
0.0
11
3244.041002
21
1335.317868
31
0.0
0
LINE
8
00_Gris
10
3235.541002
20
1324.572804
30
0.0
11
3236.741002
21
1325.772804
31
0.0
0
LINE
8
00_Gris
10
3248.465132
20
1337.496934
30
0.0
11
3249.910940
21
1338.942742
31
0.0
0
LINE
8
00_Gris
10
3242.841002
20
1331.872804
30
0.0
11
3244.041002
21
1333.072804
31
0.0
0
LINE
8
00_Gris
10
3242.841002
20
1329.627740
30
0.0
11
3244.041002
21
1330.827740
31
0.0
0
LINE
8
00_Gris
10
3249.349062
20
1336.135800
30
0.0
11
3250.927318
21
1337.714056
31
0.0
0
LINE
8
00_Gris
10
3242.841002
20
1327.382676
30
0.0
11
3244.041002
21
1328.582676
31
0.0
0
LINE
8
00_Gris
10
3252.593340
20
1337.135014
30
0.0
11
3253.641002
21
1338.182676
31
0.0
0
LINE
8
00_Gris
10
3250.972382
20
1335.514056
30
0.0
11
3252.370044
21
1336.911719
31
0.0
0
LINE
8
00_Gris
10
3242.841002
20
1325.137612
30
0.0
11
3244.041002
21
1326.337612
31
0.0
0
LINE
8
00_Gris
10
3252.563147
20
1334.859758
30
0.0
11
3253.537586
21
1335.834197
31
0.0
0
LINE
8
00_Gris
10
3229.341002
20
1324.917255
30
0.0
11
3228.141002
21
1326.117255
31
0.0
0
LINE
8
00_Gris
10
3219.517121
20
1334.741136
30
0.0
11
3218.741002
21
1335.517255
31
0.0
0
LINE
8
00_Gris
10
3229.341002
20
1327.162319
30
0.0
11
3228.141002
21
1328.362319
31
0.0
0
LINE
8
00_Gris
10
3219.296719
20
1337.206602
30
0.0
11
3218.641002
21
1337.862319
31
0.0
0
LINE
8
00_Gris
10
3220.999767
20
1335.503554
30
0.0
11
3219.983548
21
1336.519773
31
0.0
0
LINE
8
00_Gris
10
3229.341002
20
1329.407383
30
0.0
11
3228.141002
21
1330.607383
31
0.0
0
LINE
8
00_Gris
10
3222.800883
20
1335.947503
30
0.0
11
3221.027444
21
1337.720941
31
0.0
0
LINE
8
00_Gris
10
3236.732139
20
1324.261310
30
0.0
11
3235.541002
21
1325.452447
31
0.0
0
LINE
8
00_Gris
10
3223.690741
20
1337.302708
30
0.0
11
3222.244933
21
1338.748516
31
0.0
0
LINE
8
00_Gris
10
3229.341002
20
1331.652447
30
0.0
11
3228.141002
21
1332.852447
31
0.0
0
LINE
8
00_Gris
10
3236.741002
20
1326.497511
30
0.0
11
3235.541002
21
1327.697511
31
0.0
0
LINE
8
00_Gris
10
3224.587203
20
1338.651310
30
0.0
11
3223.128863
21
1340.109650
31
0.0
0
LINE
8
00_Gris
10
3229.341002
20
1333.897511
30
0.0
11
3228.141002
21
1335.097511
31
0.0
0
LINE
8
00_Gris
10
3236.741002
20
1328.742575
30
0.0
11
3235.541002
21
1329.942575
31
0.0
0
LINE
8
00_Gris
10
3226.369521
20
1339.114056
30
0.0
11
3224.769521
21
1340.714056
31
0.0
0
LINE
8
00_Gris
10
3229.341002
20
1336.142575
30
0.0
11
3228.141002
21
1337.342575
31
0.0
0
LINE
8
00_Gris
10
3243.825334
20
1323.903308
30
0.0
11
3242.841002
21
1324.887639
31
0.0
0
LINE
8
00_Gris
10
3229.341002
20
1338.387639
30
0.0
11
3227.014585
21
1340.714056
31
0.0
0
LINE
8
00_Gris
10
3236.741002
20
1330.987639
30
0.0
11
3235.541002
21
1332.187639
31
0.0
0
LINE
8
00_Gris
10
3244.041002
20
1325.932703
30
0.0
11
3242.841002
21
1327.132703
31
0.0
0
LINE
8
00_Gris
10
3230.859649
20
1339.114056
30
0.0
11
3229.259649
21
1340.714056
31
0.0
0
LINE
8
00_Gris
10
3236.741002
20
1333.232703
30
0.0
11
3235.541002
21
1334.432703
31
0.0
0
LINE
8
00_Gris
10
3244.041002
20
1328.177767
30
0.0
11
3242.841002
21
1329.377767
31
0.0
0
LINE
8
00_Gris
10
3233.104713
20
1339.114056
30
0.0
11
3231.504713
21
1340.714056
31
0.0
0
LINE
8
00_Gris
10
3236.741002
20
1335.477767
30
0.0
11
3235.541002
21
1336.677767
31
0.0
0
LINE
8
00_Gris
10
3244.041002
20
1330.422831
30
0.0
11
3242.841002
21
1331.622831
31
0.0
0
LINE
8
00_Gris
10
3236.741002
20
1337.722831
30
0.0
11
3233.749777
21
1340.714056
31
0.0
0
LINE
8
00_Gris
10
3244.041002
20
1332.667895
30
0.0
11
3242.841002
21
1333.867895
31
0.0
0
LINE
8
00_Gris
10
3237.594841
20
1339.114056
30
0.0
11
3235.994841
21
1340.714056
31
0.0
0
LINE
8
00_Gris
10
3244.041002
20
1334.912959
30
0.0
11
3242.841002
21
1336.112959
31
0.0
0
LINE
8
00_Gris
10
3239.839905
20
1339.114056
30
0.0
11
3238.239905
21
1340.714056
31
0.0
0
LINE
8
00_Gris
10
3244.041002
20
1337.158023
30
0.0
11
3242.841002
21
1338.358023
31
0.0
0
LINE
8
00_Gris
10
3242.084969
20
1339.114056
30
0.0
11
3240.484969
21
1340.714056
31
0.0
0
LINE
8
00_Gris
10
3244.362849
20
1339.081241
30
0.0
11
3242.730033
21
1340.714056
31
0.0
0
LINE
8
00_Gris
10
3250.147220
20
1335.541933
30
0.0
11
3248.970651
21
1336.718503
31
0.0
0
LINE
8
00_Gris
10
3246.575098
20
1339.114056
30
0.0
11
3244.975098
21
1340.714056
31
0.0
0
LINE
8
00_Gris
10
3253.313531
20
1334.620687
30
0.0
11
3247.220162
21
1340.714056
31
0.0
0
LINE
8
00_Gris
10
3252.970518
20
1337.208764
30
0.0
11
3252.090083
21
1338.089198
31
0.0
0
ARC
8
00_Gris
10
3224.172916
20
1339.514056
30
0.0
40
1.200000
50
90.000000
51
147.000000
0
LINE
8
00_Gris
10
3224.172916
20
1340.714056
30
0.0
11
3227.141002
21
1340.714056
31
0.0
0
LINE
8
00_Gris
10
3227.141002
20
1340.714056
30
0.0
11
3245.141002
21
1340.714056
31
0.0
0
LINE
8
00_Gris
10
3245.141002
20
1340.714056
30
0.0
11
3248.109088
21
1340.714056
31
0.0
0
ARC
8
00_Gris
10
3248.109088
20
1339.514056
30
0.0
40
1.200000
50
33.000000
51
90.000000
0
LINE
8
00_Gris
10
3249.115493
20
1340.167623
30
0.0
11
3250.619028
21
1337.852381
31
0.0
0
ARC
8
00_Gris
10
3250.871736
20
1338.014056
30
0.0
40
0.300000
50
212.610000
51
270.000000
0
LINE
8
00_Gris
10
3250.871736
20
1337.714056
30
0.0
11
3251.126196
21
1337.714056
31
0.0
0
ARC
8
00_Gris
10
3251.126196
20
1338.914056
30
0.0
40
1.200000
50
270.000000
51
301.006334
0
LINE
8
00_Gris
10
3251.744356
20
1337.885524
30
0.0
11
3252.910525
21
1338.572536
31
0.0
0
ARC
8
00_Gris
10
3253.062800
20
1338.314056
30
0.0
40
0.300000
50
90.000000
51
120.503167
0
LINE
8
00_Gris
10
3253.062800
20
1338.614056
30
0.0
11
3253.241002
21
1338.614056
31
0.0
0
ARC
8
00_Gris
10
3253.241002
20
1338.214056
30
0.0
40
0.400000
50
0.000000
51
90.000000
0
LINE
8
00_Gris
10
3253.641002
20
1338.214056
30
0.0
11
3253.641002
21
1337.814056
31
0.0
0
ARC
8
00_Gris
10
3253.541002
20
1337.814056
30
0.0
40
0.100000
50
270.000000
51
0.000000
0
LINE
8
00_Gris
10
3253.541002
20
1337.714056
30
0.0
11
3253.541002
21
1337.439056
31
0.0
0
ARC
8
00_Gris
10
3253.241002
20
1337.439056
30
0.0
40
0.300000
50
270.000000
51
0.000000
0
LINE
8
00_Gris
10
3253.241002
20
1337.139056
30
0.0
11
3253.181476
21
1337.139056
31
0.0
0
ARC
8
00_Gris
10
3252.891002
20
1336.614056
30
0.0
40
0.600000
50
61.044976
51
298.955024
0
LINE
8
00_Gris
10
3253.181476
20
1336.089056
30
0.0
11
3253.241002
21
1336.089056
31
0.0
0
ARC
8
00_Gris
10
3253.241002
20
1335.789056
30
0.0
40
0.300000
50
0.000000
51
90.000000
0
LINE
8
00_Gris
10
3253.541002
20
1335.789056
30
0.0
11
3253.541002
21
1335.514056
31
0.0
0
ARC
8
00_Gris
10
3253.541002
20
1335.414056
30
0.0
40
0.100000
50
0.000000
51
90.000000
0
LINE
8
00_Gris
10
3253.641002
20
1335.414056
30
0.0
11
3253.641002
21
1335.014056
31
0.0
0
ARC
8
00_Gris
10
3253.241002
20
1335.014056
30
0.0
40
0.400000
50
270.000000
51
0.000000
0
LINE
8
00_Gris
10
3253.241002
20
1334.614056
30
0.0
11
3253.062667
21
1334.614056
31
0.0
0
ARC
8
00_Gris
10
3253.062667
20
1334.914056
30
0.0
40
0.300000
50
239.544173
51
270.000000
0
LINE
8
00_Gris
10
3252.910605
20
1334.655450
30
0.0
11
3251.740281
21
1335.343609
31
0.0
0
ARC
8
00_Gris
10
3251.123822
20
1334.314056
30
0.0
40
1.200000
50
59.088345
51
90.000000
0
LINE
8
00_Gris
10
3251.123822
20
1335.514056
30
0.0
11
3250.404374
21
1335.514056
31
0.0
0
ARC
8
00_Gris
10
3250.404374
20
1336.714056
30
0.0
40
1.200000
50
213.000000
51
270.000000
0
LINE
8
00_Gris
10
3249.397970
20
1336.060489
30
0.0
11
3247.828961
21
1338.476551
31
0.0
0
ARC
8
00_Gris
10
3246.654822
20
1337.714056
30
0.0
40
1.400000
50
33.000000
51
90.000000
0
LINE
8
00_Gris
10
3246.654822
20
1339.114056
30
0.0
11
3244.541002
21
1339.114056
31
0.0
0
ARC
8
00_Gris
10
3244.541002
20
1338.614056
30
0.0
40
0.500000
50
90.000000
51
180.000000
0
LINE
8
00_Gris
10
3244.041002
20
1338.614056
30
0.0
11
3244.041002
21
1324.364056
31
0.0
0
ARC
8
00_Gris
10
3243.441002
20
1324.364056
30
0.0
40
0.600000
50
180.000000
51
0.000000
0
LINE
8
00_Gris
10
3242.841002
20
1324.364056
30
0.0
11
3242.841002
21
1338.614056
31
0.0
0
ARC
8
00_Gris
10
3242.341002
20
1338.614056
30
0.0
40
0.500000
50
0.000000
51
90.000000
0
LINE
8
00_Gris
10
3242.341002
20
1339.114056
30
0.0
11
3237.241002
21
1339.114056
31
0.0
0
ARC
8
00_Gris
10
3237.241002
20
1338.614056
30
0.0
40
0.500000
50
90.000000
51
180.000000
0
LINE
8
00_Gris
10
3236.741002
20
1338.614056
30
0.0
11
3236.741002
21
1324.364056
31
0.0
0
ARC
8
00_Gris
10
3236.141002
20
1324.364056
30
0.0
40
0.600000
50
180.000000
51
0.000000
0
LINE
8
00_Gris
10
3235.541002
20
1324.364056
30
0.0
11
3235.541002
21
1338.614056
31
0.0
0
ARC
8
00_Gris
10
3235.041002
20
1338.614056
30
0.0
40
0.500000
50
0.000000
51
90.000000
0
LINE
8
00_Gris
10
3235.041002
20
1339.114056
30
0.0
11
3229.841002
21
1339.114056
31
0.0
0
ARC
8
00_Gris
10
3229.841002
20
1338.614056
30
0.0
40
0.500000
50
90.000000
51
180.000000
0
LINE
8
00_Gris
10
3229.341002
20
1338.614056
30
0.0
11
3229.341002
21
1324.364056
31
0.0
0
ARC
8
00_Gris
10
3228.741002
20
1324.364056
30
0.0
40
0.600000
50
180.000000
51
0.000000
0
LINE
8
00_Gris
10
3228.141002
20
1324.364056
30
0.0
11
3228.141002
21
1338.614056
31
0.0
0
ARC
8
00_Gris
10
3227.641002
20
1338.614056
30
0.0
40
0.500000
50
0.000000
51
90.000000
0
LINE
8
00_Gris
10
3227.641002
20
1339.114056
30
0.0
11
3225.627182
21
1339.114056
31
0.0
0
ARC
8
00_Gris
10
3225.627182
20
1337.714056
30
0.0
40
1.400000
50
90.000000
51
147.000000
0
LINE
8
00_Gris
10
3224.453043
20
1338.476551
30
0.0
11
3222.884034
21
1336.060489
31
0.0
0
ARC
8
00_Gris
10
3221.877630
20
1336.714056
30
0.0
40
1.200000
50
270.000000
51
327.000000
0
LINE
8
00_Gris
10
3221.877630
20
1335.514056
30
0.0
11
3221.158182
21
1335.514056
31
0.0
0
ARC
8
00_Gris
10
3221.158182
20
1334.314056
30
0.0
40
1.200000
50
90.000000
51
120.911655
0
LINE
8
00_Gris
10
3220.541723
20
1335.343609
30
0.0
11
3219.371399
21
1334.655450
31
0.0
0
ARC
8
00_Gris
10
3219.219337
20
1334.914056
30
0.0
40
0.300000
50
270.000000
51
300.455827
0
LINE
8
00_Gris
10
3219.219337
20
1334.614056
30
0.0
11
3219.041002
21
1334.614056
31
0.0
0
ARC
8
00_Gris
10
3219.041002
20
1335.014056
30
0.0
40
0.400000
50
180.000000
51
270.000000
0
LINE
8
00_Gris
10
3218.641002
20
1335.014056
30
0.0
11
3218.641002
21
1335.414056
31
0.0
0
ARC
8
00_Gris
10
3218.741002
20
1335.414056
30
0.0
40
0.100000
50
90.000000
51
180.000000
0
LINE
8
00_Gris
10
3218.741002
20
1335.514056
30
0.0
11
3218.741002
21
1335.789056
31
0.0
0
ARC
8
00_Gris
10
3219.041002
20
1335.789056
30
0.0
40
0.300000
50
90.000000
51
180.000000
0
LINE
8
00_Gris
10
3219.041002
20
1336.089056
30
0.0
11
3219.100528
21
1336.089056
31
0.0
0
ARC
8
00_Gris
10
3219.391002
20
1336.614056
30
0.0
40
0.600000
50
241.044976
51
118.955024
0
LINE
8
00_Gris
10
3219.100528
20
1337.139056
30
0.0
11
3219.041002
21
1337.139056
31
0.0
0
ARC
8
00_Gris
10
3219.041002
20
1337.439056
30
0.0
40
0.300000
50
180.000000
51
270.000000
0
LINE
8
00_Gris
10
3218.741002
20
1337.439056
30
0.0
11
3218.741002
21
1337.714056
31
0.0
0
ARC
8
00_Gris
10
3218.741002
20
1337.814056
30
0.0
40
0.100000
50
180.000000
51
270.000000
0
LINE
8
00_Gris
10
3218.641002
20
1337.814056
30
0.0
11
3218.641002
21
1338.214056
31
0.0
0
ARC
8
00_Gris
10
3219.041002
20
1338.214056
30
0.0
40
0.400000
50
90.000000
51
180.000000
0
LINE
8
00_Gris
10
3219.041002
20
1338.614056
30
0.0
11
3219.219204
21
1338.614056
31
0.0
0
ARC
8
00_Gris
10
3219.219204
20
1338.314056
30
0.0
40
0.300000
50
59.496833
51
90.000000
0
LINE
8
00_Gris
10
3219.371480
20
1338.572536
30
0.0
11
3220.537648
21
1337.885524
31
0.0
0
ARC
8
00_Gris
10
3221.155808
20
1338.914056
30
0.0
40
1.200000
50
238.993666
51
270.000000
0
LINE
8
00_Gris
10
3221.155808
20
1337.714056
30
0.0
11
3221.410268
21
1337.714056
31
0.0
0
ARC
8
00_Gris
10
3221.410268
20
1338.014056
30
0.0
40
0.300000
50
270.000000
51
327.390000
0
LINE
8
00_Gris
10
3221.662976
20
1337.852381
30
0.0
11
3223.166512
21
1340.167623
31
0.0
0
LINE
8
0
10
3268.641002
20
1318.262159
30
0.0
11
3262.341002
21
1318.262159
31
0.0
0
LINE
8
0
10
3262.341002
20
1318.262159
30
0.0
11
3262.341002
21
1307.980191
31
0.0
0
LINE
8
0
10
3262.341002
20
1307.980191
30
0.0
11
3255.141002
21
1307.980191
31
0.0
0
LINE
8
0
10
3255.141002
20
1307.980191
30
0.0
11
3255.141002
21
1339.580191
31
0.0
0
LINE
8
0
10
3255.141002
20
1339.580191
30
0.0
11
3262.341002
21
1339.580191
31
0.0
0
LINE
8
0
10
3262.341002
20
1339.580191
30
0.0
11
3262.341002
21
1338.080191
31
0.0
0
ARC
8
0
10
3262.841002
20
1338.080191
30
0.0
40
0.500000
50
180.000000
51
270.000000
0
LINE
8
0
10
3262.841002
20
1337.580191
30
0.0
11
3263.341002
21
1337.580191
31
0.0
0
ARC
8
0
10
3263.341002
20
1338.080191
30
0.0
40
0.500000
50
270.000000
51
0.000000
0
LINE
8
0
10
3263.841002
20
1338.080191
30
0.0
11
3263.841002
21
1339.480191
31
0.0
0
LINE
8
0
10
3263.841002
20
1339.480191
30
0.0
11
3268.641002
21
1339.480191
31
0.0
0
LINE
8
0
10
3268.641002
20
1339.480191
30
0.0
11
3268.641002
21
1318.262159
31
0.0
0
LINE
8
0
10
3253.641002
20
1308.303659
30
0.0
11
3253.276585
21
1308.401738
31
0.0
0
ARC
8
0
10
3253.354552
20
1308.691430
30
0.0
40
0.300000
50
228.461493
51
254.936440
0
LINE
8
0
10
3253.155615
20
1308.466877
30
0.0
11
3251.609630
21
1309.836502
31
0.0
0
ARC
8
0
10
3251.808567
20
1310.061055
30
0.0
40
0.300000
50
164.307229
51
228.461493
0
ARC
8
0
10
3251.375340
20
1310.182771
30
0.0
40
0.150000
50
344.307229
51
142.253920
0
LINE
8
0
10
3251.256730
20
1310.274595
30
0.0
11
3249.128833
21
1307.525990
31
0.0
0
ARC
8
0
10
3249.413741
20
1307.432034
30
0.0
40
0.300000
50
161.748585
51
268.866021
0
LINE
8
0
10
3249.410355
20
1307.132009
30
0.0
11
3250.066977
21
1307.113396
31
0.0
0
ARC
8
0
10
3250.081145
20
1307.613195
30
0.0
40
0.500000
50
268.376251
51
308.194227
0
ARC
8
0
10
3251.626968
20
1305.648397
30
0.0
40
2.000000
50
56.002945
51
128.194227
0
LINE
8
0
10
3252.745269
20
1307.306530
30
0.0
11
3253.221090
21
1307.073149
31
0.0
0
ARC
8
0
10
3252.890818
20
1306.399784
30
0.0
40
0.750000
50
15.489085
51
63.872968
0
ARC
8
0
10
3253.902683
20
1306.680191
30
0.0
40
0.300000
50
195.489085
51
270.000000
0
LINE
8
0
10
3253.902683
20
1306.380191
30
0.0
11
3263.491002
21
1306.380191
31
0.0
0
ARC
8
0
10
3263.491002
20
1306.680191
30
0.0
40
0.300000
50
270.000000
51
0.000000
0
LINE
8
0
10
3263.791002
20
1306.680191
30
0.0
11
3263.791002
21
1316.662159
31
0.0
0
LINE
8
0
10
3263.791002
20
1316.662159
30
0.0
11
3269.141002
21
1316.662159
31
0.0
0
ARC
8
0
10
3269.441002
20
1316.662159
30
0.0
40
0.300000
50
180.000000
51
254.159425
0
ARC
8
0
10
3269.277225
20
1316.084944
30
0.0
40
0.300000
50
0.000000
51
74.159425
0
LINE
8
0
10
3269.577225
20
1316.084944
30
0.0
11
3269.577225
21
1315.883630
31
0.0
0
ARC
8
0
10
3270.077225
20
1315.883630
30
0.0
40
0.500000
50
180.000000
51
265.845506
0
ARC
8
0
10
3270.041002
20
1315.684944
30
0.0
40
0.300000
50
270.000000
51
0.000000
0
LINE
8
0
10
3270.341002
20
1315.684944
30
0.0
11
3270.341002
21
1365.480191
31
0.0
0
ARC
8
0
10
3269.841002
20
1365.480191
30
0.0
40
0.500000
50
0.000000
51
90.000000
0
LINE
8
0
10
3269.841002
20
1365.980191
30
0.0
11
3258.339614
21
1365.980191
31
0.0
0
ARC
8
0
10
3258.339614
20
1365.480209
30
0.0
40
0.499982
50
90.000000
51
180.000000
0
LINE
8
0
10
3257.839632
20
1365.480209
30
0.0
11
3257.839632
21
1364.480246
31
0.0
0
LINE
8
0
10
3257.839632
20
1364.480246
30
0.0
11
3258.339614
21
1362.730309
31
0.0
0
LINE
8
0
10
3258.339614
20
1362.730309
30
0.0
11
3258.839596
21
1362.730309
31
0.0
0
LINE
8
0
10
3258.839596
20
1362.730309
30
0.0
11
3258.839596
21
1364.480246
31
0.0
0
LINE
8
0
10
3258.839596
20
1364.480246
30
0.0
11
3260.339542
21
1364.480246
31
0.0
0
LINE
8
0
10
3260.339542
20
1364.480246
30
0.0
11
3260.339542
21
1356.980517
31
0.0
0
LINE
8
0
10
3260.339542
20
1356.980517
30
0.0
11
3258.839596
21
1356.980517
31
0.0
0
LINE
8
0
10
3258.839596
20
1356.980517
30
0.0
11
3258.839596
21
1358.730453
31
0.0
0
LINE
8
0
10
3258.839596
20
1358.730453
30
0.0
11
3258.339614
21
1358.730453
31
0.0
0
LINE
8
0
10
3258.339614
20
1358.730453
30
0.0
11
3257.839632
21
1356.980517
31
0.0
0
LINE
8
0
10
3257.839632
20
1356.980517
30
0.0
11
3257.839632
21
1355.980553
31
0.0
0
ARC
8
0
10
3258.339614
20
1355.980553
30
0.0
40
0.499982
50
180.000000
51
270.000000
0
LINE
8
0
10
3258.339614
20
1355.480571
30
0.0
11
3261.739542
21
1355.480571
31
0.0
0
LINE
8
0
10
3261.739542
20
1355.480571
30
0.0
11
3261.739542
21
1364.175673
31
0.0
0
ARC
8
0
10
3262.039542
20
1364.175673
30
0.0
40
0.300000
50
90.000000
51
180.000000
0
LINE
8
0
10
3262.039542
20
1364.475673
30
0.0
11
3268.441002
21
1364.475673
31
0.0
0
ARC
8
0
10
3268.441002
20
1364.175673
30
0.0
40
0.300000
50
0.000000
51
90.000000
0
LINE
8
0
10
3268.741002
20
1364.175673
30
0.0
11
3268.741002
21
1355.380374
31
0.0
0
ARC
8
0
10
3268.441002
20
1355.380374
30
0.0
40
0.300000
50
270.000000
51
0.000000
0
LINE
8
0
10
3268.441002
20
1355.080374
30
0.0
11
3266.541002
21
1355.080374
31
0.0
0
ARC
8
0
10
3266.541002
20
1354.780374
30
0.0
40
0.300000
50
90.000000
51
180.000000
0
LINE
8
0
10
3266.241002
20
1354.780374
30
0.0
11
3266.241002
21
1353.180191
31
0.0
0
ARC
8
0
10
3266.741002
20
1353.180191
30
0.0
40
0.500000
50
180.000000
51
270.000000
0
LINE
8
0
10
3266.741002
20
1352.680191
30
0.0
11
3267.341002
21
1352.680191
31
0.0
0
LINE
8
0
10
3267.341002
20
1352.680191
30
0.0
11
3267.341002
21
1353.980191
31
0.0
0
LINE
8
0
10
3267.341002
20
1353.980191
30
0.0
11
3268.641002
21
1353.980191
31
0.0
0
LINE
8
0
10
3268.641002
20
1353.980191
30
0.0
11
3268.641002
21
1340.980191
31
0.0
0
LINE
8
0
10
3268.641002
20
1340.980191
30
0.0
11
3266.441002
21
1340.980191
31
0.0
0
LINE
8
0
10
3266.441002
20
1340.980191
30
0.0
11
3266.441002
21
1342.080191
31
0.0
0
LINE
8
0
10
3266.441002
20
1342.080191
30
0.0
11
3265.641002
21
1342.080191
31
0.0
0
ARC
8
0
10
3265.641002
20
1341.580191
30
0.0
40
0.500000
50
90.000000
51
180.000000
0
LINE
8
0
10
3265.141002
20
1341.580191
30
0.0
11
3265.141002
21
1340.980191
31
0.0
0
LINE
8
0
10
3265.141002
20
1340.980191
30
0.0
11
3253.970066
21
1342.067543
31
0.0
0
ARC
8
0
10
3253.941002
20
1341.768954
30
0.0
40
0.300000
50
84.440484
51
180.000000
0
LINE
8
0
10
3253.641002
20
1341.768954
30
0.0
11
3253.641002
21
1341.375480
31
0.0
0
ARC
8
0
10
3253.141002
20
1341.375480
30
0.0
40
0.500000
50
296.127032
51
0.000000
0
LINE
8
0
10
3253.361183
20
1340.926570
30
0.0
11
3252.745269
21
1340.624476
31
0.0
0
ARC
8
0
10
3251.626968
20
1342.282608
30
0.0
40
2.000000
50
231.805773
51
303.997055
0
ARC
8
0
10
3250.081145
20
1340.317810
30
0.0
40
0.500000
50
51.805773
51
91.623749
0
LINE
8
0
10
3250.066977
20
1340.817609
30
0.0
11
3249.410355
21
1340.798996
31
0.0
0
ARC
8
0
10
3249.413741
20
1340.498971
30
0.0
40
0.300000
50
91.133979
51
198.251415
0
LINE
8
0
10
3249.128833
20
1340.405015
30
0.0
11
3251.256730
21
1337.656410
31
0.0
0
ARC
8
0
10
3251.375340
20
1337.748234
30
0.0
40
0.150000
50
217.746080
51
15.692771
0
ARC
8
0
10
3251.808567
20
1337.869950
30
0.0
40
0.300000
50
131.538507
51
195.692771
0
LINE
8
0
10
3251.609630
20
1338.094503
30
0.0
11
3253.155615
21
1339.464129
31
0.0
0
ARC
8
0
10
3253.354552
20
1339.239576
30
0.0
40
0.300000
50
105.063560
51
131.538507
0
LINE
8
0
10
3253.276585
20
1339.529267
30
0.0
11
3253.641002
21
1339.627346
31
0.0
0
ARC
8
0
10
3253.641002
20
1339.327346
30
0.0
40
0.300000
50
270.000000
51
90.000000
0
LINE
8
0
10
3253.641002
20
1339.027346
30
0.0
11
3253.641002
21
1334.527346
31
0.0
0
ARC
8
0
10
3253.441002
20
1334.527346
30
0.0
40
0.200000
50
270.000000
51
0.000000
0
LINE
8
0
10
3253.441002
20
1334.327346
30
0.0
11
3253.373113
21
1334.327346
31
0.0
0
ARC
8
0
10
3253.373113
20
1334.627346
30
0.0
40
0.300000
50
238.619868
51
270.000000
0
LINE
8
0
10
3253.216899
20
1334.371226
30
0.0
11
3251.540906
21
1335.393459
31
0.0
0
ARC
8
0
10
3251.341002
20
1335.399649
30
0.0
40
0.200000
50
358.226373
51
180.000000
0
LINE
8
0
10
3251.141002
20
1335.399649
30
0.0
11
3251.141002
21
1334.015869
31
0.0
0
ARC
8
0
10
3251.341002
20
1334.015869
30
0.0
40
0.200000
50
180.000000
51
241.694535
0
LINE
8
0
10
3251.246386
20
1333.839574
30
0.0
11
3253.339844
21
1332.638363
31
0.0
0
ARC
8
0
10
3253.091002
20
1332.204684
30
0.0
40
0.500000
50
0.000000
51
60.153120
0
LINE
8
0
10
3253.591002
20
1332.204684
30
0.0
11
3253.591002
21
1315.726321
31
0.0
0
ARC
8
0
10
3253.091002
20
1315.726321
30
0.0
40
0.500000
50
299.846880
51
0.000000
0
LINE
8
0
10
3253.339844
20
1315.292642
30
0.0
11
3251.246386
21
1314.091431
31
0.0
0
ARC
8
0
10
3251.341002
20
1313.915136
30
0.0
40
0.200000
50
118.305465
51
180.000000
0
LINE
8
0
10
3251.141002
20
1313.915136
30
0.0
11
3251.141002
21
1312.531356
31
0.0
0
ARC
8
0
10
3251.341002
20
1312.531356
30
0.0
40
0.200000
50
180.000000
51
1.773628
0
LINE
8
0
10
3251.540906
20
1312.537546
30
0.0
11
3253.216899
21
1313.559779
31
0.0
0
ARC
8
0
10
3253.373113
20
1313.303659
30
0.0
40
0.300000
50
90.000000
51
121.380132
0
LINE
8
0
10
3253.373113
20
1313.603659
30
0.0
11
3253.441002
21
1313.603659
31
0.0
0
ARC
8
0
10
3253.441002
20
1313.403659
30
0.0
40
0.200000
50
0.000000
51
90.000000
0
LINE
8
0
10
3253.641002
20
1313.403659
30
0.0
11
3253.641002
21
1308.903659
31
0.0
0
ARC
8
0
10
3253.641002
20
1308.603659
30
0.0
40
0.300000
50
270.000000
51
90.000000
0
ARC
8
00_Gris
10
3246.040021
20
1309.546833
30
0.0
40
0.500000
50
180.000000
51
270.000000
0
LINE
8
00_Gris
10
3245.540021
20
1309.546833
30
0.0
11
3245.540021
21
1320.015804
31
0.0
0
ARC
8
00_Gris
10
3244.940021
20
1319.911052
30
0.0
40
0.609075
50
9.903232
51
170.096768
0
LINE
8
00_Gris
10
3244.340021
20
1320.015804
30
0.0
11
3244.340021
21
1309.546833
31
0.0
0
ARC
8
00_Gris
10
3243.840021
20
1309.546833
30
0.0
40
0.500000
50
270.000000
51
0.000000
0
LINE
8
00_Gris
10
3243.840021
20
1309.046833
30
0.0
11
3238.840021
21
1309.046833
31
0.0
0
ARC
8
00_Gris
10
3238.840021
20
1309.546833
30
0.0
40
0.500000
50
180.000000
51
270.000000
0
LINE
8
00_Gris
10
3238.340021
20
1309.546833
30
0.0
11
3238.340021
21
1320.015804
31
0.0
0
ARC
8
00_Gris
10
3237.740021
20
1319.911052
30
0.0
40
0.609075
50
9.903232
51
170.096768
0
LINE
8
00_Gris
10
3237.140021
20
1320.015804
30
0.0
11
3237.140021
21
1309.546833
31
0.0
0
ARC
8
00_Gris
10
3236.640021
20
1309.546833
30
0.0
40
0.500000
50
270.000000
51
0.000000
0
LINE
8
00_Gris
10
3236.640021
20
1309.046833
30
0.0
11
3231.640021
21
1309.046833
31
0.0
0
ARC
8
00_Gris
10
3231.640021
20
1309.546833
30
0.0
40
0.500000
50
180.000000
51
270.000000
0
LINE
8
00_Gris
10
3231.140021
20
1309.546833
30
0.0
11
3231.140021
21
1320.015804
31
0.0
0
ARC
8
00_Gris
10
3230.540021
20
1319.911052
30
0.0
40
0.609075
50
9.903232
51
170.096768
0
LINE
8
00_Gris
10
3229.940021
20
1320.015804
30
0.0
11
3229.940021
21
1309.546833
31
0.0
0
ARC
8
00_Gris
10
3229.440021
20
1309.546833
30
0.0
40
0.500000
50
270.000000
51
0.000000
0
LINE
8
00_Gris
10
3229.440021
20
1309.046833
30
0.0
11
3228.695338
21
1309.046833
31
0.0
0
ARC
8
00_Gris
10
3228.695338
20
1310.446833
30
0.0
40
1.400000
50
213.000000
51
270.000000
0
LINE
8
00_Gris
10
3227.521199
20
1309.684339
30
0.0
11
3226.082072
21
1311.900400
31
0.0
0
ARC
8
00_Gris
10
3225.075667
20
1311.246833
30
0.0
40
1.200000
50
33.000000
51
90.000000
0
LINE
8
00_Gris
10
3225.075667
20
1312.446833
30
0.0
11
3224.356294
21
1312.446833
31
0.0
0
ARC
8
00_Gris
10
3224.356294
20
1313.646833
30
0.0
40
1.200000
50
239.544173
51
270.000000
0
LINE
8
00_Gris
10
3223.748046
20
1312.612409
30
0.0
11
3222.569437
21
1313.305439
31
0.0
0
ARC
8
00_Gris
10
3222.417375
20
1313.046833
30
0.0
40
0.300000
50
59.544173
51
90.000000
0
LINE
8
00_Gris
10
3222.417375
20
1313.346833
30
0.0
11
3222.239040
21
1313.346833
31
0.0
0
ARC
8
00_Gris
10
3222.239040
20
1312.946833
30
0.0
40
0.400000
50
90.000000
51
180.000000
0
LINE
8
00_Gris
10
3221.839040
20
1312.946833
30
0.0
11
3221.839040
21
1312.546833
31
0.0
0
ARC
8
00_Gris
10
3221.939040
20
1312.546833
30
0.0
40
0.100000
50
180.000000
51
270.000000
0
LINE
8
00_Gris
10
3221.939040
20
1312.446833
30
0.0
11
3221.939040
21
1312.171833
31
0.0
0
ARC
8
00_Gris
10
3222.239040
20
1312.171833
30
0.0
40
0.300000
50
180.000000
51
270.000000
0
LINE
8
00_Gris
10
3222.239040
20
1311.871833
30
0.0
11
3222.298566
21
1311.871833
31
0.0
0
ARC
8
00_Gris
10
3222.589040
20
1311.346833
30
0.0
40
0.600000
50
241.044976
51
118.955024
0
LINE
8
00_Gris
10
3222.298566
20
1310.821833
30
0.0
11
3222.239040
21
1310.821833
31
0.0
0
ARC
8
00_Gris
10
3222.239040
20
1310.521833
30
0.0
40
0.300000
50
90.000000
51
180.000000
0
LINE
8
00_Gris
10
3221.939040
20
1310.521833
30
0.0
11
3221.939040
21
1310.246833
31
0.0
0
ARC
8
00_Gris
10
3221.939040
20
1310.146833
30
0.0
40
0.100000
50
90.000000
51
180.000000
0
LINE
8
00_Gris
10
3221.839040
20
1310.146833
30
0.0
11
3221.839040
21
1309.746833
31
0.0
0
ARC
8
00_Gris
10
3222.239040
20
1309.746833
30
0.0
40
0.400000
50
180.000000
51
270.000000
0
LINE
8
00_Gris
10
3222.239040
20
1309.346833
30
0.0
11
3222.417242
21
1309.346833
31
0.0
0
ARC
8
00_Gris
10
3222.417242
20
1309.646833
30
0.0
40
0.300000
50
270.000000
51
300.503167
0
LINE
8
00_Gris
10
3222.569517
20
1309.388353
30
0.0
11
3223.744834
21
1310.080755
31
0.0
0
ARC
8
00_Gris
10
3224.353937
20
1309.046833
30
0.0
40
1.200000
50
90.000000
51
120.503167
0
LINE
8
00_Gris
10
3224.353937
20
1310.246833
30
0.0
11
3224.608306
21
1310.246833
31
0.0
0
ARC
8
00_Gris
10
3224.608306
20
1309.946833
30
0.0
40
0.300000
50
32.610000
51
90.000000
0
LINE
8
00_Gris
10
3224.861014
20
1310.108509
30
0.0
11
3226.364549
21
1307.793267
31
0.0
0
ARC
8
00_Gris
10
3227.370954
20
1308.446833
30
0.0
40
1.200000
50
213.000000
51
270.000000
0
LINE
8
00_Gris
10
3227.370954
20
1307.246833
30
0.0
11
3241.767367
21
1307.246833
31
0.0
0
LINE
8
00_Gris
10
3241.767367
20
1307.246833
30
0.0
11
3245.481104
21
1307.246833
31
0.0
0
ARC
8
00_Gris
10
3245.481104
20
1306.946833
30
0.0
40
0.300000
50
0.000000
51
90.000000
0
LINE
8
00_Gris
10
3245.781104
20
1306.946833
30
0.0
11
3245.781104
21
1301.115918
31
0.0
0
ARC
8
00_Gris
10
3246.281104
20
1301.115918
30
0.0
40
0.500000
50
180.000000
51
270.000000
0
LINE
8
00_Gris
10
3246.281104
20
1300.615918
30
0.0
11
3247.281104
21
1300.615918
31
0.0
0
ARC
8
00_Gris
10
3247.281104
20
1300.915918
30
0.0
40
0.300000
50
270.000000
51
0.000000
0
LINE
8
00_Gris
10
3247.581104
20
1300.915918
30
0.0
11
3247.581104
21
1306.946833
31
0.0
0
ARC
8
00_Gris
10
3247.881104
20
1306.946833
30
0.0
40
0.300000
50
90.000000
51
180.000000
0
LINE
8
00_Gris
10
3247.881104
20
1307.246833
30
0.0
11
3248.109088
21
1307.246833
31
0.0
0
ARC
8
00_Gris
10
3248.109088
20
1308.446833
30
0.0
40
1.200000
50
270.000000
51
327.000000
0
LINE
8
00_Gris
10
3249.115493
20
1307.793267
30
0.0
11
3250.619028
21
1310.108509
31
0.0
0
ARC
8
00_Gris
10
3250.871736
20
1309.946833
30
0.0
40
0.300000
50
90.000000
51
147.390000
0
LINE
8
00_Gris
10
3250.871736
20
1310.246833
30
0.0
11
3251.126105
21
1310.246833
31
0.0
0
ARC
8
00_Gris
10
3251.126105
20
1309.046833
30
0.0
40
1.200000
50
59.496833
51
90.000000
0
LINE
8
00_Gris
10
3251.735208
20
1310.080755
30
0.0
11
3252.910525
21
1309.388353
31
0.0
0
ARC
8
00_Gris
10
3253.062800
20
1309.646833
30
0.0
40
0.300000
50
239.496833
51
270.000000
0
LINE
8
00_Gris
10
3253.062800
20
1309.346833
30
0.0
11
3253.241002
21
1309.346833
31
0.0
0
ARC
8
00_Gris
10
3253.241002
20
1309.746833
30
0.0
40
0.400000
50
270.000000
51
0.000000
0
LINE
8
00_Gris
10
3253.641002
20
1309.746833
30
0.0
11
3253.641002
21
1310.146833
31
0.0
0
ARC
8
00_Gris
10
3253.541002
20
1310.146833
30
0.0
40
0.100000
50
0.000000
51
90.000000
0
LINE
8
00_Gris
10
3253.541002
20
1310.246833
30
0.0
11
3253.541002
21
1310.521833
31
0.0
0
ARC
8
00_Gris
10
3253.241002
20
1310.521833
30
0.0
40
0.300000
50
0.000000
51
90.000000
0
LINE
8
00_Gris
10
3253.241002
20
1310.821833
30
0.0
11
3253.181476
21
1310.821833
31
0.0
0
ARC
8
00_Gris
10
3252.891002
20
1311.346833
30
0.0
40
0.600000
50
61.044976
51
298.955024
0
LINE
8
00_Gris
10
3253.181476
20
1311.871833
30
0.0
11
3253.241002
21
1311.871833
31
0.0
0
ARC
8
00_Gris
10
3253.241002
20
1312.171833
30
0.0
40
0.300000
50
270.000000
51
0.000000
0
LINE
8
00_Gris
10
3253.541002
20
1312.171833
30
0.0
11
3253.541002
21
1312.446833
31
0.0
0
ARC
8
00_Gris
10
3253.541002
20
1312.546833
30
0.0
40
0.100000
50
270.000000
51
0.000000
0
LINE
8
00_Gris
10
3253.641002
20
1312.546833
30
0.0
11
3253.641002
21
1312.946833
31
0.0
0
ARC
8
00_Gris
10
3253.241002
20
1312.946833
30
0.0
40
0.400000
50
0.000000
51
90.000000
0
LINE
8
00_Gris
10
3253.241002
20
1313.346833
30
0.0
11
3253.062667
21
1313.346833
31
0.0
0
ARC
8
00_Gris
10
3253.062667
20
1313.046833
30
0.0
40
0.300000
50
90.000000
51
120.455827
0
LINE
8
00_Gris
10
3252.910605
20
1313.305439
30
0.0
11
3251.731996
21
1312.612409
31
0.0
0
ARC
8
00_Gris
10
3251.123747
20
1313.646833
30
0.0
40
1.200000
50
270.000000
51
300.455827
0
LINE
8
00_Gris
10
3251.123747
20
1312.446833
30
0.0
11
3250.404374
21
1312.446833
31
0.0
0
ARC
8
00_Gris
10
3250.404374
20
1311.246833
30
0.0
40
1.200000
50
90.000000
51
147.000000
0
LINE
8
00_Gris
10
3249.397970
20
1311.900400
30
0.0
11
3247.958843
21
1309.684339
31
0.0
0
ARC
8
00_Gris
10
3246.784704
20
1310.446833
30
0.0
40
1.400000
50
270.000000
51
327.000000
0
LINE
8
00_Gris
10
3246.784704
20
1309.046833
30
0.0
11
3246.040021
21
1309.046833
31
0.0
0
ARC
8
0
10
3217.591002
20
1309.280191
30
0.0
40
0.500000
50
90.000000
51
180.000000
0
LINE
8
0
10
3217.091002
20
1309.280191
30
0.0
11
3217.091002
21
1307.780191
31
0.0
0
LINE
8
0
10
3217.091002
20
1307.780191
30
0.0
11
3201.339471
21
1307.780191
31
0.0
0
LINE
8
0
10
3201.339471
20
1307.780191
30
0.0
11
3201.339471
21
1306.280191
31
0.0
0
ARC
8
0
10
3200.839471
20
1306.280191
30
0.0
40
0.500000
50
270.000000
51
0.000000
0
LINE
8
0
10
3200.839471
20
1305.780191
30
0.0
11
3198.091002
21
1305.780191
31
0.0
0
ARC
8
0
10
3198.091002
20
1306.280191
30
0.0
40
0.500000
50
180.000000
51
270.000000
0
LINE
8
0
10
3197.591002
20
1306.280191
30
0.0
11
3197.591002
21
1309.280191
31
0.0
0
ARC
8
0
10
3197.091002
20
1309.280191
30
0.0
40
0.500000
50
0.000000
51
90.000000
0
LINE
8
0
10
3197.091002
20
1309.780191
30
0.0
11
3196.591002
21
1309.780191
31
0.0
0
ARC
8
0
10
3196.591002
20
1309.280191
30
0.0
40
0.500000
50
90.000000
51
180.000000
0
LINE
8
0
10
3196.091002
20
1309.280191
30
0.0
11
3196.091002
21
1308.280191
31
0.0
0
ARC
8
0
10
3195.591002
20
1308.280191
30
0.0
40
0.500000
50
270.000000
51
0.000000
0
LINE
8
0
10
3195.591002
20
1307.780191
30
0.0
11
3194.439471
21
1307.780191
31
0.0
0
ARC
8
0
10
3194.439471
20
1308.280191
30
0.0
40
0.500000
50
180.000000
51
270.000000
0
LINE
8
0
10
3193.939471
20
1308.280191
30
0.0
11
3193.939471
21
1338.980191
31
0.0
0
ARC
8
0
10
3194.439471
20
1338.980191
30
0.0
40
0.500000
50
90.000000
51
180.000000
0
LINE
8
0
10
3194.439471
20
1339.480191
30
0.0
11
3195.091002
21
1339.480191
31
0.0
0
ARC
8
0
10
3195.091002
20
1338.980191
30
0.0
40
0.500000
50
0.000000
51
90.000000
0
LINE
8
0
10
3195.591002
20
1338.980191
30
0.0
11
3195.591002
21
1337.880191
31
0.0
0
ARC
8
0
10
3196.091002
20
1337.880191
30
0.0
40
0.500000
50
180.000000
51
270.000000
0
LINE
8
0
10
3196.091002
20
1337.380191
30
0.0
11
3197.091002
21
1337.380191
31
0.0
0
ARC
8
0
10
3197.091002
20
1337.880191
30
0.0
40
0.500000
50
270.000000
51
0.000000
0
LINE
8
0
10
3197.591002
20
1337.880191
30
0.0
11
3197.591002
21
1339.380191
31
0.0
0
LINE
8
0
10
3197.591002
20
1339.380191
30
0.0
11
3217.091002
21
1339.380191
31
0.0
0
LINE
8
0
10
3217.091002
20
1339.380191
30
0.0
11
3217.091002
21
1333.227346
31
0.0
0
ARC
8
0
10
3217.591002
20
1333.227346
30
0.0
40
0.500000
50
180.000000
51
270.000000
0
LINE
8
0
10
3217.591002
20
1332.727346
30
0.0
11
3219.041002
21
1332.727346
31
0.0
0
ARC
8
0
10
3219.041002
20
1332.227346
30
0.0
40
0.500000
50
0.000000
51
90.000000
0
LINE
8
0
10
3219.541002
20
1332.227346
30
0.0
11
3219.541002
21
1315.215628
31
0.0
0
ARC
8
0
10
3220.041002
20
1315.215628
30
0.0
40
0.500000
50
180.000000
51
238.619868
0
LINE
8
0
10
3219.780645
20
1314.788762
30
0.0
11
3219.999397
21
1314.655340
31
0.0
0
ARC
8
0
10
3219.739040
20
1314.228474
30
0.0
40
0.500000
50
0.000000
51
58.619868
0
LINE
8
0
10
3220.239040
20
1314.228474
30
0.0
11
3220.239040
21
1306.280191
31
0.0
0
ARC
8
0
10
3219.739040
20
1306.280191
30
0.0
40
0.500000
50
270.000000
51
0.000000
0
LINE
8
0
10
3219.739040
20
1305.780191
30
0.0
11
3218.791002
21
1305.780191
31
0.0
0
ARC
8
0
10
3218.791002
20
1306.280191
30
0.0
40
0.500000
50
180.000000
51
270.000000
0
LINE
8
0
10
3218.291002
20
1306.280191
30
0.0
11
3218.291002
21
1309.280191
31
0.0
0
ARC
8
0
10
3217.791002
20
1309.280191
30
0.0
40
0.500000
50
0.000000
51
90.000000
0
LINE
8
0
10
3217.791002
20
1309.780191
30
0.0
11
3217.591002
21
1309.780191
31
0.0
0
ARC
8
0
10
3210.339471
20
1344.773085
30
0.0
40
0.500000
50
135.000000
51
180.000000
0
LINE
8
0
10
3209.985918
20
1345.126638
30
0.0
11
3210.693025
21
1345.833745
31
0.0
0
ARC
8
0
10
3211.046578
20
1345.480191
30
0.0
40
0.500000
50
90.000000
51
135.000000
0
LINE
8
0
10
3211.046578
20
1345.980191
30
0.0
11
3213.139471
21
1345.980191
31
0.0
0
ARC
8
0
10
3213.139471
20
1345.480191
30
0.0
40
0.500000
50
0.000000
51
90.000000
0
LINE
8
0
10
3213.639471
20
1345.480191
30
0.0
11
3213.639471
21
1341.480191
31
0.0
0
ARC
8
0
10
3214.139471
20
1341.480191
30
0.0
40
0.500000
50
180.000000
51
270.000000
0
LINE
8
0
10
3214.139471
20
1340.980191
30
0.0
11
3218.695478
21
1340.980191
31
0.0
0
ARC
8
0
10
3218.695478
20
1340.480191
30
0.0
40
0.500000
50
63.872968
51
90.000000
0
LINE
8
0
10
3218.915659
20
1340.929101
30
0.0
11
3219.536736
21
1340.624476
31
0.0
0
ARC
8
0
10
3220.655036
20
1342.282608
30
0.0
40
2.000000
50
236.002945
51
308.194227
0
ARC
8
0
10
3222.200859
20
1340.317810
30
0.0
40
0.500000
50
88.376251
51
128.194227
0
LINE
8
0
10
3222.215027
20
1340.817609
30
0.0
11
3222.871649
21
1340.798996
31
0.0
0
ARC
8
0
10
3222.868264
20
1340.498971
30
0.0
40
0.300000
50
341.748585
51
88.866021
0
LINE
8
0
10
3223.153171
20
1340.405015
30
0.0
11
3221.025274
21
1337.656410
31
0.0
0
ARC
8
0
10
3220.906664
20
1337.748234
30
0.0
40
0.150000
50
164.307229
51
322.253920
0
ARC
8
0
10
3220.473437
20
1337.869950
30
0.0
40
0.300000
50
344.307229
51
48.461493
0
LINE
8
0
10
3220.672374
20
1338.094503
30
0.0
11
3219.246359
21
1339.357843
31
0.0
0
ARC
8
0
10
3219.378982
20
1339.507546
30
0.0
40
0.200000
50
167.997820
51
228.462131
0
ARC
8
0
10
3218.841005
20
1339.621917
30
0.0
40
0.350000
50
347.998111
51
223.341387
0
ARC
8
0
10
3218.441002
20
1339.244427
30
0.0
40
0.200000
50
0.000000
51
43.341387
0
LINE
8
0
10
3218.641002
20
1339.244427
30
0.0
11
3218.641002
21
1334.527346
31
0.0
0
ARC
8
0
10
3218.841002
20
1334.527346
30
0.0
40
0.200000
50
180.000000
51
270.000000
0
LINE
8
0
10
3218.841002
20
1334.327346
30
0.0
11
3218.908891
21
1334.327346
31
0.0
0
ARC
8
0
10
3218.908891
20
1334.627346
30
0.0
40
0.300000
50
270.000000
51
301.380132
0
LINE
8
0
10
3219.065105
20
1334.371226
30
0.0
11
3220.741098
21
1335.393459
31
0.0
0
ARC
8
0
10
3220.941002
20
1335.399649
30
0.0
40
0.200000
50
0.000000
51
181.773628
0
LINE
8
0
10
3221.141002
20
1335.399649
30
0.0
11
3221.141002
21
1316.281896
31
0.0
0
ARC
8
0
10
3221.641002
20
1316.281896
30
0.0
40
0.500000
50
180.000000
51
238.619868
0
LINE
8
0
10
3221.380645
20
1315.855031
30
0.0
11
3224.195254
21
1314.138325
31
0.0
0
ARC
8
0
10
3224.039040
20
1313.882206
30
0.0
40
0.300000
50
0.000000
51
58.619868
0
LINE
8
0
10
3224.339040
20
1313.882206
30
0.0
11
3224.339040
21
1312.531356
31
0.0
0
ARC
8
0
10
3224.139040
20
1312.531356
30
0.0
40
0.200000
50
178.226372
51
0.000000
0
LINE
8
0
10
3223.939136
20
1312.537546
30
0.0
11
3222.263143
21
1313.559779
31
0.0
0
ARC
8
0
10
3222.106929
20
1313.303659
30
0.0
40
0.300000
50
58.619868
51
90.000000
0
LINE
8
0
10
3222.106929
20
1313.603659
30
0.0
11
3222.039040
21
1313.603659
31
0.0
0
ARC
8
0
10
3222.039040
20
1313.403659
30
0.0
40
0.200000
50
90.000000
51
180.000000
0
LINE
8
0
10
3221.839040
20
1313.403659
30
0.0
11
3221.839040
21
1308.686578
31
0.0
0
ARC
8
0
10
3221.639040
20
1308.686578
30
0.0
40
0.200000
50
316.658613
51
0.000000
0
ARC
8
0
10
3222.039042
20
1308.309089
30
0.0
40
0.350000
50
136.658613
51
12.001889
0
ARC
8
0
10
3222.577020
20
1308.423459
30
0.0
40
0.200000
50
131.537869
51
192.002180
0
LINE
8
0
10
3222.444397
20
1308.573162
30
0.0
11
3223.870412
21
1309.836502
31
0.0
0
ARC
8
0
10
3223.671475
20
1310.061055
30
0.0
40
0.300000
50
311.538507
51
15.692771
0
ARC
8
0
10
3224.104702
20
1310.182771
30
0.0
40
0.150000
50
37.746080
51
195.692771
0
LINE
8
0
10
3224.223312
20
1310.274595
30
0.0
11
3226.351209
21
1307.525990
31
0.0
0
ARC
8
0
10
3226.066301
20
1307.432034
30
0.0
40
0.300000
50
271.133979
51
18.251415
0
LINE
8
0
10
3226.069686
20
1307.132009
30
0.0
11
3225.413065
21
1307.113396
31
0.0
0
ARC
8
0
10
3225.398897
20
1307.613195
30
0.0
40
0.500000
50
231.805773
51
271.623749
0
ARC
8
0
10
3223.853074
20
1305.648397
30
0.0
40
2.000000
50
51.805773
51
123.997055
0
LINE
8
0
10
3222.734773
20
1307.306530
30
0.0
11
3222.119290
21
1307.004647
31
0.0
0
ARC
8
0
10
3222.339471
20
1306.555737
30
0.0
40
0.500000
50
116.127032
51
180.000000
0
LINE
8
0
10
3221.839471
20
1306.555737
30
0.0
11
3221.839471
21
1299.680191
31
0.0
0
LINE
8
0
10
3221.839471
20
1299.680191
30
0.0
11
3217.839471
21
1299.680191
31
0.0
0
LINE
8
0
10
3217.839471
20
1299.680191
30
0.0
11
3217.839471
21
1301.180191
31
0.0
0
LINE
8
0
10
3217.839471
20
1301.180191
30
0.0
11
3220.339471
21
1301.180191
31
0.0
0
LINE
8
0
10
3220.339471
20
1301.180191
30
0.0
11
3220.339471
21
1304.180191
31
0.0
0
LINE
8
0
10
3220.339471
20
1304.180191
30
0.0
11
3217.439471
21
1304.180191
31
0.0
0
LINE
8
0
10
3217.439471
20
1304.180191
30
0.0
11
3215.339471
21
1306.280191
31
0.0
0
LINE
8
0
10
3215.339471
20
1306.280191
30
0.0
11
3202.839471
21
1306.280191
31
0.0
0
LINE
8
0
10
3202.839471
20
1306.280191
30
0.0
11
3202.839471
21
1304.180191
31
0.0
0
LINE
8
0
10
3202.839471
20
1304.180191
30
0.0
11
3200.339471
21
1304.180191
31
0.0
0
LINE
8
0
10
3200.339471
20
1304.180191
30
0.0
11
3200.339471
21
1301.180191
31
0.0
0
LINE
8
0
10
3200.339471
20
1301.180191
30
0.0
11
3202.839471
21
1301.180191
31
0.0
0
LINE
8
0
10
3202.839471
20
1301.180191
30
0.0
11
3202.839471
21
1299.680191
31
0.0
0
LINE
8
0
10
3202.839471
20
1299.680191
30
0.0
11
3198.839471
21
1299.680191
31
0.0
0
LINE
8
0
10
3198.839471
20
1299.680191
30
0.0
11
3198.839471
21
1304.180191
31
0.0
0
LINE
8
0
10
3198.839471
20
1304.180191
30
0.0
11
3196.439471
21
1304.180191
31
0.0
0
ARC
8
0
10
3196.439471
20
1304.680191
30
0.0
40
0.500000
50
241.044976
51
270.000000
0
ARC
8
0
10
3196.052173
20
1303.980191
30
0.0
40
0.300000
50
61.044976
51
90.000000
0
LINE
8
0
10
3196.052173
20
1304.280191
30
0.0
11
3195.414476
21
1304.280191
31
0.0
0
ARC
8
0
10
3195.414476
20
1304.480191
30
0.0
40
0.200000
50
195.000000
51
270.000000
0
LINE
8
0
10
3195.221291
20
1304.428428
30
0.0
11
3195.163028
21
1304.645866
31
0.0
0
LINE
8
0
10
3195.163028
20
1304.645866
30
0.0
11
3195.029615
21
1304.645866
31
0.0
0
ARC
8
0
10
3195.029615
20
1304.757401
30
0.0
40
0.111536
50
150.000000
51
270.000000
0
LINE
8
0
10
3194.933022
20
1304.813169
30
0.0
11
3195.059501
21
1305.032236
31
0.0
0
LINE
8
0
10
3195.059501
20
1305.032236
30
0.0
11
3194.939471
21
1305.480191
31
0.0
0
LINE
8
0
10
3194.939471
20
1305.480191
30
0.0
11
3193.939471
21
1305.480191
31
0.0
0
LINE
8
0
10
3193.939471
20
1305.480191
30
0.0
11
3193.939471
21
1290.480191
31
0.0
0
LINE
8
0
10
3193.939471
20
1290.480191
30
0.0
11
3194.939471
21
1290.480191
31
0.0
0
LINE
8
0
10
3194.939471
20
1290.480191
30
0.0
11
3195.059501
21
1290.928147
31
0.0
0
LINE
8
0
10
3195.059501
20
1290.928147
30
0.0
11
3194.933022
21
1291.147214
31
0.0
0
ARC
8
0
10
3195.029615
20
1291.202981
30
0.0
40
0.111536
50
90.000000
51
210.000000
0
LINE
8
0
10
3195.029615
20
1291.314517
30
0.0
11
3195.163028
21
1291.314517
31
0.0
0
LINE
8
0
10
3195.163028
20
1291.314517
30
0.0
11
3195.221291
21
1291.531955
31
0.0
0
ARC
8
0
10
3195.414476
20
1291.480191
30
0.0
40
0.200000
50
90.000000
51
165.000000
0
LINE
8
0
10
3195.414476
20
1291.680191
30
0.0
11
3195.739471
21
1291.680191
31
0.0
0
ARC
8
0
10
3195.739471
20
1291.480191
30
0.0
40
0.200000
50
0.000000
51
90.000000
0
LINE
8
0
10
3195.939471
20
1291.480191
30
0.0
11
3195.939471
21
1289.880191
31
0.0
0
LINE
8
0
10
3195.939471
20
1289.880191
30
0.0
11
3195.339471
21
1288.080191
31
0.0
0
LINE
8
0
10
3195.339471
20
1288.080191
30
0.0
11
3194.839471
21
1288.080191
31
0.0
0
LINE
8
0
10
3194.839471
20
1288.080191
30
0.0
11
3194.839471
21
1289.380191
31
0.0
0
LINE
8
0
10
3194.839471
20
1289.380191
30
0.0
11
3193.539471
21
1289.380191
31
0.0
0
LINE
8
0
10
3193.539471
20
1289.380191
30
0.0
11
3193.539471
21
1283.280191
31
0.0
0
LINE
8
0
10
3193.539471
20
1283.280191
30
0.0
11
3194.839471
21
1283.280191
31
0.0
0
LINE
8
0
10
3194.839471
20
1283.280191
30
0.0
11
3194.839471
21
1284.580191
31
0.0
0
LINE
8
0
10
3194.839471
20
1284.580191
30
0.0
11
3195.339471
21
1284.580191
31
0.0
0
LINE
8
0
10
3195.339471
20
1284.580191
30
0.0
11
3195.839471
21
1283.080191
31
0.0
0
LINE
8
0
10
3195.839471
20
1283.080191
30
0.0
11
3195.839471
21
1282.680191
31
0.0
0
ARC
8
0
10
3195.339471
20
1282.680191
30
0.0
40
0.500000
50
270.000000
51
0.000000
0
LINE
8
0
10
3195.339471
20
1282.180191
30
0.0
11
3192.839471
21
1282.180191
31
0.0
0
ARC
8
0
10
3192.839471
20
1282.680191
30
0.0
40
0.500000
50
180.000000
51
270.000000
0
LINE
8
0
10
3192.339471
20
1282.680191
30
0.0
11
3192.339471
21
1345.680191
31
0.0
0
ARC
8
0
10
3192.639471
20
1345.680191
30
0.0
40
0.300000
50
90.000000
51
180.000000
0
LINE
8
0
10
3192.639471
20
1345.980191
30
0.0
11
3194.632365
21
1345.980191
31
0.0
0
ARC
8
0
10
3194.632365
20
1345.480191
30
0.0
40
0.500000
50
45.000000
51
90.000000
0
LINE
8
0
10
3194.985918
20
1345.833745
30
0.0
11
3195.693025
21
1345.126638
31
0.0
0
ARC
8
0
10
3195.339471
20
1344.773085
30
0.0
40
0.500000
50
0.000000
51
45.000000
0
LINE
8
0
10
3195.839471
20
1344.773085
30
0.0
11
3195.839471
21
1343.980191
31
0.0
0
LINE
8
0
10
3195.839471
20
1343.980191
30
0.0
11
3194.139471
21
1343.980191
31
0.0
0
ARC
8
0
10
3194.139471
20
1343.680191
30
0.0
40
0.300000
50
90.000000
51
180.000000
0
LINE
8
0
10
3193.839471
20
1343.680191
30
0.0
11
3193.839471
21
1341.280191
31
0.0
0
ARC
8
0
10
3194.139471
20
1341.280191
30
0.0
40
0.300000
50
180.000000
51
270.000000
0
LINE
8
0
10
3194.139471
20
1340.980191
30
0.0
11
3211.539471
21
1340.980191
31
0.0
0
ARC
8
0
10
3211.539471
20
1341.280191
30
0.0
40
0.300000
50
270.000000
51
0.000000
0
LINE
8
0
10
3211.839471
20
1341.280191
30
0.0
11
3211.839471
21
1343.680191
31
0.0
0
ARC
8
0
10
3211.539471
20
1343.680191
30
0.0
40
0.300000
50
0.000000
51
90.000000
0
LINE
8
0
10
3211.539471
20
1343.980191
30
0.0
11
3209.839471
21
1343.980191
31
0.0
0
LINE
8
0
10
3209.839471
20
1343.980191
30
0.0
11
3209.839471
21
1344.773085
31
0.0
0
ATTDEF
8
0
10
0.000000
20
0.000000
30
0.0
40
3.5
1

3

2
PANE_WIDTH:0
70
0
0
ATTDEF
8
0
10
0.000000
20
0.000000
30
0.0
40
3.5
1

3

2
MIN_VETRO:0
70
0
0
ATTDEF
8
0
10
0.000000
20
0.000000
30
0.0
40
3.5
1

3

2
MAX_VETRO:0
70
0
0
ATTDEF
8
0
10
0.000000
20
0.000000
30
0.0
40
3.5
1

3

2
JX:0
70
0
0
ATTDEF
8
0
10
0.000000
20
0.000000
30
0.0
40
3.5
1

3

2
WX:0
70
0
0
ATTDEF
8
0
10
0.000000
20
0.000000
30
0.0
40
3.5
1

3

2
JY:0
70
0
0
ATTDEF
8
0
10
0.000000
20
0.000000
30
0.0
40
3.5
1

3

2
WY:0
70
0
0
ATTDEF
8
0
10
0.000000
20
0.000000
30
0.0
40
3.5
1

3

2
DESC:Hoja balconera
70
0
0
ATTDEF
8
0
10
0.000000
20
0.000000
30
0.0
40
3.5
1

3

2
DENS:1.8707
70
0
0
ATTDEF
8
0
10
0.000000
20
0.000000
30
0.0
40
3.5
1

3

2
TDEV:74.9
70
0
0
ATTDEF
8
0
10
0.000000
20
0.000000
30
0.0
40
3.5
1

3

2
TDEV2:0
70
0
0
ATTDEF
8
0
10
0.000000
20
0.000000
30
0.0
40
3.5
1

3

2
TDEV3:0
70
0
0
ATTDEF
8
0
10
0.000000
20
0.000000
30
0.0
40
3.5
1

3

2
TDEV4:0
70
0
0
ATTDEF
8
0
10
0.000000
20
0.000000
30
0.0
40
3.5
1

3

2
TDEV5:0
70
0
0
ATTDEF
8
0
10
0.000000
20
0.000000
30
0.0
40
3.5
1

3

2
PANE_WIDTH:0
70
0
0
ATTDEF
8
0
10
0.000000
20
0.000000
30
0.0
40
3.5
1

3

2
MIN_VETRO:0
70
0
0
ATTDEF
8
0
10
0.000000
20
0.000000
30
0.0
40
3.5
1

3

2
MAX_VETRO:0
70
0
0
ATTDEF
8
0
10
0.000000
20
0.000000
30
0.0
40
3.5
1

3

2
JX:0
70
0
0
ATTDEF
8
0
10
0.000000
20
0.000000
30
0.0
40
3.5
1

3

2
WX:0
70
0
0
ATTDEF
8
0
10
0.000000
20
0.000000
30
0.0
40
3.5
1

3

2
JY:0
70
0
0
ATTDEF
8
0
10
0.000000
20
0.000000
30
0.0
40
3.5
1

3

2
WY:0
70
0
0
ENDSEC
0
EOF
