0
SECTION
2
ENTITIES
0
LINE
8
0
10
3020.602630
20
1245.717300
30
0.0
11
3025.102630
21
1245.717300
31
0.0
0
LINE
8
0
10
3025.102630
20
1245.717300
30
0.0
11
3025.102630
21
1250.967300
31
0.0
0
ARC
8
0
10
3024.602630
20
1250.967300
30
0.0
40
0.500000
50
0.000000
51
150.000000
0
LINE
8
0
10
3024.169617
20
1251.217300
30
0.0
11
3023.102630
21
1249.369224
31
0.0
0
LINE
8
0
10
3023.102630
20
1249.369224
30
0.0
11
3023.602630
21
1249.080549
31
0.0
0
LINE
8
0
10
3023.602630
20
1249.080549
30
0.0
11
3023.602630
21
1247.217300
31
0.0
0
LINE
8
0
10
3023.602630
20
1247.217300
30
0.0
11
3019.102630
21
1247.217300
31
0.0
0
LINE
8
0
10
3019.102630
20
1247.217300
30
0.0
11
3019.102630
21
1236.149842
31
0.0
0
LINE
8
0
10
3019.102630
20
1236.149842
30
0.0
11
3005.602630
21
1237.204669
31
0.0
0
LINE
8
0
10
3005.602630
20
1237.204669
30
0.0
11
3005.602630
21
1245.717300
31
0.0
0
LINE
8
0
10
3005.602630
20
1245.717300
30
0.0
11
3006.352630
21
1245.717300
31
0.0
0
ARC
8
0
10
3006.352630
20
1246.467300
30
0.0
40
0.750000
50
270.000000
51
90.000000
0
LINE
8
0
10
3006.352630
20
1247.217300
30
0.0
11
3005.602630
21
1247.217300
31
0.0
0
LINE
8
0
10
3005.602630
20
1247.217300
30
0.0
11
3004.602630
21
1247.217300
31
0.0
0
ARC
8
0
10
3004.602630
20
1246.717300
30
0.0
40
0.500000
50
90.000000
51
180.000000
0
LINE
8
0
10
3004.102630
20
1246.717300
30
0.0
11
3004.102630
21
1235.817300
31
0.0
0
LINE
8
0
10
3004.102630
20
1235.817300
30
0.0
11
3015.602630
21
1234.918744
31
0.0
0
LINE
8
0
10
3015.602630
20
1234.918744
30
0.0
11
3015.602630
21
1208.413139
31
0.0
0
LINE
8
0
10
3015.602630
20
1208.413139
30
0.0
11
3017.102630
21
1208.413139
31
0.0
0
LINE
8
0
10
3017.102630
20
1208.413139
30
0.0
11
3017.102630
21
1223.217300
31
0.0
0
LINE
8
0
10
3017.102630
20
1223.217300
30
0.0
11
3024.102630
21
1223.217300
31
0.0
0
LINE
8
0
10
3024.102630
20
1223.217300
30
0.0
11
3024.102630
21
1224.717300
31
0.0
0
LINE
8
0
10
3024.102630
20
1224.717300
30
0.0
11
3017.102630
21
1224.717300
31
0.0
0
LINE
8
0
10
3017.102630
20
1224.717300
30
0.0
11
3017.102630
21
1234.801541
31
0.0
0
LINE
8
0
10
3017.102630
20
1234.801541
30
0.0
11
3062.602630
21
1231.246383
31
0.0
0
LINE
8
0
10
3062.602630
20
1231.246383
30
0.0
11
3062.602630
21
1224.717300
31
0.0
0
LINE
8
0
10
3062.602630
20
1224.717300
30
0.0
11
3059.102630
21
1224.717300
31
0.0
0
LINE
8
0
10
3059.102630
20
1224.717300
30
0.0
11
3059.102630
21
1223.217300
31
0.0
0
LINE
8
0
10
3059.102630
20
1223.217300
30
0.0
11
3064.102630
21
1223.217300
31
0.0
0
LINE
8
0
10
3064.102630
20
1223.217300
30
0.0
11
3064.102630
21
1231.129180
31
0.0
0
LINE
8
0
10
3064.102630
20
1231.129180
30
0.0
11
3151.302630
21
1224.315779
31
0.0
0
LINE
8
0
10
3151.302630
20
1224.315779
30
0.0
11
3151.302630
21
1223.217300
31
0.0
0
LINE
8
0
10
3151.302630
20
1223.217300
30
0.0
11
3152.602630
21
1223.217300
31
0.0
0
LINE
8
0
10
3152.602630
20
1223.217300
30
0.0
11
3152.602630
21
1225.718775
31
0.0
0
LINE
8
0
10
3152.602630
20
1225.718775
30
0.0
11
3064.102630
21
1232.633752
31
0.0
0
LINE
8
0
10
3064.102630
20
1232.633752
30
0.0
11
3064.102630
21
1247.217300
31
0.0
0
LINE
8
0
10
3064.102630
20
1247.217300
30
0.0
11
3059.602630
21
1247.217300
31
0.0
0
LINE
8
0
10
3059.602630
20
1247.217300
30
0.0
11
3059.602630
21
1249.080549
31
0.0
0
LINE
8
0
10
3059.602630
20
1249.080549
30
0.0
11
3060.102630
21
1249.369224
31
0.0
0
LINE
8
0
10
3060.102630
20
1249.369224
30
0.0
11
3059.035643
21
1251.217300
31
0.0
0
ARC
8
0
10
3058.602630
20
1250.967300
30
0.0
40
0.500000
50
30.000000
51
180.000000
0
LINE
8
0
10
3058.102630
20
1250.967300
30
0.0
11
3058.102630
21
1245.717300
31
0.0
0
LINE
8
0
10
3058.102630
20
1245.717300
30
0.0
11
3062.602630
21
1245.717300
31
0.0
0
LINE
8
0
10
3062.602630
20
1245.717300
30
0.0
11
3062.602630
21
1232.750955
31
0.0
0
LINE
8
0
10
3062.602630
20
1232.750955
30
0.0
11
3020.602630
21
1236.032639
31
0.0
0
LINE
8
0
10
3020.602630
20
1236.032639
30
0.0
11
3020.602630
21
1245.717300
31
0.0
0
ATTDEF
8
0
10
0.000000
20
0.000000
30
0.0
40
3.5
1

3

2
PANE_WIDTH:0
70
0
0
ATTDEF
8
0
10
0.000000
20
0.000000
30
0.0
40
3.5
1

3

2
MIN_VETRO:0
70
0
0
ATTDEF
8
0
10
0.000000
20
0.000000
30
0.0
40
3.5
1

3

2
MAX_VETRO:0
70
0
0
ATTDEF
8
0
10
0.000000
20
0.000000
30
0.0
40
3.5
1

3

2
JX:0
70
0
0
ATTDEF
8
0
10
0.000000
20
0.000000
30
0.0
40
3.5
1

3

2
WX:0
70
0
0
ATTDEF
8
0
10
0.000000
20
0.000000
30
0.0
40
3.5
1

3

2
JY:0
70
0
0
ATTDEF
8
0
10
0.000000
20
0.000000
30
0.0
40
3.5
1

3

2
WY:0
70
0
0
ATTDEF
8
0
10
0.000000
20
0.000000
30
0.0
40
3.5
1

3

2
DESC:Condensacion
70
0
0
ATTDEF
8
0
10
0.000000
20
0.000000
30
0.0
40
3.5
1

3

2
DENS:1.0098
70
0
0
ATTDEF
8
0
10
0.000000
20
0.000000
30
0.0
40
3.5
1

3

2
TDEV:50.16
70
0
0
ATTDEF
8
0
10
0.000000
20
0.000000
30
0.0
40
3.5
1

3

2
TDEV2:0
70
0
0
ATTDEF
8
0
10
0.000000
20
0.000000
30
0.0
40
3.5
1

3

2
TDEV3:0
70
0
0
ATTDEF
8
0
10
0.000000
20
0.000000
30
0.0
40
3.5
1

3

2
TDEV4:0
70
0
0
ATTDEF
8
0
10
0.000000
20
0.000000
30
0.0
40
3.5
1

3

2
TDEV5:0
70
0
0
ATTDEF
8
0
10
0.000000
20
0.000000
30
0.0
40
3.5
1

3

2
PANE_WIDTH:0
70
0
0
ATTDEF
8
0
10
0.000000
20
0.000000
30
0.0
40
3.5
1

3

2
MIN_VETRO:0
70
0
0
ATTDEF
8
0
10
0.000000
20
0.000000
30
0.0
40
3.5
1

3

2
MAX_VETRO:0
70
0
0
ATTDEF
8
0
10
0.000000
20
0.000000
30
0.0
40
3.5
1

3

2
JX:0
70
0
0
ATTDEF
8
0
10
0.000000
20
0.000000
30
0.0
40
3.5
1

3

2
WX:0
70
0
0
ATTDEF
8
0
10
0.000000
20
0.000000
30
0.0
40
3.5
1

3

2
JY:0
70
0
0
ATTDEF
8
0
10
0.000000
20
0.000000
30
0.0
40
3.5
1

3

2
WY:0
70
0
0
ENDSEC
0
EOF
