0
SECTION
2
ENTITIES
0
LINE
8
0
10
3042.102122
20
1260.223456
30
0.0
11
3042.102122
21
1253.223456
31
0.0
0
LINE
8
0
10
3042.102122
20
1253.223456
30
0.0
11
3040.602122
21
1253.223456
31
0.0
0
LINE
8
0
10
3040.602122
20
1253.223456
30
0.0
11
3040.602122
21
1254.223456
31
0.0
0
ARC
8
0
10
3040.102122
20
1254.223457
30
0.0
40
0.500000
50
359.999957
51
90.000043
0
LINE
8
0
10
3040.102122
20
1254.723456
30
0.0
11
3039.902122
21
1254.723456
31
0.0
0
ARC
8
0
10
3039.902122
20
1254.223457
30
0.0
40
0.500000
50
89.999957
51
180.000043
0
LINE
8
0
10
3039.402122
20
1254.223456
30
0.0
11
3039.402122
21
1252.223456
31
0.0
0
ARC
8
0
10
3039.902122
20
1252.223456
30
0.0
40
0.500000
50
179.999957
51
270.000043
0
LINE
8
0
10
3039.902122
20
1251.723456
30
0.0
11
3041.902122
21
1251.723456
31
0.0
0
LINE
8
0
10
3041.902122
20
1251.723456
30
0.0
11
3041.902122
21
1243.973456
31
0.0
0
LINE
8
0
10
3041.902122
20
1243.973456
30
0.0
11
3038.225026
21
1243.973456
31
0.0
0
ARC
8
0
10
3038.225026
20
1244.473457
30
0.0
40
0.500000
50
196.127672
51
270.000002
0
ARC
8
0
10
3033.902122
20
1243.223454
30
0.0
40
4.000001
50
16.127650
51
163.872350
0
ARC
8
0
10
3029.579218
20
1244.473456
30
0.0
40
0.500000
50
270.000056
51
343.872385
0
LINE
8
0
10
3029.579218
20
1243.973456
30
0.0
11
3019.402122
21
1243.973456
31
0.0
0
LINE
8
0
10
3019.402122
20
1243.973456
30
0.0
11
3019.402122
21
1248.973456
31
0.0
0
LINE
8
0
10
3019.402122
20
1248.973456
30
0.0
11
3016.902122
21
1248.973456
31
0.0
0
LINE
8
0
10
3016.902122
20
1248.973456
30
0.0
11
3015.902122
21
1247.973456
31
0.0
0
LINE
8
0
10
3015.902122
20
1247.973456
30
0.0
11
3015.902122
21
1246.973456
31
0.0
0
LINE
8
0
10
3015.902122
20
1246.973456
30
0.0
11
3017.902122
21
1246.973456
31
0.0
0
LINE
8
0
10
3017.902122
20
1246.973456
30
0.0
11
3017.902122
21
1243.973456
31
0.0
0
LINE
8
0
10
3017.902122
20
1243.973456
30
0.0
11
3013.225026
21
1243.973456
31
0.0
0
ARC
8
0
10
3013.225026
20
1244.473457
30
0.0
40
0.500000
50
196.127672
51
270.000002
0
ARC
8
0
10
3008.902123
20
1243.223458
30
0.0
40
3.999998
50
16.127601
51
46.657633
0
ARC
8
0
10
3011.132780
20
1245.587069
30
0.0
40
0.750000
50
46.657614
51
226.657614
0
ARC
8
0
10
3008.902122
20
1243.223457
30
0.0
40
2.500000
50
133.342360
51
46.657640
0
ARC
8
0
10
3006.671464
20
1245.587069
30
0.0
40
0.750000
50
313.342358
51
133.342358
0
ARC
8
0
10
3008.902121
20
1243.223456
30
0.0
40
3.999999
50
133.342344
51
163.872375
0
ARC
8
0
10
3004.579218
20
1244.473456
30
0.0
40
0.500000
50
270.000056
51
343.872385
0
LINE
8
0
10
3004.579218
20
1243.973456
30
0.0
11
2999.902122
21
1243.973456
31
0.0
0
LINE
8
0
10
2999.902122
20
1243.973456
30
0.0
11
2999.902122
21
1246.973456
31
0.0
0
LINE
8
0
10
2999.902122
20
1246.973456
30
0.0
11
3001.902122
21
1246.973456
31
0.0
0
LINE
8
0
10
3001.902122
20
1246.973456
30
0.0
11
3001.902122
21
1247.973456
31
0.0
0
LINE
8
0
10
3001.902122
20
1247.973456
30
0.0
11
3000.902122
21
1248.973456
31
0.0
0
LINE
8
0
10
3000.902122
20
1248.973456
30
0.0
11
2998.402122
21
1248.973456
31
0.0
0
LINE
8
0
10
2998.402122
20
1248.973456
30
0.0
11
2998.402122
21
1237.473456
31
0.0
0
LINE
8
0
10
2998.402122
20
1237.473456
30
0.0
11
3000.902122
21
1237.473456
31
0.0
0
LINE
8
0
10
3000.902122
20
1237.473456
30
0.0
11
3001.902122
21
1238.473456
31
0.0
0
LINE
8
0
10
3001.902122
20
1238.473456
30
0.0
11
3001.902122
21
1239.473456
31
0.0
0
LINE
8
0
10
3001.902122
20
1239.473456
30
0.0
11
2999.902122
21
1239.473456
31
0.0
0
LINE
8
0
10
2999.902122
20
1239.473456
30
0.0
11
2999.902122
21
1242.473456
31
0.0
0
LINE
8
0
10
2999.902122
20
1242.473456
30
0.0
11
3004.579218
21
1242.473456
31
0.0
0
ARC
8
0
10
3004.579218
20
1241.973457
30
0.0
40
0.500000
50
16.127615
51
89.999944
0
ARC
8
0
10
3008.902122
20
1243.223459
30
0.0
40
4.000001
50
196.127650
51
343.872350
0
ARC
8
0
10
3013.225026
20
1241.973456
30
0.0
40
0.500000
50
89.999998
51
163.872328
0
LINE
8
0
10
3013.225026
20
1242.473456
30
0.0
11
3017.902122
21
1242.473456
31
0.0
0
LINE
8
0
10
3017.902122
20
1242.473456
30
0.0
11
3017.902122
21
1239.473456
31
0.0
0
LINE
8
0
10
3017.902122
20
1239.473456
30
0.0
11
3015.902122
21
1239.473456
31
0.0
0
LINE
8
0
10
3015.902122
20
1239.473456
30
0.0
11
3015.902122
21
1238.473456
31
0.0
0
LINE
8
0
10
3015.902122
20
1238.473456
30
0.0
11
3016.902122
21
1237.473456
31
0.0
0
LINE
8
0
10
3016.902122
20
1237.473456
30
0.0
11
3019.402122
21
1237.473456
31
0.0
0
LINE
8
0
10
3019.402122
20
1237.473456
30
0.0
11
3019.402122
21
1242.473456
31
0.0
0
LINE
8
0
10
3019.402122
20
1242.473456
30
0.0
11
3029.579218
21
1242.473456
31
0.0
0
ARC
8
0
10
3029.579218
20
1241.973457
30
0.0
40
0.500000
50
16.127615
51
89.999944
0
ARC
8
0
10
3033.902121
20
1243.223456
30
0.0
40
3.999999
50
196.127625
51
226.657656
0
ARC
8
0
10
3031.671464
20
1240.859843
30
0.0
40
0.750000
50
226.657642
51
46.657642
0
ARC
8
0
10
3033.902122
20
1243.223456
30
0.0
40
2.500000
50
313.342360
51
226.657641
0
ARC
8
0
10
3036.132780
20
1240.859843
30
0.0
40
0.750000
50
133.342386
51
313.342386
0
ARC
8
0
10
3033.902123
20
1243.223455
30
0.0
40
3.999998
50
313.342368
51
343.872399
0
ARC
8
0
10
3038.225026
20
1241.973456
30
0.0
40
0.500000
50
89.999998
51
163.872328
0
LINE
8
0
10
3038.225026
20
1242.473456
30
0.0
11
3041.902122
21
1242.473456
31
0.0
0
LINE
8
0
10
3041.902122
20
1242.473456
30
0.0
11
3041.902122
21
1234.723456
31
0.0
0
LINE
8
0
10
3041.902122
20
1234.723456
30
0.0
11
3039.902122
21
1234.723456
31
0.0
0
ARC
8
0
10
3039.902122
20
1234.223457
30
0.0
40
0.500000
50
89.999957
51
180.000043
0
LINE
8
0
10
3039.402122
20
1234.223456
30
0.0
11
3039.402122
21
1232.223456
31
0.0
0
ARC
8
0
10
3039.902122
20
1232.223456
30
0.0
40
0.500000
50
179.999957
51
270.000043
0
LINE
8
0
10
3039.902122
20
1231.723456
30
0.0
11
3040.102122
21
1231.723456
31
0.0
0
ARC
8
0
10
3040.102122
20
1232.223456
30
0.0
40
0.500000
50
269.999957
51
0.000043
0
LINE
8
0
10
3040.602122
20
1232.223456
30
0.0
11
3040.602122
21
1233.223456
31
0.0
0
LINE
8
0
10
3040.602122
20
1233.223456
30
0.0
11
3042.102122
21
1233.223456
31
0.0
0
LINE
8
0
10
3042.102122
20
1233.223456
30
0.0
11
3042.102122
21
1226.223456
31
0.0
0
LINE
8
0
10
3042.102122
20
1226.223456
30
0.0
11
3040.602122
21
1226.223456
31
0.0
0
LINE
8
0
10
3040.602122
20
1226.223456
30
0.0
11
3040.602122
21
1227.223456
31
0.0
0
ARC
8
0
10
3040.102122
20
1227.223457
30
0.0
40
0.500000
50
359.999957
51
90.000043
0
LINE
8
0
10
3040.102122
20
1227.723456
30
0.0
11
3039.902122
21
1227.723456
31
0.0
0
ARC
8
0
10
3039.902122
20
1227.223457
30
0.0
40
0.500000
50
89.999957
51
180.000043
0
LINE
8
0
10
3039.402122
20
1227.223456
30
0.0
11
3039.402122
21
1225.223456
31
0.0
0
ARC
8
0
10
3039.902122
20
1225.223456
30
0.0
40
0.500000
50
179.999957
51
270.000043
0
LINE
8
0
10
3039.902122
20
1224.723456
30
0.0
11
3042.902122
21
1224.723456
31
0.0
0
ARC
8
0
10
3042.902122
20
1225.223456
30
0.0
40
0.500000
50
269.999957
51
0.000043
0
LINE
8
0
10
3043.402122
20
1225.223456
30
0.0
11
3043.402122
21
1261.223456
31
0.0
0
ARC
8
0
10
3042.902122
20
1261.223457
30
0.0
40
0.500000
50
359.999957
51
90.000043
0
LINE
8
0
10
3042.902122
20
1261.723456
30
0.0
11
3039.902122
21
1261.723456
31
0.0
0
ARC
8
0
10
3039.902122
20
1261.223457
30
0.0
40
0.500000
50
89.999957
51
180.000043
0
LINE
8
0
10
3039.402122
20
1261.223456
30
0.0
11
3039.402122
21
1259.223456
31
0.0
0
ARC
8
0
10
3039.902122
20
1259.223456
30
0.0
40
0.500000
50
179.999957
51
270.000043
0
LINE
8
0
10
3039.902122
20
1258.723456
30
0.0
11
3040.102122
21
1258.723456
31
0.0
0
ARC
8
0
10
3040.102122
20
1259.223456
30
0.0
40
0.500000
50
269.999957
51
0.000043
0
LINE
8
0
10
3040.602122
20
1259.223456
30
0.0
11
3040.602122
21
1260.223456
31
0.0
0
LINE
8
0
10
3040.602122
20
1260.223456
30
0.0
11
3042.102122
21
1260.223456
31
0.0
0
ATTDEF
8
0
10
0.000000
20
0.000000
30
0.0
40
3.5
1

3

2
PANE_WIDTH:0
70
0
0
ATTDEF
8
0
10
0.000000
20
0.000000
30
0.0
40
3.5
1

3

2
MIN_VETRO:0
70
0
0
ATTDEF
8
0
10
0.000000
20
0.000000
30
0.0
40
3.5
1

3

2
MAX_VETRO:0
70
0
0
ATTDEF
8
0
10
0.000000
20
0.000000
30
0.0
40
3.5
1

3

2
JX:0
70
0
0
ATTDEF
8
0
10
0.000000
20
0.000000
30
0.0
40
3.5
1

3

2
WX:0
70
0
0
ATTDEF
8
0
10
0.000000
20
0.000000
30
0.0
40
3.5
1

3

2
JY:0
70
0
0
ATTDEF
8
0
10
0.000000
20
0.000000
30
0.0
40
3.5
1

3

2
WY:0
70
0
0
ATTDEF
8
0
10
0.000000
20
0.000000
30
0.0
40
3.5
1

3

2
DESC:Divisor vidrio
70
0
0
ATTDEF
8
0
10
0.000000
20
0.000000
30
0.0
40
3.5
1

3

2
DENS:0.5697
70
0
0
ATTDEF
8
0
10
0.000000
20
0.000000
30
0.0
40
3.5
1

3

2
TDEV:28.25
70
0
0
ATTDEF
8
0
10
0.000000
20
0.000000
30
0.0
40
3.5
1

3

2
TDEV2:0
70
0
0
ATTDEF
8
0
10
0.000000
20
0.000000
30
0.0
40
3.5
1

3

2
TDEV3:0
70
0
0
ATTDEF
8
0
10
0.000000
20
0.000000
30
0.0
40
3.5
1

3

2
TDEV4:0
70
0
0
ATTDEF
8
0
10
0.000000
20
0.000000
30
0.0
40
3.5
1

3

2
TDEV5:0
70
0
0
ATTDEF
8
0
10
0.000000
20
0.000000
30
0.0
40
3.5
1

3

2
PANE_WIDTH:0
70
0
0
ATTDEF
8
0
10
0.000000
20
0.000000
30
0.0
40
3.5
1

3

2
MIN_VETRO:0
70
0
0
ATTDEF
8
0
10
0.000000
20
0.000000
30
0.0
40
3.5
1

3

2
MAX_VETRO:0
70
0
0
ATTDEF
8
0
10
0.000000
20
0.000000
30
0.0
40
3.5
1

3

2
JX:0
70
0
0
ATTDEF
8
0
10
0.000000
20
0.000000
30
0.0
40
3.5
1

3

2
WX:0
70
0
0
ATTDEF
8
0
10
0.000000
20
0.000000
30
0.0
40
3.5
1

3

2
JY:0
70
0
0
ATTDEF
8
0
10
0.000000
20
0.000000
30
0.0
40
3.5
1

3

2
WY:0
70
0
0
ENDSEC
0
EOF
