0
SECTION
2
ENTITIES
0
ARC
8
0
10
12224.308588
20
3205.731067
30
0.0
40
3.250000
50
55.710109
51
139.524318
0
ARC
8
0
10
12222.216714
20
3207.516162
30
0.0
40
0.500000
50
139.524318
51
240.000000
0
LINE
8
0
10
12221.966714
20
3207.083149
30
0.0
11
12222.408753
21
3206.827938
31
0.0
0
ARC
8
0
10
12222.658753
20
3207.260950
30
0.0
40
0.500000
50
240.000000
51
317.160412
0
ARC
8
0
10
12224.308588
20
3205.731067
30
0.0
40
1.750000
50
116.425961
51
137.160412
0
LINE
8
0
10
12223.529767
20
3207.298210
30
0.0
11
12223.529767
21
3207.627363
31
0.0
0
ARC
8
0
10
12224.308588
20
3205.731067
30
0.0
40
2.050000
50
67.671704
51
112.328296
0
LINE
8
0
10
12225.087410
20
3207.627363
30
0.0
11
12225.087410
21
3207.298210
31
0.0
0
ARC
8
0
10
12224.308588
20
3205.731067
30
0.0
40
1.750000
50
26.425961
51
63.574039
0
LINE
8
0
10
12225.875731
20
3206.509889
30
0.0
11
12226.204884
21
3206.509889
31
0.0
0
ARC
8
0
10
12224.308588
20
3205.731067
30
0.0
40
2.050000
50
337.671704
51
22.328296
0
LINE
8
0
10
12226.204884
20
3204.952245
30
0.0
11
12225.875731
21
3204.952245
31
0.0
0
ARC
8
0
10
12224.308588
20
3205.731067
30
0.0
40
1.750000
50
296.425961
51
333.574039
0
LINE
8
0
10
12225.087410
20
3204.163924
30
0.0
11
12225.087410
21
3203.834772
31
0.0
0
ARC
8
0
10
12224.308588
20
3205.731067
30
0.0
40
2.050000
50
247.671704
51
292.328296
0
LINE
8
0
10
12223.529767
20
3203.834772
30
0.0
11
12223.529767
21
3204.163924
31
0.0
0
ARC
8
0
10
12224.308588
20
3205.731067
30
0.0
40
1.750000
50
222.839588
51
243.574039
0
ARC
8
0
10
12222.658753
20
3204.201184
30
0.0
40
0.500000
50
42.839588
51
120.000000
0
LINE
8
0
10
12222.408753
20
3204.634197
30
0.0
11
12221.966714
21
3204.378985
31
0.0
0
ARC
8
0
10
12222.216714
20
3203.945973
30
0.0
40
0.500000
50
120.000000
51
220.475682
0
ARC
8
0
10
12224.308588
20
3205.731067
30
0.0
40
3.250000
50
220.475682
51
304.289891
0
ARC
8
0
10
12226.308588
20
3202.798065
30
0.0
40
0.300000
50
360.000000
51
124.289891
0
LINE
8
0
10
12226.608588
20
3202.798065
30
0.0
11
12226.608588
21
3196.881067
31
0.0
0
LINE
8
0
10
12226.608588
20
3196.881067
30
0.0
11
12180.008588
21
3196.881067
31
0.0
0
LINE
8
0
10
12180.008588
20
3196.881067
30
0.0
11
12180.008588
21
3214.581067
31
0.0
0
LINE
8
0
10
12180.008588
20
3214.581067
30
0.0
11
12226.608588
21
3214.581067
31
0.0
0
LINE
8
0
10
12226.608588
20
3214.581067
30
0.0
11
12226.608588
21
3208.664069
31
0.0
0
ARC
8
0
10
12226.308588
20
3208.664069
30
0.0
40
0.300000
50
235.710109
51
360.000000
0
LINE
8
0
10
12142.408588
20
3211.681067
30
0.0
11
12144.608588
21
3211.681067
31
0.0
0
ARC
8
0
10
12144.608588
20
3211.981067
30
0.0
40
0.300000
50
270.000000
51
360.000000
0
LINE
8
0
10
12144.908588
20
3211.981067
30
0.0
11
12144.908588
21
3212.381067
31
0.0
0
ARC
8
0
10
12144.608588
20
3212.381067
30
0.0
40
0.300000
50
360.000000
51
90.000000
0
LINE
8
0
10
12144.608588
20
3212.681067
30
0.0
11
12143.158588
21
3212.681067
31
0.0
0
LINE
8
0
10
12143.158588
20
3212.681067
30
0.0
11
12143.158588
21
3213.981067
31
0.0
0
LINE
8
0
10
12143.158588
20
3213.981067
30
0.0
11
12144.358588
21
3213.981067
31
0.0
0
ARC
8
0
10
12144.358588
20
3214.281067
30
0.0
40
0.300000
50
270.000000
51
360.000000
0
LINE
8
0
10
12144.658588
20
3214.281067
30
0.0
11
12144.658588
21
3214.781067
31
0.0
0
LINE
8
0
10
12144.658588
20
3214.781067
30
0.0
11
12149.158588
21
3214.781067
31
0.0
0
LINE
8
0
10
12149.158588
20
3214.781067
30
0.0
11
12149.158588
21
3214.281067
31
0.0
0
ARC
8
0
10
12149.458588
20
3214.281067
30
0.0
40
0.300000
50
180.000000
51
270.000000
0
LINE
8
0
10
12149.458588
20
3213.981067
30
0.0
11
12150.658588
21
3213.981067
31
0.0
0
LINE
8
0
10
12150.658588
20
3213.981067
30
0.0
11
12150.658588
21
3212.681067
31
0.0
0
LINE
8
0
10
12150.658588
20
3212.681067
30
0.0
11
12149.208588
21
3212.681067
31
0.0
0
ARC
8
0
10
12149.208588
20
3212.381067
30
0.0
40
0.300000
50
90.000000
51
180.000000
0
LINE
8
0
10
12148.908588
20
3212.381067
30
0.0
11
12148.908588
21
3211.981067
31
0.0
0
ARC
8
0
10
12149.208588
20
3211.981067
30
0.0
40
0.300000
50
180.000000
51
270.000000
0
LINE
8
0
10
12149.208588
20
3211.681067
30
0.0
11
12150.908588
21
3211.681067
31
0.0
0
ARC
8
0
10
12150.908588
20
3212.681067
30
0.0
40
1.000000
50
270.000000
51
360.000000
0
LINE
8
0
10
12151.908588
20
3212.681067
30
0.0
11
12151.908588
21
3214.581067
31
0.0
0
LINE
8
0
10
12151.908588
20
3214.581067
30
0.0
11
12160.908588
21
3214.581067
31
0.0
0
LINE
8
0
10
12160.908588
20
3214.581067
30
0.0
11
12160.908588
21
3214.381067
31
0.0
0
ARC
8
0
10
12161.408588
20
3214.381067
30
0.0
40
0.500000
50
180.000000
51
360.000000
0
LINE
8
0
10
12161.908588
20
3214.381067
30
0.0
11
12161.908588
21
3214.581067
31
0.0
0
LINE
8
0
10
12161.908588
20
3214.581067
30
0.0
11
12170.908588
21
3214.581067
31
0.0
0
LINE
8
0
10
12170.908588
20
3214.581067
30
0.0
11
12170.908588
21
3214.381067
31
0.0
0
ARC
8
0
10
12171.408588
20
3214.381067
30
0.0
40
0.500000
50
180.000000
51
360.000000
0
LINE
8
0
10
12171.908588
20
3214.381067
30
0.0
11
12171.908588
21
3214.581067
31
0.0
0
LINE
8
0
10
12171.908588
20
3214.581067
30
0.0
11
12178.608588
21
3214.581067
31
0.0
0
LINE
8
0
10
12178.608588
20
3214.581067
30
0.0
11
12178.608588
21
3208.664069
31
0.0
0
ARC
8
0
10
12178.308588
20
3208.664069
30
0.0
40
0.300000
50
235.710109
51
360.000000
0
ARC
8
0
10
12176.308588
20
3205.731067
30
0.0
40
3.250000
50
55.710109
51
139.524318
0
ARC
8
0
10
12174.216714
20
3207.516162
30
0.0
40
0.500000
50
139.524318
51
240.000000
0
LINE
8
0
10
12173.966714
20
3207.083149
30
0.0
11
12174.408753
21
3206.827938
31
0.0
0
ARC
8
0
10
12174.658753
20
3207.260950
30
0.0
40
0.500000
50
240.000000
51
317.160412
0
ARC
8
0
10
12176.308588
20
3205.731067
30
0.0
40
1.750000
50
116.425961
51
137.160412
0
LINE
8
0
10
12175.529767
20
3207.298210
30
0.0
11
12175.529767
21
3207.627363
31
0.0
0
ARC
8
0
10
12176.308588
20
3205.731067
30
0.0
40
2.050000
50
67.671704
51
112.328296
0
LINE
8
0
10
12177.087410
20
3207.627363
30
0.0
11
12177.087410
21
3207.298210
31
0.0
0
ARC
8
0
10
12176.308588
20
3205.731067
30
0.0
40
1.750000
50
26.425961
51
63.574039
0
LINE
8
0
10
12177.875731
20
3206.509889
30
0.0
11
12178.204884
21
3206.509889
31
0.0
0
ARC
8
0
10
12176.308588
20
3205.731067
30
0.0
40
2.050000
50
337.671704
51
22.328296
0
LINE
8
0
10
12178.204884
20
3204.952245
30
0.0
11
12177.875731
21
3204.952245
31
0.0
0
ARC
8
0
10
12176.308588
20
3205.731067
30
0.0
40
1.750000
50
296.425961
51
333.574039
0
LINE
8
0
10
12177.087410
20
3204.163924
30
0.0
11
12177.087410
21
3203.834772
31
0.0
0
ARC
8
0
10
12176.308588
20
3205.731067
30
0.0
40
2.050000
50
247.671704
51
292.328296
0
LINE
8
0
10
12175.529767
20
3203.834772
30
0.0
11
12175.529767
21
3204.163924
31
0.0
0
ARC
8
0
10
12176.308588
20
3205.731067
30
0.0
40
1.750000
50
222.839588
51
243.574039
0
ARC
8
0
10
12174.658753
20
3204.201184
30
0.0
40
0.500000
50
42.839588
51
120.000000
0
LINE
8
0
10
12174.408753
20
3204.634197
30
0.0
11
12173.966714
21
3204.378985
31
0.0
0
ARC
8
0
10
12174.216714
20
3203.945973
30
0.0
40
0.500000
50
120.000000
51
220.475682
0
ARC
8
0
10
12176.308588
20
3205.731067
30
0.0
40
3.250000
50
220.475682
51
304.289891
0
ARC
8
0
10
12178.308588
20
3202.798065
30
0.0
40
0.300000
50
360.000000
51
124.289891
0
LINE
8
0
10
12178.608588
20
3202.798065
30
0.0
11
12178.608588
21
3196.881067
31
0.0
0
LINE
8
0
10
12178.608588
20
3196.881067
30
0.0
11
12171.908588
21
3196.881067
31
0.0
0
LINE
8
0
10
12171.908588
20
3196.881067
30
0.0
11
12171.908588
21
3197.081067
31
0.0
0
ARC
8
0
10
12171.408588
20
3197.081067
30
0.0
40
0.500000
50
360.000000
51
180.000000
0
LINE
8
0
10
12170.908588
20
3197.081067
30
0.0
11
12170.908588
21
3196.881067
31
0.0
0
LINE
8
0
10
12170.908588
20
3196.881067
30
0.0
11
12161.908588
21
3196.881067
31
0.0
0
LINE
8
0
10
12161.908588
20
3196.881067
30
0.0
11
12161.908588
21
3197.081067
31
0.0
0
ARC
8
0
10
12161.408588
20
3197.081067
30
0.0
40
0.500000
50
360.000000
51
180.000000
0
LINE
8
0
10
12160.908588
20
3197.081067
30
0.0
11
12160.908588
21
3196.881067
31
0.0
0
LINE
8
0
10
12160.908588
20
3196.881067
30
0.0
11
12151.908588
21
3196.881067
31
0.0
0
LINE
8
0
10
12151.908588
20
3196.881067
30
0.0
11
12151.908588
21
3198.781067
31
0.0
0
ARC
8
0
10
12150.908588
20
3198.781067
30
0.0
40
1.000000
50
360.000000
51
90.000000
0
LINE
8
0
10
12150.908588
20
3199.781067
30
0.0
11
12149.208588
21
3199.781067
31
0.0
0
ARC
8
0
10
12149.208588
20
3199.481067
30
0.0
40
0.300000
50
90.000000
51
180.000000
0
LINE
8
0
10
12148.908588
20
3199.481067
30
0.0
11
12148.908588
21
3199.081067
31
0.0
0
ARC
8
0
10
12149.208588
20
3199.081067
30
0.0
40
0.300000
50
180.000000
51
270.000000
0
LINE
8
0
10
12149.208588
20
3198.781067
30
0.0
11
12150.658588
21
3198.781067
31
0.0
0
LINE
8
0
10
12150.658588
20
3198.781067
30
0.0
11
12150.658588
21
3197.481067
31
0.0
0
LINE
8
0
10
12150.658588
20
3197.481067
30
0.0
11
12149.458588
21
3197.481067
31
0.0
0
ARC
8
0
10
12149.458588
20
3197.181067
30
0.0
40
0.300000
50
90.000000
51
180.000000
0
LINE
8
0
10
12149.158588
20
3197.181067
30
0.0
11
12149.158588
21
3196.681067
31
0.0
0
LINE
8
0
10
12149.158588
20
3196.681067
30
0.0
11
12144.658588
21
3196.681067
31
0.0
0
LINE
8
0
10
12144.658588
20
3196.681067
30
0.0
11
12144.658588
21
3197.181067
31
0.0
0
ARC
8
0
10
12144.358588
20
3197.181067
30
0.0
40
0.300000
50
360.000000
51
90.000000
0
LINE
8
0
10
12144.358588
20
3197.481067
30
0.0
11
12143.158588
21
3197.481067
31
0.0
0
LINE
8
0
10
12143.158588
20
3197.481067
30
0.0
11
12143.158588
21
3198.781067
31
0.0
0
LINE
8
0
10
12143.158588
20
3198.781067
30
0.0
11
12144.608588
21
3198.781067
31
0.0
0
ARC
8
0
10
12144.608588
20
3199.081067
30
0.0
40
0.300000
50
270.000000
51
360.000000
0
LINE
8
0
10
12144.908588
20
3199.081067
30
0.0
11
12144.908588
21
3199.481067
31
0.0
0
ARC
8
0
10
12144.608588
20
3199.481067
30
0.0
40
0.300000
50
360.000000
51
90.000000
0
LINE
8
0
10
12144.608588
20
3199.781067
30
0.0
11
12142.408588
21
3199.781067
31
0.0
0
ARC
8
0
10
12142.408588
20
3199.281067
30
0.0
40
0.500000
50
90.000000
51
180.000000
0
LINE
8
0
10
12141.908588
20
3199.281067
30
0.0
11
12141.908588
21
3195.981067
31
0.0
0
ARC
8
0
10
12142.408588
20
3195.981067
30
0.0
40
0.500000
50
180.000000
51
270.000000
0
LINE
8
0
10
12142.408588
20
3195.481067
30
0.0
11
12241.408588
21
3195.481067
31
0.0
0
ARC
8
0
10
12241.408588
20
3195.981067
30
0.0
40
0.500000
50
270.000000
51
360.000000
0
LINE
8
0
10
12241.908588
20
3195.981067
30
0.0
11
12241.908588
21
3196.731067
31
0.0
0
LINE
8
0
10
12241.908588
20
3196.731067
30
0.0
11
12239.908588
21
3196.731067
31
0.0
0
LINE
8
0
10
12239.908588
20
3196.731067
30
0.0
11
12239.908588
21
3196.431067
31
0.0
0
LINE
8
0
10
12239.908588
20
3196.431067
30
0.0
11
12238.908588
21
3196.731067
31
0.0
0
LINE
8
0
10
12238.908588
20
3196.731067
30
0.0
11
12237.908588
21
3196.731067
31
0.0
0
LINE
8
0
10
12237.908588
20
3196.731067
30
0.0
11
12237.908588
21
3196.431067
31
0.0
0
LINE
8
0
10
12237.908588
20
3196.431067
30
0.0
11
12236.908588
21
3196.731067
31
0.0
0
LINE
8
0
10
12236.908588
20
3196.731067
30
0.0
11
12235.908588
21
3196.731067
31
0.0
0
LINE
8
0
10
12235.908588
20
3196.731067
30
0.0
11
12235.908588
21
3196.431067
31
0.0
0
LINE
8
0
10
12235.908588
20
3196.431067
30
0.0
11
12234.908588
21
3196.731067
31
0.0
0
LINE
8
0
10
12234.908588
20
3196.731067
30
0.0
11
12233.908588
21
3196.731067
31
0.0
0
LINE
8
0
10
12233.908588
20
3196.731067
30
0.0
11
12233.908588
21
3196.431067
31
0.0
0
LINE
8
0
10
12233.908588
20
3196.431067
30
0.0
11
12232.908588
21
3196.731067
31
0.0
0
LINE
8
0
10
12232.908588
20
3196.731067
30
0.0
11
12228.008588
21
3196.731067
31
0.0
0
LINE
8
0
10
12228.008588
20
3196.731067
30
0.0
11
12228.008588
21
3214.731067
31
0.0
0
LINE
8
0
10
12228.008588
20
3214.731067
30
0.0
11
12232.908588
21
3214.731067
31
0.0
0
LINE
8
0
10
12232.908588
20
3214.731067
30
0.0
11
12233.908588
21
3215.031067
31
0.0
0
LINE
8
0
10
12233.908588
20
3215.031067
30
0.0
11
12233.908588
21
3214.731067
31
0.0
0
LINE
8
0
10
12233.908588
20
3214.731067
30
0.0
11
12234.908588
21
3214.731067
31
0.0
0
LINE
8
0
10
12234.908588
20
3214.731067
30
0.0
11
12235.908588
21
3215.031067
31
0.0
0
LINE
8
0
10
12235.908588
20
3215.031067
30
0.0
11
12235.908588
21
3214.731067
31
0.0
0
LINE
8
0
10
12235.908588
20
3214.731067
30
0.0
11
12236.908588
21
3214.731067
31
0.0
0
LINE
8
0
10
12236.908588
20
3214.731067
30
0.0
11
12237.908588
21
3215.031067
31
0.0
0
LINE
8
0
10
12237.908588
20
3215.031067
30
0.0
11
12237.908588
21
3214.731067
31
0.0
0
LINE
8
0
10
12237.908588
20
3214.731067
30
0.0
11
12238.908588
21
3214.731067
31
0.0
0
LINE
8
0
10
12238.908588
20
3214.731067
30
0.0
11
12239.908588
21
3215.031067
31
0.0
0
LINE
8
0
10
12239.908588
20
3215.031067
30
0.0
11
12239.908588
21
3214.731067
31
0.0
0
LINE
8
0
10
12239.908588
20
3214.731067
30
0.0
11
12241.908588
21
3214.731067
31
0.0
0
LINE
8
0
10
12241.908588
20
3214.731067
30
0.0
11
12241.908588
21
3215.481067
31
0.0
0
ARC
8
0
10
12241.408588
20
3215.481067
30
0.0
40
0.500000
50
360.000000
51
90.000000
0
LINE
8
0
10
12241.408588
20
3215.981067
30
0.0
11
12142.408588
21
3215.981067
31
0.0
0
ARC
8
0
10
12142.408588
20
3215.481067
30
0.0
40
0.500000
50
90.000000
51
180.000000
0
LINE
8
0
10
12141.908588
20
3215.481067
30
0.0
11
12141.908588
21
3212.181067
31
0.0
0
ARC
8
0
10
12142.408588
20
3212.181067
30
0.0
40
0.500000
50
180.000000
51
270.000000
0
ATTDEF
8
0
10
0.000000
20
0.000000
30
0.0
40
3.5
1

3

2
PANE_WIDTH:0
70
0
0
ATTDEF
8
0
10
0.000000
20
0.000000
30
0.0
40
3.5
1

3

2
MIN_VETRO:0
70
0
0
ATTDEF
8
0
10
0.000000
20
0.000000
30
0.0
40
3.5
1

3

2
MAX_VETRO:0
70
0
0
ATTDEF
8
0
10
0.000000
20
0.000000
30
0.0
40
3.5
1

3

2
JX:0
70
0
0
ATTDEF
8
0
10
0.000000
20
0.000000
30
0.0
40
3.5
1

3

2
WX:0
70
0
0
ATTDEF
8
0
10
0.000000
20
0.000000
30
0.0
40
3.5
1

3

2
JY:0
70
0
0
ATTDEF
8
0
10
0.000000
20
0.000000
30
0.0
40
3.5
1

3

2
WY:0
70
0
0
ATTDEF
8
0
10
0.000000
20
0.000000
30
0.0
40
3.5
1

3

2
DESC:Zocalo 100 climalit
70
0
0
ATTDEF
8
0
10
0.000000
20
0.000000
30
0.0
40
3.5
1

3

2
DENS:1.0233
70
0
0
ATTDEF
8
0
10
0.000000
20
0.000000
30
0.0
40
3.5
1

3

2
TDEV:55.05
70
0
0
ATTDEF
8
0
10
0.000000
20
0.000000
30
0.0
40
3.5
1

3

2
TDEV2:0
70
0
0
ATTDEF
8
0
10
0.000000
20
0.000000
30
0.0
40
3.5
1

3

2
TDEV3:0
70
0
0
ATTDEF
8
0
10
0.000000
20
0.000000
30
0.0
40
3.5
1

3

2
TDEV4:0
70
0
0
ATTDEF
8
0
10
0.000000
20
0.000000
30
0.0
40
3.5
1

3

2
TDEV5:0
70
0
0
ATTDEF
8
0
10
0.000000
20
0.000000
30
0.0
40
3.5
1

3

2
PANE_WIDTH:0
70
0
0
ATTDEF
8
0
10
0.000000
20
0.000000
30
0.0
40
3.5
1

3

2
MIN_VETRO:0
70
0
0
ATTDEF
8
0
10
0.000000
20
0.000000
30
0.0
40
3.5
1

3

2
MAX_VETRO:0
70
0
0
ATTDEF
8
0
10
0.000000
20
0.000000
30
0.0
40
3.5
1

3

2
JX:0
70
0
0
ATTDEF
8
0
10
0.000000
20
0.000000
30
0.0
40
3.5
1

3

2
WX:0
70
0
0
ATTDEF
8
0
10
0.000000
20
0.000000
30
0.0
40
3.5
1

3

2
JY:0
70
0
0
ATTDEF
8
0
10
0.000000
20
0.000000
30
0.0
40
3.5
1

3

2
WY:0
70
0
0
ATTDEF
8
0
10
12241.908588
20
3214.731067
30
0.0
40
3.5
1

3

2
HC_START
70
0
0
ATTDEF
8
0
10
12141.908588
20
3213.831067
30
0.0
40
3.5
1

3

2
HC_END
70
0
0
ATTDEF
8
0
10
12141.908588
20
3215.981067
30
0.0
40
3.5
1

3

2
FP_LCS_ORIG
70
0
0
ATTDEF
8
0
10
12141.908588
20
3205.981067
30
0.0
40
3.5
1

3

2
FP_LCS_HOT
70
0
0
ATTDEF
8
0
10
12151.908588
20
3215.981067
30
0.0
40
3.5
1

3

2
FP_LCS_INTERN
70
0
0
ENDSEC
0
EOF
