0
SECTION
2
ENTITIES
0
LINE
8
0
10
11005.790399
20
2520.335293
30
0.0
11
11005.790399
21
2527.835293
31
0.0
0
LINE
8
0
10
11005.790399
20
2527.835293
30
0.0
11
11007.490399
21
2530.335293
31
0.0
0
LINE
8
0
10
11007.490399
20
2530.335293
30
0.0
11
11007.490399
21
2531.835293
31
0.0
0
LINE
8
0
10
11007.490399
20
2531.835293
30
0.0
11
11015.990399
21
2531.835293
31
0.0
0
LINE
8
0
10
11015.990399
20
2531.835293
30
0.0
11
11015.990399
21
2520.335293
31
0.0
0
ARC
8
0
10
11016.490399
20
2520.335293
30
0.0
40
0.500000
50
180.000000
51
270.000000
0
LINE
8
0
10
11016.490399
20
2519.835293
30
0.0
11
11016.840399
21
2519.835293
31
0.0
0
ARC
8
0
10
11016.847430
20
2520.380059
30
0.0
40
0.544812
50
270.000000
51
4.713205
0
LINE
8
0
10
11017.390399
20
2520.424825
30
0.0
11
11017.390399
21
2532.735293
31
0.0
0
ARC
8
0
10
11016.890399
20
2532.735293
30
0.0
40
0.500000
50
360.000000
51
90.000000
0
LINE
8
0
10
11016.890399
20
2533.235293
30
0.0
11
11015.740399
21
2533.235293
31
0.0
0
LINE
8
0
10
11015.740399
20
2533.235293
30
0.0
11
11015.740399
21
2551.835293
31
0.0
0
LINE
8
0
10
11015.740399
20
2551.835293
30
0.0
11
11009.554255
21
2551.835293
31
0.0
0
LINE
8
0
10
11009.554255
20
2551.835293
30
0.0
11
11008.828267
21
2551.109305
31
0.0
0
ARC
8
0
10
11009.040399
20
2550.897173
30
0.0
40
0.300000
50
135.000000
51
240.000000
0
LINE
8
0
10
11008.890399
20
2550.637366
30
0.0
11
11009.240399
21
2550.435293
31
0.0
0
LINE
8
0
10
11009.240399
20
2550.435293
30
0.0
11
11014.340399
21
2550.435293
31
0.0
0
LINE
8
0
10
11014.340399
20
2550.435293
30
0.0
11
11014.340399
21
2533.235293
31
0.0
0
LINE
8
0
10
11014.340399
20
2533.235293
30
0.0
11
10989.740399
21
2533.235293
31
0.0
0
LINE
8
0
10
10989.740399
20
2533.235293
30
0.0
11
10989.740399
21
2551.335293
31
0.0
0
ARC
8
0
10
10989.240399
20
2551.335293
30
0.0
40
0.500000
50
360.000000
51
90.000000
0
LINE
8
0
10
10989.240399
20
2551.835293
30
0.0
11
10986.240399
21
2551.835293
31
0.0
0
ARC
8
0
10
10986.240399
20
2551.335293
30
0.0
40
0.500000
50
90.000000
51
180.000000
0
LINE
8
0
10
10985.740399
20
2551.335293
30
0.0
11
10985.740399
21
2550.935293
31
0.0
0
ARC
8
0
10
10986.240399
20
2550.935293
30
0.0
40
0.500000
50
180.000000
51
270.000000
0
LINE
8
0
10
10986.240399
20
2550.435293
30
0.0
11
10988.340399
21
2550.435293
31
0.0
0
LINE
8
0
10
10988.340399
20
2550.435293
30
0.0
11
10988.340399
21
2533.235293
31
0.0
0
LINE
8
0
10
10988.340399
20
2533.235293
30
0.0
11
10953.140399
21
2533.235293
31
0.0
0
LINE
8
0
10
10953.140399
20
2533.235293
30
0.0
11
10953.140399
21
2550.435293
31
0.0
0
LINE
8
0
10
10953.140399
20
2550.435293
30
0.0
11
10955.240399
21
2550.435293
31
0.0
0
ARC
8
0
10
10955.240399
20
2550.935293
30
0.0
40
0.500000
50
270.000000
51
360.000000
0
LINE
8
0
10
10955.740399
20
2550.935293
30
0.0
11
10955.740399
21
2551.335293
31
0.0
0
ARC
8
0
10
10955.240399
20
2551.335293
30
0.0
40
0.500000
50
360.000000
51
90.000000
0
LINE
8
0
10
10955.240399
20
2551.835293
30
0.0
11
10952.240399
21
2551.835293
31
0.0
0
ARC
8
0
10
10952.240399
20
2551.335293
30
0.0
40
0.500000
50
90.000000
51
180.000000
0
LINE
8
0
10
10951.740399
20
2551.335293
30
0.0
11
10951.740399
21
2533.235293
31
0.0
0
LINE
8
0
10
10951.740399
20
2533.235293
30
0.0
11
10927.140399
21
2533.235293
31
0.0
0
LINE
8
0
10
10927.140399
20
2533.235293
30
0.0
11
10927.140399
21
2550.435293
31
0.0
0
LINE
8
0
10
10927.140399
20
2550.435293
30
0.0
11
10932.240399
21
2550.435293
31
0.0
0
LINE
8
0
10
10932.240399
20
2550.435293
30
0.0
11
10932.590399
21
2550.637366
31
0.0
0
ARC
8
0
10
10932.440399
20
2550.897173
30
0.0
40
0.300000
50
300.000000
51
45.000000
0
LINE
8
0
10
10932.652531
20
2551.109305
30
0.0
11
10931.926543
21
2551.835293
31
0.0
0
LINE
8
0
10
10931.926543
20
2551.835293
30
0.0
11
10925.740399
21
2551.835293
31
0.0
0
LINE
8
0
10
10925.740399
20
2551.835293
30
0.0
11
10925.740399
21
2533.235293
31
0.0
0
LINE
8
0
10
10925.740399
20
2533.235293
30
0.0
11
10924.590399
21
2533.235293
31
0.0
0
ARC
8
0
10
10924.590399
20
2532.735293
30
0.0
40
0.500000
50
90.000000
51
180.000000
0
LINE
8
0
10
10924.090399
20
2532.735293
30
0.0
11
10924.090399
21
2520.335293
31
0.0
0
ARC
8
0
10
10924.590399
20
2520.335293
30
0.0
40
0.500000
50
180.000000
51
270.000000
0
LINE
8
0
10
10924.590399
20
2519.835293
30
0.0
11
10924.990399
21
2519.835293
31
0.0
0
ARC
8
0
10
10924.990399
20
2520.335293
30
0.0
40
0.500000
50
270.000000
51
360.000000
0
LINE
8
0
10
10925.490399
20
2520.335293
30
0.0
11
10925.490399
21
2531.835293
31
0.0
0
LINE
8
0
10
10925.490399
20
2531.835293
30
0.0
11
10984.090399
21
2531.835293
31
0.0
0
LINE
8
0
10
10984.090399
20
2531.835293
30
0.0
11
10984.090399
21
2520.335293
31
0.0
0
ARC
8
0
10
10984.590399
20
2520.335293
30
0.0
40
0.500000
50
180.000000
51
270.000000
0
LINE
8
0
10
10984.590399
20
2519.835293
30
0.0
11
10984.990399
21
2519.835293
31
0.0
0
ARC
8
0
10
10984.990399
20
2520.335293
30
0.0
40
0.500000
50
270.000000
51
360.000000
0
LINE
8
0
10
10985.490399
20
2520.335293
30
0.0
11
10985.490399
21
2531.835293
31
0.0
0
LINE
8
0
10
10985.490399
20
2531.835293
30
0.0
11
10993.990399
21
2531.835293
31
0.0
0
LINE
8
0
10
10993.990399
20
2531.835293
30
0.0
11
10993.990399
21
2530.335293
31
0.0
0
LINE
8
0
10
10993.990399
20
2530.335293
30
0.0
11
10995.690399
21
2527.835293
31
0.0
0
LINE
8
0
10
10995.690399
20
2527.835293
30
0.0
11
10995.690399
21
2520.335293
31
0.0
0
ARC
8
0
10
10996.190399
20
2520.335293
30
0.0
40
0.500000
50
180.000000
51
270.000000
0
LINE
8
0
10
10996.190399
20
2519.835293
30
0.0
11
10996.490399
21
2519.835293
31
0.0
0
ARC
8
0
10
10996.490399
20
2520.335293
30
0.0
40
0.500000
50
270.000000
51
360.000000
0
LINE
8
0
10
10996.990399
20
2520.335293
30
0.0
11
10996.990399
21
2527.835293
31
0.0
0
LINE
8
0
10
10996.990399
20
2527.835293
30
0.0
11
10995.513020
21
2531.421008
31
0.0
0
ARC
8
0
10
10995.790399
20
2531.535293
30
0.0
40
0.300000
50
90.000000
51
202.392537
0
LINE
8
0
10
10995.790399
20
2531.835293
30
0.0
11
11005.690399
21
2531.835293
31
0.0
0
ARC
8
0
10
11005.690399
20
2531.535293
30
0.0
40
0.300000
50
337.607463
51
90.000000
0
LINE
8
0
10
11005.967778
20
2531.421008
30
0.0
11
11004.490399
21
2527.835293
31
0.0
0
LINE
8
0
10
11004.490399
20
2527.835293
30
0.0
11
11004.490399
21
2520.335293
31
0.0
0
ARC
8
0
10
11004.990399
20
2520.335293
30
0.0
40
0.500000
50
180.000000
51
270.000000
0
LINE
8
0
10
11004.990399
20
2519.835293
30
0.0
11
11005.290399
21
2519.835293
31
0.0
0
ARC
8
0
10
11005.290399
20
2520.335293
30
0.0
40
0.500000
50
270.000000
51
360.000000
0
ATTDEF
8
0
10
0.000000
20
0.000000
30
0.0
40
3.5
1

3

2
PANE_WIDTH:0
70
0
0
ATTDEF
8
0
10
0.000000
20
0.000000
30
0.0
40
3.5
1

3

2
MIN_VETRO:0
70
0
0
ATTDEF
8
0
10
0.000000
20
0.000000
30
0.0
40
3.5
1

3

2
MAX_VETRO:0
70
0
0
ATTDEF
8
0
10
0.000000
20
0.000000
30
0.0
40
3.5
1

3

2
JX:0
70
0
0
ATTDEF
8
0
10
0.000000
20
0.000000
30
0.0
40
3.5
1

3

2
WX:0
70
0
0
ATTDEF
8
0
10
0.000000
20
0.000000
30
0.0
40
3.5
1

3

2
JY:0
70
0
0
ATTDEF
8
0
10
0.000000
20
0.000000
30
0.0
40
3.5
1

3

2
WY:0
70
0
0
ATTDEF
8
0
10
0.000000
20
0.000000
30
0.0
40
3.5
1

3

2
DESC:Marco Lat. 3 Carrile
70
0
0
ATTDEF
8
0
10
0.000000
20
0.000000
30
0.0
40
3.5
1

3

2
DENS:0.9234
70
0
0
ATTDEF
8
0
10
0.000000
20
0.000000
30
0.0
40
3.5
1

3

2
TDEV:48.87
70
0
0
ATTDEF
8
0
10
0.000000
20
0.000000
30
0.0
40
3.5
1

3

2
TDEV2:0
70
0
0
ATTDEF
8
0
10
0.000000
20
0.000000
30
0.0
40
3.5
1

3

2
TDEV3:0
70
0
0
ATTDEF
8
0
10
0.000000
20
0.000000
30
0.0
40
3.5
1

3

2
TDEV4:0
70
0
0
ATTDEF
8
0
10
0.000000
20
0.000000
30
0.0
40
3.5
1

3

2
TDEV5:0
70
0
0
ATTDEF
8
0
10
0.000000
20
0.000000
30
0.0
40
3.5
1

3

2
PANE_WIDTH:0
70
0
0
ATTDEF
8
0
10
0.000000
20
0.000000
30
0.0
40
3.5
1

3

2
MIN_VETRO:0
70
0
0
ATTDEF
8
0
10
0.000000
20
0.000000
30
0.0
40
3.5
1

3

2
MAX_VETRO:0
70
0
0
ATTDEF
8
0
10
0.000000
20
0.000000
30
0.0
40
3.5
1

3

2
JX:0
70
0
0
ATTDEF
8
0
10
0.000000
20
0.000000
30
0.0
40
3.5
1

3

2
WX:0
70
0
0
ATTDEF
8
0
10
0.000000
20
0.000000
30
0.0
40
3.5
1

3

2
JY:0
70
0
0
ATTDEF
8
0
10
0.000000
20
0.000000
30
0.0
40
3.5
1

3

2
WY:0
70
0
0
ATTDEF
8
0
10
10925.490399
20
2531.835293
30
0.0
40
3.5
1

3

2
VC_START
70
0
0
ATTDEF
8
0
10
10925.740399
20
2551.835293
30
0.0
40
3.5
1

3

2
VC_END
70
0
0
ATTDEF
8
0
10
10924.090399
20
2551.835293
30
0.0
40
3.5
1

3

2
FP_LCS_ORIG
70
0
0
ATTDEF
8
0
10
10934.090399
20
2551.835293
30
0.0
40
3.5
1

3

2
FP_LCS_HOT
70
0
0
ATTDEF
8
0
10
10924.090399
20
2541.835293
30
0.0
40
3.5
1

3

2
FP_LCS_INTERN
70
0
0
ENDSEC
0
EOF
