0
SECTION
2
ENTITIES
0
LINE
8
0
10
12644.242442
20
3545.409790
30
0.0
11
12623.442442
21
3545.409790
31
0.0
0
LINE
8
0
10
12623.442442
20
3545.409790
30
0.0
11
12623.442442
21
3544.009790
31
0.0
0
LINE
8
0
10
12623.442442
20
3544.009790
30
0.0
11
12622.442442
21
3544.009790
31
0.0
0
LINE
8
0
10
12622.442442
20
3544.009790
30
0.0
11
12622.442442
21
3542.109790
31
0.0
0
LINE
8
0
10
12622.442442
20
3542.109790
30
0.0
11
12618.390591
21
3542.109790
31
0.0
0
LINE
8
0
10
12618.390591
20
3542.109790
30
0.0
11
12617.615435
21
3542.884946
31
0.0
0
LINE
8
0
10
12617.615435
20
3542.884946
30
0.0
11
12616.042442
21
3541.976778
31
0.0
0
ARC
8
0
10
12615.792442
20
3542.409790
30
0.0
40
0.500000
50
120.000000
51
300.000000
0
LINE
8
0
10
12615.542442
20
3542.842803
30
0.0
11
12617.447698
21
3543.942803
31
0.0
0
ARC
8
0
10
12617.697698
20
3543.509790
30
0.0
40
0.500000
50
45.000000
51
120.000000
0
LINE
8
0
10
12618.051251
20
3543.863344
30
0.0
11
12618.904805
21
3543.009790
31
0.0
0
LINE
8
0
10
12618.904805
20
3543.009790
30
0.0
11
12621.242442
21
3543.009790
31
0.0
0
LINE
8
0
10
12621.242442
20
3543.009790
30
0.0
11
12621.242442
21
3544.209790
31
0.0
0
LINE
8
0
10
12621.242442
20
3544.209790
30
0.0
11
12621.242442
21
3545.209790
31
0.0
0
LINE
8
0
10
12621.242442
20
3545.209790
30
0.0
11
12622.242442
21
3545.209790
31
0.0
0
LINE
8
0
10
12622.242442
20
3545.209790
30
0.0
11
12622.242442
21
3546.709790
31
0.0
0
LINE
8
0
10
12622.242442
20
3546.709790
30
0.0
11
12621.742442
21
3547.209790
31
0.0
0
LINE
8
0
10
12621.742442
20
3547.209790
30
0.0
11
12622.887042
21
3549.067178
31
0.0
0
ARC
8
0
10
12623.142442
20
3548.909790
30
0.0
40
0.300000
50
360.000000
51
148.356885
0
LINE
8
0
10
12623.442442
20
3548.909790
30
0.0
11
12623.442442
21
3546.609790
31
0.0
0
LINE
8
0
10
12623.442442
20
3546.609790
30
0.0
11
12644.242442
21
3546.609790
31
0.0
0
LINE
8
0
10
12644.242442
20
3546.609790
30
0.0
11
12665.042442
21
3546.609790
31
0.0
0
LINE
8
0
10
12665.042442
20
3546.609790
30
0.0
11
12665.042442
21
3548.909790
31
0.0
0
ARC
8
0
10
12665.342442
20
3548.909790
30
0.0
40
0.300000
50
31.643115
51
180.000000
0
LINE
8
0
10
12665.597842
20
3549.067178
30
0.0
11
12666.742442
21
3547.209790
31
0.0
0
LINE
8
0
10
12666.742442
20
3547.209790
30
0.0
11
12666.242442
21
3546.709790
31
0.0
0
LINE
8
0
10
12666.242442
20
3546.709790
30
0.0
11
12666.242442
21
3545.209790
31
0.0
0
LINE
8
0
10
12666.242442
20
3545.209790
30
0.0
11
12667.242442
21
3545.209790
31
0.0
0
LINE
8
0
10
12667.242442
20
3545.209790
30
0.0
11
12667.242442
21
3544.209790
31
0.0
0
LINE
8
0
10
12667.242442
20
3544.209790
30
0.0
11
12667.242442
21
3543.009790
31
0.0
0
LINE
8
0
10
12667.242442
20
3543.009790
30
0.0
11
12669.580079
21
3543.009790
31
0.0
0
LINE
8
0
10
12669.580079
20
3543.009790
30
0.0
11
12670.433633
21
3543.863344
31
0.0
0
ARC
8
0
10
12670.787186
20
3543.509790
30
0.0
40
0.500000
50
60.000000
51
135.000000
0
LINE
8
0
10
12671.037186
20
3543.942803
30
0.0
11
12672.942442
21
3542.842803
31
0.0
0
ARC
8
0
10
12672.692442
20
3542.409790
30
0.0
40
0.500000
50
240.000000
51
60.000000
0
LINE
8
0
10
12672.442442
20
3541.976778
30
0.0
11
12670.869448
21
3542.884946
31
0.0
0
LINE
8
0
10
12670.869448
20
3542.884946
30
0.0
11
12670.094293
21
3542.109790
31
0.0
0
LINE
8
0
10
12670.094293
20
3542.109790
30
0.0
11
12666.042442
21
3542.109790
31
0.0
0
LINE
8
0
10
12666.042442
20
3542.109790
30
0.0
11
12666.042442
21
3544.009790
31
0.0
0
LINE
8
0
10
12666.042442
20
3544.009790
30
0.0
11
12665.042442
21
3544.009790
31
0.0
0
LINE
8
0
10
12665.042442
20
3544.009790
30
0.0
11
12665.042442
21
3545.409790
31
0.0
0
LINE
8
0
10
12665.042442
20
3545.409790
30
0.0
11
12644.242442
21
3545.409790
31
0.0
0
ATTDEF
8
0
10
0.000000
20
0.000000
30
0.0
40
3.5
1

3

2
PANE_WIDTH:0
70
0
0
ATTDEF
8
0
10
0.000000
20
0.000000
30
0.0
40
3.5
1

3

2
MIN_VETRO:0
70
0
0
ATTDEF
8
0
10
0.000000
20
0.000000
30
0.0
40
3.5
1

3

2
MAX_VETRO:0
70
0
0
ATTDEF
8
0
10
0.000000
20
0.000000
30
0.0
40
3.5
1

3

2
JX:0
70
0
0
ATTDEF
8
0
10
0.000000
20
0.000000
30
0.0
40
3.5
1

3

2
WX:0
70
0
0
ATTDEF
8
0
10
0.000000
20
0.000000
30
0.0
40
3.5
1

3

2
JY:0
70
0
0
ATTDEF
8
0
10
0.000000
20
0.000000
30
0.0
40
3.5
1

3

2
WY:0
70
0
0
ATTDEF
8
0
10
0.000000
20
0.000000
30
0.0
40
3.5
1

3

2
DESC:Clip para bandejas y
70
0
0
ATTDEF
8
0
10
0.000000
20
0.000000
30
0.0
40
3.5
1

3

2
DENS:0.2214
70
0
0
ATTDEF
8
0
10
0.000000
20
0.000000
30
0.0
40
3.5
1

3

2
TDEV:14.4
70
0
0
ATTDEF
8
0
10
0.000000
20
0.000000
30
0.0
40
3.5
1

3

2
TDEV2:0
70
0
0
ATTDEF
8
0
10
0.000000
20
0.000000
30
0.0
40
3.5
1

3

2
TDEV3:0
70
0
0
ATTDEF
8
0
10
0.000000
20
0.000000
30
0.0
40
3.5
1

3

2
TDEV4:0
70
0
0
ATTDEF
8
0
10
0.000000
20
0.000000
30
0.0
40
3.5
1

3

2
TDEV5:0
70
0
0
ATTDEF
8
0
10
0.000000
20
0.000000
30
0.0
40
3.5
1

3

2
PANE_WIDTH:0
70
0
0
ATTDEF
8
0
10
0.000000
20
0.000000
30
0.0
40
3.5
1

3

2
MIN_VETRO:0
70
0
0
ATTDEF
8
0
10
0.000000
20
0.000000
30
0.0
40
3.5
1

3

2
MAX_VETRO:0
70
0
0
ATTDEF
8
0
10
0.000000
20
0.000000
30
0.0
40
3.5
1

3

2
JX:0
70
0
0
ATTDEF
8
0
10
0.000000
20
0.000000
30
0.0
40
3.5
1

3

2
WX:0
70
0
0
ATTDEF
8
0
10
0.000000
20
0.000000
30
0.0
40
3.5
1

3

2
JY:0
70
0
0
ATTDEF
8
0
10
0.000000
20
0.000000
30
0.0
40
3.5
1

3

2
WY:0
70
0
0
ATTDEF
8
0
10
12623.442442
20
3546.609790
30
0.0
40
3.5
1

3

2
VC_START
70
0
0
ATTDEF
8
0
10
12618.390591
20
3542.109790
30
0.0
40
3.5
1

3

2
VC_END
70
0
0
ATTDEF
8
0
10
12615.292442
20
3541.909790
30
0.0
40
3.5
1

3

2
FP_LCS_ORIG
70
0
0
ATTDEF
8
0
10
12625.292442
20
3541.909790
30
0.0
40
3.5
1

3

2
FP_LCS_HOT
70
0
0
ATTDEF
8
0
10
12615.292442
20
3551.909790
30
0.0
40
3.5
1

3

2
FP_LCS_INTERN
70
0
0
ENDSEC
0
EOF
