0
SECTION
2
ENTITIES
0
LINE
8
0
10
10377.810555
20
2031.747511
30
0.0
11
10377.810555
21
2037.747511
31
0.0
0
LINE
8
0
10
10377.810555
20
2037.747511
30
0.0
11
10384.260555
21
2037.747511
31
0.0
0
ARC
8
0
10
10384.260555
20
2038.047511
30
0.0
40
0.300000
50
270.000000
51
30.000000
0
LINE
8
0
10
10384.520363
20
2038.197511
30
0.0
11
10384.029615
21
2039.047511
31
0.0
0
LINE
8
0
10
10384.029615
20
2039.047511
30
0.0
11
10376.560555
21
2039.047511
31
0.0
0
LINE
8
0
10
10376.560555
20
2039.047511
30
0.0
11
10376.560555
21
2007.547511
31
0.0
0
ARC
8
0
10
10377.060555
20
2007.547511
30
0.0
40
0.500000
50
180.000000
51
270.000000
0
LINE
8
0
10
10377.060555
20
2007.047511
30
0.0
11
10377.310555
21
2007.047511
31
0.0
0
ARC
8
0
10
10377.310555
20
2007.547511
30
0.0
40
0.500000
50
270.000000
51
360.000000
0
LINE
8
0
10
10377.810555
20
2007.547511
30
0.0
11
10377.810555
21
2025.547511
31
0.0
0
LINE
8
0
10
10377.810555
20
2025.547511
30
0.0
11
10393.760555
21
2025.547511
31
0.0
0
LINE
8
0
10
10393.760555
20
2025.547511
30
0.0
11
10393.760555
21
2011.458023
31
0.0
0
LINE
8
0
10
10393.760555
20
2011.458023
30
0.0
11
10392.510555
21
2009.292960
31
0.0
0
ARC
8
0
10
10391.560555
20
2007.647511
30
0.0
40
1.900000
50
120.000000
51
60.000000
0
LINE
8
0
10
10390.610555
20
2009.292960
30
0.0
11
10389.360555
21
2011.458023
31
0.0
0
LINE
8
0
10
10389.360555
20
2011.458023
30
0.0
11
10389.360555
21
2011.547511
31
0.0
0
ARC
8
0
10
10388.860555
20
2011.547511
30
0.0
40
0.500000
50
360.000000
51
90.000000
0
LINE
8
0
10
10388.860555
20
2012.047511
30
0.0
11
10388.560555
21
2012.047511
31
0.0
0
ARC
8
0
10
10388.560555
20
2011.547511
30
0.0
40
0.500000
50
90.000000
51
180.000000
0
LINE
8
0
10
10388.060555
20
2011.547511
30
0.0
11
10388.060555
21
2005.094525
31
0.0
0
ARC
8
0
10
10388.560555
20
2005.094525
30
0.0
40
0.500000
50
180.000000
51
249.332684
0
ARC
8
0
10
10391.560555
20
2013.047511
30
0.0
40
9.000000
50
249.332684
51
290.667317
0
ARC
8
0
10
10394.560555
20
2005.094525
30
0.0
40
0.500000
50
290.667317
51
360.000000
0
LINE
8
0
10
10395.060555
20
2005.094525
30
0.0
11
10395.060555
21
2025.547511
31
0.0
0
LINE
8
0
10
10395.060555
20
2025.547511
30
0.0
11
10406.560555
21
2025.547511
31
0.0
0
LINE
8
0
10
10406.560555
20
2025.547511
30
0.0
11
10418.060555
21
2025.547511
31
0.0
0
LINE
8
0
10
10418.060555
20
2025.547511
30
0.0
11
10418.060555
21
2005.094525
31
0.0
0
ARC
8
0
10
10418.560555
20
2005.094525
30
0.0
40
0.500000
50
180.000000
51
249.332684
0
ARC
8
0
10
10421.560555
20
2013.047511
30
0.0
40
9.000000
50
249.332684
51
290.667317
0
ARC
8
0
10
10424.560555
20
2005.094525
30
0.0
40
0.500000
50
290.667317
51
360.000000
0
LINE
8
0
10
10425.060555
20
2005.094525
30
0.0
11
10425.060555
21
2011.547511
31
0.0
0
ARC
8
0
10
10424.560555
20
2011.547511
30
0.0
40
0.500000
50
360.000000
51
90.000000
0
LINE
8
0
10
10424.560555
20
2012.047511
30
0.0
11
10424.260555
21
2012.047511
31
0.0
0
ARC
8
0
10
10424.260555
20
2011.547511
30
0.0
40
0.500000
50
90.000000
51
180.000000
0
LINE
8
0
10
10423.760555
20
2011.547511
30
0.0
11
10423.760555
21
2011.458023
31
0.0
0
LINE
8
0
10
10423.760555
20
2011.458023
30
0.0
11
10422.510555
21
2009.292960
31
0.0
0
ARC
8
0
10
10421.560555
20
2007.647511
30
0.0
40
1.900000
50
120.000000
51
60.000000
0
LINE
8
0
10
10420.610555
20
2009.292960
30
0.0
11
10419.360555
21
2011.458023
31
0.0
0
LINE
8
0
10
10419.360555
20
2011.458023
30
0.0
11
10419.360555
21
2025.547511
31
0.0
0
LINE
8
0
10
10419.360555
20
2025.547511
30
0.0
11
10435.310555
21
2025.547511
31
0.0
0
LINE
8
0
10
10435.310555
20
2025.547511
30
0.0
11
10435.310555
21
2007.547511
31
0.0
0
ARC
8
0
10
10435.810555
20
2007.547511
30
0.0
40
0.500000
50
180.000000
51
270.000000
0
LINE
8
0
10
10435.810555
20
2007.047511
30
0.0
11
10436.060555
21
2007.047511
31
0.0
0
ARC
8
0
10
10436.060555
20
2007.547511
30
0.0
40
0.500000
50
270.000000
51
360.000000
0
LINE
8
0
10
10436.560555
20
2007.547511
30
0.0
11
10436.560555
21
2039.047511
31
0.0
0
LINE
8
0
10
10436.560555
20
2039.047511
30
0.0
11
10429.091495
21
2039.047511
31
0.0
0
LINE
8
0
10
10429.091495
20
2039.047511
30
0.0
11
10428.600747
21
2038.197511
31
0.0
0
ARC
8
0
10
10428.860555
20
2038.047511
30
0.0
40
0.300000
50
150.000000
51
270.000000
0
LINE
8
0
10
10428.860555
20
2037.747511
30
0.0
11
10435.310555
21
2037.747511
31
0.0
0
LINE
8
0
10
10435.310555
20
2037.747511
30
0.0
11
10435.310555
21
2031.747511
31
0.0
0
LINE
8
0
10
10435.310555
20
2031.747511
30
0.0
11
10435.310555
21
2026.797511
31
0.0
0
LINE
8
0
10
10435.310555
20
2026.797511
30
0.0
11
10406.560555
21
2026.797511
31
0.0
0
LINE
8
0
10
10406.560555
20
2026.797511
30
0.0
11
10377.810555
21
2026.797511
31
0.0
0
LINE
8
0
10
10377.810555
20
2026.797511
30
0.0
11
10377.810555
21
2031.747511
31
0.0
0
ATTDEF
8
0
10
0.000000
20
0.000000
30
0.0
40
3.5
1

3

2
PANE_WIDTH:0
70
0
0
ATTDEF
8
0
10
0.000000
20
0.000000
30
0.0
40
3.5
1

3

2
MIN_VETRO:0
70
0
0
ATTDEF
8
0
10
0.000000
20
0.000000
30
0.0
40
3.5
1

3

2
MAX_VETRO:0
70
0
0
ATTDEF
8
0
10
0.000000
20
0.000000
30
0.0
40
3.5
1

3

2
JX:0
70
0
0
ATTDEF
8
0
10
0.000000
20
0.000000
30
0.0
40
3.5
1

3

2
WX:0
70
0
0
ATTDEF
8
0
10
0.000000
20
0.000000
30
0.0
40
3.5
1

3

2
JY:0
70
0
0
ATTDEF
8
0
10
0.000000
20
0.000000
30
0.0
40
3.5
1

3

2
WY:0
70
0
0
ATTDEF
8
0
10
0.000000
20
0.000000
30
0.0
40
3.5
1

3

2
DESC:Marco Superior Clip
70
0
0
ATTDEF
8
0
10
0.000000
20
0.000000
30
0.0
40
3.5
1

3

2
DENS:0.7344
70
0
0
ATTDEF
8
0
10
0.000000
20
0.000000
30
0.0
40
3.5
1

3

2
TDEV:40.1
70
0
0
ATTDEF
8
0
10
0.000000
20
0.000000
30
0.0
40
3.5
1

3

2
TDEV2:0
70
0
0
ATTDEF
8
0
10
0.000000
20
0.000000
30
0.0
40
3.5
1

3

2
TDEV3:0
70
0
0
ATTDEF
8
0
10
0.000000
20
0.000000
30
0.0
40
3.5
1

3

2
TDEV4:0
70
0
0
ATTDEF
8
0
10
0.000000
20
0.000000
30
0.0
40
3.5
1

3

2
TDEV5:0
70
0
0
ATTDEF
8
0
10
0.000000
20
0.000000
30
0.0
40
3.5
1

3

2
PANE_WIDTH:0
70
0
0
ATTDEF
8
0
10
0.000000
20
0.000000
30
0.0
40
3.5
1

3

2
MIN_VETRO:0
70
0
0
ATTDEF
8
0
10
0.000000
20
0.000000
30
0.0
40
3.5
1

3

2
MAX_VETRO:0
70
0
0
ATTDEF
8
0
10
0.000000
20
0.000000
30
0.0
40
3.5
1

3

2
JX:0
70
0
0
ATTDEF
8
0
10
0.000000
20
0.000000
30
0.0
40
3.5
1

3

2
WX:0
70
0
0
ATTDEF
8
0
10
0.000000
20
0.000000
30
0.0
40
3.5
1

3

2
JY:0
70
0
0
ATTDEF
8
0
10
0.000000
20
0.000000
30
0.0
40
3.5
1

3

2
WY:0
70
0
0
ATTDEF
8
0
10
10377.810555
20
2025.547511
30
0.0
40
3.5
1

3

2
VC_START
70
0
0
ATTDEF
8
0
10
10376.560555
20
2039.047511
30
0.0
40
3.5
1

3

2
VC_END
70
0
0
ATTDEF
8
0
10
10376.560555
20
2039.047511
30
0.0
40
3.5
1

3

2
FP_LCS_ORIG
70
0
0
ATTDEF
8
0
10
10386.560555
20
2039.047511
30
0.0
40
3.5
1

3

2
FP_LCS_HOT
70
0
0
ATTDEF
8
0
10
10376.560555
20
2029.047511
30
0.0
40
3.5
1

3

2
FP_LCS_INTERN
70
0
0
ENDSEC
0
EOF
