0
SECTION
2
ENTITIES
0
LINE
8
0
10
11351.333863
20
2875.002440
30
0.0
11
11361.713032
21
2875.002440
31
0.0
0
LINE
8
0
10
11361.713032
20
2875.002440
30
0.0
11
11361.713032
21
2850.702440
31
0.0
0
LINE
8
0
10
11361.713032
20
2850.702440
30
0.0
11
11355.463032
21
2850.702440
31
0.0
0
ARC
8
0
10
11355.463032
20
2850.202440
30
0.0
40
0.500000
50
90.000000
51
180.000000
0
LINE
8
0
10
11354.963032
20
2850.202440
30
0.0
11
11354.963032
21
2849.952440
31
0.0
0
ARC
8
0
10
11355.463032
20
2849.952440
30
0.0
40
0.500000
50
180.000000
51
270.000000
0
LINE
8
0
10
11355.463032
20
2849.452440
30
0.0
11
11362.463032
21
2849.452440
31
0.0
0
ARC
8
0
10
11362.463032
20
2849.952440
30
0.0
40
0.500000
50
270.000000
51
360.000000
0
LINE
8
0
10
11362.963032
20
2849.952440
30
0.0
11
11362.963032
21
2875.752440
31
0.0
0
ARC
8
0
10
11362.463032
20
2875.752440
30
0.0
40
0.500000
50
360.000000
51
90.000000
0
LINE
8
0
10
11362.463032
20
2876.252440
30
0.0
11
11342.963032
21
2876.252440
31
0.0
0
LINE
8
0
10
11342.963032
20
2876.252440
30
0.0
11
11342.963032
21
2900.752440
31
0.0
0
ARC
8
0
10
11342.463032
20
2900.752440
30
0.0
40
0.500000
50
360.000000
51
90.000000
0
LINE
8
0
10
11342.463032
20
2901.252440
30
0.0
11
11339.463032
21
2901.252440
31
0.0
0
ARC
8
0
10
11339.463032
20
2900.752440
30
0.0
40
0.500000
50
90.000000
51
180.000000
0
LINE
8
0
10
11338.963032
20
2900.752440
30
0.0
11
11338.963032
21
2898.752440
31
0.0
0
ARC
8
0
10
11339.463032
20
2898.752440
30
0.0
40
0.500000
50
180.000000
51
270.000000
0
LINE
8
0
10
11339.463032
20
2898.252440
30
0.0
11
11339.663032
21
2898.252440
31
0.0
0
ARC
8
0
10
11339.663032
20
2898.752440
30
0.0
40
0.500000
50
270.000000
51
360.000000
0
LINE
8
0
10
11340.163032
20
2898.752440
30
0.0
11
11340.163032
21
2899.752440
31
0.0
0
LINE
8
0
10
11340.163032
20
2899.752440
30
0.0
11
11341.463032
21
2899.752440
31
0.0
0
LINE
8
0
10
11341.463032
20
2899.752440
30
0.0
11
11341.463032
21
2892.752440
31
0.0
0
LINE
8
0
10
11341.463032
20
2892.752440
30
0.0
11
11340.163032
21
2892.752440
31
0.0
0
LINE
8
0
10
11340.163032
20
2892.752440
30
0.0
11
11340.163032
21
2893.752440
31
0.0
0
ARC
8
0
10
11339.663032
20
2893.752440
30
0.0
40
0.500000
50
360.000000
51
90.000000
0
LINE
8
0
10
11339.663032
20
2894.252440
30
0.0
11
11339.463032
21
2894.252440
31
0.0
0
ARC
8
0
10
11339.463032
20
2893.752440
30
0.0
40
0.500000
50
90.000000
51
180.000000
0
LINE
8
0
10
11338.963032
20
2893.752440
30
0.0
11
11338.963032
21
2891.752440
31
0.0
0
ARC
8
0
10
11339.463032
20
2891.752440
30
0.0
40
0.500000
50
180.000000
51
270.000000
0
LINE
8
0
10
11339.463032
20
2891.252440
30
0.0
11
11341.713032
21
2891.252440
31
0.0
0
LINE
8
0
10
11341.713032
20
2891.252440
30
0.0
11
11341.713032
21
2876.252440
31
0.0
0
LINE
8
0
10
11341.713032
20
2876.252440
30
0.0
11
11323.963032
21
2876.252440
31
0.0
0
LINE
8
0
10
11323.963032
20
2876.252440
30
0.0
11
11323.963032
21
2881.252440
31
0.0
0
LINE
8
0
10
11323.963032
20
2881.252440
30
0.0
11
11321.463032
21
2881.252440
31
0.0
0
LINE
8
0
10
11321.463032
20
2881.252440
30
0.0
11
11320.463032
21
2880.252440
31
0.0
0
LINE
8
0
10
11320.463032
20
2880.252440
30
0.0
11
11320.463032
21
2879.252440
31
0.0
0
LINE
8
0
10
11320.463032
20
2879.252440
30
0.0
11
11322.463032
21
2879.252440
31
0.0
0
LINE
8
0
10
11322.463032
20
2879.252440
30
0.0
11
11322.463032
21
2876.252440
31
0.0
0
LINE
8
0
10
11322.463032
20
2876.252440
30
0.0
11
11304.463032
21
2876.252440
31
0.0
0
LINE
8
0
10
11304.463032
20
2876.252440
30
0.0
11
11304.463032
21
2879.252440
31
0.0
0
LINE
8
0
10
11304.463032
20
2879.252440
30
0.0
11
11306.463032
21
2879.252440
31
0.0
0
LINE
8
0
10
11306.463032
20
2879.252440
30
0.0
11
11306.463032
21
2880.252440
31
0.0
0
LINE
8
0
10
11306.463032
20
2880.252440
30
0.0
11
11305.463032
21
2881.252440
31
0.0
0
LINE
8
0
10
11305.463032
20
2881.252440
30
0.0
11
11302.963032
21
2881.252440
31
0.0
0
LINE
8
0
10
11302.963032
20
2881.252440
30
0.0
11
11302.963032
21
2849.952440
31
0.0
0
ARC
8
0
10
11303.463032
20
2849.952440
30
0.0
40
0.500000
50
180.000000
51
270.000000
0
LINE
8
0
10
11303.463032
20
2849.452440
30
0.0
11
11310.463032
21
2849.452440
31
0.0
0
ARC
8
0
10
11310.463032
20
2849.952440
30
0.0
40
0.500000
50
270.000000
51
360.000000
0
LINE
8
0
10
11310.963032
20
2849.952440
30
0.0
11
11310.963032
21
2850.202440
31
0.0
0
ARC
8
0
10
11310.463032
20
2850.202440
30
0.0
40
0.500000
50
360.000000
51
90.000000
0
LINE
8
0
10
11310.463032
20
2850.702440
30
0.0
11
11304.213032
21
2850.702440
31
0.0
0
LINE
8
0
10
11304.213032
20
2850.702440
30
0.0
11
11304.213032
21
2875.002440
31
0.0
0
LINE
8
0
10
11304.213032
20
2875.002440
30
0.0
11
11314.592202
21
2875.002440
31
0.0
0
ARC
8
0
10
11314.592202
20
2874.502440
30
0.0
40
0.500000
50
337.445526
51
90.000000
0
ARC
8
0
10
11317.963032
20
2873.102440
30
0.0
40
3.150000
50
157.445526
51
225.668912
0
ARC
8
0
10
11316.198553
20
2871.296273
30
0.0
40
0.625000
50
225.668912
51
45.668912
0
ARC
8
0
10
11317.963032
20
2873.102440
30
0.0
40
1.900000
50
314.331088
51
225.668912
0
ARC
8
0
10
11319.727511
20
2871.296273
30
0.0
40
0.625000
50
134.331088
51
314.331088
0
ARC
8
0
10
11317.963032
20
2873.102440
30
0.0
40
3.150000
50
314.331088
51
22.554474
0
ARC
8
0
10
11321.333863
20
2874.502440
30
0.0
40
0.500000
50
90.000000
51
202.554474
0
LINE
8
0
10
11321.333863
20
2875.002440
30
0.0
11
11323.763032
21
2875.002440
31
0.0
0
LINE
8
0
10
11323.763032
20
2875.002440
30
0.0
11
11332.963032
21
2875.002440
31
0.0
0
LINE
8
0
10
11332.963032
20
2875.002440
30
0.0
11
11342.163032
21
2875.002440
31
0.0
0
LINE
8
0
10
11342.163032
20
2875.002440
30
0.0
11
11344.592202
21
2875.002440
31
0.0
0
ARC
8
0
10
11344.592202
20
2874.502440
30
0.0
40
0.500000
50
337.445526
51
90.000000
0
ARC
8
0
10
11347.963032
20
2873.102440
30
0.0
40
3.150000
50
157.445526
51
225.668912
0
ARC
8
0
10
11346.198553
20
2871.296273
30
0.0
40
0.625000
50
225.668912
51
45.668912
0
ARC
8
0
10
11347.963032
20
2873.102440
30
0.0
40
1.900000
50
314.331088
51
225.668912
0
ARC
8
0
10
11349.727511
20
2871.296273
30
0.0
40
0.625000
50
134.331088
51
314.331088
0
ARC
8
0
10
11347.963032
20
2873.102440
30
0.0
40
3.150000
50
314.331088
51
22.554474
0
ARC
8
0
10
11351.333863
20
2874.502440
30
0.0
40
0.500000
50
90.000000
51
202.554474
0
ATTDEF
8
0
10
0.000000
20
0.000000
30
0.0
40
3.5
1

3

2
PANE_WIDTH:0
70
0
0
ATTDEF
8
0
10
0.000000
20
0.000000
30
0.0
40
3.5
1

3

2
MIN_VETRO:0
70
0
0
ATTDEF
8
0
10
0.000000
20
0.000000
30
0.0
40
3.5
1

3

2
MAX_VETRO:0
70
0
0
ATTDEF
8
0
10
0.000000
20
0.000000
30
0.0
40
3.5
1

3

2
JX:0
70
0
0
ATTDEF
8
0
10
0.000000
20
0.000000
30
0.0
40
3.5
1

3

2
WX:0
70
0
0
ATTDEF
8
0
10
0.000000
20
0.000000
30
0.0
40
3.5
1

3

2
JY:0
70
0
0
ATTDEF
8
0
10
0.000000
20
0.000000
30
0.0
40
3.5
1

3

2
WY:0
70
0
0
ATTDEF
8
0
10
0.000000
20
0.000000
30
0.0
40
3.5
1

3

2
DESC:Marco Fijo
70
0
0
ATTDEF
8
0
10
0.000000
20
0.000000
30
0.0
40
3.5
1

3

2
DENS:0.6642
70
0
0
ATTDEF
8
0
10
0.000000
20
0.000000
30
0.0
40
3.5
1

3

2
TDEV:37.36
70
0
0
ATTDEF
8
0
10
0.000000
20
0.000000
30
0.0
40
3.5
1

3

2
TDEV2:0
70
0
0
ATTDEF
8
0
10
0.000000
20
0.000000
30
0.0
40
3.5
1

3

2
TDEV3:0
70
0
0
ATTDEF
8
0
10
0.000000
20
0.000000
30
0.0
40
3.5
1

3

2
TDEV4:0
70
0
0
ATTDEF
8
0
10
0.000000
20
0.000000
30
0.0
40
3.5
1

3

2
TDEV5:0
70
0
0
ATTDEF
8
0
10
0.000000
20
0.000000
30
0.0
40
3.5
1

3

2
PANE_WIDTH:0
70
0
0
ATTDEF
8
0
10
0.000000
20
0.000000
30
0.0
40
3.5
1

3

2
MIN_VETRO:0
70
0
0
ATTDEF
8
0
10
0.000000
20
0.000000
30
0.0
40
3.5
1

3

2
MAX_VETRO:0
70
0
0
ATTDEF
8
0
10
0.000000
20
0.000000
30
0.0
40
3.5
1

3

2
JX:0
70
0
0
ATTDEF
8
0
10
0.000000
20
0.000000
30
0.0
40
3.5
1

3

2
WX:0
70
0
0
ATTDEF
8
0
10
0.000000
20
0.000000
30
0.0
40
3.5
1

3

2
JY:0
70
0
0
ATTDEF
8
0
10
0.000000
20
0.000000
30
0.0
40
3.5
1

3

2
WY:0
70
0
0
ATTDEF
8
0
10
11302.963032
20
2881.252440
30
0.0
40
3.5
1

3

2
VC_START
70
0
0
ATTDEF
8
0
10
11358.963032
20
2849.452440
30
0.0
40
3.5
1

3

2
VC_END
70
0
0
ATTDEF
8
0
10
11362.963032
20
2849.452440
30
0.0
40
3.5
1

3

2
FP_LCS_ORIG
70
0
0
ATTDEF
8
0
10
11352.963032
20
2849.452440
30
0.0
40
3.5
1

3

2
FP_LCS_HOT
70
0
0
ATTDEF
8
0
10
11362.963032
20
2859.452440
30
0.0
40
3.5
1

3

2
FP_LCS_INTERN
70
0
0
ENDSEC
0
EOF
