0
SECTION
2
ENTITIES
0
LINE
8
00_ALUMINIO
10
145.208236
20
124.051628
30
0.0
11
145.208236
21
140.851628
31
0.0
0
LINE
8
00_ALUMINIO
10
145.208236
20
140.851628
30
0.0
11
164.508236
21
140.851628
31
0.0
0
LINE
8
00_ALUMINIO
10
164.508236
20
140.851628
30
0.0
11
164.508236
21
139.251628
31
0.0
0
LINE
8
00_ALUMINIO
10
164.508236
20
139.251628
30
0.0
11
166.108236
21
139.251628
31
0.0
0
LINE
8
00_ALUMINIO
10
166.108236
20
139.251628
30
0.0
11
166.108236
21
140.851628
31
0.0
0
LINE
8
00_ALUMINIO
10
166.108236
20
140.851628
30
0.0
11
174.508236
21
140.851628
31
0.0
0
LINE
8
00_ALUMINIO
10
174.508236
20
140.851628
30
0.0
11
174.508236
21
124.051628
31
0.0
0
LINE
8
00_ALUMINIO
10
174.508236
20
124.051628
30
0.0
11
166.108236
21
124.051628
31
0.0
0
LINE
8
00_ALUMINIO
10
166.108236
20
124.051628
30
0.0
11
166.108236
21
125.651628
31
0.0
0
LINE
8
00_ALUMINIO
10
166.108236
20
125.651628
30
0.0
11
164.508236
21
125.651628
31
0.0
0
LINE
8
00_ALUMINIO
10
164.508236
20
125.651628
30
0.0
11
164.508236
21
124.051628
31
0.0
0
LINE
8
00_ALUMINIO
10
164.508236
20
124.051628
30
0.0
11
145.208236
21
124.051628
31
0.0
0
ARC
8
00_ALUMINIO
10
176.408236
20
140.779798
30
0.0
40
0.300000
50
347.192367
51
90.000000
0
LINE
8
00_ALUMINIO
10
176.408236
20
141.079798
30
0.0
11
176.108236
21
141.079798
31
0.0
0
ARC
8
00_ALUMINIO
10
176.108236
20
140.779798
30
0.0
40
0.300000
50
90.000000
51
270.000000
0
LINE
8
00_ALUMINIO
10
176.108236
20
140.479798
30
0.0
11
176.108236
21
135.979798
31
0.0
0
ARC
8
00_ALUMINIO
10
176.308236
20
135.979798
30
0.0
40
0.200000
50
180.000000
51
300.000000
0
LINE
8
00_ALUMINIO
10
176.408236
20
135.806593
30
0.0
11
178.208333
21
136.845879
31
0.0
0
ARC
8
00_ALUMINIO
10
178.408236
20
136.852101
30
0.0
40
0.200000
50
0.000000
51
181.782862
0
LINE
8
00_ALUMINIO
10
178.608236
20
136.852101
30
0.0
11
178.608236
21
135.460183
31
0.0
0
ARC
8
00_ALUMINIO
10
178.408236
20
135.460183
30
0.0
40
0.200000
50
300.000000
51
0.000000
0
LINE
8
00_ALUMINIO
10
178.508236
20
135.286977
30
0.0
11
176.458236
21
134.103409
31
0.0
0
ARC
8
00_ALUMINIO
10
176.808236
20
133.497192
30
0.0
40
0.700000
50
120.000000
51
180.000000
0
LINE
8
00_ALUMINIO
10
176.108236
20
133.497192
30
0.0
11
176.108236
21
131.406064
31
0.0
0
ARC
8
00_ALUMINIO
10
176.808236
20
131.406064
30
0.0
40
0.700000
50
180.000000
51
240.000000
0
LINE
8
00_ALUMINIO
10
176.458236
20
130.799847
30
0.0
11
178.508236
21
129.616279
31
0.0
0
ARC
8
00_ALUMINIO
10
178.408236
20
129.443073
30
0.0
40
0.200000
50
0.000000
51
60.000000
0
LINE
8
00_ALUMINIO
10
178.608236
20
129.443073
30
0.0
11
178.608236
21
128.051155
31
0.0
0
ARC
8
00_ALUMINIO
10
178.408236
20
128.051155
30
0.0
40
0.200000
50
178.217138
51
0.000000
0
LINE
8
00_ALUMINIO
10
178.208333
20
128.057377
30
0.0
11
176.408236
21
129.096663
31
0.0
0
ARC
8
00_ALUMINIO
10
176.308236
20
128.923458
30
0.0
40
0.200000
50
60.000000
51
180.000000
0
LINE
8
00_ALUMINIO
10
176.108236
20
128.923458
30
0.0
11
176.108236
21
124.423458
31
0.0
0
ARC
8
00_ALUMINIO
10
176.108236
20
124.123458
30
0.0
40
0.300000
50
90.000000
51
270.000000
0
LINE
8
00_ALUMINIO
10
176.108236
20
123.823458
30
0.0
11
176.408236
21
123.823458
31
0.0
0
ARC
8
00_ALUMINIO
10
176.408236
20
124.123458
30
0.0
40
0.300000
50
270.000000
51
12.807633
0
LINE
8
00_ALUMINIO
10
176.700772
20
124.189962
30
0.0
11
178.514276
21
124.852588
31
0.0
0
ARC
8
00_ALUMINIO
10
178.702155
20
124.921155
30
0.0
40
0.200000
50
19.039809
51
200.049592
0
LINE
8
00_ALUMINIO
10
178.891213
20
124.986400
30
0.0
11
180.108165
21
121.773647
31
0.0
0
ARC
8
00_ALUMINIO
10
179.808236
20
121.767095
30
0.0
40
0.300000
50
255.605413
51
1.251415
0
LINE
8
00_ALUMINIO
10
179.733657
20
121.476513
30
0.0
11
179.723755
21
121.479191
31
0.0
0
LINE
8
00_ALUMINIO
10
179.723755
20
121.479191
30
0.0
11
178.708236
21
121.758458
31
0.0
0
LINE
8
00_ALUMINIO
10
178.708236
20
121.758458
30
0.0
11
178.708236
21
121.973458
31
0.0
0
LINE
8
00_ALUMINIO
10
178.708236
20
121.973458
30
0.0
11
178.475988
21
122.530855
31
0.0
0
ARC
8
00_ALUMINIO
10
177.514802
20
122.253561
30
0.0
40
1.000000
50
16.092391
51
106.509063
0
LINE
8
00_ALUMINIO
10
177.230800
20
123.211777
30
0.0
11
176.436461
21
122.921195
31
0.0
0
ARC
8
00_ALUMINIO
10
176.608236
20
122.451628
30
0.0
40
0.500000
50
110.093329
51
180.000000
0
LINE
8
00_ALUMINIO
10
176.108236
20
122.451628
30
0.0
11
163.408236
21
122.451628
31
0.0
0
LINE
8
00_ALUMINIO
10
163.408236
20
122.451628
30
0.0
11
163.408236
21
117.951628
31
0.0
0
ARC
8
00_ALUMINIO
10
162.908236
20
117.951628
30
0.0
40
0.500000
50
270.000000
51
0.000000
0
LINE
8
00_ALUMINIO
10
162.908236
20
117.451628
30
0.0
11
160.815343
21
117.451628
31
0.0
0
ARC
8
00_ALUMINIO
10
160.815343
20
117.951628
30
0.0
40
0.500000
50
225.000000
51
270.000000
0
LINE
8
00_ALUMINIO
10
160.461790
20
117.598075
30
0.0
11
159.754683
21
118.305181
31
0.0
0
ARC
8
00_ALUMINIO
10
160.108236
20
118.658735
30
0.0
40
0.500000
50
180.000000
51
225.000000
0
LINE
8
00_ALUMINIO
10
159.608236
20
118.658735
30
0.0
11
159.608236
21
119.451628
31
0.0
0
LINE
8
00_ALUMINIO
10
159.608236
20
119.451628
30
0.0
11
161.608236
21
119.451628
31
0.0
0
LINE
8
00_ALUMINIO
10
161.608236
20
119.451628
30
0.0
11
161.608236
21
122.451628
31
0.0
0
LINE
8
00_ALUMINIO
10
161.608236
20
122.451628
30
0.0
11
145.608236
21
122.451628
31
0.0
0
LINE
8
00_ALUMINIO
10
145.608236
20
122.451628
30
0.0
11
145.608236
21
119.451628
31
0.0
0
LINE
8
00_ALUMINIO
10
145.608236
20
119.451628
30
0.0
11
147.608236
21
119.451628
31
0.0
0
LINE
8
00_ALUMINIO
10
147.608236
20
119.451628
30
0.0
11
147.608236
21
118.658735
31
0.0
0
ARC
8
00_ALUMINIO
10
147.108236
20
118.658735
30
0.0
40
0.500000
50
315.000000
51
0.000000
0
LINE
8
00_ALUMINIO
10
147.461790
20
118.305181
30
0.0
11
146.754683
21
117.598075
31
0.0
0
ARC
8
00_ALUMINIO
10
146.401130
20
117.951628
30
0.0
40
0.500000
50
270.000000
51
315.000000
0
LINE
8
00_ALUMINIO
10
146.401130
20
117.451628
30
0.0
11
145.232501
21
117.451628
31
0.0
0
ARC
8
00_ALUMINIO
10
145.232501
20
117.751628
30
0.0
40
0.300000
50
225.000000
51
270.000000
0
LINE
8
00_ALUMINIO
10
145.020368
20
117.539496
30
0.0
11
143.696104
21
118.863760
31
0.0
0
ARC
8
00_ALUMINIO
10
143.908236
20
119.075892
30
0.0
40
0.300000
50
180.000000
51
225.000000
0
LINE
8
00_ALUMINIO
10
143.608236
20
119.075892
30
0.0
11
143.608236
21
145.827364
31
0.0
0
ARC
8
00_ALUMINIO
10
143.908236
20
145.827364
30
0.0
40
0.300000
50
135.000000
51
180.000000
0
LINE
8
00_ALUMINIO
10
143.696104
20
146.039496
30
0.0
11
145.020368
21
147.363760
31
0.0
0
ARC
8
00_ALUMINIO
10
145.232501
20
147.151628
30
0.0
40
0.300000
50
90.000000
51
135.000000
0
LINE
8
00_ALUMINIO
10
145.232501
20
147.451628
30
0.0
11
146.401130
21
147.451628
31
0.0
0
ARC
8
00_ALUMINIO
10
146.401130
20
146.951628
30
0.0
40
0.500000
50
45.000000
51
90.000000
0
LINE
8
00_ALUMINIO
10
146.754683
20
147.305181
30
0.0
11
147.461790
21
146.598075
31
0.0
0
ARC
8
00_ALUMINIO
10
147.108236
20
146.244521
30
0.0
40
0.500000
50
0.000000
51
45.000000
0
LINE
8
00_ALUMINIO
10
147.608236
20
146.244521
30
0.0
11
147.608236
21
145.451628
31
0.0
0
LINE
8
00_ALUMINIO
10
147.608236
20
145.451628
30
0.0
11
145.608236
21
145.451628
31
0.0
0
LINE
8
00_ALUMINIO
10
145.608236
20
145.451628
30
0.0
11
145.608236
21
142.451628
31
0.0
0
LINE
8
00_ALUMINIO
10
145.608236
20
142.451628
30
0.0
11
161.608236
21
142.451628
31
0.0
0
LINE
8
00_ALUMINIO
10
161.608236
20
142.451628
30
0.0
11
161.608236
21
145.451628
31
0.0
0
LINE
8
00_ALUMINIO
10
161.608236
20
145.451628
30
0.0
11
159.608236
21
145.451628
31
0.0
0
LINE
8
00_ALUMINIO
10
159.608236
20
145.451628
30
0.0
11
159.608236
21
146.244521
31
0.0
0
ARC
8
00_ALUMINIO
10
160.108236
20
146.244521
30
0.0
40
0.500000
50
135.000000
51
180.000000
0
LINE
8
00_ALUMINIO
10
159.754683
20
146.598075
30
0.0
11
160.461790
21
147.305181
31
0.0
0
ARC
8
00_ALUMINIO
10
160.815343
20
146.951628
30
0.0
40
0.500000
50
90.000000
51
135.000000
0
LINE
8
00_ALUMINIO
10
160.815343
20
147.451628
30
0.0
11
162.908236
21
147.451628
31
0.0
0
ARC
8
00_ALUMINIO
10
162.908236
20
146.951628
30
0.0
40
0.500000
50
0.000000
51
90.000000
0
LINE
8
00_ALUMINIO
10
163.408236
20
146.951628
30
0.0
11
163.408236
21
142.451628
31
0.0
0
LINE
8
00_ALUMINIO
10
163.408236
20
142.451628
30
0.0
11
176.108236
21
142.451628
31
0.0
0
ARC
8
00_ALUMINIO
10
176.608236
20
142.451628
30
0.0
40
0.500000
50
180.000000
51
249.906671
0
LINE
8
00_ALUMINIO
10
176.436461
20
141.982061
30
0.0
11
177.230800
21
141.691479
31
0.0
0
ARC
8
00_ALUMINIO
10
177.514802
20
142.649695
30
0.0
40
1.000000
50
253.490937
51
343.907609
0
LINE
8
00_ALUMINIO
10
178.475988
20
142.372401
30
0.0
11
178.708236
21
142.929798
31
0.0
0
LINE
8
00_ALUMINIO
10
178.708236
20
142.929798
30
0.0
11
178.708236
21
143.144798
31
0.0
0
LINE
8
00_ALUMINIO
10
178.708236
20
143.144798
30
0.0
11
179.723755
21
143.424065
31
0.0
0
LINE
8
00_ALUMINIO
10
179.723755
20
143.424065
30
0.0
11
179.733657
21
143.426743
31
0.0
0
ARC
8
00_ALUMINIO
10
179.808236
20
143.136161
30
0.0
40
0.300000
50
358.748585
51
104.394587
0
LINE
8
00_ALUMINIO
10
180.108165
20
143.129609
30
0.0
11
178.891213
21
139.916856
31
0.0
0
ARC
8
00_ALUMINIO
10
178.702155
20
139.982101
30
0.0
40
0.200000
50
159.950408
51
340.960191
0
LINE
8
00_ALUMINIO
10
178.514276
20
140.050668
30
0.0
11
176.700772
21
140.713294
31
0.0
0
LINE
8
00_ALUMINIO
10
211.108236
20
128.923458
30
0.0
11
211.108236
21
124.423458
31
0.0
0
ARC
8
00_ALUMINIO
10
211.108236
20
124.123458
30
0.0
40
0.300000
50
270.000000
51
90.000000
0
LINE
8
00_ALUMINIO
10
211.108236
20
123.823458
30
0.0
11
210.808236
21
123.823458
31
0.0
0
ARC
8
00_ALUMINIO
10
210.808236
20
124.123458
30
0.0
40
0.300000
50
167.192367
51
270.000000
0
LINE
8
00_ALUMINIO
10
210.515701
20
124.189962
30
0.0
11
208.702197
21
124.852588
31
0.0
0
ARC
8
00_ALUMINIO
10
208.514318
20
124.921155
30
0.0
40
0.200000
50
339.950408
51
160.960191
0
LINE
8
00_ALUMINIO
10
208.325260
20
124.986400
30
0.0
11
207.108308
21
121.773647
31
0.0
0
ARC
8
00_ALUMINIO
10
207.408236
20
121.767095
30
0.0
40
0.300000
50
178.748585
51
284.394588
0
LINE
8
00_ALUMINIO
10
207.482816
20
121.476513
30
0.0
11
207.492718
21
121.479191
31
0.0
0
LINE
8
00_ALUMINIO
10
207.492718
20
121.479191
30
0.0
11
208.508236
21
121.758458
31
0.0
0
LINE
8
00_ALUMINIO
10
208.508236
20
121.758458
30
0.0
11
208.508236
21
121.973458
31
0.0
0
LINE
8
00_ALUMINIO
10
208.508236
20
121.973458
30
0.0
11
208.740485
21
122.530855
31
0.0
0
ARC
8
00_ALUMINIO
10
209.701671
20
122.253561
30
0.0
40
1.000000
50
73.490937
51
163.907609
0
LINE
8
00_ALUMINIO
10
209.985673
20
123.211777
30
0.0
11
210.780012
21
122.921195
31
0.0
0
ARC
8
00_ALUMINIO
10
210.608236
20
122.451628
30
0.0
40
0.500000
50
0.000000
51
69.906671
0
LINE
8
00_ALUMINIO
10
211.108236
20
122.451628
30
0.0
11
211.108236
21
117.951628
31
0.0
0
ARC
8
00_ALUMINIO
10
211.608236
20
117.951628
30
0.0
40
0.500000
50
180.000000
51
270.000000
0
LINE
8
00_ALUMINIO
10
211.608236
20
117.451628
30
0.0
11
213.701130
21
117.451628
31
0.0
0
ARC
8
00_ALUMINIO
10
213.701130
20
117.951628
30
0.0
40
0.500000
50
270.000000
51
315.000000
0
LINE
8
00_ALUMINIO
10
214.054683
20
117.598075
30
0.0
11
214.761790
21
118.305181
31
0.0
0
ARC
8
00_ALUMINIO
10
214.408236
20
118.658735
30
0.0
40
0.500000
50
315.000000
51
0.000000
0
LINE
8
00_ALUMINIO
10
214.908236
20
118.658735
30
0.0
11
214.908236
21
119.451628
31
0.0
0
LINE
8
00_ALUMINIO
10
214.908236
20
119.451628
30
0.0
11
212.908236
21
119.451628
31
0.0
0
LINE
8
00_ALUMINIO
10
212.908236
20
119.451628
30
0.0
11
212.908236
21
122.451628
31
0.0
0
LINE
8
00_ALUMINIO
10
212.908236
20
122.451628
30
0.0
11
237.808237
21
122.451628
31
0.0
0
LINE
8
00_ALUMINIO
10
237.808237
20
122.451628
30
0.0
11
237.808237
21
117.951628
31
0.0
0
ARC
8
00_ALUMINIO
10
238.308237
20
117.951628
30
0.0
40
0.500000
50
180.000000
51
270.000000
0
LINE
8
00_ALUMINIO
10
238.308237
20
117.451628
30
0.0
11
240.401130
21
117.451628
31
0.0
0
ARC
8
00_ALUMINIO
10
240.401130
20
117.951628
30
0.0
40
0.500000
50
270.000000
51
315.000000
0
LINE
8
00_ALUMINIO
10
240.754683
20
117.598075
30
0.0
11
241.461790
21
118.305181
31
0.0
0
ARC
8
00_ALUMINIO
10
241.108237
20
118.658735
30
0.0
40
0.500000
50
315.000000
51
0.000000
0
LINE
8
00_ALUMINIO
10
241.608237
20
118.658735
30
0.0
11
241.608237
21
119.451628
31
0.0
0
LINE
8
00_ALUMINIO
10
241.608237
20
119.451628
30
0.0
11
239.608237
21
119.451628
31
0.0
0
LINE
8
00_ALUMINIO
10
239.608237
20
119.451628
30
0.0
11
239.608237
21
122.451628
31
0.0
0
LINE
8
00_ALUMINIO
10
239.608237
20
122.451628
30
0.0
11
255.608237
21
122.451628
31
0.0
0
LINE
8
00_ALUMINIO
10
255.608237
20
122.451628
30
0.0
11
255.608237
21
119.451628
31
0.0
0
LINE
8
00_ALUMINIO
10
255.608237
20
119.451628
30
0.0
11
253.608237
21
119.451628
31
0.0
0
LINE
8
00_ALUMINIO
10
253.608237
20
119.451628
30
0.0
11
253.608237
21
118.658735
31
0.0
0
ARC
8
00_ALUMINIO
10
254.108237
20
118.658735
30
0.0
40
0.500000
50
180.000000
51
225.000000
0
LINE
8
00_ALUMINIO
10
253.754683
20
118.305181
30
0.0
11
254.461790
21
117.598075
31
0.0
0
ARC
8
00_ALUMINIO
10
254.815344
20
117.951628
30
0.0
40
0.500000
50
225.000000
51
270.000000
0
LINE
8
00_ALUMINIO
10
254.815344
20
117.451628
30
0.0
11
255.983973
21
117.451628
31
0.0
0
ARC
8
00_ALUMINIO
10
255.983973
20
117.751628
30
0.0
40
0.300000
50
270.000000
51
315.000000
0
LINE
8
00_ALUMINIO
10
256.196105
20
117.539496
30
0.0
11
257.520369
21
118.863760
31
0.0
0
ARC
8
00_ALUMINIO
10
257.308237
20
119.075892
30
0.0
40
0.300000
50
315.000000
51
0.000000
0
LINE
8
00_ALUMINIO
10
257.608237
20
119.075892
30
0.0
11
257.608237
21
135.299862
31
0.0
0
ARC
8
00_ALUMINIO
10
258.108237
20
135.299862
30
0.0
40
0.500000
50
85.000000
51
180.000000
0
LINE
8
00_ALUMINIO
10
258.151815
20
135.797959
30
0.0
11
263.651815
21
135.316772
31
0.0
0
ARC
8
00_ALUMINIO
10
263.608237
20
134.818674
30
0.0
40
0.500000
50
0.000000
51
85.000000
0
LINE
8
00_ALUMINIO
10
264.108237
20
134.818674
30
0.0
11
264.108237
21
132.951628
31
0.0
0
ARC
8
00_ALUMINIO
10
264.608237
20
132.951628
30
0.0
40
0.500000
50
180.000000
51
270.000000
0
LINE
8
00_ALUMINIO
10
264.608237
20
132.451628
30
0.0
11
265.108237
21
132.451628
31
0.0
0
ARC
8
00_ALUMINIO
10
265.108237
20
132.951628
30
0.0
40
0.500000
50
270.000000
51
0.000000
0
LINE
8
00_ALUMINIO
10
265.608237
20
132.951628
30
0.0
11
265.608237
21
168.949407
31
0.0
0
ARC
8
00_ALUMINIO
10
265.108237
20
168.949407
30
0.0
40
0.500000
50
0.000000
51
60.000000
0
LINE
8
00_ALUMINIO
10
265.358237
20
169.382419
30
0.0
11
260.158237
21
172.384641
31
0.0
0
ARC
8
00_ALUMINIO
10
259.908237
20
171.951628
30
0.0
40
0.500000
50
60.000000
51
90.000000
0
LINE
8
00_ALUMINIO
10
259.908237
20
172.451628
30
0.0
11
258.408237
21
172.451628
31
0.0
0
ARC
8
00_ALUMINIO
10
258.408237
20
171.951628
30
0.0
40
0.500000
50
90.000000
51
180.000000
0
LINE
8
00_ALUMINIO
10
257.908237
20
171.951628
30
0.0
11
257.908237
21
170.101628
31
0.0
0
ARC
8
00_ALUMINIO
10
258.408237
20
170.101628
30
0.0
40
0.500000
50
180.000000
51
270.000000
0
LINE
8
00_ALUMINIO
10
258.408237
20
169.601628
30
0.0
11
259.108237
21
169.601628
31
0.0
0
LINE
8
00_ALUMINIO
10
259.108237
20
169.601628
30
0.0
11
259.108237
21
170.851628
31
0.0
0
LINE
8
00_ALUMINIO
10
259.108237
20
170.851628
30
0.0
11
259.813493
21
170.851628
31
0.0
0
LINE
8
00_ALUMINIO
10
259.813493
20
170.851628
30
0.0
11
263.758237
21
168.574129
31
0.0
0
ARC
8
00_ALUMINIO
10
263.508237
20
168.141116
30
0.0
40
0.500000
50
0.000000
51
60.000000
0
LINE
8
00_ALUMINIO
10
264.008237
20
168.141116
30
0.0
11
264.008237
21
165.251628
31
0.0
0
ARC
8
00_ALUMINIO
10
263.508237
20
165.251628
30
0.0
40
0.500000
50
270.000000
51
0.000000
0
LINE
8
00_ALUMINIO
10
263.508237
20
164.751628
30
0.0
11
259.108237
21
164.751628
31
0.0
0
LINE
8
00_ALUMINIO
10
259.108237
20
164.751628
30
0.0
11
259.108237
21
166.101628
31
0.0
0
LINE
8
00_ALUMINIO
10
259.108237
20
166.101628
30
0.0
11
258.408237
21
166.101628
31
0.0
0
ARC
8
00_ALUMINIO
10
258.408237
20
165.601628
30
0.0
40
0.500000
50
90.000000
51
180.000000
0
LINE
8
00_ALUMINIO
10
257.908237
20
165.601628
30
0.0
11
257.908237
21
163.751628
31
0.0
0
ARC
8
00_ALUMINIO
10
258.408237
20
163.751628
30
0.0
40
0.500000
50
180.000000
51
233.130102
0
LINE
8
00_ALUMINIO
10
258.108237
20
163.351628
30
0.0
11
258.108237
21
160.251628
31
0.0
0
ARC
8
00_ALUMINIO
10
258.608237
20
160.251628
30
0.0
40
0.500000
50
180.000000
51
270.000000
0
LINE
8
00_ALUMINIO
10
258.608237
20
159.751628
30
0.0
11
259.208237
21
159.751628
31
0.0
0
ARC
8
00_ALUMINIO
10
259.208237
20
160.251628
30
0.0
40
0.500000
50
270.000000
51
0.000000
0
LINE
8
00_ALUMINIO
10
259.708237
20
160.251628
30
0.0
11
259.708237
21
163.151628
31
0.0
0
LINE
8
00_ALUMINIO
10
259.708237
20
163.151628
30
0.0
11
263.808237
21
163.151628
31
0.0
0
LINE
8
00_ALUMINIO
10
263.808237
20
163.151628
30
0.0
11
263.808237
21
137.951628
31
0.0
0
LINE
8
00_ALUMINIO
10
263.808237
20
137.951628
30
0.0
11
261.608237
21
137.951628
31
0.0
0
LINE
8
00_ALUMINIO
10
261.608237
20
137.951628
30
0.0
11
261.608237
21
139.751628
31
0.0
0
LINE
8
00_ALUMINIO
10
261.608237
20
139.751628
30
0.0
11
260.015344
21
139.751628
31
0.0
0
LINE
8
00_ALUMINIO
10
260.015344
20
139.751628
30
0.0
11
260.015344
21
137.651628
31
0.0
0
LINE
8
00_ALUMINIO
10
260.015344
20
137.651628
30
0.0
11
258.608237
21
137.651628
31
0.0
0
ARC
8
00_ALUMINIO
10
258.608237
20
138.651628
30
0.0
40
1.000000
50
180.000000
51
270.000000
0
LINE
8
00_ALUMINIO
10
257.608237
20
138.651628
30
0.0
11
257.608237
21
141.451628
31
0.0
0
ARC
8
00_ALUMINIO
10
256.608237
20
141.451628
30
0.0
40
1.000000
50
0.000000
51
90.000000
0
LINE
8
00_ALUMINIO
10
256.608237
20
142.451628
30
0.0
11
230.908236
21
142.451628
31
0.0
0
LINE
8
00_ALUMINIO
10
230.908236
20
142.451628
30
0.0
11
230.908236
21
146.951628
31
0.0
0
ARC
8
00_ALUMINIO
10
230.408236
20
146.951628
30
0.0
40
0.500000
50
0.000000
51
90.000000
0
LINE
8
00_ALUMINIO
10
230.408236
20
147.451628
30
0.0
11
228.315343
21
147.451628
31
0.0
0
ARC
8
00_ALUMINIO
10
228.315343
20
146.951628
30
0.0
40
0.500000
50
90.000000
51
135.000000
0
LINE
8
00_ALUMINIO
10
227.961790
20
147.305181
30
0.0
11
227.254683
21
146.598075
31
0.0
0
ARC
8
00_ALUMINIO
10
227.608236
20
146.244521
30
0.0
40
0.500000
50
135.000000
51
180.000000
0
LINE
8
00_ALUMINIO
10
227.108236
20
146.244521
30
0.0
11
227.108236
21
145.451628
31
0.0
0
LINE
8
00_ALUMINIO
10
227.108236
20
145.451628
30
0.0
11
229.108236
21
145.451628
31
0.0
0
LINE
8
00_ALUMINIO
10
229.108236
20
145.451628
30
0.0
11
229.108236
21
142.451628
31
0.0
0
LINE
8
00_ALUMINIO
10
229.108236
20
142.451628
30
0.0
11
213.108236
21
142.451628
31
0.0
0
LINE
8
00_ALUMINIO
10
213.108236
20
142.451628
30
0.0
11
213.108236
21
145.451628
31
0.0
0
LINE
8
00_ALUMINIO
10
213.108236
20
145.451628
30
0.0
11
215.108236
21
145.451628
31
0.0
0
LINE
8
00_ALUMINIO
10
215.108236
20
145.451628
30
0.0
11
215.108236
21
146.244521
31
0.0
0
ARC
8
00_ALUMINIO
10
214.608236
20
146.244521
30
0.0
40
0.500000
50
0.000000
51
45.000000
0
LINE
8
00_ALUMINIO
10
214.961790
20
146.598075
30
0.0
11
214.254683
21
147.305181
31
0.0
0
ARC
8
00_ALUMINIO
10
213.901130
20
146.951628
30
0.0
40
0.500000
50
45.000000
51
90.000000
0
LINE
8
00_ALUMINIO
10
213.901130
20
147.451628
30
0.0
11
212.732501
21
147.451628
31
0.0
0
ARC
8
00_ALUMINIO
10
212.732501
20
147.151628
30
0.0
40
0.300000
50
90.000000
51
135.000000
0
LINE
8
00_ALUMINIO
10
212.520368
20
147.363760
30
0.0
11
211.196104
21
146.039496
31
0.0
0
ARC
8
00_ALUMINIO
10
211.408236
20
145.827364
30
0.0
40
0.300000
50
135.000000
51
180.000000
0
LINE
8
00_ALUMINIO
10
211.108236
20
145.827364
30
0.0
11
211.108236
21
142.451628
31
0.0
0
ARC
8
00_ALUMINIO
10
210.608236
20
142.451628
30
0.0
40
0.500000
50
290.093329
51
0.000000
0
LINE
8
00_ALUMINIO
10
210.780012
20
141.982061
30
0.0
11
209.985673
21
141.691479
31
0.0
0
ARC
8
00_ALUMINIO
10
209.701671
20
142.649695
30
0.0
40
1.000000
50
196.092391
51
286.509063
0
LINE
8
00_ALUMINIO
10
208.740485
20
142.372401
30
0.0
11
208.508236
21
142.929798
31
0.0
0
LINE
8
00_ALUMINIO
10
208.508236
20
142.929798
30
0.0
11
208.508236
21
143.144798
31
0.0
0
LINE
8
00_ALUMINIO
10
208.508236
20
143.144798
30
0.0
11
207.492718
21
143.424065
31
0.0
0
LINE
8
00_ALUMINIO
10
207.492718
20
143.424065
30
0.0
11
207.482816
21
143.426743
31
0.0
0
ARC
8
00_ALUMINIO
10
207.408236
20
143.136161
30
0.0
40
0.300000
50
75.605413
51
181.251415
0
LINE
8
00_ALUMINIO
10
207.108308
20
143.129609
30
0.0
11
208.325260
21
139.916856
31
0.0
0
ARC
8
00_ALUMINIO
10
208.514318
20
139.982101
30
0.0
40
0.200000
50
199.039809
51
20.049592
0
LINE
8
00_ALUMINIO
10
208.702197
20
140.050668
30
0.0
11
210.515701
21
140.713294
31
0.0
0
ARC
8
00_ALUMINIO
10
210.808236
20
140.779798
30
0.0
40
0.300000
50
90.000000
51
192.807633
0
LINE
8
00_ALUMINIO
10
210.808236
20
141.079798
30
0.0
11
211.108236
21
141.079798
31
0.0
0
ARC
8
00_ALUMINIO
10
211.108236
20
140.779798
30
0.0
40
0.300000
50
270.000000
51
90.000000
0
LINE
8
00_ALUMINIO
10
211.108236
20
140.479798
30
0.0
11
211.108236
21
135.979798
31
0.0
0
ARC
8
00_ALUMINIO
10
210.908236
20
135.979798
30
0.0
40
0.200000
50
240.000000
51
0.000000
0
LINE
8
00_ALUMINIO
10
210.808236
20
135.806593
30
0.0
11
209.008140
21
136.845879
31
0.0
0
ARC
8
00_ALUMINIO
10
208.808236
20
136.852101
30
0.0
40
0.200000
50
358.217138
51
180.000000
0
LINE
8
00_ALUMINIO
10
208.608236
20
136.852101
30
0.0
11
208.608236
21
135.460183
31
0.0
0
ARC
8
00_ALUMINIO
10
208.808236
20
135.460183
30
0.0
40
0.200000
50
180.000000
51
240.000000
0
LINE
8
00_ALUMINIO
10
208.708236
20
135.286977
30
0.0
11
210.758236
21
134.103409
31
0.0
0
ARC
8
00_ALUMINIO
10
210.408236
20
133.497192
30
0.0
40
0.700000
50
0.000000
51
60.000000
0
LINE
8
00_ALUMINIO
10
211.108236
20
133.497192
30
0.0
11
211.108236
21
131.406064
31
0.0
0
ARC
8
00_ALUMINIO
10
210.408236
20
131.406064
30
0.0
40
0.700000
50
300.000000
51
0.000000
0
LINE
8
00_ALUMINIO
10
210.758236
20
130.799847
30
0.0
11
208.708236
21
129.616279
31
0.0
0
ARC
8
00_ALUMINIO
10
208.808236
20
129.443073
30
0.0
40
0.200000
50
120.000000
51
180.000000
0
LINE
8
00_ALUMINIO
10
208.608236
20
129.443073
30
0.0
11
208.608236
21
128.051155
31
0.0
0
ARC
8
00_ALUMINIO
10
208.808236
20
128.051155
30
0.0
40
0.200000
50
180.000000
51
1.782862
0
LINE
8
00_ALUMINIO
10
209.008140
20
128.057377
30
0.0
11
210.808236
21
129.096663
31
0.0
0
ARC
8
00_ALUMINIO
10
210.908236
20
128.923458
30
0.0
40
0.200000
50
0.000000
51
120.000000
0
LINE
8
00_ALUMINIO
10
256.008237
20
140.851628
30
0.0
11
256.008237
21
124.051628
31
0.0
0
LINE
8
00_ALUMINIO
10
256.008237
20
124.051628
30
0.0
11
236.708237
21
124.051628
31
0.0
0
LINE
8
00_ALUMINIO
10
236.708237
20
124.051628
30
0.0
11
236.708237
21
126.051628
31
0.0
0
LINE
8
00_ALUMINIO
10
236.708237
20
126.051628
30
0.0
11
235.108237
21
126.051628
31
0.0
0
LINE
8
00_ALUMINIO
10
235.108237
20
126.051628
30
0.0
11
235.108237
21
124.051628
31
0.0
0
LINE
8
00_ALUMINIO
10
235.108237
20
124.051628
30
0.0
11
212.708236
21
124.051628
31
0.0
0
LINE
8
00_ALUMINIO
10
212.708236
20
124.051628
30
0.0
11
212.708236
21
140.851628
31
0.0
0
LINE
8
00_ALUMINIO
10
212.708236
20
140.851628
30
0.0
11
235.108237
21
140.851628
31
0.0
0
LINE
8
00_ALUMINIO
10
235.108237
20
140.851628
30
0.0
11
235.108237
21
138.851628
31
0.0
0
LINE
8
00_ALUMINIO
10
235.108237
20
138.851628
30
0.0
11
236.708237
21
138.851628
31
0.0
0
LINE
8
00_ALUMINIO
10
236.708237
20
138.851628
30
0.0
11
236.708237
21
140.851628
31
0.0
0
LINE
8
00_ALUMINIO
10
236.708237
20
140.851628
30
0.0
11
256.008237
21
140.851628
31
0.0
0
LINE
8
00_POLIAMIDAS
10
176.408950
20
138.658417
30
0.0
11
177.459694
21
139.709161
31
0.0
0
LINE
8
00_POLIAMIDAS
10
176.227336
20
136.231739
30
0.0
11
182.212108
21
142.216511
31
0.0
0
LINE
8
00_POLIAMIDAS
10
185.108236
20
145.112639
30
0.0
11
185.612108
21
145.616511
31
0.0
0
LINE
8
00_POLIAMIDAS
10
179.257173
20
137.016511
30
0.0
11
181.365713
21
139.125052
31
0.0
0
LINE
8
00_POLIAMIDAS
10
186.657173
20
144.416511
30
0.0
11
187.457780
21
145.217119
31
0.0
0
LINE
8
00_POLIAMIDAS
10
182.832444
20
140.591782
30
0.0
11
184.457173
21
142.216511
31
0.0
0
LINE
8
00_POLIAMIDAS
10
185.108236
20
142.867575
30
0.0
11
186.308236
21
144.067575
31
0.0
0
LINE
8
00_POLIAMIDAS
10
185.102237
20
140.616511
30
0.0
11
186.711653
21
142.225928
31
0.0
0
LINE
8
00_POLIAMIDAS
10
185.708236
20
138.977447
30
0.0
11
186.367777
21
139.636988
31
0.0
0
LINE
8
00_POLIAMIDAS
10
193.108236
20
146.377447
30
0.0
11
193.697301
21
146.966511
31
0.0
0
LINE
8
00_POLIAMIDAS
10
187.347301
20
140.616511
30
0.0
11
188.947301
21
142.216511
31
0.0
0
LINE
8
00_POLIAMIDAS
10
176.341443
20
127.365590
30
0.0
11
177.396424
21
128.420571
31
0.0
0
LINE
8
00_POLIAMIDAS
10
193.108236
20
144.132383
30
0.0
11
195.475301
21
146.499447
31
0.0
0
LINE
8
00_POLIAMIDAS
10
185.708236
20
136.732383
30
0.0
11
186.908236
21
137.932383
31
0.0
0
LINE
8
00_POLIAMIDAS
10
189.592365
20
140.616511
30
0.0
11
191.192365
21
142.216511
31
0.0
0
LINE
8
00_POLIAMIDAS
10
176.180930
20
124.960013
30
0.0
11
179.110867
21
127.889950
31
0.0
0
LINE
8
00_POLIAMIDAS
10
191.837429
20
140.616511
30
0.0
11
194.608236
21
143.387319
31
0.0
0
LINE
8
00_POLIAMIDAS
10
185.708236
20
134.487319
30
0.0
11
186.908236
21
135.687319
31
0.0
0
LINE
8
00_POLIAMIDAS
10
179.078574
20
125.612593
30
0.0
11
180.531683
21
127.065702
31
0.0
0
LINE
8
00_POLIAMIDAS
10
199.208236
20
145.742255
30
0.0
11
200.432493
21
146.966511
31
0.0
0
LINE
8
00_POLIAMIDAS
10
185.708236
20
132.242255
30
0.0
11
186.908236
21
133.442255
31
0.0
0
LINE
8
00_POLIAMIDAS
10
194.082493
20
140.616511
30
0.0
11
195.682493
21
142.216511
31
0.0
0
LINE
8
00_POLIAMIDAS
10
179.969806
20
124.258761
30
0.0
11
181.415614
21
125.704569
31
0.0
0
LINE
8
00_POLIAMIDAS
10
200.552178
20
144.841133
30
0.0
11
202.108236
21
146.397191
31
0.0
0
LINE
8
00_POLIAMIDAS
10
185.708236
20
129.997191
30
0.0
11
186.908236
21
131.197191
31
0.0
0
LINE
8
00_POLIAMIDAS
10
196.327557
20
140.616511
30
0.0
11
197.927557
21
142.216511
31
0.0
0
LINE
8
00_POLIAMIDAS
10
193.008236
20
137.297191
30
0.0
11
194.208236
21
138.497191
31
0.0
0
LINE
8
00_POLIAMIDAS
10
180.900846
20
122.944736
30
0.0
11
182.419489
21
124.463380
31
0.0
0
LINE
8
00_POLIAMIDAS
10
200.603425
20
142.647316
30
0.0
11
202.108236
21
144.152127
31
0.0
0
LINE
8
00_POLIAMIDAS
10
185.708236
20
127.752127
30
0.0
11
186.908236
21
128.952127
31
0.0
0
LINE
8
00_POLIAMIDAS
10
198.572621
20
140.616511
30
0.0
11
200.177432
21
142.221323
31
0.0
0
LINE
8
00_POLIAMIDAS
10
193.008236
20
135.052127
30
0.0
11
194.208236
21
136.252127
31
0.0
0
LINE
8
00_POLIAMIDAS
10
182.891123
20
122.689950
30
0.0
11
184.491123
21
124.289950
31
0.0
0
LINE
8
00_POLIAMIDAS
10
200.817685
20
140.616511
30
0.0
11
202.445061
21
142.243887
31
0.0
0
LINE
8
00_POLIAMIDAS
10
185.708236
20
125.507063
30
0.0
11
186.908236
21
126.707063
31
0.0
0
LINE
8
00_POLIAMIDAS
10
193.008236
20
132.807063
30
0.0
11
194.208236
21
134.007063
31
0.0
0
LINE
8
00_POLIAMIDAS
10
185.136187
20
122.689950
30
0.0
11
186.979284
21
124.533046
31
0.0
0
LINE
8
00_POLIAMIDAS
10
203.062749
20
140.616511
30
0.0
11
204.662749
21
142.216511
31
0.0
0
LINE
8
00_POLIAMIDAS
10
193.008236
20
130.561999
30
0.0
11
194.208236
21
131.761999
31
0.0
0
LINE
8
00_POLIAMIDAS
10
200.408236
20
137.961999
30
0.0
11
201.597770
21
139.151532
31
0.0
0
LINE
8
00_POLIAMIDAS
10
187.381251
20
122.689950
30
0.0
11
188.981251
21
124.289950
31
0.0
0
LINE
8
00_POLIAMIDAS
10
204.999071
20
140.307770
30
0.0
11
206.488045
21
141.796743
31
0.0
0
LINE
8
00_POLIAMIDAS
10
193.008236
20
128.316935
30
0.0
11
194.208236
21
129.516935
31
0.0
0
LINE
8
00_POLIAMIDAS
10
200.408236
20
135.716935
30
0.0
11
201.608236
21
136.916935
31
0.0
0
LINE
8
00_POLIAMIDAS
10
189.626315
20
122.689950
30
0.0
11
191.226315
21
124.289950
31
0.0
0
LINE
8
00_POLIAMIDAS
10
205.933700
20
138.997335
30
0.0
11
207.379508
21
140.443143
31
0.0
0
LINE
8
00_POLIAMIDAS
10
193.008236
20
126.071871
30
0.0
11
194.208236
21
127.271871
31
0.0
0
LINE
8
00_POLIAMIDAS
10
200.408236
20
133.471871
30
0.0
11
201.608236
21
134.671871
31
0.0
0
LINE
8
00_POLIAMIDAS
10
191.871379
20
122.689950
30
0.0
11
194.208236
21
125.026807
31
0.0
0
LINE
8
00_POLIAMIDAS
10
206.817631
20
137.636201
30
0.0
11
208.397941
21
139.216511
31
0.0
0
LINE
8
00_POLIAMIDAS
10
200.408236
20
131.226807
30
0.0
11
201.608236
21
132.426807
31
0.0
0
LINE
8
00_POLIAMIDAS
10
194.116443
20
122.689950
30
0.0
11
195.716443
21
124.289950
31
0.0
0
LINE
8
00_POLIAMIDAS
10
210.068304
20
138.641811
30
0.0
11
211.108236
21
139.681743
31
0.0
0
LINE
8
00_POLIAMIDAS
10
200.408236
20
128.981743
30
0.0
11
201.608236
21
130.181743
31
0.0
0
LINE
8
00_POLIAMIDAS
10
208.443005
20
137.016511
30
0.0
11
209.832937
21
138.406444
31
0.0
0
LINE
8
00_POLIAMIDAS
10
196.361507
20
122.689950
30
0.0
11
197.961507
21
124.289950
31
0.0
0
LINE
8
00_POLIAMIDAS
10
210.032516
20
136.360958
30
0.0
11
211.005255
21
137.333698
31
0.0
0
LINE
8
00_POLIAMIDAS
10
200.408236
20
126.736679
30
0.0
11
201.608236
21
127.936679
31
0.0
0
LINE
8
00_POLIAMIDAS
10
198.606571
20
122.689950
30
0.0
11
201.608236
21
125.691615
31
0.0
0
LINE
8
00_POLIAMIDAS
10
200.851635
20
122.689950
30
0.0
11
202.451635
21
124.289950
31
0.0
0
LINE
8
00_POLIAMIDAS
10
203.096699
20
122.689950
30
0.0
11
205.037290
21
124.630540
31
0.0
0
LINE
8
00_POLIAMIDAS
10
205.181466
20
124.774716
30
0.0
11
208.296699
21
127.889950
31
0.0
0
LINE
8
00_POLIAMIDAS
10
205.341763
20
122.689950
30
0.0
11
207.869216
21
125.217403
31
0.0
0
LINE
8
00_POLIAMIDAS
10
208.341763
20
125.689950
30
0.0
11
211.103451
21
128.451637
31
0.0
0
LINE
8
00_POLIAMIDAS
10
209.969097
20
125.072220
30
0.0
11
210.982775
21
126.085898
31
0.0
0
LINE
8
00_POLIAMIDAS
10
176.734748
20
124.793865
30
0.0
11
176.108236
21
125.420376
31
0.0
0
LINE
8
00_POLIAMIDAS
10
178.171801
20
125.601876
30
0.0
11
177.340580
21
126.433096
31
0.0
0
LINE
8
00_POLIAMIDAS
10
176.453735
20
127.319942
30
0.0
11
176.213229
21
127.560448
31
0.0
0
LINE
8
00_POLIAMIDAS
10
183.328791
20
122.689950
30
0.0
11
177.886107
21
128.132634
31
0.0
0
LINE
8
00_POLIAMIDAS
10
185.573855
20
122.689950
30
0.0
11
183.973855
21
124.289950
31
0.0
0
LINE
8
00_POLIAMIDAS
10
187.818919
20
122.689950
30
0.0
11
185.708236
21
124.800633
31
0.0
0
LINE
8
00_POLIAMIDAS
10
190.063983
20
122.689950
30
0.0
11
188.463983
21
124.289950
31
0.0
0
LINE
8
00_POLIAMIDAS
10
176.637422
20
136.116511
30
0.0
11
176.108236
21
136.645697
31
0.0
0
LINE
8
00_POLIAMIDAS
10
186.908236
20
125.845697
30
0.0
11
185.708236
21
127.045697
31
0.0
0
LINE
8
00_POLIAMIDAS
10
192.309047
20
122.689950
30
0.0
11
190.709047
21
124.289950
31
0.0
0
LINE
8
00_POLIAMIDAS
10
178.102465
20
136.896532
30
0.0
11
177.294452
21
137.704545
31
0.0
0
LINE
8
00_POLIAMIDAS
10
186.908236
20
128.090761
30
0.0
11
185.708236
21
129.290761
31
0.0
0
LINE
8
00_POLIAMIDAS
10
194.554111
20
122.689950
30
0.0
11
192.833690
21
124.410371
31
0.0
0
LINE
8
00_POLIAMIDAS
10
180.019770
20
137.224291
30
0.0
11
177.642732
21
139.601329
31
0.0
0
LINE
8
00_POLIAMIDAS
10
186.908236
20
130.335825
30
0.0
11
185.708236
21
131.535825
31
0.0
0
LINE
8
00_POLIAMIDAS
10
196.799175
20
122.689950
30
0.0
11
195.199175
21
124.289950
31
0.0
0
LINE
8
00_POLIAMIDAS
10
180.971346
20
138.517779
30
0.0
11
179.525538
21
139.963587
31
0.0
0
LINE
8
00_POLIAMIDAS
10
194.208236
20
125.280889
30
0.0
11
193.008236
21
126.480889
31
0.0
0
LINE
8
00_POLIAMIDAS
10
186.908236
20
132.580889
30
0.0
11
185.708236
21
133.780889
31
0.0
0
LINE
8
00_POLIAMIDAS
10
199.044239
20
122.689950
30
0.0
11
197.444239
21
124.289950
31
0.0
0
LINE
8
00_POLIAMIDAS
10
181.855276
20
139.878913
30
0.0
11
180.409468
21
141.324721
31
0.0
0
LINE
8
00_POLIAMIDAS
10
194.208236
20
127.525953
30
0.0
11
193.008236
21
128.725953
31
0.0
0
LINE
8
00_POLIAMIDAS
10
186.908236
20
134.825953
30
0.0
11
185.708236
21
136.025953
31
0.0
0
LINE
8
00_POLIAMIDAS
10
201.289304
20
122.689950
30
0.0
11
199.689304
21
124.289950
31
0.0
0
LINE
8
00_POLIAMIDAS
10
183.362742
20
140.616511
30
0.0
11
181.762742
21
142.216511
31
0.0
0
LINE
8
00_POLIAMIDAS
10
194.208236
20
129.771017
30
0.0
11
193.008236
21
130.971017
31
0.0
0
LINE
8
00_POLIAMIDAS
10
186.908236
20
137.071017
30
0.0
11
185.708236
21
138.271017
31
0.0
0
LINE
8
00_POLIAMIDAS
10
203.534368
20
122.689950
30
0.0
11
201.878424
21
124.345893
31
0.0
0
LINE
8
00_POLIAMIDAS
10
185.607806
20
140.616511
30
0.0
11
184.007806
21
142.216511
31
0.0
0
LINE
8
00_POLIAMIDAS
10
201.664180
20
124.560137
30
0.0
11
200.408236
21
125.816081
31
0.0
0
LINE
8
00_POLIAMIDAS
10
194.208236
20
132.016081
30
0.0
11
193.008236
21
133.216081
31
0.0
0
LINE
8
00_POLIAMIDAS
10
205.764574
20
122.704808
30
0.0
11
204.178301
21
124.291080
31
0.0
0
LINE
8
00_POLIAMIDAS
10
187.852870
20
140.616511
30
0.0
11
185.108236
21
143.361145
31
0.0
0
LINE
8
00_POLIAMIDAS
10
201.608236
20
126.861145
30
0.0
11
200.408236
21
128.061145
31
0.0
0
LINE
8
00_POLIAMIDAS
10
194.208236
20
134.261145
30
0.0
11
193.008236
21
135.461145
31
0.0
0
LINE
8
00_POLIAMIDAS
10
206.935240
20
123.779205
30
0.0
11
205.489432
21
125.225013
31
0.0
0
LINE
8
00_POLIAMIDAS
10
186.391016
20
144.323430
30
0.0
11
185.191016
21
145.523430
31
0.0
0
LINE
8
00_POLIAMIDAS
10
201.608236
20
129.106209
30
0.0
11
200.408236
21
130.306209
31
0.0
0
LINE
8
00_POLIAMIDAS
10
190.097934
20
140.616511
30
0.0
11
188.497934
21
142.216511
31
0.0
0
LINE
8
00_POLIAMIDAS
10
194.208236
20
136.506209
30
0.0
11
193.008236
21
137.706209
31
0.0
0
LINE
8
00_POLIAMIDAS
10
207.819170
20
125.140339
30
0.0
11
206.373363
21
126.586147
31
0.0
0
LINE
8
00_POLIAMIDAS
10
192.342998
20
140.616511
30
0.0
11
190.742998
21
142.216511
31
0.0
0
LINE
8
00_POLIAMIDAS
10
201.608236
20
131.351273
30
0.0
11
200.408236
21
132.551273
31
0.0
0
LINE
8
00_POLIAMIDAS
10
194.208236
20
138.751273
30
0.0
11
193.369222
21
139.590288
31
0.0
0
LINE
8
00_POLIAMIDAS
10
210.366430
20
124.838144
30
0.0
11
207.407856
21
127.796717
31
0.0
0
LINE
8
00_POLIAMIDAS
10
194.588062
20
140.616511
30
0.0
11
192.896559
21
142.308014
31
0.0
0
LINE
8
00_POLIAMIDAS
10
201.608236
20
133.596337
30
0.0
11
200.408236
21
134.796337
31
0.0
0
LINE
8
00_POLIAMIDAS
10
210.112374
20
127.337263
30
0.0
11
209.321951
21
128.127686
31
0.0
0
LINE
8
00_POLIAMIDAS
10
194.608236
20
142.841401
30
0.0
11
193.108236
21
144.341401
31
0.0
0
LINE
8
00_POLIAMIDAS
10
201.608236
20
135.841401
30
0.0
11
200.408236
21
137.041401
31
0.0
0
LINE
8
00_POLIAMIDAS
10
196.833126
20
140.616511
30
0.0
11
195.233126
21
142.216511
31
0.0
0
LINE
8
00_POLIAMIDAS
10
201.608236
20
138.086465
30
0.0
11
200.445797
21
139.248904
31
0.0
0
LINE
8
00_POLIAMIDAS
10
194.764736
20
144.929965
30
0.0
11
193.120067
21
146.574634
31
0.0
0
LINE
8
00_POLIAMIDAS
10
199.078190
20
140.616511
30
0.0
11
197.478190
21
142.216511
31
0.0
0
LINE
8
00_POLIAMIDAS
10
201.323254
20
140.616511
30
0.0
11
199.723254
21
142.216511
31
0.0
0
LINE
8
00_POLIAMIDAS
10
195.954127
20
145.985639
30
0.0
11
195.027364
21
146.912402
31
0.0
0
LINE
8
00_POLIAMIDAS
10
203.568318
20
140.616511
30
0.0
11
200.608236
21
143.576593
31
0.0
0
LINE
8
00_POLIAMIDAS
10
210.120914
20
136.308979
30
0.0
11
204.213382
21
142.216511
31
0.0
0
LINE
8
00_POLIAMIDAS
10
202.108236
20
144.321657
30
0.0
11
199.835809
21
146.594084
31
0.0
0
LINE
8
00_POLIAMIDAS
10
210.046056
20
138.628901
30
0.0
11
209.259030
21
139.415927
31
0.0
0
LINE
8
00_POLIAMIDAS
10
202.095256
20
146.579702
30
0.0
11
201.721427
21
146.953531
31
0.0
0
LINE
8
00_POLIAMIDAS
10
211.092533
20
139.827488
30
0.0
11
210.819213
21
140.100808
31
0.0
0
ARC
8
00_POLIAMIDAS
10
181.640151
20
141.016511
30
0.0
40
1.200000
50
90.000000
51
147.000000
0
LINE
8
00_POLIAMIDAS
10
181.640151
20
142.216511
30
0.0
11
184.608236
21
142.216511
31
0.0
0
ARC
8
00_POLIAMIDAS
10
184.608236
20
142.716511
30
0.0
40
0.500000
50
270.000000
51
0.000000
0
LINE
8
00_POLIAMIDAS
10
185.108236
20
142.716511
30
0.0
11
185.108236
21
145.316511
31
0.0
0
ARC
8
00_POLIAMIDAS
10
185.408236
20
145.316511
30
0.0
40
0.300000
50
90.000000
51
180.000000
0
LINE
8
00_POLIAMIDAS
10
185.408236
20
145.616511
30
0.0
11
186.308236
21
145.616511
31
0.0
0
LINE
8
00_POLIAMIDAS
10
186.308236
20
145.616511
30
0.0
11
186.658236
21
145.616511
31
0.0
0
ARC
8
00_POLIAMIDAS
10
186.658236
20
144.616511
30
0.0
40
1.000000
50
0.000000
51
90.000000
0
ARC
8
00_POLIAMIDAS
10
187.458236
20
144.616511
30
0.0
40
0.200000
50
270.000000
51
0.000000
0
LINE
8
00_POLIAMIDAS
10
187.458236
20
144.416511
30
0.0
11
186.608236
21
144.416511
31
0.0
0
ARC
8
00_POLIAMIDAS
10
186.608236
20
144.116511
30
0.0
40
0.300000
50
90.000000
51
180.000000
0
LINE
8
00_POLIAMIDAS
10
186.308236
20
144.116511
30
0.0
11
186.308236
21
142.716511
31
0.0
0
ARC
8
00_POLIAMIDAS
10
186.808236
20
142.716511
30
0.0
40
0.500000
50
180.000000
51
270.000000
0
LINE
8
00_POLIAMIDAS
10
186.808236
20
142.216511
30
0.0
11
192.608236
21
142.216511
31
0.0
0
ARC
8
00_POLIAMIDAS
10
192.608236
20
142.716511
30
0.0
40
0.500000
50
270.000000
51
0.000000
0
LINE
8
00_POLIAMIDAS
10
193.108236
20
142.716511
30
0.0
11
193.108236
21
146.466511
31
0.0
0
ARC
8
00_POLIAMIDAS
10
193.608236
20
146.466511
30
0.0
40
0.500000
50
90.000000
51
180.000000
0
LINE
8
00_POLIAMIDAS
10
193.608236
20
146.966511
30
0.0
11
194.801130
21
146.966511
31
0.0
0
ARC
8
00_POLIAMIDAS
10
194.801130
20
146.466511
30
0.0
40
0.500000
50
45.000000
51
90.000000
0
LINE
8
00_POLIAMIDAS
10
195.154683
20
146.820065
30
0.0
11
195.861790
21
146.112958
31
0.0
0
ARC
8
00_POLIAMIDAS
10
195.508236
20
145.759405
30
0.0
40
0.500000
50
0.000000
51
45.000000
0
LINE
8
00_POLIAMIDAS
10
196.008236
20
145.759405
30
0.0
11
196.008236
21
145.266511
31
0.0
0
ARC
8
00_POLIAMIDAS
10
195.708236
20
145.266511
30
0.0
40
0.300000
50
270.000000
51
0.000000
0
LINE
8
00_POLIAMIDAS
10
195.708236
20
144.966511
30
0.0
11
194.908236
21
144.966511
31
0.0
0
ARC
8
00_POLIAMIDAS
10
194.908236
20
144.666511
30
0.0
40
0.300000
50
90.000000
51
180.000000
0
LINE
8
00_POLIAMIDAS
10
194.608236
20
144.666511
30
0.0
11
194.608236
21
142.716511
31
0.0
0
ARC
8
00_POLIAMIDAS
10
195.108236
20
142.716511
30
0.0
40
0.500000
50
180.000000
51
270.000000
0
LINE
8
00_POLIAMIDAS
10
195.108236
20
142.216511
30
0.0
11
200.108236
21
142.216511
31
0.0
0
ARC
8
00_POLIAMIDAS
10
200.108236
20
142.716511
30
0.0
40
0.500000
50
270.000000
51
0.000000
0
LINE
8
00_POLIAMIDAS
10
200.608236
20
142.716511
30
0.0
11
200.608236
21
144.666511
31
0.0
0
ARC
8
00_POLIAMIDAS
10
200.308236
20
144.666511
30
0.0
40
0.300000
50
0.000000
51
90.000000
0
LINE
8
00_POLIAMIDAS
10
200.308236
20
144.966511
30
0.0
11
199.508236
21
144.966511
31
0.0
0
ARC
8
00_POLIAMIDAS
10
199.508236
20
145.266511
30
0.0
40
0.300000
50
180.000000
51
270.000000
0
LINE
8
00_POLIAMIDAS
10
199.208236
20
145.266511
30
0.0
11
199.208236
21
145.759405
31
0.0
0
ARC
8
00_POLIAMIDAS
10
199.708236
20
145.759405
30
0.0
40
0.500000
50
135.000000
51
180.000000
0
LINE
8
00_POLIAMIDAS
10
199.354683
20
146.112958
30
0.0
11
200.061790
21
146.820065
31
0.0
0
ARC
8
00_POLIAMIDAS
10
200.415343
20
146.466511
30
0.0
40
0.500000
50
90.000000
51
135.000000
0
LINE
8
00_POLIAMIDAS
10
200.415343
20
146.966511
30
0.0
11
201.608236
21
146.966511
31
0.0
0
ARC
8
00_POLIAMIDAS
10
201.608236
20
146.466511
30
0.0
40
0.500000
50
0.000000
51
90.000000
0
LINE
8
00_POLIAMIDAS
10
202.108236
20
146.466511
30
0.0
11
202.108236
21
142.716511
31
0.0
0
ARC
8
00_POLIAMIDAS
10
202.608236
20
142.716511
30
0.0
40
0.500000
50
180.000000
51
270.000000
0
LINE
8
00_POLIAMIDAS
10
202.608236
20
142.216511
30
0.0
11
205.576322
21
142.216511
31
0.0
0
ARC
8
00_POLIAMIDAS
10
205.576322
20
141.016511
30
0.0
40
1.200000
50
33.000000
51
90.000000
0
LINE
8
00_POLIAMIDAS
10
206.582727
20
141.670078
30
0.0
11
208.086263
21
139.354836
31
0.0
0
ARC
8
00_POLIAMIDAS
10
208.338970
20
139.516511
30
0.0
40
0.300000
50
212.610000
51
270.000000
0
LINE
8
00_POLIAMIDAS
10
208.338970
20
139.216511
30
0.0
11
208.393431
21
139.216511
31
0.0
0
LINE
8
00_POLIAMIDAS
10
208.393431
20
139.216511
30
0.0
11
208.593340
21
139.216511
31
0.0
0
ARC
8
00_POLIAMIDAS
10
208.593340
20
140.416511
30
0.0
40
1.200000
50
270.000000
51
300.503167
0
LINE
8
00_POLIAMIDAS
10
209.202443
20
139.382590
30
0.0
11
210.377759
21
140.074992
31
0.0
0
ARC
8
00_POLIAMIDAS
10
210.530035
20
139.816511
30
0.0
40
0.300000
50
90.000000
51
120.503167
0
LINE
8
00_POLIAMIDAS
10
210.530035
20
140.116511
30
0.0
11
210.708236
21
140.116511
31
0.0
0
ARC
8
00_POLIAMIDAS
10
210.708236
20
139.716511
30
0.0
40
0.400000
50
0.000000
51
90.000000
0
LINE
8
00_POLIAMIDAS
10
211.108236
20
139.716511
30
0.0
11
211.108236
21
139.316511
31
0.0
0
ARC
8
00_POLIAMIDAS
10
211.008236
20
139.316511
30
0.0
40
0.100000
50
270.000000
51
0.000000
0
LINE
8
00_POLIAMIDAS
10
211.008236
20
139.216511
30
0.0
11
211.008236
21
138.941511
31
0.0
0
ARC
8
00_POLIAMIDAS
10
210.708236
20
138.941511
30
0.0
40
0.300000
50
270.000000
51
0.000000
0
LINE
8
00_POLIAMIDAS
10
210.708236
20
138.641511
30
0.0
11
210.648710
21
138.641511
31
0.0
0
ARC
8
00_POLIAMIDAS
10
210.358236
20
138.116511
30
0.0
40
0.600000
50
61.044976
51
298.955024
0
LINE
8
00_POLIAMIDAS
10
210.648710
20
137.591511
30
0.0
11
210.708236
21
137.591511
31
0.0
0
ARC
8
00_POLIAMIDAS
10
210.708236
20
137.291511
30
0.0
40
0.300000
50
0.000000
51
90.000000
0
LINE
8
00_POLIAMIDAS
10
211.008236
20
137.291511
30
0.0
11
211.008236
21
137.016511
31
0.0
0
ARC
8
00_POLIAMIDAS
10
211.008236
20
136.916511
30
0.0
40
0.100000
50
0.000000
51
90.000000
0
LINE
8
00_POLIAMIDAS
10
211.108236
20
136.916511
30
0.0
11
211.108236
21
136.516511
31
0.0
0
ARC
8
00_POLIAMIDAS
10
210.708236
20
136.516511
30
0.0
40
0.400000
50
270.000000
51
0.000000
0
LINE
8
00_POLIAMIDAS
10
210.708236
20
136.116511
30
0.0
11
210.529902
21
136.116511
31
0.0
0
ARC
8
00_POLIAMIDAS
10
210.529902
20
136.416511
30
0.0
40
0.300000
50
239.544173
51
270.000000
0
LINE
8
00_POLIAMIDAS
10
210.377839
20
136.157905
30
0.0
11
209.199231
21
136.850936
31
0.0
0
ARC
8
00_POLIAMIDAS
10
208.590982
20
135.816511
30
0.0
40
1.200000
50
59.544173
51
90.000000
0
LINE
8
00_POLIAMIDAS
10
208.590982
20
137.016511
30
0.0
11
207.871609
21
137.016511
31
0.0
0
ARC
8
00_POLIAMIDAS
10
207.871609
20
138.216511
30
0.0
40
1.200000
50
213.000000
51
270.000000
0
LINE
8
00_POLIAMIDAS
10
206.865204
20
137.562945
30
0.0
11
205.296196
21
139.979006
31
0.0
0
ARC
8
00_POLIAMIDAS
10
204.122057
20
139.216511
30
0.0
40
1.400000
50
33.000000
51
90.000000
0
LINE
8
00_POLIAMIDAS
10
204.122057
20
140.616511
30
0.0
11
185.108236
21
140.616511
31
0.0
0
LINE
8
00_POLIAMIDAS
10
185.108236
20
140.616511
30
0.0
11
183.094416
21
140.616511
31
0.0
0
ARC
8
00_POLIAMIDAS
10
183.094416
20
139.216511
30
0.0
40
1.400000
50
90.000000
51
147.000000
0
LINE
8
00_POLIAMIDAS
10
181.920277
20
139.979006
30
0.0
11
180.351269
21
137.562945
31
0.0
0
ARC
8
00_POLIAMIDAS
10
179.344864
20
138.216511
30
0.0
40
1.200000
50
270.000000
51
327.000000
0
LINE
8
00_POLIAMIDAS
10
179.344864
20
137.016511
30
0.0
11
178.825416
21
137.016511
31
0.0
0
LINE
8
00_POLIAMIDAS
10
178.825416
20
137.016511
30
0.0
11
178.625491
21
137.016511
31
0.0
0
ARC
8
00_POLIAMIDAS
10
178.625491
20
135.816511
30
0.0
40
1.200000
50
90.000000
51
120.455827
0
LINE
8
00_POLIAMIDAS
10
178.017242
20
136.850936
30
0.0
11
176.838633
21
136.157905
31
0.0
0
ARC
8
00_POLIAMIDAS
10
176.686571
20
136.416511
30
0.0
40
0.300000
50
270.000000
51
300.455827
0
LINE
8
00_POLIAMIDAS
10
176.686571
20
136.116511
30
0.0
11
176.508236
21
136.116511
31
0.0
0
ARC
8
00_POLIAMIDAS
10
176.508236
20
136.516511
30
0.0
40
0.400000
50
180.000000
51
270.000000
0
LINE
8
00_POLIAMIDAS
10
176.108236
20
136.516511
30
0.0
11
176.108236
21
136.916511
31
0.0
0
ARC
8
00_POLIAMIDAS
10
176.208236
20
136.916511
30
0.0
40
0.100000
50
90.000000
51
180.000000
0
LINE
8
00_POLIAMIDAS
10
176.208236
20
137.016511
30
0.0
11
176.208236
21
137.291511
31
0.0
0
ARC
8
00_POLIAMIDAS
10
176.508236
20
137.291511
30
0.0
40
0.300000
50
90.000000
51
180.000000
0
LINE
8
00_POLIAMIDAS
10
176.508236
20
137.591511
30
0.0
11
176.567763
21
137.591511
31
0.0
0
ARC
8
00_POLIAMIDAS
10
176.858236
20
138.116511
30
0.0
40
0.600000
50
241.044976
51
118.955024
0
LINE
8
00_POLIAMIDAS
10
176.567763
20
138.641511
30
0.0
11
176.508236
21
138.641511
31
0.0
0
ARC
8
00_POLIAMIDAS
10
176.508236
20
138.941511
30
0.0
40
0.300000
50
180.000000
51
270.000000
0
LINE
8
00_POLIAMIDAS
10
176.208236
20
138.941511
30
0.0
11
176.208236
21
139.216511
31
0.0
0
ARC
8
00_POLIAMIDAS
10
176.208236
20
139.316511
30
0.0
40
0.100000
50
180.000000
51
270.000000
0
LINE
8
00_POLIAMIDAS
10
176.108236
20
139.316511
30
0.0
11
176.108236
21
139.716511
31
0.0
0
ARC
8
00_POLIAMIDAS
10
176.508236
20
139.716511
30
0.0
40
0.400000
50
90.000000
51
180.000000
0
LINE
8
00_POLIAMIDAS
10
176.508236
20
140.116511
30
0.0
11
176.686438
21
140.116511
31
0.0
0
ARC
8
00_POLIAMIDAS
10
176.686438
20
139.816511
30
0.0
40
0.300000
50
59.496833
51
90.000000
0
LINE
8
00_POLIAMIDAS
10
176.838714
20
140.074992
30
0.0
11
178.014030
21
139.382590
31
0.0
0
ARC
8
00_POLIAMIDAS
10
178.623133
20
140.416511
30
0.0
40
1.200000
50
239.496833
51
270.000000
0
LINE
8
00_POLIAMIDAS
10
178.623133
20
139.216511
30
0.0
11
178.877503
21
139.216511
31
0.0
0
ARC
8
00_POLIAMIDAS
10
178.877503
20
139.516511
30
0.0
40
0.300000
50
270.000000
51
327.390000
0
LINE
8
00_POLIAMIDAS
10
179.130210
20
139.354836
30
0.0
11
180.633746
21
141.670078
31
0.0
0
ARC
8
00_POLIAMIDAS
10
205.576322
20
123.889950
30
0.0
40
1.200000
50
270.000000
51
327.000000
0
LINE
8
00_POLIAMIDAS
10
205.576322
20
122.689950
30
0.0
11
202.608236
21
122.689950
31
0.0
0
LINE
8
00_POLIAMIDAS
10
202.608236
20
122.689950
30
0.0
11
184.608236
21
122.689950
31
0.0
0
LINE
8
00_POLIAMIDAS
10
184.608236
20
122.689950
30
0.0
11
181.640151
21
122.689950
31
0.0
0
ARC
8
00_POLIAMIDAS
10
181.640151
20
123.889950
30
0.0
40
1.200000
50
213.000000
51
270.000000
0
LINE
8
00_POLIAMIDAS
10
180.633746
20
123.236383
30
0.0
11
179.130210
21
125.551625
31
0.0
0
ARC
8
00_POLIAMIDAS
10
178.877503
20
125.389950
30
0.0
40
0.300000
50
32.610000
51
90.000000
0
LINE
8
00_POLIAMIDAS
10
178.877503
20
125.689950
30
0.0
11
178.623042
21
125.689950
31
0.0
0
ARC
8
00_POLIAMIDAS
10
178.623042
20
124.489950
30
0.0
40
1.200000
50
90.000000
51
121.006334
0
LINE
8
00_POLIAMIDAS
10
178.004883
20
125.518482
30
0.0
11
176.838714
21
124.831469
31
0.0
0
ARC
8
00_POLIAMIDAS
10
176.686438
20
125.089950
30
0.0
40
0.300000
50
270.000000
51
300.503167
0
LINE
8
00_POLIAMIDAS
10
176.686438
20
124.789950
30
0.0
11
176.508236
21
124.789950
31
0.0
0
ARC
8
00_POLIAMIDAS
10
176.508236
20
125.189950
30
0.0
40
0.400000
50
180.000000
51
270.000000
0
LINE
8
00_POLIAMIDAS
10
176.108236
20
125.189950
30
0.0
11
176.108236
21
125.589950
31
0.0
0
ARC
8
00_POLIAMIDAS
10
176.208236
20
125.589950
30
0.0
40
0.100000
50
90.000000
51
180.000000
0
LINE
8
00_POLIAMIDAS
10
176.208236
20
125.689950
30
0.0
11
176.208236
21
125.964950
31
0.0
0
ARC
8
00_POLIAMIDAS
10
176.508236
20
125.964950
30
0.0
40
0.300000
50
90.000000
51
180.000000
0
LINE
8
00_POLIAMIDAS
10
176.508236
20
126.264950
30
0.0
11
176.567763
21
126.264950
31
0.0
0
ARC
8
00_POLIAMIDAS
10
176.858236
20
126.789950
30
0.0
40
0.600000
50
241.044976
51
118.955024
0
LINE
8
00_POLIAMIDAS
10
176.567763
20
127.314950
30
0.0
11
176.508236
21
127.314950
31
0.0
0
ARC
8
00_POLIAMIDAS
10
176.508236
20
127.614950
30
0.0
40
0.300000
50
180.000000
51
270.000000
0
LINE
8
00_POLIAMIDAS
10
176.208236
20
127.614950
30
0.0
11
176.208236
21
127.889950
31
0.0
0
ARC
8
00_POLIAMIDAS
10
176.208236
20
127.989950
30
0.0
40
0.100000
50
180.000000
51
270.000000
0
LINE
8
00_POLIAMIDAS
10
176.108236
20
127.989950
30
0.0
11
176.108236
21
128.389950
31
0.0
0
ARC
8
00_POLIAMIDAS
10
176.508236
20
128.389950
30
0.0
40
0.400000
50
90.000000
51
180.000000
0
LINE
8
00_POLIAMIDAS
10
176.508236
20
128.789950
30
0.0
11
176.686571
21
128.789950
31
0.0
0
ARC
8
00_POLIAMIDAS
10
176.686571
20
128.489950
30
0.0
40
0.300000
50
59.544173
51
90.000000
0
LINE
8
00_POLIAMIDAS
10
176.838633
20
128.748556
30
0.0
11
178.008957
21
128.060397
31
0.0
0
ARC
8
00_POLIAMIDAS
10
178.625416
20
129.089950
30
0.0
40
1.200000
50
239.088345
51
270.000000
0
LINE
8
00_POLIAMIDAS
10
178.625416
20
127.889950
30
0.0
11
179.344864
21
127.889950
31
0.0
0
ARC
8
00_POLIAMIDAS
10
179.344864
20
126.689950
30
0.0
40
1.200000
50
33.000000
51
90.000000
0
LINE
8
00_POLIAMIDAS
10
180.351269
20
127.343517
30
0.0
11
181.920277
21
124.927455
31
0.0
0
ARC
8
00_POLIAMIDAS
10
183.094416
20
125.689950
30
0.0
40
1.400000
50
213.000000
51
270.000000
0
LINE
8
00_POLIAMIDAS
10
183.094416
20
124.289950
30
0.0
11
185.208236
21
124.289950
31
0.0
0
ARC
8
00_POLIAMIDAS
10
185.208236
20
124.789950
30
0.0
40
0.500000
50
270.000000
51
0.000000
0
LINE
8
00_POLIAMIDAS
10
185.708236
20
124.789950
30
0.0
11
185.708236
21
139.039950
31
0.0
0
ARC
8
00_POLIAMIDAS
10
186.308236
20
139.039950
30
0.0
40
0.600000
50
0.000000
51
180.000000
0
LINE
8
00_POLIAMIDAS
10
186.908236
20
139.039950
30
0.0
11
186.908236
21
124.789950
31
0.0
0
ARC
8
00_POLIAMIDAS
10
187.408236
20
124.789950
30
0.0
40
0.500000
50
180.000000
51
270.000000
0
LINE
8
00_POLIAMIDAS
10
187.408236
20
124.289950
30
0.0
11
192.508236
21
124.289950
31
0.0
0
ARC
8
00_POLIAMIDAS
10
192.508236
20
124.789950
30
0.0
40
0.500000
50
270.000000
51
0.000000
0
LINE
8
00_POLIAMIDAS
10
193.008236
20
124.789950
30
0.0
11
193.008236
21
139.039950
31
0.0
0
ARC
8
00_POLIAMIDAS
10
193.608236
20
139.039950
30
0.0
40
0.600000
50
0.000000
51
180.000000
0
LINE
8
00_POLIAMIDAS
10
194.208236
20
139.039950
30
0.0
11
194.208236
21
124.789950
31
0.0
0
ARC
8
00_POLIAMIDAS
10
194.708236
20
124.789950
30
0.0
40
0.500000
50
180.000000
51
270.000000
0
LINE
8
00_POLIAMIDAS
10
194.708236
20
124.289950
30
0.0
11
199.908236
21
124.289950
31
0.0
0
ARC
8
00_POLIAMIDAS
10
199.908236
20
124.789950
30
0.0
40
0.500000
50
270.000000
51
0.000000
0
LINE
8
00_POLIAMIDAS
10
200.408236
20
124.789950
30
0.0
11
200.408236
21
139.039950
31
0.0
0
ARC
8
00_POLIAMIDAS
10
201.008236
20
139.039950
30
0.0
40
0.600000
50
0.000000
51
180.000000
0
LINE
8
00_POLIAMIDAS
10
201.608236
20
139.039950
30
0.0
11
201.608236
21
124.789950
31
0.0
0
ARC
8
00_POLIAMIDAS
10
202.108236
20
124.789950
30
0.0
40
0.500000
50
180.000000
51
270.000000
0
LINE
8
00_POLIAMIDAS
10
202.108236
20
124.289950
30
0.0
11
204.122057
21
124.289950
31
0.0
0
ARC
8
00_POLIAMIDAS
10
204.122057
20
125.689950
30
0.0
40
1.400000
50
270.000000
51
327.000000
0
LINE
8
00_POLIAMIDAS
10
205.296196
20
124.927455
30
0.0
11
206.865204
21
127.343517
31
0.0
0
ARC
8
00_POLIAMIDAS
10
207.871609
20
126.689950
30
0.0
40
1.200000
50
90.000000
51
147.000000
0
LINE
8
00_POLIAMIDAS
10
207.871609
20
127.889950
30
0.0
11
208.591057
21
127.889950
31
0.0
0
ARC
8
00_POLIAMIDAS
10
208.591057
20
129.089950
30
0.0
40
1.200000
50
270.000000
51
300.911655
0
LINE
8
00_POLIAMIDAS
10
209.207516
20
128.060397
30
0.0
11
210.377839
21
128.748556
31
0.0
0
ARC
8
00_POLIAMIDAS
10
210.529902
20
128.489950
30
0.0
40
0.300000
50
90.000000
51
120.455827
0
LINE
8
00_POLIAMIDAS
10
210.529902
20
128.789950
30
0.0
11
210.708236
21
128.789950
31
0.0
0
ARC
8
00_POLIAMIDAS
10
210.708236
20
128.389950
30
0.0
40
0.400000
50
0.000000
51
90.000000
0
LINE
8
00_POLIAMIDAS
10
211.108236
20
128.389950
30
0.0
11
211.108236
21
127.989950
31
0.0
0
ARC
8
00_POLIAMIDAS
10
211.008236
20
127.989950
30
0.0
40
0.100000
50
270.000000
51
0.000000
0
LINE
8
00_POLIAMIDAS
10
211.008236
20
127.889950
30
0.0
11
211.008236
21
127.614950
31
0.0
0
ARC
8
00_POLIAMIDAS
10
210.708236
20
127.614950
30
0.0
40
0.300000
50
270.000000
51
0.000000
0
LINE
8
00_POLIAMIDAS
10
210.708236
20
127.314950
30
0.0
11
210.648710
21
127.314950
31
0.0
0
ARC
8
00_POLIAMIDAS
10
210.358236
20
126.789950
30
0.0
40
0.600000
50
61.044976
51
298.955024
0
LINE
8
00_POLIAMIDAS
10
210.648710
20
126.264950
30
0.0
11
210.708236
21
126.264950
31
0.0
0
ARC
8
00_POLIAMIDAS
10
210.708236
20
125.964950
30
0.0
40
0.300000
50
0.000000
51
90.000000
0
LINE
8
00_POLIAMIDAS
10
211.008236
20
125.964950
30
0.0
11
211.008236
21
125.689950
31
0.0
0
ARC
8
00_POLIAMIDAS
10
211.008236
20
125.589950
30
0.0
40
0.100000
50
0.000000
51
90.000000
0
LINE
8
00_POLIAMIDAS
10
211.108236
20
125.589950
30
0.0
11
211.108236
21
125.189950
31
0.0
0
ARC
8
00_POLIAMIDAS
10
210.708236
20
125.189950
30
0.0
40
0.400000
50
270.000000
51
0.000000
0
LINE
8
00_POLIAMIDAS
10
210.708236
20
124.789950
30
0.0
11
210.530035
21
124.789950
31
0.0
0
ARC
8
00_POLIAMIDAS
10
210.530035
20
125.089950
30
0.0
40
0.300000
50
239.496833
51
270.000000
0
LINE
8
00_POLIAMIDAS
10
210.377759
20
124.831469
30
0.0
11
209.211590
21
125.518482
31
0.0
0
ARC
8
00_POLIAMIDAS
10
208.593431
20
124.489950
30
0.0
40
1.200000
50
58.993666
51
90.000000
0
LINE
8
00_POLIAMIDAS
10
208.593431
20
125.689950
30
0.0
11
208.338970
21
125.689950
31
0.0
0
ARC
8
00_POLIAMIDAS
10
208.338970
20
125.389950
30
0.0
40
0.300000
50
90.000000
51
147.390000
0
LINE
8
00_POLIAMIDAS
10
208.086263
20
125.551625
30
0.0
11
206.582727
21
123.236383
31
0.0
0
ATTDEF
8
0
10
0.000000
20
0.000000
30
0.0
40
3.5
1

3

2
PANE_WIDTH:0
70
0
0
ATTDEF
8
0
10
0.000000
20
0.000000
30
0.0
40
3.5
1

3

2
MIN_VETRO:0
70
0
0
ATTDEF
8
0
10
0.000000
20
0.000000
30
0.0
40
3.5
1

3

2
MAX_VETRO:0
70
0
0
ATTDEF
8
0
10
0.000000
20
0.000000
30
0.0
40
3.5
1

3

2
JX:0
70
0
0
ATTDEF
8
0
10
0.000000
20
0.000000
30
0.0
40
3.5
1

3

2
WX:0
70
0
0
ATTDEF
8
0
10
0.000000
20
0.000000
30
0.0
40
3.5
1

3

2
JY:0
70
0
0
ATTDEF
8
0
10
0.000000
20
0.000000
30
0.0
40
3.5
1

3

2
WY:0
70
0
0
ATTDEF
8
0
10
0.000000
20
0.000000
30
0.0
40
3.5
1

3

2
DESC:Marco para fijos
70
0
0
ATTDEF
8
0
10
0.000000
20
0.000000
30
0.0
40
3.5
1

3

2
DENS:2.1181
70
0
0
ATTDEF
8
0
10
0.000000
20
0.000000
30
0.0
40
3.5
1

3

2
TDEV:77.06
70
0
0
ATTDEF
8
0
10
0.000000
20
0.000000
30
0.0
40
3.5
1

3

2
TDEV2:0
70
0
0
ATTDEF
8
0
10
0.000000
20
0.000000
30
0.0
40
3.5
1

3

2
TDEV3:0
70
0
0
ATTDEF
8
0
10
0.000000
20
0.000000
30
0.0
40
3.5
1

3

2
TDEV4:0
70
0
0
ATTDEF
8
0
10
0.000000
20
0.000000
30
0.0
40
3.5
1

3

2
TDEV5:0
70
0
0
ATTDEF
8
0
10
0.000000
20
0.000000
30
0.0
40
3.5
1

3

2
PANE_WIDTH:0
70
0
0
ATTDEF
8
0
10
0.000000
20
0.000000
30
0.0
40
3.5
1

3

2
MIN_VETRO:0
70
0
0
ATTDEF
8
0
10
0.000000
20
0.000000
30
0.0
40
3.5
1

3

2
MAX_VETRO:0
70
0
0
ATTDEF
8
0
10
0.000000
20
0.000000
30
0.0
40
3.5
1

3

2
JX:0
70
0
0
ATTDEF
8
0
10
0.000000
20
0.000000
30
0.0
40
3.5
1

3

2
WX:0
70
0
0
ATTDEF
8
0
10
0.000000
20
0.000000
30
0.0
40
3.5
1

3

2
JY:0
70
0
0
ATTDEF
8
0
10
0.000000
20
0.000000
30
0.0
40
3.5
1

3

2
WY:0
70
0
0
ENDSEC
0
EOF
