0
SECTION
2
ENTITIES
0
ARC
8
0
10
33.761426
20
80.709619
30
0.0
40
0.600000
50
0.000000
51
180.000000
0
ARC
8
0
10
33.761426
20
80.709619
30
0.0
40
0.600000
50
180.000000
51
0.000000
0
ARC
8
0
10
11.261426
20
80.709619
30
0.0
40
0.600000
50
0.000000
51
180.000000
0
ARC
8
0
10
11.261426
20
80.709619
30
0.0
40
0.600000
50
180.000000
51
0.000000
0
ARC
8
0
10
33.761426
20
72.290381
30
0.0
40
0.600000
50
0.000000
51
180.000000
0
ARC
8
0
10
33.761426
20
72.290381
30
0.0
40
0.600000
50
180.000000
51
0.000000
0
ARC
8
0
10
11.261426
20
72.290381
30
0.0
40
0.600000
50
0.000000
51
180.000000
0
ARC
8
0
10
11.261426
20
72.290381
30
0.0
40
0.600000
50
180.000000
51
0.000000
0
LINE
8
0
10
34.411426
20
81.764748
30
0.0
11
33.543320
21
82.632854
31
0.0
0
LINE
8
0
10
34.511426
20
79.419684
30
0.0
11
33.818747
21
80.112363
31
0.0
0
LINE
8
0
10
30.529454
20
83.401657
30
0.0
11
29.121492
21
84.809619
31
0.0
0
LINE
8
0
10
33.164171
20
80.766940
30
0.0
11
32.101666
21
81.829444
31
0.0
0
LINE
8
0
10
32.100725
20
79.585321
30
0.0
11
26.876428
21
84.809619
31
0.0
0
LINE
8
0
10
26.631364
20
82.809619
30
0.0
11
24.631364
21
84.809619
31
0.0
0
LINE
8
0
10
34.336557
20
72.859361
30
0.0
11
33.187857
21
74.008061
31
0.0
0
LINE
8
0
10
24.386300
20
82.809619
30
0.0
11
22.386300
21
84.809619
31
0.0
0
LINE
8
0
10
34.489906
20
70.460948
30
0.0
11
31.560473
21
73.390381
31
0.0
0
LINE
8
0
10
22.141236
20
82.809619
30
0.0
11
20.141236
21
84.809619
31
0.0
0
LINE
8
0
10
31.605015
20
71.100775
30
0.0
11
30.110668
21
72.595122
31
0.0
0
LINE
8
0
10
19.896171
20
82.809619
30
0.0
11
17.896171
21
84.809619
31
0.0
0
LINE
8
0
10
30.661718
20
69.799008
30
0.0
11
29.221827
21
71.238899
31
0.0
0
LINE
8
0
10
17.651107
20
82.809619
30
0.0
11
15.652564
21
84.808162
31
0.0
0
LINE
8
0
10
29.769813
20
68.445849
30
0.0
11
28.024819
21
70.190843
31
0.0
0
LINE
8
0
10
16.059766
20
82.155896
30
0.0
11
14.620767
21
83.594895
31
0.0
0
LINE
8
0
10
27.780217
20
68.190381
30
0.0
11
25.780217
21
70.190381
31
0.0
0
LINE
8
0
10
15.170925
20
80.799673
30
0.0
11
13.728862
21
82.241736
31
0.0
0
LINE
8
0
10
25.535153
20
68.190381
30
0.0
11
23.535153
21
70.190381
31
0.0
0
LINE
8
0
10
14.087487
20
79.638047
30
0.0
11
10.915915
21
82.809619
31
0.0
0
LINE
8
0
10
23.290089
20
68.190381
30
0.0
11
21.290089
21
70.190381
31
0.0
0
LINE
8
0
10
12.249078
20
79.231392
30
0.0
11
11.362309
21
80.118161
31
0.0
0
LINE
8
0
10
21.045025
20
68.190381
30
0.0
11
19.045025
21
70.190381
31
0.0
0
LINE
8
0
10
18.799961
20
68.190381
30
0.0
11
16.764497
21
70.225845
31
0.0
0
LINE
8
0
10
15.895318
20
71.095024
30
0.0
11
13.599961
21
73.390381
31
0.0
0
LINE
8
0
10
16.554897
20
68.190381
30
0.0
11
10.561363
21
74.183915
31
0.0
0
LINE
8
0
10
11.893615
20
70.606599
30
0.0
11
10.745879
21
71.754335
31
0.0
0
LINE
8
0
10
34.123351
20
70.190559
30
0.0
11
34.511248
21
70.578456
31
0.0
0
LINE
8
0
10
32.600236
20
70.912507
30
0.0
11
33.459570
21
71.771841
31
0.0
0
LINE
8
0
10
27.633046
20
68.190381
30
0.0
11
33.810718
21
74.368053
31
0.0
0
LINE
8
0
10
25.387982
20
68.190381
30
0.0
11
27.387982
21
70.190381
31
0.0
0
LINE
8
0
10
23.142918
20
68.190381
30
0.0
11
25.142918
21
70.190381
31
0.0
0
LINE
8
0
10
33.667253
20
78.714716
30
0.0
11
34.511426
21
79.558889
31
0.0
0
LINE
8
0
10
20.897853
20
68.190381
30
0.0
11
22.897853
21
70.190381
31
0.0
0
LINE
8
0
10
33.977020
20
81.269547
30
0.0
11
34.411426
21
81.703954
31
0.0
0
LINE
8
0
10
32.242460
20
79.534987
30
0.0
11
33.201498
21
80.494025
31
0.0
0
LINE
8
0
10
18.652789
20
68.190381
30
0.0
11
20.652789
21
70.190381
31
0.0
0
LINE
8
0
10
30.416735
20
79.954326
30
0.0
11
32.480882
21
82.018473
31
0.0
0
LINE
8
0
10
16.407725
20
68.190381
30
0.0
11
18.407725
21
70.190381
31
0.0
0
LINE
8
0
10
29.521379
20
81.304034
30
0.0
11
30.962302
21
82.744958
31
0.0
0
LINE
8
0
10
14.921352
20
68.949071
30
0.0
11
16.391640
21
70.419359
31
0.0
0
LINE
8
0
10
28.587230
20
82.614949
30
0.0
11
30.070397
21
84.098117
31
0.0
0
LINE
8
0
10
14.029447
20
70.302230
30
0.0
11
15.470477
21
71.743261
31
0.0
0
LINE
8
0
10
26.536835
20
82.809619
30
0.0
11
28.536835
21
84.809619
31
0.0
0
LINE
8
0
10
12.356324
20
70.874171
30
0.0
11
14.568660
21
73.086508
31
0.0
0
LINE
8
0
10
24.291771
20
82.809619
30
0.0
11
26.291771
21
84.809619
31
0.0
0
LINE
8
0
10
10.611426
20
71.374338
30
0.0
11
10.991577
21
71.754488
31
0.0
0
LINE
8
0
10
22.046707
20
82.809619
30
0.0
11
24.046707
21
84.809619
31
0.0
0
LINE
8
0
10
11.797319
20
72.560231
30
0.0
11
12.728550
21
73.491462
31
0.0
0
LINE
8
0
10
10.511426
20
73.519402
30
0.0
11
11.305994
21
74.313969
31
0.0
0
LINE
8
0
10
19.801643
20
82.809619
30
0.0
11
21.801643
21
84.809619
31
0.0
0
LINE
8
0
10
17.556579
20
82.809619
30
0.0
11
19.556579
21
84.809619
31
0.0
0
LINE
8
0
10
11.111515
20
78.609619
30
0.0
11
17.311515
21
84.809619
31
0.0
0
LINE
8
0
10
11.511742
20
81.254909
30
0.0
11
12.373011
21
82.116178
31
0.0
0
LINE
8
0
10
10.525108
20
82.513339
30
0.0
11
10.807706
21
82.795937
31
0.0
0
ARC
8
0
10
33.761426
20
80.709619
30
0.0
40
0.600000
50
61.044976
51
180.000000
0
ARC
8
0
10
33.761426
20
80.709619
30
0.0
40
0.600000
50
180.000000
51
298.955024
0
LINE
8
0
10
34.051900
20
80.184619
30
0.0
11
34.211426
21
80.184619
31
0.0
0
ARC
8
0
10
34.211426
20
79.984619
30
0.0
40
0.200000
50
0.000000
51
90.000000
0
LINE
8
0
10
34.411426
20
79.984619
30
0.0
11
34.411426
21
79.609619
31
0.0
0
LINE
8
0
10
34.411426
20
79.609619
30
0.0
11
34.511426
21
79.609619
31
0.0
0
LINE
8
0
10
34.511426
20
79.609619
30
0.0
11
34.511426
21
79.009619
31
0.0
0
ARC
8
0
10
34.111426
20
79.009619
30
0.0
40
0.400000
50
270.000000
51
0.000000
0
LINE
8
0
10
34.111426
20
78.609619
30
0.0
11
33.902546
21
78.609619
31
0.0
0
LINE
8
0
10
33.902546
20
78.609619
30
0.0
11
33.806576
21
78.634149
31
0.0
0
LINE
8
0
10
33.806576
20
78.634149
30
0.0
11
32.305537
21
79.502162
31
0.0
0
ARC
8
0
10
31.905057
20
78.809619
30
0.0
40
0.800000
50
59.960294
51
90.000000
0
LINE
8
0
10
31.905057
20
79.609619
30
0.0
11
31.172111
21
79.609619
31
0.0
0
ARC
8
0
10
31.172111
20
80.609619
30
0.0
40
1.000000
50
213.240000
51
270.000000
0
LINE
8
0
10
30.335729
20
80.061471
30
0.0
11
28.830785
21
82.357766
31
0.0
0
ARC
8
0
10
27.994403
20
81.809619
30
0.0
40
1.000000
50
33.240000
51
90.000000
0
LINE
8
0
10
27.994403
20
82.809619
30
0.0
11
22.511426
21
82.809619
31
0.0
0
LINE
8
0
10
22.511426
20
82.809619
30
0.0
11
17.179010
21
82.809619
31
0.0
0
LINE
8
0
10
17.179010
20
82.809619
30
0.0
11
17.028449
21
82.809619
31
0.0
0
ARC
8
0
10
17.028449
20
81.809619
30
0.0
40
1.000000
50
90.000000
51
146.760000
0
LINE
8
0
10
16.192067
20
82.357766
30
0.0
11
14.687124
21
80.061471
31
0.0
0
ARC
8
0
10
13.850742
20
80.609619
30
0.0
40
1.000000
50
270.000000
51
326.760000
0
LINE
8
0
10
13.850742
20
79.609619
30
0.0
11
13.117796
21
79.609619
31
0.0
0
ARC
8
0
10
13.117796
20
78.809619
30
0.0
40
0.800000
50
90.000000
51
120.039706
0
LINE
8
0
10
12.717316
20
79.502162
30
0.0
11
11.216277
21
78.634149
31
0.0
0
LINE
8
0
10
11.216277
20
78.634149
30
0.0
11
11.120306
21
78.609619
31
0.0
0
LINE
8
0
10
11.120306
20
78.609619
30
0.0
11
10.911426
21
78.609619
31
0.0
0
ARC
8
0
10
10.911426
20
79.009619
30
0.0
40
0.400000
50
180.000000
51
270.000000
0
LINE
8
0
10
10.511426
20
79.009619
30
0.0
11
10.511426
21
79.609619
31
0.0
0
LINE
8
0
10
10.511426
20
79.609619
30
0.0
11
10.611426
21
79.609619
31
0.0
0
LINE
8
0
10
10.611426
20
79.609619
30
0.0
11
10.611426
21
79.984619
31
0.0
0
ARC
8
0
10
10.811426
20
79.984619
30
0.0
40
0.200000
50
90.000000
51
180.000000
0
LINE
8
0
10
10.811426
20
80.184619
30
0.0
11
10.970953
21
80.184619
31
0.0
0
ARC
8
0
10
11.261426
20
80.709619
30
0.0
40
0.600000
50
241.044976
51
118.955024
0
LINE
8
0
10
10.970953
20
81.234619
30
0.0
11
10.811426
21
81.234619
31
0.0
0
ARC
8
0
10
10.811426
20
81.434619
30
0.0
40
0.200000
50
180.000000
51
270.000000
0
LINE
8
0
10
10.611426
20
81.434619
30
0.0
11
10.611426
21
81.809619
31
0.0
0
LINE
8
0
10
10.611426
20
81.809619
30
0.0
11
10.511426
21
81.809619
31
0.0
0
LINE
8
0
10
10.511426
20
81.809619
30
0.0
11
10.511426
21
82.409619
31
0.0
0
ARC
8
0
10
10.911426
20
82.409619
30
0.0
40
0.400000
50
90.000000
51
180.000000
0
LINE
8
0
10
10.911426
20
82.809619
30
0.0
11
11.120306
21
82.809619
31
0.0
0
LINE
8
0
10
11.120306
20
82.809619
30
0.0
11
11.216277
21
82.785089
31
0.0
0
LINE
8
0
10
11.216277
20
82.785089
30
0.0
11
12.747427
21
81.899663
31
0.0
0
ARC
8
0
10
13.083012
20
82.479984
30
0.0
40
0.670365
50
239.960294
51
326.610000
0
LINE
8
0
10
13.642729
20
82.111058
30
0.0
11
15.273233
21
84.584786
31
0.0
0
ARC
8
0
10
15.690705
20
84.309619
30
0.0
40
0.500000
50
90.000000
51
146.610000
0
LINE
8
0
10
15.690705
20
84.809619
30
0.0
11
22.511426
21
84.809619
31
0.0
0
LINE
8
0
10
22.511426
20
84.809619
30
0.0
11
29.332148
21
84.809619
31
0.0
0
ARC
8
0
10
29.332148
20
84.309619
30
0.0
40
0.500000
50
33.390000
51
90.000000
0
LINE
8
0
10
29.749620
20
84.584786
30
0.0
11
31.380123
21
82.111058
31
0.0
0
ARC
8
0
10
31.939841
20
82.479984
30
0.0
40
0.670365
50
213.390000
51
300.039706
0
LINE
8
0
10
32.275425
20
81.899663
30
0.0
11
33.806576
21
82.785089
31
0.0
0
LINE
8
0
10
33.806576
20
82.785089
30
0.0
11
33.902546
21
82.809619
31
0.0
0
LINE
8
0
10
33.902546
20
82.809619
30
0.0
11
34.111426
21
82.809619
31
0.0
0
ARC
8
0
10
34.111426
20
82.409619
30
0.0
40
0.400000
50
0.000000
51
90.000000
0
LINE
8
0
10
34.511426
20
82.409619
30
0.0
11
34.511426
21
81.809619
31
0.0
0
LINE
8
0
10
34.511426
20
81.809619
30
0.0
11
34.411426
21
81.809619
31
0.0
0
LINE
8
0
10
34.411426
20
81.809619
30
0.0
11
34.411426
21
81.434619
31
0.0
0
ARC
8
0
10
34.211426
20
81.434619
30
0.0
40
0.200000
50
270.000000
51
0.000000
0
LINE
8
0
10
34.211426
20
81.234619
30
0.0
11
34.051900
21
81.234619
31
0.0
0
LINE
8
0
10
31.905057
20
73.390381
30
0.0
11
31.172111
21
73.390381
31
0.0
0
ARC
8
0
10
31.172111
20
72.390381
30
0.0
40
1.000000
50
90.000000
51
146.760000
0
LINE
8
0
10
30.335729
20
72.938528
30
0.0
11
28.830785
21
70.642233
31
0.0
0
ARC
8
0
10
27.994403
20
71.190381
30
0.0
40
1.000000
50
270.000000
51
326.760000
0
LINE
8
0
10
27.994403
20
70.190381
30
0.0
11
22.511426
21
70.190381
31
0.0
0
LINE
8
0
10
22.511426
20
70.190381
30
0.0
11
17.179010
21
70.190381
31
0.0
0
LINE
8
0
10
17.179010
20
70.190381
30
0.0
11
17.028449
21
70.190381
31
0.0
0
ARC
8
0
10
17.028449
20
71.190381
30
0.0
40
1.000000
50
213.240000
51
270.000000
0
LINE
8
0
10
16.192067
20
70.642233
30
0.0
11
14.687124
21
72.938528
31
0.0
0
ARC
8
0
10
13.850742
20
72.390381
30
0.0
40
1.000000
50
33.240000
51
90.000000
0
LINE
8
0
10
13.850742
20
73.390381
30
0.0
11
13.117796
21
73.390381
31
0.0
0
ARC
8
0
10
13.117796
20
74.190381
30
0.0
40
0.800000
50
239.960294
51
270.000000
0
LINE
8
0
10
12.717316
20
73.497838
30
0.0
11
11.216277
21
74.365851
31
0.0
0
LINE
8
0
10
11.120306
20
74.390381
30
0.0
11
11.216277
21
74.365851
31
0.0
0
LINE
8
0
10
11.120306
20
74.390381
30
0.0
11
10.911426
21
74.390381
31
0.0
0
ARC
8
0
10
10.911426
20
73.990381
30
0.0
40
0.400000
50
90.000000
51
180.000000
0
LINE
8
0
10
10.511426
20
73.990381
30
0.0
11
10.511426
21
73.390381
31
0.0
0
LINE
8
0
10
10.511426
20
73.390381
30
0.0
11
10.611426
21
73.390381
31
0.0
0
LINE
8
0
10
10.611426
20
73.390381
30
0.0
11
10.611426
21
73.015381
31
0.0
0
ARC
8
0
10
10.811426
20
73.015381
30
0.0
40
0.200000
50
180.000000
51
270.000000
0
LINE
8
0
10
10.811426
20
72.815381
30
0.0
11
10.970953
21
72.815381
31
0.0
0
ARC
8
0
10
11.261426
20
72.290381
30
0.0
40
0.600000
50
241.044976
51
118.955024
0
LINE
8
0
10
10.970953
20
71.765381
30
0.0
11
10.811426
21
71.765381
31
0.0
0
ARC
8
0
10
10.811426
20
71.565381
30
0.0
40
0.200000
50
90.000000
51
180.000000
0
LINE
8
0
10
10.611426
20
71.565381
30
0.0
11
10.611426
21
71.190381
31
0.0
0
LINE
8
0
10
10.611426
20
71.190381
30
0.0
11
10.511426
21
71.190381
31
0.0
0
LINE
8
0
10
10.511426
20
71.190381
30
0.0
11
10.511426
21
70.590381
31
0.0
0
ARC
8
0
10
10.911426
20
70.590381
30
0.0
40
0.400000
50
180.000000
51
270.000000
0
LINE
8
0
10
10.911426
20
70.190381
30
0.0
11
11.120306
21
70.190381
31
0.0
0
LINE
8
0
10
11.216277
20
70.214911
30
0.0
11
11.120306
21
70.190381
31
0.0
0
LINE
8
0
10
11.216277
20
70.214911
30
0.0
11
12.747427
21
71.100336
31
0.0
0
ARC
8
0
10
13.083012
20
70.520015
30
0.0
40
0.670365
50
33.390000
51
120.039706
0
LINE
8
0
10
13.642729
20
70.888941
30
0.0
11
15.273233
21
68.415213
31
0.0
0
ARC
8
0
10
15.690705
20
68.690381
30
0.0
40
0.500000
50
213.390000
51
270.000000
0
LINE
8
0
10
15.690705
20
68.190381
30
0.0
11
22.511426
21
68.190381
31
0.0
0
LINE
8
0
10
22.511426
20
68.190381
30
0.0
11
29.332148
21
68.190381
31
0.0
0
ARC
8
0
10
29.332148
20
68.690381
30
0.0
40
0.500000
50
270.000000
51
326.610000
0
LINE
8
0
10
29.749620
20
68.415213
30
0.0
11
31.380123
21
70.888941
31
0.0
0
ARC
8
0
10
31.939841
20
70.520015
30
0.0
40
0.670365
50
59.960294
51
146.610000
0
LINE
8
0
10
32.275425
20
71.100336
30
0.0
11
33.806576
21
70.214911
31
0.0
0
LINE
8
0
10
33.902546
20
70.190381
30
0.0
11
33.806576
21
70.214911
31
0.0
0
LINE
8
0
10
33.902546
20
70.190381
30
0.0
11
34.111426
21
70.190381
31
0.0
0
ARC
8
0
10
34.111426
20
70.590381
30
0.0
40
0.400000
50
270.000000
51
0.000000
0
LINE
8
0
10
34.511426
20
70.590381
30
0.0
11
34.511426
21
71.190381
31
0.0
0
LINE
8
0
10
34.511426
20
71.190381
30
0.0
11
34.411426
21
71.190381
31
0.0
0
LINE
8
0
10
34.411426
20
71.190381
30
0.0
11
34.411426
21
71.565381
31
0.0
0
ARC
8
0
10
34.211426
20
71.565381
30
0.0
40
0.200000
50
0.000000
51
90.000000
0
LINE
8
0
10
34.211426
20
71.765381
30
0.0
11
34.051900
21
71.765381
31
0.0
0
ARC
8
0
10
33.761426
20
72.290381
30
0.0
40
0.600000
50
180.000000
51
298.955024
0
ARC
8
0
10
33.761426
20
72.290381
30
0.0
40
0.600000
50
61.044976
51
180.000000
0
LINE
8
0
10
34.051900
20
72.815381
30
0.0
11
34.211426
21
72.815381
31
0.0
0
ARC
8
0
10
34.211426
20
73.015381
30
0.0
40
0.200000
50
270.000000
51
0.000000
0
LINE
8
0
10
34.411426
20
73.015381
30
0.0
11
34.411426
21
73.390381
31
0.0
0
LINE
8
0
10
34.411426
20
73.390381
30
0.0
11
34.511426
21
73.390381
31
0.0
0
LINE
8
0
10
34.511426
20
73.390381
30
0.0
11
34.511426
21
73.990381
31
0.0
0
ARC
8
0
10
34.111426
20
73.990381
30
0.0
40
0.400000
50
0.000000
51
90.000000
0
LINE
8
0
10
34.111426
20
74.390381
30
0.0
11
33.902546
21
74.390381
31
0.0
0
LINE
8
0
10
33.806576
20
74.365851
30
0.0
11
33.902546
21
74.390381
31
0.0
0
LINE
8
0
10
33.806576
20
74.365851
30
0.0
11
32.305537
21
73.497838
31
0.0
0
ARC
8
0
10
31.905057
20
74.190381
30
0.0
40
0.800000
50
270.000000
51
300.039706
0
LINE
8
0
10
39.011426
20
88.600000
30
0.0
11
36.111426
21
88.600000
31
0.0
0
LINE
8
0
10
36.111426
20
88.600000
30
0.0
11
36.111426
21
69.400000
31
0.0
0
LINE
8
0
10
36.111426
20
69.400000
30
0.0
11
58.511426
21
69.400000
31
0.0
0
LINE
8
0
10
58.511426
20
69.400000
30
0.0
11
58.511426
21
83.600000
31
0.0
0
LINE
8
0
10
58.511426
20
83.600000
30
0.0
11
39.011426
21
83.600000
31
0.0
0
LINE
8
0
10
39.011426
20
83.600000
30
0.0
11
39.011426
21
88.600000
31
0.0
0
ARC
8
0
10
30.284165
20
68.481220
30
0.0
40
0.300000
50
161.748585
51
270.000000
0
LINE
8
0
10
29.999257
20
68.575176
30
0.0
11
32.063545
21
71.241617
31
0.0
0
ARC
8
0
10
32.178692
20
71.152473
30
0.0
40
0.145621
50
0.000000
51
142.253920
0
LINE
8
0
10
32.324224
20
71.147391
30
0.0
11
32.318794
21
70.991904
31
0.0
0
ARC
8
0
10
32.518672
20
70.984924
30
0.0
40
0.200000
50
180.000000
51
231.176024
0
LINE
8
0
10
32.393286
20
70.829109
30
0.0
11
34.036456
21
69.506834
31
0.0
0
ARC
8
0
10
34.224535
20
69.740557
30
0.0
40
0.300000
50
231.176024
51
256.872879
0
LINE
8
0
10
34.156401
20
69.448396
30
0.0
11
34.511426
21
69.352845
31
0.0
0
ARC
8
0
10
34.511426
20
69.652845
30
0.0
40
0.300000
50
270.000000
51
90.000000
0
LINE
8
0
10
34.511426
20
69.952845
30
0.0
11
34.511426
21
74.452845
31
0.0
0
ARC
8
0
10
34.311426
20
74.452845
30
0.0
40
0.200000
50
0.000000
51
90.000000
0
LINE
8
0
10
34.311426
20
74.652845
30
0.0
11
34.243538
21
74.652845
31
0.0
0
ARC
8
0
10
34.243538
20
74.352845
30
0.0
40
0.300000
50
90.000000
51
121.380132
0
LINE
8
0
10
34.087323
20
74.608965
30
0.0
11
32.411330
21
73.586732
31
0.0
0
ARC
8
0
10
32.211426
20
73.580542
30
0.0
40
0.200000
50
180.000000
51
0.000000
0
LINE
8
0
10
32.011426
20
73.580542
30
0.0
11
32.011426
21
74.964322
31
0.0
0
ARC
8
0
10
32.211426
20
74.964322
30
0.0
40
0.200000
50
119.846880
51
180.000000
0
LINE
8
0
10
32.111890
20
75.137794
30
0.0
11
33.418567
21
75.887555
31
0.0
0
ARC
8
0
10
33.079413
20
76.500000
30
0.0
40
0.700000
50
298.976366
51
61.023634
0
LINE
8
0
10
33.418567
20
77.112444
30
0.0
11
32.111890
21
77.862206
31
0.0
0
ARC
8
0
10
32.211426
20
78.035677
30
0.0
40
0.200000
50
180.000000
51
240.153120
0
LINE
8
0
10
32.011426
20
78.035677
30
0.0
11
32.011426
21
79.419458
31
0.0
0
ARC
8
0
10
32.211426
20
79.419458
30
0.0
40
0.200000
50
0.000000
51
180.000000
0
LINE
8
0
10
32.411330
20
79.413268
30
0.0
11
34.087323
21
78.391035
31
0.0
0
ARC
8
0
10
34.243538
20
78.647154
30
0.0
40
0.300000
50
238.619868
51
270.000000
0
LINE
8
0
10
34.243538
20
78.347154
30
0.0
11
34.311426
21
78.347154
31
0.0
0
ARC
8
0
10
34.311426
20
78.547154
30
0.0
40
0.200000
50
270.000000
51
0.000000
0
LINE
8
0
10
34.511426
20
78.547154
30
0.0
11
34.511426
21
83.047154
31
0.0
0
ARC
8
0
10
34.511426
20
83.347154
30
0.0
40
0.300000
50
270.000000
51
90.000000
0
LINE
8
0
10
34.511426
20
83.647154
30
0.0
11
34.156401
21
83.551603
31
0.0
0
ARC
8
0
10
34.224535
20
83.259443
30
0.0
40
0.300000
50
103.127121
51
128.823976
0
LINE
8
0
10
34.036456
20
83.493165
30
0.0
11
32.393286
21
82.170890
31
0.0
0
ARC
8
0
10
32.518672
20
82.015075
30
0.0
40
0.200000
50
128.823976
51
180.000000
0
LINE
8
0
10
32.318794
20
82.008095
30
0.0
11
32.324224
21
81.852608
31
0.0
0
ARC
8
0
10
32.178692
20
81.847526
30
0.0
40
0.145621
50
217.746080
51
0.000000
0
LINE
8
0
10
32.063545
20
81.758383
30
0.0
11
29.999257
21
84.424824
31
0.0
0
ARC
8
0
10
30.284165
20
84.518780
30
0.0
40
0.300000
50
90.000000
51
198.251415
0
LINE
8
0
10
30.280780
20
84.818804
30
0.0
11
30.937401
21
84.837418
31
0.0
0
ARC
8
0
10
30.951569
20
84.337619
30
0.0
40
0.500000
50
51.805773
51
91.623749
0
ARC
8
0
10
32.497392
20
86.302417
30
0.0
40
2.000000
50
231.805773
51
303.997055
0
LINE
8
0
10
33.615693
20
84.644284
30
0.0
11
34.231222
21
84.946189
31
0.0
0
ARC
8
0
10
34.011041
20
85.395099
30
0.0
40
0.500000
50
296.127032
51
0.000000
0
LINE
8
0
10
34.511041
20
85.395041
30
0.0
11
34.511426
21
88.700000
31
0.0
0
LINE
8
0
10
34.511426
20
88.700000
30
0.0
11
33.311426
21
88.700000
31
0.0
0
ARC
8
0
10
33.311426
20
89.000000
30
0.0
40
0.300000
50
180.000000
51
270.000000
0
LINE
8
0
10
33.011426
20
89.000000
30
0.0
11
33.011426
21
89.900000
31
0.0
0
ARC
8
0
10
33.311426
20
89.900000
30
0.0
40
0.300000
50
90.000000
51
180.000000
0
LINE
8
0
10
33.311426
20
90.200000
30
0.0
11
41.611426
21
90.200000
31
0.0
0
LINE
8
0
10
41.611426
20
90.200000
30
0.0
11
42.611426
21
89.200000
31
0.0
0
LINE
8
0
10
42.611426
20
89.200000
30
0.0
11
42.611426
21
88.200000
31
0.0
0
LINE
8
0
10
42.611426
20
88.200000
30
0.0
11
40.611426
21
88.200000
31
0.0
0
LINE
8
0
10
40.611426
20
88.200000
30
0.0
11
40.611426
21
85.200000
31
0.0
0
LINE
8
0
10
40.611426
20
85.200000
30
0.0
11
58.611426
21
85.200000
31
0.0
0
LINE
8
0
10
58.611426
20
85.200000
30
0.0
11
58.611426
21
88.200000
31
0.0
0
LINE
8
0
10
58.611426
20
88.200000
30
0.0
11
56.611426
21
88.200000
31
0.0
0
LINE
8
0
10
56.611426
20
88.200000
30
0.0
11
56.611426
21
89.200000
31
0.0
0
LINE
8
0
10
56.611426
20
89.200000
30
0.0
11
57.611426
21
90.200000
31
0.0
0
LINE
8
0
10
57.611426
20
90.200000
30
0.0
11
60.111426
21
90.200000
31
0.0
0
LINE
8
0
10
60.111426
20
90.200000
30
0.0
11
60.111426
21
62.800000
31
0.0
0
LINE
8
0
10
60.111426
20
62.800000
30
0.0
11
56.611426
21
62.800000
31
0.0
0
LINE
8
0
10
56.611426
20
62.800000
30
0.0
11
56.611426
21
64.300000
31
0.0
0
LINE
8
0
10
56.611426
20
64.300000
30
0.0
11
58.611426
21
64.300000
31
0.0
0
LINE
8
0
10
58.611426
20
64.300000
30
0.0
11
58.611426
21
67.800000
31
0.0
0
LINE
8
0
10
58.611426
20
67.800000
30
0.0
11
36.011426
21
67.800000
31
0.0
0
LINE
8
0
10
36.011426
20
67.800000
30
0.0
11
36.011426
21
64.300000
31
0.0
0
LINE
8
0
10
36.011426
20
64.300000
30
0.0
11
38.011426
21
64.300000
31
0.0
0
LINE
8
0
10
38.011426
20
64.300000
30
0.0
11
38.011426
21
62.800000
31
0.0
0
LINE
8
0
10
38.011426
20
62.800000
30
0.0
11
34.511426
21
62.800000
31
0.0
0
LINE
8
0
10
34.511426
20
62.800000
30
0.0
11
34.511028
21
67.604948
31
0.0
0
ARC
8
0
10
34.011028
20
67.604907
30
0.0
40
0.500000
50
0.000000
51
63.872968
0
LINE
8
0
10
34.231209
20
68.053817
30
0.0
11
33.615693
21
68.355715
31
0.0
0
ARC
8
0
10
32.497392
20
66.697583
30
0.0
40
2.000000
50
56.002945
51
128.194227
0
ARC
8
0
10
30.951569
20
68.662381
30
0.0
40
0.500000
50
268.376251
51
308.194227
0
LINE
8
0
10
30.937401
20
68.162582
30
0.0
11
30.280780
21
68.181195
31
0.0
0
LINE
8
0
10
1.711858
20
82.500000
30
0.0
11
3.511251
21
82.500000
31
0.0
0
LINE
8
0
10
3.511251
20
82.500000
30
0.0
11
3.511426
21
80.900000
31
0.0
0
LINE
8
0
10
3.511426
20
80.900000
30
0.0
11
1.711858
21
80.900000
31
0.0
0
LINE
8
0
10
1.711858
20
80.900000
30
0.0
11
1.711858
21
76.950000
31
0.0
0
LINE
8
0
10
1.711858
20
76.950000
30
0.0
11
2.211858
21
76.450000
31
0.0
0
LINE
8
0
10
2.211858
20
76.450000
30
0.0
11
1.711858
21
75.950000
31
0.0
0
LINE
8
0
10
1.711858
20
75.950000
30
0.0
11
2.211858
21
75.450000
31
0.0
0
LINE
8
0
10
2.211858
20
75.450000
30
0.0
11
1.711858
21
74.950000
31
0.0
0
LINE
8
0
10
1.711858
20
74.950000
30
0.0
11
1.711858
21
71.000000
31
0.0
0
LINE
8
0
10
1.711858
20
71.000000
30
0.0
11
3.511426
21
71.000000
31
0.0
0
LINE
8
0
10
3.511426
20
71.000000
30
0.0
11
3.511426
21
69.400000
31
0.0
0
LINE
8
0
10
3.511426
20
69.400000
30
0.0
11
8.911426
21
69.400000
31
0.0
0
LINE
8
0
10
8.911426
20
69.400000
30
0.0
11
8.911426
21
83.600000
31
0.0
0
LINE
8
0
10
8.911426
20
83.600000
30
0.0
11
7.411426
21
83.600000
31
0.0
0
LINE
8
0
10
7.411426
20
83.600000
30
0.0
11
7.411426
21
85.200000
31
0.0
0
LINE
8
0
10
7.411426
20
85.200000
30
0.0
11
8.911858
21
85.200000
31
0.0
0
LINE
8
0
10
8.911858
20
85.200000
30
0.0
11
8.911858
21
88.594507
31
0.0
0
LINE
8
0
10
8.911858
20
88.594507
30
0.0
11
2.109588
21
87.173129
31
0.0
0
ARC
8
0
10
2.211858
20
86.683700
30
0.0
40
0.500000
50
101.802499
51
180.000000
0
LINE
8
0
10
1.711858
20
86.683700
30
0.0
11
1.711858
21
82.500000
31
0.0
0
LINE
8
0
10
14.742073
20
84.818804
30
0.0
11
14.085451
21
84.837418
31
0.0
0
ARC
8
0
10
14.071283
20
84.337619
30
0.0
40
0.500000
50
88.376251
51
128.194227
0
ARC
8
0
10
12.525460
20
86.302417
30
0.0
40
2.000000
50
236.002945
51
308.194227
0
LINE
8
0
10
11.407160
20
84.644284
30
0.0
11
10.791630
21
84.946189
31
0.0
0
ARC
8
0
10
11.011812
20
85.395099
30
0.0
40
0.500000
50
180.000000
51
243.872968
0
LINE
8
0
10
10.511812
20
85.395041
30
0.0
11
10.511426
21
88.700000
31
0.0
0
LINE
8
0
10
10.511426
20
88.700000
30
0.0
11
11.711858
21
88.700000
31
0.0
0
ARC
8
0
10
11.711858
20
89.000000
30
0.0
40
0.300000
50
270.000000
51
0.000000
0
LINE
8
0
10
12.011858
20
89.000000
30
0.0
11
12.011858
21
89.900000
31
0.0
0
ARC
8
0
10
11.711858
20
89.900000
30
0.0
40
0.300000
50
0.000000
51
90.000000
0
LINE
8
0
10
11.711858
20
90.200000
30
0.0
11
9.014537
21
90.200000
31
0.0
0
LINE
8
0
10
9.014537
20
90.200000
30
0.0
11
2.745550
21
88.913345
31
0.0
0
ARC
8
0
10
2.645025
20
89.403136
30
0.0
40
0.500000
50
181.370720
51
281.598388
0
LINE
8
0
10
2.145168
20
89.391175
30
0.0
11
1.771964
21
104.988039
31
0.0
0
ARC
8
0
10
2.271821
20
105.000000
30
0.0
40
0.500000
50
90.000000
51
181.370720
0
LINE
8
0
10
2.271821
20
105.500000
30
0.0
11
3.611858
21
105.500000
31
0.0
0
ARC
8
0
10
3.611858
20
106.000000
30
0.0
40
0.500000
50
270.000000
51
0.000000
0
LINE
8
0
10
4.111858
20
106.000000
30
0.0
11
4.111858
21
108.549476
31
0.0
0
ARC
8
0
10
3.811858
20
108.549476
30
0.0
40
0.300000
50
0.000000
51
90.000000
0
LINE
8
0
10
3.811858
20
108.849476
30
0.0
11
3.209671
21
108.849476
31
0.0
0
ARC
8
0
10
3.209671
20
108.549476
30
0.0
40
0.300000
50
90.000000
51
180.000000
0
LINE
8
0
10
2.909671
20
108.549476
30
0.0
11
2.909671
21
107.100000
31
0.0
0
LINE
8
0
10
2.909671
20
107.100000
30
0.0
11
1.711858
21
107.100000
31
0.0
0
LINE
8
0
10
1.711858
20
107.100000
30
0.0
11
1.711858
21
114.600000
31
0.0
0
LINE
8
0
10
1.711858
20
114.600000
30
0.0
11
2.909671
21
114.600000
31
0.0
0
LINE
8
0
10
2.909671
20
114.600000
30
0.0
11
2.909671
21
113.150523
31
0.0
0
ARC
8
0
10
3.209671
20
113.150523
30
0.0
40
0.300000
50
180.000000
51
270.000000
0
LINE
8
0
10
3.209671
20
112.850523
30
0.0
11
3.811858
21
112.850523
31
0.0
0
ARC
8
0
10
3.811858
20
113.150523
30
0.0
40
0.300000
50
270.000000
51
0.000000
0
LINE
8
0
10
4.111858
20
113.150523
30
0.0
11
4.111858
21
116.100000
31
0.0
0
LINE
8
0
10
4.111858
20
116.100000
30
0.0
11
3.611858
21
117.850000
31
0.0
0
LINE
8
0
10
3.611858
20
117.850000
30
0.0
11
3.111858
21
117.850000
31
0.0
0
LINE
8
0
10
3.111858
20
117.850000
30
0.0
11
3.111858
21
116.100000
31
0.0
0
LINE
8
0
10
3.111858
20
116.100000
30
0.0
11
1.611858
21
116.100000
31
0.0
0
LINE
8
0
10
1.611858
20
116.100000
30
0.0
11
1.611858
21
123.600000
31
0.0
0
LINE
8
0
10
1.611858
20
123.600000
30
0.0
11
3.111858
21
123.600000
31
0.0
0
LINE
8
0
10
3.111858
20
123.600000
30
0.0
11
3.111858
21
121.850000
31
0.0
0
LINE
8
0
10
3.111858
20
121.850000
30
0.0
11
3.611858
21
121.850000
31
0.0
0
LINE
8
0
10
3.611858
20
121.850000
30
0.0
11
4.111858
21
123.600000
31
0.0
0
LINE
8
0
10
4.111858
20
123.600000
30
0.0
11
4.111858
21
125.100000
31
0.0
0
ARC
8
0
10
3.611858
20
125.100000
30
0.0
40
0.500000
50
0.000000
51
90.000000
0
LINE
8
0
10
3.611858
20
125.600000
30
0.0
11
0.611858
21
125.600000
31
0.0
0
ARC
8
0
10
0.611858
20
125.100000
30
0.0
40
0.500000
50
90.000000
51
180.000000
0
LINE
8
0
10
0.111858
20
125.100000
30
0.0
11
0.111858
21
62.800000
31
0.0
0
LINE
8
0
10
0.111858
20
62.800000
30
0.0
11
3.611858
21
62.800000
31
0.0
0
LINE
8
0
10
3.611858
20
62.800000
30
0.0
11
3.611858
21
64.400000
31
0.0
0
LINE
8
0
10
3.611858
20
64.400000
30
0.0
11
1.611858
21
64.400000
31
0.0
0
LINE
8
0
10
1.611858
20
64.400000
30
0.0
11
1.611858
21
67.800000
31
0.0
0
LINE
8
0
10
1.611858
20
67.800000
30
0.0
11
10.158138
21
67.800000
31
0.0
0
ARC
8
0
10
10.158138
20
68.300000
30
0.0
40
0.500000
50
270.000000
51
296.127032
0
LINE
8
0
10
10.378320
20
67.851090
30
0.0
11
11.407160
21
68.355715
31
0.0
0
ARC
8
0
10
12.525460
20
66.697583
30
0.0
40
2.000000
50
51.805773
51
123.997055
0
ARC
8
0
10
14.071283
20
68.662381
30
0.0
40
0.500000
50
231.805773
51
271.623749
0
LINE
8
0
10
14.085451
20
68.162582
30
0.0
11
14.742073
21
68.181195
31
0.0
0
ARC
8
0
10
14.738688
20
68.481220
30
0.0
40
0.300000
50
270.000000
51
18.251415
0
LINE
8
0
10
15.023595
20
68.575176
30
0.0
11
12.959308
21
71.241617
31
0.0
0
ARC
8
0
10
12.844161
20
71.152473
30
0.0
40
0.145621
50
37.746080
51
180.000000
0
LINE
8
0
10
12.698629
20
71.147391
30
0.0
11
12.704058
21
70.991904
31
0.0
0
ARC
8
0
10
12.504180
20
70.984924
30
0.0
40
0.200000
50
308.823976
51
0.000000
0
LINE
8
0
10
12.629566
20
70.829109
30
0.0
11
10.986397
21
69.506834
31
0.0
0
ARC
8
0
10
10.798318
20
69.740557
30
0.0
40
0.300000
50
283.127121
51
308.823976
0
LINE
8
0
10
10.866451
20
69.448396
30
0.0
11
10.511426
21
69.352845
31
0.0
0
ARC
8
0
10
10.511426
20
69.652845
30
0.0
40
0.300000
50
90.000000
51
270.000000
0
LINE
8
0
10
10.511426
20
69.952845
30
0.0
11
10.511426
21
74.452845
31
0.0
0
ARC
8
0
10
10.711426
20
74.452845
30
0.0
40
0.200000
50
90.000000
51
180.000000
0
LINE
8
0
10
10.711426
20
74.652845
30
0.0
11
10.779315
21
74.652845
31
0.0
0
ARC
8
0
10
10.779315
20
74.352845
30
0.0
40
0.300000
50
58.619868
51
90.000000
0
LINE
8
0
10
10.935529
20
74.608965
30
0.0
11
12.611522
21
73.586732
31
0.0
0
ARC
8
0
10
12.811426
20
73.580542
30
0.0
40
0.200000
50
180.000000
51
0.000000
0
LINE
8
0
10
13.011426
20
73.580542
30
0.0
11
13.011426
21
74.964322
31
0.0
0
ARC
8
0
10
12.811426
20
74.964322
30
0.0
40
0.200000
50
0.000000
51
60.153120
0
LINE
8
0
10
12.910963
20
75.137794
30
0.0
11
11.604286
21
75.887555
31
0.0
0
ARC
8
0
10
11.943439
20
76.500000
30
0.0
40
0.700000
50
118.976366
51
241.023634
0
LINE
8
0
10
11.604286
20
77.112444
30
0.0
11
12.910963
21
77.862206
31
0.0
0
ARC
8
0
10
12.811426
20
78.035677
30
0.0
40
0.200000
50
299.846880
51
0.000000
0
LINE
8
0
10
13.011426
20
78.035677
30
0.0
11
13.011426
21
79.419458
31
0.0
0
ARC
8
0
10
12.811426
20
79.419458
30
0.0
40
0.200000
50
0.000000
51
180.000000
0
LINE
8
0
10
12.611522
20
79.413268
30
0.0
11
10.935529
21
78.391035
31
0.0
0
ARC
8
0
10
10.779315
20
78.647154
30
0.0
40
0.300000
50
270.000000
51
301.380132
0
LINE
8
0
10
10.779315
20
78.347154
30
0.0
11
10.711426
21
78.347154
31
0.0
0
ARC
8
0
10
10.711426
20
78.547154
30
0.0
40
0.200000
50
180.000000
51
270.000000
0
LINE
8
0
10
10.511426
20
78.547154
30
0.0
11
10.511426
21
83.047154
31
0.0
0
ARC
8
0
10
10.511426
20
83.347154
30
0.0
40
0.300000
50
90.000000
51
270.000000
0
LINE
8
0
10
10.511426
20
83.647154
30
0.0
11
10.866451
21
83.551603
31
0.0
0
ARC
8
0
10
10.798318
20
83.259443
30
0.0
40
0.300000
50
51.176024
51
76.872879
0
LINE
8
0
10
10.986397
20
83.493165
30
0.0
11
12.629566
21
82.170890
31
0.0
0
ARC
8
0
10
12.504180
20
82.015075
30
0.0
40
0.200000
50
0.000000
51
51.176024
0
LINE
8
0
10
12.704058
20
82.008095
30
0.0
11
12.698629
21
81.852608
31
0.0
0
ARC
8
0
10
12.844161
20
81.847526
30
0.0
40
0.145621
50
180.000000
51
322.253920
0
LINE
8
0
10
12.959308
20
81.758383
30
0.0
11
15.023595
21
84.424824
31
0.0
0
ARC
8
0
10
14.738688
20
84.518780
30
0.0
40
0.300000
50
341.748585
51
90.000000
0
ARC
8
0
10
33.649568
20
44.890381
30
0.0
40
0.600000
50
180.000000
51
0.000000
0
ARC
8
0
10
33.649568
20
44.890381
30
0.0
40
0.600000
50
0.000000
51
180.000000
0
ARC
8
0
10
11.149568
20
44.890381
30
0.0
40
0.600000
50
180.000000
51
0.000000
0
ARC
8
0
10
11.149568
20
44.890381
30
0.0
40
0.600000
50
0.000000
51
180.000000
0
ARC
8
0
10
33.649568
20
53.309619
30
0.0
40
0.600000
50
180.000000
51
0.000000
0
ARC
8
0
10
33.649568
20
53.309619
30
0.0
40
0.600000
50
0.000000
51
180.000000
0
ARC
8
0
10
11.149568
20
53.309619
30
0.0
40
0.600000
50
180.000000
51
0.000000
0
ARC
8
0
10
11.149568
20
53.309619
30
0.0
40
0.600000
50
0.000000
51
180.000000
0
LINE
8
0
10
34.299568
20
43.835252
30
0.0
11
33.431462
21
42.967146
31
0.0
0
LINE
8
0
10
34.399568
20
46.180316
30
0.0
11
33.706889
21
45.487637
31
0.0
0
LINE
8
0
10
30.417596
20
42.198343
30
0.0
11
29.009634
21
40.790381
31
0.0
0
LINE
8
0
10
33.052313
20
44.833060
30
0.0
11
31.989808
21
43.770556
31
0.0
0
LINE
8
0
10
31.988867
20
46.014679
30
0.0
11
26.764570
21
40.790381
31
0.0
0
LINE
8
0
10
26.519506
20
42.790381
30
0.0
11
24.519506
21
40.790381
31
0.0
0
LINE
8
0
10
34.224699
20
52.740639
30
0.0
11
33.075999
21
51.591939
31
0.0
0
LINE
8
0
10
24.274442
20
42.790381
30
0.0
11
22.274442
21
40.790381
31
0.0
0
LINE
8
0
10
34.378048
20
55.139052
30
0.0
11
31.448615
21
52.209619
31
0.0
0
LINE
8
0
10
22.029378
20
42.790381
30
0.0
11
20.029378
21
40.790381
31
0.0
0
LINE
8
0
10
31.493157
20
54.499225
30
0.0
11
29.998810
21
53.004878
31
0.0
0
LINE
8
0
10
19.784313
20
42.790381
30
0.0
11
17.784313
21
40.790381
31
0.0
0
LINE
8
0
10
30.549860
20
55.800992
30
0.0
11
29.109969
21
54.361101
31
0.0
0
LINE
8
0
10
17.539249
20
42.790381
30
0.0
11
15.540706
21
40.791838
31
0.0
0
LINE
8
0
10
29.657955
20
57.154151
30
0.0
11
27.912961
21
55.409157
31
0.0
0
LINE
8
0
10
15.947908
20
43.444104
30
0.0
11
14.508909
21
42.005105
31
0.0
0
LINE
8
0
10
27.668359
20
57.409619
30
0.0
11
25.668359
21
55.409619
31
0.0
0
LINE
8
0
10
15.059067
20
44.800327
30
0.0
11
13.617004
21
43.358264
31
0.0
0
LINE
8
0
10
25.423295
20
57.409619
30
0.0
11
23.423295
21
55.409619
31
0.0
0
LINE
8
0
10
13.975629
20
45.961953
30
0.0
11
10.804057
21
42.790381
31
0.0
0
LINE
8
0
10
23.178231
20
57.409619
30
0.0
11
21.178231
21
55.409619
31
0.0
0
LINE
8
0
10
12.137220
20
46.368608
30
0.0
11
11.250451
21
45.481839
31
0.0
0
LINE
8
0
10
20.933167
20
57.409619
30
0.0
11
18.933167
21
55.409619
31
0.0
0
LINE
8
0
10
18.688103
20
57.409619
30
0.0
11
16.652639
21
55.374155
31
0.0
0
LINE
8
0
10
15.783460
20
54.504976
30
0.0
11
13.488103
21
52.209619
31
0.0
0
LINE
8
0
10
16.443039
20
57.409619
30
0.0
11
10.449505
21
51.416085
31
0.0
0
LINE
8
0
10
11.781757
20
54.993401
30
0.0
11
10.634021
21
53.845665
31
0.0
0
LINE
8
0
10
34.011493
20
55.409441
30
0.0
11
34.399390
21
55.021544
31
0.0
0
LINE
8
0
10
32.488378
20
54.687493
30
0.0
11
33.347712
21
53.828159
31
0.0
0
LINE
8
0
10
27.521188
20
57.409619
30
0.0
11
33.698860
21
51.231947
31
0.0
0
LINE
8
0
10
25.276124
20
57.409619
30
0.0
11
27.276124
21
55.409619
31
0.0
0
LINE
8
0
10
23.031060
20
57.409619
30
0.0
11
25.031060
21
55.409619
31
0.0
0
LINE
8
0
10
33.555395
20
46.885284
30
0.0
11
34.399568
21
46.041111
31
0.0
0
LINE
8
0
10
20.785995
20
57.409619
30
0.0
11
22.785995
21
55.409619
31
0.0
0
LINE
8
0
10
33.865162
20
44.330453
30
0.0
11
34.299568
21
43.896046
31
0.0
0
LINE
8
0
10
32.130602
20
46.065013
30
0.0
11
33.089640
21
45.105975
31
0.0
0
LINE
8
0
10
18.540931
20
57.409619
30
0.0
11
20.540931
21
55.409619
31
0.0
0
LINE
8
0
10
30.304877
20
45.645674
30
0.0
11
32.369024
21
43.581527
31
0.0
0
LINE
8
0
10
16.295867
20
57.409619
30
0.0
11
18.295867
21
55.409619
31
0.0
0
LINE
8
0
10
29.409521
20
44.295966
30
0.0
11
30.850444
21
42.855042
31
0.0
0
LINE
8
0
10
14.809494
20
56.650929
30
0.0
11
16.279782
21
55.180641
31
0.0
0
LINE
8
0
10
28.475372
20
42.985051
30
0.0
11
29.958539
21
41.501883
31
0.0
0
LINE
8
0
10
13.917589
20
55.297770
30
0.0
11
15.358619
21
53.856739
31
0.0
0
LINE
8
0
10
26.424977
20
42.790381
30
0.0
11
28.424977
21
40.790381
31
0.0
0
LINE
8
0
10
12.244466
20
54.725829
30
0.0
11
14.456802
21
52.513492
31
0.0
0
LINE
8
0
10
24.179913
20
42.790381
30
0.0
11
26.179913
21
40.790381
31
0.0
0
LINE
8
0
10
10.499568
20
54.225662
30
0.0
11
10.879719
21
53.845512
31
0.0
0
LINE
8
0
10
21.934849
20
42.790381
30
0.0
11
23.934849
21
40.790381
31
0.0
0
LINE
8
0
10
11.685461
20
53.039769
30
0.0
11
12.616692
21
52.108538
31
0.0
0
LINE
8
0
10
10.399568
20
52.080598
30
0.0
11
11.194136
21
51.286031
31
0.0
0
LINE
8
0
10
19.689785
20
42.790381
30
0.0
11
21.689785
21
40.790381
31
0.0
0
LINE
8
0
10
17.444721
20
42.790381
30
0.0
11
19.444721
21
40.790381
31
0.0
0
LINE
8
0
10
10.999657
20
46.990381
30
0.0
11
17.199657
21
40.790381
31
0.0
0
LINE
8
0
10
11.399884
20
44.345091
30
0.0
11
12.261153
21
43.483822
31
0.0
0
LINE
8
0
10
10.413250
20
43.086661
30
0.0
11
10.695848
21
42.804063
31
0.0
0
ARC
8
0
10
33.649568
20
44.890381
30
0.0
40
0.600000
50
180.000000
51
298.955024
0
ARC
8
0
10
33.649568
20
44.890381
30
0.0
40
0.600000
50
61.044976
51
180.000000
0
LINE
8
0
10
33.940042
20
45.415381
30
0.0
11
34.099568
21
45.415381
31
0.0
0
ARC
8
0
10
34.099568
20
45.615381
30
0.0
40
0.200000
50
270.000000
51
0.000000
0
LINE
8
0
10
34.299568
20
45.615381
30
0.0
11
34.299568
21
45.990381
31
0.0
0
LINE
8
0
10
34.299568
20
45.990381
30
0.0
11
34.399568
21
45.990381
31
0.0
0
LINE
8
0
10
34.399568
20
45.990381
30
0.0
11
34.399568
21
46.590381
31
0.0
0
ARC
8
0
10
33.999568
20
46.590381
30
0.0
40
0.400000
50
0.000000
51
90.000000
0
LINE
8
0
10
33.999568
20
46.990381
30
0.0
11
33.790688
21
46.990381
31
0.0
0
LINE
8
0
10
33.790688
20
46.990381
30
0.0
11
33.694718
21
46.965851
31
0.0
0
LINE
8
0
10
33.694718
20
46.965851
30
0.0
11
32.193679
21
46.097838
31
0.0
0
ARC
8
0
10
31.793199
20
46.790381
30
0.0
40
0.800000
50
270.000000
51
300.039706
0
LINE
8
0
10
31.793199
20
45.990381
30
0.0
11
31.060253
21
45.990381
31
0.0
0
ARC
8
0
10
31.060253
20
44.990381
30
0.0
40
1.000000
50
90.000000
51
146.760000
0
LINE
8
0
10
30.223871
20
45.538529
30
0.0
11
28.718927
21
43.242234
31
0.0
0
ARC
8
0
10
27.882545
20
43.790381
30
0.0
40
1.000000
50
270.000000
51
326.760000
0
LINE
8
0
10
27.882545
20
42.790381
30
0.0
11
22.399568
21
42.790381
31
0.0
0
LINE
8
0
10
22.399568
20
42.790381
30
0.0
11
17.067152
21
42.790381
31
0.0
0
LINE
8
0
10
17.067152
20
42.790381
30
0.0
11
16.916591
21
42.790381
31
0.0
0
ARC
8
0
10
16.916591
20
43.790381
30
0.0
40
1.000000
50
213.240000
51
270.000000
0
LINE
8
0
10
16.080209
20
43.242234
30
0.0
11
14.575266
21
45.538529
31
0.0
0
ARC
8
0
10
13.738884
20
44.990381
30
0.0
40
1.000000
50
33.240000
51
90.000000
0
LINE
8
0
10
13.738884
20
45.990381
30
0.0
11
13.005938
21
45.990381
31
0.0
0
ARC
8
0
10
13.005938
20
46.790381
30
0.0
40
0.800000
50
239.960294
51
270.000000
0
LINE
8
0
10
12.605458
20
46.097838
30
0.0
11
11.104419
21
46.965851
31
0.0
0
LINE
8
0
10
11.104419
20
46.965851
30
0.0
11
11.008448
21
46.990381
31
0.0
0
LINE
8
0
10
11.008448
20
46.990381
30
0.0
11
10.799568
21
46.990381
31
0.0
0
ARC
8
0
10
10.799568
20
46.590381
30
0.0
40
0.400000
50
90.000000
51
180.000000
0
LINE
8
0
10
10.399568
20
46.590381
30
0.0
11
10.399568
21
45.990381
31
0.0
0
LINE
8
0
10
10.399568
20
45.990381
30
0.0
11
10.499568
21
45.990381
31
0.0
0
LINE
8
0
10
10.499568
20
45.990381
30
0.0
11
10.499568
21
45.615381
31
0.0
0
ARC
8
0
10
10.699568
20
45.615381
30
0.0
40
0.200000
50
180.000000
51
270.000000
0
LINE
8
0
10
10.699568
20
45.415381
30
0.0
11
10.859095
21
45.415381
31
0.0
0
ARC
8
0
10
11.149568
20
44.890381
30
0.0
40
0.600000
50
241.044976
51
118.955024
0
LINE
8
0
10
10.859095
20
44.365381
30
0.0
11
10.699568
21
44.365381
31
0.0
0
ARC
8
0
10
10.699568
20
44.165381
30
0.0
40
0.200000
50
90.000000
51
180.000000
0
LINE
8
0
10
10.499568
20
44.165381
30
0.0
11
10.499568
21
43.790381
31
0.0
0
LINE
8
0
10
10.499568
20
43.790381
30
0.0
11
10.399568
21
43.790381
31
0.0
0
LINE
8
0
10
10.399568
20
43.790381
30
0.0
11
10.399568
21
43.190381
31
0.0
0
ARC
8
0
10
10.799568
20
43.190381
30
0.0
40
0.400000
50
180.000000
51
270.000000
0
LINE
8
0
10
10.799568
20
42.790381
30
0.0
11
11.008448
21
42.790381
31
0.0
0
LINE
8
0
10
11.008448
20
42.790381
30
0.0
11
11.104419
21
42.814911
31
0.0
0
LINE
8
0
10
11.104419
20
42.814911
30
0.0
11
12.635569
21
43.700337
31
0.0
0
ARC
8
0
10
12.971154
20
43.120016
30
0.0
40
0.670365
50
33.390000
51
120.039706
0
LINE
8
0
10
13.530871
20
43.488942
30
0.0
11
15.161375
21
41.015214
31
0.0
0
ARC
8
0
10
15.578847
20
41.290381
30
0.0
40
0.500000
50
213.390000
51
270.000000
0
LINE
8
0
10
15.578847
20
40.790381
30
0.0
11
22.399568
21
40.790381
31
0.0
0
LINE
8
0
10
22.399568
20
40.790381
30
0.0
11
29.220290
21
40.790381
31
0.0
0
ARC
8
0
10
29.220290
20
41.290381
30
0.0
40
0.500000
50
270.000000
51
326.610000
0
LINE
8
0
10
29.637762
20
41.015214
30
0.0
11
31.268265
21
43.488942
31
0.0
0
ARC
8
0
10
31.827983
20
43.120016
30
0.0
40
0.670365
50
59.960294
51
146.610000
0
LINE
8
0
10
32.163567
20
43.700337
30
0.0
11
33.694718
21
42.814911
31
0.0
0
LINE
8
0
10
33.694718
20
42.814911
30
0.0
11
33.790688
21
42.790381
31
0.0
0
LINE
8
0
10
33.790688
20
42.790381
30
0.0
11
33.999568
21
42.790381
31
0.0
0
ARC
8
0
10
33.999568
20
43.190381
30
0.0
40
0.400000
50
270.000000
51
0.000000
0
LINE
8
0
10
34.399568
20
43.190381
30
0.0
11
34.399568
21
43.790381
31
0.0
0
LINE
8
0
10
34.399568
20
43.790381
30
0.0
11
34.299568
21
43.790381
31
0.0
0
LINE
8
0
10
34.299568
20
43.790381
30
0.0
11
34.299568
21
44.165381
31
0.0
0
ARC
8
0
10
34.099568
20
44.165381
30
0.0
40
0.200000
50
0.000000
51
90.000000
0
LINE
8
0
10
34.099568
20
44.365381
30
0.0
11
33.940042
21
44.365381
31
0.0
0
LINE
8
0
10
31.793199
20
52.209619
30
0.0
11
31.060253
21
52.209619
31
0.0
0
ARC
8
0
10
31.060253
20
53.209619
30
0.0
40
1.000000
50
213.240000
51
270.000000
0
LINE
8
0
10
30.223871
20
52.661472
30
0.0
11
28.718927
21
54.957767
31
0.0
0
ARC
8
0
10
27.882545
20
54.409619
30
0.0
40
1.000000
50
33.240000
51
90.000000
0
LINE
8
0
10
27.882545
20
55.409619
30
0.0
11
22.399568
21
55.409619
31
0.0
0
LINE
8
0
10
22.399568
20
55.409619
30
0.0
11
17.067152
21
55.409619
31
0.0
0
LINE
8
0
10
17.067152
20
55.409619
30
0.0
11
16.916591
21
55.409619
31
0.0
0
ARC
8
0
10
16.916591
20
54.409619
30
0.0
40
1.000000
50
90.000000
51
146.760000
0
LINE
8
0
10
16.080209
20
54.957767
30
0.0
11
14.575266
21
52.661472
31
0.0
0
ARC
8
0
10
13.738884
20
53.209619
30
0.0
40
1.000000
50
270.000000
51
326.760000
0
LINE
8
0
10
13.738884
20
52.209619
30
0.0
11
13.005938
21
52.209619
31
0.0
0
ARC
8
0
10
13.005938
20
51.409619
30
0.0
40
0.800000
50
90.000000
51
120.039706
0
LINE
8
0
10
12.605458
20
52.102162
30
0.0
11
11.104419
21
51.234149
31
0.0
0
LINE
8
0
10
11.008448
20
51.209619
30
0.0
11
11.104419
21
51.234149
31
0.0
0
LINE
8
0
10
11.008448
20
51.209619
30
0.0
11
10.799568
21
51.209619
31
0.0
0
ARC
8
0
10
10.799568
20
51.609619
30
0.0
40
0.400000
50
180.000000
51
270.000000
0
LINE
8
0
10
10.399568
20
51.609619
30
0.0
11
10.399568
21
52.209619
31
0.0
0
LINE
8
0
10
10.399568
20
52.209619
30
0.0
11
10.499568
21
52.209619
31
0.0
0
LINE
8
0
10
10.499568
20
52.209619
30
0.0
11
10.499568
21
52.584619
31
0.0
0
ARC
8
0
10
10.699568
20
52.584619
30
0.0
40
0.200000
50
90.000000
51
180.000000
0
LINE
8
0
10
10.699568
20
52.784619
30
0.0
11
10.859095
21
52.784619
31
0.0
0
ARC
8
0
10
11.149568
20
53.309619
30
0.0
40
0.600000
50
241.044976
51
118.955024
0
LINE
8
0
10
10.859095
20
53.834619
30
0.0
11
10.699568
21
53.834619
31
0.0
0
ARC
8
0
10
10.699568
20
54.034619
30
0.0
40
0.200000
50
180.000000
51
270.000000
0
LINE
8
0
10
10.499568
20
54.034619
30
0.0
11
10.499568
21
54.409619
31
0.0
0
LINE
8
0
10
10.499568
20
54.409619
30
0.0
11
10.399568
21
54.409619
31
0.0
0
LINE
8
0
10
10.399568
20
54.409619
30
0.0
11
10.399568
21
55.009619
31
0.0
0
ARC
8
0
10
10.799568
20
55.009619
30
0.0
40
0.400000
50
90.000000
51
180.000000
0
LINE
8
0
10
10.799568
20
55.409619
30
0.0
11
11.008448
21
55.409619
31
0.0
0
LINE
8
0
10
11.104419
20
55.385089
30
0.0
11
11.008448
21
55.409619
31
0.0
0
LINE
8
0
10
11.104419
20
55.385089
30
0.0
11
12.635569
21
54.499664
31
0.0
0
ARC
8
0
10
12.971154
20
55.079985
30
0.0
40
0.670365
50
239.960294
51
326.610000
0
LINE
8
0
10
13.530871
20
54.711059
30
0.0
11
15.161375
21
57.184787
31
0.0
0
ARC
8
0
10
15.578847
20
56.909619
30
0.0
40
0.500000
50
90.000000
51
146.610000
0
LINE
8
0
10
15.578847
20
57.409619
30
0.0
11
22.399568
21
57.409619
31
0.0
0
LINE
8
0
10
22.399568
20
57.409619
30
0.0
11
29.220290
21
57.409619
31
0.0
0
ARC
8
0
10
29.220290
20
56.909619
30
0.0
40
0.500000
50
33.390000
51
90.000000
0
LINE
8
0
10
29.637762
20
57.184787
30
0.0
11
31.268265
21
54.711059
31
0.0
0
ARC
8
0
10
31.827983
20
55.079985
30
0.0
40
0.670365
50
213.390000
51
300.039706
0
LINE
8
0
10
32.163567
20
54.499664
30
0.0
11
33.694718
21
55.385089
31
0.0
0
LINE
8
0
10
33.790688
20
55.409619
30
0.0
11
33.694718
21
55.385089
31
0.0
0
LINE
8
0
10
33.790688
20
55.409619
30
0.0
11
33.999568
21
55.409619
31
0.0
0
ARC
8
0
10
33.999568
20
55.009619
30
0.0
40
0.400000
50
0.000000
51
90.000000
0
LINE
8
0
10
34.399568
20
55.009619
30
0.0
11
34.399568
21
54.409619
31
0.0
0
LINE
8
0
10
34.399568
20
54.409619
30
0.0
11
34.299568
21
54.409619
31
0.0
0
LINE
8
0
10
34.299568
20
54.409619
30
0.0
11
34.299568
21
54.034619
31
0.0
0
ARC
8
0
10
34.099568
20
54.034619
30
0.0
40
0.200000
50
270.000000
51
0.000000
0
LINE
8
0
10
34.099568
20
53.834619
30
0.0
11
33.940042
21
53.834619
31
0.0
0
ARC
8
0
10
33.649568
20
53.309619
30
0.0
40
0.600000
50
61.044976
51
180.000000
0
ARC
8
0
10
33.649568
20
53.309619
30
0.0
40
0.600000
50
180.000000
51
298.955024
0
LINE
8
0
10
33.940042
20
52.784619
30
0.0
11
34.099568
21
52.784619
31
0.0
0
ARC
8
0
10
34.099568
20
52.584619
30
0.0
40
0.200000
50
0.000000
51
90.000000
0
LINE
8
0
10
34.299568
20
52.584619
30
0.0
11
34.299568
21
52.209619
31
0.0
0
LINE
8
0
10
34.299568
20
52.209619
30
0.0
11
34.399568
21
52.209619
31
0.0
0
LINE
8
0
10
34.399568
20
52.209619
30
0.0
11
34.399568
21
51.609619
31
0.0
0
ARC
8
0
10
33.999568
20
51.609619
30
0.0
40
0.400000
50
270.000000
51
0.000000
0
LINE
8
0
10
33.999568
20
51.209619
30
0.0
11
33.790688
21
51.209619
31
0.0
0
LINE
8
0
10
33.694718
20
51.234149
30
0.0
11
33.790688
21
51.209619
31
0.0
0
LINE
8
0
10
33.694718
20
51.234149
30
0.0
11
32.193679
21
52.102162
31
0.0
0
ARC
8
0
10
31.793199
20
51.409619
30
0.0
40
0.800000
50
59.960294
51
90.000000
0
LINE
8
0
10
38.899568
20
37.000000
30
0.0
11
35.999568
21
37.000000
31
0.0
0
LINE
8
0
10
35.999568
20
37.000000
30
0.0
11
35.999568
21
56.200000
31
0.0
0
LINE
8
0
10
35.999568
20
56.200000
30
0.0
11
58.399568
21
56.200000
31
0.0
0
LINE
8
0
10
58.399568
20
56.200000
30
0.0
11
58.399568
21
42.000000
31
0.0
0
LINE
8
0
10
58.399568
20
42.000000
30
0.0
11
38.899568
21
42.000000
31
0.0
0
LINE
8
0
10
38.899568
20
42.000000
30
0.0
11
38.899568
21
37.000000
31
0.0
0
ARC
8
0
10
30.172307
20
57.118780
30
0.0
40
0.300000
50
90.000000
51
198.251415
0
LINE
8
0
10
29.887399
20
57.024824
30
0.0
11
31.951687
21
54.358383
31
0.0
0
ARC
8
0
10
32.066834
20
54.447527
30
0.0
40
0.145621
50
217.746080
51
0.000000
0
LINE
8
0
10
32.212366
20
54.452609
30
0.0
11
32.206936
21
54.608096
31
0.0
0
ARC
8
0
10
32.406814
20
54.615076
30
0.0
40
0.200000
50
128.823976
51
180.000000
0
LINE
8
0
10
32.281428
20
54.770891
30
0.0
11
33.924598
21
56.093166
31
0.0
0
ARC
8
0
10
34.112677
20
55.859443
30
0.0
40
0.300000
50
103.127121
51
128.823976
0
LINE
8
0
10
34.044543
20
56.151604
30
0.0
11
34.399568
21
56.247155
31
0.0
0
ARC
8
0
10
34.399568
20
55.947155
30
0.0
40
0.300000
50
270.000000
51
90.000000
0
LINE
8
0
10
34.399568
20
55.647155
30
0.0
11
34.399568
21
51.147155
31
0.0
0
ARC
8
0
10
34.199568
20
51.147155
30
0.0
40
0.200000
50
270.000000
51
0.000000
0
LINE
8
0
10
34.199568
20
50.947155
30
0.0
11
34.131680
21
50.947155
31
0.0
0
ARC
8
0
10
34.131680
20
51.247155
30
0.0
40
0.300000
50
238.619868
51
270.000000
0
LINE
8
0
10
33.975465
20
50.991035
30
0.0
11
32.299472
21
52.013268
31
0.0
0
ARC
8
0
10
32.099568
20
52.019458
30
0.0
40
0.200000
50
0.000000
51
180.000000
0
LINE
8
0
10
31.899568
20
52.019458
30
0.0
11
31.899568
21
50.635678
31
0.0
0
ARC
8
0
10
32.099568
20
50.635678
30
0.0
40
0.200000
50
180.000000
51
240.153120
0
LINE
8
0
10
32.000032
20
50.462206
30
0.0
11
33.306709
21
49.712445
31
0.0
0
ARC
8
0
10
32.967555
20
49.100000
30
0.0
40
0.700000
50
298.976366
51
61.023634
0
LINE
8
0
10
33.306709
20
48.487556
30
0.0
11
32.000032
21
47.737794
31
0.0
0
ARC
8
0
10
32.099568
20
47.564323
30
0.0
40
0.200000
50
119.846880
51
180.000000
0
LINE
8
0
10
31.899568
20
47.564323
30
0.0
11
31.899568
21
46.180542
31
0.0
0
ARC
8
0
10
32.099568
20
46.180542
30
0.0
40
0.200000
50
180.000000
51
0.000000
0
LINE
8
0
10
32.299472
20
46.186732
30
0.0
11
33.975465
21
47.208965
31
0.0
0
ARC
8
0
10
34.131680
20
46.952846
30
0.0
40
0.300000
50
90.000000
51
121.380132
0
LINE
8
0
10
34.131680
20
47.252846
30
0.0
11
34.199568
21
47.252846
31
0.0
0
ARC
8
0
10
34.199568
20
47.052846
30
0.0
40
0.200000
50
0.000000
51
90.000000
0
LINE
8
0
10
34.399568
20
47.052846
30
0.0
11
34.399568
21
42.552846
31
0.0
0
ARC
8
0
10
34.399568
20
42.252846
30
0.0
40
0.300000
50
270.000000
51
90.000000
0
LINE
8
0
10
34.399568
20
41.952846
30
0.0
11
34.044543
21
42.048397
31
0.0
0
ARC
8
0
10
34.112677
20
42.340557
30
0.0
40
0.300000
50
231.176024
51
256.872879
0
LINE
8
0
10
33.924598
20
42.106835
30
0.0
11
32.281428
21
43.429110
31
0.0
0
ARC
8
0
10
32.406814
20
43.584925
30
0.0
40
0.200000
50
180.000000
51
231.176024
0
LINE
8
0
10
32.206936
20
43.591905
30
0.0
11
32.212366
21
43.747392
31
0.0
0
ARC
8
0
10
32.066834
20
43.752474
30
0.0
40
0.145621
50
0.000000
51
142.253920
0
LINE
8
0
10
31.951687
20
43.841617
30
0.0
11
29.887399
21
41.175176
31
0.0
0
ARC
8
0
10
30.172307
20
41.081220
30
0.0
40
0.300000
50
161.748585
51
270.000000
0
LINE
8
0
10
30.168922
20
40.781196
30
0.0
11
30.825543
21
40.762582
31
0.0
0
ARC
8
0
10
30.839711
20
41.262381
30
0.0
40
0.500000
50
268.376251
51
308.194227
0
ARC
8
0
10
32.385534
20
39.297583
30
0.0
40
2.000000
50
56.002945
51
128.194227
0
LINE
8
0
10
33.503835
20
40.955716
30
0.0
11
34.119364
21
40.653811
31
0.0
0
ARC
8
0
10
33.899183
20
40.204901
30
0.0
40
0.500000
50
0.000000
51
63.872968
0
LINE
8
0
10
34.399183
20
40.204959
30
0.0
11
34.399568
21
36.900000
31
0.0
0
LINE
8
0
10
34.399568
20
36.900000
30
0.0
11
33.199568
21
36.900000
31
0.0
0
ARC
8
0
10
33.199568
20
36.600000
30
0.0
40
0.300000
50
90.000000
51
180.000000
0
LINE
8
0
10
32.899568
20
36.600000
30
0.0
11
32.899568
21
35.700000
31
0.0
0
ARC
8
0
10
33.199568
20
35.700000
30
0.0
40
0.300000
50
180.000000
51
270.000000
0
LINE
8
0
10
33.199568
20
35.400000
30
0.0
11
41.499568
21
35.400000
31
0.0
0
LINE
8
0
10
41.499568
20
35.400000
30
0.0
11
42.499568
21
36.400000
31
0.0
0
LINE
8
0
10
42.499568
20
36.400000
30
0.0
11
42.499568
21
37.400000
31
0.0
0
LINE
8
0
10
42.499568
20
37.400000
30
0.0
11
40.499568
21
37.400000
31
0.0
0
LINE
8
0
10
40.499568
20
37.400000
30
0.0
11
40.499568
21
40.400000
31
0.0
0
LINE
8
0
10
40.499568
20
40.400000
30
0.0
11
58.499568
21
40.400000
31
0.0
0
LINE
8
0
10
58.499568
20
40.400000
30
0.0
11
58.499568
21
37.400000
31
0.0
0
LINE
8
0
10
58.499568
20
37.400000
30
0.0
11
56.499568
21
37.400000
31
0.0
0
LINE
8
0
10
56.499568
20
37.400000
30
0.0
11
56.499568
21
36.400000
31
0.0
0
LINE
8
0
10
56.499568
20
36.400000
30
0.0
11
57.499568
21
35.400000
31
0.0
0
LINE
8
0
10
57.499568
20
35.400000
30
0.0
11
59.999568
21
35.400000
31
0.0
0
LINE
8
0
10
59.999568
20
35.400000
30
0.0
11
59.999568
21
62.800000
31
0.0
0
LINE
8
0
10
59.999568
20
62.800000
30
0.0
11
56.499568
21
62.800000
31
0.0
0
LINE
8
0
10
56.499568
20
62.800000
30
0.0
11
56.499568
21
61.300000
31
0.0
0
LINE
8
0
10
56.499568
20
61.300000
30
0.0
11
58.499568
21
61.300000
31
0.0
0
LINE
8
0
10
58.499568
20
61.300000
30
0.0
11
58.499568
21
57.800000
31
0.0
0
LINE
8
0
10
58.499568
20
57.800000
30
0.0
11
35.899568
21
57.800000
31
0.0
0
LINE
8
0
10
35.899568
20
57.800000
30
0.0
11
35.899568
21
61.300000
31
0.0
0
LINE
8
0
10
35.899568
20
61.300000
30
0.0
11
37.899568
21
61.300000
31
0.0
0
LINE
8
0
10
37.899568
20
61.300000
30
0.0
11
37.899568
21
62.800000
31
0.0
0
LINE
8
0
10
37.899568
20
62.800000
30
0.0
11
34.399568
21
62.800000
31
0.0
0
LINE
8
0
10
34.399568
20
62.800000
30
0.0
11
34.399170
21
57.995052
31
0.0
0
ARC
8
0
10
33.899170
20
57.995093
30
0.0
40
0.500000
50
296.127032
51
0.000000
0
LINE
8
0
10
34.119351
20
57.546183
30
0.0
11
33.503835
21
57.244285
31
0.0
0
ARC
8
0
10
32.385534
20
58.902417
30
0.0
40
2.000000
50
231.805773
51
303.997055
0
ARC
8
0
10
30.839711
20
56.937619
30
0.0
40
0.500000
50
51.805773
51
91.623749
0
LINE
8
0
10
30.825543
20
57.437418
30
0.0
11
30.168922
21
57.418805
31
0.0
0
LINE
8
0
10
1.600000
20
43.100000
30
0.0
11
3.399393
21
43.100000
31
0.0
0
LINE
8
0
10
3.399393
20
43.100000
30
0.0
11
3.399568
21
44.700000
31
0.0
0
LINE
8
0
10
3.399568
20
44.700000
30
0.0
11
1.600000
21
44.700000
31
0.0
0
LINE
8
0
10
1.600000
20
44.700000
30
0.0
11
1.600000
21
48.650000
31
0.0
0
LINE
8
0
10
1.600000
20
48.650000
30
0.0
11
2.100000
21
49.150000
31
0.0
0
LINE
8
0
10
2.100000
20
49.150000
30
0.0
11
1.600000
21
49.650000
31
0.0
0
LINE
8
0
10
1.600000
20
49.650000
30
0.0
11
2.100000
21
50.150000
31
0.0
0
LINE
8
0
10
2.100000
20
50.150000
30
0.0
11
1.600000
21
50.650000
31
0.0
0
LINE
8
0
10
1.600000
20
50.650000
30
0.0
11
1.600000
21
54.600000
31
0.0
0
LINE
8
0
10
1.600000
20
54.600000
30
0.0
11
3.399568
21
54.600000
31
0.0
0
LINE
8
0
10
3.399568
20
54.600000
30
0.0
11
3.399568
21
56.200000
31
0.0
0
LINE
8
0
10
3.399568
20
56.200000
30
0.0
11
8.799568
21
56.200000
31
0.0
0
LINE
8
0
10
8.799568
20
56.200000
30
0.0
11
8.799568
21
42.000000
31
0.0
0
LINE
8
0
10
8.799568
20
42.000000
30
0.0
11
7.299568
21
42.000000
31
0.0
0
LINE
8
0
10
7.299568
20
42.000000
30
0.0
11
7.299568
21
40.400000
31
0.0
0
LINE
8
0
10
7.299568
20
40.400000
30
0.0
11
8.800000
21
40.400000
31
0.0
0
LINE
8
0
10
8.800000
20
40.400000
30
0.0
11
8.800000
21
37.005493
31
0.0
0
LINE
8
0
10
8.800000
20
37.005493
30
0.0
11
1.997730
21
38.426871
31
0.0
0
ARC
8
0
10
2.100000
20
38.916300
30
0.0
40
0.500000
50
180.000000
51
258.197501
0
LINE
8
0
10
1.600000
20
38.916300
30
0.0
11
1.600000
21
43.100000
31
0.0
0
LINE
8
0
10
14.630215
20
40.781196
30
0.0
11
13.973593
21
40.762582
31
0.0
0
ARC
8
0
10
13.959425
20
41.262381
30
0.0
40
0.500000
50
231.805773
51
271.623749
0
ARC
8
0
10
12.413602
20
39.297583
30
0.0
40
2.000000
50
51.805773
51
123.997055
0
LINE
8
0
10
11.295302
20
40.955716
30
0.0
11
10.679772
21
40.653811
31
0.0
0
ARC
8
0
10
10.899954
20
40.204901
30
0.0
40
0.500000
50
116.127032
51
180.000000
0
LINE
8
0
10
10.399954
20
40.204959
30
0.0
11
10.399568
21
36.900000
31
0.0
0
LINE
8
0
10
10.399568
20
36.900000
30
0.0
11
11.600000
21
36.900000
31
0.0
0
ARC
8
0
10
11.600000
20
36.600000
30
0.0
40
0.300000
50
0.000000
51
90.000000
0
LINE
8
0
10
11.900000
20
36.600000
30
0.0
11
11.900000
21
35.700000
31
0.0
0
ARC
8
0
10
11.600000
20
35.700000
30
0.0
40
0.300000
50
270.000000
51
0.000000
0
LINE
8
0
10
11.600000
20
35.400000
30
0.0
11
8.902679
21
35.400000
31
0.0
0
LINE
8
0
10
8.902679
20
35.400000
30
0.0
11
2.633692
21
36.686655
31
0.0
0
ARC
8
0
10
2.533167
20
36.196864
30
0.0
40
0.500000
50
78.401612
51
178.629280
0
LINE
8
0
10
2.033310
20
36.208825
30
0.0
11
1.660106
21
20.611961
31
0.0
0
ARC
8
0
10
2.159963
20
20.600000
30
0.0
40
0.500000
50
178.629280
51
270.000000
0
LINE
8
0
10
2.159963
20
20.100000
30
0.0
11
3.500000
21
20.100000
31
0.0
0
ARC
8
0
10
3.500000
20
19.600000
30
0.0
40
0.500000
50
0.000000
51
90.000000
0
LINE
8
0
10
4.000000
20
19.600000
30
0.0
11
4.000000
21
17.050524
31
0.0
0
ARC
8
0
10
3.700000
20
17.050524
30
0.0
40
0.300000
50
270.000000
51
0.000000
0
LINE
8
0
10
3.700000
20
16.750524
30
0.0
11
3.097813
21
16.750524
31
0.0
0
ARC
8
0
10
3.097813
20
17.050524
30
0.0
40
0.300000
50
180.000000
51
270.000000
0
LINE
8
0
10
2.797813
20
17.050524
30
0.0
11
2.797813
21
18.500000
31
0.0
0
LINE
8
0
10
2.797813
20
18.500000
30
0.0
11
1.600000
21
18.500000
31
0.0
0
LINE
8
0
10
1.600000
20
18.500000
30
0.0
11
1.600000
21
11.000000
31
0.0
0
LINE
8
0
10
1.600000
20
11.000000
30
0.0
11
2.797813
21
11.000000
31
0.0
0
LINE
8
0
10
2.797813
20
11.000000
30
0.0
11
2.797813
21
12.449477
31
0.0
0
ARC
8
0
10
3.097813
20
12.449477
30
0.0
40
0.300000
50
90.000000
51
180.000000
0
LINE
8
0
10
3.097813
20
12.749477
30
0.0
11
3.700000
21
12.749477
31
0.0
0
ARC
8
0
10
3.700000
20
12.449477
30
0.0
40
0.300000
50
0.000000
51
90.000000
0
LINE
8
0
10
4.000000
20
12.449477
30
0.0
11
4.000000
21
9.500000
31
0.0
0
LINE
8
0
10
4.000000
20
9.500000
30
0.0
11
3.500000
21
7.750000
31
0.0
0
LINE
8
0
10
3.500000
20
7.750000
30
0.0
11
3.000000
21
7.750000
31
0.0
0
LINE
8
0
10
3.000000
20
7.750000
30
0.0
11
3.000000
21
9.500000
31
0.0
0
LINE
8
0
10
3.000000
20
9.500000
30
0.0
11
1.500000
21
9.500000
31
0.0
0
LINE
8
0
10
1.500000
20
9.500000
30
0.0
11
1.500000
21
2.000000
31
0.0
0
LINE
8
0
10
1.500000
20
2.000000
30
0.0
11
3.000000
21
2.000000
31
0.0
0
LINE
8
0
10
3.000000
20
2.000000
30
0.0
11
3.000000
21
3.750000
31
0.0
0
LINE
8
0
10
3.000000
20
3.750000
30
0.0
11
3.500000
21
3.750000
31
0.0
0
LINE
8
0
10
3.500000
20
3.750000
30
0.0
11
4.000000
21
2.000000
31
0.0
0
LINE
8
0
10
4.000000
20
2.000000
30
0.0
11
4.000000
21
0.500000
31
0.0
0
ARC
8
0
10
3.500000
20
0.500000
30
0.0
40
0.500000
50
270.000000
51
0.000000
0
LINE
8
0
10
3.500000
20
0.000000
30
0.0
11
0.500000
21
0.000000
31
0.0
0
ARC
8
0
10
0.500000
20
0.500000
30
0.0
40
0.500000
50
180.000000
51
270.000000
0
LINE
8
0
10
0.000000
20
0.500000
30
0.0
11
0.000000
21
62.800000
31
0.0
0
LINE
8
0
10
0.000000
20
62.800000
30
0.0
11
3.500000
21
62.800000
31
0.0
0
LINE
8
0
10
3.500000
20
62.800000
30
0.0
11
3.500000
21
61.200000
31
0.0
0
LINE
8
0
10
3.500000
20
61.200000
30
0.0
11
1.500000
21
61.200000
31
0.0
0
LINE
8
0
10
1.500000
20
61.200000
30
0.0
11
1.500000
21
57.800000
31
0.0
0
LINE
8
0
10
1.500000
20
57.800000
30
0.0
11
10.046280
21
57.800000
31
0.0
0
ARC
8
0
10
10.046280
20
57.300000
30
0.0
40
0.500000
50
63.872968
51
90.000000
0
LINE
8
0
10
10.266462
20
57.748910
30
0.0
11
11.295302
21
57.244285
31
0.0
0
ARC
8
0
10
12.413602
20
58.902417
30
0.0
40
2.000000
50
236.002945
51
308.194227
0
ARC
8
0
10
13.959425
20
56.937619
30
0.0
40
0.500000
50
88.376251
51
128.194227
0
LINE
8
0
10
13.973593
20
57.437418
30
0.0
11
14.630215
21
57.418805
31
0.0
0
ARC
8
0
10
14.626830
20
57.118780
30
0.0
40
0.300000
50
341.748585
51
90.000000
0
LINE
8
0
10
14.911737
20
57.024824
30
0.0
11
12.847450
21
54.358383
31
0.0
0
ARC
8
0
10
12.732303
20
54.447527
30
0.0
40
0.145621
50
180.000000
51
322.253920
0
LINE
8
0
10
12.586771
20
54.452609
30
0.0
11
12.592200
21
54.608096
31
0.0
0
ARC
8
0
10
12.392322
20
54.615076
30
0.0
40
0.200000
50
0.000000
51
51.176024
0
LINE
8
0
10
12.517708
20
54.770891
30
0.0
11
10.874539
21
56.093166
31
0.0
0
ARC
8
0
10
10.686460
20
55.859443
30
0.0
40
0.300000
50
51.176024
51
76.872879
0
LINE
8
0
10
10.754593
20
56.151604
30
0.0
11
10.399568
21
56.247155
31
0.0
0
ARC
8
0
10
10.399568
20
55.947155
30
0.0
40
0.300000
50
90.000000
51
270.000000
0
LINE
8
0
10
10.399568
20
55.647155
30
0.0
11
10.399568
21
51.147155
31
0.0
0
ARC
8
0
10
10.599568
20
51.147155
30
0.0
40
0.200000
50
180.000000
51
270.000000
0
LINE
8
0
10
10.599568
20
50.947155
30
0.0
11
10.667457
21
50.947155
31
0.0
0
ARC
8
0
10
10.667457
20
51.247155
30
0.0
40
0.300000
50
270.000000
51
301.380132
0
LINE
8
0
10
10.823671
20
50.991035
30
0.0
11
12.499664
21
52.013268
31
0.0
0
ARC
8
0
10
12.699568
20
52.019458
30
0.0
40
0.200000
50
0.000000
51
180.000000
0
LINE
8
0
10
12.899568
20
52.019458
30
0.0
11
12.899568
21
50.635678
31
0.0
0
ARC
8
0
10
12.699568
20
50.635678
30
0.0
40
0.200000
50
299.846880
51
0.000000
0
LINE
8
0
10
12.799105
20
50.462206
30
0.0
11
11.492428
21
49.712445
31
0.0
0
ARC
8
0
10
11.831581
20
49.100000
30
0.0
40
0.700000
50
118.976366
51
241.023634
0
LINE
8
0
10
11.492428
20
48.487556
30
0.0
11
12.799105
21
47.737794
31
0.0
0
ARC
8
0
10
12.699568
20
47.564323
30
0.0
40
0.200000
50
0.000000
51
60.153120
0
LINE
8
0
10
12.899568
20
47.564323
30
0.0
11
12.899568
21
46.180542
31
0.0
0
ARC
8
0
10
12.699568
20
46.180542
30
0.0
40
0.200000
50
180.000000
51
0.000000
0
LINE
8
0
10
12.499664
20
46.186732
30
0.0
11
10.823671
21
47.208965
31
0.0
0
ARC
8
0
10
10.667457
20
46.952846
30
0.0
40
0.300000
50
58.619868
51
90.000000
0
LINE
8
0
10
10.667457
20
47.252846
30
0.0
11
10.599568
21
47.252846
31
0.0
0
ARC
8
0
10
10.599568
20
47.052846
30
0.0
40
0.200000
50
90.000000
51
180.000000
0
LINE
8
0
10
10.399568
20
47.052846
30
0.0
11
10.399568
21
42.552846
31
0.0
0
ARC
8
0
10
10.399568
20
42.252846
30
0.0
40
0.300000
50
90.000000
51
270.000000
0
LINE
8
0
10
10.399568
20
41.952846
30
0.0
11
10.754593
21
42.048397
31
0.0
0
ARC
8
0
10
10.686460
20
42.340557
30
0.0
40
0.300000
50
283.127121
51
308.823976
0
LINE
8
0
10
10.874539
20
42.106835
30
0.0
11
12.517708
21
43.429110
31
0.0
0
ARC
8
0
10
12.392322
20
43.584925
30
0.0
40
0.200000
50
308.823976
51
0.000000
0
LINE
8
0
10
12.592200
20
43.591905
30
0.0
11
12.586771
21
43.747392
31
0.0
0
ARC
8
0
10
12.732303
20
43.752474
30
0.0
40
0.145621
50
37.746080
51
180.000000
0
LINE
8
0
10
12.847450
20
43.841617
30
0.0
11
14.911737
21
41.175176
31
0.0
0
ARC
8
0
10
14.626830
20
41.081220
30
0.0
40
0.300000
50
270.000000
51
18.251415
0
ATTDEF
8
0
10
0.000000
20
0.000000
30
0.0
40
3.5
1

3

2
GLASS_MIN:0.000000
70
0
0
ATTDEF
8
0
10
0.000000
20
0.000000
30
0.0
40
3.5
1

3

2
GLASS_MAX:0.000000
70
0
0
ATTDEF
8
0
10
0.000000
20
0.000000
30
0.0
40
3.5
1

3

2
HW_START
70
0
0
ATTDEF
8
0
10
60.111426
20
125.600000
30
0.0
40
3.5
1

3

2
HW_END
70
0
0
ATTDEF
8
0
10
60.111426
20
90.200000
30
0.0
40
3.5
1

3

2
VC_START
70
0
0
ATTDEF
8
0
10
59.999568
20
35.400000
30
0.0
40
3.5
1

3

2
VC_END
70
0
0
ATTDEF
8
0
10
0.000000
20
0.000000
30
0.0
40
3.5
1

3

2
FP_LCS_ORIG
70
0
0
ATTDEF
8
0
10
10.000000
20
0.000000
30
0.0
40
3.5
1

3

2
FP_LCS_HOT
70
0
0
ATTDEF
8
0
10
0.000000
20
10.000000
30
0.0
40
3.5
1

3

2
FP_LCS_INTERN
70
0
0
ATTDEF
8
0
10
0.000000
20
0.000000
30
0.0
40
3.5
1

3

2
PANE_WIDTH:56
70
0
0
ATTDEF
8
0
10
0.000000
20
0.000000
30
0.0
40
3.5
1

3

2
MIN_VETRO:0
70
0
0
ATTDEF
8
0
10
0.000000
20
0.000000
30
0.0
40
3.5
1

3

2
MAX_VETRO:0
70
0
0
ATTDEF
8
0
10
0.000000
20
0.000000
30
0.0
40
3.5
1

3

2
JX:0
70
0
0
ATTDEF
8
0
10
0.000000
20
0.000000
30
0.0
40
3.5
1

3

2
WX:0
70
0
0
ATTDEF
8
0
10
0.000000
20
0.000000
30
0.0
40
3.5
1

3

2
JY:0
70
0
0
ATTDEF
8
0
10
0.000000
20
0.000000
30
0.0
40
3.5
1

3

2
WY:0
70
0
0
ATTDEF
8
0
10
0.000000
20
0.000000
30
0.0
40
3.5
1

3

2
BL01:6500,,1
70
0
0
ATTDEF
8
0
10
0.000000
20
0.000000
30
0.0
40
3.5
1

3

2
DESC:COR-7000 - COR-7000
70
0
0
ATTDEF
8
0
10
0.000000
20
0.000000
30
0.0
40
3.5
1

3

2
DENS:0
70
0
0
ATTDEF
8
0
10
0.000000
20
0.000000
30
0.0
40
3.5
1

3

2
TDEV:0
70
0
0
ATTDEF
8
0
10
0.000000
20
0.000000
30
0.0
40
3.5
1

3

2
TDEV2:0
70
0
0
ATTDEF
8
0
10
0.000000
20
0.000000
30
0.0
40
3.5
1

3

2
TDEV3:0
70
0
0
ATTDEF
8
0
10
0.000000
20
0.000000
30
0.0
40
3.5
1

3

2
TDEV4:0
70
0
0
ATTDEF
8
0
10
0.000000
20
0.000000
30
0.0
40
3.5
1

3

2
TDEV5:0
70
0
0
ATTDEF
8
0
10
0.000000
20
0.000000
30
0.0
40
3.5
1

3

2
PANE_WIDTH:56
70
0
0
ATTDEF
8
0
10
0.000000
20
0.000000
30
0.0
40
3.5
1

3

2
MIN_VETRO:0
70
0
0
ATTDEF
8
0
10
0.000000
20
0.000000
30
0.0
40
3.5
1

3

2
MAX_VETRO:0
70
0
0
ATTDEF
8
0
10
0.000000
20
0.000000
30
0.0
40
3.5
1

3

2
JX:0
70
0
0
ATTDEF
8
0
10
0.000000
20
0.000000
30
0.0
40
3.5
1

3

2
WX:0
70
0
0
ATTDEF
8
0
10
0.000000
20
0.000000
30
0.0
40
3.5
1

3

2
JY:0
70
0
0
ATTDEF
8
0
10
0.000000
20
0.000000
30
0.0
40
3.5
1

3

2
WY:0
70
0
0
ATTDEF
8
0
10
0.000000
20
0.000000
30
0.0
40
3.5
1

3

2
BL01:6500,,1
70
0
0
ENDSEC
0
EOF
