0
SECTION
2
ENTITIES
0
ARC
8
0
10
62.346640
20
63.799744
30
0.0
40
0.600000
50
0.000000
51
180.000000
0
ARC
8
0
10
62.346640
20
63.799744
30
0.0
40
0.600000
50
180.000000
51
0.000000
0
ARC
8
0
10
84.846640
20
63.799744
30
0.0
40
0.600000
50
0.000000
51
180.000000
0
ARC
8
0
10
84.846640
20
63.799744
30
0.0
40
0.600000
50
180.000000
51
0.000000
0
ARC
8
0
10
62.346640
20
37.987913
30
0.0
40
0.600000
50
0.000000
51
180.000000
0
ARC
8
0
10
62.346640
20
37.987913
30
0.0
40
0.600000
50
180.000000
51
0.000000
0
ARC
8
0
10
84.846640
20
37.987913
30
0.0
40
0.600000
50
0.000000
51
180.000000
0
ARC
8
0
10
84.846640
20
37.987913
30
0.0
40
0.600000
50
180.000000
51
0.000000
0
LINE
8
0
10
61.696640
20
64.694435
30
0.0
11
62.666401
21
65.664196
31
0.0
0
LINE
8
0
10
61.596640
20
62.349371
30
0.0
11
62.457308
21
63.210039
31
0.0
0
LINE
8
0
10
65.268380
20
66.021110
30
0.0
11
67.147014
21
67.899744
31
0.0
0
LINE
8
0
10
62.936346
20
63.689076
30
0.0
11
64.147339
21
64.900070
31
0.0
0
LINE
8
0
10
64.192002
20
62.699669
30
0.0
11
69.392078
21
67.899744
31
0.0
0
LINE
8
0
10
69.637142
20
65.899744
30
0.0
11
71.637142
21
67.899744
31
0.0
0
LINE
8
0
10
71.882206
20
65.899744
30
0.0
11
73.882206
21
67.899744
31
0.0
0
LINE
8
0
10
74.127270
20
65.899744
30
0.0
11
76.127270
21
67.899744
31
0.0
0
LINE
8
0
10
76.372334
20
65.899744
30
0.0
11
78.372334
21
67.899744
31
0.0
0
LINE
8
0
10
78.617398
20
65.899744
30
0.0
11
80.587545
21
67.869891
31
0.0
0
LINE
8
0
10
80.111820
20
65.149102
30
0.0
11
81.551037
21
66.588319
31
0.0
0
LINE
8
0
10
81.000660
20
63.792878
30
0.0
11
82.442942
21
65.235161
31
0.0
0
LINE
8
0
10
82.157577
20
62.704731
30
0.0
11
85.329782
21
65.876936
31
0.0
0
LINE
8
0
10
83.960643
20
62.262733
30
0.0
11
84.900035
21
63.202125
31
0.0
0
LINE
8
0
10
62.508611
20
38.565637
30
0.0
11
63.381700
21
39.438726
31
0.0
0
LINE
8
0
10
62.075951
20
35.887913
30
0.0
11
65.231332
21
39.043294
31
0.0
0
LINE
8
0
10
64.843801
20
36.410699
30
0.0
11
66.285762
21
37.852660
31
0.0
0
LINE
8
0
10
65.735706
20
35.057540
30
0.0
11
67.174603
21
36.496437
31
0.0
0
LINE
8
0
10
66.811143
20
33.887913
30
0.0
11
68.811143
21
35.887913
31
0.0
0
LINE
8
0
10
69.056207
20
33.887913
30
0.0
11
71.056207
21
35.887913
31
0.0
0
LINE
8
0
10
71.301271
20
33.887913
30
0.0
11
73.301271
21
35.887913
31
0.0
0
LINE
8
0
10
73.546335
20
33.887913
30
0.0
11
75.546335
21
35.887913
31
0.0
0
LINE
8
0
10
75.791399
20
33.887913
30
0.0
11
77.791399
21
35.887913
31
0.0
0
LINE
8
0
10
78.036463
20
33.887913
30
0.0
11
83.298029
21
39.149479
31
0.0
0
LINE
8
0
10
80.281527
20
33.887913
30
0.0
11
81.469988
21
35.076374
31
0.0
0
LINE
8
0
10
84.968932
20
38.575318
30
0.0
11
85.596640
21
39.203026
31
0.0
0
LINE
8
0
10
83.244568
20
36.850954
30
0.0
11
84.259235
21
37.865621
31
0.0
0
LINE
8
0
10
84.675941
20
36.037263
30
0.0
11
85.526591
21
36.887913
31
0.0
0
LINE
8
0
10
62.701340
20
36.143666
30
0.0
11
61.696640
21
37.148366
31
0.0
0
LINE
8
0
10
67.202157
20
33.887913
30
0.0
11
65.161752
21
35.928319
31
0.0
0
LINE
8
0
10
62.531270
20
38.558800
30
0.0
11
61.596640
21
39.493430
31
0.0
0
LINE
8
0
10
64.203063
20
36.887007
30
0.0
11
62.917527
21
38.172543
31
0.0
0
LINE
8
0
10
69.447221
20
33.887913
30
0.0
11
64.247221
21
39.087913
31
0.0
0
LINE
8
0
10
71.692285
20
33.887913
30
0.0
11
69.692285
21
35.887913
31
0.0
0
LINE
8
0
10
73.937349
20
33.887913
30
0.0
11
71.937349
21
35.887913
31
0.0
0
LINE
8
0
10
76.182413
20
33.887913
30
0.0
11
74.182413
21
35.887913
31
0.0
0
LINE
8
0
10
78.427477
20
33.887913
30
0.0
11
76.427477
21
35.887913
31
0.0
0
LINE
8
0
10
80.626638
20
33.933817
30
0.0
11
78.672541
21
35.887913
31
0.0
0
LINE
8
0
10
81.572944
20
35.232574
30
0.0
11
80.133651
21
36.671867
31
0.0
0
LINE
8
0
10
82.464849
20
36.585733
30
0.0
11
81.022492
21
38.028091
31
0.0
0
LINE
8
0
10
85.368792
20
35.926854
30
0.0
11
82.208906
21
39.086740
31
0.0
0
LINE
8
0
10
84.964484
20
38.576227
30
0.0
11
83.995582
21
39.545129
31
0.0
0
LINE
8
0
10
61.771781
20
61.768930
30
0.0
11
61.665826
21
61.874885
31
0.0
0
LINE
8
0
10
63.416638
20
62.369136
30
0.0
11
62.550380
21
63.235395
31
0.0
0
LINE
8
0
10
65.272693
20
62.758146
30
0.0
11
62.131094
21
65.899744
31
0.0
0
LINE
8
0
10
66.307594
20
63.968309
30
0.0
11
64.865708
21
65.410195
31
0.0
0
LINE
8
0
10
67.196434
20
65.324532
30
0.0
11
65.757613
21
66.763354
31
0.0
0
LINE
8
0
10
68.866287
20
65.899744
30
0.0
11
66.866287
21
67.899744
31
0.0
0
LINE
8
0
10
71.111351
20
65.899744
30
0.0
11
69.111351
21
67.899744
31
0.0
0
LINE
8
0
10
73.356415
20
65.899744
30
0.0
11
71.356415
21
67.899744
31
0.0
0
LINE
8
0
10
75.601479
20
65.899744
30
0.0
11
73.601479
21
67.899744
31
0.0
0
LINE
8
0
10
77.846543
20
65.899744
30
0.0
11
75.846543
21
67.899744
31
0.0
0
LINE
8
0
10
83.410462
20
62.580889
30
0.0
11
78.091607
21
67.899744
31
0.0
0
LINE
8
0
10
85.596640
20
62.639775
30
0.0
11
85.536671
21
62.699744
31
0.0
0
LINE
8
0
10
81.363360
20
66.873055
30
0.0
11
80.336671
21
67.899744
31
0.0
0
LINE
8
0
10
85.496640
20
62.739775
30
0.0
11
85.013114
21
63.223301
31
0.0
0
LINE
8
0
10
84.270197
20
63.966218
30
0.0
11
83.284451
21
64.951964
31
0.0
0
LINE
8
0
10
85.581735
20
64.899744
30
0.0
11
84.710880
21
65.770599
31
0.0
0
ARC
8
0
10
66.775919
20
67.399744
30
0.0
40
0.500000
50
90.000000
51
146.610000
0
LINE
8
0
10
66.358447
20
67.674912
30
0.0
11
64.727943
21
65.201184
31
0.0
0
ARC
8
0
10
64.168226
20
65.570110
30
0.0
40
0.670365
50
239.960294
51
326.610000
0
LINE
8
0
10
63.832641
20
64.989789
30
0.0
11
62.301491
21
65.875214
31
0.0
0
LINE
8
0
10
62.301491
20
65.875214
30
0.0
11
62.205520
21
65.899744
31
0.0
0
LINE
8
0
10
62.205520
20
65.899744
30
0.0
11
61.996640
21
65.899744
31
0.0
0
ARC
8
0
10
61.996640
20
65.499744
30
0.0
40
0.400000
50
90.000000
51
180.000000
0
LINE
8
0
10
61.596640
20
65.499744
30
0.0
11
61.596640
21
64.899744
31
0.0
0
LINE
8
0
10
61.596640
20
64.899744
30
0.0
11
61.696640
21
64.899744
31
0.0
0
LINE
8
0
10
61.696640
20
64.899744
30
0.0
11
61.696640
21
64.524744
31
0.0
0
ARC
8
0
10
61.896640
20
64.524744
30
0.0
40
0.200000
50
180.000000
51
270.000000
0
LINE
8
0
10
61.896640
20
64.324744
30
0.0
11
62.056167
21
64.324744
31
0.0
0
ARC
8
0
10
62.346640
20
63.799744
30
0.0
40
0.600000
50
0.000000
51
118.955024
0
ARC
8
0
10
62.346640
20
63.799744
30
0.0
40
0.600000
50
241.044976
51
0.000000
0
LINE
8
0
10
62.056167
20
63.274744
30
0.0
11
61.896640
21
63.274744
31
0.0
0
ARC
8
0
10
61.896640
20
63.074744
30
0.0
40
0.200000
50
90.000000
51
180.000000
0
LINE
8
0
10
61.696640
20
63.074744
30
0.0
11
61.696640
21
62.699744
31
0.0
0
LINE
8
0
10
61.696640
20
62.699744
30
0.0
11
61.596640
21
62.699744
31
0.0
0
LINE
8
0
10
61.596640
20
62.699744
30
0.0
11
61.596640
21
62.099744
31
0.0
0
ARC
8
0
10
61.996640
20
62.099744
30
0.0
40
0.400000
50
180.000000
51
270.000000
0
LINE
8
0
10
61.996640
20
61.699744
30
0.0
11
62.205520
21
61.699744
31
0.0
0
LINE
8
0
10
62.205520
20
61.699744
30
0.0
11
62.301491
21
61.724274
31
0.0
0
LINE
8
0
10
62.301491
20
61.724274
30
0.0
11
63.802530
21
62.592287
31
0.0
0
ARC
8
0
10
64.203010
20
61.899744
30
0.0
40
0.800000
50
90.000000
51
120.039706
0
LINE
8
0
10
64.203010
20
62.699744
30
0.0
11
64.935956
21
62.699744
31
0.0
0
ARC
8
0
10
64.935956
20
63.699744
30
0.0
40
1.000000
50
270.000000
51
326.760000
0
LINE
8
0
10
65.772338
20
63.151597
30
0.0
11
67.277281
21
65.447892
31
0.0
0
ARC
8
0
10
68.113663
20
64.899744
30
0.0
40
1.000000
50
90.000000
51
146.760000
0
LINE
8
0
10
68.113663
20
65.899744
30
0.0
11
73.596640
21
65.899744
31
0.0
0
LINE
8
0
10
73.596640
20
65.899744
30
0.0
11
78.929056
21
65.899744
31
0.0
0
LINE
8
0
10
78.929056
20
65.899744
30
0.0
11
79.079617
21
65.899744
31
0.0
0
ARC
8
0
10
79.079617
20
64.899744
30
0.0
40
1.000000
50
33.240000
51
90.000000
0
LINE
8
0
10
79.915999
20
65.447892
30
0.0
11
81.420943
21
63.151597
31
0.0
0
ARC
8
0
10
82.257325
20
63.699744
30
0.0
40
1.000000
50
213.240000
51
270.000000
0
LINE
8
0
10
82.257325
20
62.699744
30
0.0
11
82.990271
21
62.699744
31
0.0
0
ARC
8
0
10
82.990271
20
61.899744
30
0.0
40
0.800000
50
59.960294
51
90.000000
0
LINE
8
0
10
83.390751
20
62.592287
30
0.0
11
84.891790
21
61.724274
31
0.0
0
LINE
8
0
10
84.891790
20
61.724274
30
0.0
11
84.987760
21
61.699744
31
0.0
0
LINE
8
0
10
84.987760
20
61.699744
30
0.0
11
85.196640
21
61.699744
31
0.0
0
ARC
8
0
10
85.196640
20
62.099744
30
0.0
40
0.400000
50
270.000000
51
0.000000
0
LINE
8
0
10
85.596640
20
62.099744
30
0.0
11
85.596640
21
62.699744
31
0.0
0
LINE
8
0
10
85.596640
20
62.699744
30
0.0
11
85.496640
21
62.699744
31
0.0
0
LINE
8
0
10
85.496640
20
62.699744
30
0.0
11
85.496640
21
63.074744
31
0.0
0
ARC
8
0
10
85.296640
20
63.074744
30
0.0
40
0.200000
50
0.000000
51
90.000000
0
LINE
8
0
10
85.296640
20
63.274744
30
0.0
11
85.137114
21
63.274744
31
0.0
0
ARC
8
0
10
84.846640
20
63.799744
30
0.0
40
0.600000
50
61.044976
51
298.955024
0
LINE
8
0
10
85.137114
20
64.324744
30
0.0
11
85.296640
21
64.324744
31
0.0
0
ARC
8
0
10
85.296640
20
64.524744
30
0.0
40
0.200000
50
270.000000
51
0.000000
0
LINE
8
0
10
85.496640
20
64.524744
30
0.0
11
85.496640
21
64.899744
31
0.0
0
LINE
8
0
10
85.496640
20
64.899744
30
0.0
11
85.596640
21
64.899744
31
0.0
0
LINE
8
0
10
85.596640
20
64.899744
30
0.0
11
85.596640
21
65.499744
31
0.0
0
ARC
8
0
10
85.196640
20
65.499744
30
0.0
40
0.400000
50
0.000000
51
90.000000
0
LINE
8
0
10
85.196640
20
65.899744
30
0.0
11
84.987760
21
65.899744
31
0.0
0
LINE
8
0
10
84.987760
20
65.899744
30
0.0
11
84.891790
21
65.875214
31
0.0
0
LINE
8
0
10
84.891790
20
65.875214
30
0.0
11
83.360640
21
64.989789
31
0.0
0
ARC
8
0
10
83.025055
20
65.570110
30
0.0
40
0.670365
50
213.390000
51
300.039706
0
LINE
8
0
10
82.465337
20
65.201184
30
0.0
11
80.834834
21
67.674912
31
0.0
0
ARC
8
0
10
80.417362
20
67.399744
30
0.0
40
0.500000
50
33.390000
51
90.000000
0
LINE
8
0
10
80.417362
20
67.899744
30
0.0
11
73.596640
21
67.899744
31
0.0
0
LINE
8
0
10
73.596640
20
67.899744
30
0.0
11
66.775919
21
67.899744
31
0.0
0
LINE
8
0
10
73.596640
20
33.887913
30
0.0
11
66.775919
21
33.887913
31
0.0
0
ARC
8
0
10
66.775919
20
34.387913
30
0.0
40
0.500000
50
213.390000
51
270.000000
0
LINE
8
0
10
66.358447
20
34.112746
30
0.0
11
64.727943
21
36.586473
31
0.0
0
ARC
8
0
10
64.168226
20
36.217548
30
0.0
40
0.670365
50
33.390000
51
120.039706
0
LINE
8
0
10
63.832641
20
36.797869
30
0.0
11
62.301491
21
35.912443
31
0.0
0
LINE
8
0
10
62.205520
20
35.887913
30
0.0
11
62.301491
21
35.912443
31
0.0
0
LINE
8
0
10
62.205520
20
35.887913
30
0.0
11
61.996640
21
35.887913
31
0.0
0
ARC
8
0
10
61.996640
20
36.287913
30
0.0
40
0.400000
50
180.000000
51
270.000000
0
LINE
8
0
10
61.596640
20
36.287913
30
0.0
11
61.596640
21
36.887913
31
0.0
0
LINE
8
0
10
61.596640
20
36.887913
30
0.0
11
61.696640
21
36.887913
31
0.0
0
LINE
8
0
10
61.696640
20
36.887913
30
0.0
11
61.696640
21
37.262913
31
0.0
0
ARC
8
0
10
61.896640
20
37.262913
30
0.0
40
0.200000
50
90.000000
51
180.000000
0
LINE
8
0
10
61.896640
20
37.462913
30
0.0
11
62.056167
21
37.462913
31
0.0
0
ARC
8
0
10
62.346640
20
37.987913
30
0.0
40
0.600000
50
241.044976
51
0.000000
0
ARC
8
0
10
62.346640
20
37.987913
30
0.0
40
0.600000
50
0.000000
51
118.955024
0
LINE
8
0
10
62.056167
20
38.512913
30
0.0
11
61.896640
21
38.512913
31
0.0
0
ARC
8
0
10
61.896640
20
38.712913
30
0.0
40
0.200000
50
180.000000
51
270.000000
0
LINE
8
0
10
61.696640
20
38.712913
30
0.0
11
61.696640
21
39.087913
31
0.0
0
LINE
8
0
10
61.696640
20
39.087913
30
0.0
11
61.596640
21
39.087913
31
0.0
0
LINE
8
0
10
61.596640
20
39.087913
30
0.0
11
61.596640
21
39.687913
31
0.0
0
ARC
8
0
10
61.996640
20
39.687913
30
0.0
40
0.400000
50
90.000000
51
180.000000
0
LINE
8
0
10
61.996640
20
40.087913
30
0.0
11
62.205520
21
40.087913
31
0.0
0
LINE
8
0
10
62.301491
20
40.063383
30
0.0
11
62.205520
21
40.087913
31
0.0
0
LINE
8
0
10
62.301491
20
40.063383
30
0.0
11
63.802530
21
39.195370
31
0.0
0
ARC
8
0
10
64.203010
20
39.887913
30
0.0
40
0.800000
50
239.960294
51
270.000000
0
LINE
8
0
10
64.203010
20
39.087913
30
0.0
11
64.935956
21
39.087913
31
0.0
0
ARC
8
0
10
64.935956
20
38.087913
30
0.0
40
1.000000
50
33.240000
51
90.000000
0
LINE
8
0
10
65.772338
20
38.636060
30
0.0
11
67.277281
21
36.339766
31
0.0
0
ARC
8
0
10
68.113663
20
36.887913
30
0.0
40
1.000000
50
213.240000
51
270.000000
0
LINE
8
0
10
68.113663
20
35.887913
30
0.0
11
73.596640
21
35.887913
31
0.0
0
LINE
8
0
10
73.596640
20
35.887913
30
0.0
11
78.929056
21
35.887913
31
0.0
0
LINE
8
0
10
78.929056
20
35.887913
30
0.0
11
79.079617
21
35.887913
31
0.0
0
ARC
8
0
10
79.079617
20
36.887913
30
0.0
40
1.000000
50
270.000000
51
326.760000
0
LINE
8
0
10
79.915999
20
36.339766
30
0.0
11
81.420943
21
38.636060
31
0.0
0
ARC
8
0
10
82.257325
20
38.087913
30
0.0
40
1.000000
50
90.000000
51
146.760000
0
LINE
8
0
10
82.257325
20
39.087913
30
0.0
11
82.990271
21
39.087913
31
0.0
0
ARC
8
0
10
82.990271
20
39.887913
30
0.0
40
0.800000
50
270.000000
51
300.039706
0
LINE
8
0
10
83.390751
20
39.195370
30
0.0
11
84.891790
21
40.063383
31
0.0
0
LINE
8
0
10
84.987760
20
40.087913
30
0.0
11
84.891790
21
40.063383
31
0.0
0
LINE
8
0
10
84.987760
20
40.087913
30
0.0
11
85.196640
21
40.087913
31
0.0
0
ARC
8
0
10
85.196640
20
39.687913
30
0.0
40
0.400000
50
0.000000
51
90.000000
0
LINE
8
0
10
85.596640
20
39.687913
30
0.0
11
85.596640
21
39.087913
31
0.0
0
LINE
8
0
10
85.596640
20
39.087913
30
0.0
11
85.496640
21
39.087913
31
0.0
0
LINE
8
0
10
85.496640
20
39.087913
30
0.0
11
85.496640
21
38.712913
31
0.0
0
ARC
8
0
10
85.296640
20
38.712913
30
0.0
40
0.200000
50
270.000000
51
0.000000
0
LINE
8
0
10
85.296640
20
38.512913
30
0.0
11
85.137114
21
38.512913
31
0.0
0
ARC
8
0
10
84.846640
20
37.987913
30
0.0
40
0.600000
50
61.044976
51
298.955024
0
LINE
8
0
10
85.137114
20
37.462913
30
0.0
11
85.296640
21
37.462913
31
0.0
0
ARC
8
0
10
85.296640
20
37.262913
30
0.0
40
0.200000
50
0.000000
51
90.000000
0
LINE
8
0
10
85.496640
20
37.262913
30
0.0
11
85.496640
21
36.887913
31
0.0
0
LINE
8
0
10
85.496640
20
36.887913
30
0.0
11
85.596640
21
36.887913
31
0.0
0
LINE
8
0
10
85.596640
20
36.887913
30
0.0
11
85.596640
21
36.287913
31
0.0
0
ARC
8
0
10
85.196640
20
36.287913
30
0.0
40
0.400000
50
270.000000
51
0.000000
0
LINE
8
0
10
85.196640
20
35.887913
30
0.0
11
84.987760
21
35.887913
31
0.0
0
LINE
8
0
10
84.891790
20
35.912443
30
0.0
11
84.987760
21
35.887913
31
0.0
0
LINE
8
0
10
84.891790
20
35.912443
30
0.0
11
83.360640
21
36.797869
31
0.0
0
ARC
8
0
10
83.025055
20
36.217548
30
0.0
40
0.670365
50
59.960294
51
146.610000
0
LINE
8
0
10
82.465337
20
36.586473
30
0.0
11
80.834834
21
34.112746
31
0.0
0
ARC
8
0
10
80.417362
20
34.387913
30
0.0
40
0.500000
50
270.000000
51
326.610000
0
LINE
8
0
10
80.417362
20
33.887913
30
0.0
11
73.596640
21
33.887913
31
0.0
0
ARC
8
0
10
63.896640
20
40.658161
30
0.0
40
0.200000
50
0.000000
51
60.065178
0
LINE
8
0
10
64.096640
20
40.658161
30
0.0
11
64.096640
21
39.274391
31
0.0
0
ARC
8
0
10
63.896640
20
39.274391
30
0.0
40
0.200000
50
180.000000
51
0.000000
0
LINE
8
0
10
63.696736
20
39.280581
30
0.0
11
62.020743
21
40.302814
31
0.0
0
ARC
8
0
10
61.864529
20
40.046694
30
0.0
40
0.300000
50
58.619868
51
90.000000
0
LINE
8
0
10
61.864529
20
40.346694
30
0.0
11
61.796640
21
40.346694
31
0.0
0
ARC
8
0
10
61.796640
20
40.146694
30
0.0
40
0.200000
50
90.000000
51
180.000000
0
LINE
8
0
10
61.596640
20
40.146694
30
0.0
11
61.596640
21
35.646694
31
0.0
0
ARC
8
0
10
61.596640
20
35.346694
30
0.0
40
0.300000
50
90.000000
51
270.000000
0
LINE
8
0
10
61.596640
20
35.046694
30
0.0
11
61.951665
21
35.142245
31
0.0
0
ARC
8
0
10
61.883532
20
35.434406
30
0.0
40
0.300000
50
283.127121
51
308.823976
0
LINE
8
0
10
62.071611
20
35.200683
30
0.0
11
63.714780
21
36.522958
31
0.0
0
ARC
8
0
10
63.589394
20
36.678773
30
0.0
40
0.200000
50
308.823976
51
0.000000
0
LINE
8
0
10
63.789272
20
36.685753
30
0.0
11
63.783843
21
36.841240
31
0.0
0
ARC
8
0
10
63.929375
20
36.846322
30
0.0
40
0.145621
50
37.746080
51
180.000000
0
LINE
8
0
10
64.044522
20
36.935466
30
0.0
11
66.108809
21
34.269025
31
0.0
0
ARC
8
0
10
65.823902
20
34.175069
30
0.0
40
0.300000
50
270.000000
51
18.251415
0
LINE
8
0
10
65.827287
20
33.875044
30
0.0
11
65.170665
21
33.856431
31
0.0
0
ARC
8
0
10
65.156497
20
34.356230
30
0.0
40
0.500000
50
231.805773
51
271.623749
0
ARC
8
0
10
63.610674
20
32.391432
30
0.0
40
2.000000
50
51.805773
51
123.997055
0
LINE
8
0
10
62.492374
20
34.049564
30
0.0
11
62.016754
21
33.816282
31
0.0
0
ARC
8
0
10
62.347026
20
33.142917
30
0.0
40
0.750000
50
116.127032
51
180.000000
0
LINE
8
0
10
61.597026
20
33.142980
30
0.0
11
61.596640
21
28.493809
31
0.0
0
LINE
8
0
10
61.596640
20
28.493809
30
0.0
11
58.096640
21
28.493809
31
0.0
0
LINE
8
0
10
58.096640
20
28.493809
30
0.0
11
58.096640
21
29.993809
31
0.0
0
LINE
8
0
10
58.096640
20
29.993809
30
0.0
11
60.096640
21
29.993809
31
0.0
0
LINE
8
0
10
60.096640
20
29.993809
30
0.0
11
60.096640
21
33.493809
31
0.0
0
LINE
8
0
10
60.096640
20
33.493809
30
0.0
11
37.496640
21
33.493809
31
0.0
0
LINE
8
0
10
37.496640
20
33.493809
30
0.0
11
37.496640
21
29.993809
31
0.0
0
LINE
8
0
10
37.496640
20
29.993809
30
0.0
11
39.496640
21
29.993809
31
0.0
0
LINE
8
0
10
39.496640
20
29.993809
30
0.0
11
39.496640
21
28.493809
31
0.0
0
LINE
8
0
10
39.496640
20
28.493809
30
0.0
11
35.996640
21
28.493809
31
0.0
0
LINE
8
0
10
35.996640
20
28.493809
30
0.0
11
35.996640
21
73.293809
31
0.0
0
LINE
8
0
10
35.996640
20
73.293809
30
0.0
11
38.496640
21
73.293809
31
0.0
0
LINE
8
0
10
38.496640
20
73.293809
30
0.0
11
39.496640
21
72.293809
31
0.0
0
LINE
8
0
10
39.496640
20
72.293809
30
0.0
11
39.496640
21
71.293809
31
0.0
0
LINE
8
0
10
39.496640
20
71.293809
30
0.0
11
37.496640
21
71.293809
31
0.0
0
LINE
8
0
10
37.496640
20
71.293809
30
0.0
11
37.496640
21
68.293809
31
0.0
0
LINE
8
0
10
37.496640
20
68.293809
30
0.0
11
55.496640
21
68.293809
31
0.0
0
LINE
8
0
10
55.496640
20
68.293809
30
0.0
11
55.496640
21
71.293809
31
0.0
0
LINE
8
0
10
55.496640
20
71.293809
30
0.0
11
53.496640
21
71.293809
31
0.0
0
LINE
8
0
10
53.496640
20
71.293809
30
0.0
11
53.496640
21
72.293809
31
0.0
0
LINE
8
0
10
53.496640
20
72.293809
30
0.0
11
54.496640
21
73.293809
31
0.0
0
LINE
8
0
10
54.496640
20
73.293809
30
0.0
11
62.796640
21
73.293809
31
0.0
0
ARC
8
0
10
62.796640
20
72.993809
30
0.0
40
0.300000
50
0.000000
51
90.000000
0
LINE
8
0
10
63.096640
20
72.993809
30
0.0
11
63.096640
21
72.093809
31
0.0
0
ARC
8
0
10
62.796640
20
72.093809
30
0.0
40
0.300000
50
270.000000
51
0.000000
0
LINE
8
0
10
62.796640
20
71.793809
30
0.0
11
61.596640
21
71.793809
31
0.0
0
LINE
8
0
10
61.596640
20
71.793809
30
0.0
11
61.597008
21
68.644662
31
0.0
0
ARC
8
0
10
62.347008
20
68.644749
30
0.0
40
0.750000
50
180.000000
51
243.872968
0
LINE
8
0
10
62.016735
20
67.971384
30
0.0
11
62.492374
21
67.738093
31
0.0
0
ARC
8
0
10
63.610674
20
69.396226
30
0.0
40
2.000000
50
236.002945
51
308.194227
0
ARC
8
0
10
65.156497
20
67.431428
30
0.0
40
0.500000
50
88.376251
51
128.194227
0
LINE
8
0
10
65.170665
20
67.931227
30
0.0
11
65.827287
21
67.912613
31
0.0
0
ARC
8
0
10
65.823902
20
67.612589
30
0.0
40
0.300000
50
341.748585
51
90.000000
0
LINE
8
0
10
66.108809
20
67.518633
30
0.0
11
64.044522
21
64.852192
31
0.0
0
ARC
8
0
10
63.929375
20
64.941335
30
0.0
40
0.145621
50
180.000000
51
322.253920
0
LINE
8
0
10
63.783843
20
64.946417
30
0.0
11
63.789272
21
65.101904
31
0.0
0
ARC
8
0
10
63.589394
20
65.108884
30
0.0
40
0.200000
50
0.000000
51
51.176024
0
LINE
8
0
10
63.714780
20
65.264699
30
0.0
11
62.071611
21
66.586974
31
0.0
0
ARC
8
0
10
61.883532
20
66.353251
30
0.0
40
0.300000
50
51.176024
51
76.872879
0
LINE
8
0
10
61.951665
20
66.645412
30
0.0
11
61.596640
21
66.740963
31
0.0
0
ARC
8
0
10
61.596640
20
66.440963
30
0.0
40
0.300000
50
90.000000
51
270.000000
0
LINE
8
0
10
61.596640
20
66.140963
30
0.0
11
61.596640
21
61.640963
31
0.0
0
ARC
8
0
10
61.796640
20
61.640963
30
0.0
40
0.200000
50
180.000000
51
270.000000
0
LINE
8
0
10
61.796640
20
61.440963
30
0.0
11
61.864529
21
61.440963
31
0.0
0
ARC
8
0
10
61.864529
20
61.740963
30
0.0
40
0.300000
50
270.000000
51
301.380132
0
LINE
8
0
10
62.020743
20
61.484844
30
0.0
11
63.696736
21
62.507076
31
0.0
0
ARC
8
0
10
63.896640
20
62.513267
30
0.0
40
0.200000
50
0.000000
51
180.000000
0
LINE
8
0
10
64.096640
20
62.513267
30
0.0
11
64.096640
21
61.129497
31
0.0
0
ARC
8
0
10
63.896640
20
61.129497
30
0.0
40
0.200000
50
299.934822
51
0.000000
0
LINE
8
0
10
63.996443
20
60.956178
30
0.0
11
62.097626
21
59.862773
31
0.0
0
ARC
8
0
10
62.596640
20
58.996180
30
0.0
40
1.000000
50
119.934822
51
180.000000
0
LINE
8
0
10
61.596640
20
58.996180
30
0.0
11
61.596640
21
42.791478
31
0.0
0
ARC
8
0
10
62.596640
20
42.791478
30
0.0
40
1.000000
50
180.000000
51
240.065178
0
LINE
8
0
10
62.097626
20
41.924884
30
0.0
11
63.996443
21
40.831479
31
0.0
0
LINE
8
0
10
59.996640
20
71.693809
30
0.0
11
59.996640
21
35.093809
31
0.0
0
LINE
8
0
10
59.996640
20
35.093809
30
0.0
11
37.596640
21
35.093809
31
0.0
0
LINE
8
0
10
37.596640
20
35.093809
30
0.0
11
37.596640
21
66.693809
31
0.0
0
LINE
8
0
10
37.596640
20
66.693809
30
0.0
11
57.096640
21
66.693809
31
0.0
0
LINE
8
0
10
57.096640
20
66.693809
30
0.0
11
57.096640
21
71.693809
31
0.0
0
LINE
8
0
10
57.096640
20
71.693809
30
0.0
11
59.996640
21
71.693809
31
0.0
0
ARC
8
0
10
82.036783
20
34.356230
30
0.0
40
0.500000
50
268.376251
51
308.194227
0
ARC
8
0
10
83.582606
20
32.391432
30
0.0
40
2.000000
50
56.002945
51
128.194227
0
LINE
8
0
10
84.700907
20
34.049564
30
0.0
11
85.266390
21
33.772206
31
0.0
0
ARC
8
0
10
85.046209
20
33.323296
30
0.0
40
0.500000
50
0.000000
51
63.872968
0
LINE
8
0
10
85.546209
20
33.323296
30
0.0
11
85.546209
21
30.393809
31
0.0
0
ARC
8
0
10
85.246209
20
30.393809
30
0.0
40
0.300000
50
270.000000
51
0.000000
0
LINE
8
0
10
85.246209
20
30.093809
30
0.0
11
84.596209
21
30.093809
31
0.0
0
ARC
8
0
10
84.596209
20
29.593809
30
0.0
40
0.500000
50
90.000000
51
180.000000
0
LINE
8
0
10
84.096209
20
29.593809
30
0.0
11
84.096209
21
28.993809
31
0.0
0
ARC
8
0
10
84.596209
20
28.993809
30
0.0
40
0.500000
50
180.000000
51
270.000000
0
LINE
8
0
10
84.596209
20
28.493809
30
0.0
11
86.696209
21
28.493809
31
0.0
0
ARC
8
0
10
86.696209
20
28.793809
30
0.0
40
0.300000
50
270.000000
51
0.000000
0
LINE
8
0
10
86.996209
20
28.793809
30
0.0
11
86.996209
21
29.893809
31
0.0
0
ARC
8
0
10
87.196209
20
29.893809
30
0.0
40
0.200000
50
90.000000
51
180.000000
0
LINE
8
0
10
87.196209
20
30.093809
30
0.0
11
93.232467
21
30.093809
31
0.0
0
ARC
8
0
10
93.232467
20
31.593809
30
0.0
40
1.500000
50
270.000000
51
305.278996
0
ARC
8
0
10
93.925537
20
30.614189
30
0.0
40
0.300000
50
305.278996
51
65.000000
0
LINE
8
0
10
94.052323
20
30.886082
30
0.0
11
92.594875
21
31.565701
31
0.0
0
ARC
8
0
10
92.468089
20
31.293809
30
0.0
40
0.300000
50
65.000000
51
150.000000
0
LINE
8
0
10
92.208281
20
31.443809
30
0.0
11
92.006209
21
31.093809
31
0.0
0
LINE
8
0
10
92.006209
20
31.093809
30
0.0
11
87.446209
21
31.093809
31
0.0
0
ARC
8
0
10
87.446209
20
31.393809
30
0.0
40
0.300000
50
180.000000
51
270.000000
0
LINE
8
0
10
87.146209
20
31.393809
30
0.0
11
87.146209
21
33.193809
31
0.0
0
ARC
8
0
10
87.446209
20
33.193809
30
0.0
40
0.300000
50
90.000000
51
180.000000
0
LINE
8
0
10
87.446209
20
33.493809
30
0.0
11
95.996209
21
33.493809
31
0.0
0
LINE
8
0
10
95.996209
20
33.493809
30
0.0
11
95.996209
21
108.194350
31
0.0
0
ARC
8
0
10
95.496209
20
108.194350
30
0.0
40
0.500000
50
0.000000
51
90.000000
0
LINE
8
0
10
95.496209
20
108.694350
30
0.0
11
92.496209
21
108.694350
31
0.0
0
ARC
8
0
10
92.496209
20
108.194350
30
0.0
40
0.500000
50
90.000000
51
180.000000
0
LINE
8
0
10
91.996209
20
108.194350
30
0.0
11
91.996209
21
106.694350
31
0.0
0
LINE
8
0
10
91.996209
20
106.694350
30
0.0
11
92.496209
21
104.944350
31
0.0
0
LINE
8
0
10
92.496209
20
104.944350
30
0.0
11
92.996209
21
104.944350
31
0.0
0
LINE
8
0
10
92.996209
20
104.944350
30
0.0
11
92.996209
21
106.694350
31
0.0
0
LINE
8
0
10
92.996209
20
106.694350
30
0.0
11
94.496209
21
106.694350
31
0.0
0
LINE
8
0
10
94.496209
20
106.694350
30
0.0
11
94.496209
21
99.194350
31
0.0
0
LINE
8
0
10
94.496209
20
99.194350
30
0.0
11
92.996209
21
99.194350
31
0.0
0
LINE
8
0
10
92.996209
20
99.194350
30
0.0
11
92.996209
21
100.944350
31
0.0
0
LINE
8
0
10
92.996209
20
100.944350
30
0.0
11
92.496209
21
100.944350
31
0.0
0
LINE
8
0
10
92.496209
20
100.944350
30
0.0
11
91.996026
21
99.193711
31
0.0
0
LINE
8
0
10
91.996026
20
99.193711
30
0.0
11
91.996026
21
96.376909
31
0.0
0
ARC
8
0
10
92.495722
20
96.394350
30
0.0
40
0.500000
50
181.998998
51
270.000000
0
LINE
8
0
10
92.495722
20
95.894350
30
0.0
11
93.096209
21
95.894350
31
0.0
0
LINE
8
0
10
93.096209
20
95.894350
30
0.0
11
93.096209
21
97.194350
31
0.0
0
LINE
8
0
10
93.096209
20
97.194350
30
0.0
11
94.396209
21
97.194350
31
0.0
0
LINE
8
0
10
94.396209
20
97.194350
30
0.0
11
94.396209
21
84.194350
31
0.0
0
LINE
8
0
10
94.396209
20
84.194350
30
0.0
11
92.196209
21
84.194350
31
0.0
0
LINE
8
0
10
92.196209
20
84.194350
30
0.0
11
92.196209
21
85.294350
31
0.0
0
LINE
8
0
10
92.196209
20
85.294350
30
0.0
11
91.396209
21
85.294350
31
0.0
0
ARC
8
0
10
91.396209
20
84.794350
30
0.0
40
0.500000
50
90.000000
51
180.000000
0
LINE
8
0
10
90.896209
20
84.794350
30
0.0
11
90.896209
21
83.194350
31
0.0
0
ARC
8
0
10
91.396209
20
83.194350
30
0.0
40
0.500000
50
180.000000
51
270.000000
0
LINE
8
0
10
91.396209
20
82.694350
30
0.0
11
94.207176
21
82.694350
31
0.0
0
LINE
8
0
10
94.207176
20
82.694350
30
0.0
11
93.962911
21
72.486064
31
0.0
0
ARC
8
0
10
93.463054
20
72.498025
30
0.0
40
0.500000
50
258.411108
51
358.629280
0
LINE
8
0
10
93.362610
20
72.008218
30
0.0
11
87.093529
21
73.293809
31
0.0
0
LINE
8
0
10
87.093529
20
73.293809
30
0.0
11
84.396209
21
73.293809
31
0.0
0
ARC
8
0
10
84.396209
20
72.993809
30
0.0
40
0.300000
50
90.000000
51
180.000000
0
LINE
8
0
10
84.096209
20
72.993809
30
0.0
11
84.096209
21
72.093809
31
0.0
0
ARC
8
0
10
84.396209
20
72.093809
30
0.0
40
0.300000
50
180.000000
51
270.000000
0
LINE
8
0
10
84.396209
20
71.793809
30
0.0
11
85.596640
21
71.793809
31
0.0
0
LINE
8
0
10
85.596640
20
71.793809
30
0.0
11
85.596273
21
68.644749
31
0.0
0
ARC
8
0
10
84.846273
20
68.644749
30
0.0
40
0.750000
50
296.127032
51
0.000000
0
LINE
8
0
10
85.176545
20
67.971384
30
0.0
11
84.700907
21
67.738093
31
0.0
0
ARC
8
0
10
83.582606
20
69.396226
30
0.0
40
2.000000
50
231.805773
51
303.997055
0
ARC
8
0
10
82.036783
20
67.431428
30
0.0
40
0.500000
50
51.805773
51
91.623749
0
LINE
8
0
10
82.022615
20
67.931227
30
0.0
11
81.365994
21
67.912613
31
0.0
0
ARC
8
0
10
81.369379
20
67.612589
30
0.0
40
0.300000
50
92.605413
51
198.251415
0
LINE
8
0
10
81.084471
20
67.518633
30
0.0
11
83.148759
21
64.852192
31
0.0
0
ARC
8
0
10
83.295355
20
64.922027
30
0.0
40
0.162380
50
205.472270
51
37.320431
0
ARC
8
0
10
83.603886
20
65.108884
30
0.0
40
0.200000
50
128.823976
51
206.234983
0
LINE
8
0
10
83.478500
20
65.264699
30
0.0
11
85.121670
21
66.586974
31
0.0
0
ARC
8
0
10
85.309749
20
66.353251
30
0.0
40
0.300000
50
107.000000
51
128.823976
0
LINE
8
0
10
85.222037
20
66.640143
30
0.0
11
85.596640
21
66.740963
31
0.0
0
ARC
8
0
10
85.596640
20
66.440963
30
0.0
40
0.300000
50
270.000000
51
90.000000
0
LINE
8
0
10
85.596640
20
66.140963
30
0.0
11
85.596640
21
61.640963
31
0.0
0
ARC
8
0
10
85.396640
20
61.640963
30
0.0
40
0.200000
50
270.000000
51
0.000000
0
LINE
8
0
10
85.396640
20
61.440963
30
0.0
11
85.328752
21
61.440963
31
0.0
0
ARC
8
0
10
85.328752
20
61.740963
30
0.0
40
0.300000
50
238.619868
51
270.000000
0
LINE
8
0
10
85.172537
20
61.484844
30
0.0
11
83.496544
21
62.507076
31
0.0
0
ARC
8
0
10
83.296640
20
62.513267
30
0.0
40
0.200000
50
0.000000
51
180.000000
0
LINE
8
0
10
83.096640
20
62.513267
30
0.0
11
83.096640
21
61.129497
31
0.0
0
ARC
8
0
10
83.296640
20
61.129497
30
0.0
40
0.200000
50
180.000000
51
240.065178
0
LINE
8
0
10
83.196837
20
60.956178
30
0.0
11
85.095655
21
59.862773
31
0.0
0
ARC
8
0
10
84.596640
20
58.996180
30
0.0
40
1.000000
50
0.000000
51
60.065178
0
LINE
8
0
10
85.596640
20
58.996180
30
0.0
11
85.596640
21
42.791478
31
0.0
0
ARC
8
0
10
84.596640
20
42.791478
30
0.0
40
1.000000
50
299.934822
51
0.000000
0
LINE
8
0
10
85.095655
20
41.924884
30
0.0
11
83.196837
21
40.831479
31
0.0
0
ARC
8
0
10
83.296640
20
40.658161
30
0.0
40
0.200000
50
119.934822
51
180.000000
0
LINE
8
0
10
83.096640
20
40.658161
30
0.0
11
83.096640
21
39.274391
31
0.0
0
ARC
8
0
10
83.296640
20
39.274391
30
0.0
40
0.200000
50
180.000000
51
0.000000
0
LINE
8
0
10
83.496544
20
39.280581
30
0.0
11
85.172537
21
40.302814
31
0.0
0
ARC
8
0
10
85.328752
20
40.046694
30
0.0
40
0.300000
50
90.000000
51
121.380132
0
LINE
8
0
10
85.328752
20
40.346694
30
0.0
11
85.396640
21
40.346694
31
0.0
0
ARC
8
0
10
85.396640
20
40.146694
30
0.0
40
0.200000
50
0.000000
51
90.000000
0
LINE
8
0
10
85.596640
20
40.146694
30
0.0
11
85.596640
21
35.646694
31
0.0
0
ARC
8
0
10
85.596640
20
35.346694
30
0.0
40
0.300000
50
270.000000
51
90.000000
0
LINE
8
0
10
85.596640
20
35.046694
30
0.0
11
85.170507
21
35.161383
31
0.0
0
LINE
8
0
10
85.170507
20
35.161383
30
0.0
11
83.478500
21
36.522958
31
0.0
0
ARC
8
0
10
83.603886
20
36.678773
30
0.0
40
0.200000
50
180.000000
51
231.176024
0
LINE
8
0
10
83.404008
20
36.685753
30
0.0
11
83.409438
21
36.841240
31
0.0
0
ARC
8
0
10
83.263906
20
36.846322
30
0.0
40
0.145621
50
0.000000
51
142.253920
0
LINE
8
0
10
83.148759
20
36.935466
30
0.0
11
81.084471
21
34.269025
31
0.0
0
ARC
8
0
10
81.369379
20
34.175069
30
0.0
40
0.300000
50
161.748585
51
270.000000
0
LINE
8
0
10
81.365994
20
33.875044
30
0.0
11
82.022615
21
33.856431
31
0.0
0
LINE
8
0
10
94.396209
20
35.093809
30
0.0
11
87.196209
21
35.093809
31
0.0
0
LINE
8
0
10
87.196209
20
35.093809
30
0.0
11
87.196209
21
66.693809
31
0.0
0
LINE
8
0
10
87.196209
20
66.693809
30
0.0
11
88.697618
21
66.693809
31
0.0
0
LINE
8
0
10
88.697618
20
66.693809
30
0.0
11
88.697618
21
68.293809
31
0.0
0
LINE
8
0
10
88.697618
20
68.293809
30
0.0
11
87.196209
21
68.293809
31
0.0
0
LINE
8
0
10
87.196209
20
68.293809
30
0.0
11
87.196209
21
71.638198
31
0.0
0
LINE
8
0
10
87.196209
20
71.638198
30
0.0
11
94.396209
21
70.140459
31
0.0
0
LINE
8
0
10
94.396209
20
70.140459
30
0.0
11
94.396209
21
68.293360
31
0.0
0
LINE
8
0
10
94.396209
20
68.293360
30
0.0
11
92.897618
21
68.293360
31
0.0
0
LINE
8
0
10
92.897618
20
68.293360
30
0.0
11
92.897618
21
66.693809
31
0.0
0
LINE
8
0
10
92.897618
20
66.693809
30
0.0
11
94.396209
21
66.693809
31
0.0
0
LINE
8
0
10
94.396209
20
66.693809
30
0.0
11
94.396209
21
35.093809
31
0.0
0
ATTDEF
8
0
10
95.996209
20
28.493809
30
0.0
40
3.5
1

3

2
FRONT_VIEW
70
0
0
ATTDEF
8
0
10
95.996209
20
28.493809
30
0.0
40
3.5
1

3

2
OPTI:500.000000,1,0,3000.000000,6500.000000,500.000000,0,0.000000,0
70
0
0
ATTDEF
8
0
10
95.996209
20
28.493809
30
0.0
40
3.5
1

3

2
GLASS_MIN:0.000000
70
0
0
ATTDEF
8
0
10
95.996209
20
28.493809
30
0.0
40
3.5
1

3

2
GLASS_MAX:0.000000
70
0
0
ATTDEF
8
0
10
58.646640
20
73.293809
30
0.0
40
3.5
1

3

2
VC_START
70
0
0
ATTDEF
8
0
10
59.846640
20
28.493809
30
0.0
40
3.5
1

3

2
VC_END
70
0
0
ATTDEF
8
0
10
95.996209
20
28.493809
30
0.0
40
3.5
1

3

2
FP_LCS_ORIG
70
0
0
ATTDEF
8
0
10
85.996209
20
28.493809
30
0.0
40
3.5
1

3

2
FP_LCS_HOT
70
0
0
ATTDEF
8
0
10
95.996209
20
38.493809
30
0.0
40
3.5
1

3

2
FP_LCS_INTERN
70
0
0
ATTDEF
8
0
10
0.000000
20
0.000000
30
0.0
40
3.5
1

3

2
TDEV5:0
70
0
0
ATTDEF
8
0
10
0.000000
20
0.000000
30
0.0
40
3.5
1

3

2
PANE_WIDTH:0
70
0
0
ATTDEF
8
0
10
0.000000
20
0.000000
30
0.0
40
3.5
1

3

2
MIN_VETRO:0
70
0
0
ATTDEF
8
0
10
0.000000
20
0.000000
30
0.0
40
3.5
1

3

2
MAX_VETRO:0
70
0
0
ATTDEF
8
0
10
0.000000
20
0.000000
30
0.0
40
3.5
1

3

2
JX:0
70
0
0
ATTDEF
8
0
10
0.000000
20
0.000000
30
0.0
40
3.5
1

3

2
WX:0
70
0
0
ATTDEF
8
0
10
0.000000
20
0.000000
30
0.0
40
3.5
1

3

2
JY:0
70
0
0
ATTDEF
8
0
10
0.000000
20
0.000000
30
0.0
40
3.5
1

3

2
WY:0
70
0
0
ATTDEF
8
0
10
0.000000
20
0.000000
30
0.0
40
3.5
1

3

2
BL01:6500, ,1
70
0
0
ATTDEF
8
0
10
0.000000
20
0.000000
30
0.0
40
3.5
1

3

2
DESC:Marco puerta apertura interior con enganche
70
0
0
ATTDEF
8
0
10
0.000000
20
0.000000
30
0.0
40
3.5
1

3

2
DENS:1.649
70
0
0
ATTDEF
8
0
10
0.000000
20
0.000000
30
0.0
40
3.5
1

3

2
TDEV:67.7
70
0
0
ATTDEF
8
0
10
0.000000
20
0.000000
30
0.0
40
3.5
1

3

2
TDEV2:0
70
0
0
ATTDEF
8
0
10
0.000000
20
0.000000
30
0.0
40
3.5
1

3

2
TDEV3:0
70
0
0
ATTDEF
8
0
10
0.000000
20
0.000000
30
0.0
40
3.5
1

3

2
TDEV4:0
70
0
0
ATTDEF
8
0
10
0.000000
20
0.000000
30
0.0
40
3.5
1

3

2
TDEV5:0
70
0
0
ATTDEF
8
0
10
0.000000
20
0.000000
30
0.0
40
3.5
1

3

2
PANE_WIDTH:0
70
0
0
ATTDEF
8
0
10
0.000000
20
0.000000
30
0.0
40
3.5
1

3

2
MIN_VETRO:0
70
0
0
ATTDEF
8
0
10
0.000000
20
0.000000
30
0.0
40
3.5
1

3

2
MAX_VETRO:0
70
0
0
ATTDEF
8
0
10
0.000000
20
0.000000
30
0.0
40
3.5
1

3

2
JX:0
70
0
0
ATTDEF
8
0
10
0.000000
20
0.000000
30
0.0
40
3.5
1

3

2
WX:0
70
0
0
ATTDEF
8
0
10
0.000000
20
0.000000
30
0.0
40
3.5
1

3

2
JY:0
70
0
0
ATTDEF
8
0
10
0.000000
20
0.000000
30
0.0
40
3.5
1

3

2
WY:0
70
0
0
ATTDEF
8
0
10
0.000000
20
0.000000
30
0.0
40
3.5
1

3

2
BL01:6500, ,1
70
0
0
ENDSEC
0
EOF
