0
SECTION
2
ENTITIES
0
ARC
8
0
10
195.484980
20
207.368733
30
0.0
40
1.000000
50
30.092391
51
120.509063
0
LINE
8
0
10
196.350531
20
207.870322
30
0.0
11
196.710727
21
207.385668
31
0.0
0
LINE
8
0
10
196.710727
20
207.385668
30
0.0
11
196.762741
21
207.177055
31
0.0
0
LINE
8
0
10
196.762741
20
207.177055
30
0.0
11
197.815655
21
207.151759
31
0.0
0
ARC
8
0
10
197.827976
20
207.451549
30
0.0
40
0.300000
50
270.000000
51
15.251415
0
LINE
8
0
10
198.117411
20
207.530466
30
0.0
11
196.159372
21
210.353378
31
0.0
0
ARC
8
0
10
195.991714
20
210.244334
30
0.0
40
0.200000
50
33.039809
51
214.049592
0
LINE
8
0
10
195.826003
20
210.132352
30
0.0
11
194.226673
21
209.050683
31
0.0
0
ARC
8
0
10
193.958915
20
208.915384
30
0.0
40
0.300000
50
284.000000
51
26.807633
0
LINE
8
0
10
194.031492
20
208.624295
30
0.0
11
193.767584
21
208.558496
31
0.0
0
ARC
8
0
10
193.789230
20
208.857714
30
0.0
40
0.300000
50
90.000000
51
265.862403
0
LINE
8
0
10
193.789230
20
209.157714
30
0.0
11
193.789230
21
213.657714
31
0.0
0
ARC
8
0
10
193.989230
20
213.657714
30
0.0
40
0.200000
50
60.000000
51
180.000000
0
LINE
8
0
10
194.089230
20
213.830919
30
0.0
11
195.889327
21
212.791632
31
0.0
0
ARC
8
0
10
196.089230
20
212.785410
30
0.0
40
0.200000
50
180.000000
51
0.000000
0
LINE
8
0
10
196.289230
20
212.785410
30
0.0
11
196.289230
21
214.177329
31
0.0
0
ARC
8
0
10
196.089230
20
214.177329
30
0.0
40
0.200000
50
0.000000
51
60.000000
0
LINE
8
0
10
196.189230
20
214.350534
30
0.0
11
194.139230
21
215.534102
31
0.0
0
ARC
8
0
10
194.489230
20
216.140320
30
0.0
40
0.700000
50
180.000000
51
240.000000
0
LINE
8
0
10
193.789230
20
216.140320
30
0.0
11
193.789230
21
218.231447
31
0.0
0
ARC
8
0
10
194.489230
20
218.231447
30
0.0
40
0.700000
50
120.000000
51
180.000000
0
LINE
8
0
10
194.139230
20
218.837665
30
0.0
11
196.189230
21
220.021233
31
0.0
0
ARC
8
0
10
196.089230
20
220.194438
30
0.0
40
0.200000
50
300.000000
51
0.000000
0
LINE
8
0
10
196.289230
20
220.194438
30
0.0
11
196.289230
21
221.586357
31
0.0
0
ARC
8
0
10
196.089230
20
221.586357
30
0.0
40
0.200000
50
0.000000
51
180.000000
0
LINE
8
0
10
195.889327
20
221.580135
30
0.0
11
194.089230
21
220.540848
31
0.0
0
ARC
8
0
10
193.989230
20
220.714053
30
0.0
40
0.200000
50
180.000000
51
300.000000
0
LINE
8
0
10
193.789230
20
220.714053
30
0.0
11
193.789230
21
225.214053
31
0.0
0
ARC
8
0
10
193.789230
20
225.514053
30
0.0
40
0.300000
50
94.137597
51
270.000000
0
LINE
8
0
10
193.767584
20
225.813271
30
0.0
11
194.031492
21
225.747472
31
0.0
0
ARC
8
0
10
193.958915
20
225.456383
30
0.0
40
0.300000
50
333.192367
51
76.000000
0
LINE
8
0
10
194.226673
20
225.321084
30
0.0
11
195.826003
21
224.239415
31
0.0
0
ARC
8
0
10
195.991714
20
224.127433
30
0.0
40
0.200000
50
145.950408
51
326.960191
0
LINE
8
0
10
196.159372
20
224.018388
30
0.0
11
198.117411
21
226.841301
31
0.0
0
ARC
8
0
10
197.827976
20
226.920218
30
0.0
40
0.300000
50
344.748585
51
90.000000
0
LINE
8
0
10
197.815655
20
227.220008
30
0.0
11
196.762741
21
227.194712
31
0.0
0
LINE
8
0
10
196.762741
20
227.194712
30
0.0
11
196.710727
21
226.986099
31
0.0
0
LINE
8
0
10
196.710727
20
226.986099
30
0.0
11
196.350531
21
226.501445
31
0.0
0
ARC
8
0
10
195.484980
20
227.003034
30
0.0
40
1.000000
50
239.490937
51
329.907609
0
LINE
8
0
10
194.977601
20
226.141987
30
0.0
11
194.277155
21
226.616106
31
0.0
0
ARC
8
0
10
195.208643
20
227.907584
30
0.0
40
1.592352
50
206.951042
51
234.198689
0
LINE
8
0
10
193.789230
20
227.185883
30
0.0
11
170.989230
21
227.185883
31
0.0
0
LINE
8
0
10
170.989230
20
227.185883
30
0.0
11
170.989230
21
231.385883
31
0.0
0
ARC
8
0
10
170.689230
20
231.385883
30
0.0
40
0.300000
50
0.000000
51
135.000000
0
LINE
8
0
10
170.477098
20
231.598016
30
0.0
11
169.535677
21
230.656594
31
0.0
0
ARC
8
0
10
169.889230
20
230.303041
30
0.0
40
0.500000
50
135.000000
51
180.000000
0
LINE
8
0
10
169.389230
20
230.303041
30
0.0
11
169.389230
21
204.068726
31
0.0
0
ARC
8
0
10
169.889230
20
204.068726
30
0.0
40
0.500000
50
180.000000
51
225.000000
0
LINE
8
0
10
169.535677
20
203.715173
30
0.0
11
170.477098
21
202.773751
31
0.0
0
ARC
8
0
10
170.689230
20
202.985883
30
0.0
40
0.300000
50
225.000000
51
0.000000
0
LINE
8
0
10
170.989230
20
202.985883
30
0.0
11
170.989230
21
207.185883
31
0.0
0
LINE
8
0
10
170.989230
20
207.185883
30
0.0
11
193.789230
21
207.185883
31
0.0
0
ARC
8
0
10
194.680847
20
206.916158
30
0.0
40
0.931522
50
115.681505
51
163.168763
0
LINE
8
0
10
194.277155
20
207.755661
30
0.0
11
194.977601
21
208.229780
31
0.0
0
LINE
8
0
10
170.989230
20
208.785883
30
0.0
11
170.989230
21
225.585883
31
0.0
0
LINE
8
0
10
170.989230
20
225.585883
30
0.0
11
192.189230
21
225.585883
31
0.0
0
LINE
8
0
10
192.189230
20
225.585883
30
0.0
11
192.189230
21
208.785883
31
0.0
0
LINE
8
0
10
192.189230
20
208.785883
30
0.0
11
170.989230
21
208.785883
31
0.0
0
ARC
8
0
10
212.093480
20
207.368733
30
0.0
40
1.000000
50
59.490937
51
149.907609
0
LINE
8
0
10
211.227929
20
207.870322
30
0.0
11
210.867733
21
207.385668
31
0.0
0
LINE
8
0
10
210.867733
20
207.385668
30
0.0
11
210.815720
21
207.177055
31
0.0
0
LINE
8
0
10
210.815720
20
207.177055
30
0.0
11
209.762805
21
207.151759
31
0.0
0
ARC
8
0
10
209.750484
20
207.451549
30
0.0
40
0.300000
50
164.748585
51
270.000000
0
LINE
8
0
10
209.461050
20
207.530466
30
0.0
11
211.419088
21
210.353378
31
0.0
0
ARC
8
0
10
211.586746
20
210.244334
30
0.0
40
0.200000
50
325.950408
51
146.960191
0
LINE
8
0
10
211.752457
20
210.132352
30
0.0
11
213.351787
21
209.050683
31
0.0
0
ARC
8
0
10
213.619545
20
208.915384
30
0.0
40
0.300000
50
153.192367
51
256.000000
0
LINE
8
0
10
213.546969
20
208.624295
30
0.0
11
213.810876
21
208.558496
31
0.0
0
ARC
8
0
10
213.789230
20
208.857714
30
0.0
40
0.300000
50
274.137597
51
90.000000
0
LINE
8
0
10
213.789230
20
209.157714
30
0.0
11
213.789230
21
213.657714
31
0.0
0
ARC
8
0
10
213.589230
20
213.657714
30
0.0
40
0.200000
50
0.000000
51
120.000000
0
LINE
8
0
10
213.489230
20
213.830919
30
0.0
11
211.689133
21
212.791632
31
0.0
0
ARC
8
0
10
211.489230
20
212.785410
30
0.0
40
0.200000
50
180.000000
51
0.000000
0
LINE
8
0
10
211.289230
20
212.785410
30
0.0
11
211.289230
21
214.177329
31
0.0
0
ARC
8
0
10
211.489230
20
214.177329
30
0.0
40
0.200000
50
120.000000
51
180.000000
0
LINE
8
0
10
211.389230
20
214.350534
30
0.0
11
213.439230
21
215.534102
31
0.0
0
ARC
8
0
10
213.089230
20
216.140320
30
0.0
40
0.700000
50
300.000000
51
0.000000
0
LINE
8
0
10
213.789230
20
216.140320
30
0.0
11
213.789230
21
218.231447
31
0.0
0
ARC
8
0
10
213.089230
20
218.231447
30
0.0
40
0.700000
50
0.000000
51
60.000000
0
LINE
8
0
10
213.439230
20
218.837665
30
0.0
11
211.389230
21
220.021233
31
0.0
0
ARC
8
0
10
211.489230
20
220.194438
30
0.0
40
0.200000
50
180.000000
51
240.000000
0
LINE
8
0
10
211.289230
20
220.194438
30
0.0
11
211.289230
21
221.586357
31
0.0
0
ARC
8
0
10
211.489230
20
221.586357
30
0.0
40
0.200000
50
0.000000
51
180.000000
0
LINE
8
0
10
211.689133
20
221.580135
30
0.0
11
213.489230
21
220.540848
31
0.0
0
ARC
8
0
10
213.589230
20
220.714053
30
0.0
40
0.200000
50
240.000000
51
0.000000
0
LINE
8
0
10
213.789230
20
220.714053
30
0.0
11
213.789230
21
225.214053
31
0.0
0
ARC
8
0
10
213.789230
20
225.514053
30
0.0
40
0.300000
50
270.000000
51
85.862403
0
LINE
8
0
10
213.810876
20
225.813271
30
0.0
11
213.546969
21
225.747472
31
0.0
0
ARC
8
0
10
213.619545
20
225.456383
30
0.0
40
0.300000
50
104.000000
51
206.807633
0
LINE
8
0
10
213.351787
20
225.321084
30
0.0
11
211.752457
21
224.239415
31
0.0
0
ARC
8
0
10
211.586746
20
224.127433
30
0.0
40
0.200000
50
213.039809
51
34.049592
0
LINE
8
0
10
211.419088
20
224.018388
30
0.0
11
209.461050
21
226.841301
31
0.0
0
ARC
8
0
10
209.750484
20
226.920218
30
0.0
40
0.300000
50
90.000000
51
195.251415
0
LINE
8
0
10
209.762805
20
227.220008
30
0.0
11
210.815720
21
227.194712
31
0.0
0
LINE
8
0
10
210.815720
20
227.194712
30
0.0
11
210.867733
21
226.986099
31
0.0
0
LINE
8
0
10
210.867733
20
226.986099
30
0.0
11
211.227929
21
226.501445
31
0.0
0
ARC
8
0
10
212.093480
20
227.003034
30
0.0
40
1.000000
50
210.092391
51
300.509063
0
LINE
8
0
10
212.600859
20
226.141987
30
0.0
11
213.301305
21
226.616106
31
0.0
0
ARC
8
0
10
211.961782
20
228.257001
30
0.0
40
2.118220
50
309.226013
51
329.624256
0
LINE
8
0
10
213.789230
20
227.185883
30
0.0
11
215.089230
21
227.185883
31
0.0
0
ARC
8
0
10
215.089230
20
226.885883
30
0.0
40
0.300000
50
0.000000
51
90.000000
0
LINE
8
0
10
215.389230
20
226.885883
30
0.0
11
215.389230
21
225.761138
31
0.0
0
ARC
8
0
10
215.689230
20
225.761138
30
0.0
40
0.300000
50
180.000000
51
235.000000
0
LINE
8
0
10
215.517157
20
225.515393
30
0.0
11
222.899867
21
220.345964
31
0.0
0
LINE
8
0
10
222.899867
20
220.345964
30
0.0
11
227.689230
21
227.185883
31
0.0
0
LINE
8
0
10
227.689230
20
227.185883
30
0.0
11
231.089230
21
227.185883
31
0.0
0
ARC
8
0
10
231.089230
20
227.685883
30
0.0
40
0.500000
50
270.000000
51
0.000000
0
LINE
8
0
10
231.589230
20
227.685883
30
0.0
11
231.589230
21
231.185883
31
0.0
0
ARC
8
0
10
232.089230
20
231.185883
30
0.0
40
0.500000
50
90.000000
51
180.000000
0
LINE
8
0
10
232.089230
20
231.685883
30
0.0
11
263.810769
21
231.685883
31
0.0
0
ARC
8
0
10
263.810769
20
231.185883
30
0.0
40
0.500000
50
60.000000
51
90.000000
0
LINE
8
0
10
264.060769
20
231.618896
30
0.0
11
269.339230
21
228.571375
31
0.0
0
ARC
8
0
10
269.089230
20
228.138363
30
0.0
40
0.500000
50
0.000000
51
60.000000
0
LINE
8
0
10
269.589230
20
228.138363
30
0.0
11
269.589230
21
206.233404
31
0.0
0
ARC
8
0
10
269.089230
20
206.233404
30
0.0
40
0.500000
50
300.000000
51
0.000000
0
LINE
8
0
10
269.339230
20
205.800392
30
0.0
11
264.060769
21
202.752871
31
0.0
0
ARC
8
0
10
263.810769
20
203.185883
30
0.0
40
0.500000
50
270.000000
51
300.000000
0
LINE
8
0
10
263.810769
20
202.685883
30
0.0
11
232.089230
21
202.685883
31
0.0
0
ARC
8
0
10
232.089230
20
203.185883
30
0.0
40
0.500000
50
180.000000
51
270.000000
0
LINE
8
0
10
231.589230
20
203.185883
30
0.0
11
231.589230
21
207.185883
31
0.0
0
LINE
8
0
10
231.589230
20
207.185883
30
0.0
11
213.789230
21
207.185883
31
0.0
0
ARC
8
0
10
212.765453
20
206.802984
30
0.0
40
1.093038
50
20.506153
51
60.643578
0
LINE
8
0
10
213.301305
20
207.755661
30
0.0
11
212.600859
21
208.229780
31
0.0
0
LINE
8
0
10
236.889230
20
222.485883
30
0.0
11
238.089230
21
222.485883
31
0.0
0
LINE
8
0
10
238.089230
20
222.485883
30
0.0
11
238.089230
21
229.985883
31
0.0
0
LINE
8
0
10
238.089230
20
229.985883
30
0.0
11
263.689230
21
229.985883
31
0.0
0
LINE
8
0
10
263.689230
20
229.985883
30
0.0
11
263.689230
21
228.585883
31
0.0
0
LINE
8
0
10
263.689230
20
228.585883
30
0.0
11
266.314101
21
228.585883
31
0.0
0
LINE
8
0
10
266.314101
20
228.585883
30
0.0
11
268.089230
21
227.561012
31
0.0
0
LINE
8
0
10
268.089230
20
227.561012
30
0.0
11
268.089230
21
206.810755
31
0.0
0
LINE
8
0
10
268.089230
20
206.810755
30
0.0
11
266.314101
21
205.785883
31
0.0
0
LINE
8
0
10
266.314101
20
205.785883
30
0.0
11
263.689230
21
205.785883
31
0.0
0
LINE
8
0
10
263.689230
20
205.785883
30
0.0
11
263.689230
21
204.385883
31
0.0
0
LINE
8
0
10
263.689230
20
204.385883
30
0.0
11
238.089230
21
204.385883
31
0.0
0
LINE
8
0
10
238.089230
20
204.385883
30
0.0
11
238.089230
21
211.485883
31
0.0
0
ARC
8
0
10
237.789230
20
211.485883
30
0.0
40
0.300000
50
0.000000
51
90.000000
0
LINE
8
0
10
237.789230
20
211.785883
30
0.0
11
236.954265
21
211.785883
31
0.0
0
ARC
8
0
10
236.954265
20
212.085883
30
0.0
40
0.300000
50
235.000000
51
270.000000
0
LINE
8
0
10
236.782192
20
211.840138
30
0.0
11
224.699309
21
220.300664
31
0.0
0
LINE
8
0
10
224.699309
20
220.300664
30
0.0
11
228.400060
21
225.585883
31
0.0
0
LINE
8
0
10
228.400060
20
225.585883
30
0.0
11
231.289230
21
225.585883
31
0.0
0
ARC
8
0
10
231.289230
20
227.385883
30
0.0
40
1.800000
50
270.000000
51
0.000000
0
LINE
8
0
10
233.089230
20
227.385883
30
0.0
11
233.089230
21
229.685883
31
0.0
0
ARC
8
0
10
233.589230
20
229.685883
30
0.0
40
0.500000
50
90.000000
51
180.000000
0
LINE
8
0
10
233.589230
20
230.185883
30
0.0
11
236.589230
21
230.185883
31
0.0
0
LINE
8
0
10
236.589230
20
230.185883
30
0.0
11
236.589230
21
222.785883
31
0.0
0
ARC
8
0
10
236.889230
20
222.785883
30
0.0
40
0.300000
50
180.000000
51
270.000000
0
LINE
8
0
10
236.589230
20
209.883806
30
0.0
11
236.589230
21
204.685883
31
0.0
0
ARC
8
0
10
236.089230
20
204.685883
30
0.0
40
0.500000
50
270.000000
51
0.000000
0
LINE
8
0
10
236.089230
20
204.185883
30
0.0
11
233.589230
21
204.185883
31
0.0
0
ARC
8
0
10
233.589230
20
204.685883
30
0.0
40
0.500000
50
180.000000
51
270.000000
0
LINE
8
0
10
233.089230
20
204.685883
30
0.0
11
233.089230
21
208.285883
31
0.0
0
ARC
8
0
10
232.589230
20
208.285883
30
0.0
40
0.500000
50
0.000000
51
90.000000
0
LINE
8
0
10
232.589230
20
208.785883
30
0.0
11
215.889230
21
208.785883
31
0.0
0
ARC
8
0
10
215.889230
20
209.285883
30
0.0
40
0.500000
50
180.000000
51
270.000000
0
LINE
8
0
10
215.389230
20
209.285883
30
0.0
11
215.389230
21
223.197512
31
0.0
0
ARC
8
0
10
215.689230
20
223.197512
30
0.0
40
0.300000
50
55.000000
51
180.000000
0
LINE
8
0
10
215.861303
20
223.443257
30
0.0
11
223.022485
21
218.428944
31
0.0
0
ARC
8
0
10
223.194558
20
218.674690
30
0.0
40
0.300000
50
235.000000
51
325.000000
0
LINE
8
0
10
223.440303
20
218.502617
30
0.0
11
223.838944
21
219.071936
31
0.0
0
LINE
8
0
10
223.838944
20
219.071936
30
0.0
11
236.376018
21
210.293382
31
0.0
0
ARC
8
0
10
236.089230
20
209.883806
30
0.0
40
0.500000
50
0.000000
51
55.000000
0
LINE
8
0
10
194.563229
20
212.007233
30
0.0
11
195.472769
21
212.916773
31
0.0
0
LINE
8
0
10
194.115607
20
209.314547
30
0.0
11
197.208774
21
212.407714
31
0.0
0
LINE
8
0
10
197.355326
20
210.309202
30
0.0
11
198.793052
21
211.746928
31
0.0
0
LINE
8
0
10
198.281621
20
208.990433
30
0.0
11
199.717651
21
210.426463
31
0.0
0
LINE
8
0
10
199.208950
20
207.672697
30
0.0
11
201.043966
21
209.507714
31
0.0
0
LINE
8
0
10
201.289030
20
207.507714
30
0.0
11
203.289030
21
209.507714
31
0.0
0
LINE
8
0
10
203.534094
20
207.507714
30
0.0
11
205.534094
21
209.507714
31
0.0
0
LINE
8
0
10
205.779158
20
207.507714
30
0.0
11
210.679158
21
212.407714
31
0.0
0
LINE
8
0
10
208.024929
20
207.508421
30
0.0
11
208.806117
21
208.289609
31
0.0
0
LINE
8
0
10
210.924028
20
210.407519
30
0.0
11
213.764009
21
213.247501
31
0.0
0
LINE
8
0
10
212.457252
20
209.695680
30
0.0
11
213.606382
21
210.844810
31
0.0
0
LINE
8
0
10
195.365234
20
209.836569
30
0.0
11
194.369616
21
210.832187
31
0.0
0
LINE
8
0
10
199.939154
20
207.507714
30
0.0
11
197.873319
21
209.573548
31
0.0
0
LINE
8
0
10
197.039154
20
210.407714
30
0.0
11
193.991463
21
213.455404
31
0.0
0
LINE
8
0
10
202.184218
20
207.507714
30
0.0
11
197.284218
21
212.407714
31
0.0
0
LINE
8
0
10
204.429282
20
207.507714
30
0.0
11
202.429282
21
209.507714
31
0.0
0
LINE
8
0
10
206.674346
20
207.507714
30
0.0
11
204.674346
21
209.507714
31
0.0
0
LINE
8
0
10
208.530762
20
207.896361
30
0.0
11
206.898818
21
209.528306
31
0.0
0
LINE
8
0
10
209.455361
20
209.216826
30
0.0
11
208.019331
21
210.652856
31
0.0
0
LINE
8
0
10
210.509538
20
210.407714
30
0.0
11
208.943931
21
211.973321
31
0.0
0
LINE
8
0
10
213.702864
20
209.459452
30
0.0
11
210.754602
21
212.407714
31
0.0
0
LINE
8
0
10
213.474666
20
211.932714
30
0.0
11
212.349718
21
213.057662
31
0.0
0
LINE
8
0
10
193.791415
20
224.705803
30
0.0
11
194.147480
21
225.061868
31
0.0
0
LINE
8
0
10
194.823249
20
223.492573
30
0.0
11
195.682627
21
224.351951
31
0.0
0
LINE
8
0
10
194.446321
20
220.870581
30
0.0
11
200.439793
21
226.864053
31
0.0
0
LINE
8
0
10
197.784857
20
221.964053
30
0.0
11
199.604473
21
223.783669
31
0.0
0
LINE
8
0
10
200.660013
20
224.839209
30
0.0
11
202.684857
21
226.864053
31
0.0
0
LINE
8
0
10
202.929921
20
224.864053
30
0.0
11
204.929921
21
226.864053
31
0.0
0
LINE
8
0
10
205.174985
20
224.864053
30
0.0
11
207.174985
21
226.864053
31
0.0
0
LINE
8
0
10
207.251911
20
224.695915
30
0.0
11
208.736944
21
226.180948
31
0.0
0
LINE
8
0
10
208.225513
20
223.424453
30
0.0
11
209.661543
21
224.860483
31
0.0
0
LINE
8
0
10
209.150112
20
222.103988
30
0.0
11
211.015517
21
223.969393
31
0.0
0
LINE
8
0
10
211.214070
20
221.922882
30
0.0
11
212.484938
21
223.193750
31
0.0
0
LINE
8
0
10
212.809533
20
223.518345
30
0.0
11
213.789230
21
224.498042
31
0.0
0
LINE
8
0
10
212.667110
20
221.130858
30
0.0
11
213.689230
21
222.152978
31
0.0
0
LINE
8
0
10
195.155376
20
221.271747
30
0.0
11
194.006145
21
222.420979
31
0.0
0
LINE
8
0
10
196.708134
20
221.964053
30
0.0
11
193.830725
21
224.841462
31
0.0
0
LINE
8
0
10
198.586870
20
222.330381
30
0.0
11
196.953198
21
223.964053
31
0.0
0
LINE
8
0
10
199.511469
20
223.650846
30
0.0
11
198.075439
21
225.086876
31
0.0
0
LINE
8
0
10
200.587524
20
224.819856
30
0.0
11
199.000039
21
226.407341
31
0.0
0
LINE
8
0
10
202.788390
20
224.864053
30
0.0
11
200.788390
21
226.864053
31
0.0
0
LINE
8
0
10
205.033454
20
224.864053
30
0.0
11
203.033454
21
226.864053
31
0.0
0
LINE
8
0
10
210.178518
20
221.964053
30
0.0
11
205.278518
21
226.864053
31
0.0
0
LINE
8
0
10
213.506122
20
220.881514
30
0.0
11
210.422724
21
223.964912
31
0.0
0
LINE
8
0
10
209.975432
20
224.412204
30
0.0
11
207.523582
21
226.864053
31
0.0
0
LINE
8
0
10
213.069406
20
223.563294
30
0.0
11
212.139860
21
224.492840
31
0.0
0
ARC
8
0
10
210.902435
20
220.764053
30
0.0
40
1.200000
50
60.000000
51
90.000000
0
LINE
8
0
10
210.902435
20
221.964053
30
0.0
11
209.404266
21
221.964053
31
0.0
0
ARC
8
0
10
209.404266
20
222.264053
30
0.0
40
0.300000
50
215.000000
51
270.000000
0
LINE
8
0
10
209.158520
20
222.091980
30
0.0
11
207.516079
21
224.437630
31
0.0
0
ARC
8
0
10
206.696927
20
223.864053
30
0.0
40
1.000000
50
35.000000
51
90.000000
0
LINE
8
0
10
206.696927
20
224.864053
30
0.0
11
200.881533
21
224.864053
31
0.0
0
ARC
8
0
10
200.881533
20
223.864053
30
0.0
40
1.000000
50
90.000000
51
145.000000
0
LINE
8
0
10
200.062381
20
224.437630
30
0.0
11
198.419940
21
222.091980
31
0.0
0
ARC
8
0
10
198.174194
20
222.264053
30
0.0
40
0.300000
50
270.000000
51
325.000000
0
LINE
8
0
10
198.174194
20
221.964053
30
0.0
11
196.676025
21
221.964053
31
0.0
0
ARC
8
0
10
196.676025
20
220.764053
30
0.0
40
1.200000
50
90.000000
51
120.000000
0
LINE
8
0
10
196.076025
20
221.803284
30
0.0
11
194.495640
21
220.890848
31
0.0
0
ARC
8
0
10
194.395640
20
221.064053
30
0.0
40
0.200000
50
270.000000
51
300.000000
0
LINE
8
0
10
194.395640
20
220.864053
30
0.0
11
194.189230
21
220.864053
31
0.0
0
ARC
8
0
10
194.189230
20
221.264053
30
0.0
40
0.400000
50
180.000000
51
270.000000
0
LINE
8
0
10
193.789230
20
221.264053
30
0.0
11
193.789230
21
221.764053
31
0.0
0
ARC
8
0
10
193.889230
20
221.764053
30
0.0
40
0.100000
50
90.000000
51
180.000000
0
LINE
8
0
10
193.889230
20
221.864053
30
0.0
11
193.889230
21
222.239053
31
0.0
0
ARC
8
0
10
194.089230
20
222.239053
30
0.0
40
0.200000
50
90.000000
51
180.000000
0
LINE
8
0
10
194.089230
20
222.439053
30
0.0
11
194.201036
21
222.439053
31
0.0
0
LINE
8
0
10
194.285585
20
222.420303
30
0.0
11
194.201036
21
222.439053
31
0.0
0
ARC
8
0
10
194.539230
20
222.964053
30
0.0
40
0.600000
50
244.992167
51
0.000000
0
ARC
8
0
10
194.539230
20
222.964053
30
0.0
40
0.600000
50
0.000000
51
115.007833
0
LINE
8
0
10
194.201036
20
223.489053
30
0.0
11
194.285585
21
223.507803
31
0.0
0
LINE
8
0
10
194.201036
20
223.489053
30
0.0
11
194.089230
21
223.489053
31
0.0
0
ARC
8
0
10
194.089230
20
223.689053
30
0.0
40
0.200000
50
180.000000
51
270.000000
0
LINE
8
0
10
193.889230
20
223.689053
30
0.0
11
193.889230
21
224.064053
31
0.0
0
ARC
8
0
10
193.889230
20
224.164053
30
0.0
40
0.100000
50
180.000000
51
270.000000
0
LINE
8
0
10
193.789230
20
224.164053
30
0.0
11
193.789230
21
224.664053
31
0.0
0
ARC
8
0
10
194.189230
20
224.664053
30
0.0
40
0.400000
50
90.000000
51
180.000000
0
LINE
8
0
10
194.189230
20
225.064053
30
0.0
11
194.395640
21
225.064053
31
0.0
0
ARC
8
0
10
194.395640
20
224.864053
30
0.0
40
0.200000
50
60.000000
51
90.000000
0
LINE
8
0
10
194.495640
20
225.037258
30
0.0
11
195.489230
21
224.463609
31
0.0
0
LINE
8
0
10
195.489230
20
224.463609
30
0.0
11
196.076025
21
224.124823
31
0.0
0
ARC
8
0
10
196.676025
20
225.164053
30
0.0
40
1.200000
50
240.000000
51
270.000000
0
LINE
8
0
10
196.676025
20
223.964053
30
0.0
11
197.133060
21
223.964053
31
0.0
0
ARC
8
0
10
197.133060
20
224.264053
30
0.0
40
0.300000
50
270.000000
51
325.000000
0
LINE
8
0
10
197.378806
20
224.091980
30
0.0
11
199.170539
21
226.650841
31
0.0
0
ARC
8
0
10
199.580115
20
226.364053
30
0.0
40
0.500000
50
90.000000
51
145.000000
0
LINE
8
0
10
199.580115
20
226.864053
30
0.0
11
204.519286
21
226.864053
31
0.0
0
LINE
8
0
10
204.519286
20
226.864053
30
0.0
11
207.998345
21
226.864053
31
0.0
0
ARC
8
0
10
207.998345
20
226.364053
30
0.0
40
0.500000
50
35.000000
51
90.000000
0
LINE
8
0
10
208.407921
20
226.650841
30
0.0
11
210.199655
21
224.091980
31
0.0
0
ARC
8
0
10
210.445400
20
224.264053
30
0.0
40
0.300000
50
215.000000
51
270.000000
0
LINE
8
0
10
210.445400
20
223.964053
30
0.0
11
210.902435
21
223.964053
31
0.0
0
ARC
8
0
10
210.902435
20
225.164053
30
0.0
40
1.200000
50
270.000000
51
300.000000
0
LINE
8
0
10
211.502435
20
224.124823
30
0.0
11
212.089230
21
224.463609
31
0.0
0
LINE
8
0
10
212.089230
20
224.463609
30
0.0
11
213.082820
21
225.037258
31
0.0
0
ARC
8
0
10
213.182820
20
224.864053
30
0.0
40
0.200000
50
90.000000
51
120.000000
0
LINE
8
0
10
213.182820
20
225.064053
30
0.0
11
213.389230
21
225.064053
31
0.0
0
ARC
8
0
10
213.389230
20
224.664053
30
0.0
40
0.400000
50
0.000000
51
90.000000
0
LINE
8
0
10
213.789230
20
224.664053
30
0.0
11
213.789230
21
224.164053
31
0.0
0
ARC
8
0
10
213.689230
20
224.164053
30
0.0
40
0.100000
50
270.000000
51
0.000000
0
LINE
8
0
10
213.689230
20
224.064053
30
0.0
11
213.689230
21
223.689053
31
0.0
0
ARC
8
0
10
213.489230
20
223.689053
30
0.0
40
0.200000
50
270.000000
51
0.000000
0
LINE
8
0
10
213.489230
20
223.489053
30
0.0
11
213.377424
21
223.489053
31
0.0
0
LINE
8
0
10
213.292875
20
223.507803
30
0.0
11
213.377424
21
223.489053
31
0.0
0
ARC
8
0
10
213.039230
20
222.964053
30
0.0
40
0.600000
50
64.992167
51
180.000000
0
ARC
8
0
10
213.039230
20
222.964053
30
0.0
40
0.600000
50
180.000000
51
295.007833
0
LINE
8
0
10
213.377424
20
222.439053
30
0.0
11
213.292875
21
222.420303
31
0.0
0
LINE
8
0
10
213.377424
20
222.439053
30
0.0
11
213.489230
21
222.439053
31
0.0
0
ARC
8
0
10
213.489230
20
222.239053
30
0.0
40
0.200000
50
0.000000
51
90.000000
0
LINE
8
0
10
213.689230
20
222.239053
30
0.0
11
213.689230
21
221.864053
31
0.0
0
ARC
8
0
10
213.689230
20
221.764053
30
0.0
40
0.100000
50
0.000000
51
90.000000
0
LINE
8
0
10
213.789230
20
221.764053
30
0.0
11
213.789230
21
221.264053
31
0.0
0
ARC
8
0
10
213.389230
20
221.264053
30
0.0
40
0.400000
50
270.000000
51
0.000000
0
LINE
8
0
10
213.389230
20
220.864053
30
0.0
11
213.182820
21
220.864053
31
0.0
0
ARC
8
0
10
213.182820
20
221.064053
30
0.0
40
0.200000
50
240.000000
51
270.000000
0
LINE
8
0
10
213.082820
20
220.890848
30
0.0
11
212.089230
21
221.464498
31
0.0
0
LINE
8
0
10
212.089230
20
221.464498
30
0.0
11
211.502435
21
221.803284
31
0.0
0
ARC
8
0
10
210.902435
20
213.607714
30
0.0
40
1.200000
50
270.000000
51
300.000000
0
LINE
8
0
10
210.902435
20
212.407714
30
0.0
11
209.404266
21
212.407714
31
0.0
0
ARC
8
0
10
209.404266
20
212.107714
30
0.0
40
0.300000
50
90.000000
51
145.000000
0
LINE
8
0
10
209.158520
20
212.279787
30
0.0
11
207.516079
21
209.934137
31
0.0
0
ARC
8
0
10
206.696927
20
210.507714
30
0.0
40
1.000000
50
270.000000
51
325.000000
0
LINE
8
0
10
206.696927
20
209.507714
30
0.0
11
200.881533
21
209.507714
31
0.0
0
ARC
8
0
10
200.881533
20
210.507714
30
0.0
40
1.000000
50
215.000000
51
270.000000
0
LINE
8
0
10
200.062381
20
209.934137
30
0.0
11
198.419940
21
212.279787
31
0.0
0
ARC
8
0
10
198.174194
20
212.107714
30
0.0
40
0.300000
50
35.000000
51
90.000000
0
LINE
8
0
10
198.174194
20
212.407714
30
0.0
11
196.676025
21
212.407714
31
0.0
0
ARC
8
0
10
196.676025
20
213.607714
30
0.0
40
1.200000
50
240.000000
51
270.000000
0
LINE
8
0
10
196.076025
20
212.568483
30
0.0
11
194.495640
21
213.480919
31
0.0
0
ARC
8
0
10
194.395640
20
213.307714
30
0.0
40
0.200000
50
60.000000
51
90.000000
0
LINE
8
0
10
194.395640
20
213.507714
30
0.0
11
194.189230
21
213.507714
31
0.0
0
ARC
8
0
10
194.189230
20
213.107714
30
0.0
40
0.400000
50
90.000000
51
180.000000
0
LINE
8
0
10
193.789230
20
213.107714
30
0.0
11
193.789230
21
212.607714
31
0.0
0
ARC
8
0
10
193.889230
20
212.607714
30
0.0
40
0.100000
50
180.000000
51
270.000000
0
LINE
8
0
10
193.889230
20
212.507714
30
0.0
11
193.889230
21
212.132714
31
0.0
0
ARC
8
0
10
194.089230
20
212.132714
30
0.0
40
0.200000
50
180.000000
51
270.000000
0
LINE
8
0
10
194.089230
20
211.932714
30
0.0
11
194.201036
21
211.932714
31
0.0
0
LINE
8
0
10
194.201036
20
211.932714
30
0.0
11
194.285585
21
211.951464
31
0.0
0
ARC
8
0
10
194.539230
20
211.407714
30
0.0
40
0.600000
50
0.000000
51
115.007833
0
ARC
8
0
10
194.539230
20
211.407714
30
0.0
40
0.600000
50
244.992167
51
0.000000
0
LINE
8
0
10
194.285585
20
210.863964
30
0.0
11
194.201036
21
210.882714
31
0.0
0
LINE
8
0
10
194.201036
20
210.882714
30
0.0
11
194.089230
21
210.882714
31
0.0
0
ARC
8
0
10
194.089230
20
210.682714
30
0.0
40
0.200000
50
90.000000
51
180.000000
0
LINE
8
0
10
193.889230
20
210.682714
30
0.0
11
193.889230
21
210.307714
31
0.0
0
ARC
8
0
10
193.889230
20
210.207714
30
0.0
40
0.100000
50
90.000000
51
180.000000
0
LINE
8
0
10
193.789230
20
210.207714
30
0.0
11
193.789230
21
209.707714
31
0.0
0
ARC
8
0
10
194.189230
20
209.707714
30
0.0
40
0.400000
50
180.000000
51
270.000000
0
LINE
8
0
10
194.189230
20
209.307714
30
0.0
11
194.395640
21
209.307714
31
0.0
0
ARC
8
0
10
194.395640
20
209.507714
30
0.0
40
0.200000
50
270.000000
51
300.000000
0
LINE
8
0
10
194.495640
20
209.334509
30
0.0
11
195.489230
21
209.908158
31
0.0
0
LINE
8
0
10
195.489230
20
209.908158
30
0.0
11
196.076025
21
210.246944
31
0.0
0
ARC
8
0
10
196.676025
20
209.207714
30
0.0
40
1.200000
50
90.000000
51
120.000000
0
LINE
8
0
10
196.676025
20
210.407714
30
0.0
11
197.133060
21
210.407714
31
0.0
0
ARC
8
0
10
197.133060
20
210.107714
30
0.0
40
0.300000
50
35.000000
51
90.000000
0
LINE
8
0
10
197.378806
20
210.279787
30
0.0
11
199.170539
21
207.720925
31
0.0
0
ARC
8
0
10
199.580115
20
208.007714
30
0.0
40
0.500000
50
215.000000
51
270.000000
0
LINE
8
0
10
199.580115
20
207.507714
30
0.0
11
204.519286
21
207.507714
31
0.0
0
LINE
8
0
10
204.519286
20
207.507714
30
0.0
11
207.998345
21
207.507714
31
0.0
0
ARC
8
0
10
207.998345
20
208.007714
30
0.0
40
0.500000
50
270.000000
51
325.000000
0
LINE
8
0
10
208.407921
20
207.720925
30
0.0
11
210.199655
21
210.279787
31
0.0
0
ARC
8
0
10
210.445400
20
210.107714
30
0.0
40
0.300000
50
90.000000
51
145.000000
0
LINE
8
0
10
210.445400
20
210.407714
30
0.0
11
210.902435
21
210.407714
31
0.0
0
ARC
8
0
10
210.902435
20
209.207714
30
0.0
40
1.200000
50
60.000000
51
90.000000
0
LINE
8
0
10
211.502435
20
210.246944
30
0.0
11
212.089230
21
209.908158
31
0.0
0
LINE
8
0
10
212.089230
20
209.908158
30
0.0
11
213.082820
21
209.334509
31
0.0
0
ARC
8
0
10
213.182820
20
209.507714
30
0.0
40
0.200000
50
240.000000
51
270.000000
0
LINE
8
0
10
213.182820
20
209.307714
30
0.0
11
213.389230
21
209.307714
31
0.0
0
ARC
8
0
10
213.389230
20
209.707714
30
0.0
40
0.400000
50
270.000000
51
0.000000
0
LINE
8
0
10
213.789230
20
209.707714
30
0.0
11
213.789230
21
210.207714
31
0.0
0
ARC
8
0
10
213.689230
20
210.207714
30
0.0
40
0.100000
50
0.000000
51
90.000000
0
LINE
8
0
10
213.689230
20
210.307714
30
0.0
11
213.689230
21
210.682714
31
0.0
0
ARC
8
0
10
213.489230
20
210.682714
30
0.0
40
0.200000
50
0.000000
51
90.000000
0
LINE
8
0
10
213.489230
20
210.882714
30
0.0
11
213.377424
21
210.882714
31
0.0
0
LINE
8
0
10
213.377424
20
210.882714
30
0.0
11
213.292875
21
210.863964
31
0.0
0
ARC
8
0
10
213.039230
20
211.407714
30
0.0
40
0.600000
50
180.000000
51
295.007833
0
ARC
8
0
10
213.039230
20
211.407714
30
0.0
40
0.600000
50
64.992167
51
180.000000
0
LINE
8
0
10
213.292875
20
211.951464
30
0.0
11
213.377424
21
211.932714
31
0.0
0
LINE
8
0
10
213.377424
20
211.932714
30
0.0
11
213.489230
21
211.932714
31
0.0
0
ARC
8
0
10
213.489230
20
212.132714
30
0.0
40
0.200000
50
270.000000
51
0.000000
0
LINE
8
0
10
213.689230
20
212.132714
30
0.0
11
213.689230
21
212.507714
31
0.0
0
ARC
8
0
10
213.689230
20
212.607714
30
0.0
40
0.100000
50
270.000000
51
0.000000
0
LINE
8
0
10
213.789230
20
212.607714
30
0.0
11
213.789230
21
213.107714
31
0.0
0
ARC
8
0
10
213.389230
20
213.107714
30
0.0
40
0.400000
50
0.000000
51
90.000000
0
LINE
8
0
10
213.389230
20
213.507714
30
0.0
11
213.182820
21
213.507714
31
0.0
0
ARC
8
0
10
213.182820
20
213.307714
30
0.0
40
0.200000
50
90.000000
51
120.000000
0
LINE
8
0
10
213.082820
20
213.480919
30
0.0
11
212.089230
21
212.907269
31
0.0
0
LINE
8
0
10
212.089230
20
212.907269
30
0.0
11
211.502435
21
212.568483
31
0.0
0
ATTDEF
8
0
10
169.389230
20
202.685883
30
0.0
40
3.5
1

3

2
FRONT_VIEW
70
0
0
ATTDEF
8
0
10
169.389230
20
202.685883
30
0.0
40
3.5
1

3

2
OPTI:500.000000,1,0,3000.000000,6500.000000,500.000000,0,0.000000,0
70
0
0
ATTDEF
8
0
10
169.389230
20
202.685883
30
0.0
40
3.5
1

3

2
GLASS_MIN:0.000000
70
0
0
ATTDEF
8
0
10
169.389230
20
202.685883
30
0.0
40
3.5
1

3

2
GLASS_MAX:0.000000
70
0
0
ATTDEF
8
0
10
170.689230
20
231.685883
30
0.0
40
3.5
1

3

2
VC_START
70
0
0
ATTDEF
8
0
10
170.477098
20
202.773751
30
0.0
40
3.5
1

3

2
VC_END
70
0
0
ATTDEF
8
0
10
169.389230
20
202.685883
30
0.0
40
3.5
1

3

2
FP_LCS_ORIG
70
0
0
ATTDEF
8
0
10
179.389230
20
202.685883
30
0.0
40
3.5
1

3

2
FP_LCS_HOT
70
0
0
ATTDEF
8
0
10
169.389230
20
212.685883
30
0.0
40
3.5
1

3

2
FP_LCS_INTERN
70
0
0
ATTDEF
8
0
10
0.000000
20
0.000000
30
0.0
40
3.5
1

3

2
TDEV5:0
70
0
0
ATTDEF
8
0
10
0.000000
20
0.000000
30
0.0
40
3.5
1

3

2
PANE_WIDTH:0
70
0
0
ATTDEF
8
0
10
0.000000
20
0.000000
30
0.0
40
3.5
1

3

2
MIN_VETRO:0
70
0
0
ATTDEF
8
0
10
0.000000
20
0.000000
30
0.0
40
3.5
1

3

2
MAX_VETRO:0
70
0
0
ATTDEF
8
0
10
0.000000
20
0.000000
30
0.0
40
3.5
1

3

2
JX:0
70
0
0
ATTDEF
8
0
10
0.000000
20
0.000000
30
0.0
40
3.5
1

3

2
WX:0
70
0
0
ATTDEF
8
0
10
0.000000
20
0.000000
30
0.0
40
3.5
1

3

2
JY:0
70
0
0
ATTDEF
8
0
10
0.000000
20
0.000000
30
0.0
40
3.5
1

3

2
WY:0
70
0
0
ATTDEF
8
0
10
0.000000
20
0.000000
30
0.0
40
3.5
1

3

2
BL01:6500, ,1
70
0
0
ATTDEF
8
0
10
0.000000
20
0.000000
30
0.0
40
3.5
1

3

2
DESC:Union de marcos con refuerzo
70
0
0
ATTDEF
8
0
10
0.000000
20
0.000000
30
0.0
40
3.5
1

3

2
DENS:1.544
70
0
0
ATTDEF
8
0
10
0.000000
20
0.000000
30
0.0
40
3.5
1

3

2
TDEV:63.21
70
0
0
ATTDEF
8
0
10
0.000000
20
0.000000
30
0.0
40
3.5
1

3

2
TDEV2:0
70
0
0
ATTDEF
8
0
10
0.000000
20
0.000000
30
0.0
40
3.5
1

3

2
TDEV3:0
70
0
0
ATTDEF
8
0
10
0.000000
20
0.000000
30
0.0
40
3.5
1

3

2
TDEV4:0
70
0
0
ATTDEF
8
0
10
0.000000
20
0.000000
30
0.0
40
3.5
1

3

2
TDEV5:0
70
0
0
ATTDEF
8
0
10
0.000000
20
0.000000
30
0.0
40
3.5
1

3

2
PANE_WIDTH:0
70
0
0
ATTDEF
8
0
10
0.000000
20
0.000000
30
0.0
40
3.5
1

3

2
MIN_VETRO:0
70
0
0
ATTDEF
8
0
10
0.000000
20
0.000000
30
0.0
40
3.5
1

3

2
MAX_VETRO:0
70
0
0
ATTDEF
8
0
10
0.000000
20
0.000000
30
0.0
40
3.5
1

3

2
JX:0
70
0
0
ATTDEF
8
0
10
0.000000
20
0.000000
30
0.0
40
3.5
1

3

2
WX:0
70
0
0
ATTDEF
8
0
10
0.000000
20
0.000000
30
0.0
40
3.5
1

3

2
JY:0
70
0
0
ATTDEF
8
0
10
0.000000
20
0.000000
30
0.0
40
3.5
1

3

2
WY:0
70
0
0
ATTDEF
8
0
10
0.000000
20
0.000000
30
0.0
40
3.5
1

3

2
BL01:6500, ,1
70
0
0
ENDSEC
0
EOF
