0
SECTION
2
ENTITIES
0
ARC
8
0
10
236.243901
20
338.936201
30
0.0
40
1.924907
50
209.309553
51
232.185684
0
LINE
8
0
10
235.063731
20
337.415521
30
0.0
11
235.755796
21
336.929250
31
0.0
0
ARC
8
0
10
236.278125
20
337.781311
30
0.0
40
1.000000
50
238.490937
51
328.907609
0
LINE
8
0
10
237.134790
20
337.264692
30
0.0
11
237.503390
21
337.742986
31
0.0
0
LINE
8
0
10
237.503390
20
337.742986
30
0.0
11
237.559036
21
337.950660
31
0.0
0
LINE
8
0
10
237.559036
20
337.950660
30
0.0
11
238.612232
21
337.957576
31
0.0
0
ARC
8
0
10
238.619319
20
337.657616
30
0.0
40
0.300000
50
343.748585
51
90.000000
0
LINE
8
0
10
238.907332
20
337.573660
30
0.0
11
236.900325
21
334.785350
31
0.0
0
ARC
8
0
10
236.734596
20
334.897304
30
0.0
40
0.200000
50
144.950408
51
325.960191
0
LINE
8
0
10
236.570865
20
335.012161
30
0.0
11
234.990655
21
336.121578
31
0.0
0
ARC
8
0
10
234.725300
20
336.261529
30
0.0
40
0.300000
50
332.192367
51
75.000000
0
LINE
8
0
10
234.802945
20
336.551307
30
0.0
11
234.542191
21
336.621176
31
0.0
0
ARC
8
0
10
234.565405
20
336.322075
30
0.0
40
0.300000
50
94.438055
51
270.000000
0
LINE
8
0
10
234.565405
20
336.022075
30
0.0
11
234.565405
21
331.522075
31
0.0
0
ARC
8
0
10
234.765405
20
331.522075
30
0.0
40
0.200000
50
180.000000
51
300.000000
0
LINE
8
0
10
234.865405
20
331.348870
30
0.0
11
236.665502
21
332.388157
31
0.0
0
ARC
8
0
10
236.865405
20
332.394379
30
0.0
40
0.200000
50
0.000000
51
180.000000
0
LINE
8
0
10
237.065405
20
332.394379
30
0.0
11
237.065405
21
331.002460
31
0.0
0
ARC
8
0
10
236.865405
20
331.002460
30
0.0
40
0.200000
50
300.000000
51
0.000000
0
LINE
8
0
10
236.965405
20
330.829255
30
0.0
11
234.915405
21
329.645687
31
0.0
0
ARC
8
0
10
235.265405
20
329.039469
30
0.0
40
0.700000
50
119.999999
51
180.000000
0
LINE
8
0
10
234.565405
20
329.039469
30
0.0
11
234.565405
21
308.948342
31
0.0
0
ARC
8
0
10
235.265405
20
308.948342
30
0.0
40
0.700000
50
180.000000
51
240.000001
0
LINE
8
0
10
234.915405
20
308.342124
30
0.0
11
236.965405
21
307.158556
31
0.0
0
ARC
8
0
10
236.865405
20
306.985351
30
0.0
40
0.200000
50
0.000000
51
60.000000
0
LINE
8
0
10
237.065405
20
306.985351
30
0.0
11
237.065405
21
305.593432
31
0.0
0
ARC
8
0
10
236.865405
20
305.593432
30
0.0
40
0.200000
50
180.000000
51
0.000000
0
LINE
8
0
10
236.665502
20
305.599654
30
0.0
11
234.865405
21
306.638941
31
0.0
0
ARC
8
0
10
234.765405
20
306.465736
30
0.0
40
0.200000
50
60.000000
51
180.000000
0
LINE
8
0
10
234.565405
20
306.465736
30
0.0
11
234.565405
21
301.965736
31
0.0
0
ARC
8
0
10
234.565405
20
301.665736
30
0.0
40
0.300000
50
90.000000
51
265.561945
0
LINE
8
0
10
234.542191
20
301.366635
30
0.0
11
234.802945
21
301.436504
31
0.0
0
ARC
8
0
10
234.725300
20
301.726282
30
0.0
40
0.300000
50
285.000000
51
27.807633
0
LINE
8
0
10
234.990655
20
301.866233
30
0.0
11
236.570865
21
302.975650
31
0.0
0
ARC
8
0
10
236.734596
20
303.090507
30
0.0
40
0.200000
50
34.039809
51
215.049592
0
LINE
8
0
10
236.900325
20
303.202461
30
0.0
11
238.907332
21
300.414151
31
0.0
0
ARC
8
0
10
238.619319
20
300.330195
30
0.0
40
0.300000
50
270.000000
51
16.251415
0
LINE
8
0
10
238.612232
20
300.030235
30
0.0
11
237.559036
21
300.037151
31
0.0
0
LINE
8
0
10
237.559036
20
300.037151
30
0.0
11
237.503390
21
300.244825
31
0.0
0
LINE
8
0
10
237.503390
20
300.244825
30
0.0
11
237.134790
21
300.723119
31
0.0
0
ARC
8
0
10
236.278125
20
300.206500
30
0.0
40
1.000000
50
31.092391
51
121.509063
0
LINE
8
0
10
235.755796
20
301.058561
30
0.0
11
235.063731
21
300.572290
31
0.0
0
ARC
8
0
10
235.979150
20
299.279715
30
0.0
40
1.583901
50
125.306607
51
153.198156
0
LINE
8
0
10
234.565405
20
299.993905
30
0.0
11
234.565405
21
299.493905
31
0.0
0
ARC
8
0
10
234.065405
20
299.493905
30
0.0
40
0.500000
50
270.000000
51
0.000000
0
LINE
8
0
10
234.065405
20
298.993905
30
0.0
11
221.765405
21
298.993905
31
0.0
0
LINE
8
0
10
221.765405
20
298.993905
30
0.0
11
221.765405
21
294.493905
31
0.0
0
ARC
8
0
10
221.265405
20
294.493905
30
0.0
40
0.500000
50
270.000000
51
0.000000
0
LINE
8
0
10
221.265405
20
293.993905
30
0.0
11
219.472512
21
293.993905
31
0.0
0
ARC
8
0
10
219.472512
20
294.493905
30
0.0
40
0.500000
50
225.000000
51
270.000000
0
LINE
8
0
10
219.118959
20
294.140352
30
0.0
11
218.411852
21
294.847459
31
0.0
0
ARC
8
0
10
218.765405
20
295.201012
30
0.0
40
0.500000
50
180.000000
51
225.000000
0
LINE
8
0
10
218.265405
20
295.201012
30
0.0
11
218.265405
21
295.993905
31
0.0
0
LINE
8
0
10
218.265405
20
295.993905
30
0.0
11
220.265405
21
295.993905
31
0.0
0
LINE
8
0
10
220.265405
20
295.993905
30
0.0
11
220.265405
21
298.993905
31
0.0
0
LINE
8
0
10
220.265405
20
298.993905
30
0.0
11
203.765405
21
298.993905
31
0.0
0
LINE
8
0
10
203.765405
20
298.993905
30
0.0
11
203.765405
21
296.115226
31
0.0
0
LINE
8
0
10
203.765405
20
296.115226
30
0.0
11
203.886726
21
295.993905
31
0.0
0
LINE
8
0
10
203.886726
20
295.993905
30
0.0
11
206.265405
21
295.993905
31
0.0
0
LINE
8
0
10
206.265405
20
295.993905
30
0.0
11
206.265405
21
295.201012
31
0.0
0
ARC
8
0
10
205.765405
20
295.201012
30
0.0
40
0.500000
50
315.000000
51
0.000000
0
LINE
8
0
10
206.118959
20
294.847459
30
0.0
11
205.411852
21
294.140352
31
0.0
0
ARC
8
0
10
205.058298
20
294.493905
30
0.0
40
0.500000
50
270.000000
51
315.000000
0
LINE
8
0
10
205.058298
20
293.993905
30
0.0
11
203.889669
21
293.993905
31
0.0
0
ARC
8
0
10
203.889669
20
294.293905
30
0.0
40
0.300000
50
225.000000
51
270.000000
0
LINE
8
0
10
203.677537
20
294.081773
30
0.0
11
202.353273
21
295.406038
31
0.0
0
ARC
8
0
10
202.565405
20
295.618170
30
0.0
40
0.300000
50
180.000000
51
225.000000
0
LINE
8
0
10
202.265405
20
295.618170
30
0.0
11
202.265405
21
342.369641
31
0.0
0
ARC
8
0
10
202.565405
20
342.369641
30
0.0
40
0.300000
50
135.000000
51
180.000000
0
LINE
8
0
10
202.353273
20
342.581773
30
0.0
11
203.677537
21
343.906038
31
0.0
0
ARC
8
0
10
203.889669
20
343.693905
30
0.0
40
0.300000
50
90.000000
51
135.000000
0
LINE
8
0
10
203.889669
20
343.993905
30
0.0
11
205.058298
21
343.993905
31
0.0
0
ARC
8
0
10
205.058298
20
343.493905
30
0.0
40
0.500000
50
45.000000
51
90.000000
0
LINE
8
0
10
205.411852
20
343.847459
30
0.0
11
206.118959
21
343.140352
31
0.0
0
ARC
8
0
10
205.765405
20
342.786799
30
0.0
40
0.500000
50
0.000000
51
45.000000
0
LINE
8
0
10
206.265405
20
342.786799
30
0.0
11
206.265405
21
341.993905
31
0.0
0
LINE
8
0
10
206.265405
20
341.993905
30
0.0
11
203.886726
21
341.993905
31
0.0
0
LINE
8
0
10
203.886726
20
341.993905
30
0.0
11
203.765405
21
341.872585
31
0.0
0
LINE
8
0
10
203.765405
20
341.872585
30
0.0
11
203.765405
21
338.993905
31
0.0
0
LINE
8
0
10
203.765405
20
338.993905
30
0.0
11
220.265405
21
338.993905
31
0.0
0
LINE
8
0
10
220.265405
20
338.993905
30
0.0
11
220.265405
21
341.993905
31
0.0
0
LINE
8
0
10
220.265405
20
341.993905
30
0.0
11
218.265405
21
341.993905
31
0.0
0
LINE
8
0
10
218.265405
20
341.993905
30
0.0
11
218.265405
21
342.786799
31
0.0
0
ARC
8
0
10
218.765405
20
342.786799
30
0.0
40
0.500000
50
135.000000
51
180.000000
0
LINE
8
0
10
218.411852
20
343.140352
30
0.0
11
219.118959
21
343.847459
31
0.0
0
ARC
8
0
10
219.472512
20
343.493905
30
0.0
40
0.500000
50
90.000000
51
135.000000
0
LINE
8
0
10
219.472512
20
343.993905
30
0.0
11
221.265405
21
343.993905
31
0.0
0
ARC
8
0
10
221.265405
20
343.493905
30
0.0
40
0.500000
50
0.000000
51
90.000000
0
LINE
8
0
10
221.765405
20
343.493905
30
0.0
11
221.765405
21
338.993905
31
0.0
0
LINE
8
0
10
221.765405
20
338.993905
30
0.0
11
234.065405
21
338.993905
31
0.0
0
ARC
8
0
10
234.065405
20
338.493905
30
0.0
40
0.500000
50
0.000000
51
90.000000
0
LINE
8
0
10
234.565405
20
338.493905
30
0.0
11
234.565405
21
337.993905
31
0.0
0
LINE
8
0
10
203.865405
20
300.593905
30
0.0
11
203.865405
21
337.393905
31
0.0
0
LINE
8
0
10
203.865405
20
337.393905
30
0.0
11
232.965405
21
337.393905
31
0.0
0
LINE
8
0
10
232.965405
20
337.393905
30
0.0
11
232.965405
21
300.593905
31
0.0
0
LINE
8
0
10
232.965405
20
300.593905
30
0.0
11
203.865405
21
300.593905
31
0.0
0
LINE
8
0
10
265.265069
20
349.002408
30
0.0
11
265.265405
21
349.024854
31
0.0
0
LINE
8
0
10
265.265405
20
349.024854
30
0.0
11
265.265405
21
361.448606
31
0.0
0
ARC
8
0
10
264.965405
20
361.448606
30
0.0
40
0.300000
50
0.000000
51
120.000000
0
LINE
8
0
10
264.815405
20
361.708414
30
0.0
11
261.915405
21
360.034098
31
0.0
0
ARC
8
0
10
261.765405
20
360.293905
30
0.0
40
0.300000
50
270.000000
51
300.000000
0
LINE
8
0
10
261.765405
20
359.993905
30
0.0
11
260.065405
21
359.993905
31
0.0
0
ARC
8
0
10
260.065405
20
360.493905
30
0.0
40
0.500000
50
180.000000
51
270.000000
0
LINE
8
0
10
259.565405
20
360.493905
30
0.0
11
259.565405
21
362.043905
31
0.0
0
ARC
8
0
10
260.065405
20
362.043905
30
0.0
40
0.500000
50
90.000000
51
180.000000
0
LINE
8
0
10
260.065405
20
362.543905
30
0.0
11
260.765405
21
362.543905
31
0.0
0
LINE
8
0
10
260.765405
20
362.543905
30
0.0
11
260.765405
21
361.293905
31
0.0
0
LINE
8
0
10
260.765405
20
361.293905
30
0.0
11
261.097456
21
361.293905
31
0.0
0
LINE
8
0
10
261.097456
20
361.293905
30
0.0
11
265.115405
21
363.613670
31
0.0
0
ARC
8
0
10
264.965405
20
363.873477
30
0.0
40
0.300000
50
300.000000
51
0.000000
0
LINE
8
0
10
265.265405
20
363.873477
30
0.0
11
265.265405
21
365.029804
31
0.0
0
ARC
8
0
10
264.965405
20
365.029804
30
0.0
40
0.300000
50
0.000000
51
60.000000
0
LINE
8
0
10
265.115405
20
365.289611
30
0.0
11
261.297456
21
367.493905
31
0.0
0
LINE
8
0
10
261.297456
20
367.493905
30
0.0
11
260.765405
21
367.493905
31
0.0
0
LINE
8
0
10
260.765405
20
367.493905
30
0.0
11
260.765405
21
366.043905
31
0.0
0
LINE
8
0
10
260.765405
20
366.043905
30
0.0
11
260.065405
21
366.043905
31
0.0
0
ARC
8
0
10
260.065405
20
366.543905
30
0.0
40
0.500000
50
180.000000
51
270.000000
0
LINE
8
0
10
259.565405
20
366.543905
30
0.0
11
259.565405
21
368.493905
31
0.0
0
ARC
8
0
10
260.065405
20
368.493905
30
0.0
40
0.500000
50
90.000000
51
180.000000
0
LINE
8
0
10
260.065405
20
368.993905
30
0.0
11
261.565405
21
368.993905
31
0.0
0
ARC
8
0
10
261.565405
20
368.493905
30
0.0
40
0.500000
50
60.000000
51
90.000000
0
LINE
8
0
10
261.815405
20
368.926918
30
0.0
11
266.615405
21
366.155637
31
0.0
0
ARC
8
0
10
266.465405
20
365.895829
30
0.0
40
0.300000
50
0.000000
51
60.000000
0
LINE
8
0
10
266.765405
20
365.895829
30
0.0
11
266.765405
21
272.091982
31
0.0
0
ARC
8
0
10
266.465405
20
272.091982
30
0.0
40
0.300000
50
300.000000
51
0.000000
0
LINE
8
0
10
266.615405
20
271.832174
30
0.0
11
261.815405
21
269.060893
31
0.0
0
ARC
8
0
10
261.565405
20
269.493905
30
0.0
40
0.500000
50
270.000000
51
300.000000
0
LINE
8
0
10
261.565405
20
268.993905
30
0.0
11
260.065405
21
268.993905
31
0.0
0
ARC
8
0
10
260.065405
20
269.493905
30
0.0
40
0.500000
50
180.000000
51
270.000000
0
LINE
8
0
10
259.565405
20
269.493905
30
0.0
11
259.565405
21
271.443905
31
0.0
0
ARC
8
0
10
260.065405
20
271.443905
30
0.0
40
0.500000
50
90.000000
51
180.000000
0
LINE
8
0
10
260.065405
20
271.943905
30
0.0
11
260.765405
21
271.943905
31
0.0
0
LINE
8
0
10
260.765405
20
271.943905
30
0.0
11
260.765405
21
270.493905
31
0.0
0
LINE
8
0
10
260.765405
20
270.493905
30
0.0
11
261.297456
21
270.493905
31
0.0
0
LINE
8
0
10
261.297456
20
270.493905
30
0.0
11
265.115405
21
272.698199
31
0.0
0
ARC
8
0
10
264.965405
20
272.958007
30
0.0
40
0.300000
50
300.000000
51
0.000000
0
LINE
8
0
10
265.265405
20
272.958007
30
0.0
11
265.265405
21
274.114334
31
0.0
0
ARC
8
0
10
264.965405
20
274.114334
30
0.0
40
0.300000
50
0.000000
51
60.000000
0
LINE
8
0
10
265.115405
20
274.374141
30
0.0
11
261.097456
21
276.693905
31
0.0
0
LINE
8
0
10
261.097456
20
276.693905
30
0.0
11
260.765405
21
276.693905
31
0.0
0
LINE
8
0
10
260.765405
20
276.693905
30
0.0
11
260.765405
21
275.443905
31
0.0
0
LINE
8
0
10
260.765405
20
275.443905
30
0.0
11
260.065405
21
275.443905
31
0.0
0
ARC
8
0
10
260.065405
20
275.943905
30
0.0
40
0.500000
50
180.000000
51
270.000000
0
LINE
8
0
10
259.565405
20
275.943905
30
0.0
11
259.565405
21
277.493905
31
0.0
0
ARC
8
0
10
260.065405
20
277.493905
30
0.0
40
0.500000
50
90.000000
51
180.000000
0
LINE
8
0
10
260.065405
20
277.993905
30
0.0
11
261.765405
21
277.993905
31
0.0
0
ARC
8
0
10
261.765405
20
277.693905
30
0.0
40
0.300000
50
60.000000
51
90.000000
0
LINE
8
0
10
261.915405
20
277.953713
30
0.0
11
264.815405
21
276.279397
31
0.0
0
ARC
8
0
10
264.965405
20
276.539205
30
0.0
40
0.300000
50
240.000000
51
0.000000
0
LINE
8
0
10
265.265405
20
276.539205
30
0.0
11
265.265405
21
288.962957
31
0.0
0
LINE
8
0
10
265.265405
20
288.962957
30
0.0
11
265.265069
21
288.985403
31
0.0
0
LINE
8
0
10
265.265069
20
288.985403
30
0.0
11
264.949987
21
299.508869
31
0.0
0
ARC
8
0
10
264.450211
20
299.493905
30
0.0
40
0.500000
50
1.714978
51
90.000000
0
LINE
8
0
10
264.450211
20
299.993905
30
0.0
11
261.265405
21
299.993905
31
0.0
0
LINE
8
0
10
261.265405
20
299.993905
30
0.0
11
261.265405
21
299.493905
31
0.0
0
ARC
8
0
10
260.765405
20
299.493905
30
0.0
40
0.500000
50
270.000000
51
0.000000
0
LINE
8
0
10
260.765405
20
298.993905
30
0.0
11
260.065405
21
298.993905
31
0.0
0
ARC
8
0
10
260.065405
20
299.493905
30
0.0
40
0.500000
50
180.000000
51
270.000000
0
LINE
8
0
10
259.565405
20
299.493905
30
0.0
11
259.565405
21
299.993905
31
0.0
0
ARC
8
0
10
258.421527
20
299.512227
30
0.0
40
1.241157
50
22.835597
51
58.659640
0
LINE
8
0
10
259.067079
20
300.572290
30
0.0
11
258.375014
21
301.058561
31
0.0
0
ARC
8
0
10
257.852685
20
300.206500
30
0.0
40
1.000000
50
58.490937
51
148.907609
0
LINE
8
0
10
256.996020
20
300.723119
30
0.0
11
256.627420
21
300.244825
31
0.0
0
LINE
8
0
10
256.627420
20
300.244825
30
0.0
11
256.571774
21
300.037151
31
0.0
0
LINE
8
0
10
256.571774
20
300.037151
30
0.0
11
255.518579
21
300.030235
31
0.0
0
ARC
8
0
10
255.511491
20
300.330195
30
0.0
40
0.300000
50
163.748585
51
270.000000
0
LINE
8
0
10
255.223478
20
300.414151
30
0.0
11
257.230485
21
303.202461
31
0.0
0
ARC
8
0
10
257.396215
20
303.090507
30
0.0
40
0.200000
50
324.950408
51
145.960191
0
LINE
8
0
10
257.559946
20
302.975650
30
0.0
11
259.140155
21
301.866233
31
0.0
0
ARC
8
0
10
259.405511
20
301.726282
30
0.0
40
0.300000
50
152.192367
51
255.000000
0
LINE
8
0
10
259.327865
20
301.436504
30
0.0
11
259.588620
21
301.366635
31
0.0
0
ARC
8
0
10
259.565405
20
301.665736
30
0.0
40
0.300000
50
274.438055
51
90.000000
0
LINE
8
0
10
259.565405
20
301.965736
30
0.0
11
259.565405
21
306.465736
31
0.0
0
ARC
8
0
10
259.365405
20
306.465736
30
0.0
40
0.200000
50
0.000000
51
120.000000
0
LINE
8
0
10
259.265405
20
306.638941
30
0.0
11
257.465308
21
305.599654
31
0.0
0
ARC
8
0
10
257.265405
20
305.593432
30
0.0
40
0.200000
50
180.000000
51
0.000000
0
LINE
8
0
10
257.065405
20
305.593432
30
0.0
11
257.065405
21
332.394379
31
0.0
0
ARC
8
0
10
257.265405
20
332.394379
30
0.0
40
0.200000
50
0.000000
51
180.000000
0
LINE
8
0
10
257.465308
20
332.388157
30
0.0
11
259.265405
21
331.348870
31
0.0
0
ARC
8
0
10
259.365405
20
331.522075
30
0.0
40
0.200000
50
240.000000
51
0.000000
0
LINE
8
0
10
259.565405
20
331.522075
30
0.0
11
259.565405
21
336.022075
31
0.0
0
ARC
8
0
10
259.565405
20
336.322075
30
0.0
40
0.300000
50
270.000000
51
85.561945
0
LINE
8
0
10
259.588620
20
336.621176
30
0.0
11
259.327865
21
336.551307
31
0.0
0
ARC
8
0
10
259.405511
20
336.261529
30
0.0
40
0.300000
50
105.000000
51
207.807633
0
LINE
8
0
10
259.140155
20
336.121578
30
0.0
11
257.559946
21
335.012161
31
0.0
0
ARC
8
0
10
257.396215
20
334.897304
30
0.0
40
0.200000
50
214.039809
51
35.049592
0
LINE
8
0
10
257.230485
20
334.785350
30
0.0
11
255.223478
21
337.573660
31
0.0
0
ARC
8
0
10
255.511491
20
337.657616
30
0.0
40
0.300000
50
90.000000
51
196.251415
0
LINE
8
0
10
255.518579
20
337.957576
30
0.0
11
256.571774
21
337.950660
31
0.0
0
LINE
8
0
10
256.571774
20
337.950660
30
0.0
11
256.627420
21
337.742986
31
0.0
0
LINE
8
0
10
256.627420
20
337.742986
30
0.0
11
256.996020
21
337.264692
31
0.0
0
ARC
8
0
10
257.852685
20
337.781311
30
0.0
40
1.000000
50
211.092391
51
301.509063
0
LINE
8
0
10
258.375014
20
336.929250
30
0.0
11
259.067079
21
337.415521
31
0.0
0
ARC
8
0
10
258.222529
20
338.647037
30
0.0
40
1.493284
50
304.441565
51
334.063198
0
LINE
8
0
10
259.565405
20
337.993905
30
0.0
11
259.565405
21
338.493905
31
0.0
0
ARC
8
0
10
260.065405
20
338.493905
30
0.0
40
0.500000
50
90.000000
51
180.000000
0
LINE
8
0
10
260.065405
20
338.993905
30
0.0
11
260.765405
21
338.993905
31
0.0
0
ARC
8
0
10
260.765405
20
338.493905
30
0.0
40
0.500000
50
0.000000
51
90.000000
0
LINE
8
0
10
261.265405
20
338.493905
30
0.0
11
261.265405
21
337.993905
31
0.0
0
LINE
8
0
10
261.265405
20
337.993905
30
0.0
11
264.450211
21
337.993905
31
0.0
0
ARC
8
0
10
264.450211
20
338.493905
30
0.0
40
0.500000
50
270.000000
51
358.285022
0
LINE
8
0
10
264.949987
20
338.478942
30
0.0
11
265.265069
21
349.002408
31
0.0
0
LINE
8
0
10
260.665405
20
308.265736
30
0.0
11
259.165405
21
308.265736
31
0.0
0
ARC
8
0
10
259.165405
20
308.765736
30
0.0
40
0.500000
50
180.000000
51
270.000000
0
LINE
8
0
10
258.665405
20
308.765736
30
0.0
11
258.665405
21
329.222075
31
0.0
0
ARC
8
0
10
259.165405
20
329.222075
30
0.0
40
0.500000
50
90.000000
51
180.000000
0
LINE
8
0
10
259.165405
20
329.722075
30
0.0
11
260.665405
21
329.722075
31
0.0
0
ARC
8
0
10
260.665405
20
330.222075
30
0.0
40
0.500000
50
270.000000
51
0.000000
0
LINE
8
0
10
261.165405
20
330.222075
30
0.0
11
261.165405
21
335.893905
31
0.0
0
ARC
8
0
10
261.665405
20
335.893905
30
0.0
40
0.500000
50
90.000000
51
180.000000
0
LINE
8
0
10
261.665405
20
336.393905
30
0.0
11
264.665405
21
336.393905
31
0.0
0
ARC
8
0
10
264.665405
20
335.893905
30
0.0
40
0.500000
50
0.000000
51
90.000000
0
LINE
8
0
10
265.165405
20
335.893905
30
0.0
11
265.165405
21
302.093905
31
0.0
0
ARC
8
0
10
264.665405
20
302.093905
30
0.0
40
0.500000
50
270.000000
51
0.000000
0
LINE
8
0
10
264.665405
20
301.593905
30
0.0
11
261.665405
21
301.593905
31
0.0
0
ARC
8
0
10
261.665405
20
302.093905
30
0.0
40
0.500000
50
180.000000
51
270.000000
0
LINE
8
0
10
261.165405
20
302.093905
30
0.0
11
261.165405
21
307.765736
31
0.0
0
ARC
8
0
10
260.665405
20
307.765736
30
0.0
40
0.500000
50
0.000000
51
90.000000
0
LINE
8
0
10
234.607507
20
305.461922
30
0.0
11
235.391422
21
306.245837
31
0.0
0
LINE
8
0
10
234.573485
20
303.182836
30
0.0
11
234.626025
21
303.235376
31
0.0
0
LINE
8
0
10
235.893771
20
304.503122
30
0.0
11
236.855742
21
305.465092
31
0.0
0
LINE
8
0
10
234.665405
20
303.274756
30
0.0
11
235.155740
21
303.765090
31
0.0
0
LINE
8
0
10
236.858492
20
303.222778
30
0.0
11
238.688252
21
305.052539
31
0.0
0
LINE
8
0
10
248.515405
20
314.879692
30
0.0
11
249.615405
21
315.979692
31
0.0
0
LINE
8
0
10
238.138011
20
302.257233
30
0.0
11
239.583818
21
303.703041
31
0.0
0
LINE
8
0
10
248.515405
20
312.634628
30
0.0
11
249.615405
21
313.734628
31
0.0
0
LINE
8
0
10
239.021941
20
300.896099
30
0.0
11
240.479130
21
302.353288
31
0.0
0
LINE
8
0
10
248.515405
20
310.389564
30
0.0
11
249.615405
21
311.489564
31
0.0
0
LINE
8
0
10
240.614362
20
300.243456
30
0.0
11
242.214362
21
301.843456
31
0.0
0
LINE
8
0
10
248.515405
20
308.144500
30
0.0
11
249.615405
21
309.244500
31
0.0
0
LINE
8
0
10
242.859426
20
300.243456
30
0.0
11
244.459426
21
301.843456
31
0.0
0
LINE
8
0
10
248.515405
20
305.899436
30
0.0
11
249.615405
21
306.999436
31
0.0
0
LINE
8
0
10
245.104490
20
300.243456
30
0.0
11
246.704490
21
301.843456
31
0.0
0
LINE
8
0
10
248.515405
20
303.654372
30
0.0
11
249.615405
21
304.754372
31
0.0
0
LINE
8
0
10
247.349554
20
300.243456
30
0.0
11
249.615405
21
302.509308
31
0.0
0
LINE
8
0
10
249.594618
20
300.243456
30
0.0
11
251.194618
21
301.843456
31
0.0
0
LINE
8
0
10
251.839682
20
300.243456
30
0.0
11
257.039682
21
305.443456
31
0.0
0
LINE
8
0
10
254.084746
20
300.243456
30
0.0
11
255.796968
21
301.955678
31
0.0
0
LINE
8
0
10
258.783919
20
304.942630
30
0.0
11
259.565405
21
305.724115
31
0.0
0
LINE
8
0
10
257.084271
20
303.242981
30
0.0
11
258.216232
21
304.374942
31
0.0
0
LINE
8
0
10
258.606123
20
302.519769
30
0.0
11
259.465405
21
303.379051
31
0.0
0
LINE
8
0
10
235.643002
20
302.589470
30
0.0
11
234.668828
21
303.563644
31
0.0
0
LINE
8
0
10
240.234080
20
300.243456
30
0.0
11
237.985579
21
302.491957
31
0.0
0
LINE
8
0
10
235.613194
20
304.864342
30
0.0
11
234.565405
21
305.912131
31
0.0
0
LINE
8
0
10
237.234080
20
303.243456
30
0.0
11
235.836291
21
304.641245
31
0.0
0
LINE
8
0
10
242.479144
20
300.243456
30
0.0
11
237.279144
21
305.443456
31
0.0
0
LINE
8
0
10
244.724208
20
300.243456
30
0.0
11
243.124208
21
301.843456
31
0.0
0
LINE
8
0
10
246.969272
20
300.243456
30
0.0
11
245.369272
21
301.843456
31
0.0
0
LINE
8
0
10
249.214336
20
300.243456
30
0.0
11
247.614336
21
301.843456
31
0.0
0
LINE
8
0
10
251.459400
20
300.243456
30
0.0
11
248.515405
21
303.187451
31
0.0
0
LINE
8
0
10
253.704464
20
300.243456
30
0.0
11
252.104464
21
301.843456
31
0.0
0
LINE
8
0
10
249.615405
20
304.332515
30
0.0
11
248.515405
21
305.432515
31
0.0
0
LINE
8
0
10
255.182895
20
301.010089
30
0.0
11
253.735398
21
302.457586
31
0.0
0
LINE
8
0
10
249.615405
20
306.577579
30
0.0
11
248.515405
21
307.677579
31
0.0
0
LINE
8
0
10
256.066826
20
302.371223
30
0.0
11
254.621018
21
303.817031
31
0.0
0
LINE
8
0
10
249.615405
20
308.822643
30
0.0
11
248.515405
21
309.922643
31
0.0
0
LINE
8
0
10
257.547337
20
303.135776
30
0.0
11
255.537502
21
305.145611
31
0.0
0
LINE
8
0
10
249.615405
20
311.067707
30
0.0
11
248.515405
21
312.167707
31
0.0
0
LINE
8
0
10
259.465405
20
303.462771
30
0.0
11
259.114134
21
303.814042
31
0.0
0
LINE
8
0
10
249.615405
20
313.312771
30
0.0
11
248.515405
21
314.412771
31
0.0
0
LINE
8
0
10
258.291778
20
304.636398
30
0.0
11
257.424275
21
305.503901
31
0.0
0
LINE
8
0
10
259.565405
20
305.607835
30
0.0
11
258.858657
21
306.314583
31
0.0
0
LINE
8
0
10
249.615405
20
315.557835
30
0.0
11
248.515405
21
316.657835
31
0.0
0
LINE
8
0
10
234.665405
20
334.705652
30
0.0
11
235.463715
21
335.503962
31
0.0
0
LINE
8
0
10
234.565405
20
332.360588
30
0.0
11
235.252481
21
333.047663
31
0.0
0
LINE
8
0
10
238.513318
20
336.308501
30
0.0
11
239.949172
21
337.744355
31
0.0
0
LINE
8
0
10
235.912096
20
333.707279
30
0.0
11
236.955662
21
334.750845
31
0.0
0
LINE
8
0
10
236.990714
20
332.540833
30
0.0
11
242.194236
21
337.744355
31
0.0
0
LINE
8
0
10
242.839300
20
336.144355
30
0.0
11
244.439300
21
337.744355
31
0.0
0
LINE
8
0
10
244.515405
20
335.575396
30
0.0
11
246.684364
21
337.744355
31
0.0
0
LINE
8
0
10
244.515405
20
333.330332
30
0.0
11
245.615405
21
334.430332
31
0.0
0
LINE
8
0
10
247.329428
20
336.144355
30
0.0
11
248.929428
21
337.744355
31
0.0
0
LINE
8
0
10
244.515405
20
331.085268
30
0.0
11
245.615405
21
332.185268
31
0.0
0
LINE
8
0
10
249.574492
20
336.144355
30
0.0
11
251.174492
21
337.744355
31
0.0
0
LINE
8
0
10
244.515405
20
328.840204
30
0.0
11
245.615405
21
329.940204
31
0.0
0
LINE
8
0
10
251.819556
20
336.144355
30
0.0
11
253.419556
21
337.744355
31
0.0
0
LINE
8
0
10
244.515405
20
326.595140
30
0.0
11
245.615405
21
327.695140
31
0.0
0
LINE
8
0
10
253.605249
20
335.684984
30
0.0
11
255.070721
21
337.150455
31
0.0
0
LINE
8
0
10
244.515405
20
324.350076
30
0.0
11
245.615405
21
325.450076
31
0.0
0
LINE
8
0
10
254.508843
20
334.343514
30
0.0
11
255.954651
21
335.789322
31
0.0
0
LINE
8
0
10
244.515405
20
322.105012
30
0.0
11
245.615405
21
323.205012
31
0.0
0
LINE
8
0
10
255.397708
20
332.987315
30
0.0
11
257.159729
21
334.749336
31
0.0
0
LINE
8
0
10
245.222820
20
320.567363
30
0.0
11
245.592397
21
320.936940
31
0.0
0
LINE
8
0
10
258.894567
20
334.239110
30
0.0
11
259.565405
21
334.909948
31
0.0
0
LINE
8
0
10
257.191257
20
332.535800
30
0.0
11
258.220650
21
333.565193
31
0.0
0
LINE
8
0
10
258.678373
20
331.777851
30
0.0
11
259.465405
21
332.564884
31
0.0
0
LINE
8
0
10
245.615405
20
321.802899
30
0.0
11
244.515405
21
322.902899
31
0.0
0
LINE
8
0
10
235.570835
20
331.847470
30
0.0
11
234.665405
21
332.752899
31
0.0
0
LINE
8
0
10
245.615405
20
324.047963
30
0.0
11
244.515405
21
325.147963
31
0.0
0
LINE
8
0
10
235.430073
20
334.233296
30
0.0
11
234.565405
21
335.097963
31
0.0
0
LINE
8
0
10
237.119014
20
332.544355
30
0.0
11
235.904346
21
333.759022
31
0.0
0
LINE
8
0
10
245.615405
20
326.293027
30
0.0
11
244.515405
21
327.393027
31
0.0
0
LINE
8
0
10
238.812062
20
333.096370
30
0.0
11
237.164078
21
334.744355
31
0.0
0
LINE
8
0
10
245.615405
20
328.538091
30
0.0
11
244.515405
21
329.638091
31
0.0
0
LINE
8
0
10
239.695993
20
334.457503
30
0.0
11
238.250185
21
335.903311
31
0.0
0
LINE
8
0
10
245.615405
20
330.783155
30
0.0
11
244.515405
21
331.883155
31
0.0
0
LINE
8
0
10
240.621979
20
335.776582
30
0.0
11
239.134115
21
337.264445
31
0.0
0
LINE
8
0
10
245.615405
20
333.028219
30
0.0
11
244.515405
21
334.128219
31
0.0
0
LINE
8
0
10
242.499270
20
336.144355
30
0.0
11
240.899270
21
337.744355
31
0.0
0
LINE
8
0
10
245.615405
20
335.273283
30
0.0
11
243.144334
21
337.744355
31
0.0
0
LINE
8
0
10
246.989398
20
336.144355
30
0.0
11
245.389398
21
337.744355
31
0.0
0
LINE
8
0
10
249.234462
20
336.144355
30
0.0
11
247.634462
21
337.744355
31
0.0
0
LINE
8
0
10
251.479526
20
336.144355
30
0.0
11
249.879526
21
337.744355
31
0.0
0
LINE
8
0
10
257.367974
20
332.500971
30
0.0
11
252.124590
21
337.744355
31
0.0
0
LINE
8
0
10
259.465405
20
332.648603
30
0.0
11
259.029975
21
333.084034
31
0.0
0
LINE
8
0
10
255.269228
20
336.844780
30
0.0
11
254.369654
21
337.744355
31
0.0
0
LINE
8
0
10
258.255084
20
333.858925
30
0.0
11
257.335356
21
334.778653
31
0.0
0
LINE
8
0
10
259.556334
20
334.802738
30
0.0
11
258.785410
21
335.573663
31
0.0
0
LINE
8
0
10
235.143607
20
335.644355
30
0.0
11
234.965405
21
335.644355
31
0.0
0
ARC
8
0
10
234.965405
20
335.244355
30
0.0
40
0.400000
50
90.000000
51
180.000000
0
LINE
8
0
10
234.565405
20
335.244355
30
0.0
11
234.565405
21
334.844355
31
0.0
0
ARC
8
0
10
234.665405
20
334.844355
30
0.0
40
0.100000
50
180.000000
51
270.000000
0
LINE
8
0
10
234.665405
20
334.744355
30
0.0
11
234.665405
21
334.469355
31
0.0
0
ARC
8
0
10
234.965405
20
334.469355
30
0.0
40
0.300000
50
180.000000
51
285.506434
0
ARC
8
0
10
235.315405
20
333.644355
30
0.0
40
0.600000
50
243.278126
51
116.721874
0
ARC
8
0
10
234.965405
20
332.819355
30
0.0
40
0.300000
50
74.493566
51
180.000000
0
LINE
8
0
10
234.665405
20
332.819355
30
0.0
11
234.665405
21
332.544355
31
0.0
0
ARC
8
0
10
234.665405
20
332.444355
30
0.0
40
0.100000
50
90.000000
51
180.000000
0
LINE
8
0
10
234.565405
20
332.444355
30
0.0
11
234.565405
21
332.044355
31
0.0
0
ARC
8
0
10
234.965405
20
332.044355
30
0.0
40
0.400000
50
180.000000
51
270.000000
0
LINE
8
0
10
234.965405
20
331.644355
30
0.0
11
235.143740
21
331.644355
31
0.0
0
ARC
8
0
10
235.143740
20
331.944355
30
0.0
40
0.300000
50
270.000000
51
300.455827
0
LINE
8
0
10
235.295802
20
331.685749
30
0.0
11
236.466126
21
332.373907
31
0.0
0
ARC
8
0
10
237.082585
20
331.344355
30
0.0
40
1.200000
50
90.000000
51
120.911655
0
LINE
8
0
10
237.082585
20
332.544355
30
0.0
11
237.802033
21
332.544355
31
0.0
0
ARC
8
0
10
237.802033
20
333.744355
30
0.0
40
1.200000
50
270.000000
51
327.000000
0
LINE
8
0
10
238.808437
20
333.090788
30
0.0
11
240.347875
21
335.461313
31
0.0
0
ARC
8
0
10
241.605881
20
334.644355
30
0.0
40
1.500000
50
90.000000
51
147.000000
0
LINE
8
0
10
241.605881
20
336.144355
30
0.0
11
244.015405
21
336.144355
31
0.0
0
ARC
8
0
10
244.015405
20
335.644355
30
0.0
40
0.500000
50
0.000000
51
90.000000
0
LINE
8
0
10
244.515405
20
335.644355
30
0.0
11
244.515405
21
321.094355
31
0.0
0
ARC
8
0
10
245.065405
20
321.094355
30
0.0
40
0.550000
50
180.000000
51
0.000000
0
LINE
8
0
10
245.615405
20
321.094355
30
0.0
11
245.615405
21
335.644355
31
0.0
0
ARC
8
0
10
246.115405
20
335.644355
30
0.0
40
0.500000
50
90.000000
51
180.000000
0
LINE
8
0
10
246.115405
20
336.144355
30
0.0
11
252.524930
21
336.144355
31
0.0
0
ARC
8
0
10
252.524930
20
334.644355
30
0.0
40
1.500000
50
33.000000
51
90.000000
0
LINE
8
0
10
253.782936
20
335.461313
30
0.0
11
255.322373
21
333.090788
31
0.0
0
ARC
8
0
10
256.328778
20
333.744355
30
0.0
40
1.200000
50
213.000000
51
270.000000
0
LINE
8
0
10
256.328778
20
332.544355
30
0.0
11
257.048226
21
332.544355
31
0.0
0
ARC
8
0
10
257.048226
20
331.344355
30
0.0
40
1.200000
50
59.088345
51
90.000000
0
LINE
8
0
10
257.664684
20
332.373907
30
0.0
11
258.835008
21
331.685749
31
0.0
0
ARC
8
0
10
258.987070
20
331.944355
30
0.0
40
0.300000
50
239.544173
51
270.000000
0
LINE
8
0
10
258.987070
20
331.644355
30
0.0
11
259.165405
21
331.644355
31
0.0
0
ARC
8
0
10
259.165405
20
332.044355
30
0.0
40
0.400000
50
270.000000
51
0.000000
0
LINE
8
0
10
259.565405
20
332.044355
30
0.0
11
259.565405
21
332.444355
31
0.0
0
ARC
8
0
10
259.465405
20
332.444355
30
0.0
40
0.100000
50
0.000000
51
90.000000
0
LINE
8
0
10
259.465405
20
332.544355
30
0.0
11
259.465405
21
332.819355
31
0.0
0
ARC
8
0
10
259.165405
20
332.819355
30
0.0
40
0.300000
50
0.000000
51
105.506434
0
ARC
8
0
10
258.815405
20
333.644355
30
0.0
40
0.600000
50
63.278126
51
296.721874
0
ARC
8
0
10
259.165405
20
334.469355
30
0.0
40
0.300000
50
254.493566
51
0.000000
0
LINE
8
0
10
259.465405
20
334.469355
30
0.0
11
259.465405
21
334.744355
31
0.0
0
ARC
8
0
10
259.465405
20
334.844355
30
0.0
40
0.100000
50
270.000000
51
0.000000
0
LINE
8
0
10
259.565405
20
334.844355
30
0.0
11
259.565405
21
335.244355
31
0.0
0
ARC
8
0
10
259.165405
20
335.244355
30
0.0
40
0.400000
50
0.000000
51
90.000000
0
LINE
8
0
10
259.165405
20
335.644355
30
0.0
11
258.987203
21
335.644355
31
0.0
0
ARC
8
0
10
258.987203
20
335.344355
30
0.0
40
0.300000
50
90.000000
51
120.503167
0
LINE
8
0
10
258.834928
20
335.602835
30
0.0
11
257.659611
21
334.910433
31
0.0
0
ARC
8
0
10
257.050508
20
335.944355
30
0.0
40
1.200000
50
270.000000
51
300.503167
0
LINE
8
0
10
257.050508
20
334.744355
30
0.0
11
256.796139
21
334.744355
31
0.0
0
ARC
8
0
10
256.796139
20
335.044355
30
0.0
40
0.300000
50
212.610000
51
270.000000
0
LINE
8
0
10
256.543432
20
334.882679
30
0.0
11
254.832895
21
337.516674
31
0.0
0
ARC
8
0
10
254.413560
20
337.244355
30
0.0
40
0.500000
50
33.000000
51
90.000000
0
LINE
8
0
10
254.413560
20
337.744355
30
0.0
11
239.717250
21
337.744355
31
0.0
0
ARC
8
0
10
239.717250
20
337.244355
30
0.0
40
0.500000
50
90.000000
51
147.000000
0
LINE
8
0
10
239.297915
20
337.516674
30
0.0
11
237.587379
21
334.882679
31
0.0
0
ARC
8
0
10
237.334671
20
335.044355
30
0.0
40
0.300000
50
270.000000
51
327.390000
0
LINE
8
0
10
237.334671
20
334.744355
30
0.0
11
237.080302
21
334.744355
31
0.0
0
ARC
8
0
10
237.080302
20
335.944355
30
0.0
40
1.200000
50
239.496833
51
270.000000
0
LINE
8
0
10
236.471199
20
334.910433
30
0.0
11
235.295883
21
335.602835
31
0.0
0
ARC
8
0
10
235.143607
20
335.344355
30
0.0
40
0.300000
50
59.496833
51
90.000000
0
LINE
8
0
10
258.987203
20
302.343456
30
0.0
11
259.165405
21
302.343456
31
0.0
0
ARC
8
0
10
259.165405
20
302.743456
30
0.0
40
0.400000
50
270.000000
51
0.000000
0
LINE
8
0
10
259.565405
20
302.743456
30
0.0
11
259.565405
21
303.143456
31
0.0
0
ARC
8
0
10
259.465405
20
303.143456
30
0.0
40
0.100000
50
0.000000
51
90.000000
0
LINE
8
0
10
259.465405
20
303.243456
30
0.0
11
259.465405
21
303.518456
31
0.0
0
ARC
8
0
10
259.165405
20
303.518456
30
0.0
40
0.300000
50
0.000000
51
105.506434
0
ARC
8
0
10
258.815405
20
304.343456
30
0.0
40
0.600000
50
63.278126
51
296.721874
0
ARC
8
0
10
259.165405
20
305.168456
30
0.0
40
0.300000
50
254.493566
51
0.000000
0
LINE
8
0
10
259.465405
20
305.168456
30
0.0
11
259.465405
21
305.443456
31
0.0
0
ARC
8
0
10
259.465405
20
305.543456
30
0.0
40
0.100000
50
270.000000
51
0.000000
0
LINE
8
0
10
259.565405
20
305.543456
30
0.0
11
259.565405
21
305.943456
31
0.0
0
ARC
8
0
10
259.165405
20
305.943456
30
0.0
40
0.400000
50
0.000000
51
90.000000
0
LINE
8
0
10
259.165405
20
306.343456
30
0.0
11
258.987070
21
306.343456
31
0.0
0
ARC
8
0
10
258.987070
20
306.043456
30
0.0
40
0.300000
50
90.000000
51
120.455827
0
LINE
8
0
10
258.835008
20
306.302062
30
0.0
11
257.664684
21
305.613904
31
0.0
0
ARC
8
0
10
257.048226
20
306.643456
30
0.0
40
1.200000
50
270.000000
51
300.911655
0
LINE
8
0
10
257.048226
20
305.443456
30
0.0
11
256.328778
21
305.443456
31
0.0
0
ARC
8
0
10
256.328778
20
304.243456
30
0.0
40
1.200000
50
90.000000
51
147.000000
0
LINE
8
0
10
255.322373
20
304.897023
30
0.0
11
253.782936
21
302.526498
31
0.0
0
ARC
8
0
10
252.524930
20
303.343456
30
0.0
40
1.500000
50
270.000000
51
327.000000
0
LINE
8
0
10
252.524930
20
301.843456
30
0.0
11
250.115405
21
301.843456
31
0.0
0
ARC
8
0
10
250.115405
20
302.343456
30
0.0
40
0.500000
50
180.000000
51
270.000000
0
LINE
8
0
10
249.615405
20
302.343456
30
0.0
11
249.615405
21
316.893456
31
0.0
0
ARC
8
0
10
249.065405
20
316.893456
30
0.0
40
0.550000
50
0.000000
51
180.000000
0
LINE
8
0
10
248.515405
20
316.893456
30
0.0
11
248.515405
21
302.343456
31
0.0
0
ARC
8
0
10
248.015405
20
302.343456
30
0.0
40
0.500000
50
270.000000
51
0.000000
0
LINE
8
0
10
248.015405
20
301.843456
30
0.0
11
241.605881
21
301.843456
31
0.0
0
ARC
8
0
10
241.605881
20
303.343456
30
0.0
40
1.500000
50
213.000000
51
270.000000
0
LINE
8
0
10
240.347875
20
302.526498
30
0.0
11
238.808437
21
304.897023
31
0.0
0
ARC
8
0
10
237.802033
20
304.243456
30
0.0
40
1.200000
50
33.000000
51
90.000000
0
LINE
8
0
10
237.802033
20
305.443456
30
0.0
11
237.082585
21
305.443456
31
0.0
0
ARC
8
0
10
237.082585
20
306.643456
30
0.0
40
1.200000
50
239.088345
51
270.000000
0
LINE
8
0
10
236.466126
20
305.613904
30
0.0
11
235.295802
21
306.302062
31
0.0
0
ARC
8
0
10
235.143740
20
306.043456
30
0.0
40
0.300000
50
59.544173
51
90.000000
0
LINE
8
0
10
235.143740
20
306.343456
30
0.0
11
234.965405
21
306.343456
31
0.0
0
ARC
8
0
10
234.965405
20
305.943456
30
0.0
40
0.400000
50
90.000000
51
180.000000
0
LINE
8
0
10
234.565405
20
305.943456
30
0.0
11
234.565405
21
305.543456
31
0.0
0
ARC
8
0
10
234.665405
20
305.543456
30
0.0
40
0.100000
50
180.000000
51
270.000000
0
LINE
8
0
10
234.665405
20
305.443456
30
0.0
11
234.665405
21
305.168456
31
0.0
0
ARC
8
0
10
234.965405
20
305.168456
30
0.0
40
0.300000
50
180.000000
51
285.506434
0
ARC
8
0
10
235.315405
20
304.343456
30
0.0
40
0.600000
50
243.278126
51
116.721874
0
ARC
8
0
10
234.965405
20
303.518456
30
0.0
40
0.300000
50
74.493566
51
180.000000
0
LINE
8
0
10
234.665405
20
303.518456
30
0.0
11
234.665405
21
303.243456
31
0.0
0
ARC
8
0
10
234.665405
20
303.143456
30
0.0
40
0.100000
50
90.000000
51
180.000000
0
LINE
8
0
10
234.565405
20
303.143456
30
0.0
11
234.565405
21
302.743456
31
0.0
0
ARC
8
0
10
234.965405
20
302.743456
30
0.0
40
0.400000
50
180.000000
51
270.000000
0
LINE
8
0
10
234.965405
20
302.343456
30
0.0
11
235.143607
21
302.343456
31
0.0
0
ARC
8
0
10
235.143607
20
302.643456
30
0.0
40
0.300000
50
270.000000
51
300.503167
0
LINE
8
0
10
235.295883
20
302.384976
30
0.0
11
236.471199
21
303.077378
31
0.0
0
ARC
8
0
10
237.080302
20
302.043456
30
0.0
40
1.200000
50
90.000000
51
120.503167
0
LINE
8
0
10
237.080302
20
303.243456
30
0.0
11
237.334671
21
303.243456
31
0.0
0
ARC
8
0
10
237.334671
20
302.943456
30
0.0
40
0.300000
50
32.610000
51
90.000000
0
LINE
8
0
10
237.587379
20
303.105132
30
0.0
11
239.297915
21
300.471137
31
0.0
0
ARC
8
0
10
239.717250
20
300.743456
30
0.0
40
0.500000
50
213.000000
51
270.000000
0
LINE
8
0
10
239.717250
20
300.243456
30
0.0
11
254.413560
21
300.243456
31
0.0
0
ARC
8
0
10
254.413560
20
300.743456
30
0.0
40
0.500000
50
270.000000
51
327.000000
0
LINE
8
0
10
254.832895
20
300.471137
30
0.0
11
256.543432
21
303.105132
31
0.0
0
ARC
8
0
10
256.796139
20
302.943456
30
0.0
40
0.300000
50
90.000000
51
147.390000
0
LINE
8
0
10
256.796139
20
303.243456
30
0.0
11
257.050508
21
303.243456
31
0.0
0
ARC
8
0
10
257.050508
20
302.043456
30
0.0
40
1.200000
50
59.496833
51
90.000000
0
LINE
8
0
10
257.659611
20
303.077378
30
0.0
11
258.834928
21
302.384976
31
0.0
0
ARC
8
0
10
258.987203
20
302.643456
30
0.0
40
0.300000
50
239.496833
51
270.000000
0
ATTDEF
8
0
10
266.765405
20
268.993905
30
0.0
40
3.5
1

3

2
FRONT_VIEW
70
0
0
ATTDEF
8
0
10
266.765405
20
268.993905
30
0.0
40
3.5
1

3

2
OPTI:500.000000,1,0,3000.000000,6500.000000,500.000000,0,0.000000,0
70
0
0
ATTDEF
8
0
10
266.765405
20
268.993905
30
0.0
40
3.5
1

3

2
GLASS_MIN:0.000000
70
0
0
ATTDEF
8
0
10
266.765405
20
268.993905
30
0.0
40
3.5
1

3

2
GLASS_MAX:0.000000
70
0
0
ATTDEF
8
0
10
221.265405
20
343.993905
30
0.0
40
3.5
1

3

2
VC_START
70
0
0
ATTDEF
8
0
10
220.368958
20
293.993905
30
0.0
40
3.5
1

3

2
VC_END
70
0
0
ATTDEF
8
0
10
266.765405
20
268.993905
30
0.0
40
3.5
1

3

2
FP_LCS_ORIG
70
0
0
ATTDEF
8
0
10
256.765405
20
268.993905
30
0.0
40
3.5
1

3

2
FP_LCS_HOT
70
0
0
ATTDEF
8
0
10
266.765405
20
278.993905
30
0.0
40
3.5
1

3

2
FP_LCS_INTERN
70
0
0
ATTDEF
8
0
10
0.000000
20
0.000000
30
0.0
40
3.5
1

3

2
TDEV5:0
70
0
0
ATTDEF
8
0
10
0.000000
20
0.000000
30
0.0
40
3.5
1

3

2
PANE_WIDTH:0
70
0
0
ATTDEF
8
0
10
0.000000
20
0.000000
30
0.0
40
3.5
1

3

2
MIN_VETRO:0
70
0
0
ATTDEF
8
0
10
0.000000
20
0.000000
30
0.0
40
3.5
1

3

2
MAX_VETRO:0
70
0
0
ATTDEF
8
0
10
0.000000
20
0.000000
30
0.0
40
3.5
1

3

2
JX:0
70
0
0
ATTDEF
8
0
10
0.000000
20
0.000000
30
0.0
40
3.5
1

3

2
WX:0
70
0
0
ATTDEF
8
0
10
0.000000
20
0.000000
30
0.0
40
3.5
1

3

2
JY:0
70
0
0
ATTDEF
8
0
10
0.000000
20
0.000000
30
0.0
40
3.5
1

3

2
WY:0
70
0
0
ATTDEF
8
0
10
0.000000
20
0.000000
30
0.0
40
3.5
1

3

2
BL01:6500, ,1
70
0
0
ATTDEF
8
0
10
0.000000
20
0.000000
30
0.0
40
3.5
1

3

2
DESC:Divisor balconera apertura interior
70
0
0
ATTDEF
8
0
10
0.000000
20
0.000000
30
0.0
40
3.5
1

3

2
DENS:1.816
70
0
0
ATTDEF
8
0
10
0.000000
20
0.000000
30
0.0
40
3.5
1

3

2
TDEV:73.78
70
0
0
ATTDEF
8
0
10
0.000000
20
0.000000
30
0.0
40
3.5
1

3

2
TDEV2:0
70
0
0
ATTDEF
8
0
10
0.000000
20
0.000000
30
0.0
40
3.5
1

3

2
TDEV3:0
70
0
0
ATTDEF
8
0
10
0.000000
20
0.000000
30
0.0
40
3.5
1

3

2
TDEV4:0
70
0
0
ATTDEF
8
0
10
0.000000
20
0.000000
30
0.0
40
3.5
1

3

2
TDEV5:0
70
0
0
ATTDEF
8
0
10
0.000000
20
0.000000
30
0.0
40
3.5
1

3

2
PANE_WIDTH:0
70
0
0
ATTDEF
8
0
10
0.000000
20
0.000000
30
0.0
40
3.5
1

3

2
MIN_VETRO:0
70
0
0
ATTDEF
8
0
10
0.000000
20
0.000000
30
0.0
40
3.5
1

3

2
MAX_VETRO:0
70
0
0
ATTDEF
8
0
10
0.000000
20
0.000000
30
0.0
40
3.5
1

3

2
JX:0
70
0
0
ATTDEF
8
0
10
0.000000
20
0.000000
30
0.0
40
3.5
1

3

2
WX:0
70
0
0
ATTDEF
8
0
10
0.000000
20
0.000000
30
0.0
40
3.5
1

3

2
JY:0
70
0
0
ATTDEF
8
0
10
0.000000
20
0.000000
30
0.0
40
3.5
1

3

2
WY:0
70
0
0
ATTDEF
8
0
10
0.000000
20
0.000000
30
0.0
40
3.5
1

3

2
BL01:6500, ,1
70
0
0
ENDSEC
0
EOF
