0
SECTION
2
ENTITIES
0
LINE
8
0
10
310.945012
20
192.764739
30
0.0
11
332.995012
21
192.764739
31
0.0
0
LINE
8
0
10
332.995012
20
192.764739
30
0.0
11
332.995012
21
206.762795
31
0.0
0
LINE
8
0
10
332.995012
20
206.762795
30
0.0
11
310.945012
21
206.762795
31
0.0
0
LINE
8
0
10
310.945012
20
206.762795
30
0.0
11
310.945012
21
192.764739
31
0.0
0
LINE
8
0
10
282.545875
20
206.763767
30
0.0
11
271.395875
21
206.763767
31
0.0
0
LINE
8
0
10
271.395875
20
206.763767
30
0.0
11
271.395875
21
192.763767
31
0.0
0
LINE
8
0
10
271.395875
20
192.763767
30
0.0
11
282.545875
21
192.763767
31
0.0
0
LINE
8
0
10
282.545875
20
192.763767
30
0.0
11
282.545875
21
206.763767
31
0.0
0
ARC
8
0
10
284.407677
20
206.540178
30
0.0
40
0.300000
50
337.940528
51
75.000000
0
LINE
8
0
10
284.488648
20
206.842366
30
0.0
11
284.224825
21
206.913058
31
0.0
0
ARC
8
0
10
284.245443
20
206.613767
30
0.0
40
0.300000
50
93.940957
51
270.000000
0
LINE
8
0
10
284.245443
20
206.313767
30
0.0
11
284.245443
21
201.813767
31
0.0
0
ARC
8
0
10
284.445443
20
201.823869
30
0.0
40
0.200000
50
182.891595
51
301.867325
0
LINE
8
0
10
284.551100
20
201.653909
30
0.0
11
286.345443
21
202.683490
31
0.0
0
ARC
8
0
10
286.545443
20
202.683225
30
0.0
40
0.200000
50
8.682564
51
180.000000
0
LINE
8
0
10
286.745443
20
202.713767
30
0.0
11
286.745443
21
202.513767
31
0.0
0
LINE
8
0
10
286.745443
20
202.513767
30
0.0
11
286.745443
21
201.299445
31
0.0
0
ARC
8
0
10
286.545443
20
201.299445
30
0.0
40
0.200000
50
298.305465
51
0.000000
0
LINE
8
0
10
286.640059
20
201.123150
30
0.0
11
285.338303
21
200.376211
31
0.0
0
ARC
8
0
10
285.677456
20
199.763767
30
0.0
40
0.700000
50
118.976366
51
180.000000
0
ARC
8
0
10
285.677456
20
199.763767
30
0.0
40
0.700000
50
180.000000
51
241.023634
0
LINE
8
0
10
285.338303
20
199.151323
30
0.0
11
286.640059
21
198.404384
31
0.0
0
ARC
8
0
10
286.545443
20
198.228089
30
0.0
40
0.200000
50
0.000000
51
61.694535
0
LINE
8
0
10
286.745443
20
198.228089
30
0.0
11
286.745443
21
197.013767
31
0.0
0
LINE
8
0
10
286.745443
20
197.013767
30
0.0
11
286.745443
21
196.813767
31
0.0
0
ARC
8
0
10
286.545443
20
196.844309
30
0.0
40
0.200000
50
180.000000
51
351.317436
0
LINE
8
0
10
286.345443
20
196.844044
30
0.0
11
284.551100
21
197.873625
31
0.0
0
ARC
8
0
10
284.445443
20
197.703665
30
0.0
40
0.200000
50
58.132675
51
177.108405
0
LINE
8
0
10
284.245443
20
197.713767
30
0.0
11
284.245443
21
193.213767
31
0.0
0
ARC
8
0
10
284.245443
20
192.913767
30
0.0
40
0.300000
50
90.000000
51
266.059043
0
LINE
8
0
10
284.224825
20
192.614476
30
0.0
11
284.488648
21
192.685168
31
0.0
0
ARC
8
0
10
284.407677
20
192.987356
30
0.0
40
0.300000
50
285.000000
51
22.059472
0
LINE
8
0
10
284.677460
20
193.115671
30
0.0
11
286.261890
21
194.228050
31
0.0
0
ARC
8
0
10
286.425577
20
194.342970
30
0.0
40
0.200000
50
34.039809
51
215.071526
0
LINE
8
0
10
286.588016
20
194.448363
30
0.0
11
288.593035
21
191.662814
31
0.0
0
ARC
8
0
10
288.305022
20
191.578858
30
0.0
40
0.300000
50
270.000000
51
16.251415
0
LINE
8
0
10
288.297934
20
191.278898
30
0.0
11
287.244739
21
191.285815
31
0.0
0
LINE
8
0
10
287.244739
20
191.285815
30
0.0
11
287.189093
21
191.493489
31
0.0
0
LINE
8
0
10
287.189093
20
191.493489
30
0.0
11
286.820493
21
191.971782
31
0.0
0
ARC
8
0
10
285.963828
20
191.455164
30
0.0
40
1.000000
50
31.092391
51
121.509063
0
LINE
8
0
10
285.441499
20
192.307224
30
0.0
11
284.689505
21
191.778845
31
0.0
0
ARC
8
0
10
285.205972
20
190.874943
30
0.0
40
1.035843
50
119.891845
51
157.952810
0
LINE
8
0
10
284.245875
20
191.263767
30
0.0
11
284.245875
21
191.063767
31
0.0
0
LINE
8
0
10
284.245875
20
191.063767
30
0.0
11
271.395875
21
191.063767
31
0.0
0
LINE
8
0
10
271.395875
20
191.063767
30
0.0
11
271.395875
21
186.063767
31
0.0
0
LINE
8
0
10
271.395875
20
186.063767
30
0.0
11
269.695875
21
186.063767
31
0.0
0
LINE
8
0
10
269.695875
20
186.063767
30
0.0
11
269.695875
21
208.962503
31
0.0
0
ARC
8
0
10
270.195875
20
208.962503
30
0.0
40
0.500000
50
90.000000
51
180.000000
0
LINE
8
0
10
270.195875
20
209.462503
30
0.0
11
270.895875
21
209.462503
31
0.0
0
ARC
8
0
10
270.895875
20
208.962503
30
0.0
40
0.500000
50
0.000000
51
90.000000
0
LINE
8
0
10
271.395875
20
208.962503
30
0.0
11
271.395875
21
208.463767
31
0.0
0
LINE
8
0
10
271.395875
20
208.463767
30
0.0
11
273.695389
21
208.463767
31
0.0
0
LINE
8
0
10
273.695389
20
208.463767
30
0.0
11
273.695389
21
211.962503
31
0.0
0
ARC
8
0
10
272.695389
20
211.962503
30
0.0
40
1.000000
50
0.000000
51
90.000000
0
LINE
8
0
10
272.695389
20
212.962503
30
0.0
11
272.287732
21
212.962503
31
0.0
0
ARC
8
0
10
269.695875
20
217.238281
30
0.0
40
5.000000
50
40.547240
51
301.223075
0
ARC
8
0
10
269.695875
20
217.238281
30
0.0
40
5.000000
50
2.349641
51
40.547240
0
ARC
8
0
10
269.695875
20
217.238281
30
0.0
40
5.000000
50
347.723500
51
2.349641
0
ARC
8
0
10
275.558672
20
215.962503
30
0.0
40
1.000000
50
167.723500
51
244.428212
0
ARC
8
0
10
274.695389
20
214.158413
30
0.0
40
1.000000
50
0.000000
51
64.428212
0
LINE
8
0
10
275.695389
20
214.158413
30
0.0
11
275.695389
21
208.463767
31
0.0
0
LINE
8
0
10
275.695389
20
208.463767
30
0.0
11
284.245875
21
208.463767
31
0.0
0
LINE
8
0
10
284.245875
20
208.463767
30
0.0
11
284.245875
21
208.263767
31
0.0
0
ARC
8
0
10
285.869068
20
209.230593
30
0.0
40
1.889314
50
210.779370
51
231.375975
0
LINE
8
0
10
284.689505
20
207.748689
30
0.0
11
285.441499
21
207.220310
31
0.0
0
ARC
8
0
10
285.963828
20
208.072371
30
0.0
40
1.000000
50
238.490937
51
328.907609
0
LINE
8
0
10
286.820493
20
207.555752
30
0.0
11
287.189093
21
208.034045
31
0.0
0
LINE
8
0
10
287.189093
20
208.034045
30
0.0
11
287.244739
21
208.241719
31
0.0
0
LINE
8
0
10
287.244739
20
208.241719
30
0.0
11
288.297934
21
208.248636
31
0.0
0
ARC
8
0
10
288.305022
20
207.948676
30
0.0
40
0.300000
50
343.748585
51
90.000000
0
LINE
8
0
10
288.593035
20
207.864720
30
0.0
11
286.588016
21
205.079171
31
0.0
0
ARC
8
0
10
286.425577
20
205.184564
30
0.0
40
0.200000
50
144.928474
51
325.960191
0
LINE
8
0
10
286.261890
20
205.299484
30
0.0
11
284.677460
21
206.411863
31
0.0
0
ARC
8
0
10
307.969688
20
190.600169
30
0.0
40
1.437641
50
27.489627
51
54.665719
0
LINE
8
0
10
308.801382
20
191.778845
30
0.0
11
308.049388
21
192.307224
31
0.0
0
ARC
8
0
10
307.527059
20
191.455164
30
0.0
40
1.000000
50
58.490937
51
148.907609
0
LINE
8
0
10
306.670393
20
191.971782
30
0.0
11
306.301794
21
191.493489
31
0.0
0
LINE
8
0
10
306.301794
20
191.493489
30
0.0
11
306.246147
21
191.285815
31
0.0
0
LINE
8
0
10
306.246147
20
191.285815
30
0.0
11
305.192952
21
191.278898
31
0.0
0
ARC
8
0
10
305.185864
20
191.578858
30
0.0
40
0.300000
50
163.748585
51
270.000000
0
LINE
8
0
10
304.897852
20
191.662814
30
0.0
11
306.902871
21
194.448363
31
0.0
0
ARC
8
0
10
307.065310
20
194.342970
30
0.0
40
0.200000
50
324.928474
51
145.960191
0
LINE
8
0
10
307.228997
20
194.228050
30
0.0
11
308.813426
21
193.115671
31
0.0
0
ARC
8
0
10
309.083209
20
192.987356
30
0.0
40
0.300000
50
157.940528
51
255.000000
0
LINE
8
0
10
309.002238
20
192.685168
30
0.0
11
309.266062
21
192.614476
31
0.0
0
ARC
8
0
10
309.245443
20
192.913767
30
0.0
40
0.300000
50
273.940957
51
90.000000
0
LINE
8
0
10
309.245443
20
193.213767
30
0.0
11
309.245443
21
197.713767
31
0.0
0
ARC
8
0
10
309.045443
20
197.703665
30
0.0
40
0.200000
50
2.891595
51
121.867325
0
LINE
8
0
10
308.939787
20
197.873625
30
0.0
11
307.145443
21
196.844044
31
0.0
0
ARC
8
0
10
306.945443
20
196.844309
30
0.0
40
0.200000
50
188.682564
51
0.000000
0
LINE
8
0
10
306.745443
20
196.813767
30
0.0
11
306.745443
21
197.013767
31
0.0
0
LINE
8
0
10
306.745443
20
197.013767
30
0.0
11
306.745443
21
198.228089
31
0.0
0
ARC
8
0
10
306.945443
20
198.228089
30
0.0
40
0.200000
50
118.305465
51
180.000000
0
LINE
8
0
10
306.850827
20
198.404384
30
0.0
11
308.152584
21
199.151323
31
0.0
0
ARC
8
0
10
307.813430
20
199.763767
30
0.0
40
0.700000
50
298.976366
51
0.000000
0
ARC
8
0
10
307.813430
20
199.763767
30
0.0
40
0.700000
50
0.000000
51
61.023634
0
LINE
8
0
10
308.152584
20
200.376211
30
0.0
11
306.850827
21
201.123150
31
0.0
0
ARC
8
0
10
306.945443
20
201.299445
30
0.0
40
0.200000
50
180.000000
51
241.694535
0
LINE
8
0
10
306.745443
20
201.299445
30
0.0
11
306.745443
21
202.513767
31
0.0
0
LINE
8
0
10
306.745443
20
202.513767
30
0.0
11
306.745443
21
202.713767
31
0.0
0
ARC
8
0
10
306.945443
20
202.683225
30
0.0
40
0.200000
50
0.000000
51
171.317436
0
LINE
8
0
10
307.145443
20
202.683490
30
0.0
11
308.939787
21
201.653909
31
0.0
0
ARC
8
0
10
309.045443
20
201.823869
30
0.0
40
0.200000
50
238.132675
51
357.108405
0
LINE
8
0
10
309.245443
20
201.813767
30
0.0
11
309.245443
21
206.313767
31
0.0
0
ARC
8
0
10
309.245443
20
206.613767
30
0.0
40
0.300000
50
270.000000
51
86.059043
0
LINE
8
0
10
309.266062
20
206.913058
30
0.0
11
309.002238
21
206.842366
31
0.0
0
ARC
8
0
10
309.083209
20
206.540178
30
0.0
40
0.300000
50
105.000000
51
202.059472
0
LINE
8
0
10
308.813426
20
206.411863
30
0.0
11
307.228997
21
205.299484
31
0.0
0
ARC
8
0
10
307.065310
20
205.184564
30
0.0
40
0.200000
50
214.039809
51
35.071526
0
LINE
8
0
10
306.902871
20
205.079171
30
0.0
11
304.897852
21
207.864720
31
0.0
0
ARC
8
0
10
305.185864
20
207.948676
30
0.0
40
0.300000
50
90.000000
51
196.251415
0
LINE
8
0
10
305.192952
20
208.248636
30
0.0
11
306.246147
21
208.241719
31
0.0
0
LINE
8
0
10
306.246147
20
208.241719
30
0.0
11
306.301794
21
208.034045
31
0.0
0
LINE
8
0
10
306.301794
20
208.034045
30
0.0
11
306.670393
21
207.555752
31
0.0
0
ARC
8
0
10
307.527059
20
208.072371
30
0.0
40
1.000000
50
211.092391
51
301.509063
0
LINE
8
0
10
308.049388
20
207.220310
30
0.0
11
308.801382
21
207.748689
31
0.0
0
ARC
8
0
10
307.789611
20
209.084333
30
0.0
40
1.670784
50
307.259283
51
330.585372
0
LINE
8
0
10
309.245012
20
208.263767
30
0.0
11
309.245012
21
208.463767
31
0.0
0
LINE
8
0
10
309.245012
20
208.463767
30
0.0
11
332.995012
21
208.463767
31
0.0
0
LINE
8
0
10
332.995012
20
208.463767
30
0.0
11
332.995012
21
211.763767
31
0.0
0
LINE
8
0
10
332.995012
20
211.763767
30
0.0
11
330.195012
21
211.763767
31
0.0
0
ARC
8
0
10
330.195012
20
214.463767
30
0.0
40
2.700000
50
180.000000
51
270.000000
0
LINE
8
0
10
327.495012
20
214.463767
30
0.0
11
327.495012
21
217.238281
31
0.0
0
ARC
8
0
10
270.695012
20
217.238281
30
0.0
40
56.800000
50
0.000000
51
46.887385
0
ARC
8
0
10
310.095012
20
259.323462
30
0.0
40
0.850000
50
46.887385
51
226.887385
0
ARC
8
0
10
270.695012
20
217.238281
30
0.0
40
58.500000
50
0.000000
51
46.887385
0
LINE
8
0
10
329.195012
20
217.238281
30
0.0
11
329.195012
21
214.463767
31
0.0
0
ARC
8
0
10
330.195012
20
214.463767
30
0.0
40
1.000000
50
180.000000
51
270.000000
0
LINE
8
0
10
330.195012
20
213.463767
30
0.0
11
333.695012
21
213.463767
31
0.0
0
ARC
8
0
10
333.695012
20
212.463767
30
0.0
40
1.000000
50
0.000000
51
90.000000
0
LINE
8
0
10
334.695012
20
212.463767
30
0.0
11
334.695012
21
186.063767
31
0.0
0
LINE
8
0
10
334.695012
20
186.063767
30
0.0
11
332.995012
21
186.063767
31
0.0
0
LINE
8
0
10
332.995012
20
186.063767
30
0.0
11
332.995012
21
191.063767
31
0.0
0
LINE
8
0
10
332.995012
20
191.063767
30
0.0
11
309.245012
21
191.063767
31
0.0
0
LINE
8
0
10
309.245012
20
191.063767
30
0.0
11
309.245012
21
191.263767
31
0.0
0
LINE
8
0
10
284.245443
20
196.812313
30
0.0
11
285.031072
21
197.597942
31
0.0
0
LINE
8
0
10
284.345443
20
194.667249
30
0.0
11
284.714773
21
195.036578
31
0.0
0
LINE
8
0
10
287.345443
20
197.667249
30
0.0
11
288.145443
21
198.467249
31
0.0
0
LINE
8
0
10
285.526834
20
195.848640
30
0.0
11
286.454386
21
196.776191
31
0.0
0
LINE
8
0
10
286.058644
20
194.135386
30
0.0
11
288.493288
21
196.570029
31
0.0
0
LINE
8
0
10
288.738352
20
194.570029
30
0.0
11
290.738352
21
196.570029
31
0.0
0
LINE
8
0
10
290.983416
20
194.570029
30
0.0
11
292.983416
21
196.570029
31
0.0
0
LINE
8
0
10
293.228480
20
194.570029
30
0.0
11
295.228480
21
196.570029
31
0.0
0
LINE
8
0
10
295.473544
20
194.570029
30
0.0
11
297.473544
21
196.570029
31
0.0
0
LINE
8
0
10
297.718608
20
194.570029
30
0.0
11
299.718608
21
196.570029
31
0.0
0
LINE
8
0
10
299.963672
20
194.570029
30
0.0
11
301.963672
21
196.570029
31
0.0
0
LINE
8
0
10
302.208736
20
194.570029
30
0.0
11
304.208736
21
196.570029
31
0.0
0
LINE
8
0
10
305.345443
20
197.706737
30
0.0
11
306.145443
21
198.506737
31
0.0
0
LINE
8
0
10
304.453800
20
194.570029
30
0.0
11
306.457982
21
196.574212
31
0.0
0
LINE
8
0
10
306.660166
20
194.531331
30
0.0
11
307.950985
21
195.822150
31
0.0
0
LINE
8
0
10
308.243322
20
196.114488
30
0.0
11
309.245443
21
197.116608
31
0.0
0
LINE
8
0
10
308.115060
20
193.741161
30
0.0
11
309.145443
21
194.771544
31
0.0
0
LINE
8
0
10
285.778384
20
193.973577
30
0.0
11
284.715648
21
195.036313
31
0.0
0
LINE
8
0
10
287.426996
20
194.570029
30
0.0
11
284.406332
21
197.590693
31
0.0
0
LINE
8
0
10
289.672060
20
194.570029
30
0.0
11
287.345443
21
196.896646
31
0.0
0
LINE
8
0
10
291.917124
20
194.570029
30
0.0
11
289.917124
21
196.570029
31
0.0
0
LINE
8
0
10
288.145443
20
198.341710
30
0.0
11
287.444479
21
199.042674
31
0.0
0
LINE
8
0
10
294.162188
20
194.570029
30
0.0
11
292.162188
21
196.570029
31
0.0
0
LINE
8
0
10
296.407252
20
194.570029
30
0.0
11
294.407252
21
196.570029
31
0.0
0
LINE
8
0
10
298.652316
20
194.570029
30
0.0
11
296.652316
21
196.570029
31
0.0
0
LINE
8
0
10
300.897380
20
194.570029
30
0.0
11
298.897380
21
196.570029
31
0.0
0
LINE
8
0
10
303.142444
20
194.570029
30
0.0
11
301.142444
21
196.570029
31
0.0
0
LINE
8
0
10
305.387508
20
194.570029
30
0.0
11
303.387508
21
196.570029
31
0.0
0
LINE
8
0
10
308.732572
20
193.470029
30
0.0
11
305.345443
21
196.857158
31
0.0
0
LINE
8
0
10
308.307749
20
196.139916
30
0.0
11
307.439058
21
197.008607
31
0.0
0
LINE
8
0
10
306.145443
20
198.302222
30
0.0
11
305.421037
21
199.026628
31
0.0
0
LINE
8
0
10
284.286114
20
205.833240
30
0.0
11
284.469708
21
206.016834
31
0.0
0
LINE
8
0
10
285.214159
20
204.516221
30
0.0
11
286.078578
21
205.380640
31
0.0
0
LINE
8
0
10
284.800507
20
201.857505
30
0.0
11
287.900507
21
204.957505
31
0.0
0
LINE
8
0
10
287.345443
20
202.157377
30
0.0
11
290.145571
21
204.957505
31
0.0
0
LINE
8
0
10
287.890635
20
200.457505
30
0.0
11
288.145443
21
200.712313
31
0.0
0
LINE
8
0
10
290.390635
20
202.957505
30
0.0
11
292.390635
21
204.957505
31
0.0
0
LINE
8
0
10
292.635699
20
202.957505
30
0.0
11
294.635699
21
204.957505
31
0.0
0
LINE
8
0
10
294.880764
20
202.957505
30
0.0
11
296.880764
21
204.957505
31
0.0
0
LINE
8
0
10
297.125828
20
202.957505
30
0.0
11
299.125828
21
204.957505
31
0.0
0
LINE
8
0
10
299.370892
20
202.957505
30
0.0
11
301.370892
21
204.957505
31
0.0
0
LINE
8
0
10
301.615956
20
202.957505
30
0.0
11
303.615956
21
204.957505
31
0.0
0
LINE
8
0
10
303.861020
20
202.957505
30
0.0
11
305.861020
21
204.957505
31
0.0
0
LINE
8
0
10
305.345443
20
202.196865
30
0.0
11
309.107921
21
205.959342
31
0.0
0
LINE
8
0
10
305.851148
20
200.457505
30
0.0
11
306.145443
21
200.751801
31
0.0
0
LINE
8
0
10
307.739252
20
202.345609
30
0.0
11
308.826002
21
203.432359
31
0.0
0
LINE
8
0
10
284.629323
20
201.857830
30
0.0
11
284.245768
21
202.241385
31
0.0
0
LINE
8
0
10
288.135865
20
200.596352
30
0.0
11
287.345443
21
201.386774
31
0.0
0
LINE
8
0
10
286.154191
20
202.578026
30
0.0
11
285.294735
21
203.437482
31
0.0
0
LINE
8
0
10
288.145443
20
202.831838
30
0.0
11
284.939753
21
206.037528
31
0.0
0
LINE
8
0
10
290.264840
20
202.957505
30
0.0
11
288.264840
21
204.957505
31
0.0
0
LINE
8
0
10
292.509904
20
202.957505
30
0.0
11
290.509904
21
204.957505
31
0.0
0
LINE
8
0
10
294.754968
20
202.957505
30
0.0
11
292.754968
21
204.957505
31
0.0
0
LINE
8
0
10
297.000032
20
202.957505
30
0.0
11
295.000032
21
204.957505
31
0.0
0
LINE
8
0
10
299.245096
20
202.957505
30
0.0
11
297.245096
21
204.957505
31
0.0
0
LINE
8
0
10
301.490160
20
202.957505
30
0.0
11
299.490160
21
204.957505
31
0.0
0
LINE
8
0
10
306.124441
20
200.568288
30
0.0
11
305.345443
21
201.347286
31
0.0
0
LINE
8
0
10
303.735224
20
202.957505
30
0.0
11
301.735224
21
204.957505
31
0.0
0
LINE
8
0
10
306.145443
20
202.792350
30
0.0
11
303.980288
21
204.957505
31
0.0
0
LINE
8
0
10
309.165404
20
202.017453
30
0.0
11
306.225352
21
204.957505
31
0.0
0
LINE
8
0
10
308.945416
20
204.482505
30
0.0
11
307.814865
21
205.613056
31
0.0
0
ARC
8
0
10
287.245443
20
202.857505
30
0.0
40
0.100000
50
0.000000
51
90.000000
0
LINE
8
0
10
287.345443
20
202.857505
30
0.0
11
287.345443
21
200.657505
31
0.0
0
ARC
8
0
10
287.545443
20
200.657505
30
0.0
40
0.200000
50
180.000000
51
270.000000
0
LINE
8
0
10
287.545443
20
200.457505
30
0.0
11
287.945443
21
200.457505
31
0.0
0
ARC
8
0
10
287.945443
20
200.657505
30
0.0
40
0.200000
50
270.000000
51
0.000000
0
LINE
8
0
10
288.145443
20
200.657505
30
0.0
11
288.145443
21
202.857505
31
0.0
0
ARC
8
0
10
288.245443
20
202.857505
30
0.0
40
0.100000
50
90.000000
51
180.000000
0
LINE
8
0
10
288.245443
20
202.957505
30
0.0
11
305.245443
21
202.957505
31
0.0
0
ARC
8
0
10
305.245443
20
202.857505
30
0.0
40
0.100000
50
0.000000
51
90.000000
0
LINE
8
0
10
305.345443
20
202.857505
30
0.0
11
305.345443
21
200.657505
31
0.0
0
ARC
8
0
10
305.545443
20
200.657505
30
0.0
40
0.200000
50
180.000000
51
270.000000
0
LINE
8
0
10
305.545443
20
200.457505
30
0.0
11
305.945443
21
200.457505
31
0.0
0
ARC
8
0
10
305.945443
20
200.657505
30
0.0
40
0.200000
50
270.000000
51
0.000000
0
LINE
8
0
10
306.145443
20
200.657505
30
0.0
11
306.145443
21
202.857505
31
0.0
0
ARC
8
0
10
306.245443
20
202.857505
30
0.0
40
0.100000
50
90.000000
51
180.000000
0
LINE
8
0
10
306.245443
20
202.957505
30
0.0
11
306.357879
21
202.957505
31
0.0
0
ARC
8
0
10
306.357879
20
201.757505
30
0.0
40
1.200000
50
60.000000
51
90.000000
0
LINE
8
0
10
306.957879
20
202.796736
30
0.0
11
308.538264
21
201.884300
31
0.0
0
ARC
8
0
10
308.638264
20
202.057505
30
0.0
40
0.200000
50
240.000000
51
270.000000
0
LINE
8
0
10
308.638264
20
201.857505
30
0.0
11
308.845443
21
201.857505
31
0.0
0
ARC
8
0
10
308.845443
20
202.257505
30
0.0
40
0.400000
50
270.000000
51
0.000000
0
LINE
8
0
10
309.245443
20
202.257505
30
0.0
11
309.245443
21
202.857505
31
0.0
0
LINE
8
0
10
309.245443
20
202.857505
30
0.0
11
309.145443
21
202.857505
31
0.0
0
LINE
8
0
10
309.145443
20
202.857505
30
0.0
11
309.145443
21
203.232505
31
0.0
0
ARC
8
0
10
308.945443
20
203.232505
30
0.0
40
0.200000
50
0.000000
51
90.000000
0
LINE
8
0
10
308.945443
20
203.432505
30
0.0
11
308.833637
21
203.432505
31
0.0
0
LINE
8
0
10
308.833637
20
203.432505
30
0.0
11
308.749089
21
203.413755
31
0.0
0
ARC
8
0
10
308.495443
20
203.957505
30
0.0
40
0.600000
50
64.992167
51
295.007833
0
LINE
8
0
10
308.749089
20
204.501255
30
0.0
11
308.833637
21
204.482505
31
0.0
0
LINE
8
0
10
308.833637
20
204.482505
30
0.0
11
308.945443
21
204.482505
31
0.0
0
ARC
8
0
10
308.945443
20
204.682505
30
0.0
40
0.200000
50
270.000000
51
0.000000
0
LINE
8
0
10
309.145443
20
204.682505
30
0.0
11
309.145443
21
205.057505
31
0.0
0
LINE
8
0
10
309.145443
20
205.057505
30
0.0
11
309.245443
21
205.057505
31
0.0
0
LINE
8
0
10
309.245443
20
205.057505
30
0.0
11
309.245443
21
205.657505
31
0.0
0
ARC
8
0
10
308.845443
20
205.657505
30
0.0
40
0.400000
50
0.000000
51
90.000000
0
LINE
8
0
10
308.845443
20
206.057505
30
0.0
11
308.638264
21
206.057505
31
0.0
0
ARC
8
0
10
308.638264
20
205.857505
30
0.0
40
0.200000
50
90.000000
51
120.000000
0
LINE
8
0
10
308.538264
20
206.030710
30
0.0
11
306.957879
21
205.118275
31
0.0
0
ARC
8
0
10
306.357879
20
206.157505
30
0.0
40
1.200000
50
270.000000
51
300.000000
0
LINE
8
0
10
306.357879
20
204.957505
30
0.0
11
287.133008
21
204.957505
31
0.0
0
ARC
8
0
10
287.133008
20
206.157505
30
0.0
40
1.200000
50
240.000000
51
270.000000
0
LINE
8
0
10
286.533008
20
205.118275
30
0.0
11
284.952623
21
206.030710
31
0.0
0
ARC
8
0
10
284.852623
20
205.857505
30
0.0
40
0.200000
50
60.000000
51
90.000000
0
LINE
8
0
10
284.852623
20
206.057505
30
0.0
11
284.645443
21
206.057505
31
0.0
0
ARC
8
0
10
284.645443
20
205.657505
30
0.0
40
0.400000
50
90.000000
51
180.000000
0
LINE
8
0
10
284.245443
20
205.657505
30
0.0
11
284.245443
21
205.057505
31
0.0
0
LINE
8
0
10
284.245443
20
205.057505
30
0.0
11
284.345443
21
205.057505
31
0.0
0
LINE
8
0
10
284.345443
20
205.057505
30
0.0
11
284.345443
21
204.682505
31
0.0
0
ARC
8
0
10
284.545443
20
204.682505
30
0.0
40
0.200000
50
180.000000
51
270.000000
0
LINE
8
0
10
284.545443
20
204.482505
30
0.0
11
284.657249
21
204.482505
31
0.0
0
LINE
8
0
10
284.657249
20
204.482505
30
0.0
11
284.741798
21
204.501255
31
0.0
0
ARC
8
0
10
284.995443
20
203.957505
30
0.0
40
0.600000
50
244.992167
51
115.007833
0
LINE
8
0
10
284.741798
20
203.413755
30
0.0
11
284.657249
21
203.432505
31
0.0
0
LINE
8
0
10
284.657249
20
203.432505
30
0.0
11
284.545443
21
203.432505
31
0.0
0
ARC
8
0
10
284.545443
20
203.232505
30
0.0
40
0.200000
50
90.000000
51
180.000000
0
LINE
8
0
10
284.345443
20
203.232505
30
0.0
11
284.345443
21
202.857505
31
0.0
0
LINE
8
0
10
284.345443
20
202.857505
30
0.0
11
284.245443
21
202.857505
31
0.0
0
LINE
8
0
10
284.245443
20
202.857505
30
0.0
11
284.245443
21
202.257505
31
0.0
0
ARC
8
0
10
284.645443
20
202.257505
30
0.0
40
0.400000
50
180.000000
51
270.000000
0
LINE
8
0
10
284.645443
20
201.857505
30
0.0
11
284.852623
21
201.857505
31
0.0
0
ARC
8
0
10
284.852623
20
202.057505
30
0.0
40
0.200000
50
270.000000
51
300.000000
0
LINE
8
0
10
284.952623
20
201.884300
30
0.0
11
286.533008
21
202.796736
31
0.0
0
ARC
8
0
10
287.133008
20
201.757505
30
0.0
40
1.200000
50
90.000000
51
120.000000
0
LINE
8
0
10
287.133008
20
202.957505
30
0.0
11
287.245443
21
202.957505
31
0.0
0
ARC
8
0
10
287.245443
20
196.670029
30
0.0
40
0.100000
50
270.000000
51
0.000000
0
LINE
8
0
10
287.345443
20
196.670029
30
0.0
11
287.345443
21
198.870029
31
0.0
0
ARC
8
0
10
287.545443
20
198.870029
30
0.0
40
0.200000
50
90.000000
51
180.000000
0
LINE
8
0
10
287.545443
20
199.070029
30
0.0
11
287.945443
21
199.070029
31
0.0
0
ARC
8
0
10
287.945443
20
198.870029
30
0.0
40
0.200000
50
0.000000
51
90.000000
0
LINE
8
0
10
288.145443
20
198.870029
30
0.0
11
288.145443
21
196.670029
31
0.0
0
ARC
8
0
10
288.245443
20
196.670029
30
0.0
40
0.100000
50
180.000000
51
270.000000
0
LINE
8
0
10
288.245443
20
196.570029
30
0.0
11
305.245443
21
196.570029
31
0.0
0
ARC
8
0
10
305.245443
20
196.670029
30
0.0
40
0.100000
50
270.000000
51
0.000000
0
LINE
8
0
10
305.345443
20
196.670029
30
0.0
11
305.345443
21
198.870029
31
0.0
0
ARC
8
0
10
305.545443
20
198.870029
30
0.0
40
0.200000
50
90.000000
51
180.000000
0
LINE
8
0
10
305.545443
20
199.070029
30
0.0
11
305.945443
21
199.070029
31
0.0
0
ARC
8
0
10
305.945443
20
198.870029
30
0.0
40
0.200000
50
0.000000
51
90.000000
0
LINE
8
0
10
306.145443
20
198.870029
30
0.0
11
306.145443
21
196.670029
31
0.0
0
ARC
8
0
10
306.245443
20
196.670029
30
0.0
40
0.100000
50
180.000000
51
270.000000
0
LINE
8
0
10
306.245443
20
196.570029
30
0.0
11
306.357879
21
196.570029
31
0.0
0
ARC
8
0
10
306.357879
20
197.770029
30
0.0
40
1.200000
50
270.000000
51
300.000000
0
LINE
8
0
10
306.957879
20
196.730799
30
0.0
11
308.538264
21
197.643234
31
0.0
0
ARC
8
0
10
308.638264
20
197.470029
30
0.0
40
0.200000
50
90.000000
51
120.000000
0
LINE
8
0
10
308.638264
20
197.670029
30
0.0
11
308.845443
21
197.670029
31
0.0
0
ARC
8
0
10
308.845443
20
197.270029
30
0.0
40
0.400000
50
0.000000
51
90.000000
0
LINE
8
0
10
309.245443
20
197.270029
30
0.0
11
309.245443
21
196.670029
31
0.0
0
LINE
8
0
10
309.245443
20
196.670029
30
0.0
11
309.145443
21
196.670029
31
0.0
0
LINE
8
0
10
309.145443
20
196.670029
30
0.0
11
309.145443
21
196.295029
31
0.0
0
ARC
8
0
10
308.945443
20
196.295029
30
0.0
40
0.200000
50
270.000000
51
0.000000
0
LINE
8
0
10
308.945443
20
196.095029
30
0.0
11
308.833637
21
196.095029
31
0.0
0
LINE
8
0
10
308.749089
20
196.113779
30
0.0
11
308.833637
21
196.095029
31
0.0
0
ARC
8
0
10
308.495443
20
195.570029
30
0.0
40
0.600000
50
64.992167
51
295.007833
0
LINE
8
0
10
308.833637
20
195.045029
30
0.0
11
308.749089
21
195.026279
31
0.0
0
LINE
8
0
10
308.833637
20
195.045029
30
0.0
11
308.945443
21
195.045029
31
0.0
0
ARC
8
0
10
308.945443
20
194.845029
30
0.0
40
0.200000
50
0.000000
51
90.000000
0
LINE
8
0
10
309.145443
20
194.845029
30
0.0
11
309.145443
21
194.470029
31
0.0
0
LINE
8
0
10
309.145443
20
194.470029
30
0.0
11
309.245443
21
194.470029
31
0.0
0
LINE
8
0
10
309.245443
20
194.470029
30
0.0
11
309.245443
21
193.870029
31
0.0
0
ARC
8
0
10
308.845443
20
193.870029
30
0.0
40
0.400000
50
270.000000
51
0.000000
0
LINE
8
0
10
308.845443
20
193.470029
30
0.0
11
308.638264
21
193.470029
31
0.0
0
ARC
8
0
10
308.638264
20
193.670029
30
0.0
40
0.200000
50
240.000000
51
270.000000
0
LINE
8
0
10
308.538264
20
193.496824
30
0.0
11
306.957879
21
194.409260
31
0.0
0
ARC
8
0
10
306.357879
20
193.370029
30
0.0
40
1.200000
50
60.000000
51
90.000000
0
LINE
8
0
10
306.357879
20
194.570029
30
0.0
11
287.133008
21
194.570029
31
0.0
0
ARC
8
0
10
287.133008
20
193.370029
30
0.0
40
1.200000
50
90.000000
51
120.000000
0
LINE
8
0
10
286.533008
20
194.409260
30
0.0
11
284.952623
21
193.496824
31
0.0
0
ARC
8
0
10
284.852623
20
193.670029
30
0.0
40
0.200000
50
270.000000
51
300.000000
0
LINE
8
0
10
284.852623
20
193.470029
30
0.0
11
284.645443
21
193.470029
31
0.0
0
ARC
8
0
10
284.645443
20
193.870029
30
0.0
40
0.400000
50
180.000000
51
270.000000
0
LINE
8
0
10
284.245443
20
193.870029
30
0.0
11
284.245443
21
194.470029
31
0.0
0
LINE
8
0
10
284.245443
20
194.470029
30
0.0
11
284.345443
21
194.470029
31
0.0
0
LINE
8
0
10
284.345443
20
194.470029
30
0.0
11
284.345443
21
194.845029
31
0.0
0
ARC
8
0
10
284.545443
20
194.845029
30
0.0
40
0.200000
50
90.000000
51
180.000000
0
LINE
8
0
10
284.545443
20
195.045029
30
0.0
11
284.657249
21
195.045029
31
0.0
0
LINE
8
0
10
284.741798
20
195.026279
30
0.0
11
284.657249
21
195.045029
31
0.0
0
ARC
8
0
10
284.995443
20
195.570029
30
0.0
40
0.600000
50
244.992167
51
115.007833
0
LINE
8
0
10
284.657249
20
196.095029
30
0.0
11
284.741798
21
196.113779
31
0.0
0
LINE
8
0
10
284.657249
20
196.095029
30
0.0
11
284.545443
21
196.095029
31
0.0
0
ARC
8
0
10
284.545443
20
196.295029
30
0.0
40
0.200000
50
180.000000
51
270.000000
0
LINE
8
0
10
284.345443
20
196.295029
30
0.0
11
284.345443
21
196.670029
31
0.0
0
LINE
8
0
10
284.345443
20
196.670029
30
0.0
11
284.245443
21
196.670029
31
0.0
0
LINE
8
0
10
284.245443
20
196.670029
30
0.0
11
284.245443
21
197.270029
31
0.0
0
ARC
8
0
10
284.645443
20
197.270029
30
0.0
40
0.400000
50
90.000000
51
180.000000
0
LINE
8
0
10
284.645443
20
197.670029
30
0.0
11
284.852623
21
197.670029
31
0.0
0
ARC
8
0
10
284.852623
20
197.470029
30
0.0
40
0.200000
50
60.000000
51
90.000000
0
LINE
8
0
10
284.952623
20
197.643234
30
0.0
11
286.533008
21
196.730799
31
0.0
0
ARC
8
0
10
287.133008
20
197.770029
30
0.0
40
1.200000
50
240.000000
51
270.000000
0
LINE
8
0
10
287.133008
20
196.570029
30
0.0
11
287.245443
21
196.570029
31
0.0
0
ATTDEF
8
0
10
264.695875
20
186.063767
30
0.0
40
3.5
1

3

2
FRONT_VIEW
70
0
0
ATTDEF
8
0
10
264.695875
20
186.063767
30
0.0
40
3.5
1

3

2
OPTI:500.000000,1,0,3000.000000,6500.000000,500.000000,0,0.000000,0
70
0
0
ATTDEF
8
0
10
264.695875
20
186.063767
30
0.0
40
3.5
1

3

2
GLASS_MIN:0.000000
70
0
0
ATTDEF
8
0
10
264.695875
20
186.063767
30
0.0
40
3.5
1

3

2
GLASS_MAX:0.000000
70
0
0
ATTDEF
8
0
10
331.945012
20
213.463767
30
0.0
40
3.5
1

3

2
VC_START
70
0
0
ATTDEF
8
0
10
333.845012
20
186.063767
30
0.0
40
3.5
1

3

2
VC_END
70
0
0
ATTDEF
8
0
10
334.695012
20
186.063767
30
0.0
40
3.5
1

3

2
FP_LCS_ORIG
70
0
0
ATTDEF
8
0
10
324.695012
20
186.063767
30
0.0
40
3.5
1

3

2
FP_LCS_HOT
70
0
0
ATTDEF
8
0
10
334.695012
20
196.063767
30
0.0
40
3.5
1

3

2
FP_LCS_INTERN
70
0
0
ATTDEF
8
0
10
0.000000
20
0.000000
30
0.0
40
3.5
1

3

2
TDEV5:0
70
0
0
ATTDEF
8
0
10
0.000000
20
0.000000
30
0.0
40
3.5
1

3

2
PANE_WIDTH:0
70
0
0
ATTDEF
8
0
10
0.000000
20
0.000000
30
0.0
40
3.5
1

3

2
MIN_VETRO:0
70
0
0
ATTDEF
8
0
10
0.000000
20
0.000000
30
0.0
40
3.5
1

3

2
MAX_VETRO:0
70
0
0
ATTDEF
8
0
10
0.000000
20
0.000000
30
0.0
40
3.5
1

3

2
JX:0
70
0
0
ATTDEF
8
0
10
0.000000
20
0.000000
30
0.0
40
3.5
1

3

2
WX:0
70
0
0
ATTDEF
8
0
10
0.000000
20
0.000000
30
0.0
40
3.5
1

3

2
JY:0
70
0
0
ATTDEF
8
0
10
0.000000
20
0.000000
30
0.0
40
3.5
1

3

2
WY:0
70
0
0
ATTDEF
8
0
10
0.000000
20
0.000000
30
0.0
40
3.5
1

3

2
BL01:6500, ,1
70
0
0
ATTDEF
8
0
10
0.000000
20
0.000000
30
0.0
40
3.5
1

3

2
DESC:Esquinero regulable macho
70
0
0
ATTDEF
8
0
10
0.000000
20
0.000000
30
0.0
40
3.5
1

3

2
DENS:1.545
70
0
0
ATTDEF
8
0
10
0.000000
20
0.000000
30
0.0
40
3.5
1

3

2
TDEV:51.93
70
0
0
ATTDEF
8
0
10
0.000000
20
0.000000
30
0.0
40
3.5
1

3

2
TDEV2:0
70
0
0
ATTDEF
8
0
10
0.000000
20
0.000000
30
0.0
40
3.5
1

3

2
TDEV3:0
70
0
0
ATTDEF
8
0
10
0.000000
20
0.000000
30
0.0
40
3.5
1

3

2
TDEV4:0
70
0
0
ATTDEF
8
0
10
0.000000
20
0.000000
30
0.0
40
3.5
1

3

2
TDEV5:0
70
0
0
ATTDEF
8
0
10
0.000000
20
0.000000
30
0.0
40
3.5
1

3

2
PANE_WIDTH:0
70
0
0
ATTDEF
8
0
10
0.000000
20
0.000000
30
0.0
40
3.5
1

3

2
MIN_VETRO:0
70
0
0
ATTDEF
8
0
10
0.000000
20
0.000000
30
0.0
40
3.5
1

3

2
MAX_VETRO:0
70
0
0
ATTDEF
8
0
10
0.000000
20
0.000000
30
0.0
40
3.5
1

3

2
JX:0
70
0
0
ATTDEF
8
0
10
0.000000
20
0.000000
30
0.0
40
3.5
1

3

2
WX:0
70
0
0
ATTDEF
8
0
10
0.000000
20
0.000000
30
0.0
40
3.5
1

3

2
JY:0
70
0
0
ATTDEF
8
0
10
0.000000
20
0.000000
30
0.0
40
3.5
1

3

2
WY:0
70
0
0
ATTDEF
8
0
10
0.000000
20
0.000000
30
0.0
40
3.5
1

3

2
BL01:6500, ,1
70
0
0
ENDSEC
0
EOF
