0
SECTION
2
ENTITIES
0
ARC
8
0
10
300.835257
20
310.670684
30
0.0
40
0.600000
50
0.000000
51
180.000000
0
ARC
8
0
10
300.835257
20
310.670684
30
0.0
40
0.600000
50
180.000000
51
0.000000
0
ARC
8
0
10
324.335257
20
310.670684
30
0.0
40
0.600000
50
0.000000
51
180.000000
0
ARC
8
0
10
324.335257
20
310.670684
30
0.0
40
0.600000
50
180.000000
51
0.000000
0
ARC
8
0
10
324.335257
20
299.369785
30
0.0
40
0.600000
50
0.000000
51
180.000000
0
ARC
8
0
10
324.335257
20
299.369785
30
0.0
40
0.600000
50
180.000000
51
0.000000
0
ARC
8
0
10
300.835257
20
299.369785
30
0.0
40
0.600000
50
0.000000
51
180.000000
0
ARC
8
0
10
300.835257
20
299.369785
30
0.0
40
0.600000
50
180.000000
51
0.000000
0
ARC
8
0
10
300.185257
20
300.569785
30
0.0
40
0.100000
50
180.000000
51
270.000000
0
LINE
8
0
10
300.185257
20
300.469785
30
0.0
11
300.185257
21
300.194785
31
0.0
0
ARC
8
0
10
300.485257
20
300.194785
30
0.0
40
0.300000
50
180.000000
51
285.506434
0
ARC
8
0
10
300.835257
20
299.369785
30
0.0
40
0.600000
50
243.278126
51
116.721874
0
ARC
8
0
10
300.485257
20
298.544785
30
0.0
40
0.300000
50
74.493566
51
180.000000
0
LINE
8
0
10
300.185257
20
298.544785
30
0.0
11
300.185257
21
298.269785
31
0.0
0
ARC
8
0
10
300.185257
20
298.169785
30
0.0
40
0.100000
50
90.000000
51
180.000000
0
LINE
8
0
10
300.085257
20
298.169785
30
0.0
11
300.085257
21
297.769785
31
0.0
0
ARC
8
0
10
300.485257
20
297.769785
30
0.0
40
0.400000
50
180.000000
51
270.000000
0
LINE
8
0
10
300.485257
20
297.369785
30
0.0
11
300.663459
21
297.369785
31
0.0
0
ARC
8
0
10
300.663459
20
297.669785
30
0.0
40
0.300000
50
270.000000
51
300.503167
0
LINE
8
0
10
300.815735
20
297.411305
30
0.0
11
301.991051
21
298.103707
31
0.0
0
ARC
8
0
10
302.600154
20
297.069785
30
0.0
40
1.200000
50
90.000000
51
120.503167
0
LINE
8
0
10
302.600154
20
298.269785
30
0.0
11
302.854523
21
298.269785
31
0.0
0
ARC
8
0
10
302.854523
20
297.969785
30
0.0
40
0.300000
50
32.610000
51
90.000000
0
LINE
8
0
10
303.107231
20
298.131461
30
0.0
11
304.817767
21
295.497466
31
0.0
0
ARC
8
0
10
305.237102
20
295.769785
30
0.0
40
0.500000
50
213.000000
51
270.000000
0
LINE
8
0
10
305.237102
20
295.269785
30
0.0
11
319.933412
21
295.269785
31
0.0
0
ARC
8
0
10
319.933412
20
295.769785
30
0.0
40
0.500000
50
270.000000
51
327.000000
0
LINE
8
0
10
320.352747
20
295.497466
30
0.0
11
322.063284
21
298.131461
31
0.0
0
ARC
8
0
10
322.315991
20
297.969785
30
0.0
40
0.300000
50
90.000000
51
147.390000
0
LINE
8
0
10
322.315991
20
298.269785
30
0.0
11
322.570360
21
298.269785
31
0.0
0
ARC
8
0
10
322.570360
20
297.069785
30
0.0
40
1.200000
50
59.496833
51
90.000000
0
LINE
8
0
10
323.179464
20
298.103707
30
0.0
11
324.354780
21
297.411305
31
0.0
0
ARC
8
0
10
324.507056
20
297.669785
30
0.0
40
0.300000
50
239.496833
51
270.000000
0
LINE
8
0
10
324.507056
20
297.369785
30
0.0
11
324.685257
21
297.369785
31
0.0
0
ARC
8
0
10
324.685257
20
297.769785
30
0.0
40
0.400000
50
270.000000
51
0.000000
0
LINE
8
0
10
325.085257
20
297.769785
30
0.0
11
325.085257
21
298.169785
31
0.0
0
ARC
8
0
10
324.985257
20
298.169785
30
0.0
40
0.100000
50
0.000000
51
90.000000
0
LINE
8
0
10
324.985257
20
298.269785
30
0.0
11
324.985257
21
298.544785
31
0.0
0
ARC
8
0
10
324.685257
20
298.544785
30
0.0
40
0.300000
50
0.000000
51
105.506434
0
ARC
8
0
10
324.335257
20
299.369785
30
0.0
40
0.600000
50
63.278126
51
296.721874
0
ARC
8
0
10
324.685257
20
300.194785
30
0.0
40
0.300000
50
254.493566
51
0.000000
0
LINE
8
0
10
324.985257
20
300.194785
30
0.0
11
324.985257
21
300.469785
31
0.0
0
ARC
8
0
10
324.985257
20
300.569785
30
0.0
40
0.100000
50
270.000000
51
0.000000
0
LINE
8
0
10
325.085257
20
300.569785
30
0.0
11
325.085257
21
300.969785
31
0.0
0
ARC
8
0
10
324.685257
20
300.969785
30
0.0
40
0.400000
50
0.000000
51
90.000000
0
LINE
8
0
10
324.685257
20
301.369785
30
0.0
11
324.506922
21
301.369785
31
0.0
0
ARC
8
0
10
324.506922
20
301.069785
30
0.0
40
0.300000
50
90.000000
51
120.455827
0
LINE
8
0
10
324.354860
20
301.328391
30
0.0
11
323.184537
21
300.640233
31
0.0
0
ARC
8
0
10
322.568078
20
301.669785
30
0.0
40
1.200000
50
270.000000
51
300.911655
0
LINE
8
0
10
322.568078
20
300.469785
30
0.0
11
321.848630
21
300.469785
31
0.0
0
ARC
8
0
10
321.848630
20
299.269785
30
0.0
40
1.200000
50
90.000000
51
147.000000
0
LINE
8
0
10
320.842225
20
299.923352
30
0.0
11
319.302788
21
297.552827
31
0.0
0
ARC
8
0
10
318.044782
20
298.369785
30
0.0
40
1.500000
50
270.000000
51
327.000000
0
LINE
8
0
10
318.044782
20
296.869785
30
0.0
11
315.635257
21
296.869785
31
0.0
0
ARC
8
0
10
315.635257
20
297.369785
30
0.0
40
0.500000
50
180.000000
51
270.000000
0
LINE
8
0
10
315.135257
20
297.369785
30
0.0
11
315.135257
21
311.919785
31
0.0
0
ARC
8
0
10
314.585257
20
311.919785
30
0.0
40
0.550000
50
0.000000
51
180.000000
0
LINE
8
0
10
314.035257
20
311.919785
30
0.0
11
314.035257
21
297.369785
31
0.0
0
ARC
8
0
10
313.535257
20
297.369785
30
0.0
40
0.500000
50
270.000000
51
0.000000
0
LINE
8
0
10
313.535257
20
296.869785
30
0.0
11
307.125733
21
296.869785
31
0.0
0
ARC
8
0
10
307.125733
20
298.369785
30
0.0
40
1.500000
50
213.000000
51
270.000000
0
LINE
8
0
10
305.867727
20
297.552827
30
0.0
11
304.328290
21
299.923352
31
0.0
0
ARC
8
0
10
303.321885
20
299.269785
30
0.0
40
1.200000
50
33.000000
51
90.000000
0
LINE
8
0
10
303.321885
20
300.469785
30
0.0
11
302.602437
21
300.469785
31
0.0
0
ARC
8
0
10
302.602437
20
301.669785
30
0.0
40
1.200000
50
239.088345
51
270.000000
0
LINE
8
0
10
301.985978
20
300.640233
30
0.0
11
300.815654
21
301.328391
31
0.0
0
ARC
8
0
10
300.663592
20
301.069785
30
0.0
40
0.300000
50
59.544173
51
90.000000
0
LINE
8
0
10
300.663592
20
301.369785
30
0.0
11
300.485257
21
301.369785
31
0.0
0
ARC
8
0
10
300.485257
20
300.969785
30
0.0
40
0.400000
50
90.000000
51
180.000000
0
LINE
8
0
10
300.085257
20
300.969785
30
0.0
11
300.085257
21
300.569785
31
0.0
0
ARC
8
0
10
300.835257
20
310.670684
30
0.0
40
0.600000
50
243.278126
51
116.721874
0
ARC
8
0
10
300.485257
20
311.495684
30
0.0
40
0.300000
50
180.000000
51
285.506434
0
LINE
8
0
10
300.185257
20
311.495684
30
0.0
11
300.185257
21
311.770684
31
0.0
0
ARC
8
0
10
300.185257
20
311.870684
30
0.0
40
0.100000
50
180.000000
51
270.000000
0
LINE
8
0
10
300.085257
20
311.870684
30
0.0
11
300.085257
21
312.270684
31
0.0
0
ARC
8
0
10
300.485257
20
312.270684
30
0.0
40
0.400000
50
90.000000
51
180.000000
0
LINE
8
0
10
300.485257
20
312.670684
30
0.0
11
300.663459
21
312.670684
31
0.0
0
ARC
8
0
10
300.663459
20
312.370684
30
0.0
40
0.300000
50
59.496833
51
90.000000
0
LINE
8
0
10
300.815735
20
312.629164
30
0.0
11
301.991051
21
311.936762
31
0.0
0
ARC
8
0
10
302.600154
20
312.970684
30
0.0
40
1.200000
50
239.496833
51
270.000000
0
LINE
8
0
10
302.600154
20
311.770684
30
0.0
11
302.854523
21
311.770684
31
0.0
0
ARC
8
0
10
302.854523
20
312.070684
30
0.0
40
0.300000
50
270.000000
51
327.390000
0
LINE
8
0
10
303.107231
20
311.909008
30
0.0
11
304.817767
21
314.543003
31
0.0
0
ARC
8
0
10
305.237102
20
314.270684
30
0.0
40
0.500000
50
90.000000
51
147.000000
0
LINE
8
0
10
305.237102
20
314.770684
30
0.0
11
319.933412
21
314.770684
31
0.0
0
ARC
8
0
10
319.933412
20
314.270684
30
0.0
40
0.500000
50
33.000000
51
90.000000
0
LINE
8
0
10
320.352747
20
314.543003
30
0.0
11
322.063284
21
311.909008
31
0.0
0
ARC
8
0
10
322.315991
20
312.070684
30
0.0
40
0.300000
50
212.610000
51
270.000000
0
LINE
8
0
10
322.315991
20
311.770684
30
0.0
11
322.570360
21
311.770684
31
0.0
0
ARC
8
0
10
322.570360
20
312.970684
30
0.0
40
1.200000
50
270.000000
51
300.503167
0
LINE
8
0
10
323.179464
20
311.936762
30
0.0
11
324.354780
21
312.629164
31
0.0
0
ARC
8
0
10
324.507056
20
312.370684
30
0.0
40
0.300000
50
90.000000
51
120.503167
0
LINE
8
0
10
324.507056
20
312.670684
30
0.0
11
324.685257
21
312.670684
31
0.0
0
ARC
8
0
10
324.685257
20
312.270684
30
0.0
40
0.400000
50
0.000000
51
90.000000
0
LINE
8
0
10
325.085257
20
312.270684
30
0.0
11
325.085257
21
311.870684
31
0.0
0
ARC
8
0
10
324.985257
20
311.870684
30
0.0
40
0.100000
50
270.000000
51
0.000000
0
LINE
8
0
10
324.985257
20
311.770684
30
0.0
11
324.985257
21
311.495684
31
0.0
0
ARC
8
0
10
324.685257
20
311.495684
30
0.0
40
0.300000
50
254.493566
51
0.000000
0
ARC
8
0
10
324.335257
20
310.670684
30
0.0
40
0.600000
50
63.278126
51
296.721874
0
ARC
8
0
10
324.685257
20
309.845684
30
0.0
40
0.300000
50
0.000000
51
105.506434
0
LINE
8
0
10
324.985257
20
309.845684
30
0.0
11
324.985257
21
309.570684
31
0.0
0
ARC
8
0
10
324.985257
20
309.470684
30
0.0
40
0.100000
50
0.000000
51
90.000000
0
LINE
8
0
10
325.085257
20
309.470684
30
0.0
11
325.085257
21
309.070684
31
0.0
0
ARC
8
0
10
324.685257
20
309.070684
30
0.0
40
0.400000
50
270.000000
51
0.000000
0
LINE
8
0
10
324.685257
20
308.670684
30
0.0
11
324.506922
21
308.670684
31
0.0
0
ARC
8
0
10
324.506922
20
308.970684
30
0.0
40
0.300000
50
239.544173
51
270.000000
0
LINE
8
0
10
324.354860
20
308.712078
30
0.0
11
323.184537
21
309.400236
31
0.0
0
ARC
8
0
10
322.568078
20
308.370684
30
0.0
40
1.200000
50
59.088345
51
90.000000
0
LINE
8
0
10
322.568078
20
309.570684
30
0.0
11
321.848630
21
309.570684
31
0.0
0
ARC
8
0
10
321.848630
20
310.770684
30
0.0
40
1.200000
50
213.000000
51
270.000000
0
LINE
8
0
10
320.842225
20
310.117117
30
0.0
11
319.302788
21
312.487642
31
0.0
0
ARC
8
0
10
318.044782
20
311.670684
30
0.0
40
1.500000
50
33.000000
51
90.000000
0
LINE
8
0
10
318.044782
20
313.170684
30
0.0
11
311.635257
21
313.170684
31
0.0
0
ARC
8
0
10
311.635257
20
312.670684
30
0.0
40
0.500000
50
90.000000
51
180.000000
0
LINE
8
0
10
311.135257
20
312.670684
30
0.0
11
311.135257
21
298.120684
31
0.0
0
ARC
8
0
10
310.585257
20
298.120684
30
0.0
40
0.550000
50
180.000000
51
0.000000
0
LINE
8
0
10
310.035257
20
298.120684
30
0.0
11
310.035257
21
312.670684
31
0.0
0
ARC
8
0
10
309.535257
20
312.670684
30
0.0
40
0.500000
50
0.000000
51
90.000000
0
LINE
8
0
10
309.535257
20
313.170684
30
0.0
11
307.125733
21
313.170684
31
0.0
0
ARC
8
0
10
307.125733
20
311.670684
30
0.0
40
1.500000
50
90.000000
51
147.000000
0
LINE
8
0
10
305.867727
20
312.487642
30
0.0
11
304.328290
21
310.117117
31
0.0
0
ARC
8
0
10
303.321885
20
310.770684
30
0.0
40
1.200000
50
270.000000
51
327.000000
0
LINE
8
0
10
303.321885
20
309.570684
30
0.0
11
302.602437
21
309.570684
31
0.0
0
ARC
8
0
10
302.602437
20
308.370684
30
0.0
40
1.200000
50
90.000000
51
120.911655
0
LINE
8
0
10
301.985978
20
309.400236
30
0.0
11
300.815654
21
308.712078
31
0.0
0
ARC
8
0
10
300.663592
20
308.970684
30
0.0
40
0.300000
50
270.000000
51
300.455827
0
LINE
8
0
10
300.663592
20
308.670684
30
0.0
11
300.485257
21
308.670684
31
0.0
0
ARC
8
0
10
300.485257
20
309.070684
30
0.0
40
0.400000
50
180.000000
51
270.000000
0
LINE
8
0
10
300.085257
20
309.070684
30
0.0
11
300.085257
21
309.470684
31
0.0
0
ARC
8
0
10
300.185257
20
309.470684
30
0.0
40
0.100000
50
90.000000
51
180.000000
0
LINE
8
0
10
300.185257
20
309.570684
30
0.0
11
300.185257
21
309.845684
31
0.0
0
ARC
8
0
10
300.485257
20
309.845684
30
0.0
40
0.300000
50
74.493566
51
180.000000
0
ARC
8
0
10
301.781007
20
314.840961
30
0.0
40
1.000000
50
239.490937
51
329.907609
0
LINE
8
0
10
302.646558
20
314.339372
30
0.0
11
303.006755
21
314.824025
31
0.0
0
LINE
8
0
10
303.006755
20
314.824025
30
0.0
11
303.058768
21
315.032639
31
0.0
0
LINE
8
0
10
303.058768
20
315.032639
30
0.0
11
304.111682
21
315.057935
31
0.0
0
ARC
8
0
10
304.124004
20
314.758144
30
0.0
40
0.300000
50
344.748585
51
90.000000
0
LINE
8
0
10
304.413438
20
314.679228
30
0.0
11
302.455400
21
311.856315
31
0.0
0
ARC
8
0
10
302.287741
20
311.965360
30
0.0
40
0.200000
50
145.950408
51
326.960191
0
LINE
8
0
10
302.122031
20
312.077342
30
0.0
11
300.522700
21
313.159011
31
0.0
0
ARC
8
0
10
300.254942
20
313.294310
30
0.0
40
0.300000
50
333.192367
51
76.000000
0
LINE
8
0
10
300.327519
20
313.585399
30
0.0
11
300.063612
21
313.651198
31
0.0
0
ARC
8
0
10
300.085257
20
313.351980
30
0.0
40
0.300000
50
94.137597
51
270.000000
0
LINE
8
0
10
300.085257
20
313.051980
30
0.0
11
300.085257
21
308.551980
31
0.0
0
ARC
8
0
10
300.285257
20
308.551980
30
0.0
40
0.200000
50
180.000000
51
300.000000
0
LINE
8
0
10
300.385257
20
308.378775
30
0.0
11
302.185354
21
309.418061
31
0.0
0
ARC
8
0
10
302.385257
20
309.424284
30
0.0
40
0.200000
50
0.000000
51
180.000000
0
LINE
8
0
10
302.585257
20
309.424284
30
0.0
11
302.585257
21
308.032365
31
0.0
0
ARC
8
0
10
302.385257
20
308.032365
30
0.0
40
0.200000
50
300.000000
51
0.000000
0
LINE
8
0
10
302.485257
20
307.859160
30
0.0
11
300.435257
21
306.675592
31
0.0
0
ARC
8
0
10
300.785257
20
306.069374
30
0.0
40
0.700000
50
120.000000
51
180.000000
0
LINE
8
0
10
300.085257
20
306.069374
30
0.0
11
300.085257
21
303.978247
31
0.0
0
ARC
8
0
10
300.785257
20
303.978247
30
0.0
40
0.700000
50
180.000000
51
240.000000
0
LINE
8
0
10
300.435257
20
303.372029
30
0.0
11
302.485257
21
302.188461
31
0.0
0
ARC
8
0
10
302.385257
20
302.015256
30
0.0
40
0.200000
50
0.000000
51
60.000000
0
LINE
8
0
10
302.585257
20
302.015256
30
0.0
11
302.585257
21
300.623337
31
0.0
0
ARC
8
0
10
302.385257
20
300.623337
30
0.0
40
0.200000
50
180.000000
51
0.000000
0
LINE
8
0
10
302.185354
20
300.629559
30
0.0
11
300.385257
21
301.668845
31
0.0
0
ARC
8
0
10
300.285257
20
301.495640
30
0.0
40
0.200000
50
60.000000
51
180.000000
0
LINE
8
0
10
300.085257
20
301.495640
30
0.0
11
300.085257
21
296.995640
31
0.0
0
ARC
8
0
10
300.085257
20
296.695640
30
0.0
40
0.300000
50
90.000000
51
265.862403
0
LINE
8
0
10
300.063612
20
296.396422
30
0.0
11
300.327519
21
296.462222
31
0.0
0
ARC
8
0
10
300.254942
20
296.753310
30
0.0
40
0.300000
50
284.000000
51
26.807633
0
LINE
8
0
10
300.522700
20
296.888609
30
0.0
11
302.122031
21
297.970279
31
0.0
0
ARC
8
0
10
302.287741
20
298.082261
30
0.0
40
0.200000
50
33.039809
51
214.049592
0
LINE
8
0
10
302.455400
20
298.191305
30
0.0
11
304.413438
21
295.368393
31
0.0
0
ARC
8
0
10
304.124004
20
295.289476
30
0.0
40
0.300000
50
270.000000
51
15.251415
0
LINE
8
0
10
304.111682
20
294.989685
30
0.0
11
303.058768
21
295.014981
31
0.0
0
LINE
8
0
10
303.058768
20
295.014981
30
0.0
11
303.006755
21
295.223595
31
0.0
0
LINE
8
0
10
303.006755
20
295.223595
30
0.0
11
302.646558
21
295.708248
31
0.0
0
ARC
8
0
10
301.781007
20
295.206659
30
0.0
40
1.000000
50
30.092391
51
120.509063
0
LINE
8
0
10
301.273628
20
296.067706
30
0.0
11
300.573182
21
295.593588
31
0.0
0
ARC
8
0
10
300.996406
20
294.737359
30
0.0
40
0.955115
50
116.302613
51
162.547655
0
LINE
8
0
10
300.085257
20
295.023810
30
0.0
11
296.985257
21
295.023810
31
0.0
0
LINE
8
0
10
296.985257
20
295.023810
30
0.0
11
296.359834
21
293.602949
31
0.0
0
ARC
8
0
10
296.085257
20
293.723810
30
0.0
40
0.300000
50
270.000000
51
336.242263
0
LINE
8
0
10
296.085257
20
293.423810
30
0.0
11
295.785257
21
293.423810
31
0.0
0
LINE
8
0
10
295.785257
20
293.423810
30
0.0
11
295.785257
21
295.023810
31
0.0
0
LINE
8
0
10
295.785257
20
295.023810
30
0.0
11
279.285257
21
295.023810
31
0.0
0
LINE
8
0
10
279.285257
20
295.023810
30
0.0
11
279.285257
21
292.145131
31
0.0
0
LINE
8
0
10
279.285257
20
292.145131
30
0.0
11
279.906578
21
291.523810
31
0.0
0
LINE
8
0
10
279.906578
20
291.523810
30
0.0
11
281.785257
21
291.523810
31
0.0
0
LINE
8
0
10
281.785257
20
291.523810
30
0.0
11
281.785257
21
291.230917
31
0.0
0
ARC
8
0
10
281.285257
20
291.230917
30
0.0
40
0.500000
50
315.000000
51
0.000000
0
LINE
8
0
10
281.638811
20
290.877364
30
0.0
11
280.931704
21
290.170257
31
0.0
0
ARC
8
0
10
280.578151
20
290.523810
30
0.0
40
0.500000
50
270.000000
51
315.000000
0
LINE
8
0
10
280.578151
20
290.023810
30
0.0
11
279.409521
21
290.023810
31
0.0
0
ARC
8
0
10
279.409521
20
290.323810
30
0.0
40
0.300000
50
225.000000
51
270.000000
0
LINE
8
0
10
279.197389
20
290.111678
30
0.0
11
277.873125
21
291.435942
31
0.0
0
ARC
8
0
10
278.085257
20
291.648074
30
0.0
40
0.300000
50
180.000000
51
225.000000
0
LINE
8
0
10
277.785257
20
291.648074
30
0.0
11
277.785257
21
313.523810
31
0.0
0
LINE
8
0
10
277.785257
20
313.523810
30
0.0
11
267.312052
21
313.523810
31
0.0
0
ARC
8
0
10
267.312052
20
314.023810
30
0.0
40
0.500000
50
240.000000
51
270.000000
0
LINE
8
0
10
267.062052
20
313.590798
30
0.0
11
262.135257
21
316.435284
31
0.0
0
ARC
8
0
10
262.385257
20
316.868297
30
0.0
40
0.500000
50
180.000000
51
240.000000
0
LINE
8
0
10
261.885257
20
316.868297
30
0.0
11
261.885257
21
325.523810
31
0.0
0
ARC
8
0
10
262.385257
20
325.523810
30
0.0
40
0.500000
50
90.000000
51
180.000000
0
LINE
8
0
10
262.385257
20
326.023810
30
0.0
11
262.885257
21
326.023810
31
0.0
0
ARC
8
0
10
262.885257
20
325.523810
30
0.0
40
0.500000
50
0.000000
51
90.000000
0
LINE
8
0
10
263.385257
20
325.523810
30
0.0
11
263.385257
21
317.445647
31
0.0
0
LINE
8
0
10
263.385257
20
317.445647
30
0.0
11
267.580001
21
315.023810
31
0.0
0
LINE
8
0
10
267.580001
20
315.023810
30
0.0
11
277.785257
21
315.023810
31
0.0
0
LINE
8
0
10
277.785257
20
315.023810
30
0.0
11
277.785257
21
319.523810
31
0.0
0
ARC
8
0
10
278.285257
20
319.523810
30
0.0
40
0.500000
50
90.000000
51
180.000000
0
LINE
8
0
10
278.285257
20
320.023810
30
0.0
11
281.985257
21
320.023810
31
0.0
0
LINE
8
0
10
281.985257
20
320.023810
30
0.0
11
281.985257
21
324.223810
31
0.0
0
ARC
8
0
10
282.485257
20
324.223810
30
0.0
40
0.500000
50
90.000000
51
180.000000
0
LINE
8
0
10
282.485257
20
324.723810
30
0.0
11
282.985257
21
324.723810
31
0.0
0
ARC
8
0
10
282.985257
20
324.223810
30
0.0
40
0.500000
50
0.000000
51
90.000000
0
LINE
8
0
10
283.485257
20
324.223810
30
0.0
11
283.485257
21
319.023810
31
0.0
0
ARC
8
0
10
282.985257
20
319.023810
30
0.0
40
0.500000
50
270.000000
51
0.000000
0
LINE
8
0
10
282.985257
20
318.523810
30
0.0
11
279.285257
21
318.523810
31
0.0
0
LINE
8
0
10
279.285257
20
318.523810
30
0.0
11
279.285257
21
315.023810
31
0.0
0
LINE
8
0
10
279.285257
20
315.023810
30
0.0
11
300.085257
21
315.023810
31
0.0
0
ARC
8
0
10
301.503882
20
315.744835
30
0.0
40
1.591343
50
206.942233
51
234.207498
0
LINE
8
0
10
300.573182
20
314.454032
30
0.0
11
301.273628
21
313.979914
31
0.0
0
LINE
8
0
10
279.285257
20
313.523810
30
0.0
11
298.585257
21
313.523810
31
0.0
0
LINE
8
0
10
298.585257
20
313.523810
30
0.0
11
298.585257
21
296.523810
31
0.0
0
LINE
8
0
10
298.585257
20
296.523810
30
0.0
11
279.285257
21
296.523810
31
0.0
0
LINE
8
0
10
279.285257
20
296.523810
30
0.0
11
279.285257
21
313.523810
31
0.0
0
LINE
8
0
10
326.585257
20
309.216124
30
0.0
11
336.285257
21
308.519952
31
0.0
0
LINE
8
0
10
336.285257
20
308.519952
30
0.0
11
336.285257
21
296.523810
31
0.0
0
LINE
8
0
10
336.285257
20
296.523810
30
0.0
11
326.585257
21
296.523810
31
0.0
0
LINE
8
0
10
326.585257
20
296.523810
30
0.0
11
326.585257
21
309.216124
31
0.0
0
ARC
8
0
10
324.385257
20
305.987215
30
0.0
40
0.700000
50
0.000000
51
58.619868
0
LINE
8
0
10
324.749757
20
306.584827
30
0.0
11
322.681115
21
307.846547
31
0.0
0
ARC
8
0
10
322.785257
20
308.017293
30
0.0
40
0.200000
50
180.000000
51
238.619868
0
LINE
8
0
10
322.585257
20
308.017293
30
0.0
11
322.585257
21
309.424284
31
0.0
0
ARC
8
0
10
322.785257
20
309.424284
30
0.0
40
0.200000
50
0.000000
51
180.000000
0
LINE
8
0
10
322.985161
20
309.418094
30
0.0
11
324.661154
21
308.395861
31
0.0
0
ARC
8
0
10
324.817369
20
308.651980
30
0.0
40
0.300000
50
238.619868
51
270.000000
0
LINE
8
0
10
324.817369
20
308.351980
30
0.0
11
324.885257
21
308.351980
31
0.0
0
ARC
8
0
10
324.885257
20
308.551980
30
0.0
40
0.200000
50
270.000000
51
0.000000
0
LINE
8
0
10
325.085257
20
308.551980
30
0.0
11
325.085257
21
313.051980
31
0.0
0
ARC
8
0
10
325.085257
20
313.351980
30
0.0
40
0.300000
50
270.000000
51
108.658900
0
LINE
8
0
10
324.989277
20
313.636212
30
0.0
11
324.705045
21
313.540232
31
0.0
0
ARC
8
0
10
324.801025
20
313.256000
30
0.0
40
0.300000
50
108.658900
51
130.482877
0
LINE
8
0
10
324.606259
20
313.484180
30
0.0
11
323.002057
21
312.114891
31
0.0
0
ARC
8
0
10
323.131901
20
311.962771
30
0.0
40
0.200000
50
130.482877
51
183.658900
0
LINE
8
0
10
322.932309
20
311.950008
30
0.0
11
322.942237
21
311.794743
31
0.0
0
ARC
8
0
10
322.796914
20
311.785450
30
0.0
40
0.145621
50
223.978161
51
0.000000
0
LINE
8
0
10
322.692124
20
311.684333
30
0.0
11
322.231957
21
312.161214
31
0.0
0
LINE
8
0
10
322.189343
20
312.217279
30
0.0
11
322.231957
21
312.161214
31
0.0
0
LINE
8
0
10
322.189343
20
312.217279
30
0.0
11
320.765639
21
314.634477
31
0.0
0
ARC
8
0
10
321.024134
20
314.786728
30
0.0
40
0.300000
50
90.000000
51
210.497622
0
LINE
8
0
10
321.024134
20
315.086728
30
0.0
11
321.712931
21
315.086728
31
0.0
0
ARC
8
0
10
321.712931
20
314.586728
30
0.0
40
0.500000
50
46.465725
51
90.000000
0
ARC
8
0
10
323.434902
20
316.399134
30
0.0
40
2.000000
50
226.465725
51
314.270153
0
ARC
8
0
10
324.970595
20
314.823810
30
0.0
40
0.200000
50
90.000000
51
134.270153
0
LINE
8
0
10
324.970595
20
315.023810
30
0.0
11
326.085257
21
315.023810
31
0.0
0
ARC
8
0
10
326.085257
20
314.523810
30
0.0
40
0.500000
50
0.000000
51
90.000000
0
LINE
8
0
10
326.585257
20
314.523810
30
0.0
11
326.585257
21
311.185383
31
0.0
0
ARC
8
0
10
327.085257
20
311.185383
30
0.0
40
0.500000
50
180.000000
51
265.894901
0
LINE
8
0
10
327.049464
20
310.686666
30
0.0
11
336.285257
21
310.023810
31
0.0
0
LINE
8
0
10
336.285257
20
310.023810
30
0.0
11
336.285257
21
317.902490
31
0.0
0
LINE
8
0
10
336.285257
20
317.902490
30
0.0
11
335.663937
21
318.523810
31
0.0
0
LINE
8
0
10
335.663937
20
318.523810
30
0.0
11
332.585257
21
318.523810
31
0.0
0
ARC
8
0
10
332.585257
20
319.023810
30
0.0
40
0.500000
50
180.000000
51
270.000000
0
LINE
8
0
10
332.085257
20
319.023810
30
0.0
11
332.085257
21
324.223810
31
0.0
0
ARC
8
0
10
332.585257
20
324.223810
30
0.0
40
0.500000
50
90.000000
51
180.000000
0
LINE
8
0
10
332.585257
20
324.723810
30
0.0
11
333.085257
21
324.723810
31
0.0
0
ARC
8
0
10
333.085257
20
324.223810
30
0.0
40
0.500000
50
0.000000
51
90.000000
0
LINE
8
0
10
333.585257
20
324.223810
30
0.0
11
333.585257
21
320.023810
31
0.0
0
LINE
8
0
10
333.585257
20
320.023810
30
0.0
11
336.160993
21
320.023810
31
0.0
0
ARC
8
0
10
336.160993
20
319.723810
30
0.0
40
0.300000
50
45.000000
51
90.000000
0
LINE
8
0
10
336.373125
20
319.935942
30
0.0
11
337.697389
21
318.611678
31
0.0
0
ARC
8
0
10
337.485257
20
318.399546
30
0.0
40
0.300000
50
0.000000
51
45.000000
0
LINE
8
0
10
337.785257
20
318.399546
30
0.0
11
337.785257
21
291.648074
31
0.0
0
ARC
8
0
10
337.485257
20
291.648074
30
0.0
40
0.300000
50
315.000000
51
0.000000
0
LINE
8
0
10
337.697389
20
291.435942
30
0.0
11
336.373125
21
290.111678
31
0.0
0
ARC
8
0
10
336.160993
20
290.323810
30
0.0
40
0.300000
50
270.000000
51
315.000000
0
LINE
8
0
10
336.160993
20
290.023810
30
0.0
11
334.992364
21
290.023810
31
0.0
0
ARC
8
0
10
334.992364
20
290.523810
30
0.0
40
0.500000
50
225.000000
51
270.000000
0
LINE
8
0
10
334.638811
20
290.170257
30
0.0
11
333.931704
21
290.877364
31
0.0
0
ARC
8
0
10
334.285257
20
291.230917
30
0.0
40
0.500000
50
180.000000
51
225.000000
0
LINE
8
0
10
333.785257
20
291.230917
30
0.0
11
333.785257
21
291.523810
31
0.0
0
LINE
8
0
10
333.785257
20
291.523810
30
0.0
11
335.663937
21
291.523810
31
0.0
0
LINE
8
0
10
335.663937
20
291.523810
30
0.0
11
336.285257
21
292.145131
31
0.0
0
LINE
8
0
10
336.285257
20
292.145131
30
0.0
11
336.285257
21
295.023810
31
0.0
0
LINE
8
0
10
336.285257
20
295.023810
30
0.0
11
326.285257
21
295.023810
31
0.0
0
LINE
8
0
10
326.285257
20
295.023810
30
0.0
11
326.285257
21
293.423810
31
0.0
0
LINE
8
0
10
326.285257
20
293.423810
30
0.0
11
325.985257
21
293.423810
31
0.0
0
ARC
8
0
10
325.985257
20
293.723810
30
0.0
40
0.300000
50
203.757737
51
270.000000
0
LINE
8
0
10
325.710680
20
293.602949
30
0.0
11
324.988600
21
294.883883
31
0.0
0
ARC
8
0
10
324.335257
20
294.515584
30
0.0
40
0.750000
50
29.410571
51
43.922027
0
ARC
8
0
10
323.434902
20
293.648486
30
0.0
40
2.000000
50
43.922027
51
133.534275
0
ARC
8
0
10
321.712931
20
295.460892
30
0.0
40
0.500000
50
270.000000
51
313.534275
0
LINE
8
0
10
321.712931
20
294.960892
30
0.0
11
321.024134
21
294.960892
31
0.0
0
ARC
8
0
10
321.024134
20
295.260892
30
0.0
40
0.300000
50
149.502378
51
270.000000
0
LINE
8
0
10
320.765639
20
295.413143
30
0.0
11
322.189343
21
297.830342
31
0.0
0
LINE
8
0
10
322.231957
20
297.886406
30
0.0
11
322.189343
21
297.830342
31
0.0
0
LINE
8
0
10
322.231957
20
297.886406
30
0.0
11
322.692124
21
298.363287
31
0.0
0
ARC
8
0
10
322.796914
20
298.262171
30
0.0
40
0.145621
50
0.000000
51
136.021839
0
LINE
8
0
10
322.942237
20
298.252878
30
0.0
11
322.932309
21
298.097613
31
0.0
0
ARC
8
0
10
323.131901
20
298.084850
30
0.0
40
0.200000
50
176.341100
51
229.517123
0
LINE
8
0
10
323.002057
20
297.932730
30
0.0
11
324.606259
21
296.563440
31
0.0
0
ARC
8
0
10
324.801025
20
296.791620
30
0.0
40
0.300000
50
229.517123
51
251.341100
0
LINE
8
0
10
324.705045
20
296.507388
30
0.0
11
324.989277
21
296.411408
31
0.0
0
ARC
8
0
10
325.085257
20
296.695640
30
0.0
40
0.300000
50
251.341100
51
90.000000
0
LINE
8
0
10
325.085257
20
296.995640
30
0.0
11
325.085257
21
301.495640
31
0.0
0
ARC
8
0
10
324.885257
20
301.495640
30
0.0
40
0.200000
50
0.000000
51
90.000000
0
LINE
8
0
10
324.885257
20
301.695640
30
0.0
11
324.817369
21
301.695640
31
0.0
0
ARC
8
0
10
324.817369
20
301.395640
30
0.0
40
0.300000
50
90.000000
51
121.380132
0
LINE
8
0
10
324.661154
20
301.651760
30
0.0
11
322.985161
21
300.629527
31
0.0
0
ARC
8
0
10
322.785257
20
300.623337
30
0.0
40
0.200000
50
180.000000
51
0.000000
0
LINE
8
0
10
322.585257
20
300.623337
30
0.0
11
322.585257
21
302.030327
31
0.0
0
ARC
8
0
10
322.785257
20
302.030327
30
0.0
40
0.200000
50
121.380132
51
180.000000
0
LINE
8
0
10
322.681115
20
302.201073
30
0.0
11
324.749757
21
303.462794
31
0.0
0
ARC
8
0
10
324.385257
20
304.060406
30
0.0
40
0.700000
50
301.380132
51
0.000000
0
LINE
8
0
10
325.085257
20
304.060406
30
0.0
11
325.085257
21
305.987215
31
0.0
0
LINE
8
0
10
300.194903
20
311.420223
30
0.0
11
301.185820
21
312.411140
31
0.0
0
LINE
8
0
10
300.085290
20
309.065546
30
0.0
11
302.790428
21
311.770684
31
0.0
0
LINE
8
0
10
303.437830
20
312.418086
30
0.0
11
305.790428
21
314.770684
31
0.0
0
LINE
8
0
10
302.835492
20
309.570684
30
0.0
11
308.035492
21
314.770684
31
0.0
0
LINE
8
0
10
308.680556
20
313.170684
30
0.0
11
310.280556
21
314.770684
31
0.0
0
LINE
8
0
10
310.035257
20
312.280321
30
0.0
11
312.525620
21
314.770684
31
0.0
0
LINE
8
0
10
310.035257
20
310.035257
30
0.0
11
311.135257
21
311.135257
31
0.0
0
LINE
8
0
10
313.170684
20
313.170684
30
0.0
11
314.770684
21
314.770684
31
0.0
0
LINE
8
0
10
310.035257
20
307.790193
30
0.0
11
311.135257
21
308.890193
31
0.0
0
LINE
8
0
10
315.415748
20
313.170684
30
0.0
11
317.015748
21
314.770684
31
0.0
0
LINE
8
0
10
310.035257
20
305.545129
30
0.0
11
311.135257
21
306.645129
31
0.0
0
LINE
8
0
10
317.660812
20
313.170684
30
0.0
11
319.260812
21
314.770684
31
0.0
0
LINE
8
0
10
310.035257
20
303.300065
30
0.0
11
311.135257
21
304.400065
31
0.0
0
LINE
8
0
10
319.270510
20
312.535318
30
0.0
11
320.717116
21
313.981924
31
0.0
0
LINE
8
0
10
310.035257
20
301.055001
30
0.0
11
311.135257
21
302.155001
31
0.0
0
LINE
8
0
10
320.155239
20
311.174983
30
0.0
11
321.601047
21
312.620791
31
0.0
0
LINE
8
0
10
310.035257
20
298.809937
30
0.0
11
311.135257
21
299.909937
31
0.0
0
LINE
8
0
10
321.076994
20
309.851674
30
0.0
11
323.139624
21
311.914303
31
0.0
0
LINE
8
0
10
322.971296
20
309.500912
30
0.0
11
323.825158
21
310.354774
31
0.0
0
LINE
8
0
10
324.666646
20
311.196262
30
0.0
11
324.985257
21
311.514873
31
0.0
0
LINE
8
0
10
324.404249
20
308.688801
30
0.0
11
325.085257
21
309.369809
31
0.0
0
LINE
8
0
10
310.798604
20
297.613749
30
0.0
11
310.035257
21
298.377095
31
0.0
0
LINE
8
0
10
311.135257
20
299.522159
30
0.0
11
310.035257
21
300.622159
31
0.0
0
LINE
8
0
10
301.527039
20
309.130377
30
0.0
11
300.513020
21
310.144396
31
0.0
0
LINE
8
0
10
311.135257
20
301.767223
30
0.0
11
310.035257
21
302.867223
31
0.0
0
LINE
8
0
10
303.331756
20
309.570724
30
0.0
11
300.285339
21
312.617141
31
0.0
0
LINE
8
0
10
311.135257
20
304.012287
30
0.0
11
310.035257
21
305.112287
31
0.0
0
LINE
8
0
10
304.604736
20
310.542808
30
0.0
11
303.158929
21
311.988616
31
0.0
0
LINE
8
0
10
311.135257
20
306.257351
30
0.0
11
310.035257
21
307.357351
31
0.0
0
LINE
8
0
10
305.488667
20
311.903941
30
0.0
11
304.042859
21
313.349749
31
0.0
0
LINE
8
0
10
311.135257
20
308.502415
30
0.0
11
310.035257
21
309.602415
31
0.0
0
LINE
8
0
10
306.572671
20
313.065002
30
0.0
11
304.954508
21
314.683164
31
0.0
0
LINE
8
0
10
311.135257
20
310.747479
30
0.0
11
310.035257
21
311.847479
31
0.0
0
LINE
8
0
10
308.712053
20
313.170684
30
0.0
11
307.112053
21
314.770684
31
0.0
0
LINE
8
0
10
311.204037
20
312.923763
30
0.0
11
309.357117
21
314.770684
31
0.0
0
LINE
8
0
10
313.202181
20
313.170684
30
0.0
11
311.602181
21
314.770684
31
0.0
0
LINE
8
0
10
315.447245
20
313.170684
30
0.0
11
313.847245
21
314.770684
31
0.0
0
LINE
8
0
10
317.692309
20
313.170684
30
0.0
11
316.092309
21
314.770684
31
0.0
0
LINE
8
0
10
324.426351
20
308.681706
30
0.0
11
318.337373
21
314.770684
31
0.0
0
LINE
8
0
10
324.121721
20
311.231400
30
0.0
11
323.328536
21
312.024584
31
0.0
0
LINE
8
0
10
300.185404
20
300.185404
30
0.0
11
301.138535
21
301.138535
31
0.0
0
LINE
8
0
10
300.085257
20
297.840193
30
0.0
11
301.057545
21
298.812481
31
0.0
0
LINE
8
0
10
314.035257
20
311.790193
30
0.0
11
314.702260
21
312.457196
31
0.0
0
LINE
8
0
10
301.392562
20
299.147498
30
0.0
11
302.714849
21
300.469785
31
0.0
0
LINE
8
0
10
302.759913
20
298.269785
30
0.0
11
304.361831
21
299.871703
31
0.0
0
LINE
8
0
10
314.035257
20
309.545129
30
0.0
11
315.135257
21
310.645129
31
0.0
0
LINE
8
0
10
303.799953
20
297.064761
30
0.0
11
305.245761
21
298.510569
31
0.0
0
LINE
8
0
10
314.035257
20
307.300065
30
0.0
11
315.135257
21
308.400065
31
0.0
0
LINE
8
0
10
304.683884
20
295.703628
30
0.0
11
306.183173
21
297.202917
31
0.0
0
LINE
8
0
10
314.035257
20
305.055001
30
0.0
11
315.135257
21
306.155001
31
0.0
0
LINE
8
0
10
306.495105
20
295.269785
30
0.0
11
308.095105
21
296.869785
31
0.0
0
LINE
8
0
10
314.035257
20
302.809937
30
0.0
11
315.135257
21
303.909937
31
0.0
0
LINE
8
0
10
308.740169
20
295.269785
30
0.0
11
310.340169
21
296.869785
31
0.0
0
LINE
8
0
10
314.035257
20
300.564873
30
0.0
11
315.135257
21
301.664873
31
0.0
0
LINE
8
0
10
310.985233
20
295.269785
30
0.0
11
312.585233
21
296.869785
31
0.0
0
LINE
8
0
10
314.035257
20
298.319809
30
0.0
11
315.135257
21
299.419809
31
0.0
0
LINE
8
0
10
313.230297
20
295.269785
30
0.0
11
315.163795
21
297.203283
31
0.0
0
LINE
8
0
10
315.475362
20
295.269785
30
0.0
11
317.075362
21
296.869785
31
0.0
0
LINE
8
0
10
317.720426
20
295.269785
30
0.0
11
323.001390
21
300.550750
31
0.0
0
LINE
8
0
10
319.966592
20
295.270887
30
0.0
11
320.648335
21
295.952631
31
0.0
0
LINE
8
0
10
324.602625
20
299.906921
30
0.0
11
324.985257
21
300.289553
31
0.0
0
LINE
8
0
10
322.914950
20
298.219245
30
0.0
11
323.798122
21
299.102418
31
0.0
0
LINE
8
0
10
324.353077
20
297.412308
30
0.0
11
325.085257
21
298.144489
31
0.0
0
LINE
8
0
10
301.574052
20
297.858044
30
0.0
11
300.623822
21
298.808274
31
0.0
0
LINE
8
0
10
306.407375
20
295.269785
30
0.0
11
300.336189
21
301.340971
31
0.0
0
LINE
8
0
10
308.652439
20
295.269785
30
0.0
11
307.050554
21
296.871670
31
0.0
0
LINE
8
0
10
304.938475
20
298.983750
30
0.0
11
303.460468
21
300.461756
31
0.0
0
LINE
8
0
10
310.897503
20
295.269785
30
0.0
11
309.297503
21
296.869785
31
0.0
0
LINE
8
0
10
313.142567
20
295.269785
30
0.0
11
311.542567
21
296.869785
31
0.0
0
LINE
8
0
10
315.387631
20
295.269785
30
0.0
11
313.742609
21
296.914807
31
0.0
0
LINE
8
0
10
317.632695
20
295.269785
30
0.0
11
316.032695
21
296.869785
31
0.0
0
LINE
8
0
10
315.135257
20
297.767223
30
0.0
11
314.035257
21
298.867223
31
0.0
0
LINE
8
0
10
319.877759
20
295.269785
30
0.0
11
318.261954
21
296.885590
31
0.0
0
LINE
8
0
10
315.135257
20
300.012287
30
0.0
11
314.035257
21
301.112287
31
0.0
0
LINE
8
0
10
320.960022
20
296.432586
30
0.0
11
319.514214
21
297.878394
31
0.0
0
LINE
8
0
10
315.135257
20
302.257351
30
0.0
11
314.035257
21
303.357351
31
0.0
0
LINE
8
0
10
321.843952
20
297.793720
30
0.0
11
320.398144
21
299.239528
31
0.0
0
LINE
8
0
10
315.135257
20
304.502415
30
0.0
11
314.035257
21
305.602415
31
0.0
0
LINE
8
0
10
324.512951
20
297.369785
30
0.0
11
321.473193
21
300.409543
31
0.0
0
LINE
8
0
10
315.135257
20
306.747479
30
0.0
11
314.035257
21
307.847479
31
0.0
0
LINE
8
0
10
324.178779
20
299.949021
30
0.0
11
323.375361
21
300.752439
31
0.0
0
LINE
8
0
10
315.135257
20
308.992543
30
0.0
11
314.035257
21
310.092543
31
0.0
0
LINE
8
0
10
315.135257
20
311.237607
30
0.0
11
314.135916
21
312.236948
31
0.0
0
ATTDEF
8
0
10
337.785257
20
290.023810
30
0.0
40
3.5
1

3

2
FRONT_VIEW
70
0
0
ATTDEF
8
0
10
337.785257
20
290.023810
30
0.0
40
3.5
1

3

2
OPTI:500.000000,1,0,3000.000000,6500.000000,500.000000,0,0.000000,0
70
0
0
ATTDEF
8
0
10
337.785257
20
290.023810
30
0.0
40
3.5
1

3

2
GLASS_MIN:0.000000
70
0
0
ATTDEF
8
0
10
337.785257
20
290.023810
30
0.0
40
3.5
1

3

2
GLASS_MAX:0.000000
70
0
0
ATTDEF
8
0
10
280.135257
20
320.023810
30
0.0
40
3.5
1

3

2
VC_START
70
0
0
ATTDEF
8
0
10
279.993836
20
290.023810
30
0.0
40
3.5
1

3

2
VC_END
70
0
0
ATTDEF
8
0
10
261.885257
20
290.023810
30
0.0
40
3.5
1

3

2
FP_LCS_ORIG
70
0
0
ATTDEF
8
0
10
271.885257
20
290.023810
30
0.0
40
3.5
1

3

2
FP_LCS_HOT
70
0
0
ATTDEF
8
0
10
261.885257
20
300.023810
30
0.0
40
3.5
1

3

2
FP_LCS_INTERN
70
0
0
ATTDEF
8
0
10
0.000000
20
0.000000
30
0.0
40
3.5
1

3

2
TDEV5:0
70
0
0
ATTDEF
8
0
10
0.000000
20
0.000000
30
0.0
40
3.5
1

3

2
PANE_WIDTH:0
70
0
0
ATTDEF
8
0
10
0.000000
20
0.000000
30
0.0
40
3.5
1

3

2
MIN_VETRO:0
70
0
0
ATTDEF
8
0
10
0.000000
20
0.000000
30
0.0
40
3.5
1

3

2
MAX_VETRO:0
70
0
0
ATTDEF
8
0
10
0.000000
20
0.000000
30
0.0
40
3.5
1

3

2
JX:0
70
0
0
ATTDEF
8
0
10
0.000000
20
0.000000
30
0.0
40
3.5
1

3

2
WX:0
70
0
0
ATTDEF
8
0
10
0.000000
20
0.000000
30
0.0
40
3.5
1

3

2
JY:0
70
0
0
ATTDEF
8
0
10
0.000000
20
0.000000
30
0.0
40
3.5
1

3

2
WY:0
70
0
0
ATTDEF
8
0
10
0.000000
20
0.000000
30
0.0
40
3.5
1

3

2
BL01:6500, ,1
70
0
0
ATTDEF
8
0
10
0.000000
20
0.000000
30
0.0
40
3.5
1

3

2
DESC:Condensacion
70
0
0
ATTDEF
8
0
10
0.000000
20
0.000000
30
0.0
40
3.5
1

3

2
DENS:1.203
70
0
0
ATTDEF
8
0
10
0.000000
20
0.000000
30
0.0
40
3.5
1

3

2
TDEV:47.13
70
0
0
ATTDEF
8
0
10
0.000000
20
0.000000
30
0.0
40
3.5
1

3

2
TDEV2:0
70
0
0
ATTDEF
8
0
10
0.000000
20
0.000000
30
0.0
40
3.5
1

3

2
TDEV3:0
70
0
0
ATTDEF
8
0
10
0.000000
20
0.000000
30
0.0
40
3.5
1

3

2
TDEV4:0
70
0
0
ATTDEF
8
0
10
0.000000
20
0.000000
30
0.0
40
3.5
1

3

2
TDEV5:0
70
0
0
ATTDEF
8
0
10
0.000000
20
0.000000
30
0.0
40
3.5
1

3

2
PANE_WIDTH:0
70
0
0
ATTDEF
8
0
10
0.000000
20
0.000000
30
0.0
40
3.5
1

3

2
MIN_VETRO:0
70
0
0
ATTDEF
8
0
10
0.000000
20
0.000000
30
0.0
40
3.5
1

3

2
MAX_VETRO:0
70
0
0
ATTDEF
8
0
10
0.000000
20
0.000000
30
0.0
40
3.5
1

3

2
JX:0
70
0
0
ATTDEF
8
0
10
0.000000
20
0.000000
30
0.0
40
3.5
1

3

2
WX:0
70
0
0
ATTDEF
8
0
10
0.000000
20
0.000000
30
0.0
40
3.5
1

3

2
JY:0
70
0
0
ATTDEF
8
0
10
0.000000
20
0.000000
30
0.0
40
3.5
1

3

2
WY:0
70
0
0
ATTDEF
8
0
10
0.000000
20
0.000000
30
0.0
40
3.5
1

3

2
BL01:6500, ,1
70
0
0
ENDSEC
0
EOF
