0
SECTION
2
ENTITIES
0
LINE
8
0
10
2998.223349
20
1230.417335
30
0.0
11
3001.873349
21
1231.395350
31
0.0
0
LINE
8
0
10
3001.873349
20
1231.395350
30
0.0
11
3001.873349
21
1244.864421
31
0.0
0
LINE
8
0
10
3001.873349
20
1244.864421
30
0.0
11
3005.123349
21
1244.864421
31
0.0
0
LINE
8
0
10
3005.123349
20
1244.864421
30
0.0
11
3005.123349
21
1250.864421
31
0.0
0
ARC
8
0
10
3005.323349
20
1250.864421
30
0.0
40
0.200000
50
20.992460
51
180.000000
0
LINE
8
0
10
3005.510075
20
1250.936070
30
0.0
11
3006.523349
21
1248.295361
31
0.0
0
LINE
8
0
10
3006.523349
20
1248.295361
30
0.0
11
3006.123349
21
1248.064421
31
0.0
0
LINE
8
0
10
3006.123349
20
1248.064421
30
0.0
11
3006.123349
21
1244.864421
31
0.0
0
LINE
8
0
10
3006.123349
20
1244.864421
30
0.0
11
3011.723349
21
1244.864421
31
0.0
0
LINE
8
0
10
3011.723349
20
1244.864421
30
0.0
11
3011.723349
21
1244.914421
31
0.0
0
ARC
8
0
10
3012.173349
20
1244.914421
30
0.0
40
0.450000
50
90.000000
51
180.000000
0
LINE
8
0
10
3012.173349
20
1245.364421
30
0.0
11
3012.523349
21
1245.364421
31
0.0
0
ARC
8
0
10
3012.523349
20
1244.864421
30
0.0
40
0.500000
50
360.000000
51
90.000000
0
LINE
8
0
10
3013.023349
20
1244.864421
30
0.0
11
3013.023349
21
1236.364421
31
0.0
0
ARC
8
0
10
3012.523349
20
1236.364421
30
0.0
40
0.500000
50
189.337513
51
360.000000
0
LINE
8
0
10
3012.029975
20
1236.283296
30
0.0
11
3011.523349
21
1239.364421
31
0.0
0
LINE
8
0
10
3011.523349
20
1239.364421
30
0.0
11
3011.523349
21
1243.514421
31
0.0
0
LINE
8
0
10
3011.523349
20
1243.514421
30
0.0
11
3003.223349
21
1243.514421
31
0.0
0
LINE
8
0
10
3003.223349
20
1243.514421
30
0.0
11
3003.223349
21
1230.204167
31
0.0
0
LINE
8
0
10
3003.223349
20
1230.204167
30
0.0
11
2998.223349
21
1228.864421
31
0.0
0
LINE
8
0
10
2998.223349
20
1228.864421
30
0.0
11
2993.223349
21
1230.204167
31
0.0
0
LINE
8
0
10
2993.223349
20
1230.204167
30
0.0
11
2993.223349
21
1243.514421
31
0.0
0
LINE
8
0
10
2993.223349
20
1243.514421
30
0.0
11
2984.923349
21
1243.514421
31
0.0
0
LINE
8
0
10
2984.923349
20
1243.514421
30
0.0
11
2984.923349
21
1239.364421
31
0.0
0
LINE
8
0
10
2984.923349
20
1239.364421
30
0.0
11
2984.416724
21
1236.283296
31
0.0
0
ARC
8
0
10
2983.923349
20
1236.364421
30
0.0
40
0.500000
50
180.000000
51
350.662487
0
LINE
8
0
10
2983.423349
20
1236.364421
30
0.0
11
2983.423349
21
1244.864421
31
0.0
0
ARC
8
0
10
2983.923349
20
1244.864421
30
0.0
40
0.500000
50
90.000000
51
180.000000
0
LINE
8
0
10
2983.923349
20
1245.364421
30
0.0
11
2984.273349
21
1245.364421
31
0.0
0
ARC
8
0
10
2984.273349
20
1244.914421
30
0.0
40
0.450000
50
360.000000
51
90.000000
0
LINE
8
0
10
2984.723349
20
1244.914421
30
0.0
11
2984.723349
21
1244.864421
31
0.0
0
LINE
8
0
10
2984.723349
20
1244.864421
30
0.0
11
2990.323349
21
1244.864421
31
0.0
0
LINE
8
0
10
2990.323349
20
1244.864421
30
0.0
11
2990.323349
21
1248.064421
31
0.0
0
LINE
8
0
10
2990.323349
20
1248.064421
30
0.0
11
2989.923349
21
1248.295361
31
0.0
0
LINE
8
0
10
2989.923349
20
1248.295361
30
0.0
11
2990.936624
21
1250.936070
31
0.0
0
ARC
8
0
10
2991.123349
20
1250.864421
30
0.0
40
0.200000
50
360.000000
51
159.007540
0
LINE
8
0
10
2991.323349
20
1250.864421
30
0.0
11
2991.323349
21
1244.864421
31
0.0
0
LINE
8
0
10
2991.323349
20
1244.864421
30
0.0
11
2994.573349
21
1244.864421
31
0.0
0
LINE
8
0
10
2994.573349
20
1244.864421
30
0.0
11
2994.573349
21
1231.395350
31
0.0
0
LINE
8
0
10
2994.573349
20
1231.395350
30
0.0
11
2998.223349
21
1230.417335
31
0.0
0
ATTDEF
8
0
10
0.000000
20
0.000000
30
0.0
40
3.5
1

3

2
PANE_WIDTH:0
70
0
0
ATTDEF
8
0
10
0.000000
20
0.000000
30
0.0
40
3.5
1

3

2
MIN_VETRO:0
70
0
0
ATTDEF
8
0
10
0.000000
20
0.000000
30
0.0
40
3.5
1

3

2
MAX_VETRO:0
70
0
0
ATTDEF
8
0
10
0.000000
20
0.000000
30
0.0
40
3.5
1

3

2
JX:0
70
0
0
ATTDEF
8
0
10
0.000000
20
0.000000
30
0.0
40
3.5
1

3

2
WX:0
70
0
0
ATTDEF
8
0
10
0.000000
20
0.000000
30
0.0
40
3.5
1

3

2
JY:0
70
0
0
ATTDEF
8
0
10
0.000000
20
0.000000
30
0.0
40
3.5
1

3

2
WY:0
70
0
0
ATTDEF
8
0
10
0.000000
20
0.000000
30
0.0
40
3.5
1

3

2
DESC:Union de hojas
70
0
0
ATTDEF
8
0
10
0.000000
20
0.000000
30
0.0
40
3.5
1

3

2
DENS:0.3051
70
0
0
ATTDEF
8
0
10
0.000000
20
0.000000
30
0.0
40
3.5
1

3

2
TDEV:17.12
70
0
0
ATTDEF
8
0
10
0.000000
20
0.000000
30
0.0
40
3.5
1

3

2
TDEV2:0
70
0
0
ATTDEF
8
0
10
0.000000
20
0.000000
30
0.0
40
3.5
1

3

2
TDEV3:0
70
0
0
ATTDEF
8
0
10
0.000000
20
0.000000
30
0.0
40
3.5
1

3

2
TDEV4:0
70
0
0
ATTDEF
8
0
10
0.000000
20
0.000000
30
0.0
40
3.5
1

3

2
TDEV5:0
70
0
0
ATTDEF
8
0
10
0.000000
20
0.000000
30
0.0
40
3.5
1

3

2
PANE_WIDTH:0
70
0
0
ATTDEF
8
0
10
0.000000
20
0.000000
30
0.0
40
3.5
1

3

2
MIN_VETRO:0
70
0
0
ATTDEF
8
0
10
0.000000
20
0.000000
30
0.0
40
3.5
1

3

2
MAX_VETRO:0
70
0
0
ATTDEF
8
0
10
0.000000
20
0.000000
30
0.0
40
3.5
1

3

2
JX:0
70
0
0
ATTDEF
8
0
10
0.000000
20
0.000000
30
0.0
40
3.5
1

3

2
WX:0
70
0
0
ATTDEF
8
0
10
0.000000
20
0.000000
30
0.0
40
3.5
1

3

2
JY:0
70
0
0
ATTDEF
8
0
10
0.000000
20
0.000000
30
0.0
40
3.5
1

3

2
WY:0
70
0
0
ATTDEF
8
0
10
2983.923349
20
1245.364421
30
0.0
40
3.5
1

3

2
VC_START
70
0
0
ATTDEF
8
0
10
2984.923349
20
1243.514421
30
0.0
40
3.5
1

3

2
VC_END
70
0
0
ATTDEF
8
0
10
2983.423349
20
1228.864421
30
0.0
40
3.5
1

3

2
FP_LCS_ORIG
70
0
0
ATTDEF
8
0
10
2993.423349
20
1228.864421
30
0.0
40
3.5
1

3

2
FP_LCS_HOT
70
0
0
ATTDEF
8
0
10
2983.423349
20
1238.864421
30
0.0
40
3.5
1

3

2
FP_LCS_INTERN
70
0
0
ENDSEC
0
EOF
