0
SECTION
2
ENTITIES
0
ARC
8
0
10
1941.906509
20
1195.452355
30
0.0
40
0.500000
50
0.000000
51
90.000000
0
LINE
8
0
10
1942.406509
20
1195.452355
30
0.0
11
1942.406509
21
1161.452355
31
0.0
0
ARC
8
0
10
1941.906509
20
1161.452355
30
0.0
40
0.500000
50
270.000000
51
0.000000
0
LINE
8
0
10
1941.906509
20
1160.952355
30
0.0
11
1938.906509
21
1160.952355
31
0.0
0
ARC
8
0
10
1938.906509
20
1161.452355
30
0.0
40
0.500000
50
180.000000
51
270.000000
0
LINE
8
0
10
1938.406509
20
1161.452355
30
0.0
11
1938.406509
21
1162.202355
31
0.0
0
LINE
8
0
10
1938.406509
20
1162.202355
30
0.0
11
1938.906509
21
1163.952355
31
0.0
0
LINE
8
0
10
1938.906509
20
1163.952355
30
0.0
11
1939.406509
21
1163.952355
31
0.0
0
LINE
8
0
10
1939.406509
20
1163.952355
30
0.0
11
1939.406509
21
1162.202355
31
0.0
0
LINE
8
0
10
1939.406509
20
1162.202355
30
0.0
11
1941.156509
21
1162.202355
31
0.0
0
LINE
8
0
10
1941.156509
20
1162.202355
30
0.0
11
1941.156509
21
1169.702355
31
0.0
0
LINE
8
0
10
1941.156509
20
1169.702355
30
0.0
11
1939.406509
21
1169.702355
31
0.0
0
LINE
8
0
10
1939.406509
20
1169.702355
30
0.0
11
1939.406509
21
1167.952355
31
0.0
0
LINE
8
0
10
1939.406509
20
1167.952355
30
0.0
11
1938.906509
21
1167.952355
31
0.0
0
LINE
8
0
10
1938.906509
20
1167.952355
30
0.0
11
1938.406509
21
1169.702355
31
0.0
0
LINE
8
0
10
1938.406509
20
1169.702355
30
0.0
11
1937.656509
21
1169.702355
31
0.0
0
ARC
8
0
10
1937.656509
20
1170.452355
30
0.0
40
0.750000
50
180.000000
51
270.000000
0
LINE
8
0
10
1936.906509
20
1170.452355
30
0.0
11
1936.906509
21
1186.452355
31
0.0
0
ARC
8
0
10
1937.656509
20
1186.452355
30
0.0
40
0.750000
50
90.000000
51
180.000000
0
LINE
8
0
10
1937.656509
20
1187.202355
30
0.0
11
1938.406509
21
1187.202355
31
0.0
0
LINE
8
0
10
1938.406509
20
1187.202355
30
0.0
11
1938.906509
21
1188.952355
31
0.0
0
LINE
8
0
10
1938.906509
20
1188.952355
30
0.0
11
1939.406509
21
1188.952355
31
0.0
0
LINE
8
0
10
1939.406509
20
1188.952355
30
0.0
11
1939.406509
21
1187.202355
31
0.0
0
LINE
8
0
10
1939.406509
20
1187.202355
30
0.0
11
1941.156509
21
1187.202355
31
0.0
0
LINE
8
0
10
1941.156509
20
1187.202355
30
0.0
11
1941.156509
21
1194.702355
31
0.0
0
LINE
8
0
10
1941.156509
20
1194.702355
30
0.0
11
1939.406509
21
1194.702355
31
0.0
0
LINE
8
0
10
1939.406509
20
1194.702355
30
0.0
11
1939.406509
21
1192.952355
31
0.0
0
LINE
8
0
10
1939.406509
20
1192.952355
30
0.0
11
1938.906509
21
1192.952355
31
0.0
0
LINE
8
0
10
1938.906509
20
1192.952355
30
0.0
11
1938.406509
21
1194.702355
31
0.0
0
LINE
8
0
10
1938.406509
20
1194.702355
30
0.0
11
1938.406509
21
1195.452355
31
0.0
0
ARC
8
0
10
1938.906509
20
1195.452355
30
0.0
40
0.500000
50
90.000000
51
180.000000
0
LINE
8
0
10
1938.906509
20
1195.952355
30
0.0
11
1941.906509
21
1195.952355
31
0.0
0
ARC
8
0
10
1938.456509
20
1185.652355
30
0.0
40
0.300000
50
90.000000
51
180.000000
0
LINE
8
0
10
1938.156509
20
1185.652355
30
0.0
11
1938.156509
21
1171.252355
31
0.0
0
ARC
8
0
10
1938.456509
20
1171.252355
30
0.0
40
0.300000
50
180.000000
51
270.000000
0
LINE
8
0
10
1938.456509
20
1170.952355
30
0.0
11
1940.856509
21
1170.952355
31
0.0
0
ARC
8
0
10
1940.856509
20
1171.252355
30
0.0
40
0.300000
50
270.000000
51
0.000000
0
LINE
8
0
10
1941.156509
20
1171.252355
30
0.0
11
1941.156509
21
1185.652355
31
0.0
0
ARC
8
0
10
1940.856509
20
1185.652355
30
0.0
40
0.300000
50
0.000000
51
90.000000
0
LINE
8
0
10
1940.856509
20
1185.952355
30
0.0
11
1938.456509
21
1185.952355
31
0.0
0
ATTDEF
8
0
10
0.000000
20
0.000000
30
0.0
40
3.5
1

3

2
PANE_WIDTH:0
70
0
0
ATTDEF
8
0
10
0.000000
20
0.000000
30
0.0
40
3.5
1

3

2
MIN_VETRO:0
70
0
0
ATTDEF
8
0
10
0.000000
20
0.000000
30
0.0
40
3.5
1

3

2
MAX_VETRO:0
70
0
0
ATTDEF
8
0
10
0.000000
20
0.000000
30
0.0
40
3.5
1

3

2
JX:0
70
0
0
ATTDEF
8
0
10
0.000000
20
0.000000
30
0.0
40
3.5
1

3

2
WX:0
70
0
0
ATTDEF
8
0
10
0.000000
20
0.000000
30
0.0
40
3.5
1

3

2
JY:0
70
0
0
ATTDEF
8
0
10
0.000000
20
0.000000
30
0.0
40
3.5
1

3

2
WY:0
70
0
0
ATTDEF
8
0
10
0.000000
20
0.000000
30
0.0
40
3.5
1

3

2
DESC:Divisor de vidrio
70
0
0
ATTDEF
8
0
10
0.000000
20
0.000000
30
0.0
40
3.5
1

3

2
DENS:0.2295
70
0
0
ATTDEF
8
0
10
0.000000
20
0.000000
30
0.0
40
3.5
1

3

2
TDEV:13.83
70
0
0
ATTDEF
8
0
10
0.000000
20
0.000000
30
0.0
40
3.5
1

3

2
TDEV2:0
70
0
0
ATTDEF
8
0
10
0.000000
20
0.000000
30
0.0
40
3.5
1

3

2
TDEV3:0
70
0
0
ATTDEF
8
0
10
0.000000
20
0.000000
30
0.0
40
3.5
1

3

2
TDEV4:0
70
0
0
ATTDEF
8
0
10
0.000000
20
0.000000
30
0.0
40
3.5
1

3

2
TDEV5:0
70
0
0
ATTDEF
8
0
10
0.000000
20
0.000000
30
0.0
40
3.5
1

3

2
PANE_WIDTH:0
70
0
0
ATTDEF
8
0
10
0.000000
20
0.000000
30
0.0
40
3.5
1

3

2
MIN_VETRO:0
70
0
0
ATTDEF
8
0
10
0.000000
20
0.000000
30
0.0
40
3.5
1

3

2
MAX_VETRO:0
70
0
0
ATTDEF
8
0
10
0.000000
20
0.000000
30
0.0
40
3.5
1

3

2
JX:0
70
0
0
ATTDEF
8
0
10
0.000000
20
0.000000
30
0.0
40
3.5
1

3

2
WX:0
70
0
0
ATTDEF
8
0
10
0.000000
20
0.000000
30
0.0
40
3.5
1

3

2
JY:0
70
0
0
ATTDEF
8
0
10
0.000000
20
0.000000
30
0.0
40
3.5
1

3

2
WY:0
70
0
0
ENDSEC
0
EOF
