0
SECTION
2
ENTITIES
0
LINE
8
00_Contorno Poliamida
10
1974.954156
20
1288.138128
30
0.0
11
1975.254154
21
1289.488122
31
0.0
0
LINE
8
00_Contorno Poliamida
10
1974.954148
20
1273.138116
30
0.0
11
1975.254147
21
1274.488110
31
0.0
0
LINE
8
00_Contorno Poliamida
10
1974.954140
20
1258.138104
30
0.0
11
1975.254139
21
1259.488097
31
0.0
0
LINE
8
00_Contorno Poliamida
10
1974.954133
20
1243.138092
30
0.0
11
1975.254131
21
1244.488085
31
0.0
0
LINE
8
00_Contorno Poliamida
10
1975.019167
20
1228.430769
30
0.0
11
1975.254123
21
1229.488073
31
0.0
0
LINE
8
00_Contorno Poliamida
10
1975.257980
20
1289.484769
30
0.0
11
1975.407981
21
1290.984772
31
0.0
0
LINE
8
00_Contorno Poliamida
10
1975.257981
20
1274.484756
30
0.0
11
1975.407982
21
1275.984760
31
0.0
0
LINE
8
00_Contorno Poliamida
10
1975.257983
20
1259.484744
30
0.0
11
1975.407983
21
1260.984747
31
0.0
0
LINE
8
00_Contorno Poliamida
10
1975.257984
20
1244.484731
30
0.0
11
1975.407984
21
1245.984735
31
0.0
0
LINE
8
00_Contorno Poliamida
10
1975.257985
20
1229.484719
30
0.0
11
1975.407986
21
1230.984722
31
0.0
0
LINE
8
00_Contorno Poliamida
10
1974.913014
20
1228.430769
30
0.0
11
1974.804084
21
1229.193282
31
0.0
0
LINE
8
00_Contorno Poliamida
10
1974.954079
20
1243.143284
30
0.0
11
1974.804078
21
1244.193289
31
0.0
0
LINE
8
00_Contorno Poliamida
10
1974.954073
20
1258.143291
30
0.0
11
1974.804073
21
1259.193295
31
0.0
0
LINE
8
00_Contorno Poliamida
10
1974.954068
20
1273.143297
30
0.0
11
1974.804067
21
1274.193302
31
0.0
0
LINE
8
00_Contorno Poliamida
10
1974.954062
20
1288.143304
30
0.0
11
1974.804061
21
1289.193309
31
0.0
0
LINE
8
00_Contorno Poliamida
10
1974.807152
20
1229.186741
30
0.0
11
1974.507153
21
1230.986738
31
0.0
0
LINE
8
00_Contorno Poliamida
10
1974.807160
20
1244.186728
30
0.0
11
1974.507162
21
1245.986724
31
0.0
0
LINE
8
00_Contorno Poliamida
10
1974.807169
20
1259.186714
30
0.0
11
1974.507170
21
1260.986710
31
0.0
0
LINE
8
00_Contorno Poliamida
10
1974.807177
20
1274.186700
30
0.0
11
1974.507178
21
1275.986697
31
0.0
0
LINE
8
00_Contorno Poliamida
10
1974.807185
20
1289.186687
30
0.0
11
1974.507186
21
1290.986683
31
0.0
0
LINE
8
00_Contorno Poliamida
10
1974.506409
20
1230.990959
30
0.0
11
1974.506409
21
1232.790959
31
0.0
0
LINE
8
00_Contorno Poliamida
10
1974.506409
20
1245.990959
30
0.0
11
1974.506409
21
1247.790959
31
0.0
0
LINE
8
00_Contorno Poliamida
10
1974.506409
20
1260.990959
30
0.0
11
1974.506409
21
1262.790959
31
0.0
0
LINE
8
00_Contorno Poliamida
10
1974.506409
20
1275.990959
30
0.0
11
1974.506409
21
1277.790959
31
0.0
0
LINE
8
00_Contorno Poliamida
10
1974.506409
20
1290.990959
30
0.0
11
1974.506409
21
1292.790959
31
0.0
0
LINE
8
00_Contorno Poliamida
10
1974.506411
20
1292.791273
30
0.0
11
1974.656412
21
1293.691278
31
0.0
0
LINE
8
00_Contorno Poliamida
10
1974.506417
20
1277.791271
30
0.0
11
1974.656418
21
1278.691277
31
0.0
0
LINE
8
00_Contorno Poliamida
10
1974.506423
20
1262.791270
30
0.0
11
1974.656424
21
1263.691276
31
0.0
0
LINE
8
00_Contorno Poliamida
10
1974.506429
20
1247.791269
30
0.0
11
1974.656429
21
1248.691275
31
0.0
0
LINE
8
00_Contorno Poliamida
10
1974.506435
20
1232.791268
30
0.0
11
1974.656435
21
1233.691274
31
0.0
0
LINE
8
00_Contorno Poliamida
10
1974.654902
20
1293.690835
30
0.0
11
1974.954904
21
1292.940830
31
0.0
0
LINE
8
00_Contorno Poliamida
10
1974.654911
20
1278.690834
30
0.0
11
1974.954913
21
1277.940829
31
0.0
0
LINE
8
00_Contorno Poliamida
10
1974.654919
20
1263.690834
30
0.0
11
1974.954921
21
1262.940829
31
0.0
0
LINE
8
00_Contorno Poliamida
10
1974.654928
20
1248.690833
30
0.0
11
1974.954930
21
1247.940828
31
0.0
0
LINE
8
00_Contorno Poliamida
10
1974.654937
20
1233.690833
30
0.0
11
1974.954939
21
1232.940828
31
0.0
0
LINE
8
00_Contorno Poliamida
10
1974.954068
20
1292.943111
30
0.0
11
1975.404069
21
1290.993105
31
0.0
0
LINE
8
00_Contorno Poliamida
10
1974.954074
20
1277.943101
30
0.0
11
1975.404075
21
1275.993095
31
0.0
0
LINE
8
00_Contorno Poliamida
10
1974.954080
20
1262.943091
30
0.0
11
1975.404080
21
1260.993085
31
0.0
0
LINE
8
00_Contorno Poliamida
10
1974.954085
20
1247.943081
30
0.0
11
1975.404086
21
1245.993075
31
0.0
0
LINE
8
00_Contorno Poliamida
10
1974.954091
20
1232.943070
30
0.0
11
1975.404092
21
1230.993065
31
0.0
0
LINE
8
00_Contorno Poliamida
10
1974.957910
20
1289.790428
30
0.0
11
1975.107910
21
1290.990435
31
0.0
0
LINE
8
00_Contorno Poliamida
10
1974.957918
20
1274.790426
30
0.0
11
1975.107918
21
1275.990432
31
0.0
0
LINE
8
00_Contorno Poliamida
10
1974.957926
20
1259.790424
30
0.0
11
1975.107926
21
1260.990430
31
0.0
0
LINE
8
00_Contorno Poliamida
10
1974.957934
20
1244.790421
30
0.0
11
1975.107934
21
1245.990428
31
0.0
0
LINE
8
00_Contorno Poliamida
10
1974.957942
20
1229.790419
30
0.0
11
1975.107942
21
1230.990425
31
0.0
0
LINE
8
00_Contorno Poliamida
10
1974.958022
20
1229.791522
30
0.0
11
1974.808021
21
1230.991528
31
0.0
0
LINE
8
00_Contorno Poliamida
10
1974.958030
20
1244.791524
30
0.0
11
1974.808029
21
1245.991530
31
0.0
0
LINE
8
00_Contorno Poliamida
10
1974.958038
20
1259.791526
30
0.0
11
1974.808037
21
1260.991533
31
0.0
0
LINE
8
00_Contorno Poliamida
10
1974.958046
20
1274.791529
30
0.0
11
1974.808045
21
1275.991535
31
0.0
0
LINE
8
00_Contorno Poliamida
10
1974.958054
20
1289.791531
30
0.0
11
1974.808053
21
1290.991537
31
0.0
0
LINE
8
00_Contorno Poliamida
10
1974.806409
20
1230.990959
30
0.0
11
1974.806409
21
1232.190959
31
0.0
0
LINE
8
00_Contorno Poliamida
10
1974.806409
20
1245.990959
30
0.0
11
1974.806409
21
1247.190959
31
0.0
0
LINE
8
00_Contorno Poliamida
10
1974.806409
20
1260.990959
30
0.0
11
1974.806409
21
1262.190959
31
0.0
0
LINE
8
00_Contorno Poliamida
10
1974.806409
20
1275.990959
30
0.0
11
1974.806409
21
1277.190959
31
0.0
0
LINE
8
00_Contorno Poliamida
10
1974.806409
20
1290.990959
30
0.0
11
1974.806409
21
1292.190959
31
0.0
0
LINE
8
00_Contorno Poliamida
10
1974.807387
20
1292.191967
30
0.0
11
1975.107386
21
1290.991968
31
0.0
0
LINE
8
00_Contorno Poliamida
10
1974.807372
20
1277.191958
30
0.0
11
1975.107371
21
1275.991960
31
0.0
0
LINE
8
00_Contorno Poliamida
10
1974.807357
20
1262.191950
30
0.0
11
1975.107356
21
1260.991951
31
0.0
0
LINE
8
00_Contorno Poliamida
10
1974.807342
20
1247.191941
30
0.0
11
1975.107341
21
1245.991942
31
0.0
0
LINE
8
00_Contorno Poliamida
10
1974.807327
20
1232.191932
30
0.0
11
1975.107326
21
1230.991934
31
0.0
0
LINE
8
00_Contorno Poliamida
10
1974.355771
20
1294.282730
30
0.0
11
1974.505773
21
1296.832732
31
0.0
0
LINE
8
00_Contorno Poliamida
10
1974.355760
20
1279.282721
30
0.0
11
1974.505762
21
1281.832723
31
0.0
0
LINE
8
00_Contorno Poliamida
10
1974.355749
20
1264.282712
30
0.0
11
1974.505751
21
1266.832714
31
0.0
0
LINE
8
00_Contorno Poliamida
10
1974.355738
20
1249.282702
30
0.0
11
1974.505740
21
1251.832704
31
0.0
0
LINE
8
00_Contorno Poliamida
10
1974.355727
20
1234.282693
30
0.0
11
1974.505729
21
1236.832695
31
0.0
0
LINE
8
00_Contorno Poliamida
10
1974.423233
20
1220.430467
30
0.0
11
1974.505717
21
1221.832685
31
0.0
0
LINE
8
00_Contorno Poliamida
10
1974.505609
20
1296.840322
30
0.0
11
1974.643745
21
1300.293731
31
0.0
0
LINE
8
00_Contorno Poliamida
10
1974.505611
20
1281.840321
30
0.0
11
1974.655611
21
1285.590323
31
0.0
0
LINE
8
00_Contorno Poliamida
10
1974.505613
20
1266.840321
30
0.0
11
1974.655613
21
1270.590322
31
0.0
0
LINE
8
00_Contorno Poliamida
10
1974.505615
20
1251.840320
30
0.0
11
1974.655615
21
1255.590321
31
0.0
0
LINE
8
00_Contorno Poliamida
10
1974.505617
20
1236.840320
30
0.0
11
1974.655617
21
1240.590321
31
0.0
0
LINE
8
00_Contorno Poliamida
10
1974.505620
20
1221.840319
30
0.0
11
1974.609237
21
1224.430769
31
0.0
0
LINE
8
00_Contorno Poliamida
10
1974.655700
20
1240.599174
30
0.0
11
1974.505701
21
1243.299180
31
0.0
0
LINE
8
00_Contorno Poliamida
10
1974.655707
20
1255.599183
30
0.0
11
1974.505708
21
1258.299190
31
0.0
0
LINE
8
00_Contorno Poliamida
10
1974.655714
20
1270.599193
30
0.0
11
1974.505715
21
1273.299199
31
0.0
0
LINE
8
00_Contorno Poliamida
10
1974.655721
20
1285.599203
30
0.0
11
1974.505722
21
1288.299209
31
0.0
0
LINE
8
00_Contorno Poliamida
10
1974.483147
20
1228.430769
30
0.0
11
1974.056499
21
1230.990664
31
0.0
0
LINE
8
00_Contorno Poliamida
10
1974.506504
20
1243.290663
30
0.0
11
1974.056505
21
1245.990665
31
0.0
0
LINE
8
00_Contorno Poliamida
10
1974.506510
20
1258.290665
30
0.0
11
1974.056511
21
1260.990667
31
0.0
0
LINE
8
00_Contorno Poliamida
10
1974.506516
20
1273.290666
30
0.0
11
1974.056517
21
1275.990668
31
0.0
0
LINE
8
00_Contorno Poliamida
10
1974.506522
20
1288.290667
30
0.0
11
1974.056523
21
1290.990669
31
0.0
0
LINE
8
00_Contorno Poliamida
10
1975.857987
20
1230.995804
30
0.0
11
1975.557990
21
1232.645798
31
0.0
0
LINE
8
00_Contorno Poliamida
10
1975.858005
20
1245.995821
30
0.0
11
1975.558007
21
1247.645816
31
0.0
0
LINE
8
00_Contorno Poliamida
10
1975.858022
20
1260.995839
30
0.0
11
1975.558025
21
1262.645833
31
0.0
0
LINE
8
00_Contorno Poliamida
10
1975.858040
20
1275.995856
30
0.0
11
1975.558042
21
1277.645851
31
0.0
0
LINE
8
00_Contorno Poliamida
10
1975.858057
20
1290.995874
30
0.0
11
1975.558060
21
1292.645868
31
0.0
0
LINE
8
00_Contorno Poliamida
10
1975.558739
20
1232.641791
30
0.0
11
1974.958739
21
1234.741788
31
0.0
0
LINE
8
00_Contorno Poliamida
10
1975.558750
20
1247.641795
30
0.0
11
1974.958751
21
1249.741792
31
0.0
0
LINE
8
00_Contorno Poliamida
10
1975.558761
20
1262.641799
30
0.0
11
1974.958762
21
1264.741796
31
0.0
0
LINE
8
00_Contorno Poliamida
10
1975.558773
20
1277.641804
30
0.0
11
1974.958773
21
1279.741801
31
0.0
0
LINE
8
00_Contorno Poliamida
10
1975.558784
20
1292.641808
30
0.0
11
1974.958785
21
1294.741805
31
0.0
0
LINE
8
00_Contorno Poliamida
10
1974.956409
20
1220.430467
30
0.0
11
1974.956409
21
1221.690959
31
0.0
0
LINE
8
00_Contorno Poliamida
10
1974.956409
20
1234.740959
30
0.0
11
1974.956409
21
1236.690959
31
0.0
0
LINE
8
00_Contorno Poliamida
10
1974.956409
20
1249.740959
30
0.0
11
1974.956409
21
1251.690959
31
0.0
0
LINE
8
00_Contorno Poliamida
10
1974.956409
20
1264.740959
30
0.0
11
1974.956409
21
1266.690959
31
0.0
0
LINE
8
00_Contorno Poliamida
10
1974.956409
20
1279.740959
30
0.0
11
1974.956409
21
1281.690959
31
0.0
0
LINE
8
00_Contorno Poliamida
10
1974.956409
20
1294.740959
30
0.0
11
1974.956409
21
1296.690959
31
0.0
0
LINE
8
00_Contorno Poliamida
10
1974.954812
20
1296.693226
30
0.0
11
1975.254811
21
1298.793221
31
0.0
0
LINE
8
00_Contorno Poliamida
10
1974.954808
20
1281.693234
30
0.0
11
1975.254807
21
1283.793229
31
0.0
0
LINE
8
00_Contorno Poliamida
10
1974.954804
20
1266.693243
30
0.0
11
1975.254804
21
1268.793237
31
0.0
0
LINE
8
00_Contorno Poliamida
10
1974.954801
20
1251.693251
30
0.0
11
1975.254800
21
1253.793245
31
0.0
0
LINE
8
00_Contorno Poliamida
10
1974.954797
20
1236.693259
30
0.0
11
1975.254796
21
1238.793253
31
0.0
0
LINE
8
00_Contorno Poliamida
10
1974.954794
20
1221.693267
30
0.0
11
1975.254793
21
1223.793262
31
0.0
0
LINE
8
00_Contorno Poliamida
10
1975.253295
20
1223.783440
30
0.0
11
1975.212838
21
1224.430769
31
0.0
0
LINE
8
00_Contorno Poliamida
10
1975.253300
20
1238.783431
30
0.0
11
1975.103302
21
1241.183428
31
0.0
0
LINE
8
00_Contorno Poliamida
10
1975.253306
20
1253.783422
30
0.0
11
1975.103307
21
1256.183419
31
0.0
0
LINE
8
00_Contorno Poliamida
10
1975.253311
20
1268.783413
30
0.0
11
1975.103313
21
1271.183410
31
0.0
0
LINE
8
00_Contorno Poliamida
10
1975.253316
20
1283.783404
30
0.0
11
1975.103318
21
1286.183401
31
0.0
0
LINE
8
00_Contorno Poliamida
10
1975.253322
20
1298.783395
30
0.0
11
1975.158926
21
1300.293731
31
0.0
0
LINE
8
00_Contorno Poliamida
10
1975.110224
20
1286.188189
30
0.0
11
1975.410224
21
1288.138182
31
0.0
0
LINE
8
00_Contorno Poliamida
10
1975.110226
20
1271.188183
30
0.0
11
1975.410226
21
1273.138176
31
0.0
0
LINE
8
00_Contorno Poliamida
10
1975.110227
20
1256.188177
30
0.0
11
1975.410227
21
1258.138170
31
0.0
0
LINE
8
00_Contorno Poliamida
10
1975.110229
20
1241.188170
30
0.0
11
1975.410229
21
1243.138163
31
0.0
0
LINE
8
00_Contorno Poliamida
10
1975.407636
20
1288.142254
30
0.0
11
1975.857634
21
1289.942252
31
0.0
0
LINE
8
00_Contorno Poliamida
10
1975.407655
20
1273.142260
30
0.0
11
1975.857653
21
1274.942258
31
0.0
0
LINE
8
00_Contorno Poliamida
10
1975.407674
20
1258.142266
30
0.0
11
1975.857672
21
1259.942264
31
0.0
0
LINE
8
00_Contorno Poliamida
10
1975.407692
20
1243.142272
30
0.0
11
1975.857690
21
1244.942270
31
0.0
0
LINE
8
00_Contorno Poliamida
10
1975.479834
20
1228.430769
30
0.0
11
1975.857709
21
1229.942276
31
0.0
0
LINE
8
00_Contorno Poliamida
10
1975.856409
20
1229.940959
30
0.0
11
1975.856409
21
1230.990959
31
0.0
0
LINE
8
00_Contorno Poliamida
10
1975.856409
20
1244.940959
30
0.0
11
1975.856409
21
1245.990959
31
0.0
0
LINE
8
00_Contorno Poliamida
10
1975.856409
20
1259.940959
30
0.0
11
1975.856409
21
1260.990959
31
0.0
0
LINE
8
00_Contorno Poliamida
10
1975.856409
20
1274.940959
30
0.0
11
1975.856409
21
1275.990959
31
0.0
0
LINE
8
00_Contorno Poliamida
10
1975.856409
20
1289.940959
30
0.0
11
1975.856409
21
1290.990959
31
0.0
0
LINE
8
00_Contorno Poliamida
10
1974.358669
20
1234.292889
30
0.0
11
1974.058671
21
1230.992893
31
0.0
0
LINE
8
00_Contorno Poliamida
10
1974.358657
20
1249.292887
30
0.0
11
1974.058659
21
1245.992890
31
0.0
0
LINE
8
00_Contorno Poliamida
10
1974.358645
20
1264.292884
30
0.0
11
1974.058647
21
1260.992887
31
0.0
0
LINE
8
00_Contorno Poliamida
10
1974.358634
20
1279.292881
30
0.0
11
1974.058636
21
1275.992884
31
0.0
0
LINE
8
00_Contorno Poliamida
10
1974.358622
20
1294.292878
30
0.0
11
1974.058624
21
1290.992882
31
0.0
0
LINE
8
00_Contorno Poliamida
10
1973.451738
20
1290.990002
30
0.0
11
1973.751736
21
1294.590004
31
0.0
0
LINE
8
00_Contorno Poliamida
10
1973.451742
20
1275.989999
30
0.0
11
1973.751739
21
1279.590001
31
0.0
0
LINE
8
00_Contorno Poliamida
10
1973.451745
20
1260.989996
30
0.0
11
1973.751743
21
1264.589998
31
0.0
0
LINE
8
00_Contorno Poliamida
10
1973.451749
20
1245.989993
30
0.0
11
1973.751746
21
1249.589995
31
0.0
0
LINE
8
00_Contorno Poliamida
10
1973.451752
20
1230.989990
30
0.0
11
1973.751750
21
1234.589992
31
0.0
0
LINE
8
00_Contorno Poliamida
10
1973.756409
20
1220.430467
30
0.0
11
1973.756409
21
1223.040959
31
0.0
0
LINE
8
00_Contorno Poliamida
10
1973.756409
20
1234.590959
30
0.0
11
1973.756409
21
1238.040959
31
0.0
0
LINE
8
00_Contorno Poliamida
10
1973.756409
20
1249.590959
30
0.0
11
1973.756409
21
1253.040959
31
0.0
0
LINE
8
00_Contorno Poliamida
10
1973.756409
20
1264.590959
30
0.0
11
1973.756409
21
1268.040959
31
0.0
0
LINE
8
00_Contorno Poliamida
10
1973.756409
20
1279.590959
30
0.0
11
1973.756409
21
1283.040959
31
0.0
0
LINE
8
00_Contorno Poliamida
10
1973.756409
20
1294.590959
30
0.0
11
1973.756409
21
1298.040959
31
0.0
0
LINE
8
00_Contorno Poliamida
10
1973.756384
20
1223.033676
30
0.0
11
1973.656592
21
1224.430769
31
0.0
0
LINE
8
00_Contorno Poliamida
10
1973.756389
20
1238.033665
30
0.0
11
1973.456390
21
1242.233659
31
0.0
0
LINE
8
00_Contorno Poliamida
10
1973.756393
20
1253.033654
30
0.0
11
1973.456395
21
1257.233649
31
0.0
0
LINE
8
00_Contorno Poliamida
10
1973.756397
20
1268.033644
30
0.0
11
1973.456399
21
1272.233638
31
0.0
0
LINE
8
00_Contorno Poliamida
10
1973.756402
20
1283.033633
30
0.0
11
1973.456403
21
1287.233628
31
0.0
0
LINE
8
00_Contorno Poliamida
10
1973.756406
20
1298.033623
30
0.0
11
1973.594970
21
1300.293731
31
0.0
0
LINE
8
00_Contorno Poliamida
10
1973.456409
20
1228.430769
30
0.0
11
1973.456409
21
1230.990959
31
0.0
0
LINE
8
00_Contorno Poliamida
10
1973.456409
20
1242.240959
30
0.0
11
1973.456409
21
1245.990959
31
0.0
0
LINE
8
00_Contorno Poliamida
10
1973.456409
20
1257.240959
30
0.0
11
1973.456409
21
1260.990959
31
0.0
0
LINE
8
00_Contorno Poliamida
10
1973.456409
20
1272.240959
30
0.0
11
1973.456409
21
1275.990959
31
0.0
0
LINE
8
00_Contorno Poliamida
10
1973.456409
20
1287.240959
30
0.0
11
1973.456409
21
1290.990959
31
0.0
0
LINE
8
00_Contorno Poliamida
10
1976.608030
20
1230.991524
30
0.0
11
1976.158030
21
1234.591528
31
0.0
0
LINE
8
00_Contorno Poliamida
10
1976.608038
20
1245.991526
30
0.0
11
1976.158038
21
1249.591531
31
0.0
0
LINE
8
00_Contorno Poliamida
10
1976.608046
20
1260.991529
30
0.0
11
1976.158046
21
1264.591533
31
0.0
0
LINE
8
00_Contorno Poliamida
10
1976.608054
20
1275.991531
30
0.0
11
1976.158054
21
1279.591535
31
0.0
0
LINE
8
00_Contorno Poliamida
10
1976.608062
20
1290.991533
30
0.0
11
1976.158062
21
1294.591538
31
0.0
0
LINE
8
00_Contorno Poliamida
10
1976.066515
20
1220.430467
30
0.0
11
1975.859520
21
1222.293425
31
0.0
0
LINE
8
00_Contorno Poliamida
10
1976.159525
20
1234.593425
30
0.0
11
1975.859524
21
1237.293430
31
0.0
0
LINE
8
00_Contorno Poliamida
10
1976.159530
20
1249.593430
30
0.0
11
1975.859529
21
1252.293434
31
0.0
0
LINE
8
00_Contorno Poliamida
10
1976.159534
20
1264.593435
30
0.0
11
1975.859533
21
1267.293439
31
0.0
0
LINE
8
00_Contorno Poliamida
10
1976.159538
20
1279.593439
30
0.0
11
1975.859538
21
1282.293444
31
0.0
0
LINE
8
00_Contorno Poliamida
10
1976.159543
20
1294.593444
30
0.0
11
1975.859542
21
1297.293449
31
0.0
0
LINE
8
00_Contorno Poliamida
10
1975.852673
20
1297.293410
30
0.0
11
1975.983125
21
1300.293731
31
0.0
0
LINE
8
00_Contorno Poliamida
10
1975.852658
20
1282.293412
30
0.0
11
1976.002660
21
1285.743408
31
0.0
0
LINE
8
00_Contorno Poliamida
10
1975.852642
20
1267.293415
30
0.0
11
1976.002645
21
1270.743410
31
0.0
0
LINE
8
00_Contorno Poliamida
10
1975.852627
20
1252.293417
30
0.0
11
1976.002629
21
1255.743413
31
0.0
0
LINE
8
00_Contorno Poliamida
10
1975.852611
20
1237.293420
30
0.0
11
1976.002614
21
1240.743415
31
0.0
0
LINE
8
00_Contorno Poliamida
10
1975.852595
20
1222.293422
30
0.0
11
1975.945525
21
1224.430769
31
0.0
0
LINE
8
00_Contorno Poliamida
10
1976.014763
20
1285.731108
30
0.0
11
1976.614762
21
1290.981103
31
0.0
0
LINE
8
00_Contorno Poliamida
10
1976.014782
20
1270.731086
30
0.0
11
1976.614782
21
1275.981081
31
0.0
0
LINE
8
00_Contorno Poliamida
10
1976.014801
20
1255.731063
30
0.0
11
1976.614801
21
1260.981059
31
0.0
0
LINE
8
00_Contorno Poliamida
10
1976.014821
20
1240.731041
30
0.0
11
1976.614820
21
1245.981037
31
0.0
0
LINE
8
00_Contorno Poliamida
10
1976.323383
20
1228.430769
30
0.0
11
1976.614839
21
1230.981015
31
0.0
0
LINE
8
00_Contorno Poliamida
10
1966.858757
20
1230.993482
30
0.0
11
1966.738298
21
1233.282205
31
0.0
0
LINE
8
00_Contorno Poliamida
10
1966.858756
20
1245.993484
30
0.0
11
1966.738298
21
1248.282190
31
0.0
0
LINE
8
00_Contorno Poliamida
10
1966.858756
20
1260.993487
30
0.0
11
1966.738298
21
1263.282176
31
0.0
0
LINE
8
00_Contorno Poliamida
10
1966.858755
20
1275.993490
30
0.0
11
1966.738298
21
1278.282161
31
0.0
0
LINE
8
00_Contorno Poliamida
10
1966.858754
20
1290.993492
30
0.0
11
1966.761221
21
1292.846616
31
0.0
0
LINE
8
00_Contorno Poliamida
10
1966.738298
20
1279.077663
30
0.0
11
1967.154165
21
1281.988735
31
0.0
0
LINE
8
00_Contorno Poliamida
10
1966.738298
20
1264.077696
30
0.0
11
1967.154159
21
1266.988728
31
0.0
0
LINE
8
00_Contorno Poliamida
10
1966.738298
20
1249.077730
30
0.0
11
1967.154154
21
1251.988721
31
0.0
0
LINE
8
00_Contorno Poliamida
10
1966.738298
20
1234.077763
30
0.0
11
1967.154148
21
1236.988714
31
0.0
0
LINE
8
00_Contorno Poliamida
10
1967.102949
20
1221.630357
30
0.0
11
1967.154142
21
1221.988708
31
0.0
0
LINE
8
00_Contorno Poliamida
10
1967.164807
20
1281.992330
30
0.0
11
1967.314804
21
1285.592327
31
0.0
0
LINE
8
00_Contorno Poliamida
10
1967.164825
20
1266.992331
30
0.0
11
1967.314822
21
1270.592327
31
0.0
0
LINE
8
00_Contorno Poliamida
10
1967.164843
20
1251.992332
30
0.0
11
1967.314840
21
1255.592328
31
0.0
0
LINE
8
00_Contorno Poliamida
10
1967.164862
20
1236.992333
30
0.0
11
1967.314859
21
1240.592329
31
0.0
0
LINE
8
00_Contorno Poliamida
10
1967.164880
20
1221.992333
30
0.0
11
1967.314877
21
1225.592330
31
0.0
0
LINE
8
00_Contorno Poliamida
10
1967.311785
20
1225.596248
30
0.0
11
1966.861784
21
1227.996244
31
0.0
0
LINE
8
00_Contorno Poliamida
10
1967.311793
20
1240.596264
30
0.0
11
1966.861792
21
1242.996260
31
0.0
0
LINE
8
00_Contorno Poliamida
10
1967.311801
20
1255.596280
30
0.0
11
1966.861799
21
1257.996276
31
0.0
0
LINE
8
00_Contorno Poliamida
10
1967.311808
20
1270.596296
30
0.0
11
1966.861807
21
1272.996292
31
0.0
0
LINE
8
00_Contorno Poliamida
10
1967.311816
20
1285.596312
30
0.0
11
1966.861815
21
1287.996308
31
0.0
0
LINE
8
00_Contorno Poliamida
10
1966.856409
20
1227.990959
30
0.0
11
1966.856409
21
1230.990959
31
0.0
0
LINE
8
00_Contorno Poliamida
10
1966.856409
20
1242.990959
30
0.0
11
1966.856409
21
1245.990959
31
0.0
0
LINE
8
00_Contorno Poliamida
10
1966.856409
20
1257.990959
30
0.0
11
1966.856409
21
1260.990959
31
0.0
0
LINE
8
00_Contorno Poliamida
10
1966.856409
20
1272.990959
30
0.0
11
1966.856409
21
1275.990959
31
0.0
0
LINE
8
00_Contorno Poliamida
10
1966.856409
20
1287.990959
30
0.0
11
1966.856409
21
1290.990959
31
0.0
0
LINE
8
00_Contorno Poliamida
10
1967.906350
20
1230.989731
30
0.0
11
1967.756349
21
1233.239731
31
0.0
0
LINE
8
00_Contorno Poliamida
10
1967.906343
20
1245.989728
30
0.0
11
1967.756342
21
1248.239729
31
0.0
0
LINE
8
00_Contorno Poliamida
10
1967.906337
20
1260.989726
30
0.0
11
1967.756336
21
1263.239726
31
0.0
0
LINE
8
00_Contorno Poliamida
10
1967.906330
20
1275.989723
30
0.0
11
1967.756329
21
1278.239724
31
0.0
0
LINE
8
00_Contorno Poliamida
10
1967.906324
20
1290.989721
30
0.0
11
1967.756323
21
1293.239722
31
0.0
0
LINE
8
00_Contorno Poliamida
10
1967.752122
20
1293.237585
30
0.0
11
1967.842155
21
1293.633731
31
0.0
0
LINE
8
00_Contorno Poliamida
10
1967.752093
20
1278.237572
30
0.0
11
1968.502094
21
1281.537567
31
0.0
0
LINE
8
00_Contorno Poliamida
10
1967.752064
20
1263.237559
30
0.0
11
1968.502065
21
1266.537554
31
0.0
0
LINE
8
00_Contorno Poliamida
10
1967.752035
20
1248.237546
30
0.0
11
1968.502037
21
1251.537541
31
0.0
0
LINE
8
00_Contorno Poliamida
10
1967.752007
20
1233.237533
30
0.0
11
1968.502008
21
1236.537528
31
0.0
0
LINE
8
00_Contorno Poliamida
10
1968.292597
20
1220.616239
30
0.0
11
1968.501979
21
1221.537515
31
0.0
0
LINE
8
00_Contorno Poliamida
10
1968.506409
20
1221.540959
30
0.0
11
1968.506409
21
1225.290959
31
0.0
0
LINE
8
00_Contorno Poliamida
10
1968.506409
20
1236.540959
30
0.0
11
1968.506409
21
1240.290959
31
0.0
0
LINE
8
00_Contorno Poliamida
10
1968.506409
20
1251.540959
30
0.0
11
1968.506409
21
1255.290959
31
0.0
0
LINE
8
00_Contorno Poliamida
10
1968.506409
20
1266.540959
30
0.0
11
1968.506409
21
1270.290959
31
0.0
0
LINE
8
00_Contorno Poliamida
10
1968.506409
20
1281.540959
30
0.0
11
1968.506409
21
1285.290959
31
0.0
0
LINE
8
00_Contorno Poliamida
10
1968.514283
20
1225.287388
30
0.0
11
1968.214285
21
1228.437385
31
0.0
0
LINE
8
00_Contorno Poliamida
10
1968.514306
20
1240.287382
30
0.0
11
1968.214308
21
1243.437379
31
0.0
0
LINE
8
00_Contorno Poliamida
10
1968.514328
20
1255.287376
30
0.0
11
1968.214330
21
1258.437373
31
0.0
0
LINE
8
00_Contorno Poliamida
10
1968.514351
20
1270.287371
30
0.0
11
1968.214353
21
1273.437367
31
0.0
0
LINE
8
00_Contorno Poliamida
10
1968.514374
20
1285.287365
30
0.0
11
1968.214376
21
1288.437362
31
0.0
0
LINE
8
00_Contorno Poliamida
10
1968.210340
20
1228.450639
30
0.0
11
1967.910342
21
1231.000633
31
0.0
0
LINE
8
00_Contorno Poliamida
10
1968.210358
20
1243.450661
30
0.0
11
1967.910360
21
1246.000655
31
0.0
0
LINE
8
00_Contorno Poliamida
10
1968.210376
20
1258.450683
30
0.0
11
1967.910379
21
1261.000677
31
0.0
0
LINE
8
00_Contorno Poliamida
10
1968.210395
20
1273.450705
30
0.0
11
1967.910397
21
1276.000699
31
0.0
0
LINE
8
00_Contorno Poliamida
10
1968.210413
20
1288.450727
30
0.0
11
1967.910416
21
1291.000721
31
0.0
0
LINE
8
00_Contorno Poliamida
10
1978.650353
20
1221.019132
30
0.0
11
1978.404040
21
1222.743325
31
0.0
0
LINE
8
00_Contorno Poliamida
10
1978.738869
20
1235.399489
30
0.0
11
1978.404034
21
1237.743332
31
0.0
0
LINE
8
00_Contorno Poliamida
10
1978.738869
20
1250.399456
30
0.0
11
1978.404029
21
1252.743339
31
0.0
0
LINE
8
00_Contorno Poliamida
10
1978.732056
20
1265.447114
30
0.0
11
1978.404023
21
1267.743346
31
0.0
0
LINE
8
00_Contorno Poliamida
10
1978.738869
20
1280.399389
30
0.0
11
1978.404017
21
1282.743352
31
0.0
0
LINE
8
00_Contorno Poliamida
10
1978.414971
20
1282.742357
30
0.0
11
1978.564968
21
1286.342353
31
0.0
0
LINE
8
00_Contorno Poliamida
10
1978.414990
20
1267.742358
30
0.0
11
1978.564987
21
1271.342354
31
0.0
0
LINE
8
00_Contorno Poliamida
10
1978.415008
20
1252.742358
30
0.0
11
1978.565005
21
1256.342355
31
0.0
0
LINE
8
00_Contorno Poliamida
10
1978.415026
20
1237.742359
30
0.0
11
1978.565023
21
1241.342356
31
0.0
0
LINE
8
00_Contorno Poliamida
10
1978.415045
20
1222.742360
30
0.0
11
1978.485394
21
1224.430769
31
0.0
0
LINE
8
00_Contorno Poliamida
10
1978.553980
20
1286.333733
30
0.0
11
1978.738869
21
1288.244271
31
0.0
0
LINE
8
00_Contorno Poliamida
10
1978.553986
20
1271.333718
30
0.0
11
1978.738869
21
1273.244192
31
0.0
0
LINE
8
00_Contorno Poliamida
10
1978.553992
20
1256.333704
30
0.0
11
1978.738869
21
1258.244114
31
0.0
0
LINE
8
00_Contorno Poliamida
10
1978.553998
20
1241.333689
30
0.0
11
1978.738869
21
1243.244036
31
0.0
0
LINE
8
00_Contorno Poliamida
10
1977.654809
20
1230.992107
30
0.0
11
1977.204806
21
1234.742113
31
0.0
0
LINE
8
00_Contorno Poliamida
10
1977.654798
20
1245.992109
30
0.0
11
1977.204796
21
1249.742115
31
0.0
0
LINE
8
00_Contorno Poliamida
10
1977.654788
20
1260.992111
30
0.0
11
1977.204785
21
1264.742117
31
0.0
0
LINE
8
00_Contorno Poliamida
10
1977.654777
20
1275.992113
30
0.0
11
1977.204775
21
1279.742119
31
0.0
0
LINE
8
00_Contorno Poliamida
10
1977.654767
20
1290.992115
30
0.0
11
1977.204764
21
1294.742121
31
0.0
0
LINE
8
00_Contorno Poliamida
10
1977.206409
20
1220.430467
30
0.0
11
1977.206409
21
1223.940959
31
0.0
0
LINE
8
00_Contorno Poliamida
10
1977.206409
20
1234.740959
30
0.0
11
1977.206409
21
1238.940959
31
0.0
0
LINE
8
00_Contorno Poliamida
10
1977.206409
20
1249.740959
30
0.0
11
1977.206409
21
1253.940959
31
0.0
0
LINE
8
00_Contorno Poliamida
10
1977.206409
20
1264.740959
30
0.0
11
1977.206409
21
1268.940959
31
0.0
0
LINE
8
00_Contorno Poliamida
10
1977.206409
20
1279.740959
30
0.0
11
1977.206409
21
1283.940959
31
0.0
0
LINE
8
00_Contorno Poliamida
10
1977.206409
20
1294.740959
30
0.0
11
1977.206409
21
1298.940959
31
0.0
0
LINE
8
00_Contorno Poliamida
10
1977.193273
20
1298.955107
30
0.0
11
1977.278717
21
1300.293731
31
0.0
0
LINE
8
00_Contorno Poliamida
10
1977.193263
20
1283.955125
30
0.0
11
1977.643260
21
1291.005118
31
0.0
0
LINE
8
00_Contorno Poliamida
10
1977.193252
20
1268.955142
30
0.0
11
1977.643249
21
1276.005135
31
0.0
0
LINE
8
00_Contorno Poliamida
10
1977.193242
20
1253.955159
30
0.0
11
1977.643239
21
1261.005152
31
0.0
0
LINE
8
00_Contorno Poliamida
10
1977.193232
20
1238.955176
30
0.0
11
1977.643229
21
1246.005170
31
0.0
0
LINE
8
00_Contorno Poliamida
10
1977.193222
20
1223.955194
30
0.0
11
1977.223577
21
1224.430769
31
0.0
0
LINE
8
00_Contorno Poliamida
10
1977.478895
20
1228.430769
30
0.0
11
1977.643218
21
1231.005187
31
0.0
0
LINE
8
00_Contorno Poliamida
10
1972.406409
20
1230.990959
30
0.0
11
1972.406409
21
1234.590959
31
0.0
0
LINE
8
00_Contorno Poliamida
10
1972.406409
20
1245.990959
30
0.0
11
1972.406409
21
1249.590959
31
0.0
0
LINE
8
00_Contorno Poliamida
10
1972.406409
20
1260.990959
30
0.0
11
1972.406409
21
1264.590959
31
0.0
0
LINE
8
00_Contorno Poliamida
10
1972.406409
20
1275.990959
30
0.0
11
1972.406409
21
1279.590959
31
0.0
0
LINE
8
00_Contorno Poliamida
10
1972.406409
20
1290.990959
30
0.0
11
1972.406409
21
1294.590959
31
0.0
0
LINE
8
00_Contorno Poliamida
10
1972.331915
20
1220.430467
30
0.0
11
1972.101792
21
1223.191963
31
0.0
0
LINE
8
00_Contorno Poliamida
10
1972.401793
20
1234.591964
30
0.0
11
1972.101796
21
1238.191966
31
0.0
0
LINE
8
00_Contorno Poliamida
10
1972.401797
20
1249.591967
30
0.0
11
1972.101799
21
1253.191969
31
0.0
0
LINE
8
00_Contorno Poliamida
10
1972.401800
20
1264.591970
30
0.0
11
1972.101803
21
1268.191972
31
0.0
0
LINE
8
00_Contorno Poliamida
10
1972.401804
20
1279.591973
30
0.0
11
1972.101806
21
1283.191975
31
0.0
0
LINE
8
00_Contorno Poliamida
10
1972.401807
20
1294.591976
30
0.0
11
1972.101810
21
1298.191978
31
0.0
0
LINE
8
00_Contorno Poliamida
10
1972.099414
20
1298.194198
30
0.0
11
1972.167140
21
1300.293731
31
0.0
0
LINE
8
00_Contorno Poliamida
10
1972.099412
20
1283.194200
30
0.0
11
1972.249411
21
1287.844196
31
0.0
0
LINE
8
00_Contorno Poliamida
10
1972.099410
20
1268.194202
30
0.0
11
1972.249409
21
1272.844198
31
0.0
0
LINE
8
00_Contorno Poliamida
10
1972.099409
20
1253.194204
30
0.0
11
1972.249408
21
1257.844200
31
0.0
0
LINE
8
00_Contorno Poliamida
10
1972.099407
20
1238.194206
30
0.0
11
1972.249406
21
1242.844202
31
0.0
0
LINE
8
00_Contorno Poliamida
10
1972.099405
20
1223.194208
30
0.0
11
1972.249404
21
1227.844204
31
0.0
0
LINE
8
00_Contorno Poliamida
10
1972.254064
20
1287.843426
30
0.0
11
1972.404063
21
1290.993427
31
0.0
0
LINE
8
00_Contorno Poliamida
10
1972.254064
20
1272.843428
30
0.0
11
1972.404064
21
1275.993429
31
0.0
0
LINE
8
00_Contorno Poliamida
10
1972.254065
20
1257.843431
30
0.0
11
1972.404065
21
1260.993431
31
0.0
0
LINE
8
00_Contorno Poliamida
10
1972.254066
20
1242.843433
30
0.0
11
1972.404065
21
1245.993433
31
0.0
0
LINE
8
00_Contorno Poliamida
10
1972.254067
20
1227.843435
30
0.0
11
1972.404066
21
1230.993436
31
0.0
0
LINE
8
00_Contorno Poliamida
10
1970.008622
20
1290.992878
30
0.0
11
1970.248698
21
1293.633731
31
0.0
0
LINE
8
00_Contorno Poliamida
10
1970.008634
20
1275.992881
30
0.0
11
1970.308632
21
1279.292878
31
0.0
0
LINE
8
00_Contorno Poliamida
10
1970.008645
20
1260.992884
30
0.0
11
1970.308643
21
1264.292881
31
0.0
0
LINE
8
00_Contorno Poliamida
10
1970.008657
20
1245.992887
30
0.0
11
1970.308655
21
1249.292884
31
0.0
0
LINE
8
00_Contorno Poliamida
10
1970.008669
20
1230.992889
30
0.0
11
1970.308667
21
1234.292886
31
0.0
0
LINE
8
00_Contorno Poliamida
10
1970.306409
20
1220.430467
30
0.0
11
1970.306409
21
1224.090959
31
0.0
0
LINE
8
00_Contorno Poliamida
10
1970.306409
20
1234.290959
30
0.0
11
1970.306409
21
1239.090959
31
0.0
0
LINE
8
00_Contorno Poliamida
10
1970.306409
20
1249.290959
30
0.0
11
1970.306409
21
1254.090959
31
0.0
0
LINE
8
00_Contorno Poliamida
10
1970.306409
20
1264.290959
30
0.0
11
1970.306409
21
1269.090959
31
0.0
0
LINE
8
00_Contorno Poliamida
10
1970.306409
20
1279.290959
30
0.0
11
1970.306409
21
1284.090959
31
0.0
0
LINE
8
00_Contorno Poliamida
10
1970.310256
20
1224.093952
30
0.0
11
1970.160252
21
1228.593958
31
0.0
0
LINE
8
00_Contorno Poliamida
10
1970.310246
20
1239.093954
30
0.0
11
1970.160242
21
1243.593959
31
0.0
0
LINE
8
00_Contorno Poliamida
10
1970.310236
20
1254.093955
30
0.0
11
1970.160232
21
1258.593961
31
0.0
0
LINE
8
00_Contorno Poliamida
10
1970.310226
20
1269.093957
30
0.0
11
1970.160222
21
1273.593962
31
0.0
0
LINE
8
00_Contorno Poliamida
10
1970.310216
20
1284.093958
30
0.0
11
1970.160213
21
1288.593964
31
0.0
0
LINE
8
00_Contorno Poliamida
10
1970.153295
20
1228.583440
30
0.0
11
1970.003297
21
1230.983437
31
0.0
0
LINE
8
00_Contorno Poliamida
10
1970.153300
20
1243.583431
30
0.0
11
1970.003302
21
1245.983428
31
0.0
0
LINE
8
00_Contorno Poliamida
10
1970.153306
20
1258.583422
30
0.0
11
1970.003307
21
1260.983419
31
0.0
0
LINE
8
00_Contorno Poliamida
10
1970.153311
20
1273.583413
30
0.0
11
1970.003313
21
1275.983410
31
0.0
0
LINE
8
00_Contorno Poliamida
10
1970.153316
20
1288.583404
30
0.0
11
1970.003318
21
1290.983401
31
0.0
0
LINE
8
0
10
1977.738869
20
1293.633731
30
0.0
11
1977.738869
21
1299.993731
31
0.0
0
ARC
8
0
10
1977.438869
20
1299.993731
30
0.0
40
0.300000
50
0.000000
51
90.000000
0
LINE
8
0
10
1977.438869
20
1300.293731
30
0.0
11
1971.636860
21
1300.293731
31
0.0
0
ARC
8
0
10
1971.636860
20
1299.993731
30
0.0
40
0.300000
50
90.000000
51
180.000000
0
LINE
8
0
10
1971.336860
20
1299.993731
30
0.0
11
1971.336860
21
1293.633731
31
0.0
0
LINE
8
0
10
1971.336860
20
1293.633731
30
0.0
11
1967.738298
21
1293.633731
31
0.0
0
ARC
8
0
10
1967.738298
20
1292.633731
30
0.0
40
1.000000
50
90.000000
51
180.000000
0
LINE
8
0
10
1966.738298
20
1292.633731
30
0.0
11
1966.738298
21
1222.930467
31
0.0
0
ARC
8
0
10
1969.238298
20
1222.930467
30
0.0
40
2.500000
50
180.000000
51
270.000000
0
LINE
8
0
10
1969.238298
20
1220.430467
30
0.0
11
1977.738869
21
1220.430467
31
0.0
0
ARC
8
0
10
1977.738869
20
1221.430467
30
0.0
40
1.000000
50
270.000000
51
0.000000
0
LINE
8
0
10
1978.738869
20
1221.430467
30
0.0
11
1978.738869
21
1224.430769
31
0.0
0
LINE
8
0
10
1978.738869
20
1224.430769
30
0.0
11
1972.738963
21
1224.430769
31
0.0
0
LINE
8
0
10
1972.738963
20
1224.430769
30
0.0
11
1972.738963
21
1228.430769
31
0.0
0
LINE
8
0
10
1972.738963
20
1228.430769
30
0.0
11
1978.738869
21
1228.430769
31
0.0
0
LINE
8
0
10
1978.738869
20
1228.430769
30
0.0
11
1978.738869
21
1261.725155
31
0.0
0
ARC
8
0
10
1978.438869
20
1261.725155
30
0.0
40
0.300000
50
0.000000
51
30.000000
0
LINE
8
0
10
1978.698677
20
1261.875155
30
0.0
11
1977.779061
21
1263.467975
31
0.0
0
ARC
8
0
10
1978.038869
20
1263.617975
30
0.0
40
0.300000
50
150.000000
51
210.000000
0
LINE
8
0
10
1977.779061
20
1263.767975
30
0.0
11
1978.698715
21
1265.360862
31
0.0
0
ARC
8
0
10
1978.438907
20
1265.510862
30
0.0
40
0.300000
50
330.000000
51
0.914439
0
LINE
8
0
10
1978.738869
20
1265.515650
30
0.0
11
1978.738869
21
1293.333731
31
0.0
0
ARC
8
0
10
1978.438869
20
1293.333731
30
0.0
40
0.300000
50
0.000000
51
90.000000
0
LINE
8
0
10
1978.438869
20
1293.633731
30
0.0
11
1977.738869
21
1293.633731
31
0.0
0
ATTDEF
8
0
10
0.000000
20
0.000000
30
0.0
40
3.5
1

3

2
PANE_WIDTH:0
70
0
0
ATTDEF
8
0
10
0.000000
20
0.000000
30
0.0
40
3.5
1

3

2
MIN_VETRO:0
70
0
0
ATTDEF
8
0
10
0.000000
20
0.000000
30
0.0
40
3.5
1

3

2
MAX_VETRO:0
70
0
0
ATTDEF
8
0
10
0.000000
20
0.000000
30
0.0
40
3.5
1

3

2
JX:0
70
0
0
ATTDEF
8
0
10
0.000000
20
0.000000
30
0.0
40
3.5
1

3

2
WX:0
70
0
0
ATTDEF
8
0
10
0.000000
20
0.000000
30
0.0
40
3.5
1

3

2
JY:0
70
0
0
ATTDEF
8
0
10
0.000000
20
0.000000
30
0.0
40
3.5
1

3

2
WY:0
70
0
0
ATTDEF
8
0
10
0.000000
20
0.000000
30
0.0
40
3.5
1

3

2
DESC:Hoja madera puerta
70
0
0
ATTDEF
8
0
10
0.000000
20
0.000000
30
0.0
40
3.5
1

3

2
DENS:0
70
0
0
ATTDEF
8
0
10
0.000000
20
0.000000
30
0.0
40
3.5
1

3

2
TDEV:0
70
0
0
ATTDEF
8
0
10
0.000000
20
0.000000
30
0.0
40
3.5
1

3

2
TDEV2:0
70
0
0
ATTDEF
8
0
10
0.000000
20
0.000000
30
0.0
40
3.5
1

3

2
TDEV3:0
70
0
0
ATTDEF
8
0
10
0.000000
20
0.000000
30
0.0
40
3.5
1

3

2
TDEV4:0
70
0
0
ATTDEF
8
0
10
0.000000
20
0.000000
30
0.0
40
3.5
1

3

2
TDEV5:0
70
0
0
ATTDEF
8
0
10
0.000000
20
0.000000
30
0.0
40
3.5
1

3

2
PANE_WIDTH:0
70
0
0
ATTDEF
8
0
10
0.000000
20
0.000000
30
0.0
40
3.5
1

3

2
MIN_VETRO:0
70
0
0
ATTDEF
8
0
10
0.000000
20
0.000000
30
0.0
40
3.5
1

3

2
MAX_VETRO:0
70
0
0
ATTDEF
8
0
10
0.000000
20
0.000000
30
0.0
40
3.5
1

3

2
JX:0
70
0
0
ATTDEF
8
0
10
0.000000
20
0.000000
30
0.0
40
3.5
1

3

2
WX:0
70
0
0
ATTDEF
8
0
10
0.000000
20
0.000000
30
0.0
40
3.5
1

3

2
JY:0
70
0
0
ATTDEF
8
0
10
0.000000
20
0.000000
30
0.0
40
3.5
1

3

2
WY:0
70
0
0
ENDSEC
0
EOF
