0
SECTION
2
ENTITIES
0
ARC
8
00_ALUMINIO
10
139.277970
20
165.115131
30
0.0
40
0.283566
50
310.341960
51
49.658040
0
LINE
8
00_ALUMINIO
10
139.461536
20
165.331263
30
0.0
11
139.461536
21
166.750976
31
0.0
0
ARC
8
00_ALUMINIO
10
139.961536
20
166.750976
30
0.0
40
0.500000
50
113.578178
51
180.000000
0
ARC
8
00_ALUMINIO
10
140.161536
20
166.292719
30
0.0
40
1.000000
50
98.626927
51
113.578178
0
ARC
8
00_ALUMINIO
10
139.861536
20
168.270091
30
0.0
40
1.000000
50
278.626927
51
0.000000
0
LINE
8
00_ALUMINIO
10
140.861536
20
168.270091
30
0.0
11
140.861536
21
169.112557
31
0.0
0
ARC
8
00_ALUMINIO
10
141.861536
20
169.112557
30
0.0
40
1.000000
50
90.000000
51
180.000000
0
LINE
8
00_ALUMINIO
10
141.861536
20
170.112557
30
0.0
11
143.161536
21
170.112557
31
0.0
0
ARC
8
00_ALUMINIO
10
143.161536
20
169.812557
30
0.0
40
0.300000
50
0.000000
51
90.000000
0
LINE
8
00_ALUMINIO
10
143.461536
20
169.812557
30
0.0
11
143.461536
21
168.162154
31
0.0
0
ARC
8
00_ALUMINIO
10
142.961536
20
168.162154
30
0.0
40
0.500000
50
270.000000
51
0.000000
0
LINE
8
00_ALUMINIO
10
142.961536
20
167.662154
30
0.0
11
142.861536
21
167.662154
31
0.0
0
ARC
8
00_ALUMINIO
10
142.861536
20
166.762154
30
0.0
40
0.900000
50
90.000000
51
180.000000
0
ARC
8
00_ALUMINIO
10
142.261536
20
166.762154
30
0.0
40
0.300000
50
180.000000
51
270.000000
0
LINE
8
00_ALUMINIO
10
142.261536
20
166.462154
30
0.0
11
143.461536
21
166.462154
31
0.0
0
LINE
8
00_ALUMINIO
10
143.461536
20
166.462154
30
0.0
11
143.461536
21
165.033906
31
0.0
0
ARC
8
00_ALUMINIO
10
144.461536
20
165.033906
30
0.0
40
1.000000
50
180.000000
51
268.517853
0
LINE
8
00_ALUMINIO
10
144.435671
20
164.034241
30
0.0
11
144.674469
21
164.028062
31
0.0
0
ARC
8
00_ALUMINIO
10
144.661536
20
163.528229
30
0.0
40
0.500000
50
0.000000
51
88.517852
0
LINE
8
00_ALUMINIO
10
145.161536
20
163.528229
30
0.0
11
145.161536
21
145.996078
31
0.0
0
ARC
8
00_ALUMINIO
10
144.661536
20
145.996078
30
0.0
40
0.500000
50
271.482148
51
0.000000
0
LINE
8
00_ALUMINIO
10
144.674469
20
145.496246
30
0.0
11
144.435671
21
145.490067
31
0.0
0
ARC
8
00_ALUMINIO
10
144.461536
20
144.490402
30
0.0
40
1.000000
50
91.482148
51
180.000000
0
LINE
8
00_ALUMINIO
10
143.461536
20
144.490402
30
0.0
11
143.461536
21
143.162154
31
0.0
0
LINE
8
00_ALUMINIO
10
143.461536
20
143.162154
30
0.0
11
141.561536
21
143.162154
31
0.0
0
ARC
8
00_ALUMINIO
10
141.561536
20
142.862154
30
0.0
40
0.300000
50
90.000000
51
180.000000
0
LINE
8
00_ALUMINIO
10
141.261536
20
142.862154
30
0.0
11
141.261536
21
142.331589
31
0.0
0
LINE
8
00_ALUMINIO
10
141.261536
20
142.331589
30
0.0
11
140.161536
21
142.331589
31
0.0
0
ARC
8
00_ALUMINIO
10
140.161536
20
143.331589
30
0.0
40
1.000000
50
246.421822
51
270.000000
0
ARC
8
00_ALUMINIO
10
139.961536
20
142.873331
30
0.0
40
0.500000
50
180.000000
51
246.421822
0
LINE
8
00_ALUMINIO
10
139.461536
20
142.873331
30
0.0
11
139.461536
21
144.193044
31
0.0
0
ARC
8
00_ALUMINIO
10
139.277970
20
144.409177
30
0.0
40
0.283566
50
310.341960
51
49.658040
0
LINE
8
00_ALUMINIO
10
139.461536
20
144.625309
30
0.0
11
139.461536
21
146.012154
31
0.0
0
LINE
8
00_ALUMINIO
10
139.461536
20
146.012154
30
0.0
11
137.395803
21
145.548259
31
0.0
0
ARC
8
00_ALUMINIO
10
137.461536
20
145.255549
30
0.0
40
0.300000
50
102.656754
51
180.000000
0
LINE
8
00_ALUMINIO
10
137.161536
20
145.255549
30
0.0
11
137.161536
21
138.262154
31
0.0
0
ARC
8
00_ALUMINIO
10
137.461536
20
138.262154
30
0.0
40
0.300000
50
180.000000
51
270.000000
0
LINE
8
00_ALUMINIO
10
137.461536
20
137.962154
30
0.0
11
138.561536
21
137.962154
31
0.0
0
ARC
8
00_ALUMINIO
10
138.561536
20
138.262154
30
0.0
40
0.300000
50
270.000000
51
315.000000
0
LINE
8
00_ALUMINIO
10
138.773668
20
138.050022
30
0.0
11
139.685800
21
138.962154
31
0.0
0
LINE
8
00_ALUMINIO
10
139.685800
20
138.962154
30
0.0
11
139.685800
21
139.262154
31
0.0
0
ARC
8
00_ALUMINIO
10
139.385800
20
139.262154
30
0.0
40
0.300000
50
0.000000
51
90.000000
0
LINE
8
00_ALUMINIO
10
139.385800
20
139.562154
30
0.0
11
138.961967
21
139.562154
31
0.0
0
ARC
8
00_ALUMINIO
10
138.961967
20
139.862154
30
0.0
40
0.300000
50
180.000000
51
270.000000
0
LINE
8
00_ALUMINIO
10
138.661967
20
139.862154
30
0.0
11
138.661967
21
140.231589
31
0.0
0
ARC
8
00_ALUMINIO
10
138.961967
20
140.231589
30
0.0
40
0.300000
50
90.000000
51
180.000000
0
LINE
8
00_ALUMINIO
10
138.961967
20
140.531589
30
0.0
11
146.947835
21
140.531589
31
0.0
0
ARC
8
00_ALUMINIO
10
146.947835
20
140.231589
30
0.0
40
0.300000
50
0.000000
51
90.000000
0
LINE
8
00_ALUMINIO
10
147.247835
20
140.231589
30
0.0
11
147.247835
21
139.331589
31
0.0
0
ARC
8
00_ALUMINIO
10
147.547835
20
139.331589
30
0.0
40
0.300000
50
180.000000
51
270.000000
0
LINE
8
00_ALUMINIO
10
147.547835
20
139.031589
30
0.0
11
162.323322
21
139.031589
31
0.0
0
LINE
8
00_ALUMINIO
10
162.323322
20
139.031589
30
0.0
11
162.631072
21
139.339339
31
0.0
0
LINE
8
00_ALUMINIO
10
162.631072
20
139.339339
30
0.0
11
162.938822
21
139.031589
31
0.0
0
LINE
8
00_ALUMINIO
10
162.938822
20
139.031589
30
0.0
11
167.347835
21
139.031589
31
0.0
0
ARC
8
00_ALUMINIO
10
167.347835
20
139.531589
30
0.0
40
0.500000
50
270.000000
51
0.000000
0
LINE
8
00_ALUMINIO
10
167.847835
20
139.531589
30
0.0
11
167.847835
21
142.981589
31
0.0
0
LINE
8
00_ALUMINIO
10
167.847835
20
142.981589
30
0.0
11
168.215696
21
142.981589
31
0.0
0
ARC
8
00_ALUMINIO
10
168.711536
20
142.418878
30
0.0
40
0.750000
50
121.279632
51
131.385295
0
LINE
8
00_ALUMINIO
10
168.322124
20
143.059861
30
0.0
11
168.843984
21
143.376902
31
0.0
0
ARC
8
00_ALUMINIO
10
169.882414
20
141.667615
30
0.0
40
2.000000
50
50.215080
51
121.279632
0
ARC
8
00_ALUMINIO
10
171.482183
20
143.588745
30
0.0
40
0.500000
50
230.215080
51
270.000000
0
LINE
8
00_ALUMINIO
10
171.482183
20
143.088745
30
0.0
11
172.670980
21
143.088745
31
0.0
0
ARC
8
00_ALUMINIO
10
172.670980
20
143.388745
30
0.0
40
0.300000
50
270.000000
51
33.675648
0
LINE
8
00_ALUMINIO
10
172.920637
20
143.555092
30
0.0
11
171.447312
21
145.766285
31
0.0
0
ARC
8
00_ALUMINIO
10
171.197655
20
145.599938
30
0.0
40
0.300000
50
33.675648
51
66.045185
0
LINE
8
00_ALUMINIO
10
171.319460
20
145.874097
30
0.0
11
170.309004
21
146.323027
31
0.0
0
ARC
8
00_ALUMINIO
10
170.249880
20
146.189949
30
0.0
40
0.145621
50
66.045185
51
183.658900
0
LINE
8
00_ALUMINIO
10
170.104556
20
146.180656
30
0.0
11
170.114485
21
146.025391
31
0.0
0
ARC
8
00_ALUMINIO
10
169.914892
20
146.012628
30
0.0
40
0.200000
50
310.482877
51
3.658900
0
LINE
8
00_ALUMINIO
10
170.044736
20
145.860508
30
0.0
11
168.440534
21
144.491219
31
0.0
0
ARC
8
00_ALUMINIO
10
168.245768
20
144.719399
30
0.0
40
0.300000
50
288.658900
51
310.482877
0
LINE
8
00_ALUMINIO
10
168.341748
20
144.435167
30
0.0
11
168.057516
21
144.339187
31
0.0
0
ARC
8
00_ALUMINIO
10
167.961536
20
144.623419
30
0.0
40
0.300000
50
90.000000
51
288.658900
0
LINE
8
00_ALUMINIO
10
167.961536
20
144.923419
30
0.0
11
167.961536
21
149.423419
31
0.0
0
ARC
8
00_ALUMINIO
10
168.161536
20
149.423419
30
0.0
40
0.200000
50
90.000000
51
180.000000
0
LINE
8
00_ALUMINIO
10
168.161536
20
149.623419
30
0.0
11
168.229425
21
149.623419
31
0.0
0
ARC
8
00_ALUMINIO
10
168.229425
20
149.323419
30
0.0
40
0.300000
50
58.619868
51
90.000000
0
LINE
8
00_ALUMINIO
10
168.385639
20
149.579538
30
0.0
11
170.061632
21
148.557305
31
0.0
0
ARC
8
00_ALUMINIO
10
170.261536
20
148.551115
30
0.0
40
0.200000
50
178.226372
51
0.000000
0
LINE
8
00_ALUMINIO
10
170.461536
20
148.551115
30
0.0
11
170.461536
21
149.958106
31
0.0
0
ARC
8
00_ALUMINIO
10
170.261536
20
149.958106
30
0.0
40
0.200000
50
0.000000
51
58.619868
0
LINE
8
00_ALUMINIO
10
170.365679
20
150.128852
30
0.0
11
168.440822
21
151.302873
31
0.0
0
ARC
8
00_ALUMINIO
10
168.961536
20
152.156605
30
0.0
40
1.000000
50
180.000000
51
238.619868
0
LINE
8
00_ALUMINIO
10
167.961536
20
152.156605
30
0.0
11
167.961536
21
160.368672
31
0.0
0
ARC
8
00_ALUMINIO
10
168.961536
20
160.368672
30
0.0
40
1.000000
50
121.380132
51
180.000000
0
LINE
8
00_ALUMINIO
10
168.440822
20
161.222403
30
0.0
11
170.365679
21
162.396424
31
0.0
0
ARC
8
00_ALUMINIO
10
170.261536
20
162.567171
30
0.0
40
0.200000
50
301.380132
51
0.000000
0
LINE
8
00_ALUMINIO
10
170.461536
20
162.567171
30
0.0
11
170.461536
21
163.974161
31
0.0
0
ARC
8
00_ALUMINIO
10
170.261536
20
163.974161
30
0.0
40
0.200000
50
0.000000
51
181.773628
0
LINE
8
00_ALUMINIO
10
170.061632
20
163.967971
30
0.0
11
168.385639
21
162.945738
31
0.0
0
ARC
8
00_ALUMINIO
10
168.229425
20
163.201857
30
0.0
40
0.300000
50
270.000000
51
301.380132
0
LINE
8
00_ALUMINIO
10
168.229425
20
162.901857
30
0.0
11
168.161536
21
162.901857
31
0.0
0
ARC
8
00_ALUMINIO
10
168.161536
20
163.101857
30
0.0
40
0.200000
50
180.000000
51
270.000000
0
LINE
8
00_ALUMINIO
10
167.961536
20
163.101857
30
0.0
11
167.961536
21
167.601857
31
0.0
0
ARC
8
00_ALUMINIO
10
167.961536
20
167.901857
30
0.0
40
0.300000
50
71.341100
51
270.000000
0
LINE
8
00_ALUMINIO
10
168.057516
20
168.186089
30
0.0
11
168.341748
21
168.090109
31
0.0
0
ARC
8
00_ALUMINIO
10
168.245768
20
167.805877
30
0.0
40
0.300000
50
49.517123
51
71.341100
0
LINE
8
00_ALUMINIO
10
168.440534
20
168.034057
30
0.0
11
170.044736
21
166.664768
31
0.0
0
ARC
8
00_ALUMINIO
10
169.914892
20
166.512648
30
0.0
40
0.200000
50
356.341100
51
49.517123
0
LINE
8
00_ALUMINIO
10
170.114485
20
166.499885
30
0.0
11
170.104556
21
166.344620
31
0.0
0
ARC
8
00_ALUMINIO
10
170.249880
20
166.335327
30
0.0
40
0.145621
50
176.341100
51
293.954815
0
LINE
8
00_ALUMINIO
10
170.309004
20
166.202250
30
0.0
11
171.319460
21
166.651179
31
0.0
0
ARC
8
00_ALUMINIO
10
171.197655
20
166.925339
30
0.0
40
0.300000
50
293.954815
51
326.324352
0
LINE
8
00_ALUMINIO
10
171.447312
20
166.758991
30
0.0
11
172.920637
21
168.970184
31
0.0
0
ARC
8
00_ALUMINIO
10
172.670980
20
169.136531
30
0.0
40
0.300000
50
326.324352
51
90.000000
0
LINE
8
00_ALUMINIO
10
172.670980
20
169.436531
30
0.0
11
171.482183
21
169.436531
31
0.0
0
ARC
8
00_ALUMINIO
10
171.482183
20
168.936531
30
0.0
40
0.500000
50
90.000000
51
129.784920
0
ARC
8
00_ALUMINIO
10
169.882414
20
170.857661
30
0.0
40
2.000000
50
238.720368
51
309.784920
0
LINE
8
00_ALUMINIO
10
168.843984
20
169.148374
30
0.0
11
168.322124
21
169.465416
31
0.0
0
ARC
8
00_ALUMINIO
10
168.711536
20
170.106398
30
0.0
40
0.750000
50
222.935440
51
238.720368
0
LINE
8
00_ALUMINIO
10
168.162445
20
169.595518
30
0.0
11
167.781072
21
169.595518
31
0.0
0
LINE
8
00_ALUMINIO
10
167.781072
20
169.595518
30
0.0
11
167.781072
21
177.412557
31
0.0
0
ARC
8
00_ALUMINIO
10
167.581072
20
177.412557
30
0.0
40
0.200000
50
0.000000
51
90.000000
0
LINE
8
00_ALUMINIO
10
167.581072
20
177.612557
30
0.0
11
165.231072
21
177.612557
31
0.0
0
ARC
8
00_ALUMINIO
10
165.231072
20
177.412557
30
0.0
40
0.200000
50
90.000000
51
180.000000
0
LINE
8
00_ALUMINIO
10
165.031072
20
177.412557
30
0.0
11
165.031072
21
176.312557
31
0.0
0
ARC
8
00_ALUMINIO
10
165.231072
20
176.312557
30
0.0
40
0.200000
50
180.000000
51
270.000000
0
LINE
8
00_ALUMINIO
10
165.231072
20
176.112557
30
0.0
11
166.181072
21
176.112557
31
0.0
0
ARC
8
00_ALUMINIO
10
166.181072
20
175.912557
30
0.0
40
0.200000
50
0.000000
51
90.000000
0
LINE
8
00_ALUMINIO
10
166.381072
20
175.912557
30
0.0
11
166.381072
21
169.631984
31
0.0
0
ARC
8
00_ALUMINIO
10
166.081072
20
169.631984
30
0.0
40
0.300000
50
270.000000
51
0.000000
0
LINE
8
00_ALUMINIO
10
166.081072
20
169.331984
30
0.0
11
158.861072
21
169.331984
31
0.0
0
ARC
8
00_ALUMINIO
10
158.861072
20
169.631984
30
0.0
40
0.300000
50
180.000000
51
270.000000
0
LINE
8
00_ALUMINIO
10
158.561072
20
169.631984
30
0.0
11
158.561072
21
175.812557
31
0.0
0
ARC
8
00_ALUMINIO
10
158.861072
20
175.812557
30
0.0
40
0.300000
50
90.000000
51
180.000000
0
LINE
8
00_ALUMINIO
10
158.861072
20
176.112557
30
0.0
11
160.031072
21
176.112557
31
0.0
0
ARC
8
00_ALUMINIO
10
160.031072
20
176.312557
30
0.0
40
0.200000
50
270.000000
51
0.000000
0
LINE
8
00_ALUMINIO
10
160.231072
20
176.312557
30
0.0
11
160.231072
21
177.412557
31
0.0
0
ARC
8
00_ALUMINIO
10
160.031072
20
177.412557
30
0.0
40
0.200000
50
0.000000
51
90.000000
0
LINE
8
00_ALUMINIO
10
160.031072
20
177.612557
30
0.0
11
154.958897
21
177.612557
31
0.0
0
LINE
8
00_ALUMINIO
10
154.958897
20
177.612557
30
0.0
11
153.958897
21
176.612557
31
0.0
0
LINE
8
00_ALUMINIO
10
153.958897
20
176.612557
30
0.0
11
153.958897
21
175.612557
31
0.0
0
LINE
8
00_ALUMINIO
10
153.958897
20
175.612557
30
0.0
11
156.261072
21
175.612557
31
0.0
0
ARC
8
00_ALUMINIO
10
156.261072
20
175.312557
30
0.0
40
0.300000
50
0.000000
51
90.000000
0
LINE
8
00_ALUMINIO
10
156.561072
20
175.312557
30
0.0
11
156.561072
21
171.912557
31
0.0
0
ARC
8
00_ALUMINIO
10
156.261072
20
171.912557
30
0.0
40
0.300000
50
270.000000
51
0.000000
0
LINE
8
00_ALUMINIO
10
156.261072
20
171.612557
30
0.0
11
139.258897
21
171.612557
31
0.0
0
ARC
8
00_ALUMINIO
10
139.258897
20
171.912557
30
0.0
40
0.300000
50
180.000000
51
270.000000
0
LINE
8
00_ALUMINIO
10
138.958897
20
171.912557
30
0.0
11
138.958897
21
175.612557
31
0.0
0
LINE
8
00_ALUMINIO
10
138.958897
20
175.612557
30
0.0
11
139.958897
21
175.612557
31
0.0
0
LINE
8
00_ALUMINIO
10
139.958897
20
175.612557
30
0.0
11
139.958897
21
176.612557
31
0.0
0
LINE
8
00_ALUMINIO
10
139.958897
20
176.612557
30
0.0
11
138.958897
21
177.612557
31
0.0
0
LINE
8
00_ALUMINIO
10
138.958897
20
177.612557
30
0.0
11
137.461536
21
177.612557
31
0.0
0
ARC
8
00_ALUMINIO
10
137.461536
20
177.312557
30
0.0
40
0.300000
50
90.000000
51
180.000000
0
LINE
8
00_ALUMINIO
10
137.161536
20
177.312557
30
0.0
11
137.161536
21
174.012557
31
0.0
0
LINE
8
00_ALUMINIO
10
137.161536
20
174.012557
30
0.0
11
133.161536
21
174.012557
31
0.0
0
ARC
8
00_ALUMINIO
10
133.161536
20
173.712557
30
0.0
40
0.300000
50
90.000000
51
180.000000
0
LINE
8
00_ALUMINIO
10
132.861536
20
173.712557
30
0.0
11
132.861536
21
172.312557
31
0.0
0
ARC
8
00_ALUMINIO
10
133.161536
20
172.312557
30
0.0
40
0.300000
50
180.000000
51
270.000000
0
LINE
8
00_ALUMINIO
10
133.161536
20
172.012557
30
0.0
11
136.861536
21
172.012557
31
0.0
0
ARC
8
00_ALUMINIO
10
136.861536
20
171.712557
30
0.0
40
0.300000
50
0.000000
51
90.000000
0
LINE
8
00_ALUMINIO
10
137.161536
20
171.712557
30
0.0
11
137.161536
21
170.112557
31
0.0
0
ARC
8
00_ALUMINIO
10
137.661536
20
170.112557
30
0.0
40
0.500000
50
180.000000
51
270.000000
0
LINE
8
00_ALUMINIO
10
137.661536
20
169.612557
30
0.0
11
138.020705
21
169.612557
31
0.0
0
ARC
8
00_ALUMINIO
10
138.020705
20
169.112557
30
0.0
40
0.500000
50
301.756500
51
90.000000
0
LINE
8
00_ALUMINIO
10
138.283861
20
168.687411
30
0.0
11
137.872070
21
168.432522
31
0.0
0
ARC
8
00_ALUMINIO
10
138.661536
20
167.157084
30
0.0
40
1.500000
50
121.756500
51
180.000000
0
LINE
8
00_ALUMINIO
10
137.161536
20
167.157084
30
0.0
11
137.161536
21
164.268759
31
0.0
0
ARC
8
00_ALUMINIO
10
137.461536
20
164.268759
30
0.0
40
0.300000
50
180.000000
51
257.343246
0
LINE
8
00_ALUMINIO
10
137.395803
20
163.976049
30
0.0
11
139.461536
21
163.512154
31
0.0
0
LINE
8
00_ALUMINIO
10
139.461536
20
163.512154
30
0.0
11
139.461536
21
164.898999
31
0.0
0
ARC
8
00_ALUMINIO
10
145.261536
20
169.812557
30
0.0
40
0.300000
50
90.000000
51
180.000000
0
LINE
8
00_ALUMINIO
10
145.261536
20
170.112557
30
0.0
11
146.761536
21
170.112557
31
0.0
0
ARC
8
00_ALUMINIO
10
146.761536
20
169.612557
30
0.0
40
0.500000
50
0.000000
51
90.000000
0
LINE
8
00_ALUMINIO
10
147.261536
20
169.612557
30
0.0
11
147.261536
21
167.312557
31
0.0
0
ARC
8
00_ALUMINIO
10
148.261536
20
167.312557
30
0.0
40
1.000000
50
180.000000
51
270.000000
0
LINE
8
00_ALUMINIO
10
148.261536
20
166.312557
30
0.0
11
148.461536
21
166.312557
31
0.0
0
ARC
8
00_ALUMINIO
10
148.461536
20
166.612557
30
0.0
40
0.300000
50
270.000000
51
0.000000
0
LINE
8
00_ALUMINIO
10
148.761536
20
166.612557
30
0.0
11
148.761536
21
167.831984
31
0.0
0
LINE
8
00_ALUMINIO
10
148.761536
20
167.831984
30
0.0
11
150.761536
21
167.831984
31
0.0
0
LINE
8
00_ALUMINIO
10
150.761536
20
167.831984
30
0.0
11
150.761536
21
170.112557
31
0.0
0
LINE
8
00_ALUMINIO
10
150.761536
20
170.112557
30
0.0
11
156.761072
21
170.112557
31
0.0
0
ARC
8
00_ALUMINIO
10
156.761072
20
169.812557
30
0.0
40
0.300000
50
0.000000
51
90.000000
0
LINE
8
00_ALUMINIO
10
157.061072
20
169.812557
30
0.0
11
157.061072
21
168.131984
31
0.0
0
ARC
8
00_ALUMINIO
10
157.361072
20
168.131984
30
0.0
40
0.300000
50
180.000000
51
270.000000
0
LINE
8
00_ALUMINIO
10
157.361072
20
167.831984
30
0.0
11
162.323322
21
167.831984
31
0.0
0
LINE
8
00_ALUMINIO
10
162.323322
20
167.831984
30
0.0
11
162.631072
21
168.139734
31
0.0
0
LINE
8
00_ALUMINIO
10
162.631072
20
168.139734
30
0.0
11
162.938822
21
167.831984
31
0.0
0
LINE
8
00_ALUMINIO
10
162.938822
20
167.831984
30
0.0
11
166.361536
21
167.831984
31
0.0
0
LINE
8
00_ALUMINIO
10
166.361536
20
167.831984
30
0.0
11
166.361536
21
140.531589
31
0.0
0
LINE
8
00_ALUMINIO
10
166.361536
20
140.531589
30
0.0
11
148.761536
21
140.531589
31
0.0
0
LINE
8
00_ALUMINIO
10
148.761536
20
140.531589
30
0.0
11
148.761536
21
143.831589
31
0.0
0
LINE
8
00_ALUMINIO
10
148.761536
20
143.831589
30
0.0
11
148.261536
21
143.831589
31
0.0
0
ARC
8
00_ALUMINIO
10
148.261536
20
143.331589
30
0.0
40
0.500000
50
90.000000
51
180.000000
0
LINE
8
00_ALUMINIO
10
147.761536
20
143.331589
30
0.0
11
147.761536
21
142.831589
31
0.0
0
ARC
8
00_ALUMINIO
10
147.261536
20
142.831589
30
0.0
40
0.500000
50
270.000000
51
0.000000
0
LINE
8
00_ALUMINIO
10
147.261536
20
142.331589
30
0.0
11
145.261536
21
142.331589
31
0.0
0
ARC
8
00_ALUMINIO
10
145.261536
20
142.631589
30
0.0
40
0.300000
50
180.000000
51
270.000000
0
LINE
8
00_ALUMINIO
10
144.961536
20
142.631589
30
0.0
11
144.961536
21
143.710733
31
0.0
0
ARC
8
00_ALUMINIO
10
145.261536
20
143.710733
30
0.0
40
0.300000
50
90.000000
51
180.000000
0
LINE
8
00_ALUMINIO
10
145.261536
20
144.010733
30
0.0
11
145.661536
21
144.010733
31
0.0
0
ARC
8
00_ALUMINIO
10
145.661536
20
145.010733
30
0.0
40
1.000000
50
270.000000
51
0.000000
0
LINE
8
00_ALUMINIO
10
146.661536
20
145.010733
30
0.0
11
146.661536
21
164.016254
31
0.0
0
ARC
8
00_ALUMINIO
10
145.161536
20
164.016254
30
0.0
40
1.500000
50
0.000000
51
86.815261
0
ARC
8
00_ALUMINIO
10
145.261536
20
165.813474
30
0.0
40
0.300000
50
180.000000
51
266.815262
0
LINE
8
00_ALUMINIO
10
144.961536
20
165.813474
30
0.0
11
144.961536
21
169.812557
31
0.0
0
ARC
8
00_ALUMINIO
10
182.161536
20
162.625381
30
0.0
40
2.000000
50
299.026391
51
0.000000
0
LINE
8
00_ALUMINIO
10
184.161536
20
162.625381
30
0.0
11
184.161536
21
167.573688
31
0.0
0
ARC
8
00_ALUMINIO
10
184.661536
20
167.573688
30
0.0
40
0.500000
50
90.000000
51
180.000000
0
LINE
8
00_ALUMINIO
10
184.661536
20
168.073688
30
0.0
11
185.661536
21
168.073688
31
0.0
0
ARC
8
00_ALUMINIO
10
185.661536
20
167.573688
30
0.0
40
0.500000
50
0.000000
51
90.000000
0
LINE
8
00_ALUMINIO
10
186.161536
20
167.573688
30
0.0
11
186.161536
21
144.951589
31
0.0
0
ARC
8
00_ALUMINIO
10
185.661536
20
144.951589
30
0.0
40
0.500000
50
270.000000
51
0.000000
0
LINE
8
00_ALUMINIO
10
185.661536
20
144.451589
30
0.0
11
184.661536
21
144.451589
31
0.0
0
ARC
8
00_ALUMINIO
10
184.661536
20
144.951589
30
0.0
40
0.500000
50
180.000000
51
270.000000
0
LINE
8
00_ALUMINIO
10
184.161536
20
144.951589
30
0.0
11
184.161536
21
149.899895
31
0.0
0
ARC
8
00_ALUMINIO
10
182.161536
20
149.899895
30
0.0
40
2.000000
50
0.000000
51
60.973609
0
ARC
8
00_ALUMINIO
10
183.617173
20
152.523084
30
0.0
40
1.000000
50
180.000000
51
240.973609
0
LINE
8
00_ALUMINIO
10
182.617173
20
152.523084
30
0.0
11
182.617173
21
160.002192
31
0.0
0
ARC
8
00_ALUMINIO
10
183.617173
20
160.002192
30
0.0
40
1.000000
50
119.026391
51
180.000000
0
ARC
8
00_ALUMINIO
10
182.761536
20
167.901857
30
0.0
40
0.300000
50
270.000000
51
108.658900
0
LINE
8
00_ALUMINIO
10
182.665556
20
168.186089
30
0.0
11
182.381324
21
168.090109
31
0.0
0
ARC
8
00_ALUMINIO
10
182.477304
20
167.805877
30
0.0
40
0.300000
50
108.658900
51
130.482877
0
LINE
8
00_ALUMINIO
10
182.282538
20
168.034057
30
0.0
11
180.678336
21
166.664768
31
0.0
0
ARC
8
00_ALUMINIO
10
180.808180
20
166.512648
30
0.0
40
0.200000
50
130.482877
51
183.658900
0
LINE
8
00_ALUMINIO
10
180.608587
20
166.499885
30
0.0
11
180.618516
21
166.344620
31
0.0
0
ARC
8
00_ALUMINIO
10
180.473192
20
166.335327
30
0.0
40
0.145621
50
246.045185
51
3.658900
0
LINE
8
00_ALUMINIO
10
180.414068
20
166.202250
30
0.0
11
179.403612
21
166.651179
31
0.0
0
ARC
8
00_ALUMINIO
10
179.525417
20
166.925339
30
0.0
40
0.300000
50
213.675648
51
246.045185
0
LINE
8
00_ALUMINIO
10
179.275760
20
166.758991
30
0.0
11
177.802435
21
168.970184
31
0.0
0
ARC
8
00_ALUMINIO
10
178.052092
20
169.136531
30
0.0
40
0.300000
50
90.000000
51
213.675648
0
LINE
8
00_ALUMINIO
10
178.052092
20
169.436531
30
0.0
11
179.240889
21
169.436531
31
0.0
0
ARC
8
00_ALUMINIO
10
179.240889
20
168.936531
30
0.0
40
0.500000
50
50.215080
51
90.000000
0
ARC
8
00_ALUMINIO
10
180.840658
20
170.857661
30
0.0
40
2.000000
50
230.215080
51
301.279632
0
LINE
8
00_ALUMINIO
10
181.879088
20
169.148374
30
0.0
11
182.400947
21
169.465416
31
0.0
0
ARC
8
00_ALUMINIO
10
182.011536
20
170.106398
30
0.0
40
0.750000
50
301.279632
51
314.742236
0
LINE
8
00_ALUMINIO
10
182.539475
20
169.573688
30
0.0
11
185.561536
21
169.573688
31
0.0
0
ARC
8
00_ALUMINIO
10
185.561536
20
170.073688
30
0.0
40
0.500000
50
270.000000
51
0.000000
0
LINE
8
00_ALUMINIO
10
186.061536
20
170.073688
30
0.0
11
186.061536
21
176.612557
31
0.0
0
ARC
8
00_ALUMINIO
10
185.761536
20
176.612557
30
0.0
40
0.300000
50
0.000000
51
90.000000
0
LINE
8
00_ALUMINIO
10
185.761536
20
176.912557
30
0.0
11
183.061536
21
176.912557
31
0.0
0
ARC
8
00_ALUMINIO
10
183.061536
20
177.412557
30
0.0
40
0.500000
50
180.000000
51
270.000000
0
LINE
8
00_ALUMINIO
10
182.561536
20
177.412557
30
0.0
11
182.561536
21
179.112557
31
0.0
0
ARC
8
00_ALUMINIO
10
183.061536
20
179.112557
30
0.0
40
0.500000
50
90.000000
51
180.000000
0
LINE
8
00_ALUMINIO
10
183.061536
20
179.612557
30
0.0
11
183.861536
21
179.612557
31
0.0
0
LINE
8
00_ALUMINIO
10
183.861536
20
179.612557
30
0.0
11
183.861536
21
178.512557
31
0.0
0
LINE
8
00_ALUMINIO
10
183.861536
20
178.512557
30
0.0
11
186.061536
21
178.512557
31
0.0
0
LINE
8
00_ALUMINIO
10
186.061536
20
178.512557
30
0.0
11
186.061536
21
191.212557
31
0.0
0
ARC
8
00_ALUMINIO
10
185.761536
20
191.212557
30
0.0
40
0.300000
50
0.000000
51
90.000000
0
LINE
8
00_ALUMINIO
10
185.761536
20
191.512557
30
0.0
11
184.761536
21
191.512557
31
0.0
0
LINE
8
00_ALUMINIO
10
184.761536
20
191.512557
30
0.0
11
184.761536
21
190.212557
31
0.0
0
LINE
8
00_ALUMINIO
10
184.761536
20
190.212557
30
0.0
11
184.061536
21
190.212557
31
0.0
0
ARC
8
00_ALUMINIO
10
184.061536
20
190.712557
30
0.0
40
0.500000
50
180.000000
51
270.000000
0
LINE
8
00_ALUMINIO
10
183.561536
20
190.712557
30
0.0
11
183.561536
21
194.362557
31
0.0
0
ARC
8
00_ALUMINIO
10
184.061536
20
194.362557
30
0.0
40
0.500000
50
0.000000
51
180.000000
0
LINE
8
00_ALUMINIO
10
184.561536
20
194.362557
30
0.0
11
184.561536
21
193.312557
31
0.0
0
ARC
8
00_ALUMINIO
10
185.061536
20
193.312557
30
0.0
40
0.500000
50
180.000000
51
270.000000
0
LINE
8
00_ALUMINIO
10
185.061536
20
192.812557
30
0.0
11
185.861536
21
192.812557
31
0.0
0
ARC
8
00_ALUMINIO
10
185.861536
20
193.312557
30
0.0
40
0.500000
50
270.000000
51
0.000000
0
LINE
8
00_ALUMINIO
10
186.361536
20
193.312557
30
0.0
11
186.361536
21
199.812557
31
0.0
0
ARC
8
00_ALUMINIO
10
185.861536
20
199.812557
30
0.0
40
0.500000
50
0.000000
51
90.000000
0
LINE
8
00_ALUMINIO
10
185.861536
20
200.312557
30
0.0
11
185.061536
21
200.312557
31
0.0
0
ARC
8
00_ALUMINIO
10
185.061536
20
199.812557
30
0.0
40
0.500000
50
90.000000
51
180.000000
0
LINE
8
00_ALUMINIO
10
184.561536
20
199.812557
30
0.0
11
184.561536
21
199.362557
31
0.0
0
ARC
8
00_ALUMINIO
10
184.061536
20
199.362557
30
0.0
40
0.500000
50
180.000000
51
0.000000
0
LINE
8
00_ALUMINIO
10
183.561536
20
199.362557
30
0.0
11
183.561536
21
201.312557
31
0.0
0
ARC
8
00_ALUMINIO
10
183.861536
20
201.312557
30
0.0
40
0.300000
50
90.000000
51
180.000000
0
LINE
8
00_ALUMINIO
10
183.861536
20
201.612557
30
0.0
11
187.061536
21
201.612557
31
0.0
0
ARC
8
00_ALUMINIO
10
187.061536
20
201.112557
30
0.0
40
0.500000
50
0.000000
51
90.000000
0
LINE
8
00_ALUMINIO
10
187.561536
20
201.112557
30
0.0
11
187.561536
21
138.262154
31
0.0
0
ARC
8
00_ALUMINIO
10
187.261536
20
138.262154
30
0.0
40
0.300000
50
270.000000
51
0.000000
0
LINE
8
00_ALUMINIO
10
187.261536
20
137.962154
30
0.0
11
185.185369
21
137.962154
31
0.0
0
ARC
8
00_ALUMINIO
10
185.185369
20
138.262154
30
0.0
40
0.300000
50
225.000000
51
270.000000
0
LINE
8
00_ALUMINIO
10
184.973237
20
138.050022
30
0.0
11
184.061105
21
138.962154
31
0.0
0
LINE
8
00_ALUMINIO
10
184.061105
20
138.962154
30
0.0
11
184.061105
21
139.262154
31
0.0
0
ARC
8
00_ALUMINIO
10
184.361105
20
139.262154
30
0.0
40
0.300000
50
90.000000
51
180.000000
0
LINE
8
00_ALUMINIO
10
184.361105
20
139.562154
30
0.0
11
185.761105
21
139.562154
31
0.0
0
ARC
8
00_ALUMINIO
10
185.761105
20
139.862154
30
0.0
40
0.300000
50
270.000000
51
0.000000
0
LINE
8
00_ALUMINIO
10
186.061105
20
139.862154
30
0.0
11
186.061105
21
142.651589
31
0.0
0
ARC
8
00_ALUMINIO
10
185.761105
20
142.651589
30
0.0
40
0.300000
50
0.000000
51
90.000000
0
LINE
8
00_ALUMINIO
10
185.761105
20
142.951589
30
0.0
11
182.539475
21
142.951589
31
0.0
0
ARC
8
00_ALUMINIO
10
182.011536
20
142.418878
30
0.0
40
0.750000
50
45.257764
51
58.720368
0
LINE
8
00_ALUMINIO
10
182.400947
20
143.059861
30
0.0
11
181.879088
21
143.376902
31
0.0
0
ARC
8
00_ALUMINIO
10
180.840658
20
141.667615
30
0.0
40
2.000000
50
58.720368
51
129.784920
0
ARC
8
00_ALUMINIO
10
179.240889
20
143.588745
30
0.0
40
0.500000
50
270.000000
51
309.784920
0
LINE
8
00_ALUMINIO
10
179.240889
20
143.088745
30
0.0
11
178.052092
21
143.088745
31
0.0
0
ARC
8
00_ALUMINIO
10
178.052092
20
143.388745
30
0.0
40
0.300000
50
146.324352
51
270.000000
0
LINE
8
00_ALUMINIO
10
177.802435
20
143.555092
30
0.0
11
179.275760
21
145.766285
31
0.0
0
ARC
8
00_ALUMINIO
10
179.525417
20
145.599938
30
0.0
40
0.300000
50
113.954815
51
146.324352
0
LINE
8
00_ALUMINIO
10
179.403612
20
145.874097
30
0.0
11
180.414068
21
146.323027
31
0.0
0
ARC
8
00_ALUMINIO
10
180.473192
20
146.189949
30
0.0
40
0.145621
50
356.341100
51
113.954815
0
LINE
8
00_ALUMINIO
10
180.618516
20
146.180656
30
0.0
11
180.608587
21
146.025391
31
0.0
0
ARC
8
00_ALUMINIO
10
180.808180
20
146.012628
30
0.0
40
0.200000
50
176.341100
51
229.517123
0
LINE
8
00_ALUMINIO
10
180.678336
20
145.860508
30
0.0
11
182.282538
21
144.491219
31
0.0
0
ARC
8
00_ALUMINIO
10
182.477304
20
144.719399
30
0.0
40
0.300000
50
229.517123
51
251.341100
0
LINE
8
00_ALUMINIO
10
182.381324
20
144.435167
30
0.0
11
182.665556
21
144.339187
31
0.0
0
ARC
8
00_ALUMINIO
10
182.761536
20
144.623419
30
0.0
40
0.300000
50
251.341100
51
90.000000
0
LINE
8
00_ALUMINIO
10
182.761536
20
144.923419
30
0.0
11
182.761536
21
149.423419
31
0.0
0
ARC
8
00_ALUMINIO
10
182.561536
20
149.423419
30
0.0
40
0.200000
50
0.000000
51
90.000000
0
LINE
8
00_ALUMINIO
10
182.561536
20
149.623419
30
0.0
11
182.493647
21
149.623419
31
0.0
0
ARC
8
00_ALUMINIO
10
182.493647
20
149.323419
30
0.0
40
0.300000
50
90.000000
51
121.380132
0
LINE
8
00_ALUMINIO
10
182.337433
20
149.579538
30
0.0
11
180.661440
21
148.557305
31
0.0
0
ARC
8
00_ALUMINIO
10
180.461536
20
148.551115
30
0.0
40
0.200000
50
180.000000
51
1.773628
0
LINE
8
00_ALUMINIO
10
180.261536
20
148.551115
30
0.0
11
180.261536
21
149.958106
31
0.0
0
ARC
8
00_ALUMINIO
10
180.461536
20
149.958106
30
0.0
40
0.200000
50
121.380132
51
180.000000
0
LINE
8
00_ALUMINIO
10
180.357393
20
150.128852
30
0.0
11
180.737887
21
150.360925
31
0.0
0
ARC
8
00_ALUMINIO
10
180.217173
20
151.214656
30
0.0
40
1.000000
50
301.380132
51
0.000000
0
LINE
8
00_ALUMINIO
10
181.217173
20
151.214656
30
0.0
11
181.217173
21
161.310620
31
0.0
0
ARC
8
00_ALUMINIO
10
180.217173
20
161.310620
30
0.0
40
1.000000
50
0.000000
51
58.619868
0
LINE
8
00_ALUMINIO
10
180.737887
20
162.164351
30
0.0
11
180.357393
21
162.396424
31
0.0
0
ARC
8
00_ALUMINIO
10
180.461536
20
162.567171
30
0.0
40
0.200000
50
180.000000
51
238.619868
0
LINE
8
00_ALUMINIO
10
180.261536
20
162.567171
30
0.0
11
180.261536
21
163.974161
31
0.0
0
ARC
8
00_ALUMINIO
10
180.461536
20
163.974161
30
0.0
40
0.200000
50
358.226373
51
180.000000
0
LINE
8
00_ALUMINIO
10
180.661440
20
163.967971
30
0.0
11
182.337433
21
162.945738
31
0.0
0
ARC
8
00_ALUMINIO
10
182.493647
20
163.201857
30
0.0
40
0.300000
50
238.619868
51
270.000000
0
LINE
8
00_ALUMINIO
10
182.493647
20
162.901857
30
0.0
11
182.561536
21
162.901857
31
0.0
0
ARC
8
00_ALUMINIO
10
182.561536
20
163.101857
30
0.0
40
0.200000
50
270.000000
51
0.000000
0
LINE
8
00_ALUMINIO
10
182.761536
20
163.101857
30
0.0
11
182.761536
21
167.601857
31
0.0
0
LINE
8
00_POLIAMIDAS
10
168.061536
20
166.313230
30
0.0
11
168.925114
21
167.176808
31
0.0
0
LINE
8
00_POLIAMIDAS
10
174.540074
20
172.791768
30
0.0
11
175.939605
21
174.191299
31
0.0
0
LINE
8
00_POLIAMIDAS
10
167.961536
20
163.968166
30
0.0
11
168.648342
21
164.654972
31
0.0
0
LINE
8
00_POLIAMIDAS
10
174.561536
20
170.568166
30
0.0
11
176.161536
21
172.168166
31
0.0
0
LINE
8
00_POLIAMIDAS
10
169.308199
20
165.314829
30
0.0
11
170.348428
21
166.355057
31
0.0
0
LINE
8
00_POLIAMIDAS
10
170.438622
20
164.200188
30
0.0
11
176.161536
21
169.923102
31
0.0
0
LINE
8
00_POLIAMIDAS
10
175.735133
20
167.251634
30
0.0
11
177.373983
21
168.890485
31
0.0
0
LINE
8
00_POLIAMIDAS
10
176.934354
20
166.205792
30
0.0
11
178.298582
21
167.570020
31
0.0
0
LINE
8
00_POLIAMIDAS
10
177.858953
20
164.885327
30
0.0
11
179.234255
21
166.260629
31
0.0
0
LINE
8
00_POLIAMIDAS
10
179.520325
20
164.301634
30
0.0
11
182.532125
21
167.313435
31
0.0
0
LINE
8
00_POLIAMIDAS
10
181.159075
20
163.695320
30
0.0
11
182.126507
21
164.662753
31
0.0
0
LINE
8
00_POLIAMIDAS
10
168.061536
20
148.352718
30
0.0
11
168.907458
21
149.198640
31
0.0
0
LINE
8
00_POLIAMIDAS
10
167.961536
20
146.007654
30
0.0
11
168.624016
21
146.670134
31
0.0
0
LINE
8
00_POLIAMIDAS
10
169.305119
20
147.351236
30
0.0
11
170.330771
21
148.376889
31
0.0
0
LINE
8
00_POLIAMIDAS
10
170.375062
20
146.176115
30
0.0
11
172.404169
21
148.205222
31
0.0
0
LINE
8
00_POLIAMIDAS
10
171.995355
20
145.551344
30
0.0
11
173.359583
21
146.915573
31
0.0
0
LINE
8
00_POLIAMIDAS
10
172.919954
20
144.230880
30
0.0
11
174.284183
21
145.595108
31
0.0
0
LINE
8
00_POLIAMIDAS
10
174.297855
20
143.363717
30
0.0
11
179.147855
21
148.213717
31
0.0
0
LINE
8
00_POLIAMIDAS
10
176.542919
20
143.363717
30
0.0
11
178.721108
21
145.541905
31
0.0
0
LINE
8
00_POLIAMIDAS
10
179.492919
20
146.313717
30
0.0
11
182.513095
21
149.333892
31
0.0
0
LINE
8
00_POLIAMIDAS
10
181.141982
20
145.717715
30
0.0
11
182.093625
21
146.669359
31
0.0
0
LINE
8
00_POLIAMIDAS
10
169.137821
20
145.461794
30
0.0
11
168.061536
21
146.538079
31
0.0
0
LINE
8
00_POLIAMIDAS
10
170.572707
20
146.271972
30
0.0
11
167.961536
21
148.883143
31
0.0
0
LINE
8
00_POLIAMIDAS
10
175.726026
20
143.363717
30
0.0
11
170.876026
21
148.213717
31
0.0
0
LINE
8
00_POLIAMIDAS
10
177.515166
20
143.819642
30
0.0
11
176.071091
21
145.263717
31
0.0
0
LINE
8
00_POLIAMIDAS
10
178.439765
20
145.140106
30
0.0
11
177.075536
21
146.504335
31
0.0
0
LINE
8
00_POLIAMIDAS
10
179.511219
20
146.313717
30
0.0
11
178.000136
21
147.824799
31
0.0
0
LINE
8
00_POLIAMIDAS
10
182.707336
20
145.362663
30
0.0
11
179.856283
21
148.213717
31
0.0
0
LINE
8
00_POLIAMIDAS
10
182.518163
20
147.796901
30
0.0
11
181.372345
21
148.942718
31
0.0
0
LINE
8
00_POLIAMIDAS
10
169.120728
20
163.439399
30
0.0
11
168.061536
21
164.498591
31
0.0
0
LINE
8
00_POLIAMIDAS
10
170.552634
20
164.252557
30
0.0
11
169.184989
21
165.620203
31
0.0
0
LINE
8
00_POLIAMIDAS
10
169.080104
20
165.725087
30
0.0
11
167.961536
21
166.843655
31
0.0
0
LINE
8
00_POLIAMIDAS
10
172.576167
20
164.474089
30
0.0
11
170.848621
21
166.201634
31
0.0
0
LINE
8
00_POLIAMIDAS
10
173.500766
20
165.794553
30
0.0
11
172.136538
21
167.158782
31
0.0
0
LINE
8
00_POLIAMIDAS
10
174.426884
20
167.113500
30
0.0
11
173.061137
21
168.479247
31
0.0
0
LINE
8
00_POLIAMIDAS
10
179.483813
20
164.301634
30
0.0
11
174.478199
21
169.307248
31
0.0
0
LINE
8
00_POLIAMIDAS
10
182.696897
20
163.333614
30
0.0
11
179.828877
21
166.201634
31
0.0
0
LINE
8
00_POLIAMIDAS
10
176.161536
20
169.868976
30
0.0
11
174.561536
21
171.468976
31
0.0
0
LINE
8
00_POLIAMIDAS
10
177.920421
20
168.110091
30
0.0
11
176.878877
21
169.151634
31
0.0
0
LINE
8
00_POLIAMIDAS
10
182.495957
20
165.779619
30
0.0
11
181.354689
21
166.920886
31
0.0
0
LINE
8
00_POLIAMIDAS
10
176.161536
20
172.114040
30
0.0
11
174.073941
21
174.201634
31
0.0
0
ARC
8
00_POLIAMIDAS
10
173.631262
20
143.563717
30
0.0
40
0.200000
50
215.000000
51
270.000000
0
LINE
8
00_POLIAMIDAS
10
173.631262
20
143.363717
30
0.0
11
175.361536
21
143.363717
31
0.0
0
LINE
8
00_POLIAMIDAS
10
175.361536
20
143.363717
30
0.0
11
177.091810
21
143.363717
31
0.0
0
ARC
8
00_POLIAMIDAS
10
177.091810
20
143.563717
30
0.0
40
0.200000
50
270.000000
51
325.000000
0
LINE
8
00_POLIAMIDAS
10
177.255641
20
143.449001
30
0.0
11
179.171960
21
146.185790
31
0.0
0
ARC
8
00_POLIAMIDAS
10
179.417706
20
146.013717
30
0.0
40
0.300000
50
90.000000
51
145.000000
0
LINE
8
00_POLIAMIDAS
10
179.417706
20
146.313717
30
0.0
11
179.895318
21
146.313717
31
0.0
0
ARC
8
00_POLIAMIDAS
10
179.895318
20
145.513717
30
0.0
40
0.800000
50
60.000000
51
90.000000
0
LINE
8
00_POLIAMIDAS
10
180.295318
20
146.206537
30
0.0
11
182.055126
21
145.190512
31
0.0
0
ARC
8
00_POLIAMIDAS
10
182.155126
20
145.363717
30
0.0
40
0.200000
50
240.000000
51
270.000000
0
LINE
8
00_POLIAMIDAS
10
182.155126
20
145.163717
30
0.0
11
182.361536
21
145.163717
31
0.0
0
ARC
8
00_POLIAMIDAS
10
182.361536
20
145.563717
30
0.0
40
0.400000
50
270.000000
51
0.000000
0
LINE
8
00_POLIAMIDAS
10
182.761536
20
145.563717
30
0.0
11
182.761536
21
146.163717
31
0.0
0
LINE
8
00_POLIAMIDAS
10
182.761536
20
146.163717
30
0.0
11
182.661536
21
146.163717
31
0.0
0
LINE
8
00_POLIAMIDAS
10
182.661536
20
146.163717
30
0.0
11
182.661536
21
146.538717
31
0.0
0
ARC
8
00_POLIAMIDAS
10
182.461536
20
146.538717
30
0.0
40
0.200000
50
0.000000
51
90.000000
0
LINE
8
00_POLIAMIDAS
10
182.461536
20
146.738717
30
0.0
11
182.349730
21
146.738717
31
0.0
0
LINE
8
00_POLIAMIDAS
10
182.349730
20
146.738717
30
0.0
11
182.265181
21
146.719967
31
0.0
0
ARC
8
00_POLIAMIDAS
10
182.011536
20
147.263717
30
0.0
40
0.600000
50
64.992167
51
295.007833
0
LINE
8
00_POLIAMIDAS
10
182.265181
20
147.807467
30
0.0
11
182.349730
21
147.788717
31
0.0
0
LINE
8
00_POLIAMIDAS
10
182.349730
20
147.788717
30
0.0
11
182.461536
21
147.788717
31
0.0
0
ARC
8
00_POLIAMIDAS
10
182.461536
20
147.988717
30
0.0
40
0.200000
50
270.000000
51
0.000000
0
LINE
8
00_POLIAMIDAS
10
182.661536
20
147.988717
30
0.0
11
182.661536
21
148.363717
31
0.0
0
LINE
8
00_POLIAMIDAS
10
182.661536
20
148.363717
30
0.0
11
182.761536
21
148.363717
31
0.0
0
LINE
8
00_POLIAMIDAS
10
182.761536
20
148.363717
30
0.0
11
182.761536
21
148.963717
31
0.0
0
ARC
8
00_POLIAMIDAS
10
182.361536
20
148.963717
30
0.0
40
0.400000
50
0.000000
51
90.000000
0
LINE
8
00_POLIAMIDAS
10
182.361536
20
149.363717
30
0.0
11
182.155126
21
149.363717
31
0.0
0
ARC
8
00_POLIAMIDAS
10
182.155126
20
149.163717
30
0.0
40
0.200000
50
90.000000
51
120.000000
0
LINE
8
00_POLIAMIDAS
10
182.055126
20
149.336922
30
0.0
11
180.295318
21
148.320896
31
0.0
0
ARC
8
00_POLIAMIDAS
10
179.895318
20
149.013717
30
0.0
40
0.800000
50
270.000000
51
300.000000
0
LINE
8
00_POLIAMIDAS
10
179.895318
20
148.213717
30
0.0
11
178.376572
21
148.213717
31
0.0
0
ARC
8
00_POLIAMIDAS
10
178.376572
20
148.013717
30
0.0
40
0.200000
50
90.000000
51
145.000000
0
LINE
8
00_POLIAMIDAS
10
178.212742
20
148.128432
30
0.0
11
176.266563
21
145.349001
31
0.0
0
ARC
8
00_POLIAMIDAS
10
176.102733
20
145.463717
30
0.0
40
0.200000
50
270.000000
51
325.000000
0
LINE
8
00_POLIAMIDAS
10
176.102733
20
145.263717
30
0.0
11
175.361536
21
145.263717
31
0.0
0
LINE
8
00_POLIAMIDAS
10
175.361536
20
145.263717
30
0.0
11
174.620339
21
145.263717
31
0.0
0
ARC
8
00_POLIAMIDAS
10
174.620339
20
145.463717
30
0.0
40
0.200000
50
215.000000
51
270.000000
0
LINE
8
00_POLIAMIDAS
10
174.456509
20
145.349001
30
0.0
11
172.510330
21
148.128432
31
0.0
0
ARC
8
00_POLIAMIDAS
10
172.346500
20
148.013717
30
0.0
40
0.200000
50
35.000000
51
90.000000
0
LINE
8
00_POLIAMIDAS
10
172.346500
20
148.213717
30
0.0
11
170.827754
21
148.213717
31
0.0
0
ARC
8
00_POLIAMIDAS
10
170.827754
20
149.013717
30
0.0
40
0.800000
50
240.000000
51
270.000000
0
LINE
8
00_POLIAMIDAS
10
170.427754
20
148.320896
30
0.0
11
168.667946
21
149.336922
31
0.0
0
ARC
8
00_POLIAMIDAS
10
168.567946
20
149.163717
30
0.0
40
0.200000
50
60.000000
51
90.000000
0
LINE
8
00_POLIAMIDAS
10
168.567946
20
149.363717
30
0.0
11
168.361536
21
149.363717
31
0.0
0
ARC
8
00_POLIAMIDAS
10
168.361536
20
148.963717
30
0.0
40
0.400000
50
90.000000
51
180.000000
0
LINE
8
00_POLIAMIDAS
10
167.961536
20
148.963717
30
0.0
11
167.961536
21
148.363717
31
0.0
0
LINE
8
00_POLIAMIDAS
10
167.961536
20
148.363717
30
0.0
11
168.061536
21
148.363717
31
0.0
0
LINE
8
00_POLIAMIDAS
10
168.061536
20
148.363717
30
0.0
11
168.061536
21
147.988717
31
0.0
0
ARC
8
00_POLIAMIDAS
10
168.261536
20
147.988717
30
0.0
40
0.200000
50
180.000000
51
270.000000
0
LINE
8
00_POLIAMIDAS
10
168.261536
20
147.788717
30
0.0
11
168.373342
21
147.788717
31
0.0
0
LINE
8
00_POLIAMIDAS
10
168.373342
20
147.788717
30
0.0
11
168.457891
21
147.807467
31
0.0
0
ARC
8
00_POLIAMIDAS
10
168.711536
20
147.263717
30
0.0
40
0.600000
50
244.992167
51
115.007833
0
LINE
8
00_POLIAMIDAS
10
168.457891
20
146.719967
30
0.0
11
168.373342
21
146.738717
31
0.0
0
LINE
8
00_POLIAMIDAS
10
168.373342
20
146.738717
30
0.0
11
168.261536
21
146.738717
31
0.0
0
ARC
8
00_POLIAMIDAS
10
168.261536
20
146.538717
30
0.0
40
0.200000
50
90.000000
51
180.000000
0
LINE
8
00_POLIAMIDAS
10
168.061536
20
146.538717
30
0.0
11
168.061536
21
146.163717
31
0.0
0
LINE
8
00_POLIAMIDAS
10
168.061536
20
146.163717
30
0.0
11
167.961536
21
146.163717
31
0.0
0
LINE
8
00_POLIAMIDAS
10
167.961536
20
146.163717
30
0.0
11
167.961536
21
145.563717
31
0.0
0
ARC
8
00_POLIAMIDAS
10
168.361536
20
145.563717
30
0.0
40
0.400000
50
180.000000
51
270.000000
0
LINE
8
00_POLIAMIDAS
10
168.361536
20
145.163717
30
0.0
11
168.567946
21
145.163717
31
0.0
0
ARC
8
00_POLIAMIDAS
10
168.567946
20
145.363717
30
0.0
40
0.200000
50
270.000000
51
300.000000
0
LINE
8
00_POLIAMIDAS
10
168.667946
20
145.190512
30
0.0
11
170.427754
21
146.206537
31
0.0
0
ARC
8
00_POLIAMIDAS
10
170.827754
20
145.513717
30
0.0
40
0.800000
50
90.000000
51
120.000000
0
LINE
8
00_POLIAMIDAS
10
170.827754
20
146.313717
30
0.0
11
171.305366
21
146.313717
31
0.0
0
ARC
8
00_POLIAMIDAS
10
171.305366
20
146.013717
30
0.0
40
0.300000
50
35.000000
51
90.000000
0
LINE
8
00_POLIAMIDAS
10
171.551111
20
146.185790
30
0.0
11
173.467431
21
143.449001
31
0.0
0
LINE
8
00_POLIAMIDAS
10
182.461536
20
164.726634
30
0.0
11
182.349730
21
164.726634
31
0.0
0
LINE
8
00_POLIAMIDAS
10
182.349730
20
164.726634
30
0.0
11
182.265181
21
164.707884
31
0.0
0
ARC
8
00_POLIAMIDAS
10
182.011536
20
165.251634
30
0.0
40
0.600000
50
64.992167
51
295.007833
0
LINE
8
00_POLIAMIDAS
10
182.265181
20
165.795384
30
0.0
11
182.349730
21
165.776634
31
0.0
0
LINE
8
00_POLIAMIDAS
10
182.349730
20
165.776634
30
0.0
11
182.461536
21
165.776634
31
0.0
0
ARC
8
00_POLIAMIDAS
10
182.461536
20
165.976634
30
0.0
40
0.200000
50
270.000000
51
0.000000
0
LINE
8
00_POLIAMIDAS
10
182.661536
20
165.976634
30
0.0
11
182.661536
21
166.351634
31
0.0
0
LINE
8
00_POLIAMIDAS
10
182.661536
20
166.351634
30
0.0
11
182.761536
21
166.351634
31
0.0
0
LINE
8
00_POLIAMIDAS
10
182.761536
20
166.351634
30
0.0
11
182.761536
21
166.951634
31
0.0
0
ARC
8
00_POLIAMIDAS
10
182.361536
20
166.951634
30
0.0
40
0.400000
50
0.000000
51
90.000000
0
LINE
8
00_POLIAMIDAS
10
182.361536
20
167.351634
30
0.0
11
182.154356
21
167.351634
31
0.0
0
ARC
8
00_POLIAMIDAS
10
182.154356
20
167.151634
30
0.0
40
0.200000
50
90.000000
51
120.000000
0
LINE
8
00_POLIAMIDAS
10
182.054356
20
167.324840
30
0.0
11
180.294549
21
166.308814
31
0.0
0
ARC
8
00_POLIAMIDAS
10
179.894549
20
167.001634
30
0.0
40
0.800000
50
270.000000
51
300.000000
0
LINE
8
00_POLIAMIDAS
10
179.894549
20
166.201634
30
0.0
11
179.412906
21
166.201634
31
0.0
0
ARC
8
00_POLIAMIDAS
10
179.412906
20
166.501634
30
0.0
40
0.300000
50
215.000000
51
270.000000
0
LINE
8
00_POLIAMIDAS
10
179.167161
20
166.329562
30
0.0
11
177.280700
21
169.023707
31
0.0
0
ARC
8
00_POLIAMIDAS
10
177.034954
20
168.851634
30
0.0
40
0.300000
50
35.000000
51
90.000000
0
LINE
8
00_POLIAMIDAS
10
177.034954
20
169.151634
30
0.0
11
176.561536
21
169.151634
31
0.0
0
ARC
8
00_POLIAMIDAS
10
176.561536
20
169.551634
30
0.0
40
0.400000
50
180.000000
51
270.000000
0
LINE
8
00_POLIAMIDAS
10
176.161536
20
169.551634
30
0.0
11
176.161536
21
173.901634
31
0.0
0
ARC
8
00_POLIAMIDAS
10
175.861536
20
173.901634
30
0.0
40
0.300000
50
0.000000
51
90.000000
0
LINE
8
00_POLIAMIDAS
10
175.861536
20
174.201634
30
0.0
11
173.981151
21
174.201634
31
0.0
0
ARC
8
00_POLIAMIDAS
10
173.981151
20
174.001634
30
0.0
40
0.200000
50
90.000000
51
150.000000
0
LINE
8
00_POLIAMIDAS
10
173.807946
20
174.101634
30
0.0
11
173.288331
21
173.201634
31
0.0
0
ARC
8
00_POLIAMIDAS
10
173.461536
20
173.101634
30
0.0
40
0.200000
50
150.000000
51
270.000000
0
LINE
8
00_POLIAMIDAS
10
173.461536
20
172.901634
30
0.0
11
174.361536
21
172.901634
31
0.0
0
ARC
8
00_POLIAMIDAS
10
174.361536
20
172.701634
30
0.0
40
0.200000
50
0.000000
51
90.000000
0
LINE
8
00_POLIAMIDAS
10
174.561536
20
172.701634
30
0.0
11
174.561536
21
169.551634
31
0.0
0
ARC
8
00_POLIAMIDAS
10
174.161536
20
169.551634
30
0.0
40
0.400000
50
270.000000
51
0.000000
0
LINE
8
00_POLIAMIDAS
10
174.161536
20
169.151634
30
0.0
11
173.688118
21
169.151634
31
0.0
0
ARC
8
00_POLIAMIDAS
10
173.688118
20
168.851634
30
0.0
40
0.300000
50
90.000000
51
145.000000
0
LINE
8
00_POLIAMIDAS
10
173.442372
20
169.023707
30
0.0
11
171.555911
21
166.329562
31
0.0
0
ARC
8
00_POLIAMIDAS
10
171.310166
20
166.501634
30
0.0
40
0.300000
50
270.000000
51
325.000000
0
LINE
8
00_POLIAMIDAS
10
171.310166
20
166.201634
30
0.0
11
170.828523
21
166.201634
31
0.0
0
ARC
8
00_POLIAMIDAS
10
170.828523
20
167.001634
30
0.0
40
0.800000
50
240.000000
51
270.000000
0
LINE
8
00_POLIAMIDAS
10
170.428523
20
166.308814
30
0.0
11
168.668716
21
167.324840
31
0.0
0
ARC
8
00_POLIAMIDAS
10
168.568716
20
167.151634
30
0.0
40
0.200000
50
60.000000
51
90.000000
0
LINE
8
00_POLIAMIDAS
10
168.568716
20
167.351634
30
0.0
11
168.361536
21
167.351634
31
0.0
0
ARC
8
00_POLIAMIDAS
10
168.361536
20
166.951634
30
0.0
40
0.400000
50
90.000000
51
180.000000
0
LINE
8
00_POLIAMIDAS
10
167.961536
20
166.951634
30
0.0
11
167.961536
21
166.351634
31
0.0
0
LINE
8
00_POLIAMIDAS
10
167.961536
20
166.351634
30
0.0
11
168.061536
21
166.351634
31
0.0
0
LINE
8
00_POLIAMIDAS
10
168.061536
20
166.351634
30
0.0
11
168.061536
21
165.976634
31
0.0
0
ARC
8
00_POLIAMIDAS
10
168.261536
20
165.976634
30
0.0
40
0.200000
50
180.000000
51
270.000000
0
LINE
8
00_POLIAMIDAS
10
168.261536
20
165.776634
30
0.0
11
168.373342
21
165.776634
31
0.0
0
LINE
8
00_POLIAMIDAS
10
168.373342
20
165.776634
30
0.0
11
168.457891
21
165.795384
31
0.0
0
ARC
8
00_POLIAMIDAS
10
168.711536
20
165.251634
30
0.0
40
0.600000
50
244.992167
51
115.007833
0
LINE
8
00_POLIAMIDAS
10
168.457891
20
164.707884
30
0.0
11
168.373342
21
164.726634
31
0.0
0
LINE
8
00_POLIAMIDAS
10
168.373342
20
164.726634
30
0.0
11
168.261536
21
164.726634
31
0.0
0
ARC
8
00_POLIAMIDAS
10
168.261536
20
164.526634
30
0.0
40
0.200000
50
90.000000
51
180.000000
0
LINE
8
00_POLIAMIDAS
10
168.061536
20
164.526634
30
0.0
11
168.061536
21
164.151634
31
0.0
0
LINE
8
00_POLIAMIDAS
10
168.061536
20
164.151634
30
0.0
11
167.961536
21
164.151634
31
0.0
0
LINE
8
00_POLIAMIDAS
10
167.961536
20
164.151634
30
0.0
11
167.961536
21
163.551634
31
0.0
0
ARC
8
00_POLIAMIDAS
10
168.361536
20
163.551634
30
0.0
40
0.400000
50
180.000000
51
270.000000
0
LINE
8
00_POLIAMIDAS
10
168.361536
20
163.151634
30
0.0
11
168.568716
21
163.151634
31
0.0
0
ARC
8
00_POLIAMIDAS
10
168.568716
20
163.351634
30
0.0
40
0.200000
50
270.000000
51
300.000000
0
LINE
8
00_POLIAMIDAS
10
168.668716
20
163.178429
30
0.0
11
170.428523
21
164.194455
31
0.0
0
ARC
8
00_POLIAMIDAS
10
170.828523
20
163.501634
30
0.0
40
0.800000
50
90.000000
51
120.000000
0
LINE
8
00_POLIAMIDAS
10
170.828523
20
164.301634
30
0.0
11
172.299243
21
164.301634
31
0.0
0
ARC
8
00_POLIAMIDAS
10
172.299243
20
164.601634
30
0.0
40
0.300000
50
270.000000
51
325.000000
0
LINE
8
00_POLIAMIDAS
10
172.544989
20
164.429562
30
0.0
11
174.401591
21
167.081065
31
0.0
0
ARC
8
00_POLIAMIDAS
10
174.729252
20
166.851634
30
0.0
40
0.400000
50
90.000000
51
145.000000
0
LINE
8
00_POLIAMIDAS
10
174.729252
20
167.251634
30
0.0
11
175.361536
21
167.251634
31
0.0
0
LINE
8
00_POLIAMIDAS
10
175.361536
20
167.251634
30
0.0
11
175.993820
21
167.251634
31
0.0
0
ARC
8
00_POLIAMIDAS
10
175.993820
20
166.851634
30
0.0
40
0.400000
50
35.000000
51
90.000000
0
LINE
8
00_POLIAMIDAS
10
176.321481
20
167.081065
30
0.0
11
178.178083
21
164.429562
31
0.0
0
ARC
8
00_POLIAMIDAS
10
178.423829
20
164.601634
30
0.0
40
0.300000
50
215.000000
51
270.000000
0
LINE
8
00_POLIAMIDAS
10
178.423829
20
164.301634
30
0.0
11
179.894549
21
164.301634
31
0.0
0
ARC
8
00_POLIAMIDAS
10
179.894549
20
163.501634
30
0.0
40
0.800000
50
60.000000
51
90.000000
0
LINE
8
00_POLIAMIDAS
10
180.294549
20
164.194455
30
0.0
11
182.054356
21
163.178429
31
0.0
0
ARC
8
00_POLIAMIDAS
10
182.154356
20
163.351634
30
0.0
40
0.200000
50
240.000000
51
270.000000
0
LINE
8
00_POLIAMIDAS
10
182.154356
20
163.151634
30
0.0
11
182.361536
21
163.151634
31
0.0
0
ARC
8
00_POLIAMIDAS
10
182.361536
20
163.551634
30
0.0
40
0.400000
50
270.000000
51
0.000000
0
LINE
8
00_POLIAMIDAS
10
182.761536
20
163.551634
30
0.0
11
182.761536
21
164.151634
31
0.0
0
LINE
8
00_POLIAMIDAS
10
182.761536
20
164.151634
30
0.0
11
182.661536
21
164.151634
31
0.0
0
LINE
8
00_POLIAMIDAS
10
182.661536
20
164.151634
30
0.0
11
182.661536
21
164.526634
31
0.0
0
ARC
8
00_POLIAMIDAS
10
182.461536
20
164.526634
30
0.0
40
0.200000
50
0.000000
51
90.000000
0
LINE
8
00_Contorno Poliamida
10
133.161552
20
149.579780
30
0.0
11
133.161552
21
140.503812
31
0.0
0
LINE
8
00_Contorno Poliamida
10
133.161552
20
140.503812
30
0.0
11
137.161569
21
140.503812
31
0.0
0
LINE
8
00_Contorno Poliamida
10
137.161569
20
140.503812
30
0.0
11
137.161569
21
144.945090
31
0.0
0
LINE
8
00_Contorno Poliamida
10
137.161569
20
144.945090
30
0.0
11
137.161536
21
145.255517
31
0.0
0
ARC
8
00_Contorno Poliamida
10
137.461536
20
145.255549
30
0.0
40
0.300000
50
102.656754
51
180.006010
0
LINE
8
00_Contorno Poliamida
10
137.395803
20
145.548259
30
0.0
11
139.461536
21
146.012154
31
0.0
0
LINE
8
00_Contorno Poliamida
10
139.461536
20
146.012154
30
0.0
11
139.461536
21
145.433430
31
0.0
0
ARC
8
00_Contorno Poliamida
10
139.359988
20
145.261127
30
0.0
40
0.200000
50
1.254204
51
59.486655
0
LINE
8
00_Contorno Poliamida
10
139.559940
20
145.265505
30
0.0
11
139.560386
21
145.245159
31
0.0
0
ARC
8
00_Contorno Poliamida
10
139.760338
20
145.249537
30
0.0
40
0.200000
50
181.254204
51
271.254204
0
LINE
8
00_Contorno Poliamida
10
139.764715
20
145.049585
30
0.0
11
143.938843
21
146.696762
31
0.0
0
ARC
8
00_Contorno Poliamida
10
143.461137
20
147.575282
30
0.0
40
1.000000
50
298.535663
51
0.000000
0
LINE
8
00_Contorno Poliamida
10
144.461137
20
147.575282
30
0.0
11
144.461137
21
161.948953
31
0.0
0
ARC
8
00_Contorno Poliamida
10
143.461137
20
161.948953
30
0.0
40
1.000000
50
0.000000
51
61.464337
0
LINE
8
00_Contorno Poliamida
10
143.938843
20
162.827473
30
0.0
11
139.764715
21
164.474650
31
0.0
0
ARC
8
00_Contorno Poliamida
10
139.759820
20
164.274710
30
0.0
40
0.200000
50
88.597384
51
181.666025
0
ARC
8
00_Contorno Poliamida
10
139.359988
20
164.263108
30
0.0
40
0.200000
50
300.513345
51
1.658292
0
LINE
8
00_Contorno Poliamida
10
139.461536
20
164.090806
30
0.0
11
139.461536
21
163.512154
31
0.0
0
LINE
8
00_Contorno Poliamida
10
139.461536
20
163.512154
30
0.0
11
137.395803
21
163.976049
31
0.0
0
ARC
8
00_Contorno Poliamida
10
137.461536
20
164.268759
30
0.0
40
0.300000
50
180.000000
51
257.343246
0
LINE
8
00_Contorno Poliamida
10
137.161536
20
164.268759
30
0.0
11
137.161536
21
169.020423
31
0.0
0
LINE
8
00_Contorno Poliamida
10
137.161536
20
169.020423
30
0.0
11
133.161552
21
169.020423
31
0.0
0
LINE
8
00_Contorno Poliamida
10
133.161552
20
169.020423
30
0.0
11
133.161552
21
159.944528
31
0.0
0
LINE
8
00_Contorno Poliamida
10
133.161552
20
159.944528
30
0.0
11
139.237742
21
160.934835
31
0.0
0
ARC
8
00_Contorno Poliamida
10
139.731231
20
161.015265
30
0.0
40
0.500000
50
9.256771
51
189.256771
0
LINE
8
00_Contorno Poliamida
10
140.224720
20
161.095694
30
0.0
11
141.990493
21
161.383483
31
0.0
0
ARC
8
00_Contorno Poliamida
10
142.111137
20
160.643250
30
0.0
40
0.750000
50
0.000000
51
99.256771
0
LINE
8
00_Contorno Poliamida
10
142.861137
20
160.643250
30
0.0
11
142.861137
21
148.881057
31
0.0
0
ARC
8
00_Contorno Poliamida
10
142.111137
20
148.881057
30
0.0
40
0.750000
50
260.743229
51
0.000000
0
LINE
8
00_Contorno Poliamida
10
141.990493
20
148.140824
30
0.0
11
140.224403
21
148.428665
31
0.0
0
ARC
8
00_Contorno Poliamida
10
139.730914
20
148.509094
30
0.0
40
0.500000
50
170.743229
51
350.743229
0
LINE
8
00_Contorno Poliamida
10
139.237425
20
148.589524
30
0.0
11
133.161234
21
149.579832
31
0.0
0
ARC
8
00_Contorno Poliamida
10
132.161234
20
138.962154
30
0.0
40
1.000000
50
270.000000
51
0.000000
0
LINE
8
00_Contorno Poliamida
10
132.161234
20
137.962154
30
0.0
11
122.157609
21
137.962154
31
0.0
0
ARC
8
00_Contorno Poliamida
10
122.157609
20
138.962154
30
0.0
40
1.000000
50
180.000000
51
270.000000
0
LINE
8
00_Contorno Poliamida
10
121.157609
20
138.962154
30
0.0
11
121.157609
21
176.862557
31
0.0
0
ARC
8
00_Contorno Poliamida
10
122.157609
20
176.862557
30
0.0
40
1.000000
50
90.000000
51
180.000000
0
LINE
8
00_Contorno Poliamida
10
122.157609
20
177.862557
30
0.0
11
130.997609
21
177.862557
31
0.0
0
ARC
8
00_Contorno Poliamida
10
130.997609
20
176.862557
30
0.0
40
1.000000
50
0.000000
51
90.000000
0
LINE
8
00_Contorno Poliamida
10
131.997609
20
176.862557
30
0.0
11
131.997609
21
169.020459
31
0.0
0
LINE
8
00_Contorno Poliamida
10
131.997609
20
169.020459
30
0.0
11
133.161234
21
169.020459
31
0.0
0
LINE
8
00_Contorno Poliamida
10
133.161234
20
169.020459
30
0.0
11
133.161234
21
159.944476
31
0.0
0
LINE
8
00_Contorno Poliamida
10
133.161234
20
159.944476
30
0.0
11
141.860820
21
161.362349
31
0.0
0
LINE
8
00_Contorno Poliamida
10
141.860820
20
161.362349
30
0.0
11
141.860820
21
148.161959
31
0.0
0
LINE
8
00_Contorno Poliamida
10
141.860820
20
148.161959
30
0.0
11
133.161234
21
149.579832
31
0.0
0
LINE
8
00_Contorno Poliamida
10
133.161234
20
149.579832
30
0.0
11
133.161234
21
138.962154
31
0.0
0
ARC
8
00_Contorno Poliamida
10
134.761552
20
147.498069
30
0.0
40
0.750000
50
180.000000
51
0.000000
0
ARC
8
00_Contorno Poliamida
10
134.761552
20
147.498069
30
0.0
40
0.750000
50
0.000000
51
180.000000
0
ARC
8
00_Contorno Poliamida
10
134.761552
20
162.026166
30
0.0
40
0.750000
50
180.000000
51
0.000000
0
ARC
8
00_Contorno Poliamida
10
134.761552
20
162.026166
30
0.0
40
0.750000
50
0.000000
51
180.000000
0
LINE
8
00_Contorno Poliamida
10
125.016978
20
174.352390
30
0.0
11
125.316975
21
176.002384
31
0.0
0
LINE
8
00_Contorno Poliamida
10
125.016995
20
159.352372
30
0.0
11
125.316993
21
161.002367
31
0.0
0
LINE
8
00_Contorno Poliamida
10
125.017013
20
144.352355
30
0.0
11
125.317010
21
146.002349
31
0.0
0
LINE
8
00_Contorno Poliamida
10
140.017023
20
159.352281
30
0.0
11
140.317021
21
161.002276
31
0.0
0
LINE
8
00_Contorno Poliamida
10
125.316756
20
146.003490
30
0.0
11
125.316756
21
147.653490
31
0.0
0
LINE
8
00_Contorno Poliamida
10
125.316756
20
161.003490
30
0.0
11
125.316756
21
162.653490
31
0.0
0
LINE
8
00_Contorno Poliamida
10
125.316756
20
176.003490
30
0.0
11
125.316756
21
177.653490
31
0.0
0
LINE
8
00_Contorno Poliamida
10
140.316756
20
161.003490
30
0.0
11
140.316756
21
161.110695
31
0.0
0
LINE
8
00_Contorno Poliamida
10
125.317052
20
147.653286
30
0.0
11
124.867055
21
149.003282
31
0.0
0
LINE
8
00_Contorno Poliamida
10
125.317069
20
162.653283
30
0.0
11
124.867072
21
164.003279
31
0.0
0
LINE
8
00_Contorno Poliamida
10
125.317087
20
177.653280
30
0.0
11
125.247328
21
177.862557
31
0.0
0
LINE
8
00_Contorno Poliamida
10
140.049075
20
148.457240
30
0.0
11
139.867066
21
149.003269
31
0.0
0
LINE
8
00_Contorno Poliamida
10
139.867146
20
149.003350
30
0.0
11
139.803878
21
148.497203
31
0.0
0
LINE
8
00_Contorno Poliamida
10
124.867116
20
149.003360
30
0.0
11
124.717115
21
147.803354
31
0.0
0
LINE
8
00_Contorno Poliamida
10
124.867108
20
164.003363
30
0.0
11
124.717107
21
162.803356
31
0.0
0
LINE
8
00_Contorno Poliamida
10
124.724499
20
177.862557
30
0.0
11
124.717099
21
177.803359
31
0.0
0
LINE
8
00_Contorno Poliamida
10
124.717290
20
147.803992
30
0.0
11
124.567291
21
146.153986
31
0.0
0
LINE
8
00_Contorno Poliamida
10
124.717279
20
162.803990
30
0.0
11
124.567279
21
161.153984
31
0.0
0
LINE
8
00_Contorno Poliamida
10
124.717267
20
177.803987
30
0.0
11
124.567267
21
176.153981
31
0.0
0
LINE
8
00_Contorno Poliamida
10
139.606841
20
160.994991
30
0.0
11
140.017325
21
159.353050
31
0.0
0
LINE
8
00_Contorno Poliamida
10
124.567318
20
176.153068
30
0.0
11
125.017316
21
174.353070
31
0.0
0
LINE
8
00_Contorno Poliamida
10
124.567300
20
161.153074
30
0.0
11
125.017298
21
159.353076
31
0.0
0
LINE
8
00_Contorno Poliamida
10
124.567281
20
146.153080
30
0.0
11
125.017279
21
144.353082
31
0.0
0
LINE
8
00_Contorno Poliamida
10
125.016819
20
145.553418
30
0.0
11
124.866818
21
146.453424
31
0.0
0
LINE
8
00_Contorno Poliamida
10
125.016825
20
160.553419
30
0.0
11
124.866824
21
161.453425
31
0.0
0
LINE
8
00_Contorno Poliamida
10
125.016831
20
175.553420
30
0.0
11
124.866830
21
176.453426
31
0.0
0
LINE
8
00_Contorno Poliamida
10
140.016826
20
160.553413
30
0.0
11
139.934334
21
161.048367
31
0.0
0
LINE
8
00_Contorno Poliamida
10
124.867543
20
176.452881
30
0.0
11
125.017544
21
177.802883
31
0.0
0
LINE
8
00_Contorno Poliamida
10
124.867548
20
161.452876
30
0.0
11
125.017548
21
162.802879
31
0.0
0
LINE
8
00_Contorno Poliamida
10
124.867552
20
146.452872
30
0.0
11
125.017553
21
147.802874
31
0.0
0
LINE
8
00_Contorno Poliamida
10
125.017194
20
177.805312
30
0.0
11
125.167195
21
176.305308
31
0.0
0
LINE
8
00_Contorno Poliamida
10
125.017193
20
162.805299
30
0.0
11
125.167193
21
161.305296
31
0.0
0
LINE
8
00_Contorno Poliamida
10
125.017192
20
147.805287
30
0.0
11
125.167192
21
146.305283
31
0.0
0
LINE
8
00_Contorno Poliamida
10
140.121597
20
161.078887
30
0.0
11
140.016658
21
160.554189
31
0.0
0
LINE
8
00_Contorno Poliamida
10
125.166667
20
146.304144
30
0.0
11
125.016668
21
145.554147
31
0.0
0
LINE
8
00_Contorno Poliamida
10
125.166659
20
161.304134
30
0.0
11
125.016660
21
160.554137
31
0.0
0
LINE
8
00_Contorno Poliamida
10
125.166650
20
176.304124
30
0.0
11
125.016651
21
175.554126
31
0.0
0
LINE
8
00_Contorno Poliamida
10
125.167267
20
173.003987
30
0.0
11
125.317267
21
174.653993
31
0.0
0
LINE
8
00_Contorno Poliamida
10
125.167279
20
158.003990
30
0.0
11
125.317278
21
159.653996
31
0.0
0
LINE
8
00_Contorno Poliamida
10
125.167290
20
143.003992
30
0.0
11
125.317290
21
144.653998
31
0.0
0
LINE
8
00_Contorno Poliamida
10
140.167323
20
158.004027
30
0.0
11
140.317323
21
159.654033
31
0.0
0
LINE
8
00_Contorno Poliamida
10
125.316650
20
174.654124
30
0.0
11
125.616648
21
176.154118
31
0.0
0
LINE
8
00_Contorno Poliamida
10
125.316659
20
159.654134
30
0.0
11
125.616657
21
161.154128
31
0.0
0
LINE
8
00_Contorno Poliamida
10
125.316667
20
144.654144
30
0.0
11
125.616665
21
146.154139
31
0.0
0
LINE
8
00_Contorno Poliamida
10
140.316657
20
159.654186
30
0.0
11
140.616655
21
161.154181
31
0.0
0
LINE
8
00_Contorno Poliamida
10
125.616756
20
146.153490
30
0.0
11
125.616756
21
147.953490
31
0.0
0
LINE
8
00_Contorno Poliamida
10
125.616756
20
161.153490
30
0.0
11
125.616756
21
162.953490
31
0.0
0
LINE
8
00_Contorno Poliamida
10
125.616756
20
176.153490
30
0.0
11
125.616756
21
177.862557
31
0.0
0
LINE
8
00_Contorno Poliamida
10
125.616618
20
147.953089
30
0.0
11
125.166620
21
149.153089
31
0.0
0
LINE
8
00_Contorno Poliamida
10
125.616625
20
162.953084
30
0.0
11
125.166626
21
164.153084
31
0.0
0
LINE
8
00_Contorno Poliamida
10
140.452176
20
148.391542
30
0.0
11
140.166606
21
149.153063
31
0.0
0
LINE
8
00_Contorno Poliamida
10
125.166698
20
149.153144
30
0.0
11
125.016697
21
151.403145
31
0.0
0
LINE
8
00_Contorno Poliamida
10
125.166692
20
164.153142
30
0.0
11
125.016691
21
166.403142
31
0.0
0
LINE
8
00_Contorno Poliamida
10
140.166698
20
149.153121
30
0.0
11
140.016697
21
151.403121
31
0.0
0
LINE
8
00_Contorno Poliamida
10
125.017279
20
166.403990
30
0.0
11
125.167278
21
168.053996
31
0.0
0
LINE
8
00_Contorno Poliamida
10
125.017290
20
151.403992
30
0.0
11
125.167290
21
153.053998
31
0.0
0
LINE
8
00_Contorno Poliamida
10
125.158952
20
137.962154
30
0.0
11
125.167302
21
138.054001
31
0.0
0
LINE
8
00_Contorno Poliamida
10
140.017335
20
151.404030
30
0.0
11
140.167335
21
153.054036
31
0.0
0
LINE
8
00_Contorno Poliamida
10
125.166756
20
138.053490
30
0.0
11
125.166756
21
139.703490
31
0.0
0
LINE
8
00_Contorno Poliamida
10
125.166756
20
153.053490
30
0.0
11
125.166756
21
154.703490
31
0.0
0
LINE
8
00_Contorno Poliamida
10
125.166756
20
168.053490
30
0.0
11
125.166756
21
169.703490
31
0.0
0
LINE
8
00_Contorno Poliamida
10
140.166756
20
153.053490
30
0.0
11
140.166756
21
154.703490
31
0.0
0
LINE
8
00_Contorno Poliamida
10
125.167477
20
139.702944
30
0.0
11
125.017477
21
141.352950
31
0.0
0
LINE
8
00_Contorno Poliamida
10
125.167488
20
154.702941
30
0.0
11
125.017488
21
156.352947
31
0.0
0
LINE
8
00_Contorno Poliamida
10
125.167500
20
169.702938
30
0.0
11
125.017500
21
171.352944
31
0.0
0
LINE
8
00_Contorno Poliamida
10
140.167533
20
154.702904
30
0.0
11
140.017533
21
156.352910
31
0.0
0
LINE
8
00_Contorno Poliamida
10
125.017267
20
171.353987
30
0.0
11
125.167267
21
173.003993
31
0.0
0
LINE
8
00_Contorno Poliamida
10
125.017279
20
156.353990
30
0.0
11
125.167278
21
158.003996
31
0.0
0
LINE
8
00_Contorno Poliamida
10
125.017290
20
141.353992
30
0.0
11
125.167290
21
143.003998
31
0.0
0
LINE
8
00_Contorno Poliamida
10
140.017323
20
156.354027
30
0.0
11
140.167323
21
158.004033
31
0.0
0
LINE
8
00_Contorno Poliamida
10
124.866756
20
139.703490
30
0.0
11
124.866756
21
140.603490
31
0.0
0
LINE
8
00_Contorno Poliamida
10
124.866756
20
154.703490
30
0.0
11
124.866756
21
155.603490
31
0.0
0
LINE
8
00_Contorno Poliamida
10
124.866756
20
169.703490
30
0.0
11
124.866756
21
170.603490
31
0.0
0
LINE
8
00_Contorno Poliamida
10
139.866756
20
154.703490
30
0.0
11
139.866756
21
155.603490
31
0.0
0
LINE
8
00_Contorno Poliamida
10
124.867477
20
140.602944
30
0.0
11
124.717477
21
142.252950
31
0.0
0
LINE
8
00_Contorno Poliamida
10
124.867488
20
155.602941
30
0.0
11
124.717488
21
157.252947
31
0.0
0
LINE
8
00_Contorno Poliamida
10
124.867500
20
170.602938
30
0.0
11
124.717500
21
172.252944
31
0.0
0
LINE
8
00_Contorno Poliamida
10
139.867533
20
155.602904
30
0.0
11
139.717533
21
157.252910
31
0.0
0
LINE
8
00_Contorno Poliamida
10
124.716756
20
142.253490
30
0.0
11
124.716756
21
143.753490
31
0.0
0
LINE
8
00_Contorno Poliamida
10
124.716756
20
157.253490
30
0.0
11
124.716756
21
158.753490
31
0.0
0
LINE
8
00_Contorno Poliamida
10
124.716756
20
172.253490
30
0.0
11
124.716756
21
173.753490
31
0.0
0
LINE
8
00_Contorno Poliamida
10
139.716756
20
157.253490
30
0.0
11
139.716756
21
158.753490
31
0.0
0
LINE
8
00_Contorno Poliamida
10
124.717293
20
143.754907
30
0.0
11
124.417296
21
145.404901
31
0.0
0
LINE
8
00_Contorno Poliamida
10
124.717311
20
158.754924
30
0.0
11
124.417313
21
160.404919
31
0.0
0
LINE
8
00_Contorno Poliamida
10
124.717328
20
173.754942
30
0.0
11
124.417331
21
175.404936
31
0.0
0
LINE
8
00_Contorno Poliamida
10
139.717339
20
158.755016
30
0.0
11
139.417341
21
160.405010
31
0.0
0
LINE
8
00_Contorno Poliamida
10
124.417477
20
145.402944
30
0.0
11
124.267477
21
147.052950
31
0.0
0
LINE
8
00_Contorno Poliamida
10
124.417488
20
160.402941
30
0.0
11
124.267488
21
162.052947
31
0.0
0
LINE
8
00_Contorno Poliamida
10
124.417500
20
175.402938
30
0.0
11
124.267500
21
177.052944
31
0.0
0
LINE
8
00_Contorno Poliamida
10
139.417533
20
160.402904
30
0.0
11
139.367257
21
160.955944
31
0.0
0
LINE
8
00_Contorno Poliamida
10
124.267267
20
177.053987
30
0.0
11
124.340773
21
177.862557
31
0.0
0
LINE
8
00_Contorno Poliamida
10
124.267279
20
162.053990
30
0.0
11
124.417278
21
163.703996
31
0.0
0
LINE
8
00_Contorno Poliamida
10
124.267290
20
147.053992
30
0.0
11
124.417290
21
148.703998
31
0.0
0
LINE
8
00_Contorno Poliamida
10
139.404450
20
148.562302
30
0.0
11
139.417335
21
148.704036
31
0.0
0
LINE
8
00_Contorno Poliamida
10
124.417279
20
163.703990
30
0.0
11
124.567278
21
165.353996
31
0.0
0
LINE
8
00_Contorno Poliamida
10
124.417290
20
148.703992
30
0.0
11
124.567290
21
150.353998
31
0.0
0
LINE
8
00_Contorno Poliamida
10
139.417335
20
148.704030
30
0.0
11
139.567335
21
150.354036
31
0.0
0
LINE
8
00_Contorno Poliamida
10
124.566349
20
165.354050
30
0.0
11
124.866348
21
167.454044
31
0.0
0
LINE
8
00_Contorno Poliamida
10
124.566345
20
150.354058
30
0.0
11
124.866345
21
152.454052
31
0.0
0
LINE
8
00_Contorno Poliamida
10
139.566314
20
150.354103
30
0.0
11
139.866313
21
152.454098
31
0.0
0
LINE
8
00_Contorno Poliamida
10
124.866756
20
137.962154
30
0.0
11
124.866756
21
139.703490
31
0.0
0
LINE
8
00_Contorno Poliamida
10
124.866756
20
152.453490
30
0.0
11
124.866756
21
154.703490
31
0.0
0
LINE
8
00_Contorno Poliamida
10
124.866756
20
167.453490
30
0.0
11
124.866756
21
169.703490
31
0.0
0
LINE
8
00_Contorno Poliamida
10
139.866756
20
152.453490
30
0.0
11
139.866756
21
154.703490
31
0.0
0
LINE
8
00_Contorno Poliamida
10
133.866193
20
151.852797
30
0.0
11
134.166191
21
153.202790
31
0.0
0
LINE
8
00_Contorno Poliamida
10
134.167173
20
153.201893
30
0.0
11
134.317173
21
154.701897
31
0.0
0
LINE
8
00_Contorno Poliamida
10
133.866092
20
151.854159
30
0.0
11
133.716092
21
152.904164
31
0.0
0
LINE
8
00_Contorno Poliamida
10
133.717011
20
152.902264
30
0.0
11
133.417013
21
154.702260
31
0.0
0
LINE
8
00_Contorno Poliamida
10
133.416756
20
154.703490
30
0.0
11
133.416756
21
156.503490
31
0.0
0
LINE
8
00_Contorno Poliamida
10
133.416720
20
156.503582
30
0.0
11
133.566721
21
157.403587
31
0.0
0
LINE
8
00_Contorno Poliamida
10
133.566296
20
157.403460
30
0.0
11
133.866298
21
156.653455
31
0.0
0
LINE
8
00_Contorno Poliamida
10
133.866090
20
156.654133
30
0.0
11
134.316091
21
154.704127
31
0.0
0
LINE
8
00_Contorno Poliamida
10
133.867116
20
153.503360
30
0.0
11
134.017116
21
154.703367
31
0.0
0
LINE
8
00_Contorno Poliamida
10
133.867244
20
153.503657
30
0.0
11
133.717243
21
154.703663
31
0.0
0
LINE
8
00_Contorno Poliamida
10
133.716756
20
154.703490
30
0.0
11
133.716756
21
155.903490
31
0.0
0
LINE
8
00_Contorno Poliamida
10
133.717114
20
155.903816
30
0.0
11
134.017113
21
154.703817
31
0.0
0
LINE
8
00_Contorno Poliamida
10
133.266655
20
158.001334
30
0.0
11
133.383086
21
159.980634
31
0.0
0
LINE
8
00_Contorno Poliamida
10
133.554949
20
149.515663
30
0.0
11
133.416611
21
152.005770
31
0.0
0
LINE
8
00_Contorno Poliamida
10
133.131019
20
138.718189
30
0.0
11
132.966814
21
139.703419
31
0.0
0
LINE
8
00_Contorno Poliamida
10
133.416819
20
152.003418
30
0.0
11
132.966820
21
154.703420
31
0.0
0
LINE
8
00_Contorno Poliamida
10
133.161234
20
168.536965
30
0.0
11
133.080652
21
169.020459
31
0.0
0
LINE
8
00_Contorno Poliamida
10
134.767311
20
154.704924
30
0.0
11
134.467313
21
156.354919
31
0.0
0
LINE
8
00_Contorno Poliamida
10
134.467467
20
156.353746
30
0.0
11
133.867468
21
158.453743
31
0.0
0
LINE
8
00_Contorno Poliamida
10
133.866756
20
158.453490
30
0.0
11
133.866756
21
160.059463
31
0.0
0
LINE
8
00_Contorno Poliamida
10
134.045055
20
149.435785
30
0.0
11
134.015955
21
149.901404
31
0.0
0
LINE
8
00_Contorno Poliamida
10
134.017775
20
149.902780
30
0.0
11
134.317775
21
151.852773
31
0.0
0
LINE
8
00_Contorno Poliamida
10
134.316983
20
151.853806
30
0.0
11
134.766981
21
153.653804
31
0.0
0
LINE
8
00_Contorno Poliamida
10
134.766756
20
153.653490
30
0.0
11
134.766756
21
154.703490
31
0.0
0
LINE
8
00_Contorno Poliamida
10
133.161234
20
141.837372
30
0.0
11
132.967292
21
139.703996
31
0.0
0
LINE
8
00_Contorno Poliamida
10
133.267279
20
158.003990
30
0.0
11
132.967281
21
154.703993
31
0.0
0
LINE
8
00_Contorno Poliamida
10
132.365477
20
154.703251
30
0.0
11
132.665475
21
158.303253
31
0.0
0
LINE
8
00_Contorno Poliamida
10
132.365480
20
139.703248
30
0.0
11
132.665478
21
143.303250
31
0.0
0
LINE
8
00_Contorno Poliamida
10
132.666756
20
143.303490
30
0.0
11
132.666756
21
146.753490
31
0.0
0
LINE
8
00_Contorno Poliamida
10
132.666756
20
158.303490
30
0.0
11
132.666756
21
161.753490
31
0.0
0
LINE
8
00_Contorno Poliamida
10
132.666779
20
146.751459
30
0.0
11
132.366780
21
150.951454
31
0.0
0
LINE
8
00_Contorno Poliamida
10
132.666783
20
161.751449
30
0.0
11
132.366785
21
165.951443
31
0.0
0
LINE
8
00_Contorno Poliamida
10
132.366756
20
137.983501
30
0.0
11
132.366756
21
139.703490
31
0.0
0
LINE
8
00_Contorno Poliamida
10
132.366756
20
150.953490
30
0.0
11
132.366756
21
154.703490
31
0.0
0
LINE
8
00_Contorno Poliamida
10
132.366756
20
165.953490
30
0.0
11
132.366756
21
169.020459
31
0.0
0
LINE
8
00_Contorno Poliamida
10
135.517252
20
154.703659
30
0.0
11
135.067252
21
158.303664
31
0.0
0
LINE
8
00_Contorno Poliamida
10
135.067628
20
158.304189
30
0.0
11
134.854707
21
160.220481
31
0.0
0
LINE
8
00_Contorno Poliamida
10
134.908917
20
149.294991
30
0.0
11
134.915836
21
149.454132
31
0.0
0
LINE
8
00_Contorno Poliamida
10
134.918898
20
149.450962
30
0.0
11
135.518898
21
154.700957
31
0.0
0
LINE
8
00_Contorno Poliamida
10
125.767383
20
139.704187
30
0.0
11
125.617382
21
142.554187
31
0.0
0
LINE
8
00_Contorno Poliamida
10
125.767382
20
154.704189
30
0.0
11
125.617381
21
157.554190
31
0.0
0
LINE
8
00_Contorno Poliamida
10
125.767381
20
169.704192
30
0.0
11
125.617380
21
172.554192
31
0.0
0
LINE
8
00_Contorno Poliamida
10
140.767427
20
154.704237
30
0.0
11
140.617426
21
157.554238
31
0.0
0
LINE
8
00_Contorno Poliamida
10
125.616196
20
172.552943
30
0.0
11
126.066195
21
175.702942
31
0.0
0
LINE
8
00_Contorno Poliamida
10
125.616190
20
157.552936
30
0.0
11
126.066190
21
160.702935
31
0.0
0
LINE
8
00_Contorno Poliamida
10
125.616184
20
142.552929
30
0.0
11
126.066184
21
145.702929
31
0.0
0
LINE
8
00_Contorno Poliamida
10
140.616146
20
157.552892
30
0.0
11
141.066146
21
160.702891
31
0.0
0
LINE
8
00_Contorno Poliamida
10
126.068878
20
175.703853
30
0.0
11
126.158822
21
177.862557
31
0.0
0
LINE
8
00_Contorno Poliamida
10
126.068896
20
160.703854
30
0.0
11
126.218893
21
164.303850
31
0.0
0
LINE
8
00_Contorno Poliamida
10
126.068915
20
145.703855
30
0.0
11
126.218912
21
149.303851
31
0.0
0
LINE
8
00_Contorno Poliamida
10
141.069061
20
160.703880
30
0.0
11
141.091271
21
161.236926
31
0.0
0
LINE
8
00_Contorno Poliamida
10
141.176147
20
148.273548
30
0.0
11
141.219076
21
149.303878
31
0.0
0
LINE
8
00_Contorno Poliamida
10
126.218255
20
149.305021
30
0.0
11
125.768253
21
151.705017
31
0.0
0
LINE
8
00_Contorno Poliamida
10
126.218262
20
164.305037
30
0.0
11
125.768261
21
166.705033
31
0.0
0
LINE
8
00_Contorno Poliamida
10
141.218357
20
149.305121
30
0.0
11
140.768356
21
151.705117
31
0.0
0
LINE
8
00_Contorno Poliamida
10
125.766756
20
137.962154
30
0.0
11
125.766756
21
139.703490
31
0.0
0
LINE
8
00_Contorno Poliamida
10
125.766756
20
151.703490
30
0.0
11
125.766756
21
154.703490
31
0.0
0
LINE
8
00_Contorno Poliamida
10
125.766756
20
166.703490
30
0.0
11
125.766756
21
169.703490
31
0.0
0
LINE
8
00_Contorno Poliamida
10
140.766756
20
151.703490
30
0.0
11
140.766756
21
154.703490
31
0.0
0
LINE
8
00_Contorno Poliamida
10
123.966483
20
169.701391
30
0.0
11
124.116482
21
172.401397
31
0.0
0
LINE
8
00_Contorno Poliamida
10
123.966490
20
154.701381
30
0.0
11
124.116489
21
157.401388
31
0.0
0
LINE
8
00_Contorno Poliamida
10
123.966497
20
139.701371
30
0.0
11
124.116496
21
142.401378
31
0.0
0
LINE
8
00_Contorno Poliamida
10
138.966476
20
154.701224
30
0.0
11
139.116475
21
157.401231
31
0.0
0
LINE
8
00_Contorno Poliamida
10
124.115217
20
142.402360
30
0.0
11
123.815217
21
145.252364
31
0.0
0
LINE
8
00_Contorno Poliamida
10
124.115208
20
157.402352
30
0.0
11
123.815207
21
160.252356
31
0.0
0
LINE
8
00_Contorno Poliamida
10
124.115198
20
172.402344
30
0.0
11
123.815198
21
175.252348
31
0.0
0
LINE
8
00_Contorno Poliamida
10
139.115103
20
157.402276
30
0.0
11
138.815103
21
160.252280
31
0.0
0
LINE
8
00_Contorno Poliamida
10
123.817937
20
145.256243
30
0.0
11
123.517939
21
147.806237
31
0.0
0
LINE
8
00_Contorno Poliamida
10
123.817955
20
160.256265
30
0.0
11
123.517958
21
162.806259
31
0.0
0
LINE
8
00_Contorno Poliamida
10
123.817974
20
175.256288
30
0.0
11
123.517976
21
177.806281
31
0.0
0
LINE
8
00_Contorno Poliamida
10
138.818029
20
160.256449
30
0.0
11
138.747617
21
160.854954
31
0.0
0
LINE
8
00_Contorno Poliamida
10
123.517170
20
177.801918
30
0.0
11
123.523234
21
177.862557
31
0.0
0
LINE
8
00_Contorno Poliamida
10
123.517171
20
162.801906
30
0.0
11
123.817173
21
165.801913
31
0.0
0
LINE
8
00_Contorno Poliamida
10
123.517173
20
147.801893
30
0.0
11
123.817174
21
150.801901
31
0.0
0
LINE
8
00_Contorno Poliamida
10
138.606265
20
148.692391
30
0.0
11
138.817204
21
150.801779
31
0.0
0
LINE
8
00_Contorno Poliamida
10
123.816856
20
165.803686
30
0.0
11
124.266857
21
167.903683
31
0.0
0
LINE
8
00_Contorno Poliamida
10
123.816845
20
150.803693
30
0.0
11
124.266846
21
152.903689
31
0.0
0
LINE
8
00_Contorno Poliamida
10
138.816845
20
150.803711
30
0.0
11
139.266846
21
152.903707
31
0.0
0
LINE
8
00_Contorno Poliamida
10
124.257024
20
137.962154
30
0.0
11
123.967004
21
139.702274
31
0.0
0
LINE
8
00_Contorno Poliamida
10
124.267011
20
152.902264
30
0.0
11
123.967013
21
154.702260
31
0.0
0
LINE
8
00_Contorno Poliamida
10
124.267020
20
167.902250
30
0.0
11
123.967021
21
169.702247
31
0.0
0
LINE
8
00_Contorno Poliamida
10
139.267025
20
152.902184
30
0.0
11
138.967026
21
154.702180
31
0.0
0
LINE
8
00_Contorno Poliamida
10
126.816698
20
139.703144
30
0.0
11
126.666697
21
141.953145
31
0.0
0
LINE
8
00_Contorno Poliamida
10
126.816692
20
154.703142
30
0.0
11
126.666691
21
156.953142
31
0.0
0
LINE
8
00_Contorno Poliamida
10
126.816685
20
169.703140
30
0.0
11
126.666684
21
171.953140
31
0.0
0
LINE
8
00_Contorno Poliamida
10
141.816691
20
154.703119
30
0.0
11
141.666690
21
156.953119
31
0.0
0
LINE
8
00_Contorno Poliamida
10
126.665813
20
171.952677
30
0.0
11
127.415814
21
175.252673
31
0.0
0
LINE
8
00_Contorno Poliamida
10
126.665784
20
156.952664
30
0.0
11
127.415785
21
160.252660
31
0.0
0
LINE
8
00_Contorno Poliamida
10
126.665755
20
141.952651
30
0.0
11
127.415756
21
145.252647
31
0.0
0
LINE
8
00_Contorno Poliamida
10
141.665696
20
156.952597
30
0.0
11
141.860820
21
157.811141
31
0.0
0
LINE
8
00_Contorno Poliamida
10
127.416756
20
145.253490
30
0.0
11
127.416756
21
149.003490
31
0.0
0
LINE
8
00_Contorno Poliamida
10
127.416756
20
160.253490
30
0.0
11
127.416756
21
164.003490
31
0.0
0
LINE
8
00_Contorno Poliamida
10
127.416756
20
175.253490
30
0.0
11
127.416756
21
177.862557
31
0.0
0
LINE
8
00_Contorno Poliamida
10
127.419027
20
149.002490
30
0.0
11
127.119029
21
152.152487
31
0.0
0
LINE
8
00_Contorno Poliamida
10
127.419049
20
164.002485
30
0.0
11
127.119051
21
167.152481
31
0.0
0
LINE
8
00_Contorno Poliamida
10
127.023103
20
137.962154
30
0.0
11
126.817921
21
139.706215
31
0.0
0
LINE
8
00_Contorno Poliamida
10
127.117937
20
152.156243
30
0.0
11
126.817939
21
154.706237
31
0.0
0
LINE
8
00_Contorno Poliamida
10
127.117955
20
167.156265
30
0.0
11
126.817958
21
169.706259
31
0.0
0
LINE
8
00_Contorno Poliamida
10
141.860820
20
154.342560
30
0.0
11
141.818013
21
154.706421
31
0.0
0
LINE
8
00_Contorno Poliamida
10
122.916756
20
139.703490
30
0.0
11
122.916756
21
142.253490
31
0.0
0
LINE
8
00_Contorno Poliamida
10
122.916756
20
154.703490
30
0.0
11
122.916756
21
157.253490
31
0.0
0
LINE
8
00_Contorno Poliamida
10
122.916756
20
169.703490
30
0.0
11
122.916756
21
172.253490
31
0.0
0
LINE
8
00_Contorno Poliamida
10
137.916756
20
154.703490
30
0.0
11
137.916756
21
157.253490
31
0.0
0
LINE
8
00_Contorno Poliamida
10
122.916092
20
142.254159
30
0.0
11
122.316092
21
146.454164
31
0.0
0
LINE
8
00_Contorno Poliamida
10
122.916086
20
157.254166
30
0.0
11
122.316086
21
161.454170
31
0.0
0
LINE
8
00_Contorno Poliamida
10
122.916081
20
172.254173
30
0.0
11
122.316080
21
176.454177
31
0.0
0
LINE
8
00_Contorno Poliamida
10
137.916042
20
157.254210
30
0.0
11
137.432276
21
160.640577
31
0.0
0
LINE
8
00_Contorno Poliamida
10
122.318878
20
176.453853
30
0.0
11
122.377573
21
177.862557
31
0.0
0
LINE
8
00_Contorno Poliamida
10
122.318896
20
161.453854
30
0.0
11
122.468893
21
165.053850
31
0.0
0
LINE
8
00_Contorno Poliamida
10
122.318915
20
146.453855
30
0.0
11
122.468912
21
150.053851
31
0.0
0
LINE
8
00_Contorno Poliamida
10
137.420402
20
148.885665
30
0.0
11
137.469076
21
150.053878
31
0.0
0
LINE
8
00_Contorno Poliamida
10
122.466074
20
165.051677
30
0.0
11
122.916070
21
169.701674
31
0.0
0
LINE
8
00_Contorno Poliamida
10
122.466080
20
150.051663
30
0.0
11
122.916076
21
154.701659
31
0.0
0
LINE
8
00_Contorno Poliamida
10
122.747746
20
137.962154
30
0.0
11
122.916082
21
139.701645
31
0.0
0
LINE
8
00_Contorno Poliamida
10
137.466035
20
150.051524
30
0.0
11
137.916031
21
154.701521
31
0.0
0
LINE
8
00_Contorno Poliamida
10
121.566288
20
139.703790
30
0.0
11
121.157609
21
143.109430
31
0.0
0
LINE
8
00_Contorno Poliamida
10
121.566277
20
154.703792
30
0.0
11
121.157609
21
158.109344
31
0.0
0
LINE
8
00_Contorno Poliamida
10
121.566267
20
169.703794
30
0.0
11
121.157609
21
173.109258
31
0.0
0
LINE
8
00_Contorno Poliamida
10
136.566248
20
154.703814
30
0.0
11
136.116245
21
158.453820
31
0.0
0
LINE
8
00_Contorno Poliamida
10
136.116756
20
158.453490
30
0.0
11
136.116756
21
160.426172
31
0.0
0
LINE
8
00_Contorno Poliamida
10
121.157609
20
163.347353
30
0.0
11
121.563536
21
169.706908
31
0.0
0
LINE
8
00_Contorno Poliamida
10
121.157609
20
148.347532
30
0.0
11
121.563526
21
154.706925
31
0.0
0
LINE
8
00_Contorno Poliamida
10
121.469652
20
138.236403
30
0.0
11
121.563515
21
139.706942
31
0.0
0
LINE
8
00_Contorno Poliamida
10
136.204337
20
149.083862
30
0.0
11
136.563271
21
154.707200
31
0.0
0
LINE
8
00_Contorno Poliamida
10
131.316756
20
139.703490
30
0.0
11
131.316756
21
143.303490
31
0.0
0
LINE
8
00_Contorno Poliamida
10
131.316756
20
154.703490
30
0.0
11
131.316756
21
158.303490
31
0.0
0
LINE
8
00_Contorno Poliamida
10
131.316756
20
169.703490
30
0.0
11
131.316756
21
173.303490
31
0.0
0
LINE
8
00_Contorno Poliamida
10
131.315536
20
143.303780
30
0.0
11
131.015538
21
146.903782
31
0.0
0
LINE
8
00_Contorno Poliamida
10
131.315539
20
158.303783
30
0.0
11
131.015541
21
161.903785
31
0.0
0
LINE
8
00_Contorno Poliamida
10
131.315542
20
173.303786
30
0.0
11
131.015545
21
176.903788
31
0.0
0
LINE
8
00_Contorno Poliamida
10
131.014885
20
176.904349
30
0.0
11
131.045757
21
177.861397
31
0.0
0
LINE
8
00_Contorno Poliamida
10
131.014883
20
161.904351
30
0.0
11
131.164882
21
166.554347
31
0.0
0
LINE
8
00_Contorno Poliamida
10
131.014882
20
146.904352
30
0.0
11
131.164881
21
151.554349
31
0.0
0
LINE
8
00_Contorno Poliamida
10
131.166120
20
166.554140
30
0.0
11
131.316119
21
169.704141
31
0.0
0
LINE
8
00_Contorno Poliamida
10
131.166121
20
151.554142
30
0.0
11
131.316120
21
154.704143
31
0.0
0
LINE
8
00_Contorno Poliamida
10
131.233169
20
137.962154
30
0.0
11
131.316121
21
139.704145
31
0.0
0
LINE
8
00_Contorno Poliamida
10
128.917267
20
169.703987
30
0.0
11
129.217265
21
173.003984
31
0.0
0
LINE
8
00_Contorno Poliamida
10
128.917279
20
154.703990
30
0.0
11
129.217277
21
158.003987
31
0.0
0
LINE
8
00_Contorno Poliamida
10
128.917290
20
139.703992
30
0.0
11
129.217288
21
143.003989
31
0.0
0
LINE
8
00_Contorno Poliamida
10
129.216756
20
143.003490
30
0.0
11
129.216756
21
147.803490
31
0.0
0
LINE
8
00_Contorno Poliamida
10
129.216756
20
158.003490
30
0.0
11
129.216756
21
162.803490
31
0.0
0
LINE
8
00_Contorno Poliamida
10
129.216756
20
173.003490
30
0.0
11
129.216756
21
177.803490
31
0.0
0
LINE
8
00_Contorno Poliamida
10
129.217726
20
147.804306
30
0.0
11
129.067722
21
152.304311
31
0.0
0
LINE
8
00_Contorno Poliamida
10
129.217716
20
162.804307
30
0.0
11
129.067712
21
167.304313
31
0.0
0
LINE
8
00_Contorno Poliamida
10
129.217706
20
177.804309
30
0.0
11
129.215764
21
177.862557
31
0.0
0
LINE
8
00_Contorno Poliamida
10
129.024652
20
137.962154
30
0.0
11
128.915949
21
139.701412
31
0.0
0
LINE
8
00_Contorno Poliamida
10
129.065953
20
152.301406
30
0.0
11
128.915955
21
154.701404
31
0.0
0
LINE
8
00_Contorno Poliamida
10
129.065958
20
167.301397
30
0.0
11
128.915960
21
169.701395
31
0.0
0
ATTDEF
8
0
10
0.000000
20
0.000000
30
0.0
40
3.5
1

3

2
PANE_WIDTH:0
70
0
0
ATTDEF
8
0
10
0.000000
20
0.000000
30
0.0
40
3.5
1

3

2
MIN_VETRO:0
70
0
0
ATTDEF
8
0
10
0.000000
20
0.000000
30
0.0
40
3.5
1

3

2
MAX_VETRO:0
70
0
0
ATTDEF
8
0
10
0.000000
20
0.000000
30
0.0
40
3.5
1

3

2
JX:0
70
0
0
ATTDEF
8
0
10
0.000000
20
0.000000
30
0.0
40
3.5
1

3

2
WX:0
70
0
0
ATTDEF
8
0
10
0.000000
20
0.000000
30
0.0
40
3.5
1

3

2
JY:0
70
0
0
ATTDEF
8
0
10
0.000000
20
0.000000
30
0.0
40
3.5
1

3

2
WY:0
70
0
0
ATTDEF
8
0
10
0.000000
20
0.000000
30
0.0
40
3.5
1

3

2
DESC:Marco ventana c/madera ensamblada
70
0
0
ATTDEF
8
0
10
0.000000
20
0.000000
30
0.0
40
3.5
1

3

2
DENS:1.5123
70
0
0
ATTDEF
8
0
10
0.000000
20
0.000000
30
0.0
40
3.5
1

3

2
TDEV:62.34
70
0
0
ATTDEF
8
0
10
0.000000
20
0.000000
30
0.0
40
3.5
1

3

2
TDEV2:0
70
0
0
ATTDEF
8
0
10
0.000000
20
0.000000
30
0.0
40
3.5
1

3

2
TDEV3:0
70
0
0
ATTDEF
8
0
10
0.000000
20
0.000000
30
0.0
40
3.5
1

3

2
TDEV4:0
70
0
0
ATTDEF
8
0
10
0.000000
20
0.000000
30
0.0
40
3.5
1

3

2
TDEV5:0
70
0
0
ATTDEF
8
0
10
0.000000
20
0.000000
30
0.0
40
3.5
1

3

2
PANE_WIDTH:0
70
0
0
ATTDEF
8
0
10
0.000000
20
0.000000
30
0.0
40
3.5
1

3

2
MIN_VETRO:0
70
0
0
ATTDEF
8
0
10
0.000000
20
0.000000
30
0.0
40
3.5
1

3

2
MAX_VETRO:0
70
0
0
ATTDEF
8
0
10
0.000000
20
0.000000
30
0.0
40
3.5
1

3

2
JX:0
70
0
0
ATTDEF
8
0
10
0.000000
20
0.000000
30
0.0
40
3.5
1

3

2
WX:0
70
0
0
ATTDEF
8
0
10
0.000000
20
0.000000
30
0.0
40
3.5
1

3

2
JY:0
70
0
0
ATTDEF
8
0
10
0.000000
20
0.000000
30
0.0
40
3.5
1

3

2
WY:0
70
0
0
ENDSEC
0
EOF
