0
SECTION
2
ENTITIES
0
LINE
8
00_Contorno Poliamida
10
1883.766672
20
1269.087589
30
0.0
11
1885.416666
21
1268.787591
31
0.0
0
LINE
8
00_Contorno Poliamida
10
1868.766654
20
1269.087571
30
0.0
11
1870.416648
21
1268.787574
31
0.0
0
LINE
8
00_Contorno Poliamida
10
1853.766636
20
1269.087554
30
0.0
11
1855.416631
21
1268.787556
31
0.0
0
LINE
8
00_Contorno Poliamida
10
1853.766545
20
1254.087526
30
0.0
11
1855.416540
21
1253.787528
31
0.0
0
LINE
8
00_Contorno Poliamida
10
1855.416328
20
1268.787434
30
0.0
11
1857.066328
21
1268.787434
31
0.0
0
LINE
8
00_Contorno Poliamida
10
1870.416328
20
1268.787434
30
0.0
11
1872.066328
21
1268.787434
31
0.0
0
LINE
8
00_Contorno Poliamida
10
1885.416328
20
1268.787434
30
0.0
11
1887.066328
21
1268.787434
31
0.0
0
LINE
8
00_Contorno Poliamida
10
1855.416328
20
1253.787434
30
0.0
11
1857.066328
21
1253.787434
31
0.0
0
LINE
8
00_Contorno Poliamida
10
1857.066360
20
1268.787432
30
0.0
11
1858.416355
21
1269.237429
31
0.0
0
LINE
8
00_Contorno Poliamida
10
1872.066357
20
1268.787415
30
0.0
11
1873.416352
21
1269.237412
31
0.0
0
LINE
8
00_Contorno Poliamida
10
1887.066354
20
1268.787397
30
0.0
11
1888.416349
21
1269.237394
31
0.0
0
LINE
8
00_Contorno Poliamida
10
1857.066347
20
1253.787421
30
0.0
11
1858.416343
21
1254.237418
31
0.0
0
LINE
8
00_Contorno Poliamida
10
1858.416354
20
1254.237510
30
0.0
11
1857.216347
21
1254.387511
31
0.0
0
LINE
8
00_Contorno Poliamida
10
1858.416364
20
1269.237541
30
0.0
11
1857.216358
21
1269.387541
31
0.0
0
LINE
8
00_Contorno Poliamida
10
1873.416367
20
1269.237549
30
0.0
11
1872.216360
21
1269.387549
31
0.0
0
LINE
8
00_Contorno Poliamida
10
1888.416369
20
1269.237557
30
0.0
11
1887.216363
21
1269.387557
31
0.0
0
LINE
8
00_Contorno Poliamida
10
1857.216247
20
1254.387547
30
0.0
11
1855.566241
21
1254.537546
31
0.0
0
LINE
8
00_Contorno Poliamida
10
1857.216210
20
1269.387592
30
0.0
11
1855.566204
21
1269.537591
31
0.0
0
LINE
8
00_Contorno Poliamida
10
1872.216207
20
1269.387603
30
0.0
11
1870.566201
21
1269.537603
31
0.0
0
LINE
8
00_Contorno Poliamida
10
1887.216204
20
1269.387615
30
0.0
11
1885.566199
21
1269.537615
31
0.0
0
LINE
8
00_Contorno Poliamida
10
1855.566368
20
1254.537450
30
0.0
11
1853.766370
21
1254.087452
31
0.0
0
LINE
8
00_Contorno Poliamida
10
1885.566382
20
1269.537440
30
0.0
11
1883.766384
21
1269.087442
31
0.0
0
LINE
8
00_Contorno Poliamida
10
1870.566388
20
1269.537458
30
0.0
11
1868.766390
21
1269.087460
31
0.0
0
LINE
8
00_Contorno Poliamida
10
1855.566394
20
1269.537477
30
0.0
11
1853.766396
21
1269.087479
31
0.0
0
LINE
8
00_Contorno Poliamida
10
1854.966347
20
1269.087426
30
0.0
11
1855.866353
21
1269.237426
31
0.0
0
LINE
8
00_Contorno Poliamida
10
1869.966349
20
1269.087420
30
0.0
11
1870.866354
21
1269.237420
31
0.0
0
LINE
8
00_Contorno Poliamida
10
1884.966350
20
1269.087414
30
0.0
11
1885.866355
21
1269.237415
31
0.0
0
LINE
8
00_Contorno Poliamida
10
1854.966342
20
1254.087425
30
0.0
11
1855.866347
21
1254.237425
31
0.0
0
LINE
8
00_Contorno Poliamida
10
1885.866487
20
1269.237630
30
0.0
11
1887.216490
21
1269.087629
31
0.0
0
LINE
8
00_Contorno Poliamida
10
1870.866483
20
1269.237625
30
0.0
11
1872.216485
21
1269.087625
31
0.0
0
LINE
8
00_Contorno Poliamida
10
1855.866478
20
1269.237621
30
0.0
11
1857.216480
21
1269.087621
31
0.0
0
LINE
8
00_Contorno Poliamida
10
1855.866431
20
1254.237562
30
0.0
11
1857.216433
21
1254.087561
31
0.0
0
LINE
8
00_Contorno Poliamida
10
1857.216110
20
1254.087492
30
0.0
11
1855.716107
21
1253.937492
31
0.0
0
LINE
8
00_Contorno Poliamida
10
1887.216014
20
1269.087520
30
0.0
11
1885.716011
21
1268.937520
31
0.0
0
LINE
8
00_Contorno Poliamida
10
1872.216002
20
1269.087522
30
0.0
11
1870.715998
21
1268.937521
31
0.0
0
LINE
8
00_Contorno Poliamida
10
1857.215989
20
1269.087523
30
0.0
11
1855.715986
21
1268.937522
31
0.0
0
LINE
8
00_Contorno Poliamida
10
1855.716202
20
1253.937448
30
0.0
11
1854.966205
21
1254.087447
31
0.0
0
LINE
8
00_Contorno Poliamida
10
1855.716149
20
1268.937446
30
0.0
11
1854.966152
21
1269.087445
31
0.0
0
LINE
8
00_Contorno Poliamida
10
1870.716139
20
1268.937455
30
0.0
11
1869.966142
21
1269.087454
31
0.0
0
LINE
8
00_Contorno Poliamida
10
1885.716128
20
1268.937463
30
0.0
11
1884.966131
21
1269.087462
31
0.0
0
LINE
8
00_Contorno Poliamida
10
1882.416204
20
1268.937615
30
0.0
11
1884.066210
21
1268.787615
31
0.0
0
LINE
8
00_Contorno Poliamida
10
1867.416207
20
1268.937603
30
0.0
11
1869.066213
21
1268.787603
31
0.0
0
LINE
8
00_Contorno Poliamida
10
1852.416210
20
1268.937592
30
0.0
11
1854.066216
21
1268.787592
31
0.0
0
LINE
8
00_Contorno Poliamida
10
1867.416245
20
1253.937558
30
0.0
11
1868.449894
21
1253.843591
31
0.0
0
LINE
8
00_Contorno Poliamida
10
1852.416247
20
1253.937547
30
0.0
11
1854.066253
21
1253.787547
31
0.0
0
LINE
8
00_Contorno Poliamida
10
1884.066128
20
1268.787463
30
0.0
11
1885.566123
21
1268.487465
31
0.0
0
LINE
8
00_Contorno Poliamida
10
1869.066139
20
1268.787455
30
0.0
11
1870.566133
21
1268.487457
31
0.0
0
LINE
8
00_Contorno Poliamida
10
1854.066149
20
1268.787446
30
0.0
11
1855.566144
21
1268.487448
31
0.0
0
LINE
8
00_Contorno Poliamida
10
1854.066202
20
1253.787448
30
0.0
11
1855.566196
21
1253.487450
31
0.0
0
LINE
8
00_Contorno Poliamida
10
1855.566328
20
1268.487434
30
0.0
11
1857.366328
21
1268.487434
31
0.0
0
LINE
8
00_Contorno Poliamida
10
1870.566328
20
1268.487434
30
0.0
11
1872.366328
21
1268.487434
31
0.0
0
LINE
8
00_Contorno Poliamida
10
1885.566328
20
1268.487434
30
0.0
11
1887.366328
21
1268.487434
31
0.0
0
LINE
8
00_Contorno Poliamida
10
1855.566328
20
1253.487434
30
0.0
11
1857.366328
21
1253.487434
31
0.0
0
LINE
8
00_Contorno Poliamida
10
1857.366396
20
1268.487380
30
0.0
11
1858.566396
21
1268.937379
31
0.0
0
LINE
8
00_Contorno Poliamida
10
1872.366391
20
1268.487373
30
0.0
11
1873.566391
21
1268.937372
31
0.0
0
LINE
8
00_Contorno Poliamida
10
1887.366386
20
1268.487367
30
0.0
11
1888.566386
21
1268.937366
31
0.0
0
LINE
8
00_Contorno Poliamida
10
1857.366370
20
1253.487394
30
0.0
11
1858.566370
21
1253.937392
31
0.0
0
LINE
8
00_Contorno Poliamida
10
1858.566393
20
1268.937446
30
0.0
11
1860.816393
21
1269.087447
31
0.0
0
LINE
8
00_Contorno Poliamida
10
1873.566391
20
1268.937452
30
0.0
11
1875.816391
21
1269.087454
31
0.0
0
LINE
8
00_Contorno Poliamida
10
1888.566388
20
1268.937459
30
0.0
11
1890.816389
21
1269.087460
31
0.0
0
LINE
8
00_Contorno Poliamida
10
1858.566370
20
1253.937446
30
0.0
11
1860.816370
21
1254.087447
31
0.0
0
LINE
8
00_Contorno Poliamida
10
1890.816204
20
1269.087615
30
0.0
11
1892.466210
21
1268.937615
31
0.0
0
LINE
8
00_Contorno Poliamida
10
1875.816207
20
1269.087603
30
0.0
11
1877.466213
21
1268.937603
31
0.0
0
LINE
8
00_Contorno Poliamida
10
1860.816210
20
1269.087592
30
0.0
11
1862.466216
21
1268.937592
31
0.0
0
LINE
8
00_Contorno Poliamida
10
1860.816247
20
1254.087547
30
0.0
11
1862.466253
21
1253.937547
31
0.0
0
LINE
8
00_Contorno Poliamida
10
1862.466328
20
1268.937434
30
0.0
11
1864.116328
21
1268.937434
31
0.0
0
LINE
8
00_Contorno Poliamida
10
1877.466328
20
1268.937434
30
0.0
11
1879.116328
21
1268.937434
31
0.0
0
LINE
8
00_Contorno Poliamida
10
1892.466328
20
1268.937434
30
0.0
11
1894.116328
21
1268.937434
31
0.0
0
LINE
8
00_Contorno Poliamida
10
1847.799894
20
1253.937434
30
0.0
11
1849.116328
21
1253.937434
31
0.0
0
LINE
8
00_Contorno Poliamida
10
1862.466328
20
1253.937434
30
0.0
11
1864.116328
21
1253.937434
31
0.0
0
LINE
8
00_Contorno Poliamida
10
1864.116432
20
1268.937533
30
0.0
11
1865.766438
21
1269.087533
31
0.0
0
LINE
8
00_Contorno Poliamida
10
1879.116429
20
1268.937522
30
0.0
11
1880.766435
21
1269.087521
31
0.0
0
LINE
8
00_Contorno Poliamida
10
1894.116426
20
1268.937510
30
0.0
11
1894.901760
21
1269.008904
31
0.0
0
LINE
8
00_Contorno Poliamida
10
1849.116397
20
1253.937500
30
0.0
11
1850.766403
21
1254.087500
31
0.0
0
LINE
8
00_Contorno Poliamida
10
1864.116394
20
1253.937489
30
0.0
11
1865.766400
21
1254.087488
31
0.0
0
LINE
8
00_Contorno Poliamida
10
1880.766204
20
1269.087615
30
0.0
11
1882.416210
21
1268.937615
31
0.0
0
LINE
8
00_Contorno Poliamida
10
1865.766207
20
1269.087603
30
0.0
11
1867.416213
21
1268.937603
31
0.0
0
LINE
8
00_Contorno Poliamida
10
1851.130391
20
1269.054484
30
0.0
11
1852.416216
21
1268.937592
31
0.0
0
LINE
8
00_Contorno Poliamida
10
1865.766245
20
1254.087558
30
0.0
11
1867.416251
21
1253.937559
31
0.0
0
LINE
8
00_Contorno Poliamida
10
1850.766247
20
1254.087547
30
0.0
11
1852.416253
21
1253.937547
31
0.0
0
LINE
8
00_Contorno Poliamida
10
1864.116328
20
1269.237434
30
0.0
11
1865.016328
21
1269.237434
31
0.0
0
LINE
8
00_Contorno Poliamida
10
1879.116328
20
1269.237434
30
0.0
11
1880.016328
21
1269.237434
31
0.0
0
LINE
8
00_Contorno Poliamida
10
1894.116328
20
1269.237434
30
0.0
11
1894.901760
21
1269.237434
31
0.0
0
LINE
8
00_Contorno Poliamida
10
1849.116328
20
1254.237434
30
0.0
11
1850.016328
21
1254.237434
31
0.0
0
LINE
8
00_Contorno Poliamida
10
1864.116328
20
1254.237434
30
0.0
11
1865.016328
21
1254.237434
31
0.0
0
LINE
8
00_Contorno Poliamida
10
1865.016432
20
1269.237533
30
0.0
11
1866.666438
21
1269.387533
31
0.0
0
LINE
8
00_Contorno Poliamida
10
1880.016429
20
1269.237522
30
0.0
11
1881.666435
21
1269.387521
31
0.0
0
LINE
8
00_Contorno Poliamida
10
1850.016397
20
1254.237500
30
0.0
11
1851.666403
21
1254.387500
31
0.0
0
LINE
8
00_Contorno Poliamida
10
1865.016394
20
1254.237489
30
0.0
11
1866.181224
21
1254.343382
31
0.0
0
LINE
8
00_Contorno Poliamida
10
1851.736415
20
1269.387434
30
0.0
11
1853.166328
21
1269.387434
31
0.0
0
LINE
8
00_Contorno Poliamida
10
1866.666328
20
1269.387434
30
0.0
11
1868.166328
21
1269.387434
31
0.0
0
LINE
8
00_Contorno Poliamida
10
1881.666328
20
1269.387434
30
0.0
11
1883.166328
21
1269.387434
31
0.0
0
LINE
8
00_Contorno Poliamida
10
1851.666328
20
1254.387434
30
0.0
11
1853.166328
21
1254.387434
31
0.0
0
LINE
8
00_Contorno Poliamida
10
1853.166089
20
1269.387484
30
0.0
11
1854.816084
21
1269.687481
31
0.0
0
LINE
8
00_Contorno Poliamida
10
1868.166107
20
1269.387466
30
0.0
11
1869.816101
21
1269.687464
31
0.0
0
LINE
8
00_Contorno Poliamida
10
1883.166125
20
1269.387449
30
0.0
11
1884.816119
21
1269.687446
31
0.0
0
LINE
8
00_Contorno Poliamida
10
1853.166181
20
1254.387455
30
0.0
11
1854.816175
21
1254.687453
31
0.0
0
LINE
8
00_Contorno Poliamida
10
1854.816435
20
1269.687545
30
0.0
11
1856.466440
21
1269.837545
31
0.0
0
LINE
8
00_Contorno Poliamida
10
1869.816432
20
1269.687533
30
0.0
11
1871.466438
21
1269.837533
31
0.0
0
LINE
8
00_Contorno Poliamida
10
1884.816429
20
1269.687522
30
0.0
11
1886.466435
21
1269.837521
31
0.0
0
LINE
8
00_Contorno Poliamida
10
1854.816397
20
1254.687500
30
0.0
11
1856.466403
21
1254.837500
31
0.0
0
LINE
8
00_Contorno Poliamida
10
1886.466204
20
1269.837615
30
0.0
11
1888.116210
21
1269.687615
31
0.0
0
LINE
8
00_Contorno Poliamida
10
1871.466207
20
1269.837603
30
0.0
11
1873.116213
21
1269.687603
31
0.0
0
LINE
8
00_Contorno Poliamida
10
1856.466210
20
1269.837592
30
0.0
11
1858.116216
21
1269.687592
31
0.0
0
LINE
8
00_Contorno Poliamida
10
1856.466247
20
1254.837547
30
0.0
11
1858.116253
21
1254.687547
31
0.0
0
LINE
8
00_Contorno Poliamida
10
1888.116204
20
1269.687615
30
0.0
11
1889.766210
21
1269.537615
31
0.0
0
LINE
8
00_Contorno Poliamida
10
1873.116207
20
1269.687603
30
0.0
11
1874.766213
21
1269.537603
31
0.0
0
LINE
8
00_Contorno Poliamida
10
1858.116210
20
1269.687592
30
0.0
11
1859.766216
21
1269.537592
31
0.0
0
LINE
8
00_Contorno Poliamida
10
1858.116247
20
1254.687547
30
0.0
11
1859.766253
21
1254.537547
31
0.0
0
LINE
8
00_Contorno Poliamida
10
1889.766160
20
1269.537325
30
0.0
11
1891.866155
21
1269.237326
31
0.0
0
LINE
8
00_Contorno Poliamida
10
1874.766168
20
1269.537329
30
0.0
11
1876.866163
21
1269.237330
31
0.0
0
LINE
8
00_Contorno Poliamida
10
1859.766176
20
1269.537332
30
0.0
11
1861.866171
21
1269.237333
31
0.0
0
LINE
8
00_Contorno Poliamida
10
1859.766221
20
1254.537364
30
0.0
11
1861.866216
21
1254.237365
31
0.0
0
LINE
8
00_Contorno Poliamida
10
1861.866328
20
1269.237434
30
0.0
11
1864.116328
21
1269.237434
31
0.0
0
LINE
8
00_Contorno Poliamida
10
1876.866328
20
1269.237434
30
0.0
11
1879.116328
21
1269.237434
31
0.0
0
LINE
8
00_Contorno Poliamida
10
1891.866328
20
1269.237434
30
0.0
11
1894.116328
21
1269.237434
31
0.0
0
LINE
8
00_Contorno Poliamida
10
1847.799894
20
1254.237434
30
0.0
11
1849.116328
21
1254.237434
31
0.0
0
LINE
8
00_Contorno Poliamida
10
1861.866328
20
1254.237434
30
0.0
11
1864.116328
21
1254.237434
31
0.0
0
LINE
8
00_Contorno Poliamida
10
1891.266546
20
1260.237269
30
0.0
11
1892.301760
21
1260.007222
31
0.0
0
LINE
8
00_Contorno Poliamida
10
1876.266534
20
1260.237277
30
0.0
11
1877.616528
21
1259.937278
31
0.0
0
LINE
8
00_Contorno Poliamida
10
1861.266522
20
1260.237284
30
0.0
11
1862.616515
21
1259.937286
31
0.0
0
LINE
8
00_Contorno Poliamida
10
1877.616729
20
1259.937529
30
0.0
11
1879.116732
21
1259.787528
31
0.0
0
LINE
8
00_Contorno Poliamida
10
1862.616716
20
1259.937527
30
0.0
11
1864.116720
21
1259.787527
31
0.0
0
LINE
8
00_Contorno Poliamida
10
1847.799894
20
1259.919207
30
0.0
11
1849.116707
21
1259.787526
31
0.0
0
LINE
8
00_Contorno Poliamida
10
1861.266209
20
1260.237313
30
0.0
11
1862.316214
21
1260.387314
31
0.0
0
LINE
8
00_Contorno Poliamida
10
1876.266216
20
1260.237319
30
0.0
11
1877.316221
21
1260.387319
31
0.0
0
LINE
8
00_Contorno Poliamida
10
1891.266223
20
1260.237324
30
0.0
11
1892.301760
21
1260.385258
31
0.0
0
LINE
8
00_Contorno Poliamida
10
1847.799894
20
1260.468023
30
0.0
11
1849.116550
21
1260.687465
31
0.0
0
LINE
8
00_Contorno Poliamida
10
1862.316540
20
1260.387458
30
0.0
11
1864.116536
21
1260.687456
31
0.0
0
LINE
8
00_Contorno Poliamida
10
1877.316526
20
1260.387449
30
0.0
11
1879.116523
21
1260.687448
31
0.0
0
LINE
8
00_Contorno Poliamida
10
1849.116328
20
1260.687434
30
0.0
11
1850.916328
21
1260.687434
31
0.0
0
LINE
8
00_Contorno Poliamida
10
1864.116328
20
1260.687434
30
0.0
11
1865.916328
21
1260.687434
31
0.0
0
LINE
8
00_Contorno Poliamida
10
1879.116328
20
1260.687434
30
0.0
11
1880.916328
21
1260.687434
31
0.0
0
LINE
8
00_Contorno Poliamida
10
1880.916315
20
1260.687461
30
0.0
11
1881.816321
21
1260.537460
31
0.0
0
LINE
8
00_Contorno Poliamida
10
1865.916314
20
1260.687455
30
0.0
11
1866.816319
21
1260.537454
31
0.0
0
LINE
8
00_Contorno Poliamida
10
1850.916313
20
1260.687449
30
0.0
11
1851.816318
21
1260.537448
31
0.0
0
LINE
8
00_Contorno Poliamida
10
1881.816337
20
1260.537387
30
0.0
11
1881.066332
21
1260.237385
31
0.0
0
LINE
8
00_Contorno Poliamida
10
1866.816337
20
1260.537378
30
0.0
11
1866.066332
21
1260.237376
31
0.0
0
LINE
8
00_Contorno Poliamida
10
1851.816336
20
1260.537369
30
0.0
11
1851.066331
21
1260.237367
31
0.0
0
LINE
8
00_Contorno Poliamida
10
1881.066250
20
1260.237325
30
0.0
11
1879.116244
21
1259.787324
31
0.0
0
LINE
8
00_Contorno Poliamida
10
1866.066240
20
1260.237319
30
0.0
11
1864.116234
21
1259.787319
31
0.0
0
LINE
8
00_Contorno Poliamida
10
1851.066229
20
1260.237314
30
0.0
11
1849.116224
21
1259.787313
31
0.0
0
LINE
8
00_Contorno Poliamida
10
1877.916367
20
1260.237549
30
0.0
11
1879.116373
21
1260.087548
31
0.0
0
LINE
8
00_Contorno Poliamida
10
1862.916364
20
1260.237541
30
0.0
11
1864.116371
21
1260.087540
31
0.0
0
LINE
8
00_Contorno Poliamida
10
1847.916362
20
1260.237533
30
0.0
11
1849.116368
21
1260.087532
31
0.0
0
LINE
8
00_Contorno Poliamida
10
1847.916298
20
1260.237517
30
0.0
11
1849.116305
21
1260.387517
31
0.0
0
LINE
8
00_Contorno Poliamida
10
1862.916301
20
1260.237509
30
0.0
11
1864.116307
21
1260.387509
31
0.0
0
LINE
8
00_Contorno Poliamida
10
1877.916303
20
1260.237501
30
0.0
11
1879.116309
21
1260.387501
31
0.0
0
LINE
8
00_Contorno Poliamida
10
1849.116328
20
1260.387434
30
0.0
11
1850.316328
21
1260.387434
31
0.0
0
LINE
8
00_Contorno Poliamida
10
1864.116328
20
1260.387434
30
0.0
11
1865.316328
21
1260.387434
31
0.0
0
LINE
8
00_Contorno Poliamida
10
1879.116328
20
1260.387434
30
0.0
11
1880.316328
21
1260.387434
31
0.0
0
LINE
8
00_Contorno Poliamida
10
1880.316309
20
1260.387422
30
0.0
11
1879.116311
21
1260.087423
31
0.0
0
LINE
8
00_Contorno Poliamida
10
1865.316300
20
1260.387437
30
0.0
11
1864.116302
21
1260.087438
31
0.0
0
LINE
8
00_Contorno Poliamida
10
1850.316292
20
1260.387452
30
0.0
11
1849.116293
21
1260.087453
31
0.0
0
LINE
8
00_Contorno Poliamida
10
1882.416845
20
1260.837346
30
0.0
11
1884.966847
21
1260.687344
31
0.0
0
LINE
8
00_Contorno Poliamida
10
1867.416836
20
1260.837357
30
0.0
11
1869.966838
21
1260.687355
31
0.0
0
LINE
8
00_Contorno Poliamida
10
1852.416827
20
1260.837368
30
0.0
11
1854.966829
21
1260.687366
31
0.0
0
LINE
8
00_Contorno Poliamida
10
1884.966367
20
1260.687397
30
0.0
11
1888.716368
21
1260.537398
31
0.0
0
LINE
8
00_Contorno Poliamida
10
1869.966367
20
1260.687395
30
0.0
11
1873.716368
21
1260.537396
31
0.0
0
LINE
8
00_Contorno Poliamida
10
1854.966366
20
1260.687393
30
0.0
11
1858.716367
21
1260.537394
31
0.0
0
LINE
8
00_Contorno Poliamida
10
1858.715876
20
1260.537376
30
0.0
11
1861.415883
21
1260.687375
31
0.0
0
LINE
8
00_Contorno Poliamida
10
1873.715886
20
1260.537369
30
0.0
11
1876.415893
21
1260.687368
31
0.0
0
LINE
8
00_Contorno Poliamida
10
1888.715896
20
1260.537362
30
0.0
11
1891.415902
21
1260.687361
31
0.0
0
LINE
8
00_Contorno Poliamida
10
1847.799894
20
1260.918022
30
0.0
11
1849.116348
21
1261.137431
31
0.0
0
LINE
8
00_Contorno Poliamida
10
1861.416347
20
1260.687426
30
0.0
11
1864.116349
21
1261.137425
31
0.0
0
LINE
8
00_Contorno Poliamida
10
1876.416349
20
1260.687420
30
0.0
11
1879.116351
21
1261.137419
31
0.0
0
LINE
8
00_Contorno Poliamida
10
1891.416350
20
1260.687414
30
0.0
11
1892.301760
21
1260.834982
31
0.0
0
LINE
8
00_Contorno Poliamida
10
1849.116089
20
1259.337484
30
0.0
11
1850.766084
21
1259.637481
31
0.0
0
LINE
8
00_Contorno Poliamida
10
1864.116107
20
1259.337466
30
0.0
11
1865.766101
21
1259.637464
31
0.0
0
LINE
8
00_Contorno Poliamida
10
1879.116125
20
1259.337449
30
0.0
11
1880.766119
21
1259.637446
31
0.0
0
LINE
8
00_Contorno Poliamida
10
1850.766290
20
1259.637542
30
0.0
11
1852.866287
21
1260.237541
31
0.0
0
LINE
8
00_Contorno Poliamida
10
1865.766294
20
1259.637530
30
0.0
11
1867.866291
21
1260.237530
31
0.0
0
LINE
8
00_Contorno Poliamida
10
1880.766299
20
1259.637519
30
0.0
11
1882.866296
21
1260.237519
31
0.0
0
LINE
8
00_Contorno Poliamida
10
1852.866328
20
1260.237434
30
0.0
11
1854.816328
21
1260.237434
31
0.0
0
LINE
8
00_Contorno Poliamida
10
1867.866328
20
1260.237434
30
0.0
11
1869.816328
21
1260.237434
31
0.0
0
LINE
8
00_Contorno Poliamida
10
1882.866328
20
1260.237434
30
0.0
11
1884.816328
21
1260.237434
31
0.0
0
LINE
8
00_Contorno Poliamida
10
1884.816160
20
1260.237325
30
0.0
11
1886.916155
21
1259.937326
31
0.0
0
LINE
8
00_Contorno Poliamida
10
1869.816168
20
1260.237329
30
0.0
11
1871.916163
21
1259.937330
31
0.0
0
LINE
8
00_Contorno Poliamida
10
1854.816176
20
1260.237332
30
0.0
11
1856.916171
21
1259.937333
31
0.0
0
LINE
8
00_Contorno Poliamida
10
1856.916741
20
1259.937242
30
0.0
11
1859.316738
21
1260.087241
31
0.0
0
LINE
8
00_Contorno Poliamida
10
1871.916732
20
1259.937237
30
0.0
11
1874.316729
21
1260.087235
31
0.0
0
LINE
8
00_Contorno Poliamida
10
1886.916723
20
1259.937232
30
0.0
11
1889.316720
21
1260.087230
31
0.0
0
LINE
8
00_Contorno Poliamida
10
1889.316516
20
1260.087661
30
0.0
11
1891.266509
21
1259.787661
31
0.0
0
LINE
8
00_Contorno Poliamida
10
1874.316510
20
1260.087659
30
0.0
11
1876.266503
21
1259.787659
31
0.0
0
LINE
8
00_Contorno Poliamida
10
1859.316503
20
1260.087658
30
0.0
11
1861.266496
21
1259.787658
31
0.0
0
LINE
8
00_Contorno Poliamida
10
1891.266226
20
1259.787589
30
0.0
11
1892.301760
21
1259.528706
31
0.0
0
LINE
8
00_Contorno Poliamida
10
1876.266232
20
1259.787570
30
0.0
11
1878.066230
21
1259.337572
31
0.0
0
LINE
8
00_Contorno Poliamida
10
1861.266238
20
1259.787552
30
0.0
11
1863.066236
21
1259.337554
31
0.0
0
LINE
8
00_Contorno Poliamida
10
1847.799894
20
1259.404122
30
0.0
11
1848.066242
21
1259.337535
31
0.0
0
LINE
8
00_Contorno Poliamida
10
1848.066328
20
1259.337434
30
0.0
11
1849.116328
21
1259.337434
31
0.0
0
LINE
8
00_Contorno Poliamida
10
1863.066328
20
1259.337434
30
0.0
11
1864.116328
21
1259.337434
31
0.0
0
LINE
8
00_Contorno Poliamida
10
1878.066328
20
1259.337434
30
0.0
11
1879.116328
21
1259.337434
31
0.0
0
LINE
8
00_Contorno Poliamida
10
1852.416210
20
1260.837592
30
0.0
11
1849.116213
21
1261.137590
31
0.0
0
LINE
8
00_Contorno Poliamida
10
1867.416207
20
1260.837603
30
0.0
11
1864.116210
21
1261.137601
31
0.0
0
LINE
8
00_Contorno Poliamida
10
1882.416204
20
1260.837615
30
0.0
11
1879.116208
21
1261.137613
31
0.0
0
LINE
8
00_Contorno Poliamida
10
1879.116397
20
1261.737180
30
0.0
11
1882.716399
21
1261.437183
31
0.0
0
LINE
8
00_Contorno Poliamida
10
1864.116394
20
1261.737177
30
0.0
11
1867.716396
21
1261.437179
31
0.0
0
LINE
8
00_Contorno Poliamida
10
1849.116391
20
1261.737173
30
0.0
11
1852.716393
21
1261.437176
31
0.0
0
LINE
8
00_Contorno Poliamida
10
1849.116372
20
1246.737262
30
0.0
11
1850.962958
21
1246.583382
31
0.0
0
LINE
8
00_Contorno Poliamida
10
1852.716328
20
1261.437434
30
0.0
11
1856.166328
21
1261.437434
31
0.0
0
LINE
8
00_Contorno Poliamida
10
1867.716328
20
1261.437434
30
0.0
11
1871.166328
21
1261.437434
31
0.0
0
LINE
8
00_Contorno Poliamida
10
1882.716328
20
1261.437434
30
0.0
11
1886.166328
21
1261.437434
31
0.0
0
LINE
8
00_Contorno Poliamida
10
1856.166724
20
1261.437422
30
0.0
11
1860.366718
21
1261.737421
31
0.0
0
LINE
8
00_Contorno Poliamida
10
1871.166713
20
1261.437418
30
0.0
11
1875.366708
21
1261.737416
31
0.0
0
LINE
8
00_Contorno Poliamida
10
1886.166703
20
1261.437414
30
0.0
11
1890.366697
21
1261.737412
31
0.0
0
LINE
8
00_Contorno Poliamida
10
1847.799894
20
1261.737434
30
0.0
11
1849.116328
21
1261.737434
31
0.0
0
LINE
8
00_Contorno Poliamida
10
1860.366328
20
1261.737434
30
0.0
11
1864.116328
21
1261.737434
31
0.0
0
LINE
8
00_Contorno Poliamida
10
1875.366328
20
1261.737434
30
0.0
11
1879.116328
21
1261.737434
31
0.0
0
LINE
8
00_Contorno Poliamida
10
1890.366328
20
1261.737434
30
0.0
11
1892.301760
21
1261.737434
31
0.0
0
LINE
8
00_Contorno Poliamida
10
1848.266628
20
1246.737434
30
0.0
11
1849.116328
21
1246.737434
31
0.0
0
LINE
8
00_Contorno Poliamida
10
1849.116301
20
1258.587509
30
0.0
11
1852.716305
21
1259.037508
31
0.0
0
LINE
8
00_Contorno Poliamida
10
1864.116303
20
1258.587501
30
0.0
11
1867.716307
21
1259.037500
31
0.0
0
LINE
8
00_Contorno Poliamida
10
1879.116305
20
1258.587493
30
0.0
11
1882.716309
21
1259.037492
31
0.0
0
LINE
8
00_Contorno Poliamida
10
1852.716197
20
1259.037603
30
0.0
11
1855.416201
21
1259.337604
31
0.0
0
LINE
8
00_Contorno Poliamida
10
1867.716201
20
1259.037599
30
0.0
11
1870.416206
21
1259.337600
31
0.0
0
LINE
8
00_Contorno Poliamida
10
1882.716206
20
1259.037594
30
0.0
11
1885.416210
21
1259.337595
31
0.0
0
LINE
8
00_Contorno Poliamida
10
1885.416175
20
1259.337147
30
0.0
11
1888.866170
21
1259.187144
31
0.0
0
LINE
8
00_Contorno Poliamida
10
1870.416177
20
1259.337163
30
0.0
11
1873.866173
21
1259.187160
31
0.0
0
LINE
8
00_Contorno Poliamida
10
1855.416180
20
1259.337178
30
0.0
11
1858.866175
21
1259.187176
31
0.0
0
LINE
8
00_Contorno Poliamida
10
1888.866996
20
1259.188003
30
0.0
11
1892.301760
21
1258.795458
31
0.0
0
LINE
8
00_Contorno Poliamida
10
1873.866974
20
1259.187983
30
0.0
11
1879.116970
21
1258.587984
31
0.0
0
LINE
8
00_Contorno Poliamida
10
1858.866952
20
1259.187964
30
0.0
11
1864.116947
21
1258.587965
31
0.0
0
LINE
8
00_Contorno Poliamida
10
1847.799894
20
1258.738463
30
0.0
11
1849.116925
21
1258.587946
31
0.0
0
LINE
8
00_Contorno Poliamida
10
1850.230437
20
1268.396216
30
0.0
11
1851.966189
21
1268.487572
31
0.0
0
LINE
8
00_Contorno Poliamida
10
1864.116191
20
1268.337572
30
0.0
11
1866.966191
21
1268.487573
31
0.0
0
LINE
8
00_Contorno Poliamida
10
1879.116194
20
1268.337573
30
0.0
11
1881.966194
21
1268.487574
31
0.0
0
LINE
8
00_Contorno Poliamida
10
1894.116197
20
1268.337574
30
0.0
11
1894.901760
21
1268.378920
31
0.0
0
LINE
8
00_Contorno Poliamida
10
1849.116237
20
1253.337526
30
0.0
11
1851.966237
21
1253.487527
31
0.0
0
LINE
8
00_Contorno Poliamida
10
1864.116239
20
1253.337527
30
0.0
11
1866.966240
21
1253.487528
31
0.0
0
LINE
8
00_Contorno Poliamida
10
1881.966487
20
1268.487278
30
0.0
11
1885.116486
21
1268.037279
31
0.0
0
LINE
8
00_Contorno Poliamida
10
1866.966480
20
1268.487284
30
0.0
11
1870.116479
21
1268.037284
31
0.0
0
LINE
8
00_Contorno Poliamida
10
1851.966473
20
1268.487290
30
0.0
11
1855.116473
21
1268.037290
31
0.0
0
LINE
8
00_Contorno Poliamida
10
1866.966436
20
1253.487328
30
0.0
11
1868.449894
21
1253.275406
31
0.0
0
LINE
8
00_Contorno Poliamida
10
1851.966429
20
1253.487334
30
0.0
11
1855.116429
21
1253.037334
31
0.0
0
LINE
8
00_Contorno Poliamida
10
1885.116245
20
1268.038001
30
0.0
11
1888.716241
21
1267.888004
31
0.0
0
LINE
8
00_Contorno Poliamida
10
1870.116246
20
1268.037983
30
0.0
11
1873.716242
21
1267.887986
31
0.0
0
LINE
8
00_Contorno Poliamida
10
1855.116247
20
1268.037965
30
0.0
11
1858.716243
21
1267.887968
31
0.0
0
LINE
8
00_Contorno Poliamida
10
1855.116273
20
1253.037800
30
0.0
11
1858.716270
21
1252.887803
31
0.0
0
LINE
8
00_Contorno Poliamida
10
1858.716059
20
1267.887727
30
0.0
11
1861.116056
21
1268.337728
31
0.0
0
LINE
8
00_Contorno Poliamida
10
1873.716075
20
1267.887719
30
0.0
11
1876.116072
21
1268.337720
31
0.0
0
LINE
8
00_Contorno Poliamida
10
1888.716091
20
1267.887711
30
0.0
11
1891.116088
21
1268.337713
31
0.0
0
LINE
8
00_Contorno Poliamida
10
1858.716159
20
1252.887624
30
0.0
11
1861.116156
21
1253.337625
31
0.0
0
LINE
8
00_Contorno Poliamida
10
1861.116328
20
1268.337434
30
0.0
11
1864.116328
21
1268.337434
31
0.0
0
LINE
8
00_Contorno Poliamida
10
1876.116328
20
1268.337434
30
0.0
11
1879.116328
21
1268.337434
31
0.0
0
LINE
8
00_Contorno Poliamida
10
1891.116328
20
1268.337434
30
0.0
11
1894.116328
21
1268.337434
31
0.0
0
LINE
8
00_Contorno Poliamida
10
1847.799894
20
1253.337434
30
0.0
11
1849.116328
21
1253.337434
31
0.0
0
LINE
8
00_Contorno Poliamida
10
1861.116328
20
1253.337434
30
0.0
11
1864.116328
21
1253.337434
31
0.0
0
LINE
8
00_Contorno Poliamida
10
1879.909513
20
1270.093382
30
0.0
11
1881.816844
21
1269.987420
31
0.0
0
LINE
8
00_Contorno Poliamida
10
1864.909377
20
1270.093382
30
0.0
11
1866.816834
21
1269.987413
31
0.0
0
LINE
8
00_Contorno Poliamida
10
1849.116661
20
1255.137419
30
0.0
11
1851.816667
21
1254.987420
31
0.0
0
LINE
8
00_Contorno Poliamida
10
1866.816532
20
1269.987148
30
0.0
11
1867.825747
21
1270.093382
31
0.0
0
LINE
8
00_Contorno Poliamida
10
1881.816524
20
1269.987158
30
0.0
11
1882.825650
21
1270.093382
31
0.0
0
LINE
8
00_Contorno Poliamida
10
1851.816464
20
1254.987244
30
0.0
11
1854.666468
21
1255.287244
31
0.0
0
LINE
8
00_Contorno Poliamida
10
1854.666004
20
1255.287545
30
0.0
11
1857.215998
21
1255.587542
31
0.0
0
LINE
8
00_Contorno Poliamida
10
1857.216595
20
1255.587497
30
0.0
11
1860.216602
21
1255.287496
31
0.0
0
LINE
8
00_Contorno Poliamida
10
1891.121611
20
1270.093382
30
0.0
11
1892.316245
21
1269.837388
31
0.0
0
LINE
8
00_Contorno Poliamida
10
1876.121670
20
1270.093382
30
0.0
11
1877.316251
21
1269.837399
31
0.0
0
LINE
8
00_Contorno Poliamida
10
1861.121729
20
1270.093382
30
0.0
11
1862.316257
21
1269.837410
31
0.0
0
LINE
8
00_Contorno Poliamida
10
1860.216279
20
1255.287411
30
0.0
11
1861.949894
21
1254.915921
31
0.0
0
LINE
8
00_Contorno Poliamida
10
1862.316540
20
1269.837458
30
0.0
11
1863.852086
21
1270.093382
31
0.0
0
LINE
8
00_Contorno Poliamida
10
1877.316526
20
1269.837449
30
0.0
11
1878.852122
21
1270.093382
31
0.0
0
LINE
8
00_Contorno Poliamida
10
1892.316513
20
1269.837441
30
0.0
11
1893.852158
21
1270.093382
31
0.0
0
LINE
8
00_Contorno Poliamida
10
1847.799894
20
1254.918022
30
0.0
11
1849.116470
21
1255.137451
31
0.0
0
LINE
8
00_Contorno Poliamida
10
1849.199603
20
1267.292993
30
0.0
11
1851.366393
21
1267.437447
31
0.0
0
LINE
8
00_Contorno Poliamida
10
1864.116391
20
1267.287452
30
0.0
11
1866.366391
21
1267.437454
31
0.0
0
LINE
8
00_Contorno Poliamida
10
1879.116388
20
1267.287459
30
0.0
11
1881.366389
21
1267.437460
31
0.0
0
LINE
8
00_Contorno Poliamida
10
1849.116370
20
1252.287446
30
0.0
11
1851.366370
21
1252.437447
31
0.0
0
LINE
8
00_Contorno Poliamida
10
1864.116367
20
1252.287453
30
0.0
11
1866.366368
21
1252.437454
31
0.0
0
LINE
8
00_Contorno Poliamida
10
1881.366582
20
1267.437055
30
0.0
11
1884.666578
21
1266.687054
31
0.0
0
LINE
8
00_Contorno Poliamida
10
1866.366569
20
1267.437083
30
0.0
11
1869.666565
21
1266.687082
31
0.0
0
LINE
8
00_Contorno Poliamida
10
1851.366556
20
1267.437112
30
0.0
11
1854.666551
21
1266.687111
31
0.0
0
LINE
8
00_Contorno Poliamida
10
1866.366502
20
1252.437171
30
0.0
11
1868.449894
21
1251.963672
31
0.0
0
LINE
8
00_Contorno Poliamida
10
1851.366489
20
1252.437200
30
0.0
11
1854.666484
21
1251.687199
31
0.0
0
LINE
8
00_Contorno Poliamida
10
1854.666328
20
1266.687434
30
0.0
11
1858.416328
21
1266.687434
31
0.0
0
LINE
8
00_Contorno Poliamida
10
1869.666328
20
1266.687434
30
0.0
11
1873.416328
21
1266.687434
31
0.0
0
LINE
8
00_Contorno Poliamida
10
1884.666328
20
1266.687434
30
0.0
11
1888.416328
21
1266.687434
31
0.0
0
LINE
8
00_Contorno Poliamida
10
1854.666328
20
1251.687434
30
0.0
11
1858.416328
21
1251.687434
31
0.0
0
LINE
8
00_Contorno Poliamida
10
1858.416521
20
1266.687836
30
0.0
11
1861.566517
21
1266.987834
31
0.0
0
LINE
8
00_Contorno Poliamida
10
1873.416515
20
1266.687814
30
0.0
11
1876.566511
21
1266.987812
31
0.0
0
LINE
8
00_Contorno Poliamida
10
1888.416509
20
1266.687791
30
0.0
11
1891.566506
21
1266.987789
31
0.0
0
LINE
8
00_Contorno Poliamida
10
1858.416452
20
1251.687687
30
0.0
11
1861.566449
21
1251.987685
31
0.0
0
LINE
8
00_Contorno Poliamida
10
1861.565820
20
1266.987618
30
0.0
11
1864.115814
21
1267.287616
31
0.0
0
LINE
8
00_Contorno Poliamida
10
1876.565842
20
1266.987600
30
0.0
11
1879.115836
21
1267.287598
31
0.0
0
LINE
8
00_Contorno Poliamida
10
1891.565864
20
1266.987582
30
0.0
11
1892.301760
21
1267.074157
31
0.0
0
LINE
8
00_Contorno Poliamida
10
1847.799894
20
1252.132728
30
0.0
11
1849.115976
21
1252.287561
31
0.0
0
LINE
8
00_Contorno Poliamida
10
1861.566004
20
1251.987545
30
0.0
11
1864.115998
21
1252.287542
31
0.0
0
LINE
8
00_Contorno Poliamida
10
1849.116328
20
1256.187434
30
0.0
11
1851.666328
21
1256.187434
31
0.0
0
LINE
8
00_Contorno Poliamida
10
1851.666253
20
1256.187357
30
0.0
11
1855.866258
21
1256.787357
31
0.0
0
LINE
8
00_Contorno Poliamida
10
1855.866273
20
1256.787800
30
0.0
11
1859.466270
21
1256.637803
31
0.0
0
LINE
8
00_Contorno Poliamida
10
1859.466634
20
1256.637357
30
0.0
11
1861.949894
21
1256.397043
31
0.0
0
LINE
8
00_Contorno Poliamida
10
1847.799894
20
1256.314778
30
0.0
11
1849.116617
21
1256.187354
31
0.0
0
LINE
8
00_Contorno Poliamida
10
1849.116266
20
1257.537366
30
0.0
11
1852.866272
21
1257.987369
31
0.0
0
LINE
8
00_Contorno Poliamida
10
1866.666298
20
1257.843382
30
0.0
11
1867.866274
21
1257.987379
31
0.0
0
LINE
8
00_Contorno Poliamida
10
1881.666212
20
1257.843382
30
0.0
11
1882.866276
21
1257.987390
31
0.0
0
LINE
8
00_Contorno Poliamida
10
1852.866328
20
1257.987434
30
0.0
11
1857.066328
21
1257.987434
31
0.0
0
LINE
8
00_Contorno Poliamida
10
1867.866328
20
1257.987434
30
0.0
11
1872.066328
21
1257.987434
31
0.0
0
LINE
8
00_Contorno Poliamida
10
1882.866328
20
1257.987434
30
0.0
11
1887.066328
21
1257.987434
31
0.0
0
LINE
8
00_Contorno Poliamida
10
1887.065432
20
1257.986629
30
0.0
11
1889.309656
21
1257.843382
31
0.0
0
LINE
8
00_Contorno Poliamida
10
1872.065450
20
1257.986639
30
0.0
11
1874.309834
21
1257.843382
31
0.0
0
LINE
8
00_Contorno Poliamida
10
1857.065467
20
1257.986650
30
0.0
11
1861.949894
21
1257.674879
31
0.0
0
LINE
8
00_Contorno Poliamida
10
1847.799894
20
1257.620636
30
0.0
11
1849.115477
21
1257.536663
31
0.0
0
LINE
8
00_Contorno Poliamida
10
1849.116328
20
1262.787434
30
0.0
11
1852.716328
21
1262.787434
31
0.0
0
LINE
8
00_Contorno Poliamida
10
1864.116328
20
1262.787434
30
0.0
11
1867.716328
21
1262.787434
31
0.0
0
LINE
8
00_Contorno Poliamida
10
1879.116328
20
1262.787434
30
0.0
11
1882.716328
21
1262.787434
31
0.0
0
LINE
8
00_Contorno Poliamida
10
1849.116328
20
1247.787434
30
0.0
11
1851.768471
21
1247.787434
31
0.0
0
LINE
8
00_Contorno Poliamida
10
1852.716277
20
1262.787159
30
0.0
11
1856.316279
21
1263.087157
31
0.0
0
LINE
8
00_Contorno Poliamida
10
1867.716280
20
1262.787156
30
0.0
11
1871.316282
21
1263.087154
31
0.0
0
LINE
8
00_Contorno Poliamida
10
1882.716283
20
1262.787153
30
0.0
11
1885.303626
21
1263.002763
31
0.0
0
LINE
8
00_Contorno Poliamida
10
1871.316134
20
1263.087024
30
0.0
11
1875.966130
21
1262.937025
31
0.0
0
LINE
8
00_Contorno Poliamida
10
1856.316136
20
1263.087026
30
0.0
11
1860.966132
21
1262.937027
31
0.0
0
LINE
8
00_Contorno Poliamida
10
1875.966178
20
1262.937301
30
0.0
11
1879.116178
21
1262.787302
31
0.0
0
LINE
8
00_Contorno Poliamida
10
1860.966180
20
1262.937300
30
0.0
11
1864.116181
21
1262.787301
31
0.0
0
LINE
8
00_Contorno Poliamida
10
1847.799894
20
1262.849980
30
0.0
11
1849.116183
21
1262.787300
31
0.0
0
LINE
8
00_Contorno Poliamida
10
1847.799894
20
1247.850028
30
0.0
11
1849.116231
21
1247.787345
31
0.0
0
LINE
8
00_Contorno Poliamida
10
1879.116204
20
1265.187615
30
0.0
11
1882.416201
21
1264.887617
31
0.0
0
LINE
8
00_Contorno Poliamida
10
1864.116207
20
1265.187603
30
0.0
11
1867.416204
21
1264.887605
31
0.0
0
LINE
8
00_Contorno Poliamida
10
1849.116210
20
1265.187592
30
0.0
11
1852.416207
21
1264.887593
31
0.0
0
LINE
8
00_Contorno Poliamida
10
1864.116245
20
1250.187558
30
0.0
11
1864.602192
21
1250.143382
31
0.0
0
LINE
8
00_Contorno Poliamida
10
1849.116247
20
1250.187547
30
0.0
11
1851.786145
21
1249.944830
31
0.0
0
LINE
8
00_Contorno Poliamida
10
1852.416328
20
1264.887434
30
0.0
11
1857.216328
21
1264.887434
31
0.0
0
LINE
8
00_Contorno Poliamida
10
1867.416328
20
1264.887434
30
0.0
11
1872.216328
21
1264.887434
31
0.0
0
LINE
8
00_Contorno Poliamida
10
1882.416328
20
1264.887434
30
0.0
11
1885.303626
21
1264.887434
31
0.0
0
LINE
8
00_Contorno Poliamida
10
1857.216158
20
1264.887679
30
0.0
11
1861.716164
21
1265.037683
31
0.0
0
LINE
8
00_Contorno Poliamida
10
1872.216160
20
1264.887689
30
0.0
11
1876.716165
21
1265.037692
31
0.0
0
LINE
8
00_Contorno Poliamida
10
1848.100820
20
1265.123751
30
0.0
11
1849.116747
21
1265.187246
31
0.0
0
LINE
8
00_Contorno Poliamida
10
1861.716741
20
1265.037242
30
0.0
11
1864.116738
21
1265.187241
31
0.0
0
LINE
8
00_Contorno Poliamida
10
1876.716732
20
1265.037237
30
0.0
11
1879.116729
21
1265.187235
31
0.0
0
LINE
8
00_Contorno Poliamida
10
1847.799894
20
1250.105013
30
0.0
11
1849.116603
21
1250.187306
31
0.0
0
LINE
8
00_Contorno Poliamida
10
1863.413877
20
1250.143382
30
0.0
11
1864.116595
21
1250.187301
31
0.0
0
LINE
8
0
10
1892.301760
20
1257.843382
30
0.0
11
1892.301760
21
1262.047488
31
0.0
0
LINE
8
0
10
1892.301760
20
1262.047488
30
0.0
11
1885.303626
21
1262.047488
31
0.0
0
LINE
8
0
10
1885.303626
20
1262.047488
30
0.0
11
1885.303626
21
1266.047488
31
0.0
0
LINE
8
0
10
1885.303626
20
1266.047488
30
0.0
11
1892.301760
21
1266.047488
31
0.0
0
LINE
8
0
10
1892.301760
20
1266.047488
30
0.0
11
1892.301760
21
1268.093382
31
0.0
0
LINE
8
0
10
1892.301760
20
1268.093382
30
0.0
11
1894.901760
21
1268.093382
31
0.0
0
LINE
8
0
10
1894.901760
20
1268.093382
30
0.0
11
1894.901760
21
1270.093382
31
0.0
0
LINE
8
0
10
1894.901760
20
1270.093382
30
0.0
11
1854.799894
21
1270.093382
31
0.0
0
ARC
8
0
10
1854.799894
20
1263.093382
30
0.0
40
7.000000
50
90.000000
51
180.000000
0
LINE
8
0
10
1847.799894
20
1263.093382
30
0.0
11
1847.799894
21
1247.583382
31
0.0
0
ARC
8
0
10
1848.799894
20
1247.583382
30
0.0
40
1.000000
50
180.000000
51
270.000000
0
LINE
8
0
10
1848.799894
20
1246.583382
30
0.0
11
1851.468471
21
1246.583382
31
0.0
0
ARC
8
0
10
1851.468471
20
1246.883382
30
0.0
40
0.300000
50
270.000000
51
0.000000
0
LINE
8
0
10
1851.768471
20
1246.883382
30
0.0
11
1851.768471
21
1249.843382
31
0.0
0
ARC
8
0
10
1852.068471
20
1249.843382
30
0.0
40
0.300000
50
90.000000
51
180.000000
0
LINE
8
0
10
1852.068471
20
1250.143382
30
0.0
11
1868.449894
21
1250.143382
31
0.0
0
LINE
8
0
10
1868.449894
20
1250.143382
30
0.0
11
1868.449894
21
1254.343382
31
0.0
0
LINE
8
0
10
1868.449894
20
1254.343382
30
0.0
11
1861.949894
21
1254.343382
31
0.0
0
LINE
8
0
10
1861.949894
20
1254.343382
30
0.0
11
1861.949894
21
1257.843382
31
0.0
0
LINE
8
0
10
1861.949894
20
1257.843382
30
0.0
11
1892.301760
21
1257.843382
31
0.0
0
ATTDEF
8
0
10
0.000000
20
0.000000
30
0.0
40
3.5
1

3

2
PANE_WIDTH:0
70
0
0
ATTDEF
8
0
10
0.000000
20
0.000000
30
0.0
40
3.5
1

3

2
MIN_VETRO:0
70
0
0
ATTDEF
8
0
10
0.000000
20
0.000000
30
0.0
40
3.5
1

3

2
MAX_VETRO:0
70
0
0
ATTDEF
8
0
10
0.000000
20
0.000000
30
0.0
40
3.5
1

3

2
JX:0
70
0
0
ATTDEF
8
0
10
0.000000
20
0.000000
30
0.0
40
3.5
1

3

2
WX:0
70
0
0
ATTDEF
8
0
10
0.000000
20
0.000000
30
0.0
40
3.5
1

3

2
JY:0
70
0
0
ATTDEF
8
0
10
0.000000
20
0.000000
30
0.0
40
3.5
1

3

2
WY:0
70
0
0
ATTDEF
8
0
10
0.000000
20
0.000000
30
0.0
40
3.5
1

3

2
DESC:Junquillo hoja madera p/grapa 8813
70
0
0
ATTDEF
8
0
10
0.000000
20
0.000000
30
0.0
40
3.5
1

3

2
DENS:0
70
0
0
ATTDEF
8
0
10
0.000000
20
0.000000
30
0.0
40
3.5
1

3

2
TDEV:0
70
0
0
ATTDEF
8
0
10
0.000000
20
0.000000
30
0.0
40
3.5
1

3

2
TDEV2:0
70
0
0
ATTDEF
8
0
10
0.000000
20
0.000000
30
0.0
40
3.5
1

3

2
TDEV3:0
70
0
0
ATTDEF
8
0
10
0.000000
20
0.000000
30
0.0
40
3.5
1

3

2
TDEV4:0
70
0
0
ATTDEF
8
0
10
0.000000
20
0.000000
30
0.0
40
3.5
1

3

2
TDEV5:0
70
0
0
ATTDEF
8
0
10
0.000000
20
0.000000
30
0.0
40
3.5
1

3

2
PANE_WIDTH:0
70
0
0
ATTDEF
8
0
10
0.000000
20
0.000000
30
0.0
40
3.5
1

3

2
MIN_VETRO:0
70
0
0
ATTDEF
8
0
10
0.000000
20
0.000000
30
0.0
40
3.5
1

3

2
MAX_VETRO:0
70
0
0
ATTDEF
8
0
10
0.000000
20
0.000000
30
0.0
40
3.5
1

3

2
JX:0
70
0
0
ATTDEF
8
0
10
0.000000
20
0.000000
30
0.0
40
3.5
1

3

2
WX:0
70
0
0
ATTDEF
8
0
10
0.000000
20
0.000000
30
0.0
40
3.5
1

3

2
JY:0
70
0
0
ATTDEF
8
0
10
0.000000
20
0.000000
30
0.0
40
3.5
1

3

2
WY:0
70
0
0
ENDSEC
0
EOF
