0
SECTION
2
ENTITIES
0
LINE
8
00_Contorno Poliamida
10
1931.446327
20
1175.793194
30
0.0
11
1931.858396
21
1175.718273
31
0.0
0
LINE
8
00_Contorno Poliamida
10
1916.446309
20
1175.793177
30
0.0
11
1918.096304
21
1175.493179
31
0.0
0
LINE
8
00_Contorno Poliamida
10
1901.446292
20
1175.793159
30
0.0
11
1903.096286
21
1175.493162
31
0.0
0
LINE
8
00_Contorno Poliamida
10
1916.446218
20
1160.793149
30
0.0
11
1918.096213
21
1160.493151
31
0.0
0
LINE
8
00_Contorno Poliamida
10
1901.446201
20
1160.793131
30
0.0
11
1903.096195
21
1160.493133
31
0.0
0
LINE
8
00_Contorno Poliamida
10
1903.095811
20
1175.492805
30
0.0
11
1904.745811
21
1175.492805
31
0.0
0
LINE
8
00_Contorno Poliamida
10
1918.095811
20
1175.492805
30
0.0
11
1919.745811
21
1175.492805
31
0.0
0
LINE
8
00_Contorno Poliamida
10
1903.095811
20
1160.492805
30
0.0
11
1904.745811
21
1160.492805
31
0.0
0
LINE
8
00_Contorno Poliamida
10
1918.095811
20
1160.492805
30
0.0
11
1919.246781
21
1160.492805
31
0.0
0
LINE
8
00_Contorno Poliamida
10
1904.745783
20
1175.492529
30
0.0
11
1906.095779
21
1175.942526
31
0.0
0
LINE
8
00_Contorno Poliamida
10
1919.745780
20
1175.492511
30
0.0
11
1921.095775
21
1175.942509
31
0.0
0
LINE
8
00_Contorno Poliamida
10
1904.745770
20
1160.492518
30
0.0
11
1906.095766
21
1160.942515
31
0.0
0
LINE
8
00_Contorno Poliamida
10
1906.095861
20
1160.942971
30
0.0
11
1904.895854
21
1161.092971
31
0.0
0
LINE
8
00_Contorno Poliamida
10
1906.095871
20
1175.943001
30
0.0
11
1904.895865
21
1176.093002
31
0.0
0
LINE
8
00_Contorno Poliamida
10
1921.095874
20
1175.943009
30
0.0
11
1919.895867
21
1176.093010
31
0.0
0
LINE
8
00_Contorno Poliamida
10
1904.895727
20
1161.093047
30
0.0
11
1903.245721
21
1161.243047
31
0.0
0
LINE
8
00_Contorno Poliamida
10
1919.246781
20
1161.152054
30
0.0
11
1918.245718
21
1161.243059
31
0.0
0
LINE
8
00_Contorno Poliamida
10
1904.895689
20
1176.093092
30
0.0
11
1903.245683
21
1176.243092
31
0.0
0
LINE
8
00_Contorno Poliamida
10
1919.895686
20
1176.093104
30
0.0
11
1918.245680
21
1176.243104
31
0.0
0
LINE
8
00_Contorno Poliamida
10
1934.396781
20
1176.138470
30
0.0
11
1933.245678
21
1176.243115
31
0.0
0
LINE
8
00_Contorno Poliamida
10
1918.245730
20
1161.242496
30
0.0
11
1916.445732
21
1160.792498
31
0.0
0
LINE
8
00_Contorno Poliamida
10
1903.245736
20
1161.242514
30
0.0
11
1901.445738
21
1160.792516
31
0.0
0
LINE
8
00_Contorno Poliamida
10
1933.245750
20
1176.242504
30
0.0
11
1931.445752
21
1175.792506
31
0.0
0
LINE
8
00_Contorno Poliamida
10
1918.245756
20
1176.242523
30
0.0
11
1916.445758
21
1175.792525
31
0.0
0
LINE
8
00_Contorno Poliamida
10
1903.245762
20
1176.242541
30
0.0
11
1901.445764
21
1175.792543
31
0.0
0
LINE
8
00_Contorno Poliamida
10
1902.645842
20
1175.792708
30
0.0
11
1903.545847
21
1175.942709
31
0.0
0
LINE
8
00_Contorno Poliamida
10
1917.645843
20
1175.792702
30
0.0
11
1918.545849
21
1175.942703
31
0.0
0
LINE
8
00_Contorno Poliamida
10
1932.645844
20
1175.792697
30
0.0
11
1933.545850
21
1175.942697
31
0.0
0
LINE
8
00_Contorno Poliamida
10
1902.645836
20
1160.792707
30
0.0
11
1903.545842
21
1160.942708
31
0.0
0
LINE
8
00_Contorno Poliamida
10
1917.645837
20
1160.792701
30
0.0
11
1918.545843
21
1160.942702
31
0.0
0
LINE
8
00_Contorno Poliamida
10
1933.545994
20
1175.943008
30
0.0
11
1934.396781
21
1175.848476
31
0.0
0
LINE
8
00_Contorno Poliamida
10
1918.545990
20
1175.943004
30
0.0
11
1919.895992
21
1175.793003
31
0.0
0
LINE
8
00_Contorno Poliamida
10
1903.545985
20
1175.942999
30
0.0
11
1904.895987
21
1175.792999
31
0.0
0
LINE
8
00_Contorno Poliamida
10
1918.545943
20
1160.942944
30
0.0
11
1919.246781
21
1160.865073
31
0.0
0
LINE
8
00_Contorno Poliamida
10
1903.545938
20
1160.942940
30
0.0
11
1904.895940
21
1160.792940
31
0.0
0
LINE
8
00_Contorno Poliamida
10
1919.246781
20
1160.727900
30
0.0
11
1918.395911
21
1160.642813
31
0.0
0
LINE
8
00_Contorno Poliamida
10
1904.895902
20
1160.792815
30
0.0
11
1903.395898
21
1160.642814
31
0.0
0
LINE
8
00_Contorno Poliamida
10
1934.396781
20
1175.742940
30
0.0
11
1934.150110
21
1175.718273
31
0.0
0
LINE
8
00_Contorno Poliamida
10
1919.895793
20
1175.792844
30
0.0
11
1918.395790
21
1175.642844
31
0.0
0
LINE
8
00_Contorno Poliamida
10
1904.895781
20
1175.792845
30
0.0
11
1903.395777
21
1175.642845
31
0.0
0
LINE
8
00_Contorno Poliamida
10
1903.395582
20
1160.642948
30
0.0
11
1902.645585
21
1160.792947
31
0.0
0
LINE
8
00_Contorno Poliamida
10
1918.395572
20
1160.642956
30
0.0
11
1917.645575
21
1160.792955
31
0.0
0
LINE
8
00_Contorno Poliamida
10
1903.395530
20
1175.642946
30
0.0
11
1902.645532
21
1175.792945
31
0.0
0
LINE
8
00_Contorno Poliamida
10
1918.395519
20
1175.642955
30
0.0
11
1917.645522
21
1175.792954
31
0.0
0
LINE
8
00_Contorno Poliamida
10
1933.018958
20
1175.718273
30
0.0
11
1932.645512
21
1175.792962
31
0.0
0
LINE
8
00_Contorno Poliamida
10
1915.095686
20
1175.643104
30
0.0
11
1916.745692
21
1175.493104
31
0.0
0
LINE
8
00_Contorno Poliamida
10
1900.095689
20
1175.643092
30
0.0
11
1901.745695
21
1175.493092
31
0.0
0
LINE
8
00_Contorno Poliamida
10
1915.095724
20
1160.643059
30
0.0
11
1916.745730
21
1160.493059
31
0.0
0
LINE
8
00_Contorno Poliamida
10
1900.095727
20
1160.643047
30
0.0
11
1901.745732
21
1160.493048
31
0.0
0
LINE
8
00_Contorno Poliamida
10
1916.745519
20
1175.492955
30
0.0
11
1918.245514
21
1175.192957
31
0.0
0
LINE
8
00_Contorno Poliamida
10
1901.745530
20
1175.492946
30
0.0
11
1903.245524
21
1175.192948
31
0.0
0
LINE
8
00_Contorno Poliamida
10
1916.745572
20
1160.492956
30
0.0
11
1918.245566
21
1160.192958
31
0.0
0
LINE
8
00_Contorno Poliamida
10
1901.745582
20
1160.492948
30
0.0
11
1903.245577
21
1160.192950
31
0.0
0
LINE
8
00_Contorno Poliamida
10
1903.245811
20
1175.192805
30
0.0
11
1905.045811
21
1175.192805
31
0.0
0
LINE
8
00_Contorno Poliamida
10
1918.245811
20
1175.192805
30
0.0
11
1920.045811
21
1175.192805
31
0.0
0
LINE
8
00_Contorno Poliamida
10
1903.245811
20
1160.192805
30
0.0
11
1905.045811
21
1160.192805
31
0.0
0
LINE
8
00_Contorno Poliamida
10
1918.245811
20
1160.192805
30
0.0
11
1919.246781
21
1160.192805
31
0.0
0
LINE
8
00_Contorno Poliamida
10
1905.045780
20
1175.192666
30
0.0
11
1906.245780
21
1175.642665
31
0.0
0
LINE
8
00_Contorno Poliamida
10
1920.045776
20
1175.192659
30
0.0
11
1921.245775
21
1175.642658
31
0.0
0
LINE
8
00_Contorno Poliamida
10
1905.045755
20
1160.192679
30
0.0
11
1906.245754
21
1160.642678
31
0.0
0
LINE
8
00_Contorno Poliamida
10
1906.245817
20
1175.642916
30
0.0
11
1908.495817
21
1175.792917
31
0.0
0
LINE
8
00_Contorno Poliamida
10
1921.245815
20
1175.642923
30
0.0
11
1923.495815
21
1175.792924
31
0.0
0
LINE
8
00_Contorno Poliamida
10
1906.245794
20
1160.642916
30
0.0
11
1908.495794
21
1160.792917
31
0.0
0
LINE
8
00_Contorno Poliamida
10
1923.495686
20
1175.793104
30
0.0
11
1925.145692
21
1175.643104
31
0.0
0
LINE
8
00_Contorno Poliamida
10
1908.495689
20
1175.793092
30
0.0
11
1910.145695
21
1175.643092
31
0.0
0
LINE
8
00_Contorno Poliamida
10
1908.495727
20
1160.793047
30
0.0
11
1910.145732
21
1160.643048
31
0.0
0
LINE
8
00_Contorno Poliamida
10
1910.145811
20
1175.642805
30
0.0
11
1911.795811
21
1175.642805
31
0.0
0
LINE
8
00_Contorno Poliamida
10
1925.145811
20
1175.642805
30
0.0
11
1926.795811
21
1175.642805
31
0.0
0
LINE
8
00_Contorno Poliamida
10
1910.145811
20
1160.642805
30
0.0
11
1911.795811
21
1160.642805
31
0.0
0
LINE
8
00_Contorno Poliamida
10
1911.795836
20
1175.642685
30
0.0
11
1913.445842
21
1175.792684
31
0.0
0
LINE
8
00_Contorno Poliamida
10
1926.795833
20
1175.642673
30
0.0
11
1927.398646
21
1175.697474
31
0.0
0
LINE
8
00_Contorno Poliamida
10
1927.627440
20
1175.718273
30
0.0
11
1928.445839
21
1175.792673
31
0.0
0
LINE
8
00_Contorno Poliamida
10
1911.795799
20
1160.642640
30
0.0
11
1913.445805
21
1160.792640
31
0.0
0
LINE
8
00_Contorno Poliamida
10
1928.445684
20
1175.793115
30
0.0
11
1929.268953
21
1175.718273
31
0.0
0
LINE
8
00_Contorno Poliamida
10
1913.445686
20
1175.793104
30
0.0
11
1915.095692
21
1175.643104
31
0.0
0
LINE
8
00_Contorno Poliamida
10
1899.251392
20
1175.719847
30
0.0
11
1900.095695
21
1175.643092
31
0.0
0
LINE
8
00_Contorno Poliamida
10
1913.445724
20
1160.793059
30
0.0
11
1915.095730
21
1160.643059
31
0.0
0
LINE
8
00_Contorno Poliamida
10
1898.596781
20
1160.779315
30
0.0
11
1900.095732
21
1160.643048
31
0.0
0
LINE
8
00_Contorno Poliamida
10
1911.795811
20
1175.942805
30
0.0
11
1912.695811
21
1175.942805
31
0.0
0
LINE
8
00_Contorno Poliamida
10
1926.795811
20
1175.942805
30
0.0
11
1927.695811
21
1175.942805
31
0.0
0
LINE
8
00_Contorno Poliamida
10
1911.795811
20
1160.942805
30
0.0
11
1912.695811
21
1160.942805
31
0.0
0
LINE
8
00_Contorno Poliamida
10
1912.695836
20
1175.942685
30
0.0
11
1914.345842
21
1176.092684
31
0.0
0
LINE
8
00_Contorno Poliamida
10
1927.695833
20
1175.942673
30
0.0
11
1929.345839
21
1176.092673
31
0.0
0
LINE
8
00_Contorno Poliamida
10
1898.596781
20
1161.024558
30
0.0
11
1899.345807
21
1161.092651
31
0.0
0
LINE
8
00_Contorno Poliamida
10
1912.695799
20
1160.942640
30
0.0
11
1914.345805
21
1161.092640
31
0.0
0
LINE
8
00_Contorno Poliamida
10
1899.438845
20
1176.092805
30
0.0
11
1900.845811
21
1176.092805
31
0.0
0
LINE
8
00_Contorno Poliamida
10
1914.345811
20
1176.092805
30
0.0
11
1915.845811
21
1176.092805
31
0.0
0
LINE
8
00_Contorno Poliamida
10
1929.345811
20
1176.092805
30
0.0
11
1930.845811
21
1176.092805
31
0.0
0
LINE
8
00_Contorno Poliamida
10
1899.345811
20
1161.092805
30
0.0
11
1900.845811
21
1161.092805
31
0.0
0
LINE
8
00_Contorno Poliamida
10
1914.345811
20
1161.092805
30
0.0
11
1915.845811
21
1161.092805
31
0.0
0
LINE
8
00_Contorno Poliamida
10
1900.845927
20
1176.092563
30
0.0
11
1902.495922
21
1176.392561
31
0.0
0
LINE
8
00_Contorno Poliamida
10
1915.845945
20
1176.092546
30
0.0
11
1917.495939
21
1176.392543
31
0.0
0
LINE
8
00_Contorno Poliamida
10
1930.845963
20
1176.092528
30
0.0
11
1932.495957
21
1176.392526
31
0.0
0
LINE
8
00_Contorno Poliamida
10
1900.846018
20
1161.092535
30
0.0
11
1902.496013
21
1161.392533
31
0.0
0
LINE
8
00_Contorno Poliamida
10
1915.846036
20
1161.092517
30
0.0
11
1917.496030
21
1161.392515
31
0.0
0
LINE
8
00_Contorno Poliamida
10
1902.495839
20
1176.392696
30
0.0
11
1904.145845
21
1176.542696
31
0.0
0
LINE
8
00_Contorno Poliamida
10
1917.495836
20
1176.392685
30
0.0
11
1919.145842
21
1176.542684
31
0.0
0
LINE
8
00_Contorno Poliamida
10
1932.495833
20
1176.392673
30
0.0
11
1934.145839
21
1176.542673
31
0.0
0
LINE
8
00_Contorno Poliamida
10
1902.495801
20
1161.392652
30
0.0
11
1904.145807
21
1161.542651
31
0.0
0
LINE
8
00_Contorno Poliamida
10
1917.495799
20
1161.392640
30
0.0
11
1919.145805
21
1161.542640
31
0.0
0
LINE
8
00_Contorno Poliamida
10
1934.145684
20
1176.543115
30
0.0
11
1934.396781
21
1176.520289
31
0.0
0
LINE
8
00_Contorno Poliamida
10
1919.145686
20
1176.543104
30
0.0
11
1920.795692
21
1176.393104
31
0.0
0
LINE
8
00_Contorno Poliamida
10
1904.145689
20
1176.543092
30
0.0
11
1905.795695
21
1176.393092
31
0.0
0
LINE
8
00_Contorno Poliamida
10
1919.145724
20
1161.543059
30
0.0
11
1919.246781
21
1161.533872
31
0.0
0
LINE
8
00_Contorno Poliamida
10
1904.145727
20
1161.543047
30
0.0
11
1905.795732
21
1161.393048
31
0.0
0
LINE
8
00_Contorno Poliamida
10
1920.795686
20
1176.393104
30
0.0
11
1922.445692
21
1176.243104
31
0.0
0
LINE
8
00_Contorno Poliamida
10
1905.795689
20
1176.393092
30
0.0
11
1907.445695
21
1176.243092
31
0.0
0
LINE
8
00_Contorno Poliamida
10
1905.795727
20
1161.393047
30
0.0
11
1907.445732
21
1161.243048
31
0.0
0
LINE
8
00_Contorno Poliamida
10
1922.445575
20
1176.242677
30
0.0
11
1924.545569
21
1175.942677
31
0.0
0
LINE
8
00_Contorno Poliamida
10
1907.445583
20
1176.242680
30
0.0
11
1909.545577
21
1175.942681
31
0.0
0
LINE
8
00_Contorno Poliamida
10
1907.445628
20
1161.242712
30
0.0
11
1909.545623
21
1160.942712
31
0.0
0
LINE
8
00_Contorno Poliamida
10
1909.545811
20
1175.942805
30
0.0
11
1911.795811
21
1175.942805
31
0.0
0
LINE
8
00_Contorno Poliamida
10
1924.545811
20
1175.942805
30
0.0
11
1926.795811
21
1175.942805
31
0.0
0
LINE
8
00_Contorno Poliamida
10
1909.545811
20
1160.942805
30
0.0
11
1911.795811
21
1160.942805
31
0.0
0
LINE
8
00_Contorno Poliamida
10
1908.946132
20
1166.942584
30
0.0
11
1910.296126
21
1166.642585
31
0.0
0
LINE
8
00_Contorno Poliamida
10
1910.296266
20
1166.642886
30
0.0
11
1911.796269
21
1166.492885
31
0.0
0
LINE
8
00_Contorno Poliamida
10
1908.945838
20
1166.942814
30
0.0
11
1909.995842
21
1167.092815
31
0.0
0
LINE
8
00_Contorno Poliamida
10
1909.995738
20
1167.092691
30
0.0
11
1911.795735
21
1167.392690
31
0.0
0
LINE
8
00_Contorno Poliamida
10
1911.795811
20
1167.392805
30
0.0
11
1913.146781
21
1167.392805
31
0.0
0
LINE
8
00_Contorno Poliamida
10
1898.596781
20
1167.392745
30
0.0
11
1899.495824
21
1167.242905
31
0.0
0
LINE
8
00_Contorno Poliamida
10
1899.495825
20
1167.242897
30
0.0
11
1898.745820
21
1166.942895
31
0.0
0
LINE
8
00_Contorno Poliamida
10
1913.146781
20
1166.804559
30
0.0
11
1911.795907
21
1166.492819
31
0.0
0
LINE
8
00_Contorno Poliamida
10
1898.745902
20
1166.942814
30
0.0
11
1898.596781
21
1166.908401
31
0.0
0
LINE
8
00_Contorno Poliamida
10
1910.595871
20
1166.943001
30
0.0
11
1911.795878
21
1166.793001
31
0.0
0
LINE
8
00_Contorno Poliamida
10
1910.595829
20
1166.942729
30
0.0
11
1911.795835
21
1167.092730
31
0.0
0
LINE
8
00_Contorno Poliamida
10
1911.795811
20
1167.092805
30
0.0
11
1912.995811
21
1167.092805
31
0.0
0
LINE
8
00_Contorno Poliamida
10
1912.995931
20
1167.092566
30
0.0
11
1911.795932
21
1166.792567
31
0.0
0
LINE
8
00_Contorno Poliamida
10
1930.096309
20
1167.542563
30
0.0
11
1930.579049
21
1167.514167
31
0.0
0
LINE
8
00_Contorno Poliamida
10
1915.096299
20
1167.542575
30
0.0
11
1915.579230
21
1167.514167
31
0.0
0
LINE
8
00_Contorno Poliamida
10
1900.096290
20
1167.542586
30
0.0
11
1902.646292
21
1167.392584
31
0.0
0
LINE
8
00_Contorno Poliamida
10
1902.645845
20
1167.392809
30
0.0
11
1906.395847
21
1167.242810
31
0.0
0
LINE
8
00_Contorno Poliamida
10
1906.395661
20
1167.242656
30
0.0
11
1909.095668
21
1167.392655
31
0.0
0
LINE
8
00_Contorno Poliamida
10
1909.095842
20
1167.392708
30
0.0
11
1911.795844
21
1167.842707
31
0.0
0
LINE
8
00_Contorno Poliamida
10
1924.824630
20
1167.514167
30
0.0
11
1926.795845
21
1167.842702
31
0.0
0
LINE
8
00_Contorno Poliamida
10
1911.795945
20
1166.042546
30
0.0
11
1913.146781
21
1166.288151
31
0.0
0
LINE
8
00_Contorno Poliamida
10
1898.596781
20
1166.385822
30
0.0
11
1900.545851
21
1166.942699
31
0.0
0
LINE
8
00_Contorno Poliamida
10
1900.545811
20
1166.942805
30
0.0
11
1902.495811
21
1166.942805
31
0.0
0
LINE
8
00_Contorno Poliamida
10
1902.495583
20
1166.942680
30
0.0
11
1904.595577
21
1166.642681
31
0.0
0
LINE
8
00_Contorno Poliamida
10
1904.595946
20
1166.642595
30
0.0
11
1906.995943
21
1166.792593
31
0.0
0
LINE
8
00_Contorno Poliamida
10
1906.996027
20
1166.792978
30
0.0
11
1908.946020
21
1166.492978
31
0.0
0
LINE
8
00_Contorno Poliamida
10
1908.945658
20
1166.493175
30
0.0
11
1910.745656
21
1166.043177
31
0.0
0
LINE
8
00_Contorno Poliamida
10
1910.745811
20
1166.042805
30
0.0
11
1911.795811
21
1166.042805
31
0.0
0
LINE
8
00_Contorno Poliamida
10
1900.095689
20
1167.543092
30
0.0
11
1898.596781
21
1167.679356
31
0.0
0
LINE
8
00_Contorno Poliamida
10
1915.095686
20
1167.543104
30
0.0
11
1911.795689
21
1167.843102
31
0.0
0
LINE
8
00_Contorno Poliamida
10
1930.095684
20
1167.543115
30
0.0
11
1926.795687
21
1167.843113
31
0.0
0
LINE
8
00_Contorno Poliamida
10
1926.795906
20
1168.442692
30
0.0
11
1930.395908
21
1168.142694
31
0.0
0
LINE
8
00_Contorno Poliamida
10
1911.795903
20
1168.442688
30
0.0
11
1915.395905
21
1168.142691
31
0.0
0
LINE
8
00_Contorno Poliamida
10
1898.596781
20
1168.292613
30
0.0
11
1900.395902
21
1168.142687
31
0.0
0
LINE
8
00_Contorno Poliamida
10
1900.395811
20
1168.142805
30
0.0
11
1903.845811
21
1168.142805
31
0.0
0
LINE
8
00_Contorno Poliamida
10
1915.395811
20
1168.142805
30
0.0
11
1918.845811
21
1168.142805
31
0.0
0
LINE
8
00_Contorno Poliamida
10
1930.395811
20
1168.142805
30
0.0
11
1933.845811
21
1168.142805
31
0.0
0
LINE
8
00_Contorno Poliamida
10
1903.845910
20
1168.142728
30
0.0
11
1908.045904
21
1168.442727
31
0.0
0
LINE
8
00_Contorno Poliamida
10
1918.845899
20
1168.142724
30
0.0
11
1923.045894
21
1168.442722
31
0.0
0
LINE
8
00_Contorno Poliamida
10
1933.845889
20
1168.142719
30
0.0
11
1934.396781
21
1168.182069
31
0.0
0
LINE
8
00_Contorno Poliamida
10
1908.045811
20
1168.442805
30
0.0
11
1911.795811
21
1168.442805
31
0.0
0
LINE
8
00_Contorno Poliamida
10
1923.045811
20
1168.442805
30
0.0
11
1926.795811
21
1168.442805
31
0.0
0
LINE
8
00_Contorno Poliamida
10
1898.596781
20
1165.517848
30
0.0
11
1900.395833
21
1165.742729
31
0.0
0
LINE
8
00_Contorno Poliamida
10
1911.795831
20
1165.292721
30
0.0
11
1913.146781
21
1165.461589
31
0.0
0
LINE
8
00_Contorno Poliamida
10
1900.395797
20
1165.742848
30
0.0
11
1903.095802
21
1166.042848
31
0.0
0
LINE
8
00_Contorno Poliamida
10
1903.095672
20
1166.042390
30
0.0
11
1906.545668
21
1165.892387
31
0.0
0
LINE
8
00_Contorno Poliamida
10
1906.546574
20
1165.893459
30
0.0
11
1911.796570
21
1165.293460
31
0.0
0
LINE
8
00_Contorno Poliamida
10
1899.019531
20
1175.159952
30
0.0
11
1899.645760
21
1175.192911
31
0.0
0
LINE
8
00_Contorno Poliamida
10
1911.795763
20
1175.042912
30
0.0
11
1914.645763
21
1175.192912
31
0.0
0
LINE
8
00_Contorno Poliamida
10
1926.795765
20
1175.042912
30
0.0
11
1927.398646
21
1175.074643
31
0.0
0
LINE
8
00_Contorno Poliamida
10
1898.596781
20
1160.137654
30
0.0
11
1899.645808
21
1160.192866
31
0.0
0
LINE
8
00_Contorno Poliamida
10
1911.795811
20
1160.042866
30
0.0
11
1914.645811
21
1160.192867
31
0.0
0
LINE
8
00_Contorno Poliamida
10
1914.646020
20
1175.192613
30
0.0
11
1917.796020
21
1174.742613
31
0.0
0
LINE
8
00_Contorno Poliamida
10
1899.646013
20
1175.192619
30
0.0
11
1902.796013
21
1174.742619
31
0.0
0
LINE
8
00_Contorno Poliamida
10
1914.645976
20
1160.192657
30
0.0
11
1917.295410
21
1159.814167
31
0.0
0
LINE
8
00_Contorno Poliamida
10
1899.645969
20
1160.192663
30
0.0
11
1902.690258
21
1159.757765
31
0.0
0
LINE
8
00_Contorno Poliamida
10
1917.795743
20
1174.743465
30
0.0
11
1921.395739
21
1174.593468
31
0.0
0
LINE
8
00_Contorno Poliamida
10
1902.795744
20
1174.743447
30
0.0
11
1906.395740
21
1174.593450
31
0.0
0
LINE
8
00_Contorno Poliamida
10
1906.395883
20
1174.592880
30
0.0
11
1908.795879
21
1175.042881
31
0.0
0
LINE
8
00_Contorno Poliamida
10
1921.395899
20
1174.592872
30
0.0
11
1923.795895
21
1175.042874
31
0.0
0
LINE
8
00_Contorno Poliamida
10
1907.576720
20
1159.814167
30
0.0
11
1908.795980
21
1160.042779
31
0.0
0
LINE
8
00_Contorno Poliamida
10
1908.795811
20
1175.042805
30
0.0
11
1911.795811
21
1175.042805
31
0.0
0
LINE
8
00_Contorno Poliamida
10
1923.795811
20
1175.042805
30
0.0
11
1926.795811
21
1175.042805
31
0.0
0
LINE
8
00_Contorno Poliamida
10
1908.795811
20
1160.042805
30
0.0
11
1911.795811
21
1160.042805
31
0.0
0
LINE
8
00_Contorno Poliamida
10
1926.796308
20
1176.842910
30
0.0
11
1929.496315
21
1176.692911
31
0.0
0
LINE
8
00_Contorno Poliamida
10
1911.796298
20
1176.842903
30
0.0
11
1914.496305
21
1176.692904
31
0.0
0
LINE
8
00_Contorno Poliamida
10
1911.796141
20
1161.842917
30
0.0
11
1914.496148
21
1161.692918
31
0.0
0
LINE
8
00_Contorno Poliamida
10
1898.596781
20
1161.742875
30
0.0
11
1899.496138
21
1161.692911
31
0.0
0
LINE
8
00_Contorno Poliamida
10
1899.826935
20
1176.727609
30
0.0
11
1902.345831
21
1176.992756
31
0.0
0
LINE
8
00_Contorno Poliamida
10
1914.495819
20
1176.692765
30
0.0
11
1917.345823
21
1176.992765
31
0.0
0
LINE
8
00_Contorno Poliamida
10
1929.495811
20
1176.692775
30
0.0
11
1932.345815
21
1176.992775
31
0.0
0
LINE
8
00_Contorno Poliamida
10
1899.495751
20
1161.692860
30
0.0
11
1902.345755
21
1161.992861
31
0.0
0
LINE
8
00_Contorno Poliamida
10
1914.495743
20
1161.692870
30
0.0
11
1917.345747
21
1161.992870
31
0.0
0
LINE
8
00_Contorno Poliamida
10
1902.345818
20
1176.992640
30
0.0
11
1904.895812
21
1177.292637
31
0.0
0
LINE
8
00_Contorno Poliamida
10
1917.345840
20
1176.992621
30
0.0
11
1919.895834
21
1177.292619
31
0.0
0
LINE
8
00_Contorno Poliamida
10
1932.345863
20
1176.992603
30
0.0
11
1934.396781
21
1177.233886
31
0.0
0
LINE
8
00_Contorno Poliamida
10
1902.346002
20
1161.992566
30
0.0
11
1904.895996
21
1162.292563
31
0.0
0
LINE
8
00_Contorno Poliamida
10
1917.346025
20
1161.992547
30
0.0
11
1919.246781
21
1162.216164
31
0.0
0
LINE
8
00_Contorno Poliamida
10
1919.896278
20
1177.292887
30
0.0
11
1922.896285
21
1176.992886
31
0.0
0
LINE
8
00_Contorno Poliamida
10
1904.896266
20
1177.292886
30
0.0
11
1907.896273
21
1176.992885
31
0.0
0
LINE
8
00_Contorno Poliamida
10
1904.896144
20
1162.292855
30
0.0
11
1907.896152
21
1161.992854
31
0.0
0
LINE
8
00_Contorno Poliamida
10
1922.895660
20
1176.992602
30
0.0
11
1924.995657
21
1176.542601
31
0.0
0
LINE
8
00_Contorno Poliamida
10
1907.895666
20
1176.992614
30
0.0
11
1909.995663
21
1176.542613
31
0.0
0
LINE
8
00_Contorno Poliamida
10
1907.895684
20
1161.992614
30
0.0
11
1909.995681
21
1161.542613
31
0.0
0
LINE
8
00_Contorno Poliamida
10
1909.995738
20
1176.542691
30
0.0
11
1911.795735
21
1176.842690
31
0.0
0
LINE
8
00_Contorno Poliamida
10
1924.995725
20
1176.542683
30
0.0
11
1926.795721
21
1176.842681
31
0.0
0
LINE
8
00_Contorno Poliamida
10
1909.995659
20
1161.542677
30
0.0
11
1911.795655
21
1161.842676
31
0.0
0
LINE
8
00_Contorno Poliamida
10
1898.729706
20
1174.121843
30
0.0
11
1899.045817
21
1174.142917
31
0.0
0
LINE
8
00_Contorno Poliamida
10
1911.795815
20
1173.992923
30
0.0
11
1914.045815
21
1174.142924
31
0.0
0
LINE
8
00_Contorno Poliamida
10
1926.795812
20
1173.992929
30
0.0
11
1927.398646
21
1174.033118
31
0.0
0
LINE
8
00_Contorno Poliamida
10
1898.596781
20
1159.112983
30
0.0
11
1899.045794
21
1159.142917
31
0.0
0
LINE
8
00_Contorno Poliamida
10
1914.046181
20
1174.142110
30
0.0
11
1917.346176
21
1173.392109
31
0.0
0
LINE
8
00_Contorno Poliamida
10
1899.046167
20
1174.142139
30
0.0
11
1902.346163
21
1173.392138
31
0.0
0
LINE
8
00_Contorno Poliamida
10
1899.046100
20
1159.142227
30
0.0
11
1902.346096
21
1158.392226
31
0.0
0
LINE
8
00_Contorno Poliamida
10
1902.345811
20
1173.392805
30
0.0
11
1906.095811
21
1173.392805
31
0.0
0
LINE
8
00_Contorno Poliamida
10
1917.345811
20
1173.392805
30
0.0
11
1921.095811
21
1173.392805
31
0.0
0
LINE
8
00_Contorno Poliamida
10
1902.345811
20
1158.392805
30
0.0
11
1902.565358
21
1158.392805
31
0.0
0
LINE
8
00_Contorno Poliamida
10
1906.095849
20
1173.392719
30
0.0
11
1909.245845
21
1173.692717
31
0.0
0
LINE
8
00_Contorno Poliamida
10
1921.095843
20
1173.392696
30
0.0
11
1924.245840
21
1173.692694
31
0.0
0
LINE
8
00_Contorno Poliamida
10
1909.245818
20
1173.692640
30
0.0
11
1911.795812
21
1173.992637
31
0.0
0
LINE
8
00_Contorno Poliamida
10
1924.245840
20
1173.692621
30
0.0
11
1926.795834
21
1173.992619
31
0.0
0
LINE
8
00_Contorno Poliamida
10
1911.795811
20
1177.892805
30
0.0
11
1914.345811
21
1177.892805
31
0.0
0
LINE
8
00_Contorno Poliamida
10
1926.795811
20
1177.892805
30
0.0
11
1929.345811
21
1177.892805
31
0.0
0
LINE
8
00_Contorno Poliamida
10
1898.596781
20
1162.892805
30
0.0
11
1899.345811
21
1162.892805
31
0.0
0
LINE
8
00_Contorno Poliamida
10
1911.795811
20
1162.892805
30
0.0
11
1914.345811
21
1162.892805
31
0.0
0
LINE
8
00_Contorno Poliamida
10
1901.121154
20
1178.146431
30
0.0
11
1903.545842
21
1178.492815
31
0.0
0
LINE
8
00_Contorno Poliamida
10
1914.345844
20
1177.892820
30
0.0
11
1918.545849
21
1178.492820
31
0.0
0
LINE
8
00_Contorno Poliamida
10
1929.345851
20
1177.892826
30
0.0
11
1933.545855
21
1178.492826
31
0.0
0
LINE
8
00_Contorno Poliamida
10
1899.345882
20
1162.892858
30
0.0
11
1903.545886
21
1163.492859
31
0.0
0
LINE
8
00_Contorno Poliamida
10
1914.345888
20
1162.892864
30
0.0
11
1918.545893
21
1163.492864
31
0.0
0
LINE
8
00_Contorno Poliamida
10
1933.545742
20
1178.493484
30
0.0
11
1937.145739
21
1178.343486
31
0.0
0
LINE
8
00_Contorno Poliamida
10
1918.545743
20
1178.493465
30
0.0
11
1922.145739
21
1178.343468
31
0.0
0
LINE
8
00_Contorno Poliamida
10
1903.545744
20
1178.493447
30
0.0
11
1907.145740
21
1178.343450
31
0.0
0
LINE
8
00_Contorno Poliamida
10
1918.545769
20
1163.493300
30
0.0
11
1919.246781
21
1163.464092
31
0.0
0
LINE
8
00_Contorno Poliamida
10
1903.545770
20
1163.493282
30
0.0
11
1907.145767
21
1163.343285
31
0.0
0
LINE
8
00_Contorno Poliamida
10
1937.146363
20
1178.342832
30
0.0
11
1937.196781
21
1178.337953
31
0.0
0
LINE
8
00_Contorno Poliamida
10
1922.146348
20
1178.342826
30
0.0
11
1926.796345
21
1177.892830
31
0.0
0
LINE
8
00_Contorno Poliamida
10
1907.146334
20
1178.342820
30
0.0
11
1911.796331
21
1177.892824
31
0.0
0
LINE
8
00_Contorno Poliamida
10
1907.146195
20
1163.342865
30
0.0
11
1911.796192
21
1162.892868
31
0.0
0
LINE
8
00_Contorno Poliamida
10
1911.795781
20
1179.242906
30
0.0
11
1915.545787
21
1179.692908
31
0.0
0
LINE
8
00_Contorno Poliamida
10
1926.795783
20
1179.242916
30
0.0
11
1930.545789
21
1179.692919
31
0.0
0
LINE
8
00_Contorno Poliamida
10
1898.596781
20
1164.459043
30
0.0
11
1900.545807
21
1164.692927
31
0.0
0
LINE
8
00_Contorno Poliamida
10
1911.795803
20
1164.242935
30
0.0
11
1913.146781
21
1164.405053
31
0.0
0
LINE
8
00_Contorno Poliamida
10
1904.599798
20
1179.692805
30
0.0
11
1904.745811
21
1179.692805
31
0.0
0
LINE
8
00_Contorno Poliamida
10
1915.545811
20
1179.692805
30
0.0
11
1919.745811
21
1179.692805
31
0.0
0
LINE
8
00_Contorno Poliamida
10
1930.545811
20
1179.692805
30
0.0
11
1934.745811
21
1179.692805
31
0.0
0
LINE
8
00_Contorno Poliamida
10
1900.545811
20
1164.692805
30
0.0
11
1904.745811
21
1164.692805
31
0.0
0
LINE
8
00_Contorno Poliamida
10
1934.744655
20
1179.691846
30
0.0
11
1937.196781
21
1179.535328
31
0.0
0
LINE
8
00_Contorno Poliamida
10
1919.744673
20
1179.691856
30
0.0
11
1926.794666
21
1179.241859
31
0.0
0
LINE
8
00_Contorno Poliamida
10
1904.744690
20
1179.691866
30
0.0
11
1911.794683
21
1179.241869
31
0.0
0
LINE
8
00_Contorno Poliamida
10
1904.744965
20
1164.692121
30
0.0
11
1911.794958
21
1164.242124
31
0.0
0
LINE
8
00_Contorno Poliamida
10
1898.596781
20
1169.492805
30
0.0
11
1900.395811
21
1169.492805
31
0.0
0
LINE
8
00_Contorno Poliamida
10
1911.795811
20
1169.492805
30
0.0
11
1915.395811
21
1169.492805
31
0.0
0
LINE
8
00_Contorno Poliamida
10
1926.795811
20
1169.492805
30
0.0
11
1930.395811
21
1169.492805
31
0.0
0
LINE
8
00_Contorno Poliamida
10
1900.395824
20
1169.492568
30
0.0
11
1903.995826
21
1169.792565
31
0.0
0
LINE
8
00_Contorno Poliamida
10
1915.395827
20
1169.492564
30
0.0
11
1918.995829
21
1169.792562
31
0.0
0
LINE
8
00_Contorno Poliamida
10
1930.395830
20
1169.492561
30
0.0
11
1933.995832
21
1169.792558
31
0.0
0
LINE
8
00_Contorno Poliamida
10
1933.995650
20
1169.792503
30
0.0
11
1934.396781
21
1169.779564
31
0.0
0
LINE
8
00_Contorno Poliamida
10
1918.995652
20
1169.792505
30
0.0
11
1923.645648
21
1169.642506
31
0.0
0
LINE
8
00_Contorno Poliamida
10
1903.995654
20
1169.792507
30
0.0
11
1908.645650
21
1169.642508
31
0.0
0
LINE
8
00_Contorno Poliamida
10
1923.645676
20
1169.642728
30
0.0
11
1926.795676
21
1169.492729
31
0.0
0
LINE
8
00_Contorno Poliamida
10
1908.645678
20
1169.642727
30
0.0
11
1911.795679
21
1169.492728
31
0.0
0
LINE
8
00_Contorno Poliamida
10
1926.795684
20
1171.893115
30
0.0
11
1927.398646
21
1171.838301
31
0.0
0
LINE
8
00_Contorno Poliamida
10
1928.718959
20
1171.718273
30
0.0
11
1930.095680
21
1171.593117
31
0.0
0
LINE
8
00_Contorno Poliamida
10
1911.795686
20
1171.893104
30
0.0
11
1915.095683
21
1171.593106
31
0.0
0
LINE
8
00_Contorno Poliamida
10
1898.596781
20
1171.729357
30
0.0
11
1900.095686
21
1171.593094
31
0.0
0
LINE
8
00_Contorno Poliamida
10
1898.754602
20
1156.714969
30
0.0
11
1900.095723
21
1156.593049
31
0.0
0
LINE
8
00_Contorno Poliamida
10
1900.095811
20
1171.592805
30
0.0
11
1904.895811
21
1171.592805
31
0.0
0
LINE
8
00_Contorno Poliamida
10
1915.095811
20
1171.592805
30
0.0
11
1919.895811
21
1171.592805
31
0.0
0
LINE
8
00_Contorno Poliamida
10
1930.095811
20
1171.592805
30
0.0
11
1934.396781
21
1171.592805
31
0.0
0
LINE
8
00_Contorno Poliamida
10
1900.095811
20
1156.592805
30
0.0
11
1902.565358
21
1156.592805
31
0.0
0
LINE
8
00_Contorno Poliamida
10
1904.895721
20
1171.593124
30
0.0
11
1909.395726
21
1171.743128
31
0.0
0
LINE
8
00_Contorno Poliamida
10
1919.895722
20
1171.593134
30
0.0
11
1924.395728
21
1171.743138
31
0.0
0
LINE
8
00_Contorno Poliamida
10
1909.395946
20
1171.742595
30
0.0
11
1911.795943
21
1171.892593
31
0.0
0
LINE
8
00_Contorno Poliamida
10
1924.395937
20
1171.742589
30
0.0
11
1926.795934
21
1171.892588
31
0.0
0
LINE
8
0
10
1934.396781
20
1167.514167
30
0.0
11
1934.396781
21
1171.718273
31
0.0
0
LINE
8
0
10
1934.396781
20
1171.718273
30
0.0
11
1927.398646
21
1171.718273
31
0.0
0
LINE
8
0
10
1927.398646
20
1171.718273
30
0.0
11
1927.398646
21
1175.718273
31
0.0
0
LINE
8
0
10
1927.398646
20
1175.718273
30
0.0
11
1934.396781
21
1175.718273
31
0.0
0
LINE
8
0
10
1934.396781
20
1175.718273
30
0.0
11
1934.396781
21
1177.764167
31
0.0
0
LINE
8
0
10
1934.396781
20
1177.764167
30
0.0
11
1937.196781
21
1177.764167
31
0.0
0
LINE
8
0
10
1937.196781
20
1177.764167
30
0.0
11
1937.196781
21
1179.764167
31
0.0
0
LINE
8
0
10
1937.196781
20
1179.764167
30
0.0
11
1905.596781
21
1179.764167
31
0.0
0
ARC
8
0
10
1905.596781
20
1172.764167
30
0.0
40
7.000000
50
90.000000
51
180.000000
0
LINE
8
0
10
1898.596781
20
1172.764167
30
0.0
11
1898.596781
21
1157.254167
31
0.0
0
ARC
8
0
10
1899.596781
20
1157.254167
30
0.0
40
1.000000
50
180.000000
51
270.000000
0
LINE
8
0
10
1899.596781
20
1156.254167
30
0.0
11
1902.265358
21
1156.254167
31
0.0
0
ARC
8
0
10
1902.265358
20
1156.554167
30
0.0
40
0.300000
50
270.000000
51
0.000000
0
LINE
8
0
10
1902.565358
20
1156.554167
30
0.0
11
1902.565358
21
1159.514167
31
0.0
0
ARC
8
0
10
1902.865358
20
1159.514167
30
0.0
40
0.300000
50
90.000000
51
180.000000
0
LINE
8
0
10
1902.865358
20
1159.814167
30
0.0
11
1919.246781
21
1159.814167
31
0.0
0
LINE
8
0
10
1919.246781
20
1159.814167
30
0.0
11
1919.246781
21
1164.014167
31
0.0
0
LINE
8
0
10
1919.246781
20
1164.014167
30
0.0
11
1913.146781
21
1164.014167
31
0.0
0
LINE
8
0
10
1913.146781
20
1164.014167
30
0.0
11
1913.146781
21
1167.514167
31
0.0
0
LINE
8
0
10
1913.146781
20
1167.514167
30
0.0
11
1934.396781
21
1167.514167
31
0.0
0
ATTDEF
8
0
10
0.000000
20
0.000000
30
0.0
40
3.5
1

3

2
PANE_WIDTH:0
70
0
0
ATTDEF
8
0
10
0.000000
20
0.000000
30
0.0
40
3.5
1

3

2
MIN_VETRO:0
70
0
0
ATTDEF
8
0
10
0.000000
20
0.000000
30
0.0
40
3.5
1

3

2
MAX_VETRO:0
70
0
0
ATTDEF
8
0
10
0.000000
20
0.000000
30
0.0
40
3.5
1

3

2
JX:0
70
0
0
ATTDEF
8
0
10
0.000000
20
0.000000
30
0.0
40
3.5
1

3

2
WX:0
70
0
0
ATTDEF
8
0
10
0.000000
20
0.000000
30
0.0
40
3.5
1

3

2
JY:0
70
0
0
ATTDEF
8
0
10
0.000000
20
0.000000
30
0.0
40
3.5
1

3

2
WY:0
70
0
0
ATTDEF
8
0
10
0.000000
20
0.000000
30
0.0
40
3.5
1

3

2
DESC:Junquillo hoja madera p/grapa 8811
70
0
0
ATTDEF
8
0
10
0.000000
20
0.000000
30
0.0
40
3.5
1

3

2
DENS:0
70
0
0
ATTDEF
8
0
10
0.000000
20
0.000000
30
0.0
40
3.5
1

3

2
TDEV:0
70
0
0
ATTDEF
8
0
10
0.000000
20
0.000000
30
0.0
40
3.5
1

3

2
TDEV2:0
70
0
0
ATTDEF
8
0
10
0.000000
20
0.000000
30
0.0
40
3.5
1

3

2
TDEV3:0
70
0
0
ATTDEF
8
0
10
0.000000
20
0.000000
30
0.0
40
3.5
1

3

2
TDEV4:0
70
0
0
ATTDEF
8
0
10
0.000000
20
0.000000
30
0.0
40
3.5
1

3

2
TDEV5:0
70
0
0
ATTDEF
8
0
10
0.000000
20
0.000000
30
0.0
40
3.5
1

3

2
PANE_WIDTH:0
70
0
0
ATTDEF
8
0
10
0.000000
20
0.000000
30
0.0
40
3.5
1

3

2
MIN_VETRO:0
70
0
0
ATTDEF
8
0
10
0.000000
20
0.000000
30
0.0
40
3.5
1

3

2
MAX_VETRO:0
70
0
0
ATTDEF
8
0
10
0.000000
20
0.000000
30
0.0
40
3.5
1

3

2
JX:0
70
0
0
ATTDEF
8
0
10
0.000000
20
0.000000
30
0.0
40
3.5
1

3

2
WX:0
70
0
0
ATTDEF
8
0
10
0.000000
20
0.000000
30
0.0
40
3.5
1

3

2
JY:0
70
0
0
ATTDEF
8
0
10
0.000000
20
0.000000
30
0.0
40
3.5
1

3

2
WY:0
70
0
0
ENDSEC
0
EOF
