0
SECTION
2
ENTITIES
0
LINE
8
00_Contorno Poliamida
10
1892.397807
20
1177.029979
30
0.0
11
1892.239053
21
1177.903134
31
0.0
0
LINE
8
00_Contorno Poliamida
10
1892.539068
20
1191.253157
30
0.0
11
1892.239070
21
1192.903152
31
0.0
0
LINE
8
00_Contorno Poliamida
10
1892.539085
20
1206.253175
30
0.0
11
1892.534139
21
1206.280382
31
0.0
0
LINE
8
00_Contorno Poliamida
10
1892.222759
20
1177.845712
30
0.0
11
1892.222759
21
1179.495712
31
0.0
0
LINE
8
00_Contorno Poliamida
10
1892.222759
20
1192.845712
30
0.0
11
1892.222759
21
1194.495712
31
0.0
0
LINE
8
00_Contorno Poliamida
10
1892.232272
20
1194.504485
30
0.0
11
1892.682269
21
1195.854480
31
0.0
0
LINE
8
00_Contorno Poliamida
10
1892.232289
20
1179.504488
30
0.0
11
1892.682286
21
1180.854484
31
0.0
0
LINE
8
00_Contorno Poliamida
10
1892.691539
20
1195.852359
30
0.0
11
1892.841540
21
1194.652353
31
0.0
0
LINE
8
00_Contorno Poliamida
10
1892.691531
20
1180.852357
30
0.0
11
1892.841532
21
1179.652351
31
0.0
0
LINE
8
00_Contorno Poliamida
10
1892.850607
20
1194.621536
30
0.0
11
1893.000607
21
1192.971530
31
0.0
0
LINE
8
00_Contorno Poliamida
10
1892.850595
20
1179.621539
30
0.0
11
1893.000595
21
1177.971533
31
0.0
0
LINE
8
00_Contorno Poliamida
10
1892.992738
20
1178.013460
30
0.0
11
1892.746868
21
1177.029979
31
0.0
0
LINE
8
00_Contorno Poliamida
10
1892.992719
20
1193.013454
30
0.0
11
1892.542721
21
1191.213456
31
0.0
0
LINE
8
00_Contorno Poliamida
10
1892.559435
20
1206.280382
30
0.0
11
1892.542702
21
1206.213451
31
0.0
0
LINE
8
00_Contorno Poliamida
10
1892.524262
20
1192.399372
30
0.0
11
1892.674262
21
1193.299377
31
0.0
0
LINE
8
00_Contorno Poliamida
10
1892.524267
20
1177.399371
30
0.0
11
1892.674268
21
1178.299376
31
0.0
0
LINE
8
00_Contorno Poliamida
10
1892.711092
20
1178.325810
30
0.0
11
1892.561092
21
1179.675813
31
0.0
0
LINE
8
00_Contorno Poliamida
10
1892.711097
20
1193.325815
30
0.0
11
1892.561096
21
1194.675817
31
0.0
0
LINE
8
00_Contorno Poliamida
10
1892.542835
20
1179.564712
30
0.0
11
1892.392834
21
1178.064708
31
0.0
0
LINE
8
00_Contorno Poliamida
10
1892.542834
20
1194.564724
30
0.0
11
1892.392833
21
1193.064721
31
0.0
0
LINE
8
00_Contorno Poliamida
10
1892.370681
20
1193.112564
30
0.0
11
1892.520680
21
1192.362566
31
0.0
0
LINE
8
00_Contorno Poliamida
10
1892.370672
20
1178.112574
30
0.0
11
1892.520671
21
1177.362577
31
0.0
0
LINE
8
00_Contorno Poliamida
10
1892.400607
20
1189.821536
30
0.0
11
1892.250607
21
1191.471542
31
0.0
0
LINE
8
00_Contorno Poliamida
10
1892.400619
20
1204.821533
30
0.0
11
1892.267997
21
1206.280382
31
0.0
0
LINE
8
00_Contorno Poliamida
10
1892.107192
20
1177.029979
30
0.0
11
1891.920674
21
1177.962568
31
0.0
0
LINE
8
00_Contorno Poliamida
10
1892.220681
20
1191.462564
30
0.0
11
1891.920683
21
1192.962558
31
0.0
0
LINE
8
00_Contorno Poliamida
10
1891.922759
20
1177.995712
30
0.0
11
1891.922759
21
1179.795712
31
0.0
0
LINE
8
00_Contorno Poliamida
10
1891.922759
20
1192.995712
30
0.0
11
1891.922759
21
1194.795712
31
0.0
0
LINE
8
00_Contorno Poliamida
10
1891.914693
20
1194.813282
30
0.0
11
1892.364692
21
1196.013282
31
0.0
0
LINE
8
00_Contorno Poliamida
10
1891.914700
20
1179.813287
30
0.0
11
1892.364699
21
1181.013287
31
0.0
0
LINE
8
00_Contorno Poliamida
10
1892.371668
20
1196.011307
30
0.0
11
1892.521669
21
1198.261307
31
0.0
0
LINE
8
00_Contorno Poliamida
10
1892.371661
20
1181.011309
30
0.0
11
1892.521662
21
1183.261310
31
0.0
0
LINE
8
00_Contorno Poliamida
10
1892.550595
20
1183.221539
30
0.0
11
1892.400596
21
1184.871545
31
0.0
0
LINE
8
00_Contorno Poliamida
10
1892.550607
20
1198.221536
30
0.0
11
1892.400607
21
1199.871542
31
0.0
0
LINE
8
00_Contorno Poliamida
10
1892.372759
20
1184.895712
30
0.0
11
1892.372759
21
1186.545712
31
0.0
0
LINE
8
00_Contorno Poliamida
10
1892.372759
20
1199.895712
30
0.0
11
1892.372759
21
1201.545712
31
0.0
0
LINE
8
00_Contorno Poliamida
10
1892.403576
20
1201.570586
30
0.0
11
1892.553576
21
1203.220592
31
0.0
0
LINE
8
00_Contorno Poliamida
10
1892.403587
20
1186.570589
30
0.0
11
1892.553587
21
1188.220595
31
0.0
0
LINE
8
00_Contorno Poliamida
10
1892.550607
20
1188.171536
30
0.0
11
1892.400607
21
1189.821542
31
0.0
0
LINE
8
00_Contorno Poliamida
10
1892.550619
20
1203.171533
30
0.0
11
1892.400619
21
1204.821539
31
0.0
0
LINE
8
00_Contorno Poliamida
10
1892.672759
20
1186.545712
30
0.0
11
1892.672759
21
1187.445712
31
0.0
0
LINE
8
00_Contorno Poliamida
10
1892.672759
20
1201.545712
30
0.0
11
1892.672759
21
1202.445712
31
0.0
0
LINE
8
00_Contorno Poliamida
10
1892.703576
20
1202.470586
30
0.0
11
1892.853576
21
1204.120592
31
0.0
0
LINE
8
00_Contorno Poliamida
10
1892.703587
20
1187.470589
30
0.0
11
1892.853587
21
1189.120595
31
0.0
0
LINE
8
00_Contorno Poliamida
10
1892.822759
20
1189.095712
30
0.0
11
1892.822759
21
1190.595712
31
0.0
0
LINE
8
00_Contorno Poliamida
10
1892.822759
20
1204.095712
30
0.0
11
1892.822759
21
1205.595712
31
0.0
0
LINE
8
00_Contorno Poliamida
10
1892.843538
20
1205.533780
30
0.0
11
1892.979283
21
1206.280382
31
0.0
0
LINE
8
00_Contorno Poliamida
10
1892.843556
20
1190.533763
30
0.0
11
1893.143554
21
1192.183757
31
0.0
0
LINE
8
00_Contorno Poliamida
10
1893.115615
20
1177.029979
30
0.0
11
1893.143571
21
1177.183740
31
0.0
0
LINE
8
00_Contorno Poliamida
10
1893.153587
20
1192.270589
30
0.0
11
1893.303587
21
1193.920595
31
0.0
0
LINE
8
00_Contorno Poliamida
10
1893.153599
20
1177.270592
30
0.0
11
1893.303599
21
1178.920597
31
0.0
0
LINE
8
00_Contorno Poliamida
10
1893.300595
20
1178.871539
30
0.0
11
1893.150596
21
1180.521545
31
0.0
0
LINE
8
00_Contorno Poliamida
10
1893.300607
20
1193.871536
30
0.0
11
1893.150607
21
1195.521542
31
0.0
0
LINE
8
00_Contorno Poliamida
10
1893.150595
20
1180.521539
30
0.0
11
1893.000596
21
1182.171545
31
0.0
0
LINE
8
00_Contorno Poliamida
10
1893.150607
20
1195.521536
30
0.0
11
1893.000607
21
1197.171542
31
0.0
0
LINE
8
00_Contorno Poliamida
10
1892.952646
20
1182.167173
30
0.0
11
1892.652647
21
1184.267167
31
0.0
0
LINE
8
00_Contorno Poliamida
10
1892.952642
20
1197.167164
30
0.0
11
1892.652643
21
1199.267159
31
0.0
0
LINE
8
00_Contorno Poliamida
10
1892.672759
20
1184.295712
30
0.0
11
1892.672759
21
1186.545712
31
0.0
0
LINE
8
00_Contorno Poliamida
10
1892.672759
20
1199.295712
30
0.0
11
1892.672759
21
1201.545712
31
0.0
0
LINE
8
00_Contorno Poliamida
10
1883.644497
20
1183.731171
30
0.0
11
1883.344499
21
1185.081164
31
0.0
0
LINE
8
00_Contorno Poliamida
10
1883.644489
20
1198.731183
30
0.0
11
1883.344491
21
1200.081177
31
0.0
0
LINE
8
00_Contorno Poliamida
10
1883.644482
20
1213.731196
30
0.0
11
1883.614380
21
1213.866655
31
0.0
0
LINE
8
00_Contorno Poliamida
10
1883.392528
20
1185.123485
30
0.0
11
1883.341724
21
1185.631531
31
0.0
0
LINE
8
00_Contorno Poliamida
10
1883.392529
20
1200.123498
30
0.0
11
1883.341724
21
1200.631555
31
0.0
0
LINE
8
00_Contorno Poliamida
10
1883.643111
20
1213.666078
30
0.0
11
1883.680953
21
1213.930970
31
0.0
0
LINE
8
00_Contorno Poliamida
10
1883.643106
20
1198.666071
30
0.0
11
1883.793106
21
1199.716076
31
0.0
0
LINE
8
00_Contorno Poliamida
10
1883.643100
20
1183.666064
30
0.0
11
1883.793100
21
1184.716069
31
0.0
0
LINE
8
00_Contorno Poliamida
10
1883.832653
20
1199.799722
30
0.0
11
1884.132652
21
1201.599719
31
0.0
0
LINE
8
00_Contorno Poliamida
10
1883.832662
20
1184.799736
30
0.0
11
1884.132660
21
1186.599732
31
0.0
0
LINE
8
00_Contorno Poliamida
10
1884.122759
20
1186.545712
30
0.0
11
1884.122759
21
1188.345712
31
0.0
0
LINE
8
00_Contorno Poliamida
10
1884.122759
20
1201.545712
30
0.0
11
1884.122759
21
1203.345712
31
0.0
0
LINE
8
00_Contorno Poliamida
10
1884.122773
20
1188.341755
30
0.0
11
1883.972773
21
1189.241761
31
0.0
0
LINE
8
00_Contorno Poliamida
10
1884.122779
20
1203.341757
30
0.0
11
1883.972778
21
1204.241762
31
0.0
0
LINE
8
00_Contorno Poliamida
10
1883.953758
20
1189.247270
30
0.0
11
1883.653756
21
1188.497265
31
0.0
0
LINE
8
00_Contorno Poliamida
10
1883.953766
20
1204.247270
30
0.0
11
1883.653765
21
1203.497265
31
0.0
0
LINE
8
00_Contorno Poliamida
10
1883.643259
20
1188.468585
30
0.0
11
1883.341724
21
1187.161931
31
0.0
0
LINE
8
00_Contorno Poliamida
10
1883.643264
20
1203.468595
30
0.0
11
1883.341724
21
1202.161916
31
0.0
0
LINE
8
00_Contorno Poliamida
10
1883.691531
20
1185.352357
30
0.0
11
1883.541531
21
1186.552363
31
0.0
0
LINE
8
00_Contorno Poliamida
10
1883.691539
20
1200.352359
30
0.0
11
1883.541539
21
1201.552366
31
0.0
0
LINE
8
00_Contorno Poliamida
10
1883.693588
20
1200.338468
30
0.0
11
1883.843588
21
1201.538474
31
0.0
0
LINE
8
00_Contorno Poliamida
10
1883.693596
20
1185.338466
30
0.0
11
1883.843596
21
1186.538472
31
0.0
0
LINE
8
00_Contorno Poliamida
10
1883.822759
20
1186.545712
30
0.0
11
1883.822759
21
1187.745712
31
0.0
0
LINE
8
00_Contorno Poliamida
10
1883.822759
20
1201.545712
30
0.0
11
1883.822759
21
1202.745712
31
0.0
0
LINE
8
00_Contorno Poliamida
10
1883.835105
20
1187.732997
30
0.0
11
1883.535106
21
1186.532998
31
0.0
0
LINE
8
00_Contorno Poliamida
10
1883.835090
20
1202.733005
30
0.0
11
1883.535091
21
1201.533007
31
0.0
0
LINE
8
00_Contorno Poliamida
10
1884.141171
20
1177.050296
30
0.0
11
1884.114757
21
1177.499331
31
0.0
0
LINE
8
00_Contorno Poliamida
10
1884.264747
20
1189.949339
30
0.0
11
1884.114745
21
1192.499341
31
0.0
0
LINE
8
00_Contorno Poliamida
10
1884.264736
20
1204.949348
30
0.0
11
1884.114734
21
1207.499350
31
0.0
0
LINE
8
00_Contorno Poliamida
10
1884.112677
20
1177.403730
30
0.0
11
1883.962678
21
1181.153731
31
0.0
0
LINE
8
00_Contorno Poliamida
10
1884.112679
20
1192.403731
30
0.0
11
1883.962680
21
1196.153732
31
0.0
0
LINE
8
00_Contorno Poliamida
10
1884.112681
20
1207.403731
30
0.0
11
1883.962682
21
1211.153732
31
0.0
0
LINE
8
00_Contorno Poliamida
10
1883.964184
20
1211.041740
30
0.0
11
1884.114183
21
1213.741747
31
0.0
0
LINE
8
00_Contorno Poliamida
10
1883.964191
20
1196.041730
30
0.0
11
1884.114190
21
1198.741737
31
0.0
0
LINE
8
00_Contorno Poliamida
10
1883.964198
20
1181.041721
30
0.0
11
1884.114197
21
1183.741727
31
0.0
0
LINE
8
00_Contorno Poliamida
10
1884.124256
20
1213.849373
30
0.0
11
1884.177151
21
1214.166747
31
0.0
0
LINE
8
00_Contorno Poliamida
10
1884.124262
20
1198.849372
30
0.0
11
1884.574261
21
1201.549374
31
0.0
0
LINE
8
00_Contorno Poliamida
10
1884.124267
20
1183.849371
30
0.0
11
1884.574267
21
1186.549373
31
0.0
0
LINE
8
00_Contorno Poliamida
10
1883.341724
20
1204.021652
30
0.0
11
1883.702682
21
1205.285007
31
0.0
0
LINE
8
00_Contorno Poliamida
10
1883.341724
20
1189.021609
30
0.0
11
1883.702693
21
1190.285002
31
0.0
0
LINE
8
00_Contorno Poliamida
10
1883.672759
20
1190.295712
30
0.0
11
1883.672759
21
1192.245712
31
0.0
0
LINE
8
00_Contorno Poliamida
10
1883.672759
20
1205.295712
30
0.0
11
1883.672759
21
1207.245712
31
0.0
0
LINE
8
00_Contorno Poliamida
10
1883.638031
20
1177.319474
30
0.0
11
1883.352647
21
1179.317167
31
0.0
0
LINE
8
00_Contorno Poliamida
10
1883.652642
20
1192.217164
30
0.0
11
1883.352643
21
1194.317159
31
0.0
0
LINE
8
00_Contorno Poliamida
10
1883.652639
20
1207.217156
30
0.0
11
1883.352639
21
1209.317151
31
0.0
0
LINE
8
00_Contorno Poliamida
10
1883.341724
20
1209.566642
30
0.0
11
1883.483869
21
1211.840990
31
0.0
0
LINE
8
00_Contorno Poliamida
10
1883.341724
20
1194.566567
30
0.0
11
1883.483874
21
1196.840999
31
0.0
0
LINE
8
00_Contorno Poliamida
10
1883.341724
20
1179.566492
30
0.0
11
1883.483880
21
1181.841008
31
0.0
0
LINE
8
00_Contorno Poliamida
10
1883.570789
20
1181.780497
30
0.0
11
1883.341724
21
1183.269413
31
0.0
0
LINE
8
00_Contorno Poliamida
10
1883.570790
20
1196.780503
30
0.0
11
1883.341724
21
1198.269429
31
0.0
0
LINE
8
00_Contorno Poliamida
10
1883.570792
20
1211.780510
30
0.0
11
1883.344328
21
1213.252513
31
0.0
0
LINE
8
00_Contorno Poliamida
10
1884.300619
20
1204.821533
30
0.0
11
1884.600617
21
1201.521537
31
0.0
0
LINE
8
00_Contorno Poliamida
10
1884.300607
20
1189.821536
30
0.0
11
1884.600605
21
1186.521539
31
0.0
0
LINE
8
00_Contorno Poliamida
10
1885.113916
20
1186.557759
30
0.0
11
1884.813918
21
1190.157761
31
0.0
0
LINE
8
00_Contorno Poliamida
10
1885.113919
20
1201.557762
30
0.0
11
1884.813921
21
1205.157764
31
0.0
0
LINE
8
00_Contorno Poliamida
10
1884.872759
20
1177.029979
30
0.0
11
1884.872759
21
1178.595712
31
0.0
0
LINE
8
00_Contorno Poliamida
10
1884.872759
20
1190.145712
30
0.0
11
1884.872759
21
1193.595712
31
0.0
0
LINE
8
00_Contorno Poliamida
10
1884.872759
20
1205.145712
30
0.0
11
1884.872759
21
1208.595712
31
0.0
0
LINE
8
00_Contorno Poliamida
10
1884.872723
20
1208.688126
30
0.0
11
1885.172722
21
1212.888121
31
0.0
0
LINE
8
00_Contorno Poliamida
10
1884.872728
20
1193.688137
30
0.0
11
1885.172726
21
1197.888131
31
0.0
0
LINE
8
00_Contorno Poliamida
10
1884.872732
20
1178.688147
30
0.0
11
1885.172730
21
1182.888142
31
0.0
0
LINE
8
00_Contorno Poliamida
10
1885.172759
20
1182.795712
30
0.0
11
1885.172759
21
1186.545712
31
0.0
0
LINE
8
00_Contorno Poliamida
10
1885.172759
20
1197.795712
30
0.0
11
1885.172759
21
1201.545712
31
0.0
0
LINE
8
00_Contorno Poliamida
10
1885.172759
20
1212.795712
30
0.0
11
1885.172759
21
1214.180382
31
0.0
0
LINE
8
00_Contorno Poliamida
10
1891.802289
20
1201.513793
30
0.0
11
1891.952290
21
1204.363794
31
0.0
0
LINE
8
00_Contorno Poliamida
10
1891.802288
20
1186.513791
30
0.0
11
1891.952289
21
1189.363791
31
0.0
0
LINE
8
00_Contorno Poliamida
10
1891.522245
20
1177.029979
30
0.0
11
1891.444583
21
1177.573614
31
0.0
0
LINE
8
00_Contorno Poliamida
10
1891.894577
20
1189.423621
30
0.0
11
1891.444577
21
1192.573621
31
0.0
0
LINE
8
00_Contorno Poliamida
10
1891.894571
20
1204.423628
30
0.0
11
1891.629321
21
1206.280382
31
0.0
0
LINE
8
00_Contorno Poliamida
10
1891.578245
20
1177.528450
30
0.0
11
1891.428247
21
1181.128446
31
0.0
0
LINE
8
00_Contorno Poliamida
10
1891.578263
20
1192.528449
30
0.0
11
1891.428266
21
1196.128445
31
0.0
0
LINE
8
00_Contorno Poliamida
10
1891.390974
20
1196.078050
30
0.0
11
1891.840975
21
1198.478046
31
0.0
0
LINE
8
00_Contorno Poliamida
10
1891.390982
20
1181.078034
30
0.0
11
1891.840983
21
1183.478030
31
0.0
0
LINE
8
00_Contorno Poliamida
10
1891.772759
20
1183.545712
30
0.0
11
1891.772759
21
1186.545712
31
0.0
0
LINE
8
00_Contorno Poliamida
10
1891.772759
20
1198.545712
30
0.0
11
1891.772759
21
1201.545712
31
0.0
0
LINE
8
00_Contorno Poliamida
10
1893.562385
20
1186.647218
30
0.0
11
1893.412386
21
1189.347224
31
0.0
0
LINE
8
00_Contorno Poliamida
10
1893.562392
20
1201.647227
30
0.0
11
1893.412393
21
1204.347234
31
0.0
0
LINE
8
00_Contorno Poliamida
10
1893.353074
20
1204.296603
30
0.0
11
1893.561892
21
1206.280382
31
0.0
0
LINE
8
00_Contorno Poliamida
10
1893.353064
20
1189.296611
30
0.0
11
1893.653065
21
1192.146615
31
0.0
0
LINE
8
00_Contorno Poliamida
10
1893.640777
20
1177.029979
30
0.0
11
1893.653055
21
1177.146623
31
0.0
0
LINE
8
00_Contorno Poliamida
10
1893.773461
20
1191.972343
30
0.0
11
1894.073459
21
1194.522337
31
0.0
0
LINE
8
00_Contorno Poliamida
10
1893.780263
20
1177.029979
30
0.0
11
1894.073477
21
1179.522315
31
0.0
0
LINE
8
00_Contorno Poliamida
10
1894.042528
20
1179.723485
30
0.0
11
1893.742527
21
1182.723493
31
0.0
0
LINE
8
00_Contorno Poliamida
10
1894.042529
20
1194.723498
30
0.0
11
1893.742528
21
1197.723505
31
0.0
0
LINE
8
00_Contorno Poliamida
10
1893.724165
20
1182.634678
30
0.0
11
1893.274164
21
1184.734674
31
0.0
0
LINE
8
00_Contorno Poliamida
10
1893.724154
20
1197.634671
30
0.0
11
1893.274153
21
1199.734668
31
0.0
0
LINE
8
00_Contorno Poliamida
10
1893.282653
20
1199.799722
30
0.0
11
1893.582652
21
1201.599719
31
0.0
0
LINE
8
00_Contorno Poliamida
10
1893.282662
20
1184.799736
30
0.0
11
1893.582660
21
1186.599732
31
0.0
0
LINE
8
00_Contorno Poliamida
10
1890.721675
20
1201.561304
30
0.0
11
1890.871676
21
1203.811305
31
0.0
0
LINE
8
00_Contorno Poliamida
10
1890.721668
20
1186.561307
30
0.0
11
1890.871669
21
1188.811307
31
0.0
0
LINE
8
00_Contorno Poliamida
10
1890.093430
20
1177.029979
30
0.0
11
1890.068842
21
1177.138163
31
0.0
0
LINE
8
00_Contorno Poliamida
10
1890.818814
20
1188.838181
30
0.0
11
1890.068813
21
1192.138176
31
0.0
0
LINE
8
00_Contorno Poliamida
10
1890.818786
20
1203.838194
30
0.0
11
1890.263741
21
1206.280382
31
0.0
0
LINE
8
00_Contorno Poliamida
10
1890.122759
20
1177.095712
30
0.0
11
1890.122759
21
1180.845712
31
0.0
0
LINE
8
00_Contorno Poliamida
10
1890.122759
20
1192.095712
30
0.0
11
1890.122759
21
1195.845712
31
0.0
0
LINE
8
00_Contorno Poliamida
10
1890.223409
20
1195.891066
30
0.0
11
1890.523407
21
1199.041062
31
0.0
0
LINE
8
00_Contorno Poliamida
10
1890.223431
20
1180.891071
30
0.0
11
1890.523429
21
1184.041068
31
0.0
0
LINE
8
00_Contorno Poliamida
10
1890.473461
20
1198.872343
30
0.0
11
1890.773459
21
1201.422337
31
0.0
0
LINE
8
00_Contorno Poliamida
10
1890.473480
20
1183.872321
30
0.0
11
1890.773477
21
1186.422315
31
0.0
0
LINE
8
00_Contorno Poliamida
10
1894.622759
20
1186.545712
30
0.0
11
1894.622759
21
1189.095712
31
0.0
0
LINE
8
00_Contorno Poliamida
10
1894.622759
20
1201.545712
30
0.0
11
1894.622759
21
1204.095712
31
0.0
0
LINE
8
00_Contorno Poliamida
10
1894.593111
20
1204.066078
30
0.0
11
1894.909440
21
1206.280382
31
0.0
0
LINE
8
00_Contorno Poliamida
10
1894.593106
20
1189.066071
30
0.0
11
1895.080314
21
1192.476531
31
0.0
0
LINE
8
00_Contorno Poliamida
10
1895.059353
20
1177.329837
30
0.0
11
1895.193100
21
1178.266069
31
0.0
0
LINE
8
00_Contorno Poliamida
10
1895.328245
20
1178.278450
30
0.0
11
1895.178247
21
1181.878446
31
0.0
0
LINE
8
00_Contorno Poliamida
10
1895.237543
20
1195.455756
30
0.0
11
1895.178266
21
1196.878445
31
0.0
0
LINE
8
00_Contorno Poliamida
10
1895.042622
20
1181.984756
30
0.0
11
1894.592626
21
1186.634753
31
0.0
0
LINE
8
00_Contorno Poliamida
10
1895.042629
20
1196.984771
30
0.0
11
1894.592632
21
1201.634768
31
0.0
0
LINE
8
00_Contorno Poliamida
10
1886.222759
20
1186.545712
30
0.0
11
1886.222759
21
1190.145712
31
0.0
0
LINE
8
00_Contorno Poliamida
10
1886.222759
20
1201.545712
30
0.0
11
1886.222759
21
1205.145712
31
0.0
0
LINE
8
00_Contorno Poliamida
10
1886.164793
20
1205.132896
30
0.0
11
1886.464790
21
1208.732898
31
0.0
0
LINE
8
00_Contorno Poliamida
10
1886.164796
20
1190.132893
30
0.0
11
1886.464794
21
1193.732895
31
0.0
0
LINE
8
00_Contorno Poliamida
10
1886.322889
20
1177.029979
30
0.0
11
1886.464797
21
1178.732891
31
0.0
0
LINE
8
00_Contorno Poliamida
10
1886.434646
20
1178.704911
30
0.0
11
1886.284646
21
1183.354908
31
0.0
0
LINE
8
00_Contorno Poliamida
10
1886.434644
20
1193.704909
30
0.0
11
1886.284645
21
1198.354906
31
0.0
0
LINE
8
00_Contorno Poliamida
10
1886.434642
20
1208.704908
30
0.0
11
1886.284643
21
1213.354904
31
0.0
0
LINE
8
00_Contorno Poliamida
10
1886.343202
20
1183.364665
30
0.0
11
1886.193203
21
1186.514666
31
0.0
0
LINE
8
00_Contorno Poliamida
10
1886.343203
20
1198.364663
30
0.0
11
1886.193204
21
1201.514663
31
0.0
0
LINE
8
00_Contorno Poliamida
10
1886.343204
20
1213.364661
30
0.0
11
1886.304360
21
1214.180382
31
0.0
0
LINE
8
00_Contorno Poliamida
10
1888.650607
20
1186.521536
30
0.0
11
1888.350609
21
1189.821533
31
0.0
0
LINE
8
00_Contorno Poliamida
10
1888.650619
20
1201.521533
30
0.0
11
1888.350621
21
1204.821530
31
0.0
0
LINE
8
00_Contorno Poliamida
10
1888.322759
20
1177.029979
30
0.0
11
1888.322759
21
1179.645712
31
0.0
0
LINE
8
00_Contorno Poliamida
10
1888.322759
20
1189.845712
30
0.0
11
1888.322759
21
1194.645712
31
0.0
0
LINE
8
00_Contorno Poliamida
10
1888.322759
20
1204.845712
30
0.0
11
1888.322759
21
1206.280382
31
0.0
0
LINE
8
00_Contorno Poliamida
10
1888.370569
20
1194.607907
30
0.0
11
1888.520573
21
1199.107913
31
0.0
0
LINE
8
00_Contorno Poliamida
10
1888.370559
20
1179.607906
30
0.0
11
1888.520563
21
1184.107911
31
0.0
0
LINE
8
00_Contorno Poliamida
10
1888.433876
20
1199.241002
30
0.0
11
1888.583874
21
1201.640999
31
0.0
0
LINE
8
00_Contorno Poliamida
10
1888.433881
20
1184.241011
30
0.0
11
1888.583880
21
1186.641008
31
0.0
0
LINE
8
0
10
1887.941724
20
1213.180382
30
0.0
11
1887.941724
21
1206.280382
31
0.0
0
LINE
8
0
10
1887.941724
20
1206.280382
30
0.0
11
1895.045349
21
1206.280382
31
0.0
0
ARC
8
0
10
1895.045349
20
1205.980382
30
0.0
40
0.300000
50
0.000000
51
90.000000
0
LINE
8
0
10
1895.345349
20
1205.980382
30
0.0
11
1895.345349
21
1195.722865
31
0.0
0
ARC
8
0
10
1895.045349
20
1195.722865
30
0.0
40
0.300000
50
330.000000
51
0.000000
0
LINE
8
0
10
1895.305156
20
1195.572865
30
0.0
11
1894.385503
21
1193.979979
31
0.0
0
ARC
8
0
10
1894.645310
20
1193.829979
30
0.0
40
0.300000
50
150.000000
51
210.000000
0
LINE
8
0
10
1894.385503
20
1193.679979
30
0.0
11
1895.305156
21
1192.087092
31
0.0
0
ARC
8
0
10
1895.045349
20
1191.937092
30
0.0
40
0.300000
50
0.000000
51
30.000000
0
LINE
8
0
10
1895.345349
20
1191.937092
30
0.0
11
1895.345349
21
1178.029979
31
0.0
0
ARC
8
0
10
1894.345349
20
1178.029979
30
0.0
40
1.000000
50
270.000000
51
0.000000
0
LINE
8
0
10
1894.345349
20
1177.029979
30
0.0
11
1884.341724
21
1177.029979
31
0.0
0
ARC
8
0
10
1884.341724
20
1178.029979
30
0.0
40
1.000000
50
180.000000
51
270.000000
0
LINE
8
0
10
1883.341724
20
1178.029979
30
0.0
11
1883.341724
21
1213.180382
31
0.0
0
ARC
8
0
10
1884.341724
20
1213.180382
30
0.0
40
1.000000
50
90.000000
51
180.000000
0
LINE
8
0
10
1884.341724
20
1214.180382
30
0.0
11
1886.941724
21
1214.180382
31
0.0
0
ARC
8
0
10
1886.941724
20
1213.180382
30
0.0
40
1.000000
50
0.000000
51
90.000000
0
ATTDEF
8
0
10
0.000000
20
0.000000
30
0.0
40
3.5
1

3

2
PANE_WIDTH:0
70
0
0
ATTDEF
8
0
10
0.000000
20
0.000000
30
0.0
40
3.5
1

3

2
MIN_VETRO:0
70
0
0
ATTDEF
8
0
10
0.000000
20
0.000000
30
0.0
40
3.5
1

3

2
MAX_VETRO:0
70
0
0
ATTDEF
8
0
10
0.000000
20
0.000000
30
0.0
40
3.5
1

3

2
JX:0
70
0
0
ATTDEF
8
0
10
0.000000
20
0.000000
30
0.0
40
3.5
1

3

2
WX:0
70
0
0
ATTDEF
8
0
10
0.000000
20
0.000000
30
0.0
40
3.5
1

3

2
JY:0
70
0
0
ATTDEF
8
0
10
0.000000
20
0.000000
30
0.0
40
3.5
1

3

2
WY:0
70
0
0
ATTDEF
8
0
10
0.000000
20
0.000000
30
0.0
40
3.5
1

3

2
DESC:Inversor madera
70
0
0
ATTDEF
8
0
10
0.000000
20
0.000000
30
0.0
40
3.5
1

3

2
DENS:0
70
0
0
ATTDEF
8
0
10
0.000000
20
0.000000
30
0.0
40
3.5
1

3

2
TDEV:0
70
0
0
ATTDEF
8
0
10
0.000000
20
0.000000
30
0.0
40
3.5
1

3

2
TDEV2:0
70
0
0
ATTDEF
8
0
10
0.000000
20
0.000000
30
0.0
40
3.5
1

3

2
TDEV3:0
70
0
0
ATTDEF
8
0
10
0.000000
20
0.000000
30
0.0
40
3.5
1

3

2
TDEV4:0
70
0
0
ATTDEF
8
0
10
0.000000
20
0.000000
30
0.0
40
3.5
1

3

2
TDEV5:0
70
0
0
ATTDEF
8
0
10
0.000000
20
0.000000
30
0.0
40
3.5
1

3

2
PANE_WIDTH:0
70
0
0
ATTDEF
8
0
10
0.000000
20
0.000000
30
0.0
40
3.5
1

3

2
MIN_VETRO:0
70
0
0
ATTDEF
8
0
10
0.000000
20
0.000000
30
0.0
40
3.5
1

3

2
MAX_VETRO:0
70
0
0
ATTDEF
8
0
10
0.000000
20
0.000000
30
0.0
40
3.5
1

3

2
JX:0
70
0
0
ATTDEF
8
0
10
0.000000
20
0.000000
30
0.0
40
3.5
1

3

2
WX:0
70
0
0
ATTDEF
8
0
10
0.000000
20
0.000000
30
0.0
40
3.5
1

3

2
JY:0
70
0
0
ATTDEF
8
0
10
0.000000
20
0.000000
30
0.0
40
3.5
1

3

2
WY:0
70
0
0
ENDSEC
0
EOF
