0
SECTION
2
ENTITIES
0
LINE
8
0
10
15045.322951
20
5148.742644
30
0.0
11
15081.672919
21
5150.012012
31
0.0
0
ARC
8
0
10
15081.690369
20
5149.512317
30
0.0
40
0.500000
50
310.726232
51
92.000000
0
ARC
8
0
10
15084.626373
20
5146.102056
30
0.0
40
4.000000
50
130.726232
51
223.532081
0
ARC
8
0
10
15082.270159
20
5143.863584
30
0.0
40
0.750000
50
223.532081
51
43.532081
0
ARC
8
0
10
15084.626373
20
5146.102056
30
0.0
40
2.500000
50
316.467919
51
223.532081
0
ARC
8
0
10
15086.982587
20
5143.863584
30
0.0
40
0.750000
50
136.467919
51
316.467919
0
ARC
8
0
10
15084.626373
20
5146.102056
30
0.0
40
4.000000
50
316.467919
51
53.273768
0
ARC
8
0
10
15087.317338
20
5149.708815
30
0.0
40
0.500000
50
92.000000
51
233.273768
0
LINE
8
0
10
15087.299888
20
5150.208511
30
0.0
11
15103.176373
21
5150.762930
31
0.0
0
LINE
8
0
10
15103.176373
20
5150.762930
30
0.0
11
15103.176373
21
5139.089329
31
0.0
0
LINE
8
0
10
15103.176373
20
5139.089329
30
0.0
11
15031.950191
21
5136.602056
31
0.0
0
LINE
8
0
10
15031.950191
20
5136.602056
30
0.0
11
15023.176373
21
5136.602056
31
0.0
0
LINE
8
0
10
15023.176373
20
5136.602056
30
0.0
11
15023.176373
21
5147.003579
31
0.0
0
ARC
8
0
10
15024.176373
20
5147.003579
30
0.0
40
1.000000
50
92.000000
51
180.000000
0
LINE
8
0
10
15024.141474
20
5148.002970
30
0.0
11
15037.954358
21
5148.485327
31
0.0
0
ARC
8
0
10
15037.964828
20
5148.185509
30
0.0
40
0.300000
50
331.018711
51
92.000000
0
ARC
8
0
10
15041.726373
20
5146.102056
30
0.0
40
4.000000
50
151.018711
51
223.532081
0
ARC
8
0
10
15039.370159
20
5143.863584
30
0.0
40
0.750000
50
223.532081
51
43.532081
0
ARC
8
0
10
15041.726373
20
5146.102056
30
0.0
40
2.500000
50
316.467919
51
223.532081
0
ARC
8
0
10
15044.082587
20
5143.863584
30
0.0
40
0.750000
50
136.467919
51
316.467919
0
ARC
8
0
10
15041.726373
20
5146.102056
30
0.0
40
4.000000
50
316.467919
51
32.981289
0
ARC
8
0
10
15045.333421
20
5148.442826
30
0.0
40
0.300000
50
92.000000
51
212.981289
0
LINE
8
0
10
15046.726373
20
5150.292566
30
0.0
11
15046.726373
21
5166.102056
31
0.0
0
ARC
8
0
10
15041.726373
20
5166.102056
30
0.0
40
5.000000
50
360.000000
51
180.000000
0
LINE
8
0
10
15036.726373
20
5166.102056
30
0.0
11
15036.726373
21
5160.449454
31
0.0
0
ARC
8
0
10
15037.226373
20
5160.449454
30
0.0
40
0.500000
50
180.000000
51
270.000000
0
LINE
8
0
10
15037.226373
20
5159.949454
30
0.0
11
15038.226373
21
5159.949454
31
0.0
0
ARC
8
0
10
15038.226373
20
5160.449454
30
0.0
40
0.500000
50
270.000000
51
360.000000
0
LINE
8
0
10
15038.726373
20
5160.449454
30
0.0
11
15038.726373
21
5166.102056
31
0.0
0
ARC
8
0
10
15041.726373
20
5166.102056
30
0.0
40
3.000000
50
360.000000
51
180.000000
0
LINE
8
0
10
15044.726373
20
5166.102056
30
0.0
11
15044.726373
21
5153.119791
31
0.0
0
ARC
8
0
10
15041.726373
20
5153.119791
30
0.0
40
3.000000
50
272.000000
51
360.000000
0
LINE
8
0
10
15041.831072
20
5150.121619
30
0.0
11
15024.089124
21
5149.502056
31
0.0
0
ARC
8
0
10
15024.176373
20
5147.003579
30
0.0
40
2.500000
50
92.000000
51
180.000000
0
LINE
8
0
10
15021.676373
20
5147.003579
30
0.0
11
15021.676373
21
5130.402056
31
0.0
0
ARC
8
0
10
15021.976373
20
5130.402056
30
0.0
40
0.300000
50
180.000000
51
270.000000
0
LINE
8
0
10
15021.976373
20
5130.102056
30
0.0
11
15024.426373
21
5130.102056
31
0.0
0
ARC
8
0
10
15024.426373
20
5130.852056
30
0.0
40
0.750000
50
270.000000
51
90.000000
0
LINE
8
0
10
15024.426373
20
5131.602056
30
0.0
11
15023.176373
21
5131.602056
31
0.0
0
LINE
8
0
10
15023.176373
20
5131.602056
30
0.0
11
15023.176373
21
5135.102056
31
0.0
0
LINE
8
0
10
15023.176373
20
5135.102056
30
0.0
11
15031.976373
21
5135.102056
31
0.0
0
LINE
8
0
10
15031.976373
20
5135.102056
30
0.0
11
15091.176373
21
5137.169366
31
0.0
0
LINE
8
0
10
15091.176373
20
5137.169366
30
0.0
11
15091.176373
21
5135.102056
31
0.0
0
LINE
8
0
10
15091.176373
20
5135.102056
30
0.0
11
15092.676373
21
5135.102056
31
0.0
0
LINE
8
0
10
15092.676373
20
5135.102056
30
0.0
11
15092.676373
21
5137.221747
31
0.0
0
LINE
8
0
10
15092.676373
20
5137.221747
30
0.0
11
15103.176373
21
5137.588415
31
0.0
0
LINE
8
0
10
15103.176373
20
5137.588415
30
0.0
11
15103.176373
21
5131.602056
31
0.0
0
LINE
8
0
10
15103.176373
20
5131.602056
30
0.0
11
15101.926373
21
5131.602056
31
0.0
0
ARC
8
0
10
15101.926373
20
5130.852056
30
0.0
40
0.750000
50
90.000000
51
270.000000
0
LINE
8
0
10
15101.926373
20
5130.102056
30
0.0
11
15104.376373
21
5130.102056
31
0.0
0
ARC
8
0
10
15104.376373
20
5130.402056
30
0.0
40
0.300000
50
270.000000
51
360.000000
0
LINE
8
0
10
15104.676373
20
5130.402056
30
0.0
11
15104.676373
21
5170.352056
31
0.0
0
ARC
8
0
10
15103.926373
20
5170.352056
30
0.0
40
0.750000
50
360.000000
51
180.000000
0
LINE
8
0
10
15103.176373
20
5170.352056
30
0.0
11
15103.176373
21
5152.263844
31
0.0
0
LINE
8
0
10
15103.176373
20
5152.263844
30
0.0
11
15089.626373
21
5151.790667
31
0.0
0
LINE
8
0
10
15089.626373
20
5151.790667
30
0.0
11
15089.626373
21
5166.102056
31
0.0
0
ARC
8
0
10
15084.626373
20
5166.102056
30
0.0
40
5.000000
50
360.000000
51
180.000000
0
LINE
8
0
10
15079.626373
20
5166.102056
30
0.0
11
15079.626373
21
5151.441460
31
0.0
0
LINE
8
0
10
15079.626373
20
5151.441460
30
0.0
11
15046.726373
21
5150.292566
31
0.0
0
ARC
8
0
10
15082.126373
20
5152.029066
30
0.0
40
0.500000
50
180.000000
51
272.000000
0
LINE
8
0
10
15081.626373
20
5152.029066
30
0.0
11
15081.626373
21
5166.102056
31
0.0
0
ARC
8
0
10
15084.626373
20
5166.102056
30
0.0
40
3.000000
50
360.000000
51
180.000000
0
LINE
8
0
10
15087.626373
20
5166.102056
30
0.0
11
15087.626373
21
5152.203670
31
0.0
0
ARC
8
0
10
15087.126373
20
5152.203670
30
0.0
40
0.500000
50
272.000000
51
360.000000
0
LINE
8
0
10
15087.143823
20
5151.703975
30
0.0
11
15082.143823
21
5151.529371
31
0.0
0
ATTDEF
8
0
10
0.000000
20
0.000000
30
0.0
40
3.5
1

3

2
PANE_WIDTH:0
70
0
0
ATTDEF
8
0
10
0.000000
20
0.000000
30
0.0
40
3.5
1

3

2
MIN_VETRO:0
70
0
0
ATTDEF
8
0
10
0.000000
20
0.000000
30
0.0
40
3.5
1

3

2
MAX_VETRO:0
70
0
0
ATTDEF
8
0
10
0.000000
20
0.000000
30
0.0
40
3.5
1

3

2
JX:0
70
0
0
ATTDEF
8
0
10
0.000000
20
0.000000
30
0.0
40
3.5
1

3

2
WX:0
70
0
0
ATTDEF
8
0
10
0.000000
20
0.000000
30
0.0
40
3.5
1

3

2
JY:0
70
0
0
ATTDEF
8
0
10
0.000000
20
0.000000
30
0.0
40
3.5
1

3

2
WY:0
70
0
0
ATTDEF
8
0
10
0.000000
20
0.000000
30
0.0
40
3.5
1

3

2
DESC:Marco inferior
70
0
0
ATTDEF
8
0
10
0.000000
20
0.000000
30
0.0
40
3.5
1

3

2
DENS:1.4472
70
0
0
ATTDEF
8
0
10
0.000000
20
0.000000
30
0.0
40
3.5
1

3

2
TDEV:64.27
70
0
0
ATTDEF
8
0
10
0.000000
20
0.000000
30
0.0
40
3.5
1

3

2
TDEV2:0
70
0
0
ATTDEF
8
0
10
0.000000
20
0.000000
30
0.0
40
3.5
1

3

2
TDEV3:0
70
0
0
ATTDEF
8
0
10
0.000000
20
0.000000
30
0.0
40
3.5
1

3

2
TDEV4:0
70
0
0
ATTDEF
8
0
10
0.000000
20
0.000000
30
0.0
40
3.5
1

3

2
TDEV5:0
70
0
0
ATTDEF
8
0
10
0.000000
20
0.000000
30
0.0
40
3.5
1

3

2
PANE_WIDTH:0
70
0
0
ATTDEF
8
0
10
0.000000
20
0.000000
30
0.0
40
3.5
1

3

2
MIN_VETRO:0
70
0
0
ATTDEF
8
0
10
0.000000
20
0.000000
30
0.0
40
3.5
1

3

2
MAX_VETRO:0
70
0
0
ATTDEF
8
0
10
0.000000
20
0.000000
30
0.0
40
3.5
1

3

2
JX:0
70
0
0
ATTDEF
8
0
10
0.000000
20
0.000000
30
0.0
40
3.5
1

3

2
WX:0
70
0
0
ATTDEF
8
0
10
0.000000
20
0.000000
30
0.0
40
3.5
1

3

2
JY:0
70
0
0
ATTDEF
8
0
10
0.000000
20
0.000000
30
0.0
40
3.5
1

3

2
WY:0
70
0
0
ATTDEF
8
0
10
15103.176373
20
5152.263844
30
0.0
40
3.5
1

3

2
VC_START
70
0
0
ATTDEF
8
0
10
15023.201373
20
5130.102056
30
0.0
40
3.5
1

3

2
VC_END
70
0
0
ATTDEF
8
0
10
15021.676373
20
5130.102056
30
0.0
40
3.5
1

3

2
FP_LCS_ORIG
70
0
0
ATTDEF
8
0
10
15031.676373
20
5130.102056
30
0.0
40
3.5
1

3

2
FP_LCS_HOT
70
0
0
ATTDEF
8
0
10
15021.676373
20
5140.102056
30
0.0
40
3.5
1

3

2
FP_LCS_INTERN
70
0
0
ENDSEC
0
EOF
