0
SECTION
2
ENTITIES
0
LINE
8
0
10
14784.981376
20
4926.208630
30
0.0
11
14784.981376
21
4924.658630
31
0.0
0
ARC
8
0
10
14785.281376
20
4924.658630
30
0.0
40
0.300000
50
180.000000
51
270.000000
0
LINE
8
0
10
14785.281376
20
4924.358630
30
0.0
11
14785.681376
21
4924.358630
31
0.0
0
ARC
8
0
10
14785.681376
20
4924.658630
30
0.0
40
0.300000
50
270.000000
51
360.000000
0
LINE
8
0
10
14785.981376
20
4924.658630
30
0.0
11
14785.981376
21
4926.208630
31
0.0
0
LINE
8
0
10
14785.981376
20
4926.208630
30
0.0
11
14787.481376
21
4926.208630
31
0.0
0
LINE
8
0
10
14787.481376
20
4926.208630
30
0.0
11
14787.481376
21
4919.008630
31
0.0
0
LINE
8
0
10
14787.481376
20
4919.008630
30
0.0
11
14785.981376
21
4919.008630
31
0.0
0
LINE
8
0
10
14785.981376
20
4919.008630
30
0.0
11
14785.981376
21
4920.558630
31
0.0
0
ARC
8
0
10
14785.681376
20
4920.558630
30
0.0
40
0.300000
50
360.000000
51
90.000000
0
LINE
8
0
10
14785.681376
20
4920.858630
30
0.0
11
14785.281376
21
4920.858630
31
0.0
0
ARC
8
0
10
14785.281376
20
4920.558630
30
0.0
40
0.300000
50
90.000000
51
180.000000
0
LINE
8
0
10
14784.981376
20
4920.558630
30
0.0
11
14784.981376
21
4919.008630
31
0.0
0
LINE
8
0
10
14784.981376
20
4919.008630
30
0.0
11
14783.781376
21
4919.008630
31
0.0
0
LINE
8
0
10
14783.781376
20
4919.008630
30
0.0
11
14783.781376
21
4920.558630
31
0.0
0
ARC
8
0
10
14783.481376
20
4920.558630
30
0.0
40
0.300000
50
360.000000
51
90.000000
0
LINE
8
0
10
14783.481376
20
4920.858630
30
0.0
11
14783.081376
21
4920.858630
31
0.0
0
ARC
8
0
10
14783.081376
20
4920.558630
30
0.0
40
0.300000
50
90.000000
51
180.000000
0
LINE
8
0
10
14782.781376
20
4920.558630
30
0.0
11
14782.781376
21
4917.908630
31
0.0
0
ARC
8
0
10
14783.081376
20
4917.908630
30
0.0
40
0.300000
50
180.000000
51
270.000000
0
LINE
8
0
10
14783.081376
20
4917.608630
30
0.0
11
14788.681376
21
4917.608630
31
0.0
0
ARC
8
0
10
14788.681376
20
4917.908630
30
0.0
40
0.300000
50
270.000000
51
360.000000
0
LINE
8
0
10
14788.981376
20
4917.908630
30
0.0
11
14788.981376
21
4989.308630
31
0.0
0
ARC
8
0
10
14788.681376
20
4989.308630
30
0.0
40
0.300000
50
360.000000
51
90.000000
0
LINE
8
0
10
14788.681376
20
4989.608630
30
0.0
11
14785.681376
21
4989.608630
31
0.0
0
ARC
8
0
10
14785.681376
20
4989.308630
30
0.0
40
0.300000
50
90.000000
51
180.000000
0
LINE
8
0
10
14785.381376
20
4989.308630
30
0.0
11
14785.381376
21
4988.408630
31
0.0
0
ARC
8
0
10
14785.681376
20
4988.408630
30
0.0
40
0.300000
50
180.000000
51
270.000000
0
LINE
8
0
10
14785.681376
20
4988.108630
30
0.0
11
14787.481376
21
4988.108630
31
0.0
0
LINE
8
0
10
14787.481376
20
4988.108630
30
0.0
11
14787.481376
21
4968.108630
31
0.0
0
LINE
8
0
10
14787.481376
20
4968.108630
30
0.0
11
14778.575967
21
4968.108630
31
0.0
0
ARC
8
0
10
14778.575967
20
4968.408630
30
0.0
40
0.300000
50
149.227675
51
270.000000
0
ARC
8
0
10
14774.881376
20
4970.608630
30
0.0
40
4.000000
50
329.227675
51
44.952536
0
ARC
8
0
10
14777.181376
20
4972.904823
30
0.0
40
0.750000
50
44.952536
51
224.952536
0
ARC
8
0
10
14774.881376
20
4970.608630
30
0.0
40
2.500000
50
135.047464
51
44.952536
0
ARC
8
0
10
14772.581376
20
4972.904823
30
0.0
40
0.750000
50
315.047464
51
135.047464
0
ARC
8
0
10
14774.881376
20
4970.608630
30
0.0
40
4.000000
50
135.047464
51
210.772325
0
ARC
8
0
10
14771.186786
20
4968.408630
30
0.0
40
0.300000
50
270.000000
51
30.772325
0
LINE
8
0
10
14771.186786
20
4968.108630
30
0.0
11
14762.281376
21
4968.108630
31
0.0
0
LINE
8
0
10
14762.281376
20
4968.108630
30
0.0
11
14762.281376
21
4988.108630
31
0.0
0
LINE
8
0
10
14762.281376
20
4988.108630
30
0.0
11
14764.081376
21
4988.108630
31
0.0
0
ARC
8
0
10
14764.081376
20
4988.408630
30
0.0
40
0.300000
50
270.000000
51
360.000000
0
LINE
8
0
10
14764.381376
20
4988.408630
30
0.0
11
14764.381376
21
4989.308630
31
0.0
0
ARC
8
0
10
14764.081376
20
4989.308630
30
0.0
40
0.300000
50
360.000000
51
90.000000
0
LINE
8
0
10
14764.081376
20
4989.608630
30
0.0
11
14761.081376
21
4989.608630
31
0.0
0
ARC
8
0
10
14761.081376
20
4989.308630
30
0.0
40
0.300000
50
90.000000
51
180.000000
0
LINE
8
0
10
14760.781376
20
4989.308630
30
0.0
11
14760.781376
21
4917.908630
31
0.0
0
ARC
8
0
10
14761.081376
20
4917.908630
30
0.0
40
0.300000
50
180.000000
51
270.000000
0
LINE
8
0
10
14761.081376
20
4917.608630
30
0.0
11
14766.681376
21
4917.608630
31
0.0
0
ARC
8
0
10
14766.681376
20
4917.908630
30
0.0
40
0.300000
50
270.000000
51
360.000000
0
LINE
8
0
10
14766.981376
20
4917.908630
30
0.0
11
14766.981376
21
4920.558630
31
0.0
0
ARC
8
0
10
14766.681376
20
4920.558630
30
0.0
40
0.300000
50
360.000000
51
90.000000
0
LINE
8
0
10
14766.681376
20
4920.858630
30
0.0
11
14766.281376
21
4920.858630
31
0.0
0
ARC
8
0
10
14766.281376
20
4920.558630
30
0.0
40
0.300000
50
90.000000
51
180.000000
0
LINE
8
0
10
14765.981376
20
4920.558630
30
0.0
11
14765.981376
21
4919.008630
31
0.0
0
LINE
8
0
10
14765.981376
20
4919.008630
30
0.0
11
14764.781376
21
4919.008630
31
0.0
0
LINE
8
0
10
14764.781376
20
4919.008630
30
0.0
11
14764.781376
21
4920.558630
31
0.0
0
ARC
8
0
10
14764.481376
20
4920.558630
30
0.0
40
0.300000
50
360.000000
51
90.000000
0
LINE
8
0
10
14764.481376
20
4920.858630
30
0.0
11
14764.081376
21
4920.858630
31
0.0
0
ARC
8
0
10
14764.081376
20
4920.558630
30
0.0
40
0.300000
50
90.000000
51
180.000000
0
LINE
8
0
10
14763.781376
20
4920.558630
30
0.0
11
14763.781376
21
4919.008630
31
0.0
0
LINE
8
0
10
14763.781376
20
4919.008630
30
0.0
11
14762.281376
21
4919.008630
31
0.0
0
LINE
8
0
10
14762.281376
20
4919.008630
30
0.0
11
14762.281376
21
4926.208630
31
0.0
0
LINE
8
0
10
14762.281376
20
4926.208630
30
0.0
11
14763.781376
21
4926.208630
31
0.0
0
LINE
8
0
10
14763.781376
20
4926.208630
30
0.0
11
14763.781376
21
4924.658630
31
0.0
0
ARC
8
0
10
14764.081376
20
4924.658630
30
0.0
40
0.300000
50
180.000000
51
270.000000
0
LINE
8
0
10
14764.081376
20
4924.358630
30
0.0
11
14764.481376
21
4924.358630
31
0.0
0
ARC
8
0
10
14764.481376
20
4924.658630
30
0.0
40
0.300000
50
270.000000
51
360.000000
0
LINE
8
0
10
14764.781376
20
4924.658630
30
0.0
11
14764.781376
21
4926.208630
31
0.0
0
LINE
8
0
10
14764.781376
20
4926.208630
30
0.0
11
14765.981376
21
4926.208630
31
0.0
0
LINE
8
0
10
14765.981376
20
4926.208630
30
0.0
11
14765.981376
21
4924.658630
31
0.0
0
ARC
8
0
10
14766.281376
20
4924.658630
30
0.0
40
0.300000
50
180.000000
51
270.000000
0
LINE
8
0
10
14766.281376
20
4924.358630
30
0.0
11
14766.681376
21
4924.358630
31
0.0
0
ARC
8
0
10
14766.681376
20
4924.658630
30
0.0
40
0.300000
50
270.000000
51
360.000000
0
LINE
8
0
10
14766.981376
20
4924.658630
30
0.0
11
14766.981376
21
4927.308630
31
0.0
0
ARC
8
0
10
14766.681376
20
4927.308630
30
0.0
40
0.300000
50
360.000000
51
90.000000
0
LINE
8
0
10
14766.681376
20
4927.608630
30
0.0
11
14762.281376
21
4927.608630
31
0.0
0
LINE
8
0
10
14762.281376
20
4927.608630
30
0.0
11
14762.281376
21
4966.608630
31
0.0
0
LINE
8
0
10
14762.281376
20
4966.608630
30
0.0
11
14787.481376
21
4966.608630
31
0.0
0
LINE
8
0
10
14787.481376
20
4966.608630
30
0.0
11
14787.481376
21
4927.608630
31
0.0
0
LINE
8
0
10
14787.481376
20
4927.608630
30
0.0
11
14783.081376
21
4927.608630
31
0.0
0
ARC
8
0
10
14783.081376
20
4927.308630
30
0.0
40
0.300000
50
90.000000
51
180.000000
0
LINE
8
0
10
14782.781376
20
4927.308630
30
0.0
11
14782.781376
21
4924.658630
31
0.0
0
ARC
8
0
10
14783.081376
20
4924.658630
30
0.0
40
0.300000
50
180.000000
51
270.000000
0
LINE
8
0
10
14783.081376
20
4924.358630
30
0.0
11
14783.481376
21
4924.358630
31
0.0
0
ARC
8
0
10
14783.481376
20
4924.658630
30
0.0
40
0.300000
50
270.000000
51
360.000000
0
LINE
8
0
10
14783.781376
20
4924.658630
30
0.0
11
14783.781376
21
4926.208630
31
0.0
0
LINE
8
0
10
14783.781376
20
4926.208630
30
0.0
11
14784.981376
21
4926.208630
31
0.0
0
ATTDEF
8
0
10
0.000000
20
0.000000
30
0.0
40
3.5
1

3

2
PANE_WIDTH:0
70
0
0
ATTDEF
8
0
10
0.000000
20
0.000000
30
0.0
40
3.5
1

3

2
MIN_VETRO:0
70
0
0
ATTDEF
8
0
10
0.000000
20
0.000000
30
0.0
40
3.5
1

3

2
MAX_VETRO:0
70
0
0
ATTDEF
8
0
10
0.000000
20
0.000000
30
0.0
40
3.5
1

3

2
JX:0
70
0
0
ATTDEF
8
0
10
0.000000
20
0.000000
30
0.0
40
3.5
1

3

2
WX:0
70
0
0
ATTDEF
8
0
10
0.000000
20
0.000000
30
0.0
40
3.5
1

3

2
JY:0
70
0
0
ATTDEF
8
0
10
0.000000
20
0.000000
30
0.0
40
3.5
1

3

2
WY:0
70
0
0
ATTDEF
8
0
10
0.000000
20
0.000000
30
0.0
40
3.5
1

3

2
DESC:H.rueda vidrio camar
70
0
0
ATTDEF
8
0
10
0.000000
20
0.000000
30
0.0
40
3.5
1

3

2
DENS:0.8613
70
0
0
ATTDEF
8
0
10
0.000000
20
0.000000
30
0.0
40
3.5
1

3

2
TDEV:43.43
70
0
0
ATTDEF
8
0
10
0.000000
20
0.000000
30
0.0
40
3.5
1

3

2
TDEV2:0
70
0
0
ATTDEF
8
0
10
0.000000
20
0.000000
30
0.0
40
3.5
1

3

2
TDEV3:0
70
0
0
ATTDEF
8
0
10
0.000000
20
0.000000
30
0.0
40
3.5
1

3

2
TDEV4:0
70
0
0
ATTDEF
8
0
10
0.000000
20
0.000000
30
0.0
40
3.5
1

3

2
TDEV5:0
70
0
0
ATTDEF
8
0
10
0.000000
20
0.000000
30
0.0
40
3.5
1

3

2
PANE_WIDTH:0
70
0
0
ATTDEF
8
0
10
0.000000
20
0.000000
30
0.0
40
3.5
1

3

2
MIN_VETRO:0
70
0
0
ATTDEF
8
0
10
0.000000
20
0.000000
30
0.0
40
3.5
1

3

2
MAX_VETRO:0
70
0
0
ATTDEF
8
0
10
0.000000
20
0.000000
30
0.0
40
3.5
1

3

2
JX:0
70
0
0
ATTDEF
8
0
10
0.000000
20
0.000000
30
0.0
40
3.5
1

3

2
WX:0
70
0
0
ATTDEF
8
0
10
0.000000
20
0.000000
30
0.0
40
3.5
1

3

2
JY:0
70
0
0
ATTDEF
8
0
10
0.000000
20
0.000000
30
0.0
40
3.5
1

3

2
WY:0
70
0
0
ATTDEF
8
0
10
14762.581376
20
4989.608630
30
0.0
40
3.5
1

3

2
VC_START
70
0
0
ATTDEF
8
0
10
14763.881376
20
4917.608630
30
0.0
40
3.5
1

3

2
VC_END
70
0
0
ATTDEF
8
0
10
14760.781376
20
4917.608630
30
0.0
40
3.5
1

3

2
FP_LCS_ORIG
70
0
0
ATTDEF
8
0
10
14770.781376
20
4917.608630
30
0.0
40
3.5
1

3

2
FP_LCS_HOT
70
0
0
ATTDEF
8
0
10
14760.781376
20
4927.608630
30
0.0
40
3.5
1

3

2
FP_LCS_INTERN
70
0
0
ENDSEC
0
EOF
