0
SECTION
2
ENTITIES
0
ARC
8
0
10
217.246578
20
3.491812
30
0.0
40
0.300000
50
149.227675
51
270.000000
0
ARC
8
0
10
213.551987
20
5.691812
30
0.0
40
4.000000
50
329.227675
51
44.952536
0
ARC
8
0
10
215.851987
20
7.988004
30
0.0
40
0.750000
50
44.952536
51
224.952536
0
ARC
8
0
10
213.551987
20
5.691812
30
0.0
40
2.500000
50
135.047464
51
44.952536
0
ARC
8
0
10
211.251987
20
7.988004
30
0.0
40
0.750000
50
315.047464
51
135.047464
0
ARC
8
0
10
213.551987
20
5.691812
30
0.0
40
4.000000
50
135.047464
51
210.772325
0
ARC
8
0
10
209.857397
20
3.491812
30
0.0
40
0.300000
50
270.000000
51
30.772325
0
LINE
8
0
10
209.857397
20
3.191812
30
0.0
11
200.951987
21
3.191812
31
0.0
0
LINE
8
0
10
200.951987
20
3.191812
30
0.0
11
200.951987
21
35.191812
31
0.0
0
LINE
8
0
10
200.951987
20
35.191812
30
0.0
11
209.857397
21
35.191812
31
0.0
0
ARC
8
0
10
209.857397
20
34.891812
30
0.0
40
0.300000
50
329.227675
51
90.000000
0
ARC
8
0
10
213.551987
20
32.691812
30
0.0
40
4.000000
50
149.227675
51
224.952536
0
ARC
8
0
10
211.251987
20
30.395619
30
0.0
40
0.750000
50
224.952536
51
44.952536
0
ARC
8
0
10
213.551987
20
32.691812
30
0.0
40
2.500000
50
315.047464
51
224.952536
0
ARC
8
0
10
215.851987
20
30.395619
30
0.0
40
0.750000
50
135.047464
51
315.047464
0
ARC
8
0
10
213.551987
20
32.691812
30
0.0
40
4.000000
50
315.047464
51
30.772325
0
ARC
8
0
10
217.246578
20
34.891812
30
0.0
40
0.300000
50
90.000000
51
210.772325
0
LINE
8
0
10
217.246578
20
35.191812
30
0.0
11
226.151987
21
35.191812
31
0.0
0
LINE
8
0
10
226.151987
20
35.191812
30
0.0
11
226.151987
21
3.191812
31
0.0
0
LINE
8
0
10
226.151987
20
3.191812
30
0.0
11
217.246578
21
3.191812
31
0.0
0
ARC
8
0
10
227.351987
20
51.391812
30
0.0
40
0.300000
50
360.000000
51
90.000000
0
LINE
8
0
10
227.351987
20
51.691812
30
0.0
11
224.351987
21
51.691812
31
0.0
0
ARC
8
0
10
224.351987
20
51.391812
30
0.0
40
0.300000
50
90.000000
51
180.000000
0
LINE
8
0
10
224.051987
20
51.391812
30
0.0
11
224.051987
21
50.491812
31
0.0
0
ARC
8
0
10
224.351987
20
50.491812
30
0.0
40
0.300000
50
180.000000
51
270.000000
0
LINE
8
0
10
224.351987
20
50.191812
30
0.0
11
226.151987
21
50.191812
31
0.0
0
LINE
8
0
10
226.151987
20
50.191812
30
0.0
11
226.151987
21
36.691812
31
0.0
0
LINE
8
0
10
226.151987
20
36.691812
30
0.0
11
200.951987
21
36.691812
31
0.0
0
LINE
8
0
10
200.951987
20
36.691812
30
0.0
11
200.951987
21
50.191812
31
0.0
0
LINE
8
0
10
200.951987
20
50.191812
30
0.0
11
202.751987
21
50.191812
31
0.0
0
ARC
8
0
10
202.751987
20
50.491812
30
0.0
40
0.300000
50
270.000000
51
360.000000
0
LINE
8
0
10
203.051987
20
50.491812
30
0.0
11
203.051987
21
51.391812
31
0.0
0
ARC
8
0
10
202.751987
20
51.391812
30
0.0
40
0.300000
50
360.000000
51
90.000000
0
LINE
8
0
10
202.751987
20
51.691812
30
0.0
11
199.751987
21
51.691812
31
0.0
0
ARC
8
0
10
199.751987
20
51.391812
30
0.0
40
0.300000
50
90.000000
51
180.000000
0
LINE
8
0
10
199.451987
20
51.391812
30
0.0
11
199.451987
21
-13.008188
31
0.0
0
ARC
8
0
10
199.751987
20
-13.008188
30
0.0
40
0.300000
50
180.000000
51
270.000000
0
LINE
8
0
10
199.751987
20
-13.308188
30
0.0
11
202.751987
21
-13.308188
31
0.0
0
ARC
8
0
10
202.751987
20
-13.008188
30
0.0
40
0.300000
50
270.000000
51
360.000000
0
LINE
8
0
10
203.051987
20
-13.008188
30
0.0
11
203.051987
21
-12.108188
31
0.0
0
ARC
8
0
10
202.751987
20
-12.108188
30
0.0
40
0.300000
50
360.000000
51
90.000000
0
LINE
8
0
10
202.751987
20
-11.808188
30
0.0
11
200.951987
21
-11.808188
31
0.0
0
LINE
8
0
10
200.951987
20
-11.808188
30
0.0
11
200.951987
21
1.691812
31
0.0
0
LINE
8
0
10
200.951987
20
1.691812
30
0.0
11
226.151987
21
1.691812
31
0.0
0
LINE
8
0
10
226.151987
20
1.691812
30
0.0
11
226.151987
21
-11.808188
31
0.0
0
LINE
8
0
10
226.151987
20
-11.808188
30
0.0
11
224.351987
21
-11.808188
31
0.0
0
ARC
8
0
10
224.351987
20
-12.108188
30
0.0
40
0.300000
50
90.000000
51
180.000000
0
LINE
8
0
10
224.051987
20
-12.108188
30
0.0
11
224.051987
21
-13.008188
31
0.0
0
ARC
8
0
10
224.351987
20
-13.008188
30
0.0
40
0.300000
50
180.000000
51
270.000000
0
LINE
8
0
10
224.351987
20
-13.308188
30
0.0
11
227.351987
21
-13.308188
31
0.0
0
ARC
8
0
10
227.351987
20
-13.008188
30
0.0
40
0.300000
50
270.000000
51
360.000000
0
LINE
8
0
10
227.651987
20
-13.008188
30
0.0
11
227.651987
21
51.391812
31
0.0
0
ATTDEF
8
0
10
0.000000
20
0.000000
30
0.0
40
3.5
1

3

2
PANE_WIDTH:0
70
0
0
ATTDEF
8
0
10
0.000000
20
0.000000
30
0.0
40
3.5
1

3

2
MIN_VETRO:0
70
0
0
ATTDEF
8
0
10
0.000000
20
0.000000
30
0.0
40
3.5
1

3

2
MAX_VETRO:0
70
0
0
ATTDEF
8
0
10
0.000000
20
0.000000
30
0.0
40
3.5
1

3

2
JX:0
70
0
0
ATTDEF
8
0
10
0.000000
20
0.000000
30
0.0
40
3.5
1

3

2
WX:0
70
0
0
ATTDEF
8
0
10
0.000000
20
0.000000
30
0.0
40
3.5
1

3

2
JY:0
70
0
0
ATTDEF
8
0
10
0.000000
20
0.000000
30
0.0
40
3.5
1

3

2
WY:0
70
0
0
ATTDEF
8
0
10
0.000000
20
0.000000
30
0.0
40
3.5
1

3

2
DESC:Divisor vidrio camar
70
0
0
ATTDEF
8
0
10
0.000000
20
0.000000
30
0.0
40
3.5
1

3

2
DENS:0.864
70
0
0
ATTDEF
8
0
10
0.000000
20
0.000000
30
0.0
40
3.5
1

3

2
TDEV:41.79
70
0
0
ATTDEF
8
0
10
0.000000
20
0.000000
30
0.0
40
3.5
1

3

2
TDEV2:0
70
0
0
ATTDEF
8
0
10
0.000000
20
0.000000
30
0.0
40
3.5
1

3

2
TDEV3:0
70
0
0
ATTDEF
8
0
10
0.000000
20
0.000000
30
0.0
40
3.5
1

3

2
TDEV4:0
70
0
0
ATTDEF
8
0
10
0.000000
20
0.000000
30
0.0
40
3.5
1

3

2
TDEV5:0
70
0
0
ATTDEF
8
0
10
0.000000
20
0.000000
30
0.0
40
3.5
1

3

2
PANE_WIDTH:0
70
0
0
ATTDEF
8
0
10
0.000000
20
0.000000
30
0.0
40
3.5
1

3

2
MIN_VETRO:0
70
0
0
ATTDEF
8
0
10
0.000000
20
0.000000
30
0.0
40
3.5
1

3

2
MAX_VETRO:0
70
0
0
ATTDEF
8
0
10
0.000000
20
0.000000
30
0.0
40
3.5
1

3

2
JX:0
70
0
0
ATTDEF
8
0
10
0.000000
20
0.000000
30
0.0
40
3.5
1

3

2
WX:0
70
0
0
ATTDEF
8
0
10
0.000000
20
0.000000
30
0.0
40
3.5
1

3

2
JY:0
70
0
0
ATTDEF
8
0
10
0.000000
20
0.000000
30
0.0
40
3.5
1

3

2
WY:0
70
0
0
ATTDEF
8
0
10
201.251987
20
51.691812
30
0.0
40
3.5
1

3

2
VC_START
70
0
0
ATTDEF
8
0
10
201.251987
20
-13.308188
30
0.0
40
3.5
1

3

2
VC_END
70
0
0
ATTDEF
8
0
10
199.451987
20
-13.308188
30
0.0
40
3.5
1

3

2
FP_LCS_ORIG
70
0
0
ATTDEF
8
0
10
209.451987
20
-13.308188
30
0.0
40
3.5
1

3

2
FP_LCS_HOT
70
0
0
ATTDEF
8
0
10
199.451987
20
-3.308188
30
0.0
40
3.5
1

3

2
FP_LCS_INTERN
70
0
0
ENDSEC
0
EOF
