0
SECTION
2
ENTITIES
0
ARC
8
0
10
293.608513
20
9.438066
30
0.0
40
0.300000
50
90.000000
51
209.772325
0
ARC
8
0
10
289.876090
20
7.302880
30
0.0
40
4.000000
50
316.467919
51
29.772325
0
ARC
8
0
10
292.232304
20
5.064408
30
0.0
40
0.750000
50
136.467919
51
316.467919
0
ARC
8
0
10
289.876090
20
7.302880
30
0.0
40
2.500000
50
316.467919
51
223.532081
0
ARC
8
0
10
287.519876
20
5.064408
30
0.0
40
0.750000
50
223.532081
51
43.532081
0
ARC
8
0
10
289.876090
20
7.302880
30
0.0
40
4.000000
50
148.227675
51
223.532081
0
ARC
8
0
10
286.220457
20
9.567025
30
0.0
40
0.300000
50
328.227675
51
90.000000
0
LINE
8
0
10
286.225693
20
9.866979
30
0.0
11
251.449912
21
10.473993
31
0.0
0
ARC
8
0
10
251.476090
20
11.973764
30
0.0
40
1.500000
50
180.000000
51
269.000000
0
LINE
8
0
10
249.976090
20
11.973764
30
0.0
11
249.976090
21
27.302880
31
0.0
0
ARC
8
0
10
246.976090
20
27.302880
30
0.0
40
3.000000
50
360.000000
51
180.000000
0
LINE
8
0
10
243.976090
20
27.302880
30
0.0
11
243.976090
21
-1.225517
31
0.0
0
LINE
8
0
10
243.976090
20
-1.225517
30
0.0
11
299.639180
21
-2.197120
31
0.0
0
LINE
8
0
10
299.639180
20
-2.197120
30
0.0
11
308.426090
21
-2.197120
31
0.0
0
LINE
8
0
10
308.426090
20
-2.197120
30
0.0
11
308.426090
21
8.496772
31
0.0
0
ARC
8
0
10
307.426090
20
8.496772
30
0.0
40
1.000000
50
360.000000
51
89.000000
0
LINE
8
0
10
307.443543
20
9.496620
30
0.0
11
293.613749
21
9.738020
31
0.0
0
LINE
8
0
10
185.526090
20
11.624697
30
0.0
11
185.526090
21
-0.205268
31
0.0
0
LINE
8
0
10
185.526090
20
-0.205268
30
0.0
11
242.476090
21
-1.199334
31
0.0
0
LINE
8
0
10
242.476090
20
-1.199334
30
0.0
11
242.476090
21
10.630631
31
0.0
0
LINE
8
0
10
242.476090
20
10.630631
30
0.0
11
206.340768
21
11.261376
31
0.0
0
ARC
8
0
10
206.335532
20
10.961421
30
0.0
40
0.300000
50
90.000000
51
238.301350
0
ARC
8
0
10
204.076090
20
7.302880
30
0.0
40
4.000000
50
316.467919
51
58.301349
0
ARC
8
0
10
206.432304
20
5.064408
30
0.0
40
0.750000
50
136.467919
51
316.467919
0
ARC
8
0
10
204.076090
20
7.302880
30
0.0
40
2.500000
50
316.467919
51
223.532081
0
ARC
8
0
10
201.719876
20
5.064408
30
0.0
40
0.750000
50
223.532081
51
43.532081
0
ARC
8
0
10
204.076090
20
7.302880
30
0.0
40
4.000000
50
119.698651
51
223.532081
0
ARC
8
0
10
201.945706
20
11.038046
30
0.0
40
0.300000
50
299.698651
51
90.000000
0
LINE
8
0
10
201.950942
20
11.338000
30
0.0
11
185.526090
21
11.624697
31
0.0
0
LINE
8
0
10
196.026090
20
-3.697120
30
0.0
11
196.026090
21
-1.888775
31
0.0
0
LINE
8
0
10
196.026090
20
-1.888775
30
0.0
11
185.526090
21
-1.705497
31
0.0
0
LINE
8
0
10
185.526090
20
-1.705497
30
0.0
11
185.526090
21
-7.197120
31
0.0
0
LINE
8
0
10
185.526090
20
-7.197120
30
0.0
11
186.776090
21
-7.197120
31
0.0
0
ARC
8
0
10
186.776090
20
-7.947120
30
0.0
40
0.750000
50
270.000000
51
90.000000
0
LINE
8
0
10
186.776090
20
-8.697120
30
0.0
11
184.326090
21
-8.697120
31
0.0
0
ARC
8
0
10
184.326090
20
-8.397120
30
0.0
40
0.300000
50
180.000000
51
270.000000
0
LINE
8
0
10
184.026090
20
-8.397120
30
0.0
11
184.026090
21
31.552880
31
0.0
0
ARC
8
0
10
184.776090
20
31.552880
30
0.0
40
0.750000
50
360.000000
51
180.000000
0
LINE
8
0
10
185.526090
20
31.552880
30
0.0
11
185.526090
21
13.124926
31
0.0
0
LINE
8
0
10
185.526090
20
13.124926
30
0.0
11
204.023733
21
12.802048
31
0.0
0
ARC
8
0
10
204.076090
20
15.801591
30
0.0
40
3.000000
50
269.000000
51
360.000000
0
LINE
8
0
10
207.076090
20
15.801591
30
0.0
11
207.076090
21
27.302880
31
0.0
0
ARC
8
0
10
204.076090
20
27.302880
30
0.0
40
3.000000
50
360.000000
51
180.000000
0
LINE
8
0
10
201.076090
20
27.302880
30
0.0
11
201.076090
21
21.650278
31
0.0
0
ARC
8
0
10
200.576090
20
21.650278
30
0.0
40
0.500000
50
270.000000
51
360.000000
0
LINE
8
0
10
200.576090
20
21.150278
30
0.0
11
199.576090
21
21.150278
31
0.0
0
ARC
8
0
10
199.576090
20
21.650278
30
0.0
40
0.500000
50
180.000000
51
270.000000
0
LINE
8
0
10
199.076090
20
21.650278
30
0.0
11
199.076090
21
27.302880
31
0.0
0
ARC
8
0
10
204.076090
20
27.302880
30
0.0
40
5.000000
50
360.000000
51
180.000000
0
LINE
8
0
10
209.076090
20
27.302880
30
0.0
11
209.076090
21
12.713859
31
0.0
0
LINE
8
0
10
209.076090
20
12.713859
30
0.0
11
241.976090
21
12.139587
31
0.0
0
LINE
8
0
10
241.976090
20
12.139587
30
0.0
11
241.976090
21
27.302880
31
0.0
0
ARC
8
0
10
246.976090
20
27.302880
30
0.0
40
5.000000
50
360.000000
51
180.000000
0
LINE
8
0
10
251.976090
20
27.302880
30
0.0
11
251.976090
21
11.965037
31
0.0
0
LINE
8
0
10
251.976090
20
11.965037
30
0.0
11
284.876090
21
11.390765
31
0.0
0
LINE
8
0
10
284.876090
20
11.390765
30
0.0
11
284.876090
21
27.302880
31
0.0
0
ARC
8
0
10
289.876090
20
27.302880
30
0.0
40
5.000000
50
360.000000
51
180.000000
0
LINE
8
0
10
294.876090
20
27.302880
30
0.0
11
294.876090
21
21.650278
31
0.0
0
ARC
8
0
10
294.376090
20
21.650278
30
0.0
40
0.500000
50
270.000000
51
360.000000
0
LINE
8
0
10
294.376090
20
21.150278
30
0.0
11
293.376090
21
21.150278
31
0.0
0
ARC
8
0
10
293.376090
20
21.650278
30
0.0
40
0.500000
50
180.000000
51
270.000000
0
LINE
8
0
10
292.876090
20
21.650278
30
0.0
11
292.876090
21
27.302880
31
0.0
0
ARC
8
0
10
289.876090
20
27.302880
30
0.0
40
3.000000
50
360.000000
51
180.000000
0
LINE
8
0
10
286.876090
20
27.302880
30
0.0
11
286.876090
21
14.303947
31
0.0
0
ARC
8
0
10
289.876090
20
14.303947
30
0.0
40
3.000000
50
180.000000
51
269.000000
0
LINE
8
0
10
289.823733
20
11.304404
30
0.0
11
307.469721
21
10.996392
31
0.0
0
ARC
8
0
10
307.426090
20
8.496772
30
0.0
40
2.500000
50
360.000000
51
89.000000
0
LINE
8
0
10
309.926090
20
8.496772
30
0.0
11
309.926090
21
-8.397120
31
0.0
0
ARC
8
0
10
309.626090
20
-8.397120
30
0.0
40
0.300000
50
270.000000
51
360.000000
0
LINE
8
0
10
309.626090
20
-8.697120
30
0.0
11
307.176090
21
-8.697120
31
0.0
0
ARC
8
0
10
307.176090
20
-7.947120
30
0.0
40
0.750000
50
90.000000
51
270.000000
0
LINE
8
0
10
307.176090
20
-7.197120
30
0.0
11
308.426090
21
-7.197120
31
0.0
0
LINE
8
0
10
308.426090
20
-7.197120
30
0.0
11
308.426090
21
-3.697120
31
0.0
0
LINE
8
0
10
308.426090
20
-3.697120
30
0.0
11
299.626090
21
-3.697120
31
0.0
0
LINE
8
0
10
299.626090
20
-3.697120
30
0.0
11
197.526090
21
-1.914957
31
0.0
0
LINE
8
0
10
197.526090
20
-1.914957
30
0.0
11
197.526090
21
-3.697120
31
0.0
0
LINE
8
0
10
197.526090
20
-3.697120
30
0.0
11
196.026090
21
-3.697120
31
0.0
0
ATTDEF
8
0
10
0.000000
20
0.000000
30
0.0
40
3.5
1

3

2
PANE_WIDTH:0
70
0
0
ATTDEF
8
0
10
0.000000
20
0.000000
30
0.0
40
3.5
1

3

2
MIN_VETRO:0
70
0
0
ATTDEF
8
0
10
0.000000
20
0.000000
30
0.0
40
3.5
1

3

2
MAX_VETRO:0
70
0
0
ATTDEF
8
0
10
0.000000
20
0.000000
30
0.0
40
3.5
1

3

2
JX:0
70
0
0
ATTDEF
8
0
10
0.000000
20
0.000000
30
0.0
40
3.5
1

3

2
WX:0
70
0
0
ATTDEF
8
0
10
0.000000
20
0.000000
30
0.0
40
3.5
1

3

2
JY:0
70
0
0
ATTDEF
8
0
10
0.000000
20
0.000000
30
0.0
40
3.5
1

3

2
WY:0
70
0
0
ATTDEF
8
0
10
0.000000
20
0.000000
30
0.0
40
3.5
1

3

2
DESC:Marco inf.tricarril
70
0
0
ATTDEF
8
0
10
0.000000
20
0.000000
30
0.0
40
3.5
1

3

2
DENS:2.0088
70
0
0
ATTDEF
8
0
10
0.000000
20
0.000000
30
0.0
40
3.5
1

3

2
TDEV:89.51
70
0
0
ATTDEF
8
0
10
0.000000
20
0.000000
30
0.0
40
3.5
1

3

2
TDEV2:0
70
0
0
ATTDEF
8
0
10
0.000000
20
0.000000
30
0.0
40
3.5
1

3

2
TDEV3:0
70
0
0
ATTDEF
8
0
10
0.000000
20
0.000000
30
0.0
40
3.5
1

3

2
TDEV4:0
70
0
0
ATTDEF
8
0
10
0.000000
20
0.000000
30
0.0
40
3.5
1

3

2
TDEV5:0
70
0
0
ATTDEF
8
0
10
0.000000
20
0.000000
30
0.0
40
3.5
1

3

2
PANE_WIDTH:0
70
0
0
ATTDEF
8
0
10
0.000000
20
0.000000
30
0.0
40
3.5
1

3

2
MIN_VETRO:0
70
0
0
ATTDEF
8
0
10
0.000000
20
0.000000
30
0.0
40
3.5
1

3

2
MAX_VETRO:0
70
0
0
ATTDEF
8
0
10
0.000000
20
0.000000
30
0.0
40
3.5
1

3

2
JX:0
70
0
0
ATTDEF
8
0
10
0.000000
20
0.000000
30
0.0
40
3.5
1

3

2
WX:0
70
0
0
ATTDEF
8
0
10
0.000000
20
0.000000
30
0.0
40
3.5
1

3

2
JY:0
70
0
0
ATTDEF
8
0
10
0.000000
20
0.000000
30
0.0
40
3.5
1

3

2
WY:0
70
0
0
ATTDEF
8
0
10
185.526090
20
13.124926
30
0.0
40
3.5
1

3

2
VC_START
70
0
0
ATTDEF
8
0
10
308.401090
20
-8.697120
30
0.0
40
3.5
1

3

2
VC_END
70
0
0
ATTDEF
8
0
10
309.926090
20
-8.697120
30
0.0
40
3.5
1

3

2
FP_LCS_ORIG
70
0
0
ATTDEF
8
0
10
299.926090
20
-8.697120
30
0.0
40
3.5
1

3

2
FP_LCS_HOT
70
0
0
ATTDEF
8
0
10
309.926090
20
1.302880
30
0.0
40
3.5
1

3

2
FP_LCS_INTERN
70
0
0
ENDSEC
0
EOF
