0
SECTION
2
ENTITIES
0
LINE
8
0
10
15257.601414
20
5375.399916
30
0.0
11
15257.601414
21
5371.899916
31
0.0
0
LINE
8
0
10
15257.601414
20
5371.899916
30
0.0
11
15254.651414
21
5371.899916
31
0.0
0
ARC
8
0
10
15254.651414
20
5371.149916
30
0.0
40
0.750000
50
90.000000
51
270.000000
0
LINE
8
0
10
15254.651414
20
5370.399916
30
0.0
11
15258.801414
21
5370.399916
31
0.0
0
ARC
8
0
10
15258.801414
20
5370.699916
30
0.0
40
0.300000
50
270.000000
51
360.000000
0
LINE
8
0
10
15259.101414
20
5370.699916
30
0.0
11
15259.101414
21
5404.649916
31
0.0
0
ARC
8
0
10
15258.351414
20
5404.649916
30
0.0
40
0.750000
50
360.000000
51
180.000000
0
LINE
8
0
10
15257.601414
20
5404.649916
30
0.0
11
15257.601414
21
5390.499916
31
0.0
0
LINE
8
0
10
15257.601414
20
5390.499916
30
0.0
11
15213.501414
21
5390.499916
31
0.0
0
LINE
8
0
10
15213.501414
20
5390.499916
30
0.0
11
15214.001414
21
5390.999916
31
0.0
0
LINE
8
0
10
15214.001414
20
5390.999916
30
0.0
11
15214.001414
21
5404.649916
31
0.0
0
ARC
8
0
10
15213.251414
20
5404.649916
30
0.0
40
0.750000
50
360.000000
51
180.000000
0
LINE
8
0
10
15212.501414
20
5404.649916
30
0.0
11
15212.501414
21
5390.499916
31
0.0
0
LINE
8
0
10
15212.501414
20
5390.499916
30
0.0
11
15203.201414
21
5390.499916
31
0.0
0
LINE
8
0
10
15203.201414
20
5390.499916
30
0.0
11
15203.701414
21
5390.999916
31
0.0
0
LINE
8
0
10
15203.701414
20
5390.999916
30
0.0
11
15203.701414
21
5398.469314
31
0.0
0
ARC
8
0
10
15201.701414
20
5398.469314
30
0.0
40
2.000000
50
360.000000
51
7.004726
0
LINE
8
0
10
15203.686486
20
5398.713217
30
0.0
11
15202.945816
21
5404.741380
31
0.0
0
ARC
8
0
10
15202.201414
20
5404.649916
30
0.0
40
0.750000
50
7.004726
51
187.004726
0
LINE
8
0
10
15201.457012
20
5404.558453
30
0.0
11
15202.201414
21
5398.499916
31
0.0
0
LINE
8
0
10
15202.201414
20
5398.499916
30
0.0
11
15200.951414
21
5398.499916
31
0.0
0
LINE
8
0
10
15200.951414
20
5398.499916
30
0.0
11
15200.951414
21
5396.999916
31
0.0
0
LINE
8
0
10
15200.951414
20
5396.999916
30
0.0
11
15202.201414
21
5396.999916
31
0.0
0
LINE
8
0
10
15202.201414
20
5396.999916
30
0.0
11
15202.201414
21
5390.499916
31
0.0
0
LINE
8
0
10
15202.201414
20
5390.499916
30
0.0
11
15194.951414
21
5390.499916
31
0.0
0
LINE
8
0
10
15194.951414
20
5390.499916
30
0.0
11
15194.451414
21
5389.999916
31
0.0
0
LINE
8
0
10
15194.451414
20
5389.999916
30
0.0
11
15193.951414
21
5390.499916
31
0.0
0
LINE
8
0
10
15193.951414
20
5390.499916
30
0.0
11
15186.201414
21
5390.499916
31
0.0
0
LINE
8
0
10
15186.201414
20
5390.499916
30
0.0
11
15186.701414
21
5390.999916
31
0.0
0
LINE
8
0
10
15186.701414
20
5390.999916
30
0.0
11
15186.701414
21
5396.999916
31
0.0
0
LINE
8
0
10
15186.701414
20
5396.999916
30
0.0
11
15187.951414
21
5396.999916
31
0.0
0
LINE
8
0
10
15187.951414
20
5396.999916
30
0.0
11
15187.951414
21
5398.499916
31
0.0
0
LINE
8
0
10
15187.951414
20
5398.499916
30
0.0
11
15186.701414
21
5398.499916
31
0.0
0
LINE
8
0
10
15186.701414
20
5398.499916
30
0.0
11
15187.445816
21
5404.558453
31
0.0
0
ARC
8
0
10
15186.701414
20
5404.649916
30
0.0
40
0.750000
50
352.995274
51
172.995274
0
LINE
8
0
10
15185.957012
20
5404.741380
30
0.0
11
15185.216342
21
5398.713217
31
0.0
0
ARC
8
0
10
15187.201414
20
5398.469314
30
0.0
40
2.000000
50
172.995274
51
180.000000
0
LINE
8
0
10
15185.201414
20
5398.469314
30
0.0
11
15185.201414
21
5390.499916
31
0.0
0
LINE
8
0
10
15185.201414
20
5390.499916
30
0.0
11
15174.201414
21
5390.499916
31
0.0
0
LINE
8
0
10
15174.201414
20
5390.499916
30
0.0
11
15174.201414
21
5404.649916
31
0.0
0
ARC
8
0
10
15173.451414
20
5404.649916
30
0.0
40
0.750000
50
360.000000
51
180.000000
0
LINE
8
0
10
15172.701414
20
5404.649916
30
0.0
11
15172.701414
21
5370.699916
31
0.0
0
ARC
8
0
10
15173.001414
20
5370.699916
30
0.0
40
0.300000
50
180.000000
51
270.000000
0
LINE
8
0
10
15173.001414
20
5370.399916
30
0.0
11
15177.151414
21
5370.399916
31
0.0
0
ARC
8
0
10
15177.151414
20
5371.149916
30
0.0
40
0.750000
50
270.000000
51
90.000000
0
LINE
8
0
10
15177.151414
20
5371.899916
30
0.0
11
15174.201414
21
5371.899916
31
0.0
0
LINE
8
0
10
15174.201414
20
5371.899916
30
0.0
11
15174.201414
21
5375.399916
31
0.0
0
LINE
8
0
10
15174.201414
20
5375.399916
30
0.0
11
15187.151414
21
5375.399916
31
0.0
0
ARC
8
0
10
15187.151414
20
5376.149916
30
0.0
40
0.750000
50
270.000000
51
90.000000
0
LINE
8
0
10
15187.151414
20
5376.899916
30
0.0
11
15174.201414
21
5376.899916
31
0.0
0
LINE
8
0
10
15174.201414
20
5376.899916
30
0.0
11
15174.201414
21
5388.999916
31
0.0
0
LINE
8
0
10
15174.201414
20
5388.999916
30
0.0
11
15257.601414
21
5388.999916
31
0.0
0
LINE
8
0
10
15257.601414
20
5388.999916
30
0.0
11
15257.601414
21
5376.899916
31
0.0
0
LINE
8
0
10
15257.601414
20
5376.899916
30
0.0
11
15244.651414
21
5376.899916
31
0.0
0
ARC
8
0
10
15244.651414
20
5376.149916
30
0.0
40
0.750000
50
90.000000
51
270.000000
0
LINE
8
0
10
15244.651414
20
5375.399916
30
0.0
11
15257.601414
21
5375.399916
31
0.0
0
ATTDEF
8
0
10
0.000000
20
0.000000
30
0.0
40
3.5
1

3

2
PANE_WIDTH:0
70
0
0
ATTDEF
8
0
10
0.000000
20
0.000000
30
0.0
40
3.5
1

3

2
MIN_VETRO:0
70
0
0
ATTDEF
8
0
10
0.000000
20
0.000000
30
0.0
40
3.5
1

3

2
MAX_VETRO:0
70
0
0
ATTDEF
8
0
10
0.000000
20
0.000000
30
0.0
40
3.5
1

3

2
JX:0
70
0
0
ATTDEF
8
0
10
0.000000
20
0.000000
30
0.0
40
3.5
1

3

2
WX:0
70
0
0
ATTDEF
8
0
10
0.000000
20
0.000000
30
0.0
40
3.5
1

3

2
JY:0
70
0
0
ATTDEF
8
0
10
0.000000
20
0.000000
30
0.0
40
3.5
1

3

2
WY:0
70
0
0
ATTDEF
8
0
10
0.000000
20
0.000000
30
0.0
40
3.5
1

3

2
DESC:Marco lateral
70
0
0
ATTDEF
8
0
10
0.000000
20
0.000000
30
0.0
40
3.5
1

3

2
DENS:0.945
70
0
0
ATTDEF
8
0
10
0.000000
20
0.000000
30
0.0
40
3.5
1

3

2
TDEV:47.05
70
0
0
ATTDEF
8
0
10
0.000000
20
0.000000
30
0.0
40
3.5
1

3

2
TDEV2:0
70
0
0
ATTDEF
8
0
10
0.000000
20
0.000000
30
0.0
40
3.5
1

3

2
TDEV3:0
70
0
0
ATTDEF
8
0
10
0.000000
20
0.000000
30
0.0
40
3.5
1

3

2
TDEV4:0
70
0
0
ATTDEF
8
0
10
0.000000
20
0.000000
30
0.0
40
3.5
1

3

2
TDEV5:0
70
0
0
ATTDEF
8
0
10
0.000000
20
0.000000
30
0.0
40
3.5
1

3

2
PANE_WIDTH:0
70
0
0
ATTDEF
8
0
10
0.000000
20
0.000000
30
0.0
40
3.5
1

3

2
MIN_VETRO:0
70
0
0
ATTDEF
8
0
10
0.000000
20
0.000000
30
0.0
40
3.5
1

3

2
MAX_VETRO:0
70
0
0
ATTDEF
8
0
10
0.000000
20
0.000000
30
0.0
40
3.5
1

3

2
JX:0
70
0
0
ATTDEF
8
0
10
0.000000
20
0.000000
30
0.0
40
3.5
1

3

2
WX:0
70
0
0
ATTDEF
8
0
10
0.000000
20
0.000000
30
0.0
40
3.5
1

3

2
JY:0
70
0
0
ATTDEF
8
0
10
0.000000
20
0.000000
30
0.0
40
3.5
1

3

2
WY:0
70
0
0
ATTDEF
8
0
10
15257.601414
20
5390.499916
30
0.0
40
3.5
1

3

2
VC_START
70
0
0
ATTDEF
8
0
10
15256.726414
20
5370.399916
30
0.0
40
3.5
1

3

2
VC_END
70
0
0
ATTDEF
8
0
10
15259.101414
20
5370.399916
30
0.0
40
3.5
1

3

2
FP_LCS_ORIG
70
0
0
ATTDEF
8
0
10
15249.101414
20
5370.399916
30
0.0
40
3.5
1

3

2
FP_LCS_HOT
70
0
0
ATTDEF
8
0
10
15259.101414
20
5380.399916
30
0.0
40
3.5
1

3

2
FP_LCS_INTERN
70
0
0
ENDSEC
0
EOF
