0
SECTION
2
ENTITIES
0
LINE
8
0
10
3016.846918
20
1227.817176
30
0.0
11
3016.846918
21
1225.862520
31
0.0
0
LINE
8
0
10
3016.846918
20
1225.862520
30
0.0
11
3021.896918
21
1224.509376
31
0.0
0
LINE
8
0
10
3021.896918
20
1224.509376
30
0.0
11
3031.246918
21
1227.014701
31
0.0
0
LINE
8
0
10
3031.246918
20
1227.014701
30
0.0
11
3031.246918
21
1229.317176
31
0.0
0
LINE
8
0
10
3031.246918
20
1229.317176
30
0.0
11
3043.246918
21
1229.317176
31
0.0
0
LINE
8
0
10
3043.246918
20
1229.317176
30
0.0
11
3043.246918
21
1254.717176
31
0.0
0
LINE
8
0
10
3043.246918
20
1254.717176
30
0.0
11
3016.846918
21
1254.717176
31
0.0
0
LINE
8
0
10
3016.846918
20
1254.717176
30
0.0
11
3016.846918
21
1229.317176
31
0.0
0
LINE
8
0
10
3016.846918
20
1229.317176
30
0.0
11
3018.146918
21
1229.317176
31
0.0
0
LINE
8
0
10
3018.146918
20
1229.317176
30
0.0
11
3018.146918
21
1227.817176
31
0.0
0
LINE
8
0
10
3018.146918
20
1227.817176
30
0.0
11
3016.846918
21
1227.817176
31
0.0
0
LINE
8
0
10
3011.246918
20
1230.017176
30
0.0
11
3012.546918
21
1230.017176
31
0.0
0
LINE
8
0
10
3012.546918
20
1230.017176
30
0.0
11
3012.546918
21
1227.317176
31
0.0
0
LINE
8
0
10
3012.546918
20
1227.317176
30
0.0
11
3015.546918
21
1227.317176
31
0.0
0
LINE
8
0
10
3015.546918
20
1227.317176
30
0.0
11
3015.546918
21
1247.717176
31
0.0
0
LINE
8
0
10
3015.546918
20
1247.717176
30
0.0
11
3012.546918
21
1247.717176
31
0.0
0
LINE
8
0
10
3012.546918
20
1247.717176
30
0.0
11
3012.546918
21
1245.017176
31
0.0
0
LINE
8
0
10
3012.546918
20
1245.017176
30
0.0
11
3011.246918
21
1245.017176
31
0.0
0
LINE
8
0
10
3011.246918
20
1245.017176
30
0.0
11
3011.246918
21
1249.017176
31
0.0
0
LINE
8
0
10
3011.246918
20
1249.017176
30
0.0
11
3015.546918
21
1249.017176
31
0.0
0
LINE
8
0
10
3015.546918
20
1249.017176
30
0.0
11
3015.546918
21
1254.717176
31
0.0
0
LINE
8
0
10
3015.546918
20
1254.717176
30
0.0
11
3003.546918
21
1254.717176
31
0.0
0
LINE
8
0
10
3003.546918
20
1254.717176
30
0.0
11
3003.546918
21
1253.017176
31
0.0
0
ARC
8
0
10
3003.046918
20
1253.017176
30
0.0
40
0.500000
50
270.000000
51
360.000000
0
LINE
8
0
10
3003.046918
20
1252.517176
30
0.0
11
3002.346918
21
1252.517176
31
0.0
0
LINE
8
0
10
3002.346918
20
1252.517176
30
0.0
11
3001.046918
21
1253.017176
31
0.0
0
LINE
8
0
10
3001.046918
20
1253.017176
30
0.0
11
3001.046918
21
1253.517176
31
0.0
0
LINE
8
0
10
3001.046918
20
1253.517176
30
0.0
11
3002.346918
21
1253.517176
31
0.0
0
LINE
8
0
10
3002.346918
20
1253.517176
30
0.0
11
3002.346918
21
1254.817176
31
0.0
0
LINE
8
0
10
3002.346918
20
1254.817176
30
0.0
11
2996.246918
21
1254.817176
31
0.0
0
LINE
8
0
10
2996.246918
20
1254.817176
30
0.0
11
2996.246918
21
1253.517176
31
0.0
0
LINE
8
0
10
2996.246918
20
1253.517176
30
0.0
11
2997.546918
21
1253.517176
31
0.0
0
LINE
8
0
10
2997.546918
20
1253.517176
30
0.0
11
2997.546918
21
1253.017176
31
0.0
0
LINE
8
0
10
2997.546918
20
1253.017176
30
0.0
11
2996.246918
21
1252.517176
31
0.0
0
LINE
8
0
10
2996.246918
20
1252.517176
30
0.0
11
2995.546918
21
1252.517176
31
0.0
0
ARC
8
0
10
2995.546918
20
1253.017176
30
0.0
40
0.500000
50
180.000000
51
270.000000
0
LINE
8
0
10
2995.046918
20
1253.017176
30
0.0
11
2995.046918
21
1255.517176
31
0.0
0
ARC
8
0
10
2995.546918
20
1255.517176
30
0.0
40
0.500000
50
90.000000
51
180.000000
0
LINE
8
0
10
2995.546918
20
1256.017176
30
0.0
11
3048.546918
21
1256.017176
31
0.0
0
ARC
8
0
10
3048.546918
20
1255.517176
30
0.0
40
0.500000
50
360.000000
51
90.000000
0
LINE
8
0
10
3049.046918
20
1255.517176
30
0.0
11
3049.046918
21
1249.217176
31
0.0
0
LINE
8
0
10
3049.046918
20
1249.217176
30
0.0
11
3047.746918
21
1249.217176
31
0.0
0
LINE
8
0
10
3047.746918
20
1249.217176
30
0.0
11
3047.746918
21
1254.717176
31
0.0
0
LINE
8
0
10
3047.746918
20
1254.717176
30
0.0
11
3044.546918
21
1254.717176
31
0.0
0
LINE
8
0
10
3044.546918
20
1254.717176
30
0.0
11
3044.546918
21
1228.017176
31
0.0
0
LINE
8
0
10
3044.546918
20
1228.017176
30
0.0
11
3032.546918
21
1228.017176
31
0.0
0
LINE
8
0
10
3032.546918
20
1228.017176
30
0.0
11
3032.546918
21
1226.017176
31
0.0
0
LINE
8
0
10
3032.546918
20
1226.017176
30
0.0
11
3022.546918
21
1223.337684
31
0.0
0
LINE
8
0
10
3022.546918
20
1223.337684
30
0.0
11
3022.546918
21
1211.817684
31
0.0
0
LINE
8
0
10
3022.546918
20
1211.817684
30
0.0
11
3027.246918
21
1211.817684
31
0.0
0
ARC
8
0
10
3027.246918
20
1211.167684
30
0.0
40
0.650000
50
270.000000
51
90.000000
0
LINE
8
0
10
3027.246918
20
1210.517684
30
0.0
11
3016.546918
21
1210.517684
31
0.0
0
ARC
8
0
10
3016.546918
20
1211.167684
30
0.0
40
0.650000
50
90.000000
51
270.000000
0
LINE
8
0
10
3016.546918
20
1211.817684
30
0.0
11
3021.246918
21
1211.817684
31
0.0
0
LINE
8
0
10
3021.246918
20
1211.817684
30
0.0
11
3021.246918
21
1223.337684
31
0.0
0
LINE
8
0
10
3021.246918
20
1223.337684
30
0.0
11
3011.246918
21
1226.017176
31
0.0
0
LINE
8
0
10
3011.246918
20
1226.017176
30
0.0
11
3011.246918
21
1230.017176
31
0.0
0
ATTDEF
8
0
10
0.000000
20
0.000000
30
0.0
40
3.5
1

3

2
PANE_WIDTH:0
70
0
0
ATTDEF
8
0
10
0.000000
20
0.000000
30
0.0
40
3.5
1

3

2
MIN_VETRO:0
70
0
0
ATTDEF
8
0
10
0.000000
20
0.000000
30
0.0
40
3.5
1

3

2
MAX_VETRO:0
70
0
0
ATTDEF
8
0
10
0.000000
20
0.000000
30
0.0
40
3.5
1

3

2
JX:0
70
0
0
ATTDEF
8
0
10
0.000000
20
0.000000
30
0.0
40
3.5
1

3

2
WX:0
70
0
0
ATTDEF
8
0
10
0.000000
20
0.000000
30
0.0
40
3.5
1

3

2
JY:0
70
0
0
ATTDEF
8
0
10
0.000000
20
0.000000
30
0.0
40
3.5
1

3

2
WY:0
70
0
0
ATTDEF
8
0
10
0.000000
20
0.000000
30
0.0
40
3.5
1

3

2
DESC:Inversor apert.pivotante
70
0
0
ATTDEF
8
0
10
0.000000
20
0.000000
30
0.0
40
3.5
1

3

2
DENS:0.6696
70
0
0
ATTDEF
8
0
10
0.000000
20
0.000000
30
0.0
40
3.5
1

3

2
TDEV:37.87
70
0
0
ATTDEF
8
0
10
0.000000
20
0.000000
30
0.0
40
3.5
1

3

2
TDEV2:0
70
0
0
ATTDEF
8
0
10
0.000000
20
0.000000
30
0.0
40
3.5
1

3

2
TDEV3:0
70
0
0
ATTDEF
8
0
10
0.000000
20
0.000000
30
0.0
40
3.5
1

3

2
TDEV4:0
70
0
0
ATTDEF
8
0
10
0.000000
20
0.000000
30
0.0
40
3.5
1

3

2
TDEV5:0
70
0
0
ATTDEF
8
0
10
0.000000
20
0.000000
30
0.0
40
3.5
1

3

2
PANE_WIDTH:0
70
0
0
ATTDEF
8
0
10
0.000000
20
0.000000
30
0.0
40
3.5
1

3

2
MIN_VETRO:0
70
0
0
ATTDEF
8
0
10
0.000000
20
0.000000
30
0.0
40
3.5
1

3

2
MAX_VETRO:0
70
0
0
ATTDEF
8
0
10
0.000000
20
0.000000
30
0.0
40
3.5
1

3

2
JX:0
70
0
0
ATTDEF
8
0
10
0.000000
20
0.000000
30
0.0
40
3.5
1

3

2
WX:0
70
0
0
ATTDEF
8
0
10
0.000000
20
0.000000
30
0.0
40
3.5
1

3

2
JY:0
70
0
0
ATTDEF
8
0
10
0.000000
20
0.000000
30
0.0
40
3.5
1

3

2
WY:0
70
0
0
ATTDEF
8
0
10
3011.246918
20
1226.017176
30
0.0
40
3.5
1

3

2
HC_START
70
0
0
ATTDEF
8
0
10
3049.046918
20
1252.367176
30
0.0
40
3.5
1

3

2
HC_END
70
0
0
ATTDEF
8
0
10
3049.046918
20
1256.017176
30
0.0
40
3.5
1

3

2
FP_LCS_ORIG
70
0
0
ATTDEF
8
0
10
3049.046918
20
1246.017176
30
0.0
40
3.5
1

3

2
FP_LCS_HOT
70
0
0
ATTDEF
8
0
10
3039.046918
20
1256.017176
30
0.0
40
3.5
1

3

2
FP_LCS_INTERN
70
0
0
ENDSEC
0
EOF
