0
SECTION
2
ENTITIES
0
LINE
8
0
10
3016.945099
20
1245.942678
30
0.0
11
3016.989492
21
1245.777004
31
0.0
0
LINE
8
0
10
3016.989492
20
1245.777004
30
0.0
11
3020.721542
21
1245.777004
31
0.0
0
LINE
8
0
10
3020.721542
20
1245.777004
30
0.0
11
3020.721542
21
1242.277004
31
0.0
0
ARC
8
0
10
3020.721542
20
1241.777004
30
0.0
40
0.500000
50
90.000000
51
180.000000
0
LINE
8
0
10
3020.221542
20
1241.777004
30
0.0
11
3020.221542
21
1241.277004
31
0.0
0
ARC
8
0
10
3020.721542
20
1241.277004
30
0.0
40
0.500000
50
180.000000
51
270.000000
0
LINE
8
0
10
3020.721542
20
1240.777004
30
0.0
11
3024.721542
21
1240.777004
31
0.0
0
LINE
8
0
10
3024.721542
20
1240.777004
30
0.0
11
3024.721542
21
1242.277004
31
0.0
0
LINE
8
0
10
3024.721542
20
1242.277004
30
0.0
11
3022.221542
21
1242.277004
31
0.0
0
LINE
8
0
10
3022.221542
20
1242.277004
30
0.0
11
3022.221542
21
1245.277004
31
0.0
0
LINE
8
0
10
3022.221542
20
1245.277004
30
0.0
11
3024.721542
21
1245.277004
31
0.0
0
LINE
8
0
10
3024.721542
20
1245.277004
30
0.0
11
3024.721542
21
1247.777004
31
0.0
0
LINE
8
0
10
3024.721542
20
1247.777004
30
0.0
11
3039.721542
21
1247.777004
31
0.0
0
LINE
8
0
10
3039.721542
20
1247.777004
30
0.0
11
3039.721542
21
1245.277004
31
0.0
0
LINE
8
0
10
3039.721542
20
1245.277004
30
0.0
11
3042.221542
21
1245.277004
31
0.0
0
LINE
8
0
10
3042.221542
20
1245.277004
30
0.0
11
3042.221542
21
1242.277004
31
0.0
0
LINE
8
0
10
3042.221542
20
1242.277004
30
0.0
11
3039.721542
21
1242.277004
31
0.0
0
LINE
8
0
10
3039.721542
20
1242.277004
30
0.0
11
3039.721542
21
1240.777004
31
0.0
0
LINE
8
0
10
3039.721542
20
1240.777004
30
0.0
11
3043.921542
21
1240.777004
31
0.0
0
LINE
8
0
10
3043.921542
20
1240.777004
30
0.0
11
3045.797187
21
1247.777004
31
0.0
0
LINE
8
0
10
3045.797187
20
1247.777004
30
0.0
11
3059.521542
21
1247.777004
31
0.0
0
LINE
8
0
10
3059.521542
20
1247.777004
30
0.0
11
3059.521542
21
1246.377004
31
0.0
0
ARC
8
0
10
3060.121542
20
1246.377004
30
0.0
40
0.600000
50
180.000000
51
360.000000
0
LINE
8
0
10
3060.721542
20
1246.377004
30
0.0
11
3060.721542
21
1253.777004
31
0.0
0
LINE
8
0
10
3060.721542
20
1253.777004
30
0.0
11
3065.921542
21
1253.777004
31
0.0
0
LINE
8
0
10
3065.921542
20
1253.777004
30
0.0
11
3065.921542
21
1253.277004
31
0.0
0
ARC
8
0
10
3066.921542
20
1253.277004
30
0.0
40
1.000000
50
180.000000
51
270.000000
0
LINE
8
0
10
3066.921542
20
1252.277004
30
0.0
11
3067.221542
21
1252.277004
31
0.0
0
LINE
8
0
10
3067.221542
20
1252.277004
30
0.0
11
3067.221542
21
1283.777004
31
0.0
0
ARC
8
0
10
3061.221542
20
1283.777004
30
0.0
40
6.000000
50
360.000000
51
90.000000
0
LINE
8
0
10
3061.221542
20
1289.777004
30
0.0
11
3056.221542
21
1289.777004
31
0.0
0
ARC
8
0
10
3056.221542
20
1289.277004
30
0.0
40
0.500000
50
90.000000
51
180.000000
0
LINE
8
0
10
3055.721542
20
1289.277004
30
0.0
11
3055.721542
21
1288.277004
31
0.0
0
LINE
8
0
10
3055.721542
20
1288.277004
30
0.0
11
3056.721542
21
1288.277004
31
0.0
0
LINE
8
0
10
3056.721542
20
1288.277004
30
0.0
11
3057.221542
21
1286.527004
31
0.0
0
LINE
8
0
10
3057.221542
20
1286.527004
30
0.0
11
3057.721542
21
1286.527004
31
0.0
0
LINE
8
0
10
3057.721542
20
1286.527004
30
0.0
11
3057.721542
21
1288.277004
31
0.0
0
LINE
8
0
10
3057.721542
20
1288.277004
30
0.0
11
3059.021542
21
1288.277004
31
0.0
0
LINE
8
0
10
3059.021542
20
1288.277004
30
0.0
11
3059.021542
21
1280.777004
31
0.0
0
LINE
8
0
10
3059.021542
20
1280.777004
30
0.0
11
3057.721542
21
1280.777004
31
0.0
0
LINE
8
0
10
3057.721542
20
1280.777004
30
0.0
11
3057.721542
21
1282.527004
31
0.0
0
LINE
8
0
10
3057.721542
20
1282.527004
30
0.0
11
3057.221542
21
1282.527004
31
0.0
0
LINE
8
0
10
3057.221542
20
1282.527004
30
0.0
11
3056.721542
21
1280.777004
31
0.0
0
LINE
8
0
10
3056.721542
20
1280.777004
30
0.0
11
3055.721542
21
1280.777004
31
0.0
0
LINE
8
0
10
3055.721542
20
1280.777004
30
0.0
11
3055.721542
21
1279.777004
31
0.0
0
ARC
8
0
10
3056.221542
20
1279.777004
30
0.0
40
0.500000
50
180.000000
51
270.000000
0
LINE
8
0
10
3056.221542
20
1279.277004
30
0.0
11
3059.721542
21
1279.277004
31
0.0
0
ARC
8
0
10
3059.721542
20
1279.777004
30
0.0
40
0.500000
50
270.000000
51
360.000000
0
LINE
8
0
10
3060.221542
20
1279.777004
30
0.0
11
3060.221542
21
1287.777004
31
0.0
0
ARC
8
0
10
3060.721542
20
1287.777004
30
0.0
40
0.500000
50
90.000000
51
180.000000
0
LINE
8
0
10
3060.721542
20
1288.277004
30
0.0
11
3061.221542
21
1288.277004
31
0.0
0
ARC
8
0
10
3061.221542
20
1283.777004
30
0.0
40
4.500000
50
360.000000
51
90.000000
0
LINE
8
0
10
3065.721542
20
1283.777004
30
0.0
11
3065.721542
21
1264.777004
31
0.0
0
LINE
8
0
10
3065.721542
20
1264.777004
30
0.0
11
3035.221542
21
1264.777004
31
0.0
0
LINE
8
0
10
3035.221542
20
1264.777004
30
0.0
11
3035.221542
21
1269.777004
31
0.0
0
LINE
8
0
10
3035.221542
20
1269.777004
30
0.0
11
3032.721542
21
1269.777004
31
0.0
0
LINE
8
0
10
3032.721542
20
1269.777004
30
0.0
11
3031.721542
21
1268.777004
31
0.0
0
LINE
8
0
10
3031.721542
20
1268.777004
30
0.0
11
3031.721542
21
1267.777004
31
0.0
0
LINE
8
0
10
3031.721542
20
1267.777004
30
0.0
11
3033.721542
21
1267.777004
31
0.0
0
LINE
8
0
10
3033.721542
20
1267.777004
30
0.0
11
3033.721542
21
1264.777004
31
0.0
0
LINE
8
0
10
3033.721542
20
1264.777004
30
0.0
11
3015.721542
21
1264.777004
31
0.0
0
LINE
8
0
10
3015.721542
20
1264.777004
30
0.0
11
3015.721542
21
1267.777004
31
0.0
0
LINE
8
0
10
3015.721542
20
1267.777004
30
0.0
11
3017.721542
21
1267.777004
31
0.0
0
LINE
8
0
10
3017.721542
20
1267.777004
30
0.0
11
3017.721542
21
1268.777004
31
0.0
0
LINE
8
0
10
3017.721542
20
1268.777004
30
0.0
11
3016.721542
21
1269.777004
31
0.0
0
LINE
8
0
10
3016.721542
20
1269.777004
30
0.0
11
3014.221542
21
1269.777004
31
0.0
0
LINE
8
0
10
3014.221542
20
1269.777004
30
0.0
11
3014.221542
21
1223.777004
31
0.0
0
ARC
8
0
10
3014.721542
20
1223.777004
30
0.0
40
0.500000
50
180.000000
51
270.000000
0
LINE
8
0
10
3014.721542
20
1223.277004
30
0.0
11
3017.221542
21
1223.277004
31
0.0
0
ARC
8
0
10
3017.221542
20
1223.777004
30
0.0
40
0.500000
50
270.000000
51
360.000000
0
LINE
8
0
10
3017.721542
20
1223.777004
30
0.0
11
3017.721542
21
1225.277004
31
0.0
0
ARC
8
0
10
3017.221542
20
1225.277004
30
0.0
40
0.500000
50
360.000000
51
90.000000
0
ARC
8
0
10
3017.221542
20
1225.277004
30
0.0
40
0.500000
50
90.000000
51
180.000000
0
LINE
8
0
10
3016.721542
20
1225.277004
30
0.0
11
3016.721542
21
1224.527004
31
0.0
0
LINE
8
0
10
3016.721542
20
1224.527004
30
0.0
11
3016.721542
21
1224.477004
31
0.0
0
LINE
8
0
10
3016.721542
20
1224.477004
30
0.0
11
3015.421542
21
1224.477004
31
0.0
0
LINE
8
0
10
3015.421542
20
1224.477004
30
0.0
11
3015.421542
21
1230.577004
31
0.0
0
LINE
8
0
10
3015.421542
20
1230.577004
30
0.0
11
3016.721542
21
1230.577004
31
0.0
0
LINE
8
0
10
3016.721542
20
1230.577004
30
0.0
11
3016.721542
21
1229.777004
31
0.0
0
ARC
8
0
10
3017.221542
20
1229.777004
30
0.0
40
0.500000
50
180.000000
51
270.000000
0
ARC
8
0
10
3017.221542
20
1229.777004
30
0.0
40
0.500000
50
270.000000
51
360.000000
0
LINE
8
0
10
3017.721542
20
1229.777004
30
0.0
11
3017.721542
21
1232.777004
31
0.0
0
LINE
8
0
10
3017.721542
20
1232.777004
30
0.0
11
3016.989492
21
1232.777004
31
0.0
0
LINE
8
0
10
3016.989492
20
1232.777004
30
0.0
11
3016.945099
21
1232.611330
31
0.0
0
LINE
8
0
10
3016.945099
20
1232.611330
30
0.0
11
3016.811686
21
1232.611330
31
0.0
0
ARC
8
0
10
3016.811686
20
1232.499794
30
0.0
40
0.111536
50
90.000000
51
210.000000
0
LINE
8
0
10
3016.715093
20
1232.444026
30
0.0
11
3016.841572
21
1232.224959
31
0.0
0
LINE
8
0
10
3016.841572
20
1232.224959
30
0.0
11
3016.721542
21
1231.777004
31
0.0
0
LINE
8
0
10
3016.721542
20
1231.777004
30
0.0
11
3015.721542
21
1231.777004
31
0.0
0
LINE
8
0
10
3015.721542
20
1231.777004
30
0.0
11
3015.721542
21
1246.777004
31
0.0
0
LINE
8
0
10
3015.721542
20
1246.777004
30
0.0
11
3016.721542
21
1246.777004
31
0.0
0
LINE
8
0
10
3016.721542
20
1246.777004
30
0.0
11
3016.841572
21
1246.329049
31
0.0
0
LINE
8
0
10
3016.841572
20
1246.329049
30
0.0
11
3016.715093
21
1246.109982
31
0.0
0
ARC
8
0
10
3016.811686
20
1246.054214
30
0.0
40
0.111536
50
150.000000
51
270.000000
0
LINE
8
0
10
3016.811686
20
1245.942678
30
0.0
11
3016.945099
21
1245.942678
31
0.0
0
LINE
8
0
10
3015.721542
20
1261.777004
30
0.0
11
3015.721542
21
1251.777004
31
0.0
0
LINE
8
0
10
3015.721542
20
1251.777004
30
0.0
11
3017.221542
21
1251.777004
31
0.0
0
LINE
8
0
10
3017.221542
20
1251.777004
30
0.0
11
3017.221542
21
1250.277004
31
0.0
0
LINE
8
0
10
3017.221542
20
1250.277004
30
0.0
11
3015.721542
21
1250.277004
31
0.0
0
LINE
8
0
10
3015.721542
20
1250.277004
30
0.0
11
3015.721542
21
1248.277004
31
0.0
0
LINE
8
0
10
3015.721542
20
1248.277004
30
0.0
11
3017.872533
21
1248.277004
31
0.0
0
LINE
8
0
10
3017.872533
20
1248.277004
30
0.0
11
3018.140482
21
1247.277004
31
0.0
0
LINE
8
0
10
3018.140482
20
1247.277004
30
0.0
11
3022.221542
21
1247.277004
31
0.0
0
LINE
8
0
10
3022.221542
20
1247.277004
30
0.0
11
3022.221542
21
1246.777004
31
0.0
0
LINE
8
0
10
3022.221542
20
1246.777004
30
0.0
11
3023.221542
21
1246.777004
31
0.0
0
LINE
8
0
10
3023.221542
20
1246.777004
30
0.0
11
3023.221542
21
1249.277004
31
0.0
0
LINE
8
0
10
3023.221542
20
1249.277004
30
0.0
11
3041.221542
21
1249.277004
31
0.0
0
LINE
8
0
10
3041.221542
20
1249.277004
30
0.0
11
3041.221542
21
1246.777004
31
0.0
0
LINE
8
0
10
3041.221542
20
1246.777004
30
0.0
11
3043.976323
21
1246.777004
31
0.0
0
LINE
8
0
10
3043.976323
20
1246.777004
30
0.0
11
3044.646196
21
1249.277004
31
0.0
0
LINE
8
0
10
3044.646196
20
1249.277004
30
0.0
11
3059.221542
21
1249.277004
31
0.0
0
LINE
8
0
10
3059.221542
20
1249.277004
30
0.0
11
3059.221542
21
1255.277004
31
0.0
0
LINE
8
0
10
3059.221542
20
1255.277004
30
0.0
11
3065.721542
21
1255.277004
31
0.0
0
LINE
8
0
10
3065.721542
20
1255.277004
30
0.0
11
3065.721542
21
1263.277004
31
0.0
0
LINE
8
0
10
3065.721542
20
1263.277004
30
0.0
11
3017.221542
21
1263.277004
31
0.0
0
LINE
8
0
10
3017.221542
20
1263.277004
30
0.0
11
3017.221542
21
1261.777004
31
0.0
0
LINE
8
0
10
3017.221542
20
1261.777004
30
0.0
11
3015.721542
21
1261.777004
31
0.0
0
ATTDEF
8
0
10
0.000000
20
0.000000
30
0.0
40
3.5
1

3

2
PANE_WIDTH:0
70
0
0
ATTDEF
8
0
10
0.000000
20
0.000000
30
0.0
40
3.5
1

3

2
MIN_VETRO:0
70
0
0
ATTDEF
8
0
10
0.000000
20
0.000000
30
0.0
40
3.5
1

3

2
MAX_VETRO:0
70
0
0
ATTDEF
8
0
10
0.000000
20
0.000000
30
0.0
40
3.5
1

3

2
JX:0
70
0
0
ATTDEF
8
0
10
0.000000
20
0.000000
30
0.0
40
3.5
1

3

2
WX:0
70
0
0
ATTDEF
8
0
10
0.000000
20
0.000000
30
0.0
40
3.5
1

3

2
JY:0
70
0
0
ATTDEF
8
0
10
0.000000
20
0.000000
30
0.0
40
3.5
1

3

2
WY:0
70
0
0
ATTDEF
8
0
10
0.000000
20
0.000000
30
0.0
40
3.5
1

3

2
DESC:Hoja ventana
70
0
0
ATTDEF
8
0
10
0.000000
20
0.000000
30
0.0
40
3.5
1

3

2
DENS:1.0287
70
0
0
ATTDEF
8
0
10
0.000000
20
0.000000
30
0.0
40
3.5
1

3

2
TDEV:50.85
70
0
0
ATTDEF
8
0
10
0.000000
20
0.000000
30
0.0
40
3.5
1

3

2
TDEV2:0
70
0
0
ATTDEF
8
0
10
0.000000
20
0.000000
30
0.0
40
3.5
1

3

2
TDEV3:0
70
0
0
ATTDEF
8
0
10
0.000000
20
0.000000
30
0.0
40
3.5
1

3

2
TDEV4:0
70
0
0
ATTDEF
8
0
10
0.000000
20
0.000000
30
0.0
40
3.5
1

3

2
TDEV5:0
70
0
0
ATTDEF
8
0
10
0.000000
20
0.000000
30
0.0
40
3.5
1

3

2
PANE_WIDTH:0
70
0
0
ATTDEF
8
0
10
0.000000
20
0.000000
30
0.0
40
3.5
1

3

2
MIN_VETRO:0
70
0
0
ATTDEF
8
0
10
0.000000
20
0.000000
30
0.0
40
3.5
1

3

2
MAX_VETRO:0
70
0
0
ATTDEF
8
0
10
0.000000
20
0.000000
30
0.0
40
3.5
1

3

2
JX:0
70
0
0
ATTDEF
8
0
10
0.000000
20
0.000000
30
0.0
40
3.5
1

3

2
WX:0
70
0
0
ATTDEF
8
0
10
0.000000
20
0.000000
30
0.0
40
3.5
1

3

2
JY:0
70
0
0
ATTDEF
8
0
10
0.000000
20
0.000000
30
0.0
40
3.5
1

3

2
WY:0
70
0
0
ATTDEF
8
0
10
3014.221542
20
1269.777004
30
0.0
40
3.5
1

3

2
VC_START
70
0
0
ATTDEF
8
0
10
3022.721542
20
1240.777004
30
0.0
40
3.5
1

3

2
VC_END
70
0
0
ATTDEF
8
0
10
3067.221542
20
1223.277004
30
0.0
40
3.5
1

3

2
FP_LCS_ORIG
70
0
0
ATTDEF
8
0
10
3057.221542
20
1223.277004
30
0.0
40
3.5
1

3

2
FP_LCS_HOT
70
0
0
ATTDEF
8
0
10
3067.221542
20
1233.277004
30
0.0
40
3.5
1

3

2
FP_LCS_INTERN
70
0
0
ENDSEC
0
EOF
