0
SECTION
2
ENTITIES
0
LINE
8
00_ALUMINIO
10
213.093134
20
-14.290511
30
0.0
11
203.036976
21
-14.290511
31
0.0
0
LINE
8
00_ALUMINIO
10
203.036976
20
-14.290511
30
0.0
11
203.036976
21
-13.590511
31
0.0
0
ARC
8
00_ALUMINIO
10
201.536976
20
-13.590511
30
0.0
40
1.500000
50
0.000000
51
90.000000
0
LINE
8
00_ALUMINIO
10
201.536976
20
-12.090511
30
0.0
11
194.336976
21
-12.090511
31
0.0
0
ARC
8
00_ALUMINIO
10
194.336976
20
-13.590511
30
0.0
40
1.500000
50
90.000000
51
180.000000
0
LINE
8
00_ALUMINIO
10
192.836976
20
-13.590511
30
0.0
11
192.836976
21
-14.290511
31
0.0
0
LINE
8
00_ALUMINIO
10
192.836976
20
-14.290511
30
0.0
11
185.636976
21
-14.290511
31
0.0
0
LINE
8
00_ALUMINIO
10
185.636976
20
-14.290511
30
0.0
11
185.636976
21
22.709489
31
0.0
0
LINE
8
00_ALUMINIO
10
185.636976
20
22.709489
30
0.0
11
233.136976
21
22.709489
31
0.0
0
LINE
8
00_ALUMINIO
10
233.136976
20
22.709489
30
0.0
11
232.636976
21
22.209489
31
0.0
0
LINE
8
00_ALUMINIO
10
232.636976
20
22.209489
30
0.0
11
232.636976
21
-5.790511
31
0.0
0
LINE
8
00_ALUMINIO
10
232.636976
20
-5.790511
30
0.0
11
233.136976
21
-6.290511
31
0.0
0
LINE
8
00_ALUMINIO
10
233.136976
20
-6.290511
30
0.0
11
210.543520
21
-6.290511
31
0.0
0
ARC
8
00_ALUMINIO
10
210.543520
20
-6.590511
30
0.0
40
0.300000
50
90.000000
51
180.000000
0
LINE
8
00_ALUMINIO
10
210.243520
20
-6.590511
30
0.0
11
210.243520
21
-11.664986
31
0.0
0
ARC
8
00_ALUMINIO
10
211.743520
20
-11.664986
30
0.0
40
1.500000
50
180.000000
51
252.153218
0
LINE
8
00_ALUMINIO
10
211.283811
20
-13.092805
30
0.0
11
213.185076
21
-13.704947
31
0.0
0
ARC
8
00_ALUMINIO
10
213.093134
20
-13.990511
30
0.0
40
0.300000
50
270.000000
51
72.153218
0
ARC
8
00_ALUMINIO
10
184.436976
20
-15.490511
30
0.0
40
0.300000
50
180.000000
51
270.000000
0
LINE
8
00_ALUMINIO
10
184.436976
20
-15.790511
30
0.0
11
195.886976
21
-15.790511
31
0.0
0
ARC
8
00_ALUMINIO
10
195.886976
20
-15.490511
30
0.0
40
0.300000
50
270.000000
51
0.000000
0
LINE
8
00_ALUMINIO
10
196.186976
20
-15.490511
30
0.0
11
196.186976
21
-15.090511
31
0.0
0
ARC
8
00_ALUMINIO
10
195.886976
20
-15.090511
30
0.0
40
0.300000
50
0.000000
51
90.000000
0
LINE
8
00_ALUMINIO
10
195.886976
20
-14.790511
30
0.0
11
194.336976
21
-14.790511
31
0.0
0
LINE
8
00_ALUMINIO
10
194.336976
20
-14.790511
30
0.0
11
194.336976
21
-13.590511
31
0.0
0
LINE
8
00_ALUMINIO
10
194.336976
20
-13.590511
30
0.0
11
201.536976
21
-13.590511
31
0.0
0
LINE
8
00_ALUMINIO
10
201.536976
20
-13.590511
30
0.0
11
201.536976
21
-14.790511
31
0.0
0
LINE
8
00_ALUMINIO
10
201.536976
20
-14.790511
30
0.0
11
199.986976
21
-14.790511
31
0.0
0
ARC
8
00_ALUMINIO
10
199.986976
20
-15.090511
30
0.0
40
0.300000
50
90.000000
51
180.000000
0
LINE
8
00_ALUMINIO
10
199.686976
20
-15.090511
30
0.0
11
199.686976
21
-15.490511
31
0.0
0
ARC
8
00_ALUMINIO
10
199.986976
20
-15.490511
30
0.0
40
0.300000
50
180.000000
51
270.000000
0
LINE
8
00_ALUMINIO
10
199.986976
20
-15.790511
30
0.0
11
219.780431
21
-15.790511
31
0.0
0
ARC
8
00_ALUMINIO
10
219.780431
20
-15.040511
30
0.0
40
0.750000
50
270.000000
51
72.153218
0
LINE
8
00_ALUMINIO
10
220.010286
20
-14.326602
30
0.0
11
211.743520
21
-11.664986
31
0.0
0
LINE
8
00_ALUMINIO
10
211.743520
20
-11.664986
30
0.0
11
211.743520
21
-7.790511
31
0.0
0
LINE
8
00_ALUMINIO
10
211.743520
20
-7.790511
30
0.0
11
248.836976
21
-7.790511
31
0.0
0
ARC
8
00_ALUMINIO
10
248.836976
20
-7.490511
30
0.0
40
0.300000
50
270.000000
51
0.000000
0
LINE
8
00_ALUMINIO
10
249.136976
20
-7.490511
30
0.0
11
249.136976
21
2.409489
31
0.0
0
ARC
8
00_ALUMINIO
10
248.836976
20
2.409489
30
0.0
40
0.300000
50
0.000000
51
90.000000
0
LINE
8
00_ALUMINIO
10
248.836976
20
2.709489
30
0.0
11
247.936976
21
2.709489
31
0.0
0
ARC
8
00_ALUMINIO
10
247.936976
20
2.409489
30
0.0
40
0.300000
50
90.000000
51
180.000000
0
LINE
8
00_ALUMINIO
10
247.636976
20
2.409489
30
0.0
11
247.636976
21
-6.290511
31
0.0
0
LINE
8
00_ALUMINIO
10
247.636976
20
-6.290511
30
0.0
11
234.136976
21
-6.290511
31
0.0
0
LINE
8
00_ALUMINIO
10
234.136976
20
-6.290511
30
0.0
11
234.136976
21
22.709489
31
0.0
0
LINE
8
00_ALUMINIO
10
234.136976
20
22.709489
30
0.0
11
247.636976
21
22.709489
31
0.0
0
LINE
8
00_ALUMINIO
10
247.636976
20
22.709489
30
0.0
11
247.636976
21
14.009489
31
0.0
0
ARC
8
00_ALUMINIO
10
247.936976
20
14.009489
30
0.0
40
0.300000
50
180.000000
51
270.000000
0
LINE
8
00_ALUMINIO
10
247.936976
20
13.709489
30
0.0
11
248.836976
21
13.709489
31
0.0
0
ARC
8
00_ALUMINIO
10
248.836976
20
14.009489
30
0.0
40
0.300000
50
270.000000
51
0.000000
0
LINE
8
00_ALUMINIO
10
249.136976
20
14.009489
30
0.0
11
249.136976
21
23.909489
31
0.0
0
ARC
8
00_ALUMINIO
10
248.836976
20
23.909489
30
0.0
40
0.300000
50
0.000000
51
90.000000
0
LINE
8
00_ALUMINIO
10
248.836976
20
24.209489
30
0.0
11
184.436976
21
24.209489
31
0.0
0
ARC
8
00_ALUMINIO
10
184.436976
20
23.909489
30
0.0
40
0.300000
50
90.000000
51
180.000000
0
LINE
8
00_ALUMINIO
10
184.136976
20
23.909489
30
0.0
11
184.136976
21
-15.490511
31
0.0
0
ATTDEF
8
0
10
0.000000
20
0.000000
30
0.0
40
3.5
1

3

2
PANE_WIDTH:0
70
0
0
ATTDEF
8
0
10
0.000000
20
0.000000
30
0.0
40
3.5
1

3

2
MIN_VETRO:0
70
0
0
ATTDEF
8
0
10
0.000000
20
0.000000
30
0.0
40
3.5
1

3

2
MAX_VETRO:0
70
0
0
ATTDEF
8
0
10
0.000000
20
0.000000
30
0.0
40
3.5
1

3

2
JX:0
70
0
0
ATTDEF
8
0
10
0.000000
20
0.000000
30
0.0
40
3.5
1

3

2
WX:0
70
0
0
ATTDEF
8
0
10
0.000000
20
0.000000
30
0.0
40
3.5
1

3

2
JY:0
70
0
0
ATTDEF
8
0
10
0.000000
20
0.000000
30
0.0
40
3.5
1

3

2
WY:0
70
0
0
ATTDEF
8
0
10
0.000000
20
0.000000
30
0.0
40
3.5
1

3

2
DESC:H.centro vid.sencill
70
0
0
ATTDEF
8
0
10
0.000000
20
0.000000
30
0.0
40
3.5
1

3

2
DENS:0.9774
70
0
0
ATTDEF
8
0
10
0.000000
20
0.000000
30
0.0
40
3.5
1

3

2
TDEV:47.83
70
0
0
ATTDEF
8
0
10
0.000000
20
0.000000
30
0.0
40
3.5
1

3

2
TDEV2:0
70
0
0
ATTDEF
8
0
10
0.000000
20
0.000000
30
0.0
40
3.5
1

3

2
TDEV3:0
70
0
0
ATTDEF
8
0
10
0.000000
20
0.000000
30
0.0
40
3.5
1

3

2
TDEV4:0
70
0
0
ATTDEF
8
0
10
0.000000
20
0.000000
30
0.0
40
3.5
1

3

2
TDEV5:0
70
0
0
ATTDEF
8
0
10
0.000000
20
0.000000
30
0.0
40
3.5
1

3

2
PANE_WIDTH:0
70
0
0
ATTDEF
8
0
10
0.000000
20
0.000000
30
0.0
40
3.5
1

3

2
MIN_VETRO:0
70
0
0
ATTDEF
8
0
10
0.000000
20
0.000000
30
0.0
40
3.5
1

3

2
MAX_VETRO:0
70
0
0
ATTDEF
8
0
10
0.000000
20
0.000000
30
0.0
40
3.5
1

3

2
JX:0
70
0
0
ATTDEF
8
0
10
0.000000
20
0.000000
30
0.0
40
3.5
1

3

2
WX:0
70
0
0
ATTDEF
8
0
10
0.000000
20
0.000000
30
0.0
40
3.5
1

3

2
JY:0
70
0
0
ATTDEF
8
0
10
0.000000
20
0.000000
30
0.0
40
3.5
1

3

2
WY:0
70
0
0
ENDSEC
0
EOF
