0
SECTION
2
ENTITIES
0
LINE
8
00_POLIAMIDAS
10
1893.552555
20
-1.281486
30
0.0
11
1894.700346
21
-0.133695
31
0.0
0
LINE
8
00_POLIAMIDAS
10
1893.415599
20
-3.663507
30
0.0
11
1896.148143
21
-0.930962
31
0.0
0
LINE
8
00_POLIAMIDAS
10
1896.571511
20
-2.752658
30
0.0
11
1898.371511
21
-0.952658
31
0.0
0
LINE
8
00_POLIAMIDAS
10
1898.816575
20
-2.752658
30
0.0
11
1900.616575
21
-0.952658
31
0.0
0
LINE
8
00_POLIAMIDAS
10
1901.061639
20
-2.752658
30
0.0
11
1902.861639
21
-0.952658
31
0.0
0
LINE
8
00_POLIAMIDAS
10
1903.306703
20
-2.752658
30
0.0
11
1905.111075
21
-0.948286
31
0.0
0
LINE
8
00_POLIAMIDAS
10
1905.438352
20
-2.866074
30
0.0
11
1906.672416
21
-1.632009
31
0.0
0
LINE
8
00_POLIAMIDAS
10
1907.009723
20
-1.294703
30
0.0
11
1907.910190
21
-0.394236
31
0.0
0
LINE
8
00_POLIAMIDAS
10
1906.861665
20
-3.687824
30
0.0
11
1907.880371
21
-2.669118
31
0.0
0
LINE
8
00_POLIAMIDAS
10
1894.202796
20
-3.858883
30
0.0
11
1893.465022
21
-3.121109
31
0.0
0
LINE
8
00_POLIAMIDAS
10
1895.588917
20
-2.999940
30
0.0
11
1894.680692
21
-2.091714
31
0.0
0
LINE
8
00_POLIAMIDAS
10
1893.891316
20
-1.302338
30
0.0
11
1893.480371
21
-0.891394
31
0.0
0
LINE
8
00_POLIAMIDAS
10
1897.586700
20
-2.752658
30
0.0
11
1895.728575
21
-0.894533
31
0.0
0
LINE
8
00_POLIAMIDAS
10
1895.567949
20
-0.733908
30
0.0
11
1895.332999
21
-0.498957
31
0.0
0
LINE
8
00_POLIAMIDAS
10
1899.831764
20
-2.752658
30
0.0
11
1898.031764
21
-0.952658
31
0.0
0
LINE
8
00_POLIAMIDAS
10
1902.076828
20
-2.752658
30
0.0
11
1900.276828
21
-0.952658
31
0.0
0
LINE
8
00_POLIAMIDAS
10
1904.321892
20
-2.752658
30
0.0
11
1902.521892
21
-0.952658
31
0.0
0
LINE
8
00_POLIAMIDAS
10
1907.735606
20
-3.921308
30
0.0
11
1904.766956
21
-0.952658
31
0.0
0
LINE
8
00_POLIAMIDAS
10
1907.318532
20
-1.259171
30
0.0
11
1906.364115
21
-0.304753
31
0.0
0
LINE
8
00_POLIAMIDAS
10
1893.380371
20
-32.884566
30
0.0
11
1893.828349
21
-32.436589
31
0.0
0
LINE
8
00_POLIAMIDAS
10
1894.468835
20
-34.041167
30
0.0
11
1895.329268
21
-33.180734
31
0.0
0
LINE
8
00_POLIAMIDAS
10
1894.225172
20
-36.529894
30
0.0
11
1897.118477
21
-33.636589
31
0.0
0
LINE
8
00_POLIAMIDAS
10
1897.563541
20
-35.436589
30
0.0
11
1899.363541
21
-33.636589
31
0.0
0
LINE
8
00_POLIAMIDAS
10
1899.808605
20
-35.436589
30
0.0
11
1901.608605
21
-33.636589
31
0.0
0
LINE
8
00_POLIAMIDAS
10
1902.053669
20
-35.436589
30
0.0
11
1903.853669
21
-33.636589
31
0.0
0
LINE
8
00_POLIAMIDAS
10
1904.298733
20
-35.436589
30
0.0
11
1907.269175
21
-32.466147
31
0.0
0
LINE
8
00_POLIAMIDAS
10
1906.067274
20
-35.913112
30
0.0
11
1906.926460
21
-35.053926
31
0.0
0
LINE
8
00_POLIAMIDAS
10
1907.588954
20
-36.636497
30
0.0
11
1907.980279
21
-36.245171
31
0.0
0
LINE
8
00_POLIAMIDAS
10
1894.997188
20
-36.084171
30
0.0
11
1894.043246
21
-35.130229
31
0.0
0
LINE
8
00_POLIAMIDAS
10
1896.594670
20
-35.436589
30
0.0
11
1893.625759
21
-32.467678
31
0.0
0
LINE
8
00_POLIAMIDAS
10
1898.839734
20
-35.436589
30
0.0
11
1897.039734
21
-33.636589
31
0.0
0
LINE
8
00_POLIAMIDAS
10
1901.084798
20
-35.436589
30
0.0
11
1899.284798
21
-33.636589
31
0.0
0
LINE
8
00_POLIAMIDAS
10
1903.329862
20
-35.436589
30
0.0
11
1901.529862
21
-33.636589
31
0.0
0
LINE
8
00_POLIAMIDAS
10
1906.029833
20
-35.891496
30
0.0
11
1905.866398
21
-35.728061
31
0.0
0
LINE
8
00_POLIAMIDAS
10
1905.737837
20
-35.599499
30
0.0
11
1903.774926
21
-33.636589
31
0.0
0
LINE
8
00_POLIAMIDAS
10
1907.880371
20
-35.496970
30
0.0
11
1907.470042
21
-35.086641
31
0.0
0
LINE
8
00_POLIAMIDAS
10
1906.680319
20
-34.296918
30
0.0
11
1905.776208
21
-33.392806
31
0.0
0
LINE
8
00_POLIAMIDAS
10
1907.980371
20
-33.351906
30
0.0
11
1907.158507
21
-32.530041
31
0.0
0
ARC
8
00_POLIAMIDAS
10
1907.568565
20
-1.127658
30
0.0
40
0.200000
50
244.992167
51
286.231301
0
ARC
8
00_POLIAMIDAS
10
1907.680371
20
-1.127658
30
0.0
40
0.200000
50
253.768699
51
0.000000
0
LINE
8
00_POLIAMIDAS
10
1907.880371
20
-1.127658
30
0.0
11
1907.880371
21
-0.752658
31
0.0
0
LINE
8
00_POLIAMIDAS
10
1907.880371
20
-0.752658
30
0.0
11
1907.980371
21
-0.752658
31
0.0
0
LINE
8
00_POLIAMIDAS
10
1907.980371
20
-0.752658
30
0.0
11
1907.980371
21
-0.152658
31
0.0
0
ARC
8
00_POLIAMIDAS
10
1907.580371
20
-0.152658
30
0.0
40
0.400000
50
0.000000
51
90.000000
0
LINE
8
00_POLIAMIDAS
10
1907.580371
20
0.247342
30
0.0
11
1907.373961
21
0.247342
31
0.0
0
ARC
8
00_POLIAMIDAS
10
1907.373961
20
0.047342
30
0.0
40
0.200000
50
90.000000
51
120.000000
0
LINE
8
00_POLIAMIDAS
10
1907.273961
20
0.220547
30
0.0
11
1905.427551
21
-0.845479
31
0.0
0
ARC
8
00_POLIAMIDAS
10
1905.027551
20
-0.152658
30
0.0
40
0.800000
50
270.000000
51
300.000000
0
LINE
8
00_POLIAMIDAS
10
1905.027551
20
-0.952658
30
0.0
11
1900.680371
21
-0.952658
31
0.0
0
LINE
8
00_POLIAMIDAS
10
1900.680371
20
-0.952658
30
0.0
11
1896.333192
21
-0.952658
31
0.0
0
ARC
8
00_POLIAMIDAS
10
1896.333192
20
-0.152658
30
0.0
40
0.800000
50
240.000000
51
270.000000
0
LINE
8
00_POLIAMIDAS
10
1895.933192
20
-0.845479
30
0.0
11
1894.086782
21
0.220547
31
0.0
0
ARC
8
00_POLIAMIDAS
10
1893.986782
20
0.047342
30
0.0
40
0.200000
50
60.000000
51
90.000000
0
LINE
8
00_POLIAMIDAS
10
1893.986782
20
0.247342
30
0.0
11
1893.780371
21
0.247342
31
0.0
0
ARC
8
00_POLIAMIDAS
10
1893.780371
20
-0.152658
30
0.0
40
0.400000
50
90.000000
51
180.000000
0
LINE
8
00_POLIAMIDAS
10
1893.380371
20
-0.152658
30
0.0
11
1893.380371
21
-0.752658
31
0.0
0
LINE
8
00_POLIAMIDAS
10
1893.380371
20
-0.752658
30
0.0
11
1893.480371
21
-0.752658
31
0.0
0
LINE
8
00_POLIAMIDAS
10
1893.480371
20
-0.752658
30
0.0
11
1893.480371
21
-1.127658
31
0.0
0
ARC
8
00_POLIAMIDAS
10
1893.680371
20
-1.127658
30
0.0
40
0.200000
50
180.000000
51
286.231301
0
ARC
8
00_POLIAMIDAS
10
1893.792178
20
-1.127658
30
0.0
40
0.200000
50
253.768699
51
295.007833
0
ARC
8
00_POLIAMIDAS
10
1894.130371
20
-1.852658
30
0.0
40
0.600000
50
0.000000
51
115.007833
0
ARC
8
00_POLIAMIDAS
10
1894.130371
20
-1.852658
30
0.0
40
0.600000
50
244.992167
51
0.000000
0
ARC
8
00_POLIAMIDAS
10
1893.792178
20
-2.577658
30
0.0
40
0.200000
50
64.992167
51
106.231301
0
ARC
8
00_POLIAMIDAS
10
1893.680371
20
-2.577658
30
0.0
40
0.200000
50
73.768699
51
180.000000
0
LINE
8
00_POLIAMIDAS
10
1893.480371
20
-2.577658
30
0.0
11
1893.480371
21
-2.952658
31
0.0
0
LINE
8
00_POLIAMIDAS
10
1893.480371
20
-2.952658
30
0.0
11
1893.380371
21
-2.952658
31
0.0
0
LINE
8
00_POLIAMIDAS
10
1893.380371
20
-2.952658
30
0.0
11
1893.380371
21
-3.552658
31
0.0
0
ARC
8
00_POLIAMIDAS
10
1893.780371
20
-3.552658
30
0.0
40
0.400000
50
180.000000
51
270.000000
0
LINE
8
00_POLIAMIDAS
10
1893.780371
20
-3.952658
30
0.0
11
1893.986782
21
-3.952658
31
0.0
0
ARC
8
00_POLIAMIDAS
10
1893.986782
20
-3.752658
30
0.0
40
0.200000
50
270.000000
51
300.000000
0
LINE
8
00_POLIAMIDAS
10
1894.086782
20
-3.925863
30
0.0
11
1895.933192
21
-2.859838
31
0.0
0
ARC
8
00_POLIAMIDAS
10
1896.333192
20
-3.552658
30
0.0
40
0.800000
50
90.000000
51
120.000000
0
LINE
8
00_POLIAMIDAS
10
1896.333192
20
-2.752658
30
0.0
11
1900.397529
21
-2.752658
31
0.0
0
ARC
8
00_POLIAMIDAS
10
1900.397529
20
-2.952658
30
0.0
40
0.200000
50
51.057559
51
90.000000
0
ARC
8
00_POLIAMIDAS
10
1900.680371
20
-2.602658
30
0.0
40
0.250000
50
231.057559
51
308.942441
0
ARC
8
00_POLIAMIDAS
10
1900.963214
20
-2.952658
30
0.0
40
0.200000
50
90.000000
51
128.942441
0
LINE
8
00_POLIAMIDAS
10
1900.963214
20
-2.752658
30
0.0
11
1905.027551
21
-2.752658
31
0.0
0
ARC
8
00_POLIAMIDAS
10
1905.027551
20
-3.552658
30
0.0
40
0.800000
50
60.000000
51
90.000000
0
LINE
8
00_POLIAMIDAS
10
1905.427551
20
-2.859838
30
0.0
11
1907.273961
21
-3.925863
31
0.0
0
ARC
8
00_POLIAMIDAS
10
1907.373961
20
-3.752658
30
0.0
40
0.200000
50
240.000000
51
270.000000
0
LINE
8
00_POLIAMIDAS
10
1907.373961
20
-3.952658
30
0.0
11
1907.580371
21
-3.952658
31
0.0
0
ARC
8
00_POLIAMIDAS
10
1907.580371
20
-3.552658
30
0.0
40
0.400000
50
270.000000
51
0.000000
0
LINE
8
00_POLIAMIDAS
10
1907.980371
20
-3.552658
30
0.0
11
1907.980371
21
-2.952658
31
0.0
0
LINE
8
00_POLIAMIDAS
10
1907.980371
20
-2.952658
30
0.0
11
1907.880371
21
-2.952658
31
0.0
0
LINE
8
00_POLIAMIDAS
10
1907.880371
20
-2.952658
30
0.0
11
1907.880371
21
-2.577658
31
0.0
0
ARC
8
00_POLIAMIDAS
10
1907.680371
20
-2.577658
30
0.0
40
0.200000
50
0.000000
51
106.231301
0
ARC
8
00_POLIAMIDAS
10
1907.568565
20
-2.577658
30
0.0
40
0.200000
50
73.768699
51
115.007833
0
ARC
8
00_POLIAMIDAS
10
1907.230371
20
-1.852658
30
0.0
40
0.600000
50
180.000000
51
295.007833
0
ARC
8
00_POLIAMIDAS
10
1907.230371
20
-1.852658
30
0.0
40
0.600000
50
64.992167
51
180.000000
0
ARC
8
00_POLIAMIDAS
10
1907.568565
20
-35.261589
30
0.0
40
0.200000
50
73.768699
51
115.007833
0
ARC
8
00_POLIAMIDAS
10
1907.680371
20
-35.261589
30
0.0
40
0.200000
50
0.000000
51
106.231301
0
LINE
8
00_POLIAMIDAS
10
1907.880371
20
-35.261589
30
0.0
11
1907.880371
21
-35.636589
31
0.0
0
LINE
8
00_POLIAMIDAS
10
1907.880371
20
-35.636589
30
0.0
11
1907.980371
21
-35.636589
31
0.0
0
LINE
8
00_POLIAMIDAS
10
1907.980371
20
-35.636589
30
0.0
11
1907.980371
21
-36.236589
31
0.0
0
ARC
8
00_POLIAMIDAS
10
1907.580371
20
-36.236589
30
0.0
40
0.400000
50
270.000000
51
0.000000
0
LINE
8
00_POLIAMIDAS
10
1907.580371
20
-36.636589
30
0.0
11
1907.373961
21
-36.636589
31
0.0
0
ARC
8
00_POLIAMIDAS
10
1907.373961
20
-36.436589
30
0.0
40
0.200000
50
240.000000
51
270.000000
0
LINE
8
00_POLIAMIDAS
10
1907.273961
20
-36.609794
30
0.0
11
1905.427551
21
-35.543768
31
0.0
0
ARC
8
00_POLIAMIDAS
10
1905.027551
20
-36.236589
30
0.0
40
0.800000
50
60.000000
51
90.000000
0
LINE
8
00_POLIAMIDAS
10
1905.027551
20
-35.436589
30
0.0
11
1900.680371
21
-35.436589
31
0.0
0
LINE
8
00_POLIAMIDAS
10
1900.680371
20
-35.436589
30
0.0
11
1896.333192
21
-35.436589
31
0.0
0
ARC
8
00_POLIAMIDAS
10
1896.333192
20
-36.236589
30
0.0
40
0.800000
50
90.000000
51
120.000000
0
LINE
8
00_POLIAMIDAS
10
1895.933192
20
-35.543768
30
0.0
11
1894.086782
21
-36.609794
31
0.0
0
ARC
8
00_POLIAMIDAS
10
1893.986782
20
-36.436589
30
0.0
40
0.200000
50
270.000000
51
300.000000
0
LINE
8
00_POLIAMIDAS
10
1893.986782
20
-36.636589
30
0.0
11
1893.780371
21
-36.636589
31
0.0
0
ARC
8
00_POLIAMIDAS
10
1893.780371
20
-36.236589
30
0.0
40
0.400000
50
180.000000
51
270.000000
0
LINE
8
00_POLIAMIDAS
10
1893.380371
20
-36.236589
30
0.0
11
1893.380371
21
-35.636589
31
0.0
0
LINE
8
00_POLIAMIDAS
10
1893.380371
20
-35.636589
30
0.0
11
1893.480371
21
-35.636589
31
0.0
0
LINE
8
00_POLIAMIDAS
10
1893.480371
20
-35.636589
30
0.0
11
1893.480371
21
-35.261589
31
0.0
0
ARC
8
00_POLIAMIDAS
10
1893.680371
20
-35.261589
30
0.0
40
0.200000
50
73.768699
51
180.000000
0
ARC
8
00_POLIAMIDAS
10
1893.792178
20
-35.261589
30
0.0
40
0.200000
50
64.992167
51
106.231301
0
ARC
8
00_POLIAMIDAS
10
1894.130371
20
-34.536589
30
0.0
40
0.600000
50
244.992167
51
0.000000
0
ARC
8
00_POLIAMIDAS
10
1894.130371
20
-34.536589
30
0.0
40
0.600000
50
0.000000
51
115.007833
0
ARC
8
00_POLIAMIDAS
10
1893.792178
20
-33.811589
30
0.0
40
0.200000
50
253.768699
51
295.007833
0
ARC
8
00_POLIAMIDAS
10
1893.680371
20
-33.811589
30
0.0
40
0.200000
50
180.000000
51
286.231301
0
LINE
8
00_POLIAMIDAS
10
1893.480371
20
-33.811589
30
0.0
11
1893.480371
21
-33.436589
31
0.0
0
LINE
8
00_POLIAMIDAS
10
1893.480371
20
-33.436589
30
0.0
11
1893.380371
21
-33.436589
31
0.0
0
LINE
8
00_POLIAMIDAS
10
1893.380371
20
-33.436589
30
0.0
11
1893.380371
21
-32.836589
31
0.0
0
ARC
8
00_POLIAMIDAS
10
1893.780371
20
-32.836589
30
0.0
40
0.400000
50
90.000000
51
180.000000
0
LINE
8
00_POLIAMIDAS
10
1893.780371
20
-32.436589
30
0.0
11
1893.986782
21
-32.436589
31
0.0
0
ARC
8
00_POLIAMIDAS
10
1893.986782
20
-32.636589
30
0.0
40
0.200000
50
60.000000
51
90.000000
0
LINE
8
00_POLIAMIDAS
10
1894.086782
20
-32.463384
30
0.0
11
1895.933192
21
-33.529409
31
0.0
0
ARC
8
00_POLIAMIDAS
10
1896.333192
20
-32.836589
30
0.0
40
0.800000
50
240.000000
51
270.000000
0
LINE
8
00_POLIAMIDAS
10
1896.333192
20
-33.636589
30
0.0
11
1900.397529
21
-33.636589
31
0.0
0
ARC
8
00_POLIAMIDAS
10
1900.397529
20
-33.436589
30
0.0
40
0.200000
50
270.000000
51
308.942441
0
ARC
8
00_POLIAMIDAS
10
1900.680371
20
-33.786589
30
0.0
40
0.250000
50
51.057559
51
128.942441
0
ARC
8
00_POLIAMIDAS
10
1900.963214
20
-33.436589
30
0.0
40
0.200000
50
231.057559
51
270.000000
0
LINE
8
00_POLIAMIDAS
10
1900.963214
20
-33.636589
30
0.0
11
1905.027551
21
-33.636589
31
0.0
0
ARC
8
00_POLIAMIDAS
10
1905.027551
20
-32.836589
30
0.0
40
0.800000
50
270.000000
51
300.000000
0
LINE
8
00_POLIAMIDAS
10
1905.427551
20
-33.529409
30
0.0
11
1907.273961
21
-32.463384
31
0.0
0
ARC
8
00_POLIAMIDAS
10
1907.373961
20
-32.636589
30
0.0
40
0.200000
50
90.000000
51
120.000000
0
LINE
8
00_POLIAMIDAS
10
1907.373961
20
-32.436589
30
0.0
11
1907.580371
21
-32.436589
31
0.0
0
ARC
8
00_POLIAMIDAS
10
1907.580371
20
-32.836589
30
0.0
40
0.400000
50
0.000000
51
90.000000
0
LINE
8
00_POLIAMIDAS
10
1907.980371
20
-32.836589
30
0.0
11
1907.980371
21
-33.436589
31
0.0
0
LINE
8
00_POLIAMIDAS
10
1907.980371
20
-33.436589
30
0.0
11
1907.880371
21
-33.436589
31
0.0
0
LINE
8
00_POLIAMIDAS
10
1907.880371
20
-33.436589
30
0.0
11
1907.880371
21
-33.811589
31
0.0
0
ARC
8
00_POLIAMIDAS
10
1907.680371
20
-33.811589
30
0.0
40
0.200000
50
253.768699
51
0.000000
0
ARC
8
00_POLIAMIDAS
10
1907.568565
20
-33.811589
30
0.0
40
0.200000
50
244.992167
51
286.231301
0
ARC
8
00_POLIAMIDAS
10
1907.230371
20
-34.536589
30
0.0
40
0.600000
50
64.992167
51
180.000000
0
ARC
8
00_POLIAMIDAS
10
1907.230371
20
-34.536589
30
0.0
40
0.600000
50
180.000000
51
295.007833
0
LINE
8
00_ALUMINIO
10
1872.780371
20
-34.797805
30
0.0
11
1872.780371
21
-37.097805
31
0.0
0
LINE
8
00_ALUMINIO
10
1872.780371
20
-37.097805
30
0.0
11
1865.480411
21
-37.097805
31
0.0
0
LINE
8
00_ALUMINIO
10
1865.480411
20
-37.097805
30
0.0
11
1865.480411
21
-33.797805
31
0.0
0
LINE
8
00_ALUMINIO
10
1865.480411
20
-33.797805
30
0.0
11
1866.480371
21
-33.797805
31
0.0
0
LINE
8
00_ALUMINIO
10
1866.480371
20
-33.797805
30
0.0
11
1866.480371
21
-32.297805
31
0.0
0
LINE
8
00_ALUMINIO
10
1866.480371
20
-32.297805
30
0.0
11
1865.480411
21
-32.297805
31
0.0
0
LINE
8
00_ALUMINIO
10
1865.480411
20
-32.297805
30
0.0
11
1865.480411
21
-4.697805
31
0.0
0
LINE
8
00_ALUMINIO
10
1865.480411
20
-4.697805
30
0.0
11
1866.480371
21
-4.697805
31
0.0
0
LINE
8
00_ALUMINIO
10
1866.480371
20
-4.697805
30
0.0
11
1866.480371
21
-3.197805
31
0.0
0
LINE
8
00_ALUMINIO
10
1866.480371
20
-3.197805
30
0.0
11
1869.930371
21
-3.197805
31
0.0
0
LINE
8
00_ALUMINIO
10
1869.930371
20
-3.197805
30
0.0
11
1869.930371
21
-1.897805
31
0.0
0
LINE
8
00_ALUMINIO
10
1869.930371
20
-1.897805
30
0.0
11
1865.780411
21
-1.235315
31
0.0
0
LINE
8
00_ALUMINIO
10
1865.780411
20
-1.235315
30
0.0
11
1865.780411
21
0.702195
31
0.0
0
LINE
8
00_ALUMINIO
10
1865.780411
20
0.702195
30
0.0
11
1891.380371
21
0.702195
31
0.0
0
LINE
8
00_ALUMINIO
10
1891.380371
20
0.702195
30
0.0
11
1891.380371
21
-1.472805
31
0.0
0
LINE
8
00_ALUMINIO
10
1891.380371
20
-1.472805
30
0.0
11
1888.180371
21
-1.897805
31
0.0
0
LINE
8
00_ALUMINIO
10
1888.180371
20
-1.897805
30
0.0
11
1888.180371
21
-3.197805
31
0.0
0
LINE
8
00_ALUMINIO
10
1888.180371
20
-3.197805
30
0.0
11
1891.680371
21
-3.197805
31
0.0
0
LINE
8
00_ALUMINIO
10
1891.680371
20
-3.197805
30
0.0
11
1891.680371
21
-37.097805
31
0.0
0
LINE
8
00_ALUMINIO
10
1891.680371
20
-37.097805
30
0.0
11
1889.701692
21
-37.097805
31
0.0
0
LINE
8
00_ALUMINIO
10
1889.701692
20
-37.097805
30
0.0
11
1887.401692
21
-34.797805
31
0.0
0
LINE
8
00_ALUMINIO
10
1887.401692
20
-34.797805
30
0.0
11
1872.780371
21
-34.797805
31
0.0
0
ARC
8
00_ALUMINIO
10
1893.580371
20
-32.339138
30
0.0
40
0.200000
50
90.000000
51
180.000000
0
LINE
8
00_ALUMINIO
10
1893.580371
20
-32.139138
30
0.0
11
1893.648260
21
-32.139138
31
0.0
0
ARC
8
00_ALUMINIO
10
1893.648260
20
-32.439138
30
0.0
40
0.300000
50
58.619868
51
90.000000
0
LINE
8
00_ALUMINIO
10
1893.804474
20
-32.183019
30
0.0
11
1895.480467
21
-33.205252
31
0.0
0
LINE
8
00_ALUMINIO
10
1895.480467
20
-33.205252
30
0.0
11
1895.490313
21
-33.273713
31
0.0
0
LINE
8
00_ALUMINIO
10
1895.490313
20
-33.273713
30
0.0
11
1895.721473
21
-33.407173
31
0.0
0
ARC
8
00_ALUMINIO
10
1895.680371
20
-33.211442
30
0.0
40
0.200000
50
281.859237
51
0.000000
0
LINE
8
00_ALUMINIO
10
1895.880371
20
-33.211442
30
0.0
11
1895.880371
21
-31.804452
31
0.0
0
ARC
8
00_ALUMINIO
10
1895.680371
20
-31.804452
30
0.0
40
0.200000
50
0.000000
51
58.619868
0
LINE
8
00_ALUMINIO
10
1895.784514
20
-31.633705
30
0.0
11
1893.715872
21
-30.371985
31
0.0
0
ARC
8
00_ALUMINIO
10
1894.080371
20
-29.774373
30
0.0
40
0.700000
50
180.000000
51
238.619868
0
LINE
8
00_ALUMINIO
10
1893.380371
20
-29.774373
30
0.0
11
1893.380371
21
-6.614874
31
0.0
0
ARC
8
00_ALUMINIO
10
1894.080371
20
-6.614874
30
0.0
40
0.700000
50
121.380132
51
180.000000
0
LINE
8
00_ALUMINIO
10
1893.715872
20
-6.017262
30
0.0
11
1895.784514
21
-4.755542
31
0.0
0
ARC
8
00_ALUMINIO
10
1895.680371
20
-4.584795
30
0.0
40
0.200000
50
301.380132
51
0.000000
0
LINE
8
00_ALUMINIO
10
1895.880371
20
-4.584795
30
0.0
11
1895.880371
21
-3.177805
31
0.0
0
ARC
8
00_ALUMINIO
10
1895.680371
20
-3.177805
30
0.0
40
0.200000
50
0.000000
51
181.773628
0
LINE
8
00_ALUMINIO
10
1895.480467
20
-3.183995
30
0.0
11
1893.804474
21
-4.206228
31
0.0
0
ARC
8
00_ALUMINIO
10
1893.648260
20
-3.950109
30
0.0
40
0.300000
50
270.000000
51
301.380132
0
LINE
8
00_ALUMINIO
10
1893.648260
20
-4.250109
30
0.0
11
1893.580371
21
-4.250109
31
0.0
0
ARC
8
00_ALUMINIO
10
1893.580371
20
-4.050109
30
0.0
40
0.200000
50
180.000000
51
270.000000
0
LINE
8
00_ALUMINIO
10
1893.380371
20
-4.050109
30
0.0
11
1893.380371
21
0.449891
31
0.0
0
ARC
8
00_ALUMINIO
10
1893.380371
20
0.749891
30
0.0
40
0.300000
50
90.000000
51
270.000000
0
LINE
8
00_ALUMINIO
10
1893.380371
20
1.049891
30
0.0
11
1893.735397
21
0.954340
31
0.0
0
ARC
8
00_ALUMINIO
10
1893.667263
20
0.662180
30
0.0
40
0.300000
50
51.176024
51
76.872879
0
LINE
8
00_ALUMINIO
10
1893.855342
20
0.895902
30
0.0
11
1895.498511
21
-0.426372
31
0.0
0
ARC
8
00_ALUMINIO
10
1895.373126
20
-0.582187
30
0.0
40
0.200000
50
358.000000
51
51.176024
0
LINE
8
00_ALUMINIO
10
1895.573004
20
-0.589167
30
0.0
11
1895.567574
21
-0.744654
31
0.0
0
ARC
8
00_ALUMINIO
10
1895.713106
20
-0.749736
30
0.0
40
0.145621
50
178.000000
51
322.253920
0
LINE
8
00_ALUMINIO
10
1895.828253
20
-0.838880
30
0.0
11
1897.892540
21
1.827561
31
0.0
0
ARC
8
00_ALUMINIO
10
1897.607633
20
1.921517
30
0.0
40
0.300000
50
341.748585
51
88.866021
0
LINE
8
00_ALUMINIO
10
1897.611018
20
2.221542
30
0.0
11
1896.954397
21
2.240155
31
0.0
0
ARC
8
00_ALUMINIO
10
1896.940229
20
1.740356
30
0.0
40
0.500000
50
88.376251
51
128.194227
0
ARC
8
00_ALUMINIO
10
1895.394406
20
3.705154
30
0.0
40
2.000000
50
236.002945
51
308.194227
0
LINE
8
00_ALUMINIO
10
1894.276105
20
2.047021
30
0.0
11
1893.857722
21
2.252230
31
0.0
0
ARC
8
00_ALUMINIO
10
1894.076964
20
2.969470
30
0.0
40
0.750000
50
229.144917
51
253.002945
0
LINE
8
00_ALUMINIO
10
1893.586352
20
2.402195
30
0.0
11
1884.780411
21
2.402195
31
0.0
0
LINE
8
00_ALUMINIO
10
1884.780411
20
2.402195
30
0.0
11
1884.780411
21
7.402195
31
0.0
0
LINE
8
00_ALUMINIO
10
1884.780411
20
7.402195
30
0.0
11
1882.280411
21
7.402195
31
0.0
0
LINE
8
00_ALUMINIO
10
1882.280411
20
7.402195
30
0.0
11
1881.280411
21
6.402195
31
0.0
0
LINE
8
00_ALUMINIO
10
1881.280411
20
6.402195
30
0.0
11
1881.280411
21
5.402195
31
0.0
0
LINE
8
00_ALUMINIO
10
1881.280411
20
5.402195
30
0.0
11
1883.280411
21
5.402195
31
0.0
0
LINE
8
00_ALUMINIO
10
1883.280411
20
5.402195
30
0.0
11
1883.280411
21
2.402195
31
0.0
0
LINE
8
00_ALUMINIO
10
1883.280411
20
2.402195
30
0.0
11
1865.280411
21
2.402195
31
0.0
0
LINE
8
00_ALUMINIO
10
1865.280411
20
2.402195
30
0.0
11
1865.280411
21
5.402195
31
0.0
0
LINE
8
00_ALUMINIO
10
1865.280411
20
5.402195
30
0.0
11
1867.280411
21
5.402195
31
0.0
0
LINE
8
00_ALUMINIO
10
1867.280411
20
5.402195
30
0.0
11
1867.280411
21
6.402195
31
0.0
0
LINE
8
00_ALUMINIO
10
1867.280411
20
6.402195
30
0.0
11
1866.280411
21
7.402195
31
0.0
0
LINE
8
00_ALUMINIO
10
1866.280411
20
7.402195
30
0.0
11
1863.780411
21
7.402195
31
0.0
0
LINE
8
00_ALUMINIO
10
1863.780411
20
7.402195
30
0.0
11
1863.780411
21
-60.297805
31
0.0
0
ARC
8
00_ALUMINIO
10
1864.280411
20
-60.297805
30
0.0
40
0.500000
50
180.000000
51
270.000000
0
LINE
8
00_ALUMINIO
10
1864.280411
20
-60.797805
30
0.0
11
1866.780411
21
-60.797805
31
0.0
0
ARC
8
00_ALUMINIO
10
1866.780411
20
-60.297805
30
0.0
40
0.500000
50
270.000000
51
0.000000
0
LINE
8
00_ALUMINIO
10
1867.280411
20
-60.297805
30
0.0
11
1867.280411
21
-59.547805
31
0.0
0
LINE
8
00_ALUMINIO
10
1867.280411
20
-59.547805
30
0.0
11
1866.780411
21
-58.047805
31
0.0
0
LINE
8
00_ALUMINIO
10
1866.780411
20
-58.047805
30
0.0
11
1866.280411
21
-58.047805
31
0.0
0
LINE
8
00_ALUMINIO
10
1866.280411
20
-58.047805
30
0.0
11
1866.280411
21
-59.547805
31
0.0
0
LINE
8
00_ALUMINIO
10
1866.280411
20
-59.547805
30
0.0
11
1864.980411
21
-59.547805
31
0.0
0
LINE
8
00_ALUMINIO
10
1864.980411
20
-59.547805
30
0.0
11
1864.980411
21
-53.047805
31
0.0
0
LINE
8
00_ALUMINIO
10
1864.980411
20
-53.047805
30
0.0
11
1866.280411
21
-53.047805
31
0.0
0
LINE
8
00_ALUMINIO
10
1866.280411
20
-53.047805
30
0.0
11
1866.280411
21
-54.547805
31
0.0
0
LINE
8
00_ALUMINIO
10
1866.280411
20
-54.547805
30
0.0
11
1866.780411
21
-54.547805
31
0.0
0
LINE
8
00_ALUMINIO
10
1866.780411
20
-54.547805
30
0.0
11
1867.280411
21
-53.047805
31
0.0
0
LINE
8
00_ALUMINIO
10
1867.280411
20
-53.047805
30
0.0
11
1867.280411
21
-50.798329
31
0.0
0
ARC
8
00_ALUMINIO
10
1866.980411
20
-50.798329
30
0.0
40
0.300000
50
0.000000
51
90.000000
0
LINE
8
00_ALUMINIO
10
1866.980411
20
-50.498329
30
0.0
11
1866.828224
21
-50.498329
31
0.0
0
ARC
8
00_ALUMINIO
10
1866.828224
20
-50.798329
30
0.0
40
0.300000
50
90.000000
51
180.000000
0
LINE
8
00_ALUMINIO
10
1866.528224
20
-50.798329
30
0.0
11
1866.528224
21
-51.597805
31
0.0
0
LINE
8
00_ALUMINIO
10
1866.528224
20
-51.597805
30
0.0
11
1865.380411
21
-51.597805
31
0.0
0
LINE
8
00_ALUMINIO
10
1865.380411
20
-51.597805
30
0.0
11
1865.380411
21
-38.797805
31
0.0
0
LINE
8
00_ALUMINIO
10
1865.380411
20
-38.797805
30
0.0
11
1866.528224
21
-38.797805
31
0.0
0
LINE
8
00_ALUMINIO
10
1866.528224
20
-38.797805
30
0.0
11
1866.528224
21
-39.597281
31
0.0
0
ARC
8
00_ALUMINIO
10
1866.828224
20
-39.597281
30
0.0
40
0.300000
50
180.000000
51
270.000000
0
LINE
8
00_ALUMINIO
10
1866.828224
20
-39.897281
30
0.0
11
1866.980411
21
-39.897281
31
0.0
0
ARC
8
00_ALUMINIO
10
1866.980411
20
-39.597281
30
0.0
40
0.300000
50
270.000000
51
0.000000
0
LINE
8
00_ALUMINIO
10
1867.280411
20
-39.597281
30
0.0
11
1867.280411
21
-38.797805
31
0.0
0
LINE
8
00_ALUMINIO
10
1867.280411
20
-38.797805
30
0.0
11
1870.280371
21
-38.797805
31
0.0
0
LINE
8
00_ALUMINIO
10
1870.280371
20
-38.797805
30
0.0
11
1870.280371
21
-41.797805
31
0.0
0
ARC
8
00_ALUMINIO
10
1870.280411
20
-42.297805
30
0.0
40
0.500000
50
90.004494
51
180.000000
0
LINE
8
00_ALUMINIO
10
1869.780411
20
-42.297805
30
0.0
11
1869.780411
21
-42.797805
31
0.0
0
ARC
8
00_ALUMINIO
10
1870.280411
20
-42.797805
30
0.0
40
0.500000
50
180.000000
51
270.000000
0
LINE
8
00_ALUMINIO
10
1870.280411
20
-43.297805
30
0.0
11
1874.280371
21
-43.297805
31
0.0
0
LINE
8
00_ALUMINIO
10
1874.280371
20
-43.297805
30
0.0
11
1874.280371
21
-41.797805
31
0.0
0
LINE
8
00_ALUMINIO
10
1874.280371
20
-41.797805
30
0.0
11
1871.780371
21
-41.797805
31
0.0
0
LINE
8
00_ALUMINIO
10
1871.780371
20
-41.797805
30
0.0
11
1871.780371
21
-38.797805
31
0.0
0
LINE
8
00_ALUMINIO
10
1871.780371
20
-38.797805
30
0.0
11
1874.280371
21
-38.797805
31
0.0
0
LINE
8
00_ALUMINIO
10
1874.280371
20
-38.797805
30
0.0
11
1874.280371
21
-36.297805
31
0.0
0
LINE
8
00_ALUMINIO
10
1874.280371
20
-36.297805
30
0.0
11
1886.780371
21
-36.297805
31
0.0
0
LINE
8
00_ALUMINIO
10
1886.780371
20
-36.297805
30
0.0
11
1889.280371
21
-38.797805
31
0.0
0
LINE
8
00_ALUMINIO
10
1889.280371
20
-38.797805
30
0.0
11
1891.780371
21
-38.797805
31
0.0
0
LINE
8
00_ALUMINIO
10
1891.780371
20
-38.797805
30
0.0
11
1891.780371
21
-41.797805
31
0.0
0
LINE
8
00_ALUMINIO
10
1891.780371
20
-41.797805
30
0.0
11
1889.280371
21
-41.797805
31
0.0
0
LINE
8
00_ALUMINIO
10
1889.280371
20
-41.797805
30
0.0
11
1889.280371
21
-43.297805
31
0.0
0
LINE
8
00_ALUMINIO
10
1889.280371
20
-43.297805
30
0.0
11
1893.480371
21
-43.297805
31
0.0
0
LINE
8
00_ALUMINIO
10
1893.480371
20
-43.297805
30
0.0
11
1894.257424
21
-40.397805
31
0.0
0
LINE
8
00_ALUMINIO
10
1894.257424
20
-40.397805
30
0.0
11
1893.380371
21
-40.397805
31
0.0
0
LINE
8
00_ALUMINIO
10
1893.380371
20
-40.397805
30
0.0
11
1893.380371
21
-39.343105
31
0.0
0
ARC
8
00_ALUMINIO
10
1894.130371
20
-39.343105
30
0.0
40
0.750000
50
116.127032
51
180.000000
0
LINE
8
00_ALUMINIO
10
1893.800099
20
-38.669740
30
0.0
11
1894.276105
21
-38.436268
31
0.0
0
ARC
8
00_ALUMINIO
10
1895.394406
20
-40.094401
30
0.0
40
2.000000
50
51.805773
51
123.997055
0
ARC
8
00_ALUMINIO
10
1896.940229
20
-38.129603
30
0.0
40
0.500000
50
231.805773
51
271.623749
0
LINE
8
00_ALUMINIO
10
1896.954397
20
-38.629402
30
0.0
11
1897.611018
21
-38.610789
31
0.0
0
LINE
8
00_ALUMINIO
10
1897.611018
20
-38.610789
30
0.0
11
1897.621270
21
-38.610454
31
0.0
0
ARC
8
00_ALUMINIO
10
1897.607633
20
-38.310764
30
0.0
40
0.300000
50
272.605413
51
18.251415
0
LINE
8
00_ALUMINIO
10
1897.892540
20
-38.216808
30
0.0
11
1895.857138
21
-35.587678
31
0.0
0
LINE
8
00_ALUMINIO
10
1895.857138
20
-35.587678
30
0.0
11
1895.571348
21
-35.752679
31
0.0
0
LINE
8
00_ALUMINIO
10
1895.571348
20
-35.752679
30
0.0
11
1895.573004
21
-35.800080
31
0.0
0
ARC
8
00_ALUMINIO
10
1895.373126
20
-35.807060
30
0.0
40
0.200000
50
308.823976
51
2.000000
0
LINE
8
00_ALUMINIO
10
1895.498511
20
-35.962875
30
0.0
11
1893.855342
21
-37.285150
31
0.0
0
ARC
8
00_ALUMINIO
10
1893.667263
20
-37.051427
30
0.0
40
0.300000
50
287.000000
51
308.823976
0
LINE
8
00_ALUMINIO
10
1893.754974
20
-37.338318
30
0.0
11
1893.380371
21
-37.439138
31
0.0
0
ARC
8
00_ALUMINIO
10
1893.380371
20
-37.139138
30
0.0
40
0.300000
50
90.000000
51
270.000000
0
LINE
8
00_ALUMINIO
10
1893.380371
20
-36.839138
30
0.0
11
1893.380371
21
-32.339138
31
0.0
0
LINE
8
00_ALUMINIO
10
1910.180371
20
3.002195
30
0.0
11
1911.180371
21
3.002195
31
0.0
0
LINE
8
00_ALUMINIO
10
1911.180371
20
3.002195
30
0.0
11
1911.180371
21
4.002195
31
0.0
0
LINE
8
00_ALUMINIO
10
1911.180371
20
4.002195
30
0.0
11
1910.180371
21
4.502195
31
0.0
0
LINE
8
00_ALUMINIO
10
1910.180371
20
4.502195
30
0.0
11
1910.180371
21
5.306341
31
0.0
0
ARC
8
00_ALUMINIO
10
1910.480371
20
5.306341
30
0.0
40
0.300000
50
90.000000
51
180.000000
0
LINE
8
00_ALUMINIO
10
1910.480371
20
5.606341
30
0.0
11
1911.129940
21
5.606341
31
0.0
0
ARC
8
00_ALUMINIO
10
1911.129940
20
5.906341
30
0.0
40
0.300000
50
270.000000
51
0.000000
0
LINE
8
00_ALUMINIO
10
1911.429940
20
5.906341
30
0.0
11
1911.429940
21
18.206341
31
0.0
0
ARC
8
00_ALUMINIO
10
1911.129940
20
18.206341
30
0.0
40
0.300000
50
0.000000
51
90.000000
0
LINE
8
00_ALUMINIO
10
1911.129940
20
18.506341
30
0.0
11
1910.479940
21
18.506341
31
0.0
0
ARC
8
00_ALUMINIO
10
1910.479940
20
18.806341
30
0.0
40
0.300000
50
180.000000
51
270.000000
0
LINE
8
00_ALUMINIO
10
1910.179940
20
18.806341
30
0.0
11
1910.179940
21
25.206341
31
0.0
0
ARC
8
00_ALUMINIO
10
1910.679940
20
25.206341
30
0.0
40
0.500000
50
90.000000
51
180.000000
0
LINE
8
00_ALUMINIO
10
1910.679940
20
25.706341
30
0.0
11
1914.479940
21
25.706341
31
0.0
0
ARC
8
00_ALUMINIO
10
1914.479940
20
25.206341
30
0.0
40
0.500000
50
0.000000
51
90.000000
0
LINE
8
00_ALUMINIO
10
1914.979940
20
25.206341
30
0.0
11
1914.979940
21
4.502195
31
0.0
0
LINE
8
00_ALUMINIO
10
1914.979940
20
4.502195
30
0.0
11
1914.179940
21
4.002195
31
0.0
0
LINE
8
00_ALUMINIO
10
1914.179940
20
4.002195
30
0.0
11
1914.179940
21
3.002195
31
0.0
0
LINE
8
00_ALUMINIO
10
1914.179940
20
3.002195
30
0.0
11
1915.179940
21
3.002195
31
0.0
0
LINE
8
00_ALUMINIO
10
1915.179940
20
3.002195
30
0.0
11
1915.179940
21
-28.597805
31
0.0
0
LINE
8
00_ALUMINIO
10
1915.179940
20
-28.597805
30
0.0
11
1910.180371
21
-28.597805
31
0.0
0
LINE
8
00_ALUMINIO
10
1910.180371
20
-28.597805
30
0.0
11
1910.180371
21
3.002195
31
0.0
0
ARC
8
00_ALUMINIO
10
1907.283779
20
2.968928
30
0.0
40
0.750000
50
286.997055
51
310.918342
0
LINE
8
00_ALUMINIO
10
1907.503021
20
2.251688
30
0.0
11
1907.084638
21
2.046479
31
0.0
0
ARC
8
00_ALUMINIO
10
1905.966337
20
3.704612
30
0.0
40
2.000000
50
231.805773
51
303.997055
0
ARC
8
00_ALUMINIO
10
1904.420514
20
1.739814
30
0.0
40
0.500000
50
51.805773
51
91.623749
0
LINE
8
00_ALUMINIO
10
1904.406346
20
2.239613
30
0.0
11
1903.749725
21
2.221000
31
0.0
0
ARC
8
00_ALUMINIO
10
1903.753110
20
1.920975
30
0.0
40
0.300000
50
91.133979
51
198.251415
0
LINE
8
00_ALUMINIO
10
1903.468203
20
1.827019
30
0.0
11
1905.532490
21
-0.839422
31
0.0
0
ARC
8
00_ALUMINIO
10
1905.647637
20
-0.750278
30
0.0
40
0.145621
50
217.746080
51
2.000000
0
LINE
8
00_ALUMINIO
10
1905.793169
20
-0.745196
30
0.0
11
1905.787739
21
-0.589709
31
0.0
0
ARC
8
00_ALUMINIO
10
1905.987617
20
-0.582729
30
0.0
40
0.200000
50
128.823976
51
182.000000
0
LINE
8
00_ALUMINIO
10
1905.862231
20
-0.426914
30
0.0
11
1907.505401
21
0.895360
31
0.0
0
ARC
8
00_ALUMINIO
10
1907.693480
20
0.661638
30
0.0
40
0.300000
50
103.127121
51
128.823976
0
LINE
8
00_ALUMINIO
10
1907.625346
20
0.953798
30
0.0
11
1907.980371
21
1.049349
31
0.0
0
ARC
8
00_ALUMINIO
10
1907.980371
20
0.749349
30
0.0
40
0.300000
50
270.000000
51
90.000000
0
LINE
8
00_ALUMINIO
10
1907.980371
20
0.449349
30
0.0
11
1907.980371
21
-4.050651
31
0.0
0
ARC
8
00_ALUMINIO
10
1907.780371
20
-4.050651
30
0.0
40
0.200000
50
270.000000
51
0.000000
0
LINE
8
00_ALUMINIO
10
1907.780371
20
-4.250651
30
0.0
11
1907.712483
21
-4.250651
31
0.0
0
ARC
8
00_ALUMINIO
10
1907.712483
20
-3.950651
30
0.0
40
0.300000
50
238.619868
51
270.000000
0
LINE
8
00_ALUMINIO
10
1907.556269
20
-4.206770
30
0.0
11
1905.880276
21
-3.184537
31
0.0
0
ARC
8
00_ALUMINIO
10
1905.680371
20
-3.178347
30
0.0
40
0.200000
50
358.226373
51
180.000000
0
LINE
8
00_ALUMINIO
10
1905.480371
20
-3.178347
30
0.0
11
1905.480371
21
-4.585337
31
0.0
0
ARC
8
00_ALUMINIO
10
1905.680371
20
-4.585337
30
0.0
40
0.200000
50
180.000000
51
238.619868
0
LINE
8
00_ALUMINIO
10
1905.576229
20
-4.756084
30
0.0
11
1908.144871
21
-6.322767
31
0.0
0
ARC
8
00_ALUMINIO
10
1907.780371
20
-6.920379
30
0.0
40
0.700000
50
0.000000
51
58.619868
0
LINE
8
00_ALUMINIO
10
1908.480371
20
-6.920379
30
0.0
11
1908.480371
21
-29.475231
31
0.0
0
ARC
8
00_ALUMINIO
10
1907.780371
20
-29.475231
30
0.0
40
0.700000
50
301.380132
51
0.000000
0
LINE
8
00_ALUMINIO
10
1908.144871
20
-30.072843
30
0.0
11
1905.576229
21
-31.639526
31
0.0
0
ARC
8
00_ALUMINIO
10
1905.680371
20
-31.810273
30
0.0
40
0.200000
50
121.380132
51
180.000000
0
LINE
8
00_ALUMINIO
10
1905.480371
20
-31.810273
30
0.0
11
1905.480371
21
-33.217263
31
0.0
0
ARC
8
00_ALUMINIO
10
1905.680371
20
-33.217263
30
0.0
40
0.200000
50
180.000000
51
1.773628
0
LINE
8
00_ALUMINIO
10
1905.880276
20
-33.211073
30
0.0
11
1907.556269
21
-32.188840
31
0.0
0
ARC
8
00_ALUMINIO
10
1907.712483
20
-32.444959
30
0.0
40
0.300000
50
90.000000
51
121.380132
0
LINE
8
00_ALUMINIO
10
1907.712483
20
-32.144959
30
0.0
11
1907.780371
21
-32.144959
31
0.0
0
ARC
8
00_ALUMINIO
10
1907.780371
20
-32.344959
30
0.0
40
0.200000
50
0.000000
51
90.000000
0
LINE
8
00_ALUMINIO
10
1907.980371
20
-32.344959
30
0.0
11
1907.980371
21
-36.844959
31
0.0
0
ARC
8
00_ALUMINIO
10
1907.980371
20
-37.144959
30
0.0
40
0.300000
50
270.000000
51
90.000000
0
LINE
8
00_ALUMINIO
10
1907.980371
20
-37.444959
30
0.0
11
1907.625346
21
-37.349408
31
0.0
0
ARC
8
00_ALUMINIO
10
1907.693480
20
-37.057248
30
0.0
40
0.300000
50
231.176024
51
256.872879
0
LINE
8
00_ALUMINIO
10
1907.505401
20
-37.290971
30
0.0
11
1905.862231
21
-35.968696
31
0.0
0
ARC
8
00_ALUMINIO
10
1905.987617
20
-35.812881
30
0.0
40
0.200000
50
178.000000
51
231.176024
0
LINE
8
00_ALUMINIO
10
1905.787739
20
-35.805901
30
0.0
11
1905.793169
21
-35.650414
31
0.0
0
ARC
8
00_ALUMINIO
10
1905.647637
20
-35.645332
30
0.0
40
0.145621
50
358.000000
51
142.253920
0
LINE
8
00_ALUMINIO
10
1905.532490
20
-35.556188
30
0.0
11
1903.468203
21
-38.222629
31
0.0
0
ARC
8
00_ALUMINIO
10
1903.753110
20
-38.316585
30
0.0
40
0.300000
50
161.748585
51
268.866021
0
LINE
8
00_ALUMINIO
10
1903.749725
20
-38.616610
30
0.0
11
1904.406346
21
-38.635223
31
0.0
0
ARC
8
00_ALUMINIO
10
1904.420514
20
-38.135424
30
0.0
40
0.500000
50
268.376251
51
308.194227
0
ARC
8
00_ALUMINIO
10
1905.966337
20
-40.100222
30
0.0
40
2.000000
50
56.002945
51
128.194227
0
LINE
8
00_ALUMINIO
10
1907.084638
20
-38.442089
30
0.0
11
1907.503021
21
-38.647298
31
0.0
0
ARC
8
00_ALUMINIO
10
1907.283779
20
-39.364538
30
0.0
40
0.750000
50
49.081658
51
73.002945
0
LINE
8
00_ALUMINIO
10
1907.775016
20
-38.797805
30
0.0
11
1910.279940
21
-38.797805
31
0.0
0
LINE
8
00_ALUMINIO
10
1910.279940
20
-38.797805
30
0.0
11
1910.279940
21
-30.797805
31
0.0
0
ARC
8
00_ALUMINIO
10
1910.779940
20
-30.797805
30
0.0
40
0.500000
50
90.000000
51
180.000000
0
LINE
8
00_ALUMINIO
10
1910.779940
20
-30.297805
30
0.0
11
1916.279940
21
-30.297805
31
0.0
0
ARC
8
00_ALUMINIO
10
1916.279940
20
-29.797805
30
0.0
40
0.500000
50
270.000000
51
0.000000
0
LINE
8
00_ALUMINIO
10
1916.779940
20
-29.797805
30
0.0
11
1916.779940
21
26.906341
31
0.0
0
ARC
8
00_ALUMINIO
10
1916.279940
20
26.906341
30
0.0
40
0.500000
50
0.000000
51
90.000000
0
LINE
8
00_ALUMINIO
10
1916.279940
20
27.406341
30
0.0
11
1906.779940
21
27.406341
31
0.0
0
ARC
8
00_ALUMINIO
10
1906.779940
20
26.906341
30
0.0
40
0.500000
50
90.000000
51
180.000000
0
LINE
8
00_ALUMINIO
10
1906.279940
20
26.906341
30
0.0
11
1906.279940
21
24.656341
31
0.0
0
ARC
8
00_ALUMINIO
10
1906.779940
20
24.656341
30
0.0
40
0.500000
50
180.000000
51
0.000000
0
LINE
8
00_ALUMINIO
10
1907.279940
20
24.656341
30
0.0
11
1907.279940
21
25.906341
31
0.0
0
LINE
8
00_ALUMINIO
10
1907.279940
20
25.906341
30
0.0
11
1908.479940
21
25.906341
31
0.0
0
LINE
8
00_ALUMINIO
10
1908.479940
20
25.906341
30
0.0
11
1908.479940
21
18.406341
31
0.0
0
LINE
8
00_ALUMINIO
10
1908.479940
20
18.406341
30
0.0
11
1907.279940
21
18.406341
31
0.0
0
LINE
8
00_ALUMINIO
10
1907.279940
20
18.406341
30
0.0
11
1907.279940
21
19.656341
31
0.0
0
ARC
8
00_ALUMINIO
10
1906.779940
20
19.656341
30
0.0
40
0.500000
50
0.000000
51
180.000000
0
LINE
8
00_ALUMINIO
10
1906.279940
20
19.656341
30
0.0
11
1906.279940
21
15.806341
31
0.0
0
ARC
8
00_ALUMINIO
10
1906.754940
20
15.781341
30
0.0
40
0.475657
50
176.987212
51
3.012788
0
LINE
8
00_ALUMINIO
10
1907.229940
20
15.806341
30
0.0
11
1907.229940
21
16.806341
31
0.0
0
LINE
8
00_ALUMINIO
10
1907.229940
20
16.806341
30
0.0
11
1909.729940
21
16.806341
31
0.0
0
LINE
8
00_ALUMINIO
10
1909.729940
20
16.806341
30
0.0
11
1909.729940
21
7.306341
31
0.0
0
LINE
8
00_ALUMINIO
10
1909.729940
20
7.306341
30
0.0
11
1907.229940
21
7.306341
31
0.0
0
LINE
8
00_ALUMINIO
10
1907.229940
20
7.306341
30
0.0
11
1907.229940
21
8.306341
31
0.0
0
ARC
8
00_ALUMINIO
10
1906.754940
20
8.331341
30
0.0
40
0.475657
50
356.987213
51
183.012788
0
LINE
8
00_ALUMINIO
10
1906.279940
20
8.306341
30
0.0
11
1906.279940
21
6.206341
31
0.0
0
ARC
8
00_ALUMINIO
10
1906.779940
20
6.206341
30
0.0
40
0.500000
50
180.000000
51
270.000000
0
LINE
8
00_ALUMINIO
10
1906.779940
20
5.706341
30
0.0
11
1908.180371
21
5.706341
31
0.0
0
ARC
8
00_ALUMINIO
10
1908.180371
20
5.406341
30
0.0
40
0.300000
50
0.000000
51
90.000000
0
LINE
8
00_ALUMINIO
10
1908.480371
20
5.406341
30
0.0
11
1908.480371
21
2.702195
31
0.0
0
ARC
8
00_ALUMINIO
10
1908.180371
20
2.702195
30
0.0
40
0.300000
50
270.000000
51
0.000000
0
LINE
8
00_ALUMINIO
10
1908.180371
20
2.402195
30
0.0
11
1907.775016
21
2.402195
31
0.0
0
ATTDEF
8
0
10
0.000000
20
0.000000
30
0.0
40
3.5
1

3

2
PANE_WIDTH:0
70
0
0
ATTDEF
8
0
10
0.000000
20
0.000000
30
0.0
40
3.5
1

3

2
MIN_VETRO:0
70
0
0
ATTDEF
8
0
10
0.000000
20
0.000000
30
0.0
40
3.5
1

3

2
MAX_VETRO:0
70
0
0
ATTDEF
8
0
10
0.000000
20
0.000000
30
0.0
40
3.5
1

3

2
JX:0
70
0
0
ATTDEF
8
0
10
0.000000
20
0.000000
30
0.0
40
3.5
1

3

2
WX:0
70
0
0
ATTDEF
8
0
10
0.000000
20
0.000000
30
0.0
40
3.5
1

3

2
JY:0
70
0
0
ATTDEF
8
0
10
0.000000
20
0.000000
30
0.0
40
3.5
1

3

2
WY:0
70
0
0
ATTDEF
8
0
10
0.000000
20
0.000000
30
0.0
40
3.5
1

3

2
DESC:Hoja recta puerta
70
0
0
ATTDEF
8
0
10
0.000000
20
0.000000
30
0.0
40
3.5
1

3

2
DENS:1.828
70
0
0
ATTDEF
8
0
10
0.000000
20
0.000000
30
0.0
40
3.5
1

3

2
TDEV:77.07
70
0
0
ATTDEF
8
0
10
0.000000
20
0.000000
30
0.0
40
3.5
1

3

2
TDEV2:0
70
0
0
ATTDEF
8
0
10
0.000000
20
0.000000
30
0.0
40
3.5
1

3

2
TDEV3:0
70
0
0
ATTDEF
8
0
10
0.000000
20
0.000000
30
0.0
40
3.5
1

3

2
TDEV4:0
70
0
0
ATTDEF
8
0
10
0.000000
20
0.000000
30
0.0
40
3.5
1

3

2
TDEV5:0
70
0
0
ATTDEF
8
0
10
0.000000
20
0.000000
30
0.0
40
3.5
1

3

2
PANE_WIDTH:0
70
0
0
ATTDEF
8
0
10
0.000000
20
0.000000
30
0.0
40
3.5
1

3

2
MIN_VETRO:0
70
0
0
ATTDEF
8
0
10
0.000000
20
0.000000
30
0.0
40
3.5
1

3

2
MAX_VETRO:0
70
0
0
ATTDEF
8
0
10
0.000000
20
0.000000
30
0.0
40
3.5
1

3

2
JX:0
70
0
0
ATTDEF
8
0
10
0.000000
20
0.000000
30
0.0
40
3.5
1

3

2
WX:0
70
0
0
ATTDEF
8
0
10
0.000000
20
0.000000
30
0.0
40
3.5
1

3

2
JY:0
70
0
0
ATTDEF
8
0
10
0.000000
20
0.000000
30
0.0
40
3.5
1

3

2
WY:0
70
0
0
ENDSEC
0
EOF
