0
SECTION
2
ENTITIES
0
LINE
8
0
10
4216.133157
20
1232.693626
30
0.0
11
4216.455611
21
1233.016080
31
0.0
0
LINE
8
0
10
4217.144176
20
1231.459581
30
0.0
11
4218.004185
21
1232.319590
31
0.0
0
LINE
8
0
10
4216.753116
20
1228.823457
30
0.0
11
4219.752121
21
1231.822461
31
0.0
0
LINE
8
0
10
4220.197185
20
1230.022461
30
0.0
11
4221.997185
21
1231.822461
31
0.0
0
LINE
8
0
10
4222.442249
20
1230.022461
30
0.0
11
4224.242249
21
1231.822461
31
0.0
0
LINE
8
0
10
4224.687313
20
1230.022461
30
0.0
11
4226.487313
21
1231.822461
31
0.0
0
LINE
8
0
10
4226.932377
20
1230.022461
30
0.0
11
4229.748785
21
1232.838869
31
0.0
0
LINE
8
0
10
4228.742190
20
1229.587211
30
0.0
11
4229.605840
21
1230.450861
31
0.0
0
LINE
8
0
10
4230.222505
20
1228.822461
30
0.0
11
4230.726775
21
1229.326732
31
0.0
0
LINE
8
0
10
4217.553908
20
1229.265365
30
0.0
11
4216.421872
21
1230.397401
31
0.0
0
LINE
8
0
10
4219.042726
20
1230.021611
30
0.0
11
4216.204686
21
1232.859651
31
0.0
0
LINE
8
0
10
4221.286940
20
1230.022461
30
0.0
11
4219.486940
21
1231.822461
31
0.0
0
LINE
8
0
10
4223.579743
20
1229.974722
30
0.0
11
4221.732004
21
1231.822461
31
0.0
0
LINE
8
0
10
4225.777068
20
1230.022461
30
0.0
11
4223.977068
21
1231.822461
31
0.0
0
LINE
8
0
10
4228.085131
20
1229.959462
30
0.0
11
4226.222132
21
1231.822461
31
0.0
0
LINE
8
0
10
4230.726775
20
1229.562882
30
0.0
11
4229.967118
21
1230.322539
31
0.0
0
LINE
8
0
10
4229.376853
20
1230.912804
30
0.0
11
4228.291913
21
1231.997744
31
0.0
0
LINE
8
0
10
4230.626775
20
1231.907946
30
0.0
11
4229.715227
21
1232.819495
31
0.0
0
ARC
8
0
10
4230.314969
20
1231.647461
30
0.0
40
0.200000
50
244.992167
51
286.231301
0
ARC
8
0
10
4230.426775
20
1231.647461
30
0.0
40
0.200000
50
253.768699
51
0.000000
0
LINE
8
0
10
4230.626775
20
1231.647461
30
0.0
11
4230.626775
21
1232.022461
31
0.0
0
LINE
8
0
10
4230.626775
20
1232.022461
30
0.0
11
4230.726775
21
1232.022461
31
0.0
0
LINE
8
0
10
4230.726775
20
1232.022461
30
0.0
11
4230.726775
21
1232.622461
31
0.0
0
ARC
8
0
10
4230.326775
20
1232.622461
30
0.0
40
0.400000
50
0.000000
51
90.000000
0
LINE
8
0
10
4230.326775
20
1233.022461
30
0.0
11
4230.120365
21
1233.022461
31
0.0
0
ARC
8
0
10
4230.120365
20
1232.822461
30
0.0
40
0.200000
50
90.000000
51
120.000000
0
LINE
8
0
10
4230.020365
20
1232.995667
30
0.0
11
4228.173955
21
1231.929641
31
0.0
0
ARC
8
0
10
4227.773955
20
1232.622461
30
0.0
40
0.800000
50
270.000000
51
300.000000
0
LINE
8
0
10
4227.773955
20
1231.822461
30
0.0
11
4223.426775
21
1231.822461
31
0.0
0
LINE
8
0
10
4223.426775
20
1231.822461
30
0.0
11
4219.079596
21
1231.822461
31
0.0
0
ARC
8
0
10
4219.079596
20
1232.622461
30
0.0
40
0.800000
50
240.000000
51
270.000000
0
LINE
8
0
10
4218.679596
20
1231.929641
30
0.0
11
4216.833186
21
1232.995667
31
0.0
0
ARC
8
0
10
4216.733186
20
1232.822461
30
0.0
40
0.200000
50
60.000000
51
90.000000
0
LINE
8
0
10
4216.733186
20
1233.022461
30
0.0
11
4216.526775
21
1233.022461
31
0.0
0
ARC
8
0
10
4216.526775
20
1232.622461
30
0.0
40
0.400000
50
90.000000
51
180.000000
0
LINE
8
0
10
4216.126775
20
1232.622461
30
0.0
11
4216.126775
21
1232.022461
31
0.0
0
LINE
8
0
10
4216.126775
20
1232.022461
30
0.0
11
4216.226775
21
1232.022461
31
0.0
0
LINE
8
0
10
4216.226775
20
1232.022461
30
0.0
11
4216.226775
21
1231.647461
31
0.0
0
ARC
8
0
10
4216.426775
20
1231.647461
30
0.0
40
0.200000
50
180.000000
51
286.231301
0
ARC
8
0
10
4216.538582
20
1231.647461
30
0.0
40
0.200000
50
253.768699
51
295.007833
0
ARC
8
0
10
4216.876775
20
1230.922461
30
0.0
40
0.600000
50
0.000000
51
115.007833
0
ARC
8
0
10
4216.876775
20
1230.922461
30
0.0
40
0.600000
50
244.992167
51
0.000000
0
ARC
8
0
10
4216.538582
20
1230.197461
30
0.0
40
0.200000
50
64.992167
51
106.231301
0
ARC
8
0
10
4216.426775
20
1230.197461
30
0.0
40
0.200000
50
73.768699
51
180.000000
0
LINE
8
0
10
4216.226775
20
1230.197461
30
0.0
11
4216.226775
21
1229.822461
31
0.0
0
LINE
8
0
10
4216.226775
20
1229.822461
30
0.0
11
4216.126775
21
1229.822461
31
0.0
0
LINE
8
0
10
4216.126775
20
1229.822461
30
0.0
11
4216.126775
21
1229.222461
31
0.0
0
ARC
8
0
10
4216.526775
20
1229.222461
30
0.0
40
0.400000
50
180.000000
51
270.000000
0
LINE
8
0
10
4216.526775
20
1228.822461
30
0.0
11
4216.733186
21
1228.822461
31
0.0
0
ARC
8
0
10
4216.733186
20
1229.022461
30
0.0
40
0.200000
50
270.000000
51
300.000000
0
LINE
8
0
10
4216.833186
20
1228.849256
30
0.0
11
4218.679596
21
1229.915282
31
0.0
0
ARC
8
0
10
4219.079596
20
1229.222461
30
0.0
40
0.800000
50
90.000000
51
120.000000
0
LINE
8
0
10
4219.079596
20
1230.022461
30
0.0
11
4223.143933
21
1230.022461
31
0.0
0
ARC
8
0
10
4223.143933
20
1229.822461
30
0.0
40
0.200000
50
51.057559
51
90.000000
0
ARC
8
0
10
4223.426775
20
1230.172461
30
0.0
40
0.250000
50
231.057559
51
308.942441
0
ARC
8
0
10
4223.709618
20
1229.822461
30
0.0
40
0.200000
50
90.000000
51
128.942441
0
LINE
8
0
10
4223.709618
20
1230.022461
30
0.0
11
4227.773955
21
1230.022461
31
0.0
0
ARC
8
0
10
4227.773955
20
1229.222461
30
0.0
40
0.800000
50
60.000000
51
90.000000
0
LINE
8
0
10
4228.173955
20
1229.915282
30
0.0
11
4230.020365
21
1228.849256
31
0.0
0
ARC
8
0
10
4230.120365
20
1229.022461
30
0.0
40
0.200000
50
240.000000
51
270.000000
0
LINE
8
0
10
4230.120365
20
1228.822461
30
0.0
11
4230.326775
21
1228.822461
31
0.0
0
ARC
8
0
10
4230.326775
20
1229.222461
30
0.0
40
0.400000
50
270.000000
51
0.000000
0
LINE
8
0
10
4230.726775
20
1229.222461
30
0.0
11
4230.726775
21
1229.822461
31
0.0
0
LINE
8
0
10
4230.726775
20
1229.822461
30
0.0
11
4230.626775
21
1229.822461
31
0.0
0
LINE
8
0
10
4230.626775
20
1229.822461
30
0.0
11
4230.626775
21
1230.197461
31
0.0
0
ARC
8
0
10
4230.426775
20
1230.197461
30
0.0
40
0.200000
50
0.000000
51
106.231301
0
ARC
8
0
10
4230.314969
20
1230.197461
30
0.0
40
0.200000
50
73.768699
51
115.007833
0
ARC
8
0
10
4229.976775
20
1230.922461
30
0.0
40
0.600000
50
180.000000
51
295.007833
0
ARC
8
0
10
4229.976775
20
1230.922461
30
0.0
40
0.600000
50
64.992167
51
180.000000
0
LINE
8
0
10
4216.824521
20
1240.120182
30
0.0
11
4217.763112
21
1241.058773
31
0.0
0
LINE
8
0
10
4216.394403
20
1237.445000
30
0.0
11
4219.371865
21
1240.422461
31
0.0
0
LINE
8
0
10
4219.816929
20
1238.622461
30
0.0
11
4221.616929
21
1240.422461
31
0.0
0
LINE
8
0
10
4222.061993
20
1238.622461
30
0.0
11
4223.861993
21
1240.422461
31
0.0
0
LINE
8
0
10
4224.307057
20
1238.622461
30
0.0
11
4226.107057
21
1240.422461
31
0.0
0
LINE
8
0
10
4226.552121
20
1238.622461
30
0.0
11
4228.849089
21
1240.919430
31
0.0
0
LINE
8
0
10
4228.501118
20
1238.326394
30
0.0
11
4229.436409
21
1239.261686
31
0.0
0
LINE
8
0
10
4230.237710
20
1240.062987
30
0.0
11
4230.626775
21
1240.452052
31
0.0
0
LINE
8
0
10
4229.924431
20
1237.504644
30
0.0
11
4230.726775
21
1238.306988
31
0.0
0
LINE
8
0
10
4217.794980
20
1238.004549
30
0.0
11
4216.877068
21
1238.922462
31
0.0
0
LINE
8
0
10
4219.422132
20
1238.622461
30
0.0
11
4216.433225
21
1241.611368
31
0.0
0
LINE
8
0
10
4221.667196
20
1238.622461
30
0.0
11
4219.867196
21
1240.422461
31
0.0
0
LINE
8
0
10
4223.912260
20
1238.622461
30
0.0
11
4222.112260
21
1240.422461
31
0.0
0
LINE
8
0
10
4226.157324
20
1238.622461
30
0.0
11
4224.357324
21
1240.422461
31
0.0
0
LINE
8
0
10
4228.968022
20
1238.056827
30
0.0
11
4226.602388
21
1240.422461
31
0.0
0
LINE
8
0
10
4230.626775
20
1238.643138
30
0.0
11
4230.276238
21
1238.993675
31
0.0
0
LINE
8
0
10
4229.453638
20
1239.816276
30
0.0
11
4228.532986
21
1240.736928
31
0.0
0
LINE
8
0
10
4230.726775
20
1240.788202
30
0.0
11
4229.956299
21
1241.558678
31
0.0
0
ARC
8
0
10
4230.314969
20
1240.247461
30
0.0
40
0.200000
50
244.992167
51
286.231301
0
ARC
8
0
10
4230.426775
20
1240.247461
30
0.0
40
0.200000
50
253.768699
51
0.000000
0
LINE
8
0
10
4230.626775
20
1240.247461
30
0.0
11
4230.626775
21
1240.622461
31
0.0
0
LINE
8
0
10
4230.626775
20
1240.622461
30
0.0
11
4230.726775
21
1240.622461
31
0.0
0
LINE
8
0
10
4230.726775
20
1240.622461
30
0.0
11
4230.726775
21
1241.222461
31
0.0
0
ARC
8
0
10
4230.326775
20
1241.222461
30
0.0
40
0.400000
50
0.000000
51
90.000000
0
LINE
8
0
10
4230.326775
20
1241.622461
30
0.0
11
4230.120365
21
1241.622461
31
0.0
0
ARC
8
0
10
4230.120365
20
1241.422461
30
0.0
40
0.200000
50
90.000000
51
120.000000
0
LINE
8
0
10
4230.020365
20
1241.595667
30
0.0
11
4228.173955
21
1240.529641
31
0.0
0
ARC
8
0
10
4227.773955
20
1241.222461
30
0.0
40
0.800000
50
270.000000
51
300.000000
0
LINE
8
0
10
4227.773955
20
1240.422461
30
0.0
11
4223.426775
21
1240.422461
31
0.0
0
LINE
8
0
10
4223.426775
20
1240.422461
30
0.0
11
4219.079596
21
1240.422461
31
0.0
0
ARC
8
0
10
4219.079596
20
1241.222461
30
0.0
40
0.800000
50
240.000000
51
270.000000
0
LINE
8
0
10
4218.679596
20
1240.529641
30
0.0
11
4216.833186
21
1241.595667
31
0.0
0
ARC
8
0
10
4216.733186
20
1241.422461
30
0.0
40
0.200000
50
60.000000
51
90.000000
0
LINE
8
0
10
4216.733186
20
1241.622461
30
0.0
11
4216.526775
21
1241.622461
31
0.0
0
ARC
8
0
10
4216.526775
20
1241.222461
30
0.0
40
0.400000
50
90.000000
51
180.000000
0
LINE
8
0
10
4216.126775
20
1241.222461
30
0.0
11
4216.126775
21
1240.622461
31
0.0
0
LINE
8
0
10
4216.126775
20
1240.622461
30
0.0
11
4216.226775
21
1240.622461
31
0.0
0
LINE
8
0
10
4216.226775
20
1240.622461
30
0.0
11
4216.226775
21
1240.247461
31
0.0
0
ARC
8
0
10
4216.426775
20
1240.247461
30
0.0
40
0.200000
50
180.000000
51
286.231301
0
ARC
8
0
10
4216.538582
20
1240.247461
30
0.0
40
0.200000
50
253.768699
51
295.007833
0
ARC
8
0
10
4216.876775
20
1239.522461
30
0.0
40
0.600000
50
0.000000
51
115.007833
0
ARC
8
0
10
4216.876775
20
1239.522461
30
0.0
40
0.600000
50
244.992167
51
0.000000
0
ARC
8
0
10
4216.538582
20
1238.797461
30
0.0
40
0.200000
50
64.992167
51
106.231301
0
ARC
8
0
10
4216.426775
20
1238.797461
30
0.0
40
0.200000
50
73.768699
51
180.000000
0
LINE
8
0
10
4216.226775
20
1238.797461
30
0.0
11
4216.226775
21
1238.422461
31
0.0
0
LINE
8
0
10
4216.226775
20
1238.422461
30
0.0
11
4216.126775
21
1238.422461
31
0.0
0
LINE
8
0
10
4216.126775
20
1238.422461
30
0.0
11
4216.126775
21
1237.822461
31
0.0
0
ARC
8
0
10
4216.526775
20
1237.822461
30
0.0
40
0.400000
50
180.000000
51
270.000000
0
LINE
8
0
10
4216.526775
20
1237.422461
30
0.0
11
4216.733186
21
1237.422461
31
0.0
0
ARC
8
0
10
4216.733186
20
1237.622461
30
0.0
40
0.200000
50
270.000000
51
300.000000
0
LINE
8
0
10
4216.833186
20
1237.449256
30
0.0
11
4218.679596
21
1238.515282
31
0.0
0
ARC
8
0
10
4219.079596
20
1237.822461
30
0.0
40
0.800000
50
90.000000
51
120.000000
0
LINE
8
0
10
4219.079596
20
1238.622461
30
0.0
11
4223.143933
21
1238.622461
31
0.0
0
ARC
8
0
10
4223.143933
20
1238.422461
30
0.0
40
0.200000
50
51.057559
51
90.000000
0
ARC
8
0
10
4223.426775
20
1238.772461
30
0.0
40
0.250000
50
231.057559
51
308.942441
0
ARC
8
0
10
4223.709618
20
1238.422461
30
0.0
40
0.200000
50
90.000000
51
128.942441
0
LINE
8
0
10
4223.709618
20
1238.622461
30
0.0
11
4227.773955
21
1238.622461
31
0.0
0
ARC
8
0
10
4227.773955
20
1237.822461
30
0.0
40
0.800000
50
60.000000
51
90.000000
0
LINE
8
0
10
4228.173955
20
1238.515282
30
0.0
11
4230.020365
21
1237.449256
31
0.0
0
ARC
8
0
10
4230.120365
20
1237.622461
30
0.0
40
0.200000
50
240.000000
51
270.000000
0
LINE
8
0
10
4230.120365
20
1237.422461
30
0.0
11
4230.326775
21
1237.422461
31
0.0
0
ARC
8
0
10
4230.326775
20
1237.822461
30
0.0
40
0.400000
50
270.000000
51
0.000000
0
LINE
8
0
10
4230.726775
20
1237.822461
30
0.0
11
4230.726775
21
1238.422461
31
0.0
0
LINE
8
0
10
4230.726775
20
1238.422461
30
0.0
11
4230.626775
21
1238.422461
31
0.0
0
LINE
8
0
10
4230.626775
20
1238.422461
30
0.0
11
4230.626775
21
1238.797461
31
0.0
0
ARC
8
0
10
4230.426775
20
1238.797461
30
0.0
40
0.200000
50
0.000000
51
106.231301
0
ARC
8
0
10
4230.314969
20
1238.797461
30
0.0
40
0.200000
50
73.768699
51
115.007833
0
ARC
8
0
10
4229.976775
20
1239.522461
30
0.0
40
0.600000
50
180.000000
51
295.007833
0
ARC
8
0
10
4229.976775
20
1239.522461
30
0.0
40
0.600000
50
64.992167
51
180.000000
0
LINE
8
0
10
4230.302673
20
1237.118996
30
0.0
11
4228.626680
21
1238.141229
31
0.0
0
ARC
8
0
10
4228.426775
20
1238.147419
30
0.0
40
0.200000
50
358.226373
51
180.000000
0
LINE
8
0
10
4228.226775
20
1238.147419
30
0.0
11
4228.226775
21
1236.740429
31
0.0
0
ARC
8
0
10
4228.426775
20
1236.740429
30
0.0
40
0.200000
50
180.000000
51
238.619868
0
LINE
8
0
10
4228.322633
20
1236.569683
30
0.0
11
4229.542631
21
1235.825573
31
0.0
0
ARC
8
0
10
4229.178131
20
1235.227962
30
0.0
40
0.700000
50
301.380132
51
58.619868
0
LINE
8
0
10
4229.542631
20
1234.630350
30
0.0
11
4228.322633
21
1233.886240
31
0.0
0
ARC
8
0
10
4228.426775
20
1233.715494
30
0.0
40
0.200000
50
121.380132
51
180.000000
0
LINE
8
0
10
4228.226775
20
1233.715494
30
0.0
11
4228.226775
21
1232.308504
31
0.0
0
ARC
8
0
10
4228.426775
20
1232.308504
30
0.0
40
0.200000
50
180.000000
51
1.773627
0
LINE
8
0
10
4228.626680
20
1232.314694
30
0.0
11
4230.302673
21
1233.336927
31
0.0
0
ARC
8
0
10
4230.458887
20
1233.080807
30
0.0
40
0.300000
50
90.000000
51
121.380132
0
LINE
8
0
10
4230.458887
20
1233.380807
30
0.0
11
4230.526775
21
1233.380807
31
0.0
0
ARC
8
0
10
4230.526775
20
1233.180807
30
0.0
40
0.200000
50
0.000000
51
90.000000
0
LINE
8
0
10
4230.726775
20
1233.180807
30
0.0
11
4230.726775
21
1228.501563
31
0.0
0
ARC
8
0
10
4231.026775
20
1228.501563
30
0.0
40
0.300000
50
180.000000
51
219.715137
0
ARC
8
0
10
4230.526775
20
1228.086231
30
0.0
40
0.350000
50
150.489758
51
39.715137
0
LINE
8
0
10
4230.222182
20
1228.258634
30
0.0
11
4228.608635
21
1229.557071
31
0.0
0
ARC
8
0
10
4228.734021
20
1229.712886
30
0.0
40
0.200000
50
178.000000
51
231.176024
0
LINE
8
0
10
4228.534143
20
1229.719866
30
0.0
11
4228.539573
21
1229.875353
31
0.0
0
ARC
8
0
10
4228.394041
20
1229.880435
30
0.0
40
0.145621
50
358.000000
51
142.253920
0
LINE
8
0
10
4228.278894
20
1229.969579
30
0.0
11
4226.214607
21
1227.303138
31
0.0
0
ARC
8
0
10
4226.499514
20
1227.209181
30
0.0
40
0.300000
50
161.748585
51
268.866021
0
LINE
8
0
10
4226.496129
20
1226.909157
30
0.0
11
4227.152750
21
1226.890543
31
0.0
0
ARC
8
0
10
4227.166918
20
1227.390343
30
0.0
40
0.500000
50
268.376251
51
308.194227
0
ARC
8
0
10
4228.712741
20
1225.425545
30
0.0
40
2.000000
50
56.002945
51
128.194227
0
LINE
8
0
10
4229.831042
20
1227.083677
30
0.0
11
4230.249425
21
1226.878469
31
0.0
0
ARC
8
0
10
4229.875861
20
1226.053086
30
0.0
40
0.905984
50
8.066663
51
65.648705
0
LINE
8
0
10
4230.772880
20
1226.180218
30
0.0
11
4231.026476
21
1223.221599
31
0.0
0
LINE
8
0
10
4231.026476
20
1223.221599
30
0.0
11
4230.835198
21
1223.221599
31
0.0
0
LINE
8
0
10
4230.835198
20
1223.221599
30
0.0
11
4230.633126
21
1223.571599
31
0.0
0
LINE
8
0
10
4230.633126
20
1223.571599
30
0.0
11
4230.026908
21
1223.221599
31
0.0
0
LINE
8
0
10
4230.026908
20
1223.221599
30
0.0
11
4230.892933
21
1221.721599
31
0.0
0
LINE
8
0
10
4230.892933
20
1221.721599
30
0.0
11
4232.526908
21
1221.721599
31
0.0
0
LINE
8
0
10
4232.526908
20
1221.721599
30
0.0
11
4232.526908
21
1268.221599
31
0.0
0
ARC
8
0
10
4232.026908
20
1268.221599
30
0.0
40
0.500000
50
0.000000
51
90.000000
0
LINE
8
0
10
4232.026908
20
1268.721599
30
0.0
11
4229.526908
21
1268.721599
31
0.0
0
ARC
8
0
10
4229.526908
20
1268.221599
30
0.0
40
0.500000
50
90.000000
51
180.000000
0
LINE
8
0
10
4229.026908
20
1268.221599
30
0.0
11
4229.026908
21
1265.971599
31
0.0
0
ARC
8
0
10
4229.526908
20
1265.971599
30
0.0
40
0.500000
50
180.000000
51
0.000000
0
LINE
8
0
10
4230.026908
20
1265.971599
30
0.0
11
4230.026908
21
1267.221599
31
0.0
0
LINE
8
0
10
4230.026908
20
1267.221599
30
0.0
11
4231.226908
21
1267.221599
31
0.0
0
LINE
8
0
10
4231.226908
20
1267.221599
30
0.0
11
4231.226908
21
1259.721599
31
0.0
0
LINE
8
0
10
4231.226908
20
1259.721599
30
0.0
11
4230.026908
21
1259.721599
31
0.0
0
LINE
8
0
10
4230.026908
20
1259.721599
30
0.0
11
4230.026908
21
1260.971599
31
0.0
0
ARC
8
0
10
4229.526908
20
1260.971599
30
0.0
40
0.500000
50
0.000000
51
180.000000
0
LINE
8
0
10
4229.026908
20
1260.971599
30
0.0
11
4229.026908
21
1258.721599
31
0.0
0
ARC
8
0
10
4229.526908
20
1258.721599
30
0.0
40
0.500000
50
180.000000
51
270.000000
0
LINE
8
0
10
4229.526908
20
1258.221599
30
0.0
11
4231.026908
21
1258.221599
31
0.0
0
LINE
8
0
10
4231.026908
20
1258.221599
30
0.0
11
4231.026908
21
1248.721599
31
0.0
0
LINE
8
0
10
4231.026908
20
1248.721599
30
0.0
11
4231.026908
21
1246.721599
31
0.0
0
LINE
8
0
10
4231.026908
20
1246.721599
30
0.0
11
4230.781811
21
1244.274145
31
0.0
0
ARC
8
0
10
4229.854655
20
1244.430883
30
0.0
40
0.940311
50
297.430225
51
350.404710
0
LINE
8
0
10
4230.287826
20
1243.596289
30
0.0
11
4229.831042
21
1243.372246
31
0.0
0
ARC
8
0
10
4228.712741
20
1245.030378
30
0.0
40
2.000000
50
231.805773
51
303.997055
0
ARC
8
0
10
4227.166918
20
1243.065580
30
0.0
40
0.500000
50
51.805773
51
91.623749
0
LINE
8
0
10
4227.152750
20
1243.565380
30
0.0
11
4226.496129
21
1243.546766
31
0.0
0
LINE
8
0
10
4226.496129
20
1243.546766
30
0.0
11
4226.485877
21
1243.546431
31
0.0
0
ARC
8
0
10
4226.499514
20
1243.246742
30
0.0
40
0.300000
50
92.605413
51
198.251415
0
LINE
8
0
10
4226.214607
20
1243.152785
30
0.0
11
4228.278894
21
1240.486344
31
0.0
0
ARC
8
0
10
4228.425490
20
1240.556180
30
0.0
40
0.162380
50
205.472270
51
37.320431
0
ARC
8
0
10
4228.734021
20
1240.743037
30
0.0
40
0.200000
50
128.823976
51
206.234983
0
LINE
8
0
10
4228.608635
20
1240.898852
30
0.0
11
4230.222182
21
1242.197289
31
0.0
0
ARC
8
0
10
4230.526775
20
1242.369692
30
0.0
40
0.350000
50
320.284863
51
209.510242
0
ARC
8
0
10
4231.026775
20
1241.954360
30
0.0
40
0.300000
50
140.284863
51
180.000000
0
LINE
8
0
10
4230.726775
20
1241.954360
30
0.0
11
4230.726775
21
1237.275116
31
0.0
0
ARC
8
0
10
4230.526775
20
1237.275116
30
0.0
40
0.200000
50
270.000000
51
0.000000
0
LINE
8
0
10
4230.526775
20
1237.075116
30
0.0
11
4230.458887
21
1237.075116
31
0.0
0
ARC
8
0
10
4230.458887
20
1237.375116
30
0.0
40
0.300000
50
238.619868
51
270.000000
0
LINE
8
0
10
4214.626775
20
1242.222461
30
0.0
11
4214.626775
21
1228.222461
31
0.0
0
LINE
8
0
10
4214.626775
20
1228.222461
30
0.0
11
4189.026775
21
1228.222461
31
0.0
0
LINE
8
0
10
4189.026775
20
1228.222461
30
0.0
11
4189.026775
21
1242.222461
31
0.0
0
LINE
8
0
10
4189.026775
20
1242.222461
30
0.0
11
4214.626775
21
1242.222461
31
0.0
0
LINE
8
0
10
4220.357422
20
1243.544112
30
0.0
11
4219.304627
21
1243.573956
31
0.0
0
LINE
8
0
10
4219.304627
20
1243.573956
30
0.0
11
4219.241767
21
1243.368350
31
0.0
0
LINE
8
0
10
4219.241767
20
1243.368350
30
0.0
11
4218.856700
21
1242.903212
31
0.0
0
ARC
8
0
10
4218.018586
20
1243.449413
30
0.0
40
1.000000
50
236.490937
51
326.907609
0
LINE
8
0
10
4217.466838
20
1242.616100
30
0.0
11
4216.733743
21
1243.170402
31
0.0
0
ARC
8
0
10
4218.230213
20
1245.136369
30
0.0
40
2.470718
50
211.660622
51
232.722040
0
LINE
8
0
10
4216.127207
20
1243.839521
30
0.0
11
4216.127207
21
1246.722461
31
0.0
0
LINE
8
0
10
4216.127207
20
1246.722461
30
0.0
11
4216.127207
21
1248.722461
31
0.0
0
LINE
8
0
10
4216.127207
20
1248.722461
30
0.0
11
4214.177207
21
1248.722461
31
0.0
0
LINE
8
0
10
4214.177207
20
1248.722461
30
0.0
11
4213.177207
21
1247.722461
31
0.0
0
LINE
8
0
10
4213.177207
20
1247.722461
30
0.0
11
4213.177207
21
1246.722461
31
0.0
0
LINE
8
0
10
4213.177207
20
1246.722461
30
0.0
11
4214.627207
21
1246.722461
31
0.0
0
LINE
8
0
10
4214.627207
20
1246.722461
30
0.0
11
4214.627207
21
1243.722461
31
0.0
0
LINE
8
0
10
4214.627207
20
1243.722461
30
0.0
11
4208.527207
21
1243.722461
31
0.0
0
LINE
8
0
10
4208.527207
20
1243.722461
30
0.0
11
4208.527207
21
1246.722461
31
0.0
0
LINE
8
0
10
4208.527207
20
1246.722461
30
0.0
11
4209.977207
21
1246.722461
31
0.0
0
LINE
8
0
10
4209.977207
20
1246.722461
30
0.0
11
4209.977207
21
1247.722461
31
0.0
0
LINE
8
0
10
4209.977207
20
1247.722461
30
0.0
11
4208.977207
21
1248.722461
31
0.0
0
LINE
8
0
10
4208.977207
20
1248.722461
30
0.0
11
4206.027207
21
1248.722461
31
0.0
0
LINE
8
0
10
4206.027207
20
1248.722461
30
0.0
11
4205.027207
21
1247.722461
31
0.0
0
LINE
8
0
10
4205.027207
20
1247.722461
30
0.0
11
4205.027207
21
1246.722461
31
0.0
0
LINE
8
0
10
4205.027207
20
1246.722461
30
0.0
11
4207.027207
21
1246.722461
31
0.0
0
LINE
8
0
10
4207.027207
20
1246.722461
30
0.0
11
4207.027207
21
1243.722461
31
0.0
0
LINE
8
0
10
4207.027207
20
1243.722461
30
0.0
11
4189.027207
21
1243.722461
31
0.0
0
LINE
8
0
10
4189.027207
20
1243.722461
30
0.0
11
4189.027207
21
1246.722461
31
0.0
0
LINE
8
0
10
4189.027207
20
1246.722461
30
0.0
11
4191.027207
21
1246.722461
31
0.0
0
LINE
8
0
10
4191.027207
20
1246.722461
30
0.0
11
4191.027207
21
1247.722461
31
0.0
0
LINE
8
0
10
4191.027207
20
1247.722461
30
0.0
11
4190.027207
21
1248.722461
31
0.0
0
LINE
8
0
10
4190.027207
20
1248.722461
30
0.0
11
4187.527207
21
1248.722461
31
0.0
0
LINE
8
0
10
4187.527207
20
1248.722461
30
0.0
11
4187.527207
21
1199.222461
31
0.0
0
ARC
8
0
10
4190.027207
20
1199.222461
30
0.0
40
2.500000
50
180.000000
51
270.000000
0
LINE
8
0
10
4190.027207
20
1196.722461
30
0.0
11
4190.527207
21
1196.722461
31
0.0
0
ARC
8
0
10
4190.527207
20
1197.222461
30
0.0
40
0.500000
50
270.000000
51
0.000000
0
LINE
8
0
10
4191.027207
20
1197.222461
30
0.0
11
4191.027207
21
1199.472461
31
0.0
0
ARC
8
0
10
4190.527207
20
1199.472461
30
0.0
40
0.500000
50
0.000000
51
180.000000
0
LINE
8
0
10
4190.027207
20
1199.472461
30
0.0
11
4190.027207
21
1198.222461
31
0.0
0
LINE
8
0
10
4190.027207
20
1198.222461
30
0.0
11
4188.827207
21
1198.222461
31
0.0
0
LINE
8
0
10
4188.827207
20
1198.222461
30
0.0
11
4188.827207
21
1205.722461
31
0.0
0
LINE
8
0
10
4188.827207
20
1205.722461
30
0.0
11
4190.027207
21
1205.722461
31
0.0
0
LINE
8
0
10
4190.027207
20
1205.722461
30
0.0
11
4190.027207
21
1204.472461
31
0.0
0
ARC
8
0
10
4190.527207
20
1204.472461
30
0.0
40
0.500000
50
180.000000
51
0.000000
0
LINE
8
0
10
4191.027207
20
1204.472461
30
0.0
11
4191.027207
21
1206.722461
31
0.0
0
ARC
8
0
10
4190.527207
20
1206.722461
30
0.0
40
0.500000
50
0.000000
51
90.000000
0
LINE
8
0
10
4190.527207
20
1207.222461
30
0.0
11
4189.027207
21
1207.222461
31
0.0
0
LINE
8
0
10
4189.027207
20
1207.222461
30
0.0
11
4189.027207
21
1221.722461
31
0.0
0
LINE
8
0
10
4189.027207
20
1221.722461
30
0.0
11
4193.527207
21
1221.722461
31
0.0
0
ARC
8
0
10
4193.527207
20
1222.222461
30
0.0
40
0.500000
50
270.000000
51
0.000000
0
LINE
8
0
10
4194.027207
20
1222.222461
30
0.0
11
4194.027207
21
1222.722461
31
0.0
0
ARC
8
0
10
4193.527207
20
1222.722461
30
0.0
40
0.500000
50
0.000000
51
90.000000
0
LINE
8
0
10
4193.527207
20
1223.222461
30
0.0
11
4189.027207
21
1223.222461
31
0.0
0
LINE
8
0
10
4189.027207
20
1223.222461
30
0.0
11
4189.027207
21
1226.722461
31
0.0
0
LINE
8
0
10
4189.027207
20
1226.722461
30
0.0
11
4216.045068
21
1226.722461
31
0.0
0
ARC
8
0
10
4228.989216
20
1211.099490
30
0.0
40
20.288622
50
127.159403
51
129.642872
0
LINE
8
0
10
4216.733743
20
1227.274521
30
0.0
11
4217.466838
21
1227.828822
31
0.0
0
ARC
8
0
10
4218.018586
20
1226.995510
30
0.0
40
1.000000
50
33.092391
51
123.509063
0
LINE
8
0
10
4218.856700
20
1227.541711
30
0.0
11
4219.241767
21
1227.076573
31
0.0
0
LINE
8
0
10
4219.241767
20
1227.076573
30
0.0
11
4219.304627
21
1226.870967
31
0.0
0
LINE
8
0
10
4219.304627
20
1226.870967
30
0.0
11
4220.357422
21
1226.900811
31
0.0
0
LINE
8
0
10
4220.357422
20
1226.900811
30
0.0
11
4220.367674
21
1226.901146
31
0.0
0
ARC
8
0
10
4220.354037
20
1227.200836
30
0.0
40
0.300000
50
272.605413
51
18.251415
0
LINE
8
0
10
4220.638944
20
1227.294792
30
0.0
11
4218.537932
21
1230.008670
31
0.0
0
ARC
8
0
10
4218.379270
20
1229.897672
30
0.0
40
0.200000
50
36.039809
51
217.071526
0
LINE
8
0
10
4218.219694
20
1229.777109
30
0.0
11
4216.675051
21
1228.610112
31
0.0
0
LINE
8
0
10
4216.675051
20
1228.610112
30
0.0
11
4216.683847
21
1228.594765
31
0.0
0
ARC
8
0
10
4216.388153
20
1228.472538
30
0.0
40
0.319960
50
290.724357
51
22.458147
0
LINE
8
0
10
4216.501378
20
1228.173282
30
0.0
11
4216.214487
21
1228.085570
31
0.0
0
ARC
8
0
10
4216.126775
20
1228.372461
30
0.0
40
0.300000
50
90.000000
51
287.000000
0
LINE
8
0
10
4216.126775
20
1228.672461
30
0.0
11
4216.126775
21
1233.172461
31
0.0
0
ARC
8
0
10
4216.326775
20
1233.162359
30
0.0
40
0.200000
50
58.132675
51
177.108405
0
LINE
8
0
10
4216.432432
20
1233.332320
30
0.0
11
4218.226776
21
1232.302739
31
0.0
0
ARC
8
0
10
4218.426775
20
1232.303003
30
0.0
40
0.200000
50
180.075870
51
351.317436
0
LINE
8
0
10
4218.626775
20
1232.272461
30
0.0
11
4218.626775
21
1232.472461
31
0.0
0
LINE
8
0
10
4218.626775
20
1232.472461
30
0.0
11
4218.626775
21
1233.686784
31
0.0
0
ARC
8
0
10
4218.426775
20
1233.686784
30
0.0
40
0.200000
50
0.000000
51
61.694535
0
LINE
8
0
10
4218.521392
20
1233.863079
30
0.0
11
4217.219635
21
1234.610017
31
0.0
0
ARC
8
0
10
4217.558788
20
1235.222461
30
0.0
40
0.700000
50
180.000000
51
241.023634
0
ARC
8
0
10
4217.558788
20
1235.222461
30
0.0
40
0.700000
50
118.976366
51
180.000000
0
LINE
8
0
10
4217.219635
20
1235.834906
30
0.0
11
4218.521392
21
1236.581844
31
0.0
0
ARC
8
0
10
4218.426775
20
1236.758139
30
0.0
40
0.200000
50
298.305465
51
0.000000
0
LINE
8
0
10
4218.626775
20
1236.758139
30
0.0
11
4218.626775
21
1237.972461
31
0.0
0
LINE
8
0
10
4218.626775
20
1237.972461
30
0.0
11
4218.626775
21
1238.172461
31
0.0
0
ARC
8
0
10
4218.426775
20
1238.141919
30
0.0
40
0.200000
50
8.682564
51
179.924130
0
LINE
8
0
10
4218.226776
20
1238.142184
30
0.0
11
4216.432432
21
1237.112603
31
0.0
0
ARC
8
0
10
4216.326775
20
1237.282564
30
0.0
40
0.200000
50
182.891595
51
301.867325
0
LINE
8
0
10
4216.126775
20
1237.272461
30
0.0
11
4216.126775
21
1241.772461
31
0.0
0
ARC
8
0
10
4216.126775
20
1242.072461
30
0.0
40
0.300000
50
73.000000
51
270.000000
0
LINE
8
0
10
4216.214487
20
1242.359353
30
0.0
11
4216.501378
21
1242.271641
31
0.0
0
ARC
8
0
10
4216.388153
20
1241.972385
30
0.0
40
0.319960
50
337.541853
51
69.275644
0
LINE
8
0
10
4216.683847
20
1241.850157
30
0.0
11
4216.675051
21
1241.834811
31
0.0
0
LINE
8
0
10
4216.675051
20
1241.834811
30
0.0
11
4218.219694
21
1240.667814
31
0.0
0
ARC
8
0
10
4218.379270
20
1240.547251
30
0.0
40
0.200000
50
142.928474
51
323.960191
0
LINE
8
0
10
4218.537932
20
1240.436253
30
0.0
11
4220.638944
21
1243.150131
31
0.0
0
ARC
8
0
10
4220.354037
20
1243.244087
30
0.0
40
0.300000
50
341.748585
51
87.394587
0
LINE
8
0
10
4220.367674
20
1243.543777
30
0.0
11
4220.357422
21
1243.544112
31
0.0
0
ATTDEF
8
0
10
0.000000
20
0.000000
30
0.0
40
3.5
1

3

2
PANE_WIDTH:0
70
0
0
ATTDEF
8
0
10
0.000000
20
0.000000
30
0.0
40
3.5
1

3

2
MIN_VETRO:0
70
0
0
ATTDEF
8
0
10
0.000000
20
0.000000
30
0.0
40
3.5
1

3

2
MAX_VETRO:0
70
0
0
ATTDEF
8
0
10
0.000000
20
0.000000
30
0.0
40
3.5
1

3

2
JX:0
70
0
0
ATTDEF
8
0
10
0.000000
20
0.000000
30
0.0
40
3.5
1

3

2
WX:0
70
0
0
ATTDEF
8
0
10
0.000000
20
0.000000
30
0.0
40
3.5
1

3

2
JY:0
70
0
0
ATTDEF
8
0
10
0.000000
20
0.000000
30
0.0
40
3.5
1

3

2
WY:0
70
0
0
ATTDEF
8
0
10
0.000000
20
0.000000
30
0.0
40
3.5
1

3

2
DESC:Marco con solape recto
70
0
0
ATTDEF
8
0
10
0.000000
20
0.000000
30
0.0
40
3.5
1

3

2
DENS:1.0504
70
0
0
ATTDEF
8
0
10
0.000000
20
0.000000
30
0.0
40
3.5
1

3

2
TDEV:46.76
70
0
0
ATTDEF
8
0
10
0.000000
20
0.000000
30
0.0
40
3.5
1

3

2
TDEV2:0
70
0
0
ATTDEF
8
0
10
0.000000
20
0.000000
30
0.0
40
3.5
1

3

2
TDEV3:0
70
0
0
ATTDEF
8
0
10
0.000000
20
0.000000
30
0.0
40
3.5
1

3

2
TDEV4:0
70
0
0
ATTDEF
8
0
10
0.000000
20
0.000000
30
0.0
40
3.5
1

3

2
TDEV5:0
70
0
0
ATTDEF
8
0
10
0.000000
20
0.000000
30
0.0
40
3.5
1

3

2
PANE_WIDTH:0
70
0
0
ATTDEF
8
0
10
0.000000
20
0.000000
30
0.0
40
3.5
1

3

2
MIN_VETRO:0
70
0
0
ATTDEF
8
0
10
0.000000
20
0.000000
30
0.0
40
3.5
1

3

2
MAX_VETRO:0
70
0
0
ATTDEF
8
0
10
0.000000
20
0.000000
30
0.0
40
3.5
1

3

2
JX:0
70
0
0
ATTDEF
8
0
10
0.000000
20
0.000000
30
0.0
40
3.5
1

3

2
WX:0
70
0
0
ATTDEF
8
0
10
0.000000
20
0.000000
30
0.0
40
3.5
1

3

2
JY:0
70
0
0
ATTDEF
8
0
10
0.000000
20
0.000000
30
0.0
40
3.5
1

3

2
WY:0
70
0
0
ENDSEC
0
EOF
