0
SECTION
2
ENTITIES
0
LINE
8
00_POLIAMIDAS
10
59.986724
20
66.747370
30
0.0
11
60.859993
21
67.620640
31
0.0
0
LINE
8
00_POLIAMIDAS
10
59.886724
20
64.402306
30
0.0
11
60.587912
21
65.103495
31
0.0
0
LINE
8
00_POLIAMIDAS
10
61.234735
20
65.750318
30
0.0
11
62.283307
21
66.798890
31
0.0
0
LINE
8
00_POLIAMIDAS
10
62.402312
20
64.672831
30
0.0
11
64.330988
21
66.601506
31
0.0
0
LINE
8
00_POLIAMIDAS
10
64.776052
20
64.801506
30
0.0
11
66.576052
21
66.601506
31
0.0
0
LINE
8
00_POLIAMIDAS
10
66.997729
20
64.778120
30
0.0
11
68.821116
21
66.601506
31
0.0
0
LINE
8
00_POLIAMIDAS
10
69.266180
20
64.801506
30
0.0
11
71.066180
21
66.601506
31
0.0
0
LINE
8
00_POLIAMIDAS
10
71.511244
20
64.801506
30
0.0
11
74.381560
21
67.671823
31
0.0
0
LINE
8
00_POLIAMIDAS
10
73.021312
20
64.066511
30
0.0
11
74.124949
21
65.170147
31
0.0
0
LINE
8
00_POLIAMIDAS
10
60.691945
20
63.685350
30
0.0
11
59.886724
21
64.490572
31
0.0
0
LINE
8
00_POLIAMIDAS
10
62.115259
20
64.507101
30
0.0
11
61.178560
21
65.443799
31
0.0
0
LINE
8
00_POLIAMIDAS
10
60.378965
20
66.243394
30
0.0
11
59.986724
21
66.635636
31
0.0
0
LINE
8
00_POLIAMIDAS
10
64.065917
20
64.801506
30
0.0
11
61.775148
21
67.092275
31
0.0
0
LINE
8
00_POLIAMIDAS
10
66.310981
20
64.801506
30
0.0
11
64.510981
21
66.601506
31
0.0
0
LINE
8
00_POLIAMIDAS
10
68.556045
20
64.801506
30
0.0
11
66.756045
21
66.601506
31
0.0
0
LINE
8
00_POLIAMIDAS
10
70.801109
20
64.801506
30
0.0
11
69.001109
21
66.601506
31
0.0
0
LINE
8
00_POLIAMIDAS
10
74.222444
20
63.625235
30
0.0
11
71.246173
21
66.601506
31
0.0
0
LINE
8
00_POLIAMIDAS
10
73.793975
20
66.298769
30
0.0
11
72.853264
21
67.239479
31
0.0
0
ARC
8
00_POLIAMIDAS
10
74.074917
20
66.426506
30
0.0
40
0.200000
50
244.992167
51
286.231301
0
ARC
8
00_POLIAMIDAS
10
74.186724
20
66.426506
30
0.0
40
0.200000
50
253.768699
51
0.000000
0
LINE
8
00_POLIAMIDAS
10
74.386724
20
66.426506
30
0.0
11
74.386724
21
66.801506
31
0.0
0
LINE
8
00_POLIAMIDAS
10
74.386724
20
66.801506
30
0.0
11
74.486724
21
66.801506
31
0.0
0
LINE
8
00_POLIAMIDAS
10
74.486724
20
66.801506
30
0.0
11
74.486724
21
67.401506
31
0.0
0
ARC
8
00_POLIAMIDAS
10
74.086724
20
67.401506
30
0.0
40
0.400000
50
0.000000
51
90.000000
0
LINE
8
00_POLIAMIDAS
10
74.086724
20
67.801506
30
0.0
11
73.880313
21
67.801506
31
0.0
0
ARC
8
00_POLIAMIDAS
10
73.880313
20
67.601506
30
0.0
40
0.200000
50
90.000000
51
120.000000
0
LINE
8
00_POLIAMIDAS
10
73.780313
20
67.774711
30
0.0
11
71.933903
21
66.708686
31
0.0
0
ARC
8
00_POLIAMIDAS
10
71.533903
20
67.401506
30
0.0
40
0.800000
50
270.000000
51
300.000000
0
LINE
8
00_POLIAMIDAS
10
71.533903
20
66.601506
30
0.0
11
67.186724
21
66.601506
31
0.0
0
LINE
8
00_POLIAMIDAS
10
67.186724
20
66.601506
30
0.0
11
62.839544
21
66.601506
31
0.0
0
ARC
8
00_POLIAMIDAS
10
62.839544
20
67.401506
30
0.0
40
0.800000
50
240.000000
51
270.000000
0
LINE
8
00_POLIAMIDAS
10
62.439544
20
66.708686
30
0.0
11
60.593134
21
67.774711
31
0.0
0
ARC
8
00_POLIAMIDAS
10
60.493134
20
67.601506
30
0.0
40
0.200000
50
60.000000
51
90.000000
0
LINE
8
00_POLIAMIDAS
10
60.493134
20
67.801506
30
0.0
11
60.286724
21
67.801506
31
0.0
0
ARC
8
00_POLIAMIDAS
10
60.286724
20
67.401506
30
0.0
40
0.400000
50
90.000000
51
180.000000
0
LINE
8
00_POLIAMIDAS
10
59.886724
20
67.401506
30
0.0
11
59.886724
21
66.801506
31
0.0
0
LINE
8
00_POLIAMIDAS
10
59.886724
20
66.801506
30
0.0
11
59.986724
21
66.801506
31
0.0
0
LINE
8
00_POLIAMIDAS
10
59.986724
20
66.801506
30
0.0
11
59.986724
21
66.426506
31
0.0
0
ARC
8
00_POLIAMIDAS
10
60.186724
20
66.426506
30
0.0
40
0.200000
50
180.000000
51
286.231301
0
ARC
8
00_POLIAMIDAS
10
60.298530
20
66.426506
30
0.0
40
0.200000
50
253.768699
51
295.007833
0
ARC
8
00_POLIAMIDAS
10
60.636724
20
65.701506
30
0.0
40
0.600000
50
0.000000
51
115.007833
0
ARC
8
00_POLIAMIDAS
10
60.636724
20
65.701506
30
0.0
40
0.600000
50
244.992167
51
0.000000
0
ARC
8
00_POLIAMIDAS
10
60.298530
20
64.976506
30
0.0
40
0.200000
50
64.992167
51
106.231301
0
ARC
8
00_POLIAMIDAS
10
60.186724
20
64.976506
30
0.0
40
0.200000
50
73.768699
51
180.000000
0
LINE
8
00_POLIAMIDAS
10
59.986724
20
64.976506
30
0.0
11
59.986724
21
64.601506
31
0.0
0
LINE
8
00_POLIAMIDAS
10
59.986724
20
64.601506
30
0.0
11
59.886724
21
64.601506
31
0.0
0
LINE
8
00_POLIAMIDAS
10
59.886724
20
64.601506
30
0.0
11
59.886724
21
64.001506
31
0.0
0
ARC
8
00_POLIAMIDAS
10
60.286724
20
64.001506
30
0.0
40
0.400000
50
180.000000
51
270.000000
0
LINE
8
00_POLIAMIDAS
10
60.286724
20
63.601506
30
0.0
11
60.493134
21
63.601506
31
0.0
0
ARC
8
00_POLIAMIDAS
10
60.493134
20
63.801506
30
0.0
40
0.200000
50
270.000000
51
300.000000
0
LINE
8
00_POLIAMIDAS
10
60.593134
20
63.628301
30
0.0
11
62.439544
21
64.694327
31
0.0
0
ARC
8
00_POLIAMIDAS
10
62.839544
20
64.001506
30
0.0
40
0.800000
50
90.000000
51
120.000000
0
LINE
8
00_POLIAMIDAS
10
62.839544
20
64.801506
30
0.0
11
66.903881
21
64.801506
31
0.0
0
ARC
8
00_POLIAMIDAS
10
66.903881
20
64.601506
30
0.0
40
0.200000
50
51.057559
51
90.000000
0
ARC
8
00_POLIAMIDAS
10
67.186724
20
64.951506
30
0.0
40
0.250000
50
231.057559
51
308.942441
0
ARC
8
00_POLIAMIDAS
10
67.469566
20
64.601506
30
0.0
40
0.200000
50
90.000000
51
128.942441
0
LINE
8
00_POLIAMIDAS
10
67.469566
20
64.801506
30
0.0
11
71.533903
21
64.801506
31
0.0
0
ARC
8
00_POLIAMIDAS
10
71.533903
20
64.001506
30
0.0
40
0.800000
50
60.000000
51
90.000000
0
LINE
8
00_POLIAMIDAS
10
71.933903
20
64.694327
30
0.0
11
73.780313
21
63.628301
31
0.0
0
ARC
8
00_POLIAMIDAS
10
73.880313
20
63.801506
30
0.0
40
0.200000
50
240.000000
51
270.000000
0
LINE
8
00_POLIAMIDAS
10
73.880313
20
63.601506
30
0.0
11
74.086724
21
63.601506
31
0.0
0
ARC
8
00_POLIAMIDAS
10
74.086724
20
64.001506
30
0.0
40
0.400000
50
270.000000
51
0.000000
0
LINE
8
00_POLIAMIDAS
10
74.486724
20
64.001506
30
0.0
11
74.486724
21
64.601506
31
0.0
0
LINE
8
00_POLIAMIDAS
10
74.486724
20
64.601506
30
0.0
11
74.386724
21
64.601506
31
0.0
0
LINE
8
00_POLIAMIDAS
10
74.386724
20
64.601506
30
0.0
11
74.386724
21
64.976506
31
0.0
0
ARC
8
00_POLIAMIDAS
10
74.186724
20
64.976506
30
0.0
40
0.200000
50
0.000000
51
106.231301
0
ARC
8
00_POLIAMIDAS
10
74.074917
20
64.976506
30
0.0
40
0.200000
50
73.768699
51
115.007833
0
ARC
8
00_POLIAMIDAS
10
73.736724
20
65.701506
30
0.0
40
0.600000
50
180.000000
51
295.007833
0
ARC
8
00_POLIAMIDAS
10
73.736724
20
65.701506
30
0.0
40
0.600000
50
64.992167
51
180.000000
0
LINE
8
00_POLIAMIDAS
10
60.044054
20
39.863932
30
0.0
11
61.188618
21
41.008496
31
0.0
0
LINE
8
00_POLIAMIDAS
10
59.900438
20
37.475252
30
0.0
11
62.631740
21
40.206554
31
0.0
0
LINE
8
00_POLIAMIDAS
10
63.049343
20
38.379094
30
0.0
11
64.849343
21
40.179094
31
0.0
0
LINE
8
00_POLIAMIDAS
10
65.294407
20
38.379094
30
0.0
11
67.194293
21
40.278979
31
0.0
0
LINE
8
00_POLIAMIDAS
10
67.539471
20
38.379094
30
0.0
11
69.339471
21
40.179094
31
0.0
0
LINE
8
00_POLIAMIDAS
10
69.784535
20
38.379094
30
0.0
11
71.586250
21
40.180808
31
0.0
0
LINE
8
00_POLIAMIDAS
10
71.926591
20
38.276085
30
0.0
11
73.202251
21
39.551745
31
0.0
0
LINE
8
00_POLIAMIDAS
10
73.464072
20
39.813567
30
0.0
11
74.486724
21
40.836218
31
0.0
0
LINE
8
00_POLIAMIDAS
10
73.349937
20
37.454367
30
0.0
11
74.386724
21
38.491154
31
0.0
0
LINE
8
00_POLIAMIDAS
10
60.256272
20
37.180255
30
0.0
11
59.887884
21
37.548643
31
0.0
0
LINE
8
00_POLIAMIDAS
10
61.786634
20
37.894957
30
0.0
11
60.927390
21
38.754201
31
0.0
0
LINE
8
00_POLIAMIDAS
10
63.547561
20
38.379094
30
0.0
11
60.558568
21
41.368087
31
0.0
0
LINE
8
00_POLIAMIDAS
10
65.792625
20
38.379094
30
0.0
11
63.992625
21
40.179094
31
0.0
0
LINE
8
00_POLIAMIDAS
10
68.037689
20
38.379094
30
0.0
11
66.237689
21
40.179094
31
0.0
0
LINE
8
00_POLIAMIDAS
10
70.282753
20
38.379094
30
0.0
11
68.482753
21
40.179094
31
0.0
0
LINE
8
00_POLIAMIDAS
10
73.592709
20
37.314202
30
0.0
11
70.727817
21
40.179094
31
0.0
0
LINE
8
00_POLIAMIDAS
10
73.386036
20
39.765939
30
0.0
11
72.524640
21
40.627335
31
0.0
0
LINE
8
00_POLIAMIDAS
10
74.486724
20
40.910316
30
0.0
11
74.017945
21
41.379094
31
0.0
0
ARC
8
00_POLIAMIDAS
10
74.074917
20
38.554094
30
0.0
40
0.200000
50
73.768699
51
115.007833
0
ARC
8
00_POLIAMIDAS
10
74.186724
20
38.554094
30
0.0
40
0.200000
50
0.000000
51
106.231301
0
LINE
8
00_POLIAMIDAS
10
74.386724
20
38.554094
30
0.0
11
74.386724
21
38.179094
31
0.0
0
LINE
8
00_POLIAMIDAS
10
74.386724
20
38.179094
30
0.0
11
74.486724
21
38.179094
31
0.0
0
LINE
8
00_POLIAMIDAS
10
74.486724
20
38.179094
30
0.0
11
74.486724
21
37.579094
31
0.0
0
ARC
8
00_POLIAMIDAS
10
74.086724
20
37.579094
30
0.0
40
0.400000
50
270.000000
51
0.000000
0
LINE
8
00_POLIAMIDAS
10
74.086724
20
37.179094
30
0.0
11
73.880313
21
37.179094
31
0.0
0
ARC
8
00_POLIAMIDAS
10
73.880313
20
37.379094
30
0.0
40
0.200000
50
240.000000
51
270.000000
0
LINE
8
00_POLIAMIDAS
10
73.780313
20
37.205889
30
0.0
11
71.933903
21
38.271914
31
0.0
0
ARC
8
00_POLIAMIDAS
10
71.533903
20
37.579094
30
0.0
40
0.800000
50
60.000000
51
90.000000
0
LINE
8
00_POLIAMIDAS
10
71.533903
20
38.379094
30
0.0
11
67.186724
21
38.379094
31
0.0
0
LINE
8
00_POLIAMIDAS
10
67.186724
20
38.379094
30
0.0
11
62.839544
21
38.379094
31
0.0
0
ARC
8
00_POLIAMIDAS
10
62.839544
20
37.579094
30
0.0
40
0.800000
50
90.000000
51
120.000000
0
LINE
8
00_POLIAMIDAS
10
62.439544
20
38.271914
30
0.0
11
60.593134
21
37.205889
31
0.0
0
ARC
8
00_POLIAMIDAS
10
60.493134
20
37.379094
30
0.0
40
0.200000
50
270.000000
51
300.000000
0
LINE
8
00_POLIAMIDAS
10
60.493134
20
37.179094
30
0.0
11
60.286724
21
37.179094
31
0.0
0
ARC
8
00_POLIAMIDAS
10
60.286724
20
37.579094
30
0.0
40
0.400000
50
180.000000
51
270.000000
0
LINE
8
00_POLIAMIDAS
10
59.886724
20
37.579094
30
0.0
11
59.886724
21
38.179094
31
0.0
0
LINE
8
00_POLIAMIDAS
10
59.886724
20
38.179094
30
0.0
11
59.986724
21
38.179094
31
0.0
0
LINE
8
00_POLIAMIDAS
10
59.986724
20
38.179094
30
0.0
11
59.986724
21
38.554094
31
0.0
0
ARC
8
00_POLIAMIDAS
10
60.186724
20
38.554094
30
0.0
40
0.200000
50
73.768699
51
180.000000
0
ARC
8
00_POLIAMIDAS
10
60.298530
20
38.554094
30
0.0
40
0.200000
50
64.992167
51
106.231301
0
ARC
8
00_POLIAMIDAS
10
60.636724
20
39.279094
30
0.0
40
0.600000
50
244.992167
51
0.000000
0
ARC
8
00_POLIAMIDAS
10
60.636724
20
39.279094
30
0.0
40
0.600000
50
0.000000
51
115.007833
0
ARC
8
00_POLIAMIDAS
10
60.298530
20
40.004094
30
0.0
40
0.200000
50
253.768699
51
295.007833
0
ARC
8
00_POLIAMIDAS
10
60.186724
20
40.004094
30
0.0
40
0.200000
50
180.000000
51
286.231301
0
LINE
8
00_POLIAMIDAS
10
59.986724
20
40.004094
30
0.0
11
59.986724
21
40.379094
31
0.0
0
LINE
8
00_POLIAMIDAS
10
59.986724
20
40.379094
30
0.0
11
59.886724
21
40.379094
31
0.0
0
LINE
8
00_POLIAMIDAS
10
59.886724
20
40.379094
30
0.0
11
59.886724
21
40.979094
31
0.0
0
ARC
8
00_POLIAMIDAS
10
60.286724
20
40.979094
30
0.0
40
0.400000
50
90.000000
51
180.000000
0
LINE
8
00_POLIAMIDAS
10
60.286724
20
41.379094
30
0.0
11
60.493134
21
41.379094
31
0.0
0
ARC
8
00_POLIAMIDAS
10
60.493134
20
41.179094
30
0.0
40
0.200000
50
60.000000
51
90.000000
0
LINE
8
00_POLIAMIDAS
10
60.593134
20
41.352299
30
0.0
11
62.439544
21
40.286273
31
0.0
0
ARC
8
00_POLIAMIDAS
10
62.839544
20
40.979094
30
0.0
40
0.800000
50
240.000000
51
270.000000
0
LINE
8
00_POLIAMIDAS
10
62.839544
20
40.179094
30
0.0
11
66.903881
21
40.179094
31
0.0
0
ARC
8
00_POLIAMIDAS
10
66.903881
20
40.379094
30
0.0
40
0.200000
50
270.000000
51
308.942441
0
ARC
8
00_POLIAMIDAS
10
67.186724
20
40.029094
30
0.0
40
0.250000
50
51.057559
51
128.942441
0
ARC
8
00_POLIAMIDAS
10
67.469566
20
40.379094
30
0.0
40
0.200000
50
231.057559
51
270.000000
0
LINE
8
00_POLIAMIDAS
10
67.469566
20
40.179094
30
0.0
11
71.533903
21
40.179094
31
0.0
0
ARC
8
00_POLIAMIDAS
10
71.533903
20
40.979094
30
0.0
40
0.800000
50
270.000000
51
300.000000
0
LINE
8
00_POLIAMIDAS
10
71.933903
20
40.286273
30
0.0
11
73.780313
21
41.352299
31
0.0
0
ARC
8
00_POLIAMIDAS
10
73.880313
20
41.179094
30
0.0
40
0.200000
50
90.000000
51
120.000000
0
LINE
8
00_POLIAMIDAS
10
73.880313
20
41.379094
30
0.0
11
74.086724
21
41.379094
31
0.0
0
ARC
8
00_POLIAMIDAS
10
74.086724
20
40.979094
30
0.0
40
0.400000
50
0.000000
51
90.000000
0
LINE
8
00_POLIAMIDAS
10
74.486724
20
40.979094
30
0.0
11
74.486724
21
40.379094
31
0.0
0
LINE
8
00_POLIAMIDAS
10
74.486724
20
40.379094
30
0.0
11
74.386724
21
40.379094
31
0.0
0
LINE
8
00_POLIAMIDAS
10
74.386724
20
40.379094
30
0.0
11
74.386724
21
40.004094
31
0.0
0
ARC
8
00_POLIAMIDAS
10
74.186724
20
40.004094
30
0.0
40
0.200000
50
253.768699
51
0.000000
0
ARC
8
00_POLIAMIDAS
10
74.074917
20
40.004094
30
0.0
40
0.200000
50
244.992167
51
286.231301
0
ARC
8
00_POLIAMIDAS
10
73.736724
20
39.279094
30
0.0
40
0.600000
50
64.992167
51
180.000000
0
ARC
8
00_POLIAMIDAS
10
73.736724
20
39.279094
30
0.0
40
0.600000
50
180.000000
51
295.007833
0
LINE
8
00_ALUMINIO
10
58.186724
20
68.290300
30
0.0
11
58.186724
21
36.690300
31
0.0
0
LINE
8
00_ALUMINIO
10
58.186724
20
36.690300
30
0.0
11
32.986724
21
36.690300
31
0.0
0
LINE
8
00_ALUMINIO
10
32.986724
20
36.690300
30
0.0
11
32.986724
21
38.190300
31
0.0
0
LINE
8
00_ALUMINIO
10
32.986724
20
38.190300
30
0.0
11
31.986763
21
38.190300
31
0.0
0
LINE
8
00_ALUMINIO
10
31.986763
20
38.190300
30
0.0
11
31.986763
21
66.790300
31
0.0
0
LINE
8
00_ALUMINIO
10
31.986763
20
66.790300
30
0.0
11
32.986724
21
66.790300
31
0.0
0
LINE
8
00_ALUMINIO
10
32.986724
20
66.790300
30
0.0
11
32.986724
21
68.290300
31
0.0
0
LINE
8
00_ALUMINIO
10
32.986724
20
68.290300
30
0.0
11
58.186724
21
68.290300
31
0.0
0
ARC
8
00_ALUMINIO
10
64.113985
20
69.509622
30
0.0
40
0.300000
50
341.748585
51
88.866021
0
LINE
8
00_ALUMINIO
10
64.117370
20
69.809647
30
0.0
11
63.460749
21
69.828260
31
0.0
0
ARC
8
00_ALUMINIO
10
63.446581
20
69.328461
30
0.0
40
0.500000
50
88.376251
51
128.194227
0
ARC
8
00_ALUMINIO
10
61.900758
20
71.293259
30
0.0
40
2.000000
50
236.002945
51
308.194227
0
LINE
8
00_ALUMINIO
10
60.782457
20
69.635126
30
0.0
11
60.120820
21
69.959646
31
0.0
0
ARC
8
00_ALUMINIO
10
59.988711
20
69.690300
30
0.0
40
0.300000
50
63.872968
51
90.000000
0
LINE
8
00_ALUMINIO
10
59.988711
20
69.990300
30
0.0
11
51.286763
21
69.990300
31
0.0
0
LINE
8
00_ALUMINIO
10
51.286763
20
69.990300
30
0.0
11
51.286763
21
74.990300
31
0.0
0
LINE
8
00_ALUMINIO
10
51.286763
20
74.990300
30
0.0
11
48.786763
21
74.990300
31
0.0
0
LINE
8
00_ALUMINIO
10
48.786763
20
74.990300
30
0.0
11
47.786763
21
73.990300
31
0.0
0
LINE
8
00_ALUMINIO
10
47.786763
20
73.990300
30
0.0
11
47.786763
21
72.990300
31
0.0
0
LINE
8
00_ALUMINIO
10
47.786763
20
72.990300
30
0.0
11
49.786763
21
72.990300
31
0.0
0
LINE
8
00_ALUMINIO
10
49.786763
20
72.990300
30
0.0
11
49.786763
21
69.990300
31
0.0
0
LINE
8
00_ALUMINIO
10
49.786763
20
69.990300
30
0.0
11
31.786763
21
69.990300
31
0.0
0
LINE
8
00_ALUMINIO
10
31.786763
20
69.990300
30
0.0
11
31.786763
21
72.990300
31
0.0
0
LINE
8
00_ALUMINIO
10
31.786763
20
72.990300
30
0.0
11
33.786763
21
72.990300
31
0.0
0
LINE
8
00_ALUMINIO
10
33.786763
20
72.990300
30
0.0
11
33.786763
21
73.990300
31
0.0
0
LINE
8
00_ALUMINIO
10
33.786763
20
73.990300
30
0.0
11
32.786763
21
74.990300
31
0.0
0
LINE
8
00_ALUMINIO
10
32.786763
20
74.990300
30
0.0
11
30.286763
21
74.990300
31
0.0
0
LINE
8
00_ALUMINIO
10
30.286763
20
74.990300
30
0.0
11
30.286763
21
13.490300
31
0.0
0
ARC
8
00_ALUMINIO
10
30.786763
20
13.490300
30
0.0
40
0.500000
50
180.000000
51
270.000000
0
LINE
8
00_ALUMINIO
10
30.786763
20
12.990300
30
0.0
11
33.286763
21
12.990300
31
0.0
0
ARC
8
00_ALUMINIO
10
33.286763
20
13.490300
30
0.0
40
0.500000
50
270.000000
51
0.000000
0
LINE
8
00_ALUMINIO
10
33.786763
20
13.490300
30
0.0
11
33.786763
21
14.240300
31
0.0
0
LINE
8
00_ALUMINIO
10
33.786763
20
14.240300
30
0.0
11
33.286763
21
15.740300
31
0.0
0
LINE
8
00_ALUMINIO
10
33.286763
20
15.740300
30
0.0
11
32.786763
21
15.740300
31
0.0
0
LINE
8
00_ALUMINIO
10
32.786763
20
15.740300
30
0.0
11
32.786763
21
14.240300
31
0.0
0
LINE
8
00_ALUMINIO
10
32.786763
20
14.240300
30
0.0
11
31.486763
21
14.240300
31
0.0
0
LINE
8
00_ALUMINIO
10
31.486763
20
14.240300
30
0.0
11
31.486763
21
20.740300
31
0.0
0
LINE
8
00_ALUMINIO
10
31.486763
20
20.740300
30
0.0
11
32.786763
21
20.740300
31
0.0
0
LINE
8
00_ALUMINIO
10
32.786763
20
20.740300
30
0.0
11
32.786763
21
19.240300
31
0.0
0
LINE
8
00_ALUMINIO
10
32.786763
20
19.240300
30
0.0
11
33.286763
21
19.240300
31
0.0
0
LINE
8
00_ALUMINIO
10
33.286763
20
19.240300
30
0.0
11
33.786763
21
20.740300
31
0.0
0
LINE
8
00_ALUMINIO
10
33.786763
20
20.740300
30
0.0
11
33.786763
21
22.989776
31
0.0
0
ARC
8
00_ALUMINIO
10
33.486763
20
22.989776
30
0.0
40
0.300000
50
0.000000
51
104.693265
0
ARC
8
00_ALUMINIO
10
33.334576
20
22.989776
30
0.0
40
0.300000
50
75.306735
51
180.000000
0
LINE
8
00_ALUMINIO
10
33.034576
20
22.989776
30
0.0
11
33.034576
21
22.190300
31
0.0
0
LINE
8
00_ALUMINIO
10
33.034576
20
22.190300
30
0.0
11
31.886763
21
22.190300
31
0.0
0
LINE
8
00_ALUMINIO
10
31.886763
20
22.190300
30
0.0
11
31.886763
21
34.990300
31
0.0
0
LINE
8
00_ALUMINIO
10
31.886763
20
34.990300
30
0.0
11
33.034576
21
34.990300
31
0.0
0
LINE
8
00_ALUMINIO
10
33.034576
20
34.990300
30
0.0
11
33.034576
21
34.190824
31
0.0
0
ARC
8
00_ALUMINIO
10
33.334576
20
34.190824
30
0.0
40
0.300000
50
180.000000
51
284.693265
0
ARC
8
00_ALUMINIO
10
33.486763
20
34.190824
30
0.0
40
0.300000
50
255.306735
51
0.000000
0
LINE
8
00_ALUMINIO
10
33.786763
20
34.190824
30
0.0
11
33.786763
21
34.990300
31
0.0
0
LINE
8
00_ALUMINIO
10
33.786763
20
34.990300
30
0.0
11
36.786724
21
34.990300
31
0.0
0
LINE
8
00_ALUMINIO
10
36.786724
20
34.990300
30
0.0
11
36.786724
21
31.990300
31
0.0
0
ARC
8
00_ALUMINIO
10
36.786763
20
31.490300
30
0.0
40
0.500000
50
90.004494
51
180.000000
0
LINE
8
00_ALUMINIO
10
36.286763
20
31.490300
30
0.0
11
36.286763
21
30.990300
31
0.0
0
ARC
8
00_ALUMINIO
10
36.786763
20
30.990300
30
0.0
40
0.500000
50
180.000000
51
270.000000
0
LINE
8
00_ALUMINIO
10
36.786763
20
30.490300
30
0.0
11
40.786724
21
30.490300
31
0.0
0
LINE
8
00_ALUMINIO
10
40.786724
20
30.490300
30
0.0
11
40.786724
21
31.990300
31
0.0
0
LINE
8
00_ALUMINIO
10
40.786724
20
31.990300
30
0.0
11
38.286724
21
31.990300
31
0.0
0
LINE
8
00_ALUMINIO
10
38.286724
20
31.990300
30
0.0
11
38.286724
21
34.990300
31
0.0
0
LINE
8
00_ALUMINIO
10
38.286724
20
34.990300
30
0.0
11
58.286724
21
34.990300
31
0.0
0
LINE
8
00_ALUMINIO
10
58.286724
20
34.990300
30
0.0
11
58.286724
21
31.990300
31
0.0
0
LINE
8
00_ALUMINIO
10
58.286724
20
31.990300
30
0.0
11
55.786724
21
31.990300
31
0.0
0
LINE
8
00_ALUMINIO
10
55.786724
20
31.990300
30
0.0
11
55.786724
21
30.490300
31
0.0
0
LINE
8
00_ALUMINIO
10
55.786724
20
30.490300
30
0.0
11
59.986724
21
30.490300
31
0.0
0
LINE
8
00_ALUMINIO
10
59.986724
20
30.490300
30
0.0
11
60.763776
21
33.390300
31
0.0
0
LINE
8
00_ALUMINIO
10
60.763776
20
33.390300
30
0.0
11
59.886724
21
33.390300
31
0.0
0
LINE
8
00_ALUMINIO
10
59.886724
20
33.390300
30
0.0
11
59.886724
21
34.725499
31
0.0
0
ARC
8
00_ALUMINIO
10
60.186724
20
34.725499
30
0.0
40
0.300000
50
116.127032
51
180.000000
0
LINE
8
00_ALUMINIO
10
60.054615
20
34.994845
30
0.0
11
60.782457
21
35.351837
31
0.0
0
ARC
8
00_ALUMINIO
10
61.900758
20
33.693704
30
0.0
40
2.000000
50
51.805773
51
123.997055
0
ARC
8
00_ALUMINIO
10
63.446581
20
35.658502
30
0.0
40
0.500000
50
231.805773
51
271.623749
0
LINE
8
00_ALUMINIO
10
63.460749
20
35.158703
30
0.0
11
64.117370
21
35.177316
31
0.0
0
LINE
8
00_ALUMINIO
10
64.117370
20
35.177316
30
0.0
11
64.127622
21
35.177651
31
0.0
0
ARC
8
00_ALUMINIO
10
64.113985
20
35.477341
30
0.0
40
0.300000
50
272.605413
51
18.251415
0
LINE
8
00_ALUMINIO
10
64.398892
20
35.571297
30
0.0
11
62.334605
21
38.237738
31
0.0
0
ARC
8
00_ALUMINIO
10
62.188009
20
38.167903
30
0.0
40
0.162380
50
25.472270
51
217.320431
0
ARC
8
00_ALUMINIO
10
61.879478
20
37.981045
30
0.0
40
0.200000
50
308.823976
51
26.234983
0
LINE
8
00_ALUMINIO
10
62.004864
20
37.825230
30
0.0
11
60.361694
21
36.502956
31
0.0
0
ARC
8
00_ALUMINIO
10
60.173615
20
36.736678
30
0.0
40
0.300000
50
287.000000
51
308.823976
0
LINE
8
00_ALUMINIO
10
60.261326
20
36.449787
30
0.0
11
59.886724
21
36.348967
31
0.0
0
ARC
8
00_ALUMINIO
10
59.886724
20
36.648967
30
0.0
40
0.300000
50
90.000000
51
270.000000
0
LINE
8
00_ALUMINIO
10
59.886724
20
36.948967
30
0.0
11
59.886724
21
41.448967
31
0.0
0
ARC
8
00_ALUMINIO
10
60.086724
20
41.448967
30
0.0
40
0.200000
50
90.000000
51
180.000000
0
LINE
8
00_ALUMINIO
10
60.086724
20
41.648967
30
0.0
11
60.154612
21
41.648967
31
0.0
0
ARC
8
00_ALUMINIO
10
60.154612
20
41.348967
30
0.0
40
0.300000
50
58.619868
51
90.000000
0
LINE
8
00_ALUMINIO
10
60.310826
20
41.605086
30
0.0
11
61.986819
21
40.582853
31
0.0
0
ARC
8
00_ALUMINIO
10
62.186724
20
40.576663
30
0.0
40
0.200000
50
178.226373
51
0.000000
0
LINE
8
00_ALUMINIO
10
62.386724
20
40.576663
30
0.0
11
62.386724
21
41.983653
31
0.0
0
ARC
8
00_ALUMINIO
10
62.186724
20
41.983653
30
0.0
40
0.200000
50
0.000000
51
58.619868
0
LINE
8
00_ALUMINIO
10
62.290866
20
42.154400
30
0.0
11
60.222224
21
43.416120
31
0.0
0
ARC
8
00_ALUMINIO
10
60.586724
20
44.013732
30
0.0
40
0.700000
50
180.000000
51
238.619868
0
LINE
8
00_ALUMINIO
10
59.886724
20
44.013732
30
0.0
11
59.886724
21
60.973231
31
0.0
0
ARC
8
00_ALUMINIO
10
60.586724
20
60.973231
30
0.0
40
0.700000
50
121.380132
51
180.000000
0
LINE
8
00_ALUMINIO
10
60.222224
20
61.570843
30
0.0
11
62.290866
21
62.832563
31
0.0
0
ARC
8
00_ALUMINIO
10
62.186724
20
63.003310
30
0.0
40
0.200000
50
301.380132
51
0.000000
0
LINE
8
00_ALUMINIO
10
62.386724
20
63.003310
30
0.0
11
62.386724
21
64.410300
31
0.0
0
ARC
8
00_ALUMINIO
10
62.186724
20
64.410300
30
0.0
40
0.200000
50
0.000000
51
181.773628
0
LINE
8
00_ALUMINIO
10
61.986819
20
64.404110
30
0.0
11
60.310826
21
63.381877
31
0.0
0
ARC
8
00_ALUMINIO
10
60.154612
20
63.637996
30
0.0
40
0.300000
50
270.000000
51
301.380132
0
LINE
8
00_ALUMINIO
10
60.154612
20
63.337996
30
0.0
11
60.086724
21
63.337996
31
0.0
0
ARC
8
00_ALUMINIO
10
60.086724
20
63.537996
30
0.0
40
0.200000
50
180.000000
51
270.000000
0
LINE
8
00_ALUMINIO
10
59.886724
20
63.537996
30
0.0
11
59.886724
21
68.037996
31
0.0
0
ARC
8
00_ALUMINIO
10
59.886724
20
68.337996
30
0.0
40
0.300000
50
90.000000
51
270.000000
0
LINE
8
00_ALUMINIO
10
59.886724
20
68.637996
30
0.0
11
60.312856
21
68.523308
31
0.0
0
LINE
8
00_ALUMINIO
10
60.312856
20
68.523308
30
0.0
11
62.004864
21
67.161733
31
0.0
0
ARC
8
00_ALUMINIO
10
61.879478
20
67.005918
30
0.0
40
0.200000
50
358.000000
51
51.176024
0
LINE
8
00_ALUMINIO
10
62.079356
20
66.998938
30
0.0
11
62.073926
21
66.843451
31
0.0
0
ARC
8
00_ALUMINIO
10
62.219458
20
66.838369
30
0.0
40
0.145621
50
178.000000
51
322.253920
0
LINE
8
00_ALUMINIO
10
62.334605
20
66.749225
30
0.0
11
64.398892
21
69.415666
31
0.0
0
LINE
8
00_ALUMINIO
10
77.186292
20
45.190300
30
0.0
11
81.086292
21
45.190300
31
0.0
0
ARC
8
00_ALUMINIO
10
81.086292
20
45.690300
30
0.0
40
0.500000
50
270.000000
51
0.000000
0
LINE
8
00_ALUMINIO
10
81.586292
20
45.690300
30
0.0
11
81.586292
21
88.994446
31
0.0
0
ARC
8
00_ALUMINIO
10
77.286292
20
88.994446
30
0.0
40
4.300000
50
0.000000
51
90.000000
0
LINE
8
00_ALUMINIO
10
77.286292
20
93.294446
30
0.0
11
77.186292
21
93.294446
31
0.0
0
ARC
8
00_ALUMINIO
10
77.186292
20
92.794446
30
0.0
40
0.500000
50
90.000000
51
180.000000
0
LINE
8
00_ALUMINIO
10
76.686292
20
92.794446
30
0.0
11
76.686292
21
86.394446
31
0.0
0
ARC
8
00_ALUMINIO
10
76.986292
20
86.394446
30
0.0
40
0.300000
50
180.000000
51
270.000000
0
LINE
8
00_ALUMINIO
10
76.986292
20
86.094446
30
0.0
11
77.636292
21
86.094446
31
0.0
0
ARC
8
00_ALUMINIO
10
77.636292
20
85.794446
30
0.0
40
0.300000
50
0.000000
51
90.000000
0
LINE
8
00_ALUMINIO
10
77.936292
20
85.794446
30
0.0
11
77.936292
21
73.494446
31
0.0
0
ARC
8
00_ALUMINIO
10
77.636292
20
73.494446
30
0.0
40
0.300000
50
270.000000
51
0.000000
0
LINE
8
00_ALUMINIO
10
77.636292
20
73.194446
30
0.0
11
76.986724
21
73.194446
31
0.0
0
ARC
8
00_ALUMINIO
10
76.986724
20
72.894446
30
0.0
40
0.300000
50
90.000000
51
180.000000
0
LINE
8
00_ALUMINIO
10
76.686724
20
72.894446
30
0.0
11
76.686724
21
45.669533
31
0.0
0
ARC
8
00_ALUMINIO
10
77.186292
20
45.690300
30
0.0
40
0.500000
50
182.380459
51
270.000000
0
ARC
8
00_ALUMINIO
10
74.486724
20
60.780006
30
0.0
40
0.500000
50
0.000000
51
58.619868
0
LINE
8
00_ALUMINIO
10
74.986724
20
60.780006
30
0.0
11
74.986724
21
44.200594
31
0.0
0
ARC
8
00_ALUMINIO
10
74.486724
20
44.200594
30
0.0
40
0.500000
50
301.380132
51
0.000000
0
LINE
8
00_ALUMINIO
10
74.747080
20
43.773728
30
0.0
11
72.082581
21
42.148579
31
0.0
0
ARC
8
00_ALUMINIO
10
72.186724
20
41.977832
30
0.0
40
0.200000
50
121.380132
51
180.000000
0
LINE
8
00_ALUMINIO
10
71.986724
20
41.977832
30
0.0
11
71.986724
21
40.570842
31
0.0
0
ARC
8
00_ALUMINIO
10
72.186724
20
40.570842
30
0.0
40
0.200000
50
180.000000
51
1.773627
0
LINE
8
00_ALUMINIO
10
72.386628
20
40.577032
30
0.0
11
74.062621
21
41.599265
31
0.0
0
ARC
8
00_ALUMINIO
10
74.218835
20
41.343146
30
0.0
40
0.300000
50
90.000000
51
121.380132
0
LINE
8
00_ALUMINIO
10
74.218835
20
41.643146
30
0.0
11
74.286724
21
41.643146
31
0.0
0
ARC
8
00_ALUMINIO
10
74.286724
20
41.443146
30
0.0
40
0.200000
50
0.000000
51
90.000000
0
LINE
8
00_ALUMINIO
10
74.486724
20
41.443146
30
0.0
11
74.486724
21
36.943146
31
0.0
0
ARC
8
00_ALUMINIO
10
74.486724
20
36.643146
30
0.0
40
0.300000
50
270.000000
51
90.000000
0
LINE
8
00_ALUMINIO
10
74.486724
20
36.343146
30
0.0
11
74.131698
21
36.438697
31
0.0
0
ARC
8
00_ALUMINIO
10
74.199832
20
36.730857
30
0.0
40
0.300000
50
231.176024
51
256.872879
0
LINE
8
00_ALUMINIO
10
74.011753
20
36.497135
30
0.0
11
72.368583
21
37.819409
31
0.0
0
ARC
8
00_ALUMINIO
10
72.493969
20
37.975224
30
0.0
40
0.200000
50
178.000000
51
231.176024
0
LINE
8
00_ALUMINIO
10
72.294091
20
37.982204
30
0.0
11
72.299521
21
38.137691
31
0.0
0
ARC
8
00_ALUMINIO
10
72.153989
20
38.142774
30
0.0
40
0.145621
50
358.000000
51
142.253920
0
LINE
8
00_ALUMINIO
10
72.038842
20
38.231917
30
0.0
11
69.974555
21
35.565476
31
0.0
0
ARC
8
00_ALUMINIO
10
70.259462
20
35.471520
30
0.0
40
0.300000
50
161.748585
51
268.866021
0
LINE
8
00_ALUMINIO
10
70.256077
20
35.171495
30
0.0
11
70.912698
21
35.152882
31
0.0
0
ARC
8
00_ALUMINIO
10
70.926866
20
35.652681
30
0.0
40
0.500000
50
268.376251
51
308.194227
0
ARC
8
00_ALUMINIO
10
72.472689
20
33.687883
30
0.0
40
2.000000
50
56.002945
51
128.194227
0
LINE
8
00_ALUMINIO
10
73.590990
20
35.346016
30
0.0
11
74.274564
21
35.010736
31
0.0
0
LINE
8
00_ALUMINIO
10
74.274564
20
35.010736
30
0.0
11
74.362637
21
34.990300
31
0.0
0
LINE
8
00_ALUMINIO
10
74.362637
20
34.990300
30
0.0
11
77.036292
21
34.990300
31
0.0
0
ARC
8
00_ALUMINIO
10
77.036292
20
35.740300
30
0.0
40
0.750000
50
270.000000
51
90.000000
0
LINE
8
00_ALUMINIO
10
77.036292
20
36.490300
30
0.0
11
76.786292
21
36.490300
31
0.0
0
LINE
8
00_ALUMINIO
10
76.786292
20
36.490300
30
0.0
11
76.786292
21
42.990300
31
0.0
0
ARC
8
00_ALUMINIO
10
77.286292
20
42.990300
30
0.0
40
0.500000
50
90.000000
51
180.000000
0
LINE
8
00_ALUMINIO
10
77.286292
20
43.490300
30
0.0
11
82.786292
21
43.490300
31
0.0
0
ARC
8
00_ALUMINIO
10
82.786292
20
43.990300
30
0.0
40
0.500000
50
270.000000
51
0.000000
0
LINE
8
00_ALUMINIO
10
83.286292
20
43.990300
30
0.0
11
83.286292
21
88.994446
31
0.0
0
ARC
8
00_ALUMINIO
10
77.286292
20
88.994446
30
0.0
40
6.000000
50
0.000000
51
90.000000
0
LINE
8
00_ALUMINIO
10
77.286292
20
94.994446
30
0.0
11
73.286292
21
94.994446
31
0.0
0
ARC
8
00_ALUMINIO
10
73.286292
20
94.494446
30
0.0
40
0.500000
50
90.000000
51
180.000000
0
LINE
8
00_ALUMINIO
10
72.786292
20
94.494446
30
0.0
11
72.786292
21
92.244446
31
0.0
0
ARC
8
00_ALUMINIO
10
73.286292
20
92.244446
30
0.0
40
0.500000
50
180.000000
51
0.000000
0
LINE
8
00_ALUMINIO
10
73.786292
20
92.244446
30
0.0
11
73.786292
21
93.494446
31
0.0
0
LINE
8
00_ALUMINIO
10
73.786292
20
93.494446
30
0.0
11
74.986292
21
93.494446
31
0.0
0
LINE
8
00_ALUMINIO
10
74.986292
20
93.494446
30
0.0
11
74.986292
21
85.994446
31
0.0
0
LINE
8
00_ALUMINIO
10
74.986292
20
85.994446
30
0.0
11
73.786292
21
85.994446
31
0.0
0
LINE
8
00_ALUMINIO
10
73.786292
20
85.994446
30
0.0
11
73.786292
21
87.244446
31
0.0
0
ARC
8
00_ALUMINIO
10
73.286292
20
87.244446
30
0.0
40
0.500000
50
0.000000
51
180.000000
0
LINE
8
00_ALUMINIO
10
72.786292
20
87.244446
30
0.0
11
72.786292
21
83.394446
31
0.0
0
ARC
8
00_ALUMINIO
10
73.261292
20
83.369446
30
0.0
40
0.475657
50
176.987212
51
3.012788
0
LINE
8
00_ALUMINIO
10
73.736292
20
83.394446
30
0.0
11
73.736292
21
84.394446
31
0.0
0
LINE
8
00_ALUMINIO
10
73.736292
20
84.394446
30
0.0
11
76.236292
21
84.394446
31
0.0
0
LINE
8
00_ALUMINIO
10
76.236292
20
84.394446
30
0.0
11
76.236292
21
74.894446
31
0.0
0
LINE
8
00_ALUMINIO
10
76.236292
20
74.894446
30
0.0
11
73.736292
21
74.894446
31
0.0
0
LINE
8
00_ALUMINIO
10
73.736292
20
74.894446
30
0.0
11
73.736292
21
75.894446
31
0.0
0
ARC
8
00_ALUMINIO
10
73.261292
20
75.919446
30
0.0
40
0.475657
50
356.987213
51
183.012788
0
LINE
8
00_ALUMINIO
10
72.786292
20
75.894446
30
0.0
11
72.786292
21
73.794446
31
0.0
0
ARC
8
00_ALUMINIO
10
73.286292
20
73.794446
30
0.0
40
0.500000
50
180.000000
51
270.000000
0
LINE
8
00_ALUMINIO
10
73.286292
20
73.294446
30
0.0
11
74.686724
21
73.294446
31
0.0
0
ARC
8
00_ALUMINIO
10
74.686724
20
72.994446
30
0.0
40
0.300000
50
0.000000
51
90.000000
0
LINE
8
00_ALUMINIO
10
74.986724
20
72.994446
30
0.0
11
74.986724
21
70.290300
31
0.0
0
ARC
8
00_ALUMINIO
10
74.686724
20
70.290300
30
0.0
40
0.300000
50
270.000000
51
0.000000
0
LINE
8
00_ALUMINIO
10
74.686724
20
69.990300
30
0.0
11
74.362637
21
69.990300
31
0.0
0
LINE
8
00_ALUMINIO
10
74.362637
20
69.990300
30
0.0
11
74.274564
21
69.969864
31
0.0
0
LINE
8
00_ALUMINIO
10
74.274564
20
69.969864
30
0.0
11
73.590990
21
69.634584
31
0.0
0
ARC
8
00_ALUMINIO
10
72.472689
20
71.292717
30
0.0
40
2.000000
50
231.805773
51
303.997055
0
ARC
8
00_ALUMINIO
10
70.926866
20
69.327919
30
0.0
40
0.500000
50
51.805773
51
91.623749
0
LINE
8
00_ALUMINIO
10
70.912698
20
69.827718
30
0.0
11
70.256077
21
69.809105
31
0.0
0
ARC
8
00_ALUMINIO
10
70.259462
20
69.509080
30
0.0
40
0.300000
50
91.133979
51
198.251415
0
LINE
8
00_ALUMINIO
10
69.974555
20
69.415124
30
0.0
11
72.038842
21
66.748683
31
0.0
0
ARC
8
00_ALUMINIO
10
72.153989
20
66.837827
30
0.0
40
0.145621
50
217.746080
51
2.000000
0
LINE
8
00_ALUMINIO
10
72.299521
20
66.842909
30
0.0
11
72.294091
21
66.998396
31
0.0
0
ARC
8
00_ALUMINIO
10
72.493969
20
67.005376
30
0.0
40
0.200000
50
128.823976
51
182.000000
0
LINE
8
00_ALUMINIO
10
72.368583
20
67.161191
30
0.0
11
74.011753
21
68.483466
31
0.0
0
ARC
8
00_ALUMINIO
10
74.199832
20
68.249743
30
0.0
40
0.300000
50
103.127121
51
128.823976
0
LINE
8
00_ALUMINIO
10
74.131698
20
68.541903
30
0.0
11
74.486724
21
68.637454
31
0.0
0
ARC
8
00_ALUMINIO
10
74.486724
20
68.337454
30
0.0
40
0.300000
50
270.000000
51
90.000000
0
LINE
8
00_ALUMINIO
10
74.486724
20
68.037454
30
0.0
11
74.486724
21
63.537454
31
0.0
0
ARC
8
00_ALUMINIO
10
74.286724
20
63.537454
30
0.0
40
0.200000
50
270.000000
51
0.000000
0
LINE
8
00_ALUMINIO
10
74.286724
20
63.337454
30
0.0
11
74.218835
21
63.337454
31
0.0
0
ARC
8
00_ALUMINIO
10
74.218835
20
63.637454
30
0.0
40
0.300000
50
238.619868
51
270.000000
0
LINE
8
00_ALUMINIO
10
74.062621
20
63.381335
30
0.0
11
72.386628
21
64.403568
31
0.0
0
ARC
8
00_ALUMINIO
10
72.186724
20
64.409758
30
0.0
40
0.200000
50
358.226373
51
180.000000
0
LINE
8
00_ALUMINIO
10
71.986724
20
64.409758
30
0.0
11
71.986724
21
63.002768
31
0.0
0
ARC
8
00_ALUMINIO
10
72.186724
20
63.002768
30
0.0
40
0.200000
50
180.000000
51
238.619868
0
LINE
8
00_ALUMINIO
10
72.082581
20
62.832021
30
0.0
11
74.747080
21
61.206872
31
0.0
0
ATTDEF
8
0
10
0.000000
20
0.000000
30
0.0
40
3.5
1

3

2
PANE_WIDTH:0
70
0
0
ATTDEF
8
0
10
0.000000
20
0.000000
30
0.0
40
3.5
1

3

2
MIN_VETRO:0
70
0
0
ATTDEF
8
0
10
0.000000
20
0.000000
30
0.0
40
3.5
1

3

2
MAX_VETRO:0
70
0
0
ATTDEF
8
0
10
0.000000
20
0.000000
30
0.0
40
3.5
1

3

2
JX:0
70
0
0
ATTDEF
8
0
10
0.000000
20
0.000000
30
0.0
40
3.5
1

3

2
WX:0
70
0
0
ATTDEF
8
0
10
0.000000
20
0.000000
30
0.0
40
3.5
1

3

2
JY:0
70
0
0
ATTDEF
8
0
10
0.000000
20
0.000000
30
0.0
40
3.5
1

3

2
WY:0
70
0
0
ATTDEF
8
0
10
0.000000
20
0.000000
30
0.0
40
3.5
1

3

2
DESC:Hoja curva balconera poliamida plana
70
0
0
ATTDEF
8
0
10
0.000000
20
0.000000
30
0.0
40
3.5
1

3

2
DENS:1.6606
70
0
0
ATTDEF
8
0
10
0.000000
20
0.000000
30
0.0
40
3.5
1

3

2
TDEV:69.27
70
0
0
ATTDEF
8
0
10
0.000000
20
0.000000
30
0.0
40
3.5
1

3

2
TDEV2:0
70
0
0
ATTDEF
8
0
10
0.000000
20
0.000000
30
0.0
40
3.5
1

3

2
TDEV3:0
70
0
0
ATTDEF
8
0
10
0.000000
20
0.000000
30
0.0
40
3.5
1

3

2
TDEV4:0
70
0
0
ATTDEF
8
0
10
0.000000
20
0.000000
30
0.0
40
3.5
1

3

2
TDEV5:0
70
0
0
ATTDEF
8
0
10
0.000000
20
0.000000
30
0.0
40
3.5
1

3

2
PANE_WIDTH:0
70
0
0
ATTDEF
8
0
10
0.000000
20
0.000000
30
0.0
40
3.5
1

3

2
MIN_VETRO:0
70
0
0
ATTDEF
8
0
10
0.000000
20
0.000000
30
0.0
40
3.5
1

3

2
MAX_VETRO:0
70
0
0
ATTDEF
8
0
10
0.000000
20
0.000000
30
0.0
40
3.5
1

3

2
JX:0
70
0
0
ATTDEF
8
0
10
0.000000
20
0.000000
30
0.0
40
3.5
1

3

2
WX:0
70
0
0
ATTDEF
8
0
10
0.000000
20
0.000000
30
0.0
40
3.5
1

3

2
JY:0
70
0
0
ATTDEF
8
0
10
0.000000
20
0.000000
30
0.0
40
3.5
1

3

2
WY:0
70
0
0
ENDSEC
0
EOF
