0
SECTION
2
ENTITIES
0
ARC
8
0
10
4308.160426
20
1185.004471
30
0.0
40
0.300000
50
270.000000
51
360.000000
0
LINE
8
0
10
4308.460426
20
1185.004471
30
0.0
11
4308.460426
21
1185.804471
31
0.0
0
ARC
8
0
10
4308.160426
20
1185.804471
30
0.0
40
0.300000
50
360.000000
51
90.000000
0
LINE
8
0
10
4308.160426
20
1186.104471
30
0.0
11
4306.060426
21
1186.104471
31
0.0
0
ARC
8
0
10
4306.060426
20
1186.404471
30
0.0
40
0.300000
50
180.000000
51
270.000000
0
LINE
8
0
10
4305.760426
20
1186.404471
30
0.0
11
4305.760426
21
1189.554471
31
0.0
0
LINE
8
0
10
4305.760426
20
1189.554471
30
0.0
11
4305.460426
21
1189.854471
31
0.0
0
LINE
8
0
10
4305.460426
20
1189.854471
30
0.0
11
4305.760426
21
1190.154471
31
0.0
0
LINE
8
0
10
4305.760426
20
1190.154471
30
0.0
11
4305.760426
21
1192.904471
31
0.0
0
ARC
8
0
10
4306.510426
20
1192.904471
30
0.0
40
0.750000
50
90.000000
51
180.000000
0
LINE
8
0
10
4306.510426
20
1193.654471
30
0.0
11
4315.701649
21
1193.654471
31
0.0
0
ARC
8
0
10
4315.701649
20
1194.154471
30
0.0
40
0.500000
50
270.000000
51
345.000000
0
LINE
8
0
10
4316.184612
20
1194.025061
30
0.0
11
4319.646674
21
1206.945652
31
0.0
0
ARC
8
0
10
4318.680748
20
1207.204471
30
0.0
40
1.000000
50
345.000000
51
15.000000
0
LINE
8
0
10
4319.646674
20
1207.463290
30
0.0
11
4316.184612
21
1220.383880
31
0.0
0
ARC
8
0
10
4315.701649
20
1220.254471
30
0.0
40
0.500000
50
15.000000
51
90.000000
0
LINE
8
0
10
4315.701649
20
1220.754471
30
0.0
11
4306.510426
21
1220.754471
31
0.0
0
ARC
8
0
10
4306.510426
20
1221.504471
30
0.0
40
0.750000
50
180.000000
51
270.000000
0
LINE
8
0
10
4305.760426
20
1221.504471
30
0.0
11
4305.760426
21
1224.254471
31
0.0
0
LINE
8
0
10
4305.760426
20
1224.254471
30
0.0
11
4305.460426
21
1224.554471
31
0.0
0
LINE
8
0
10
4305.460426
20
1224.554471
30
0.0
11
4305.760426
21
1224.854471
31
0.0
0
LINE
8
0
10
4305.760426
20
1224.854471
30
0.0
11
4305.760426
21
1228.004471
31
0.0
0
ARC
8
0
10
4306.060426
20
1228.004471
30
0.0
40
0.300000
50
90.000000
51
180.000000
0
LINE
8
0
10
4306.060426
20
1228.304471
30
0.0
11
4308.160426
21
1228.304471
31
0.0
0
ARC
8
0
10
4308.160426
20
1228.604471
30
0.0
40
0.300000
50
270.000000
51
360.000000
0
LINE
8
0
10
4308.460426
20
1228.604471
30
0.0
11
4308.460426
21
1229.404471
31
0.0
0
ARC
8
0
10
4308.160426
20
1229.404471
30
0.0
40
0.300000
50
360.000000
51
90.000000
0
LINE
8
0
10
4308.160426
20
1229.704471
30
0.0
11
4304.760426
21
1229.704471
31
0.0
0
ARC
8
0
10
4304.760426
20
1229.204471
30
0.0
40
0.500000
50
90.000000
51
180.000000
0
LINE
8
0
10
4304.260426
20
1229.204471
30
0.0
11
4304.260426
21
1221.654471
31
0.0
0
ARC
8
0
10
4303.760426
20
1221.654471
30
0.0
40
0.500000
50
270.000000
51
360.000000
0
LINE
8
0
10
4303.760426
20
1221.154471
30
0.0
11
4301.360426
21
1221.154471
31
0.0
0
ARC
8
0
10
4301.360426
20
1220.654471
30
0.0
40
0.500000
50
90.000000
51
180.000000
0
LINE
8
0
10
4300.860426
20
1220.654471
30
0.0
11
4300.860426
21
1220.154471
31
0.0
0
ARC
8
0
10
4301.360426
20
1220.154471
30
0.0
40
0.500000
50
180.000000
51
270.000000
0
LINE
8
0
10
4301.360426
20
1219.654471
30
0.0
11
4303.806487
21
1219.654471
31
0.0
0
ARC
8
0
10
4303.806487
20
1219.154471
30
0.0
40
0.500000
50
17.457603
51
90.000000
0
ARC
8
0
10
4304.760426
20
1219.454471
30
0.0
40
0.500000
50
197.457603
51
270.000000
0
LINE
8
0
10
4304.760426
20
1218.954471
30
0.0
11
4314.128629
21
1218.954471
31
0.0
0
ARC
8
0
10
4314.128629
20
1218.204471
30
0.0
40
0.750000
50
15.000000
51
90.000000
0
LINE
8
0
10
4314.853073
20
1218.398585
30
0.0
11
4316.655192
21
1211.672985
31
0.0
0
ARC
8
0
10
4315.930748
20
1211.478870
30
0.0
40
0.750000
50
360.000000
51
15.000000
0
LINE
8
0
10
4316.680748
20
1211.478870
30
0.0
11
4316.680748
21
1202.930071
31
0.0
0
ARC
8
0
10
4315.930748
20
1202.930071
30
0.0
40
0.750000
50
345.000000
51
360.000000
0
LINE
8
0
10
4316.655192
20
1202.735957
30
0.0
11
4314.853073
21
1196.010356
31
0.0
0
ARC
8
0
10
4314.128629
20
1196.204471
30
0.0
40
0.750000
50
270.000000
51
345.000000
0
LINE
8
0
10
4314.128629
20
1195.454471
30
0.0
11
4304.760426
21
1195.454471
31
0.0
0
ARC
8
0
10
4304.760426
20
1194.954471
30
0.0
40
0.500000
50
90.000000
51
162.542397
0
ARC
8
0
10
4303.806487
20
1195.254471
30
0.0
40
0.500000
50
270.000000
51
342.542397
0
LINE
8
0
10
4303.806487
20
1194.754471
30
0.0
11
4301.360426
21
1194.754471
31
0.0
0
ARC
8
0
10
4301.360426
20
1194.254471
30
0.0
40
0.500000
50
90.000000
51
180.000000
0
LINE
8
0
10
4300.860426
20
1194.254471
30
0.0
11
4300.860426
21
1193.754471
31
0.0
0
ARC
8
0
10
4301.360426
20
1193.754471
30
0.0
40
0.500000
50
180.000000
51
270.000000
0
LINE
8
0
10
4301.360426
20
1193.254471
30
0.0
11
4303.760426
21
1193.254471
31
0.0
0
ARC
8
0
10
4303.760426
20
1192.754471
30
0.0
40
0.500000
50
360.000000
51
90.000000
0
LINE
8
0
10
4304.260426
20
1192.754471
30
0.0
11
4304.260426
21
1185.204471
31
0.0
0
ARC
8
0
10
4304.760426
20
1185.204471
30
0.0
40
0.500000
50
180.000000
51
270.000000
0
LINE
8
0
10
4304.760426
20
1184.704471
30
0.0
11
4308.160426
21
1184.704471
31
0.0
0
ATTDEF
8
0
10
0.000000
20
0.000000
30
0.0
40
3.5
1

3

2
PANE_WIDTH:0
70
0
0
ATTDEF
8
0
10
0.000000
20
0.000000
30
0.0
40
3.5
1

3

2
MIN_VETRO:0
70
0
0
ATTDEF
8
0
10
0.000000
20
0.000000
30
0.0
40
3.5
1

3

2
MAX_VETRO:0
70
0
0
ATTDEF
8
0
10
0.000000
20
0.000000
30
0.0
40
3.5
1

3

2
JX:0
70
0
0
ATTDEF
8
0
10
0.000000
20
0.000000
30
0.0
40
3.5
1

3

2
WX:0
70
0
0
ATTDEF
8
0
10
0.000000
20
0.000000
30
0.0
40
3.5
1

3

2
JY:0
70
0
0
ATTDEF
8
0
10
0.000000
20
0.000000
30
0.0
40
3.5
1

3

2
WY:0
70
0
0
ATTDEF
8
0
10
0.000000
20
0.000000
30
0.0
40
3.5
1

3

2
DESC:Union cuatro hojas
70
0
0
ATTDEF
8
0
10
0.000000
20
0.000000
30
0.0
40
3.5
1

3

2
DENS:0.3699
70
0
0
ATTDEF
8
0
10
0.000000
20
0.000000
30
0.0
40
3.5
1

3

2
TDEV:15.64
70
0
0
ATTDEF
8
0
10
0.000000
20
0.000000
30
0.0
40
3.5
1

3

2
TDEV2:0
70
0
0
ATTDEF
8
0
10
0.000000
20
0.000000
30
0.0
40
3.5
1

3

2
TDEV3:0
70
0
0
ATTDEF
8
0
10
0.000000
20
0.000000
30
0.0
40
3.5
1

3

2
TDEV4:0
70
0
0
ATTDEF
8
0
10
0.000000
20
0.000000
30
0.0
40
3.5
1

3

2
TDEV5:0
70
0
0
ATTDEF
8
0
10
0.000000
20
0.000000
30
0.0
40
3.5
1

3

2
PANE_WIDTH:0
70
0
0
ATTDEF
8
0
10
0.000000
20
0.000000
30
0.0
40
3.5
1

3

2
MIN_VETRO:0
70
0
0
ATTDEF
8
0
10
0.000000
20
0.000000
30
0.0
40
3.5
1

3

2
MAX_VETRO:0
70
0
0
ATTDEF
8
0
10
0.000000
20
0.000000
30
0.0
40
3.5
1

3

2
JX:0
70
0
0
ATTDEF
8
0
10
0.000000
20
0.000000
30
0.0
40
3.5
1

3

2
WX:0
70
0
0
ATTDEF
8
0
10
0.000000
20
0.000000
30
0.0
40
3.5
1

3

2
JY:0
70
0
0
ATTDEF
8
0
10
0.000000
20
0.000000
30
0.0
40
3.5
1

3

2
WY:0
70
0
0
ATTDEF
8
0
10
4305.760426
20
1226.429471
30
0.0
40
3.5
1

3

2
HC_START
70
0
0
ATTDEF
8
0
10
4304.260426
20
1229.204471
30
0.0
40
3.5
1

3

2
HC_END
70
0
0
ATTDEF
8
0
10
4300.860426
20
1229.704471
30
0.0
40
3.5
1

3

2
FP_LCS_ORIG
70
0
0
ATTDEF
8
0
10
4300.860426
20
1219.704471
30
0.0
40
3.5
1

3

2
FP_LCS_HOT
70
0
0
ATTDEF
8
0
10
4310.860426
20
1229.704471
30
0.0
40
3.5
1

3

2
FP_LCS_INTERN
70
0
0
ENDSEC
0
EOF
