0
SECTION
2
ENTITIES
0
ARC
8
0
10
4304.185857
20
1183.894889
30
0.0
40
0.300000
50
270.000000
51
360.000000
0
LINE
8
0
10
4304.485857
20
1183.894889
30
0.0
11
4304.485857
21
1184.494889
31
0.0
0
ARC
8
0
10
4304.185857
20
1184.494889
30
0.0
40
0.300000
50
360.000000
51
90.000000
0
LINE
8
0
10
4304.185857
20
1184.794889
30
0.0
11
4302.885857
21
1184.794889
31
0.0
0
ARC
8
0
10
4302.885857
20
1185.094889
30
0.0
40
0.300000
50
180.000000
51
270.000000
0
LINE
8
0
10
4302.585857
20
1185.094889
30
0.0
11
4302.585857
21
1185.994889
31
0.0
0
ARC
8
0
10
4302.885857
20
1185.994889
30
0.0
40
0.300000
50
90.000000
51
180.000000
0
LINE
8
0
10
4302.885857
20
1186.294889
30
0.0
11
4310.085857
21
1186.294889
31
0.0
0
ARC
8
0
10
4310.085857
20
1185.794889
30
0.0
40
0.500000
50
360.000000
51
90.000000
0
LINE
8
0
10
4310.585857
20
1185.794889
30
0.0
11
4310.585857
21
1185.094889
31
0.0
0
ARC
8
0
10
4310.285857
20
1185.094889
30
0.0
40
0.300000
50
270.000000
51
360.000000
0
LINE
8
0
10
4310.285857
20
1184.794889
30
0.0
11
4308.985857
21
1184.794889
31
0.0
0
ARC
8
0
10
4308.985857
20
1184.494889
30
0.0
40
0.300000
50
90.000000
51
180.000000
0
LINE
8
0
10
4308.685857
20
1184.494889
30
0.0
11
4308.685857
21
1183.894889
31
0.0
0
ARC
8
0
10
4308.985857
20
1183.894889
30
0.0
40
0.300000
50
180.000000
51
270.000000
0
LINE
8
0
10
4308.985857
20
1183.594889
30
0.0
11
4311.385857
21
1183.594889
31
0.0
0
ARC
8
0
10
4311.385857
20
1184.094889
30
0.0
40
0.500000
50
270.000000
51
360.000000
0
LINE
8
0
10
4311.885857
20
1184.094889
30
0.0
11
4311.885857
21
1186.494889
31
0.0
0
ARC
8
0
10
4312.385857
20
1186.494889
30
0.0
40
0.500000
50
90.000000
51
180.000000
0
LINE
8
0
10
4312.385857
20
1186.994889
30
0.0
11
4316.185857
21
1186.994889
31
0.0
0
LINE
8
0
10
4316.185857
20
1186.994889
30
0.0
11
4316.685857
21
1187.494889
31
0.0
0
LINE
8
0
10
4316.685857
20
1187.494889
30
0.0
11
4317.185857
21
1186.994889
31
0.0
0
LINE
8
0
10
4317.185857
20
1186.994889
30
0.0
11
4322.835857
21
1186.994889
31
0.0
0
ARC
8
0
10
4322.835857
20
1186.494889
30
0.0
40
0.500000
50
360.000000
51
90.000000
0
LINE
8
0
10
4323.335857
20
1186.494889
30
0.0
11
4323.335857
21
1183.491618
31
0.0
0
ARC
8
0
10
4324.335857
20
1183.491618
30
0.0
40
1.000000
50
180.000000
51
267.079279
0
LINE
8
0
10
4324.284903
20
1182.492917
30
0.0
11
4334.135857
21
1181.990318
31
0.0
0
LINE
8
0
10
4334.135857
20
1181.990318
30
0.0
11
4339.506336
21
1181.990318
31
0.0
0
ARC
8
0
10
4339.506336
20
1182.519839
30
0.0
40
0.529521
50
270.000000
51
84.831233
0
LINE
8
0
10
4339.554040
20
1183.047207
30
0.0
11
4326.745768
21
1184.205812
31
0.0
0
ARC
8
0
10
4326.835857
20
1185.201745
30
0.0
40
1.000000
50
180.000000
51
264.831233
0
LINE
8
0
10
4325.835857
20
1185.201745
30
0.0
11
4325.835857
21
1187.994889
31
0.0
0
ARC
8
0
10
4324.835857
20
1187.994889
30
0.0
40
1.000000
50
360.000000
51
90.000000
0
LINE
8
0
10
4324.835857
20
1188.994889
30
0.0
11
4309.592964
21
1188.994889
31
0.0
0
ARC
8
0
10
4309.592964
20
1188.494889
30
0.0
40
0.500000
50
90.000000
51
135.000000
0
LINE
8
0
10
4309.239411
20
1188.848442
30
0.0
11
4308.532304
21
1188.141336
31
0.0
0
ARC
8
0
10
4308.178750
20
1188.494889
30
0.0
40
0.500000
50
270.000000
51
315.000000
0
LINE
8
0
10
4308.178750
20
1187.994889
30
0.0
11
4294.085857
21
1187.994889
31
0.0
0
ARC
8
0
10
4294.085857
20
1188.994889
30
0.0
40
1.000000
50
180.000000
51
270.000000
0
LINE
8
0
10
4293.085857
20
1188.994889
30
0.0
11
4293.085857
21
1197.344889
31
0.0
0
ARC
8
0
10
4293.385857
20
1197.344889
30
0.0
40
0.300000
50
90.000000
51
180.000000
0
LINE
8
0
10
4293.385857
20
1197.644889
30
0.0
11
4296.585857
21
1197.644889
31
0.0
0
ARC
8
0
10
4296.585857
20
1197.344889
30
0.0
40
0.300000
50
360.000000
51
90.000000
0
ARC
8
0
10
4297.185857
20
1197.344889
30
0.0
40
0.300000
50
180.000000
51
300.000000
0
LINE
8
0
10
4297.335857
20
1197.085081
30
0.0
11
4298.767908
21
1197.911876
31
0.0
0
ARC
8
0
10
4298.517908
20
1198.344889
30
0.0
40
0.500000
50
300.000000
51
90.000000
0
LINE
8
0
10
4298.517908
20
1198.844889
30
0.0
11
4293.385857
21
1198.844889
31
0.0
0
ARC
8
0
10
4293.385857
20
1199.144889
30
0.0
40
0.300000
50
180.000000
51
270.000000
0
LINE
8
0
10
4293.085857
20
1199.144889
30
0.0
11
4293.085857
21
1224.044889
31
0.0
0
ARC
8
0
10
4293.385857
20
1224.044889
30
0.0
40
0.300000
50
90.000000
51
180.000000
0
LINE
8
0
10
4293.385857
20
1224.344889
30
0.0
11
4298.517908
21
1224.344889
31
0.0
0
ARC
8
0
10
4298.517908
20
1224.844889
30
0.0
40
0.500000
50
270.000000
51
60.000000
0
LINE
8
0
10
4298.767908
20
1225.277902
30
0.0
11
4297.335857
21
1226.104697
31
0.0
0
ARC
8
0
10
4297.185857
20
1225.844889
30
0.0
40
0.300000
50
60.000000
51
180.000000
0
ARC
8
0
10
4296.585857
20
1225.844889
30
0.0
40
0.300000
50
270.000000
51
360.000000
0
LINE
8
0
10
4296.585857
20
1225.544889
30
0.0
11
4293.385857
21
1225.544889
31
0.0
0
ARC
8
0
10
4293.385857
20
1225.844889
30
0.0
40
0.300000
50
180.000000
51
270.000000
0
LINE
8
0
10
4293.085857
20
1225.844889
30
0.0
11
4293.085857
21
1233.594889
31
0.0
0
ARC
8
0
10
4292.585857
20
1233.594889
30
0.0
40
0.500000
50
360.000000
51
90.000000
0
LINE
8
0
10
4292.585857
20
1234.094889
30
0.0
11
4292.085857
21
1234.094889
31
0.0
0
ARC
8
0
10
4292.085857
20
1233.594889
30
0.0
40
0.500000
50
90.000000
51
180.000000
0
LINE
8
0
10
4291.585857
20
1233.594889
30
0.0
11
4291.585857
21
1184.094889
31
0.0
0
ARC
8
0
10
4292.085857
20
1184.094889
30
0.0
40
0.500000
50
180.000000
51
270.000000
0
LINE
8
0
10
4292.085857
20
1183.594889
30
0.0
11
4294.885857
21
1183.594889
31
0.0
0
ARC
8
0
10
4294.885857
20
1183.894889
30
0.0
40
0.300000
50
270.000000
51
360.000000
0
LINE
8
0
10
4295.185857
20
1183.894889
30
0.0
11
4295.185857
21
1184.494889
31
0.0
0
ARC
8
0
10
4294.885857
20
1184.494889
30
0.0
40
0.300000
50
360.000000
51
90.000000
0
LINE
8
0
10
4294.885857
20
1184.794889
30
0.0
11
4293.585857
21
1184.794889
31
0.0
0
ARC
8
0
10
4293.585857
20
1185.094889
30
0.0
40
0.300000
50
180.000000
51
270.000000
0
LINE
8
0
10
4293.285857
20
1185.094889
30
0.0
11
4293.285857
21
1185.794889
31
0.0
0
ARC
8
0
10
4293.785857
20
1185.794889
30
0.0
40
0.500000
50
90.000000
51
180.000000
0
LINE
8
0
10
4293.785857
20
1186.294889
30
0.0
11
4300.985857
21
1186.294889
31
0.0
0
ARC
8
0
10
4300.985857
20
1185.994889
30
0.0
40
0.300000
50
360.000000
51
90.000000
0
LINE
8
0
10
4301.285857
20
1185.994889
30
0.0
11
4301.285857
21
1185.094889
31
0.0
0
ARC
8
0
10
4300.985857
20
1185.094889
30
0.0
40
0.300000
50
270.000000
51
360.000000
0
LINE
8
0
10
4300.985857
20
1184.794889
30
0.0
11
4299.685857
21
1184.794889
31
0.0
0
ARC
8
0
10
4299.685857
20
1184.494889
30
0.0
40
0.300000
50
90.000000
51
180.000000
0
LINE
8
0
10
4299.385857
20
1184.494889
30
0.0
11
4299.385857
21
1183.894889
31
0.0
0
ARC
8
0
10
4299.685857
20
1183.894889
30
0.0
40
0.300000
50
180.000000
51
270.000000
0
LINE
8
0
10
4299.685857
20
1183.594889
30
0.0
11
4304.185857
21
1183.594889
31
0.0
0
ATTDEF
8
0
10
0.000000
20
0.000000
30
0.0
40
3.5
1

3

2
PANE_WIDTH:0
70
0
0
ATTDEF
8
0
10
0.000000
20
0.000000
30
0.0
40
3.5
1

3

2
MIN_VETRO:0
70
0
0
ATTDEF
8
0
10
0.000000
20
0.000000
30
0.0
40
3.5
1

3

2
MAX_VETRO:0
70
0
0
ATTDEF
8
0
10
0.000000
20
0.000000
30
0.0
40
3.5
1

3

2
JX:0
70
0
0
ATTDEF
8
0
10
0.000000
20
0.000000
30
0.0
40
3.5
1

3

2
WX:0
70
0
0
ATTDEF
8
0
10
0.000000
20
0.000000
30
0.0
40
3.5
1

3

2
JY:0
70
0
0
ATTDEF
8
0
10
0.000000
20
0.000000
30
0.0
40
3.5
1

3

2
WY:0
70
0
0
ATTDEF
8
0
10
0.000000
20
0.000000
30
0.0
40
3.5
1

3

2
DESC:Tapeta cruce hojas
70
0
0
ATTDEF
8
0
10
0.000000
20
0.000000
30
0.0
40
3.5
1

3

2
DENS:0.5481
70
0
0
ATTDEF
8
0
10
0.000000
20
0.000000
30
0.0
40
3.5
1

3

2
TDEV:25.15
70
0
0
ATTDEF
8
0
10
0.000000
20
0.000000
30
0.0
40
3.5
1

3

2
TDEV2:0
70
0
0
ATTDEF
8
0
10
0.000000
20
0.000000
30
0.0
40
3.5
1

3

2
TDEV3:0
70
0
0
ATTDEF
8
0
10
0.000000
20
0.000000
30
0.0
40
3.5
1

3

2
TDEV4:0
70
0
0
ATTDEF
8
0
10
0.000000
20
0.000000
30
0.0
40
3.5
1

3

2
TDEV5:0
70
0
0
ATTDEF
8
0
10
0.000000
20
0.000000
30
0.0
40
3.5
1

3

2
PANE_WIDTH:0
70
0
0
ATTDEF
8
0
10
0.000000
20
0.000000
30
0.0
40
3.5
1

3

2
MIN_VETRO:0
70
0
0
ATTDEF
8
0
10
0.000000
20
0.000000
30
0.0
40
3.5
1

3

2
MAX_VETRO:0
70
0
0
ATTDEF
8
0
10
0.000000
20
0.000000
30
0.0
40
3.5
1

3

2
JX:0
70
0
0
ATTDEF
8
0
10
0.000000
20
0.000000
30
0.0
40
3.5
1

3

2
WX:0
70
0
0
ATTDEF
8
0
10
0.000000
20
0.000000
30
0.0
40
3.5
1

3

2
JY:0
70
0
0
ATTDEF
8
0
10
0.000000
20
0.000000
30
0.0
40
3.5
1

3

2
WY:0
70
0
0
ATTDEF
8
0
10
4293.085857
20
1188.994889
30
0.0
40
3.5
1

3

2
HC_START
70
0
0
ATTDEF
8
0
10
4291.585857
20
1184.094889
30
0.0
40
3.5
1

3

2
HC_END
70
0
0
ATTDEF
8
0
10
4291.585857
20
1181.990318
30
0.0
40
3.5
1

3

2
FP_LCS_ORIG
70
0
0
ATTDEF
8
0
10
4291.585857
20
1191.990318
30
0.0
40
3.5
1

3

2
FP_LCS_HOT
70
0
0
ATTDEF
8
0
10
4301.585857
20
1181.990318
30
0.0
40
3.5
1

3

2
FP_LCS_INTERN
70
0
0
ENDSEC
0
EOF
