0
SECTION
2
ENTITIES
0
ARC
8
00_ALUMINIO
10
28.244059
20
81.486833
30
0.0
40
0.500000
50
0.000000
51
90.000000
0
LINE
8
00_ALUMINIO
10
28.244059
20
81.986833
30
0.0
11
17.214059
21
81.986833
31
0.0
0
ARC
8
00_ALUMINIO
10
17.214059
20
81.486833
30
0.0
40
0.500000
50
90.000000
51
180.000000
0
LINE
8
00_ALUMINIO
10
16.714059
20
81.486833
30
0.0
11
16.714059
21
73.118351
31
0.0
0
ARC
8
00_ALUMINIO
10
17.214059
20
73.118351
30
0.0
40
0.500000
50
180.000000
51
270.000000
0
LINE
8
00_ALUMINIO
10
17.214059
20
72.618351
30
0.0
11
28.244059
21
72.618351
31
0.0
0
ARC
8
00_ALUMINIO
10
28.244059
20
73.118351
30
0.0
40
0.500000
50
270.000000
51
0.000000
0
LINE
8
00_ALUMINIO
10
28.744059
20
73.118351
30
0.0
11
28.744059
21
81.486833
31
0.0
0
ARC
8
00_ALUMINIO
10
133.244059
20
81.486833
30
0.0
40
0.500000
50
0.000000
51
90.000000
0
LINE
8
00_ALUMINIO
10
133.244059
20
81.986833
30
0.0
11
122.214059
21
81.986833
31
0.0
0
ARC
8
00_ALUMINIO
10
122.214059
20
81.486833
30
0.0
40
0.500000
50
90.000000
51
180.000000
0
LINE
8
00_ALUMINIO
10
121.714059
20
81.486833
30
0.0
11
121.714059
21
73.118351
31
0.0
0
ARC
8
00_ALUMINIO
10
122.214059
20
73.118351
30
0.0
40
0.500000
50
180.000000
51
270.000000
0
LINE
8
00_ALUMINIO
10
122.214059
20
72.618351
30
0.0
11
133.244059
21
72.618351
31
0.0
0
ARC
8
00_ALUMINIO
10
133.244059
20
73.118351
30
0.0
40
0.500000
50
270.000000
51
0.000000
0
LINE
8
00_ALUMINIO
10
133.744059
20
73.118351
30
0.0
11
133.744059
21
81.486833
31
0.0
0
LINE
8
00_ALUMINIO
10
49.714059
20
71.118351
30
0.0
11
49.714059
21
59.118387
31
0.0
0
LINE
8
00_ALUMINIO
10
49.714059
20
59.118387
30
0.0
11
151.064059
21
59.118387
31
0.0
0
LINE
8
00_ALUMINIO
10
151.064059
20
59.118387
30
0.0
11
151.064059
21
68.020519
31
0.0
0
ARC
8
00_ALUMINIO
10
150.064059
20
68.020519
30
0.0
40
1.000000
50
0.000000
51
81.996351
0
LINE
8
00_ALUMINIO
10
150.203295
20
69.010778
30
0.0
11
135.214059
21
71.118351
31
0.0
0
LINE
8
00_ALUMINIO
10
135.214059
20
71.118351
30
0.0
11
130.508705
21
71.118351
31
0.0
0
ARC
8
00_ALUMINIO
10
130.508705
20
70.618351
30
0.0
40
0.500000
50
90.000001
51
227.029644
0
ARC
8
00_ALUMINIO
10
127.714063
20
67.618354
30
0.0
40
3.600000
50
309.281716
51
47.029644
0
ARC
8
00_ALUMINIO
10
129.676778
20
65.218823
30
0.0
40
0.500000
50
210.000000
51
309.281799
0
LINE
8
00_ALUMINIO
10
129.243765
20
64.968823
30
0.0
11
128.938804
21
65.497031
31
0.0
0
ARC
8
00_ALUMINIO
10
129.371817
20
65.747031
30
0.0
40
0.500000
50
131.536959
51
210.000000
0
ARC
8
00_ALUMINIO
10
127.714059
20
67.618351
30
0.0
40
2.000000
50
311.536959
51
336.926082
0
LINE
8
00_ALUMINIO
10
129.554059
20
66.834514
30
0.0
11
129.876373
21
66.834514
31
0.0
0
ARC
8
00_ALUMINIO
10
127.714059
20
67.618351
30
0.0
40
2.300000
50
340.074465
51
19.925535
0
LINE
8
00_ALUMINIO
10
129.876373
20
68.402188
30
0.0
11
129.554059
21
68.402188
31
0.0
0
ARC
8
00_ALUMINIO
10
127.714059
20
67.618351
30
0.0
40
2.000000
50
23.073918
51
66.942101
0
LINE
8
00_ALUMINIO
10
128.497382
20
69.458570
30
0.0
11
128.497382
21
69.780851
31
0.0
0
ARC
8
00_ALUMINIO
10
127.714059
20
67.618351
30
0.0
40
2.300000
50
70.088097
51
109.925535
0
LINE
8
00_ALUMINIO
10
126.930223
20
69.780665
30
0.0
11
126.930223
21
69.458351
31
0.0
0
ARC
8
00_ALUMINIO
10
127.714059
20
67.618351
30
0.0
40
2.000000
50
113.073918
51
156.926082
0
LINE
8
00_ALUMINIO
10
125.874059
20
68.402188
30
0.0
11
125.551746
21
68.402188
31
0.0
0
ARC
8
00_ALUMINIO
10
127.714059
20
67.618351
30
0.0
40
2.300000
50
160.074465
51
199.925535
0
LINE
8
00_ALUMINIO
10
125.551746
20
66.834514
30
0.0
11
125.874059
21
66.834514
31
0.0
0
ARC
8
00_ALUMINIO
10
127.714059
20
67.618351
30
0.0
40
2.000000
50
203.073918
51
228.463041
0
ARC
8
00_ALUMINIO
10
126.056302
20
65.747031
30
0.0
40
0.500000
50
330.000000
51
48.463041
0
LINE
8
00_ALUMINIO
10
126.489314
20
65.497031
30
0.0
11
126.184353
21
64.968823
31
0.0
0
ARC
8
00_ALUMINIO
10
125.751341
20
65.218823
30
0.0
40
0.500000
50
230.718201
51
330.000000
0
ARC
8
00_ALUMINIO
10
127.714059
20
67.618351
30
0.0
40
3.600000
50
132.970289
51
230.718201
0
ARC
8
00_ALUMINIO
10
124.919421
20
70.618351
30
0.0
40
0.500000
50
312.970289
51
90.000001
0
LINE
8
00_ALUMINIO
10
124.919421
20
71.118351
30
0.0
11
49.714059
21
71.118351
31
0.0
0
LINE
8
00_ALUMINIO
10
48.214059
20
59.118387
30
0.0
11
48.214059
21
71.118351
31
0.0
0
LINE
8
00_ALUMINIO
10
48.214059
20
71.118351
30
0.0
11
25.508700
21
71.118350
31
0.0
0
ARC
8
00_ALUMINIO
10
25.508700
20
70.618350
30
0.0
40
0.500000
50
89.999908
51
227.029681
0
ARC
8
00_ALUMINIO
10
22.714060
20
67.618352
30
0.0
40
3.600000
50
309.281780
51
47.029683
0
ARC
8
00_ALUMINIO
10
24.676778
20
65.218823
30
0.0
40
0.500000
50
210.000000
51
309.281799
0
LINE
8
00_ALUMINIO
10
24.243765
20
64.968823
30
0.0
11
23.938804
21
65.497031
31
0.0
0
ARC
8
00_ALUMINIO
10
24.371817
20
65.747031
30
0.0
40
0.500000
50
131.536959
51
210.000000
0
ARC
8
00_ALUMINIO
10
22.714059
20
67.618351
30
0.0
40
2.000000
50
311.536959
51
336.926082
0
LINE
8
00_ALUMINIO
10
24.554059
20
66.834514
30
0.0
11
24.876373
21
66.834514
31
0.0
0
ARC
8
00_ALUMINIO
10
22.714059
20
67.618351
30
0.0
40
2.300000
50
340.074465
51
19.925535
0
LINE
8
00_ALUMINIO
10
24.876373
20
68.402188
30
0.0
11
24.554059
21
68.402188
31
0.0
0
ARC
8
00_ALUMINIO
10
22.714059
20
67.618351
30
0.0
40
2.000000
50
23.073918
51
66.942101
0
LINE
8
00_ALUMINIO
10
23.497382
20
69.458570
30
0.0
11
23.497382
21
69.780851
31
0.0
0
ARC
8
00_ALUMINIO
10
22.714059
20
67.618351
30
0.0
40
2.300000
50
70.088097
51
109.925535
0
LINE
8
00_ALUMINIO
10
21.930223
20
69.780665
30
0.0
11
21.930223
21
69.458351
31
0.0
0
ARC
8
00_ALUMINIO
10
22.714059
20
67.618351
30
0.0
40
2.000000
50
113.073918
51
156.926082
0
LINE
8
00_ALUMINIO
10
20.874059
20
68.402188
30
0.0
11
20.551746
21
68.402188
31
0.0
0
ARC
8
00_ALUMINIO
10
22.714059
20
67.618351
30
0.0
40
2.300000
50
160.074465
51
199.925535
0
LINE
8
00_ALUMINIO
10
20.551746
20
66.834514
30
0.0
11
20.874059
21
66.834514
31
0.0
0
ARC
8
00_ALUMINIO
10
22.714059
20
67.618351
30
0.0
40
2.000000
50
203.073918
51
228.463041
0
ARC
8
00_ALUMINIO
10
21.056302
20
65.747031
30
0.0
40
0.500000
50
330.000000
51
48.463041
0
LINE
8
00_ALUMINIO
10
21.489314
20
65.497031
30
0.0
11
21.184353
21
64.968823
31
0.0
0
ARC
8
00_ALUMINIO
10
20.751341
20
65.218823
30
0.0
40
0.500000
50
230.718201
51
330.000000
0
ARC
8
00_ALUMINIO
10
22.714058
20
67.618352
30
0.0
40
3.600000
50
132.970317
51
230.718220
0
ARC
8
00_ALUMINIO
10
19.919419
20
70.618350
30
0.0
40
0.500000
50
312.970319
51
90.000092
0
LINE
8
00_ALUMINIO
10
19.919418
20
71.118350
30
0.0
11
-0.635941
21
71.118351
31
0.0
0
LINE
8
00_ALUMINIO
10
-0.635941
20
71.118351
30
0.0
11
-0.635941
21
59.118387
31
0.0
0
LINE
8
00_ALUMINIO
10
-0.635941
20
59.118387
30
0.0
11
48.214059
21
59.118387
31
0.0
0
ARC
8
00_ALUMINIO
10
80.744059
20
81.486833
30
0.0
40
0.500000
50
0.000000
51
90.000000
0
LINE
8
00_ALUMINIO
10
80.744059
20
81.986833
30
0.0
11
69.714059
21
81.986833
31
0.0
0
ARC
8
00_ALUMINIO
10
69.714059
20
81.486833
30
0.0
40
0.500000
50
90.000000
51
180.000000
0
LINE
8
00_ALUMINIO
10
69.214059
20
81.486833
30
0.0
11
69.214059
21
73.118351
31
0.0
0
ARC
8
00_ALUMINIO
10
69.714059
20
73.118351
30
0.0
40
0.500000
50
180.000000
51
270.000000
0
LINE
8
00_ALUMINIO
10
69.714059
20
72.618351
30
0.0
11
80.744059
21
72.618351
31
0.0
0
ARC
8
00_ALUMINIO
10
80.744059
20
73.118351
30
0.0
40
0.500000
50
270.000000
51
0.000000
0
LINE
8
00_ALUMINIO
10
81.244059
20
73.118351
30
0.0
11
81.244059
21
81.486833
31
0.0
0
ARC
8
00_ALUMINIO
10
72.114059
20
95.081253
30
0.0
40
0.300000
50
300.001043
51
0.000000
0
ARC
8
00_ALUMINIO
10
72.414078
20
94.561627
30
0.0
40
0.300019
50
120.001043
51
180.000000
0
LINE
8
00_ALUMINIO
10
72.114059
20
94.561627
30
0.0
11
72.114059
21
92.386733
31
0.0
0
LINE
8
00_ALUMINIO
10
72.114059
20
92.386733
30
0.0
11
71.214059
21
92.386733
31
0.0
0
ARC
8
00_ALUMINIO
10
71.214059
20
92.686733
30
0.0
40
0.300000
50
180.000000
51
270.000000
0
LINE
8
00_ALUMINIO
10
70.914059
20
92.686733
30
0.0
11
70.914059
21
94.071804
31
0.0
0
ARC
8
00_ALUMINIO
10
70.614059
20
94.071804
30
0.0
40
0.300000
50
0.000000
51
105.000000
0
LINE
8
00_ALUMINIO
10
70.536414
20
94.361582
30
0.0
11
69.236414
21
94.013248
31
0.0
0
ARC
8
00_ALUMINIO
10
69.314059
20
93.723470
30
0.0
40
0.300000
50
105.000000
51
180.000000
0
LINE
8
00_ALUMINIO
10
69.014059
20
93.723470
30
0.0
11
69.014059
21
83.786733
31
0.0
0
ARC
8
00_ALUMINIO
10
69.314059
20
83.786733
30
0.0
40
0.300000
50
180.000000
51
270.000000
0
LINE
8
00_ALUMINIO
10
69.314059
20
83.486733
30
0.0
11
70.614059
21
83.486733
31
0.0
0
ARC
8
00_ALUMINIO
10
70.614059
20
83.786733
30
0.0
40
0.300000
50
270.000000
51
0.000000
0
LINE
8
00_ALUMINIO
10
70.914059
20
83.786733
30
0.0
11
70.914059
21
86.486733
31
0.0
0
ARC
8
00_ALUMINIO
10
71.214059
20
86.486733
30
0.0
40
0.300000
50
90.000000
51
180.000000
0
LINE
8
00_ALUMINIO
10
71.214059
20
86.786733
30
0.0
11
71.814059
21
86.786733
31
0.0
0
ARC
8
00_ALUMINIO
10
71.814059
20
86.486733
30
0.0
40
0.300000
50
0.000000
51
90.000000
0
LINE
8
00_ALUMINIO
10
72.114059
20
86.486733
30
0.0
11
72.114059
21
83.786733
31
0.0
0
ARC
8
00_ALUMINIO
10
72.414059
20
83.786733
30
0.0
40
0.300000
50
180.000000
51
270.000000
0
LINE
8
00_ALUMINIO
10
72.414059
20
83.486733
30
0.0
11
78.014059
21
83.486733
31
0.0
0
ARC
8
00_ALUMINIO
10
78.014059
20
83.786733
30
0.0
40
0.300000
50
270.000000
51
0.000000
0
LINE
8
00_ALUMINIO
10
78.314059
20
83.786733
30
0.0
11
78.314059
21
86.486733
31
0.0
0
ARC
8
00_ALUMINIO
10
78.614059
20
86.486733
30
0.0
40
0.300000
50
90.000000
51
180.000000
0
LINE
8
00_ALUMINIO
10
78.614059
20
86.786733
30
0.0
11
79.214059
21
86.786733
31
0.0
0
ARC
8
00_ALUMINIO
10
79.214059
20
86.486733
30
0.0
40
0.300000
50
0.000000
51
90.000000
0
LINE
8
00_ALUMINIO
10
79.514059
20
86.486733
30
0.0
11
79.514059
21
83.786733
31
0.0
0
ARC
8
00_ALUMINIO
10
79.814059
20
83.786733
30
0.0
40
0.300000
50
180.000000
51
270.000000
0
LINE
8
00_ALUMINIO
10
79.814059
20
83.486733
30
0.0
11
81.114059
21
83.486733
31
0.0
0
ARC
8
00_ALUMINIO
10
81.114059
20
83.786733
30
0.0
40
0.300000
50
270.000000
51
0.000000
0
LINE
8
00_ALUMINIO
10
81.414059
20
83.786733
30
0.0
11
81.414059
21
93.723470
31
0.0
0
ARC
8
00_ALUMINIO
10
81.114059
20
93.723470
30
0.0
40
0.300000
50
0.000000
51
75.000000
0
LINE
8
00_ALUMINIO
10
81.191705
20
94.013248
30
0.0
11
79.891705
21
94.361582
31
0.0
0
ARC
8
00_ALUMINIO
10
79.814059
20
94.071804
30
0.0
40
0.300000
50
75.000000
51
180.000000
0
LINE
8
00_ALUMINIO
10
79.514059
20
94.071804
30
0.0
11
79.514059
21
92.686733
31
0.0
0
ARC
8
00_ALUMINIO
10
79.214059
20
92.686733
30
0.0
40
0.300000
50
270.000000
51
0.000000
0
LINE
8
00_ALUMINIO
10
79.214059
20
92.386733
30
0.0
11
78.314059
21
92.386733
31
0.0
0
LINE
8
00_ALUMINIO
10
78.314059
20
92.386733
30
0.0
11
78.314059
21
94.561627
31
0.0
0
ARC
8
00_ALUMINIO
10
78.014040
20
94.561627
30
0.0
40
0.300019
50
0.000000
51
59.998957
0
ARC
8
00_ALUMINIO
10
78.314059
20
95.081253
30
0.0
40
0.300000
50
180.000000
51
239.998957
0
LINE
8
00_ALUMINIO
10
78.014059
20
95.081253
30
0.0
11
78.014059
21
95.716060
31
0.0
0
ARC
8
00_ALUMINIO
10
78.314059
20
95.716060
30
0.0
40
0.300000
50
75.000000
51
180.000000
0
LINE
8
00_ALUMINIO
10
78.391705
20
96.005837
30
0.0
11
82.491705
21
94.907246
31
0.0
0
ARC
8
00_ALUMINIO
10
82.414059
20
94.617468
30
0.0
40
0.300000
50
0.000000
51
75.000000
0
LINE
8
00_ALUMINIO
10
82.714059
20
94.617468
30
0.0
11
82.714059
21
73.118351
31
0.0
0
ARC
8
00_ALUMINIO
10
83.214059
20
73.118351
30
0.0
40
0.500000
50
180.000000
51
270.000000
0
LINE
8
00_ALUMINIO
10
83.214059
20
72.618351
30
0.0
11
119.714059
21
72.618351
31
0.0
0
ARC
8
00_ALUMINIO
10
119.714059
20
73.118351
30
0.0
40
0.500000
50
270.000000
51
0.000000
0
LINE
8
00_ALUMINIO
10
120.214059
20
73.118351
30
0.0
11
120.214059
21
94.617468
31
0.0
0
ARC
8
00_ALUMINIO
10
120.514059
20
94.617468
30
0.0
40
0.300000
50
105.000000
51
180.000000
0
LINE
8
00_ALUMINIO
10
120.436414
20
94.907246
30
0.0
11
124.536414
21
96.005837
31
0.0
0
ARC
8
00_ALUMINIO
10
124.614059
20
95.716060
30
0.0
40
0.300000
50
0.000000
51
105.000000
0
LINE
8
00_ALUMINIO
10
124.914059
20
95.716060
30
0.0
11
124.914059
21
95.081253
31
0.0
0
ARC
8
00_ALUMINIO
10
124.614059
20
95.081253
30
0.0
40
0.300000
50
300.001043
51
0.000000
0
ARC
8
00_ALUMINIO
10
124.914078
20
94.561627
30
0.0
40
0.300019
50
120.001043
51
180.000000
0
LINE
8
00_ALUMINIO
10
124.614059
20
94.561627
30
0.0
11
124.614059
21
92.386733
31
0.0
0
LINE
8
00_ALUMINIO
10
124.614059
20
92.386733
30
0.0
11
123.714059
21
92.386733
31
0.0
0
ARC
8
00_ALUMINIO
10
123.714059
20
92.686733
30
0.0
40
0.300000
50
180.000000
51
270.000000
0
LINE
8
00_ALUMINIO
10
123.414059
20
92.686733
30
0.0
11
123.414059
21
94.071804
31
0.0
0
ARC
8
00_ALUMINIO
10
123.114059
20
94.071804
30
0.0
40
0.300000
50
0.000000
51
105.000000
0
LINE
8
00_ALUMINIO
10
123.036414
20
94.361582
30
0.0
11
121.736414
21
94.013248
31
0.0
0
ARC
8
00_ALUMINIO
10
121.814059
20
93.723470
30
0.0
40
0.300000
50
105.000000
51
180.000000
0
LINE
8
00_ALUMINIO
10
121.514059
20
93.723470
30
0.0
11
121.514059
21
83.786733
31
0.0
0
ARC
8
00_ALUMINIO
10
121.814059
20
83.786733
30
0.0
40
0.300000
50
180.000000
51
270.000000
0
LINE
8
00_ALUMINIO
10
121.814059
20
83.486733
30
0.0
11
123.114059
21
83.486733
31
0.0
0
ARC
8
00_ALUMINIO
10
123.114059
20
83.786733
30
0.0
40
0.300000
50
270.000000
51
0.000000
0
LINE
8
00_ALUMINIO
10
123.414059
20
83.786733
30
0.0
11
123.414059
21
86.486733
31
0.0
0
ARC
8
00_ALUMINIO
10
123.714059
20
86.486733
30
0.0
40
0.300000
50
90.000000
51
180.000000
0
LINE
8
00_ALUMINIO
10
123.714059
20
86.786733
30
0.0
11
124.314059
21
86.786733
31
0.0
0
ARC
8
00_ALUMINIO
10
124.314059
20
86.486733
30
0.0
40
0.300000
50
0.000000
51
90.000000
0
LINE
8
00_ALUMINIO
10
124.614059
20
86.486733
30
0.0
11
124.614059
21
83.786733
31
0.0
0
ARC
8
00_ALUMINIO
10
124.914059
20
83.786733
30
0.0
40
0.300000
50
180.000000
51
270.000000
0
LINE
8
00_ALUMINIO
10
124.914059
20
83.486733
30
0.0
11
130.514059
21
83.486733
31
0.0
0
ARC
8
00_ALUMINIO
10
130.514059
20
83.786733
30
0.0
40
0.300000
50
270.000000
51
0.000000
0
LINE
8
00_ALUMINIO
10
130.814059
20
83.786733
30
0.0
11
130.814059
21
86.486733
31
0.0
0
ARC
8
00_ALUMINIO
10
131.114059
20
86.486733
30
0.0
40
0.300000
50
90.000000
51
180.000000
0
LINE
8
00_ALUMINIO
10
131.114059
20
86.786733
30
0.0
11
131.714059
21
86.786733
31
0.0
0
ARC
8
00_ALUMINIO
10
131.714059
20
86.486733
30
0.0
40
0.300000
50
0.000000
51
90.000000
0
LINE
8
00_ALUMINIO
10
132.014059
20
86.486733
30
0.0
11
132.014059
21
83.786733
31
0.0
0
ARC
8
00_ALUMINIO
10
132.314059
20
83.786733
30
0.0
40
0.300000
50
180.000000
51
270.000000
0
LINE
8
00_ALUMINIO
10
132.314059
20
83.486733
30
0.0
11
133.614059
21
83.486733
31
0.0
0
ARC
8
00_ALUMINIO
10
133.614059
20
83.786733
30
0.0
40
0.300000
50
270.000000
51
0.000000
0
LINE
8
00_ALUMINIO
10
133.914059
20
83.786733
30
0.0
11
133.914059
21
93.723470
31
0.0
0
ARC
8
00_ALUMINIO
10
133.614059
20
93.723470
30
0.0
40
0.300000
50
0.000000
51
75.000000
0
LINE
8
00_ALUMINIO
10
133.691705
20
94.013248
30
0.0
11
132.391705
21
94.361582
31
0.0
0
ARC
8
00_ALUMINIO
10
132.314059
20
94.071804
30
0.0
40
0.300000
50
75.000000
51
180.000000
0
LINE
8
00_ALUMINIO
10
132.014059
20
94.071804
30
0.0
11
132.014059
21
92.686733
31
0.0
0
ARC
8
00_ALUMINIO
10
131.714059
20
92.686733
30
0.0
40
0.300000
50
270.000000
51
0.000000
0
LINE
8
00_ALUMINIO
10
131.714059
20
92.386733
30
0.0
11
130.814059
21
92.386733
31
0.0
0
LINE
8
00_ALUMINIO
10
130.814059
20
92.386733
30
0.0
11
130.814059
21
94.561627
31
0.0
0
ARC
8
00_ALUMINIO
10
130.514040
20
94.561627
30
0.0
40
0.300019
50
0.000000
51
59.998957
0
ARC
8
00_ALUMINIO
10
130.814059
20
95.081253
30
0.0
40
0.300000
50
180.000000
51
239.998957
0
LINE
8
00_ALUMINIO
10
130.514059
20
95.081253
30
0.0
11
130.514059
21
95.716060
31
0.0
0
ARC
8
00_ALUMINIO
10
130.814059
20
95.716060
30
0.0
40
0.300000
50
75.000000
51
180.000000
0
LINE
8
00_ALUMINIO
10
130.891705
20
96.005837
30
0.0
11
134.991705
21
94.907246
31
0.0
0
ARC
8
00_ALUMINIO
10
134.914059
20
94.617468
30
0.0
40
0.300000
50
0.000000
51
75.000000
0
LINE
8
00_ALUMINIO
10
135.214059
20
94.617468
30
0.0
11
135.214059
21
73.052967
31
0.0
0
ARC
8
00_ALUMINIO
10
135.714059
20
73.052967
30
0.0
40
0.500000
50
180.000000
51
261.996351
0
LINE
8
00_ALUMINIO
10
135.644441
20
72.557837
30
0.0
11
150.412150
21
70.481412
31
0.0
0
ARC
8
00_ALUMINIO
10
150.064059
20
68.005764
30
0.0
40
2.500000
50
0.000000
51
81.996351
0
LINE
8
00_ALUMINIO
10
152.564059
20
68.005764
30
0.0
11
152.564059
21
52.918387
31
0.0
0
ARC
8
00_ALUMINIO
10
152.264059
20
52.918387
30
0.0
40
0.300000
50
270.000000
51
0.000000
0
LINE
8
00_ALUMINIO
10
152.264059
20
52.618387
30
0.0
11
149.814059
21
52.618387
31
0.0
0
ARC
8
00_ALUMINIO
10
149.814059
20
53.368387
30
0.0
40
0.750000
50
90.000000
51
270.000000
0
LINE
8
00_ALUMINIO
10
149.814059
20
54.118387
30
0.0
11
151.064059
21
54.118387
31
0.0
0
LINE
8
00_ALUMINIO
10
151.064059
20
54.118387
30
0.0
11
151.064059
21
57.618387
31
0.0
0
LINE
8
00_ALUMINIO
10
151.064059
20
57.618387
30
0.0
11
49.714059
21
57.618387
31
0.0
0
LINE
8
00_ALUMINIO
10
49.714059
20
57.618387
30
0.0
11
49.714059
21
54.418387
31
0.0
0
ARC
8
00_ALUMINIO
10
50.014059
20
54.418387
30
0.0
40
0.300000
50
180.000000
51
270.000000
0
LINE
8
00_ALUMINIO
10
50.014059
20
54.118387
30
0.0
11
50.714059
21
54.118387
31
0.0
0
ARC
8
00_ALUMINIO
10
50.714059
20
53.368387
30
0.0
40
0.750000
50
270.000000
51
90.000000
0
LINE
8
00_ALUMINIO
10
50.714059
20
52.618387
30
0.0
11
47.214059
21
52.618387
31
0.0
0
ARC
8
00_ALUMINIO
10
47.214059
20
53.368387
30
0.0
40
0.750000
50
90.000000
51
270.000000
0
LINE
8
00_ALUMINIO
10
47.214059
20
54.118387
30
0.0
11
47.914059
21
54.118387
31
0.0
0
ARC
8
00_ALUMINIO
10
47.914059
20
54.418387
30
0.0
40
0.300000
50
270.000000
51
0.000000
0
LINE
8
00_ALUMINIO
10
48.214059
20
54.418387
30
0.0
11
48.214059
21
57.618387
31
0.0
0
LINE
8
00_ALUMINIO
10
48.214059
20
57.618387
30
0.0
11
-0.635941
21
57.618387
31
0.0
0
LINE
8
00_ALUMINIO
10
-0.635941
20
57.618387
30
0.0
11
-0.635941
21
54.118387
31
0.0
0
LINE
8
00_ALUMINIO
10
-0.635941
20
54.118387
30
0.0
11
0.614059
21
54.118387
31
0.0
0
ARC
8
00_ALUMINIO
10
0.614059
20
53.368387
30
0.0
40
0.750000
50
270.000000
51
90.000000
0
LINE
8
00_ALUMINIO
10
0.614059
20
52.618387
30
0.0
11
-1.835941
21
52.618387
31
0.0
0
ARC
8
00_ALUMINIO
10
-1.835941
20
52.918387
30
0.0
40
0.300000
50
180.000000
51
270.000000
0
LINE
8
00_ALUMINIO
10
-2.135941
20
52.918387
30
0.0
11
-2.135941
21
96.801687
31
0.0
0
ARC
8
00_ALUMINIO
10
-1.385941
20
96.801687
30
0.0
40
0.750000
50
0.000000
51
180.000000
0
LINE
8
00_ALUMINIO
10
-0.635941
20
96.801687
30
0.0
11
-0.635941
21
72.918351
31
0.0
0
ARC
8
00_ALUMINIO
10
-0.335941
20
72.918351
30
0.0
40
0.300000
50
180.000000
51
270.000000
0
LINE
8
00_ALUMINIO
10
-0.335941
20
72.618351
30
0.0
11
14.714059
21
72.618351
31
0.0
0
ARC
8
00_ALUMINIO
10
14.714059
20
73.118351
30
0.0
40
0.500000
50
270.000000
51
0.000000
0
LINE
8
00_ALUMINIO
10
15.214059
20
73.118351
30
0.0
11
15.214059
21
94.617468
31
0.0
0
ARC
8
00_ALUMINIO
10
15.514059
20
94.617468
30
0.0
40
0.300000
50
105.000000
51
180.000000
0
LINE
8
00_ALUMINIO
10
15.436414
20
94.907246
30
0.0
11
19.536414
21
96.005837
31
0.0
0
ARC
8
00_ALUMINIO
10
19.614059
20
95.716060
30
0.0
40
0.300000
50
0.000000
51
105.000000
0
LINE
8
00_ALUMINIO
10
19.914059
20
95.716060
30
0.0
11
19.914059
21
95.081253
31
0.0
0
ARC
8
00_ALUMINIO
10
19.614059
20
95.081253
30
0.0
40
0.300000
50
300.001043
51
0.000000
0
ARC
8
00_ALUMINIO
10
19.914078
20
94.561627
30
0.0
40
0.300019
50
120.001043
51
180.000000
0
LINE
8
00_ALUMINIO
10
19.614059
20
94.561627
30
0.0
11
19.614059
21
92.386733
31
0.0
0
LINE
8
00_ALUMINIO
10
19.614059
20
92.386733
30
0.0
11
18.714059
21
92.386733
31
0.0
0
ARC
8
00_ALUMINIO
10
18.714059
20
92.686733
30
0.0
40
0.300000
50
180.000000
51
270.000000
0
LINE
8
00_ALUMINIO
10
18.414059
20
92.686733
30
0.0
11
18.414059
21
94.071804
31
0.0
0
ARC
8
00_ALUMINIO
10
18.114059
20
94.071804
30
0.0
40
0.300000
50
0.000000
51
105.000000
0
LINE
8
00_ALUMINIO
10
18.036414
20
94.361582
30
0.0
11
16.736414
21
94.013248
31
0.0
0
ARC
8
00_ALUMINIO
10
16.814059
20
93.723470
30
0.0
40
0.300000
50
105.000000
51
180.000000
0
LINE
8
00_ALUMINIO
10
16.514059
20
93.723470
30
0.0
11
16.514059
21
83.786733
31
0.0
0
ARC
8
00_ALUMINIO
10
16.814059
20
83.786733
30
0.0
40
0.300000
50
180.000000
51
270.000000
0
LINE
8
00_ALUMINIO
10
16.814059
20
83.486733
30
0.0
11
18.114059
21
83.486733
31
0.0
0
ARC
8
00_ALUMINIO
10
18.114059
20
83.786733
30
0.0
40
0.300000
50
270.000000
51
0.000000
0
LINE
8
00_ALUMINIO
10
18.414059
20
83.786733
30
0.0
11
18.414059
21
86.486733
31
0.0
0
ARC
8
00_ALUMINIO
10
18.714059
20
86.486733
30
0.0
40
0.300000
50
90.000000
51
180.000000
0
LINE
8
00_ALUMINIO
10
18.714059
20
86.786733
30
0.0
11
19.314059
21
86.786733
31
0.0
0
ARC
8
00_ALUMINIO
10
19.314059
20
86.486733
30
0.0
40
0.300000
50
0.000000
51
90.000000
0
LINE
8
00_ALUMINIO
10
19.614059
20
86.486733
30
0.0
11
19.614059
21
83.786733
31
0.0
0
ARC
8
00_ALUMINIO
10
19.914059
20
83.786733
30
0.0
40
0.300000
50
180.000000
51
270.000000
0
LINE
8
00_ALUMINIO
10
19.914059
20
83.486733
30
0.0
11
25.514059
21
83.486733
31
0.0
0
ARC
8
00_ALUMINIO
10
25.514059
20
83.786733
30
0.0
40
0.300000
50
270.000000
51
0.000000
0
LINE
8
00_ALUMINIO
10
25.814059
20
83.786733
30
0.0
11
25.814059
21
86.486733
31
0.0
0
ARC
8
00_ALUMINIO
10
26.114059
20
86.486733
30
0.0
40
0.300000
50
90.000000
51
180.000000
0
LINE
8
00_ALUMINIO
10
26.114059
20
86.786733
30
0.0
11
26.714059
21
86.786733
31
0.0
0
ARC
8
00_ALUMINIO
10
26.714059
20
86.486733
30
0.0
40
0.300000
50
0.000000
51
90.000000
0
LINE
8
00_ALUMINIO
10
27.014059
20
86.486733
30
0.0
11
27.014059
21
83.786733
31
0.0
0
ARC
8
00_ALUMINIO
10
27.314059
20
83.786733
30
0.0
40
0.300000
50
180.000000
51
270.000000
0
LINE
8
00_ALUMINIO
10
27.314059
20
83.486733
30
0.0
11
28.614059
21
83.486733
31
0.0
0
ARC
8
00_ALUMINIO
10
28.614059
20
83.786733
30
0.0
40
0.300000
50
270.000000
51
0.000000
0
LINE
8
00_ALUMINIO
10
28.914059
20
83.786733
30
0.0
11
28.914059
21
93.723470
31
0.0
0
ARC
8
00_ALUMINIO
10
28.614059
20
93.723470
30
0.0
40
0.300000
50
0.000000
51
75.000000
0
LINE
8
00_ALUMINIO
10
28.691705
20
94.013248
30
0.0
11
27.391705
21
94.361582
31
0.0
0
ARC
8
00_ALUMINIO
10
27.314059
20
94.071804
30
0.0
40
0.300000
50
75.000000
51
180.000000
0
LINE
8
00_ALUMINIO
10
27.014059
20
94.071804
30
0.0
11
27.014059
21
92.686733
31
0.0
0
ARC
8
00_ALUMINIO
10
26.714059
20
92.686733
30
0.0
40
0.300000
50
270.000000
51
0.000000
0
LINE
8
00_ALUMINIO
10
26.714059
20
92.386733
30
0.0
11
25.814059
21
92.386733
31
0.0
0
LINE
8
00_ALUMINIO
10
25.814059
20
92.386733
30
0.0
11
25.814059
21
94.561627
31
0.0
0
ARC
8
00_ALUMINIO
10
25.514040
20
94.561627
30
0.0
40
0.300019
50
0.000000
51
59.998957
0
ARC
8
00_ALUMINIO
10
25.814059
20
95.081253
30
0.0
40
0.300000
50
180.000000
51
239.998957
0
LINE
8
00_ALUMINIO
10
25.514059
20
95.081253
30
0.0
11
25.514059
21
95.716060
31
0.0
0
ARC
8
00_ALUMINIO
10
25.814059
20
95.716060
30
0.0
40
0.300000
50
75.000000
51
180.000000
0
LINE
8
00_ALUMINIO
10
25.891705
20
96.005837
30
0.0
11
29.991705
21
94.907246
31
0.0
0
ARC
8
00_ALUMINIO
10
29.914059
20
94.617468
30
0.0
40
0.300000
50
0.000000
51
75.000000
0
LINE
8
00_ALUMINIO
10
30.214059
20
94.617468
30
0.0
11
30.214059
21
73.118351
31
0.0
0
ARC
8
00_ALUMINIO
10
30.714059
20
73.118351
30
0.0
40
0.500000
50
180.000000
51
270.000000
0
LINE
8
00_ALUMINIO
10
30.714059
20
72.618351
30
0.0
11
67.214059
21
72.618351
31
0.0
0
ARC
8
00_ALUMINIO
10
67.214059
20
73.118351
30
0.0
40
0.500000
50
270.000000
51
0.000000
0
LINE
8
00_ALUMINIO
10
67.714059
20
73.118351
30
0.0
11
67.714059
21
94.617468
31
0.0
0
ARC
8
00_ALUMINIO
10
68.014059
20
94.617468
30
0.0
40
0.300000
50
105.000000
51
180.000000
0
LINE
8
00_ALUMINIO
10
67.936414
20
94.907246
30
0.0
11
72.036414
21
96.005837
31
0.0
0
ARC
8
00_ALUMINIO
10
72.114059
20
95.716060
30
0.0
40
0.300000
50
0.000000
51
105.000000
0
LINE
8
00_ALUMINIO
10
72.414059
20
95.716060
30
0.0
11
72.414059
21
95.081253
31
0.0
0
ATTDEF
8
0
10
0.000000
20
0.000000
30
0.0
40
3.5
1

3

2
PANE_WIDTH:0
70
0
0
ATTDEF
8
0
10
0.000000
20
0.000000
30
0.0
40
3.5
1

3

2
MIN_VETRO:0
70
0
0
ATTDEF
8
0
10
0.000000
20
0.000000
30
0.0
40
3.5
1

3

2
MAX_VETRO:0
70
0
0
ATTDEF
8
0
10
0.000000
20
0.000000
30
0.0
40
3.5
1

3

2
JX:0
70
0
0
ATTDEF
8
0
10
0.000000
20
0.000000
30
0.0
40
3.5
1

3

2
WX:0
70
0
0
ATTDEF
8
0
10
0.000000
20
0.000000
30
0.0
40
3.5
1

3

2
JY:0
70
0
0
ATTDEF
8
0
10
0.000000
20
0.000000
30
0.0
40
3.5
1

3

2
WY:0
70
0
0
ATTDEF
8
0
10
0.000000
20
0.000000
30
0.0
40
3.5
1

3

2
DESC:MARCO INFERIOR TRICARRIL
70
0
0
ATTDEF
8
0
10
0.000000
20
0.000000
30
0.0
40
3.5
1

3

2
DENS:2.5272
70
0
0
ATTDEF
8
0
10
0.000000
20
0.000000
30
0.0
40
3.5
1

3

2
TDEV:125.13
70
0
0
ATTDEF
8
0
10
0.000000
20
0.000000
30
0.0
40
3.5
1

3

2
TDEV2:0
70
0
0
ATTDEF
8
0
10
0.000000
20
0.000000
30
0.0
40
3.5
1

3

2
TDEV3:0
70
0
0
ATTDEF
8
0
10
0.000000
20
0.000000
30
0.0
40
3.5
1

3

2
TDEV4:0
70
0
0
ATTDEF
8
0
10
0.000000
20
0.000000
30
0.0
40
3.5
1

3

2
TDEV5:0
70
0
0
ATTDEF
8
0
10
0.000000
20
0.000000
30
0.0
40
3.5
1

3

2
PANE_WIDTH:0
70
0
0
ATTDEF
8
0
10
0.000000
20
0.000000
30
0.0
40
3.5
1

3

2
MIN_VETRO:0
70
0
0
ATTDEF
8
0
10
0.000000
20
0.000000
30
0.0
40
3.5
1

3

2
MAX_VETRO:0
70
0
0
ATTDEF
8
0
10
0.000000
20
0.000000
30
0.0
40
3.5
1

3

2
JX:0
70
0
0
ATTDEF
8
0
10
0.000000
20
0.000000
30
0.0
40
3.5
1

3

2
WX:0
70
0
0
ATTDEF
8
0
10
0.000000
20
0.000000
30
0.0
40
3.5
1

3

2
JY:0
70
0
0
ATTDEF
8
0
10
0.000000
20
0.000000
30
0.0
40
3.5
1

3

2
WY:0
70
0
0
ENDSEC
0
EOF
