0
SECTION
2
ENTITIES
0
ARC
8
00_ALUMINIO
10
-8.159664
20
59.145346
30
0.0
40
0.650000
50
180.000000
51
270.000000
0
ARC
8
00_ALUMINIO
10
-8.159664
20
59.145346
30
0.0
40
0.650000
50
90.000000
51
180.000000
0
LINE
8
00_ALUMINIO
10
-8.159664
20
59.795346
30
0.0
11
99.240336
21
59.795346
31
0.0
0
ARC
8
00_ALUMINIO
10
99.240336
20
59.145346
30
0.0
40
0.650000
50
0.000000
51
90.000000
0
ARC
8
00_ALUMINIO
10
99.240336
20
59.145346
30
0.0
40
0.650000
50
270.000000
51
0.000000
0
LINE
8
00_ALUMINIO
10
99.240336
20
58.495346
30
0.0
11
98.282158
21
58.495346
31
0.0
0
ARC
8
00_ALUMINIO
10
98.282158
20
58.195346
30
0.0
40
0.300000
50
90.000000
51
181.000000
0
LINE
8
00_ALUMINIO
10
97.982204
20
58.190111
30
0.0
11
98.044637
21
54.613285
31
0.0
0
LINE
8
00_ALUMINIO
10
98.044637
20
54.613285
30
0.0
11
98.756747
21
53.925608
31
0.0
0
LINE
8
00_ALUMINIO
10
98.756747
20
53.925608
30
0.0
11
98.069071
21
53.213498
31
0.0
0
LINE
8
00_ALUMINIO
10
98.069071
20
53.213498
30
0.0
11
98.078901
21
52.650323
31
0.0
0
ARC
8
00_ALUMINIO
10
97.578977
20
52.641597
30
0.0
40
0.500000
50
181.000000
51
1.000000
0
LINE
8
00_ALUMINIO
10
97.079053
20
52.632871
30
0.0
11
96.976723
21
58.495346
31
0.0
0
LINE
8
00_ALUMINIO
10
96.976723
20
58.495346
30
0.0
11
-5.896051
21
58.495346
31
0.0
0
LINE
8
00_ALUMINIO
10
-5.896051
20
58.495346
30
0.0
11
-5.998381
21
52.632871
31
0.0
0
ARC
8
00_ALUMINIO
10
-6.498304
20
52.641597
30
0.0
40
0.500000
50
179.000000
51
359.000000
0
LINE
8
00_ALUMINIO
10
-6.998228
20
52.650323
30
0.0
11
-6.988398
21
53.213498
31
0.0
0
LINE
8
00_ALUMINIO
10
-6.988398
20
53.213498
30
0.0
11
-7.676075
21
53.925608
31
0.0
0
LINE
8
00_ALUMINIO
10
-7.676075
20
53.925608
30
0.0
11
-6.963965
21
54.613285
31
0.0
0
LINE
8
00_ALUMINIO
10
-6.963965
20
54.613285
30
0.0
11
-6.901531
21
58.190111
31
0.0
0
ARC
8
00_ALUMINIO
10
-7.201485
20
58.195346
30
0.0
40
0.300000
50
359.000000
51
90.000000
0
LINE
8
00_ALUMINIO
10
-7.201485
20
58.495346
30
0.0
11
-8.159664
21
58.495346
31
0.0
0
ATTDEF
8
0
10
0.000000
20
0.000000
30
0.0
40
3.5
1

3

2
PANE_WIDTH:0
70
0
0
ATTDEF
8
0
10
0.000000
20
0.000000
30
0.0
40
3.5
1

3

2
MIN_VETRO:0
70
0
0
ATTDEF
8
0
10
0.000000
20
0.000000
30
0.0
40
3.5
1

3

2
MAX_VETRO:0
70
0
0
ATTDEF
8
0
10
0.000000
20
0.000000
30
0.0
40
3.5
1

3

2
JX:0
70
0
0
ATTDEF
8
0
10
0.000000
20
0.000000
30
0.0
40
3.5
1

3

2
WX:0
70
0
0
ATTDEF
8
0
10
0.000000
20
0.000000
30
0.0
40
3.5
1

3

2
JY:0
70
0
0
ATTDEF
8
0
10
0.000000
20
0.000000
30
0.0
40
3.5
1

3

2
WY:0
70
0
0
ATTDEF
8
0
10
0.000000
20
0.000000
30
0.0
40
3.5
1

3

2
DESC:TAPETA MARCO LATERAL TRICARRIL
70
0
0
ATTDEF
8
0
10
0.000000
20
0.000000
30
0.0
40
3.5
1

3

2
DENS:0.4185
70
0
0
ATTDEF
8
0
10
0.000000
20
0.000000
30
0.0
40
3.5
1

3

2
TDEV:24.43
70
0
0
ATTDEF
8
0
10
0.000000
20
0.000000
30
0.0
40
3.5
1

3

2
TDEV2:0
70
0
0
ATTDEF
8
0
10
0.000000
20
0.000000
30
0.0
40
3.5
1

3

2
TDEV3:0
70
0
0
ATTDEF
8
0
10
0.000000
20
0.000000
30
0.0
40
3.5
1

3

2
TDEV4:0
70
0
0
ATTDEF
8
0
10
0.000000
20
0.000000
30
0.0
40
3.5
1

3

2
TDEV5:0
70
0
0
ATTDEF
8
0
10
0.000000
20
0.000000
30
0.0
40
3.5
1

3

2
PANE_WIDTH:0
70
0
0
ATTDEF
8
0
10
0.000000
20
0.000000
30
0.0
40
3.5
1

3

2
MIN_VETRO:0
70
0
0
ATTDEF
8
0
10
0.000000
20
0.000000
30
0.0
40
3.5
1

3

2
MAX_VETRO:0
70
0
0
ATTDEF
8
0
10
0.000000
20
0.000000
30
0.0
40
3.5
1

3

2
JX:0
70
0
0
ATTDEF
8
0
10
0.000000
20
0.000000
30
0.0
40
3.5
1

3

2
WX:0
70
0
0
ATTDEF
8
0
10
0.000000
20
0.000000
30
0.0
40
3.5
1

3

2
JY:0
70
0
0
ATTDEF
8
0
10
0.000000
20
0.000000
30
0.0
40
3.5
1

3

2
WY:0
70
0
0
ENDSEC
0
EOF
