0
SECTION
2
ENTITIES
0
LINE
8
00_ALUMINIO
10
75.664964
20
73.275193
30
0.0
11
75.664964
21
71.275193
31
0.0
0
ARC
8
00_ALUMINIO
10
75.164964
20
71.275193
30
0.0
40
0.500000
50
270.000000
51
0.000000
0
LINE
8
00_ALUMINIO
10
75.164964
20
70.775193
30
0.0
11
74.964964
21
70.775193
31
0.0
0
ARC
8
00_ALUMINIO
10
74.964964
20
71.275193
30
0.0
40
0.500000
50
180.000000
51
270.000000
0
LINE
8
00_ALUMINIO
10
74.464964
20
71.275193
30
0.0
11
74.464964
21
72.375193
31
0.0
0
LINE
8
00_ALUMINIO
10
74.464964
20
72.375193
30
0.0
11
73.164964
21
72.375193
31
0.0
0
LINE
8
00_ALUMINIO
10
73.164964
20
72.375193
30
0.0
11
73.164964
21
65.175193
31
0.0
0
LINE
8
00_ALUMINIO
10
73.164964
20
65.175193
30
0.0
11
74.464964
21
65.175193
31
0.0
0
LINE
8
00_ALUMINIO
10
74.464964
20
65.175193
30
0.0
11
74.464964
21
66.275193
31
0.0
0
ARC
8
00_ALUMINIO
10
74.964964
20
66.275193
30
0.0
40
0.500000
50
90.000000
51
180.000000
0
LINE
8
00_ALUMINIO
10
74.964964
20
66.775193
30
0.0
11
75.164964
21
66.775193
31
0.0
0
ARC
8
00_ALUMINIO
10
75.164964
20
66.275193
30
0.0
40
0.500000
50
0.000000
51
90.000000
0
LINE
8
00_ALUMINIO
10
75.664964
20
66.275193
30
0.0
11
75.664964
21
64.275193
31
0.0
0
ARC
8
00_ALUMINIO
10
75.164964
20
64.275193
30
0.0
40
0.500000
50
270.000000
51
0.000000
0
LINE
8
00_ALUMINIO
10
75.164964
20
63.775193
30
0.0
11
73.164964
21
63.775193
31
0.0
0
LINE
8
00_ALUMINIO
10
73.164964
20
63.775193
30
0.0
11
73.164964
21
48.775193
31
0.0
0
LINE
8
00_ALUMINIO
10
73.164964
20
48.775193
30
0.0
11
88.164964
21
48.775193
31
0.0
0
LINE
8
00_ALUMINIO
10
88.164964
20
48.775193
30
0.0
11
88.164964
21
53.775193
31
0.0
0
LINE
8
00_ALUMINIO
10
88.164964
20
53.775193
30
0.0
11
90.564964
21
53.775193
31
0.0
0
LINE
8
00_ALUMINIO
10
90.564964
20
53.775193
30
0.0
11
91.564964
21
52.775193
31
0.0
0
LINE
8
00_ALUMINIO
10
91.564964
20
52.775193
30
0.0
11
91.564964
21
51.775193
31
0.0
0
LINE
8
00_ALUMINIO
10
91.564964
20
51.775193
30
0.0
11
89.664964
21
51.775193
31
0.0
0
LINE
8
00_ALUMINIO
10
89.664964
20
51.775193
30
0.0
11
89.664964
21
48.775193
31
0.0
0
LINE
8
00_ALUMINIO
10
89.664964
20
48.775193
30
0.0
11
96.664964
21
48.775193
31
0.0
0
LINE
8
00_ALUMINIO
10
96.664964
20
48.775193
30
0.0
11
96.664964
21
51.775193
31
0.0
0
LINE
8
00_ALUMINIO
10
96.664964
20
51.775193
30
0.0
11
94.764964
21
51.775193
31
0.0
0
LINE
8
00_ALUMINIO
10
94.764964
20
51.775193
30
0.0
11
94.764964
21
52.775193
31
0.0
0
LINE
8
00_ALUMINIO
10
94.764964
20
52.775193
30
0.0
11
95.764964
21
53.775193
31
0.0
0
LINE
8
00_ALUMINIO
10
95.764964
20
53.775193
30
0.0
11
99.164964
21
53.775193
31
0.0
0
LINE
8
00_ALUMINIO
10
99.164964
20
53.775193
30
0.0
11
100.164964
21
52.775193
31
0.0
0
LINE
8
00_ALUMINIO
10
100.164964
20
52.775193
30
0.0
11
100.164964
21
51.775193
31
0.0
0
LINE
8
00_ALUMINIO
10
100.164964
20
51.775193
30
0.0
11
98.164964
21
51.775193
31
0.0
0
LINE
8
00_ALUMINIO
10
98.164964
20
51.775193
30
0.0
11
98.164964
21
48.775193
31
0.0
0
LINE
8
00_ALUMINIO
10
98.164964
20
48.775193
30
0.0
11
116.164964
21
48.775193
31
0.0
0
LINE
8
00_ALUMINIO
10
116.164964
20
48.775193
30
0.0
11
116.164964
21
51.775193
31
0.0
0
LINE
8
00_ALUMINIO
10
116.164964
20
51.775193
30
0.0
11
114.164964
21
51.775193
31
0.0
0
LINE
8
00_ALUMINIO
10
114.164964
20
51.775193
30
0.0
11
114.164964
21
52.775193
31
0.0
0
LINE
8
00_ALUMINIO
10
114.164964
20
52.775193
30
0.0
11
115.164964
21
53.775193
31
0.0
0
LINE
8
00_ALUMINIO
10
115.164964
20
53.775193
30
0.0
11
117.664964
21
53.775193
31
0.0
0
LINE
8
00_ALUMINIO
10
117.664964
20
53.775193
30
0.0
11
117.664964
21
29.075193
31
0.0
0
ARC
8
00_ALUMINIO
10
117.364964
20
29.075193
30
0.0
40
0.300000
50
270.000000
51
0.000000
0
LINE
8
00_ALUMINIO
10
117.364964
20
28.775193
30
0.0
11
114.914964
21
28.775193
31
0.0
0
ARC
8
00_ALUMINIO
10
114.914964
20
29.525193
30
0.0
40
0.750000
50
90.000000
51
270.000000
0
LINE
8
00_ALUMINIO
10
114.914964
20
30.275193
30
0.0
11
116.164964
21
30.275193
31
0.0
0
LINE
8
00_ALUMINIO
10
116.164964
20
30.275193
30
0.0
11
116.164964
21
33.775193
31
0.0
0
LINE
8
00_ALUMINIO
10
116.164964
20
33.775193
30
0.0
11
105.414964
21
33.775193
31
0.0
0
ARC
8
00_ALUMINIO
10
105.414964
20
34.525193
30
0.0
40
0.750000
50
90.000000
51
270.000000
0
LINE
8
00_ALUMINIO
10
105.414964
20
35.275193
30
0.0
11
116.164964
21
35.275193
31
0.0
0
LINE
8
00_ALUMINIO
10
116.164964
20
35.275193
30
0.0
11
116.164964
21
47.275193
31
0.0
0
LINE
8
00_ALUMINIO
10
116.164964
20
47.275193
30
0.0
11
95.609605
21
47.275192
31
0.0
0
ARC
8
00_ALUMINIO
10
95.609605
20
46.775192
30
0.0
40
0.500000
50
89.999908
51
227.029681
0
ARC
8
00_ALUMINIO
10
92.814965
20
43.775193
30
0.0
40
3.600000
50
309.281780
51
47.029683
0
ARC
8
00_ALUMINIO
10
94.777683
20
41.375664
30
0.0
40
0.500000
50
210.000000
51
309.281799
0
LINE
8
00_ALUMINIO
10
94.344670
20
41.125664
30
0.0
11
94.039709
21
41.653872
31
0.0
0
ARC
8
00_ALUMINIO
10
94.472722
20
41.903872
30
0.0
40
0.500000
50
131.536959
51
210.000000
0
ARC
8
00_ALUMINIO
10
92.814964
20
43.775193
30
0.0
40
2.000000
50
311.536959
51
336.926082
0
LINE
8
00_ALUMINIO
10
94.654964
20
42.991356
30
0.0
11
94.977278
21
42.991356
31
0.0
0
ARC
8
00_ALUMINIO
10
92.814964
20
43.775193
30
0.0
40
2.300000
50
340.074465
51
19.925535
0
LINE
8
00_ALUMINIO
10
94.977278
20
44.559029
30
0.0
11
94.654964
21
44.559029
31
0.0
0
ARC
8
00_ALUMINIO
10
92.814964
20
43.775193
30
0.0
40
2.000000
50
23.073918
51
66.926082
0
LINE
8
00_ALUMINIO
10
93.598801
20
45.615193
30
0.0
11
93.598801
21
45.937506
31
0.0
0
ARC
8
00_ALUMINIO
10
92.814964
20
43.775193
30
0.0
40
2.300000
50
70.074465
51
109.911903
0
LINE
8
00_ALUMINIO
10
92.031642
20
45.937693
30
0.0
11
92.031642
21
45.615412
31
0.0
0
ARC
8
00_ALUMINIO
10
92.814964
20
43.775193
30
0.0
40
2.000000
50
113.057899
51
156.926082
0
LINE
8
00_ALUMINIO
10
90.974964
20
44.559029
30
0.0
11
90.652651
21
44.559029
31
0.0
0
ARC
8
00_ALUMINIO
10
92.814964
20
43.775193
30
0.0
40
2.300000
50
160.074465
51
199.925535
0
LINE
8
00_ALUMINIO
10
90.652651
20
42.991356
30
0.0
11
90.974964
21
42.991356
31
0.0
0
ARC
8
00_ALUMINIO
10
92.814964
20
43.775193
30
0.0
40
2.000000
50
203.073918
51
228.463041
0
ARC
8
00_ALUMINIO
10
91.157207
20
41.903872
30
0.0
40
0.500000
50
330.000000
51
48.463041
0
LINE
8
00_ALUMINIO
10
91.590219
20
41.653872
30
0.0
11
91.285258
21
41.125664
31
0.0
0
ARC
8
00_ALUMINIO
10
90.852246
20
41.375664
30
0.0
40
0.500000
50
230.718201
51
330.000000
0
ARC
8
00_ALUMINIO
10
92.814963
20
43.775193
30
0.0
40
3.600000
50
132.970317
51
230.718220
0
ARC
8
00_ALUMINIO
10
90.020324
20
46.775192
30
0.0
40
0.500000
50
312.970320
51
90.000093
0
LINE
8
00_ALUMINIO
10
90.020323
20
47.275192
30
0.0
11
43.109605
21
47.275192
31
0.0
0
ARC
8
00_ALUMINIO
10
43.109605
20
46.775192
30
0.0
40
0.500000
50
89.999908
51
227.029681
0
ARC
8
00_ALUMINIO
10
40.314965
20
43.775193
30
0.0
40
3.600000
50
309.281780
51
47.029683
0
ARC
8
00_ALUMINIO
10
42.277683
20
41.375664
30
0.0
40
0.500000
50
210.000000
51
309.281799
0
LINE
8
00_ALUMINIO
10
41.844670
20
41.125664
30
0.0
11
41.539709
21
41.653872
31
0.0
0
ARC
8
00_ALUMINIO
10
41.972722
20
41.903872
30
0.0
40
0.500000
50
131.536959
51
210.000000
0
ARC
8
00_ALUMINIO
10
40.314964
20
43.775193
30
0.0
40
2.000000
50
311.536959
51
336.926082
0
LINE
8
00_ALUMINIO
10
42.154964
20
42.991356
30
0.0
11
42.477278
21
42.991356
31
0.0
0
ARC
8
00_ALUMINIO
10
40.314964
20
43.775193
30
0.0
40
2.300000
50
340.074465
51
19.925535
0
LINE
8
00_ALUMINIO
10
42.477278
20
44.559029
30
0.0
11
42.154964
21
44.559029
31
0.0
0
ARC
8
00_ALUMINIO
10
40.314964
20
43.775193
30
0.0
40
2.000000
50
23.073918
51
66.926082
0
LINE
8
00_ALUMINIO
10
41.098801
20
45.615193
30
0.0
11
41.098801
21
45.937506
31
0.0
0
ARC
8
00_ALUMINIO
10
40.314964
20
43.775193
30
0.0
40
2.300000
50
70.074465
51
109.911903
0
LINE
8
00_ALUMINIO
10
39.531642
20
45.937693
30
0.0
11
39.531642
21
45.615412
31
0.0
0
ARC
8
00_ALUMINIO
10
40.314964
20
43.775193
30
0.0
40
2.000000
50
113.057899
51
156.926082
0
LINE
8
00_ALUMINIO
10
38.474964
20
44.559029
30
0.0
11
38.152651
21
44.559029
31
0.0
0
ARC
8
00_ALUMINIO
10
40.314964
20
43.775193
30
0.0
40
2.300000
50
160.074465
51
199.925535
0
LINE
8
00_ALUMINIO
10
38.152651
20
42.991356
30
0.0
11
38.474964
21
42.991356
31
0.0
0
ARC
8
00_ALUMINIO
10
40.314964
20
43.775193
30
0.0
40
2.000000
50
203.073918
51
228.463041
0
ARC
8
00_ALUMINIO
10
38.657207
20
41.903872
30
0.0
40
0.500000
50
330.000000
51
48.463041
0
LINE
8
00_ALUMINIO
10
39.090219
20
41.653872
30
0.0
11
38.785258
21
41.125664
31
0.0
0
ARC
8
00_ALUMINIO
10
38.352246
20
41.375664
30
0.0
40
0.500000
50
230.718201
51
330.000000
0
ARC
8
00_ALUMINIO
10
40.314963
20
43.775193
30
0.0
40
3.600000
50
132.970317
51
230.718220
0
ARC
8
00_ALUMINIO
10
37.520324
20
46.775192
30
0.0
40
0.500000
50
312.970319
51
90.000092
0
LINE
8
00_ALUMINIO
10
37.520323
20
47.275192
30
0.0
11
16.964964
21
47.275193
31
0.0
0
LINE
8
00_ALUMINIO
10
16.964964
20
47.275193
30
0.0
11
16.964964
21
35.275193
31
0.0
0
LINE
8
00_ALUMINIO
10
16.964964
20
35.275193
30
0.0
11
27.714964
21
35.275193
31
0.0
0
ARC
8
00_ALUMINIO
10
27.714964
20
34.525193
30
0.0
40
0.750000
50
270.000000
51
90.000000
0
LINE
8
00_ALUMINIO
10
27.714964
20
33.775193
30
0.0
11
16.964964
21
33.775193
31
0.0
0
LINE
8
00_ALUMINIO
10
16.964964
20
33.775193
30
0.0
11
16.964964
21
30.275193
31
0.0
0
LINE
8
00_ALUMINIO
10
16.964964
20
30.275193
30
0.0
11
18.214964
21
30.275193
31
0.0
0
ARC
8
00_ALUMINIO
10
18.214964
20
29.525193
30
0.0
40
0.750000
50
270.000000
51
90.000000
0
LINE
8
00_ALUMINIO
10
18.214964
20
28.775193
30
0.0
11
15.764964
21
28.775193
31
0.0
0
ARC
8
00_ALUMINIO
10
15.764964
20
29.075193
30
0.0
40
0.300000
50
180.000000
51
270.000000
0
LINE
8
00_ALUMINIO
10
15.464964
20
29.075193
30
0.0
11
15.464964
21
48.475193
31
0.0
0
ARC
8
00_ALUMINIO
10
15.764964
20
48.475193
30
0.0
40
0.300000
50
90.000000
51
180.000000
0
LINE
8
00_ALUMINIO
10
15.764964
20
48.775193
30
0.0
11
71.664964
21
48.775193
31
0.0
0
LINE
8
00_ALUMINIO
10
71.664964
20
48.775193
30
0.0
11
71.664964
21
73.275193
31
0.0
0
ARC
8
00_ALUMINIO
10
72.164964
20
73.275193
30
0.0
40
0.500000
50
90.000000
51
180.000000
0
LINE
8
00_ALUMINIO
10
72.164964
20
73.775193
30
0.0
11
75.164964
21
73.775193
31
0.0
0
ARC
8
00_ALUMINIO
10
75.164964
20
73.275193
30
0.0
40
0.500000
50
0.000000
51
90.000000
0
ATTDEF
8
0
10
0.000000
20
0.000000
30
0.0
40
3.5
1

3

2
PANE_WIDTH:0
70
0
0
ATTDEF
8
0
10
0.000000
20
0.000000
30
0.0
40
3.5
1

3

2
MIN_VETRO:0
70
0
0
ATTDEF
8
0
10
0.000000
20
0.000000
30
0.0
40
3.5
1

3

2
MAX_VETRO:0
70
0
0
ATTDEF
8
0
10
0.000000
20
0.000000
30
0.0
40
3.5
1

3

2
JX:0
70
0
0
ATTDEF
8
0
10
0.000000
20
0.000000
30
0.0
40
3.5
1

3

2
WX:0
70
0
0
ATTDEF
8
0
10
0.000000
20
0.000000
30
0.0
40
3.5
1

3

2
JY:0
70
0
0
ATTDEF
8
0
10
0.000000
20
0.000000
30
0.0
40
3.5
1

3

2
WY:0
70
0
0
ATTDEF
8
0
10
0.000000
20
0.000000
30
0.0
40
3.5
1

3

2
DESC:MAINEL MARCO BICARRIL
70
0
0
ATTDEF
8
0
10
0.000000
20
0.000000
30
0.0
40
3.5
1

3

2
DENS:1.0206
70
0
0
ATTDEF
8
0
10
0.000000
20
0.000000
30
0.0
40
3.5
1

3

2
TDEV:49.05
70
0
0
ATTDEF
8
0
10
0.000000
20
0.000000
30
0.0
40
3.5
1

3

2
TDEV2:0
70
0
0
ATTDEF
8
0
10
0.000000
20
0.000000
30
0.0
40
3.5
1

3

2
TDEV3:0
70
0
0
ATTDEF
8
0
10
0.000000
20
0.000000
30
0.0
40
3.5
1

3

2
TDEV4:0
70
0
0
ATTDEF
8
0
10
0.000000
20
0.000000
30
0.0
40
3.5
1

3

2
TDEV5:0
70
0
0
ATTDEF
8
0
10
0.000000
20
0.000000
30
0.0
40
3.5
1

3

2
PANE_WIDTH:0
70
0
0
ATTDEF
8
0
10
0.000000
20
0.000000
30
0.0
40
3.5
1

3

2
MIN_VETRO:0
70
0
0
ATTDEF
8
0
10
0.000000
20
0.000000
30
0.0
40
3.5
1

3

2
MAX_VETRO:0
70
0
0
ATTDEF
8
0
10
0.000000
20
0.000000
30
0.0
40
3.5
1

3

2
JX:0
70
0
0
ATTDEF
8
0
10
0.000000
20
0.000000
30
0.0
40
3.5
1

3

2
WX:0
70
0
0
ATTDEF
8
0
10
0.000000
20
0.000000
30
0.0
40
3.5
1

3

2
JY:0
70
0
0
ATTDEF
8
0
10
0.000000
20
0.000000
30
0.0
40
3.5
1

3

2
WY:0
70
0
0
ENDSEC
0
EOF
