0
SECTION
2
ENTITIES
0
LINE
8
perfiles
10
78.615527
20
50.485615
30
0.0
11
37.015527
21
50.485615
31
0.0
0
LINE
8
perfiles
10
37.015527
20
50.485615
30
0.0
11
37.015527
21
82.085615
31
0.0
0
LINE
8
perfiles
10
37.015527
20
82.085615
30
0.0
11
78.615527
21
82.085615
31
0.0
0
LINE
8
perfiles
10
78.615527
20
82.085615
30
0.0
11
78.615527
21
50.485615
31
0.0
0
LINE
8
perfiles
10
58.215527
20
44.785615
30
0.0
11
57.215527
21
43.785615
31
0.0
0
LINE
8
perfiles
10
57.215527
20
43.785615
30
0.0
11
53.815527
21
43.785615
31
0.0
0
LINE
8
perfiles
10
53.815527
20
43.785615
30
0.0
11
52.815527
21
44.785615
31
0.0
0
LINE
8
perfiles
10
52.815527
20
44.785615
30
0.0
11
52.815527
21
45.785615
31
0.0
0
LINE
8
perfiles
10
52.815527
20
45.785615
30
0.0
11
54.815527
21
45.785615
31
0.0
0
LINE
8
perfiles
10
54.815527
20
45.785615
30
0.0
11
54.815527
21
48.785615
31
0.0
0
LINE
8
perfiles
10
54.815527
20
48.785615
30
0.0
11
36.815527
21
48.785615
31
0.0
0
LINE
8
perfiles
10
36.815527
20
48.785615
30
0.0
11
36.815527
21
45.785615
31
0.0
0
LINE
8
perfiles
10
36.815527
20
45.785615
30
0.0
11
38.815527
21
45.785615
31
0.0
0
LINE
8
perfiles
10
38.815527
20
45.785615
30
0.0
11
38.815527
21
44.785615
31
0.0
0
LINE
8
perfiles
10
38.815527
20
44.785615
30
0.0
11
37.815527
21
43.785615
31
0.0
0
LINE
8
perfiles
10
37.815527
20
43.785615
30
0.0
11
35.315527
21
43.785615
31
0.0
0
LINE
8
perfiles
10
35.315527
20
43.785615
30
0.0
11
35.315527
21
88.785615
31
0.0
0
LINE
8
perfiles
10
35.315527
20
88.785615
30
0.0
11
37.815527
21
88.785615
31
0.0
0
LINE
8
perfiles
10
37.815527
20
88.785615
30
0.0
11
38.815527
21
87.785615
31
0.0
0
LINE
8
perfiles
10
38.815527
20
87.785615
30
0.0
11
38.815527
21
86.785615
31
0.0
0
LINE
8
perfiles
10
38.815527
20
86.785615
30
0.0
11
37.015527
21
86.785615
31
0.0
0
LINE
8
perfiles
10
37.015527
20
86.785615
30
0.0
11
37.015527
21
83.785615
31
0.0
0
LINE
8
perfiles
10
37.015527
20
83.785615
30
0.0
11
54.815527
21
83.785615
31
0.0
0
LINE
8
perfiles
10
54.815527
20
83.785615
30
0.0
11
54.815527
21
86.785615
31
0.0
0
LINE
8
perfiles
10
54.815527
20
86.785615
30
0.0
11
52.815527
21
86.785615
31
0.0
0
LINE
8
perfiles
10
52.815527
20
86.785615
30
0.0
11
52.815527
21
87.785615
31
0.0
0
LINE
8
perfiles
10
52.815527
20
87.785615
30
0.0
11
53.815527
21
88.785615
31
0.0
0
LINE
8
perfiles
10
53.815527
20
88.785615
30
0.0
11
57.215527
21
88.785615
31
0.0
0
LINE
8
perfiles
10
57.215527
20
88.785615
30
0.0
11
58.215527
21
87.785615
31
0.0
0
LINE
8
perfiles
10
58.215527
20
87.785615
30
0.0
11
58.215527
21
86.785615
31
0.0
0
LINE
8
perfiles
10
58.215527
20
86.785615
30
0.0
11
56.315527
21
86.785615
31
0.0
0
LINE
8
perfiles
10
56.315527
20
86.785615
30
0.0
11
56.315527
21
83.785615
31
0.0
0
LINE
8
perfiles
10
56.315527
20
83.785615
30
0.0
11
63.315527
21
83.785615
31
0.0
0
LINE
8
perfiles
10
63.315527
20
83.785615
30
0.0
11
63.315527
21
86.785615
31
0.0
0
LINE
8
perfiles
10
63.315527
20
86.785615
30
0.0
11
61.415527
21
86.785615
31
0.0
0
LINE
8
perfiles
10
61.415527
20
86.785615
30
0.0
11
61.415527
21
87.785615
31
0.0
0
LINE
8
perfiles
10
61.415527
20
87.785615
30
0.0
11
62.415527
21
88.785615
31
0.0
0
LINE
8
perfiles
10
62.415527
20
88.785615
30
0.0
11
64.815527
21
88.785615
31
0.0
0
LINE
8
perfiles
10
64.815527
20
88.785615
30
0.0
11
64.815527
21
83.785615
31
0.0
0
LINE
8
perfiles
10
64.815527
20
83.785615
30
0.0
11
78.615527
21
83.785615
31
0.0
0
LINE
8
perfiles
10
78.615527
20
83.785615
30
0.0
11
78.615527
21
98.785615
31
0.0
0
LINE
8
perfiles
10
78.615527
20
98.785615
30
0.0
11
76.815527
21
98.785615
31
0.0
0
ARC
8
perfiles
10
76.815527
20
99.285615
30
0.0
40
0.500000
50
180.000000
51
270.000000
0
LINE
8
perfiles
10
76.315527
20
99.285615
30
0.0
11
76.315527
21
101.285615
31
0.0
0
ARC
8
perfiles
10
76.815527
20
101.285615
30
0.0
40
0.500000
50
90.000000
51
180.000000
0
LINE
8
perfiles
10
76.815527
20
101.785615
30
0.0
11
77.015527
21
101.785615
31
0.0
0
ARC
8
perfiles
10
77.015527
20
101.285615
30
0.0
40
0.500000
50
0.000000
51
90.000000
0
LINE
8
perfiles
10
77.515527
20
101.285615
30
0.0
11
77.515527
21
100.285615
31
0.0
0
LINE
8
perfiles
10
77.515527
20
100.285615
30
0.0
11
79.015527
21
100.285615
31
0.0
0
LINE
8
perfiles
10
79.015527
20
100.285615
30
0.0
11
79.015527
21
107.285615
31
0.0
0
LINE
8
perfiles
10
79.015527
20
107.285615
30
0.0
11
77.515527
21
107.285615
31
0.0
0
LINE
8
perfiles
10
77.515527
20
107.285615
30
0.0
11
77.515527
21
106.285615
31
0.0
0
ARC
8
perfiles
10
77.015527
20
106.285615
30
0.0
40
0.500000
50
270.000000
51
0.000000
0
LINE
8
perfiles
10
77.015527
20
105.785615
30
0.0
11
76.815527
21
105.785615
31
0.0
0
ARC
8
perfiles
10
76.815527
20
106.285615
30
0.0
40
0.500000
50
180.000000
51
270.000000
0
LINE
8
perfiles
10
76.315527
20
106.285615
30
0.0
11
76.315527
21
108.285615
31
0.0
0
ARC
8
perfiles
10
76.815527
20
108.285615
30
0.0
40
0.500000
50
90.000000
51
180.000000
0
LINE
8
perfiles
10
76.815527
20
108.785615
30
0.0
11
79.815527
21
108.785615
31
0.0
0
ARC
8
perfiles
10
79.815527
20
108.285615
30
0.0
40
0.500000
50
0.000000
51
90.000000
0
LINE
8
perfiles
10
80.315527
20
108.285615
30
0.0
11
80.315527
21
24.285615
31
0.0
0
ARC
8
perfiles
10
79.815527
20
24.285615
30
0.0
40
0.500000
50
270.000000
51
0.000000
0
LINE
8
perfiles
10
79.815527
20
23.785615
30
0.0
11
76.815527
21
23.785615
31
0.0
0
ARC
8
perfiles
10
76.815527
20
24.285615
30
0.0
40
0.500000
50
180.000000
51
270.000000
0
LINE
8
perfiles
10
76.315527
20
24.285615
30
0.0
11
76.315527
21
26.285615
31
0.0
0
ARC
8
perfiles
10
76.815527
20
26.285615
30
0.0
40
0.500000
50
90.000000
51
180.000000
0
LINE
8
perfiles
10
76.815527
20
26.785615
30
0.0
11
77.015527
21
26.785615
31
0.0
0
ARC
8
perfiles
10
77.015527
20
26.285615
30
0.0
40
0.500000
50
0.000000
51
90.000000
0
LINE
8
perfiles
10
77.515527
20
26.285615
30
0.0
11
77.515527
21
25.285615
31
0.0
0
LINE
8
perfiles
10
77.515527
20
25.285615
30
0.0
11
79.015527
21
25.285615
31
0.0
0
LINE
8
perfiles
10
79.015527
20
25.285615
30
0.0
11
79.015527
21
32.285615
31
0.0
0
LINE
8
perfiles
10
79.015527
20
32.285615
30
0.0
11
77.515527
21
32.285615
31
0.0
0
LINE
8
perfiles
10
77.515527
20
32.285615
30
0.0
11
77.515527
21
31.285615
31
0.0
0
ARC
8
perfiles
10
77.015527
20
31.285615
30
0.0
40
0.500000
50
270.000000
51
0.000000
0
LINE
8
perfiles
10
77.015527
20
30.785615
30
0.0
11
76.815527
21
30.785615
31
0.0
0
ARC
8
perfiles
10
76.815527
20
31.285615
30
0.0
40
0.500000
50
180.000000
51
270.000000
0
LINE
8
perfiles
10
76.315527
20
31.285615
30
0.0
11
76.315527
21
33.285615
31
0.0
0
ARC
8
perfiles
10
76.815527
20
33.285615
30
0.0
40
0.500000
50
90.000000
51
180.000000
0
LINE
8
perfiles
10
76.815527
20
33.785615
30
0.0
11
78.615527
21
33.785615
31
0.0
0
LINE
8
perfiles
10
78.615527
20
33.785615
30
0.0
11
78.615527
21
48.785615
31
0.0
0
LINE
8
perfiles
10
78.615527
20
48.785615
30
0.0
11
64.815527
21
48.785615
31
0.0
0
LINE
8
perfiles
10
64.815527
20
48.785615
30
0.0
11
64.815527
21
43.785615
31
0.0
0
LINE
8
perfiles
10
64.815527
20
43.785615
30
0.0
11
62.415527
21
43.785615
31
0.0
0
LINE
8
perfiles
10
62.415527
20
43.785615
30
0.0
11
61.415527
21
44.785615
31
0.0
0
LINE
8
perfiles
10
61.415527
20
44.785615
30
0.0
11
61.415527
21
45.785615
31
0.0
0
LINE
8
perfiles
10
61.415527
20
45.785615
30
0.0
11
63.315527
21
45.785615
31
0.0
0
LINE
8
perfiles
10
63.315527
20
45.785615
30
0.0
11
63.315527
21
48.785615
31
0.0
0
LINE
8
perfiles
10
63.315527
20
48.785615
30
0.0
11
56.315527
21
48.785615
31
0.0
0
LINE
8
perfiles
10
56.315527
20
48.785615
30
0.0
11
56.315527
21
45.785615
31
0.0
0
LINE
8
perfiles
10
56.315527
20
45.785615
30
0.0
11
58.215527
21
45.785615
31
0.0
0
LINE
8
perfiles
10
58.215527
20
45.785615
30
0.0
11
58.215527
21
44.785615
31
0.0
0
ATTDEF
8
0
10
0.000000
20
0.000000
30
0.0
40
3.5
1

3

2
PANE_WIDTH:0
70
0
0
ATTDEF
8
0
10
0.000000
20
0.000000
30
0.0
40
3.5
1

3

2
MIN_VETRO:0
70
0
0
ATTDEF
8
0
10
0.000000
20
0.000000
30
0.0
40
3.5
1

3

2
MAX_VETRO:0
70
0
0
ATTDEF
8
0
10
0.000000
20
0.000000
30
0.0
40
3.5
1

3

2
JX:0
70
0
0
ATTDEF
8
0
10
0.000000
20
0.000000
30
0.0
40
3.5
1

3

2
WX:0
70
0
0
ATTDEF
8
0
10
0.000000
20
0.000000
30
0.0
40
3.5
1

3

2
JY:0
70
0
0
ATTDEF
8
0
10
0.000000
20
0.000000
30
0.0
40
3.5
1

3

2
WY:0
70
0
0
ATTDEF
8
0
10
0.000000
20
0.000000
30
0.0
40
3.5
1

3

2
DESC:Zanca puerta
70
0
0
ATTDEF
8
0
10
0.000000
20
0.000000
30
0.0
40
3.5
1

3

2
DENS:1.1853
70
0
0
ATTDEF
8
0
10
0.000000
20
0.000000
30
0.0
40
3.5
1

3

2
TDEV:52.56
70
0
0
ATTDEF
8
0
10
0.000000
20
0.000000
30
0.0
40
3.5
1

3

2
TDEV2:0
70
0
0
ATTDEF
8
0
10
0.000000
20
0.000000
30
0.0
40
3.5
1

3

2
TDEV3:0
70
0
0
ATTDEF
8
0
10
0.000000
20
0.000000
30
0.0
40
3.5
1

3

2
TDEV4:0
70
0
0
ATTDEF
8
0
10
0.000000
20
0.000000
30
0.0
40
3.5
1

3

2
TDEV5:0
70
0
0
ATTDEF
8
0
10
0.000000
20
0.000000
30
0.0
40
3.5
1

3

2
PANE_WIDTH:0
70
0
0
ATTDEF
8
0
10
0.000000
20
0.000000
30
0.0
40
3.5
1

3

2
MIN_VETRO:0
70
0
0
ATTDEF
8
0
10
0.000000
20
0.000000
30
0.0
40
3.5
1

3

2
MAX_VETRO:0
70
0
0
ATTDEF
8
0
10
0.000000
20
0.000000
30
0.0
40
3.5
1

3

2
JX:0
70
0
0
ATTDEF
8
0
10
0.000000
20
0.000000
30
0.0
40
3.5
1

3

2
WX:0
70
0
0
ATTDEF
8
0
10
0.000000
20
0.000000
30
0.0
40
3.5
1

3

2
JY:0
70
0
0
ATTDEF
8
0
10
0.000000
20
0.000000
30
0.0
40
3.5
1

3

2
WY:0
70
0
0
ENDSEC
0
EOF
