0
SECTION
2
ENTITIES
0
LINE
8
00_ALUMINIO
10
14.147584
20
11.116585
30
0.0
11
14.147584
21
-10.683415
31
0.0
0
LINE
8
00_ALUMINIO
10
14.147584
20
-10.683415
30
0.0
11
13.647584
21
-11.549441
31
0.0
0
LINE
8
00_ALUMINIO
10
13.647584
20
-11.549441
30
0.0
11
13.647584
21
-14.083415
31
0.0
0
ARC
8
00_ALUMINIO
10
13.147584
20
-14.083415
30
0.0
40
0.500000
50
270.000000
51
0.000000
0
LINE
8
00_ALUMINIO
10
13.147584
20
-14.583415
30
0.0
11
12.147584
21
-14.583415
31
0.0
0
ARC
8
00_ALUMINIO
10
12.147584
20
-14.083415
30
0.0
40
0.500000
50
180.000000
51
270.000000
0
LINE
8
00_ALUMINIO
10
11.647584
20
-14.083415
30
0.0
11
11.647584
21
-10.683415
31
0.0
0
LINE
8
00_ALUMINIO
10
11.647584
20
-10.683415
30
0.0
11
9.747584
21
-10.683415
31
0.0
0
LINE
8
00_ALUMINIO
10
9.747584
20
-10.683415
30
0.0
11
9.447584
21
-11.101332
31
0.0
0
LINE
8
00_ALUMINIO
10
9.447584
20
-11.101332
30
0.0
11
9.284590
21
-11.558472
31
0.0
0
ARC
8
00_ALUMINIO
10
9.036483
20
-11.470009
30
0.0
40
0.263406
50
215.672499
51
340.376222
0
LINE
8
00_ALUMINIO
10
8.822502
20
-11.623615
30
0.0
11
8.703875
21
-11.458361
31
0.0
0
LINE
8
00_ALUMINIO
10
8.703875
20
-11.458361
30
0.0
11
8.147584
21
-10.683415
31
0.0
0
LINE
8
00_ALUMINIO
10
8.147584
20
-10.683415
30
0.0
11
8.147584
21
-9.983415
31
0.0
0
ARC
8
00_ALUMINIO
10
8.647584
20
-9.983415
30
0.0
40
0.500000
50
90.000000
51
180.000000
0
LINE
8
00_ALUMINIO
10
8.647584
20
-9.483415
30
0.0
11
12.147584
21
-9.483415
31
0.0
0
LINE
8
00_ALUMINIO
10
12.147584
20
-9.483415
30
0.0
11
12.147584
21
0.965113
31
0.0
0
LINE
8
00_ALUMINIO
10
12.147584
20
0.965113
30
0.0
11
12.647584
21
1.465113
31
0.0
0
LINE
8
00_ALUMINIO
10
12.647584
20
1.465113
30
0.0
11
12.147584
21
1.965113
31
0.0
0
LINE
8
00_ALUMINIO
10
12.147584
20
1.965113
30
0.0
11
12.147584
21
5.816585
31
0.0
0
LINE
8
00_ALUMINIO
10
12.147584
20
5.816585
30
0.0
11
12.647584
21
6.316585
31
0.0
0
LINE
8
00_ALUMINIO
10
12.647584
20
6.316585
30
0.0
11
12.147584
21
6.816585
31
0.0
0
LINE
8
00_ALUMINIO
10
12.147584
20
6.816585
30
0.0
11
12.147584
21
9.916585
31
0.0
0
LINE
8
00_ALUMINIO
10
12.147584
20
9.916585
30
0.0
11
8.647584
21
9.916585
31
0.0
0
ARC
8
00_ALUMINIO
10
8.647584
20
10.416585
30
0.0
40
0.500000
50
180.000000
51
270.000000
0
LINE
8
00_ALUMINIO
10
8.147584
20
10.416585
30
0.0
11
8.147584
21
11.116585
31
0.0
0
LINE
8
00_ALUMINIO
10
8.147584
20
11.116585
30
0.0
11
8.703875
21
11.891530
31
0.0
0
LINE
8
00_ALUMINIO
10
8.703875
20
11.891530
30
0.0
11
8.822502
21
12.056784
31
0.0
0
ARC
8
00_ALUMINIO
10
9.036483
20
11.903179
30
0.0
40
0.263406
50
19.623779
51
144.327501
0
LINE
8
00_ALUMINIO
10
9.284590
20
11.991642
30
0.0
11
9.447584
21
11.534502
31
0.0
0
LINE
8
00_ALUMINIO
10
9.447584
20
11.534502
30
0.0
11
9.747584
21
11.116585
31
0.0
0
LINE
8
00_ALUMINIO
10
9.747584
20
11.116585
30
0.0
11
11.647584
21
11.116585
31
0.0
0
LINE
8
00_ALUMINIO
10
11.647584
20
11.116585
30
0.0
11
11.647584
21
14.866585
31
0.0
0
ARC
8
00_ALUMINIO
10
13.647584
20
14.866585
30
0.0
40
2.000000
50
90.000000
51
180.000000
0
LINE
8
00_ALUMINIO
10
13.647584
20
16.866585
30
0.0
11
18.770085
21
16.866585
31
0.0
0
ARC
8
00_ALUMINIO
10
18.770085
20
17.366585
30
0.0
40
0.500000
50
270.000000
51
330.000000
0
LINE
8
00_ALUMINIO
10
19.203098
20
17.116585
30
0.0
11
20.147584
21
18.752483
31
0.0
0
LINE
8
00_ALUMINIO
10
20.147584
20
18.752483
30
0.0
11
20.147584
21
20.216585
31
0.0
0
LINE
8
00_ALUMINIO
10
20.147584
20
20.216585
30
0.0
11
16.747489
21
20.216585
31
0.0
0
ARC
8
00_ALUMINIO
10
16.747584
20
20.516585
30
0.0
40
0.300000
50
180.000000
51
269.981881
0
LINE
8
00_ALUMINIO
10
16.447584
20
20.516585
30
0.0
11
16.447584
21
21.716585
31
0.0
0
ARC
8
00_ALUMINIO
10
16.947584
20
21.716585
30
0.0
40
0.500000
50
90.000000
51
180.000000
0
LINE
8
00_ALUMINIO
10
16.947584
20
22.216585
30
0.0
11
21.847584
21
22.216585
31
0.0
0
ARC
8
00_ALUMINIO
10
21.847584
20
21.916585
30
0.0
40
0.300000
50
0.000000
51
90.000000
0
LINE
8
00_ALUMINIO
10
22.147584
20
21.916585
30
0.0
11
22.147584
21
20.216585
31
0.0
0
LINE
8
00_ALUMINIO
10
22.147584
20
20.216585
30
0.0
11
26.547584
21
20.216585
31
0.0
0
LINE
8
00_ALUMINIO
10
26.547584
20
20.216585
30
0.0
11
26.547584
21
21.916585
31
0.0
0
ARC
8
00_ALUMINIO
10
26.847584
20
21.916585
30
0.0
40
0.300000
50
90.000000
51
180.000000
0
LINE
8
00_ALUMINIO
10
26.847584
20
22.216585
30
0.0
11
28.047584
21
22.216585
31
0.0
0
ARC
8
00_ALUMINIO
10
28.047584
20
21.716585
30
0.0
40
0.500000
50
0.000000
51
90.000000
0
LINE
8
00_ALUMINIO
10
28.547584
20
21.716585
30
0.0
11
28.547584
21
15.872098
31
0.0
0
ARC
8
00_ALUMINIO
10
28.247584
20
15.872098
30
0.0
40
0.300000
50
210.000000
51
0.000000
0
LINE
8
00_ALUMINIO
10
27.987776
20
15.722098
30
0.0
11
26.547584
21
18.216585
31
0.0
0
LINE
8
00_ALUMINIO
10
26.547584
20
18.216585
30
0.0
11
24.847584
21
18.216585
31
0.0
0
LINE
8
00_ALUMINIO
10
24.847584
20
18.216585
30
0.0
11
24.347584
21
18.716585
31
0.0
0
LINE
8
00_ALUMINIO
10
24.347584
20
18.716585
30
0.0
11
23.847584
21
18.216585
31
0.0
0
LINE
8
00_ALUMINIO
10
23.847584
20
18.216585
30
0.0
11
22.147584
21
18.216585
31
0.0
0
LINE
8
00_ALUMINIO
10
22.147584
20
18.216585
30
0.0
11
20.790811
21
15.866585
31
0.0
0
ARC
8
00_ALUMINIO
10
19.058760
20
16.866585
30
0.0
40
2.000000
50
270.000000
51
330.000000
0
LINE
8
00_ALUMINIO
10
19.058760
20
14.866585
30
0.0
11
14.147584
21
14.866585
31
0.0
0
ARC
8
00_ALUMINIO
10
14.147584
20
14.366585
30
0.0
40
0.500000
50
90.000000
51
180.000000
0
LINE
8
00_ALUMINIO
10
13.647584
20
14.366585
30
0.0
11
13.647584
21
11.982610
31
0.0
0
LINE
8
00_ALUMINIO
10
13.647584
20
11.982610
30
0.0
11
14.147584
21
11.116585
31
0.0
0
ATTDEF
8
0
10
0.000000
20
0.000000
30
0.0
40
3.5
1

3

2
PANE_WIDTH:0
70
0
0
ATTDEF
8
0
10
0.000000
20
0.000000
30
0.0
40
3.5
1

3

2
MIN_VETRO:0
70
0
0
ATTDEF
8
0
10
0.000000
20
0.000000
30
0.0
40
3.5
1

3

2
MAX_VETRO:0
70
0
0
ATTDEF
8
0
10
0.000000
20
0.000000
30
0.0
40
3.5
1

3

2
JX:0
70
0
0
ATTDEF
8
0
10
0.000000
20
0.000000
30
0.0
40
3.5
1

3

2
WX:0
70
0
0
ATTDEF
8
0
10
0.000000
20
0.000000
30
0.0
40
3.5
1

3

2
JY:0
70
0
0
ATTDEF
8
0
10
0.000000
20
0.000000
30
0.0
40
3.5
1

3

2
WY:0
70
0
0
ATTDEF
8
0
10
0.000000
20
0.000000
30
0.0
40
3.5
1

3

2
DESC:Grapa para solape
70
0
0
ATTDEF
8
0
10
0.000000
20
0.000000
30
0.0
40
3.5
1

3

2
DENS:0.3483
70
0
0
ATTDEF
8
0
10
0.000000
20
0.000000
30
0.0
40
3.5
1

3

2
TDEV:13.98
70
0
0
ATTDEF
8
0
10
0.000000
20
0.000000
30
0.0
40
3.5
1

3

2
TDEV2:0
70
0
0
ATTDEF
8
0
10
0.000000
20
0.000000
30
0.0
40
3.5
1

3

2
TDEV3:0
70
0
0
ATTDEF
8
0
10
0.000000
20
0.000000
30
0.0
40
3.5
1

3

2
TDEV4:0
70
0
0
ATTDEF
8
0
10
0.000000
20
0.000000
30
0.0
40
3.5
1

3

2
TDEV5:0
70
0
0
ATTDEF
8
0
10
0.000000
20
0.000000
30
0.0
40
3.5
1

3

2
PANE_WIDTH:0
70
0
0
ATTDEF
8
0
10
0.000000
20
0.000000
30
0.0
40
3.5
1

3

2
MIN_VETRO:0
70
0
0
ATTDEF
8
0
10
0.000000
20
0.000000
30
0.0
40
3.5
1

3

2
MAX_VETRO:0
70
0
0
ATTDEF
8
0
10
0.000000
20
0.000000
30
0.0
40
3.5
1

3

2
JX:0
70
0
0
ATTDEF
8
0
10
0.000000
20
0.000000
30
0.0
40
3.5
1

3

2
WX:0
70
0
0
ATTDEF
8
0
10
0.000000
20
0.000000
30
0.0
40
3.5
1

3

2
JY:0
70
0
0
ATTDEF
8
0
10
0.000000
20
0.000000
30
0.0
40
3.5
1

3

2
WY:0
70
0
0
ENDSEC
0
EOF
