0
SECTION
2
ENTITIES
0
ARC
8
0
10
-4.847879
20
42.552509
30
0.0
40
0.500000
50
90.000000
51
180.000000
0
LINE
8
0
10
-5.347879
20
42.552509
30
0.0
11
-5.347879
21
-42.947491
31
0.0
0
ARC
8
0
10
-3.347879
20
-42.947491
30
0.0
40
2.000000
50
180.000000
51
270.000000
0
LINE
8
0
10
-3.347879
20
-44.947491
30
0.0
11
-2.347879
21
-44.947491
31
0.0
0
ARC
8
0
10
-2.347879
20
-44.447491
30
0.0
40
0.500000
50
270.000000
51
0.000000
0
LINE
8
0
10
-1.847879
20
-44.447491
30
0.0
11
-1.847879
21
-43.742447
31
0.0
0
LINE
8
0
10
-1.847879
20
-43.742447
30
0.0
11
-2.347879
21
-42.447491
31
0.0
0
LINE
8
0
10
-2.347879
20
-42.447491
30
0.0
11
-2.847879
21
-42.447491
31
0.0
0
LINE
8
0
10
-2.847879
20
-42.447491
30
0.0
11
-2.847879
21
-43.747491
31
0.0
0
LINE
8
0
10
-2.847879
20
-43.747491
30
0.0
11
-4.147879
21
-43.747491
31
0.0
0
LINE
8
0
10
-4.147879
20
-43.747491
30
0.0
11
-4.147879
21
-37.647491
31
0.0
0
LINE
8
0
10
-4.147879
20
-37.647491
30
0.0
11
-2.847879
21
-37.647491
31
0.0
0
LINE
8
0
10
-2.847879
20
-37.647491
30
0.0
11
-2.847879
21
-38.947491
31
0.0
0
LINE
8
0
10
-2.847879
20
-38.947491
30
0.0
11
-2.347879
21
-38.947491
31
0.0
0
LINE
8
0
10
-2.347879
20
-38.947491
30
0.0
11
-1.847879
21
-37.652536
31
0.0
0
LINE
8
0
10
-1.847879
20
-37.652536
30
0.0
11
-1.847879
21
-36.947491
31
0.0
0
ARC
8
0
10
-2.347879
20
-36.947491
30
0.0
40
0.500000
50
0.000000
51
90.000000
0
LINE
8
0
10
-2.347879
20
-36.447491
30
0.0
11
-3.847879
21
-36.447491
31
0.0
0
LINE
8
0
10
-3.847879
20
-36.447491
30
0.0
11
-3.847879
21
41.052509
31
0.0
0
ARC
8
0
10
-3.347879
20
41.052509
30
0.0
40
0.500000
50
90.000000
51
180.000000
0
LINE
8
0
10
-3.347879
20
41.552509
30
0.0
11
0.252121
21
41.552509
31
0.0
0
ARC
8
0
10
0.252121
20
42.052509
30
0.0
40
0.500000
50
270.000000
51
0.000000
0
LINE
8
0
10
0.752121
20
42.052509
30
0.0
11
0.752121
21
45.552509
31
0.0
0
ARC
8
0
10
1.252121
20
45.552509
30
0.0
40
0.500000
50
90.000000
51
180.000000
0
LINE
8
0
10
1.252121
20
46.052509
30
0.0
11
4.452121
21
46.052509
31
0.0
0
LINE
8
0
10
4.452121
20
46.052509
30
0.0
11
4.952121
21
46.552509
31
0.0
0
LINE
8
0
10
4.952121
20
46.552509
30
0.0
11
5.452121
21
46.052509
31
0.0
0
LINE
8
0
10
5.452121
20
46.052509
30
0.0
11
9.152121
21
46.052509
31
0.0
0
ARC
8
0
10
9.152121
20
46.552509
30
0.0
40
0.500000
50
270.000000
51
0.000000
0
LINE
8
0
10
9.652121
20
46.552509
30
0.0
11
9.652121
21
47.552509
31
0.0
0
ARC
8
0
10
9.152121
20
47.552509
30
0.0
40
0.500000
50
0.000000
51
90.000000
0
LINE
8
0
10
9.152121
20
48.052509
30
0.0
11
7.652121
21
48.052509
31
0.0
0
ARC
8
0
10
7.152121
20
48.052509
30
0.0
40
0.500000
50
270.000000
51
0.000000
0
LINE
8
0
10
7.152121
20
47.552509
30
0.0
11
2.752121
21
47.552509
31
0.0
0
ARC
8
0
10
2.752121
20
48.052509
30
0.0
40
0.500000
50
180.000000
51
270.000000
0
LINE
8
0
10
2.252121
20
48.052509
30
0.0
11
-0.247879
21
48.052509
31
0.0
0
ARC
8
0
10
-0.247879
20
47.552509
30
0.0
40
0.500000
50
90.000000
51
180.000000
0
LINE
8
0
10
-0.747879
20
47.552509
30
0.0
11
-0.747879
21
43.052509
31
0.0
0
LINE
8
0
10
-0.747879
20
43.052509
30
0.0
11
-4.847879
21
43.052509
31
0.0
0
ATTDEF
8
0
10
0.000000
20
0.000000
30
0.0
40
3.5
1

3

2
PANE_WIDTH:0
70
0
0
ATTDEF
8
0
10
0.000000
20
0.000000
30
0.0
40
3.5
1

3

2
MIN_VETRO:0
70
0
0
ATTDEF
8
0
10
0.000000
20
0.000000
30
0.0
40
3.5
1

3

2
MAX_VETRO:0
70
0
0
ATTDEF
8
0
10
0.000000
20
0.000000
30
0.0
40
3.5
1

3

2
JX:0
70
0
0
ATTDEF
8
0
10
0.000000
20
0.000000
30
0.0
40
3.5
1

3

2
WX:0
70
0
0
ATTDEF
8
0
10
0.000000
20
0.000000
30
0.0
40
3.5
1

3

2
JY:0
70
0
0
ATTDEF
8
0
10
0.000000
20
0.000000
30
0.0
40
3.5
1

3

2
WY:0
70
0
0
ATTDEF
8
0
10
0.000000
20
0.000000
30
0.0
40
3.5
1

3

2
DESC:Solape recto 88mm
70
0
0
ATTDEF
8
0
10
0.000000
20
0.000000
30
0.0
40
3.5
1

3

2
DENS:0.4455
70
0
0
ATTDEF
8
0
10
0.000000
20
0.000000
30
0.0
40
3.5
1

3

2
TDEV:22.72
70
0
0
ATTDEF
8
0
10
0.000000
20
0.000000
30
0.0
40
3.5
1

3

2
TDEV2:0
70
0
0
ATTDEF
8
0
10
0.000000
20
0.000000
30
0.0
40
3.5
1

3

2
TDEV3:0
70
0
0
ATTDEF
8
0
10
0.000000
20
0.000000
30
0.0
40
3.5
1

3

2
TDEV4:0
70
0
0
ATTDEF
8
0
10
0.000000
20
0.000000
30
0.0
40
3.5
1

3

2
TDEV5:0
70
0
0
ATTDEF
8
0
10
0.000000
20
0.000000
30
0.0
40
3.5
1

3

2
PANE_WIDTH:0
70
0
0
ATTDEF
8
0
10
0.000000
20
0.000000
30
0.0
40
3.5
1

3

2
MIN_VETRO:0
70
0
0
ATTDEF
8
0
10
0.000000
20
0.000000
30
0.0
40
3.5
1

3

2
MAX_VETRO:0
70
0
0
ATTDEF
8
0
10
0.000000
20
0.000000
30
0.0
40
3.5
1

3

2
JX:0
70
0
0
ATTDEF
8
0
10
0.000000
20
0.000000
30
0.0
40
3.5
1

3

2
WX:0
70
0
0
ATTDEF
8
0
10
0.000000
20
0.000000
30
0.0
40
3.5
1

3

2
JY:0
70
0
0
ATTDEF
8
0
10
0.000000
20
0.000000
30
0.0
40
3.5
1

3

2
WY:0
70
0
0
ENDSEC
0
EOF
