0
SECTION
2
ENTITIES
0
LINE
8
0
10
6624.094380
20
135.305650
30
0.0
11
6625.494380
21
135.305650
31
0.0
0
LINE
8
0
10
6625.494380
20
135.305650
30
0.0
11
6625.494380
21
142.705650
31
0.0
0
LINE
8
0
10
6625.494380
20
142.705650
30
0.0
11
6624.094380
21
142.705650
31
0.0
0
LINE
8
0
10
6624.094380
20
142.705650
30
0.0
11
6624.094380
21
141.405650
31
0.0
0
ARC
8
0
10
6623.594380
20
141.405650
30
0.0
40
0.500000
50
270.000000
51
0.000000
0
LINE
8
0
10
6623.594380
20
140.905650
30
0.0
11
6623.294380
21
140.905650
31
0.0
0
ARC
8
0
10
6623.294380
20
141.405650
30
0.0
40
0.500000
50
180.000000
51
270.000000
0
LINE
8
0
10
6622.794380
20
141.405650
30
0.0
11
6622.794380
21
143.505650
31
0.0
0
ARC
8
0
10
6623.294380
20
143.505650
30
0.0
40
0.500000
50
90.000000
51
180.000000
0
LINE
8
0
10
6623.294380
20
144.005650
30
0.0
11
6627.594380
21
144.005650
31
0.0
0
ARC
8
0
10
6627.594380
20
136.005650
30
0.0
40
8.000000
50
0.000000
51
90.000000
0
LINE
8
0
10
6635.594380
20
136.005650
30
0.0
11
6635.594380
21
107.855650
31
0.0
0
ARC
8
0
10
6634.944380
20
107.855650
30
0.0
40
0.650000
50
180.000000
51
0.000000
0
LINE
8
0
10
6634.294380
20
107.855650
30
0.0
11
6634.294380
21
136.005650
31
0.0
0
ARC
8
0
10
6627.594380
20
136.005650
30
0.0
40
6.700000
50
0.000000
51
90.000000
0
LINE
8
0
10
6627.594380
20
142.705650
30
0.0
11
6626.794380
21
142.705650
31
0.0
0
LINE
8
0
10
6626.794380
20
142.705650
30
0.0
11
6626.794380
21
134.005650
31
0.0
0
LINE
8
0
10
6626.794380
20
134.005650
30
0.0
11
6624.094380
21
134.005650
31
0.0
0
LINE
8
0
10
6624.094380
20
134.005650
30
0.0
11
6624.094380
21
119.005650
31
0.0
0
LINE
8
0
10
6624.094380
20
119.005650
30
0.0
11
6604.494380
21
119.005650
31
0.0
0
LINE
8
0
10
6604.494380
20
119.005650
30
0.0
11
6604.494380
21
134.005650
31
0.0
0
LINE
8
0
10
6604.494380
20
134.005650
30
0.0
11
6601.794380
21
134.005650
31
0.0
0
LINE
8
0
10
6601.794380
20
134.005650
30
0.0
11
6601.794380
21
142.705650
31
0.0
0
LINE
8
0
10
6601.794380
20
142.705650
30
0.0
11
6591.894380
21
142.705650
31
0.0
0
LINE
8
0
10
6591.894380
20
142.705650
30
0.0
11
6591.894380
21
117.150280
31
0.0
0
LINE
8
0
10
6591.894380
20
117.150280
30
0.0
11
6594.007471
21
115.037188
31
0.0
0
LINE
8
0
10
6594.007471
20
115.037188
30
0.0
11
6591.894380
21
110.505650
31
0.0
0
LINE
8
0
10
6591.894380
20
110.505650
30
0.0
11
6591.894380
21
107.205650
31
0.0
0
LINE
8
0
10
6591.894380
20
107.205650
30
0.0
11
6587.894380
21
107.205650
31
0.0
0
LINE
8
0
10
6587.894380
20
107.205650
30
0.0
11
6587.894380
21
108.505650
31
0.0
0
LINE
8
0
10
6587.894380
20
108.505650
30
0.0
11
6590.594380
21
108.505650
31
0.0
0
LINE
8
0
10
6590.594380
20
108.505650
30
0.0
11
6590.594380
21
110.793853
31
0.0
0
LINE
8
0
10
6590.594380
20
110.793853
30
0.0
11
6592.444575
21
114.761608
31
0.0
0
LINE
8
0
10
6592.444575
20
114.761608
30
0.0
11
6590.594380
21
116.611802
31
0.0
0
LINE
8
0
10
6590.594380
20
116.611802
30
0.0
11
6590.594380
21
143.505650
31
0.0
0
ARC
8
0
10
6591.094380
20
143.505650
30
0.0
40
0.500000
50
90.000000
51
180.000000
0
LINE
8
0
10
6591.094380
20
144.005650
30
0.0
11
6605.294380
21
144.005650
31
0.0
0
ARC
8
0
10
6605.294380
20
143.505650
30
0.0
40
0.500000
50
0.000000
51
90.000000
0
LINE
8
0
10
6605.794380
20
143.505650
30
0.0
11
6605.794380
21
141.405650
31
0.0
0
ARC
8
0
10
6605.294380
20
141.405650
30
0.0
40
0.500000
50
270.000000
51
0.000000
0
LINE
8
0
10
6605.294380
20
140.905650
30
0.0
11
6604.994380
21
140.905650
31
0.0
0
ARC
8
0
10
6604.994380
20
141.405650
30
0.0
40
0.500000
50
180.000000
51
270.000000
0
LINE
8
0
10
6604.494380
20
141.405650
30
0.0
11
6604.494380
21
142.705650
31
0.0
0
LINE
8
0
10
6604.494380
20
142.705650
30
0.0
11
6603.094380
21
142.705650
31
0.0
0
LINE
8
0
10
6603.094380
20
142.705650
30
0.0
11
6603.094380
21
135.305650
31
0.0
0
LINE
8
0
10
6603.094380
20
135.305650
30
0.0
11
6604.494380
21
135.305650
31
0.0
0
LINE
8
0
10
6604.494380
20
135.305650
30
0.0
11
6604.494380
21
136.605650
31
0.0
0
ARC
8
0
10
6604.994380
20
136.605650
30
0.0
40
0.500000
50
90.000000
51
180.000000
0
LINE
8
0
10
6604.994380
20
137.105650
30
0.0
11
6605.294380
21
137.105650
31
0.0
0
ARC
8
0
10
6605.294380
20
136.605650
30
0.0
40
0.500000
50
0.000000
51
90.000000
0
LINE
8
0
10
6605.794380
20
136.605650
30
0.0
11
6605.794380
21
120.305650
31
0.0
0
LINE
8
0
10
6605.794380
20
120.305650
30
0.0
11
6622.794380
21
120.305650
31
0.0
0
LINE
8
0
10
6622.794380
20
120.305650
30
0.0
11
6622.794380
21
136.605650
31
0.0
0
ARC
8
0
10
6623.294380
20
136.605650
30
0.0
40
0.500000
50
90.000000
51
180.000000
0
LINE
8
0
10
6623.294380
20
137.105650
30
0.0
11
6623.594380
21
137.105650
31
0.0
0
ARC
8
0
10
6623.594380
20
136.605650
30
0.0
40
0.500000
50
0.000000
51
90.000000
0
LINE
8
0
10
6624.094380
20
136.605650
30
0.0
11
6624.094380
21
135.305650
31
0.0
0
ATTDEF
8
0
10
0.000000
20
0.000000
30
0.0
40
3.5
1

3

2
PANE_WIDTH:0
70
0
0
ATTDEF
8
0
10
0.000000
20
0.000000
30
0.0
40
3.5
1

3

2
MIN_VETRO:0
70
0
0
ATTDEF
8
0
10
0.000000
20
0.000000
30
0.0
40
3.5
1

3

2
MAX_VETRO:0
70
0
0
ATTDEF
8
0
10
0.000000
20
0.000000
30
0.0
40
3.5
1

3

2
JX:0
70
0
0
ATTDEF
8
0
10
0.000000
20
0.000000
30
0.0
40
3.5
1

3

2
WX:0
70
0
0
ATTDEF
8
0
10
0.000000
20
0.000000
30
0.0
40
3.5
1

3

2
JY:0
70
0
0
ATTDEF
8
0
10
0.000000
20
0.000000
30
0.0
40
3.5
1

3

2
WY:0
70
0
0
ATTDEF
8
0
10
0.000000
20
0.000000
30
0.0
40
3.5
1

3

2
DESC:N/F
70
0
0
ATTDEF
8
0
10
0.000000
20
0.000000
30
0.0
40
3.5
1

3

2
DENS:0
70
0
0
ATTDEF
8
0
10
0.000000
20
0.000000
30
0.0
40
3.5
1

3

2
TDEV:0
70
0
0
ATTDEF
8
0
10
0.000000
20
0.000000
30
0.0
40
3.5
1

3

2
TDEV2:0
70
0
0
ATTDEF
8
0
10
0.000000
20
0.000000
30
0.0
40
3.5
1

3

2
TDEV3:0
70
0
0
ATTDEF
8
0
10
0.000000
20
0.000000
30
0.0
40
3.5
1

3

2
TDEV4:0
70
0
0
ATTDEF
8
0
10
0.000000
20
0.000000
30
0.0
40
3.5
1

3

2
TDEV5:0
70
0
0
ATTDEF
8
0
10
0.000000
20
0.000000
30
0.0
40
3.5
1

3

2
PANE_WIDTH:0
70
0
0
ATTDEF
8
0
10
0.000000
20
0.000000
30
0.0
40
3.5
1

3

2
MIN_VETRO:0
70
0
0
ATTDEF
8
0
10
0.000000
20
0.000000
30
0.0
40
3.5
1

3

2
MAX_VETRO:0
70
0
0
ATTDEF
8
0
10
0.000000
20
0.000000
30
0.0
40
3.5
1

3

2
JX:0
70
0
0
ATTDEF
8
0
10
0.000000
20
0.000000
30
0.0
40
3.5
1

3

2
WX:0
70
0
0
ATTDEF
8
0
10
0.000000
20
0.000000
30
0.0
40
3.5
1

3

2
JY:0
70
0
0
ATTDEF
8
0
10
0.000000
20
0.000000
30
0.0
40
3.5
1

3

2
WY:0
70
0
0
ENDSEC
0
EOF
