0
SECTION
2
ENTITIES
0
LINE
8
0
10
760.638400
20
374.168694
30
0.0
11
765.088400
21
374.168694
31
0.0
0
ARC
8
0
10
765.088400
20
373.868694
30
0.0
40
0.300000
50
0.000000
51
90.000000
0
LINE
8
0
10
765.388400
20
373.868694
30
0.0
11
765.388400
21
373.168694
31
0.0
0
ARC
8
0
10
765.088400
20
373.168694
30
0.0
40
0.300000
50
270.000000
51
0.000000
0
LINE
8
0
10
765.088400
20
372.868694
30
0.0
11
764.538400
21
372.868694
31
0.0
0
LINE
8
0
10
764.538400
20
372.868694
30
0.0
11
764.538400
21
370.177539
31
0.0
0
LINE
8
0
10
764.538400
20
370.177539
30
0.0
11
763.898208
21
369.068694
31
0.0
0
ARC
8
0
10
763.638400
20
369.218694
30
0.0
40
0.300000
50
180.000000
51
330.000000
0
LINE
8
0
10
763.338400
20
369.218694
30
0.0
11
763.338400
21
370.718694
31
0.0
0
LINE
8
0
10
763.338400
20
370.718694
30
0.0
11
762.638400
21
370.718694
31
0.0
0
ARC
8
0
10
762.638400
20
371.018694
30
0.0
40
0.300000
50
117.359369
51
270.000000
0
LINE
8
0
10
762.500529
20
371.285136
30
0.0
11
763.338400
21
371.718694
31
0.0
0
LINE
8
0
10
763.338400
20
371.718694
30
0.0
11
763.338400
21
372.568694
31
0.0
0
ARC
8
0
10
763.038400
20
372.568694
30
0.0
40
0.300000
50
0.000000
51
90.000000
0
LINE
8
0
10
763.038400
20
372.868694
30
0.0
11
761.438400
21
372.868694
31
0.0
0
ARC
8
0
10
761.438400
20
372.368694
30
0.0
40
0.500000
50
90.000000
51
180.000000
0
LINE
8
0
10
760.938400
20
372.368694
30
0.0
11
760.938400
21
347.618694
31
0.0
0
LINE
8
0
10
760.938400
20
347.618694
30
0.0
11
763.338400
21
347.618694
31
0.0
0
LINE
8
0
10
763.338400
20
347.618694
30
0.0
11
763.338400
21
349.118694
31
0.0
0
ARC
8
0
10
763.638400
20
349.118694
30
0.0
40
0.300000
50
30.000000
51
180.000000
0
LINE
8
0
10
763.898208
20
349.268694
30
0.0
11
764.538400
21
348.159848
31
0.0
0
LINE
8
0
10
764.538400
20
348.159848
30
0.0
11
764.538400
21
346.868694
31
0.0
0
ARC
8
0
10
764.038400
20
346.868694
30
0.0
40
0.500000
50
270.000000
51
0.000000
0
LINE
8
0
10
764.038400
20
346.368694
30
0.0
11
760.938400
21
346.368694
31
0.0
0
LINE
8
0
10
760.938400
20
346.368694
30
0.0
11
760.938400
21
326.867597
31
0.0
0
LINE
8
0
10
760.938400
20
326.867597
30
0.0
11
762.438400
21
326.867597
31
0.0
0
ARC
8
0
10
762.438400
20
326.367597
30
0.0
40
0.500000
50
0.000000
51
90.000000
0
LINE
8
0
10
762.938400
20
326.367597
30
0.0
11
762.938400
21
324.667597
31
0.0
0
LINE
8
0
10
762.938400
20
324.667597
30
0.0
11
762.206350
21
324.667597
31
0.0
0
LINE
8
0
10
762.206350
20
324.667597
30
0.0
11
762.161957
21
324.833271
31
0.0
0
LINE
8
0
10
762.161957
20
324.833271
30
0.0
11
761.917008
21
324.974693
31
0.0
0
LINE
8
0
10
761.917008
20
324.974693
30
0.0
11
762.058430
21
325.219642
31
0.0
0
LINE
8
0
10
762.058430
20
325.219642
30
0.0
11
761.938400
21
325.667597
31
0.0
0
LINE
8
0
10
761.938400
20
325.667597
30
0.0
11
760.938400
21
325.667597
31
0.0
0
LINE
8
0
10
760.938400
20
325.667597
30
0.0
11
760.938400
21
310.667597
31
0.0
0
LINE
8
0
10
760.938400
20
310.667597
30
0.0
11
761.938400
21
310.667597
31
0.0
0
LINE
8
0
10
761.938400
20
310.667597
30
0.0
11
762.058430
21
311.115552
31
0.0
0
LINE
8
0
10
762.058430
20
311.115552
30
0.0
11
761.917008
21
311.360501
31
0.0
0
LINE
8
0
10
761.917008
20
311.360501
30
0.0
11
762.161957
21
311.501923
31
0.0
0
LINE
8
0
10
762.161957
20
311.501923
30
0.0
11
762.206350
21
311.667597
31
0.0
0
LINE
8
0
10
762.206350
20
311.667597
30
0.0
11
762.938400
21
311.667597
31
0.0
0
LINE
8
0
10
762.938400
20
311.667597
30
0.0
11
762.938400
21
310.268694
31
0.0
0
LINE
8
0
10
762.938400
20
310.268694
30
0.0
11
765.088400
21
310.268694
31
0.0
0
ARC
8
0
10
765.088400
20
309.968694
30
0.0
40
0.300000
50
0.000000
51
90.000000
0
LINE
8
0
10
765.388400
20
309.968694
30
0.0
11
765.388400
21
309.468694
31
0.0
0
ARC
8
0
10
765.088400
20
309.468694
30
0.0
40
0.300000
50
270.000000
51
0.000000
0
LINE
8
0
10
765.088400
20
309.168694
30
0.0
11
760.638400
21
309.168694
31
0.0
0
ARC
8
0
10
760.638400
20
310.168694
30
0.0
40
1.000000
50
180.000000
51
270.000000
0
LINE
8
0
10
759.638400
20
310.168694
30
0.0
11
759.638400
21
373.168694
31
0.0
0
ARC
8
0
10
760.638400
20
373.168694
30
0.0
40
1.000000
50
90.000000
51
180.000000
0
ATTDEF
8
0
10
0.000000
20
0.000000
30
0.0
40
3.5
1

3

2
PANE_WIDTH:0
70
0
0
ATTDEF
8
0
10
0.000000
20
0.000000
30
0.0
40
3.5
1

3

2
MIN_VETRO:0
70
0
0
ATTDEF
8
0
10
0.000000
20
0.000000
30
0.0
40
3.5
1

3

2
MAX_VETRO:0
70
0
0
ATTDEF
8
0
10
0.000000
20
0.000000
30
0.0
40
3.5
1

3

2
JX:0
70
0
0
ATTDEF
8
0
10
0.000000
20
0.000000
30
0.0
40
3.5
1

3

2
WX:0
70
0
0
ATTDEF
8
0
10
0.000000
20
0.000000
30
0.0
40
3.5
1

3

2
JY:0
70
0
0
ATTDEF
8
0
10
0.000000
20
0.000000
30
0.0
40
3.5
1

3

2
WY:0
70
0
0
ATTDEF
8
0
10
0.000000
20
0.000000
30
0.0
40
3.5
1

3

2
DESC:Solape recto de 65mm.
70
0
0
ATTDEF
8
0
10
0.000000
20
0.000000
30
0.0
40
3.5
1

3

2
DENS:0.2997
70
0
0
ATTDEF
8
0
10
0.000000
20
0.000000
30
0.0
40
3.5
1

3

2
TDEV:17.49
70
0
0
ATTDEF
8
0
10
0.000000
20
0.000000
30
0.0
40
3.5
1

3

2
TDEV2:0
70
0
0
ATTDEF
8
0
10
0.000000
20
0.000000
30
0.0
40
3.5
1

3

2
TDEV3:0
70
0
0
ATTDEF
8
0
10
0.000000
20
0.000000
30
0.0
40
3.5
1

3

2
TDEV4:0
70
0
0
ATTDEF
8
0
10
0.000000
20
0.000000
30
0.0
40
3.5
1

3

2
TDEV5:0
70
0
0
ATTDEF
8
0
10
0.000000
20
0.000000
30
0.0
40
3.5
1

3

2
PANE_WIDTH:0
70
0
0
ATTDEF
8
0
10
0.000000
20
0.000000
30
0.0
40
3.5
1

3

2
MIN_VETRO:0
70
0
0
ATTDEF
8
0
10
0.000000
20
0.000000
30
0.0
40
3.5
1

3

2
MAX_VETRO:0
70
0
0
ATTDEF
8
0
10
0.000000
20
0.000000
30
0.0
40
3.5
1

3

2
JX:0
70
0
0
ATTDEF
8
0
10
0.000000
20
0.000000
30
0.0
40
3.5
1

3

2
WX:0
70
0
0
ATTDEF
8
0
10
0.000000
20
0.000000
30
0.0
40
3.5
1

3

2
JY:0
70
0
0
ATTDEF
8
0
10
0.000000
20
0.000000
30
0.0
40
3.5
1

3

2
WY:0
70
0
0
ENDSEC
0
EOF
