0
SECTION
2
ENTITIES
0
LINE
8
0
10
6243.786192
20
-385.581728
30
0.0
11
6243.286192
21
-385.581728
31
0.0
0
ARC
8
0
10
6243.286192
20
-385.081728
30
0.0
40
0.500000
50
179.999957
51
270.000043
0
LINE
8
0
10
6242.786192
20
-385.081728
30
0.0
11
6242.786192
21
-378.481728
31
0.0
0
ARC
8
0
10
6243.286192
20
-378.481727
30
0.0
40
0.500000
50
89.999957
51
180.000043
0
LINE
8
0
10
6243.286192
20
-377.981728
30
0.0
11
6243.786192
21
-377.981728
31
0.0
0
ARC
8
0
10
6243.786193
20
-378.481727
30
0.0
40
0.500000
50
359.999957
51
90.000043
0
LINE
8
0
10
6244.286192
20
-378.481728
30
0.0
11
6244.286192
21
-379.081728
31
0.0
0
ARC
8
0
10
6244.786192
20
-379.081728
30
0.0
40
0.500000
50
179.999957
51
270.000043
0
LINE
8
0
10
6244.786192
20
-379.581728
30
0.0
11
6244.986192
21
-379.581728
31
0.0
0
ARC
8
0
10
6244.986193
20
-379.081728
30
0.0
40
0.500000
50
269.999957
51
0.000043
0
LINE
8
0
10
6245.486192
20
-379.081728
30
0.0
11
6245.486192
21
-377.281728
31
0.0
0
ARC
8
0
10
6244.986193
20
-377.281727
30
0.0
40
0.500000
50
359.999957
51
90.000043
0
LINE
8
0
10
6244.986192
20
-376.781728
30
0.0
11
6242.086192
21
-376.781728
31
0.0
0
ARC
8
0
10
6242.086192
20
-377.281727
30
0.0
40
0.500000
50
89.999957
51
180.000043
0
LINE
8
0
10
6241.586192
20
-377.281728
30
0.0
11
6241.586192
21
-388.081728
31
0.0
0
ARC
8
0
10
6241.286192
20
-388.081728
30
0.0
40
0.300000
50
270.000000
51
0.000000
0
LINE
8
0
10
6241.286192
20
-388.381728
30
0.0
11
6145.682855
21
-388.381728
31
0.0
0
ARC
8
0
10
6145.682855
20
-388.681728
30
0.0
40
0.300000
50
90.000000
51
180.000000
0
LINE
8
0
10
6145.382855
20
-388.681728
30
0.0
11
6145.382855
21
-417.781728
31
0.0
0
LINE
8
0
10
6145.382855
20
-417.781728
30
0.0
11
6146.782855
21
-417.781728
31
0.0
0
LINE
8
0
10
6146.782855
20
-417.781728
30
0.0
11
6146.782855
21
-389.781728
31
0.0
0
LINE
8
0
10
6146.782855
20
-389.781728
30
0.0
11
6153.557952
21
-389.781728
31
0.0
0
ARC
8
0
10
6153.557952
20
-390.081728
30
0.0
40
0.300000
50
333.612200
51
90.000000
0
ARC
8
0
10
6156.782855
20
-391.681728
30
0.0
40
3.300000
50
153.612200
51
224.381502
0
ARC
8
0
10
6154.924639
20
-393.500252
30
0.0
40
0.700000
50
224.381502
51
44.381502
0
ARC
8
0
10
6156.782855
20
-391.681728
30
0.0
40
1.900000
50
315.618498
51
224.381502
0
ARC
8
0
10
6158.641072
20
-393.500252
30
0.0
40
0.700000
50
135.618498
51
315.618498
0
ARC
8
0
10
6156.782855
20
-391.681728
30
0.0
40
3.300000
50
315.618498
51
26.387800
0
ARC
8
0
10
6160.007759
20
-390.081728
30
0.0
40
0.300000
50
90.000000
51
206.387800
0
LINE
8
0
10
6160.007759
20
-389.781728
30
0.0
11
6236.461289
21
-389.781728
31
0.0
0
ARC
8
0
10
6236.461289
20
-390.081728
30
0.0
40
0.300000
50
333.612200
51
90.000000
0
ARC
8
0
10
6239.686192
20
-391.681728
30
0.0
40
3.300000
50
153.612200
51
179.381502
0
ARC
8
0
10
6237.086344
20
-391.653662
30
0.0
40
0.700000
50
179.381502
51
359.381502
0
ARC
8
0
10
6239.686192
20
-391.681728
30
0.0
40
1.900000
50
270.618498
51
179.381502
0
ARC
8
0
10
6239.714258
20
-394.281576
30
0.0
40
0.700000
50
90.618498
51
270.618498
0
ARC
8
0
10
6239.686192
20
-391.681728
30
0.0
40
3.300000
50
270.618498
51
296.387800
0
ARC
8
0
10
6241.286192
20
-394.906631
30
0.0
40
0.300000
50
0.000000
51
116.387800
0
LINE
8
0
10
6241.586192
20
-394.906631
30
0.0
11
6241.586192
21
-429.281728
31
0.0
0
ARC
8
0
10
6242.086192
20
-429.281728
30
0.0
40
0.500000
50
179.999957
51
270.000043
0
LINE
8
0
10
6242.086192
20
-429.781728
30
0.0
11
6262.686192
21
-429.781728
31
0.0
0
ARC
8
0
10
6262.686193
20
-429.281728
30
0.0
40
0.500000
50
269.999957
51
0.000043
0
LINE
8
0
10
6263.186192
20
-429.281728
30
0.0
11
6263.186192
21
-377.281728
31
0.0
0
ARC
8
0
10
6262.686193
20
-377.281727
30
0.0
40
0.500000
50
359.999957
51
90.000043
0
LINE
8
0
10
6262.686192
20
-376.781728
30
0.0
11
6259.786192
21
-376.781728
31
0.0
0
ARC
8
0
10
6259.786192
20
-377.281727
30
0.0
40
0.500000
50
89.999957
51
180.000043
0
LINE
8
0
10
6259.286192
20
-377.281728
30
0.0
11
6259.286192
21
-379.081728
31
0.0
0
ARC
8
0
10
6259.786192
20
-379.081728
30
0.0
40
0.500000
50
179.999957
51
270.000043
0
LINE
8
0
10
6259.786192
20
-379.581728
30
0.0
11
6259.986192
21
-379.581728
31
0.0
0
ARC
8
0
10
6259.986193
20
-379.081728
30
0.0
40
0.500000
50
269.999957
51
0.000043
0
LINE
8
0
10
6260.486192
20
-379.081728
30
0.0
11
6260.486192
21
-378.481728
31
0.0
0
ARC
8
0
10
6260.986192
20
-378.481727
30
0.0
40
0.500000
50
89.999957
51
180.000043
0
LINE
8
0
10
6260.986192
20
-377.981728
30
0.0
11
6261.486192
21
-377.981728
31
0.0
0
ARC
8
0
10
6261.486193
20
-378.481727
30
0.0
40
0.500000
50
359.999957
51
90.000043
0
LINE
8
0
10
6261.986192
20
-378.481728
30
0.0
11
6261.986192
21
-385.081728
31
0.0
0
ARC
8
0
10
6261.486193
20
-385.081728
30
0.0
40
0.500000
50
269.999957
51
0.000043
0
LINE
8
0
10
6261.486192
20
-385.581728
30
0.0
11
6260.986192
21
-385.581728
31
0.0
0
ARC
8
0
10
6260.986192
20
-385.081728
30
0.0
40
0.500000
50
179.999957
51
270.000043
0
LINE
8
0
10
6260.486192
20
-385.081728
30
0.0
11
6260.486192
21
-384.481728
31
0.0
0
ARC
8
0
10
6259.986193
20
-384.481727
30
0.0
40
0.500000
50
359.999957
51
90.000043
0
LINE
8
0
10
6259.986192
20
-383.981728
30
0.0
11
6259.786192
21
-383.981728
31
0.0
0
ARC
8
0
10
6259.786192
20
-384.481727
30
0.0
40
0.500000
50
89.999957
51
180.000043
0
LINE
8
0
10
6259.286192
20
-384.481728
30
0.0
11
6259.286192
21
-386.281728
31
0.0
0
ARC
8
0
10
6259.786192
20
-386.281728
30
0.0
40
0.500000
50
179.999957
51
270.000043
0
LINE
8
0
10
6259.786192
20
-386.781728
30
0.0
11
6261.936192
21
-386.781728
31
0.0
0
LINE
8
0
10
6261.936192
20
-386.781728
30
0.0
11
6261.936192
21
-399.781728
31
0.0
0
ARC
8
0
10
6258.936195
20
-399.781730
30
0.0
40
2.999998
50
269.999957
51
0.000043
0
LINE
8
0
10
6258.936192
20
-402.781728
30
0.0
11
6245.836192
21
-402.781728
31
0.0
0
ARC
8
0
10
6245.836190
20
-399.781730
30
0.0
40
2.999998
50
179.999957
51
270.000043
0
LINE
8
0
10
6242.836192
20
-399.781728
30
0.0
11
6242.836192
21
-386.781728
31
0.0
0
LINE
8
0
10
6242.836192
20
-386.781728
30
0.0
11
6244.986192
21
-386.781728
31
0.0
0
ARC
8
0
10
6244.986193
20
-386.281728
30
0.0
40
0.500000
50
269.999957
51
0.000043
0
LINE
8
0
10
6245.486192
20
-386.281728
30
0.0
11
6245.486192
21
-384.481728
31
0.0
0
ARC
8
0
10
6244.986193
20
-384.481727
30
0.0
40
0.500000
50
359.999957
51
90.000043
0
LINE
8
0
10
6244.986192
20
-383.981728
30
0.0
11
6244.786192
21
-383.981728
31
0.0
0
ARC
8
0
10
6244.786192
20
-384.481727
30
0.0
40
0.500000
50
89.999957
51
180.000043
0
LINE
8
0
10
6244.286192
20
-384.481728
30
0.0
11
6244.286192
21
-385.081728
31
0.0
0
ARC
8
0
10
6243.786193
20
-385.081728
30
0.0
40
0.500000
50
269.999957
51
0.000043
0
LINE
8
0
10
6242.836192
20
-428.531728
30
0.0
11
6242.836192
21
-426.031728
31
0.0
0
LINE
8
0
10
6242.836192
20
-426.031728
30
0.0
11
6243.336192
21
-426.031728
31
0.0
0
ARC
8
0
10
6243.336192
20
-425.281728
30
0.0
40
0.750000
50
270.000000
51
90.000000
0
LINE
8
0
10
6243.336192
20
-424.531728
30
0.0
11
6242.836192
21
-424.531728
31
0.0
0
LINE
8
0
10
6242.836192
20
-424.531728
30
0.0
11
6242.836192
21
-417.031728
31
0.0
0
LINE
8
0
10
6242.836192
20
-417.031728
30
0.0
11
6243.336192
21
-417.031728
31
0.0
0
ARC
8
0
10
6243.336192
20
-416.281728
30
0.0
40
0.750000
50
270.000000
51
90.000000
0
LINE
8
0
10
6243.336192
20
-415.531728
30
0.0
11
6242.836192
21
-415.531728
31
0.0
0
LINE
8
0
10
6242.836192
20
-415.531728
30
0.0
11
6242.836192
21
-408.031728
31
0.0
0
LINE
8
0
10
6242.836192
20
-408.031728
30
0.0
11
6243.336192
21
-408.031728
31
0.0
0
ARC
8
0
10
6243.336192
20
-407.281728
30
0.0
40
0.750000
50
270.000000
51
90.000000
0
LINE
8
0
10
6243.336192
20
-406.531728
30
0.0
11
6242.836192
21
-406.531728
31
0.0
0
LINE
8
0
10
6242.836192
20
-406.531728
30
0.0
11
6242.836192
21
-404.031728
31
0.0
0
LINE
8
0
10
6242.836192
20
-404.031728
30
0.0
11
6261.936192
21
-404.031728
31
0.0
0
LINE
8
0
10
6261.936192
20
-404.031728
30
0.0
11
6261.936192
21
-406.531728
31
0.0
0
LINE
8
0
10
6261.936192
20
-406.531728
30
0.0
11
6261.436192
21
-406.531728
31
0.0
0
ARC
8
0
10
6261.436192
20
-407.281728
30
0.0
40
0.750000
50
90.000000
51
270.000000
0
LINE
8
0
10
6261.436192
20
-408.031728
30
0.0
11
6261.936192
21
-408.031728
31
0.0
0
LINE
8
0
10
6261.936192
20
-408.031728
30
0.0
11
6261.936192
21
-415.531728
31
0.0
0
LINE
8
0
10
6261.936192
20
-415.531728
30
0.0
11
6261.436192
21
-415.531728
31
0.0
0
ARC
8
0
10
6261.436192
20
-416.281728
30
0.0
40
0.750000
50
90.000000
51
270.000000
0
LINE
8
0
10
6261.436192
20
-417.031728
30
0.0
11
6261.936192
21
-417.031728
31
0.0
0
LINE
8
0
10
6261.936192
20
-417.031728
30
0.0
11
6261.936192
21
-424.531728
31
0.0
0
LINE
8
0
10
6261.936192
20
-424.531728
30
0.0
11
6261.436192
21
-424.531728
31
0.0
0
ARC
8
0
10
6261.436192
20
-425.281728
30
0.0
40
0.750000
50
90.000000
51
270.000000
0
LINE
8
0
10
6261.436192
20
-426.031728
30
0.0
11
6261.936192
21
-426.031728
31
0.0
0
LINE
8
0
10
6261.936192
20
-426.031728
30
0.0
11
6261.936192
21
-428.531728
31
0.0
0
LINE
8
0
10
6261.936192
20
-428.531728
30
0.0
11
6242.836192
21
-428.531728
31
0.0
0
ATTDEF
8
0
10
0.000000
20
0.000000
30
0.0
40
3.5
1

3

2
PANE_WIDTH:0
70
0
0
ATTDEF
8
0
10
0.000000
20
0.000000
30
0.0
40
3.5
1

3

2
MIN_VETRO:0
70
0
0
ATTDEF
8
0
10
0.000000
20
0.000000
30
0.0
40
3.5
1

3

2
MAX_VETRO:0
70
0
0
ATTDEF
8
0
10
0.000000
20
0.000000
30
0.0
40
3.5
1

3

2
JX:0
70
0
0
ATTDEF
8
0
10
0.000000
20
0.000000
30
0.0
40
3.5
1

3

2
WX:0
70
0
0
ATTDEF
8
0
10
0.000000
20
0.000000
30
0.0
40
3.5
1

3

2
JY:0
70
0
0
ATTDEF
8
0
10
0.000000
20
0.000000
30
0.0
40
3.5
1

3

2
WY:0
70
0
0
ATTDEF
8
0
10
0.000000
20
0.000000
30
0.0
40
3.5
1

3

2
DESC:Guia 118mm
70
0
0
ATTDEF
8
0
10
0.000000
20
0.000000
30
0.0
40
3.5
1

3

2
DENS:1.1016
70
0
0
ATTDEF
8
0
10
0.000000
20
0.000000
30
0.0
40
3.5
1

3

2
TDEV:59.77
70
0
0
ATTDEF
8
0
10
0.000000
20
0.000000
30
0.0
40
3.5
1

3

2
TDEV2:0
70
0
0
ATTDEF
8
0
10
0.000000
20
0.000000
30
0.0
40
3.5
1

3

2
TDEV3:0
70
0
0
ATTDEF
8
0
10
0.000000
20
0.000000
30
0.0
40
3.5
1

3

2
TDEV4:0
70
0
0
ATTDEF
8
0
10
0.000000
20
0.000000
30
0.0
40
3.5
1

3

2
TDEV5:0
70
0
0
ATTDEF
8
0
10
0.000000
20
0.000000
30
0.0
40
3.5
1

3

2
PANE_WIDTH:0
70
0
0
ATTDEF
8
0
10
0.000000
20
0.000000
30
0.0
40
3.5
1

3

2
MIN_VETRO:0
70
0
0
ATTDEF
8
0
10
0.000000
20
0.000000
30
0.0
40
3.5
1

3

2
MAX_VETRO:0
70
0
0
ATTDEF
8
0
10
0.000000
20
0.000000
30
0.0
40
3.5
1

3

2
JX:0
70
0
0
ATTDEF
8
0
10
0.000000
20
0.000000
30
0.0
40
3.5
1

3

2
WX:0
70
0
0
ATTDEF
8
0
10
0.000000
20
0.000000
30
0.0
40
3.5
1

3

2
JY:0
70
0
0
ATTDEF
8
0
10
0.000000
20
0.000000
30
0.0
40
3.5
1

3

2
WY:0
70
0
0
ENDSEC
0
EOF
