0
SECTION
2
ENTITIES
0
LINE
8
0
10
6031.894311
20
92.305642
30
0.0
11
6050.894311
21
92.305642
31
0.0
0
LINE
8
0
10
6050.894311
20
92.305642
30
0.0
11
6050.894311
21
89.855642
31
0.0
0
LINE
8
0
10
6050.894311
20
89.855642
30
0.0
11
6050.444311
21
89.855642
31
0.0
0
ARC
8
0
10
6050.444311
20
89.105642
30
0.0
40
0.750000
50
90.000000
51
270.000000
0
LINE
8
0
10
6050.444311
20
88.355642
30
0.0
11
6050.894311
21
88.355642
31
0.0
0
LINE
8
0
10
6050.894311
20
88.355642
30
0.0
11
6050.894311
21
80.855642
31
0.0
0
LINE
8
0
10
6050.894311
20
80.855642
30
0.0
11
6050.444311
21
80.855642
31
0.0
0
ARC
8
0
10
6050.444311
20
80.105642
30
0.0
40
0.750000
50
90.000000
51
270.000000
0
LINE
8
0
10
6050.444311
20
79.355642
30
0.0
11
6050.894311
21
79.355642
31
0.0
0
LINE
8
0
10
6050.894311
20
79.355642
30
0.0
11
6050.894311
21
71.855642
31
0.0
0
LINE
8
0
10
6050.894311
20
71.855642
30
0.0
11
6050.444311
21
71.855642
31
0.0
0
ARC
8
0
10
6050.444311
20
71.105642
30
0.0
40
0.750000
50
90.000000
51
270.000000
0
LINE
8
0
10
6050.444311
20
70.355642
30
0.0
11
6050.894311
21
70.355642
31
0.0
0
LINE
8
0
10
6050.894311
20
70.355642
30
0.0
11
6050.894311
21
67.905642
31
0.0
0
LINE
8
0
10
6050.894311
20
67.905642
30
0.0
11
6031.894311
21
67.905642
31
0.0
0
LINE
8
0
10
6031.894311
20
67.905642
30
0.0
11
6031.894311
21
70.355642
31
0.0
0
LINE
8
0
10
6031.894311
20
70.355642
30
0.0
11
6032.344311
21
70.355642
31
0.0
0
ARC
8
0
10
6032.344311
20
71.105642
30
0.0
40
0.750000
50
270.000000
51
90.000000
0
LINE
8
0
10
6032.344311
20
71.855642
30
0.0
11
6031.894311
21
71.855642
31
0.0
0
LINE
8
0
10
6031.894311
20
71.855642
30
0.0
11
6031.894311
21
79.355642
31
0.0
0
LINE
8
0
10
6031.894311
20
79.355642
30
0.0
11
6032.344311
21
79.355642
31
0.0
0
ARC
8
0
10
6032.344311
20
80.105642
30
0.0
40
0.750000
50
270.000000
51
90.000000
0
LINE
8
0
10
6032.344311
20
80.855642
30
0.0
11
6031.894311
21
80.855642
31
0.0
0
LINE
8
0
10
6031.894311
20
80.855642
30
0.0
11
6031.894311
21
88.355642
31
0.0
0
LINE
8
0
10
6031.894311
20
88.355642
30
0.0
11
6032.344311
21
88.355642
31
0.0
0
ARC
8
0
10
6032.344311
20
89.105642
30
0.0
40
0.750000
50
270.000000
51
90.000000
0
LINE
8
0
10
6032.344311
20
89.855642
30
0.0
11
6031.894311
21
89.855642
31
0.0
0
LINE
8
0
10
6031.894311
20
89.855642
30
0.0
11
6031.894311
21
92.305642
31
0.0
0
LINE
8
0
10
5922.994311
20
105.155642
30
0.0
11
5922.994311
21
105.505642
31
0.0
0
ARC
8
0
10
5923.744311
20
105.155642
30
0.0
40
0.750000
50
180.000000
51
0.000000
0
LINE
8
0
10
5924.494311
20
105.505642
30
0.0
11
5924.494311
21
105.155642
31
0.0
0
LINE
8
0
10
5937.994311
20
105.505642
30
0.0
11
5924.494311
21
105.505642
31
0.0
0
LINE
8
0
10
5937.994311
20
105.155642
30
0.0
11
5937.994311
21
105.505642
31
0.0
0
ARC
8
0
10
5938.744311
20
105.155642
30
0.0
40
0.750000
50
180.000000
51
0.000000
0
LINE
8
0
10
5939.494311
20
105.505642
30
0.0
11
5939.494311
21
105.155642
31
0.0
0
LINE
8
0
10
5952.994311
20
105.505642
30
0.0
11
5939.494311
21
105.505642
31
0.0
0
LINE
8
0
10
5952.994311
20
105.155642
30
0.0
11
5952.994311
21
105.505642
31
0.0
0
ARC
8
0
10
5953.744311
20
105.155642
30
0.0
40
0.750000
50
180.000000
51
0.000000
0
LINE
8
0
10
5954.494311
20
105.505642
30
0.0
11
5954.494311
21
105.155642
31
0.0
0
LINE
8
0
10
5967.994311
20
105.505642
30
0.0
11
5954.494311
21
105.505642
31
0.0
0
LINE
8
0
10
5967.994311
20
105.155642
30
0.0
11
5967.994311
21
105.505642
31
0.0
0
ARC
8
0
10
5968.744311
20
105.155642
30
0.0
40
0.750000
50
180.000000
51
0.000000
0
LINE
8
0
10
5969.494311
20
105.505642
30
0.0
11
5969.494311
21
105.155642
31
0.0
0
LINE
8
0
10
5982.994311
20
105.505642
30
0.0
11
5969.494311
21
105.505642
31
0.0
0
LINE
8
0
10
5982.994311
20
105.155642
30
0.0
11
5982.994311
21
105.505642
31
0.0
0
ARC
8
0
10
5983.744311
20
105.155642
30
0.0
40
0.750000
50
180.000000
51
0.000000
0
LINE
8
0
10
5984.494311
20
105.505642
30
0.0
11
5984.494311
21
105.155642
31
0.0
0
LINE
8
0
10
5997.994311
20
105.505642
30
0.0
11
5984.494311
21
105.505642
31
0.0
0
LINE
8
0
10
5997.994311
20
105.155642
30
0.0
11
5997.994311
21
105.505642
31
0.0
0
ARC
8
0
10
5998.744311
20
105.155642
30
0.0
40
0.750000
50
180.000000
51
0.000000
0
LINE
8
0
10
5999.494311
20
105.505642
30
0.0
11
5999.494311
21
105.155642
31
0.0
0
LINE
8
0
10
6024.707976
20
105.505642
30
0.0
11
5999.494311
21
105.505642
31
0.0
0
ARC
8
0
10
6024.707976
20
105.205642
30
0.0
40
0.300000
50
332.647767
51
90.000000
0
ARC
8
0
10
6027.994311
20
103.505642
30
0.0
40
3.400000
50
152.647767
51
167.016140
0
ARC
8
0
10
6025.168454
20
104.157204
30
0.0
40
0.500000
50
167.016140
51
225.000000
0
LINE
8
0
10
6025.411522
20
103.207030
30
0.0
11
6024.814901
21
103.803651
31
0.0
0
ARC
8
0
10
6025.694365
20
103.489872
30
0.0
40
0.400000
50
225.000000
51
0.392859
0
ARC
8
0
10
6027.994311
20
103.505642
30
0.0
40
1.900000
50
269.607141
51
180.392859
0
ARC
8
0
10
6027.978541
20
101.205697
30
0.0
40
0.400000
50
89.607141
51
225.000000
0
LINE
8
0
10
6028.292320
20
100.326232
30
0.0
11
6027.695698
21
100.922854
31
0.0
0
ARC
8
0
10
6028.645873
20
100.679786
30
0.0
40
0.500000
50
225.000000
51
282.983860
0
ARC
8
0
10
6027.994311
20
103.505642
30
0.0
40
3.400000
50
282.983860
51
297.352233
0
ARC
8
0
10
6029.694311
20
100.219307
30
0.0
40
0.300000
50
0.000000
51
117.352233
0
LINE
8
0
10
6029.994311
20
98.655642
30
0.0
11
6029.994311
21
100.219307
31
0.0
0
ARC
8
0
10
6032.493151
20
98.731806
30
0.0
40
2.500000
50
181.745814
51
220.576706
0
LINE
8
0
10
6030.594311
20
66.605642
30
0.0
11
6030.594311
21
97.105642
31
0.0
0
LINE
8
0
10
6052.194311
20
66.605642
30
0.0
11
6030.594311
21
66.605642
31
0.0
0
LINE
8
0
10
6052.194311
20
119.105642
30
0.0
11
6052.194311
21
66.605642
31
0.0
0
ARC
8
0
10
6051.694311
20
119.105642
30
0.0
40
0.500000
50
0.000000
51
90.000000
0
LINE
8
0
10
6049.194311
20
119.605642
30
0.0
11
6051.694311
21
119.605642
31
0.0
0
ARC
8
0
10
6049.194311
20
119.105642
30
0.0
40
0.500000
50
90.000000
51
180.000000
0
LINE
8
0
10
6048.694311
20
116.855642
30
0.0
11
6048.694311
21
119.105642
31
0.0
0
ARC
8
0
10
6049.194311
20
116.855642
30
0.0
40
0.500000
50
180.000000
51
0.000000
0
LINE
8
0
10
6049.694311
20
117.855642
30
0.0
11
6049.694311
21
116.855642
31
0.0
0
ARC
8
0
10
6050.444311
20
117.855642
30
0.0
40
0.750000
50
0.000000
51
180.000000
0
LINE
8
0
10
6051.194311
20
111.355642
30
0.0
11
6051.194311
21
117.855642
31
0.0
0
ARC
8
0
10
6050.444311
20
111.355642
30
0.0
40
0.750000
50
180.000000
51
0.000000
0
LINE
8
0
10
6049.694311
20
112.355642
30
0.0
11
6049.694311
21
111.355642
31
0.0
0
ARC
8
0
10
6049.194311
20
112.355642
30
0.0
40
0.500000
50
0.000000
51
180.000000
0
LINE
8
0
10
6048.694311
20
110.105642
30
0.0
11
6048.694311
21
112.355642
31
0.0
0
ARC
8
0
10
6049.194311
20
110.105642
30
0.0
40
0.500000
50
180.000000
51
270.000000
0
LINE
8
0
10
6050.894311
20
109.605642
30
0.0
11
6049.194311
21
109.605642
31
0.0
0
LINE
8
0
10
6050.894311
20
96.605642
30
0.0
11
6050.894311
21
109.605642
31
0.0
0
ARC
8
0
10
6047.894311
20
96.605642
30
0.0
40
3.000000
50
270.000000
51
0.000000
0
LINE
8
0
10
6034.894311
20
93.605642
30
0.0
11
6047.894311
21
93.605642
31
0.0
0
ARC
8
0
10
6034.894311
20
96.605642
30
0.0
40
3.000000
50
180.000000
51
270.000000
0
LINE
8
0
10
6031.894311
20
109.605642
30
0.0
11
6031.894311
21
96.605642
31
0.0
0
LINE
8
0
10
6033.594311
20
109.605642
30
0.0
11
6031.894311
21
109.605642
31
0.0
0
ARC
8
0
10
6033.594311
20
110.105642
30
0.0
40
0.500000
50
270.000000
51
0.000000
0
LINE
8
0
10
6034.094311
20
112.355642
30
0.0
11
6034.094311
21
110.105642
31
0.0
0
ARC
8
0
10
6033.594311
20
112.355642
30
0.0
40
0.500000
50
0.000000
51
180.000000
0
LINE
8
0
10
6033.094311
20
111.355642
30
0.0
11
6033.094311
21
112.355642
31
0.0
0
ARC
8
0
10
6032.344311
20
111.355642
30
0.0
40
0.750000
50
180.000000
51
0.000000
0
LINE
8
0
10
6031.594311
20
117.855642
30
0.0
11
6031.594311
21
111.355642
31
0.0
0
ARC
8
0
10
6032.344311
20
117.855642
30
0.0
40
0.750000
50
0.000000
51
180.000000
0
LINE
8
0
10
6033.094311
20
116.855642
30
0.0
11
6033.094311
21
117.855642
31
0.0
0
ARC
8
0
10
6033.594311
20
116.855642
30
0.0
40
0.500000
50
180.000000
51
0.000000
0
LINE
8
0
10
6034.094311
20
119.105642
30
0.0
11
6034.094311
21
116.855642
31
0.0
0
ARC
8
0
10
6033.594311
20
119.105642
30
0.0
40
0.500000
50
0.000000
51
90.000000
0
LINE
8
0
10
6033.594311
20
119.605642
30
0.0
11
6031.094311
21
119.605642
31
0.0
0
ARC
8
0
10
6031.094311
20
119.105642
30
0.0
40
0.500000
50
90.000000
51
180.000000
0
LINE
8
0
10
6030.594311
20
107.605642
30
0.0
11
6030.594311
21
119.105642
31
0.0
0
ARC
8
0
10
6030.094311
20
107.605642
30
0.0
40
0.500000
50
270.000000
51
0.000000
0
LINE
8
0
10
6030.094311
20
107.105642
30
0.0
11
5907.394311
21
107.105642
31
0.0
0
LINE
8
0
10
5907.394311
20
111.305642
30
0.0
11
5907.394311
21
107.105642
31
0.0
0
ARC
8
0
10
5907.094311
20
111.305642
30
0.0
40
0.300000
50
0.000000
51
90.000000
0
LINE
8
0
10
5907.094311
20
111.605642
30
0.0
11
5906.194311
21
111.605642
31
0.0
0
ARC
8
0
10
5906.194311
20
111.305642
30
0.0
40
0.300000
50
90.000000
51
180.000000
0
LINE
8
0
10
5905.894311
20
111.305642
30
0.0
11
5905.894311
21
107.105642
31
0.0
0
LINE
8
0
10
5905.894311
20
107.105642
30
0.0
11
5902.394311
21
107.105642
31
0.0
0
LINE
8
0
10
5902.394311
20
111.305642
30
0.0
11
5902.394311
21
107.105642
31
0.0
0
ARC
8
0
10
5902.094311
20
111.305642
30
0.0
40
0.300000
50
0.000000
51
90.000000
0
LINE
8
0
10
5902.094311
20
111.605642
30
0.0
11
5901.194311
21
111.605642
31
0.0
0
ARC
8
0
10
5901.194311
20
111.305642
30
0.0
40
0.300000
50
90.000000
51
180.000000
0
LINE
8
0
10
5900.894311
20
111.305642
30
0.0
11
5900.894311
21
107.105642
31
0.0
0
LINE
8
0
10
5900.894311
20
107.105642
30
0.0
11
5883.494311
21
107.105642
31
0.0
0
LINE
8
0
10
5883.494311
20
111.305642
30
0.0
11
5883.494311
21
107.105642
31
0.0
0
ARC
8
0
10
5883.194311
20
111.305642
30
0.0
40
0.300000
50
0.000000
51
90.000000
0
LINE
8
0
10
5883.194311
20
111.605642
30
0.0
11
5882.294311
21
111.605642
31
0.0
0
ARC
8
0
10
5882.294311
20
111.305642
30
0.0
40
0.300000
50
90.000000
51
180.000000
0
LINE
8
0
10
5881.994311
20
111.305642
30
0.0
11
5881.994311
21
107.105642
31
0.0
0
LINE
8
0
10
5881.994311
20
107.105642
30
0.0
11
5877.894311
21
107.105642
31
0.0
0
LINE
8
0
10
5877.894311
20
109.105642
30
0.0
11
5877.894311
21
107.105642
31
0.0
0
ARC
8
0
10
5877.594311
20
109.105642
30
0.0
40
0.300000
50
0.000000
51
90.000000
0
LINE
8
0
10
5877.594311
20
109.405642
30
0.0
11
5876.694311
21
109.405642
31
0.0
0
ARC
8
0
10
5876.694311
20
109.105642
30
0.0
40
0.300000
50
90.000000
51
180.000000
0
LINE
8
0
10
5876.394311
20
109.105642
30
0.0
11
5876.394311
21
107.105642
31
0.0
0
LINE
8
0
10
5876.394311
20
107.105642
30
0.0
11
5872.694311
21
107.105642
31
0.0
0
ARC
8
0
10
5872.694311
20
106.605642
30
0.0
40
0.500000
50
90.000000
51
180.000000
0
LINE
8
0
10
5872.194311
20
106.605642
30
0.0
11
5872.194311
21
64.805642
31
0.0
0
LINE
8
0
10
5876.194311
20
64.805642
30
0.0
11
5872.194311
21
64.805642
31
0.0
0
LINE
8
0
10
5876.194311
20
64.805642
30
0.0
11
5876.194311
21
66.605642
31
0.0
0
LINE
8
0
10
5876.194311
20
66.605642
30
0.0
11
5883.694311
21
66.605642
31
0.0
0
LINE
8
0
10
5883.694311
20
66.605642
30
0.0
11
5883.694311
21
65.005642
31
0.0
0
LINE
8
0
10
5883.694311
20
65.005642
30
0.0
11
5883.994311
21
65.005642
31
0.0
0
ARC
8
0
10
5883.994311
20
65.305642
30
0.0
40
0.300000
50
270.000000
51
336.242263
0
LINE
8
0
10
5884.268888
20
65.184781
30
0.0
11
5885.201799
21
67.304207
31
0.0
0
ARC
8
0
10
5884.744171
20
67.505642
30
0.0
40
0.500000
50
336.242263
51
90.000000
0
LINE
8
0
10
5884.744171
20
68.005642
30
0.0
11
5873.794311
21
68.005642
31
0.0
0
LINE
8
0
10
5873.794311
20
68.005642
30
0.0
11
5873.794311
21
105.005642
31
0.0
0
ARC
8
0
10
5874.294311
20
105.005642
30
0.0
40
0.500000
50
90.000000
51
180.000000
0
LINE
8
0
10
5874.294311
20
105.505642
30
0.0
11
5894.794311
21
105.505642
31
0.0
0
LINE
8
0
10
5894.794311
20
105.505642
30
0.0
11
5895.294311
21
106.005642
31
0.0
0
LINE
8
0
10
5895.294311
20
106.005642
30
0.0
11
5895.794311
21
105.505642
31
0.0
0
LINE
8
0
10
5922.994311
20
105.505642
30
0.0
11
5895.794311
21
105.505642
31
0.0
0
ATTDEF
8
0
10
0.000000
20
0.000000
30
0.0
40
3.5
1

3

2
PANE_WIDTH:0
70
0
0
ATTDEF
8
0
10
0.000000
20
0.000000
30
0.0
40
3.5
1

3

2
MIN_VETRO:0
70
0
0
ATTDEF
8
0
10
0.000000
20
0.000000
30
0.0
40
3.5
1

3

2
MAX_VETRO:0
70
0
0
ATTDEF
8
0
10
0.000000
20
0.000000
30
0.0
40
3.5
1

3

2
JX:0
70
0
0
ATTDEF
8
0
10
0.000000
20
0.000000
30
0.0
40
3.5
1

3

2
WX:0
70
0
0
ATTDEF
8
0
10
0.000000
20
0.000000
30
0.0
40
3.5
1

3

2
JY:0
70
0
0
ATTDEF
8
0
10
0.000000
20
0.000000
30
0.0
40
3.5
1

3

2
WY:0
70
0
0
ATTDEF
8
0
10
0.000000
20
0.000000
30
0.0
40
3.5
1

3

2
DESC:Guia 180mm.
70
0
0
ATTDEF
8
0
10
0.000000
20
0.000000
30
0.0
40
3.5
1

3

2
DENS:1.6173
70
0
0
ATTDEF
8
0
10
0.000000
20
0.000000
30
0.0
40
3.5
1

3

2
TDEV:79.56
70
0
0
ATTDEF
8
0
10
0.000000
20
0.000000
30
0.0
40
3.5
1

3

2
TDEV2:0
70
0
0
ATTDEF
8
0
10
0.000000
20
0.000000
30
0.0
40
3.5
1

3

2
TDEV3:0
70
0
0
ATTDEF
8
0
10
0.000000
20
0.000000
30
0.0
40
3.5
1

3

2
TDEV4:0
70
0
0
ATTDEF
8
0
10
0.000000
20
0.000000
30
0.0
40
3.5
1

3

2
TDEV5:0
70
0
0
ATTDEF
8
0
10
0.000000
20
0.000000
30
0.0
40
3.5
1

3

2
PANE_WIDTH:0
70
0
0
ATTDEF
8
0
10
0.000000
20
0.000000
30
0.0
40
3.5
1

3

2
MIN_VETRO:0
70
0
0
ATTDEF
8
0
10
0.000000
20
0.000000
30
0.0
40
3.5
1

3

2
MAX_VETRO:0
70
0
0
ATTDEF
8
0
10
0.000000
20
0.000000
30
0.0
40
3.5
1

3

2
JX:0
70
0
0
ATTDEF
8
0
10
0.000000
20
0.000000
30
0.0
40
3.5
1

3

2
WX:0
70
0
0
ATTDEF
8
0
10
0.000000
20
0.000000
30
0.0
40
3.5
1

3

2
JY:0
70
0
0
ATTDEF
8
0
10
0.000000
20
0.000000
30
0.0
40
3.5
1

3

2
WY:0
70
0
0
ENDSEC
0
EOF
