0
SECTION
2
ENTITIES
0
ARC
8
0
10
1582.506823
20
2201.958591
30
0.0
40
0.750000
50
338.068738
51
158.068738
0
ARC
8
0
10
1578.657148
20
2203.508591
30
0.0
40
3.400000
50
94.650709
51
338.068738
0
ARC
8
0
10
1578.357148
20
2207.196409
30
0.0
40
0.300000
50
274.650709
51
83.363374
0
LINE
8
0
10
1578.391820
20
2207.494398
30
0.0
11
1576.202070
21
2207.749180
31
0.0
0
ARC
8
0
10
1578.657148
20
2203.508591
30
0.0
40
4.900000
50
120.068583
51
212.482164
0
ARC
8
0
10
1574.101931
20
2200.608591
30
0.0
40
0.500000
50
270.000000
51
32.482164
0
LINE
8
0
10
1574.101931
20
2200.108591
30
0.0
11
1533.657148
21
2200.108591
31
0.0
0
LINE
8
0
10
1533.657148
20
2200.108591
30
0.0
11
1533.657148
21
2203.508591
31
0.0
0
ARC
8
0
10
1578.657148
20
2203.508591
30
0.0
40
45.000000
50
130.926377
51
180.000000
0
ARC
8
0
10
1548.686839
20
2238.075094
30
0.0
40
0.750000
50
310.926377
51
130.926377
0
ARC
8
0
10
1578.657148
20
2203.508591
30
0.0
40
46.500000
50
130.926377
51
180.000000
0
LINE
8
0
10
1532.157148
20
2203.508591
30
0.0
11
1532.157148
21
2198.608591
31
0.0
0
LINE
8
0
10
1532.157148
20
2198.608591
30
0.0
11
1532.207148
21
2198.608591
31
0.0
0
LINE
8
0
10
1532.207148
20
2198.608591
30
0.0
11
1536.657148
21
2198.608591
31
0.0
0
LINE
8
0
10
1536.657148
20
2198.608591
30
0.0
11
1536.657148
21
2196.268637
31
0.0
0
LINE
8
0
10
1536.657148
20
2196.268637
30
0.0
11
1536.157148
21
2195.774547
31
0.0
0
LINE
8
0
10
1536.157148
20
2195.774547
30
0.0
11
1536.865243
21
2194.548090
31
0.0
0
ARC
8
0
10
1537.257148
20
2194.858591
30
0.0
40
0.500000
50
218.389300
51
0.000000
0
LINE
8
0
10
1537.757148
20
2194.858591
30
0.0
11
1537.757148
21
2198.608591
31
0.0
0
LINE
8
0
10
1537.757148
20
2198.608591
30
0.0
11
1571.557148
21
2198.608591
31
0.0
0
LINE
8
0
10
1571.557148
20
2198.608591
30
0.0
11
1571.557148
21
2194.858591
31
0.0
0
ARC
8
0
10
1572.057148
20
2194.858591
30
0.0
40
0.500000
50
180.000000
51
321.610700
0
LINE
8
0
10
1572.449053
20
2194.548090
30
0.0
11
1573.157148
21
2195.774547
31
0.0
0
LINE
8
0
10
1573.157148
20
2195.774547
30
0.0
11
1572.657148
21
2196.268637
31
0.0
0
LINE
8
0
10
1572.657148
20
2196.268637
30
0.0
11
1572.657148
21
2198.608591
31
0.0
0
LINE
8
0
10
1572.657148
20
2198.608591
30
0.0
11
1578.657148
21
2198.608591
31
0.0
0
ARC
8
0
10
1578.657148
20
2203.508591
30
0.0
40
4.900000
50
270.000000
51
338.068738
0
ATTDEF
8
0
10
0.000000
20
0.000000
30
0.0
40
3.5
1

3

2
PANE_WIDTH:0
70
0
0
ATTDEF
8
0
10
0.000000
20
0.000000
30
0.0
40
3.5
1

3

2
MIN_VETRO:0
70
0
0
ATTDEF
8
0
10
0.000000
20
0.000000
30
0.0
40
3.5
1

3

2
MAX_VETRO:0
70
0
0
ATTDEF
8
0
10
0.000000
20
0.000000
30
0.0
40
3.5
1

3

2
JX:0
70
0
0
ATTDEF
8
0
10
0.000000
20
0.000000
30
0.0
40
3.5
1

3

2
WX:0
70
0
0
ATTDEF
8
0
10
0.000000
20
0.000000
30
0.0
40
3.5
1

3

2
JY:0
70
0
0
ATTDEF
8
0
10
0.000000
20
0.000000
30
0.0
40
3.5
1

3

2
WY:0
70
0
0
ATTDEF
8
0
10
0.000000
20
0.000000
30
0.0
40
3.5
1

3

2
DESC:Esquinero regulab. h
70
0
0
ATTDEF
8
0
10
0.000000
20
0.000000
30
0.0
40
3.5
1

3

2
DENS:0.4536
70
0
0
ATTDEF
8
0
10
0.000000
20
0.000000
30
0.0
40
3.5
1

3

2
TDEV:22.84
70
0
0
ATTDEF
8
0
10
0.000000
20
0.000000
30
0.0
40
3.5
1

3

2
TDEV2:0
70
0
0
ATTDEF
8
0
10
0.000000
20
0.000000
30
0.0
40
3.5
1

3

2
TDEV3:0
70
0
0
ATTDEF
8
0
10
0.000000
20
0.000000
30
0.0
40
3.5
1

3

2
TDEV4:0
70
0
0
ATTDEF
8
0
10
0.000000
20
0.000000
30
0.0
40
3.5
1

3

2
TDEV5:0
70
0
0
ATTDEF
8
0
10
0.000000
20
0.000000
30
0.0
40
3.5
1

3

2
PANE_WIDTH:0
70
0
0
ATTDEF
8
0
10
0.000000
20
0.000000
30
0.0
40
3.5
1

3

2
MIN_VETRO:0
70
0
0
ATTDEF
8
0
10
0.000000
20
0.000000
30
0.0
40
3.5
1

3

2
MAX_VETRO:0
70
0
0
ATTDEF
8
0
10
0.000000
20
0.000000
30
0.0
40
3.5
1

3

2
JX:0
70
0
0
ATTDEF
8
0
10
0.000000
20
0.000000
30
0.0
40
3.5
1

3

2
WX:0
70
0
0
ATTDEF
8
0
10
0.000000
20
0.000000
30
0.0
40
3.5
1

3

2
JY:0
70
0
0
ATTDEF
8
0
10
0.000000
20
0.000000
30
0.0
40
3.5
1

3

2
WY:0
70
0
0
ENDSEC
0
EOF
