0
SECTION
2
ENTITIES
0
LINE
8
0
10
1131.181368
20
96.026623
30
0.0
11
1130.080972
21
97.127020
31
0.0
0
LINE
8
0
10
1135.090694
20
93.913348
30
0.0
11
1134.106973
21
94.897070
31
0.0
0
LINE
8
0
10
1130.603569
20
98.400474
30
0.0
11
1129.977197
21
99.026846
31
0.0
0
LINE
8
0
10
1132.328070
20
96.675973
30
0.0
11
1131.314322
21
97.689720
31
0.0
0
LINE
8
0
10
1143.494318
20
87.305776
30
0.0
11
1142.080010
21
88.720084
31
0.0
0
LINE
8
0
10
1136.886746
20
93.913348
30
0.0
11
1131.225596
21
99.574498
31
0.0
0
LINE
8
0
10
1143.717955
20
88.878191
30
0.0
11
1142.301325
21
90.294820
31
0.0
0
LINE
8
0
10
1134.187592
20
98.408553
30
0.0
11
1133.817125
21
98.779020
31
0.0
0
LINE
8
0
10
1138.682797
20
93.913348
30
0.0
11
1136.882797
21
95.713348
31
0.0
0
LINE
8
0
10
1143.939270
20
90.452927
30
0.0
11
1142.522640
21
91.869557
31
0.0
0
LINE
8
0
10
1140.478848
20
93.913348
30
0.0
11
1138.678848
21
95.713348
31
0.0
0
LINE
8
0
10
1144.160584
20
92.027663
30
0.0
11
1142.743955
21
93.444293
31
0.0
0
LINE
8
0
10
1142.274899
20
93.913348
30
0.0
11
1140.474899
21
95.713348
31
0.0
0
LINE
8
0
10
1144.381899
20
93.602400
30
0.0
11
1142.270951
21
95.713348
31
0.0
0
LINE
8
0
10
1145.867002
20
93.913348
30
0.0
11
1144.067002
21
95.713348
31
0.0
0
LINE
8
0
10
1147.663053
20
93.913348
30
0.0
11
1145.863053
21
95.713348
31
0.0
0
LINE
8
0
10
1148.699620
20
94.672833
30
0.0
11
1147.259715
21
96.112737
31
0.0
0
LINE
8
0
10
1149.413144
20
95.755360
30
0.0
11
1147.972272
21
97.196232
31
0.0
0
LINE
8
0
10
1150.265922
20
96.698633
30
0.0
11
1148.683345
21
98.281211
31
0.0
0
LINE
8
0
10
1152.892893
20
95.867714
30
0.0
11
1149.847258
21
98.913348
31
0.0
0
LINE
8
0
10
1152.148493
20
98.408164
30
0.0
11
1151.255726
21
99.300932
31
0.0
0
LINE
8
0
10
1152.977197
20
99.375512
30
0.0
11
1152.439360
21
99.913348
31
0.0
0
LINE
8
0
10
1131.685978
20
126.054884
30
0.0
11
1130.677197
21
127.063665
31
0.0
0
LINE
8
0
10
1132.824999
20
126.711914
30
0.0
11
1131.878025
21
127.658888
31
0.0
0
LINE
8
0
10
1131.089314
20
128.447599
30
0.0
11
1130.677197
21
128.859717
31
0.0
0
LINE
8
0
10
1134.407411
20
126.925554
30
0.0
11
1131.468606
21
129.864359
31
0.0
0
LINE
8
0
10
1135.199281
20
127.929735
30
0.0
11
1133.757089
21
129.371927
31
0.0
0
LINE
8
0
10
1135.910353
20
129.014714
30
0.0
11
1134.470613
21
130.454455
31
0.0
0
LINE
8
0
10
1136.776248
20
129.944871
30
0.0
11
1135.184137
21
131.536982
31
0.0
0
LINE
8
0
10
1138.520399
20
129.996771
30
0.0
11
1136.520399
21
131.996771
31
0.0
0
LINE
8
0
10
1140.316450
20
129.996771
30
0.0
11
1138.316450
21
131.996771
31
0.0
0
LINE
8
0
10
1142.112501
20
129.996771
30
0.0
11
1140.112501
21
131.996771
31
0.0
0
LINE
8
0
10
1143.908552
20
129.996771
30
0.0
11
1141.908552
21
131.996771
31
0.0
0
LINE
8
0
10
1148.807023
20
126.894352
30
0.0
11
1148.304033
21
127.397341
31
0.0
0
LINE
8
0
10
1145.704604
20
129.996771
30
0.0
11
1143.704604
21
131.996771
31
0.0
0
LINE
8
0
10
1151.407062
20
126.090364
30
0.0
11
1145.500655
21
131.996771
31
0.0
0
LINE
8
0
10
1152.577197
20
126.716280
30
0.0
11
1152.496706
21
126.796771
31
0.0
0
LINE
8
0
10
1148.383599
20
130.909878
30
0.0
11
1147.296706
21
131.996771
31
0.0
0
LINE
8
0
10
1152.477197
20
126.816280
30
0.0
11
1151.977560
21
127.315917
31
0.0
0
LINE
8
0
10
1151.246343
20
128.047134
30
0.0
11
1150.250410
21
129.043067
31
0.0
0
LINE
8
0
10
1152.476984
20
128.612544
30
0.0
11
1151.393939
21
129.695590
31
0.0
0
LINE
8
0
10
1130.677197
20
128.647894
30
0.0
11
1131.737923
21
129.708620
31
0.0
0
LINE
8
0
10
1130.577197
20
126.751843
30
0.0
11
1130.622126
21
126.796771
31
0.0
0
LINE
8
0
10
1134.839562
20
131.014207
30
0.0
11
1135.822126
21
131.996771
31
0.0
0
LINE
8
0
10
1130.677197
20
126.851843
30
0.0
11
1131.149151
21
127.323797
31
0.0
0
LINE
8
0
10
1131.900172
20
128.074817
30
0.0
11
1132.878867
21
129.053512
31
0.0
0
LINE
8
0
10
1131.663005
20
126.041600
30
0.0
11
1137.618177
21
131.996771
31
0.0
0
LINE
8
0
10
1134.284330
20
126.866873
30
0.0
11
1134.917992
21
127.500535
31
0.0
0
LINE
8
0
10
1137.414228
20
129.996771
30
0.0
11
1139.414228
21
131.996771
31
0.0
0
LINE
8
0
10
1139.210279
20
129.996771
30
0.0
11
1141.210279
21
131.996771
31
0.0
0
LINE
8
0
10
1141.006330
20
129.996771
30
0.0
11
1143.006330
21
131.996771
31
0.0
0
LINE
8
0
10
1142.802382
20
129.996771
30
0.0
11
1144.802382
21
131.996771
31
0.0
0
LINE
8
0
10
1144.598433
20
129.996771
30
0.0
11
1146.598433
21
131.996771
31
0.0
0
LINE
8
0
10
1146.351200
20
129.953487
30
0.0
11
1147.956129
21
131.558416
31
0.0
0
LINE
8
0
10
1147.229961
20
129.036197
30
0.0
11
1148.669653
21
130.475889
31
0.0
0
LINE
8
0
10
1147.941034
20
127.951218
30
0.0
11
1149.383177
21
129.393362
31
0.0
0
LINE
8
0
10
1148.724486
20
126.938619
30
0.0
11
1151.601462
21
129.815595
31
0.0
0
LINE
8
0
10
1150.305378
20
126.723460
30
0.0
11
1151.266116
21
127.684198
31
0.0
0
LINE
8
0
10
1152.039771
20
128.457853
30
0.0
11
1152.477197
21
128.895279
31
0.0
0
LINE
8
0
10
1151.445883
20
126.067914
30
0.0
11
1152.477197
21
127.099228
31
0.0
0
LINE
8
0
10
1129.977197
20
99.211074
30
0.0
11
1130.663766
21
99.897643
31
0.0
0
LINE
8
0
10
1130.937470
20
98.375296
30
0.0
11
1131.802857
21
99.240683
31
0.0
0
LINE
8
0
10
1130.145507
20
95.787282
30
0.0
11
1133.271574
21
98.913348
31
0.0
0
LINE
8
0
10
1132.813251
20
96.658975
30
0.0
11
1134.336152
21
98.181876
31
0.0
0
LINE
8
0
10
1133.606577
20
95.656249
30
0.0
11
1135.047224
21
97.096897
31
0.0
0
LINE
8
0
10
1134.320101
20
94.573722
30
0.0
11
1135.770077
21
96.023698
31
0.0
0
LINE
8
0
10
1135.455779
20
93.913348
30
0.0
11
1137.255779
21
95.713348
31
0.0
0
LINE
8
0
10
1137.251830
20
93.913348
30
0.0
11
1139.051830
21
95.713348
31
0.0
0
LINE
8
0
10
1139.047881
20
93.913348
30
0.0
11
1140.847881
21
95.713348
31
0.0
0
LINE
8
0
10
1140.843932
20
93.913348
30
0.0
11
1142.643932
21
95.713348
31
0.0
0
LINE
8
0
10
1142.605124
20
93.878489
30
0.0
11
1144.439983
21
95.713348
31
0.0
0
LINE
8
0
10
1142.543963
20
92.021276
30
0.0
11
1146.236035
21
95.713348
31
0.0
0
LINE
8
0
10
1148.454085
20
97.931399
30
0.0
11
1149.409639
21
98.886953
31
0.0
0
LINE
8
0
10
1142.250268
20
89.931530
30
0.0
11
1144.130199
21
91.811462
31
0.0
0
LINE
8
0
10
1146.232086
20
93.913348
30
0.0
11
1152.118713
21
99.799976
31
0.0
0
LINE
8
0
10
1141.956573
20
87.841785
30
0.0
11
1143.836505
21
89.721716
31
0.0
0
LINE
8
0
10
1152.474707
20
98.359919
30
0.0
11
1152.877197
21
98.762409
31
0.0
0
LINE
8
0
10
1148.040575
20
93.925787
30
0.0
11
1148.529456
21
94.414668
31
0.0
0
LINE
8
0
10
1150.739227
20
96.624438
30
0.0
11
1151.680627
21
97.565838
31
0.0
0
LINE
8
0
10
1142.599834
20
86.688994
30
0.0
11
1143.542810
21
87.631970
31
0.0
0
LINE
8
0
10
1151.877214
20
95.966374
30
0.0
11
1152.877197
21
96.966357
31
0.0
0
ARC
8
0
10
1150.370828
20
99.713348
30
0.0
40
0.800000
50
270.000000
51
300.039706
0
LINE
8
0
10
1150.771308
20
99.020806
30
0.0
11
1152.264105
21
99.884052
31
0.0
0
ARC
8
0
10
1152.368317
20
99.713348
30
0.0
40
0.200000
50
90.000000
51
121.403656
0
LINE
8
0
10
1152.368317
20
99.913348
30
0.0
11
1152.577197
21
99.913348
31
0.0
0
ARC
8
0
10
1152.577197
20
99.513348
30
0.0
40
0.400000
50
360.000000
51
90.000000
0
LINE
8
0
10
1152.977197
20
99.513348
30
0.0
11
1152.977197
21
98.913348
31
0.0
0
LINE
8
0
10
1152.977197
20
98.913348
30
0.0
11
1152.877197
21
98.913348
31
0.0
0
LINE
8
0
10
1152.877197
20
98.913348
30
0.0
11
1152.877197
21
98.538348
31
0.0
0
ARC
8
0
10
1152.677197
20
98.538348
30
0.0
40
0.200000
50
270.000000
51
360.000000
0
LINE
8
0
10
1152.677197
20
98.338348
30
0.0
11
1152.517671
21
98.338348
31
0.0
0
ARC
8
0
10
1152.227197
20
97.813348
30
0.0
40
0.600000
50
61.044976
51
180.000000
0
ARC
8
0
10
1152.227197
20
97.813348
30
0.0
40
0.600000
50
180.000000
51
298.955024
0
LINE
8
0
10
1152.517671
20
97.288348
30
0.0
11
1152.677197
21
97.288348
31
0.0
0
ARC
8
0
10
1152.677197
20
97.088348
30
0.0
40
0.200000
50
360.000000
51
90.000000
0
LINE
8
0
10
1152.877197
20
97.088348
30
0.0
11
1152.877197
21
96.713348
31
0.0
0
LINE
8
0
10
1152.877197
20
96.713348
30
0.0
11
1152.977197
21
96.713348
31
0.0
0
LINE
8
0
10
1152.977197
20
96.713348
30
0.0
11
1152.977197
21
96.113348
31
0.0
0
ARC
8
0
10
1152.577197
20
96.113348
30
0.0
40
0.400000
50
270.000000
51
360.000000
0
LINE
8
0
10
1152.577197
20
95.713348
30
0.0
11
1152.368317
21
95.713348
31
0.0
0
ARC
8
0
10
1152.368317
20
95.913348
30
0.0
40
0.200000
50
238.596344
51
270.000000
0
LINE
8
0
10
1152.264105
20
95.742645
30
0.0
11
1150.741196
21
96.623304
31
0.0
0
ARC
8
0
10
1150.405612
20
96.042983
30
0.0
40
0.670365
50
59.960294
51
146.610000
0
LINE
8
0
10
1149.845894
20
96.411909
30
0.0
11
1148.347216
21
94.138181
31
0.0
0
ARC
8
0
10
1147.929744
20
94.413348
30
0.0
40
0.500000
50
270.000000
51
326.610000
0
LINE
8
0
10
1147.929744
20
93.913348
30
0.0
11
1144.686386
21
93.913348
31
0.0
0
ARC
8
0
10
1144.686386
20
93.613348
30
0.0
40
0.300000
50
90.000000
51
172.000000
0
LINE
8
0
10
1144.389306
20
93.655100
30
0.0
11
1143.505923
21
87.369509
31
0.0
0
ARC
8
0
10
1142.713709
20
87.480848
30
0.0
40
0.800000
50
172.000000
51
352.000000
0
LINE
8
0
10
1141.921495
20
87.592186
30
0.0
11
1142.761846
21
93.571597
31
0.0
0
ARC
8
0
10
1142.464765
20
93.613348
30
0.0
40
0.300000
50
352.000000
51
90.000000
0
LINE
8
0
10
1142.464765
20
93.913348
30
0.0
11
1135.024650
21
93.913348
31
0.0
0
ARC
8
0
10
1135.024650
20
94.413348
30
0.0
40
0.500000
50
213.390000
51
270.000000
0
LINE
8
0
10
1134.607178
20
94.138181
30
0.0
11
1133.108500
21
96.411909
31
0.0
0
ARC
8
0
10
1132.548783
20
96.042983
30
0.0
40
0.670365
50
33.390000
51
120.039706
0
LINE
8
0
10
1132.213198
20
96.623304
30
0.0
11
1130.690290
21
95.742645
31
0.0
0
ARC
8
0
10
1130.586077
20
95.913348
30
0.0
40
0.200000
50
270.000000
51
301.403656
0
LINE
8
0
10
1130.586077
20
95.713348
30
0.0
11
1130.377197
21
95.713348
31
0.0
0
ARC
8
0
10
1130.377197
20
96.113348
30
0.0
40
0.400000
50
180.000000
51
270.000000
0
LINE
8
0
10
1129.977197
20
96.113348
30
0.0
11
1129.977197
21
96.713348
31
0.0
0
LINE
8
0
10
1129.977197
20
96.713348
30
0.0
11
1130.077197
21
96.713348
31
0.0
0
LINE
8
0
10
1130.077197
20
96.713348
30
0.0
11
1130.077197
21
97.088348
31
0.0
0
ARC
8
0
10
1130.277197
20
97.088348
30
0.0
40
0.200000
50
90.000000
51
180.000000
0
LINE
8
0
10
1130.277197
20
97.288348
30
0.0
11
1130.436723
21
97.288348
31
0.0
0
ARC
8
0
10
1130.727197
20
97.813348
30
0.0
40
0.600000
50
241.044976
51
360.000000
0
ARC
8
0
10
1130.727197
20
97.813348
30
0.0
40
0.600000
50
360.000000
51
118.955024
0
LINE
8
0
10
1130.436723
20
98.338348
30
0.0
11
1130.277197
21
98.338348
31
0.0
0
ARC
8
0
10
1130.277197
20
98.538348
30
0.0
40
0.200000
50
180.000000
51
270.000000
0
LINE
8
0
10
1130.077197
20
98.538348
30
0.0
11
1130.077197
21
98.913348
31
0.0
0
LINE
8
0
10
1130.077197
20
98.913348
30
0.0
11
1129.977197
21
98.913348
31
0.0
0
LINE
8
0
10
1129.977197
20
98.913348
30
0.0
11
1129.977197
21
99.513348
31
0.0
0
ARC
8
0
10
1130.377197
20
99.513348
30
0.0
40
0.400000
50
90.000000
51
180.000000
0
LINE
8
0
10
1130.377197
20
99.913348
30
0.0
11
1130.586077
21
99.913348
31
0.0
0
ARC
8
0
10
1130.586077
20
99.713348
30
0.0
40
0.200000
50
58.596344
51
90.000000
0
LINE
8
0
10
1130.690290
20
99.884052
30
0.0
11
1132.183086
21
99.020806
31
0.0
0
ARC
8
0
10
1132.583567
20
99.713348
30
0.0
40
0.800000
50
239.960294
51
270.000000
0
LINE
8
0
10
1132.583567
20
98.913348
30
0.0
11
1133.316513
21
98.913348
31
0.0
0
ARC
8
0
10
1133.316513
20
97.913348
30
0.0
40
1.000000
50
33.240000
51
90.000000
0
LINE
8
0
10
1134.152895
20
98.461496
30
0.0
11
1135.657838
21
96.165201
31
0.0
0
ARC
8
0
10
1136.494220
20
96.713348
30
0.0
40
1.000000
50
213.240000
51
270.000000
0
LINE
8
0
10
1136.494220
20
95.713348
30
0.0
11
1140.827197
21
95.713348
31
0.0
0
LINE
8
0
10
1140.827197
20
95.713348
30
0.0
11
1146.460174
21
95.713348
31
0.0
0
ARC
8
0
10
1146.460174
20
96.713348
30
0.0
40
1.000000
50
270.000000
51
326.760000
0
LINE
8
0
10
1147.296556
20
96.165201
30
0.0
11
1148.801500
21
98.461496
31
0.0
0
ARC
8
0
10
1149.637882
20
97.913348
30
0.0
40
1.000000
50
90.000000
51
146.760000
0
LINE
8
0
10
1149.637882
20
98.913348
30
0.0
11
1150.370828
21
98.913348
31
0.0
0
ARC
8
0
10
1147.397919
20
131.496771
30
0.0
40
0.500000
50
33.390000
51
90.000000
0
LINE
8
0
10
1147.397919
20
131.996771
30
0.0
11
1140.577197
21
131.996771
31
0.0
0
LINE
8
0
10
1140.577197
20
131.996771
30
0.0
11
1135.756476
21
131.996771
31
0.0
0
ARC
8
0
10
1135.756476
20
131.496771
30
0.0
40
0.500000
50
90.000000
51
146.610000
0
LINE
8
0
10
1135.339004
20
131.771939
30
0.0
11
1133.708500
21
129.298211
31
0.0
0
ARC
8
0
10
1133.148783
20
129.667136
30
0.0
40
0.670365
50
239.960294
51
326.610000
0
LINE
8
0
10
1132.813198
20
129.086816
30
0.0
11
1131.282047
21
129.972241
31
0.0
0
LINE
8
0
10
1131.282047
20
129.972241
30
0.0
11
1131.186077
21
129.996771
31
0.0
0
LINE
8
0
10
1131.186077
20
129.996771
30
0.0
11
1130.977197
21
129.996771
31
0.0
0
ARC
8
0
10
1130.977197
20
129.596771
30
0.0
40
0.400000
50
90.000000
51
180.000000
0
LINE
8
0
10
1130.577197
20
129.596771
30
0.0
11
1130.577197
21
128.996771
31
0.0
0
LINE
8
0
10
1130.577197
20
128.996771
30
0.0
11
1130.677197
21
128.996771
31
0.0
0
LINE
8
0
10
1130.677197
20
128.996771
30
0.0
11
1130.677197
21
128.621771
31
0.0
0
ARC
8
0
10
1130.877197
20
128.621771
30
0.0
40
0.200000
50
180.000000
51
270.000000
0
LINE
8
0
10
1130.877197
20
128.421771
30
0.0
11
1131.036723
21
128.421771
31
0.0
0
ARC
8
0
10
1131.327197
20
127.896771
30
0.0
40
0.600000
50
360.000000
51
118.955024
0
ARC
8
0
10
1131.327197
20
127.896771
30
0.0
40
0.600000
50
241.044976
51
360.000000
0
LINE
8
0
10
1131.036723
20
127.371771
30
0.0
11
1130.877197
21
127.371771
31
0.0
0
ARC
8
0
10
1130.877197
20
127.171771
30
0.0
40
0.200000
50
90.000000
51
180.000000
0
LINE
8
0
10
1130.677197
20
127.171771
30
0.0
11
1130.677197
21
126.796771
31
0.0
0
LINE
8
0
10
1130.677197
20
126.796771
30
0.0
11
1130.577197
21
126.796771
31
0.0
0
LINE
8
0
10
1130.577197
20
126.796771
30
0.0
11
1130.577197
21
126.196771
31
0.0
0
ARC
8
0
10
1130.977197
20
126.196771
30
0.0
40
0.400000
50
180.000000
51
270.000000
0
LINE
8
0
10
1130.977197
20
125.796771
30
0.0
11
1131.186077
21
125.796771
31
0.0
0
LINE
8
0
10
1131.186077
20
125.796771
30
0.0
11
1131.282047
21
125.821301
31
0.0
0
LINE
8
0
10
1131.282047
20
125.821301
30
0.0
11
1132.783086
21
126.689314
31
0.0
0
ARC
8
0
10
1133.183567
20
125.996771
30
0.0
40
0.800000
50
90.000000
51
120.039706
0
LINE
8
0
10
1133.183567
20
126.796771
30
0.0
11
1133.916513
21
126.796771
31
0.0
0
ARC
8
0
10
1133.916513
20
127.796771
30
0.0
40
1.000000
50
270.000000
51
326.760000
0
LINE
8
0
10
1134.752895
20
127.248624
30
0.0
11
1136.257838
21
129.544918
31
0.0
0
ARC
8
0
10
1137.094220
20
128.996771
30
0.0
40
1.000000
50
90.000000
51
146.760000
0
LINE
8
0
10
1137.094220
20
129.996771
30
0.0
11
1140.577197
21
129.996771
31
0.0
0
LINE
8
0
10
1140.577197
20
129.996771
30
0.0
11
1145.909613
21
129.996771
31
0.0
0
LINE
8
0
10
1145.909613
20
129.996771
30
0.0
11
1146.060174
21
129.996771
31
0.0
0
ARC
8
0
10
1146.060174
20
128.996771
30
0.0
40
1.000000
50
33.240000
51
90.000000
0
LINE
8
0
10
1146.896556
20
129.544918
30
0.0
11
1148.401500
21
127.248624
31
0.0
0
ARC
8
0
10
1149.237882
20
127.796771
30
0.0
40
1.000000
50
213.240000
51
270.000000
0
LINE
8
0
10
1149.237882
20
126.796771
30
0.0
11
1149.970828
21
126.796771
31
0.0
0
ARC
8
0
10
1149.970828
20
125.996771
30
0.0
40
0.800000
50
59.960294
51
90.000000
0
LINE
8
0
10
1150.371308
20
126.689314
30
0.0
11
1151.872347
21
125.821301
31
0.0
0
LINE
8
0
10
1151.872347
20
125.821301
30
0.0
11
1151.968317
21
125.796771
31
0.0
0
LINE
8
0
10
1151.968317
20
125.796771
30
0.0
11
1152.177197
21
125.796771
31
0.0
0
ARC
8
0
10
1152.177197
20
126.196771
30
0.0
40
0.400000
50
270.000000
51
360.000000
0
LINE
8
0
10
1152.577197
20
126.196771
30
0.0
11
1152.577197
21
126.796771
31
0.0
0
LINE
8
0
10
1152.577197
20
126.796771
30
0.0
11
1152.477197
21
126.796771
31
0.0
0
LINE
8
0
10
1152.477197
20
126.796771
30
0.0
11
1152.477197
21
127.171771
31
0.0
0
ARC
8
0
10
1152.277197
20
127.171771
30
0.0
40
0.200000
50
360.000000
51
90.000000
0
LINE
8
0
10
1152.277197
20
127.371771
30
0.0
11
1152.117671
21
127.371771
31
0.0
0
ARC
8
0
10
1151.827197
20
127.896771
30
0.0
40
0.600000
50
180.000000
51
298.955024
0
ARC
8
0
10
1151.827197
20
127.896771
30
0.0
40
0.600000
50
61.044976
51
180.000000
0
LINE
8
0
10
1152.117671
20
128.421771
30
0.0
11
1152.277197
21
128.421771
31
0.0
0
ARC
8
0
10
1152.277197
20
128.621771
30
0.0
40
0.200000
50
270.000000
51
360.000000
0
LINE
8
0
10
1152.477197
20
128.621771
30
0.0
11
1152.477197
21
128.996771
31
0.0
0
LINE
8
0
10
1152.477197
20
128.996771
30
0.0
11
1152.577197
21
128.996771
31
0.0
0
LINE
8
0
10
1152.577197
20
128.996771
30
0.0
11
1152.577197
21
129.596771
31
0.0
0
ARC
8
0
10
1152.177197
20
129.596771
30
0.0
40
0.400000
50
360.000000
51
90.000000
0
LINE
8
0
10
1152.177197
20
129.996771
30
0.0
11
1151.968317
21
129.996771
31
0.0
0
LINE
8
0
10
1151.968317
20
129.996771
30
0.0
11
1151.872347
21
129.972241
31
0.0
0
LINE
8
0
10
1151.872347
20
129.972241
30
0.0
11
1150.341196
21
129.086816
31
0.0
0
ARC
8
0
10
1150.005612
20
129.667136
30
0.0
40
0.670365
50
213.390000
51
300.039706
0
LINE
8
0
10
1149.445894
20
129.298211
30
0.0
11
1147.815391
21
131.771939
31
0.0
0
LINE
8
0
10
1102.477197
20
136.398083
30
0.0
11
1102.477197
21
135.398083
31
0.0
0
LINE
8
0
10
1102.477197
20
135.398083
30
0.0
11
1100.477197
21
135.398083
31
0.0
0
LINE
8
0
10
1100.477197
20
135.398083
30
0.0
11
1100.477197
21
132.398083
31
0.0
0
LINE
8
0
10
1100.477197
20
132.398083
30
0.0
11
1118.477197
21
132.398083
31
0.0
0
LINE
8
0
10
1118.477197
20
132.398083
30
0.0
11
1118.477197
21
135.398083
31
0.0
0
LINE
8
0
10
1118.477197
20
135.398083
30
0.0
11
1116.477197
21
135.398083
31
0.0
0
LINE
8
0
10
1116.477197
20
135.398083
30
0.0
11
1116.477197
21
136.398083
31
0.0
0
LINE
8
0
10
1116.477197
20
136.398083
30
0.0
11
1117.477197
21
137.398083
31
0.0
0
LINE
8
0
10
1117.477197
20
137.398083
30
0.0
11
1119.977197
21
137.398083
31
0.0
0
LINE
8
0
10
1119.977197
20
137.398083
30
0.0
11
1119.977197
21
132.398083
31
0.0
0
LINE
8
0
10
1119.977197
20
132.398083
30
0.0
11
1130.577197
21
132.398083
31
0.0
0
ARC
8
0
10
1131.652482
20
132.525387
30
0.0
40
1.082794
50
186.751888
51
236.439711
0
LINE
8
0
10
1131.053898
20
131.623090
30
0.0
11
1131.610454
21
131.232033
31
0.0
0
ARC
8
0
10
1132.242156
20
132.007244
30
0.0
40
1.000000
50
230.824144
51
328.711802
0
LINE
8
0
10
1133.096722
20
131.487901
30
0.0
11
1133.467421
21
131.968918
31
0.0
0
LINE
8
0
10
1133.467421
20
131.968918
30
0.0
11
1133.523068
21
132.176592
31
0.0
0
LINE
8
0
10
1133.523068
20
132.176592
30
0.0
11
1134.581381
21
132.183542
31
0.0
0
ARC
8
0
10
1134.583351
20
131.883549
30
0.0
40
0.300000
50
323.960215
51
90.000000
0
LINE
8
0
10
1134.825933
20
131.707045
30
0.0
11
1132.862336
21
129.008328
31
0.0
0
ARC
8
0
10
1132.700615
20
129.125998
30
0.0
40
0.200000
50
145.925018
51
323.960215
0
LINE
8
0
10
1132.534954
20
129.238053
30
0.0
11
1130.954687
21
130.347510
31
0.0
0
ARC
8
0
10
1130.689331
20
130.487462
30
0.0
40
0.300000
50
332.192367
51
75.000000
0
LINE
8
0
10
1130.766977
20
130.777239
30
0.0
11
1130.536620
21
130.838963
31
0.0
0
ARC
8
0
10
1130.577197
20
130.541720
30
0.0
40
0.300000
50
97.773469
51
270.000000
0
LINE
8
0
10
1130.577197
20
130.241720
30
0.0
11
1130.577197
21
125.751822
31
0.0
0
ARC
8
0
10
1130.777197
20
125.751822
30
0.0
40
0.200000
50
180.000000
51
299.846880
0
LINE
8
0
10
1130.876734
20
125.578351
30
0.0
11
1132.677197
21
126.611443
31
0.0
0
ARC
8
0
10
1132.877197
20
126.611178
30
0.0
40
0.200000
50
360.000000
51
180.000000
0
LINE
8
0
10
1133.077197
20
126.611178
30
0.0
11
1133.077197
21
125.227398
31
0.0
0
ARC
8
0
10
1132.877197
20
125.227398
30
0.0
40
0.200000
50
299.846880
51
360.000000
0
LINE
8
0
10
1132.976734
20
125.053926
30
0.0
11
1130.577892
21
123.677489
31
0.0
0
ARC
8
0
10
1130.727197
20
123.417281
30
0.0
40
0.300000
50
119.846880
51
180.000000
0
LINE
8
0
10
1130.427197
20
123.417281
30
0.0
11
1130.427197
21
101.775624
31
0.0
0
ARC
8
0
10
1130.727197
20
101.775624
30
0.0
40
0.300000
50
180.000000
51
240.153120
0
LINE
8
0
10
1130.577892
20
101.515417
30
0.0
11
1132.376734
21
100.483255
31
0.0
0
ARC
8
0
10
1132.277197
20
100.309783
30
0.0
40
0.200000
50
360.000000
51
60.153120
0
LINE
8
0
10
1132.477197
20
100.309783
30
0.0
11
1132.477197
21
99.098942
31
0.0
0
ARC
8
0
10
1132.277197
20
99.098942
30
0.0
40
0.200000
50
180.000000
51
360.000000
0
LINE
8
0
10
1132.077197
20
99.098677
30
0.0
11
1130.276734
21
100.131769
31
0.0
0
ARC
8
0
10
1130.177197
20
99.958297
30
0.0
40
0.200000
50
60.153120
51
180.000000
0
LINE
8
0
10
1129.977197
20
99.958297
30
0.0
11
1129.977197
21
95.468400
31
0.0
0
ARC
8
0
10
1129.977197
20
95.168400
30
0.0
40
0.300000
50
90.000000
51
265.582738
0
LINE
8
0
10
1129.954091
20
94.869291
30
0.0
11
1130.215012
21
94.939204
31
0.0
0
ARC
8
0
10
1130.137367
20
95.228982
30
0.0
40
0.300000
50
285.000000
51
27.807633
0
LINE
8
0
10
1130.402722
20
95.368933
30
0.0
11
1131.982989
21
96.478391
31
0.0
0
ARC
8
0
10
1132.148650
20
96.590446
30
0.0
40
0.200000
50
36.039785
51
214.074982
0
LINE
8
0
10
1132.310372
20
96.708115
30
0.0
11
1134.273969
21
94.009399
31
0.0
0
ARC
8
0
10
1134.031386
20
93.832895
30
0.0
40
0.300000
50
270.000000
51
36.039785
0
LINE
8
0
10
1134.029416
20
93.532901
30
0.0
11
1132.971103
21
93.539851
31
0.0
0
LINE
8
0
10
1132.971103
20
93.539851
30
0.0
11
1132.915457
21
93.747525
31
0.0
0
LINE
8
0
10
1132.915457
20
93.747525
30
0.0
11
1132.544758
21
94.228543
31
0.0
0
ARC
8
0
10
1131.690192
20
93.709200
30
0.0
40
1.000000
50
31.288198
51
129.175856
0
LINE
8
0
10
1131.058489
20
94.484411
30
0.0
11
1130.501933
21
94.093354
31
0.0
0
ARC
8
0
10
1130.957020
20
93.163529
30
0.0
40
1.035219
50
116.078638
51
161.171486
0
LINE
8
0
10
1129.977197
20
93.497632
30
0.0
11
1129.477197
21
93.497632
31
0.0
0
LINE
8
0
10
1129.477197
20
93.497632
30
0.0
11
1129.477197
21
85.898083
31
0.0
0
LINE
8
0
10
1129.477197
20
85.898083
30
0.0
11
1128.352197
21
85.898083
31
0.0
0
ARC
8
0
10
1128.352197
20
86.198083
30
0.0
40
0.300000
50
180.000000
51
270.000000
0
LINE
8
0
10
1128.052197
20
86.198083
30
0.0
11
1128.052197
21
88.098083
31
0.0
0
LINE
8
0
10
1128.052197
20
88.098083
30
0.0
11
1125.977197
21
88.098083
31
0.0
0
LINE
8
0
10
1125.977197
20
88.098083
30
0.0
11
1125.977197
21
89.698083
31
0.0
0
LINE
8
0
10
1125.977197
20
89.698083
30
0.0
11
1127.977197
21
89.698083
31
0.0
0
LINE
8
0
10
1127.977197
20
89.698083
30
0.0
11
1127.977197
21
97.798083
31
0.0
0
LINE
8
0
10
1127.977197
20
97.798083
30
0.0
11
1123.877197
21
97.798083
31
0.0
0
LINE
8
0
10
1123.877197
20
97.798083
30
0.0
11
1123.877197
21
97.398083
31
0.0
0
LINE
8
0
10
1123.877197
20
97.398083
30
0.0
11
1120.177197
21
97.398083
31
0.0
0
LINE
8
0
10
1120.177197
20
97.398083
30
0.0
11
1119.877197
21
97.698083
31
0.0
0
LINE
8
0
10
1119.877197
20
97.698083
30
0.0
11
1119.577197
21
97.398083
31
0.0
0
LINE
8
0
10
1119.577197
20
97.398083
30
0.0
11
1115.877197
21
97.398083
31
0.0
0
LINE
8
0
10
1115.877197
20
97.398083
30
0.0
11
1115.877197
21
97.798083
31
0.0
0
LINE
8
0
10
1115.877197
20
97.798083
30
0.0
11
1111.777197
21
97.798083
31
0.0
0
LINE
8
0
10
1111.777197
20
97.798083
30
0.0
11
1111.777197
21
89.698083
31
0.0
0
LINE
8
0
10
1111.777197
20
89.698083
30
0.0
11
1113.777197
21
89.698083
31
0.0
0
LINE
8
0
10
1113.777197
20
89.698083
30
0.0
11
1113.777197
21
88.098083
31
0.0
0
LINE
8
0
10
1113.777197
20
88.098083
30
0.0
11
1111.702197
21
88.098083
31
0.0
0
LINE
8
0
10
1111.702197
20
88.098083
30
0.0
11
1111.702197
21
86.198083
31
0.0
0
ARC
8
0
10
1111.402197
20
86.198083
30
0.0
40
0.300000
50
270.000000
51
360.000000
0
LINE
8
0
10
1111.402197
20
85.898083
30
0.0
11
1103.028757
21
85.898083
31
0.0
0
ARC
8
0
10
1103.028757
20
86.898083
30
0.0
40
1.000000
50
195.000000
51
270.000000
0
LINE
8
0
10
1102.062831
20
86.639264
30
0.0
11
1101.600754
21
88.363757
31
0.0
0
LINE
8
0
10
1101.600754
20
88.363757
30
0.0
11
1101.467341
21
88.363757
31
0.0
0
ARC
8
0
10
1101.467341
20
88.475293
30
0.0
40
0.111536
50
150.000000
51
270.000000
0
LINE
8
0
10
1101.370748
20
88.531061
30
0.0
11
1101.497226
21
88.750128
31
0.0
0
LINE
8
0
10
1101.497226
20
88.750128
30
0.0
11
1101.377197
21
89.198083
31
0.0
0
LINE
8
0
10
1101.377197
20
89.198083
30
0.0
11
1100.377197
21
89.198083
31
0.0
0
LINE
8
0
10
1100.377197
20
89.198083
30
0.0
11
1100.377197
21
74.198083
31
0.0
0
LINE
8
0
10
1100.377197
20
74.198083
30
0.0
11
1101.377197
21
74.198083
31
0.0
0
LINE
8
0
10
1101.377197
20
74.198083
30
0.0
11
1101.497226
21
74.646038
31
0.0
0
LINE
8
0
10
1101.497226
20
74.646038
30
0.0
11
1101.370748
21
74.865105
31
0.0
0
ARC
8
0
10
1101.467341
20
74.920873
30
0.0
40
0.111536
50
90.000000
51
210.000000
0
LINE
8
0
10
1101.467341
20
75.032409
30
0.0
11
1101.600754
21
75.032409
31
0.0
0
LINE
8
0
10
1101.600754
20
75.032409
30
0.0
11
1101.645146
21
75.198083
31
0.0
0
LINE
8
0
10
1101.645146
20
75.198083
30
0.0
11
1101.645146
21
75.298083
31
0.0
0
LINE
8
0
10
1101.645146
20
75.298083
30
0.0
11
1101.677197
21
75.298083
31
0.0
0
ARC
8
0
10
1101.677197
20
74.298083
30
0.0
40
1.000000
50
360.000000
51
90.000000
0
LINE
8
0
10
1102.677197
20
74.298083
30
0.0
11
1102.677197
21
73.718083
31
0.0
0
LINE
8
0
10
1102.677197
20
73.718083
30
0.0
11
1101.977197
21
71.898083
31
0.0
0
LINE
8
0
10
1101.977197
20
71.898083
30
0.0
11
1101.477197
21
71.898083
31
0.0
0
LINE
8
0
10
1101.477197
20
71.898083
30
0.0
11
1101.477197
21
73.198083
31
0.0
0
LINE
8
0
10
1101.477197
20
73.198083
30
0.0
11
1100.177197
21
73.198083
31
0.0
0
LINE
8
0
10
1100.177197
20
73.198083
30
0.0
11
1100.177197
21
67.098083
31
0.0
0
LINE
8
0
10
1100.177197
20
67.098083
30
0.0
11
1101.477197
21
67.098083
31
0.0
0
LINE
8
0
10
1101.477197
20
67.098083
30
0.0
11
1101.477197
21
68.398083
31
0.0
0
LINE
8
0
10
1101.477197
20
68.398083
30
0.0
11
1101.977197
21
68.398083
31
0.0
0
LINE
8
0
10
1101.977197
20
68.398083
30
0.0
11
1102.477197
21
67.098083
31
0.0
0
LINE
8
0
10
1102.477197
20
67.098083
30
0.0
11
1102.477197
21
66.398083
31
0.0
0
ARC
8
0
10
1101.977197
20
66.398083
30
0.0
40
0.500000
50
270.000000
51
360.000000
0
LINE
8
0
10
1101.977197
20
65.898083
30
0.0
11
1099.477197
21
65.898083
31
0.0
0
ARC
8
0
10
1099.477197
20
66.398083
30
0.0
40
0.500000
50
180.000000
51
270.000000
0
LINE
8
0
10
1098.977197
20
66.398083
30
0.0
11
1098.977197
21
137.398083
31
0.0
0
LINE
8
0
10
1098.977197
20
137.398083
30
0.0
11
1101.477197
21
137.398083
31
0.0
0
LINE
8
0
10
1101.477197
20
137.398083
30
0.0
11
1102.477197
21
136.398083
31
0.0
0
ARC
8
0
10
1128.627197
20
101.598083
30
0.0
40
0.300000
50
270.000000
51
360.000000
0
LINE
8
0
10
1128.927197
20
101.598083
30
0.0
11
1128.927197
21
128.898083
31
0.0
0
LINE
8
0
10
1128.927197
20
128.898083
30
0.0
11
1128.477197
21
128.898083
31
0.0
0
LINE
8
0
10
1128.477197
20
128.898083
30
0.0
11
1128.477197
21
130.798083
31
0.0
0
LINE
8
0
10
1128.477197
20
130.798083
30
0.0
11
1126.477197
21
130.798083
31
0.0
0
LINE
8
0
10
1126.477197
20
130.798083
30
0.0
11
1126.477197
21
130.898083
31
0.0
0
LINE
8
0
10
1126.477197
20
130.898083
30
0.0
11
1104.877197
21
130.898083
31
0.0
0
LINE
8
0
10
1104.877197
20
130.898083
30
0.0
11
1104.877197
21
130.798083
31
0.0
0
LINE
8
0
10
1104.877197
20
130.798083
30
0.0
11
1102.877197
21
130.798083
31
0.0
0
LINE
8
0
10
1102.877197
20
130.798083
30
0.0
11
1102.877197
21
129.276436
31
0.0
0
ARC
8
0
10
1102.501090
20
129.276436
30
0.0
40
0.376107
50
195.000000
51
360.000000
0
LINE
8
0
10
1102.137799
20
129.179093
30
0.0
11
1101.677197
21
130.898083
31
0.0
0
LINE
8
0
10
1101.677197
20
130.898083
30
0.0
11
1100.427197
21
130.898083
31
0.0
0
LINE
8
0
10
1100.427197
20
130.898083
30
0.0
11
1100.427197
21
90.648083
31
0.0
0
LINE
8
0
10
1100.427197
20
90.648083
30
0.0
11
1102.106158
21
90.648083
31
0.0
0
ARC
8
0
10
1102.106158
20
90.148083
30
0.0
40
0.500000
50
15.000000
51
90.000000
0
LINE
8
0
10
1102.589121
20
90.277493
30
0.0
11
1103.314474
21
87.570437
31
0.0
0
ARC
8
0
10
1103.604252
20
87.648083
30
0.0
40
0.300000
50
195.000000
51
270.000000
0
LINE
8
0
10
1103.604252
20
87.348083
30
0.0
11
1110.277197
21
87.348083
31
0.0
0
LINE
8
0
10
1110.277197
20
87.348083
30
0.0
11
1110.277197
21
98.798083
31
0.0
0
ARC
8
0
10
1110.777197
20
98.798083
30
0.0
40
0.500000
50
90.000000
51
180.000000
0
LINE
8
0
10
1110.777197
20
99.298083
30
0.0
11
1128.477197
21
99.298083
31
0.0
0
LINE
8
0
10
1128.477197
20
99.298083
30
0.0
11
1128.477197
21
101.298083
31
0.0
0
LINE
8
0
10
1128.477197
20
101.298083
30
0.0
11
1128.627197
21
101.298083
31
0.0
0
LINE
8
0
10
1158.077197
20
120.734686
30
0.0
11
1158.896812
21
121.207891
31
0.0
0
ARC
8
0
10
1159.046812
20
120.948083
30
0.0
40
0.300000
50
90.000000
51
120.000000
0
LINE
8
0
10
1159.046812
20
121.248083
30
0.0
11
1159.427197
21
121.248083
31
0.0
0
ARC
8
0
10
1159.427197
20
121.748083
30
0.0
40
0.500000
50
270.000000
51
360.000000
0
LINE
8
0
10
1159.927197
20
121.748083
30
0.0
11
1159.927197
21
155.398083
31
0.0
0
ARC
8
0
10
1155.377197
20
155.398083
30
0.0
40
4.550000
50
360.000000
51
90.000000
0
LINE
8
0
10
1155.377197
20
159.948083
30
0.0
11
1155.027197
21
159.948083
31
0.0
0
LINE
8
0
10
1155.027197
20
159.948083
30
0.0
11
1155.027197
21
152.648083
31
0.0
0
LINE
8
0
10
1155.027197
20
152.648083
30
0.0
11
1155.427197
21
152.648083
31
0.0
0
ARC
8
0
10
1155.427197
20
151.148083
30
0.0
40
1.500000
50
360.000000
51
90.000000
0
LINE
8
0
10
1156.927197
20
151.148083
30
0.0
11
1156.927197
21
141.748083
31
0.0
0
ARC
8
0
10
1155.427197
20
141.748083
30
0.0
40
1.500000
50
270.000000
51
360.000000
0
LINE
8
0
10
1155.427197
20
140.248083
30
0.0
11
1154.527197
21
140.248083
31
0.0
0
LINE
8
0
10
1154.527197
20
140.248083
30
0.0
11
1154.527197
21
131.183252
31
0.0
0
ARC
8
0
10
1154.077197
20
131.183252
30
0.0
40
0.450000
50
309.166711
51
360.000000
0
ARC
8
0
10
1154.677197
20
130.446706
30
0.0
40
0.500000
50
129.166711
51
180.000000
0
LINE
8
0
10
1154.177197
20
130.446706
30
0.0
11
1154.177197
21
125.528266
31
0.0
0
ARC
8
0
10
1154.677197
20
125.528266
30
0.0
40
0.500000
50
180.000000
51
230.833289
0
ARC
8
0
10
1154.077197
20
124.791720
30
0.0
40
0.450000
50
360.000000
51
50.833289
0
LINE
8
0
10
1154.527197
20
124.791720
30
0.0
11
1154.527197
21
105.848083
31
0.0
0
LINE
8
0
10
1154.527197
20
105.848083
30
0.0
11
1159.927197
21
105.848083
31
0.0
0
LINE
8
0
10
1159.927197
20
105.848083
30
0.0
11
1159.927197
21
120.048083
31
0.0
0
LINE
8
0
10
1159.927197
20
120.048083
30
0.0
11
1157.927197
21
120.048083
31
0.0
0
LINE
8
0
10
1157.927197
20
120.048083
30
0.0
11
1157.927197
21
120.474878
31
0.0
0
ARC
8
0
10
1158.227197
20
120.474878
30
0.0
40
0.300000
50
120.000000
51
180.000000
0
LINE
8
0
10
1160.077197
20
103.898083
30
0.0
11
1160.077197
21
104.398083
31
0.0
0
LINE
8
0
10
1160.077197
20
104.398083
30
0.0
11
1154.877197
21
104.398083
31
0.0
0
LINE
8
0
10
1154.877197
20
104.398083
30
0.0
11
1154.877197
21
93.798083
31
0.0
0
ARC
8
0
10
1154.577197
20
93.798083
30
0.0
40
0.300000
50
270.000000
51
360.000000
0
LINE
8
0
10
1154.577197
20
93.498083
30
0.0
11
1153.974117
21
93.498083
31
0.0
0
ARC
8
0
10
1153.974117
20
95.498083
30
0.0
40
2.000000
50
231.630192
51
270.000000
0
LINE
8
0
10
1152.732647
20
93.930042
30
0.0
11
1151.784995
21
94.555978
31
0.0
0
ARC
8
0
10
1151.262666
20
93.703917
30
0.0
40
1.000000
50
58.490937
51
148.711802
0
LINE
8
0
10
1150.408100
20
94.223260
30
0.0
11
1150.037401
21
93.742242
31
0.0
0
LINE
8
0
10
1150.037401
20
93.742242
30
0.0
11
1149.981755
21
93.534568
31
0.0
0
LINE
8
0
10
1149.981755
20
93.534568
30
0.0
11
1148.928559
21
93.527652
31
0.0
0
ARC
8
0
10
1148.921472
20
93.827612
30
0.0
40
0.300000
50
163.748585
51
270.000000
0
LINE
8
0
10
1148.633459
20
93.911568
30
0.0
11
1150.641686
21
96.712742
31
0.0
0
ARC
8
0
10
1150.800917
20
96.591724
30
0.0
40
0.200000
50
327.645975
51
141.371623
0
LINE
8
0
10
1150.964604
20
96.476804
30
0.0
11
1152.547545
21
95.365469
31
0.0
0
ARC
8
0
10
1152.840558
20
95.236947
30
0.0
40
0.319960
50
156.316628
51
258.724357
0
LINE
8
0
10
1152.777996
20
94.923163
30
0.0
11
1152.999695
21
94.863759
31
0.0
0
ARC
8
0
10
1152.977197
20
95.162914
30
0.0
40
0.300000
50
274.300724
51
90.000000
0
LINE
8
0
10
1152.977197
20
95.462914
30
0.0
11
1152.977197
21
99.962914
31
0.0
0
ARC
8
0
10
1152.777197
20
99.952812
30
0.0
40
0.200000
50
2.891595
51
119.846880
0
LINE
8
0
10
1152.677660
20
100.126284
30
0.0
11
1150.877197
21
99.093192
31
0.0
0
ARC
8
0
10
1150.677197
20
99.093456
30
0.0
40
0.200000
50
180.000000
51
360.000000
0
LINE
8
0
10
1150.477197
20
99.093456
30
0.0
11
1150.477197
21
99.262914
31
0.0
0
LINE
8
0
10
1150.477197
20
99.262914
30
0.0
11
1150.477197
21
100.477237
31
0.0
0
ARC
8
0
10
1150.677197
20
100.477237
30
0.0
40
0.200000
50
119.846880
51
180.000000
0
LINE
8
0
10
1150.577660
20
100.650708
30
0.0
11
1152.776039
21
101.912122
31
0.0
0
ARC
8
0
10
1152.527197
20
102.345801
30
0.0
40
0.500000
50
299.846880
51
360.000000
0
LINE
8
0
10
1153.027197
20
102.345801
30
0.0
11
1153.027197
21
123.129317
31
0.0
0
ARC
8
0
10
1152.527197
20
123.129317
30
0.0
40
0.500000
50
360.000000
51
60.153120
0
LINE
8
0
10
1152.776039
20
123.562996
30
0.0
11
1150.182581
21
125.051103
31
0.0
0
ARC
8
0
10
1150.277197
20
125.227398
30
0.0
40
0.200000
50
180.000000
51
241.694535
0
LINE
8
0
10
1150.077197
20
125.227398
30
0.0
11
1150.077197
21
126.441720
31
0.0
0
LINE
8
0
10
1150.077197
20
126.441720
30
0.0
11
1150.077197
21
126.611178
31
0.0
0
ARC
8
0
10
1150.277197
20
126.611178
30
0.0
40
0.200000
50
360.000000
51
180.000000
0
LINE
8
0
10
1150.477197
20
126.611443
30
0.0
11
1152.277660
21
125.578351
31
0.0
0
ARC
8
0
10
1152.377197
20
125.751822
30
0.0
40
0.200000
50
240.153120
51
357.108405
0
LINE
8
0
10
1152.577197
20
125.741720
30
0.0
11
1152.577197
21
130.233252
31
0.0
0
ARC
8
0
10
1152.577197
20
130.533252
30
0.0
40
0.300000
50
270.000000
51
85.931884
0
LINE
8
0
10
1152.598480
20
130.832496
30
0.0
11
1152.348953
21
130.765635
31
0.0
0
ARC
8
0
10
1152.421628
20
130.467782
30
0.0
40
0.306592
50
103.711923
51
204.856892
0
LINE
8
0
10
1152.143439
20
130.338905
30
0.0
11
1150.560206
21
129.227365
31
0.0
0
ARC
8
0
10
1150.396519
20
129.112445
30
0.0
40
0.200000
50
230.497444
51
35.071526
0
LINE
8
0
10
1150.269296
20
128.958126
30
0.0
11
1148.229061
21
131.792601
31
0.0
0
ARC
8
0
10
1148.517074
20
131.876557
30
0.0
40
0.300000
50
90.000000
51
196.251415
0
LINE
8
0
10
1148.524161
20
132.176517
30
0.0
11
1149.577357
21
132.169601
31
0.0
0
LINE
8
0
10
1149.577357
20
132.169601
30
0.0
11
1149.633003
21
131.961927
31
0.0
0
LINE
8
0
10
1149.633003
20
131.961927
30
0.0
11
1150.003702
21
131.480909
31
0.0
0
ARC
8
0
10
1150.858268
20
132.000252
30
0.0
40
1.000000
50
211.288198
51
301.509063
0
LINE
8
0
10
1151.380597
20
131.148191
30
0.0
11
1152.132591
21
131.676570
31
0.0
0
ARC
8
0
10
1151.534097
20
132.643522
30
0.0
40
1.137185
50
301.755408
51
336.474963
0
LINE
8
0
10
1152.576766
20
132.189615
30
0.0
11
1153.077197
21
132.189615
31
0.0
0
LINE
8
0
10
1153.077197
20
132.189615
30
0.0
11
1153.077197
21
140.298083
31
0.0
0
ARC
8
0
10
1153.077197
20
141.298083
30
0.0
40
1.000000
50
180.000000
51
270.000000
0
LINE
8
0
10
1152.077197
20
141.298083
30
0.0
11
1152.077197
21
142.548083
31
0.0
0
ARC
8
0
10
1152.577197
20
142.548083
30
0.0
40
0.500000
50
360.000000
51
180.000000
0
LINE
8
0
10
1153.077197
20
142.548083
30
0.0
11
1153.077197
21
141.698083
31
0.0
0
LINE
8
0
10
1153.077197
20
141.698083
30
0.0
11
1155.477197
21
141.698083
31
0.0
0
LINE
8
0
10
1155.477197
20
141.698083
30
0.0
11
1155.477197
21
151.198083
31
0.0
0
LINE
8
0
10
1155.477197
20
151.198083
30
0.0
11
1153.077197
21
151.198083
31
0.0
0
LINE
8
0
10
1153.077197
20
151.198083
30
0.0
11
1153.077197
21
150.348083
31
0.0
0
ARC
8
0
10
1152.577197
20
150.348083
30
0.0
40
0.500000
50
180.000000
51
360.000000
0
LINE
8
0
10
1152.077197
20
150.348083
30
0.0
11
1152.077197
21
151.598083
31
0.0
0
LINE
8
0
10
1152.077197
20
151.598083
30
0.0
11
1150.377197
21
151.598083
31
0.0
0
LINE
8
0
10
1150.377197
20
151.598083
30
0.0
11
1150.377197
21
152.598083
31
0.0
0
LINE
8
0
10
1150.377197
20
152.598083
30
0.0
11
1151.277197
21
152.598083
31
0.0
0
LINE
8
0
10
1151.277197
20
152.598083
30
0.0
11
1151.777197
21
154.348083
31
0.0
0
LINE
8
0
10
1151.777197
20
154.348083
30
0.0
11
1152.277197
21
154.348083
31
0.0
0
LINE
8
0
10
1152.277197
20
154.348083
30
0.0
11
1152.277197
21
152.598083
31
0.0
0
LINE
8
0
10
1152.277197
20
152.598083
30
0.0
11
1153.577197
21
152.598083
31
0.0
0
LINE
8
0
10
1153.577197
20
152.598083
30
0.0
11
1153.577197
21
160.098083
31
0.0
0
LINE
8
0
10
1153.577197
20
160.098083
30
0.0
11
1152.277197
21
160.098083
31
0.0
0
LINE
8
0
10
1152.277197
20
160.098083
30
0.0
11
1152.277197
21
158.348083
31
0.0
0
LINE
8
0
10
1152.277197
20
158.348083
30
0.0
11
1151.777197
21
158.348083
31
0.0
0
LINE
8
0
10
1151.777197
20
158.348083
30
0.0
11
1151.334340
21
159.898083
31
0.0
0
LINE
8
0
10
1151.334340
20
159.898083
30
0.0
11
1150.377197
21
159.898083
31
0.0
0
LINE
8
0
10
1150.377197
20
159.898083
30
0.0
11
1150.377197
21
160.898083
31
0.0
0
ARC
8
0
10
1150.877197
20
160.898083
30
0.0
40
0.500000
50
90.000000
51
180.000000
0
LINE
8
0
10
1150.877197
20
161.398083
30
0.0
11
1155.377197
21
161.398083
31
0.0
0
ARC
8
0
10
1155.377197
20
155.398083
30
0.0
40
6.000000
50
360.000000
51
90.000000
0
LINE
8
0
10
1161.377197
20
155.398083
30
0.0
11
1161.377197
21
102.898083
31
0.0
0
LINE
8
0
10
1161.377197
20
102.898083
30
0.0
11
1161.077197
21
102.898083
31
0.0
0
ARC
8
0
10
1161.077197
20
103.898083
30
0.0
40
1.000000
50
180.000000
51
270.000000
0
ATTDEF
8
0
10
0.000000
20
0.000000
30
0.0
40
3.5
1

3

2
PANE_WIDTH:0
70
0
0
ATTDEF
8
0
10
0.000000
20
0.000000
30
0.0
40
3.5
1

3

2
MIN_VETRO:0
70
0
0
ATTDEF
8
0
10
0.000000
20
0.000000
30
0.0
40
3.5
1

3

2
MAX_VETRO:0
70
0
0
ATTDEF
8
0
10
0.000000
20
0.000000
30
0.0
40
3.5
1

3

2
JX:0
70
0
0
ATTDEF
8
0
10
0.000000
20
0.000000
30
0.0
40
3.5
1

3

2
WX:0
70
0
0
ATTDEF
8
0
10
0.000000
20
0.000000
30
0.0
40
3.5
1

3

2
JY:0
70
0
0
ATTDEF
8
0
10
0.000000
20
0.000000
30
0.0
40
3.5
1

3

2
WY:0
70
0
0
ATTDEF
8
0
10
0.000000
20
0.000000
30
0.0
40
3.5
1

3

2
DESC:H.balconera C16 redo
70
0
0
ATTDEF
8
0
10
0.000000
20
0.000000
30
0.0
40
3.5
1

3

2
DENS:1.8026
70
0
0
ATTDEF
8
0
10
0.000000
20
0.000000
30
0.0
40
3.5
1

3

2
TDEV:79.02
70
0
0
ATTDEF
8
0
10
0.000000
20
0.000000
30
0.0
40
3.5
1

3

2
TDEV2:0
70
0
0
ATTDEF
8
0
10
0.000000
20
0.000000
30
0.0
40
3.5
1

3

2
TDEV3:0
70
0
0
ATTDEF
8
0
10
0.000000
20
0.000000
30
0.0
40
3.5
1

3

2
TDEV4:0
70
0
0
ATTDEF
8
0
10
0.000000
20
0.000000
30
0.0
40
3.5
1

3

2
TDEV5:0
70
0
0
ATTDEF
8
0
10
0.000000
20
0.000000
30
0.0
40
3.5
1

3

2
PANE_WIDTH:0
70
0
0
ATTDEF
8
0
10
0.000000
20
0.000000
30
0.0
40
3.5
1

3

2
MIN_VETRO:0
70
0
0
ATTDEF
8
0
10
0.000000
20
0.000000
30
0.0
40
3.5
1

3

2
MAX_VETRO:0
70
0
0
ATTDEF
8
0
10
0.000000
20
0.000000
30
0.0
40
3.5
1

3

2
JX:0
70
0
0
ATTDEF
8
0
10
0.000000
20
0.000000
30
0.0
40
3.5
1

3

2
WX:0
70
0
0
ATTDEF
8
0
10
0.000000
20
0.000000
30
0.0
40
3.5
1

3

2
JY:0
70
0
0
ATTDEF
8
0
10
0.000000
20
0.000000
30
0.0
40
3.5
1

3

2
WY:0
70
0
0
ATTDEF
8
0
10
1098.977197
20
137.398083
30
0.0
40
3.5
1

3

2
VC_START
70
0
0
ATTDEF
8
0
10
1129.477197
20
85.898083
30
0.0
40
3.5
1

3

2
VC_END
70
0
0
ATTDEF
8
0
10
1161.377197
20
65.898083
30
0.0
40
3.5
1

3

2
FP_LCS_ORIG
70
0
0
ATTDEF
8
0
10
1151.377197
20
65.898083
30
0.0
40
3.5
1

3

2
FP_LCS_HOT
70
0
0
ATTDEF
8
0
10
1161.377197
20
75.898083
30
0.0
40
3.5
1

3

2
FP_LCS_INTERN
70
0
0
ENDSEC
0
EOF
