0
SECTION
2
ENTITIES
0
ARC
8
0
10
29.150182
20
7.791998
30
0.0
40
0.600000
50
0.000000
51
180.000000
0
ARC
8
0
10
29.150182
20
7.791998
30
0.0
40
0.600000
50
180.000000
51
0.000000
0
ARC
8
0
10
29.150182
20
15.364124
30
0.0
40
0.600000
50
0.000000
51
180.000000
0
ARC
8
0
10
29.150182
20
15.364124
30
0.0
40
0.600000
50
180.000000
51
0.000000
0
ARC
8
0
10
52.850185
20
15.364124
30
0.0
40
0.600000
50
0.000000
51
180.000000
0
ARC
8
0
10
52.850185
20
15.364124
30
0.0
40
0.600000
50
180.000000
51
0.000000
0
ARC
8
0
10
52.850185
20
7.791998
30
0.0
40
0.600000
50
0.000000
51
180.000000
0
ARC
8
0
10
52.850185
20
7.791998
30
0.0
40
0.600000
50
180.000000
51
0.000000
0
ARC
8
0
10
24.600001
20
20.800002
30
0.0
40
0.300000
50
270.000000
51
0.000000
0
LINE
8
0
10
24.600001
20
20.500002
30
0.0
11
23.100001
21
20.500002
31
0.0
0
ARC
8
0
10
23.100001
20
20.200002
30
0.0
40
0.300000
50
90.000000
51
180.000000
0
LINE
8
0
10
22.800001
20
20.200002
30
0.0
11
22.800001
21
18.700002
31
0.0
0
ARC
8
0
10
23.100001
20
18.700002
30
0.0
40
0.300000
50
180.000000
51
270.000000
0
LINE
8
0
10
23.100001
20
18.400002
30
0.0
11
26.700001
21
18.400002
31
0.0
0
ARC
8
0
10
26.700001
20
18.700002
30
0.0
40
0.300000
50
270.000000
51
0.000000
0
LINE
8
0
10
27.000001
20
18.700002
30
0.0
11
27.000001
21
19.403709
31
0.0
0
ARC
8
0
10
27.300001
20
19.403709
30
0.0
40
0.300000
50
90.000000
51
180.000000
0
LINE
8
0
10
27.300001
20
19.703709
30
0.0
11
28.517207
21
19.703709
31
0.0
0
ARC
8
0
10
28.517207
20
19.403709
30
0.0
40
0.300000
50
44.759791
51
90.000000
0
ARC
8
0
10
30.150356
20
21.023222
30
0.0
40
2.000000
50
224.759790
51
313.534275
0
ARC
8
0
10
31.872327
20
19.210816
30
0.0
40
0.500000
50
90.000000
51
133.534275
0
LINE
8
0
10
31.872327
20
19.710816
30
0.0
11
32.561124
21
19.710816
31
0.0
0
ARC
8
0
10
32.561124
20
19.410816
30
0.0
40
0.300000
50
329.502378
51
90.000000
0
LINE
8
0
10
32.819619
20
19.258565
30
0.0
11
31.395915
21
16.841366
31
0.0
0
LINE
8
0
10
31.395915
20
16.841366
30
0.0
11
31.353301
21
16.785302
31
0.0
0
LINE
8
0
10
31.353301
20
16.785302
30
0.0
11
30.893134
21
16.308421
31
0.0
0
ARC
8
0
10
30.788344
20
16.409538
30
0.0
40
0.145621
50
180.000000
51
316.021839
0
LINE
8
0
10
30.643021
20
16.418831
30
0.0
11
30.652949
21
16.574095
31
0.0
0
ARC
8
0
10
30.453357
20
16.586859
30
0.0
40
0.200000
50
356.341100
51
49.517123
0
LINE
8
0
10
30.583201
20
16.738979
30
0.0
11
28.978999
21
18.108268
31
0.0
0
ARC
8
0
10
28.784233
20
17.880088
30
0.0
40
0.300000
50
49.517123
51
71.341100
0
LINE
8
0
10
28.880213
20
18.164320
30
0.0
11
28.595981
21
18.260300
31
0.0
0
ARC
8
0
10
28.500001
20
17.976068
30
0.0
40
0.300000
50
71.341100
51
270.000000
0
LINE
8
0
10
28.500001
20
17.676068
30
0.0
11
28.500001
21
13.176068
31
0.0
0
ARC
8
0
10
28.700001
20
13.176068
30
0.0
40
0.200000
50
180.000000
51
270.000000
0
LINE
8
0
10
28.700001
20
12.976068
30
0.0
11
28.767889
21
12.976068
31
0.0
0
ARC
8
0
10
28.767889
20
13.276068
30
0.0
40
0.300000
50
270.000000
51
301.380132
0
LINE
8
0
10
28.924104
20
13.019948
30
0.0
11
30.600097
21
14.042181
31
0.0
0
ARC
8
0
10
30.800001
20
14.048371
30
0.0
40
0.200000
50
0.000000
51
180.000000
0
LINE
8
0
10
31.000001
20
14.048371
30
0.0
11
31.000001
21
12.641381
31
0.0
0
ARC
8
0
10
30.800001
20
12.641381
30
0.0
40
0.200000
50
301.380132
51
0.000000
0
LINE
8
0
10
30.904143
20
12.470635
30
0.0
11
29.860654
21
11.834182
31
0.0
0
ARC
8
0
10
30.016868
20
11.578063
30
0.0
40
0.300000
50
121.380132
51
238.619868
0
LINE
8
0
10
29.860654
20
11.321944
30
0.0
11
30.904143
21
10.685491
31
0.0
0
ARC
8
0
10
30.800001
20
10.514745
30
0.0
40
0.200000
50
0.000000
51
58.619868
0
LINE
8
0
10
31.000001
20
10.514745
30
0.0
11
31.000001
21
9.107755
31
0.0
0
ARC
8
0
10
30.800001
20
9.107755
30
0.0
40
0.200000
50
180.000000
51
0.000000
0
LINE
8
0
10
30.600097
20
9.113945
30
0.0
11
28.924104
21
10.136178
31
0.0
0
ARC
8
0
10
28.767889
20
9.880058
30
0.0
40
0.300000
50
58.619868
51
90.000000
0
LINE
8
0
10
28.767889
20
10.180058
30
0.0
11
28.700001
21
10.180058
31
0.0
0
ARC
8
0
10
28.700001
20
9.980058
30
0.0
40
0.200000
50
90.000000
51
180.000000
0
LINE
8
0
10
28.500001
20
9.980058
30
0.0
11
28.500001
21
5.480058
31
0.0
0
ARC
8
0
10
28.500001
20
5.180058
30
0.0
40
0.300000
50
90.000000
51
288.658900
0
LINE
8
0
10
28.595981
20
4.895826
30
0.0
11
28.880213
21
4.991806
31
0.0
0
ARC
8
0
10
28.784233
20
5.276038
30
0.0
40
0.300000
50
288.658900
51
310.482877
0
LINE
8
0
10
28.978999
20
5.047858
30
0.0
11
30.583201
21
6.417147
31
0.0
0
ARC
8
0
10
30.453357
20
6.569267
30
0.0
40
0.200000
50
310.482877
51
3.658900
0
LINE
8
0
10
30.652949
20
6.582031
30
0.0
11
30.643021
21
6.737295
31
0.0
0
ARC
8
0
10
30.788344
20
6.746588
30
0.0
40
0.145621
50
43.978161
51
180.000000
0
LINE
8
0
10
30.893134
20
6.847705
30
0.0
11
31.353301
21
6.370824
31
0.0
0
LINE
8
0
10
31.353301
20
6.370824
30
0.0
11
31.395915
21
6.314760
31
0.0
0
LINE
8
0
10
31.395915
20
6.314760
30
0.0
11
32.819619
21
3.897561
31
0.0
0
ARC
8
0
10
32.561124
20
3.745310
30
0.0
40
0.300000
50
270.000000
51
30.497622
0
LINE
8
0
10
32.561124
20
3.445310
30
0.0
11
31.872327
21
3.445310
31
0.0
0
ARC
8
0
10
31.872327
20
3.945310
30
0.0
40
0.500000
50
226.465725
51
270.000000
0
ARC
8
0
10
30.150356
20
2.132904
30
0.0
40
2.000000
50
46.465725
51
142.591719
0
ARC
8
0
10
28.800001
20
3.165638
30
0.0
40
0.300000
50
142.591719
51
180.000000
0
LINE
8
0
10
28.500001
20
3.165638
30
0.0
11
28.500001
21
0.500002
31
0.0
0
ARC
8
0
10
28.000001
20
0.500002
30
0.0
40
0.500000
50
270.000000
51
0.000000
0
LINE
8
0
10
28.000001
20
0.000002
30
0.0
11
26.207108
21
0.000002
31
0.0
0
ARC
8
0
10
26.207108
20
0.500002
30
0.0
40
0.500000
50
225.000000
51
270.000000
0
LINE
8
0
10
25.853554
20
0.146449
30
0.0
11
25.146447
21
0.853556
31
0.0
0
ARC
8
0
10
25.500001
20
1.207109
30
0.0
40
0.500000
50
180.000000
51
225.000000
0
LINE
8
0
10
25.000001
20
1.207109
30
0.0
11
25.000001
21
1.700002
31
0.0
0
ARC
8
0
10
25.300001
20
1.700002
30
0.0
40
0.300000
50
90.000000
51
180.000000
0
LINE
8
0
10
25.300001
20
2.000002
30
0.0
11
26.700001
21
2.000002
31
0.0
0
ARC
8
0
10
26.700001
20
2.300002
30
0.0
40
0.300000
50
270.000000
51
0.000000
0
LINE
8
0
10
27.000001
20
2.300002
30
0.0
11
27.000001
21
4.700002
31
0.0
0
ARC
8
0
10
26.700001
20
4.700002
30
0.0
40
0.300000
50
0.000000
51
90.000000
0
LINE
8
0
10
26.700001
20
5.000002
30
0.0
11
17.500000
21
5.000001
31
0.0
0
LINE
8
0
10
17.500000
20
5.000001
30
0.0
11
17.000000
21
5.300002
31
0.0
0
LINE
8
0
10
17.000000
20
5.300002
30
0.0
11
16.499999
21
5.000001
31
0.0
0
LINE
8
0
10
16.499999
20
5.000001
30
0.0
11
11.300000
21
5.000000
31
0.0
0
ARC
8
0
10
11.300000
20
4.700000
30
0.0
40
0.300000
50
90.000000
51
180.000000
0
LINE
8
0
10
11.000000
20
4.700000
30
0.0
11
11.000000
21
2.300000
31
0.0
0
ARC
8
0
10
11.300000
20
2.300000
30
0.0
40
0.300000
50
180.000000
51
270.000000
0
LINE
8
0
10
11.300000
20
2.000000
30
0.0
11
12.700000
21
2.000000
31
0.0
0
ARC
8
0
10
12.700000
20
1.700000
30
0.0
40
0.300000
50
0.000000
51
90.000000
0
LINE
8
0
10
13.000000
20
1.700000
30
0.0
11
13.000000
21
1.207107
31
0.0
0
ARC
8
0
10
12.500000
20
1.207107
30
0.0
40
0.500000
50
315.000000
51
0.000000
0
LINE
8
0
10
12.853553
20
0.853554
30
0.0
11
12.146446
21
0.146447
31
0.0
0
ARC
8
0
10
11.792893
20
0.500000
30
0.0
40
0.500000
50
270.000000
51
315.000000
0
LINE
8
0
10
11.792893
20
0.000000
30
0.0
11
10.000000
21
0.000000
31
0.0
0
ARC
8
0
10
10.000000
20
0.500000
30
0.0
40
0.500000
50
180.000000
51
270.000000
0
LINE
8
0
10
9.500000
20
0.500000
30
0.0
11
9.500000
21
1.300000
31
0.0
0
ARC
8
0
10
9.200000
20
1.300000
30
0.0
40
0.300000
50
0.000000
51
90.000000
0
LINE
8
0
10
9.200000
20
1.600000
30
0.0
11
3.263741
21
1.600000
31
0.0
0
ARC
8
0
10
3.263741
20
3.100000
30
0.0
40
1.500000
50
234.721004
51
270.000000
0
ARC
8
0
10
2.570671
20
2.120381
30
0.0
40
0.300000
50
115.000000
51
234.721004
0
LINE
8
0
10
2.443886
20
2.392273
30
0.0
11
3.901334
21
3.071893
31
0.0
0
ARC
8
0
10
4.028119
20
2.800000
30
0.0
40
0.300000
50
30.000000
51
115.000000
0
LINE
8
0
10
4.287927
20
2.950000
30
0.0
11
4.490000
21
2.600000
31
0.0
0
LINE
8
0
10
4.490000
20
2.600000
30
0.0
11
9.200000
21
2.600000
31
0.0
0
ARC
8
0
10
9.200000
20
2.900000
30
0.0
40
0.300000
50
270.000000
51
0.000000
0
LINE
8
0
10
9.500000
20
2.900000
30
0.0
11
9.500000
21
4.700000
31
0.0
0
ARC
8
0
10
9.200000
20
4.700000
30
0.0
40
0.300000
50
0.000000
51
90.000000
0
LINE
8
0
10
9.200000
20
5.000000
30
0.0
11
0.500000
21
5.000000
31
0.0
0
ARC
8
0
10
0.500000
20
5.500000
30
0.0
40
0.500000
50
180.000000
51
270.000000
0
LINE
8
0
10
0.000000
20
5.500000
30
0.0
11
0.000000
21
21.500002
31
0.0
0
ARC
8
0
10
0.500000
20
21.500002
30
0.0
40
0.500000
50
90.000000
51
180.000000
0
LINE
8
0
10
0.500000
20
22.000002
30
0.0
11
24.400001
21
22.000002
31
0.0
0
ARC
8
0
10
24.400001
20
21.500002
30
0.0
40
0.500000
50
0.000000
51
90.000000
0
LINE
8
0
10
24.900001
20
21.500002
30
0.0
11
24.900001
21
20.800002
31
0.0
0
ARC
8
0
10
3.900001
20
19.000002
30
0.0
40
0.500000
50
180.000000
51
270.000000
0
LINE
8
0
10
3.400001
20
19.000002
30
0.0
11
3.400001
21
20.200002
31
0.0
0
ARC
8
0
10
3.100001
20
20.200002
30
0.0
40
0.300000
50
0.000000
51
90.000000
0
LINE
8
0
10
3.100001
20
20.500002
30
0.0
11
1.800000
21
20.500002
31
0.0
0
ARC
8
0
10
1.800000
20
20.200002
30
0.0
40
0.300000
50
90.000000
51
180.000000
0
LINE
8
0
10
1.500000
20
20.200002
30
0.0
11
1.500000
21
6.799999
31
0.0
0
ARC
8
0
10
1.800000
20
6.799999
30
0.0
40
0.300000
50
180.000000
51
270.000000
0
LINE
8
0
10
1.800000
20
6.499999
30
0.0
11
26.700001
21
6.500002
31
0.0
0
ARC
8
0
10
26.700001
20
6.800002
30
0.0
40
0.300000
50
270.000000
51
0.000000
0
LINE
8
0
10
27.000001
20
6.800002
30
0.0
11
27.000001
21
16.600002
31
0.0
0
ARC
8
0
10
26.700001
20
16.600002
30
0.0
40
0.300000
50
0.000000
51
90.000000
0
LINE
8
0
10
26.700001
20
16.900002
30
0.0
11
22.300001
21
16.900002
31
0.0
0
ARC
8
0
10
22.300001
20
17.900002
30
0.0
40
1.000000
50
180.000000
51
270.000000
0
LINE
8
0
10
21.300001
20
17.900002
30
0.0
11
21.300001
21
20.500002
31
0.0
0
LINE
8
0
10
21.300001
20
20.500002
30
0.0
11
17.500000
21
20.500002
31
0.0
0
LINE
8
0
10
17.500000
20
20.500002
30
0.0
11
17.000000
21
20.800003
31
0.0
0
LINE
8
0
10
17.000000
20
20.800003
30
0.0
11
16.500000
21
20.500002
31
0.0
0
LINE
8
0
10
16.500000
20
20.500002
30
0.0
11
4.900001
21
20.500002
31
0.0
0
LINE
8
0
10
4.900001
20
20.500002
30
0.0
11
4.900001
21
18.500002
31
0.0
0
LINE
8
0
10
4.900001
20
18.500002
30
0.0
11
3.900001
21
18.500002
31
0.0
0
LINE
8
0
10
97.900000
20
2.000000
30
0.0
11
96.500000
21
2.000000
31
0.0
0
ARC
8
0
10
96.500000
20
1.700000
30
0.0
40
0.300000
50
90.000000
51
180.000000
0
LINE
8
0
10
96.200000
20
1.700000
30
0.0
11
96.200000
21
1.207107
31
0.0
0
ARC
8
0
10
96.700000
20
1.207107
30
0.0
40
0.500000
50
180.000000
51
225.000000
0
LINE
8
0
10
96.346446
20
0.853554
30
0.0
11
97.053553
21
0.146447
31
0.0
0
ARC
8
0
10
97.407106
20
0.500000
30
0.0
40
0.500000
50
225.000000
51
270.000000
0
LINE
8
0
10
97.407106
20
0.000000
30
0.0
11
99.500000
21
0.000000
31
0.0
0
ARC
8
0
10
99.500000
20
0.500000
30
0.0
40
0.500000
50
270.000000
51
0.000000
0
LINE
8
0
10
100.000000
20
0.500000
30
0.0
11
100.000000
21
46.503831
31
0.0
0
ARC
8
0
10
99.500000
20
46.503831
30
0.0
40
0.500000
50
0.000000
51
90.000000
0
LINE
8
0
10
99.500000
20
47.003831
30
0.0
11
99.000000
21
47.003831
31
0.0
0
ARC
8
0
10
99.000000
20
46.503831
30
0.0
40
0.500000
50
90.000000
51
180.000000
0
LINE
8
0
10
98.500000
20
46.503831
30
0.0
11
98.500000
21
22.303707
31
0.0
0
ARC
8
0
10
98.200000
20
22.303707
30
0.0
40
0.300000
50
270.000000
51
0.000000
0
LINE
8
0
10
98.200000
20
22.003707
30
0.0
11
86.800000
21
22.003707
31
0.0
0
ARC
8
0
10
86.800000
20
22.303707
30
0.0
40
0.300000
50
180.000000
51
270.000000
0
LINE
8
0
10
86.500000
20
22.303707
30
0.0
11
86.500000
21
46.003831
31
0.0
0
ARC
8
0
10
85.500000
20
46.003831
30
0.0
40
1.000000
50
0.000000
51
90.000000
0
LINE
8
0
10
85.500000
20
47.003831
30
0.0
11
73.199908
21
47.003831
31
0.0
0
ARC
8
0
10
73.199908
20
46.503831
30
0.0
40
0.500000
50
90.000000
51
180.000000
0
LINE
8
0
10
72.699908
20
46.503831
30
0.0
11
72.699908
21
38.803831
31
0.0
0
LINE
8
0
10
72.699908
20
38.803831
30
0.0
11
67.299908
21
38.803831
31
0.0
0
LINE
8
0
10
67.299908
20
38.803831
30
0.0
11
67.299908
21
46.503831
31
0.0
0
ARC
8
0
10
66.799908
20
46.503831
30
0.0
40
0.500000
50
0.000000
51
90.000000
0
LINE
8
0
10
66.799908
20
47.003831
30
0.0
11
54.500000
21
47.003831
31
0.0
0
ARC
8
0
10
54.500000
20
46.003831
30
0.0
40
1.000000
50
90.000000
51
180.000000
0
LINE
8
0
10
53.500000
20
46.003831
30
0.0
11
53.500000
21
43.507538
31
0.0
0
ARC
8
0
10
53.800000
20
43.507538
30
0.0
40
0.300000
50
180.000000
51
270.000000
0
LINE
8
0
10
53.800000
20
43.207538
30
0.0
11
54.700000
21
43.207538
31
0.0
0
ARC
8
0
10
54.700000
20
43.507538
30
0.0
40
0.300000
50
270.000000
51
0.000000
0
LINE
8
0
10
55.000000
20
43.507538
30
0.0
11
55.000000
21
45.203831
31
0.0
0
ARC
8
0
10
55.300000
20
45.203831
30
0.0
40
0.300000
50
90.000000
51
180.000000
0
LINE
8
0
10
55.300000
20
45.503831
30
0.0
11
56.800000
21
45.503831
31
0.0
0
ARC
8
0
10
56.800000
20
45.203831
30
0.0
40
0.300000
50
0.000000
51
90.000000
0
LINE
8
0
10
57.100000
20
45.203831
30
0.0
11
57.100000
21
20.003707
31
0.0
0
ARC
8
0
10
56.800000
20
20.003707
30
0.0
40
0.300000
50
270.000000
51
0.000000
0
LINE
8
0
10
56.800000
20
19.703707
30
0.0
11
53.482794
21
19.703707
31
0.0
0
ARC
8
0
10
53.482794
20
19.403707
30
0.0
40
0.300000
50
90.000000
51
135.240209
0
ARC
8
0
10
51.849644
20
21.023220
30
0.0
40
2.000000
50
226.465725
51
315.240210
0
ARC
8
0
10
50.127673
20
19.210814
30
0.0
40
0.500000
50
46.465725
51
90.000000
0
LINE
8
0
10
50.127673
20
19.710814
30
0.0
11
49.438877
21
19.710814
31
0.0
0
ARC
8
0
10
49.438877
20
19.410814
30
0.0
40
0.300000
50
90.000000
51
210.497622
0
LINE
8
0
10
49.180381
20
19.258563
30
0.0
11
50.604085
21
16.841364
31
0.0
0
LINE
8
0
10
50.646699
20
16.785300
30
0.0
11
50.604085
21
16.841364
31
0.0
0
LINE
8
0
10
50.646699
20
16.785300
30
0.0
11
51.106866
21
16.308419
31
0.0
0
ARC
8
0
10
51.211656
20
16.409536
30
0.0
40
0.145621
50
223.978161
51
0.000000
0
LINE
8
0
10
51.356980
20
16.418829
30
0.0
11
51.347051
21
16.574093
31
0.0
0
ARC
8
0
10
51.546643
20
16.586857
30
0.0
40
0.200000
50
130.482877
51
183.658900
0
LINE
8
0
10
51.416799
20
16.738977
30
0.0
11
53.021001
21
18.108266
31
0.0
0
ARC
8
0
10
53.215768
20
17.880086
30
0.0
40
0.300000
50
108.658900
51
130.482877
0
LINE
8
0
10
53.119788
20
18.164318
30
0.0
11
53.404020
21
18.260298
31
0.0
0
ARC
8
0
10
53.500000
20
17.976066
30
0.0
40
0.300000
50
270.000000
51
108.658900
0
LINE
8
0
10
53.500000
20
17.676066
30
0.0
11
53.500000
21
13.176066
31
0.0
0
ARC
8
0
10
53.300000
20
13.176066
30
0.0
40
0.200000
50
270.000000
51
0.000000
0
LINE
8
0
10
53.300000
20
12.976066
30
0.0
11
53.232111
21
12.976066
31
0.0
0
ARC
8
0
10
53.232111
20
13.276066
30
0.0
40
0.300000
50
238.619868
51
270.000000
0
LINE
8
0
10
53.075897
20
13.019946
30
0.0
11
51.399904
21
14.042179
31
0.0
0
ARC
8
0
10
51.200000
20
14.048369
30
0.0
40
0.200000
50
0.000000
51
180.000000
0
LINE
8
0
10
51.000000
20
14.048369
30
0.0
11
51.000000
21
12.641379
31
0.0
0
ARC
8
0
10
51.200000
20
12.641379
30
0.0
40
0.200000
50
180.000000
51
238.619868
0
LINE
8
0
10
51.095857
20
12.470633
30
0.0
11
52.139346
21
11.834180
31
0.0
0
ARC
8
0
10
51.983132
20
11.578061
30
0.0
40
0.300000
50
301.380132
51
58.619868
0
LINE
8
0
10
52.139346
20
11.321942
30
0.0
11
51.095857
21
10.685489
31
0.0
0
ARC
8
0
10
51.200000
20
10.514743
30
0.0
40
0.200000
50
121.380132
51
180.000000
0
LINE
8
0
10
51.000000
20
10.514743
30
0.0
11
51.000000
21
9.107753
31
0.0
0
ARC
8
0
10
51.200000
20
9.107753
30
0.0
40
0.200000
50
180.000000
51
0.000000
0
LINE
8
0
10
51.399904
20
9.113943
30
0.0
11
53.075897
21
10.136176
31
0.0
0
ARC
8
0
10
53.232111
20
9.880056
30
0.0
40
0.300000
50
90.000000
51
121.380132
0
LINE
8
0
10
53.232111
20
10.180056
30
0.0
11
53.300000
21
10.180056
31
0.0
0
ARC
8
0
10
53.300000
20
9.980056
30
0.0
40
0.200000
50
0.000000
51
90.000000
0
LINE
8
0
10
53.500000
20
9.980056
30
0.0
11
53.500000
21
5.480056
31
0.0
0
ARC
8
0
10
53.500000
20
5.180056
30
0.0
40
0.300000
50
251.341100
51
90.000000
0
LINE
8
0
10
53.404020
20
4.895824
30
0.0
11
53.119788
21
4.991804
31
0.0
0
ARC
8
0
10
53.215768
20
5.276036
30
0.0
40
0.300000
50
229.517123
51
251.341100
0
LINE
8
0
10
53.021001
20
5.047856
30
0.0
11
51.416799
21
6.417145
31
0.0
0
ARC
8
0
10
51.546643
20
6.569265
30
0.0
40
0.200000
50
176.341100
51
229.517123
0
LINE
8
0
10
51.347051
20
6.582029
30
0.0
11
51.356980
21
6.737293
31
0.0
0
ARC
8
0
10
51.211656
20
6.746586
30
0.0
40
0.145621
50
0.000000
51
136.021839
0
LINE
8
0
10
51.106866
20
6.847703
30
0.0
11
50.646699
21
6.370822
31
0.0
0
LINE
8
0
10
50.604085
20
6.314758
30
0.0
11
50.646699
21
6.370822
31
0.0
0
LINE
8
0
10
50.604085
20
6.314758
30
0.0
11
49.180381
21
3.897559
31
0.0
0
ARC
8
0
10
49.438877
20
3.745308
30
0.0
40
0.300000
50
149.502378
51
270.000000
0
LINE
8
0
10
49.438877
20
3.445308
30
0.0
11
50.127673
21
3.445308
31
0.0
0
ARC
8
0
10
50.127673
20
3.945308
30
0.0
40
0.500000
50
270.000000
51
313.534275
0
ARC
8
0
10
51.849644
20
2.132902
30
0.0
40
2.000000
50
37.408281
51
133.534275
0
ARC
8
0
10
53.200000
20
3.165636
30
0.0
40
0.300000
50
0.000000
51
37.408281
0
LINE
8
0
10
53.500000
20
3.165636
30
0.0
11
53.500000
21
0.500000
31
0.0
0
ARC
8
0
10
54.000000
20
0.500000
30
0.0
40
0.500000
50
180.000000
51
270.000000
0
LINE
8
0
10
54.000000
20
0.000000
30
0.0
11
55.792893
21
0.000000
31
0.0
0
ARC
8
0
10
55.792893
20
0.500000
30
0.0
40
0.500000
50
270.000000
51
315.000000
0
LINE
8
0
10
56.146446
20
0.146447
30
0.0
11
56.853553
21
0.853554
31
0.0
0
ARC
8
0
10
56.500000
20
1.207107
30
0.0
40
0.500000
50
315.000000
51
0.000000
0
LINE
8
0
10
57.000000
20
1.207107
30
0.0
11
57.000000
21
1.700000
31
0.0
0
ARC
8
0
10
56.700000
20
1.700000
30
0.0
40
0.300000
50
0.000000
51
90.000000
0
LINE
8
0
10
56.700000
20
2.000000
30
0.0
11
55.300000
21
2.000000
31
0.0
0
ARC
8
0
10
55.300000
20
2.300000
30
0.0
40
0.300000
50
180.000000
51
270.000000
0
LINE
8
0
10
55.000000
20
2.300000
30
0.0
11
55.000000
21
4.500000
31
0.0
0
ARC
8
0
10
55.500000
20
4.500000
30
0.0
40
0.500000
50
90.000000
51
180.000000
0
LINE
8
0
10
55.500000
20
5.000000
30
0.0
11
97.900000
21
5.000000
31
0.0
0
ARC
8
0
10
97.900000
20
4.700000
30
0.0
40
0.300000
50
0.000000
51
90.000000
0
LINE
8
0
10
98.200000
20
4.700000
30
0.0
11
98.200000
21
2.300000
31
0.0
0
ARC
8
0
10
97.900000
20
2.300000
30
0.0
40
0.300000
50
270.000000
51
0.000000
0
ARC
8
0
10
66.299856
20
37.803831
30
0.0
40
0.500000
50
180.000000
51
270.000000
0
LINE
8
0
10
65.799856
20
37.803831
30
0.0
11
65.799856
21
45.203831
31
0.0
0
ARC
8
0
10
65.499856
20
45.203831
30
0.0
40
0.300000
50
0.000000
51
90.000000
0
LINE
8
0
10
65.499856
20
45.503831
30
0.0
11
58.900000
21
45.503831
31
0.0
0
ARC
8
0
10
58.900000
20
45.203831
30
0.0
40
0.300000
50
90.000000
51
180.000000
0
LINE
8
0
10
58.600000
20
45.203831
30
0.0
11
58.600000
21
22.303707
31
0.0
0
ARC
8
0
10
58.900000
20
22.303707
30
0.0
40
0.300000
50
180.000000
51
270.000000
0
LINE
8
0
10
58.900000
20
22.003707
30
0.0
11
84.700000
21
22.003707
31
0.0
0
ARC
8
0
10
84.700000
20
22.303707
30
0.0
40
0.300000
50
270.000000
51
0.000000
0
LINE
8
0
10
85.000000
20
22.303707
30
0.0
11
85.000000
21
45.203831
31
0.0
0
ARC
8
0
10
84.700000
20
45.203831
30
0.0
40
0.300000
50
0.000000
51
90.000000
0
LINE
8
0
10
84.700000
20
45.503831
30
0.0
11
74.499960
21
45.503831
31
0.0
0
ARC
8
0
10
74.499960
20
45.203831
30
0.0
40
0.300000
50
90.000000
51
180.000000
0
LINE
8
0
10
74.199960
20
45.203831
30
0.0
11
74.199960
21
37.803831
31
0.0
0
ARC
8
0
10
73.699960
20
37.803831
30
0.0
40
0.500000
50
270.000000
51
0.000000
0
LINE
8
0
10
73.699960
20
37.303831
30
0.0
11
66.299856
21
37.303831
31
0.0
0
LINE
8
0
10
64.299859
20
18.803707
30
0.0
11
64.299859
21
20.200000
31
0.0
0
ARC
8
0
10
63.999859
20
20.200000
30
0.0
40
0.300000
50
0.000000
51
90.000000
0
LINE
8
0
10
63.999859
20
20.500000
30
0.0
11
58.900000
21
20.500000
31
0.0
0
ARC
8
0
10
58.900000
20
20.200000
30
0.0
40
0.300000
50
90.000000
51
180.000000
0
LINE
8
0
10
58.600000
20
20.200000
30
0.0
11
58.600000
21
19.203707
31
0.0
0
ARC
8
0
10
57.600000
20
19.203707
30
0.0
40
1.000000
50
270.000000
51
0.000000
0
LINE
8
0
10
57.600000
20
18.203707
30
0.0
11
55.300000
21
18.203707
31
0.0
0
ARC
8
0
10
55.300000
20
17.903707
30
0.0
40
0.300000
50
90.000000
51
180.000000
0
LINE
8
0
10
55.000000
20
17.903707
30
0.0
11
55.000000
21
6.800000
31
0.0
0
ARC
8
0
10
55.300000
20
6.800000
30
0.0
40
0.300000
50
180.000000
51
270.000000
0
LINE
8
0
10
55.300000
20
6.500000
30
0.0
11
98.200000
21
6.500000
31
0.0
0
ARC
8
0
10
98.200000
20
6.800000
30
0.0
40
0.300000
50
270.000000
51
0.000000
0
LINE
8
0
10
98.500000
20
6.800000
30
0.0
11
98.500000
21
20.203707
31
0.0
0
ARC
8
0
10
98.200000
20
20.203707
30
0.0
40
0.300000
50
0.000000
51
90.000000
0
LINE
8
0
10
98.200000
20
20.503707
30
0.0
11
93.199859
21
20.503707
31
0.0
0
ARC
8
0
10
93.199859
20
20.203707
30
0.0
40
0.300000
50
90.000000
51
180.000000
0
LINE
8
0
10
92.899859
20
20.203707
30
0.0
11
92.899859
21
18.803707
31
0.0
0
ARC
8
0
10
92.599859
20
18.803707
30
0.0
40
0.300000
50
270.000000
51
0.000000
0
LINE
8
0
10
92.599859
20
18.503707
30
0.0
11
91.699859
21
18.503707
31
0.0
0
ARC
8
0
10
91.699859
20
18.803707
30
0.0
40
0.300000
50
180.000000
51
270.000000
0
LINE
8
0
10
91.399859
20
18.803707
30
0.0
11
91.399859
21
20.500000
31
0.0
0
LINE
8
0
10
91.399859
20
20.500000
30
0.0
11
65.799859
21
20.500000
31
0.0
0
LINE
8
0
10
65.799859
20
20.500000
30
0.0
11
65.799859
21
18.803707
31
0.0
0
ARC
8
0
10
65.499859
20
18.803707
30
0.0
40
0.300000
50
270.000000
51
0.000000
0
LINE
8
0
10
65.499859
20
18.503707
30
0.0
11
64.599859
21
18.503707
31
0.0
0
ARC
8
0
10
64.599859
20
18.803707
30
0.0
40
0.300000
50
180.000000
51
270.000000
0
LINE
8
0
10
53.500186
20
16.661869
30
0.0
11
52.715288
21
17.446767
31
0.0
0
LINE
8
0
10
53.450185
20
14.466805
30
0.0
11
53.098893
21
14.818098
31
0.0
0
LINE
8
0
10
52.304159
20
15.612831
30
0.0
11
51.291974
21
16.625017
31
0.0
0
LINE
8
0
10
51.954836
20
13.717090
30
0.0
11
46.407806
21
19.264120
31
0.0
0
LINE
8
0
10
46.162743
20
17.264120
30
0.0
11
44.162742
21
19.264120
31
0.0
0
LINE
8
0
10
43.917679
20
17.264120
30
0.0
11
41.917678
21
19.264120
31
0.0
0
LINE
8
0
10
41.672615
20
17.264120
30
0.0
11
39.672614
21
19.264120
31
0.0
0
LINE
8
0
10
39.427551
20
17.264120
30
0.0
11
37.427550
21
19.264120
31
0.0
0
LINE
8
0
10
37.182487
20
17.264120
30
0.0
11
35.182486
21
19.264120
31
0.0
0
LINE
8
0
10
34.937423
20
17.264120
30
0.0
11
33.292331
21
18.909212
31
0.0
0
LINE
8
0
10
33.779432
20
16.177046
30
0.0
11
32.347590
21
17.608888
31
0.0
0
LINE
8
0
10
32.834692
20
14.876723
30
0.0
11
31.342690
21
16.368724
31
0.0
0
LINE
8
0
10
31.150574
20
14.315776
30
0.0
11
28.500181
21
16.966169
31
0.0
0
LINE
8
0
10
29.702339
20
13.518948
30
0.0
11
28.550182
21
14.671104
31
0.0
0
LINE
8
0
10
52.880203
20
13.264113
30
0.0
11
53.500185
21
13.884095
31
0.0
0
LINE
8
0
10
51.405358
20
14.034332
30
0.0
11
52.372320
21
15.001294
31
0.0
0
LINE
8
0
10
53.260149
20
15.889124
30
0.0
11
53.450186
21
16.079160
31
0.0
0
LINE
8
0
10
49.536531
20
14.410569
30
0.0
11
52.377991
21
17.252029
31
0.0
0
LINE
8
0
10
48.576581
20
15.695683
30
0.0
11
50.008423
21
17.127525
31
0.0
0
LINE
8
0
10
47.631841
20
16.996007
30
0.0
11
49.063683
21
18.427849
31
0.0
0
LINE
8
0
10
45.654890
20
17.264120
30
0.0
11
47.654890
21
19.264120
31
0.0
0
LINE
8
0
10
43.409826
20
17.264120
30
0.0
11
45.409826
21
19.264120
31
0.0
0
LINE
8
0
10
41.164762
20
17.264120
30
0.0
11
43.164762
21
19.264120
31
0.0
0
LINE
8
0
10
38.919697
20
17.264120
30
0.0
11
40.919698
21
19.264120
31
0.0
0
LINE
8
0
10
36.674633
20
17.264120
30
0.0
11
38.674634
21
19.264120
31
0.0
0
LINE
8
0
10
31.529574
20
14.364125
30
0.0
11
36.429570
21
19.264120
31
0.0
0
LINE
8
0
10
28.507637
20
13.587251
30
0.0
11
31.284510
21
16.364124
31
0.0
0
LINE
8
0
10
31.864879
20
16.944493
30
0.0
11
34.184506
21
19.264120
31
0.0
0
LINE
8
0
10
28.564445
20
15.889124
30
0.0
11
29.817887
21
17.142566
31
0.0
0
LINE
8
0
10
52.792573
20
8.389226
30
0.0
11
51.820390
21
9.361409
31
0.0
0
LINE
8
0
10
53.224815
20
5.711920
30
0.0
11
50.144738
21
8.791997
31
0.0
0
LINE
8
0
10
50.283905
20
6.407765
30
0.0
11
48.852063
21
7.839607
31
0.0
0
LINE
8
0
10
49.339165
20
5.107442
30
0.0
11
47.907323
21
6.539284
31
0.0
0
LINE
8
0
10
48.309476
20
3.892067
30
0.0
11
46.309540
21
5.892002
31
0.0
0
LINE
8
0
10
46.064477
20
3.892002
30
0.0
11
44.064476
21
5.892002
31
0.0
0
LINE
8
0
10
43.819413
20
3.892002
30
0.0
11
41.819412
21
5.892002
31
0.0
0
LINE
8
0
10
41.574349
20
3.892002
30
0.0
11
39.574348
21
5.892002
31
0.0
0
LINE
8
0
10
39.329285
20
3.892002
30
0.0
11
37.329284
21
5.892002
31
0.0
0
LINE
8
0
10
37.084221
20
3.892002
30
0.0
11
35.084220
21
5.892002
31
0.0
0
LINE
8
0
10
33.200991
20
7.775232
30
0.0
11
32.184226
21
8.791996
31
0.0
0
LINE
8
0
10
34.839157
20
3.892002
30
0.0
11
28.843225
21
9.887933
31
0.0
0
LINE
8
0
10
30.232920
20
6.253175
30
0.0
11
29.279905
21
7.206189
31
0.0
0
LINE
8
0
10
52.300255
20
5.948973
30
0.0
11
53.450186
21
7.098904
31
0.0
0
LINE
8
0
10
47.998220
20
3.892002
30
0.0
11
49.672616
21
5.566398
31
0.0
0
LINE
8
0
10
50.875125
20
6.768907
30
0.0
11
53.500185
21
9.393967
31
0.0
0
LINE
8
0
10
45.753156
20
3.892002
30
0.0
11
50.662557
21
8.801404
31
0.0
0
LINE
8
0
10
43.508092
20
3.892002
30
0.0
11
45.508092
21
5.892002
31
0.0
0
LINE
8
0
10
41.263027
20
3.892002
30
0.0
11
43.263028
21
5.892002
31
0.0
0
LINE
8
0
10
39.017963
20
3.892002
30
0.0
11
41.017964
21
5.892002
31
0.0
0
LINE
8
0
10
36.772899
20
3.892002
30
0.0
11
38.772900
21
5.892002
31
0.0
0
LINE
8
0
10
34.527835
20
3.892002
30
0.0
11
36.527836
21
5.892002
31
0.0
0
LINE
8
0
10
33.016848
20
4.626079
30
0.0
11
34.448690
21
6.057921
31
0.0
0
LINE
8
0
10
32.072108
20
5.926402
30
0.0
11
33.503950
21
7.358244
31
0.0
0
LINE
8
0
10
30.045760
20
6.145118
30
0.0
11
32.559209
21
8.658568
31
0.0
0
LINE
8
0
10
28.550182
20
6.894604
30
0.0
11
28.901526
21
7.245949
31
0.0
0
LINE
8
0
10
29.696232
20
8.040654
30
0.0
11
30.710620
21
9.055042
31
0.0
0
LINE
8
0
10
28.500183
20
9.089669
30
0.0
11
29.287307
21
9.876793
31
0.0
0
ARC
8
0
10
33.703044
20
18.964120
30
0.0
40
0.300000
50
90.000000
51
144.000000
0
LINE
8
0
10
33.703044
20
19.264120
30
0.0
11
48.303238
21
19.264120
31
0.0
0
ARC
8
0
10
48.303238
20
18.964120
30
0.0
40
0.300000
50
36.000000
51
90.000000
0
LINE
8
0
10
48.545943
20
19.140456
30
0.0
11
50.473219
21
16.487789
31
0.0
0
ARC
8
0
10
50.715924
20
16.664124
30
0.0
40
0.300000
50
216.000000
51
270.000000
0
LINE
8
0
10
50.715923
20
16.364124
30
0.0
11
50.759708
21
16.364124
31
0.0
0
ARC
8
0
10
50.759709
20
16.664124
30
0.0
40
0.300000
50
270.000000
51
299.999977
0
LINE
8
0
10
50.909709
20
16.404317
30
0.0
11
52.745331
21
17.464113
31
0.0
0
LINE
8
0
10
52.745331
20
17.464113
30
0.0
11
53.100186
21
17.464113
31
0.0
0
ARC
8
0
10
53.100186
20
17.064113
30
0.0
40
0.400000
50
0.000000
51
90.000000
0
LINE
8
0
10
53.500186
20
17.064113
30
0.0
11
53.500186
21
16.464124
31
0.0
0
LINE
8
0
10
53.500186
20
16.464124
30
0.0
11
53.450186
21
16.464124
31
0.0
0
LINE
8
0
10
53.450186
20
16.464124
30
0.0
11
53.450186
21
15.889124
31
0.0
0
LINE
8
0
10
53.450186
20
15.889124
30
0.0
11
53.140659
21
15.889124
31
0.0
0
ARC
8
0
10
52.850185
20
15.364124
30
0.0
40
0.600000
50
61.044976
51
180.000000
0
ARC
8
0
10
52.850185
20
15.364124
30
0.0
40
0.600000
50
180.000000
51
298.955024
0
LINE
8
0
10
53.140659
20
14.839124
30
0.0
11
53.450185
21
14.839124
31
0.0
0
LINE
8
0
10
53.450185
20
14.839124
30
0.0
11
53.450185
21
14.264124
31
0.0
0
LINE
8
0
10
53.450185
20
14.264124
30
0.0
11
53.500185
21
14.264124
31
0.0
0
LINE
8
0
10
53.500185
20
14.264124
30
0.0
11
53.500185
21
13.664113
31
0.0
0
ARC
8
0
10
53.100185
20
13.664113
30
0.0
40
0.400000
50
270.000000
51
0.000000
0
LINE
8
0
10
53.100185
20
13.264113
30
0.0
11
52.739415
21
13.264113
31
0.0
0
LINE
8
0
10
52.739415
20
13.264113
30
0.0
11
51.112602
21
14.203355
31
0.0
0
ARC
8
0
10
50.512602
20
13.164125
30
0.0
40
1.200000
50
59.999977
51
90.000000
0
LINE
8
0
10
50.512604
20
14.364125
30
0.0
11
49.696871
21
14.364126
31
0.0
0
ARC
8
0
10
49.696872
20
14.664126
30
0.0
40
0.300000
50
216.000000
51
270.000000
0
LINE
8
0
10
49.454167
20
14.487790
30
0.0
11
47.526893
21
17.140455
31
0.0
0
ARC
8
0
10
47.284188
20
16.964120
30
0.0
40
0.300000
50
36.000000
51
90.000000
0
LINE
8
0
10
47.284188
20
17.264120
30
0.0
11
34.722095
21
17.264120
31
0.0
0
ARC
8
0
10
34.722095
20
16.964120
30
0.0
40
0.300000
50
90.000000
51
144.000000
0
LINE
8
0
10
34.479390
20
17.140455
30
0.0
11
32.552116
21
14.487790
31
0.0
0
ARC
8
0
10
32.309411
20
14.664126
30
0.0
40
0.300000
50
270.000000
51
324.000000
0
LINE
8
0
10
32.309411
20
14.364126
30
0.0
11
31.487764
21
14.364125
31
0.0
0
ARC
8
0
10
31.487766
20
13.164125
30
0.0
40
1.200000
50
90.000000
51
120.000023
0
LINE
8
0
10
30.887766
20
14.203355
30
0.0
11
29.260953
21
13.264113
31
0.0
0
LINE
8
0
10
29.260953
20
13.264113
30
0.0
11
28.900183
21
13.264113
31
0.0
0
ARC
8
0
10
28.900183
20
13.664113
30
0.0
40
0.400000
50
180.000000
51
270.000000
0
LINE
8
0
10
28.500183
20
13.664113
30
0.0
11
28.500182
21
14.264124
31
0.0
0
LINE
8
0
10
28.500182
20
14.264124
30
0.0
11
28.550182
21
14.264124
31
0.0
0
LINE
8
0
10
28.550182
20
14.264124
30
0.0
11
28.550182
21
14.839124
31
0.0
0
LINE
8
0
10
28.550182
20
14.839124
30
0.0
11
28.859709
21
14.839124
31
0.0
0
ARC
8
0
10
29.150182
20
15.364124
30
0.0
40
0.600000
50
241.044976
51
0.000000
0
ARC
8
0
10
29.150182
20
15.364124
30
0.0
40
0.600000
50
0.000000
51
118.955024
0
LINE
8
0
10
28.859709
20
15.889124
30
0.0
11
28.550182
21
15.889124
31
0.0
0
LINE
8
0
10
28.550182
20
15.889124
30
0.0
11
28.550182
21
16.464124
31
0.0
0
LINE
8
0
10
28.550182
20
16.464124
30
0.0
11
28.500182
21
16.464124
31
0.0
0
LINE
8
0
10
28.500182
20
16.464124
30
0.0
11
28.500181
21
17.064113
31
0.0
0
ARC
8
0
10
28.900181
20
17.064113
30
0.0
40
0.400000
50
90.000000
51
180.000000
0
LINE
8
0
10
28.900181
20
17.464113
30
0.0
11
29.260951
21
17.464113
31
0.0
0
LINE
8
0
10
29.260951
20
17.464113
30
0.0
11
31.096574
21
16.404317
31
0.0
0
ARC
8
0
10
31.246574
20
16.664124
30
0.0
40
0.300000
50
240.000023
51
270.000000
0
LINE
8
0
10
31.246574
20
16.364124
30
0.0
11
31.290359
21
16.364124
31
0.0
0
ARC
8
0
10
31.290359
20
16.664124
30
0.0
40
0.300000
50
270.000000
51
324.000000
0
LINE
8
0
10
31.533064
20
16.487789
30
0.0
11
33.460339
21
19.140456
31
0.0
0
ARC
8
0
10
33.703044
20
4.192002
30
0.0
40
0.300000
50
216.000000
51
270.000000
0
LINE
8
0
10
33.703044
20
3.892002
30
0.0
11
48.303238
21
3.892002
31
0.0
0
ARC
8
0
10
48.303238
20
4.192002
30
0.0
40
0.300000
50
270.000000
51
324.000000
0
LINE
8
0
10
48.545943
20
4.015666
30
0.0
11
50.473219
21
6.668333
31
0.0
0
ARC
8
0
10
50.715924
20
6.491998
30
0.0
40
0.300000
50
90.000000
51
144.000000
0
LINE
8
0
10
50.715923
20
6.791998
30
0.0
11
50.759708
21
6.791998
31
0.0
0
ARC
8
0
10
50.759709
20
6.491998
30
0.0
40
0.300000
50
60.000023
51
90.000000
0
LINE
8
0
10
50.909709
20
6.751805
30
0.0
11
52.745331
21
5.692009
31
0.0
0
LINE
8
0
10
52.745331
20
5.692009
30
0.0
11
53.100186
21
5.692009
31
0.0
0
ARC
8
0
10
53.100186
20
6.092009
30
0.0
40
0.400000
50
270.000000
51
0.000000
0
LINE
8
0
10
53.500186
20
6.092009
30
0.0
11
53.500186
21
6.691998
31
0.0
0
LINE
8
0
10
53.500186
20
6.691998
30
0.0
11
53.450186
21
6.691998
31
0.0
0
LINE
8
0
10
53.450186
20
6.691998
30
0.0
11
53.450186
21
7.266998
31
0.0
0
LINE
8
0
10
53.450186
20
7.266998
30
0.0
11
53.140659
21
7.266998
31
0.0
0
ARC
8
0
10
52.850185
20
7.791998
30
0.0
40
0.600000
50
180.000000
51
298.955024
0
ARC
8
0
10
52.850185
20
7.791998
30
0.0
40
0.600000
50
61.044976
51
180.000000
0
LINE
8
0
10
53.140659
20
8.316998
30
0.0
11
53.450185
21
8.316998
31
0.0
0
LINE
8
0
10
53.450185
20
8.316998
30
0.0
11
53.450185
21
8.891998
31
0.0
0
LINE
8
0
10
53.450185
20
8.891998
30
0.0
11
53.500185
21
8.891998
31
0.0
0
LINE
8
0
10
53.500185
20
8.891998
30
0.0
11
53.500185
21
9.492009
31
0.0
0
ARC
8
0
10
53.100185
20
9.492009
30
0.0
40
0.400000
50
0.000000
51
90.000000
0
LINE
8
0
10
53.100185
20
9.892009
30
0.0
11
52.739415
21
9.892009
31
0.0
0
LINE
8
0
10
52.739415
20
9.892009
30
0.0
11
51.112602
21
8.952767
31
0.0
0
ARC
8
0
10
50.512602
20
9.991997
30
0.0
40
1.200000
50
270.000000
51
300.000023
0
LINE
8
0
10
50.512604
20
8.791997
30
0.0
11
49.696871
21
8.791996
31
0.0
0
ARC
8
0
10
49.696872
20
8.491996
30
0.0
40
0.300000
50
90.000000
51
144.000000
0
LINE
8
0
10
49.454167
20
8.668332
30
0.0
11
47.526893
21
6.015666
31
0.0
0
ARC
8
0
10
47.284188
20
6.192002
30
0.0
40
0.300000
50
270.000000
51
324.000000
0
LINE
8
0
10
47.284188
20
5.892002
30
0.0
11
34.722095
21
5.892002
31
0.0
0
ARC
8
0
10
34.722095
20
6.192002
30
0.0
40
0.300000
50
216.000000
51
270.000000
0
LINE
8
0
10
34.479390
20
6.015666
30
0.0
11
32.552116
21
8.668332
31
0.0
0
ARC
8
0
10
32.309411
20
8.491996
30
0.0
40
0.300000
50
36.000000
51
90.000000
0
LINE
8
0
10
32.309411
20
8.791996
30
0.0
11
31.487764
21
8.791997
31
0.0
0
ARC
8
0
10
31.487766
20
9.991997
30
0.0
40
1.200000
50
239.999977
51
270.000000
0
LINE
8
0
10
30.887766
20
8.952767
30
0.0
11
29.260953
21
9.892009
31
0.0
0
LINE
8
0
10
29.260953
20
9.892009
30
0.0
11
28.900183
21
9.892009
31
0.0
0
ARC
8
0
10
28.900183
20
9.492009
30
0.0
40
0.400000
50
90.000000
51
180.000000
0
LINE
8
0
10
28.500183
20
9.492009
30
0.0
11
28.500182
21
8.891998
31
0.0
0
LINE
8
0
10
28.500182
20
8.891998
30
0.0
11
28.550182
21
8.891998
31
0.0
0
LINE
8
0
10
28.550182
20
8.891998
30
0.0
11
28.550182
21
8.316998
31
0.0
0
LINE
8
0
10
28.550182
20
8.316998
30
0.0
11
28.859709
21
8.316998
31
0.0
0
ARC
8
0
10
29.150182
20
7.791998
30
0.0
40
0.600000
50
0.000000
51
118.955024
0
ARC
8
0
10
29.150182
20
7.791998
30
0.0
40
0.600000
50
241.044976
51
0.000000
0
LINE
8
0
10
28.859709
20
7.266998
30
0.0
11
28.550182
21
7.266998
31
0.0
0
LINE
8
0
10
28.550182
20
7.266998
30
0.0
11
28.550182
21
6.691998
31
0.0
0
LINE
8
0
10
28.550182
20
6.691998
30
0.0
11
28.500182
21
6.691998
31
0.0
0
LINE
8
0
10
28.500182
20
6.691998
30
0.0
11
28.500181
21
6.092009
31
0.0
0
ARC
8
0
10
28.900181
20
6.092009
30
0.0
40
0.400000
50
180.000000
51
270.000000
0
LINE
8
0
10
28.900181
20
5.692009
30
0.0
11
29.260951
21
5.692009
31
0.0
0
LINE
8
0
10
29.260951
20
5.692009
30
0.0
11
31.096574
21
6.751805
31
0.0
0
ARC
8
0
10
31.246574
20
6.491998
30
0.0
40
0.300000
50
90.000000
51
119.999977
0
LINE
8
0
10
31.246574
20
6.791998
30
0.0
11
31.290359
21
6.791998
31
0.0
0
ARC
8
0
10
31.290359
20
6.491998
30
0.0
40
0.300000
50
36.000000
51
90.000000
0
LINE
8
0
10
31.533064
20
6.668333
30
0.0
11
33.460339
21
4.015666
31
0.0
0
LINE
8
0
10
25.699818
20
22.003707
30
0.0
11
53.000000
21
22.003707
31
0.0
0
ARC
8
0
10
53.000000
20
22.503707
30
0.0
40
0.500000
50
270.000000
51
0.000000
0
LINE
8
0
10
53.500000
20
22.503707
30
0.0
11
53.500000
21
42.407538
31
0.0
0
ARC
8
0
10
53.800000
20
42.407538
30
0.0
40
0.300000
50
90.000000
51
180.000000
0
LINE
8
0
10
53.800000
20
42.707538
30
0.0
11
55.000000
21
42.707538
31
0.0
0
ARC
8
0
10
55.000000
20
43.007538
30
0.0
40
0.300000
50
270.000000
51
0.000000
0
LINE
8
0
10
55.300000
20
43.007538
30
0.0
11
55.300000
21
44.707538
31
0.0
0
ARC
8
0
10
55.600000
20
44.707538
30
0.0
40
0.300000
50
90.000000
51
180.000000
0
LINE
8
0
10
55.600000
20
45.007538
30
0.0
11
56.500000
21
45.007538
31
0.0
0
ARC
8
0
10
56.500000
20
44.707538
30
0.0
40
0.300000
50
0.000000
51
90.000000
0
LINE
8
0
10
56.800000
20
44.707538
30
0.0
11
56.800000
21
41.707538
31
0.0
0
ARC
8
0
10
56.300000
20
41.707538
30
0.0
40
0.500000
50
270.000000
51
0.000000
0
LINE
8
0
10
56.300000
20
41.207538
30
0.0
11
55.300000
21
41.207538
31
0.0
0
ARC
8
0
10
55.300000
20
40.907538
30
0.0
40
0.300000
50
90.000000
51
180.000000
0
LINE
8
0
10
55.000000
20
40.907538
30
0.0
11
55.000000
21
32.805622
31
0.0
0
ARC
8
0
10
55.300000
20
32.805622
30
0.0
40
0.300000
50
180.000000
51
270.000000
0
LINE
8
0
10
55.300000
20
32.505622
30
0.0
11
56.000000
21
32.505622
31
0.0
0
ARC
8
0
10
56.000000
20
32.005622
30
0.0
40
0.500000
50
0.000000
51
90.000000
0
LINE
8
0
10
56.500000
20
32.005622
30
0.0
11
56.500000
21
31.205622
31
0.0
0
ARC
8
0
10
56.000000
20
31.205622
30
0.0
40
0.500000
50
270.000000
51
0.000000
0
LINE
8
0
10
56.000000
20
30.705622
30
0.0
11
55.300000
21
30.705622
31
0.0
0
ARC
8
0
10
55.300000
20
30.405622
30
0.0
40
0.300000
50
90.000000
51
180.000000
0
LINE
8
0
10
55.000000
20
30.405622
30
0.0
11
55.000000
21
22.303707
31
0.0
0
ARC
8
0
10
55.300000
20
22.303707
30
0.0
40
0.300000
50
180.000000
51
270.000000
0
LINE
8
0
10
55.300000
20
22.003707
30
0.0
11
56.000000
21
22.003707
31
0.0
0
ARC
8
0
10
56.000000
20
21.503707
30
0.0
40
0.500000
50
0.000000
51
90.000000
0
LINE
8
0
10
56.500000
20
21.503707
30
0.0
11
56.500000
21
20.703707
31
0.0
0
ARC
8
0
10
56.000000
20
20.703707
30
0.0
40
0.500000
50
270.000000
51
0.000000
0
LINE
8
0
10
56.000000
20
20.203707
30
0.0
11
26.999818
21
20.203707
31
0.0
0
ARC
8
0
10
26.999818
20
19.903707
30
0.0
40
0.300000
50
90.000000
51
180.000000
0
LINE
8
0
10
26.699818
20
19.903707
30
0.0
11
26.699818
21
19.000002
31
0.0
0
ARC
8
0
10
26.399818
20
19.000002
30
0.0
40
0.300000
50
270.000000
51
0.000000
0
LINE
8
0
10
26.399818
20
18.700002
30
0.0
11
23.399818
21
18.700002
31
0.0
0
ARC
8
0
10
23.399818
20
19.000002
30
0.0
40
0.300000
50
180.000000
51
270.000000
0
LINE
8
0
10
23.099818
20
19.000002
30
0.0
11
23.099818
21
19.900002
31
0.0
0
ARC
8
0
10
23.399818
20
19.900002
30
0.0
40
0.300000
50
90.000000
51
180.000000
0
LINE
8
0
10
23.399818
20
20.200002
30
0.0
11
24.899818
21
20.200002
31
0.0
0
ARC
8
0
10
24.899818
20
20.500002
30
0.0
40
0.300000
50
270.000000
51
0.000000
0
LINE
8
0
10
25.199818
20
20.500002
30
0.0
11
25.199818
21
21.503707
31
0.0
0
ARC
8
0
10
25.699818
20
21.503707
30
0.0
40
0.500000
50
90.000000
51
180.000000
0
ARC
8
0
10
69.999908
20
47.003831
30
0.0
40
5.000000
50
90.000000
51
165.522488
0
ARC
8
0
10
66.126925
20
48.003831
30
0.0
40
1.000000
50
165.522488
51
270.000000
0
LINE
8
0
10
66.126925
20
47.003831
30
0.0
11
67.099908
21
47.003831
31
0.0
0
ARC
8
0
10
67.099908
20
46.603831
30
0.0
40
0.400000
50
0.000000
51
90.000000
0
LINE
8
0
10
67.499908
20
46.603831
30
0.0
11
67.499908
21
38.803831
31
0.0
0
LINE
8
0
10
67.499908
20
38.803831
30
0.0
11
68.299908
21
38.803831
31
0.0
0
LINE
8
0
10
68.299908
20
38.803831
30
0.0
11
68.299908
21
46.603831
31
0.0
0
ARC
8
0
10
67.099908
20
46.603831
30
0.0
40
1.200000
50
0.000000
51
90.000000
0
LINE
8
0
10
67.099908
20
47.803831
30
0.0
11
66.126925
21
47.803831
31
0.0
0
ARC
8
0
10
66.126925
20
48.003831
30
0.0
40
0.200000
50
165.522488
51
270.000000
0
ARC
8
0
10
69.999908
20
47.003831
30
0.0
40
4.200000
50
90.000000
51
165.522488
0
ARC
8
0
10
69.999908
20
47.003831
30
0.0
40
4.200000
50
14.477512
51
90.000000
0
ARC
8
0
10
73.872892
20
48.003831
30
0.0
40
0.200000
50
270.000000
51
14.477512
0
LINE
8
0
10
73.872892
20
47.803831
30
0.0
11
72.899908
21
47.803831
31
0.0
0
ARC
8
0
10
72.899908
20
46.603831
30
0.0
40
1.200000
50
90.000000
51
180.000000
0
LINE
8
0
10
71.699908
20
46.603831
30
0.0
11
71.699908
21
38.803831
31
0.0
0
LINE
8
0
10
71.699908
20
38.803831
30
0.0
11
72.499908
21
38.803831
31
0.0
0
LINE
8
0
10
72.499908
20
38.803831
30
0.0
11
72.499908
21
46.603831
31
0.0
0
ARC
8
0
10
72.899908
20
46.603831
30
0.0
40
0.400000
50
90.000000
51
180.000000
0
LINE
8
0
10
72.899908
20
47.003831
30
0.0
11
73.872892
21
47.003831
31
0.0
0
ARC
8
0
10
73.872892
20
48.003831
30
0.0
40
1.000000
50
270.000000
51
14.477512
0
ARC
8
0
10
69.999908
20
47.003831
30
0.0
40
5.000000
50
14.477512
51
90.000000
0
ATTDEF
8
0
10
0.000000
20
0.000000
30
0.0
40
3.5
1

3

2
GLASS_MIN:0.000000
70
0
0
ATTDEF
8
0
10
0.000000
20
0.000000
30
0.0
40
3.5
1

3

2
GLASS_MAX:0.000000
70
0
0
ATTDEF
8
0
10
0.000000
20
0.000000
30
0.0
40
3.5
1

3

2
HW_START
70
0
0
ATTDEF
8
0
10
100.000000
20
52.003831
30
0.0
40
3.5
1

3

2
HW_END
70
0
0
ATTDEF
8
0
10
92.500000
20
22.003707
30
0.0
40
3.5
1

3

2
VC_START
70
0
0
ATTDEF
8
0
10
10.896446
20
0.000000
30
0.0
40
3.5
1

3

2
VC_END
70
0
0
ATTDEF
8
0
10
0.000000
20
0.000000
30
0.0
40
3.5
1

3

2
FP_LCS_ORIG
70
0
0
ATTDEF
8
0
10
10.000000
20
0.000000
30
0.0
40
3.5
1

3

2
FP_LCS_HOT
70
0
0
ATTDEF
8
0
10
0.000000
20
10.000000
30
0.0
40
3.5
1

3

2
FP_LCS_INTERN
70
0
0
ATTDEF
8
0
10
0.000000
20
0.000000
30
0.0
40
3.5
1

3

2
MIN_VETRO:0
70
0
0
ATTDEF
8
0
10
0.000000
20
0.000000
30
0.0
40
3.5
1

3

2
MAX_VETRO:0
70
0
0
ATTDEF
8
0
10
0.000000
20
0.000000
30
0.0
40
3.5
1

3

2
JX:0
70
0
0
ATTDEF
8
0
10
0.000000
20
0.000000
30
0.0
40
3.5
1

3

2
WX:0
70
0
0
ATTDEF
8
0
10
0.000000
20
0.000000
30
0.0
40
3.5
1

3

2
JY:0
70
0
0
ATTDEF
8
0
10
0.000000
20
0.000000
30
0.0
40
3.5
1

3

2
WY:0
70
0
0
ATTDEF
8
0
10
0.000000
20
0.000000
30
0.0
40
3.5
1

3

2
BL01:6500, ,1
70
0
0
ATTDEF
8
0
10
0.000000
20
0.000000
30
0.0
40
3.5
1

3

2
DESC:COR-4763 - COR-4703 - COR-4700
70
0
0
ATTDEF
8
0
10
0.000000
20
0.000000
30
0.0
40
3.5
1

3

2
DENS:0
70
0
0
ATTDEF
8
0
10
0.000000
20
0.000000
30
0.0
40
3.5
1

3

2
TDEV:0
70
0
0
ATTDEF
8
0
10
0.000000
20
0.000000
30
0.0
40
3.5
1

3

2
TDEV2:0
70
0
0
ATTDEF
8
0
10
0.000000
20
0.000000
30
0.0
40
3.5
1

3

2
TDEV3:0
70
0
0
ATTDEF
8
0
10
0.000000
20
0.000000
30
0.0
40
3.5
1

3

2
TDEV4:0
70
0
0
ATTDEF
8
0
10
0.000000
20
0.000000
30
0.0
40
3.5
1

3

2
TDEV5:0
70
0
0
ATTDEF
8
0
10
0.000000
20
0.000000
30
0.0
40
3.5
1

3

2
PANE_WIDTH:0
70
0
0
ATTDEF
8
0
10
0.000000
20
0.000000
30
0.0
40
3.5
1

3

2
MIN_VETRO:0
70
0
0
ATTDEF
8
0
10
0.000000
20
0.000000
30
0.0
40
3.5
1

3

2
MAX_VETRO:0
70
0
0
ATTDEF
8
0
10
0.000000
20
0.000000
30
0.0
40
3.5
1

3

2
JX:0
70
0
0
ATTDEF
8
0
10
0.000000
20
0.000000
30
0.0
40
3.5
1

3

2
WX:0
70
0
0
ATTDEF
8
0
10
0.000000
20
0.000000
30
0.0
40
3.5
1

3

2
JY:0
70
0
0
ATTDEF
8
0
10
0.000000
20
0.000000
30
0.0
40
3.5
1

3

2
WY:0
70
0
0
ATTDEF
8
0
10
0.000000
20
0.000000
30
0.0
40
3.5
1

3

2
BL01:6500, ,1
70
0
0
ENDSEC
0
EOF
