0
SECTION
2
ENTITIES
0
ARC
8
0
10
134.999908
20
47.003831
30
0.0
40
5.000000
50
90.000000
51
165.522488
0
ARC
8
0
10
131.126925
20
48.003831
30
0.0
40
1.000000
50
165.522488
51
270.000000
0
LINE
8
0
10
131.126925
20
47.003831
30
0.0
11
132.099908
21
47.003831
31
0.0
0
ARC
8
0
10
132.099908
20
46.603831
30
0.0
40
0.400000
50
0.000000
51
90.000000
0
LINE
8
0
10
132.499908
20
46.603831
30
0.0
11
132.499908
21
38.803831
31
0.0
0
LINE
8
0
10
132.499908
20
38.803831
30
0.0
11
133.299908
21
38.803831
31
0.0
0
LINE
8
0
10
133.299908
20
38.803831
30
0.0
11
133.299908
21
46.603831
31
0.0
0
ARC
8
0
10
132.099908
20
46.603831
30
0.0
40
1.200000
50
0.000000
51
90.000000
0
LINE
8
0
10
132.099908
20
47.803831
30
0.0
11
131.126925
21
47.803831
31
0.0
0
ARC
8
0
10
131.126925
20
48.003831
30
0.0
40
0.200000
50
165.522488
51
270.000000
0
ARC
8
0
10
134.999908
20
47.003831
30
0.0
40
4.200000
50
90.000000
51
165.522488
0
ARC
8
0
10
134.999908
20
47.003831
30
0.0
40
4.200000
50
14.477512
51
90.000000
0
ARC
8
0
10
138.872892
20
48.003831
30
0.0
40
0.200000
50
270.000000
51
14.477512
0
LINE
8
0
10
138.872892
20
47.803831
30
0.0
11
137.899908
21
47.803831
31
0.0
0
ARC
8
0
10
137.899908
20
46.603831
30
0.0
40
1.200000
50
90.000000
51
180.000000
0
LINE
8
0
10
136.699908
20
46.603831
30
0.0
11
136.699908
21
38.803831
31
0.0
0
LINE
8
0
10
136.699908
20
38.803831
30
0.0
11
137.499908
21
38.803831
31
0.0
0
LINE
8
0
10
137.499908
20
38.803831
30
0.0
11
137.499908
21
46.603831
31
0.0
0
ARC
8
0
10
137.899908
20
46.603831
30
0.0
40
0.400000
50
90.000000
51
180.000000
0
LINE
8
0
10
137.899908
20
47.003831
30
0.0
11
138.872892
21
47.003831
31
0.0
0
ARC
8
0
10
138.872892
20
48.003831
30
0.0
40
1.000000
50
270.000000
51
14.477512
0
ARC
8
0
10
134.999908
20
47.003831
30
0.0
40
5.000000
50
14.477512
51
90.000000
0
ARC
8
0
10
70.000091
20
47.003831
30
0.0
40
5.000000
50
90.000000
51
165.522488
0
ARC
8
0
10
66.127108
20
48.003831
30
0.0
40
1.000000
50
165.522488
51
270.000000
0
LINE
8
0
10
66.127108
20
47.003831
30
0.0
11
67.100091
21
47.003831
31
0.0
0
ARC
8
0
10
67.100091
20
46.603831
30
0.0
40
0.400000
50
0.000000
51
90.000000
0
LINE
8
0
10
67.500091
20
46.603831
30
0.0
11
67.500091
21
38.803831
31
0.0
0
LINE
8
0
10
67.500091
20
38.803831
30
0.0
11
68.300091
21
38.803831
31
0.0
0
LINE
8
0
10
68.300091
20
38.803831
30
0.0
11
68.300091
21
46.603831
31
0.0
0
ARC
8
0
10
67.100091
20
46.603831
30
0.0
40
1.200000
50
0.000000
51
90.000000
0
LINE
8
0
10
67.100091
20
47.803831
30
0.0
11
66.127108
21
47.803831
31
0.0
0
ARC
8
0
10
66.127108
20
48.003831
30
0.0
40
0.200000
50
165.522488
51
270.000000
0
ARC
8
0
10
70.000091
20
47.003831
30
0.0
40
4.200000
50
90.000000
51
165.522488
0
ARC
8
0
10
70.000091
20
47.003831
30
0.0
40
4.200000
50
14.477512
51
90.000000
0
ARC
8
0
10
73.873075
20
48.003831
30
0.0
40
0.200000
50
270.000000
51
14.477512
0
LINE
8
0
10
73.873075
20
47.803831
30
0.0
11
72.900091
21
47.803831
31
0.0
0
ARC
8
0
10
72.900091
20
46.603831
30
0.0
40
1.200000
50
90.000000
51
180.000000
0
LINE
8
0
10
71.700091
20
46.603831
30
0.0
11
71.700091
21
38.803831
31
0.0
0
LINE
8
0
10
71.700091
20
38.803831
30
0.0
11
72.500091
21
38.803831
31
0.0
0
LINE
8
0
10
72.500091
20
38.803831
30
0.0
11
72.500091
21
46.603831
31
0.0
0
ARC
8
0
10
72.900091
20
46.603831
30
0.0
40
0.400000
50
90.000000
51
180.000000
0
LINE
8
0
10
72.900091
20
47.003831
30
0.0
11
73.873075
21
47.003831
31
0.0
0
ARC
8
0
10
73.873075
20
48.003831
30
0.0
40
1.000000
50
270.000000
51
14.477512
0
ARC
8
0
10
70.000091
20
47.003831
30
0.0
40
5.000000
50
14.477512
51
90.000000
0
LINE
8
0
10
25.700001
20
22.003707
30
0.0
11
53.000183
21
22.003707
31
0.0
0
ARC
8
0
10
53.000183
20
22.503707
30
0.0
40
0.500000
50
270.000000
51
0.000000
0
LINE
8
0
10
53.500183
20
22.503707
30
0.0
11
53.500183
21
42.407538
31
0.0
0
ARC
8
0
10
53.800183
20
42.407538
30
0.0
40
0.300000
50
90.000000
51
180.000000
0
LINE
8
0
10
53.800183
20
42.707538
30
0.0
11
55.000183
21
42.707538
31
0.0
0
ARC
8
0
10
55.000183
20
43.007538
30
0.0
40
0.300000
50
270.000000
51
0.000000
0
LINE
8
0
10
55.300183
20
43.007538
30
0.0
11
55.300183
21
44.707538
31
0.0
0
ARC
8
0
10
55.600183
20
44.707538
30
0.0
40
0.300000
50
90.000000
51
180.000000
0
LINE
8
0
10
55.600183
20
45.007538
30
0.0
11
56.500183
21
45.007538
31
0.0
0
ARC
8
0
10
56.500183
20
44.707538
30
0.0
40
0.300000
50
0.000000
51
90.000000
0
LINE
8
0
10
56.800183
20
44.707538
30
0.0
11
56.800183
21
41.707538
31
0.0
0
ARC
8
0
10
56.300183
20
41.707538
30
0.0
40
0.500000
50
270.000000
51
0.000000
0
LINE
8
0
10
56.300183
20
41.207538
30
0.0
11
55.300183
21
41.207538
31
0.0
0
ARC
8
0
10
55.300183
20
40.907538
30
0.0
40
0.300000
50
90.000000
51
180.000000
0
LINE
8
0
10
55.000183
20
40.907538
30
0.0
11
55.000183
21
32.805622
31
0.0
0
ARC
8
0
10
55.300183
20
32.805622
30
0.0
40
0.300000
50
180.000000
51
270.000000
0
LINE
8
0
10
55.300183
20
32.505622
30
0.0
11
56.000183
21
32.505622
31
0.0
0
ARC
8
0
10
56.000183
20
32.005622
30
0.0
40
0.500000
50
0.000000
51
90.000000
0
LINE
8
0
10
56.500183
20
32.005622
30
0.0
11
56.500183
21
31.205622
31
0.0
0
ARC
8
0
10
56.000183
20
31.205622
30
0.0
40
0.500000
50
270.000000
51
0.000000
0
LINE
8
0
10
56.000183
20
30.705622
30
0.0
11
55.300183
21
30.705622
31
0.0
0
ARC
8
0
10
55.300183
20
30.405622
30
0.0
40
0.300000
50
90.000000
51
180.000000
0
LINE
8
0
10
55.000183
20
30.405622
30
0.0
11
55.000183
21
22.303707
31
0.0
0
ARC
8
0
10
55.300183
20
22.303707
30
0.0
40
0.300000
50
180.000000
51
270.000000
0
LINE
8
0
10
55.300183
20
22.003707
30
0.0
11
56.000183
21
22.003707
31
0.0
0
ARC
8
0
10
56.000183
20
21.503707
30
0.0
40
0.500000
50
0.000000
51
90.000000
0
LINE
8
0
10
56.500183
20
21.503707
30
0.0
11
56.500183
21
20.703707
31
0.0
0
ARC
8
0
10
56.000183
20
20.703707
30
0.0
40
0.500000
50
270.000000
51
0.000000
0
LINE
8
0
10
56.000183
20
20.203707
30
0.0
11
27.000001
21
20.203707
31
0.0
0
ARC
8
0
10
27.000001
20
19.903707
30
0.0
40
0.300000
50
90.000000
51
180.000000
0
LINE
8
0
10
26.700001
20
19.903707
30
0.0
11
26.700001
21
19.000002
31
0.0
0
ARC
8
0
10
26.400001
20
19.000002
30
0.0
40
0.300000
50
270.000000
51
0.000000
0
LINE
8
0
10
26.400001
20
18.700002
30
0.0
11
23.400001
21
18.700002
31
0.0
0
ARC
8
0
10
23.400001
20
19.000002
30
0.0
40
0.300000
50
180.000000
51
270.000000
0
LINE
8
0
10
23.100001
20
19.000002
30
0.0
11
23.100001
21
19.900002
31
0.0
0
ARC
8
0
10
23.400001
20
19.900002
30
0.0
40
0.300000
50
90.000000
51
180.000000
0
LINE
8
0
10
23.400001
20
20.200002
30
0.0
11
24.900001
21
20.200002
31
0.0
0
ARC
8
0
10
24.900001
20
20.500002
30
0.0
40
0.300000
50
270.000000
51
0.000000
0
LINE
8
0
10
25.200001
20
20.500002
30
0.0
11
25.200001
21
21.503707
31
0.0
0
ARC
8
0
10
25.700001
20
21.503707
30
0.0
40
0.500000
50
90.000000
51
180.000000
0
ARC
8
0
10
29.150184
20
7.791998
30
0.0
40
0.600000
50
0.000000
51
180.000000
0
ARC
8
0
10
29.150184
20
7.791998
30
0.0
40
0.600000
50
180.000000
51
0.000000
0
ARC
8
0
10
29.150184
20
15.364123
30
0.0
40
0.600000
50
0.000000
51
180.000000
0
ARC
8
0
10
29.150184
20
15.364123
30
0.0
40
0.600000
50
180.000000
51
0.000000
0
ARC
8
0
10
52.850187
20
15.364123
30
0.0
40
0.600000
50
0.000000
51
180.000000
0
ARC
8
0
10
52.850187
20
15.364123
30
0.0
40
0.600000
50
180.000000
51
0.000000
0
ARC
8
0
10
52.850187
20
7.791998
30
0.0
40
0.600000
50
0.000000
51
180.000000
0
ARC
8
0
10
52.850187
20
7.791998
30
0.0
40
0.600000
50
180.000000
51
0.000000
0
ARC
8
0
10
94.150182
20
7.791998
30
0.0
40
0.600000
50
0.000000
51
180.000000
0
ARC
8
0
10
94.150182
20
7.791998
30
0.0
40
0.600000
50
180.000000
51
0.000000
0
ARC
8
0
10
94.150182
20
15.364123
30
0.0
40
0.600000
50
0.000000
51
180.000000
0
ARC
8
0
10
94.150182
20
15.364123
30
0.0
40
0.600000
50
180.000000
51
0.000000
0
ARC
8
0
10
117.850185
20
15.364123
30
0.0
40
0.600000
50
0.000000
51
180.000000
0
ARC
8
0
10
117.850185
20
15.364123
30
0.0
40
0.600000
50
180.000000
51
0.000000
0
ARC
8
0
10
117.850185
20
7.791998
30
0.0
40
0.600000
50
0.000000
51
180.000000
0
ARC
8
0
10
117.850185
20
7.791998
30
0.0
40
0.600000
50
180.000000
51
0.000000
0
LINE
8
0
10
70.000091
20
6.500004
30
0.0
11
55.300183
21
6.501942
31
0.0
0
ARC
8
0
10
55.300183
20
6.801942
30
0.0
40
0.300000
50
180.000000
51
270.000000
0
LINE
8
0
10
55.000183
20
6.801942
30
0.0
11
55.000183
21
17.905649
31
0.0
0
ARC
8
0
10
55.300183
20
17.905649
30
0.0
40
0.300000
50
90.000000
51
180.000000
0
LINE
8
0
10
55.300183
20
18.205649
30
0.0
11
58.100175
21
18.203710
31
0.0
0
ARC
8
0
10
58.100175
20
18.703710
30
0.0
40
0.500000
50
270.000000
51
0.000000
0
LINE
8
0
10
58.600175
20
18.703708
30
0.0
11
58.600184
21
20.500004
31
0.0
0
LINE
8
0
10
58.600184
20
20.500004
30
0.0
11
70.000091
21
20.500004
31
0.0
0
LINE
8
0
10
70.000091
20
20.500004
30
0.0
11
81.399999
21
20.500004
31
0.0
0
LINE
8
0
10
81.399999
20
20.500004
30
0.0
11
81.400007
21
18.703708
31
0.0
0
ARC
8
0
10
81.900007
20
18.703710
30
0.0
40
0.500000
50
180.000000
51
270.000000
0
LINE
8
0
10
81.900007
20
18.203710
30
0.0
11
91.700000
21
18.203710
31
0.0
0
ARC
8
0
10
91.700000
20
17.903710
30
0.0
40
0.300000
50
0.000000
51
90.000000
0
LINE
8
0
10
92.000000
20
17.903710
30
0.0
11
92.000000
21
6.800004
31
0.0
0
ARC
8
0
10
91.700000
20
6.800004
30
0.0
40
0.300000
50
270.000000
51
0.000000
0
LINE
8
0
10
91.700000
20
6.500004
30
0.0
11
70.000091
21
6.500004
31
0.0
0
LINE
8
0
10
70.000091
20
22.003707
30
0.0
11
58.900183
21
22.003707
31
0.0
0
ARC
8
0
10
58.900183
20
22.303707
30
0.0
40
0.300000
50
180.000000
51
270.000000
0
LINE
8
0
10
58.600183
20
22.303707
30
0.0
11
58.600183
21
45.203831
31
0.0
0
ARC
8
0
10
58.900183
20
45.203831
30
0.0
40
0.300000
50
90.000000
51
180.000000
0
LINE
8
0
10
58.900183
20
45.503831
30
0.0
11
65.500039
21
45.503831
31
0.0
0
ARC
8
0
10
65.500039
20
45.203831
30
0.0
40
0.300000
50
0.000000
51
90.000000
0
LINE
8
0
10
65.800039
20
45.203831
30
0.0
11
65.800039
21
37.803831
31
0.0
0
ARC
8
0
10
66.300039
20
37.803831
30
0.0
40
0.500000
50
180.000000
51
270.000000
0
LINE
8
0
10
66.300039
20
37.303831
30
0.0
11
70.000091
21
37.303831
31
0.0
0
LINE
8
0
10
70.000091
20
37.303831
30
0.0
11
73.700143
21
37.303831
31
0.0
0
ARC
8
0
10
73.700143
20
37.803831
30
0.0
40
0.500000
50
270.000000
51
0.000000
0
LINE
8
0
10
74.200143
20
37.803831
30
0.0
11
74.200143
21
45.203831
31
0.0
0
ARC
8
0
10
74.500143
20
45.203831
30
0.0
40
0.300000
50
90.000000
51
180.000000
0
LINE
8
0
10
74.500143
20
45.503831
30
0.0
11
81.100000
21
45.503831
31
0.0
0
ARC
8
0
10
81.100000
20
45.203831
30
0.0
40
0.300000
50
0.000000
51
90.000000
0
LINE
8
0
10
81.400000
20
45.203831
30
0.0
11
81.400000
21
22.303707
31
0.0
0
ARC
8
0
10
81.100000
20
22.303707
30
0.0
40
0.300000
50
270.000000
51
0.000000
0
LINE
8
0
10
81.100000
20
22.003707
30
0.0
11
70.000091
21
22.003707
31
0.0
0
LINE
8
0
10
70.000091
20
5.000000
30
0.0
11
91.500000
21
5.000000
31
0.0
0
ARC
8
0
10
91.500000
20
4.500000
30
0.0
40
0.500000
50
0.000000
51
90.000000
0
LINE
8
0
10
92.000000
20
4.500000
30
0.0
11
92.000000
21
2.300000
31
0.0
0
ARC
8
0
10
91.700000
20
2.300000
30
0.0
40
0.300000
50
270.000000
51
0.000000
0
LINE
8
0
10
91.700000
20
2.000000
30
0.0
11
90.300000
21
2.000000
31
0.0
0
ARC
8
0
10
90.300000
20
1.700000
30
0.0
40
0.300000
50
90.000000
51
180.000000
0
LINE
8
0
10
90.000000
20
1.700000
30
0.0
11
90.000000
21
1.207107
31
0.0
0
ARC
8
0
10
90.500000
20
1.207107
30
0.0
40
0.500000
50
180.000000
51
225.000000
0
LINE
8
0
10
90.146446
20
0.853553
30
0.0
11
90.853553
21
0.146446
31
0.0
0
ARC
8
0
10
91.207106
20
0.500000
30
0.0
40
0.500000
50
225.000000
51
270.000000
0
LINE
8
0
10
91.207106
20
0.000000
30
0.0
11
93.000000
21
0.000000
31
0.0
0
ARC
8
0
10
93.000000
20
0.500000
30
0.0
40
0.500000
50
270.000000
51
0.000000
0
LINE
8
0
10
93.500000
20
0.500000
30
0.0
11
93.500000
21
3.165635
31
0.0
0
ARC
8
0
10
93.800000
20
3.165635
30
0.0
40
0.300000
50
142.591719
51
180.000000
0
ARC
8
0
10
95.150355
20
2.132901
30
0.0
40
2.000000
50
46.465725
51
142.591719
0
ARC
8
0
10
96.872326
20
3.945308
30
0.0
40
0.500000
50
226.465725
51
270.000000
0
LINE
8
0
10
96.872326
20
3.445308
30
0.0
11
97.561123
21
3.445308
31
0.0
0
ARC
8
0
10
97.561123
20
3.745308
30
0.0
40
0.300000
50
270.000000
51
30.497622
0
LINE
8
0
10
97.819618
20
3.897558
30
0.0
11
96.395914
21
6.314757
31
0.0
0
LINE
8
0
10
96.353300
20
6.370822
30
0.0
11
96.395914
21
6.314757
31
0.0
0
LINE
8
0
10
96.353300
20
6.370822
30
0.0
11
95.893133
21
6.847703
31
0.0
0
ARC
8
0
10
95.788343
20
6.746586
30
0.0
40
0.145621
50
43.978161
51
180.000000
0
LINE
8
0
10
95.643019
20
6.737293
30
0.0
11
95.652948
21
6.582028
31
0.0
0
ARC
8
0
10
95.453356
20
6.569265
30
0.0
40
0.200000
50
310.482877
51
3.658900
0
LINE
8
0
10
95.583200
20
6.417145
30
0.0
11
93.978998
21
5.047856
31
0.0
0
ARC
8
0
10
93.784232
20
5.276036
30
0.0
40
0.300000
50
288.658900
51
310.482877
0
LINE
8
0
10
93.880212
20
4.991804
30
0.0
11
93.595980
21
4.895824
31
0.0
0
ARC
8
0
10
93.500000
20
5.180056
30
0.0
40
0.300000
50
90.000000
51
288.658900
0
LINE
8
0
10
93.500000
20
5.480056
30
0.0
11
93.500000
21
9.980056
31
0.0
0
ARC
8
0
10
93.700000
20
9.980056
30
0.0
40
0.200000
50
90.000000
51
180.000000
0
LINE
8
0
10
93.700000
20
10.180056
30
0.0
11
93.767888
21
10.180056
31
0.0
0
ARC
8
0
10
93.767888
20
9.880056
30
0.0
40
0.300000
50
58.619868
51
90.000000
0
LINE
8
0
10
93.924102
20
10.136175
30
0.0
11
95.600095
21
9.113942
31
0.0
0
ARC
8
0
10
95.800000
20
9.107752
30
0.0
40
0.200000
50
180.000000
51
0.000000
0
LINE
8
0
10
96.000000
20
9.107752
30
0.0
11
96.000000
21
10.514743
31
0.0
0
ARC
8
0
10
95.800000
20
10.514743
30
0.0
40
0.200000
50
0.000000
51
58.619868
0
LINE
8
0
10
95.904142
20
10.685489
30
0.0
11
94.860653
21
11.321941
31
0.0
0
ARC
8
0
10
95.016867
20
11.578061
30
0.0
40
0.300000
50
121.380132
51
238.619868
0
LINE
8
0
10
94.860653
20
11.834180
30
0.0
11
95.904142
21
12.470632
31
0.0
0
ARC
8
0
10
95.800000
20
12.641378
30
0.0
40
0.200000
50
301.380132
51
0.000000
0
LINE
8
0
10
96.000000
20
12.641378
30
0.0
11
96.000000
21
14.048369
31
0.0
0
ARC
8
0
10
95.800000
20
14.048369
30
0.0
40
0.200000
50
0.000000
51
180.000000
0
LINE
8
0
10
95.600095
20
14.042179
30
0.0
11
93.924102
21
13.019946
31
0.0
0
ARC
8
0
10
93.767888
20
13.276065
30
0.0
40
0.300000
50
270.000000
51
301.380132
0
LINE
8
0
10
93.767888
20
12.976065
30
0.0
11
93.700000
21
12.976065
31
0.0
0
ARC
8
0
10
93.700000
20
13.176065
30
0.0
40
0.200000
50
180.000000
51
270.000000
0
LINE
8
0
10
93.500000
20
13.176065
30
0.0
11
93.500000
21
17.676065
31
0.0
0
ARC
8
0
10
93.500000
20
17.976065
30
0.0
40
0.300000
50
71.341100
51
270.000000
0
LINE
8
0
10
93.595980
20
18.260297
30
0.0
11
93.880212
21
18.164317
31
0.0
0
ARC
8
0
10
93.784232
20
17.880085
30
0.0
40
0.300000
50
49.517123
51
71.341100
0
LINE
8
0
10
93.978998
20
18.108265
30
0.0
11
95.583200
21
16.738976
31
0.0
0
ARC
8
0
10
95.453356
20
16.586856
30
0.0
40
0.200000
50
356.341100
51
49.517123
0
LINE
8
0
10
95.652948
20
16.574093
30
0.0
11
95.643019
21
16.418828
31
0.0
0
ARC
8
0
10
95.788343
20
16.409535
30
0.0
40
0.145621
50
180.000000
51
316.021839
0
LINE
8
0
10
95.893133
20
16.308418
30
0.0
11
96.353300
21
16.785299
31
0.0
0
LINE
8
0
10
96.395914
20
16.841364
30
0.0
11
96.353300
21
16.785299
31
0.0
0
LINE
8
0
10
96.395914
20
16.841364
30
0.0
11
97.819618
21
19.258563
31
0.0
0
ARC
8
0
10
97.561123
20
19.410813
30
0.0
40
0.300000
50
329.502378
51
90.000000
0
LINE
8
0
10
97.561123
20
19.710813
30
0.0
11
96.872326
21
19.710813
31
0.0
0
ARC
8
0
10
96.872326
20
19.210813
30
0.0
40
0.500000
50
90.000000
51
133.534275
0
ARC
8
0
10
95.150355
20
21.023220
30
0.0
40
2.000000
50
224.759790
51
313.534275
0
ARC
8
0
10
93.517206
20
19.403707
30
0.0
40
0.300000
50
44.759791
51
90.000000
0
LINE
8
0
10
93.517206
20
19.703707
30
0.0
11
83.200000
21
19.703707
31
0.0
0
ARC
8
0
10
83.200000
20
20.003707
30
0.0
40
0.300000
50
180.000000
51
270.000000
0
LINE
8
0
10
82.900000
20
20.003707
30
0.0
11
82.900000
21
45.203831
31
0.0
0
ARC
8
0
10
83.200000
20
45.203831
30
0.0
40
0.300000
50
90.000000
51
180.000000
0
LINE
8
0
10
83.200000
20
45.503831
30
0.0
11
84.700000
21
45.503831
31
0.0
0
ARC
8
0
10
84.700000
20
45.203831
30
0.0
40
0.300000
50
0.000000
51
90.000000
0
LINE
8
0
10
85.000000
20
45.203831
30
0.0
11
85.000000
21
43.507537
31
0.0
0
ARC
8
0
10
85.300000
20
43.507537
30
0.0
40
0.300000
50
180.000000
51
270.000000
0
LINE
8
0
10
85.300000
20
43.207537
30
0.0
11
86.200000
21
43.207537
31
0.0
0
ARC
8
0
10
86.200000
20
43.507537
30
0.0
40
0.300000
50
270.000000
51
0.000000
0
LINE
8
0
10
86.500000
20
43.507537
30
0.0
11
86.500000
21
46.003831
31
0.0
0
ARC
8
0
10
85.500000
20
46.003831
30
0.0
40
1.000000
50
0.000000
51
90.000000
0
LINE
8
0
10
85.500000
20
47.003831
30
0.0
11
73.200091
21
47.003831
31
0.0
0
ARC
8
0
10
73.200091
20
46.503831
30
0.0
40
0.500000
50
90.000000
51
180.000000
0
LINE
8
0
10
72.700091
20
46.503831
30
0.0
11
72.700091
21
38.803831
31
0.0
0
LINE
8
0
10
72.700091
20
38.803831
30
0.0
11
70.000091
21
38.803831
31
0.0
0
LINE
8
0
10
70.000091
20
38.803831
30
0.0
11
67.300091
21
38.803831
31
0.0
0
LINE
8
0
10
67.300091
20
38.803831
30
0.0
11
67.300091
21
46.503831
31
0.0
0
ARC
8
0
10
66.800091
20
46.503831
30
0.0
40
0.500000
50
0.000000
51
90.000000
0
LINE
8
0
10
66.800091
20
47.003831
30
0.0
11
54.500183
21
47.003831
31
0.0
0
ARC
8
0
10
54.500183
20
46.003831
30
0.0
40
1.000000
50
90.000000
51
180.000000
0
LINE
8
0
10
53.500183
20
46.003831
30
0.0
11
53.500183
21
43.507537
31
0.0
0
ARC
8
0
10
53.800183
20
43.507537
30
0.0
40
0.300000
50
180.000000
51
270.000000
0
LINE
8
0
10
53.800183
20
43.207537
30
0.0
11
54.700183
21
43.207537
31
0.0
0
ARC
8
0
10
54.700183
20
43.507537
30
0.0
40
0.300000
50
270.000000
51
0.000000
0
LINE
8
0
10
55.000183
20
43.507537
30
0.0
11
55.000183
21
45.203831
31
0.0
0
ARC
8
0
10
55.300183
20
45.203831
30
0.0
40
0.300000
50
90.000000
51
180.000000
0
LINE
8
0
10
55.300183
20
45.503831
30
0.0
11
56.800183
21
45.503831
31
0.0
0
ARC
8
0
10
56.800183
20
45.203831
30
0.0
40
0.300000
50
0.000000
51
90.000000
0
LINE
8
0
10
57.100183
20
45.203831
30
0.0
11
57.100183
21
20.003707
31
0.0
0
ARC
8
0
10
56.800183
20
20.003707
30
0.0
40
0.300000
50
270.000000
51
0.000000
0
LINE
8
0
10
56.800183
20
19.703707
30
0.0
11
53.482977
21
19.705645
31
0.0
0
ARC
8
0
10
53.482977
20
19.405645
30
0.0
40
0.300000
50
90.000000
51
135.240209
0
ARC
8
0
10
51.849827
20
21.025158
30
0.0
40
2.000000
50
226.465725
51
315.240210
0
ARC
8
0
10
50.127856
20
19.212752
30
0.0
40
0.500000
50
46.465725
51
90.000000
0
LINE
8
0
10
50.127856
20
19.712752
30
0.0
11
49.439060
21
19.712752
31
0.0
0
ARC
8
0
10
49.439060
20
19.412752
30
0.0
40
0.300000
50
90.000000
51
210.497622
0
LINE
8
0
10
49.180565
20
19.260501
30
0.0
11
50.604268
21
16.843302
31
0.0
0
LINE
8
0
10
50.646882
20
16.787238
30
0.0
11
50.604268
21
16.843302
31
0.0
0
LINE
8
0
10
50.646882
20
16.787238
30
0.0
11
51.107050
21
16.310357
31
0.0
0
ARC
8
0
10
51.211839
20
16.411473
30
0.0
40
0.145621
50
223.978161
51
0.000000
0
LINE
8
0
10
51.357163
20
16.420766
30
0.0
11
51.347234
21
16.576031
31
0.0
0
ARC
8
0
10
51.546827
20
16.588794
30
0.0
40
0.200000
50
130.482877
51
183.658900
0
LINE
8
0
10
51.416982
20
16.740914
30
0.0
11
53.021184
21
18.110203
31
0.0
0
ARC
8
0
10
53.215951
20
17.882023
30
0.0
40
0.300000
50
108.658900
51
130.482877
0
LINE
8
0
10
53.119971
20
18.166255
30
0.0
11
53.404203
21
18.262236
31
0.0
0
ARC
8
0
10
53.500183
20
17.978004
30
0.0
40
0.300000
50
270.000000
51
108.658900
0
LINE
8
0
10
53.500183
20
17.678004
30
0.0
11
53.500183
21
13.178004
31
0.0
0
ARC
8
0
10
53.300183
20
13.178004
30
0.0
40
0.200000
50
270.000000
51
0.000000
0
LINE
8
0
10
53.300183
20
12.978004
30
0.0
11
53.232294
21
12.978004
31
0.0
0
ARC
8
0
10
53.232294
20
13.278004
30
0.0
40
0.300000
50
238.619868
51
270.000000
0
LINE
8
0
10
53.076080
20
13.021884
30
0.0
11
51.400087
21
14.044117
31
0.0
0
ARC
8
0
10
51.200183
20
14.050307
30
0.0
40
0.200000
50
0.000000
51
180.000000
0
LINE
8
0
10
51.000183
20
14.050307
30
0.0
11
51.000183
21
12.643317
31
0.0
0
ARC
8
0
10
51.200183
20
12.643317
30
0.0
40
0.200000
50
180.000000
51
238.619868
0
LINE
8
0
10
51.096040
20
12.472570
30
0.0
11
52.139530
21
11.836118
31
0.0
0
ARC
8
0
10
51.983316
20
11.579999
30
0.0
40
0.300000
50
301.380132
51
58.619868
0
LINE
8
0
10
52.139530
20
11.323879
30
0.0
11
51.096040
21
10.687427
31
0.0
0
ARC
8
0
10
51.200183
20
10.516681
30
0.0
40
0.200000
50
121.380132
51
180.000000
0
LINE
8
0
10
51.000183
20
10.516681
30
0.0
11
51.000183
21
9.109690
31
0.0
0
ARC
8
0
10
51.200183
20
9.109690
30
0.0
40
0.200000
50
180.000000
51
0.000000
0
LINE
8
0
10
51.400087
20
9.115881
30
0.0
11
53.076080
21
10.138114
31
0.0
0
ARC
8
0
10
53.232294
20
9.881994
30
0.0
40
0.300000
50
90.000000
51
121.380132
0
LINE
8
0
10
53.232294
20
10.181994
30
0.0
11
53.300183
21
10.181994
31
0.0
0
ARC
8
0
10
53.300183
20
9.981994
30
0.0
40
0.200000
50
0.000000
51
90.000000
0
LINE
8
0
10
53.500183
20
9.981994
30
0.0
11
53.500183
21
5.481994
31
0.0
0
ARC
8
0
10
53.500183
20
5.181994
30
0.0
40
0.300000
50
251.341100
51
90.000000
0
LINE
8
0
10
53.404203
20
4.897762
30
0.0
11
53.119971
21
4.993742
31
0.0
0
ARC
8
0
10
53.215951
20
5.277974
30
0.0
40
0.300000
50
229.517123
51
251.341100
0
LINE
8
0
10
53.021184
20
5.049794
30
0.0
11
51.416982
21
6.419083
31
0.0
0
ARC
8
0
10
51.546827
20
6.571203
30
0.0
40
0.200000
50
176.341100
51
229.517123
0
LINE
8
0
10
51.347234
20
6.583967
30
0.0
11
51.357163
21
6.739231
31
0.0
0
ARC
8
0
10
51.211839
20
6.748524
30
0.0
40
0.145621
50
0.000000
51
136.021839
0
LINE
8
0
10
51.107050
20
6.849641
30
0.0
11
50.646882
21
6.372760
31
0.0
0
LINE
8
0
10
50.604268
20
6.316695
30
0.0
11
50.646882
21
6.372760
31
0.0
0
LINE
8
0
10
50.604268
20
6.316695
30
0.0
11
49.180565
21
3.899497
31
0.0
0
ARC
8
0
10
49.439060
20
3.747246
30
0.0
40
0.300000
50
149.502378
51
270.000000
0
LINE
8
0
10
49.439060
20
3.447246
30
0.0
11
50.127856
21
3.447246
31
0.0
0
ARC
8
0
10
50.127856
20
3.947246
30
0.0
40
0.500000
50
270.000000
51
313.534275
0
ARC
8
0
10
51.849827
20
2.134840
30
0.0
40
2.000000
50
37.408281
51
133.534275
0
ARC
8
0
10
53.200183
20
3.167574
30
0.0
40
0.300000
50
0.000000
51
37.408281
0
LINE
8
0
10
53.500183
20
3.167574
30
0.0
11
53.500183
21
0.501938
31
0.0
0
ARC
8
0
10
54.000183
20
0.501938
30
0.0
40
0.500000
50
180.000000
51
270.000000
0
LINE
8
0
10
54.000183
20
0.001938
30
0.0
11
55.793076
21
0.001938
31
0.0
0
ARC
8
0
10
55.793076
20
0.501938
30
0.0
40
0.500000
50
270.000000
51
315.000000
0
LINE
8
0
10
56.146629
20
0.148385
30
0.0
11
56.853736
21
0.855492
31
0.0
0
ARC
8
0
10
56.500183
20
1.209045
30
0.0
40
0.500000
50
315.000000
51
0.000000
0
LINE
8
0
10
57.000183
20
1.209045
30
0.0
11
57.000183
21
1.701938
31
0.0
0
ARC
8
0
10
56.700183
20
1.701938
30
0.0
40
0.300000
50
0.000000
51
90.000000
0
LINE
8
0
10
56.700183
20
2.001938
30
0.0
11
55.300183
21
2.001938
31
0.0
0
ARC
8
0
10
55.300183
20
2.301938
30
0.0
40
0.300000
50
180.000000
51
270.000000
0
LINE
8
0
10
55.000183
20
2.301938
30
0.0
11
55.000183
21
4.501938
31
0.0
0
ARC
8
0
10
55.500183
20
4.501938
30
0.0
40
0.500000
50
90.000000
51
180.000000
0
LINE
8
0
10
55.500183
20
5.001938
30
0.0
11
70.000091
21
5.000000
31
0.0
0
LINE
8
0
10
53.500187
20
16.661868
30
0.0
11
52.715289
21
17.446767
31
0.0
0
LINE
8
0
10
53.450187
20
14.466805
30
0.0
11
53.098894
21
14.818097
31
0.0
0
LINE
8
0
10
52.304161
20
15.612831
30
0.0
11
51.291975
21
16.625017
31
0.0
0
LINE
8
0
10
51.954838
20
13.717090
30
0.0
11
46.407808
21
19.264120
31
0.0
0
LINE
8
0
10
46.162744
20
17.264119
30
0.0
11
44.162744
21
19.264120
31
0.0
0
LINE
8
0
10
43.917680
20
17.264119
30
0.0
11
41.917680
21
19.264120
31
0.0
0
LINE
8
0
10
41.672616
20
17.264119
30
0.0
11
39.672616
21
19.264120
31
0.0
0
LINE
8
0
10
39.427552
20
17.264119
30
0.0
11
37.427552
21
19.264120
31
0.0
0
LINE
8
0
10
37.182488
20
17.264119
30
0.0
11
35.182488
21
19.264120
31
0.0
0
LINE
8
0
10
34.937424
20
17.264119
30
0.0
11
33.292332
21
18.909212
31
0.0
0
LINE
8
0
10
33.779433
20
16.177046
30
0.0
11
32.347591
21
17.608888
31
0.0
0
LINE
8
0
10
32.834693
20
14.876722
30
0.0
11
31.342692
21
16.368724
31
0.0
0
LINE
8
0
10
31.150575
20
14.315776
30
0.0
11
28.500183
21
16.966169
31
0.0
0
LINE
8
0
10
29.702340
20
13.518947
30
0.0
11
28.550184
21
14.671104
31
0.0
0
LINE
8
0
10
52.880204
20
13.264113
30
0.0
11
53.500186
21
13.884095
31
0.0
0
LINE
8
0
10
51.405359
20
14.034332
30
0.0
11
52.372322
21
15.001294
31
0.0
0
LINE
8
0
10
53.260151
20
15.889123
30
0.0
11
53.450187
21
16.079160
31
0.0
0
LINE
8
0
10
49.536533
20
14.410569
30
0.0
11
52.377992
21
17.252028
31
0.0
0
LINE
8
0
10
48.576582
20
15.695683
30
0.0
11
50.008424
21
17.127525
31
0.0
0
LINE
8
0
10
47.631842
20
16.996006
30
0.0
11
49.063684
21
18.427848
31
0.0
0
LINE
8
0
10
45.654891
20
17.264119
30
0.0
11
47.654891
21
19.264120
31
0.0
0
LINE
8
0
10
43.409827
20
17.264119
30
0.0
11
45.409827
21
19.264120
31
0.0
0
LINE
8
0
10
41.164763
20
17.264119
30
0.0
11
43.164763
21
19.264120
31
0.0
0
LINE
8
0
10
38.919699
20
17.264119
30
0.0
11
40.919699
21
19.264120
31
0.0
0
LINE
8
0
10
36.674635
20
17.264119
30
0.0
11
38.674635
21
19.264120
31
0.0
0
LINE
8
0
10
31.529576
20
14.364124
30
0.0
11
36.429571
21
19.264120
31
0.0
0
LINE
8
0
10
28.507638
20
13.587251
30
0.0
11
31.284511
21
16.364124
31
0.0
0
LINE
8
0
10
31.864880
20
16.944493
30
0.0
11
34.184507
21
19.264120
31
0.0
0
LINE
8
0
10
28.564446
20
15.889123
30
0.0
11
29.817889
21
17.142565
31
0.0
0
LINE
8
0
10
52.792574
20
8.389226
30
0.0
11
51.820391
21
9.361408
31
0.0
0
LINE
8
0
10
53.224816
20
5.711919
30
0.0
11
50.144739
21
8.791996
31
0.0
0
LINE
8
0
10
50.283906
20
6.407765
30
0.0
11
48.852065
21
7.839607
31
0.0
0
LINE
8
0
10
49.339166
20
5.107441
30
0.0
11
47.907324
21
6.539283
31
0.0
0
LINE
8
0
10
48.309477
20
3.892066
30
0.0
11
46.309542
21
5.892002
31
0.0
0
LINE
8
0
10
46.064478
20
3.892001
30
0.0
11
44.064478
21
5.892002
31
0.0
0
LINE
8
0
10
43.819414
20
3.892001
30
0.0
11
41.819414
21
5.892002
31
0.0
0
LINE
8
0
10
41.574350
20
3.892001
30
0.0
11
39.574350
21
5.892002
31
0.0
0
LINE
8
0
10
39.329286
20
3.892001
30
0.0
11
37.329286
21
5.892002
31
0.0
0
LINE
8
0
10
37.084222
20
3.892001
30
0.0
11
35.084222
21
5.892002
31
0.0
0
LINE
8
0
10
33.200992
20
7.775231
30
0.0
11
32.184228
21
8.791996
31
0.0
0
LINE
8
0
10
34.839158
20
3.892001
30
0.0
11
28.843227
21
9.887933
31
0.0
0
LINE
8
0
10
30.232921
20
6.253174
30
0.0
11
29.279906
21
7.206189
31
0.0
0
LINE
8
0
10
52.300257
20
5.948973
30
0.0
11
53.450187
21
7.098903
31
0.0
0
LINE
8
0
10
47.998221
20
3.892001
30
0.0
11
49.672617
21
5.566398
31
0.0
0
LINE
8
0
10
50.875127
20
6.768907
30
0.0
11
53.500186
21
9.393967
31
0.0
0
LINE
8
0
10
45.753157
20
3.892001
30
0.0
11
50.662559
21
8.801403
31
0.0
0
LINE
8
0
10
43.508093
20
3.892001
30
0.0
11
45.508093
21
5.892002
31
0.0
0
LINE
8
0
10
41.263029
20
3.892001
30
0.0
11
43.263029
21
5.892002
31
0.0
0
LINE
8
0
10
39.017965
20
3.892001
30
0.0
11
41.017965
21
5.892002
31
0.0
0
LINE
8
0
10
36.772901
20
3.892001
30
0.0
11
38.772901
21
5.892002
31
0.0
0
LINE
8
0
10
34.527837
20
3.892001
30
0.0
11
36.527837
21
5.892002
31
0.0
0
LINE
8
0
10
33.016850
20
4.626078
30
0.0
11
34.448692
21
6.057920
31
0.0
0
LINE
8
0
10
32.072109
20
5.926402
30
0.0
11
33.503951
21
7.358244
31
0.0
0
LINE
8
0
10
30.045761
20
6.145118
30
0.0
11
32.559211
21
8.658567
31
0.0
0
LINE
8
0
10
28.550183
20
6.894604
30
0.0
11
28.901528
21
7.245948
31
0.0
0
LINE
8
0
10
29.696233
20
8.040654
30
0.0
11
30.710621
21
9.055042
31
0.0
0
LINE
8
0
10
28.500184
20
9.089669
30
0.0
11
29.287308
21
9.876793
31
0.0
0
ARC
8
0
10
24.600001
20
20.800002
30
0.0
40
0.300000
50
270.000000
51
0.000000
0
LINE
8
0
10
24.600001
20
20.500002
30
0.0
11
23.100001
21
20.500002
31
0.0
0
ARC
8
0
10
23.100001
20
20.200002
30
0.0
40
0.300000
50
90.000000
51
180.000000
0
LINE
8
0
10
22.800001
20
20.200002
30
0.0
11
22.800001
21
18.700002
31
0.0
0
ARC
8
0
10
23.100001
20
18.700002
30
0.0
40
0.300000
50
180.000000
51
270.000000
0
LINE
8
0
10
23.100001
20
18.400002
30
0.0
11
26.700001
21
18.400002
31
0.0
0
ARC
8
0
10
26.700001
20
18.700002
30
0.0
40
0.300000
50
270.000000
51
0.000000
0
LINE
8
0
10
27.000001
20
18.700002
30
0.0
11
27.000001
21
19.403709
31
0.0
0
ARC
8
0
10
27.300001
20
19.403709
30
0.0
40
0.300000
50
90.000000
51
180.000000
0
LINE
8
0
10
27.300001
20
19.703709
30
0.0
11
28.517207
21
19.703709
31
0.0
0
ARC
8
0
10
28.517207
20
19.403709
30
0.0
40
0.300000
50
44.759791
51
90.000000
0
ARC
8
0
10
30.150356
20
21.023222
30
0.0
40
2.000000
50
224.759790
51
313.534275
0
ARC
8
0
10
31.872327
20
19.210815
30
0.0
40
0.500000
50
90.000000
51
133.534275
0
LINE
8
0
10
31.872327
20
19.710815
30
0.0
11
32.561124
21
19.710815
31
0.0
0
ARC
8
0
10
32.561124
20
19.410815
30
0.0
40
0.300000
50
329.502378
51
90.000000
0
LINE
8
0
10
32.819619
20
19.258565
30
0.0
11
31.395915
21
16.841366
31
0.0
0
LINE
8
0
10
31.395915
20
16.841366
30
0.0
11
31.353301
21
16.785301
31
0.0
0
LINE
8
0
10
31.353301
20
16.785301
30
0.0
11
30.893134
21
16.308420
31
0.0
0
ARC
8
0
10
30.788345
20
16.409537
30
0.0
40
0.145621
50
180.000000
51
316.021839
0
LINE
8
0
10
30.643021
20
16.418830
30
0.0
11
30.652949
21
16.574095
31
0.0
0
ARC
8
0
10
30.453357
20
16.586858
30
0.0
40
0.200000
50
356.341100
51
49.517123
0
LINE
8
0
10
30.583201
20
16.738978
30
0.0
11
28.978999
21
18.108267
31
0.0
0
ARC
8
0
10
28.784233
20
17.880087
30
0.0
40
0.300000
50
49.517123
51
71.341100
0
LINE
8
0
10
28.880213
20
18.164319
30
0.0
11
28.595981
21
18.260299
31
0.0
0
ARC
8
0
10
28.500001
20
17.976067
30
0.0
40
0.300000
50
71.341100
51
270.000000
0
LINE
8
0
10
28.500001
20
17.676067
30
0.0
11
28.500001
21
13.176067
31
0.0
0
ARC
8
0
10
28.700001
20
13.176067
30
0.0
40
0.200000
50
180.000000
51
270.000000
0
LINE
8
0
10
28.700001
20
12.976067
30
0.0
11
28.767890
21
12.976067
31
0.0
0
ARC
8
0
10
28.767890
20
13.276067
30
0.0
40
0.300000
50
270.000000
51
301.380132
0
LINE
8
0
10
28.924104
20
13.019948
30
0.0
11
30.600097
21
14.042181
31
0.0
0
ARC
8
0
10
30.800001
20
14.048371
30
0.0
40
0.200000
50
0.000000
51
180.000000
0
LINE
8
0
10
31.000001
20
14.048371
30
0.0
11
31.000001
21
12.641380
31
0.0
0
ARC
8
0
10
30.800001
20
12.641380
30
0.0
40
0.200000
50
301.380132
51
0.000000
0
LINE
8
0
10
30.904144
20
12.470634
30
0.0
11
29.860654
21
11.834182
31
0.0
0
ARC
8
0
10
30.016868
20
11.578062
30
0.0
40
0.300000
50
121.380132
51
238.619868
0
LINE
8
0
10
29.860654
20
11.321943
30
0.0
11
30.904144
21
10.685491
31
0.0
0
ARC
8
0
10
30.800001
20
10.514745
30
0.0
40
0.200000
50
0.000000
51
58.619868
0
LINE
8
0
10
31.000001
20
10.514745
30
0.0
11
31.000001
21
9.107754
31
0.0
0
ARC
8
0
10
30.800001
20
9.107754
30
0.0
40
0.200000
50
180.000000
51
0.000000
0
LINE
8
0
10
30.600097
20
9.113944
30
0.0
11
28.924104
21
10.136177
31
0.0
0
ARC
8
0
10
28.767890
20
9.880058
30
0.0
40
0.300000
50
58.619868
51
90.000000
0
LINE
8
0
10
28.767890
20
10.180058
30
0.0
11
28.700001
21
10.180058
31
0.0
0
ARC
8
0
10
28.700001
20
9.980058
30
0.0
40
0.200000
50
90.000000
51
180.000000
0
LINE
8
0
10
28.500001
20
9.980058
30
0.0
11
28.500001
21
5.480058
31
0.0
0
ARC
8
0
10
28.500001
20
5.180058
30
0.0
40
0.300000
50
90.000000
51
288.658900
0
LINE
8
0
10
28.595981
20
4.895826
30
0.0
11
28.880213
21
4.991806
31
0.0
0
ARC
8
0
10
28.784233
20
5.276038
30
0.0
40
0.300000
50
288.658900
51
310.482877
0
LINE
8
0
10
28.978999
20
5.047858
30
0.0
11
30.583201
21
6.417147
31
0.0
0
ARC
8
0
10
30.453357
20
6.569267
30
0.0
40
0.200000
50
310.482877
51
3.658900
0
LINE
8
0
10
30.652949
20
6.582030
30
0.0
11
30.643021
21
6.737295
31
0.0
0
ARC
8
0
10
30.788345
20
6.746588
30
0.0
40
0.145621
50
43.978161
51
180.000000
0
LINE
8
0
10
30.893134
20
6.847705
30
0.0
11
31.353301
21
6.370824
31
0.0
0
LINE
8
0
10
31.353301
20
6.370824
30
0.0
11
31.395915
21
6.314759
31
0.0
0
LINE
8
0
10
31.395915
20
6.314759
30
0.0
11
32.819619
21
3.897560
31
0.0
0
ARC
8
0
10
32.561124
20
3.745310
30
0.0
40
0.300000
50
270.000000
51
30.497622
0
LINE
8
0
10
32.561124
20
3.445310
30
0.0
11
31.872327
21
3.445310
31
0.0
0
ARC
8
0
10
31.872327
20
3.945310
30
0.0
40
0.500000
50
226.465725
51
270.000000
0
ARC
8
0
10
30.150356
20
2.132903
30
0.0
40
2.000000
50
46.465725
51
142.591719
0
ARC
8
0
10
28.800001
20
3.165637
30
0.0
40
0.300000
50
142.591719
51
180.000000
0
LINE
8
0
10
28.500001
20
3.165637
30
0.0
11
28.500001
21
0.500002
31
0.0
0
ARC
8
0
10
28.000001
20
0.500002
30
0.0
40
0.500000
50
270.000000
51
0.000000
0
LINE
8
0
10
28.000001
20
0.000002
30
0.0
11
26.207108
21
0.000002
31
0.0
0
ARC
8
0
10
26.207108
20
0.500002
30
0.0
40
0.500000
50
225.000000
51
270.000000
0
LINE
8
0
10
25.853554
20
0.146448
30
0.0
11
25.146447
21
0.853555
31
0.0
0
ARC
8
0
10
25.500001
20
1.207109
30
0.0
40
0.500000
50
180.000000
51
225.000000
0
LINE
8
0
10
25.000001
20
1.207109
30
0.0
11
25.000001
21
1.700002
31
0.0
0
ARC
8
0
10
25.300001
20
1.700002
30
0.0
40
0.300000
50
90.000000
51
180.000000
0
LINE
8
0
10
25.300001
20
2.000002
30
0.0
11
26.700001
21
2.000002
31
0.0
0
ARC
8
0
10
26.700001
20
2.300002
30
0.0
40
0.300000
50
270.000000
51
0.000000
0
LINE
8
0
10
27.000001
20
2.300002
30
0.0
11
27.000001
21
4.700002
31
0.0
0
ARC
8
0
10
26.700001
20
4.700002
30
0.0
40
0.300000
50
0.000000
51
90.000000
0
LINE
8
0
10
26.700001
20
5.000002
30
0.0
11
17.500000
21
5.000001
31
0.0
0
LINE
8
0
10
17.500000
20
5.000001
30
0.0
11
17.000000
21
5.300001
31
0.0
0
LINE
8
0
10
17.000000
20
5.300001
30
0.0
11
16.499999
21
5.000001
31
0.0
0
LINE
8
0
10
16.499999
20
5.000001
30
0.0
11
11.300000
21
5.000000
31
0.0
0
ARC
8
0
10
11.300000
20
4.700000
30
0.0
40
0.300000
50
90.000000
51
180.000000
0
LINE
8
0
10
11.000000
20
4.700000
30
0.0
11
11.000000
21
2.300000
31
0.0
0
ARC
8
0
10
11.300000
20
2.300000
30
0.0
40
0.300000
50
180.000000
51
270.000000
0
LINE
8
0
10
11.300000
20
2.000000
30
0.0
11
12.700000
21
2.000000
31
0.0
0
ARC
8
0
10
12.700000
20
1.700000
30
0.0
40
0.300000
50
0.000000
51
90.000000
0
LINE
8
0
10
13.000000
20
1.700000
30
0.0
11
13.000000
21
1.207107
31
0.0
0
ARC
8
0
10
12.500000
20
1.207107
30
0.0
40
0.500000
50
315.000000
51
0.000000
0
LINE
8
0
10
12.853553
20
0.853553
30
0.0
11
12.146446
21
0.146446
31
0.0
0
ARC
8
0
10
11.792893
20
0.500000
30
0.0
40
0.500000
50
270.000000
51
315.000000
0
LINE
8
0
10
11.792893
20
0.000000
30
0.0
11
10.000000
21
0.000000
31
0.0
0
ARC
8
0
10
10.000000
20
0.500000
30
0.0
40
0.500000
50
180.000000
51
270.000000
0
LINE
8
0
10
9.500000
20
0.500000
30
0.0
11
9.500000
21
1.300000
31
0.0
0
ARC
8
0
10
9.200000
20
1.300000
30
0.0
40
0.300000
50
0.000000
51
90.000000
0
LINE
8
0
10
9.200000
20
1.600000
30
0.0
11
3.263741
21
1.600000
31
0.0
0
ARC
8
0
10
3.263741
20
3.100000
30
0.0
40
1.500000
50
234.721004
51
270.000000
0
ARC
8
0
10
2.570671
20
2.120381
30
0.0
40
0.300000
50
115.000000
51
234.721004
0
LINE
8
0
10
2.443886
20
2.392273
30
0.0
11
3.901334
21
3.071892
31
0.0
0
ARC
8
0
10
4.028119
20
2.800000
30
0.0
40
0.300000
50
30.000000
51
115.000000
0
LINE
8
0
10
4.287927
20
2.950000
30
0.0
11
4.490000
21
2.600000
31
0.0
0
LINE
8
0
10
4.490000
20
2.600000
30
0.0
11
9.200000
21
2.600000
31
0.0
0
ARC
8
0
10
9.200000
20
2.900000
30
0.0
40
0.300000
50
270.000000
51
0.000000
0
LINE
8
0
10
9.500000
20
2.900000
30
0.0
11
9.500000
21
4.700000
31
0.0
0
ARC
8
0
10
9.200000
20
4.700000
30
0.0
40
0.300000
50
0.000000
51
90.000000
0
LINE
8
0
10
9.200000
20
5.000000
30
0.0
11
0.500000
21
5.000000
31
0.0
0
ARC
8
0
10
0.500000
20
5.500000
30
0.0
40
0.500000
50
180.000000
51
270.000000
0
LINE
8
0
10
0.000000
20
5.500000
30
0.0
11
0.000000
21
21.500002
31
0.0
0
ARC
8
0
10
0.500000
20
21.500002
30
0.0
40
0.500000
50
90.000000
51
180.000000
0
LINE
8
0
10
0.500000
20
22.000002
30
0.0
11
24.400001
21
22.000002
31
0.0
0
ARC
8
0
10
24.400001
20
21.500002
30
0.0
40
0.500000
50
0.000000
51
90.000000
0
LINE
8
0
10
24.900001
20
21.500002
30
0.0
11
24.900001
21
20.800002
31
0.0
0
ARC
8
0
10
3.900001
20
19.000002
30
0.0
40
0.500000
50
180.000000
51
270.000000
0
LINE
8
0
10
3.400001
20
19.000002
30
0.0
11
3.400001
21
20.200002
31
0.0
0
ARC
8
0
10
3.100001
20
20.200002
30
0.0
40
0.300000
50
0.000000
51
90.000000
0
LINE
8
0
10
3.100001
20
20.500002
30
0.0
11
1.800000
21
20.500002
31
0.0
0
ARC
8
0
10
1.800000
20
20.200002
30
0.0
40
0.300000
50
90.000000
51
180.000000
0
LINE
8
0
10
1.500000
20
20.200002
30
0.0
11
1.500000
21
6.799999
31
0.0
0
ARC
8
0
10
1.800000
20
6.799999
30
0.0
40
0.300000
50
180.000000
51
270.000000
0
LINE
8
0
10
1.800000
20
6.499999
30
0.0
11
26.700001
21
6.500002
31
0.0
0
ARC
8
0
10
26.700001
20
6.800002
30
0.0
40
0.300000
50
270.000000
51
0.000000
0
LINE
8
0
10
27.000001
20
6.800002
30
0.0
11
27.000001
21
16.600002
31
0.0
0
ARC
8
0
10
26.700001
20
16.600002
30
0.0
40
0.300000
50
0.000000
51
90.000000
0
LINE
8
0
10
26.700001
20
16.900002
30
0.0
11
22.300001
21
16.900002
31
0.0
0
ARC
8
0
10
22.300001
20
17.900002
30
0.0
40
1.000000
50
180.000000
51
270.000000
0
LINE
8
0
10
21.300001
20
17.900002
30
0.0
11
21.300001
21
20.500002
31
0.0
0
LINE
8
0
10
21.300001
20
20.500002
30
0.0
11
17.500000
21
20.500002
31
0.0
0
LINE
8
0
10
17.500000
20
20.500002
30
0.0
11
17.000000
21
20.800002
31
0.0
0
LINE
8
0
10
17.000000
20
20.800002
30
0.0
11
16.500000
21
20.500002
31
0.0
0
LINE
8
0
10
16.500000
20
20.500002
30
0.0
11
4.900001
21
20.500002
31
0.0
0
LINE
8
0
10
4.900001
20
20.500002
30
0.0
11
4.900001
21
18.500002
31
0.0
0
LINE
8
0
10
4.900001
20
18.500002
30
0.0
11
3.900001
21
18.500002
31
0.0
0
LINE
8
0
10
162.900000
20
2.000000
30
0.0
11
161.500000
21
2.000000
31
0.0
0
ARC
8
0
10
161.500000
20
1.700000
30
0.0
40
0.300000
50
90.000000
51
180.000000
0
LINE
8
0
10
161.200000
20
1.700000
30
0.0
11
161.200000
21
1.207107
31
0.0
0
ARC
8
0
10
161.700000
20
1.207107
30
0.0
40
0.500000
50
180.000000
51
225.000000
0
LINE
8
0
10
161.346446
20
0.853553
30
0.0
11
162.053553
21
0.146446
31
0.0
0
ARC
8
0
10
162.407106
20
0.500000
30
0.0
40
0.500000
50
225.000000
51
270.000000
0
LINE
8
0
10
162.407106
20
0.000000
30
0.0
11
164.500000
21
0.000000
31
0.0
0
ARC
8
0
10
164.500000
20
0.500000
30
0.0
40
0.500000
50
270.000000
51
0.000000
0
LINE
8
0
10
165.000000
20
0.500000
30
0.0
11
165.000000
21
46.503831
31
0.0
0
ARC
8
0
10
164.500000
20
46.503831
30
0.0
40
0.500000
50
0.000000
51
90.000000
0
LINE
8
0
10
164.500000
20
47.003831
30
0.0
11
164.000000
21
47.003831
31
0.0
0
ARC
8
0
10
164.000000
20
46.503831
30
0.0
40
0.500000
50
90.000000
51
180.000000
0
LINE
8
0
10
163.500000
20
46.503831
30
0.0
11
163.500000
21
22.303707
31
0.0
0
ARC
8
0
10
163.200000
20
22.303707
30
0.0
40
0.300000
50
270.000000
51
0.000000
0
LINE
8
0
10
163.200000
20
22.003707
30
0.0
11
151.800000
21
22.003707
31
0.0
0
ARC
8
0
10
151.800000
20
22.303707
30
0.0
40
0.300000
50
180.000000
51
270.000000
0
LINE
8
0
10
151.500000
20
22.303707
30
0.0
11
151.500000
21
46.003831
31
0.0
0
ARC
8
0
10
150.500000
20
46.003831
30
0.0
40
1.000000
50
0.000000
51
90.000000
0
LINE
8
0
10
150.500000
20
47.003831
30
0.0
11
138.199908
21
47.003831
31
0.0
0
ARC
8
0
10
138.199908
20
46.503831
30
0.0
40
0.500000
50
90.000000
51
180.000000
0
LINE
8
0
10
137.699908
20
46.503831
30
0.0
11
137.699908
21
38.803831
31
0.0
0
LINE
8
0
10
137.699908
20
38.803831
30
0.0
11
132.299908
21
38.803831
31
0.0
0
LINE
8
0
10
132.299908
20
38.803831
30
0.0
11
132.299908
21
46.503831
31
0.0
0
ARC
8
0
10
131.799908
20
46.503831
30
0.0
40
0.500000
50
0.000000
51
90.000000
0
LINE
8
0
10
131.799908
20
47.003831
30
0.0
11
119.500000
21
47.003831
31
0.0
0
ARC
8
0
10
119.500000
20
46.003831
30
0.0
40
1.000000
50
90.000000
51
180.000000
0
LINE
8
0
10
118.500000
20
46.003831
30
0.0
11
118.500000
21
43.507537
31
0.0
0
ARC
8
0
10
118.800000
20
43.507537
30
0.0
40
0.300000
50
180.000000
51
270.000000
0
LINE
8
0
10
118.800000
20
43.207537
30
0.0
11
119.700000
21
43.207537
31
0.0
0
ARC
8
0
10
119.700000
20
43.507537
30
0.0
40
0.300000
50
270.000000
51
0.000000
0
LINE
8
0
10
120.000000
20
43.507537
30
0.0
11
120.000000
21
45.203831
31
0.0
0
ARC
8
0
10
120.300000
20
45.203831
30
0.0
40
0.300000
50
90.000000
51
180.000000
0
LINE
8
0
10
120.300000
20
45.503831
30
0.0
11
121.800000
21
45.503831
31
0.0
0
ARC
8
0
10
121.800000
20
45.203831
30
0.0
40
0.300000
50
0.000000
51
90.000000
0
LINE
8
0
10
122.100000
20
45.203831
30
0.0
11
122.100000
21
20.003707
31
0.0
0
ARC
8
0
10
121.800000
20
20.003707
30
0.0
40
0.300000
50
270.000000
51
0.000000
0
LINE
8
0
10
121.800000
20
19.703707
30
0.0
11
118.482794
21
19.703707
31
0.0
0
ARC
8
0
10
118.482794
20
19.403707
30
0.0
40
0.300000
50
90.000000
51
135.240209
0
ARC
8
0
10
116.849644
20
21.023220
30
0.0
40
2.000000
50
226.465725
51
315.240210
0
ARC
8
0
10
115.127673
20
19.210813
30
0.0
40
0.500000
50
46.465725
51
90.000000
0
LINE
8
0
10
115.127673
20
19.710813
30
0.0
11
114.438877
21
19.710813
31
0.0
0
ARC
8
0
10
114.438877
20
19.410813
30
0.0
40
0.300000
50
90.000000
51
210.497622
0
LINE
8
0
10
114.180382
20
19.258563
30
0.0
11
115.604085
21
16.841364
31
0.0
0
LINE
8
0
10
115.646699
20
16.785299
30
0.0
11
115.604085
21
16.841364
31
0.0
0
LINE
8
0
10
115.646699
20
16.785299
30
0.0
11
116.106867
21
16.308418
31
0.0
0
ARC
8
0
10
116.211656
20
16.409535
30
0.0
40
0.145621
50
223.978161
51
0.000000
0
LINE
8
0
10
116.356980
20
16.418828
30
0.0
11
116.347051
21
16.574093
31
0.0
0
ARC
8
0
10
116.546643
20
16.586856
30
0.0
40
0.200000
50
130.482877
51
183.658900
0
LINE
8
0
10
116.416799
20
16.738976
30
0.0
11
118.021001
21
18.108265
31
0.0
0
ARC
8
0
10
118.215768
20
17.880085
30
0.0
40
0.300000
50
108.658900
51
130.482877
0
LINE
8
0
10
118.119788
20
18.164317
30
0.0
11
118.404020
21
18.260297
31
0.0
0
ARC
8
0
10
118.500000
20
17.976065
30
0.0
40
0.300000
50
270.000000
51
108.658900
0
LINE
8
0
10
118.500000
20
17.676065
30
0.0
11
118.500000
21
13.176065
31
0.0
0
ARC
8
0
10
118.300000
20
13.176065
30
0.0
40
0.200000
50
270.000000
51
0.000000
0
LINE
8
0
10
118.300000
20
12.976065
30
0.0
11
118.232111
21
12.976065
31
0.0
0
ARC
8
0
10
118.232111
20
13.276065
30
0.0
40
0.300000
50
238.619868
51
270.000000
0
LINE
8
0
10
118.075897
20
13.019946
30
0.0
11
116.399904
21
14.042179
31
0.0
0
ARC
8
0
10
116.200000
20
14.048369
30
0.0
40
0.200000
50
0.000000
51
180.000000
0
LINE
8
0
10
116.000000
20
14.048369
30
0.0
11
116.000000
21
12.641378
31
0.0
0
ARC
8
0
10
116.200000
20
12.641378
30
0.0
40
0.200000
50
180.000000
51
238.619868
0
LINE
8
0
10
116.095857
20
12.470632
30
0.0
11
117.139347
21
11.834180
31
0.0
0
ARC
8
0
10
116.983132
20
11.578061
30
0.0
40
0.300000
50
301.380132
51
58.619868
0
LINE
8
0
10
117.139347
20
11.321941
30
0.0
11
116.095857
21
10.685489
31
0.0
0
ARC
8
0
10
116.200000
20
10.514743
30
0.0
40
0.200000
50
121.380132
51
180.000000
0
LINE
8
0
10
116.000000
20
10.514743
30
0.0
11
116.000000
21
9.107752
31
0.0
0
ARC
8
0
10
116.200000
20
9.107752
30
0.0
40
0.200000
50
180.000000
51
0.000000
0
LINE
8
0
10
116.399904
20
9.113942
30
0.0
11
118.075897
21
10.136175
31
0.0
0
ARC
8
0
10
118.232111
20
9.880056
30
0.0
40
0.300000
50
90.000000
51
121.380132
0
LINE
8
0
10
118.232111
20
10.180056
30
0.0
11
118.300000
21
10.180056
31
0.0
0
ARC
8
0
10
118.300000
20
9.980056
30
0.0
40
0.200000
50
0.000000
51
90.000000
0
LINE
8
0
10
118.500000
20
9.980056
30
0.0
11
118.500000
21
5.480056
31
0.0
0
ARC
8
0
10
118.500000
20
5.180056
30
0.0
40
0.300000
50
251.341100
51
90.000000
0
LINE
8
0
10
118.404020
20
4.895824
30
0.0
11
118.119788
21
4.991804
31
0.0
0
ARC
8
0
10
118.215768
20
5.276036
30
0.0
40
0.300000
50
229.517123
51
251.341100
0
LINE
8
0
10
118.021001
20
5.047856
30
0.0
11
116.416799
21
6.417145
31
0.0
0
ARC
8
0
10
116.546643
20
6.569265
30
0.0
40
0.200000
50
176.341100
51
229.517123
0
LINE
8
0
10
116.347051
20
6.582028
30
0.0
11
116.356980
21
6.737293
31
0.0
0
ARC
8
0
10
116.211656
20
6.746586
30
0.0
40
0.145621
50
0.000000
51
136.021839
0
LINE
8
0
10
116.106867
20
6.847703
30
0.0
11
115.646699
21
6.370822
31
0.0
0
LINE
8
0
10
115.604085
20
6.314757
30
0.0
11
115.646699
21
6.370822
31
0.0
0
LINE
8
0
10
115.604085
20
6.314757
30
0.0
11
114.180382
21
3.897558
31
0.0
0
ARC
8
0
10
114.438877
20
3.745308
30
0.0
40
0.300000
50
149.502378
51
270.000000
0
LINE
8
0
10
114.438877
20
3.445308
30
0.0
11
115.127673
21
3.445308
31
0.0
0
ARC
8
0
10
115.127673
20
3.945308
30
0.0
40
0.500000
50
270.000000
51
313.534275
0
ARC
8
0
10
116.849644
20
2.132901
30
0.0
40
2.000000
50
37.408281
51
133.534275
0
ARC
8
0
10
118.200000
20
3.165635
30
0.0
40
0.300000
50
0.000000
51
37.408281
0
LINE
8
0
10
118.500000
20
3.165635
30
0.0
11
118.500000
21
0.500000
31
0.0
0
ARC
8
0
10
119.000000
20
0.500000
30
0.0
40
0.500000
50
180.000000
51
270.000000
0
LINE
8
0
10
119.000000
20
0.000000
30
0.0
11
120.792893
21
0.000000
31
0.0
0
ARC
8
0
10
120.792893
20
0.500000
30
0.0
40
0.500000
50
270.000000
51
315.000000
0
LINE
8
0
10
121.146446
20
0.146446
30
0.0
11
121.853553
21
0.853553
31
0.0
0
ARC
8
0
10
121.500000
20
1.207107
30
0.0
40
0.500000
50
315.000000
51
0.000000
0
LINE
8
0
10
122.000000
20
1.207107
30
0.0
11
122.000000
21
1.700000
31
0.0
0
ARC
8
0
10
121.700000
20
1.700000
30
0.0
40
0.300000
50
0.000000
51
90.000000
0
LINE
8
0
10
121.700000
20
2.000000
30
0.0
11
120.300000
21
2.000000
31
0.0
0
ARC
8
0
10
120.300000
20
2.300000
30
0.0
40
0.300000
50
180.000000
51
270.000000
0
LINE
8
0
10
120.000000
20
2.300000
30
0.0
11
120.000000
21
4.500000
31
0.0
0
ARC
8
0
10
120.500000
20
4.500000
30
0.0
40
0.500000
50
90.000000
51
180.000000
0
LINE
8
0
10
120.500000
20
5.000000
30
0.0
11
162.900000
21
5.000000
31
0.0
0
ARC
8
0
10
162.900000
20
4.700000
30
0.0
40
0.300000
50
0.000000
51
90.000000
0
LINE
8
0
10
163.200000
20
4.700000
30
0.0
11
163.200000
21
2.300000
31
0.0
0
ARC
8
0
10
162.900000
20
2.300000
30
0.0
40
0.300000
50
270.000000
51
0.000000
0
ARC
8
0
10
131.299856
20
37.803831
30
0.0
40
0.500000
50
180.000000
51
270.000000
0
LINE
8
0
10
130.799856
20
37.803831
30
0.0
11
130.799856
21
45.203831
31
0.0
0
ARC
8
0
10
130.499856
20
45.203831
30
0.0
40
0.300000
50
0.000000
51
90.000000
0
LINE
8
0
10
130.499856
20
45.503831
30
0.0
11
123.900000
21
45.503831
31
0.0
0
ARC
8
0
10
123.900000
20
45.203831
30
0.0
40
0.300000
50
90.000000
51
180.000000
0
LINE
8
0
10
123.600000
20
45.203831
30
0.0
11
123.600000
21
22.303707
31
0.0
0
ARC
8
0
10
123.900000
20
22.303707
30
0.0
40
0.300000
50
180.000000
51
270.000000
0
LINE
8
0
10
123.900000
20
22.003707
30
0.0
11
149.700000
21
22.003707
31
0.0
0
ARC
8
0
10
149.700000
20
22.303707
30
0.0
40
0.300000
50
270.000000
51
0.000000
0
LINE
8
0
10
150.000000
20
22.303707
30
0.0
11
150.000000
21
45.203831
31
0.0
0
ARC
8
0
10
149.700000
20
45.203831
30
0.0
40
0.300000
50
0.000000
51
90.000000
0
LINE
8
0
10
149.700000
20
45.503831
30
0.0
11
139.499960
21
45.503831
31
0.0
0
ARC
8
0
10
139.499960
20
45.203831
30
0.0
40
0.300000
50
90.000000
51
180.000000
0
LINE
8
0
10
139.199960
20
45.203831
30
0.0
11
139.199960
21
37.803831
31
0.0
0
ARC
8
0
10
138.699960
20
37.803831
30
0.0
40
0.500000
50
270.000000
51
0.000000
0
LINE
8
0
10
138.699960
20
37.303831
30
0.0
11
131.299856
21
37.303831
31
0.0
0
LINE
8
0
10
129.299859
20
18.803707
30
0.0
11
129.299859
21
20.200000
31
0.0
0
ARC
8
0
10
128.999859
20
20.200000
30
0.0
40
0.300000
50
0.000000
51
90.000000
0
LINE
8
0
10
128.999859
20
20.500000
30
0.0
11
123.900000
21
20.500000
31
0.0
0
ARC
8
0
10
123.900000
20
20.200000
30
0.0
40
0.300000
50
90.000000
51
180.000000
0
LINE
8
0
10
123.600000
20
20.200000
30
0.0
11
123.600000
21
19.203707
31
0.0
0
ARC
8
0
10
122.600000
20
19.203707
30
0.0
40
1.000000
50
270.000000
51
0.000000
0
LINE
8
0
10
122.600000
20
18.203707
30
0.0
11
120.300000
21
18.203707
31
0.0
0
ARC
8
0
10
120.300000
20
17.903707
30
0.0
40
0.300000
50
90.000000
51
180.000000
0
LINE
8
0
10
120.000000
20
17.903707
30
0.0
11
120.000000
21
6.800000
31
0.0
0
ARC
8
0
10
120.300000
20
6.800000
30
0.0
40
0.300000
50
180.000000
51
270.000000
0
LINE
8
0
10
120.300000
20
6.500000
30
0.0
11
163.200000
21
6.500000
31
0.0
0
ARC
8
0
10
163.200000
20
6.800000
30
0.0
40
0.300000
50
270.000000
51
0.000000
0
LINE
8
0
10
163.500000
20
6.800000
30
0.0
11
163.500000
21
20.203707
31
0.0
0
ARC
8
0
10
163.200000
20
20.203707
30
0.0
40
0.300000
50
0.000000
51
90.000000
0
LINE
8
0
10
163.200000
20
20.503707
30
0.0
11
158.199859
21
20.503707
31
0.0
0
ARC
8
0
10
158.199859
20
20.203707
30
0.0
40
0.300000
50
90.000000
51
180.000000
0
LINE
8
0
10
157.899859
20
20.203707
30
0.0
11
157.899859
21
18.803707
31
0.0
0
ARC
8
0
10
157.599859
20
18.803707
30
0.0
40
0.300000
50
270.000000
51
0.000000
0
LINE
8
0
10
157.599859
20
18.503707
30
0.0
11
156.699859
21
18.503707
31
0.0
0
ARC
8
0
10
156.699859
20
18.803707
30
0.0
40
0.300000
50
180.000000
51
270.000000
0
LINE
8
0
10
156.399859
20
18.803707
30
0.0
11
156.399859
21
20.500000
31
0.0
0
LINE
8
0
10
156.399859
20
20.500000
30
0.0
11
130.799859
21
20.500000
31
0.0
0
LINE
8
0
10
130.799859
20
20.500000
30
0.0
11
130.799859
21
18.803707
31
0.0
0
ARC
8
0
10
130.499859
20
18.803707
30
0.0
40
0.300000
50
270.000000
51
0.000000
0
LINE
8
0
10
130.499859
20
18.503707
30
0.0
11
129.599859
21
18.503707
31
0.0
0
ARC
8
0
10
129.599859
20
18.803707
30
0.0
40
0.300000
50
180.000000
51
270.000000
0
ARC
8
0
10
33.703045
20
18.964120
30
0.0
40
0.300000
50
90.000000
51
144.000000
0
LINE
8
0
10
33.703046
20
19.264120
30
0.0
11
48.303240
21
19.264120
31
0.0
0
ARC
8
0
10
48.303239
20
18.964120
30
0.0
40
0.300000
50
36.000000
51
90.000000
0
LINE
8
0
10
48.545945
20
19.140455
30
0.0
11
50.473220
21
16.487788
31
0.0
0
ARC
8
0
10
50.715925
20
16.664124
30
0.0
40
0.300000
50
216.000000
51
270.000000
0
LINE
8
0
10
50.715925
20
16.364124
30
0.0
11
50.759710
21
16.364124
31
0.0
0
ARC
8
0
10
50.759710
20
16.664124
30
0.0
40
0.300000
50
270.000000
51
299.999977
0
LINE
8
0
10
50.909710
20
16.404316
30
0.0
11
52.745333
21
17.464113
31
0.0
0
LINE
8
0
10
52.745333
20
17.464113
30
0.0
11
53.100188
21
17.464112
31
0.0
0
ARC
8
0
10
53.100188
20
17.064112
30
0.0
40
0.400000
50
0.000000
51
90.000000
0
LINE
8
0
10
53.500188
20
17.064112
30
0.0
11
53.500187
21
16.464123
31
0.0
0
LINE
8
0
10
53.500187
20
16.464123
30
0.0
11
53.450187
21
16.464123
31
0.0
0
LINE
8
0
10
53.450187
20
16.464123
30
0.0
11
53.450187
21
15.889123
31
0.0
0
LINE
8
0
10
53.450187
20
15.889123
30
0.0
11
53.140660
21
15.889123
31
0.0
0
ARC
8
0
10
52.850187
20
15.364123
30
0.0
40
0.600000
50
61.044976
51
180.000000
0
ARC
8
0
10
52.850187
20
15.364123
30
0.0
40
0.600000
50
180.000000
51
298.955024
0
LINE
8
0
10
53.140660
20
14.839123
30
0.0
11
53.450187
21
14.839123
31
0.0
0
LINE
8
0
10
53.450187
20
14.839123
30
0.0
11
53.450186
21
14.264123
31
0.0
0
LINE
8
0
10
53.450186
20
14.264123
30
0.0
11
53.500186
21
14.264123
31
0.0
0
LINE
8
0
10
53.500186
20
14.264123
30
0.0
11
53.500186
21
13.664112
31
0.0
0
ARC
8
0
10
53.100186
20
13.664113
30
0.0
40
0.400000
50
270.000000
51
0.000000
0
LINE
8
0
10
53.100186
20
13.264113
30
0.0
11
52.739416
21
13.264113
31
0.0
0
LINE
8
0
10
52.739416
20
13.264113
30
0.0
11
51.112603
21
14.203354
31
0.0
0
ARC
8
0
10
50.512603
20
13.164124
30
0.0
40
1.200000
50
59.999977
51
90.000000
0
LINE
8
0
10
50.512605
20
14.364124
30
0.0
11
49.696873
21
14.364126
31
0.0
0
ARC
8
0
10
49.696873
20
14.664126
30
0.0
40
0.300000
50
216.000000
51
270.000000
0
LINE
8
0
10
49.454168
20
14.487790
30
0.0
11
47.526894
21
17.140455
31
0.0
0
ARC
8
0
10
47.284189
20
16.964119
30
0.0
40
0.300000
50
36.000000
51
90.000000
0
LINE
8
0
10
47.284189
20
17.264119
30
0.0
11
34.722096
21
17.264119
31
0.0
0
ARC
8
0
10
34.722096
20
16.964119
30
0.0
40
0.300000
50
90.000000
51
144.000000
0
LINE
8
0
10
34.479391
20
17.140455
30
0.0
11
32.552117
21
14.487790
31
0.0
0
ARC
8
0
10
32.309412
20
14.664126
30
0.0
40
0.300000
50
270.000000
51
324.000000
0
LINE
8
0
10
32.309412
20
14.364126
30
0.0
11
31.487765
21
14.364124
31
0.0
0
ARC
8
0
10
31.487767
20
13.164124
30
0.0
40
1.200000
50
90.000000
51
120.000023
0
LINE
8
0
10
30.887767
20
14.203354
30
0.0
11
29.260954
21
13.264113
31
0.0
0
LINE
8
0
10
29.260954
20
13.264113
30
0.0
11
28.900184
21
13.264113
31
0.0
0
ARC
8
0
10
28.900184
20
13.664113
30
0.0
40
0.400000
50
180.000000
51
270.000000
0
LINE
8
0
10
28.500184
20
13.664112
30
0.0
11
28.500184
21
14.264123
31
0.0
0
LINE
8
0
10
28.500184
20
14.264123
30
0.0
11
28.550184
21
14.264123
31
0.0
0
LINE
8
0
10
28.550184
20
14.264123
30
0.0
11
28.550184
21
14.839123
31
0.0
0
LINE
8
0
10
28.550184
20
14.839123
30
0.0
11
28.859710
21
14.839123
31
0.0
0
ARC
8
0
10
29.150184
20
15.364123
30
0.0
40
0.600000
50
241.044976
51
0.000000
0
ARC
8
0
10
29.150184
20
15.364123
30
0.0
40
0.600000
50
0.000000
51
118.955024
0
LINE
8
0
10
28.859710
20
15.889123
30
0.0
11
28.550183
21
15.889123
31
0.0
0
LINE
8
0
10
28.550183
20
15.889123
30
0.0
11
28.550183
21
16.464123
31
0.0
0
LINE
8
0
10
28.550183
20
16.464123
30
0.0
11
28.500183
21
16.464123
31
0.0
0
LINE
8
0
10
28.500183
20
16.464123
30
0.0
11
28.500183
21
17.064112
31
0.0
0
ARC
8
0
10
28.900183
20
17.064112
30
0.0
40
0.400000
50
90.000000
51
180.000000
0
LINE
8
0
10
28.900183
20
17.464112
30
0.0
11
29.260952
21
17.464113
31
0.0
0
LINE
8
0
10
29.260952
20
17.464113
30
0.0
11
31.096575
21
16.404316
31
0.0
0
ARC
8
0
10
31.246575
20
16.664124
30
0.0
40
0.300000
50
240.000023
51
270.000000
0
LINE
8
0
10
31.246575
20
16.364124
30
0.0
11
31.290360
21
16.364124
31
0.0
0
ARC
8
0
10
31.290360
20
16.664124
30
0.0
40
0.300000
50
270.000000
51
324.000000
0
LINE
8
0
10
31.533065
20
16.487788
30
0.0
11
33.460340
21
19.140455
31
0.0
0
ARC
8
0
10
33.703045
20
4.192001
30
0.0
40
0.300000
50
216.000000
51
270.000000
0
LINE
8
0
10
33.703046
20
3.892001
30
0.0
11
48.303240
21
3.892001
31
0.0
0
ARC
8
0
10
48.303239
20
4.192001
30
0.0
40
0.300000
50
270.000000
51
324.000000
0
LINE
8
0
10
48.545945
20
4.015666
30
0.0
11
50.473220
21
6.668333
31
0.0
0
ARC
8
0
10
50.715925
20
6.491997
30
0.0
40
0.300000
50
90.000000
51
144.000000
0
LINE
8
0
10
50.715925
20
6.791997
30
0.0
11
50.759710
21
6.791997
31
0.0
0
ARC
8
0
10
50.759710
20
6.491997
30
0.0
40
0.300000
50
60.000023
51
90.000000
0
LINE
8
0
10
50.909710
20
6.751805
30
0.0
11
52.745333
21
5.692009
31
0.0
0
LINE
8
0
10
52.745333
20
5.692009
30
0.0
11
53.100188
21
5.692009
31
0.0
0
ARC
8
0
10
53.100188
20
6.092009
30
0.0
40
0.400000
50
270.000000
51
0.000000
0
LINE
8
0
10
53.500188
20
6.092009
30
0.0
11
53.500187
21
6.691998
31
0.0
0
LINE
8
0
10
53.500187
20
6.691998
30
0.0
11
53.450187
21
6.691998
31
0.0
0
LINE
8
0
10
53.450187
20
6.691998
30
0.0
11
53.450187
21
7.266998
31
0.0
0
LINE
8
0
10
53.450187
20
7.266998
30
0.0
11
53.140660
21
7.266998
31
0.0
0
ARC
8
0
10
52.850187
20
7.791998
30
0.0
40
0.600000
50
180.000000
51
298.955024
0
ARC
8
0
10
52.850187
20
7.791998
30
0.0
40
0.600000
50
61.044976
51
180.000000
0
LINE
8
0
10
53.140660
20
8.316998
30
0.0
11
53.450187
21
8.316998
31
0.0
0
LINE
8
0
10
53.450187
20
8.316998
30
0.0
11
53.450186
21
8.891998
31
0.0
0
LINE
8
0
10
53.450186
20
8.891998
30
0.0
11
53.500186
21
8.891998
31
0.0
0
LINE
8
0
10
53.500186
20
8.891998
30
0.0
11
53.500186
21
9.492009
31
0.0
0
ARC
8
0
10
53.100186
20
9.492008
30
0.0
40
0.400000
50
0.000000
51
90.000000
0
LINE
8
0
10
53.100186
20
9.892008
30
0.0
11
52.739416
21
9.892008
31
0.0
0
LINE
8
0
10
52.739416
20
9.892008
30
0.0
11
51.112603
21
8.952767
31
0.0
0
ARC
8
0
10
50.512603
20
9.991997
30
0.0
40
1.200000
50
270.000000
51
300.000023
0
LINE
8
0
10
50.512605
20
8.791997
30
0.0
11
49.696873
21
8.791995
31
0.0
0
ARC
8
0
10
49.696873
20
8.491995
30
0.0
40
0.300000
50
90.000000
51
144.000000
0
LINE
8
0
10
49.454168
20
8.668331
30
0.0
11
47.526894
21
6.015666
31
0.0
0
ARC
8
0
10
47.284189
20
6.192002
30
0.0
40
0.300000
50
270.000000
51
324.000000
0
LINE
8
0
10
47.284189
20
5.892002
30
0.0
11
34.722096
21
5.892002
31
0.0
0
ARC
8
0
10
34.722096
20
6.192002
30
0.0
40
0.300000
50
216.000000
51
270.000000
0
LINE
8
0
10
34.479391
20
6.015666
30
0.0
11
32.552117
21
8.668331
31
0.0
0
ARC
8
0
10
32.309412
20
8.491995
30
0.0
40
0.300000
50
36.000000
51
90.000000
0
LINE
8
0
10
32.309412
20
8.791995
30
0.0
11
31.487765
21
8.791997
31
0.0
0
ARC
8
0
10
31.487767
20
9.991997
30
0.0
40
1.200000
50
239.999977
51
270.000000
0
LINE
8
0
10
30.887767
20
8.952767
30
0.0
11
29.260954
21
9.892008
31
0.0
0
LINE
8
0
10
29.260954
20
9.892008
30
0.0
11
28.900184
21
9.892008
31
0.0
0
ARC
8
0
10
28.900184
20
9.492008
30
0.0
40
0.400000
50
90.000000
51
180.000000
0
LINE
8
0
10
28.500184
20
9.492009
30
0.0
11
28.500184
21
8.891998
31
0.0
0
LINE
8
0
10
28.500184
20
8.891998
30
0.0
11
28.550184
21
8.891998
31
0.0
0
LINE
8
0
10
28.550184
20
8.891998
30
0.0
11
28.550184
21
8.316998
31
0.0
0
LINE
8
0
10
28.550184
20
8.316998
30
0.0
11
28.859710
21
8.316998
31
0.0
0
ARC
8
0
10
29.150184
20
7.791998
30
0.0
40
0.600000
50
0.000000
51
118.955024
0
ARC
8
0
10
29.150184
20
7.791998
30
0.0
40
0.600000
50
241.044976
51
0.000000
0
LINE
8
0
10
28.859710
20
7.266998
30
0.0
11
28.550183
21
7.266998
31
0.0
0
LINE
8
0
10
28.550183
20
7.266998
30
0.0
11
28.550183
21
6.691998
31
0.0
0
LINE
8
0
10
28.550183
20
6.691998
30
0.0
11
28.500183
21
6.691998
31
0.0
0
LINE
8
0
10
28.500183
20
6.691998
30
0.0
11
28.500183
21
6.092009
31
0.0
0
ARC
8
0
10
28.900183
20
6.092009
30
0.0
40
0.400000
50
180.000000
51
270.000000
0
LINE
8
0
10
28.900183
20
5.692009
30
0.0
11
29.260952
21
5.692009
31
0.0
0
LINE
8
0
10
29.260952
20
5.692009
30
0.0
11
31.096575
21
6.751805
31
0.0
0
ARC
8
0
10
31.246575
20
6.491997
30
0.0
40
0.300000
50
90.000000
51
119.999977
0
LINE
8
0
10
31.246575
20
6.791997
30
0.0
11
31.290360
21
6.791997
31
0.0
0
ARC
8
0
10
31.290360
20
6.491997
30
0.0
40
0.300000
50
36.000000
51
90.000000
0
LINE
8
0
10
31.533065
20
6.668333
30
0.0
11
33.460340
21
4.015666
31
0.0
0
LINE
8
0
10
118.500186
20
16.661868
30
0.0
11
117.715288
21
17.446767
31
0.0
0
LINE
8
0
10
118.450185
20
14.466805
30
0.0
11
118.098893
21
14.818097
31
0.0
0
LINE
8
0
10
117.304159
20
15.612831
30
0.0
11
116.291974
21
16.625017
31
0.0
0
LINE
8
0
10
116.954836
20
13.717090
30
0.0
11
111.407807
21
19.264120
31
0.0
0
LINE
8
0
10
111.162743
20
17.264119
30
0.0
11
109.162742
21
19.264120
31
0.0
0
LINE
8
0
10
108.917679
20
17.264119
30
0.0
11
106.917678
21
19.264120
31
0.0
0
LINE
8
0
10
106.672615
20
17.264119
30
0.0
11
104.672614
21
19.264120
31
0.0
0
LINE
8
0
10
104.427551
20
17.264119
30
0.0
11
102.427550
21
19.264120
31
0.0
0
LINE
8
0
10
102.182487
20
17.264119
30
0.0
11
100.182486
21
19.264120
31
0.0
0
LINE
8
0
10
99.937423
20
17.264119
30
0.0
11
98.292331
21
18.909212
31
0.0
0
LINE
8
0
10
98.779432
20
16.177046
30
0.0
11
97.347590
21
17.608888
31
0.0
0
LINE
8
0
10
97.834692
20
14.876722
30
0.0
11
96.342691
21
16.368724
31
0.0
0
LINE
8
0
10
96.150574
20
14.315776
30
0.0
11
93.500182
21
16.966169
31
0.0
0
LINE
8
0
10
94.702339
20
13.518947
30
0.0
11
93.550182
21
14.671104
31
0.0
0
LINE
8
0
10
117.880203
20
13.264113
30
0.0
11
118.500185
21
13.884095
31
0.0
0
LINE
8
0
10
116.405358
20
14.034332
30
0.0
11
117.372320
21
15.001294
31
0.0
0
LINE
8
0
10
118.260149
20
15.889123
30
0.0
11
118.450186
21
16.079160
31
0.0
0
LINE
8
0
10
114.536531
20
14.410569
30
0.0
11
117.377991
21
17.252028
31
0.0
0
LINE
8
0
10
113.576581
20
15.695683
30
0.0
11
115.008423
21
17.127525
31
0.0
0
LINE
8
0
10
112.631841
20
16.996006
30
0.0
11
114.063683
21
18.427848
31
0.0
0
LINE
8
0
10
110.654890
20
17.264119
30
0.0
11
112.654890
21
19.264120
31
0.0
0
LINE
8
0
10
108.409826
20
17.264119
30
0.0
11
110.409826
21
19.264120
31
0.0
0
LINE
8
0
10
106.164762
20
17.264119
30
0.0
11
108.164762
21
19.264120
31
0.0
0
LINE
8
0
10
103.919698
20
17.264119
30
0.0
11
105.919698
21
19.264120
31
0.0
0
LINE
8
0
10
101.674634
20
17.264119
30
0.0
11
103.674634
21
19.264120
31
0.0
0
LINE
8
0
10
96.529574
20
14.364124
30
0.0
11
101.429570
21
19.264120
31
0.0
0
LINE
8
0
10
93.507637
20
13.587251
30
0.0
11
96.284510
21
16.364124
31
0.0
0
LINE
8
0
10
96.864879
20
16.944493
30
0.0
11
99.184506
21
19.264120
31
0.0
0
LINE
8
0
10
93.564445
20
15.889123
30
0.0
11
94.817887
21
17.142565
31
0.0
0
LINE
8
0
10
117.792573
20
8.389226
30
0.0
11
116.820390
21
9.361408
31
0.0
0
LINE
8
0
10
118.224815
20
5.711919
30
0.0
11
115.144738
21
8.791996
31
0.0
0
LINE
8
0
10
115.283905
20
6.407765
30
0.0
11
113.852063
21
7.839607
31
0.0
0
LINE
8
0
10
114.339165
20
5.107441
30
0.0
11
112.907323
21
6.539283
31
0.0
0
LINE
8
0
10
113.309476
20
3.892066
30
0.0
11
111.309541
21
5.892002
31
0.0
0
LINE
8
0
10
111.064477
20
3.892001
30
0.0
11
109.064477
21
5.892002
31
0.0
0
LINE
8
0
10
108.819413
20
3.892001
30
0.0
11
106.819412
21
5.892002
31
0.0
0
LINE
8
0
10
106.574349
20
3.892001
30
0.0
11
104.574348
21
5.892002
31
0.0
0
LINE
8
0
10
104.329285
20
3.892001
30
0.0
11
102.329284
21
5.892002
31
0.0
0
LINE
8
0
10
102.084221
20
3.892001
30
0.0
11
100.084220
21
5.892002
31
0.0
0
LINE
8
0
10
98.200991
20
7.775231
30
0.0
11
97.184226
21
8.791996
31
0.0
0
LINE
8
0
10
99.839157
20
3.892001
30
0.0
11
93.843225
21
9.887933
31
0.0
0
LINE
8
0
10
95.232920
20
6.253174
30
0.0
11
94.279905
21
7.206189
31
0.0
0
LINE
8
0
10
117.300256
20
5.948973
30
0.0
11
118.450186
21
7.098903
31
0.0
0
LINE
8
0
10
112.998220
20
3.892001
30
0.0
11
114.672616
21
5.566398
31
0.0
0
LINE
8
0
10
115.875125
20
6.768907
30
0.0
11
118.500185
21
9.393967
31
0.0
0
LINE
8
0
10
110.753156
20
3.892001
30
0.0
11
115.662558
21
8.801403
31
0.0
0
LINE
8
0
10
108.508092
20
3.892001
30
0.0
11
110.508092
21
5.892002
31
0.0
0
LINE
8
0
10
106.263028
20
3.892001
30
0.0
11
108.263028
21
5.892002
31
0.0
0
LINE
8
0
10
104.017964
20
3.892001
30
0.0
11
106.017964
21
5.892002
31
0.0
0
LINE
8
0
10
101.772899
20
3.892001
30
0.0
11
103.772900
21
5.892002
31
0.0
0
LINE
8
0
10
99.527835
20
3.892001
30
0.0
11
101.527836
21
5.892002
31
0.0
0
LINE
8
0
10
98.016848
20
4.626078
30
0.0
11
99.448690
21
6.057920
31
0.0
0
LINE
8
0
10
97.072108
20
5.926402
30
0.0
11
98.503950
21
7.358244
31
0.0
0
LINE
8
0
10
95.045760
20
6.145118
30
0.0
11
97.559210
21
8.658567
31
0.0
0
LINE
8
0
10
93.550182
20
6.894604
30
0.0
11
93.901526
21
7.245948
31
0.0
0
LINE
8
0
10
94.696232
20
8.040654
30
0.0
11
95.710620
21
9.055042
31
0.0
0
LINE
8
0
10
93.500183
20
9.089669
30
0.0
11
94.287307
21
9.876793
31
0.0
0
ARC
8
0
10
98.703044
20
18.964120
30
0.0
40
0.300000
50
90.000000
51
144.000000
0
LINE
8
0
10
98.703044
20
19.264120
30
0.0
11
113.303238
21
19.264120
31
0.0
0
ARC
8
0
10
113.303238
20
18.964120
30
0.0
40
0.300000
50
36.000000
51
90.000000
0
LINE
8
0
10
113.545943
20
19.140455
30
0.0
11
115.473219
21
16.487788
31
0.0
0
ARC
8
0
10
115.715924
20
16.664124
30
0.0
40
0.300000
50
216.000000
51
270.000000
0
LINE
8
0
10
115.715923
20
16.364124
30
0.0
11
115.759708
21
16.364124
31
0.0
0
ARC
8
0
10
115.759709
20
16.664124
30
0.0
40
0.300000
50
270.000000
51
299.999977
0
LINE
8
0
10
115.909709
20
16.404316
30
0.0
11
117.745332
21
17.464113
31
0.0
0
LINE
8
0
10
117.745332
20
17.464113
30
0.0
11
118.100187
21
17.464112
31
0.0
0
ARC
8
0
10
118.100186
20
17.064112
30
0.0
40
0.400000
50
0.000000
51
90.000000
0
LINE
8
0
10
118.500186
20
17.064112
30
0.0
11
118.500186
21
16.464123
31
0.0
0
LINE
8
0
10
118.500186
20
16.464123
30
0.0
11
118.450186
21
16.464123
31
0.0
0
LINE
8
0
10
118.450186
20
16.464123
30
0.0
11
118.450186
21
15.889123
31
0.0
0
LINE
8
0
10
118.450186
20
15.889123
30
0.0
11
118.140659
21
15.889123
31
0.0
0
ARC
8
0
10
117.850185
20
15.364123
30
0.0
40
0.600000
50
61.044976
51
180.000000
0
ARC
8
0
10
117.850185
20
15.364123
30
0.0
40
0.600000
50
180.000000
51
298.955024
0
LINE
8
0
10
118.140659
20
14.839123
30
0.0
11
118.450185
21
14.839123
31
0.0
0
LINE
8
0
10
118.450185
20
14.839123
30
0.0
11
118.450185
21
14.264123
31
0.0
0
LINE
8
0
10
118.450185
20
14.264123
30
0.0
11
118.500185
21
14.264123
31
0.0
0
LINE
8
0
10
118.500185
20
14.264123
30
0.0
11
118.500185
21
13.664112
31
0.0
0
ARC
8
0
10
118.100185
20
13.664113
30
0.0
40
0.400000
50
270.000000
51
0.000000
0
LINE
8
0
10
118.100185
20
13.264113
30
0.0
11
117.739415
21
13.264113
31
0.0
0
LINE
8
0
10
117.739415
20
13.264113
30
0.0
11
116.112602
21
14.203354
31
0.0
0
ARC
8
0
10
115.512602
20
13.164124
30
0.0
40
1.200000
50
59.999977
51
90.000000
0
LINE
8
0
10
115.512604
20
14.364124
30
0.0
11
114.696871
21
14.364126
31
0.0
0
ARC
8
0
10
114.696872
20
14.664126
30
0.0
40
0.300000
50
216.000000
51
270.000000
0
LINE
8
0
10
114.454167
20
14.487790
30
0.0
11
112.526893
21
17.140455
31
0.0
0
ARC
8
0
10
112.284188
20
16.964119
30
0.0
40
0.300000
50
36.000000
51
90.000000
0
LINE
8
0
10
112.284188
20
17.264119
30
0.0
11
99.722095
21
17.264119
31
0.0
0
ARC
8
0
10
99.722095
20
16.964119
30
0.0
40
0.300000
50
90.000000
51
144.000000
0
LINE
8
0
10
99.479390
20
17.140455
30
0.0
11
97.552116
21
14.487790
31
0.0
0
ARC
8
0
10
97.309411
20
14.664126
30
0.0
40
0.300000
50
270.000000
51
324.000000
0
LINE
8
0
10
97.309411
20
14.364126
30
0.0
11
96.487764
21
14.364124
31
0.0
0
ARC
8
0
10
96.487766
20
13.164124
30
0.0
40
1.200000
50
90.000000
51
120.000023
0
LINE
8
0
10
95.887766
20
14.203354
30
0.0
11
94.260953
21
13.264113
31
0.0
0
LINE
8
0
10
94.260953
20
13.264113
30
0.0
11
93.900183
21
13.264113
31
0.0
0
ARC
8
0
10
93.900183
20
13.664113
30
0.0
40
0.400000
50
180.000000
51
270.000000
0
LINE
8
0
10
93.500183
20
13.664112
30
0.0
11
93.500183
21
14.264123
31
0.0
0
LINE
8
0
10
93.500183
20
14.264123
30
0.0
11
93.550183
21
14.264123
31
0.0
0
LINE
8
0
10
93.550183
20
14.264123
30
0.0
11
93.550182
21
14.839123
31
0.0
0
LINE
8
0
10
93.550182
20
14.839123
30
0.0
11
93.859709
21
14.839123
31
0.0
0
ARC
8
0
10
94.150182
20
15.364123
30
0.0
40
0.600000
50
241.044976
51
0.000000
0
ARC
8
0
10
94.150182
20
15.364123
30
0.0
40
0.600000
50
0.000000
51
118.955024
0
LINE
8
0
10
93.859709
20
15.889123
30
0.0
11
93.550182
21
15.889123
31
0.0
0
LINE
8
0
10
93.550182
20
15.889123
30
0.0
11
93.550182
21
16.464123
31
0.0
0
LINE
8
0
10
93.550182
20
16.464123
30
0.0
11
93.500182
21
16.464123
31
0.0
0
LINE
8
0
10
93.500182
20
16.464123
30
0.0
11
93.500181
21
17.064112
31
0.0
0
ARC
8
0
10
93.900181
20
17.064112
30
0.0
40
0.400000
50
90.000000
51
180.000000
0
LINE
8
0
10
93.900181
20
17.464112
30
0.0
11
94.260951
21
17.464113
31
0.0
0
LINE
8
0
10
94.260951
20
17.464113
30
0.0
11
96.096574
21
16.404316
31
0.0
0
ARC
8
0
10
96.246574
20
16.664124
30
0.0
40
0.300000
50
240.000023
51
270.000000
0
LINE
8
0
10
96.246574
20
16.364124
30
0.0
11
96.290359
21
16.364124
31
0.0
0
ARC
8
0
10
96.290359
20
16.664124
30
0.0
40
0.300000
50
270.000000
51
324.000000
0
LINE
8
0
10
96.533064
20
16.487788
30
0.0
11
98.460339
21
19.140455
31
0.0
0
ARC
8
0
10
98.703044
20
4.192001
30
0.0
40
0.300000
50
216.000000
51
270.000000
0
LINE
8
0
10
98.703044
20
3.892001
30
0.0
11
113.303238
21
3.892001
31
0.0
0
ARC
8
0
10
113.303238
20
4.192001
30
0.0
40
0.300000
50
270.000000
51
324.000000
0
LINE
8
0
10
113.545943
20
4.015666
30
0.0
11
115.473219
21
6.668333
31
0.0
0
ARC
8
0
10
115.715924
20
6.491997
30
0.0
40
0.300000
50
90.000000
51
144.000000
0
LINE
8
0
10
115.715923
20
6.791997
30
0.0
11
115.759708
21
6.791997
31
0.0
0
ARC
8
0
10
115.759709
20
6.491997
30
0.0
40
0.300000
50
60.000023
51
90.000000
0
LINE
8
0
10
115.909709
20
6.751805
30
0.0
11
117.745332
21
5.692009
31
0.0
0
LINE
8
0
10
117.745332
20
5.692009
30
0.0
11
118.100187
21
5.692009
31
0.0
0
ARC
8
0
10
118.100186
20
6.092009
30
0.0
40
0.400000
50
270.000000
51
0.000000
0
LINE
8
0
10
118.500186
20
6.092009
30
0.0
11
118.500186
21
6.691998
31
0.0
0
LINE
8
0
10
118.500186
20
6.691998
30
0.0
11
118.450186
21
6.691998
31
0.0
0
LINE
8
0
10
118.450186
20
6.691998
30
0.0
11
118.450186
21
7.266998
31
0.0
0
LINE
8
0
10
118.450186
20
7.266998
30
0.0
11
118.140659
21
7.266998
31
0.0
0
ARC
8
0
10
117.850185
20
7.791998
30
0.0
40
0.600000
50
180.000000
51
298.955024
0
ARC
8
0
10
117.850185
20
7.791998
30
0.0
40
0.600000
50
61.044976
51
180.000000
0
LINE
8
0
10
118.140659
20
8.316998
30
0.0
11
118.450185
21
8.316998
31
0.0
0
LINE
8
0
10
118.450185
20
8.316998
30
0.0
11
118.450185
21
8.891998
31
0.0
0
LINE
8
0
10
118.450185
20
8.891998
30
0.0
11
118.500185
21
8.891998
31
0.0
0
LINE
8
0
10
118.500185
20
8.891998
30
0.0
11
118.500185
21
9.492009
31
0.0
0
ARC
8
0
10
118.100185
20
9.492008
30
0.0
40
0.400000
50
0.000000
51
90.000000
0
LINE
8
0
10
118.100185
20
9.892008
30
0.0
11
117.739415
21
9.892008
31
0.0
0
LINE
8
0
10
117.739415
20
9.892008
30
0.0
11
116.112602
21
8.952767
31
0.0
0
ARC
8
0
10
115.512602
20
9.991997
30
0.0
40
1.200000
50
270.000000
51
300.000023
0
LINE
8
0
10
115.512604
20
8.791997
30
0.0
11
114.696871
21
8.791995
31
0.0
0
ARC
8
0
10
114.696872
20
8.491995
30
0.0
40
0.300000
50
90.000000
51
144.000000
0
LINE
8
0
10
114.454167
20
8.668331
30
0.0
11
112.526893
21
6.015666
31
0.0
0
ARC
8
0
10
112.284188
20
6.192002
30
0.0
40
0.300000
50
270.000000
51
324.000000
0
LINE
8
0
10
112.284188
20
5.892002
30
0.0
11
99.722095
21
5.892002
31
0.0
0
ARC
8
0
10
99.722095
20
6.192002
30
0.0
40
0.300000
50
216.000000
51
270.000000
0
LINE
8
0
10
99.479390
20
6.015666
30
0.0
11
97.552116
21
8.668331
31
0.0
0
ARC
8
0
10
97.309411
20
8.491995
30
0.0
40
0.300000
50
36.000000
51
90.000000
0
LINE
8
0
10
97.309411
20
8.791995
30
0.0
11
96.487764
21
8.791997
31
0.0
0
ARC
8
0
10
96.487766
20
9.991997
30
0.0
40
1.200000
50
239.999977
51
270.000000
0
LINE
8
0
10
95.887766
20
8.952767
30
0.0
11
94.260953
21
9.892008
31
0.0
0
LINE
8
0
10
94.260953
20
9.892008
30
0.0
11
93.900183
21
9.892008
31
0.0
0
ARC
8
0
10
93.900183
20
9.492008
30
0.0
40
0.400000
50
90.000000
51
180.000000
0
LINE
8
0
10
93.500183
20
9.492009
30
0.0
11
93.500183
21
8.891998
31
0.0
0
LINE
8
0
10
93.500183
20
8.891998
30
0.0
11
93.550183
21
8.891998
31
0.0
0
LINE
8
0
10
93.550183
20
8.891998
30
0.0
11
93.550182
21
8.316998
31
0.0
0
LINE
8
0
10
93.550182
20
8.316998
30
0.0
11
93.859709
21
8.316998
31
0.0
0
ARC
8
0
10
94.150182
20
7.791998
30
0.0
40
0.600000
50
0.000000
51
118.955024
0
ARC
8
0
10
94.150182
20
7.791998
30
0.0
40
0.600000
50
241.044976
51
0.000000
0
LINE
8
0
10
93.859709
20
7.266998
30
0.0
11
93.550182
21
7.266998
31
0.0
0
LINE
8
0
10
93.550182
20
7.266998
30
0.0
11
93.550182
21
6.691998
31
0.0
0
LINE
8
0
10
93.550182
20
6.691998
30
0.0
11
93.500182
21
6.691998
31
0.0
0
LINE
8
0
10
93.500182
20
6.691998
30
0.0
11
93.500181
21
6.092009
31
0.0
0
ARC
8
0
10
93.900181
20
6.092009
30
0.0
40
0.400000
50
180.000000
51
270.000000
0
LINE
8
0
10
93.900181
20
5.692009
30
0.0
11
94.260951
21
5.692009
31
0.0
0
LINE
8
0
10
94.260951
20
5.692009
30
0.0
11
96.096574
21
6.751805
31
0.0
0
ARC
8
0
10
96.246574
20
6.491997
30
0.0
40
0.300000
50
90.000000
51
119.999977
0
LINE
8
0
10
96.246574
20
6.791997
30
0.0
11
96.290359
21
6.791997
31
0.0
0
ARC
8
0
10
96.290359
20
6.491997
30
0.0
40
0.300000
50
36.000000
51
90.000000
0
LINE
8
0
10
96.533064
20
6.668333
30
0.0
11
98.460339
21
4.015666
31
0.0
0
ARC
8
0
10
84.700091
20
40.903831
30
0.0
40
0.300000
50
0.000000
51
90.000000
0
LINE
8
0
10
85.000091
20
40.903831
30
0.0
11
85.000091
21
32.801915
31
0.0
0
ARC
8
0
10
84.700091
20
32.801915
30
0.0
40
0.300000
50
270.000000
51
0.000000
0
LINE
8
0
10
84.700091
20
32.501915
30
0.0
11
84.000091
21
32.501915
31
0.0
0
ARC
8
0
10
84.000091
20
32.001915
30
0.0
40
0.500000
50
90.000000
51
180.000000
0
LINE
8
0
10
83.500091
20
32.001915
30
0.0
11
83.500091
21
31.201915
31
0.0
0
ARC
8
0
10
84.000091
20
31.201915
30
0.0
40
0.500000
50
180.000000
51
270.000000
0
LINE
8
0
10
84.000091
20
30.701915
30
0.0
11
84.700091
21
30.701915
31
0.0
0
ARC
8
0
10
84.700091
20
30.401915
30
0.0
40
0.300000
50
0.000000
51
90.000000
0
LINE
8
0
10
85.000091
20
30.401915
30
0.0
11
85.000091
21
22.300000
31
0.0
0
ARC
8
0
10
84.700091
20
22.300000
30
0.0
40
0.300000
50
270.000000
51
0.000000
0
LINE
8
0
10
84.700091
20
22.000000
30
0.0
11
84.000091
21
22.000000
31
0.0
0
ARC
8
0
10
84.000091
20
21.500000
30
0.0
40
0.500000
50
90.000000
51
180.000000
0
LINE
8
0
10
83.500091
20
21.500000
30
0.0
11
83.500091
21
20.700000
31
0.0
0
ARC
8
0
10
84.000091
20
20.700000
30
0.0
40
0.500000
50
180.000000
51
270.000000
0
LINE
8
0
10
84.000091
20
20.200000
30
0.0
11
121.000000
21
20.200000
31
0.0
0
ARC
8
0
10
121.000000
20
20.700000
30
0.0
40
0.500000
50
270.000000
51
0.000000
0
LINE
8
0
10
121.500000
20
20.700000
30
0.0
11
121.500000
21
21.500000
31
0.0
0
ARC
8
0
10
121.000000
20
21.500000
30
0.0
40
0.500000
50
0.000000
51
90.000000
0
LINE
8
0
10
121.000000
20
22.000000
30
0.0
11
120.300000
21
22.000000
31
0.0
0
ARC
8
0
10
120.300000
20
22.300000
30
0.0
40
0.300000
50
180.000000
51
270.000000
0
LINE
8
0
10
120.000000
20
22.300000
30
0.0
11
120.000000
21
30.401915
31
0.0
0
ARC
8
0
10
120.300000
20
30.401915
30
0.0
40
0.300000
50
90.000000
51
180.000000
0
LINE
8
0
10
120.300000
20
30.701915
30
0.0
11
121.000000
21
30.701915
31
0.0
0
ARC
8
0
10
121.000000
20
31.201915
30
0.0
40
0.500000
50
270.000000
51
0.000000
0
LINE
8
0
10
121.500000
20
31.201915
30
0.0
11
121.500000
21
32.001915
31
0.0
0
ARC
8
0
10
121.000000
20
32.001915
30
0.0
40
0.500000
50
0.000000
51
90.000000
0
LINE
8
0
10
121.000000
20
32.501915
30
0.0
11
120.300000
21
32.501915
31
0.0
0
ARC
8
0
10
120.300000
20
32.801915
30
0.0
40
0.300000
50
180.000000
51
270.000000
0
LINE
8
0
10
120.000000
20
32.801915
30
0.0
11
120.000000
21
40.903831
31
0.0
0
ARC
8
0
10
120.300000
20
40.903831
30
0.0
40
0.300000
50
90.000000
51
180.000000
0
LINE
8
0
10
120.300000
20
41.203831
30
0.0
11
121.300000
21
41.203831
31
0.0
0
ARC
8
0
10
121.300000
20
41.703831
30
0.0
40
0.500000
50
270.000000
51
0.000000
0
LINE
8
0
10
121.800000
20
41.703831
30
0.0
11
121.800000
21
44.703831
31
0.0
0
ARC
8
0
10
121.500000
20
44.703831
30
0.0
40
0.300000
50
0.000000
51
90.000000
0
LINE
8
0
10
121.500000
20
45.003831
30
0.0
11
120.600000
21
45.003831
31
0.0
0
ARC
8
0
10
120.600000
20
44.703831
30
0.0
40
0.300000
50
90.000000
51
180.000000
0
LINE
8
0
10
120.300000
20
44.703831
30
0.0
11
120.300000
21
43.003831
31
0.0
0
ARC
8
0
10
120.000000
20
43.003831
30
0.0
40
0.300000
50
270.000000
51
0.000000
0
LINE
8
0
10
120.000000
20
42.703831
30
0.0
11
118.800000
21
42.703831
31
0.0
0
ARC
8
0
10
118.800000
20
42.403831
30
0.0
40
0.300000
50
90.000000
51
180.000000
0
LINE
8
0
10
118.500000
20
42.403831
30
0.0
11
118.500000
21
22.500000
31
0.0
0
ARC
8
0
10
118.000000
20
22.500000
30
0.0
40
0.500000
50
270.000000
51
0.000000
0
LINE
8
0
10
118.000000
20
22.000000
30
0.0
11
87.000091
21
22.000000
31
0.0
0
ARC
8
0
10
87.000091
20
22.500000
30
0.0
40
0.500000
50
180.000000
51
270.000000
0
LINE
8
0
10
86.500091
20
22.500000
30
0.0
11
86.500091
21
42.403831
31
0.0
0
ARC
8
0
10
86.200091
20
42.403831
30
0.0
40
0.300000
50
0.000000
51
90.000000
0
LINE
8
0
10
86.200091
20
42.703831
30
0.0
11
85.000091
21
42.703831
31
0.0
0
ARC
8
0
10
85.000091
20
43.003831
30
0.0
40
0.300000
50
180.000000
51
270.000000
0
LINE
8
0
10
84.700091
20
43.003831
30
0.0
11
84.700091
21
44.703831
31
0.0
0
ARC
8
0
10
84.400091
20
44.703831
30
0.0
40
0.300000
50
0.000000
51
90.000000
0
LINE
8
0
10
84.400091
20
45.003831
30
0.0
11
83.500091
21
45.003831
31
0.0
0
ARC
8
0
10
83.500091
20
44.703831
30
0.0
40
0.300000
50
90.000000
51
180.000000
0
LINE
8
0
10
83.200091
20
44.703831
30
0.0
11
83.200091
21
41.703831
31
0.0
0
ARC
8
0
10
83.700091
20
41.703831
30
0.0
40
0.500000
50
180.000000
51
270.000000
0
LINE
8
0
10
83.700091
20
41.203831
30
0.0
11
84.700091
21
41.203831
31
0.0
0
ATTDEF
8
0
10
0.000000
20
0.000000
30
0.0
40
3.5
1

3

2
GLASS_MIN:0.000000
70
0
0
ATTDEF
8
0
10
0.000000
20
0.000000
30
0.0
40
3.5
1

3

2
GLASS_MAX:0.000000
70
0
0
ATTDEF
8
0
10
0.000000
20
0.000000
30
0.0
40
3.5
1

3

2
HW_START
70
0
0
ATTDEF
8
0
10
165.000000
20
52.003831
30
0.0
40
3.5
1

3

2
HW_END
70
0
0
ATTDEF
8
0
10
157.500000
20
22.003707
30
0.0
40
3.5
1

3

2
VC_START
70
0
0
ATTDEF
8
0
10
12.146446
20
0.146446
30
0.0
40
3.5
1

3

2
VC_END
70
0
0
ATTDEF
8
0
10
0.000000
20
0.000000
30
0.0
40
3.5
1

3

2
FP_LCS_ORIG
70
0
0
ATTDEF
8
0
10
10.000000
20
0.000000
30
0.0
40
3.5
1

3

2
FP_LCS_HOT
70
0
0
ATTDEF
8
0
10
0.000000
20
10.000000
30
0.0
40
3.5
1

3

2
FP_LCS_INTERN
70
0
0
ATTDEF
8
0
10
0.000000
20
0.000000
30
0.0
40
3.5
1

3

2
MIN_VETRO:0
70
0
0
ATTDEF
8
0
10
0.000000
20
0.000000
30
0.0
40
3.5
1

3

2
MAX_VETRO:0
70
0
0
ATTDEF
8
0
10
0.000000
20
0.000000
30
0.0
40
3.5
1

3

2
JX:0
70
0
0
ATTDEF
8
0
10
0.000000
20
0.000000
30
0.0
40
3.5
1

3

2
WX:0
70
0
0
ATTDEF
8
0
10
0.000000
20
0.000000
30
0.0
40
3.5
1

3

2
JY:0
70
0
0
ATTDEF
8
0
10
0.000000
20
0.000000
30
0.0
40
3.5
1

3

2
WY:0
70
0
0
ATTDEF
8
0
10
0.000000
20
0.000000
30
0.0
40
3.5
1

3

2
BL01:6500, ,1
70
0
0
ATTDEF
8
0
10
0.000000
20
0.000000
30
0.0
40
3.5
1

3

2
DESC:COR-4767 - COR-4700 - COR-4700 - COR-4703 - COR-4701
70
0
0
ATTDEF
8
0
10
0.000000
20
0.000000
30
0.0
40
3.5
1

3

2
DENS:0
70
0
0
ATTDEF
8
0
10
0.000000
20
0.000000
30
0.0
40
3.5
1

3

2
TDEV:0
70
0
0
ATTDEF
8
0
10
0.000000
20
0.000000
30
0.0
40
3.5
1

3

2
TDEV2:0
70
0
0
ATTDEF
8
0
10
0.000000
20
0.000000
30
0.0
40
3.5
1

3

2
TDEV3:0
70
0
0
ATTDEF
8
0
10
0.000000
20
0.000000
30
0.0
40
3.5
1

3

2
TDEV4:0
70
0
0
ATTDEF
8
0
10
0.000000
20
0.000000
30
0.0
40
3.5
1

3

2
TDEV5:0
70
0
0
ATTDEF
8
0
10
0.000000
20
0.000000
30
0.0
40
3.5
1

3

2
PANE_WIDTH:0
70
0
0
ATTDEF
8
0
10
0.000000
20
0.000000
30
0.0
40
3.5
1

3

2
MIN_VETRO:0
70
0
0
ATTDEF
8
0
10
0.000000
20
0.000000
30
0.0
40
3.5
1

3

2
MAX_VETRO:0
70
0
0
ATTDEF
8
0
10
0.000000
20
0.000000
30
0.0
40
3.5
1

3

2
JX:0
70
0
0
ATTDEF
8
0
10
0.000000
20
0.000000
30
0.0
40
3.5
1

3

2
WX:0
70
0
0
ATTDEF
8
0
10
0.000000
20
0.000000
30
0.0
40
3.5
1

3

2
JY:0
70
0
0
ATTDEF
8
0
10
0.000000
20
0.000000
30
0.0
40
3.5
1

3

2
WY:0
70
0
0
ATTDEF
8
0
10
0.000000
20
0.000000
30
0.0
40
3.5
1

3

2
BL01:6500, ,1
70
0
0
ENDSEC
0
EOF
