0
SECTION
2
ENTITIES
0
ARC
8
0
10
24.342534
20
74.639675
30
0.0
40
0.300000
50
0.000000
51
90.000000
0
LINE
8
0
10
24.642534
20
74.639675
30
0.0
11
24.642534
21
66.537759
31
0.0
0
ARC
8
0
10
24.342534
20
66.537759
30
0.0
40
0.300000
50
270.000000
51
0.000000
0
LINE
8
0
10
24.342534
20
66.237759
30
0.0
11
23.642534
21
66.237759
31
0.0
0
ARC
8
0
10
23.642534
20
65.737759
30
0.0
40
0.500000
50
90.000000
51
180.000000
0
LINE
8
0
10
23.142534
20
65.737759
30
0.0
11
23.142534
21
64.937759
31
0.0
0
ARC
8
0
10
23.642534
20
64.937759
30
0.0
40
0.500000
50
180.000000
51
270.000000
0
LINE
8
0
10
23.642534
20
64.437759
30
0.0
11
24.342534
21
64.437759
31
0.0
0
ARC
8
0
10
24.342534
20
64.137759
30
0.0
40
0.300000
50
0.000000
51
90.000000
0
LINE
8
0
10
24.642534
20
64.137759
30
0.0
11
24.642534
21
56.035844
31
0.0
0
ARC
8
0
10
24.342534
20
56.035844
30
0.0
40
0.300000
50
270.000000
51
0.000000
0
LINE
8
0
10
24.342534
20
55.735844
30
0.0
11
23.642534
21
55.735844
31
0.0
0
ARC
8
0
10
23.642534
20
55.235844
30
0.0
40
0.500000
50
90.000000
51
180.000000
0
LINE
8
0
10
23.142534
20
55.235844
30
0.0
11
23.142534
21
54.435844
31
0.0
0
ARC
8
0
10
23.642534
20
54.435844
30
0.0
40
0.500000
50
180.000000
51
270.000000
0
LINE
8
0
10
23.642534
20
53.935844
30
0.0
11
60.642443
21
53.935844
31
0.0
0
ARC
8
0
10
60.642443
20
54.435844
30
0.0
40
0.500000
50
270.000000
51
0.000000
0
LINE
8
0
10
61.142443
20
54.435844
30
0.0
11
61.142443
21
55.235844
31
0.0
0
ARC
8
0
10
60.642443
20
55.235844
30
0.0
40
0.500000
50
0.000000
51
90.000000
0
LINE
8
0
10
60.642443
20
55.735844
30
0.0
11
59.942443
21
55.735844
31
0.0
0
ARC
8
0
10
59.942443
20
56.035844
30
0.0
40
0.300000
50
180.000000
51
270.000000
0
LINE
8
0
10
59.642443
20
56.035844
30
0.0
11
59.642443
21
64.137759
31
0.0
0
ARC
8
0
10
59.942443
20
64.137759
30
0.0
40
0.300000
50
90.000000
51
180.000000
0
LINE
8
0
10
59.942443
20
64.437759
30
0.0
11
60.642443
21
64.437759
31
0.0
0
ARC
8
0
10
60.642443
20
64.937759
30
0.0
40
0.500000
50
270.000000
51
0.000000
0
LINE
8
0
10
61.142443
20
64.937759
30
0.0
11
61.142443
21
65.737759
31
0.0
0
ARC
8
0
10
60.642443
20
65.737759
30
0.0
40
0.500000
50
0.000000
51
90.000000
0
LINE
8
0
10
60.642443
20
66.237759
30
0.0
11
59.942443
21
66.237759
31
0.0
0
ARC
8
0
10
59.942443
20
66.537759
30
0.0
40
0.300000
50
180.000000
51
270.000000
0
LINE
8
0
10
59.642443
20
66.537759
30
0.0
11
59.642443
21
74.639675
31
0.0
0
ARC
8
0
10
59.942443
20
74.639675
30
0.0
40
0.300000
50
90.000000
51
180.000000
0
LINE
8
0
10
59.942443
20
74.939675
30
0.0
11
60.942443
21
74.939675
31
0.0
0
ARC
8
0
10
60.942443
20
75.439675
30
0.0
40
0.500000
50
270.000000
51
0.000000
0
LINE
8
0
10
61.442443
20
75.439675
30
0.0
11
61.442443
21
78.439675
31
0.0
0
ARC
8
0
10
61.142443
20
78.439675
30
0.0
40
0.300000
50
0.000000
51
90.000000
0
LINE
8
0
10
61.142443
20
78.739675
30
0.0
11
60.242443
21
78.739675
31
0.0
0
ARC
8
0
10
60.242443
20
78.439675
30
0.0
40
0.300000
50
90.000000
51
180.000000
0
LINE
8
0
10
59.942443
20
78.439675
30
0.0
11
59.942443
21
76.739675
31
0.0
0
ARC
8
0
10
59.642443
20
76.739675
30
0.0
40
0.300000
50
270.000000
51
0.000000
0
LINE
8
0
10
59.642443
20
76.439675
30
0.0
11
58.442443
21
76.439675
31
0.0
0
ARC
8
0
10
58.442443
20
76.139675
30
0.0
40
0.300000
50
90.000000
51
180.000000
0
LINE
8
0
10
58.142443
20
76.139675
30
0.0
11
58.142443
21
56.235844
31
0.0
0
ARC
8
0
10
57.642443
20
56.235844
30
0.0
40
0.500000
50
270.000000
51
0.000000
0
LINE
8
0
10
57.642443
20
55.735844
30
0.0
11
26.642534
21
55.735844
31
0.0
0
ARC
8
0
10
26.642534
20
56.235844
30
0.0
40
0.500000
50
180.000000
51
270.000000
0
LINE
8
0
10
26.142534
20
56.235844
30
0.0
11
26.142534
21
76.139675
31
0.0
0
ARC
8
0
10
25.842534
20
76.139675
30
0.0
40
0.300000
50
0.000000
51
90.000000
0
LINE
8
0
10
25.842534
20
76.439675
30
0.0
11
24.642534
21
76.439675
31
0.0
0
ARC
8
0
10
24.642534
20
76.739675
30
0.0
40
0.300000
50
180.000000
51
270.000000
0
LINE
8
0
10
24.342534
20
76.739675
30
0.0
11
24.342534
21
78.439675
31
0.0
0
ARC
8
0
10
24.042534
20
78.439675
30
0.0
40
0.300000
50
0.000000
51
90.000000
0
LINE
8
0
10
24.042534
20
78.739675
30
0.0
11
23.142534
21
78.739675
31
0.0
0
ARC
8
0
10
23.142534
20
78.439675
30
0.0
40
0.300000
50
90.000000
51
180.000000
0
LINE
8
0
10
22.842534
20
78.439675
30
0.0
11
22.842534
21
75.439675
31
0.0
0
ARC
8
0
10
23.342534
20
75.439675
30
0.0
40
0.500000
50
180.000000
51
270.000000
0
LINE
8
0
10
23.342534
20
74.939675
30
0.0
11
24.342534
21
74.939675
31
0.0
0
ATTDEF
8
0
10
23.142534
20
78.739675
30
0.0
40
3.5
1

3

2
VC_START
70
0
0
ATTDEF
8
0
10
23.642534
20
53.935844
30
0.0
40
3.5
1

3

2
VC_END
70
0
0
ATTDEF
8
0
10
22.842534
20
53.935844
30
0.0
40
3.5
1

3

2
FRONT_VIEW
70
0
0
ATTDEF
8
0
10
22.842534
20
53.935844
30
0.0
40
3.5
1

3

2
OPTI:500.000000,1,0,3000.000000,6500.000000,500.000000,0,0.000000,0
70
0
0
ATTDEF
8
0
10
22.842534
20
53.935844
30
0.0
40
3.5
1

3

2
GLASS_MIN:0.000000
70
0
0
ATTDEF
8
0
10
22.842534
20
53.935844
30
0.0
40
3.5
1

3

2
GLASS_MAX:0.000000
70
0
0
ATTDEF
8
0
10
22.842534
20
53.935844
30
0.0
40
3.5
1

3

2
FP_LCS_ORIG
70
0
0
ATTDEF
8
0
10
32.842534
20
53.935844
30
0.0
40
3.5
1

3

2
FP_LCS_HOT
70
0
0
ATTDEF
8
0
10
22.842534
20
63.935844
30
0.0
40
3.5
1

3

2
FP_LCS_INTERN
70
0
0
ATTDEF
8
0
10
0.000000
20
0.000000
30
0.0
40
3.5
1

3

2
TDEV4:0
70
0
0
ATTDEF
8
0
10
0.000000
20
0.000000
30
0.0
40
3.5
1

3

2
TDEV5:0
70
0
0
ATTDEF
8
0
10
0.000000
20
0.000000
30
0.0
40
3.5
1

3

2
PANE_WIDTH:0
70
0
0
ATTDEF
8
0
10
0.000000
20
0.000000
30
0.0
40
3.5
1

3

2
MIN_VETRO:0
70
0
0
ATTDEF
8
0
10
0.000000
20
0.000000
30
0.0
40
3.5
1

3

2
MAX_VETRO:0
70
0
0
ATTDEF
8
0
10
0.000000
20
0.000000
30
0.0
40
3.5
1

3

2
JX:0
70
0
0
ATTDEF
8
0
10
0.000000
20
0.000000
30
0.0
40
3.5
1

3

2
WX:0
70
0
0
ATTDEF
8
0
10
0.000000
20
0.000000
30
0.0
40
3.5
1

3

2
JY:0
70
0
0
ATTDEF
8
0
10
0.000000
20
0.000000
30
0.0
40
3.5
1

3

2
WY:0
70
0
0
ATTDEF
8
0
10
0.000000
20
0.000000
30
0.0
40
3.5
1

3

2
DESC:Aislante marco bicarril (Two rail frame isolation)
70
0
0
ATTDEF
8
0
10
0.000000
20
0.000000
30
0.0
40
3.5
1

3

2
DENS:0
70
0
0
ATTDEF
8
0
10
0.000000
20
0.000000
30
0.0
40
3.5
1

3

2
TDEV:0
70
0
0
ATTDEF
8
0
10
0.000000
20
0.000000
30
0.0
40
3.5
1

3

2
TDEV2:0
70
0
0
ATTDEF
8
0
10
0.000000
20
0.000000
30
0.0
40
3.5
1

3

2
TDEV3:0
70
0
0
ATTDEF
8
0
10
0.000000
20
0.000000
30
0.0
40
3.5
1

3

2
TDEV4:0
70
0
0
ATTDEF
8
0
10
0.000000
20
0.000000
30
0.0
40
3.5
1

3

2
TDEV5:0
70
0
0
ATTDEF
8
0
10
0.000000
20
0.000000
30
0.0
40
3.5
1

3

2
PANE_WIDTH:0
70
0
0
ATTDEF
8
0
10
0.000000
20
0.000000
30
0.0
40
3.5
1

3

2
MIN_VETRO:0
70
0
0
ATTDEF
8
0
10
0.000000
20
0.000000
30
0.0
40
3.5
1

3

2
MAX_VETRO:0
70
0
0
ATTDEF
8
0
10
0.000000
20
0.000000
30
0.0
40
3.5
1

3

2
JX:0
70
0
0
ATTDEF
8
0
10
0.000000
20
0.000000
30
0.0
40
3.5
1

3

2
WX:0
70
0
0
ATTDEF
8
0
10
0.000000
20
0.000000
30
0.0
40
3.5
1

3

2
JY:0
70
0
0
ATTDEF
8
0
10
0.000000
20
0.000000
30
0.0
40
3.5
1

3

2
WY:0
70
0
0
ENDSEC
0
EOF
