0
SECTION
2
ENTITIES
0
ARC
8
00_ALUMINIO
10
40.982242
20
25.487332
30
0.0
40
0.500000
50
90.000000
51
180.000000
0
LINE
8
00_ALUMINIO
10
40.982242
20
25.987332
30
0.0
11
44.432242
21
25.987332
31
0.0
0
LINE
8
00_ALUMINIO
10
44.432242
20
25.987332
30
0.0
11
44.310048
21
32.987789
31
0.0
0
LINE
8
00_ALUMINIO
10
44.310048
20
32.987789
30
0.0
11
44.110048
21
32.987789
31
0.0
0
ARC
8
00_ALUMINIO
10
44.101322
20
33.487713
30
0.0
40
0.500000
50
91.000000
51
271.000000
0
LINE
8
00_ALUMINIO
10
44.092596
20
33.987637
30
0.0
11
44.292596
21
33.987637
31
0.0
0
LINE
8
00_ALUMINIO
10
44.292596
20
33.987637
30
0.0
11
44.283870
21
34.487561
31
0.0
0
LINE
8
00_ALUMINIO
10
44.283870
20
34.487561
30
0.0
11
45.257539
21
36.004785
31
0.0
0
LINE
8
00_ALUMINIO
10
45.257539
20
36.004785
30
0.0
11
45.757463
21
36.013511
31
0.0
0
LINE
8
00_ALUMINIO
10
45.757463
20
36.013511
30
0.0
11
45.932470
21
25.987332
31
0.0
0
LINE
8
00_ALUMINIO
10
45.932470
20
25.987332
30
0.0
11
62.982242
21
25.987332
31
0.0
0
LINE
8
00_ALUMINIO
10
62.982242
20
25.987332
30
0.0
11
80.032013
21
25.987332
31
0.0
0
LINE
8
00_ALUMINIO
10
80.032013
20
25.987332
30
0.0
11
80.207021
21
36.013511
31
0.0
0
LINE
8
00_ALUMINIO
10
80.207021
20
36.013511
30
0.0
11
80.706945
21
36.004785
31
0.0
0
LINE
8
00_ALUMINIO
10
80.706945
20
36.004785
30
0.0
11
81.680614
21
34.487561
31
0.0
0
LINE
8
00_ALUMINIO
10
81.680614
20
34.487561
30
0.0
11
81.671888
21
33.987637
31
0.0
0
LINE
8
00_ALUMINIO
10
81.671888
20
33.987637
30
0.0
11
81.871888
21
33.987637
31
0.0
0
ARC
8
00_ALUMINIO
10
81.863162
20
33.487713
30
0.0
40
0.500000
50
269.000000
51
89.000000
0
LINE
8
00_ALUMINIO
10
81.854435
20
32.987789
30
0.0
11
81.654435
21
32.987789
31
0.0
0
LINE
8
00_ALUMINIO
10
81.654435
20
32.987789
30
0.0
11
81.532242
21
25.987332
31
0.0
0
LINE
8
00_ALUMINIO
10
81.532242
20
25.987332
30
0.0
11
84.982242
21
25.987332
31
0.0
0
ARC
8
00_ALUMINIO
10
84.982242
20
25.487332
30
0.0
40
0.500000
50
0.000000
51
90.000000
0
LINE
8
00_ALUMINIO
10
85.482242
20
25.487332
30
0.0
11
85.482242
21
23.987332
31
0.0
0
ARC
8
00_ALUMINIO
10
84.982242
20
23.987332
30
0.0
40
0.500000
50
270.000000
51
0.000000
0
LINE
8
00_ALUMINIO
10
84.982242
20
23.487332
30
0.0
11
62.982242
21
23.487332
31
0.0
0
LINE
8
00_ALUMINIO
10
62.982242
20
23.487332
30
0.0
11
40.982242
21
23.487332
31
0.0
0
ARC
8
00_ALUMINIO
10
40.982242
20
23.987332
30
0.0
40
0.500000
50
180.000000
51
270.000000
0
LINE
8
00_ALUMINIO
10
40.482242
20
23.987332
30
0.0
11
40.482242
21
25.487332
31
0.0
0
ATTDEF
8
0
10
0.000000
20
0.000000
30
0.0
40
3.5
1

3

2
PANE_WIDTH:0
70
0
0
ATTDEF
8
0
10
0.000000
20
0.000000
30
0.0
40
3.5
1

3

2
MIN_VETRO:0
70
0
0
ATTDEF
8
0
10
0.000000
20
0.000000
30
0.0
40
3.5
1

3

2
MAX_VETRO:0
70
0
0
ATTDEF
8
0
10
0.000000
20
0.000000
30
0.0
40
3.5
1

3

2
JX:0
70
0
0
ATTDEF
8
0
10
0.000000
20
0.000000
30
0.0
40
3.5
1

3

2
WX:0
70
0
0
ATTDEF
8
0
10
0.000000
20
0.000000
30
0.0
40
3.5
1

3

2
JY:0
70
0
0
ATTDEF
8
0
10
0.000000
20
0.000000
30
0.0
40
3.5
1

3

2
WY:0
70
0
0
ATTDEF
8
0
10
0.000000
20
0.000000
30
0.0
40
3.5
1

3

2
DESC:Tapa montan.sop.lama
70
0
0
ATTDEF
8
0
10
0.000000
20
0.000000
30
0.0
40
3.5
1

3

2
DENS:0.3834
70
0
0
ATTDEF
8
0
10
0.000000
20
0.000000
30
0.0
40
3.5
1

3

2
TDEV:13.47
70
0
0
ATTDEF
8
0
10
0.000000
20
0.000000
30
0.0
40
3.5
1

3

2
TDEV2:0
70
0
0
ATTDEF
8
0
10
0.000000
20
0.000000
30
0.0
40
3.5
1

3

2
TDEV3:0
70
0
0
ATTDEF
8
0
10
0.000000
20
0.000000
30
0.0
40
3.5
1

3

2
TDEV4:0
70
0
0
ATTDEF
8
0
10
0.000000
20
0.000000
30
0.0
40
3.5
1

3

2
TDEV5:0
70
0
0
ATTDEF
8
0
10
0.000000
20
0.000000
30
0.0
40
3.5
1

3

2
PANE_WIDTH:0
70
0
0
ATTDEF
8
0
10
0.000000
20
0.000000
30
0.0
40
3.5
1

3

2
MIN_VETRO:0
70
0
0
ATTDEF
8
0
10
0.000000
20
0.000000
30
0.0
40
3.5
1

3

2
MAX_VETRO:0
70
0
0
ATTDEF
8
0
10
0.000000
20
0.000000
30
0.0
40
3.5
1

3

2
JX:0
70
0
0
ATTDEF
8
0
10
0.000000
20
0.000000
30
0.0
40
3.5
1

3

2
WX:0
70
0
0
ATTDEF
8
0
10
0.000000
20
0.000000
30
0.0
40
3.5
1

3

2
JY:0
70
0
0
ATTDEF
8
0
10
0.000000
20
0.000000
30
0.0
40
3.5
1

3

2
WY:0
70
0
0
ENDSEC
0
EOF
