0
SECTION
2
ENTITIES
0
LINE
8
00_ALUMINIO
10
51.678056
20
31.819923
30
0.0
11
51.471882
21
31.819923
31
0.0
0
ARC
8
00_ALUMINIO
10
53.175554
20
31.419923
30
0.0
40
1.750000
50
166.787020
51
193.212980
0
LINE
8
00_ALUMINIO
10
51.471882
20
31.019923
30
0.0
11
51.678056
21
31.019923
31
0.0
0
ARC
8
00_ALUMINIO
10
53.175554
20
31.419923
30
0.0
40
1.550000
50
194.955248
51
255.044752
0
LINE
8
00_ALUMINIO
10
52.775554
20
29.922426
30
0.0
11
52.775554
21
29.716251
31
0.0
0
ARC
8
00_ALUMINIO
10
53.175554
20
31.419923
30
0.0
40
1.750000
50
256.787020
51
283.212980
0
LINE
8
00_ALUMINIO
10
53.575554
20
29.716251
30
0.0
11
53.575554
21
29.922426
31
0.0
0
ARC
8
00_ALUMINIO
10
53.175554
20
31.419923
30
0.0
40
1.550000
50
284.955248
51
309.074034
0
ARC
8
00_ALUMINIO
10
54.562267
20
29.711993
30
0.0
40
0.650000
50
306.149761
51
129.074034
0
ARC
8
00_ALUMINIO
10
55.122670
20
28.944889
30
0.0
40
0.300000
50
126.149761
51
256.686107
0
ARC
8
00_ALUMINIO
10
121.525554
20
309.544923
30
0.0
40
288.650000
50
256.686107
51
267.669574
0
ARC
8
00_ALUMINIO
10
109.800554
20
21.433405
30
0.0
40
0.300000
50
267.669574
51
0.000000
0
LINE
8
00_ALUMINIO
10
110.100554
20
21.433405
30
0.0
11
110.100554
21
41.406442
31
0.0
0
ARC
8
00_ALUMINIO
10
109.800554
20
41.406442
30
0.0
40
0.300000
50
0.000000
51
92.330426
0
ARC
8
00_ALUMINIO
10
121.525554
20
-246.705077
30
0.0
40
288.650000
50
92.330426
51
103.313893
0
ARC
8
00_ALUMINIO
10
55.122670
20
33.894958
30
0.0
40
0.300000
50
103.313893
51
233.850239
0
ARC
8
00_ALUMINIO
10
54.562267
20
33.127854
30
0.0
40
0.650000
50
230.925967
51
53.850239
0
ARC
8
00_ALUMINIO
10
53.175554
20
31.419923
30
0.0
40
1.550000
50
50.925966
51
75.044752
0
LINE
8
00_ALUMINIO
10
53.575554
20
32.917421
30
0.0
11
53.575554
21
33.123596
31
0.0
0
ARC
8
00_ALUMINIO
10
53.175554
20
31.419923
30
0.0
40
1.750000
50
76.787020
51
103.212980
0
LINE
8
00_ALUMINIO
10
52.775554
20
33.123596
30
0.0
11
52.775554
21
32.917421
31
0.0
0
ARC
8
00_ALUMINIO
10
53.175554
20
31.419923
30
0.0
40
1.550000
50
104.955248
51
165.044752
0
ARC
8
00_ALUMINIO
10
52.451381
20
31.419923
30
0.0
40
3.425826
50
103.947587
51
256.052413
0
ARC
8
00_ALUMINIO
10
121.525554
20
309.544923
30
0.0
40
290.000000
50
256.052413
51
283.947587
0
ARC
8
00_ALUMINIO
10
190.599728
20
31.419923
30
0.0
40
3.425826
50
283.947587
51
76.052413
0
ARC
8
00_ALUMINIO
10
121.525554
20
-246.705077
30
0.0
40
290.000000
50
76.052413
51
103.947587
0
LINE
8
00_ALUMINIO
10
120.025554
20
41.494923
30
0.0
11
123.025554
21
41.494923
31
0.0
0
LINE
8
00_ALUMINIO
10
123.025554
20
41.494923
30
0.0
11
123.025554
21
41.941026
31
0.0
0
ARC
8
00_ALUMINIO
10
121.525554
20
-246.705077
30
0.0
40
288.650000
50
88.709669
51
89.702255
0
LINE
8
00_ALUMINIO
10
128.025554
20
41.871729
30
0.0
11
128.025554
21
41.494923
31
0.0
0
LINE
8
00_ALUMINIO
10
128.025554
20
41.494923
30
0.0
11
131.850554
21
41.494923
31
0.0
0
LINE
8
00_ALUMINIO
10
131.850554
20
41.494923
30
0.0
11
131.850554
21
36.919923
31
0.0
0
LINE
8
00_ALUMINIO
10
131.850554
20
36.919923
30
0.0
11
131.600554
21
36.919923
31
0.0
0
LINE
8
00_ALUMINIO
10
131.600554
20
36.919923
30
0.0
11
131.600554
21
33.919923
31
0.0
0
LINE
8
00_ALUMINIO
10
131.600554
20
33.919923
30
0.0
11
131.850554
21
33.919923
31
0.0
0
LINE
8
00_ALUMINIO
10
131.850554
20
33.919923
30
0.0
11
131.850554
21
28.919923
31
0.0
0
LINE
8
00_ALUMINIO
10
131.850554
20
28.919923
30
0.0
11
131.600554
21
28.919923
31
0.0
0
LINE
8
00_ALUMINIO
10
131.600554
20
28.919923
30
0.0
11
131.600554
21
25.919923
31
0.0
0
LINE
8
00_ALUMINIO
10
131.600554
20
25.919923
30
0.0
11
131.850554
21
25.919923
31
0.0
0
LINE
8
00_ALUMINIO
10
131.850554
20
25.919923
30
0.0
11
131.850554
21
21.344923
31
0.0
0
LINE
8
00_ALUMINIO
10
131.850554
20
21.344923
30
0.0
11
111.200554
21
21.344923
31
0.0
0
LINE
8
00_ALUMINIO
10
111.200554
20
21.344923
30
0.0
11
111.200554
21
25.919923
31
0.0
0
LINE
8
00_ALUMINIO
10
111.200554
20
25.919923
30
0.0
11
111.450554
21
25.919923
31
0.0
0
LINE
8
00_ALUMINIO
10
111.450554
20
25.919923
30
0.0
11
111.450554
21
28.919923
31
0.0
0
LINE
8
00_ALUMINIO
10
111.450554
20
28.919923
30
0.0
11
111.200554
21
28.919923
31
0.0
0
LINE
8
00_ALUMINIO
10
111.200554
20
28.919923
30
0.0
11
111.200554
21
33.919923
31
0.0
0
LINE
8
00_ALUMINIO
10
111.200554
20
33.919923
30
0.0
11
111.450554
21
33.919923
31
0.0
0
LINE
8
00_ALUMINIO
10
111.450554
20
33.919923
30
0.0
11
111.450554
21
36.919923
31
0.0
0
LINE
8
00_ALUMINIO
10
111.450554
20
36.919923
30
0.0
11
111.200554
21
36.919923
31
0.0
0
LINE
8
00_ALUMINIO
10
111.200554
20
36.919923
30
0.0
11
111.200554
21
41.494923
31
0.0
0
LINE
8
00_ALUMINIO
10
111.200554
20
41.494923
30
0.0
11
115.025554
21
41.494923
31
0.0
0
LINE
8
00_ALUMINIO
10
115.025554
20
41.494923
30
0.0
11
115.025554
21
41.871729
31
0.0
0
ARC
8
00_ALUMINIO
10
121.525554
20
-246.705077
30
0.0
40
288.650000
50
90.297745
51
91.290331
0
LINE
8
00_ALUMINIO
10
120.025554
20
41.941026
30
0.0
11
120.025554
21
41.494923
31
0.0
0
LINE
8
00_ALUMINIO
10
191.373052
20
31.819923
30
0.0
11
191.579227
21
31.819923
31
0.0
0
ARC
8
00_ALUMINIO
10
189.875554
20
31.419923
30
0.0
40
1.750000
50
346.787020
51
13.212980
0
LINE
8
00_ALUMINIO
10
191.579227
20
31.019923
30
0.0
11
191.373052
21
31.019923
31
0.0
0
ARC
8
00_ALUMINIO
10
189.875554
20
31.419923
30
0.0
40
1.550000
50
284.955248
51
345.044752
0
LINE
8
00_ALUMINIO
10
190.275554
20
29.922426
30
0.0
11
190.275554
21
29.716251
31
0.0
0
ARC
8
00_ALUMINIO
10
189.875554
20
31.419923
30
0.0
40
1.750000
50
256.787020
51
283.212980
0
LINE
8
00_ALUMINIO
10
189.475554
20
29.716251
30
0.0
11
189.475554
21
29.922426
31
0.0
0
ARC
8
00_ALUMINIO
10
189.875554
20
31.419923
30
0.0
40
1.550000
50
230.925967
51
255.044752
0
ARC
8
00_ALUMINIO
10
188.488842
20
29.711993
30
0.0
40
0.650000
50
50.925966
51
233.850239
0
ARC
8
00_ALUMINIO
10
187.928439
20
28.944889
30
0.0
40
0.300000
50
283.313893
51
53.850239
0
ARC
8
00_ALUMINIO
10
121.525554
20
309.544923
30
0.0
40
288.650000
50
272.330426
51
283.313893
0
ARC
8
00_ALUMINIO
10
133.250554
20
21.433405
30
0.0
40
0.300000
50
180.000000
51
272.330426
0
LINE
8
00_ALUMINIO
10
132.950554
20
21.433405
30
0.0
11
132.950554
21
41.406442
31
0.0
0
ARC
8
00_ALUMINIO
10
133.250554
20
41.406442
30
0.0
40
0.300000
50
87.669574
51
180.000000
0
ARC
8
00_ALUMINIO
10
121.525554
20
-246.705077
30
0.0
40
288.650000
50
76.686107
51
87.669574
0
ARC
8
00_ALUMINIO
10
187.928439
20
33.894958
30
0.0
40
0.300000
50
306.149761
51
76.686107
0
ARC
8
00_ALUMINIO
10
188.488842
20
33.127854
30
0.0
40
0.650000
50
126.149761
51
309.074034
0
ARC
8
00_ALUMINIO
10
189.875554
20
31.419923
30
0.0
40
1.550000
50
104.955248
51
129.074034
0
LINE
8
00_ALUMINIO
10
189.475554
20
32.917421
30
0.0
11
189.475554
21
33.123596
31
0.0
0
ARC
8
00_ALUMINIO
10
189.875554
20
31.419923
30
0.0
40
1.750000
50
76.787020
51
103.212980
0
LINE
8
00_ALUMINIO
10
190.275554
20
33.123596
30
0.0
11
190.275554
21
32.917421
31
0.0
0
ARC
8
00_ALUMINIO
10
189.875554
20
31.419923
30
0.0
40
1.550000
50
14.955248
51
75.044752
0
ATTDEF
8
0
10
0.000000
20
0.000000
30
0.0
40
3.5
1

3

2
PANE_WIDTH:0
70
0
0
ATTDEF
8
0
10
0.000000
20
0.000000
30
0.0
40
3.5
1

3

2
MIN_VETRO:0
70
0
0
ATTDEF
8
0
10
0.000000
20
0.000000
30
0.0
40
3.5
1

3

2
MAX_VETRO:0
70
0
0
ATTDEF
8
0
10
0.000000
20
0.000000
30
0.0
40
3.5
1

3

2
JX:0
70
0
0
ATTDEF
8
0
10
0.000000
20
0.000000
30
0.0
40
3.5
1

3

2
WX:0
70
0
0
ATTDEF
8
0
10
0.000000
20
0.000000
30
0.0
40
3.5
1

3

2
JY:0
70
0
0
ATTDEF
8
0
10
0.000000
20
0.000000
30
0.0
40
3.5
1

3

2
WY:0
70
0
0
ATTDEF
8
0
10
0.000000
20
0.000000
30
0.0
40
3.5
1

3

2
DESC:Lama prot.solar 145
70
0
0
ATTDEF
8
0
10
0.000000
20
0.000000
30
0.0
40
3.5
1

3

2
DENS:1.3014
70
0
0
ATTDEF
8
0
10
0.000000
20
0.000000
30
0.0
40
3.5
1

3

2
TDEV:67.66
70
0
0
ATTDEF
8
0
10
0.000000
20
0.000000
30
0.0
40
3.5
1

3

2
TDEV2:0
70
0
0
ATTDEF
8
0
10
0.000000
20
0.000000
30
0.0
40
3.5
1

3

2
TDEV3:0
70
0
0
ATTDEF
8
0
10
0.000000
20
0.000000
30
0.0
40
3.5
1

3

2
TDEV4:0
70
0
0
ATTDEF
8
0
10
0.000000
20
0.000000
30
0.0
40
3.5
1

3

2
TDEV5:0
70
0
0
ATTDEF
8
0
10
0.000000
20
0.000000
30
0.0
40
3.5
1

3

2
PANE_WIDTH:0
70
0
0
ATTDEF
8
0
10
0.000000
20
0.000000
30
0.0
40
3.5
1

3

2
MIN_VETRO:0
70
0
0
ATTDEF
8
0
10
0.000000
20
0.000000
30
0.0
40
3.5
1

3

2
MAX_VETRO:0
70
0
0
ATTDEF
8
0
10
0.000000
20
0.000000
30
0.0
40
3.5
1

3

2
JX:0
70
0
0
ATTDEF
8
0
10
0.000000
20
0.000000
30
0.0
40
3.5
1

3

2
WX:0
70
0
0
ATTDEF
8
0
10
0.000000
20
0.000000
30
0.0
40
3.5
1

3

2
JY:0
70
0
0
ATTDEF
8
0
10
0.000000
20
0.000000
30
0.0
40
3.5
1

3

2
WY:0
70
0
0
ENDSEC
0
EOF
