0
SECTION
2
ENTITIES
0
LINE
8
0
10
4340.641467
20
1203.967192
30
0.0
11
4340.641467
21
1212.167192
31
0.0
0
ARC
8
0
10
4341.141467
20
1212.167192
30
0.0
40
0.500000
50
90.000000
51
180.000000
0
LINE
8
0
10
4341.141467
20
1212.667192
30
0.0
11
4342.841467
21
1212.667192
31
0.0
0
ARC
8
0
10
4342.841467
20
1213.167192
30
0.0
40
0.500000
50
270.000000
51
0.000000
0
LINE
8
0
10
4343.341467
20
1213.167192
30
0.0
11
4343.341467
21
1220.567192
31
0.0
0
ARC
8
0
10
4342.841467
20
1220.567192
30
0.0
40
0.500000
50
0.000000
51
90.000000
0
LINE
8
0
10
4342.841467
20
1221.067192
30
0.0
11
4320.007195
21
1221.067192
31
0.0
0
ARC
8
0
10
4320.007195
20
1220.567192
30
0.0
40
0.500000
50
90.000000
51
210.000000
0
LINE
8
0
10
4319.574182
20
1220.317192
30
0.0
11
4325.707493
21
1209.693987
31
0.0
0
ARC
8
0
10
4324.841467
20
1209.193987
30
0.0
40
1.000000
50
0.000000
51
30.000000
0
LINE
8
0
10
4325.841467
20
1209.193987
30
0.0
11
4325.841467
21
1202.917794
31
0.0
0
LINE
8
0
10
4325.841467
20
1202.917794
30
0.0
11
4325.612044
21
1198.394653
31
0.0
0
ARC
8
0
10
4324.984484
20
1198.442251
30
0.0
40
0.629363
50
229.458087
51
355.662670
0
LINE
8
0
10
4324.575395
20
1197.963979
30
0.0
11
4322.858333
21
1199.684642
31
0.0
0
ARC
8
0
10
4323.141473
20
1199.967187
30
0.0
40
0.400000
50
44.942372
51
224.939728
0
LINE
8
0
10
4323.424600
20
1200.249745
30
0.0
11
4323.587557
21
1200.086458
31
0.0
0
ARC
8
0
10
4323.941467
20
1200.439655
30
0.0
40
0.500000
50
224.942204
51
0.000000
0
LINE
8
0
10
4324.441467
20
1200.439655
30
0.0
11
4324.441467
21
1201.763639
31
0.0
0
LINE
8
0
10
4324.441467
20
1201.763639
30
0.0
11
4324.141467
21
1202.063639
31
0.0
0
LINE
8
0
10
4324.141467
20
1202.063639
30
0.0
11
4324.641467
21
1202.563639
31
0.0
0
LINE
8
0
10
4324.641467
20
1202.563639
30
0.0
11
4324.641467
21
1208.872448
31
0.0
0
ARC
8
0
10
4323.641467
20
1208.872448
30
0.0
40
1.000000
50
0.000000
51
30.000000
0
LINE
8
0
10
4324.507493
20
1209.372448
30
0.0
11
4317.899867
21
1220.817192
31
0.0
0
ARC
8
0
10
4317.466854
20
1220.567192
30
0.0
40
0.500000
50
30.000000
51
90.000000
0
LINE
8
0
10
4317.466854
20
1221.067192
30
0.0
11
4302.841467
21
1221.067192
31
0.0
0
ARC
8
0
10
4302.841467
20
1220.767192
30
0.0
40
0.300000
50
90.000000
51
180.000000
0
LINE
8
0
10
4302.541467
20
1220.767192
30
0.0
11
4302.541467
21
1220.167192
31
0.0
0
ARC
8
0
10
4302.241467
20
1220.167192
30
0.0
40
0.300000
50
270.000000
51
0.000000
0
LINE
8
0
10
4302.241467
20
1219.867192
30
0.0
11
4301.741467
21
1219.867192
31
0.0
0
ARC
8
0
10
4301.741467
20
1220.367192
30
0.0
40
0.500000
50
180.000000
51
270.000000
0
LINE
8
0
10
4301.241467
20
1220.367192
30
0.0
11
4301.241467
21
1222.067192
31
0.0
0
ARC
8
0
10
4301.541467
20
1222.067192
30
0.0
40
0.300000
50
90.000000
51
180.000000
0
LINE
8
0
10
4301.541467
20
1222.367192
30
0.0
11
4346.941467
21
1222.367192
31
0.0
0
ARC
8
0
10
4346.941467
20
1221.867192
30
0.0
40
0.500000
50
0.000000
51
90.000000
0
LINE
8
0
10
4347.441467
20
1221.867192
30
0.0
11
4347.441467
21
1219.267192
31
0.0
0
ARC
8
0
10
4347.141467
20
1219.267192
30
0.0
40
0.300000
50
270.000000
51
0.000000
0
LINE
8
0
10
4347.141467
20
1218.967192
30
0.0
11
4346.541467
21
1218.967192
31
0.0
0
ARC
8
0
10
4346.541467
20
1219.267192
30
0.0
40
0.300000
50
180.000000
51
270.000000
0
LINE
8
0
10
4346.241467
20
1219.267192
30
0.0
11
4346.241467
21
1220.567192
31
0.0
0
ARC
8
0
10
4345.941467
20
1220.567192
30
0.0
40
0.300000
50
0.000000
51
90.000000
0
LINE
8
0
10
4345.941467
20
1220.867192
30
0.0
11
4344.941467
21
1220.867192
31
0.0
0
ARC
8
0
10
4344.941467
20
1220.567192
30
0.0
40
0.300000
50
90.000000
51
180.000000
0
LINE
8
0
10
4344.641467
20
1220.567192
30
0.0
11
4344.641467
21
1213.167192
31
0.0
0
ARC
8
0
10
4344.941467
20
1213.167192
30
0.0
40
0.300000
50
180.000000
51
270.000000
0
LINE
8
0
10
4344.941467
20
1212.867192
30
0.0
11
4345.941467
21
1212.867192
31
0.0
0
ARC
8
0
10
4345.941467
20
1213.167192
30
0.0
40
0.300000
50
270.000000
51
0.000000
0
LINE
8
0
10
4346.241467
20
1213.167192
30
0.0
11
4346.241467
21
1214.467192
31
0.0
0
ARC
8
0
10
4346.541467
20
1214.467192
30
0.0
40
0.300000
50
90.000000
51
180.000000
0
LINE
8
0
10
4346.541467
20
1214.767192
30
0.0
11
4347.141467
21
1214.767192
31
0.0
0
ARC
8
0
10
4347.141467
20
1214.467192
30
0.0
40
0.300000
50
0.000000
51
90.000000
0
LINE
8
0
10
4347.441467
20
1214.467192
30
0.0
11
4347.441467
21
1211.867192
31
0.0
0
ARC
8
0
10
4346.941467
20
1211.867192
30
0.0
40
0.500000
50
270.000000
51
0.000000
0
LINE
8
0
10
4346.941467
20
1211.367192
30
0.0
11
4342.441467
21
1211.367192
31
0.0
0
ARC
8
0
10
4342.441467
20
1210.867192
30
0.0
40
0.500000
50
90.000000
51
180.000000
0
LINE
8
0
10
4341.941467
20
1210.867192
30
0.0
11
4341.941467
21
1202.667192
31
0.0
0
ARC
8
0
10
4341.641467
20
1202.667192
30
0.0
40
0.300000
50
270.000000
51
0.000000
0
LINE
8
0
10
4341.641467
20
1202.367192
30
0.0
11
4338.641467
21
1202.367192
31
0.0
0
LINE
8
0
10
4338.641467
20
1202.367192
30
0.0
11
4338.641467
21
1200.067192
31
0.0
0
LINE
8
0
10
4338.641467
20
1200.067192
30
0.0
11
4339.441467
21
1199.323971
31
0.0
0
LINE
8
0
10
4339.441467
20
1199.323971
30
0.0
11
4338.324490
21
1197.992809
31
0.0
0
ARC
8
0
10
4337.941467
20
1198.314203
30
0.0
40
0.500000
50
180.000000
51
320.000000
0
LINE
8
0
10
4337.441467
20
1198.314203
30
0.0
11
4337.441467
21
1203.167192
31
0.0
0
ARC
8
0
10
4337.941467
20
1203.167192
30
0.0
40
0.500000
50
90.000000
51
180.000000
0
LINE
8
0
10
4337.941467
20
1203.667192
30
0.0
11
4340.341467
21
1203.667192
31
0.0
0
ARC
8
0
10
4340.341467
20
1203.967192
30
0.0
40
0.300000
50
270.000000
51
0.000000
0
ATTDEF
8
0
10
0.000000
20
0.000000
30
0.0
40
3.5
1

3

2
PANE_WIDTH:0
70
0
0
ATTDEF
8
0
10
0.000000
20
0.000000
30
0.0
40
3.5
1

3

2
MIN_VETRO:0
70
0
0
ATTDEF
8
0
10
0.000000
20
0.000000
30
0.0
40
3.5
1

3

2
MAX_VETRO:0
70
0
0
ATTDEF
8
0
10
0.000000
20
0.000000
30
0.0
40
3.5
1

3

2
JX:0
70
0
0
ATTDEF
8
0
10
0.000000
20
0.000000
30
0.0
40
3.5
1

3

2
WX:0
70
0
0
ATTDEF
8
0
10
0.000000
20
0.000000
30
0.0
40
3.5
1

3

2
JY:0
70
0
0
ATTDEF
8
0
10
0.000000
20
0.000000
30
0.0
40
3.5
1

3

2
WY:0
70
0
0
ATTDEF
8
0
10
0.000000
20
0.000000
30
0.0
40
3.5
1

3

2
DESC:Tapa canal fijo
70
0
0
ATTDEF
8
0
10
0.000000
20
0.000000
30
0.0
40
3.5
1

3

2
DENS:0.3807
70
0
0
ATTDEF
8
0
10
0.000000
20
0.000000
30
0.0
40
3.5
1

3

2
TDEV:21.72
70
0
0
ATTDEF
8
0
10
0.000000
20
0.000000
30
0.0
40
3.5
1

3

2
TDEV2:0
70
0
0
ATTDEF
8
0
10
0.000000
20
0.000000
30
0.0
40
3.5
1

3

2
TDEV3:0
70
0
0
ATTDEF
8
0
10
0.000000
20
0.000000
30
0.0
40
3.5
1

3

2
TDEV4:0
70
0
0
ATTDEF
8
0
10
0.000000
20
0.000000
30
0.0
40
3.5
1

3

2
TDEV5:0
70
0
0
ATTDEF
8
0
10
0.000000
20
0.000000
30
0.0
40
3.5
1

3

2
PANE_WIDTH:0
70
0
0
ATTDEF
8
0
10
0.000000
20
0.000000
30
0.0
40
3.5
1

3

2
MIN_VETRO:0
70
0
0
ATTDEF
8
0
10
0.000000
20
0.000000
30
0.0
40
3.5
1

3

2
MAX_VETRO:0
70
0
0
ATTDEF
8
0
10
0.000000
20
0.000000
30
0.0
40
3.5
1

3

2
JX:0
70
0
0
ATTDEF
8
0
10
0.000000
20
0.000000
30
0.0
40
3.5
1

3

2
WX:0
70
0
0
ATTDEF
8
0
10
0.000000
20
0.000000
30
0.0
40
3.5
1

3

2
JY:0
70
0
0
ATTDEF
8
0
10
0.000000
20
0.000000
30
0.0
40
3.5
1

3

2
WY:0
70
0
0
ENDSEC
0
EOF
