0
SECTION
2
ENTITIES
0
LINE
8
0
10
8720.628777
20
326.726251
30
0.0
11
8720.628777
21
345.426251
31
0.0
0
LINE
8
0
10
8720.628777
20
345.426251
30
0.0
11
8719.328777
21
345.426251
31
0.0
0
LINE
8
0
10
8719.328777
20
345.426251
30
0.0
11
8719.328777
21
325.426251
31
0.0
0
LINE
8
0
10
8719.328777
20
325.426251
30
0.0
11
8739.328777
21
325.426251
31
0.0
0
LINE
8
0
10
8739.328777
20
325.426251
30
0.0
11
8739.328777
21
345.426251
31
0.0
0
LINE
8
0
10
8739.328777
20
345.426251
30
0.0
11
8738.028777
21
345.426251
31
0.0
0
LINE
8
0
10
8738.028777
20
345.426251
30
0.0
11
8738.028777
21
326.726251
31
0.0
0
LINE
8
0
10
8738.028777
20
326.726251
30
0.0
11
8720.628777
21
326.726251
31
0.0
0
ATTDEF
8
0
10
8719.328777
20
345.426251
30
0.0
40
3.5
1

3

2
VC_START
70
0
0
ATTDEF
8
0
10
8719.328777
20
325.426251
30
0.0
40
3.5
1

3

2
VC_END
70
0
0
ATTDEF
8
0
10
8719.328777
20
325.426251
30
0.0
40
3.5
1

3

2
FP_LCS_ORIG
70
0
0
ATTDEF
8
0
10
8729.328777
20
325.426251
30
0.0
40
3.5
1

3

2
FP_LCS_HOT
70
0
0
ATTDEF
8
0
10
8719.328777
20
335.426251
30
0.0
40
3.5
1

3

2
FP_LCS_INTERN
70
0
0
ATTDEF
8
0
10
0.000000
20
0.000000
30
0.0
40
3.5
1

3

2
PANE_WIDTH:0
70
0
0
ATTDEF
8
0
10
0.000000
20
0.000000
30
0.0
40
3.5
1

3

2
MIN_VETRO:0
70
0
0
ATTDEF
8
0
10
0.000000
20
0.000000
30
0.0
40
3.5
1

3

2
MAX_VETRO:0
70
0
0
ATTDEF
8
0
10
0.000000
20
0.000000
30
0.0
40
3.5
1

3

2
JX:0
70
0
0
ATTDEF
8
0
10
0.000000
20
0.000000
30
0.0
40
3.5
1

3

2
WX:0
70
0
0
ATTDEF
8
0
10
0.000000
20
0.000000
30
0.0
40
3.5
1

3

2
JY:0
70
0
0
ATTDEF
8
0
10
0.000000
20
0.000000
30
0.0
40
3.5
1

3

2
WY:0
70
0
0
ATTDEF
8
0
10
0.000000
20
0.000000
30
0.0
40
3.5
1

3

2
DESC:U de 20x20
70
0
0
ATTDEF
8
0
10
0.000000
20
0.000000
30
0.0
40
3.5
1

3

2
DENS:0.2025
70
0
0
ATTDEF
8
0
10
0.000000
20
0.000000
30
0.0
40
3.5
1

3

2
TDEV:11.74
70
0
0
ATTDEF
8
0
10
0.000000
20
0.000000
30
0.0
40
3.5
1

3

2
TDEV2:0
70
0
0
ATTDEF
8
0
10
0.000000
20
0.000000
30
0.0
40
3.5
1

3

2
TDEV3:0
70
0
0
ATTDEF
8
0
10
0.000000
20
0.000000
30
0.0
40
3.5
1

3

2
TDEV4:0
70
0
0
ATTDEF
8
0
10
0.000000
20
0.000000
30
0.0
40
3.5
1

3

2
TDEV5:0
70
0
0
ATTDEF
8
0
10
0.000000
20
0.000000
30
0.0
40
3.5
1

3

2
PANE_WIDTH:0
70
0
0
ATTDEF
8
0
10
0.000000
20
0.000000
30
0.0
40
3.5
1

3

2
MIN_VETRO:0
70
0
0
ATTDEF
8
0
10
0.000000
20
0.000000
30
0.0
40
3.5
1

3

2
MAX_VETRO:0
70
0
0
ATTDEF
8
0
10
0.000000
20
0.000000
30
0.0
40
3.5
1

3

2
JX:0
70
0
0
ATTDEF
8
0
10
0.000000
20
0.000000
30
0.0
40
3.5
1

3

2
WX:0
70
0
0
ATTDEF
8
0
10
0.000000
20
0.000000
30
0.0
40
3.5
1

3

2
JY:0
70
0
0
ATTDEF
8
0
10
0.000000
20
0.000000
30
0.0
40
3.5
1

3

2
WY:0
70
0
0
ENDSEC
0
EOF
