0
SECTION
2
ENTITIES
0
ARC
8
0
10
7822.978434
20
109.798933
30
0.0
40
0.500000
50
180.000000
51
270.000000
0
LINE
8
0
10
7822.478434
20
109.798933
30
0.0
11
7822.478434
21
143.298933
31
0.0
0
ARC
8
0
10
7823.478434
20
143.298933
30
0.0
40
1.000000
50
90.000000
51
180.000000
0
LINE
8
0
10
7823.478434
20
144.298933
30
0.0
11
7827.478434
21
144.298933
31
0.0
0
LINE
8
0
10
7827.478434
20
144.298933
30
0.0
11
7827.478434
21
148.798933
31
0.0
0
ARC
8
0
10
7827.978434
20
148.798933
30
0.0
40
0.500000
50
90.000000
51
180.000000
0
LINE
8
0
10
7827.978434
20
149.298933
30
0.0
11
7837.178434
21
149.298933
31
0.0
0
ARC
8
0
10
7837.178434
20
148.998933
30
0.0
40
0.300000
50
0.000000
51
90.000000
0
LINE
8
0
10
7837.478434
20
148.998933
30
0.0
11
7837.478434
21
148.298933
31
0.0
0
ARC
8
0
10
7837.178434
20
148.298933
30
0.0
40
0.300000
50
270.000000
51
0.000000
0
LINE
8
0
10
7837.178434
20
147.998933
30
0.0
11
7832.824845
21
147.998933
31
0.0
0
ARC
8
0
10
7832.478434
20
147.798933
30
0.0
40
0.400000
50
30.000000
51
150.000000
0
LINE
8
0
10
7832.132024
20
147.998933
30
0.0
11
7829.078434
21
147.998933
31
0.0
0
ARC
8
0
10
7829.078434
20
147.698933
30
0.0
40
0.300000
50
90.000000
51
180.000000
0
LINE
8
0
10
7828.778434
20
147.698933
30
0.0
11
7828.778434
21
143.498933
31
0.0
0
ARC
8
0
10
7828.278434
20
143.498933
30
0.0
40
0.500000
50
270.000000
51
0.000000
0
LINE
8
0
10
7828.278434
20
142.998933
30
0.0
11
7823.778434
21
142.998933
31
0.0
0
LINE
8
0
10
7823.778434
20
142.998933
30
0.0
11
7823.778434
21
116.798933
31
0.0
0
LINE
8
0
10
7823.778434
20
116.798933
30
0.0
11
7825.478434
21
116.798933
31
0.0
0
ARC
8
0
10
7825.478434
20
116.298933
30
0.0
40
0.500000
50
0.000000
51
90.000000
0
LINE
8
0
10
7825.978434
20
116.298933
30
0.0
11
7825.978434
21
114.998933
31
0.0
0
ARC
8
0
10
7825.678434
20
114.998933
30
0.0
40
0.300000
50
270.000000
51
0.000000
0
LINE
8
0
10
7825.678434
20
114.698933
30
0.0
11
7825.278434
21
114.698933
31
0.0
0
ARC
8
0
10
7825.278434
20
114.998933
30
0.0
40
0.300000
50
180.000000
51
270.000000
0
LINE
8
0
10
7824.978434
20
114.998933
30
0.0
11
7824.978434
21
115.598933
31
0.0
0
LINE
8
0
10
7824.978434
20
115.598933
30
0.0
11
7823.778434
21
115.598933
31
0.0
0
LINE
8
0
10
7823.778434
20
115.598933
30
0.0
11
7823.778434
21
110.498933
31
0.0
0
LINE
8
0
10
7823.778434
20
110.498933
30
0.0
11
7824.978434
21
110.498933
31
0.0
0
LINE
8
0
10
7824.978434
20
110.498933
30
0.0
11
7824.978434
21
111.098933
31
0.0
0
ARC
8
0
10
7825.278434
20
111.098933
30
0.0
40
0.300000
50
90.000000
51
180.000000
0
LINE
8
0
10
7825.278434
20
111.398933
30
0.0
11
7825.678434
21
111.398933
31
0.0
0
ARC
8
0
10
7825.678434
20
111.098933
30
0.0
40
0.300000
50
0.000000
51
90.000000
0
LINE
8
0
10
7825.978434
20
111.098933
30
0.0
11
7825.978434
21
109.798933
31
0.0
0
ARC
8
0
10
7825.478434
20
109.798933
30
0.0
40
0.500000
50
270.000000
51
0.000000
0
LINE
8
0
10
7825.478434
20
109.298933
30
0.0
11
7822.978434
21
109.298933
31
0.0
0
ATTDEF
8
0
10
7825.478434
20
144.298933
30
0.0
40
3.5
1

3

2
VC_START
70
0
0
ATTDEF
8
0
10
7824.228434
20
109.298933
30
0.0
40
3.5
1

3

2
VC_END
70
0
0
ATTDEF
8
0
10
7822.478434
20
109.298933
30
0.0
40
3.5
1

3

2
FRONT_VIEW
70
0
0
ATTDEF
8
0
10
7822.478434
20
109.298933
30
0.0
40
3.5
1

3

2
OPTI:500.000000,1,0,3000.000000,6500.000000,500.000000,0,0.000000,0
70
0
0
ATTDEF
8
0
10
7822.478434
20
109.298933
30
0.0
40
3.5
1

3

2
GLASS_MIN:0.000000
70
0
0
ATTDEF
8
0
10
7822.478434
20
109.298933
30
0.0
40
3.5
1

3

2
GLASS_MAX:0.000000
70
0
0
ATTDEF
8
0
10
7822.478434
20
109.298933
30
0.0
40
3.5
1

3

2
FP_LCS_ORIG
70
0
0
ATTDEF
8
0
10
7832.478434
20
109.298933
30
0.0
40
3.5
1

3

2
FP_LCS_HOT
70
0
0
ATTDEF
8
0
10
7822.478434
20
119.298933
30
0.0
40
3.5
1

3

2
FP_LCS_INTERN
70
0
0
ATTDEF
8
0
10
0.000000
20
0.000000
30
0.0
40
3.5
1

3

2
TDEV4:0
70
0
0
ATTDEF
8
0
10
0.000000
20
0.000000
30
0.0
40
3.5
1

3

2
TDEV5:0
70
0
0
ATTDEF
8
0
10
0.000000
20
0.000000
30
0.0
40
3.5
1

3

2
PANE_WIDTH:0
70
0
0
ATTDEF
8
0
10
0.000000
20
0.000000
30
0.0
40
3.5
1

3

2
MIN_VETRO:0
70
0
0
ATTDEF
8
0
10
0.000000
20
0.000000
30
0.0
40
3.5
1

3

2
MAX_VETRO:0
70
0
0
ATTDEF
8
0
10
0.000000
20
0.000000
30
0.0
40
3.5
1

3

2
JX:0
70
0
0
ATTDEF
8
0
10
0.000000
20
0.000000
30
0.0
40
3.5
1

3

2
WX:0
70
0
0
ATTDEF
8
0
10
0.000000
20
0.000000
30
0.0
40
3.5
1

3

2
JY:0
70
0
0
ATTDEF
8
0
10
0.000000
20
0.000000
30
0.0
40
3.5
1

3

2
WY:0
70
0
0
ATTDEF
8
0
10
0.000000
20
0.000000
30
0.0
40
3.5
1

3

2
DESC:Solape de 35mm (35mm Overlap)
70
0
0
ATTDEF
8
0
10
0.000000
20
0.000000
30
0.0
40
3.5
1

3

2
DENS:0.205
70
0
0
ATTDEF
8
0
10
0.000000
20
0.000000
30
0.0
40
3.5
1

3

2
TDEV:12
70
0
0
ATTDEF
8
0
10
0.000000
20
0.000000
30
0.0
40
3.5
1

3

2
TDEV2:0
70
0
0
ATTDEF
8
0
10
0.000000
20
0.000000
30
0.0
40
3.5
1

3

2
TDEV3:0
70
0
0
ATTDEF
8
0
10
0.000000
20
0.000000
30
0.0
40
3.5
1

3

2
TDEV4:0
70
0
0
ATTDEF
8
0
10
0.000000
20
0.000000
30
0.0
40
3.5
1

3

2
TDEV5:0
70
0
0
ATTDEF
8
0
10
0.000000
20
0.000000
30
0.0
40
3.5
1

3

2
PANE_WIDTH:0
70
0
0
ATTDEF
8
0
10
0.000000
20
0.000000
30
0.0
40
3.5
1

3

2
MIN_VETRO:0
70
0
0
ATTDEF
8
0
10
0.000000
20
0.000000
30
0.0
40
3.5
1

3

2
MAX_VETRO:0
70
0
0
ATTDEF
8
0
10
0.000000
20
0.000000
30
0.0
40
3.5
1

3

2
JX:0
70
0
0
ATTDEF
8
0
10
0.000000
20
0.000000
30
0.0
40
3.5
1

3

2
WX:0
70
0
0
ATTDEF
8
0
10
0.000000
20
0.000000
30
0.0
40
3.5
1

3

2
JY:0
70
0
0
ATTDEF
8
0
10
0.000000
20
0.000000
30
0.0
40
3.5
1

3

2
WY:0
70
0
0
ENDSEC
0
EOF
