0
SECTION
2
ENTITIES
0
ARC
8
0
10
153.063472
20
34.592279
30
0.0
40
1.000000
50
270.000000
51
360.000000
0
LINE
8
0
10
154.063472
20
34.592279
30
0.0
11
154.063472
21
69.010623
31
0.0
0
ARC
8
0
10
149.063472
20
69.010623
30
0.0
40
5.000000
50
360.000000
51
85.000000
0
LINE
8
0
10
149.499251
20
73.991596
30
0.0
11
5.663472
21
86.575596
31
0.0
0
LINE
8
0
10
5.663472
20
86.575596
30
0.0
11
5.663472
21
110.105596
31
0.0
0
LINE
8
0
10
5.663472
20
110.105596
30
0.0
11
4.063472
21
110.105596
31
0.0
0
LINE
8
0
10
4.063472
20
110.105596
30
0.0
11
4.063472
21
85.109466
31
0.0
0
LINE
8
0
10
4.063472
20
85.109466
30
0.0
11
149.359802
21
72.397685
31
0.0
0
ARC
8
0
10
149.063472
20
69.010623
30
0.0
40
3.400000
50
360.000000
51
85.000000
0
LINE
8
0
10
152.463472
20
69.010623
30
0.0
11
152.463472
21
35.294963
31
0.0
0
LINE
8
0
10
152.463472
20
35.294963
30
0.0
11
149.263472
21
36.459668
31
0.0
0
LINE
8
0
10
149.263472
20
36.459668
30
0.0
11
149.263472
21
38.292279
31
0.0
0
ARC
8
0
10
148.963472
20
38.292279
30
0.0
40
0.300000
50
360.000000
51
114.369592
0
ARC
8
0
10
149.665951
20
36.741486
30
0.0
40
2.002478
50
114.369592
51
250.000000
0
LINE
8
0
10
148.981063
20
34.859772
30
0.0
11
152.463472
21
33.592279
31
0.0
0
LINE
8
0
10
152.463472
20
33.592279
30
0.0
11
153.063472
21
33.592279
31
0.0
0
ATTDEF
8
0
10
0.000000
20
0.000000
30
0.0
40
3.5
1

3

2
PANE_WIDTH:0
70
0
0
ATTDEF
8
0
10
0.000000
20
0.000000
30
0.0
40
3.5
1

3

2
MIN_VETRO:0
70
0
0
ATTDEF
8
0
10
0.000000
20
0.000000
30
0.0
40
3.5
1

3

2
MAX_VETRO:0
70
0
0
ATTDEF
8
0
10
0.000000
20
0.000000
30
0.0
40
3.5
1

3

2
JX:0
70
0
0
ATTDEF
8
0
10
0.000000
20
0.000000
30
0.0
40
3.5
1

3

2
WX:0
70
0
0
ATTDEF
8
0
10
0.000000
20
0.000000
30
0.0
40
3.5
1

3

2
JY:0
70
0
0
ATTDEF
8
0
10
0.000000
20
0.000000
30
0.0
40
3.5
1

3

2
WY:0
70
0
0
ATTDEF
8
0
10
0.000000
20
0.000000
30
0.0
40
3.5
1

3

2
DESC:N/F
70
0
0
ATTDEF
8
0
10
0.000000
20
0.000000
30
0.0
40
3.5
1

3

2
DENS:0
70
0
0
ATTDEF
8
0
10
0.000000
20
0.000000
30
0.0
40
3.5
1

3

2
TDEV:0
70
0
0
ATTDEF
8
0
10
0.000000
20
0.000000
30
0.0
40
3.5
1

3

2
TDEV2:0
70
0
0
ATTDEF
8
0
10
0.000000
20
0.000000
30
0.0
40
3.5
1

3

2
TDEV3:0
70
0
0
ATTDEF
8
0
10
0.000000
20
0.000000
30
0.0
40
3.5
1

3

2
TDEV4:0
70
0
0
ATTDEF
8
0
10
0.000000
20
0.000000
30
0.0
40
3.5
1

3

2
TDEV5:0
70
0
0
ATTDEF
8
0
10
0.000000
20
0.000000
30
0.0
40
3.5
1

3

2
PANE_WIDTH:0
70
0
0
ATTDEF
8
0
10
0.000000
20
0.000000
30
0.0
40
3.5
1

3

2
MIN_VETRO:0
70
0
0
ATTDEF
8
0
10
0.000000
20
0.000000
30
0.0
40
3.5
1

3

2
MAX_VETRO:0
70
0
0
ATTDEF
8
0
10
0.000000
20
0.000000
30
0.0
40
3.5
1

3

2
JX:0
70
0
0
ATTDEF
8
0
10
0.000000
20
0.000000
30
0.0
40
3.5
1

3

2
WX:0
70
0
0
ATTDEF
8
0
10
0.000000
20
0.000000
30
0.0
40
3.5
1

3

2
JY:0
70
0
0
ATTDEF
8
0
10
0.000000
20
0.000000
30
0.0
40
3.5
1

3

2
WY:0
70
0
0
ATTDEF
8
0
10
5.663472
20
110.105596
30
0.0
40
3.5
1

3

2
VC_START
70
0
0
ATTDEF
8
0
10
153.063472
20
33.592279
30
0.0
40
3.5
1

3

2
VC_END
70
0
0
ATTDEF
8
0
10
4.063472
20
33.592279
30
0.0
40
3.5
1

3

2
FP_LCS_ORIG
70
0
0
ATTDEF
8
0
10
14.063472
20
33.592279
30
0.0
40
3.5
1

3

2
FP_LCS_HOT
70
0
0
ATTDEF
8
0
10
4.063472
20
43.592279
30
0.0
40
3.5
1

3

2
FP_LCS_INTERN
70
0
0
ENDSEC
0
EOF
