0
SECTION
2
ENTITIES
0
LINE
8
0
10
8993.022052
20
835.930516
30
0.0
11
8993.022052
21
819.930516
31
0.0
0
LINE
8
0
10
8993.022052
20
819.930516
30
0.0
11
8969.022052
21
819.930516
31
0.0
0
LINE
8
0
10
8969.022052
20
819.930516
30
0.0
11
8969.022052
21
835.930516
31
0.0
0
LINE
8
0
10
8969.022052
20
835.930516
30
0.0
11
8993.022052
21
835.930516
31
0.0
0
LINE
8
0
10
8991.322052
20
834.230516
30
0.0
11
8991.322052
21
821.630516
31
0.0
0
LINE
8
0
10
8991.322052
20
821.630516
30
0.0
11
8970.722052
21
821.630516
31
0.0
0
LINE
8
0
10
8970.722052
20
821.630516
30
0.0
11
8970.722052
21
834.230516
31
0.0
0
LINE
8
0
10
8970.722052
20
834.230516
30
0.0
11
8991.322052
21
834.230516
31
0.0
0
ATTDEF
8
0
10
0.000000
20
0.000000
30
0.0
40
3.5
1

3

2
PANE_WIDTH:0
70
0
0
ATTDEF
8
0
10
0.000000
20
0.000000
30
0.0
40
3.5
1

3

2
MIN_VETRO:0
70
0
0
ATTDEF
8
0
10
0.000000
20
0.000000
30
0.0
40
3.5
1

3

2
MAX_VETRO:0
70
0
0
ATTDEF
8
0
10
0.000000
20
0.000000
30
0.0
40
3.5
1

3

2
JX:0
70
0
0
ATTDEF
8
0
10
0.000000
20
0.000000
30
0.0
40
3.5
1

3

2
WX:0
70
0
0
ATTDEF
8
0
10
0.000000
20
0.000000
30
0.0
40
3.5
1

3

2
JY:0
70
0
0
ATTDEF
8
0
10
0.000000
20
0.000000
30
0.0
40
3.5
1

3

2
WY:0
70
0
0
ATTDEF
8
0
10
0.000000
20
0.000000
30
0.0
40
3.5
1

3

2
DESC:Tubo 24x16 (*)
70
0
0
ATTDEF
8
0
10
0.000000
20
0.000000
30
0.0
40
3.5
1

3

2
DENS:0.3375
70
0
0
ATTDEF
8
0
10
0.000000
20
0.000000
30
0.0
40
3.5
1

3

2
TDEV:14.64
70
0
0
ATTDEF
8
0
10
0.000000
20
0.000000
30
0.0
40
3.5
1

3

2
TDEV2:0
70
0
0
ATTDEF
8
0
10
0.000000
20
0.000000
30
0.0
40
3.5
1

3

2
TDEV3:0
70
0
0
ATTDEF
8
0
10
0.000000
20
0.000000
30
0.0
40
3.5
1

3

2
TDEV4:0
70
0
0
ATTDEF
8
0
10
0.000000
20
0.000000
30
0.0
40
3.5
1

3

2
TDEV5:0
70
0
0
ATTDEF
8
0
10
0.000000
20
0.000000
30
0.0
40
3.5
1

3

2
PANE_WIDTH:0
70
0
0
ATTDEF
8
0
10
0.000000
20
0.000000
30
0.0
40
3.5
1

3

2
MIN_VETRO:0
70
0
0
ATTDEF
8
0
10
0.000000
20
0.000000
30
0.0
40
3.5
1

3

2
MAX_VETRO:0
70
0
0
ATTDEF
8
0
10
0.000000
20
0.000000
30
0.0
40
3.5
1

3

2
JX:0
70
0
0
ATTDEF
8
0
10
0.000000
20
0.000000
30
0.0
40
3.5
1

3

2
WX:0
70
0
0
ATTDEF
8
0
10
0.000000
20
0.000000
30
0.0
40
3.5
1

3

2
JY:0
70
0
0
ATTDEF
8
0
10
0.000000
20
0.000000
30
0.0
40
3.5
1

3

2
WY:0
70
0
0
ATTDEF
8
0
10
8969.022052
20
835.930516
30
0.0
40
3.5
1

3

2
VC_START
70
0
0
ATTDEF
8
0
10
8969.022052
20
819.930516
30
0.0
40
3.5
1

3

2
VC_END
70
0
0
ATTDEF
8
0
10
8969.022052
20
819.930516
30
0.0
40
3.5
1

3

2
FP_LCS_ORIG
70
0
0
ATTDEF
8
0
10
8979.022052
20
819.930516
30
0.0
40
3.5
1

3

2
FP_LCS_HOT
70
0
0
ATTDEF
8
0
10
8969.022052
20
829.930516
30
0.0
40
3.5
1

3

2
FP_LCS_INTERN
70
0
0
ENDSEC
0
EOF
