0
SECTION
2
ENTITIES
0
ARC
8
0
10
-60.420781
20
11.574790
30
0.0
40
0.300000
50
52.997252
51
180.000000
0
LINE
8
0
10
-60.720781
20
11.574790
30
0.0
11
-60.720781
21
9.374790
31
0.0
0
LINE
8
0
10
-60.720781
20
9.374790
30
0.0
11
-63.555187
21
9.374790
31
0.0
0
ARC
8
0
10
-63.555187
20
9.074790
30
0.0
40
0.300000
50
90.000000
51
180.000000
0
LINE
8
0
10
-63.855187
20
9.074790
30
0.0
11
-63.855187
21
8.274790
31
0.0
0
ARC
8
0
10
-63.555187
20
8.274790
30
0.0
40
0.300000
50
180.000000
51
270.000000
0
LINE
8
0
10
-59.737657
20
7.974790
30
0.0
11
-63.555187
21
7.974790
31
0.0
0
ARC
8
0
10
-59.737657
20
8.274790
30
0.0
40
0.300000
50
270.000000
51
322.997252
0
LINE
8
0
10
-56.474207
20
12.106643
30
0.0
11
-59.498075
21
8.094234
31
0.0
0
LINE
8
0
10
-56.572583
20
12.806873
30
0.0
11
-56.474207
21
12.106643
31
0.0
0
LINE
8
0
10
-56.572583
20
12.806873
30
0.0
11
-55.872353
21
12.905249
31
0.0
0
LINE
8
0
10
-54.126979
20
15.221209
30
0.0
11
-55.872353
21
12.905249
31
0.0
0
ARC
8
0
10
-54.925585
20
15.823062
30
0.0
40
1.000000
50
322.997252
51
52.997252
0
LINE
8
0
10
-54.323732
20
16.621669
30
0.0
11
-59.320781
21
20.387591
31
0.0
0
LINE
8
0
10
-59.320781
20
20.387591
30
0.0
11
-59.320781
21
20.974790
31
0.0
0
LINE
8
0
10
36.993315
20
20.974790
30
0.0
11
-59.320781
21
20.974790
31
0.0
0
ARC
8
0
10
36.993315
20
20.674790
30
0.0
40
0.300000
50
332.647767
51
90.000000
0
ARC
8
0
10
40.279650
20
18.974790
30
0.0
40
3.400000
50
152.647767
51
167.016140
0
ARC
8
0
10
37.453793
20
19.626352
30
0.0
40
0.500000
50
167.016140
51
225.000000
0
LINE
8
0
10
37.696862
20
18.676177
30
0.0
11
37.100240
21
19.272799
31
0.0
0
ARC
8
0
10
37.979704
20
18.959020
30
0.0
40
0.400000
50
225.000000
51
360.000000
0
ARC
8
0
10
40.279650
20
18.974790
30
0.0
40
1.900000
50
269.607141
51
180.392859
0
ARC
8
0
10
40.263880
20
16.674844
30
0.0
40
0.400000
50
90.000000
51
225.000000
0
LINE
8
0
10
40.577659
20
15.795380
30
0.0
11
39.981037
21
16.392002
31
0.0
0
ARC
8
0
10
40.931212
20
16.148933
30
0.0
40
0.500000
50
225.000000
51
282.983860
0
ARC
8
0
10
40.279650
20
18.974790
30
0.0
40
3.400000
50
282.983860
51
297.352233
0
ARC
8
0
10
41.979650
20
15.688455
30
0.0
40
0.300000
50
360.000000
51
117.352233
0
LINE
8
0
10
42.279650
20
15.688455
30
0.0
11
42.279650
21
14.124790
31
0.0
0
ARC
8
0
10
44.429650
20
14.124790
30
0.0
40
2.150000
50
180.000000
51
215.515984
0
LINE
8
0
10
42.679650
20
-8.775210
30
0.0
11
42.679650
21
12.875791
31
0.0
0
LINE
8
0
10
44.429650
20
-8.775210
30
0.0
11
42.679650
21
-8.775210
31
0.0
0
ARC
8
0
10
44.429650
20
-8.025210
30
0.0
40
0.750000
50
270.000000
51
90.000000
0
LINE
8
0
10
44.079650
20
-7.275210
30
0.0
11
44.429650
21
-7.275210
31
0.0
0
LINE
8
0
10
44.079650
20
-4.825210
30
0.0
11
44.079650
21
-7.275210
31
0.0
0
LINE
8
0
10
62.879650
20
-4.825210
30
0.0
11
44.079650
21
-4.825210
31
0.0
0
LINE
8
0
10
62.879650
20
-7.275210
30
0.0
11
62.879650
21
-4.825210
31
0.0
0
LINE
8
0
10
62.529650
20
-7.275210
30
0.0
11
62.879650
21
-7.275210
31
0.0
0
ARC
8
0
10
62.529650
20
-8.025210
30
0.0
40
0.750000
50
90.000000
51
270.000000
0
LINE
8
0
10
62.879650
20
-8.775210
30
0.0
11
62.529650
21
-8.775210
31
0.0
0
LINE
8
0
10
62.879650
20
-16.275210
30
0.0
11
62.879650
21
-8.775210
31
0.0
0
LINE
8
0
10
62.529650
20
-16.275210
30
0.0
11
62.879650
21
-16.275210
31
0.0
0
ARC
8
0
10
62.529650
20
-17.025210
30
0.0
40
0.750000
50
90.000000
51
270.000000
0
LINE
8
0
10
62.879650
20
-17.775210
30
0.0
11
62.529650
21
-17.775210
31
0.0
0
LINE
8
0
10
62.879650
20
-25.275210
30
0.0
11
62.879650
21
-17.775210
31
0.0
0
LINE
8
0
10
62.529650
20
-25.275210
30
0.0
11
62.879650
21
-25.275210
31
0.0
0
ARC
8
0
10
62.529650
20
-26.025210
30
0.0
40
0.750000
50
90.000000
51
270.000000
0
LINE
8
0
10
62.879650
20
-26.775210
30
0.0
11
62.529650
21
-26.775210
31
0.0
0
LINE
8
0
10
62.879650
20
-29.225210
30
0.0
11
62.879650
21
-26.775210
31
0.0
0
LINE
8
0
10
44.079650
20
-29.225210
30
0.0
11
62.879650
21
-29.225210
31
0.0
0
LINE
8
0
10
44.079650
20
-26.775210
30
0.0
11
44.079650
21
-29.225210
31
0.0
0
LINE
8
0
10
44.429650
20
-26.775210
30
0.0
11
44.079650
21
-26.775210
31
0.0
0
ARC
8
0
10
44.429650
20
-26.025210
30
0.0
40
0.750000
50
270.000000
51
90.000000
0
LINE
8
0
10
42.679650
20
-25.275210
30
0.0
11
44.429650
21
-25.275210
31
0.0
0
LINE
8
0
10
42.679650
20
-30.325210
30
0.0
11
42.679650
21
-25.275210
31
0.0
0
ARC
8
0
10
42.979650
20
-30.325210
30
0.0
40
0.300000
50
180.000000
51
270.000000
0
LINE
8
0
10
63.979650
20
-30.625210
30
0.0
11
42.979650
21
-30.625210
31
0.0
0
ARC
8
0
10
63.979650
20
-30.325210
30
0.0
40
0.300000
50
270.000000
51
360.000000
0
LINE
8
0
10
64.279650
20
21.874790
30
0.0
11
64.279650
21
-30.325210
31
0.0
0
ARC
8
0
10
63.779650
20
21.874790
30
0.0
40
0.500000
50
360.000000
51
90.000000
0
LINE
8
0
10
61.279650
20
22.374790
30
0.0
11
63.779650
21
22.374790
31
0.0
0
ARC
8
0
10
61.279650
20
21.874790
30
0.0
40
0.500000
50
90.000000
51
180.000000
0
LINE
8
0
10
60.779650
20
19.624790
30
0.0
11
60.779650
21
21.874790
31
0.0
0
ARC
8
0
10
61.279650
20
19.624790
30
0.0
40
0.500000
50
180.000000
51
360.000000
0
LINE
8
0
10
61.779650
20
20.624790
30
0.0
11
61.779650
21
19.624790
31
0.0
0
ARC
8
0
10
62.529650
20
20.624790
30
0.0
40
0.750000
50
360.000000
51
180.000000
0
LINE
8
0
10
63.279650
20
14.124790
30
0.0
11
63.279650
21
20.624790
31
0.0
0
ARC
8
0
10
62.529650
20
14.124790
30
0.0
40
0.750000
50
180.000000
51
360.000000
0
LINE
8
0
10
61.779650
20
15.124790
30
0.0
11
61.779650
21
14.124790
31
0.0
0
ARC
8
0
10
61.279650
20
15.124790
30
0.0
40
0.500000
50
360.000000
51
180.000000
0
LINE
8
0
10
60.779650
20
12.874790
30
0.0
11
60.779650
21
15.124790
31
0.0
0
ARC
8
0
10
61.279650
20
12.874790
30
0.0
40
0.500000
50
180.000000
51
270.000000
0
LINE
8
0
10
62.879650
20
12.374790
30
0.0
11
61.279650
21
12.374790
31
0.0
0
LINE
8
0
10
62.879650
20
-0.425210
30
0.0
11
62.879650
21
12.374790
31
0.0
0
ARC
8
0
10
59.879650
20
-0.425210
30
0.0
40
3.000000
50
270.000000
51
360.000000
0
LINE
8
0
10
47.079650
20
-3.425210
30
0.0
11
59.879650
21
-3.425210
31
0.0
0
ARC
8
0
10
47.079650
20
-0.425210
30
0.0
40
3.000000
50
180.000000
51
270.000000
0
LINE
8
0
10
44.079650
20
12.374790
30
0.0
11
44.079650
21
-0.425210
31
0.0
0
LINE
8
0
10
45.679650
20
12.374790
30
0.0
11
44.079650
21
12.374790
31
0.0
0
ARC
8
0
10
45.679650
20
12.874790
30
0.0
40
0.500000
50
270.000000
51
360.000000
0
LINE
8
0
10
46.179650
20
15.124790
30
0.0
11
46.179650
21
12.874790
31
0.0
0
ARC
8
0
10
45.679650
20
15.124790
30
0.0
40
0.500000
50
360.000000
51
180.000000
0
LINE
8
0
10
45.179650
20
14.124790
30
0.0
11
45.179650
21
15.124790
31
0.0
0
ARC
8
0
10
44.429650
20
14.124790
30
0.0
40
0.750000
50
180.000000
51
360.000000
0
LINE
8
0
10
43.679650
20
20.624790
30
0.0
11
43.679650
21
14.124790
31
0.0
0
ARC
8
0
10
44.429650
20
20.624790
30
0.0
40
0.750000
50
360.000000
51
180.000000
0
LINE
8
0
10
45.179650
20
19.624790
30
0.0
11
45.179650
21
20.624790
31
0.0
0
ARC
8
0
10
45.679650
20
19.624790
30
0.0
40
0.500000
50
180.000000
51
360.000000
0
LINE
8
0
10
46.179650
20
21.874790
30
0.0
11
46.179650
21
19.624790
31
0.0
0
ARC
8
0
10
45.679650
20
21.874790
30
0.0
40
0.500000
50
360.000000
51
90.000000
0
LINE
8
0
10
-60.420781
20
22.374790
30
0.0
11
45.679650
21
22.374790
31
0.0
0
ARC
8
0
10
-60.420781
20
22.074790
30
0.0
40
0.300000
50
90.000000
51
180.000000
0
LINE
8
0
10
-60.720781
20
22.074790
30
0.0
11
-60.720781
21
19.689619
31
0.0
0
LINE
8
0
10
-60.720781
20
19.689619
30
0.0
11
-55.565630
21
15.804546
31
0.0
0
LINE
8
0
10
-55.565630
20
15.804546
30
0.0
11
-59.176750
21
11.012906
31
0.0
0
LINE
8
0
10
-60.240225
20
11.814372
30
0.0
11
-59.176750
21
11.012906
31
0.0
0
ATTDEF
8
0
10
0.000000
20
0.000000
30
0.0
40
3.5
1

3

2
PANE_WIDTH:0
70
0
0
ATTDEF
8
0
10
0.000000
20
0.000000
30
0.0
40
3.5
1

3

2
MIN_VETRO:0
70
0
0
ATTDEF
8
0
10
0.000000
20
0.000000
30
0.0
40
3.5
1

3

2
MAX_VETRO:0
70
0
0
ATTDEF
8
0
10
0.000000
20
0.000000
30
0.0
40
3.5
1

3

2
JX:0
70
0
0
ATTDEF
8
0
10
0.000000
20
0.000000
30
0.0
40
3.5
1

3

2
WX:0
70
0
0
ATTDEF
8
0
10
0.000000
20
0.000000
30
0.0
40
3.5
1

3

2
JY:0
70
0
0
ATTDEF
8
0
10
0.000000
20
0.000000
30
0.0
40
3.5
1

3

2
WY:0
70
0
0
ATTDEF
8
0
10
0.000000
20
0.000000
30
0.0
40
3.5
1

3

2
DESC:Guia 125mm.
70
0
0
ATTDEF
8
0
10
0.000000
20
0.000000
30
0.0
40
3.5
1

3

2
DENS:1.0476
70
0
0
ATTDEF
8
0
10
0.000000
20
0.000000
30
0.0
40
3.5
1

3

2
TDEV:54.82
70
0
0
ATTDEF
8
0
10
0.000000
20
0.000000
30
0.0
40
3.5
1

3

2
TDEV2:0
70
0
0
ATTDEF
8
0
10
0.000000
20
0.000000
30
0.0
40
3.5
1

3

2
TDEV3:0
70
0
0
ATTDEF
8
0
10
0.000000
20
0.000000
30
0.0
40
3.5
1

3

2
TDEV4:0
70
0
0
ATTDEF
8
0
10
0.000000
20
0.000000
30
0.0
40
3.5
1

3

2
TDEV5:0
70
0
0
ATTDEF
8
0
10
0.000000
20
0.000000
30
0.0
40
3.5
1

3

2
PANE_WIDTH:0
70
0
0
ATTDEF
8
0
10
0.000000
20
0.000000
30
0.0
40
3.5
1

3

2
MIN_VETRO:0
70
0
0
ATTDEF
8
0
10
0.000000
20
0.000000
30
0.0
40
3.5
1

3

2
MAX_VETRO:0
70
0
0
ATTDEF
8
0
10
0.000000
20
0.000000
30
0.0
40
3.5
1

3

2
JX:0
70
0
0
ATTDEF
8
0
10
0.000000
20
0.000000
30
0.0
40
3.5
1

3

2
WX:0
70
0
0
ATTDEF
8
0
10
0.000000
20
0.000000
30
0.0
40
3.5
1

3

2
JY:0
70
0
0
ATTDEF
8
0
10
0.000000
20
0.000000
30
0.0
40
3.5
1

3

2
WY:0
70
0
0
ATTDEF
8
0
10
-7.370565
20
22.374790
30
0.0
40
3.5
1

3

2
VC_START
70
0
0
ATTDEF
8
0
10
53.479650
20
-30.625210
30
0.0
40
3.5
1

3

2
VC_END
70
0
0
ATTDEF
8
0
10
64.279650
20
-30.625210
30
0.0
40
3.5
1

3

2
FP_LCS_ORIG
70
0
0
ATTDEF
8
0
10
54.279650
20
-30.625210
30
0.0
40
3.5
1

3

2
FP_LCS_HOT
70
0
0
ATTDEF
8
0
10
64.279650
20
-20.625210
30
0.0
40
3.5
1

3

2
FP_LCS_INTERN
70
0
0
ENDSEC
0
EOF
