0
SECTION
2
ENTITIES
0
ARC
8
00_ALUMINIO
10
295.716216
20
18.858813
30
0.0
40
44.168189
50
180.000000
51
241.961712
0
ARC
8
00_ALUMINIO
10
275.424512
20
-19.242884
30
0.0
40
1.000000
50
241.961712
51
0.000000
0
LINE
8
00_ALUMINIO
10
276.424512
20
-19.242884
30
0.0
11
276.424512
21
-15.488018
31
0.0
0
LINE
8
00_ALUMINIO
10
276.424512
20
-15.488018
30
0.0
11
276.486689
21
-15.488018
31
0.0
0
ARC
8
00_ALUMINIO
10
276.486689
20
-15.188018
30
0.0
40
0.300000
50
270.000000
51
296.127032
0
LINE
8
00_ALUMINIO
10
276.618798
20
-15.457364
30
0.0
11
277.263426
21
-15.166539
31
0.0
0
ARC
8
00_ALUMINIO
10
277.776073
20
-15.696565
30
0.0
40
0.737384
50
121.123557
51
134.045103
0
ARC
8
00_ALUMINIO
10
278.438546
20
-16.771450
30
0.0
40
2.000000
50
51.805773
51
121.453618
0
ARC
8
00_ALUMINIO
10
279.984369
20
-14.806652
30
0.0
40
0.500000
50
231.805773
51
271.623749
0
LINE
8
00_ALUMINIO
10
279.998537
20
-15.306451
30
0.0
11
280.655159
21
-15.287838
31
0.0
0
LINE
8
00_ALUMINIO
10
280.655159
20
-15.287838
30
0.0
11
280.665411
21
-15.287503
31
0.0
0
ARC
8
00_ALUMINIO
10
280.651774
20
-14.987813
30
0.0
40
0.300000
50
272.605413
51
18.251415
0
LINE
8
00_ALUMINIO
10
280.936681
20
-14.893857
30
0.0
11
278.872394
21
-12.227416
31
0.0
0
ARC
8
00_ALUMINIO
10
278.757247
20
-12.316560
30
0.0
40
0.145621
50
37.746080
51
182.000000
0
LINE
8
00_ALUMINIO
10
278.611715
20
-12.321642
30
0.0
11
278.617144
21
-12.477129
31
0.0
0
ARC
8
00_ALUMINIO
10
278.417266
20
-12.484109
30
0.0
40
0.200000
50
308.823976
51
2.000000
0
LINE
8
00_ALUMINIO
10
278.542652
20
-12.639924
30
0.0
11
276.899483
21
-13.962199
31
0.0
0
ARC
8
00_ALUMINIO
10
276.711404
20
-13.728476
30
0.0
40
0.300000
50
287.000000
51
308.823976
0
LINE
8
00_ALUMINIO
10
276.799115
20
-14.015368
30
0.0
11
276.512224
21
-14.103079
31
0.0
0
ARC
8
00_ALUMINIO
10
276.424512
20
-13.816188
30
0.0
40
0.300000
50
90.000000
51
287.000000
0
LINE
8
00_ALUMINIO
10
276.424512
20
-13.516188
30
0.0
11
276.424512
21
-9.016188
31
0.0
0
ARC
8
00_ALUMINIO
10
276.624512
20
-9.016188
30
0.0
40
0.200000
50
90.000000
51
180.000000
0
LINE
8
00_ALUMINIO
10
276.624512
20
-8.816188
30
0.0
11
276.692401
21
-8.816188
31
0.0
0
ARC
8
00_ALUMINIO
10
276.692401
20
-9.116188
30
0.0
40
0.300000
50
58.619868
51
90.000000
0
LINE
8
00_ALUMINIO
10
276.848615
20
-8.860068
30
0.0
11
278.524608
21
-9.882301
31
0.0
0
ARC
8
00_ALUMINIO
10
278.724512
20
-9.888491
30
0.0
40
0.200000
50
178.226372
51
0.000000
0
LINE
8
00_ALUMINIO
10
278.924512
20
-9.888491
30
0.0
11
278.924512
21
-8.504711
31
0.0
0
ARC
8
00_ALUMINIO
10
278.724512
20
-8.504711
30
0.0
40
0.200000
50
0.000000
51
61.694535
0
LINE
8
00_ALUMINIO
10
278.819128
20
-8.328416
30
0.0
11
276.776133
21
-7.156161
31
0.0
0
ARC
8
00_ALUMINIO
10
277.124512
20
-6.549010
30
0.0
40
0.700000
50
180.000000
51
240.153120
0
LINE
8
00_ALUMINIO
10
276.424512
20
-6.549010
30
0.0
11
276.424512
21
18.858813
31
0.0
0
LINE
8
00_ALUMINIO
10
276.424512
20
18.858813
30
0.0
11
276.424512
21
44.266636
31
0.0
0
ARC
8
00_ALUMINIO
10
277.124512
20
44.266636
30
0.0
40
0.700000
50
119.846880
51
180.000000
0
LINE
8
00_ALUMINIO
10
276.776133
20
44.873787
30
0.0
11
278.819128
21
46.046042
31
0.0
0
ARC
8
00_ALUMINIO
10
278.724512
20
46.222337
30
0.0
40
0.200000
50
298.305465
51
0.000000
0
LINE
8
00_ALUMINIO
10
278.924512
20
46.222337
30
0.0
11
278.924512
21
47.606118
31
0.0
0
ARC
8
00_ALUMINIO
10
278.724512
20
47.606118
30
0.0
40
0.200000
50
0.000000
51
181.773628
0
LINE
8
00_ALUMINIO
10
278.524608
20
47.599927
30
0.0
11
276.848615
21
46.577695
31
0.0
0
ARC
8
00_ALUMINIO
10
276.692401
20
46.833814
30
0.0
40
0.300000
50
270.000000
51
301.380132
0
LINE
8
00_ALUMINIO
10
276.692401
20
46.533814
30
0.0
11
276.624512
21
46.533814
31
0.0
0
ARC
8
00_ALUMINIO
10
276.624512
20
46.733814
30
0.0
40
0.200000
50
180.000000
51
270.000000
0
LINE
8
00_ALUMINIO
10
276.424512
20
46.733814
30
0.0
11
276.424512
21
51.233814
31
0.0
0
ARC
8
00_ALUMINIO
10
276.424512
20
51.533814
30
0.0
40
0.300000
50
73.000000
51
270.000000
0
LINE
8
00_ALUMINIO
10
276.512224
20
51.820705
30
0.0
11
276.799115
21
51.732994
31
0.0
0
ARC
8
00_ALUMINIO
10
276.711404
20
51.446102
30
0.0
40
0.300000
50
51.176024
51
73.000000
0
LINE
8
00_ALUMINIO
10
276.899483
20
51.679825
30
0.0
11
278.542652
21
50.357550
31
0.0
0
ARC
8
00_ALUMINIO
10
278.417266
20
50.201735
30
0.0
40
0.200000
50
358.000000
51
51.176024
0
LINE
8
00_ALUMINIO
10
278.617144
20
50.194755
30
0.0
11
278.611715
21
50.039268
31
0.0
0
ARC
8
00_ALUMINIO
10
278.757247
20
50.034186
30
0.0
40
0.145621
50
178.000000
51
322.253920
0
LINE
8
00_ALUMINIO
10
278.872394
20
49.945043
30
0.0
11
280.936681
21
52.611484
31
0.0
0
ARC
8
00_ALUMINIO
10
280.651774
20
52.705440
30
0.0
40
0.300000
50
341.748585
51
87.394587
0
LINE
8
00_ALUMINIO
10
280.665411
20
53.005130
30
0.0
11
280.655159
21
53.005464
31
0.0
0
LINE
8
00_ALUMINIO
10
280.655159
20
53.005464
30
0.0
11
279.998537
21
53.024078
31
0.0
0
ARC
8
00_ALUMINIO
10
279.984369
20
52.524279
30
0.0
40
0.500000
50
88.376251
51
128.194227
0
ARC
8
00_ALUMINIO
10
278.438546
20
54.489077
30
0.0
40
2.000000
50
238.546382
51
308.194227
0
ARC
8
00_ALUMINIO
10
277.776073
20
53.414191
30
0.0
40
0.737384
50
225.954897
51
238.876443
0
LINE
8
00_ALUMINIO
10
277.263426
20
52.884166
30
0.0
11
276.618798
21
53.174990
31
0.0
0
ARC
8
00_ALUMINIO
10
276.486689
20
52.905644
30
0.0
40
0.300000
50
63.872968
51
90.000000
0
LINE
8
00_ALUMINIO
10
276.486689
20
53.205644
30
0.0
11
276.424512
21
53.205644
31
0.0
0
LINE
8
00_ALUMINIO
10
276.424512
20
53.205644
30
0.0
11
276.424512
21
56.960510
31
0.0
0
ARC
8
00_ALUMINIO
10
275.424512
20
56.960510
30
0.0
40
1.000000
50
0.000000
51
118.038289
0
ARC
8
00_ALUMINIO
10
295.716216
20
18.858813
30
0.0
40
44.168189
50
118.038289
51
180.000000
0
ARC
8
00_ALUMINIO
10
295.716216
20
18.858813
30
0.0
40
42.668189
50
120.326265
51
180.000000
0
ARC
8
00_ALUMINIO
10
295.716216
20
18.858813
30
0.0
40
42.668189
50
180.000000
51
239.673735
0
ARC
8
00_ALUMINIO
10
274.424512
20
-17.539257
30
0.0
40
0.500000
50
239.673735
51
0.000000
0
LINE
8
00_ALUMINIO
10
274.924512
20
-17.539257
30
0.0
11
274.924512
21
18.858813
31
0.0
0
LINE
8
00_ALUMINIO
10
274.924512
20
18.858813
30
0.0
11
274.924512
21
55.256884
31
0.0
0
ARC
8
00_ALUMINIO
10
274.424512
20
55.256884
30
0.0
40
0.500000
50
0.000000
51
120.326265
0
ARC
8
00_ALUMINIO
10
281.132808
20
18.858813
30
0.0
40
44.168189
50
298.038289
51
0.000000
0
ARC
8
00_ALUMINIO
10
301.424512
20
-19.242884
30
0.0
40
1.000000
50
180.000000
51
298.038289
0
LINE
8
00_ALUMINIO
10
300.424512
20
-19.242884
30
0.0
11
300.424512
21
-15.488018
31
0.0
0
LINE
8
00_ALUMINIO
10
300.424512
20
-15.488018
30
0.0
11
300.362335
21
-15.488018
31
0.0
0
ARC
8
00_ALUMINIO
10
300.362335
20
-15.188018
30
0.0
40
0.300000
50
243.872968
51
270.000000
0
LINE
8
00_ALUMINIO
10
300.230226
20
-15.457364
30
0.0
11
299.585599
21
-15.166539
31
0.0
0
ARC
8
00_ALUMINIO
10
299.072952
20
-15.696565
30
0.0
40
0.737384
50
45.954897
51
58.876443
0
ARC
8
00_ALUMINIO
10
298.410478
20
-16.771450
30
0.0
40
2.000000
50
58.546382
51
128.194227
0
ARC
8
00_ALUMINIO
10
296.864655
20
-14.806652
30
0.0
40
0.500000
50
268.376251
51
308.194227
0
LINE
8
00_ALUMINIO
10
296.850487
20
-15.306451
30
0.0
11
296.193866
21
-15.287838
31
0.0
0
LINE
8
00_ALUMINIO
10
296.193866
20
-15.287838
30
0.0
11
296.183613
21
-15.287503
31
0.0
0
ARC
8
00_ALUMINIO
10
296.197251
20
-14.987813
30
0.0
40
0.300000
50
161.748585
51
267.394588
0
LINE
8
00_ALUMINIO
10
295.912343
20
-14.893857
30
0.0
11
297.976631
21
-12.227416
31
0.0
0
ARC
8
00_ALUMINIO
10
298.091778
20
-12.316560
30
0.0
40
0.145621
50
358.000000
51
142.253920
0
LINE
8
00_ALUMINIO
10
298.237310
20
-12.321642
30
0.0
11
298.231880
21
-12.477129
31
0.0
0
ARC
8
00_ALUMINIO
10
298.431758
20
-12.484109
30
0.0
40
0.200000
50
178.000000
51
231.176024
0
LINE
8
00_ALUMINIO
10
298.306372
20
-12.639924
30
0.0
11
299.949542
21
-13.962199
31
0.0
0
ARC
8
00_ALUMINIO
10
300.137621
20
-13.728476
30
0.0
40
0.300000
50
231.176024
51
253.000000
0
LINE
8
00_ALUMINIO
10
300.049909
20
-14.015368
30
0.0
11
300.336801
21
-14.103079
31
0.0
0
ARC
8
00_ALUMINIO
10
300.424512
20
-13.816188
30
0.0
40
0.300000
50
253.000000
51
90.000000
0
LINE
8
00_ALUMINIO
10
300.424512
20
-13.516188
30
0.0
11
300.424512
21
-9.016188
31
0.0
0
ARC
8
00_ALUMINIO
10
300.224512
20
-9.016188
30
0.0
40
0.200000
50
0.000000
51
90.000000
0
LINE
8
00_ALUMINIO
10
300.224512
20
-8.816188
30
0.0
11
300.156623
21
-8.816188
31
0.0
0
ARC
8
00_ALUMINIO
10
300.156623
20
-9.116188
30
0.0
40
0.300000
50
90.000000
51
121.380132
0
LINE
8
00_ALUMINIO
10
300.000409
20
-8.860068
30
0.0
11
298.324416
21
-9.882301
31
0.0
0
ARC
8
00_ALUMINIO
10
298.124512
20
-9.888491
30
0.0
40
0.200000
50
180.000000
51
1.773628
0
LINE
8
00_ALUMINIO
10
297.924512
20
-9.888491
30
0.0
11
297.924512
21
-8.504711
31
0.0
0
ARC
8
00_ALUMINIO
10
298.124512
20
-8.504711
30
0.0
40
0.200000
50
118.305465
51
180.000000
0
LINE
8
00_ALUMINIO
10
298.029896
20
-8.328416
30
0.0
11
300.072891
21
-7.156161
31
0.0
0
ARC
8
00_ALUMINIO
10
299.724512
20
-6.549010
30
0.0
40
0.700000
50
299.846880
51
0.000000
0
LINE
8
00_ALUMINIO
10
300.424512
20
-6.549010
30
0.0
11
300.424512
21
18.858813
31
0.0
0
LINE
8
00_ALUMINIO
10
300.424512
20
18.858813
30
0.0
11
300.424512
21
44.266636
31
0.0
0
ARC
8
00_ALUMINIO
10
299.724512
20
44.266636
30
0.0
40
0.700000
50
0.000000
51
60.153120
0
LINE
8
00_ALUMINIO
10
300.072891
20
44.873787
30
0.0
11
298.029896
21
46.046042
31
0.0
0
ARC
8
00_ALUMINIO
10
298.124512
20
46.222337
30
0.0
40
0.200000
50
180.000000
51
241.694535
0
LINE
8
00_ALUMINIO
10
297.924512
20
46.222337
30
0.0
11
297.924512
21
47.606118
31
0.0
0
ARC
8
00_ALUMINIO
10
298.124512
20
47.606118
30
0.0
40
0.200000
50
358.226373
51
180.000000
0
LINE
8
00_ALUMINIO
10
298.324416
20
47.599927
30
0.0
11
300.000409
21
46.577695
31
0.0
0
ARC
8
00_ALUMINIO
10
300.156623
20
46.833814
30
0.0
40
0.300000
50
238.619868
51
270.000000
0
LINE
8
00_ALUMINIO
10
300.156623
20
46.533814
30
0.0
11
300.224512
21
46.533814
31
0.0
0
ARC
8
00_ALUMINIO
10
300.224512
20
46.733814
30
0.0
40
0.200000
50
270.000000
51
0.000000
0
LINE
8
00_ALUMINIO
10
300.424512
20
46.733814
30
0.0
11
300.424512
21
51.233814
31
0.0
0
ARC
8
00_ALUMINIO
10
300.424512
20
51.533814
30
0.0
40
0.300000
50
270.000000
51
107.000000
0
LINE
8
00_ALUMINIO
10
300.336801
20
51.820705
30
0.0
11
300.049909
21
51.732994
31
0.0
0
ARC
8
00_ALUMINIO
10
300.137621
20
51.446102
30
0.0
40
0.300000
50
107.000000
51
128.823976
0
LINE
8
00_ALUMINIO
10
299.949542
20
51.679825
30
0.0
11
298.306372
21
50.357550
31
0.0
0
ARC
8
00_ALUMINIO
10
298.431758
20
50.201735
30
0.0
40
0.200000
50
128.823976
51
182.000000
0
LINE
8
00_ALUMINIO
10
298.231880
20
50.194755
30
0.0
11
298.237310
21
50.039268
31
0.0
0
ARC
8
00_ALUMINIO
10
298.091778
20
50.034186
30
0.0
40
0.145621
50
217.746080
51
2.000000
0
LINE
8
00_ALUMINIO
10
297.976631
20
49.945043
30
0.0
11
295.912343
21
52.611484
31
0.0
0
ARC
8
00_ALUMINIO
10
296.197251
20
52.705440
30
0.0
40
0.300000
50
92.605413
51
198.251415
0
LINE
8
00_ALUMINIO
10
296.183613
20
53.005130
30
0.0
11
296.193866
21
53.005464
31
0.0
0
LINE
8
00_ALUMINIO
10
296.193866
20
53.005464
30
0.0
11
296.850487
21
53.024078
31
0.0
0
ARC
8
00_ALUMINIO
10
296.864655
20
52.524279
30
0.0
40
0.500000
50
51.805773
51
91.623749
0
ARC
8
00_ALUMINIO
10
298.410478
20
54.489077
30
0.0
40
2.000000
50
231.805773
51
301.453618
0
ARC
8
00_ALUMINIO
10
299.072952
20
53.414191
30
0.0
40
0.737384
50
301.123557
51
314.045103
0
LINE
8
00_ALUMINIO
10
299.585599
20
52.884166
30
0.0
11
300.230226
21
53.174990
31
0.0
0
ARC
8
00_ALUMINIO
10
300.362335
20
52.905644
30
0.0
40
0.300000
50
90.000000
51
116.127032
0
LINE
8
00_ALUMINIO
10
300.362335
20
53.205644
30
0.0
11
300.424512
21
53.205644
31
0.0
0
LINE
8
00_ALUMINIO
10
300.424512
20
53.205644
30
0.0
11
300.424512
21
56.960510
31
0.0
0
ARC
8
00_ALUMINIO
10
301.424512
20
56.960510
30
0.0
40
1.000000
50
61.961711
51
180.000000
0
ARC
8
00_ALUMINIO
10
281.132808
20
18.858813
30
0.0
40
44.168189
50
0.000000
51
61.961711
0
ARC
8
00_ALUMINIO
10
281.132808
20
18.858813
30
0.0
40
42.668189
50
0.000000
51
59.673735
0
ARC
8
00_ALUMINIO
10
281.132808
20
18.858813
30
0.0
40
42.668189
50
300.326265
51
0.000000
0
ARC
8
00_ALUMINIO
10
302.424512
20
-17.539257
30
0.0
40
0.500000
50
180.000000
51
300.326265
0
LINE
8
00_ALUMINIO
10
301.924512
20
-17.539257
30
0.0
11
301.924512
21
18.858813
31
0.0
0
LINE
8
00_ALUMINIO
10
301.924512
20
18.858813
30
0.0
11
301.924512
21
55.256884
31
0.0
0
ARC
8
00_ALUMINIO
10
302.424512
20
55.256884
30
0.0
40
0.500000
50
59.673735
51
180.000000
0
LINE
8
00_POLIAMIDAS
10
276.524512
20
49.773045
30
0.0
11
277.457524
21
50.706057
31
0.0
0
LINE
8
00_POLIAMIDAS
10
276.424512
20
47.427981
30
0.0
11
277.218500
21
48.221969
31
0.0
0
LINE
8
00_POLIAMIDAS
10
280.208404
20
51.211873
30
0.0
11
281.916886
21
52.920355
31
0.0
0
LINE
8
00_POLIAMIDAS
10
277.772898
20
48.776366
30
0.0
11
278.921095
21
49.924564
31
0.0
0
LINE
8
00_POLIAMIDAS
10
278.958685
20
47.717090
30
0.0
11
284.161950
21
52.920355
31
0.0
0
LINE
8
00_POLIAMIDAS
10
284.407014
20
50.920355
30
0.0
11
286.407014
21
52.920355
31
0.0
0
LINE
8
00_POLIAMIDAS
10
286.652078
20
50.920355
30
0.0
11
288.652078
21
52.920355
31
0.0
0
LINE
8
00_POLIAMIDAS
10
288.897142
20
50.920355
30
0.0
11
290.897142
21
52.920355
31
0.0
0
LINE
8
00_POLIAMIDAS
10
291.142206
20
50.920355
30
0.0
11
293.142206
21
52.920355
31
0.0
0
LINE
8
00_POLIAMIDAS
10
293.387270
20
50.920355
30
0.0
11
295.371154
21
52.904239
31
0.0
0
LINE
8
00_POLIAMIDAS
10
294.916729
20
50.204749
30
0.0
11
296.355867
21
51.643888
31
0.0
0
LINE
8
00_POLIAMIDAS
10
295.805569
20
48.848526
30
0.0
11
297.247772
21
50.290729
31
0.0
0
LINE
8
00_POLIAMIDAS
10
296.933964
20
47.731856
30
0.0
11
300.112634
21
50.910527
31
0.0
0
LINE
8
00_POLIAMIDAS
10
298.751766
20
47.304594
30
0.0
11
299.667566
21
48.220395
31
0.0
0
LINE
8
00_POLIAMIDAS
10
276.790468
20
-10.577728
30
0.0
11
277.897020
21
-9.471175
31
0.0
0
LINE
8
00_POLIAMIDAS
10
276.534766
20
-13.078494
30
0.0
11
279.610532
21
-10.002728
31
0.0
0
LINE
8
00_POLIAMIDAS
10
279.464653
20
-12.393671
30
0.0
11
280.918336
21
-10.939988
31
0.0
0
LINE
8
00_POLIAMIDAS
10
280.367606
20
-13.735782
30
0.0
11
281.807176
21
-12.296212
31
0.0
0
LINE
8
00_POLIAMIDAS
10
281.271826
20
-15.076626
30
0.0
11
283.145724
21
-13.202728
31
0.0
0
LINE
8
00_POLIAMIDAS
10
283.390788
20
-15.202728
30
0.0
11
285.390788
21
-13.202728
31
0.0
0
LINE
8
00_POLIAMIDAS
10
285.635852
20
-15.202728
30
0.0
11
287.635852
21
-13.202728
31
0.0
0
LINE
8
00_POLIAMIDAS
10
287.880916
20
-15.202728
30
0.0
11
289.880916
21
-13.202728
31
0.0
0
LINE
8
00_POLIAMIDAS
10
290.125980
20
-15.202728
30
0.0
11
292.125980
21
-13.202728
31
0.0
0
LINE
8
00_POLIAMIDAS
10
292.371044
20
-15.202728
30
0.0
11
297.571044
21
-10.002728
31
0.0
0
LINE
8
00_POLIAMIDAS
10
294.616108
20
-15.202728
30
0.0
11
297.251714
21
-12.567122
31
0.0
0
LINE
8
00_POLIAMIDAS
10
297.536991
20
-12.281845
30
0.0
11
300.424426
21
-9.394411
31
0.0
0
LINE
8
00_POLIAMIDAS
10
299.191262
20
-12.872638
30
0.0
11
300.310277
21
-11.753623
31
0.0
0
LINE
8
00_POLIAMIDAS
10
277.741671
20
-12.824115
30
0.0
11
276.593858
21
-11.676303
31
0.0
0
LINE
8
00_POLIAMIDAS
10
282.365348
20
-15.202728
30
0.0
11
276.443517
21
-9.280897
31
0.0
0
LINE
8
00_POLIAMIDAS
10
284.610412
20
-15.202728
30
0.0
11
282.514778
21
-13.107094
31
0.0
0
LINE
8
00_POLIAMIDAS
10
282.003589
20
-12.595906
30
0.0
11
279.410412
21
-10.002728
31
0.0
0
LINE
8
00_POLIAMIDAS
10
286.855476
20
-15.202728
30
0.0
11
284.855476
21
-13.202728
31
0.0
0
LINE
8
00_POLIAMIDAS
10
289.100540
20
-15.202728
30
0.0
11
287.100540
21
-13.202728
31
0.0
0
LINE
8
00_POLIAMIDAS
10
291.345604
20
-15.202728
30
0.0
11
289.345604
21
-13.202728
31
0.0
0
LINE
8
00_POLIAMIDAS
10
293.590668
20
-15.202728
30
0.0
11
291.590668
21
-13.202728
31
0.0
0
LINE
8
00_POLIAMIDAS
10
295.641129
20
-15.008125
30
0.0
11
293.835732
21
-13.202728
31
0.0
0
LINE
8
00_POLIAMIDAS
10
296.534029
20
-13.655962
30
0.0
11
295.094279
21
-12.216211
31
0.0
0
LINE
8
00_POLIAMIDAS
10
297.456002
20
-12.332870
30
0.0
11
295.983119
21
-10.859988
31
0.0
0
LINE
8
00_POLIAMIDAS
10
300.370923
20
-13.002727
30
0.0
11
297.370924
21
-10.002728
31
0.0
0
LINE
8
00_POLIAMIDAS
10
300.182421
20
-10.569161
30
0.0
11
299.035913
21
-9.422653
31
0.0
0
LINE
8
00_POLIAMIDAS
10
278.181168
20
47.353117
30
0.0
11
277.300544
21
48.233740
31
0.0
0
LINE
8
00_POLIAMIDAS
10
280.024438
20
47.754910
30
0.0
11
276.858994
21
50.920355
31
0.0
0
LINE
8
00_POLIAMIDAS
10
281.095886
20
48.928527
30
0.0
11
279.653864
21
50.370549
31
0.0
0
LINE
8
00_POLIAMIDAS
10
281.984726
20
50.284750
30
0.0
11
280.545769
21
51.723708
31
0.0
0
LINE
8
00_POLIAMIDAS
10
283.594186
20
50.920355
30
0.0
11
281.594277
21
52.920264
31
0.0
0
LINE
8
00_POLIAMIDAS
10
285.839250
20
50.920355
30
0.0
11
283.839250
21
52.920355
31
0.0
0
LINE
8
00_POLIAMIDAS
10
288.084314
20
50.920355
30
0.0
11
286.084314
21
52.920355
31
0.0
0
LINE
8
00_POLIAMIDAS
10
290.329378
20
50.920355
30
0.0
11
288.329378
21
52.920355
31
0.0
0
LINE
8
00_POLIAMIDAS
10
292.574442
20
50.920355
30
0.0
11
290.574442
21
52.920355
31
0.0
0
LINE
8
00_POLIAMIDAS
10
298.055542
20
47.684319
30
0.0
11
292.819506
21
52.920355
31
0.0
0
LINE
8
00_POLIAMIDAS
10
300.424512
20
47.560413
30
0.0
11
299.758643
21
48.226282
31
0.0
0
LINE
8
00_POLIAMIDAS
10
296.384544
20
51.600381
30
0.0
11
295.064570
21
52.920355
31
0.0
0
LINE
8
00_POLIAMIDAS
10
299.080440
20
48.904485
30
0.0
11
298.038401
21
49.946524
31
0.0
0
LINE
8
00_POLIAMIDAS
10
300.324512
20
49.905477
30
0.0
11
299.475409
21
50.754579
31
0.0
0
LINE
8
00_POLIAMIDAS
10
295.245234
20
-15.202728
30
0.0
11
288.424512
21
-15.202728
31
0.0
0
LINE
8
00_POLIAMIDAS
10
288.424512
20
-15.202728
30
0.0
11
281.603791
21
-15.202728
31
0.0
0
ARC
8
00_POLIAMIDAS
10
281.603791
20
-14.702728
30
0.0
40
0.500000
50
213.390000
51
270.000000
0
LINE
8
00_POLIAMIDAS
10
281.186319
20
-14.977896
30
0.0
11
279.555815
21
-12.504168
31
0.0
0
ARC
8
00_POLIAMIDAS
10
278.996098
20
-12.873093
30
0.0
40
0.670365
50
33.390000
51
120.039706
0
LINE
8
00_POLIAMIDAS
10
278.660513
20
-12.292772
30
0.0
11
277.129362
21
-13.178198
31
0.0
0
LINE
8
00_POLIAMIDAS
10
277.033392
20
-13.202728
30
0.0
11
277.129362
21
-13.178198
31
0.0
0
LINE
8
00_POLIAMIDAS
10
277.033392
20
-13.202728
30
0.0
11
276.824512
21
-13.202728
31
0.0
0
ARC
8
00_POLIAMIDAS
10
276.824512
20
-12.802728
30
0.0
40
0.400000
50
180.000000
51
270.000000
0
LINE
8
00_POLIAMIDAS
10
276.424512
20
-12.802728
30
0.0
11
276.424512
21
-12.202728
31
0.0
0
LINE
8
00_POLIAMIDAS
10
276.424512
20
-12.202728
30
0.0
11
276.524512
21
-12.202728
31
0.0
0
LINE
8
00_POLIAMIDAS
10
276.524512
20
-12.202728
30
0.0
11
276.524512
21
-11.827728
31
0.0
0
ARC
8
00_POLIAMIDAS
10
276.724512
20
-11.827728
30
0.0
40
0.200000
50
90.000000
51
180.000000
0
LINE
8
00_POLIAMIDAS
10
276.724512
20
-11.627728
30
0.0
11
276.884038
21
-11.627728
31
0.0
0
ARC
8
00_POLIAMIDAS
10
277.174512
20
-11.102728
30
0.0
40
0.600000
50
241.044976
51
0.000000
0
ARC
8
00_POLIAMIDAS
10
277.174512
20
-11.102728
30
0.0
40
0.600000
50
0.000000
51
118.955024
0
LINE
8
00_POLIAMIDAS
10
276.884038
20
-10.577728
30
0.0
11
276.724512
21
-10.577728
31
0.0
0
ARC
8
00_POLIAMIDAS
10
276.724512
20
-10.377728
30
0.0
40
0.200000
50
180.000000
51
270.000000
0
LINE
8
00_POLIAMIDAS
10
276.524512
20
-10.377728
30
0.0
11
276.524512
21
-10.002728
31
0.0
0
LINE
8
00_POLIAMIDAS
10
276.524512
20
-10.002728
30
0.0
11
276.424512
21
-10.002728
31
0.0
0
LINE
8
00_POLIAMIDAS
10
276.424512
20
-10.002728
30
0.0
11
276.424512
21
-9.402728
31
0.0
0
ARC
8
00_POLIAMIDAS
10
276.824512
20
-9.402728
30
0.0
40
0.400000
50
90.000000
51
180.000000
0
LINE
8
00_POLIAMIDAS
10
276.824512
20
-9.002728
30
0.0
11
277.033392
21
-9.002728
31
0.0
0
LINE
8
00_POLIAMIDAS
10
277.129362
20
-9.027258
30
0.0
11
277.033392
21
-9.002728
31
0.0
0
LINE
8
00_POLIAMIDAS
10
277.129362
20
-9.027258
30
0.0
11
278.630401
21
-9.895271
31
0.0
0
ARC
8
00_POLIAMIDAS
10
279.030881
20
-9.202728
30
0.0
40
0.800000
50
239.960294
51
270.000000
0
LINE
8
00_POLIAMIDAS
10
279.030881
20
-10.002728
30
0.0
11
279.763828
21
-10.002728
31
0.0
0
ARC
8
00_POLIAMIDAS
10
279.763828
20
-11.002728
30
0.0
40
1.000000
50
33.240000
51
90.000000
0
LINE
8
00_POLIAMIDAS
10
280.600210
20
-10.454581
30
0.0
11
282.105153
21
-12.750875
31
0.0
0
ARC
8
00_POLIAMIDAS
10
282.941535
20
-12.202728
30
0.0
40
1.000000
50
213.240000
51
270.000000
0
LINE
8
00_POLIAMIDAS
10
282.941535
20
-13.202728
30
0.0
11
288.424512
21
-13.202728
31
0.0
0
LINE
8
00_POLIAMIDAS
10
288.424512
20
-13.202728
30
0.0
11
293.756928
21
-13.202728
31
0.0
0
LINE
8
00_POLIAMIDAS
10
293.756928
20
-13.202728
30
0.0
11
293.907489
21
-13.202728
31
0.0
0
ARC
8
00_POLIAMIDAS
10
293.907489
20
-12.202728
30
0.0
40
1.000000
50
270.000000
51
326.760000
0
LINE
8
00_POLIAMIDAS
10
294.743871
20
-12.750875
30
0.0
11
296.248815
21
-10.454581
31
0.0
0
ARC
8
00_POLIAMIDAS
10
297.085196
20
-11.002728
30
0.0
40
1.000000
50
90.000000
51
146.760000
0
LINE
8
00_POLIAMIDAS
10
297.085196
20
-10.002728
30
0.0
11
297.818143
21
-10.002728
31
0.0
0
ARC
8
00_POLIAMIDAS
10
297.818143
20
-9.202728
30
0.0
40
0.800000
50
270.000000
51
300.039706
0
LINE
8
00_POLIAMIDAS
10
298.218623
20
-9.895271
30
0.0
11
299.719662
21
-9.027258
31
0.0
0
LINE
8
00_POLIAMIDAS
10
299.815632
20
-9.002728
30
0.0
11
299.719662
21
-9.027258
31
0.0
0
LINE
8
00_POLIAMIDAS
10
299.815632
20
-9.002728
30
0.0
11
300.024512
21
-9.002728
31
0.0
0
ARC
8
00_POLIAMIDAS
10
300.024512
20
-9.402728
30
0.0
40
0.400000
50
0.000000
51
90.000000
0
LINE
8
00_POLIAMIDAS
10
300.424512
20
-9.402728
30
0.0
11
300.424512
21
-10.002728
31
0.0
0
LINE
8
00_POLIAMIDAS
10
300.424512
20
-10.002728
30
0.0
11
300.324512
21
-10.002728
31
0.0
0
LINE
8
00_POLIAMIDAS
10
300.324512
20
-10.002728
30
0.0
11
300.324512
21
-10.377728
31
0.0
0
ARC
8
00_POLIAMIDAS
10
300.124512
20
-10.377728
30
0.0
40
0.200000
50
270.000000
51
0.000000
0
LINE
8
00_POLIAMIDAS
10
300.124512
20
-10.577728
30
0.0
11
299.964986
21
-10.577728
31
0.0
0
ARC
8
00_POLIAMIDAS
10
299.674512
20
-11.102728
30
0.0
40
0.600000
50
61.044976
51
298.955024
0
LINE
8
00_POLIAMIDAS
10
299.964986
20
-11.627728
30
0.0
11
300.124512
21
-11.627728
31
0.0
0
ARC
8
00_POLIAMIDAS
10
300.124512
20
-11.827728
30
0.0
40
0.200000
50
0.000000
51
90.000000
0
LINE
8
00_POLIAMIDAS
10
300.324512
20
-11.827728
30
0.0
11
300.324512
21
-12.202728
31
0.0
0
LINE
8
00_POLIAMIDAS
10
300.324512
20
-12.202728
30
0.0
11
300.424512
21
-12.202728
31
0.0
0
LINE
8
00_POLIAMIDAS
10
300.424512
20
-12.202728
30
0.0
11
300.424512
21
-12.802728
31
0.0
0
ARC
8
00_POLIAMIDAS
10
300.024512
20
-12.802728
30
0.0
40
0.400000
50
270.000000
51
0.000000
0
LINE
8
00_POLIAMIDAS
10
300.024512
20
-13.202728
30
0.0
11
299.815632
21
-13.202728
31
0.0
0
LINE
8
00_POLIAMIDAS
10
299.719662
20
-13.178198
30
0.0
11
299.815632
21
-13.202728
31
0.0
0
LINE
8
00_POLIAMIDAS
10
299.719662
20
-13.178198
30
0.0
11
298.188511
21
-12.292772
31
0.0
0
ARC
8
00_POLIAMIDAS
10
297.852926
20
-12.873093
30
0.0
40
0.670365
50
59.960294
51
146.610000
0
LINE
8
00_POLIAMIDAS
10
297.293209
20
-12.504168
30
0.0
11
295.662706
21
-14.977896
31
0.0
0
ARC
8
00_POLIAMIDAS
10
295.245234
20
-14.702728
30
0.0
40
0.500000
50
270.000000
51
326.610000
0
ARC
8
00_POLIAMIDAS
10
293.907489
20
49.920355
30
0.0
40
1.000000
50
33.240000
51
90.000000
0
LINE
8
00_POLIAMIDAS
10
294.743871
20
50.468502
30
0.0
11
296.248815
21
48.172207
31
0.0
0
ARC
8
00_POLIAMIDAS
10
297.085196
20
48.720355
30
0.0
40
1.000000
50
213.240000
51
270.000000
0
LINE
8
00_POLIAMIDAS
10
297.085196
20
47.720355
30
0.0
11
297.818143
21
47.720355
31
0.0
0
ARC
8
00_POLIAMIDAS
10
297.818143
20
46.920355
30
0.0
40
0.800000
50
59.960294
51
90.000000
0
LINE
8
00_POLIAMIDAS
10
298.218623
20
47.612897
30
0.0
11
299.719662
21
46.744885
31
0.0
0
LINE
8
00_POLIAMIDAS
10
299.719662
20
46.744885
30
0.0
11
299.815632
21
46.720355
31
0.0
0
LINE
8
00_POLIAMIDAS
10
299.815632
20
46.720355
30
0.0
11
300.024512
21
46.720355
31
0.0
0
ARC
8
00_POLIAMIDAS
10
300.024512
20
47.120355
30
0.0
40
0.400000
50
270.000000
51
0.000000
0
LINE
8
00_POLIAMIDAS
10
300.424512
20
47.120355
30
0.0
11
300.424512
21
47.720355
31
0.0
0
LINE
8
00_POLIAMIDAS
10
300.424512
20
47.720355
30
0.0
11
300.324512
21
47.720355
31
0.0
0
LINE
8
00_POLIAMIDAS
10
300.324512
20
47.720355
30
0.0
11
300.324512
21
48.095355
31
0.0
0
ARC
8
00_POLIAMIDAS
10
300.124512
20
48.095355
30
0.0
40
0.200000
50
0.000000
51
90.000000
0
LINE
8
00_POLIAMIDAS
10
300.124512
20
48.295355
30
0.0
11
299.964986
21
48.295355
31
0.0
0
ARC
8
00_POLIAMIDAS
10
299.674512
20
48.820355
30
0.0
40
0.600000
50
61.044976
51
298.955024
0
LINE
8
00_POLIAMIDAS
10
299.964986
20
49.345355
30
0.0
11
300.124512
21
49.345355
31
0.0
0
ARC
8
00_POLIAMIDAS
10
300.124512
20
49.545355
30
0.0
40
0.200000
50
270.000000
51
0.000000
0
LINE
8
00_POLIAMIDAS
10
300.324512
20
49.545355
30
0.0
11
300.324512
21
49.920355
31
0.0
0
LINE
8
00_POLIAMIDAS
10
300.324512
20
49.920355
30
0.0
11
300.424512
21
49.920355
31
0.0
0
LINE
8
00_POLIAMIDAS
10
300.424512
20
49.920355
30
0.0
11
300.424512
21
50.520355
31
0.0
0
ARC
8
00_POLIAMIDAS
10
300.024512
20
50.520355
30
0.0
40
0.400000
50
0.000000
51
90.000000
0
LINE
8
00_POLIAMIDAS
10
300.024512
20
50.920355
30
0.0
11
299.815632
21
50.920355
31
0.0
0
LINE
8
00_POLIAMIDAS
10
299.815632
20
50.920355
30
0.0
11
299.719662
21
50.895824
31
0.0
0
LINE
8
00_POLIAMIDAS
10
299.719662
20
50.895824
30
0.0
11
298.188511
21
50.010399
31
0.0
0
ARC
8
00_POLIAMIDAS
10
297.852926
20
50.590720
30
0.0
40
0.670365
50
213.390000
51
300.039706
0
LINE
8
00_POLIAMIDAS
10
297.293209
20
50.221794
30
0.0
11
295.662706
21
52.695522
31
0.0
0
ARC
8
00_POLIAMIDAS
10
295.245234
20
52.420355
30
0.0
40
0.500000
50
33.390000
51
90.000000
0
LINE
8
00_POLIAMIDAS
10
295.245234
20
52.920355
30
0.0
11
288.424512
21
52.920355
31
0.0
0
LINE
8
00_POLIAMIDAS
10
288.424512
20
52.920355
30
0.0
11
281.603791
21
52.920355
31
0.0
0
ARC
8
00_POLIAMIDAS
10
281.603791
20
52.420355
30
0.0
40
0.500000
50
90.000000
51
146.610000
0
LINE
8
00_POLIAMIDAS
10
281.186319
20
52.695522
30
0.0
11
279.555815
21
50.221794
31
0.0
0
ARC
8
00_POLIAMIDAS
10
278.996098
20
50.590720
30
0.0
40
0.670365
50
239.960294
51
326.610000
0
LINE
8
00_POLIAMIDAS
10
278.660513
20
50.010399
30
0.0
11
277.129362
21
50.895824
31
0.0
0
LINE
8
00_POLIAMIDAS
10
277.129362
20
50.895824
30
0.0
11
277.033392
21
50.920355
31
0.0
0
LINE
8
00_POLIAMIDAS
10
277.033392
20
50.920355
30
0.0
11
276.824512
21
50.920355
31
0.0
0
ARC
8
00_POLIAMIDAS
10
276.824512
20
50.520355
30
0.0
40
0.400000
50
90.000000
51
180.000000
0
LINE
8
00_POLIAMIDAS
10
276.424512
20
50.520355
30
0.0
11
276.424512
21
49.920355
31
0.0
0
LINE
8
00_POLIAMIDAS
10
276.424512
20
49.920355
30
0.0
11
276.524512
21
49.920355
31
0.0
0
LINE
8
00_POLIAMIDAS
10
276.524512
20
49.920355
30
0.0
11
276.524512
21
49.545355
31
0.0
0
ARC
8
00_POLIAMIDAS
10
276.724512
20
49.545355
30
0.0
40
0.200000
50
180.000000
51
270.000000
0
LINE
8
00_POLIAMIDAS
10
276.724512
20
49.345355
30
0.0
11
276.884038
21
49.345355
31
0.0
0
ARC
8
00_POLIAMIDAS
10
277.174512
20
48.820355
30
0.0
40
0.600000
50
0.000000
51
118.955024
0
ARC
8
00_POLIAMIDAS
10
277.174512
20
48.820355
30
0.0
40
0.600000
50
241.044976
51
0.000000
0
LINE
8
00_POLIAMIDAS
10
276.884038
20
48.295355
30
0.0
11
276.724512
21
48.295355
31
0.0
0
ARC
8
00_POLIAMIDAS
10
276.724512
20
48.095355
30
0.0
40
0.200000
50
90.000000
51
180.000000
0
LINE
8
00_POLIAMIDAS
10
276.524512
20
48.095355
30
0.0
11
276.524512
21
47.720355
31
0.0
0
LINE
8
00_POLIAMIDAS
10
276.524512
20
47.720355
30
0.0
11
276.424512
21
47.720355
31
0.0
0
LINE
8
00_POLIAMIDAS
10
276.424512
20
47.720355
30
0.0
11
276.424512
21
47.120355
31
0.0
0
ARC
8
00_POLIAMIDAS
10
276.824512
20
47.120355
30
0.0
40
0.400000
50
180.000000
51
270.000000
0
LINE
8
00_POLIAMIDAS
10
276.824512
20
46.720355
30
0.0
11
277.033392
21
46.720355
31
0.0
0
LINE
8
00_POLIAMIDAS
10
277.033392
20
46.720355
30
0.0
11
277.129362
21
46.744885
31
0.0
0
LINE
8
00_POLIAMIDAS
10
277.129362
20
46.744885
30
0.0
11
278.630401
21
47.612897
31
0.0
0
ARC
8
00_POLIAMIDAS
10
279.030881
20
46.920355
30
0.0
40
0.800000
50
90.000000
51
120.039706
0
LINE
8
00_POLIAMIDAS
10
279.030881
20
47.720355
30
0.0
11
279.763828
21
47.720355
31
0.0
0
ARC
8
00_POLIAMIDAS
10
279.763828
20
48.720355
30
0.0
40
1.000000
50
270.000000
51
326.760000
0
LINE
8
00_POLIAMIDAS
10
280.600210
20
48.172207
30
0.0
11
282.105153
21
50.468502
31
0.0
0
ARC
8
00_POLIAMIDAS
10
282.941535
20
49.920355
30
0.0
40
1.000000
50
90.000000
51
146.760000
0
LINE
8
00_POLIAMIDAS
10
282.941535
20
50.920355
30
0.0
11
288.424512
21
50.920355
31
0.0
0
LINE
8
00_POLIAMIDAS
10
288.424512
20
50.920355
30
0.0
11
293.756928
21
50.920355
31
0.0
0
LINE
8
00_POLIAMIDAS
10
293.756928
20
50.920355
30
0.0
11
293.907489
21
50.920355
31
0.0
0
ATTDEF
8
0
10
0.000000
20
0.000000
30
0.0
40
3.5
1

3

2
PANE_WIDTH:0
70
0
0
ATTDEF
8
0
10
0.000000
20
0.000000
30
0.0
40
3.5
1

3

2
MIN_VETRO:0
70
0
0
ATTDEF
8
0
10
0.000000
20
0.000000
30
0.0
40
3.5
1

3

2
MAX_VETRO:0
70
0
0
ATTDEF
8
0
10
0.000000
20
0.000000
30
0.0
40
3.5
1

3

2
JX:0
70
0
0
ATTDEF
8
0
10
0.000000
20
0.000000
30
0.0
40
3.5
1

3

2
WX:0
70
0
0
ATTDEF
8
0
10
0.000000
20
0.000000
30
0.0
40
3.5
1

3

2
JY:0
70
0
0
ATTDEF
8
0
10
0.000000
20
0.000000
30
0.0
40
3.5
1

3

2
WY:0
70
0
0
ATTDEF
8
0
10
0.000000
20
0.000000
30
0.0
40
3.5
1

3

2
DESC:Esquinero regulable
70
0
0
ATTDEF
8
0
10
0.000000
20
0.000000
30
0.0
40
3.5
1

3

2
DENS:1.7066
70
0
0
ATTDEF
8
0
10
0.000000
20
0.000000
30
0.0
40
3.5
1

3

2
TDEV:74.14
70
0
0
ATTDEF
8
0
10
0.000000
20
0.000000
30
0.0
40
3.5
1

3

2
TDEV2:0
70
0
0
ATTDEF
8
0
10
0.000000
20
0.000000
30
0.0
40
3.5
1

3

2
TDEV3:0
70
0
0
ATTDEF
8
0
10
0.000000
20
0.000000
30
0.0
40
3.5
1

3

2
TDEV4:0
70
0
0
ATTDEF
8
0
10
0.000000
20
0.000000
30
0.0
40
3.5
1

3

2
TDEV5:0
70
0
0
ATTDEF
8
0
10
0.000000
20
0.000000
30
0.0
40
3.5
1

3

2
PANE_WIDTH:0
70
0
0
ATTDEF
8
0
10
0.000000
20
0.000000
30
0.0
40
3.5
1

3

2
MIN_VETRO:0
70
0
0
ATTDEF
8
0
10
0.000000
20
0.000000
30
0.0
40
3.5
1

3

2
MAX_VETRO:0
70
0
0
ATTDEF
8
0
10
0.000000
20
0.000000
30
0.0
40
3.5
1

3

2
JX:0
70
0
0
ATTDEF
8
0
10
0.000000
20
0.000000
30
0.0
40
3.5
1

3

2
WX:0
70
0
0
ATTDEF
8
0
10
0.000000
20
0.000000
30
0.0
40
3.5
1

3

2
JY:0
70
0
0
ATTDEF
8
0
10
0.000000
20
0.000000
30
0.0
40
3.5
1

3

2
WY:0
70
0
0
ENDSEC
0
EOF
