0
SECTION
2
ENTITIES
0
LINE
8
00_Gris
10
2805.039874
20
1300.449027
30
0.0
11
2805.897178
21
1301.306331
31
0.0
0
LINE
8
00_Gris
10
2804.686491
20
1297.850580
30
0.0
11
2810.785467
21
1303.949556
31
0.0
0
LINE
8
00_Gris
10
2813.315081
20
1306.479170
30
0.0
11
2814.185467
21
1307.349556
31
0.0
0
LINE
8
00_Gris
10
2807.874862
20
1298.793887
30
0.0
11
2808.893658
21
1299.812683
31
0.0
0
LINE
8
00_Gris
10
2815.230532
20
1306.149556
30
0.0
11
2815.795932
21
1306.714957
31
0.0
0
LINE
8
00_Gris
10
2811.430532
20
1302.349556
30
0.0
11
2814.515081
21
1305.434106
31
0.0
0
LINE
8
00_Gris
10
2813.675596
20
1302.349556
30
0.0
11
2815.275596
21
1303.949556
31
0.0
0
LINE
8
00_Gris
10
2815.920660
20
1302.349556
30
0.0
11
2817.520660
21
1303.949556
31
0.0
0
LINE
8
00_Gris
10
2821.315081
20
1307.743978
30
0.0
11
2822.270660
21
1308.699556
31
0.0
0
LINE
8
00_Gris
10
2818.165724
20
1302.349556
30
0.0
11
2819.765724
21
1303.949556
31
0.0
0
LINE
8
00_Gris
10
2821.315081
20
1305.498914
30
0.0
11
2823.865402
21
1308.049235
31
0.0
0
LINE
8
00_Gris
10
2820.410788
20
1302.349556
30
0.0
11
2822.815081
21
1304.753850
31
0.0
0
LINE
8
00_Gris
10
2822.655852
20
1302.349556
30
0.0
11
2824.255852
21
1303.949556
31
0.0
0
LINE
8
00_Gris
10
2827.415081
20
1307.108786
30
0.0
11
2829.005852
21
1308.699556
31
0.0
0
LINE
8
00_Gris
10
2824.900916
20
1302.349556
30
0.0
11
2826.500916
21
1303.949556
31
0.0
0
LINE
8
00_Gris
10
2828.815081
20
1306.263722
30
0.0
11
2830.315081
21
1307.763722
31
0.0
0
LINE
8
00_Gris
10
2827.145980
20
1302.349556
30
0.0
11
2830.315081
21
1305.518658
31
0.0
0
LINE
8
00_Gris
10
2829.391044
20
1302.349556
30
0.0
11
2830.991044
21
1303.949556
31
0.0
0
LINE
8
00_Gris
10
2804.343213
20
1275.056662
30
0.0
11
2805.124744
21
1275.838193
31
0.0
0
LINE
8
00_Gris
10
2831.636108
20
1302.349556
30
0.0
11
2833.236108
21
1303.949556
31
0.0
0
LINE
8
00_Gris
10
2804.415081
20
1272.883466
30
0.0
11
2804.885360
21
1273.353745
31
0.0
0
LINE
8
00_Gris
10
2833.392054
20
1301.860439
30
0.0
11
2834.846727
21
1303.315112
31
0.0
0
LINE
8
00_Gris
10
2805.637532
20
1274.105917
30
0.0
11
2806.583825
21
1275.052210
31
0.0
0
LINE
8
00_Gris
10
2806.575604
20
1272.798925
30
0.0
11
2808.425434
21
1274.648755
31
0.0
0
LINE
8
00_Gris
10
2834.284850
20
1300.508170
30
0.0
11
2835.730658
21
1301.953978
31
0.0
0
LINE
8
00_Gris
10
2807.877461
20
1271.855718
30
0.0
11
2809.323269
21
1273.301526
31
0.0
0
LINE
8
00_Gris
10
2835.178042
20
1299.156298
30
0.0
11
2836.985732
21
1300.963988
31
0.0
0
LINE
8
00_Gris
10
2808.761392
20
1270.494584
30
0.0
11
2810.244111
21
1271.977304
31
0.0
0
LINE
8
00_Gris
10
2839.216372
20
1300.949565
30
0.0
11
2839.315073
21
1301.048265
31
0.0
0
LINE
8
00_Gris
10
2836.999326
20
1298.732518
30
0.0
11
2837.980635
21
1299.713827
31
0.0
0
LINE
8
00_Gris
10
2838.700810
20
1300.434003
30
0.0
11
2839.215081
21
1300.948274
31
0.0
0
LINE
8
00_Gris
10
2810.338067
20
1269.826196
30
0.0
11
2812.138067
21
1271.626196
31
0.0
0
LINE
8
00_Gris
10
2838.470162
20
1297.958290
30
0.0
11
2839.253679
21
1298.741807
31
0.0
0
LINE
8
00_Gris
10
2812.583131
20
1269.826196
30
0.0
11
2814.383131
21
1271.626196
31
0.0
0
LINE
8
00_Gris
10
2814.828195
20
1269.826196
30
0.0
11
2816.628195
21
1271.626196
31
0.0
0
LINE
8
00_Gris
10
2817.073259
20
1269.826196
30
0.0
11
2818.873259
21
1271.626196
31
0.0
0
LINE
8
00_Gris
10
2819.318323
20
1269.826196
30
0.0
11
2821.118323
21
1271.626196
31
0.0
0
LINE
8
00_Gris
10
2821.563387
20
1269.826196
30
0.0
11
2823.363387
21
1271.626196
31
0.0
0
LINE
8
00_Gris
10
2823.808451
20
1269.826196
30
0.0
11
2825.608451
21
1271.626196
31
0.0
0
LINE
8
00_Gris
10
2826.053515
20
1269.826196
30
0.0
11
2827.853515
21
1271.626196
31
0.0
0
LINE
8
00_Gris
10
2828.298579
20
1269.826196
30
0.0
11
2830.098579
21
1271.626196
31
0.0
0
LINE
8
00_Gris
10
2830.543643
20
1269.826196
30
0.0
11
2832.343643
21
1271.626196
31
0.0
0
LINE
8
00_Gris
10
2834.840211
20
1274.122763
30
0.0
11
2835.673111
21
1274.955664
31
0.0
0
LINE
8
00_Gris
10
2832.788708
20
1269.826196
30
0.0
11
2838.888708
21
1275.926196
31
0.0
0
LINE
8
00_Gris
10
2837.697753
20
1272.490177
30
0.0
11
2838.534549
21
1273.326973
31
0.0
0
LINE
8
00_Gris
10
2805.399895
20
1272.176462
30
0.0
11
2804.420165
21
1273.156192
31
0.0
0
LINE
8
00_Gris
10
2809.995226
20
1269.826196
30
0.0
11
2807.714009
21
1272.107413
31
0.0
0
LINE
8
00_Gris
10
2805.392319
20
1274.429103
30
0.0
11
2804.315081
21
1275.506340
31
0.0
0
LINE
8
00_Gris
10
2806.995226
20
1272.826196
30
0.0
11
2805.567988
21
1274.253433
31
0.0
0
LINE
8
00_Gris
10
2812.240290
20
1269.826196
30
0.0
11
2807.040290
21
1275.026196
31
0.0
0
LINE
8
00_Gris
10
2814.485354
20
1269.826196
30
0.0
11
2812.685354
21
1271.626196
31
0.0
0
LINE
8
00_Gris
10
2816.730418
20
1269.826196
30
0.0
11
2814.930418
21
1271.626196
31
0.0
0
LINE
8
00_Gris
10
2818.975482
20
1269.826196
30
0.0
11
2817.175482
21
1271.626196
31
0.0
0
LINE
8
00_Gris
10
2821.220546
20
1269.826196
30
0.0
11
2819.420546
21
1271.626196
31
0.0
0
LINE
8
00_Gris
10
2823.465610
20
1269.826196
30
0.0
11
2821.665610
21
1271.626196
31
0.0
0
LINE
8
00_Gris
10
2825.710674
20
1269.826196
30
0.0
11
2823.910674
21
1271.626196
31
0.0
0
LINE
8
00_Gris
10
2827.955738
20
1269.826196
30
0.0
11
2826.155738
21
1271.626196
31
0.0
0
LINE
8
00_Gris
10
2830.200802
20
1269.826196
30
0.0
11
2828.400802
21
1271.626196
31
0.0
0
LINE
8
00_Gris
10
2832.445866
20
1269.826196
30
0.0
11
2830.645866
21
1271.626196
31
0.0
0
LINE
8
00_Gris
10
2834.472901
20
1270.044225
30
0.0
11
2832.838463
21
1271.678663
31
0.0
0
LINE
8
00_Gris
10
2806.040875
20
1298.476251
30
0.0
11
2805.241153
21
1299.275972
31
0.0
0
LINE
8
00_Gris
10
2835.419522
20
1271.342668
30
0.0
11
2833.973714
21
1272.788476
31
0.0
0
LINE
8
00_Gris
10
2807.946005
20
1298.816185
30
0.0
11
2804.913302
21
1301.848888
31
0.0
0
LINE
8
00_Gris
10
2836.303790
20
1272.703464
30
0.0
11
2834.857645
21
1274.149609
31
0.0
0
LINE
8
00_Gris
10
2809.012134
20
1299.995120
30
0.0
11
2807.566326
21
1301.440928
31
0.0
0
LINE
8
00_Gris
10
2839.203391
20
1272.048927
30
0.0
11
2836.226122
21
1275.026196
31
0.0
0
LINE
8
00_Gris
10
2809.896064
20
1301.356253
30
0.0
11
2808.450257
21
1302.802061
31
0.0
0
LINE
8
00_Gris
10
2839.025232
20
1274.472150
30
0.0
11
2837.972531
21
1275.524851
31
0.0
0
LINE
8
00_Gris
10
2811.155440
20
1302.341942
30
0.0
11
2809.578296
21
1303.919086
31
0.0
0
LINE
8
00_Gris
10
2813.392890
20
1302.349556
30
0.0
11
2811.792890
21
1303.949556
31
0.0
0
LINE
8
00_Gris
10
2815.637954
20
1302.349556
30
0.0
11
2813.315081
21
1304.672429
31
0.0
0
LINE
8
00_Gris
10
2817.883018
20
1302.349556
30
0.0
11
2816.283018
21
1303.949556
31
0.0
0
LINE
8
00_Gris
10
2814.515081
20
1305.717493
30
0.0
11
2813.315081
21
1306.917493
31
0.0
0
LINE
8
00_Gris
10
2820.128082
20
1302.349556
30
0.0
11
2818.528082
21
1303.949556
31
0.0
0
LINE
8
00_Gris
10
2815.814713
20
1306.662926
30
0.0
11
2815.178450
21
1307.299188
31
0.0
0
LINE
8
00_Gris
10
2822.373146
20
1302.349556
30
0.0
11
2820.773146
21
1303.949556
31
0.0
0
LINE
8
00_Gris
10
2824.618210
20
1302.349556
30
0.0
11
2821.315081
21
1305.652685
31
0.0
0
LINE
8
00_Gris
10
2826.863274
20
1302.349556
30
0.0
11
2825.263274
21
1303.949556
31
0.0
0
LINE
8
00_Gris
10
2822.815081
20
1306.397749
30
0.0
11
2821.315081
21
1307.897749
31
0.0
0
LINE
8
00_Gris
10
2829.108338
20
1302.349556
30
0.0
11
2827.508338
21
1303.949556
31
0.0
0
LINE
8
00_Gris
10
2824.215081
20
1307.242813
30
0.0
11
2822.758338
21
1308.699556
31
0.0
0
LINE
8
00_Gris
10
2831.353402
20
1302.349556
30
0.0
11
2828.815081
21
1304.887877
31
0.0
0
LINE
8
00_Gris
10
2837.316209
20
1298.631813
30
0.0
11
2831.998466
21
1303.949556
31
0.0
0
LINE
8
00_Gris
10
2830.315081
20
1305.632941
30
0.0
11
2827.831774
21
1308.116249
31
0.0
0
LINE
8
00_Gris
10
2839.215081
20
1298.978005
30
0.0
11
2838.868530
21
1299.324556
31
0.0
0
LINE
8
00_Gris
10
2830.315081
20
1307.878005
30
0.0
11
2829.493530
21
1308.699556
31
0.0
0
LINE
8
00_Gris
10
2838.044759
20
1300.148328
30
0.0
11
2837.181376
21
1301.011711
31
0.0
0
LINE
8
00_Gris
10
2834.788844
20
1303.404242
30
0.0
11
2834.437853
21
1303.755234
31
0.0
0
LINE
8
00_Gris
10
2839.315081
20
1301.123069
30
0.0
11
2838.614631
21
1301.823519
31
0.0
0
LINE
8
00_Contorno Poliamida
10
2830.815081
20
1303.949556
30
0.0
11
2833.783167
21
1303.949556
31
0.0
0
ARC
8
00_Contorno Poliamida
10
2830.815081
20
1304.449556
30
0.0
40
0.500000
50
180.000000
51
270.000000
0
LINE
8
00_Contorno Poliamida
10
2830.315081
20
1308.199556
30
0.0
11
2830.315081
21
1304.449556
31
0.0
0
ARC
8
00_Contorno Poliamida
10
2829.815081
20
1308.199556
30
0.0
40
0.500000
50
0.000000
51
90.000000
0
LINE
8
00_Contorno Poliamida
10
2828.622188
20
1308.699556
30
0.0
11
2829.815081
21
1308.699556
31
0.0
0
ARC
8
00_Contorno Poliamida
10
2828.622188
20
1308.199556
30
0.0
40
0.500000
50
90.000000
51
135.000000
0
LINE
8
00_Contorno Poliamida
10
2827.561528
20
1307.846003
30
0.0
11
2828.268635
21
1308.553110
31
0.0
0
ARC
8
00_Contorno Poliamida
10
2827.915081
20
1307.492450
30
0.0
40
0.500000
50
135.000000
51
180.000000
0
LINE
8
00_Contorno Poliamida
10
2827.415081
20
1306.999556
30
0.0
11
2827.415081
21
1307.492450
31
0.0
0
ARC
8
00_Contorno Poliamida
10
2827.715081
20
1306.999556
30
0.0
40
0.300000
50
180.000000
51
270.000000
0
LINE
8
00_Contorno Poliamida
10
2828.515081
20
1306.699556
30
0.0
11
2827.715081
21
1306.699556
31
0.0
0
ARC
8
00_Contorno Poliamida
10
2828.515081
20
1306.399556
30
0.0
40
0.300000
50
0.000000
51
90.000000
0
LINE
8
00_Contorno Poliamida
10
2828.815081
20
1304.449556
30
0.0
11
2828.815081
21
1306.399556
31
0.0
0
ARC
8
00_Contorno Poliamida
10
2828.315081
20
1304.449556
30
0.0
40
0.500000
50
270.000000
51
0.000000
0
LINE
8
00_Contorno Poliamida
10
2823.315081
20
1303.949556
30
0.0
11
2828.315081
21
1303.949556
31
0.0
0
ARC
8
00_Contorno Poliamida
10
2823.315081
20
1304.449556
30
0.0
40
0.500000
50
180.000000
51
270.000000
0
LINE
8
00_Contorno Poliamida
10
2822.815081
20
1306.399556
30
0.0
11
2822.815081
21
1304.449556
31
0.0
0
ARC
8
00_Contorno Poliamida
10
2823.115081
20
1306.399556
30
0.0
40
0.300000
50
90.000000
51
180.000000
0
LINE
8
00_Contorno Poliamida
10
2823.915081
20
1306.699556
30
0.0
11
2823.115081
21
1306.699556
31
0.0
0
ARC
8
00_Contorno Poliamida
10
2823.915081
20
1306.999556
30
0.0
40
0.300000
50
270.000000
51
0.000000
0
LINE
8
00_Contorno Poliamida
10
2824.215081
20
1307.492450
30
0.0
11
2824.215081
21
1306.999556
31
0.0
0
ARC
8
00_Contorno Poliamida
10
2823.715081
20
1307.492450
30
0.0
40
0.500000
50
0.000000
51
45.000000
0
LINE
8
00_Contorno Poliamida
10
2823.361528
20
1308.553110
30
0.0
11
2824.068635
21
1307.846003
31
0.0
0
ARC
8
00_Contorno Poliamida
10
2823.007974
20
1308.199556
30
0.0
40
0.500000
50
45.000000
51
90.000000
0
LINE
8
00_Contorno Poliamida
10
2821.815081
20
1308.699556
30
0.0
11
2823.007974
21
1308.699556
31
0.0
0
ARC
8
00_Contorno Poliamida
10
2821.815081
20
1308.199556
30
0.0
40
0.500000
50
90.000000
51
180.000000
0
LINE
8
00_Contorno Poliamida
10
2821.315081
20
1304.449556
30
0.0
11
2821.315081
21
1308.199556
31
0.0
0
ARC
8
00_Contorno Poliamida
10
2820.815081
20
1304.449556
30
0.0
40
0.500000
50
270.000000
51
0.000000
0
LINE
8
00_Contorno Poliamida
10
2815.015081
20
1303.949556
30
0.0
11
2820.815081
21
1303.949556
31
0.0
0
ARC
8
00_Contorno Poliamida
10
2815.015081
20
1304.449556
30
0.0
40
0.500000
50
180.000000
51
270.000000
0
LINE
8
00_Contorno Poliamida
10
2814.515081
20
1305.849556
30
0.0
11
2814.515081
21
1304.449556
31
0.0
0
ARC
8
00_Contorno Poliamida
10
2814.815081
20
1305.849556
30
0.0
40
0.300000
50
90.000000
51
180.000000
0
LINE
8
00_Contorno Poliamida
10
2815.665081
20
1306.149556
30
0.0
11
2814.815081
21
1306.149556
31
0.0
0
ARC
8
00_Contorno Poliamida
10
2815.665081
20
1306.349556
30
0.0
40
0.200000
50
270.000000
51
0.000000
0
ARC
8
00_Contorno Poliamida
10
2814.865081
20
1306.349556
30
0.0
40
1.000000
50
0.000000
51
90.000000
0
LINE
8
00_Contorno Poliamida
10
2814.515081
20
1307.349556
30
0.0
11
2814.865081
21
1307.349556
31
0.0
0
LINE
8
00_Contorno Poliamida
10
2813.615081
20
1307.349556
30
0.0
11
2814.515081
21
1307.349556
31
0.0
0
ARC
8
00_Contorno Poliamida
10
2813.615081
20
1307.049556
30
0.0
40
0.300000
50
90.000000
51
180.000000
0
LINE
8
00_Contorno Poliamida
10
2813.315081
20
1304.449556
30
0.0
11
2813.315081
21
1307.049556
31
0.0
0
ARC
8
00_Contorno Poliamida
10
2812.815081
20
1304.449556
30
0.0
40
0.500000
50
270.000000
51
0.000000
0
LINE
8
00_Contorno Poliamida
10
2809.846995
20
1303.949556
30
0.0
11
2812.815081
21
1303.949556
31
0.0
0
ARC
8
00_Contorno Poliamida
10
2809.846995
20
1302.749556
30
0.0
40
1.200000
50
90.000000
51
147.000000
0
LINE
8
00_Contorno Poliamida
10
2807.337055
20
1301.087881
30
0.0
11
2808.840591
21
1303.403123
31
0.0
0
ARC
8
00_Contorno Poliamida
10
2807.084347
20
1301.249556
30
0.0
40
0.300000
50
270.000000
51
327.390000
0
LINE
8
00_Contorno Poliamida
10
2806.829978
20
1300.949556
30
0.0
11
2807.084347
21
1300.949556
31
0.0
0
ARC
8
00_Contorno Poliamida
10
2806.829978
20
1302.149556
30
0.0
40
1.200000
50
239.496833
51
270.000000
0
LINE
8
00_Contorno Poliamida
10
2805.045559
20
1301.808037
30
0.0
11
2806.220875
21
1301.115635
31
0.0
0
ARC
8
00_Contorno Poliamida
10
2804.893283
20
1301.549556
30
0.0
40
0.300000
50
59.496833
51
90.000000
0
LINE
8
00_Contorno Poliamida
10
2804.715081
20
1301.849556
30
0.0
11
2804.893283
21
1301.849556
31
0.0
0
ARC
8
00_Contorno Poliamida
10
2804.715081
20
1301.449556
30
0.0
40
0.400000
50
90.000000
51
180.000000
0
LINE
8
00_Contorno Poliamida
10
2804.315081
20
1301.049556
30
0.0
11
2804.315081
21
1301.449556
31
0.0
0
ARC
8
00_Contorno Poliamida
10
2804.415081
20
1301.049556
30
0.0
40
0.100000
50
180.000000
51
270.000000
0
LINE
8
00_Contorno Poliamida
10
2804.415081
20
1300.674556
30
0.0
11
2804.415081
21
1300.949556
31
0.0
0
ARC
8
00_Contorno Poliamida
10
2804.715081
20
1300.674556
30
0.0
40
0.300000
50
180.000000
51
270.000000
0
LINE
8
00_Contorno Poliamida
10
2804.774607
20
1300.374556
30
0.0
11
2804.715081
21
1300.374556
31
0.0
0
ARC
8
00_Contorno Poliamida
10
2805.065081
20
1299.849556
30
0.0
40
0.600000
50
241.044976
51
118.955024
0
LINE
8
00_Contorno Poliamida
10
2804.715081
20
1299.324556
30
0.0
11
2804.774607
21
1299.324556
31
0.0
0
ARC
8
00_Contorno Poliamida
10
2804.715081
20
1299.024556
30
0.0
40
0.300000
50
90.000000
51
180.000000
0
LINE
8
00_Contorno Poliamida
10
2804.415081
20
1298.749556
30
0.0
11
2804.415081
21
1299.024556
31
0.0
0
ARC
8
00_Contorno Poliamida
10
2804.415081
20
1298.649556
30
0.0
40
0.100000
50
90.000000
51
180.000000
0
LINE
8
00_Contorno Poliamida
10
2804.315081
20
1298.249556
30
0.0
11
2804.315081
21
1298.649556
31
0.0
0
ARC
8
00_Contorno Poliamida
10
2804.715081
20
1298.249556
30
0.0
40
0.400000
50
180.000000
51
270.000000
0
LINE
8
00_Contorno Poliamida
10
2804.893416
20
1297.849556
30
0.0
11
2804.715081
21
1297.849556
31
0.0
0
ARC
8
00_Contorno Poliamida
10
2804.893416
20
1298.149556
30
0.0
40
0.300000
50
270.000000
51
300.455827
0
LINE
8
00_Contorno Poliamida
10
2806.224087
20
1298.583981
30
0.0
11
2805.045478
21
1297.890950
31
0.0
0
ARC
8
00_Contorno Poliamida
10
2806.832336
20
1297.549556
30
0.0
40
1.200000
50
90.000000
51
120.455827
0
LINE
8
00_Contorno Poliamida
10
2807.032261
20
1298.749556
30
0.0
11
2806.832336
21
1298.749556
31
0.0
0
LINE
8
00_Contorno Poliamida
10
2807.551709
20
1298.749556
30
0.0
11
2807.032261
21
1298.749556
31
0.0
0
ARC
8
00_Contorno Poliamida
10
2807.551709
20
1299.949556
30
0.0
40
1.200000
50
270.000000
51
327.000000
0
LINE
8
00_Contorno Poliamida
10
2810.127122
20
1301.712051
30
0.0
11
2808.558113
21
1299.295990
31
0.0
0
ARC
8
00_Contorno Poliamida
10
2811.301261
20
1300.949556
30
0.0
40
1.400000
50
90.000000
51
147.000000
0
LINE
8
00_Contorno Poliamida
10
2813.315081
20
1302.349556
30
0.0
11
2811.301261
21
1302.349556
31
0.0
0
LINE
8
00_Contorno Poliamida
10
2832.328901
20
1302.349556
30
0.0
11
2813.315081
21
1302.349556
31
0.0
0
ARC
8
00_Contorno Poliamida
10
2832.328901
20
1300.949556
30
0.0
40
1.400000
50
33.000000
51
90.000000
0
LINE
8
00_Contorno Poliamida
10
2835.072049
20
1299.295990
30
0.0
11
2833.503040
21
1301.712051
31
0.0
0
ARC
8
00_Contorno Poliamida
10
2836.078454
20
1299.949556
30
0.0
40
1.200000
50
213.000000
51
270.000000
0
LINE
8
00_Contorno Poliamida
10
2836.797827
20
1298.749556
30
0.0
11
2836.078454
21
1298.749556
31
0.0
0
ARC
8
00_Contorno Poliamida
10
2836.797827
20
1297.549556
30
0.0
40
1.200000
50
59.544173
51
90.000000
0
LINE
8
00_Contorno Poliamida
10
2838.584684
20
1297.890950
30
0.0
11
2837.406075
21
1298.583981
31
0.0
0
ARC
8
00_Contorno Poliamida
10
2838.736746
20
1298.149556
30
0.0
40
0.300000
50
239.544173
51
270.000000
0
LINE
8
00_Contorno Poliamida
10
2838.915081
20
1297.849556
30
0.0
11
2838.736746
21
1297.849556
31
0.0
0
ARC
8
00_Contorno Poliamida
10
2838.915081
20
1298.249556
30
0.0
40
0.400000
50
270.000000
51
0.000000
0
LINE
8
00_Contorno Poliamida
10
2839.315081
20
1298.649556
30
0.0
11
2839.315081
21
1298.249556
31
0.0
0
ARC
8
00_Contorno Poliamida
10
2839.215081
20
1298.649556
30
0.0
40
0.100000
50
0.000000
51
90.000000
0
LINE
8
00_Contorno Poliamida
10
2839.215081
20
1299.024556
30
0.0
11
2839.215081
21
1298.749556
31
0.0
0
ARC
8
00_Contorno Poliamida
10
2838.915081
20
1299.024556
30
0.0
40
0.300000
50
0.000000
51
90.000000
0
LINE
8
00_Contorno Poliamida
10
2838.855555
20
1299.324556
30
0.0
11
2838.915081
21
1299.324556
31
0.0
0
ARC
8
00_Contorno Poliamida
10
2838.565081
20
1299.849556
30
0.0
40
0.600000
50
61.044976
51
298.955024
0
LINE
8
00_Contorno Poliamida
10
2838.915081
20
1300.374556
30
0.0
11
2838.855555
21
1300.374556
31
0.0
0
ARC
8
00_Contorno Poliamida
10
2838.915081
20
1300.674556
30
0.0
40
0.300000
50
270.000000
51
0.000000
0
LINE
8
00_Contorno Poliamida
10
2839.215081
20
1300.949556
30
0.0
11
2839.215081
21
1300.674556
31
0.0
0
ARC
8
00_Contorno Poliamida
10
2839.215081
20
1301.049556
30
0.0
40
0.100000
50
270.000000
51
0.000000
0
LINE
8
00_Contorno Poliamida
10
2839.315081
20
1301.449556
30
0.0
11
2839.315081
21
1301.049556
31
0.0
0
ARC
8
00_Contorno Poliamida
10
2838.915081
20
1301.449556
30
0.0
40
0.400000
50
0.000000
51
90.000000
0
LINE
8
00_Contorno Poliamida
10
2838.736879
20
1301.849556
30
0.0
11
2838.915081
21
1301.849556
31
0.0
0
ARC
8
00_Contorno Poliamida
10
2838.736879
20
1301.549556
30
0.0
40
0.300000
50
90.000000
51
120.503167
0
LINE
8
00_Contorno Poliamida
10
2837.409287
20
1301.115635
30
0.0
11
2838.584604
21
1301.808037
31
0.0
0
ARC
8
00_Contorno Poliamida
10
2836.800184
20
1302.149556
30
0.0
40
1.200000
50
270.000000
51
300.503167
0
LINE
8
00_Contorno Poliamida
10
2836.600275
20
1300.949556
30
0.0
11
2836.800184
21
1300.949556
31
0.0
0
LINE
8
00_Contorno Poliamida
10
2836.545815
20
1300.949556
30
0.0
11
2836.600275
21
1300.949556
31
0.0
0
ARC
8
00_Contorno Poliamida
10
2836.545815
20
1301.249556
30
0.0
40
0.300000
50
212.610000
51
270.000000
0
LINE
8
00_Contorno Poliamida
10
2834.789572
20
1303.403123
30
0.0
11
2836.293108
21
1301.087881
31
0.0
0
ARC
8
00_Contorno Poliamida
10
2833.783167
20
1302.749556
30
0.0
40
1.200000
50
33.000000
51
90.000000
0
ARC
8
00_Contorno Poliamida
10
2833.783167
20
1271.026196
30
0.0
40
1.200000
50
270.000000
51
327.000000
0
LINE
8
00_Contorno Poliamida
10
2836.293108
20
1272.687871
30
0.0
11
2834.789572
21
1270.372629
31
0.0
0
ARC
8
00_Contorno Poliamida
10
2836.545815
20
1272.526196
30
0.0
40
0.300000
50
90.000000
51
147.390000
0
LINE
8
00_Contorno Poliamida
10
2836.800184
20
1272.826196
30
0.0
11
2836.545815
21
1272.826196
31
0.0
0
ARC
8
00_Contorno Poliamida
10
2836.800184
20
1271.626196
30
0.0
40
1.200000
50
59.496833
51
90.000000
0
LINE
8
00_Contorno Poliamida
10
2838.584604
20
1271.967715
30
0.0
11
2837.409287
21
1272.660117
31
0.0
0
ARC
8
00_Contorno Poliamida
10
2838.736879
20
1272.226196
30
0.0
40
0.300000
50
239.496833
51
270.000000
0
LINE
8
00_Contorno Poliamida
10
2838.915081
20
1271.926196
30
0.0
11
2838.736879
21
1271.926196
31
0.0
0
ARC
8
00_Contorno Poliamida
10
2838.915081
20
1272.326196
30
0.0
40
0.400000
50
270.000000
51
0.000000
0
LINE
8
00_Contorno Poliamida
10
2839.315081
20
1272.726196
30
0.0
11
2839.315081
21
1272.326196
31
0.0
0
ARC
8
00_Contorno Poliamida
10
2839.215081
20
1272.726196
30
0.0
40
0.100000
50
0.000000
51
90.000000
0
LINE
8
00_Contorno Poliamida
10
2839.215081
20
1273.101196
30
0.0
11
2839.215081
21
1272.826196
31
0.0
0
ARC
8
00_Contorno Poliamida
10
2838.915081
20
1273.101196
30
0.0
40
0.300000
50
0.000000
51
90.000000
0
LINE
8
00_Contorno Poliamida
10
2838.855555
20
1273.401196
30
0.0
11
2838.915081
21
1273.401196
31
0.0
0
ARC
8
00_Contorno Poliamida
10
2838.565081
20
1273.926196
30
0.0
40
0.600000
50
61.044976
51
298.955024
0
LINE
8
00_Contorno Poliamida
10
2838.915081
20
1274.451196
30
0.0
11
2838.855555
21
1274.451196
31
0.0
0
ARC
8
00_Contorno Poliamida
10
2838.915081
20
1274.751196
30
0.0
40
0.300000
50
270.000000
51
0.000000
0
LINE
8
00_Contorno Poliamida
10
2839.215081
20
1275.026196
30
0.0
11
2839.215081
21
1274.751196
31
0.0
0
ARC
8
00_Contorno Poliamida
10
2839.215081
20
1275.126196
30
0.0
40
0.100000
50
270.000000
51
0.000000
0
LINE
8
00_Contorno Poliamida
10
2839.315081
20
1275.526196
30
0.0
11
2839.315081
21
1275.126196
31
0.0
0
ARC
8
00_Contorno Poliamida
10
2838.915081
20
1275.526196
30
0.0
40
0.400000
50
0.000000
51
90.000000
0
LINE
8
00_Contorno Poliamida
10
2838.736746
20
1275.926196
30
0.0
11
2838.915081
21
1275.926196
31
0.0
0
ARC
8
00_Contorno Poliamida
10
2838.736746
20
1275.626196
30
0.0
40
0.300000
50
90.000000
51
120.455827
0
LINE
8
00_Contorno Poliamida
10
2837.406075
20
1275.191771
30
0.0
11
2838.584684
21
1275.884802
31
0.0
0
ARC
8
00_Contorno Poliamida
10
2836.797827
20
1276.226196
30
0.0
40
1.200000
50
270.000000
51
300.455827
0
LINE
8
00_Contorno Poliamida
10
2836.078454
20
1275.026196
30
0.0
11
2836.797827
21
1275.026196
31
0.0
0
ARC
8
00_Contorno Poliamida
10
2836.078454
20
1273.826196
30
0.0
40
1.200000
50
90.000000
51
147.000000
0
LINE
8
00_Contorno Poliamida
10
2833.632922
20
1272.263701
30
0.0
11
2835.072049
21
1274.479763
31
0.0
0
ARC
8
00_Contorno Poliamida
10
2832.458783
20
1273.026196
30
0.0
40
1.400000
50
270.000000
51
327.000000
0
LINE
8
00_Contorno Poliamida
10
2811.171379
20
1271.626196
30
0.0
11
2832.458783
21
1271.626196
31
0.0
0
ARC
8
00_Contorno Poliamida
10
2811.171379
20
1273.026196
30
0.0
40
1.400000
50
213.000000
51
270.000000
0
LINE
8
00_Contorno Poliamida
10
2808.558113
20
1274.479763
30
0.0
11
2809.997241
21
1272.263701
31
0.0
0
ARC
8
00_Contorno Poliamida
10
2807.551709
20
1273.826196
30
0.0
40
1.200000
50
33.000000
51
90.000000
0
LINE
8
00_Contorno Poliamida
10
2806.832336
20
1275.026196
30
0.0
11
2807.551709
21
1275.026196
31
0.0
0
ARC
8
00_Contorno Poliamida
10
2806.832336
20
1276.226196
30
0.0
40
1.200000
50
239.544173
51
270.000000
0
LINE
8
00_Contorno Poliamida
10
2805.045478
20
1275.884802
30
0.0
11
2806.224087
21
1275.191771
31
0.0
0
ARC
8
00_Contorno Poliamida
10
2804.893416
20
1275.626196
30
0.0
40
0.300000
50
59.544173
51
90.000000
0
LINE
8
00_Contorno Poliamida
10
2804.715081
20
1275.926196
30
0.0
11
2804.893416
21
1275.926196
31
0.0
0
ARC
8
00_Contorno Poliamida
10
2804.715081
20
1275.526196
30
0.0
40
0.400000
50
90.000000
51
180.000000
0
LINE
8
00_Contorno Poliamida
10
2804.315081
20
1275.126196
30
0.0
11
2804.315081
21
1275.526196
31
0.0
0
ARC
8
00_Contorno Poliamida
10
2804.415081
20
1275.126196
30
0.0
40
0.100000
50
180.000000
51
270.000000
0
LINE
8
00_Contorno Poliamida
10
2804.415081
20
1274.751196
30
0.0
11
2804.415081
21
1275.026196
31
0.0
0
ARC
8
00_Contorno Poliamida
10
2804.715081
20
1274.751196
30
0.0
40
0.300000
50
180.000000
51
270.000000
0
LINE
8
00_Contorno Poliamida
10
2804.774607
20
1274.451196
30
0.0
11
2804.715081
21
1274.451196
31
0.0
0
ARC
8
00_Contorno Poliamida
10
2805.065081
20
1273.926196
30
0.0
40
0.600000
50
241.044976
51
118.955024
0
LINE
8
00_Contorno Poliamida
10
2804.715081
20
1273.401196
30
0.0
11
2804.774607
21
1273.401196
31
0.0
0
ARC
8
00_Contorno Poliamida
10
2804.715081
20
1273.101196
30
0.0
40
0.300000
50
90.000000
51
180.000000
0
LINE
8
00_Contorno Poliamida
10
2804.415081
20
1272.826196
30
0.0
11
2804.415081
21
1273.101196
31
0.0
0
ARC
8
00_Contorno Poliamida
10
2804.415081
20
1272.726196
30
0.0
40
0.100000
50
90.000000
51
180.000000
0
LINE
8
00_Contorno Poliamida
10
2804.315081
20
1272.326196
30
0.0
11
2804.315081
21
1272.726196
31
0.0
0
ARC
8
00_Contorno Poliamida
10
2804.715081
20
1272.326196
30
0.0
40
0.400000
50
180.000000
51
270.000000
0
LINE
8
00_Contorno Poliamida
10
2804.893283
20
1271.926196
30
0.0
11
2804.715081
21
1271.926196
31
0.0
0
ARC
8
00_Contorno Poliamida
10
2804.893283
20
1272.226196
30
0.0
40
0.300000
50
270.000000
51
300.503167
0
LINE
8
00_Contorno Poliamida
10
2806.220875
20
1272.660117
30
0.0
11
2805.045559
21
1271.967715
31
0.0
0
ARC
8
00_Contorno Poliamida
10
2806.829978
20
1271.626196
30
0.0
40
1.200000
50
90.000000
51
120.503167
0
LINE
8
00_Contorno Poliamida
10
2807.084347
20
1272.826196
30
0.0
11
2806.829978
21
1272.826196
31
0.0
0
ARC
8
00_Contorno Poliamida
10
2807.084347
20
1272.526196
30
0.0
40
0.300000
50
32.610000
51
90.000000
0
LINE
8
00_Contorno Poliamida
10
2808.840591
20
1270.372629
30
0.0
11
2807.337055
21
1272.687871
31
0.0
0
ARC
8
00_Contorno Poliamida
10
2809.846995
20
1271.026196
30
0.0
40
1.200000
50
213.000000
51
270.000000
0
LINE
8
00_Contorno Poliamida
10
2833.783167
20
1269.826196
30
0.0
11
2809.846995
21
1269.826196
31
0.0
0
LINE
8
0
10
2802.715081
20
1271.035689
30
0.0
11
2783.215081
21
1271.035689
31
0.0
0
LINE
8
0
10
2783.215081
20
1271.035689
30
0.0
11
2783.215081
21
1302.635689
31
0.0
0
LINE
8
0
10
2783.215081
20
1302.635689
30
0.0
11
2802.715081
21
1302.635689
31
0.0
0
LINE
8
0
10
2802.715081
20
1302.635689
30
0.0
11
2802.715081
21
1271.035689
31
0.0
0
LINE
8
0
10
2840.915081
20
1271.035689
30
0.0
11
2847.915081
21
1271.035689
31
0.0
0
LINE
8
0
10
2847.915081
20
1271.035689
30
0.0
11
2847.915081
21
1272.535689
31
0.0
0
LINE
8
0
10
2847.915081
20
1272.535689
30
0.0
11
2849.015081
21
1272.535689
31
0.0
0
LINE
8
0
10
2849.015081
20
1272.535689
30
0.0
11
2849.373160
21
1272.047400
31
0.0
0
ARC
8
0
10
2849.615081
20
1272.224809
30
0.0
40
0.300000
50
216.253838
51
0.000000
0
LINE
8
0
10
2849.915081
20
1272.224809
30
0.0
11
2849.915081
21
1301.447902
31
0.0
0
ARC
8
0
10
2849.615081
20
1301.447902
30
0.0
40
0.300000
50
0.000000
51
143.746162
0
LINE
8
0
10
2849.373160
20
1301.625311
30
0.0
11
2849.015081
21
1301.137022
31
0.0
0
LINE
8
0
10
2849.015081
20
1301.137022
30
0.0
11
2847.915081
21
1301.137022
31
0.0
0
LINE
8
0
10
2847.915081
20
1301.137022
30
0.0
11
2847.915081
21
1302.637022
31
0.0
0
LINE
8
0
10
2847.915081
20
1302.637022
30
0.0
11
2840.915081
21
1302.637022
31
0.0
0
LINE
8
0
10
2840.915081
20
1302.637022
30
0.0
11
2840.915081
21
1271.035689
31
0.0
0
LINE
8
0
10
2836.930809
20
1272.959470
30
0.0
11
2834.802912
21
1270.210865
31
0.0
0
ARC
8
0
10
2835.087820
20
1270.116908
30
0.0
40
0.300000
50
161.748585
51
268.866021
0
LINE
8
0
10
2835.084435
20
1269.816884
30
0.0
11
2835.741056
21
1269.798270
31
0.0
0
ARC
8
0
10
2835.755224
20
1270.298070
30
0.0
40
0.500000
50
268.376251
51
308.194227
0
ARC
8
0
10
2837.301047
20
1268.333272
30
0.0
40
2.000000
50
56.002945
51
128.194227
0
LINE
8
0
10
2838.419348
20
1269.991404
30
0.0
11
2839.448188
21
1269.486779
31
0.0
0
ARC
8
0
10
2839.668369
20
1269.935689
30
0.0
40
0.500000
50
243.872968
51
270.000000
0
LINE
8
0
10
2839.668369
20
1269.435689
30
0.0
11
2849.515081
21
1269.435689
31
0.0
0
ARC
8
0
10
2849.515081
20
1269.135689
30
0.0
40
0.300000
50
0.000000
51
90.000000
0
LINE
8
0
10
2849.815081
20
1269.135689
30
0.0
11
2849.815081
21
1266.735689
31
0.0
0
ARC
8
0
10
2849.515081
20
1266.735689
30
0.0
40
0.300000
50
270.000000
51
0.000000
0
LINE
8
0
10
2849.515081
20
1266.435689
30
0.0
11
2847.815081
21
1266.435689
31
0.0
0
LINE
8
0
10
2847.815081
20
1266.435689
30
0.0
11
2847.815081
21
1265.642795
31
0.0
0
ARC
8
0
10
2848.315081
20
1265.642795
30
0.0
40
0.500000
50
180.000000
51
225.000000
0
LINE
8
0
10
2847.961528
20
1265.289242
30
0.0
11
2848.668635
21
1264.582135
31
0.0
0
ARC
8
0
10
2849.022188
20
1264.935689
30
0.0
40
0.500000
50
225.000000
51
270.000000
0
LINE
8
0
10
2849.022188
20
1264.435689
30
0.0
11
2851.115081
21
1264.435689
31
0.0
0
ARC
8
0
10
2851.115081
20
1264.935689
30
0.0
40
0.500000
50
270.000000
51
0.000000
0
LINE
8
0
10
2851.615081
20
1264.935689
30
0.0
11
2851.615081
21
1329.937004
31
0.0
0
ARC
8
0
10
2851.115081
20
1329.937004
30
0.0
40
0.500000
50
0.000000
51
90.000000
0
LINE
8
0
10
2851.115081
20
1330.437004
30
0.0
11
2847.615063
21
1330.437004
31
0.0
0
ARC
8
0
10
2847.615063
20
1329.937022
30
0.0
40
0.499982
50
90.000000
51
180.000000
0
LINE
8
0
10
2847.115081
20
1329.937022
30
0.0
11
2847.115081
21
1328.937058
31
0.0
0
LINE
8
0
10
2847.115081
20
1328.937058
30
0.0
11
2847.615063
21
1327.187121
31
0.0
0
LINE
8
0
10
2847.615063
20
1327.187121
30
0.0
11
2848.115045
21
1327.187121
31
0.0
0
LINE
8
0
10
2848.115045
20
1327.187121
30
0.0
11
2848.115045
21
1328.937058
31
0.0
0
LINE
8
0
10
2848.115045
20
1328.937058
30
0.0
11
2850.115081
21
1328.937058
31
0.0
0
LINE
8
0
10
2850.115081
20
1328.937058
30
0.0
11
2850.115081
21
1321.437329
31
0.0
0
LINE
8
0
10
2850.115081
20
1321.437329
30
0.0
11
2848.115045
21
1321.437329
31
0.0
0
LINE
8
0
10
2848.115045
20
1321.437329
30
0.0
11
2848.115045
21
1323.187266
31
0.0
0
LINE
8
0
10
2848.115045
20
1323.187266
30
0.0
11
2847.615063
21
1323.187266
31
0.0
0
LINE
8
0
10
2847.615063
20
1323.187266
30
0.0
11
2847.115081
21
1321.437329
31
0.0
0
LINE
8
0
10
2847.115081
20
1321.437329
30
0.0
11
2847.115081
21
1320.437365
31
0.0
0
ARC
8
0
10
2847.615063
20
1320.437365
30
0.0
40
0.499982
50
180.000000
51
270.000000
0
LINE
8
0
10
2847.615063
20
1319.937383
30
0.0
11
2849.815081
21
1319.937383
31
0.0
0
ARC
8
0
10
2849.815081
20
1319.637383
30
0.0
40
0.300000
50
0.000000
51
90.000000
0
LINE
8
0
10
2850.115081
20
1319.637383
30
0.0
11
2850.115081
21
1318.635871
31
0.0
0
ARC
8
0
10
2849.815081
20
1318.635871
30
0.0
40
0.300000
50
270.000000
51
0.000000
0
LINE
8
0
10
2849.815081
20
1318.335871
30
0.0
11
2847.914899
21
1318.335871
31
0.0
0
ARC
8
0
10
2847.914899
20
1318.035871
30
0.0
40
0.300000
50
90.000000
51
180.000000
0
LINE
8
0
10
2847.614899
20
1318.035871
30
0.0
11
2847.614899
21
1316.418248
31
0.0
0
ARC
8
0
10
2848.114594
20
1316.435689
30
0.0
40
0.500000
50
181.998998
51
270.000000
0
LINE
8
0
10
2848.114594
20
1315.935689
30
0.0
11
2848.715081
21
1315.935689
31
0.0
0
LINE
8
0
10
2848.715081
20
1315.935689
30
0.0
11
2848.715081
21
1317.235689
31
0.0
0
LINE
8
0
10
2848.715081
20
1317.235689
30
0.0
11
2850.015081
21
1317.235689
31
0.0
0
LINE
8
0
10
2850.015081
20
1317.235689
30
0.0
11
2850.015081
21
1304.235689
31
0.0
0
LINE
8
0
10
2850.015081
20
1304.235689
30
0.0
11
2847.815081
21
1304.235689
31
0.0
0
LINE
8
0
10
2847.815081
20
1304.235689
30
0.0
11
2847.815081
21
1305.335689
31
0.0
0
LINE
8
0
10
2847.815081
20
1305.335689
30
0.0
11
2847.015081
21
1305.335689
31
0.0
0
ARC
8
0
10
2847.015081
20
1304.835689
30
0.0
40
0.500000
50
90.000000
51
180.000000
0
LINE
8
0
10
2846.515081
20
1304.835689
30
0.0
11
2846.515081
21
1304.235689
31
0.0
0
LINE
8
0
10
2846.515081
20
1304.235689
30
0.0
11
2840.765081
21
1304.235689
31
0.0
0
LINE
8
0
10
2840.765081
20
1304.235689
30
0.0
11
2840.765081
21
1309.237022
31
0.0
0
LINE
8
0
10
2840.765081
20
1309.237022
30
0.0
11
2838.115081
21
1309.237022
31
0.0
0
ARC
8
0
10
2838.115081
20
1308.937022
30
0.0
40
0.300000
50
90.000000
51
180.000000
0
LINE
8
0
10
2837.815081
20
1308.937022
30
0.0
11
2837.815081
21
1308.037022
31
0.0
0
ARC
8
0
10
2838.115081
20
1308.037022
30
0.0
40
0.300000
50
180.000000
51
270.000000
0
LINE
8
0
10
2838.115081
20
1307.737022
30
0.0
11
2839.315081
21
1307.737022
31
0.0
0
LINE
8
0
10
2839.315081
20
1307.737022
30
0.0
11
2839.315081
21
1304.562310
31
0.0
0
ARC
8
0
10
2838.815081
20
1304.562310
30
0.0
40
0.500000
50
296.127032
51
0.000000
0
LINE
8
0
10
2839.035263
20
1304.113400
30
0.0
11
2838.419348
21
1303.811306
31
0.0
0
ARC
8
0
10
2837.301047
20
1305.469439
30
0.0
40
2.000000
50
231.805773
51
303.997055
0
ARC
8
0
10
2835.755224
20
1303.504641
30
0.0
40
0.500000
50
51.805773
51
91.623749
0
LINE
8
0
10
2835.741056
20
1304.004440
30
0.0
11
2835.084435
21
1303.985827
31
0.0
0
ARC
8
0
10
2835.087820
20
1303.685802
30
0.0
40
0.300000
50
91.133979
51
198.251415
0
LINE
8
0
10
2834.802912
20
1303.591846
30
0.0
11
2836.921889
21
1300.854763
31
0.0
0
ARC
8
0
10
2837.049419
20
1300.933731
30
0.0
40
0.150000
50
211.766205
51
15.692771
0
ARC
8
0
10
2837.482646
20
1301.055447
30
0.0
40
0.300000
50
131.538507
51
195.692771
0
LINE
8
0
10
2837.283709
20
1301.280000
30
0.0
11
2838.831856
21
1302.651541
31
0.0
0
ARC
8
0
10
2839.030793
20
1302.426988
30
0.0
40
0.300000
50
105.063560
51
131.538507
0
LINE
8
0
10
2838.952826
20
1302.716679
30
0.0
11
2839.315081
21
1302.814176
31
0.0
0
ARC
8
0
10
2839.315081
20
1302.514176
30
0.0
40
0.300000
50
270.000000
51
90.000000
0
LINE
8
0
10
2839.315081
20
1302.214176
30
0.0
11
2839.315081
21
1297.714176
31
0.0
0
ARC
8
0
10
2839.115081
20
1297.714176
30
0.0
40
0.200000
50
270.000000
51
0.000000
0
LINE
8
0
10
2839.115081
20
1297.514176
30
0.0
11
2839.047192
21
1297.514176
31
0.0
0
ARC
8
0
10
2839.047192
20
1297.814176
30
0.0
40
0.300000
50
238.619868
51
270.000000
0
LINE
8
0
10
2838.890978
20
1297.558057
30
0.0
11
2837.214985
21
1298.580290
31
0.0
0
ARC
8
0
10
2837.015081
20
1298.586480
30
0.0
40
0.200000
50
358.226373
51
180.000000
0
LINE
8
0
10
2836.815081
20
1298.586480
30
0.0
11
2836.815081
21
1297.202700
31
0.0
0
ARC
8
0
10
2837.015081
20
1297.202700
30
0.0
40
0.200000
50
180.000000
51
241.694535
0
LINE
8
0
10
2836.920465
20
1297.026405
30
0.0
11
2839.063923
21
1295.796504
31
0.0
0
ARC
8
0
10
2838.815081
20
1295.362825
30
0.0
40
0.500000
50
0.000000
51
60.153120
0
LINE
8
0
10
2839.315081
20
1295.362825
30
0.0
11
2839.315081
21
1278.439885
31
0.0
0
ARC
8
0
10
2838.815081
20
1278.439885
30
0.0
40
0.500000
50
299.846880
51
0.000000
0
LINE
8
0
10
2839.063923
20
1278.006206
30
0.0
11
2836.920465
21
1276.776306
31
0.0
0
ARC
8
0
10
2837.015081
20
1276.600011
30
0.0
40
0.200000
50
118.305465
51
180.000000
0
LINE
8
0
10
2836.815081
20
1276.600011
30
0.0
11
2836.815081
21
1275.216231
31
0.0
0
ARC
8
0
10
2837.015081
20
1275.216231
30
0.0
40
0.200000
50
180.000000
51
1.773628
0
LINE
8
0
10
2837.214985
20
1275.222421
30
0.0
11
2838.890978
21
1276.244654
31
0.0
0
ARC
8
0
10
2839.047192
20
1275.988534
30
0.0
40
0.300000
50
90.000000
51
121.380132
0
LINE
8
0
10
2839.047192
20
1276.288534
30
0.0
11
2839.115081
21
1276.288534
31
0.0
0
ARC
8
0
10
2839.115081
20
1276.088534
30
0.0
40
0.200000
50
0.000000
51
90.000000
0
LINE
8
0
10
2839.315081
20
1276.088534
30
0.0
11
2839.315081
21
1271.588534
31
0.0
0
ARC
8
0
10
2839.315081
20
1271.288534
30
0.0
40
0.300000
50
270.000000
51
90.000000
0
LINE
8
0
10
2839.315081
20
1270.988534
30
0.0
11
2838.950664
21
1271.086613
31
0.0
0
ARC
8
0
10
2839.028631
20
1271.376304
30
0.0
40
0.300000
50
228.461493
51
254.936440
0
LINE
8
0
10
2838.829694
20
1271.151751
30
0.0
11
2837.283709
21
1272.521377
31
0.0
0
ARC
8
0
10
2837.482646
20
1272.745930
30
0.0
40
0.300000
50
164.307229
51
228.461493
0
ARC
8
0
10
2837.049419
20
1272.867646
30
0.0
40
0.150000
50
344.307229
51
142.253920
0
LINE
8
0
10
2803.007974
20
1264.435689
30
0.0
11
2799.622188
21
1264.435689
31
0.0
0
ARC
8
0
10
2799.622188
20
1264.935689
30
0.0
40
0.500000
50
225.000000
51
270.000000
0
LINE
8
0
10
2799.268635
20
1264.582135
30
0.0
11
2798.561528
21
1265.289242
31
0.0
0
ARC
8
0
10
2798.915081
20
1265.642795
30
0.0
40
0.500000
50
180.000000
51
225.000000
0
LINE
8
0
10
2798.415081
20
1265.642795
30
0.0
11
2798.415081
21
1266.435689
31
0.0
0
LINE
8
0
10
2798.415081
20
1266.435689
30
0.0
11
2799.315081
21
1266.435689
31
0.0
0
LINE
8
0
10
2799.315081
20
1266.435689
30
0.0
11
2799.715081
21
1266.835689
31
0.0
0
LINE
8
0
10
2799.715081
20
1266.835689
30
0.0
11
2800.115081
21
1266.435689
31
0.0
0
ARC
8
0
10
2800.115081
20
1266.735689
30
0.0
40
0.300000
50
270.000000
51
0.000000
0
LINE
8
0
10
2800.415081
20
1266.735689
30
0.0
11
2800.415081
21
1269.135689
31
0.0
0
ARC
8
0
10
2800.115081
20
1269.135689
30
0.0
40
0.300000
50
0.000000
51
90.000000
0
LINE
8
0
10
2800.115081
20
1269.435689
30
0.0
11
2783.715081
21
1269.435689
31
0.0
0
ARC
8
0
10
2783.715081
20
1269.135689
30
0.0
40
0.300000
50
90.000000
51
180.000000
0
LINE
8
0
10
2783.415081
20
1269.135689
30
0.0
11
2783.415081
21
1266.735689
31
0.0
0
ARC
8
0
10
2783.715081
20
1266.735689
30
0.0
40
0.300000
50
180.000000
51
270.000000
0
LINE
8
0
10
2783.715081
20
1266.435689
30
0.0
11
2785.415081
21
1266.435689
31
0.0
0
LINE
8
0
10
2785.415081
20
1266.435689
30
0.0
11
2785.415081
21
1265.642795
31
0.0
0
ARC
8
0
10
2784.915081
20
1265.642795
30
0.0
40
0.500000
50
315.000000
51
0.000000
0
LINE
8
0
10
2785.268635
20
1265.289242
30
0.0
11
2784.561528
21
1264.582135
31
0.0
0
ARC
8
0
10
2784.207974
20
1264.935689
30
0.0
40
0.500000
50
270.000000
51
315.000000
0
LINE
8
0
10
2784.207974
20
1264.435689
30
0.0
11
2782.115081
21
1264.435689
31
0.0
0
ARC
8
0
10
2782.115081
20
1264.935689
30
0.0
40
0.500000
50
180.000000
51
270.000000
0
LINE
8
0
10
2781.615081
20
1264.935689
30
0.0
11
2781.615081
21
1308.935689
31
0.0
0
ARC
8
0
10
2781.915081
20
1308.935689
30
0.0
40
0.300000
50
90.000000
51
180.000000
0
LINE
8
0
10
2781.915081
20
1309.235689
30
0.0
11
2783.907974
21
1309.235689
31
0.0
0
ARC
8
0
10
2783.907974
20
1308.735689
30
0.0
40
0.500000
50
45.000000
51
90.000000
0
LINE
8
0
10
2784.261528
20
1309.089242
30
0.0
11
2784.968635
21
1308.382135
31
0.0
0
ARC
8
0
10
2784.615081
20
1308.028582
30
0.0
40
0.500000
50
0.000000
51
45.000000
0
LINE
8
0
10
2785.115081
20
1308.028582
30
0.0
11
2785.115081
21
1307.235689
31
0.0
0
LINE
8
0
10
2785.115081
20
1307.235689
30
0.0
11
2783.415081
21
1307.235689
31
0.0
0
ARC
8
0
10
2783.415081
20
1306.935689
30
0.0
40
0.300000
50
90.000000
51
180.000000
0
LINE
8
0
10
2783.115081
20
1306.935689
30
0.0
11
2783.115081
21
1304.535689
31
0.0
0
ARC
8
0
10
2783.415081
20
1304.535689
30
0.0
40
0.300000
50
180.000000
51
270.000000
0
LINE
8
0
10
2783.415081
20
1304.235689
30
0.0
11
2800.815081
21
1304.235689
31
0.0
0
ARC
8
0
10
2800.815081
20
1304.535689
30
0.0
40
0.300000
50
270.000000
51
0.000000
0
LINE
8
0
10
2801.115081
20
1304.535689
30
0.0
11
2801.115081
21
1306.935689
31
0.0
0
ARC
8
0
10
2800.815081
20
1306.935689
30
0.0
40
0.300000
50
0.000000
51
90.000000
0
LINE
8
0
10
2800.815081
20
1307.235689
30
0.0
11
2799.115081
21
1307.235689
31
0.0
0
LINE
8
0
10
2799.115081
20
1307.235689
30
0.0
11
2799.115081
21
1308.028582
31
0.0
0
ARC
8
0
10
2799.615081
20
1308.028582
30
0.0
40
0.500000
50
135.000000
51
180.000000
0
LINE
8
0
10
2799.261528
20
1308.382135
30
0.0
11
2799.968635
21
1309.089242
31
0.0
0
ARC
8
0
10
2800.322188
20
1308.735689
30
0.0
40
0.500000
50
90.000000
51
135.000000
0
LINE
8
0
10
2800.322188
20
1309.235689
30
0.0
11
2802.415081
21
1309.235689
31
0.0
0
ARC
8
0
10
2802.415081
20
1308.735689
30
0.0
40
0.500000
50
0.000000
51
90.000000
0
LINE
8
0
10
2802.915081
20
1308.735689
30
0.0
11
2802.915081
21
1304.865689
31
0.0
0
ARC
8
0
10
2803.415081
20
1304.865689
30
0.0
40
0.500000
50
180.000000
51
270.000000
0
LINE
8
0
10
2803.415081
20
1304.365689
30
0.0
11
2804.187364
21
1304.365689
31
0.0
0
ARC
8
0
10
2804.187364
20
1304.065689
30
0.0
40
0.300000
50
38.312023
51
90.000000
0
ARC
8
0
10
2804.815081
20
1304.561643
30
0.0
40
0.500000
50
218.312023
51
243.872968
0
LINE
8
0
10
2804.594900
20
1304.112734
30
0.0
11
2805.210815
21
1303.810639
31
0.0
0
ARC
8
0
10
2806.329115
20
1305.468772
30
0.0
40
2.000000
50
236.002945
51
308.194227
0
ARC
8
0
10
2807.874938
20
1303.503974
30
0.0
40
0.500000
50
88.376251
51
128.194227
0
LINE
8
0
10
2807.889106
20
1304.003773
30
0.0
11
2808.545728
21
1303.985160
31
0.0
0
ARC
8
0
10
2808.542343
20
1303.685135
30
0.0
40
0.300000
50
341.748585
51
88.866021
0
LINE
8
0
10
2808.827250
20
1303.591179
30
0.0
11
2806.708274
21
1300.854097
31
0.0
0
ARC
8
0
10
2806.580743
20
1300.933065
30
0.0
40
0.150000
50
164.307229
51
328.233795
0
ARC
8
0
10
2806.147517
20
1301.054780
30
0.0
40
0.300000
50
344.307229
51
48.461493
0
LINE
8
0
10
2806.346454
20
1301.279333
30
0.0
11
2804.798306
21
1302.650874
31
0.0
0
ARC
8
0
10
2804.599369
20
1302.426321
30
0.0
40
0.300000
50
48.461493
51
74.936440
0
LINE
8
0
10
2804.677336
20
1302.716013
30
0.0
11
2804.315081
21
1302.813510
31
0.0
0
ARC
8
0
10
2804.315081
20
1302.513510
30
0.0
40
0.300000
50
90.000000
51
270.000000
0
LINE
8
0
10
2804.315081
20
1302.213510
30
0.0
11
2804.315081
21
1297.713510
31
0.0
0
ARC
8
0
10
2804.515081
20
1297.713510
30
0.0
40
0.200000
50
180.000000
51
270.000000
0
LINE
8
0
10
2804.515081
20
1297.513510
30
0.0
11
2804.582970
21
1297.513510
31
0.0
0
ARC
8
0
10
2804.582970
20
1297.813510
30
0.0
40
0.300000
50
270.000000
51
301.380132
0
LINE
8
0
10
2804.739184
20
1297.557390
30
0.0
11
2806.415177
21
1298.579623
31
0.0
0
ARC
8
0
10
2806.615081
20
1298.585813
30
0.0
40
0.200000
50
0.000000
51
181.773628
0
LINE
8
0
10
2806.815081
20
1298.585813
30
0.0
11
2806.815081
21
1297.202033
31
0.0
0
ARC
8
0
10
2806.615081
20
1297.202033
30
0.0
40
0.200000
50
298.305465
51
0.000000
0
LINE
8
0
10
2806.709697
20
1297.025738
30
0.0
11
2804.566239
21
1295.795838
31
0.0
0
ARC
8
0
10
2804.815081
20
1295.362158
30
0.0
40
0.500000
50
119.846880
51
180.000000
0
LINE
8
0
10
2804.315081
20
1295.362158
30
0.0
11
2804.315081
21
1278.439219
31
0.0
0
ARC
8
0
10
2804.815081
20
1278.439219
30
0.0
40
0.500000
50
180.000000
51
240.153120
0
LINE
8
0
10
2804.566239
20
1278.005539
30
0.0
11
2806.709697
21
1276.775639
31
0.0
0
ARC
8
0
10
2806.615081
20
1276.599344
30
0.0
40
0.200000
50
0.000000
51
61.694535
0
LINE
8
0
10
2806.815081
20
1276.599344
30
0.0
11
2806.815081
21
1275.215564
31
0.0
0
ARC
8
0
10
2806.615081
20
1275.215564
30
0.0
40
0.200000
50
178.226373
51
0.000000
0
LINE
8
0
10
2806.415177
20
1275.221754
30
0.0
11
2804.739184
21
1276.243987
31
0.0
0
ARC
8
0
10
2804.582970
20
1275.987868
30
0.0
40
0.300000
50
58.619868
51
90.000000
0
LINE
8
0
10
2804.582970
20
1276.287868
30
0.0
11
2804.515081
21
1276.287868
31
0.0
0
ARC
8
0
10
2804.515081
20
1276.087868
30
0.0
40
0.200000
50
90.000000
51
180.000000
0
LINE
8
0
10
2804.315081
20
1276.087868
30
0.0
11
2804.315081
21
1271.587868
31
0.0
0
ARC
8
0
10
2804.315081
20
1271.287868
30
0.0
40
0.300000
50
90.000000
51
270.000000
0
LINE
8
0
10
2804.315081
20
1270.987868
30
0.0
11
2804.679498
21
1271.085946
31
0.0
0
ARC
8
0
10
2804.601531
20
1271.375638
30
0.0
40
0.300000
50
285.063560
51
311.538507
0
LINE
8
0
10
2804.800468
20
1271.151085
30
0.0
11
2806.346454
21
1272.520710
31
0.0
0
ARC
8
0
10
2806.147517
20
1272.745263
30
0.0
40
0.300000
50
311.538507
51
15.692771
0
ARC
8
0
10
2806.580743
20
1272.866979
30
0.0
40
0.150000
50
37.746080
51
195.692771
0
LINE
8
0
10
2806.699353
20
1272.958803
30
0.0
11
2808.827250
21
1270.210198
31
0.0
0
ARC
8
0
10
2808.542343
20
1270.116242
30
0.0
40
0.300000
50
271.133979
51
18.251415
0
LINE
8
0
10
2808.545728
20
1269.816217
30
0.0
11
2807.889106
21
1269.797604
31
0.0
0
ARC
8
0
10
2807.874938
20
1270.297403
30
0.0
40
0.500000
50
231.805773
51
271.623749
0
ARC
8
0
10
2806.329115
20
1268.332605
30
0.0
40
2.000000
50
51.805773
51
123.997055
0
LINE
8
0
10
2805.210815
20
1269.990738
30
0.0
11
2804.183334
21
1269.486779
31
0.0
0
ARC
8
0
10
2803.963152
20
1269.935689
30
0.0
40
0.500000
50
270.000000
51
296.127032
0
LINE
8
0
10
2803.963152
20
1269.435689
30
0.0
11
2802.515081
21
1269.435689
31
0.0
0
ARC
8
0
10
2802.515081
20
1269.135689
30
0.0
40
0.300000
50
90.000000
51
180.000000
0
LINE
8
0
10
2802.215081
20
1269.135689
30
0.0
11
2802.215081
21
1266.735689
31
0.0
0
ARC
8
0
10
2802.515081
20
1266.735689
30
0.0
40
0.300000
50
180.000000
51
270.000000
0
LINE
8
0
10
2802.515081
20
1266.435689
30
0.0
11
2804.215081
21
1266.435689
31
0.0
0
LINE
8
0
10
2804.215081
20
1266.435689
30
0.0
11
2804.215081
21
1265.642795
31
0.0
0
ARC
8
0
10
2803.715081
20
1265.642795
30
0.0
40
0.500000
50
315.000000
51
0.000000
0
LINE
8
0
10
2804.068635
20
1265.289242
30
0.0
11
2803.361528
21
1264.582135
31
0.0
0
ARC
8
0
10
2803.007974
20
1264.935689
30
0.0
40
0.500000
50
270.000000
51
315.000000
0
ATTDEF
8
0
10
0.000000
20
0.000000
30
0.0
40
3.5
1

3

2
PANE_WIDTH:0
70
0
0
ATTDEF
8
0
10
0.000000
20
0.000000
30
0.0
40
3.5
1

3

2
MIN_VETRO:0
70
0
0
ATTDEF
8
0
10
0.000000
20
0.000000
30
0.0
40
3.5
1

3

2
MAX_VETRO:0
70
0
0
ATTDEF
8
0
10
0.000000
20
0.000000
30
0.0
40
3.5
1

3

2
JX:0
70
0
0
ATTDEF
8
0
10
0.000000
20
0.000000
30
0.0
40
3.5
1

3

2
WX:0
70
0
0
ATTDEF
8
0
10
0.000000
20
0.000000
30
0.0
40
3.5
1

3

2
JY:0
70
0
0
ATTDEF
8
0
10
0.000000
20
0.000000
30
0.0
40
3.5
1

3

2
WY:0
70
0
0
ATTDEF
8
0
10
0.000000
20
0.000000
30
0.0
40
3.5
1

3

2
DESC:Marco balconera
70
0
0
ATTDEF
8
0
10
0.000000
20
0.000000
30
0.0
40
3.5
1

3

2
DENS:1.625
70
0
0
ATTDEF
8
0
10
0.000000
20
0.000000
30
0.0
40
3.5
1

3

2
TDEV:61.58
70
0
0
ATTDEF
8
0
10
0.000000
20
0.000000
30
0.0
40
3.5
1

3

2
TDEV2:0
70
0
0
ATTDEF
8
0
10
0.000000
20
0.000000
30
0.0
40
3.5
1

3

2
TDEV3:0
70
0
0
ATTDEF
8
0
10
0.000000
20
0.000000
30
0.0
40
3.5
1

3

2
TDEV4:0
70
0
0
ATTDEF
8
0
10
0.000000
20
0.000000
30
0.0
40
3.5
1

3

2
TDEV5:0
70
0
0
ATTDEF
8
0
10
0.000000
20
0.000000
30
0.0
40
3.5
1

3

2
PANE_WIDTH:0
70
0
0
ATTDEF
8
0
10
0.000000
20
0.000000
30
0.0
40
3.5
1

3

2
MIN_VETRO:0
70
0
0
ATTDEF
8
0
10
0.000000
20
0.000000
30
0.0
40
3.5
1

3

2
MAX_VETRO:0
70
0
0
ATTDEF
8
0
10
0.000000
20
0.000000
30
0.0
40
3.5
1

3

2
JX:0
70
0
0
ATTDEF
8
0
10
0.000000
20
0.000000
30
0.0
40
3.5
1

3

2
WX:0
70
0
0
ATTDEF
8
0
10
0.000000
20
0.000000
30
0.0
40
3.5
1

3

2
JY:0
70
0
0
ATTDEF
8
0
10
0.000000
20
0.000000
30
0.0
40
3.5
1

3

2
WY:0
70
0
0
ENDSEC
0
EOF
