0
SECTION
2
ENTITIES
0
LINE
8
00_POLIAMIDAS
10
5905.607426
20
325.263648
30
0.0
11
5907.346271
21
327.002493
31
0.0
0
LINE
8
00_POLIAMIDAS
10
5906.013505
20
323.424663
30
0.0
11
5912.210300
21
329.621458
31
0.0
0
LINE
8
00_POLIAMIDAS
10
5905.607426
20
320.773520
30
0.0
11
5906.129929
21
321.296024
31
0.0
0
LINE
8
00_POLIAMIDAS
10
5912.855364
20
328.021458
30
0.0
11
5914.455364
21
329.621458
31
0.0
0
LINE
8
00_POLIAMIDAS
10
5909.334239
20
324.500333
30
0.0
11
5909.934656
21
325.100751
31
0.0
0
LINE
8
00_POLIAMIDAS
10
5905.607426
20
318.528456
30
0.0
11
5907.604884
21
320.525914
31
0.0
0
LINE
8
00_POLIAMIDAS
10
5914.660508
20
327.581538
30
0.0
11
5916.111557
21
329.032587
31
0.0
0
LINE
8
00_POLIAMIDAS
10
5906.626895
20
317.302862
30
0.0
11
5909.473625
21
320.149592
31
0.0
0
LINE
8
00_POLIAMIDAS
10
5915.549679
20
326.225646
30
0.0
11
5916.995487
21
327.671454
31
0.0
0
LINE
8
00_POLIAMIDAS
10
5908.982724
20
317.413626
30
0.0
11
5910.428532
21
318.859434
31
0.0
0
LINE
8
00_POLIAMIDAS
10
5916.433733
20
324.864635
30
0.0
11
5918.247408
21
326.678310
31
0.0
0
LINE
8
00_POLIAMIDAS
10
5909.866655
20
316.052493
30
0.0
11
5911.312462
21
317.498301
31
0.0
0
LINE
8
00_POLIAMIDAS
10
5918.198545
20
324.384384
30
0.0
11
5920.607426
21
326.793264
31
0.0
0
LINE
8
00_POLIAMIDAS
10
5911.158455
20
315.099229
30
0.0
11
5912.758455
21
316.699229
31
0.0
0
LINE
8
00_POLIAMIDAS
10
5919.652241
20
323.593015
30
0.0
11
5920.607426
21
324.548200
31
0.0
0
LINE
8
00_POLIAMIDAS
10
5913.403519
20
315.099229
30
0.0
11
5919.131053
21
320.826764
31
0.0
0
LINE
8
00_POLIAMIDAS
10
5915.725445
20
315.176092
30
0.0
11
5915.878357
21
315.329003
31
0.0
0
LINE
8
00_POLIAMIDAS
10
5918.487530
20
317.938176
30
0.0
11
5920.607426
21
320.058072
31
0.0
0
LINE
8
00_POLIAMIDAS
10
5919.912843
20
317.118426
30
0.0
11
5920.607426
21
317.813008
31
0.0
0
LINE
8
00_POLIAMIDAS
10
5906.155124
20
317.096024
30
0.0
11
5905.607426
21
317.643722
31
0.0
0
LINE
8
00_POLIAMIDAS
10
5907.619988
20
317.876224
30
0.0
11
5905.607426
21
319.888786
31
0.0
0
LINE
8
00_POLIAMIDAS
10
5912.642047
20
315.099229
30
0.0
11
5906.683263
21
321.058013
31
0.0
0
LINE
8
00_POLIAMIDAS
10
5914.887111
20
315.099229
30
0.0
11
5913.287111
21
316.699229
31
0.0
0
LINE
8
00_POLIAMIDAS
10
5906.455287
20
323.531052
30
0.0
11
5905.607426
21
324.378914
31
0.0
0
LINE
8
00_POLIAMIDAS
10
5916.281545
20
315.949858
30
0.0
11
5914.835737
21
317.395666
31
0.0
0
LINE
8
00_POLIAMIDAS
10
5907.888709
20
324.342695
30
0.0
11
5905.607426
21
326.623978
31
0.0
0
LINE
8
00_POLIAMIDAS
10
5917.165475
20
317.310992
30
0.0
11
5915.719668
21
318.756800
31
0.0
0
LINE
8
00_POLIAMIDAS
10
5909.707591
20
324.768877
30
0.0
11
5907.648419
21
326.828048
31
0.0
0
LINE
8
00_POLIAMIDAS
10
5919.187421
20
317.534111
30
0.0
11
5916.641481
21
320.080051
31
0.0
0
LINE
8
00_POLIAMIDAS
10
5910.598520
20
326.123011
30
0.0
11
5909.152712
21
327.568819
31
0.0
0
LINE
8
00_POLIAMIDAS
10
5920.607426
20
318.359170
30
0.0
11
5918.502644
21
320.463951
31
0.0
0
LINE
8
00_POLIAMIDAS
10
5911.482486
20
327.484109
30
0.0
11
5910.036643
21
328.929953
31
0.0
0
LINE
8
00_POLIAMIDAS
10
5920.607426
20
320.604234
30
0.0
11
5919.930614
21
321.281046
31
0.0
0
LINE
8
00_POLIAMIDAS
10
5913.190201
20
328.021458
30
0.0
11
5911.590201
21
329.621458
31
0.0
0
LINE
8
00_POLIAMIDAS
10
5920.032060
20
323.424663
30
0.0
11
5913.835265
21
329.621458
31
0.0
0
LINE
8
00_POLIAMIDAS
10
5920.607426
20
325.094362
30
0.0
11
5918.761257
21
326.940531
31
0.0
0
LINE
8
00_POLIAMIDAS
10
5920.582088
20
327.364764
30
0.0
11
5920.347526
21
327.599326
31
0.0
0
LINE
8
00_POLIAMIDAS
10
5917.585452
20
317.957699
30
0.0
11
5915.876012
21
315.325392
31
0.0
0
ARC
8
00_POLIAMIDAS
10
5917.838159
20
317.796024
30
0.0
40
0.300000
50
90.000000
51
147.390000
0
LINE
8
00_POLIAMIDAS
10
5917.892620
20
318.096024
30
0.0
11
5917.838159
21
318.096024
31
0.0
0
ARC
8
00_POLIAMIDAS
10
5917.892620
20
316.896024
30
0.0
40
1.200000
50
60.000000
51
90.000000
0
LINE
8
00_POLIAMIDAS
10
5919.876594
20
317.136216
30
0.0
11
5918.492620
21
317.935254
31
0.0
0
ARC
8
00_POLIAMIDAS
10
5920.026594
20
317.396024
30
0.0
40
0.300000
50
240.000000
51
270.000000
0
LINE
8
00_POLIAMIDAS
10
5920.207426
20
317.096024
30
0.0
11
5920.026594
21
317.096024
31
0.0
0
ARC
8
00_POLIAMIDAS
10
5920.207426
20
317.496024
30
0.0
40
0.400000
50
270.000000
51
0.000000
0
LINE
8
00_POLIAMIDAS
10
5920.607426
20
320.896024
30
0.0
11
5920.607426
21
317.496024
31
0.0
0
ARC
8
00_POLIAMIDAS
10
5920.207426
20
320.896024
30
0.0
40
0.400000
50
0.000000
51
90.000000
0
LINE
8
00_POLIAMIDAS
10
5920.024220
20
321.296024
30
0.0
11
5920.207426
21
321.296024
31
0.0
0
ARC
8
00_POLIAMIDAS
10
5920.024220
20
320.996024
30
0.0
40
0.300000
50
90.000000
51
120.000000
0
LINE
8
00_POLIAMIDAS
10
5918.490246
20
320.456793
30
0.0
11
5919.874220
21
321.255831
31
0.0
0
ARC
8
00_POLIAMIDAS
10
5917.890246
20
321.496024
30
0.0
40
1.200000
50
270.000000
51
300.000000
0
LINE
8
00_POLIAMIDAS
10
5917.262207
20
320.296024
30
0.0
11
5917.890246
21
320.296024
31
0.0
0
ARC
8
00_POLIAMIDAS
10
5917.262207
20
319.296024
30
0.0
40
1.000000
50
90.000000
51
147.000000
0
LINE
8
00_POLIAMIDAS
10
5914.738323
20
317.245662
30
0.0
11
5916.423536
21
319.840663
31
0.0
0
ARC
8
00_POLIAMIDAS
10
5913.731918
20
317.899229
30
0.0
40
1.200000
50
270.000000
51
327.000000
0
LINE
8
00_POLIAMIDAS
10
5912.482933
20
316.699229
30
0.0
11
5913.731918
21
316.699229
31
0.0
0
ARC
8
00_POLIAMIDAS
10
5912.482933
20
317.899229
30
0.0
40
1.200000
50
213.000000
51
270.000000
0
LINE
8
00_POLIAMIDAS
10
5909.791315
20
319.840663
30
0.0
11
5911.476528
21
317.245662
31
0.0
0
ARC
8
00_POLIAMIDAS
10
5908.952644
20
319.296024
30
0.0
40
1.000000
50
33.000000
51
90.000000
0
LINE
8
00_POLIAMIDAS
10
5908.324605
20
320.296024
30
0.0
11
5908.952644
21
320.296024
31
0.0
0
ARC
8
00_POLIAMIDAS
10
5908.324605
20
321.496024
30
0.0
40
1.200000
50
240.000000
51
270.000000
0
LINE
8
00_POLIAMIDAS
10
5906.340631
20
321.255831
30
0.0
11
5907.724605
21
320.456793
31
0.0
0
ARC
8
00_POLIAMIDAS
10
5906.190631
20
320.996024
30
0.0
40
0.300000
50
60.000000
51
90.000000
0
LINE
8
00_POLIAMIDAS
10
5906.007426
20
321.296024
30
0.0
11
5906.190631
21
321.296024
31
0.0
0
ARC
8
00_POLIAMIDAS
10
5906.007426
20
320.896024
30
0.0
40
0.400000
50
90.000000
51
180.000000
0
LINE
8
00_POLIAMIDAS
10
5905.607426
20
317.496024
30
0.0
11
5905.607426
21
320.896024
31
0.0
0
ARC
8
00_POLIAMIDAS
10
5906.007426
20
317.496024
30
0.0
40
0.400000
50
180.000000
51
270.000000
0
LINE
8
00_POLIAMIDAS
10
5906.188257
20
317.096024
30
0.0
11
5906.007426
21
317.096024
31
0.0
0
ARC
8
00_POLIAMIDAS
10
5906.188257
20
317.396024
30
0.0
40
0.300000
50
270.000000
51
300.000000
0
LINE
8
00_POLIAMIDAS
10
5907.722231
20
317.935254
30
0.0
11
5906.338257
21
317.136216
31
0.0
0
ARC
8
00_POLIAMIDAS
10
5908.322231
20
316.896024
30
0.0
40
1.200000
50
90.000000
51
120.000000
0
LINE
8
00_POLIAMIDAS
10
5908.376692
20
318.096024
30
0.0
11
5908.322231
21
318.096024
31
0.0
0
ARC
8
00_POLIAMIDAS
10
5908.376692
20
317.796024
30
0.0
40
0.300000
50
32.610000
51
90.000000
0
LINE
8
00_POLIAMIDAS
10
5910.338840
20
315.325392
30
0.0
11
5908.629399
21
317.957699
31
0.0
0
ARC
8
00_POLIAMIDAS
10
5910.758175
20
315.597711
30
0.0
40
0.500000
50
213.000000
51
274.465002
0
LINE
8
00_POLIAMIDAS
10
5910.807426
20
315.099229
30
0.0
11
5910.797100
21
315.099229
31
0.0
0
LINE
8
00_POLIAMIDAS
10
5915.417751
20
315.099229
30
0.0
11
5910.807426
21
315.099229
31
0.0
0
ARC
8
00_POLIAMIDAS
10
5915.456676
20
315.597711
30
0.0
40
0.500000
50
265.534998
51
327.000000
0
LINE
8
00_POLIAMIDAS
10
5917.585452
20
326.762988
30
0.0
11
5915.876012
21
329.395295
31
0.0
0
ARC
8
00_POLIAMIDAS
10
5915.456676
20
329.122976
30
0.0
40
0.500000
50
33.000000
51
94.465002
0
LINE
8
00_POLIAMIDAS
10
5915.417751
20
329.621458
30
0.0
11
5910.807426
21
329.621458
31
0.0
0
LINE
8
00_POLIAMIDAS
10
5910.807426
20
329.621458
30
0.0
11
5910.797100
21
329.621458
31
0.0
0
ARC
8
00_POLIAMIDAS
10
5910.758175
20
329.122976
30
0.0
40
0.500000
50
85.534998
51
147.000000
0
LINE
8
00_POLIAMIDAS
10
5910.338840
20
329.395295
30
0.0
11
5908.629399
21
326.762988
31
0.0
0
ARC
8
00_POLIAMIDAS
10
5908.376692
20
326.924663
30
0.0
40
0.300000
50
270.000000
51
327.390000
0
LINE
8
00_POLIAMIDAS
10
5908.376692
20
326.624663
30
0.0
11
5908.322231
21
326.624663
31
0.0
0
ARC
8
00_POLIAMIDAS
10
5908.322231
20
327.824663
30
0.0
40
1.200000
50
240.000000
51
270.000000
0
LINE
8
00_POLIAMIDAS
10
5907.722231
20
326.785433
30
0.0
11
5906.338257
21
327.584471
31
0.0
0
ARC
8
00_POLIAMIDAS
10
5906.188257
20
327.324663
30
0.0
40
0.300000
50
60.000000
51
90.000000
0
LINE
8
00_POLIAMIDAS
10
5906.188257
20
327.624663
30
0.0
11
5906.007426
21
327.624663
31
0.0
0
ARC
8
00_POLIAMIDAS
10
5906.007426
20
327.224663
30
0.0
40
0.400000
50
90.000000
51
180.000000
0
LINE
8
00_POLIAMIDAS
10
5905.607426
20
327.224663
30
0.0
11
5905.607426
21
323.824663
31
0.0
0
ARC
8
00_POLIAMIDAS
10
5906.007426
20
323.824663
30
0.0
40
0.400000
50
180.000000
51
270.000000
0
LINE
8
00_POLIAMIDAS
10
5906.007426
20
323.424663
30
0.0
11
5906.190631
21
323.424663
31
0.0
0
ARC
8
00_POLIAMIDAS
10
5906.190631
20
323.724663
30
0.0
40
0.300000
50
270.000000
51
300.000000
0
LINE
8
00_POLIAMIDAS
10
5906.340631
20
323.464856
30
0.0
11
5907.724605
21
324.263894
31
0.0
0
ARC
8
00_POLIAMIDAS
10
5908.324605
20
323.224663
30
0.0
40
1.200000
50
90.000000
51
120.000000
0
LINE
8
00_POLIAMIDAS
10
5908.324605
20
324.424663
30
0.0
11
5908.952644
21
324.424663
31
0.0
0
ARC
8
00_POLIAMIDAS
10
5908.952644
20
325.424663
30
0.0
40
1.000000
50
270.000000
51
327.000000
0
LINE
8
00_POLIAMIDAS
10
5909.791315
20
324.880024
30
0.0
11
5911.476528
21
327.475025
31
0.0
0
ARC
8
00_POLIAMIDAS
10
5912.482933
20
326.821458
30
0.0
40
1.200000
50
90.000000
51
147.000000
0
LINE
8
00_POLIAMIDAS
10
5912.482933
20
328.021458
30
0.0
11
5913.731918
21
328.021458
31
0.0
0
ARC
8
00_POLIAMIDAS
10
5913.731918
20
326.821458
30
0.0
40
1.200000
50
33.000000
51
90.000000
0
LINE
8
00_POLIAMIDAS
10
5914.738323
20
327.475025
30
0.0
11
5916.423536
21
324.880024
31
0.0
0
ARC
8
00_POLIAMIDAS
10
5917.262207
20
325.424663
30
0.0
40
1.000000
50
213.000000
51
270.000000
0
LINE
8
00_POLIAMIDAS
10
5917.262207
20
324.424663
30
0.0
11
5917.890246
21
324.424663
31
0.0
0
ARC
8
00_POLIAMIDAS
10
5917.890246
20
323.224663
30
0.0
40
1.200000
50
60.000000
51
90.000000
0
LINE
8
00_POLIAMIDAS
10
5918.490246
20
324.263894
30
0.0
11
5919.874220
21
323.464856
31
0.0
0
ARC
8
00_POLIAMIDAS
10
5920.024220
20
323.724663
30
0.0
40
0.300000
50
240.000000
51
270.000000
0
LINE
8
00_POLIAMIDAS
10
5920.024220
20
323.424663
30
0.0
11
5920.207426
21
323.424663
31
0.0
0
ARC
8
00_POLIAMIDAS
10
5920.207426
20
323.824663
30
0.0
40
0.400000
50
270.000000
51
0.000000
0
LINE
8
00_POLIAMIDAS
10
5920.607426
20
323.824663
30
0.0
11
5920.607426
21
327.224663
31
0.0
0
ARC
8
00_POLIAMIDAS
10
5920.207426
20
327.224663
30
0.0
40
0.400000
50
0.000000
51
90.000000
0
LINE
8
00_POLIAMIDAS
10
5920.207426
20
327.624663
30
0.0
11
5920.026594
21
327.624663
31
0.0
0
ARC
8
00_POLIAMIDAS
10
5920.026594
20
327.324663
30
0.0
40
0.300000
50
90.000000
51
120.000000
0
LINE
8
00_POLIAMIDAS
10
5919.876594
20
327.584471
30
0.0
11
5918.492620
21
326.785433
31
0.0
0
ARC
8
00_POLIAMIDAS
10
5917.892620
20
327.824663
30
0.0
40
1.200000
50
270.000000
51
300.000000
0
LINE
8
00_POLIAMIDAS
10
5917.892620
20
326.624663
30
0.0
11
5917.838159
21
326.624663
31
0.0
0
ARC
8
00_POLIAMIDAS
10
5917.838159
20
326.924663
30
0.0
40
0.300000
50
212.610000
51
270.000000
0
LINE
8
0
10
5887.107426
20
275.059780
30
0.0
11
5887.107426
21
276.859780
31
0.0
0
LINE
8
0
10
5887.107426
20
276.859780
30
0.0
11
5894.607426
21
276.859780
31
0.0
0
LINE
8
0
10
5894.607426
20
276.859780
30
0.0
11
5894.607426
21
275.259780
31
0.0
0
LINE
8
0
10
5894.607426
20
275.259780
30
0.0
11
5894.907426
21
275.259780
31
0.0
0
ARC
8
0
10
5894.907426
20
275.559780
30
0.0
40
0.300000
50
270.000000
51
336.242263
0
LINE
8
0
10
5895.182003
20
275.438919
30
0.0
11
5896.114914
21
277.558345
31
0.0
0
ARC
8
0
10
5895.657286
20
277.759780
30
0.0
40
0.500000
50
336.242263
51
90.000000
0
LINE
8
0
10
5895.657286
20
278.259780
30
0.0
11
5884.707426
21
278.259780
31
0.0
0
LINE
8
0
10
5884.707426
20
278.259780
30
0.0
11
5884.707426
21
327.697038
31
0.0
0
LINE
8
0
10
5884.707426
20
327.697038
30
0.0
11
5885.270167
21
328.259780
31
0.0
0
LINE
8
0
10
5885.270167
20
328.259780
30
0.0
11
5888.270961
21
328.259780
31
0.0
0
ARC
8
0
10
5888.270961
20
327.759780
30
0.0
40
0.500000
50
10.000000
51
90.000000
0
LINE
8
0
10
5888.763365
20
327.846604
30
0.0
11
5888.964846
21
326.703946
31
0.0
0
LINE
8
0
10
5888.964846
20
326.703946
30
0.0
11
5892.884228
21
327.395039
31
0.0
0
LINE
8
0
10
5892.884228
20
327.395039
30
0.0
11
5893.289807
21
327.974267
31
0.0
0
LINE
8
0
10
5893.289807
20
327.974267
30
0.0
11
5893.869035
21
327.568687
31
0.0
0
LINE
8
0
10
5893.869035
20
327.568687
30
0.0
11
5897.788416
21
328.259780
31
0.0
0
LINE
8
0
10
5897.788416
20
328.259780
30
0.0
11
5903.307426
21
328.259780
31
0.0
0
ARC
8
0
10
5903.307426
20
327.759780
30
0.0
40
0.500000
50
0.000000
51
90.000000
0
LINE
8
0
10
5903.807426
20
327.759780
30
0.0
11
5903.807426
21
315.160907
31
0.0
0
ARC
8
0
10
5904.107426
20
315.160907
30
0.0
40
0.300000
50
180.000000
51
270.000000
0
LINE
8
0
10
5904.107426
20
314.860907
30
0.0
11
5905.607426
21
314.860907
31
0.0
0
ARC
8
0
10
5906.107426
20
314.860907
30
0.0
40
0.500000
50
110.093329
51
180.000000
0
LINE
8
0
10
5905.935650
20
315.330474
30
0.0
11
5906.729990
21
315.621056
31
0.0
0
ARC
8
0
10
5907.013991
20
314.662840
30
0.0
40
1.000000
50
16.092391
51
106.509063
0
LINE
8
0
10
5907.975177
20
314.940134
30
0.0
11
5908.207426
21
314.382737
31
0.0
0
LINE
8
0
10
5908.207426
20
314.382737
30
0.0
11
5908.207426
21
314.167737
31
0.0
0
LINE
8
0
10
5908.207426
20
314.167737
30
0.0
11
5909.222944
21
313.888470
31
0.0
0
LINE
8
0
10
5909.222944
20
313.888470
30
0.0
11
5909.232846
21
313.885792
31
0.0
0
ARC
8
0
10
5909.307426
20
314.176374
30
0.0
40
0.300000
50
255.605413
51
1.251415
0
LINE
8
0
10
5909.607354
20
314.182926
30
0.0
11
5908.390402
21
317.395679
31
0.0
0
ARC
8
0
10
5908.201344
20
317.330434
30
0.0
40
0.200000
50
19.039809
51
200.049592
0
LINE
8
0
10
5908.013465
20
317.261867
30
0.0
11
5906.199962
21
316.599241
31
0.0
0
ARC
8
0
10
5905.907426
20
316.532737
30
0.0
40
0.300000
50
270.000000
51
12.807633
0
LINE
8
0
10
5905.907426
20
316.232737
30
0.0
11
5905.607426
21
316.232737
31
0.0
0
ARC
8
0
10
5905.607426
20
316.532737
30
0.0
40
0.300000
50
90.000000
51
270.000000
0
LINE
8
0
10
5905.607426
20
316.832737
30
0.0
11
5905.607426
21
321.332737
31
0.0
0
ARC
8
0
10
5905.807426
20
321.332737
30
0.0
40
0.200000
50
60.000000
51
180.000000
0
LINE
8
0
10
5905.907426
20
321.505942
30
0.0
11
5907.707522
21
320.466656
31
0.0
0
ARC
8
0
10
5907.907426
20
320.460434
30
0.0
40
0.200000
50
178.217138
51
0.000000
0
LINE
8
0
10
5908.107426
20
320.460434
30
0.0
11
5908.107426
21
321.852353
31
0.0
0
ARC
8
0
10
5907.907426
20
321.852353
30
0.0
40
0.200000
50
0.000000
51
60.000000
0
LINE
8
0
10
5908.007426
20
322.025558
30
0.0
11
5907.877559
21
322.100536
31
0.0
0
ARC
8
0
10
5908.027559
20
322.360343
30
0.0
40
0.300000
50
120.000000
51
240.000000
0
LINE
8
0
10
5907.877559
20
322.620151
30
0.0
11
5908.007426
21
322.695129
31
0.0
0
ARC
8
0
10
5907.907426
20
322.868334
30
0.0
40
0.200000
50
300.000000
51
0.000000
0
LINE
8
0
10
5908.107426
20
322.868334
30
0.0
11
5908.107426
21
324.260253
31
0.0
0
ARC
8
0
10
5907.907426
20
324.260253
30
0.0
40
0.200000
50
0.000000
51
181.782862
0
LINE
8
0
10
5907.707522
20
324.254031
30
0.0
11
5905.907426
21
323.214745
31
0.0
0
ARC
8
0
10
5905.807426
20
323.387950
30
0.0
40
0.200000
50
180.000000
51
300.000000
0
LINE
8
0
10
5905.607426
20
323.387950
30
0.0
11
5905.607426
21
327.887950
31
0.0
0
ARC
8
0
10
5905.607426
20
328.187950
30
0.0
40
0.300000
50
90.000000
51
270.000000
0
LINE
8
0
10
5905.607426
20
328.487950
30
0.0
11
5905.907426
21
328.487950
31
0.0
0
ARC
8
0
10
5905.907426
20
328.187950
30
0.0
40
0.300000
50
347.192367
51
90.000000
0
LINE
8
0
10
5906.199962
20
328.121446
30
0.0
11
5908.013465
21
327.458820
31
0.0
0
ARC
8
0
10
5908.201344
20
327.390253
30
0.0
40
0.200000
50
159.950408
51
340.960191
0
LINE
8
0
10
5908.390402
20
327.325008
30
0.0
11
5909.607354
21
330.537761
31
0.0
0
ARC
8
0
10
5909.307426
20
330.544313
30
0.0
40
0.300000
50
358.748585
51
104.394587
0
LINE
8
0
10
5909.232846
20
330.834895
30
0.0
11
5909.222944
21
330.832217
31
0.0
0
LINE
8
0
10
5909.222944
20
330.832217
30
0.0
11
5908.207426
21
330.552950
31
0.0
0
LINE
8
0
10
5908.207426
20
330.552950
30
0.0
11
5908.207426
21
330.337950
31
0.0
0
LINE
8
0
10
5908.207426
20
330.337950
30
0.0
11
5907.975177
21
329.780553
31
0.0
0
ARC
8
0
10
5907.013991
20
330.057847
30
0.0
40
1.000000
50
253.490937
51
343.907609
0
LINE
8
0
10
5906.729990
20
329.099631
30
0.0
11
5905.935650
21
329.390213
31
0.0
0
ARC
8
0
10
5906.107426
20
329.859780
30
0.0
40
0.500000
50
180.000000
51
249.906671
0
LINE
8
0
10
5905.607426
20
329.859780
30
0.0
11
5899.007426
21
329.859780
31
0.0
0
LINE
8
0
10
5899.007426
20
329.859780
30
0.0
11
5899.007426
21
331.859780
31
0.0
0
ARC
8
0
10
5898.707426
20
331.859780
30
0.0
40
0.300000
50
0.000000
51
90.000000
0
LINE
8
0
10
5898.707426
20
332.159780
30
0.0
11
5898.169155
21
332.159780
31
0.0
0
ARC
8
0
10
5898.169155
20
331.859780
30
0.0
40
0.300000
50
90.000000
51
170.000000
0
LINE
8
0
10
5897.873713
20
331.911874
30
0.0
11
5897.511874
21
329.859780
31
0.0
0
LINE
8
0
10
5897.511874
20
329.859780
30
0.0
11
5888.702978
21
329.859780
31
0.0
0
LINE
8
0
10
5888.702978
20
329.859780
30
0.0
11
5888.341138
21
331.911874
31
0.0
0
ARC
8
0
10
5888.045696
20
331.859780
30
0.0
40
0.300000
50
10.000000
51
90.000000
0
LINE
8
0
10
5888.045696
20
332.159780
30
0.0
11
5887.507426
21
332.159780
31
0.0
0
ARC
8
0
10
5887.507426
20
331.859780
30
0.0
40
0.300000
50
90.000000
51
180.000000
0
LINE
8
0
10
5887.207426
20
331.859780
30
0.0
11
5887.207426
21
329.859780
31
0.0
0
LINE
8
0
10
5887.207426
20
329.859780
30
0.0
11
5884.731690
21
329.859780
31
0.0
0
ARC
8
0
10
5884.731690
20
329.559780
30
0.0
40
0.300000
50
90.000000
51
135.000000
0
LINE
8
0
10
5884.519558
20
329.771912
30
0.0
11
5883.195294
21
328.447648
31
0.0
0
ARC
8
0
10
5883.407426
20
328.235516
30
0.0
40
0.300000
50
135.000000
51
180.000000
0
LINE
8
0
10
5883.107426
20
328.235516
30
0.0
11
5883.107426
21
275.059780
31
0.0
0
LINE
8
0
10
5887.107426
20
275.059780
30
0.0
11
5883.107426
21
275.059780
31
0.0
0
LINE
8
0
10
5996.807426
20
302.559780
30
0.0
11
5996.807426
21
300.109780
31
0.0
0
LINE
8
0
10
5996.807426
20
300.109780
30
0.0
11
5996.357426
21
300.109780
31
0.0
0
ARC
8
0
10
5996.357426
20
299.359780
30
0.0
40
0.750000
50
90.000000
51
270.000000
0
LINE
8
0
10
5996.357426
20
298.609780
30
0.0
11
5996.807426
21
298.609780
31
0.0
0
LINE
8
0
10
5996.807426
20
298.609780
30
0.0
11
5996.807426
21
291.109780
31
0.0
0
LINE
8
0
10
5996.807426
20
291.109780
30
0.0
11
5996.357426
21
291.109780
31
0.0
0
ARC
8
0
10
5996.357426
20
290.359780
30
0.0
40
0.750000
50
90.000000
51
270.000000
0
LINE
8
0
10
5996.357426
20
289.609780
30
0.0
11
5996.807426
21
289.609780
31
0.0
0
LINE
8
0
10
5996.807426
20
289.609780
30
0.0
11
5996.807426
21
282.109780
31
0.0
0
LINE
8
0
10
5996.807426
20
282.109780
30
0.0
11
5996.357426
21
282.109780
31
0.0
0
ARC
8
0
10
5996.357426
20
281.359780
30
0.0
40
0.750000
50
90.000000
51
270.000000
0
LINE
8
0
10
5996.357426
20
280.609780
30
0.0
11
5996.807426
21
280.609780
31
0.0
0
LINE
8
0
10
5996.807426
20
280.609780
30
0.0
11
5996.807426
21
278.159780
31
0.0
0
LINE
8
0
10
5996.807426
20
278.159780
30
0.0
11
5977.807426
21
278.159780
31
0.0
0
LINE
8
0
10
5977.807426
20
278.159780
30
0.0
11
5977.807426
21
280.609780
31
0.0
0
LINE
8
0
10
5977.807426
20
280.609780
30
0.0
11
5978.257426
21
280.609780
31
0.0
0
ARC
8
0
10
5978.257426
20
281.359780
30
0.0
40
0.750000
50
270.000000
51
90.000000
0
LINE
8
0
10
5978.257426
20
282.109780
30
0.0
11
5977.807426
21
282.109780
31
0.0
0
LINE
8
0
10
5977.807426
20
282.109780
30
0.0
11
5977.807426
21
289.609780
31
0.0
0
LINE
8
0
10
5977.807426
20
289.609780
30
0.0
11
5978.257426
21
289.609780
31
0.0
0
ARC
8
0
10
5978.257426
20
290.359780
30
0.0
40
0.750000
50
270.000000
51
90.000000
0
LINE
8
0
10
5978.257426
20
291.109780
30
0.0
11
5977.807426
21
291.109780
31
0.0
0
LINE
8
0
10
5977.807426
20
291.109780
30
0.0
11
5977.807426
21
298.609780
31
0.0
0
LINE
8
0
10
5977.807426
20
298.609780
30
0.0
11
5978.257426
21
298.609780
31
0.0
0
ARC
8
0
10
5978.257426
20
299.359780
30
0.0
40
0.750000
50
270.000000
51
90.000000
0
LINE
8
0
10
5978.257426
20
300.109780
30
0.0
11
5977.807426
21
300.109780
31
0.0
0
LINE
8
0
10
5977.807426
20
300.109780
30
0.0
11
5977.807426
21
302.559780
31
0.0
0
LINE
8
0
10
5977.807426
20
302.559780
30
0.0
11
5996.807426
21
302.559780
31
0.0
0
LINE
8
0
10
5918.107426
20
320.460434
30
0.0
11
5918.107426
21
321.852353
31
0.0
0
ARC
8
0
10
5918.307426
20
320.460434
30
0.0
40
0.200000
50
180.000000
51
1.773627
0
LINE
8
0
10
5920.183323
20
321.488857
30
0.0
11
5918.507330
21
320.466624
31
0.0
0
ARC
8
0
10
5920.339537
20
321.232737
30
0.0
40
0.300000
50
90.000000
51
121.380132
0
LINE
8
0
10
5920.407426
20
321.532737
30
0.0
11
5920.339537
21
321.532737
31
0.0
0
ARC
8
0
10
5920.407426
20
321.332737
30
0.0
40
0.200000
50
0.000000
51
90.000000
0
LINE
8
0
10
5920.607426
20
316.832737
30
0.0
11
5920.607426
21
321.332737
31
0.0
0
ARC
8
0
10
5920.607426
20
316.532737
30
0.0
40
0.300000
50
270.000000
51
90.000000
0
LINE
8
0
10
5920.252400
20
316.328288
30
0.0
11
5920.607426
21
316.232737
31
0.0
0
ARC
8
0
10
5920.320534
20
316.620449
30
0.0
40
0.300000
50
231.176024
51
256.872879
0
LINE
8
0
10
5918.489286
20
317.709001
30
0.0
11
5920.132455
21
316.386726
31
0.0
0
ARC
8
0
10
5918.614672
20
317.864816
30
0.0
40
0.200000
50
178.000000
51
231.176024
0
LINE
8
0
10
5918.420223
20
318.027283
30
0.0
11
5918.414793
21
317.871796
31
0.0
0
ARC
8
0
10
5918.274691
20
318.032365
30
0.0
40
0.145621
50
358.000000
51
142.253920
0
LINE
8
0
10
5916.095257
20
315.455068
30
0.0
11
5918.159544
21
318.121509
31
0.0
0
ARC
8
0
10
5916.380164
20
315.361111
30
0.0
40
0.300000
50
161.748585
51
268.866021
0
LINE
8
0
10
5917.033400
20
315.042473
30
0.0
11
5916.376779
21
315.061087
31
0.0
0
ARC
8
0
10
5917.047568
20
315.542273
30
0.0
40
0.500000
50
268.376251
51
308.194227
0
ARC
8
0
10
5918.593391
20
313.577475
30
0.0
40
2.000000
50
56.002945
51
128.194227
0
LINE
8
0
10
5920.130075
20
315.030399
30
0.0
11
5919.711692
21
315.235607
31
0.0
0
ARC
8
0
10
5919.910834
20
314.313159
30
0.0
40
0.750000
50
46.914162
51
73.002945
0
LINE
8
0
10
5920.423153
20
314.860907
30
0.0
11
5922.107426
21
314.860907
31
0.0
0
ARC
8
0
10
5922.107426
20
315.160907
30
0.0
40
0.300000
50
270.000000
51
0.000000
0
LINE
8
0
10
5922.407426
20
315.160907
30
0.0
11
5922.407426
21
327.759780
31
0.0
0
ARC
8
0
10
5922.907426
20
327.759780
30
0.0
40
0.500000
50
90.000000
51
180.000000
0
LINE
8
0
10
5922.907426
20
328.259780
30
0.0
11
5926.407426
21
328.259780
31
0.0
0
LINE
8
0
10
5926.407426
20
328.259780
30
0.0
11
5926.907426
21
328.759780
31
0.0
0
LINE
8
0
10
5926.907426
20
328.759780
30
0.0
11
5927.407426
21
328.259780
31
0.0
0
LINE
8
0
10
5927.407426
20
328.259780
30
0.0
11
5932.607426
21
328.259780
31
0.0
0
LINE
8
0
10
5932.607426
20
328.259780
30
0.0
11
5933.107426
21
328.759780
31
0.0
0
LINE
8
0
10
5933.107426
20
328.759780
30
0.0
11
5933.607426
21
328.259780
31
0.0
0
LINE
8
0
10
5933.607426
20
328.259780
30
0.0
11
5970.621090
21
328.259780
31
0.0
0
ARC
8
0
10
5970.621090
20
327.959780
30
0.0
40
0.300000
50
332.647767
51
90.000000
0
ARC
8
0
10
5973.907426
20
326.259780
30
0.0
40
3.400000
50
152.647767
51
167.016140
0
ARC
8
0
10
5971.081569
20
326.911342
30
0.0
40
0.500000
50
167.016140
51
225.000000
0
LINE
8
0
10
5970.728015
20
326.557788
30
0.0
11
5971.324637
21
325.961167
31
0.0
0
ARC
8
0
10
5971.607480
20
326.244010
30
0.0
40
0.400000
50
225.000000
51
0.392859
0
ARC
8
0
10
5973.907426
20
326.259780
30
0.0
40
1.900000
50
269.607141
51
180.392859
0
ARC
8
0
10
5973.891655
20
323.959834
30
0.0
40
0.400000
50
89.607141
51
225.000000
0
LINE
8
0
10
5973.608813
20
323.676991
30
0.0
11
5974.205434
21
323.080370
31
0.0
0
ARC
8
0
10
5974.558988
20
323.433923
30
0.0
40
0.500000
50
225.000000
51
282.983860
0
ARC
8
0
10
5973.907426
20
326.259780
30
0.0
40
3.400000
50
282.983860
51
297.352233
0
ARC
8
0
10
5975.607426
20
322.973444
30
0.0
40
0.300000
50
0.000000
51
117.352233
0
LINE
8
0
10
5975.907426
20
322.973444
30
0.0
11
5975.907426
21
321.409780
31
0.0
0
ARC
8
0
10
5978.406265
20
321.485943
30
0.0
40
2.500000
50
181.745814
51
220.576706
0
LINE
8
0
10
5976.507426
20
319.859780
30
0.0
11
5976.507426
21
276.859780
31
0.0
0
LINE
8
0
10
5976.507426
20
276.859780
30
0.0
11
5998.107426
21
276.859780
31
0.0
0
LINE
8
0
10
5998.107426
20
276.859780
30
0.0
11
5998.107426
21
329.359780
31
0.0
0
ARC
8
0
10
5997.607426
20
329.359780
30
0.0
40
0.500000
50
0.000000
51
90.000000
0
LINE
8
0
10
5997.607426
20
329.859780
30
0.0
11
5995.107426
21
329.859780
31
0.0
0
ARC
8
0
10
5995.107426
20
329.359780
30
0.0
40
0.500000
50
90.000000
51
180.000000
0
LINE
8
0
10
5994.607426
20
329.359780
30
0.0
11
5994.607426
21
327.109780
31
0.0
0
ARC
8
0
10
5995.107426
20
327.109780
30
0.0
40
0.500000
50
180.000000
51
0.000000
0
LINE
8
0
10
5995.607426
20
327.109780
30
0.0
11
5995.607426
21
328.109780
31
0.0
0
ARC
8
0
10
5996.357426
20
328.109780
30
0.0
40
0.750000
50
0.000000
51
180.000000
0
LINE
8
0
10
5997.107426
20
328.109780
30
0.0
11
5997.107426
21
321.609780
31
0.0
0
ARC
8
0
10
5996.357426
20
321.609780
30
0.0
40
0.750000
50
180.000000
51
0.000000
0
LINE
8
0
10
5995.607426
20
321.609780
30
0.0
11
5995.607426
21
322.609780
31
0.0
0
ARC
8
0
10
5995.107426
20
322.609780
30
0.0
40
0.500000
50
0.000000
51
180.000000
0
LINE
8
0
10
5994.607426
20
322.609780
30
0.0
11
5994.607426
21
320.359780
31
0.0
0
ARC
8
0
10
5995.107426
20
320.359780
30
0.0
40
0.500000
50
180.000000
51
270.000000
0
LINE
8
0
10
5995.107426
20
319.859780
30
0.0
11
5996.807426
21
319.859780
31
0.0
0
LINE
8
0
10
5996.807426
20
319.859780
30
0.0
11
5996.807426
21
306.859780
31
0.0
0
ARC
8
0
10
5993.807426
20
306.859780
30
0.0
40
3.000000
50
270.000000
51
0.000000
0
LINE
8
0
10
5993.807426
20
303.859780
30
0.0
11
5980.807426
21
303.859780
31
0.0
0
ARC
8
0
10
5980.807426
20
306.859780
30
0.0
40
3.000000
50
180.000000
51
270.000000
0
LINE
8
0
10
5977.807426
20
306.859780
30
0.0
11
5977.807426
21
319.859780
31
0.0
0
LINE
8
0
10
5977.807426
20
319.859780
30
0.0
11
5979.507426
21
319.859780
31
0.0
0
ARC
8
0
10
5979.507426
20
320.359780
30
0.0
40
0.500000
50
270.000000
51
0.000000
0
LINE
8
0
10
5980.007426
20
320.359780
30
0.0
11
5980.007426
21
322.609780
31
0.0
0
ARC
8
0
10
5979.507426
20
322.609780
30
0.0
40
0.500000
50
0.000000
51
180.000000
0
LINE
8
0
10
5979.007426
20
322.609780
30
0.0
11
5979.007426
21
321.609780
31
0.0
0
ARC
8
0
10
5978.257426
20
321.609780
30
0.0
40
0.750000
50
180.000000
51
0.000000
0
LINE
8
0
10
5977.507426
20
321.609780
30
0.0
11
5977.507426
21
328.109780
31
0.0
0
ARC
8
0
10
5978.257426
20
328.109780
30
0.0
40
0.750000
50
0.000000
51
180.000000
0
LINE
8
0
10
5979.007426
20
328.109780
30
0.0
11
5979.007426
21
327.109780
31
0.0
0
ARC
8
0
10
5979.507426
20
327.109780
30
0.0
40
0.500000
50
180.000000
51
0.000000
0
LINE
8
0
10
5980.007426
20
327.109780
30
0.0
11
5980.007426
21
329.359780
31
0.0
0
ARC
8
0
10
5979.507426
20
329.359780
30
0.0
40
0.500000
50
0.000000
51
90.000000
0
LINE
8
0
10
5979.507426
20
329.859780
30
0.0
11
5929.007426
21
329.859780
31
0.0
0
LINE
8
0
10
5929.007426
20
329.859780
30
0.0
11
5929.007426
21
331.859780
31
0.0
0
ARC
8
0
10
5928.707426
20
331.859780
30
0.0
40
0.300000
50
0.000000
51
90.000000
0
LINE
8
0
10
5928.707426
20
332.159780
30
0.0
11
5927.507426
21
332.159780
31
0.0
0
ARC
8
0
10
5927.507426
20
331.859780
30
0.0
40
0.300000
50
90.000000
51
180.000000
0
LINE
8
0
10
5927.207426
20
331.859780
30
0.0
11
5927.207426
21
329.859780
31
0.0
0
LINE
8
0
10
5927.207426
20
329.859780
30
0.0
11
5920.423153
21
329.859780
31
0.0
0
ARC
8
0
10
5919.910834
20
330.407528
30
0.0
40
0.750000
50
286.997055
51
313.085838
0
LINE
8
0
10
5920.130075
20
329.690288
30
0.0
11
5919.711692
21
329.485080
31
0.0
0
ARC
8
0
10
5918.593391
20
331.143212
30
0.0
40
2.000000
50
231.805773
51
303.997055
0
ARC
8
0
10
5917.047568
20
329.178414
30
0.0
40
0.500000
50
51.805773
51
91.623749
0
LINE
8
0
10
5917.033400
20
329.678213
30
0.0
11
5916.376779
21
329.659600
31
0.0
0
ARC
8
0
10
5916.380164
20
329.359575
30
0.0
40
0.300000
50
91.133979
51
198.251415
0
LINE
8
0
10
5916.095257
20
329.265619
30
0.0
11
5918.159544
21
326.599178
31
0.0
0
ARC
8
0
10
5918.274691
20
326.688322
30
0.0
40
0.145621
50
217.746080
51
2.000000
0
LINE
8
0
10
5918.420223
20
326.693404
30
0.0
11
5918.414793
21
326.848891
31
0.0
0
ARC
8
0
10
5918.614672
20
326.855871
30
0.0
40
0.200000
50
128.823976
51
182.000000
0
LINE
8
0
10
5918.489286
20
327.011686
30
0.0
11
5920.132455
21
328.333961
31
0.0
0
ARC
8
0
10
5920.320534
20
328.100238
30
0.0
40
0.300000
50
103.127121
51
128.823976
0
LINE
8
0
10
5920.252400
20
328.392399
30
0.0
11
5920.607426
21
328.487950
31
0.0
0
ARC
8
0
10
5920.607426
20
328.187950
30
0.0
40
0.300000
50
270.000000
51
90.000000
0
LINE
8
0
10
5920.607426
20
327.887950
30
0.0
11
5920.607426
21
323.387950
31
0.0
0
ARC
8
0
10
5920.407426
20
323.387950
30
0.0
40
0.200000
50
270.000000
51
0.000000
0
LINE
8
0
10
5920.407426
20
323.187950
30
0.0
11
5920.339537
21
323.187950
31
0.0
0
ARC
8
0
10
5920.339537
20
323.487950
30
0.0
40
0.300000
50
238.619868
51
270.000000
0
LINE
8
0
10
5920.183323
20
323.231830
30
0.0
11
5918.507330
21
324.254063
31
0.0
0
ARC
8
0
10
5918.307426
20
324.260253
30
0.0
40
0.200000
50
358.226373
51
180.000000
0
LINE
8
0
10
5918.107426
20
324.260253
30
0.0
11
5918.107426
21
322.868334
31
0.0
0
ARC
8
0
10
5918.307426
20
322.868334
30
0.0
40
0.200000
50
180.000000
51
240.000000
0
LINE
8
0
10
5918.207426
20
322.695129
30
0.0
11
5918.337292
21
322.620151
31
0.0
0
ARC
8
0
10
5918.187292
20
322.360343
30
0.0
40
0.300000
50
300.000000
51
60.000000
0
LINE
8
0
10
5918.337292
20
322.100536
30
0.0
11
5918.207426
21
322.025558
31
0.0
0
ARC
8
0
10
5918.307426
20
321.852353
30
0.0
40
0.200000
50
120.000000
51
180.000000
0
ATTDEF
8
0
10
0.000000
20
0.000000
30
0.0
40
3.5
1

3

2
PANE_WIDTH:0
70
0
0
ATTDEF
8
0
10
0.000000
20
0.000000
30
0.0
40
3.5
1

3

2
MIN_VETRO:0
70
0
0
ATTDEF
8
0
10
0.000000
20
0.000000
30
0.0
40
3.5
1

3

2
MAX_VETRO:0
70
0
0
ATTDEF
8
0
10
0.000000
20
0.000000
30
0.0
40
3.5
1

3

2
JX:0
70
0
0
ATTDEF
8
0
10
0.000000
20
0.000000
30
0.0
40
3.5
1

3

2
WX:0
70
0
0
ATTDEF
8
0
10
0.000000
20
0.000000
30
0.0
40
3.5
1

3

2
JY:0
70
0
0
ATTDEF
8
0
10
0.000000
20
0.000000
30
0.0
40
3.5
1

3

2
WY:0
70
0
0
ATTDEF
8
0
10
0.000000
20
0.000000
30
0.0
40
3.5
1

3

2
DESC:Guia de 115mm
70
0
0
ATTDEF
8
0
10
0.000000
20
0.000000
30
0.0
40
3.5
1

3

2
DENS:1.6809
70
0
0
ATTDEF
8
0
10
0.000000
20
0.000000
30
0.0
40
3.5
1

3

2
TDEV:74.71
70
0
0
ATTDEF
8
0
10
0.000000
20
0.000000
30
0.0
40
3.5
1

3

2
TDEV2:0
70
0
0
ATTDEF
8
0
10
0.000000
20
0.000000
30
0.0
40
3.5
1

3

2
TDEV3:0
70
0
0
ATTDEF
8
0
10
0.000000
20
0.000000
30
0.0
40
3.5
1

3

2
TDEV4:0
70
0
0
ATTDEF
8
0
10
0.000000
20
0.000000
30
0.0
40
3.5
1

3

2
TDEV5:0
70
0
0
ATTDEF
8
0
10
0.000000
20
0.000000
30
0.0
40
3.5
1

3

2
PANE_WIDTH:0
70
0
0
ATTDEF
8
0
10
0.000000
20
0.000000
30
0.0
40
3.5
1

3

2
MIN_VETRO:0
70
0
0
ATTDEF
8
0
10
0.000000
20
0.000000
30
0.0
40
3.5
1

3

2
MAX_VETRO:0
70
0
0
ATTDEF
8
0
10
0.000000
20
0.000000
30
0.0
40
3.5
1

3

2
JX:0
70
0
0
ATTDEF
8
0
10
0.000000
20
0.000000
30
0.0
40
3.5
1

3

2
WX:0
70
0
0
ATTDEF
8
0
10
0.000000
20
0.000000
30
0.0
40
3.5
1

3

2
JY:0
70
0
0
ATTDEF
8
0
10
0.000000
20
0.000000
30
0.0
40
3.5
1

3

2
WY:0
70
0
0
ENDSEC
0
EOF
