0
SECTION
2
ENTITIES
0
LINE
8
0
10
2930.763382
20
1206.554207
30
0.0
11
2931.809508
21
1207.600332
31
0.0
0
LINE
8
0
10
2930.573458
20
1204.119219
30
0.0
11
2936.574235
21
1210.119996
31
0.0
0
LINE
8
0
10
2933.619299
20
1204.919996
30
0.0
11
2935.633107
21
1206.933804
31
0.0
0
LINE
8
0
10
2936.984868
20
1208.285564
30
0.0
11
2938.819299
21
1210.119996
31
0.0
0
LINE
8
0
10
2931.238781
20
1200.294414
30
0.0
11
2932.069348
21
1201.124980
31
0.0
0
LINE
8
0
10
2939.264363
20
1208.319996
30
0.0
11
2941.064363
21
1210.119996
31
0.0
0
LINE
8
0
10
2930.886070
20
1197.696639
30
0.0
11
2933.953107
21
1200.763676
31
0.0
0
LINE
8
0
10
2941.509427
20
1208.319996
30
0.0
11
2943.309427
21
1210.119996
31
0.0
0
LINE
8
0
10
2933.629876
20
1198.195380
30
0.0
11
2935.075683
21
1199.641188
31
0.0
0
LINE
8
0
10
2943.754491
20
1208.319996
30
0.0
11
2945.554491
21
1210.119996
31
0.0
0
LINE
8
0
10
2934.513806
20
1196.834247
30
0.0
11
2935.959614
21
1198.280055
31
0.0
0
LINE
8
0
10
2945.999555
20
1208.319996
30
0.0
11
2947.799555
21
1210.119996
31
0.0
0
LINE
8
0
10
2935.584539
20
1195.659916
30
0.0
11
2937.321263
21
1197.396639
31
0.0
0
LINE
8
0
10
2948.244619
20
1208.319996
30
0.0
11
2950.044619
21
1210.119996
31
0.0
0
LINE
8
0
10
2937.766327
20
1195.596639
30
0.0
11
2939.566327
21
1197.396639
31
0.0
0
LINE
8
0
10
2950.489683
20
1208.319996
30
0.0
11
2952.289683
21
1210.119996
31
0.0
0
LINE
8
0
10
2940.011391
20
1195.596639
30
0.0
11
2941.811391
21
1197.396639
31
0.0
0
LINE
8
0
10
2952.734747
20
1208.319996
30
0.0
11
2954.534747
21
1210.119996
31
0.0
0
LINE
8
0
10
2942.256455
20
1195.596639
30
0.0
11
2944.056455
21
1197.396639
31
0.0
0
LINE
8
0
10
2954.979811
20
1208.319996
30
0.0
11
2956.779811
21
1210.119996
31
0.0
0
LINE
8
0
10
2944.501519
20
1195.596639
30
0.0
11
2946.301519
21
1197.396639
31
0.0
0
LINE
8
0
10
2957.224875
20
1208.319996
30
0.0
11
2959.024875
21
1210.119996
31
0.0
0
LINE
8
0
10
2946.746583
20
1195.596639
30
0.0
11
2948.546583
21
1197.396639
31
0.0
0
LINE
8
0
10
2959.281817
20
1208.131874
30
0.0
11
2960.832110
21
1209.682167
31
0.0
0
LINE
8
0
10
2948.991647
20
1195.596639
30
0.0
11
2950.791647
21
1197.396639
31
0.0
0
LINE
8
0
10
2960.275691
20
1206.880683
30
0.0
11
2961.721499
21
1208.326491
31
0.0
0
LINE
8
0
10
2951.236711
20
1195.596639
30
0.0
11
2953.036711
21
1197.396639
31
0.0
0
LINE
8
0
10
2961.159621
20
1205.519550
30
0.0
11
2962.760067
21
1207.119996
31
0.0
0
LINE
8
0
10
2953.481775
20
1195.596639
30
0.0
11
2955.281775
21
1197.396639
31
0.0
0
LINE
8
0
10
2964.460797
20
1206.575661
30
0.0
11
2965.437150
21
1207.552015
31
0.0
0
LINE
8
0
10
2962.805131
20
1204.919996
30
0.0
11
2964.131485
21
1206.246349
31
0.0
0
LINE
8
0
10
2955.726839
20
1195.596639
30
0.0
11
2957.526839
21
1197.396639
31
0.0
0
LINE
8
0
10
2964.382344
20
1204.252145
30
0.0
11
2965.336921
21
1205.206721
31
0.0
0
LINE
8
0
10
2957.971903
20
1195.596639
30
0.0
11
2963.206674
21
1200.831410
31
0.0
0
LINE
8
0
10
2960.275527
20
1195.655199
30
0.0
11
2961.186230
21
1196.565902
31
0.0
0
LINE
8
0
10
2964.883819
20
1200.263491
30
0.0
11
2965.337150
21
1200.716823
31
0.0
0
LINE
8
0
10
2963.187325
20
1198.566997
30
0.0
11
2964.120298
21
1199.499970
31
0.0
0
LINE
8
0
10
2964.641780
20
1197.776388
30
0.0
11
2965.419198
21
1198.553807
31
0.0
0
LINE
8
0
10
2930.976113
20
1197.696639
30
0.0
11
2930.437150
21
1198.235601
31
0.0
0
LINE
8
0
10
2932.437223
20
1198.480593
30
0.0
11
2931.628086
21
1199.289729
31
0.0
0
LINE
8
0
10
2937.566241
20
1195.596639
30
0.0
11
2931.993016
21
1201.169864
31
0.0
0
LINE
8
0
10
2939.811305
20
1195.596639
30
0.0
11
2938.011305
21
1197.396639
31
0.0
0
LINE
8
0
10
2931.280271
20
1204.127672
30
0.0
11
2930.496557
21
1204.911386
31
0.0
0
LINE
8
0
10
2942.056369
20
1195.596639
30
0.0
11
2940.256369
21
1197.396639
31
0.0
0
LINE
8
0
10
2930.532923
20
1207.120085
30
0.0
11
2930.437240
21
1207.215768
31
0.0
0
LINE
8
0
10
2932.750468
20
1204.902540
30
0.0
11
2931.771055
21
1205.881953
31
0.0
0
LINE
8
0
10
2931.049108
20
1206.603900
30
0.0
11
2930.537150
21
1207.115857
31
0.0
0
LINE
8
0
10
2944.301433
20
1195.596639
30
0.0
11
2942.501433
21
1197.396639
31
0.0
0
LINE
8
0
10
2934.572851
20
1205.325221
30
0.0
11
2932.763109
21
1207.134963
31
0.0
0
LINE
8
0
10
2946.546497
20
1195.596639
30
0.0
11
2944.746497
21
1197.396639
31
0.0
0
LINE
8
0
10
2935.466258
20
1206.676878
30
0.0
11
2934.020450
21
1208.122686
31
0.0
0
LINE
8
0
10
2948.791561
20
1195.596639
30
0.0
11
2946.991561
21
1197.396639
31
0.0
0
LINE
8
0
10
2936.394741
20
1207.993459
30
0.0
11
2934.904380
21
1209.483820
31
0.0
0
LINE
8
0
10
2951.036625
20
1195.596639
30
0.0
11
2949.236625
21
1197.396639
31
0.0
0
LINE
8
0
10
2938.313268
20
1208.319996
30
0.0
11
2936.513268
21
1210.119996
31
0.0
0
LINE
8
0
10
2953.281689
20
1195.596639
30
0.0
11
2951.481689
21
1197.396639
31
0.0
0
LINE
8
0
10
2940.558332
20
1208.319996
30
0.0
11
2938.758332
21
1210.119996
31
0.0
0
LINE
8
0
10
2955.526753
20
1195.596639
30
0.0
11
2953.726753
21
1197.396639
31
0.0
0
LINE
8
0
10
2942.803396
20
1208.319996
30
0.0
11
2941.003396
21
1210.119996
31
0.0
0
LINE
8
0
10
2957.771817
20
1195.596639
30
0.0
11
2955.971817
21
1197.396639
31
0.0
0
LINE
8
0
10
2945.048460
20
1208.319996
30
0.0
11
2943.248460
21
1210.119996
31
0.0
0
LINE
8
0
10
2960.012112
20
1195.601408
30
0.0
11
2958.216881
21
1197.396639
31
0.0
0
LINE
8
0
10
2947.293524
20
1208.319996
30
0.0
11
2945.493524
21
1210.119996
31
0.0
0
LINE
8
0
10
2961.228142
20
1196.630442
30
0.0
11
2959.782334
21
1198.076250
31
0.0
0
LINE
8
0
10
2949.538588
20
1208.319996
30
0.0
11
2947.738588
21
1210.119996
31
0.0
0
LINE
8
0
10
2962.112073
20
1197.991575
30
0.0
11
2960.666265
21
1199.437383
31
0.0
0
LINE
8
0
10
2951.783652
20
1208.319996
30
0.0
11
2949.983652
21
1210.119996
31
0.0
0
LINE
8
0
10
2964.472737
20
1197.875975
30
0.0
11
2961.673834
21
1200.674878
31
0.0
0
LINE
8
0
10
2954.028716
20
1208.319996
30
0.0
11
2952.228716
21
1210.119996
31
0.0
0
LINE
8
0
10
2964.381076
20
1200.212700
30
0.0
11
2963.593268
21
1201.000508
31
0.0
0
LINE
8
0
10
2956.273780
20
1208.319996
30
0.0
11
2954.473780
21
1210.119996
31
0.0
0
LINE
8
0
10
2965.417076
20
1201.421764
30
0.0
11
2965.162275
21
1201.676565
31
0.0
0
LINE
8
0
10
2958.518844
20
1208.319996
30
0.0
11
2956.718844
21
1210.119996
31
0.0
0
LINE
8
0
10
2961.873395
20
1204.965445
30
0.0
11
2960.863863
21
1205.974977
31
0.0
0
LINE
8
0
10
2965.063068
20
1204.020836
30
0.0
11
2958.963908
21
1210.119996
31
0.0
0
LINE
8
0
10
2964.709385
20
1206.619584
30
0.0
11
2963.853256
21
1207.475712
31
0.0
0
ARC
8
0
10
2959.905236
20
1196.796639
30
0.0
40
1.200000
50
270.000000
51
327.000000
0
LINE
8
0
10
2959.905236
20
1195.596639
30
0.0
11
2935.969065
21
1195.596639
31
0.0
0
ARC
8
0
10
2935.969065
20
1196.796639
30
0.0
40
1.200000
50
213.000000
51
270.000000
0
LINE
8
0
10
2934.962660
20
1196.143072
30
0.0
11
2933.459124
21
1198.458314
31
0.0
0
ARC
8
0
10
2933.206417
20
1198.296639
30
0.0
40
0.300000
50
32.610000
51
90.000000
0
LINE
8
0
10
2933.206417
20
1198.596639
30
0.0
11
2932.952047
21
1198.596639
31
0.0
0
ARC
8
0
10
2932.952047
20
1197.396639
30
0.0
40
1.200000
50
90.000000
51
120.503167
0
LINE
8
0
10
2932.342944
20
1198.430560
30
0.0
11
2931.167628
21
1197.738159
31
0.0
0
ARC
8
0
10
2931.015352
20
1197.996639
30
0.0
40
0.300000
50
270.000000
51
300.503167
0
LINE
8
0
10
2931.015352
20
1197.696639
30
0.0
11
2930.837150
21
1197.696639
31
0.0
0
ARC
8
0
10
2930.837150
20
1198.096639
30
0.0
40
0.400000
50
180.000000
51
270.000000
0
LINE
8
0
10
2930.437150
20
1198.096639
30
0.0
11
2930.437150
21
1198.496639
31
0.0
0
ARC
8
0
10
2930.537150
20
1198.496639
30
0.0
40
0.100000
50
90.000000
51
180.000000
0
LINE
8
0
10
2930.537150
20
1198.596639
30
0.0
11
2930.537150
21
1198.871639
31
0.0
0
ARC
8
0
10
2930.837150
20
1198.871639
30
0.0
40
0.300000
50
90.000000
51
180.000000
0
LINE
8
0
10
2930.837150
20
1199.171639
30
0.0
11
2930.896677
21
1199.171639
31
0.0
0
ARC
8
0
10
2931.187150
20
1199.696639
30
0.0
40
0.600000
50
241.044976
51
118.955024
0
LINE
8
0
10
2930.896677
20
1200.221639
30
0.0
11
2930.837150
21
1200.221639
31
0.0
0
ARC
8
0
10
2930.837150
20
1200.521639
30
0.0
40
0.300000
50
180.000000
51
270.000000
0
LINE
8
0
10
2930.537150
20
1200.521639
30
0.0
11
2930.537150
21
1200.796639
31
0.0
0
ARC
8
0
10
2930.537150
20
1200.896639
30
0.0
40
0.100000
50
180.000000
51
270.000000
0
LINE
8
0
10
2930.437150
20
1200.896639
30
0.0
11
2930.437150
21
1201.296639
31
0.0
0
ARC
8
0
10
2930.837150
20
1201.296639
30
0.0
40
0.400000
50
90.000000
51
180.000000
0
LINE
8
0
10
2930.837150
20
1201.696639
30
0.0
11
2931.015485
21
1201.696639
31
0.0
0
ARC
8
0
10
2931.015485
20
1201.396639
30
0.0
40
0.300000
50
59.544173
51
90.000000
0
LINE
8
0
10
2931.167547
20
1201.655245
30
0.0
11
2932.346156
21
1200.962215
31
0.0
0
ARC
8
0
10
2932.954405
20
1201.996639
30
0.0
40
1.200000
50
239.544173
51
270.000000
0
LINE
8
0
10
2932.954405
20
1200.796639
30
0.0
11
2933.673778
21
1200.796639
31
0.0
0
ARC
8
0
10
2933.673778
20
1199.596639
30
0.0
40
1.200000
50
33.000000
51
90.000000
0
LINE
8
0
10
2934.680183
20
1200.250206
30
0.0
11
2936.119310
21
1198.034144
31
0.0
0
ARC
8
0
10
2937.293449
20
1198.796639
30
0.0
40
1.400000
50
213.000000
51
270.000000
0
LINE
8
0
10
2937.293449
20
1197.396639
30
0.0
11
2958.580852
21
1197.396639
31
0.0
0
ARC
8
0
10
2958.580852
20
1198.796639
30
0.0
40
1.400000
50
270.000000
51
327.000000
0
LINE
8
0
10
2959.754991
20
1198.034144
30
0.0
11
2961.194118
21
1200.250206
31
0.0
0
ARC
8
0
10
2962.200523
20
1199.596639
30
0.0
40
1.200000
50
90.000000
51
147.000000
0
LINE
8
0
10
2962.200523
20
1200.796639
30
0.0
11
2962.919896
21
1200.796639
31
0.0
0
ARC
8
0
10
2962.919896
20
1201.996639
30
0.0
40
1.200000
50
270.000000
51
300.455827
0
LINE
8
0
10
2963.528144
20
1200.962215
30
0.0
11
2964.706753
21
1201.655245
31
0.0
0
ARC
8
0
10
2964.858816
20
1201.396639
30
0.0
40
0.300000
50
90.000000
51
120.455827
0
LINE
8
0
10
2964.858816
20
1201.696639
30
0.0
11
2965.037150
21
1201.696639
31
0.0
0
ARC
8
0
10
2965.037150
20
1201.296639
30
0.0
40
0.400000
50
0.000000
51
90.000000
0
LINE
8
0
10
2965.437150
20
1201.296639
30
0.0
11
2965.437150
21
1200.896639
31
0.0
0
ARC
8
0
10
2965.337150
20
1200.896639
30
0.0
40
0.100000
50
270.000000
51
0.000000
0
LINE
8
0
10
2965.337150
20
1200.796639
30
0.0
11
2965.337150
21
1200.521639
31
0.0
0
ARC
8
0
10
2965.037150
20
1200.521639
30
0.0
40
0.300000
50
270.000000
51
0.000000
0
LINE
8
0
10
2965.037150
20
1200.221639
30
0.0
11
2964.977624
21
1200.221639
31
0.0
0
ARC
8
0
10
2964.687150
20
1199.696639
30
0.0
40
0.600000
50
61.044976
51
298.955024
0
LINE
8
0
10
2964.977624
20
1199.171639
30
0.0
11
2965.037150
21
1199.171639
31
0.0
0
ARC
8
0
10
2965.037150
20
1198.871639
30
0.0
40
0.300000
50
0.000000
51
90.000000
0
LINE
8
0
10
2965.337150
20
1198.871639
30
0.0
11
2965.337150
21
1198.596639
31
0.0
0
ARC
8
0
10
2965.337150
20
1198.496639
30
0.0
40
0.100000
50
0.000000
51
90.000000
0
LINE
8
0
10
2965.437150
20
1198.496639
30
0.0
11
2965.437150
21
1198.096639
31
0.0
0
ARC
8
0
10
2965.037150
20
1198.096639
30
0.0
40
0.400000
50
270.000000
51
0.000000
0
LINE
8
0
10
2965.037150
20
1197.696639
30
0.0
11
2964.858949
21
1197.696639
31
0.0
0
ARC
8
0
10
2964.858949
20
1197.996639
30
0.0
40
0.300000
50
239.496833
51
270.000000
0
LINE
8
0
10
2964.706673
20
1197.738159
30
0.0
11
2963.531357
21
1198.430560
31
0.0
0
ARC
8
0
10
2962.922253
20
1197.396639
30
0.0
40
1.200000
50
59.496833
51
90.000000
0
LINE
8
0
10
2962.922253
20
1198.596639
30
0.0
11
2962.667884
21
1198.596639
31
0.0
0
ARC
8
0
10
2962.667884
20
1198.296639
30
0.0
40
0.300000
50
90.000000
51
147.390000
0
LINE
8
0
10
2962.415177
20
1198.458314
30
0.0
11
2960.911641
21
1196.143072
31
0.0
0
ARC
8
0
10
2959.905236
20
1208.919996
30
0.0
40
1.200000
50
33.000000
51
90.000000
0
LINE
8
0
10
2959.905236
20
1210.119996
30
0.0
11
2935.969065
21
1210.119996
31
0.0
0
ARC
8
0
10
2935.969065
20
1208.919996
30
0.0
40
1.200000
50
90.000000
51
147.000000
0
LINE
8
0
10
2934.962660
20
1209.573563
30
0.0
11
2933.459124
21
1207.258320
31
0.0
0
ARC
8
0
10
2933.206417
20
1207.419996
30
0.0
40
0.300000
50
270.000000
51
327.390000
0
LINE
8
0
10
2933.206417
20
1207.119996
30
0.0
11
2932.952047
21
1207.119996
31
0.0
0
ARC
8
0
10
2932.952047
20
1208.319996
30
0.0
40
1.200000
50
239.496833
51
270.000000
0
LINE
8
0
10
2932.342944
20
1207.286074
30
0.0
11
2931.167628
21
1207.978476
31
0.0
0
ARC
8
0
10
2931.015352
20
1207.719996
30
0.0
40
0.300000
50
59.496833
51
90.000000
0
LINE
8
0
10
2931.015352
20
1208.019996
30
0.0
11
2930.837150
21
1208.019996
31
0.0
0
ARC
8
0
10
2930.837150
20
1207.619996
30
0.0
40
0.400000
50
90.000000
51
180.000000
0
LINE
8
0
10
2930.437150
20
1207.619996
30
0.0
11
2930.437150
21
1207.219996
31
0.0
0
ARC
8
0
10
2930.537150
20
1207.219996
30
0.0
40
0.100000
50
180.000000
51
270.000000
0
LINE
8
0
10
2930.537150
20
1207.119996
30
0.0
11
2930.537150
21
1206.844996
31
0.0
0
ARC
8
0
10
2930.837150
20
1206.844996
30
0.0
40
0.300000
50
180.000000
51
270.000000
0
LINE
8
0
10
2930.837150
20
1206.544996
30
0.0
11
2930.896677
21
1206.544996
31
0.0
0
ARC
8
0
10
2931.187150
20
1206.019996
30
0.0
40
0.600000
50
241.044976
51
118.955024
0
LINE
8
0
10
2930.896677
20
1205.494996
30
0.0
11
2930.837150
21
1205.494996
31
0.0
0
ARC
8
0
10
2930.837150
20
1205.194996
30
0.0
40
0.300000
50
90.000000
51
180.000000
0
LINE
8
0
10
2930.537150
20
1205.194996
30
0.0
11
2930.537150
21
1204.919996
31
0.0
0
ARC
8
0
10
2930.537150
20
1204.819996
30
0.0
40
0.100000
50
90.000000
51
180.000000
0
LINE
8
0
10
2930.437150
20
1204.819996
30
0.0
11
2930.437150
21
1204.419996
31
0.0
0
ARC
8
0
10
2930.837150
20
1204.419996
30
0.0
40
0.400000
50
180.000000
51
270.000000
0
LINE
8
0
10
2930.837150
20
1204.019996
30
0.0
11
2931.015485
21
1204.019996
31
0.0
0
ARC
8
0
10
2931.015485
20
1204.319996
30
0.0
40
0.300000
50
270.000000
51
300.455827
0
LINE
8
0
10
2931.167547
20
1204.061390
30
0.0
11
2932.346156
21
1204.754420
31
0.0
0
ARC
8
0
10
2932.954405
20
1203.719996
30
0.0
40
1.200000
50
90.000000
51
120.455827
0
LINE
8
0
10
2932.954405
20
1204.919996
30
0.0
11
2933.673778
21
1204.919996
31
0.0
0
ARC
8
0
10
2933.673778
20
1206.119996
30
0.0
40
1.200000
50
270.000000
51
327.000000
0
LINE
8
0
10
2934.680183
20
1205.466429
30
0.0
11
2936.119310
21
1207.682490
31
0.0
0
ARC
8
0
10
2937.293449
20
1206.919996
30
0.0
40
1.400000
50
90.000000
51
147.000000
0
LINE
8
0
10
2937.293449
20
1208.319996
30
0.0
11
2958.580852
21
1208.319996
31
0.0
0
ARC
8
0
10
2958.580852
20
1206.919996
30
0.0
40
1.400000
50
33.000000
51
90.000000
0
LINE
8
0
10
2959.754991
20
1207.682490
30
0.0
11
2961.194118
21
1205.466429
31
0.0
0
ARC
8
0
10
2962.200523
20
1206.119996
30
0.0
40
1.200000
50
213.000000
51
270.000000
0
LINE
8
0
10
2962.200523
20
1204.919996
30
0.0
11
2962.919896
21
1204.919996
31
0.0
0
ARC
8
0
10
2962.919896
20
1203.719996
30
0.0
40
1.200000
50
59.544173
51
90.000000
0
LINE
8
0
10
2963.528144
20
1204.754420
30
0.0
11
2964.706753
21
1204.061390
31
0.0
0
ARC
8
0
10
2964.858816
20
1204.319996
30
0.0
40
0.300000
50
239.544173
51
270.000000
0
LINE
8
0
10
2964.858816
20
1204.019996
30
0.0
11
2965.037150
21
1204.019996
31
0.0
0
ARC
8
0
10
2965.037150
20
1204.419996
30
0.0
40
0.400000
50
270.000000
51
0.000000
0
LINE
8
0
10
2965.437150
20
1204.419996
30
0.0
11
2965.437150
21
1204.819996
31
0.0
0
ARC
8
0
10
2965.337150
20
1204.819996
30
0.0
40
0.100000
50
0.000000
51
90.000000
0
LINE
8
0
10
2965.337150
20
1204.919996
30
0.0
11
2965.337150
21
1205.194996
31
0.0
0
ARC
8
0
10
2965.037150
20
1205.194996
30
0.0
40
0.300000
50
0.000000
51
90.000000
0
LINE
8
0
10
2965.037150
20
1205.494996
30
0.0
11
2964.977624
21
1205.494996
31
0.0
0
ARC
8
0
10
2964.687150
20
1206.019996
30
0.0
40
0.600000
50
61.044976
51
298.955024
0
LINE
8
0
10
2964.977624
20
1206.544996
30
0.0
11
2965.037150
21
1206.544996
31
0.0
0
ARC
8
0
10
2965.037150
20
1206.844996
30
0.0
40
0.300000
50
270.000000
51
0.000000
0
LINE
8
0
10
2965.337150
20
1206.844996
30
0.0
11
2965.337150
21
1207.119996
31
0.0
0
ARC
8
0
10
2965.337150
20
1207.219996
30
0.0
40
0.100000
50
270.000000
51
0.000000
0
LINE
8
0
10
2965.437150
20
1207.219996
30
0.0
11
2965.437150
21
1207.619996
31
0.0
0
ARC
8
0
10
2965.037150
20
1207.619996
30
0.0
40
0.400000
50
0.000000
51
90.000000
0
LINE
8
0
10
2965.037150
20
1208.019996
30
0.0
11
2964.858949
21
1208.019996
31
0.0
0
ARC
8
0
10
2964.858949
20
1207.719996
30
0.0
40
0.300000
50
90.000000
51
120.503167
0
LINE
8
0
10
2964.706673
20
1207.978476
30
0.0
11
2963.531357
21
1207.286074
31
0.0
0
ARC
8
0
10
2962.922253
20
1208.319996
30
0.0
40
1.200000
50
270.000000
51
300.503167
0
LINE
8
0
10
2962.922253
20
1207.119996
30
0.0
11
2962.667884
21
1207.119996
31
0.0
0
ARC
8
0
10
2962.667884
20
1207.419996
30
0.0
40
0.300000
50
212.610000
51
270.000000
0
LINE
8
0
10
2962.415177
20
1207.258320
30
0.0
11
2960.911641
21
1209.573563
31
0.0
0
LINE
8
00_Contorno Poliamida
10
2939.474279
20
1198.266684
30
0.0
11
2939.182416
21
1198.511586
31
0.0
0
LINE
8
00_Contorno Poliamida
10
2943.295416
20
1198.971552
30
0.0
11
2943.003553
21
1199.216454
31
0.0
0
LINE
8
00_Contorno Poliamida
10
2939.793061
20
1201.910377
30
0.0
11
2939.501198
21
1202.155279
31
0.0
0
LINE
8
00_Contorno Poliamida
10
2947.116553
20
1199.676420
30
0.0
11
2946.824690
21
1199.921323
31
0.0
0
LINE
8
00_Contorno Poliamida
10
2943.614198
20
1202.615245
30
0.0
11
2943.322335
21
1202.860147
31
0.0
0
LINE
8
00_Contorno Poliamida
10
2940.111843
20
1205.554070
30
0.0
11
2939.819980
21
1205.798972
31
0.0
0
LINE
8
00_Contorno Poliamida
10
2954.440045
20
1197.442464
30
0.0
11
2954.148182
21
1197.687366
31
0.0
0
LINE
8
00_Contorno Poliamida
10
2950.937690
20
1200.381289
30
0.0
11
2950.645827
21
1200.626191
31
0.0
0
LINE
8
00_Contorno Poliamida
10
2947.435335
20
1203.320114
30
0.0
11
2947.143472
21
1203.565016
31
0.0
0
LINE
8
00_Contorno Poliamida
10
2943.932980
20
1206.258939
30
0.0
11
2943.641117
21
1206.503841
31
0.0
0
LINE
8
00_Contorno Poliamida
10
2954.758827
20
1201.086157
30
0.0
11
2954.466964
21
1201.331059
31
0.0
0
LINE
8
00_Contorno Poliamida
10
2951.256472
20
1204.024982
30
0.0
11
2950.964609
21
1204.269884
31
0.0
0
LINE
8
00_Contorno Poliamida
10
2947.754116
20
1206.963807
30
0.0
11
2947.462254
21
1207.208709
31
0.0
0
LINE
8
00_Contorno Poliamida
10
2955.077609
20
1204.729851
30
0.0
11
2954.785746
21
1204.974753
31
0.0
0
LINE
8
00_Contorno Poliamida
10
2939.471069
20
1198.255572
30
0.0
11
2939.497634
21
1198.559212
31
0.0
0
LINE
8
00_Contorno Poliamida
10
2939.789850
20
1201.899254
30
0.0
11
2939.816415
21
1202.202894
31
0.0
0
LINE
8
00_Contorno Poliamida
10
2940.108631
20
1205.542935
30
0.0
11
2940.135196
21
1205.846575
31
0.0
0
LINE
8
00_Contorno Poliamida
10
2943.292202
20
1198.960428
30
0.0
11
2943.318767
21
1199.264069
31
0.0
0
LINE
8
00_Contorno Poliamida
10
2943.610983
20
1202.604110
30
0.0
11
2943.637548
21
1202.907750
31
0.0
0
LINE
8
00_Contorno Poliamida
10
2943.929764
20
1206.247792
30
0.0
11
2943.956329
21
1206.551432
31
0.0
0
LINE
8
00_Contorno Poliamida
10
2947.113335
20
1199.665285
30
0.0
11
2947.139900
21
1199.968925
31
0.0
0
LINE
8
00_Contorno Poliamida
10
2947.432116
20
1203.308967
30
0.0
11
2947.458681
21
1203.612607
31
0.0
0
LINE
8
00_Contorno Poliamida
10
2947.750897
20
1206.952648
30
0.0
11
2947.777462
21
1207.256289
31
0.0
0
LINE
8
00_Contorno Poliamida
10
2950.934468
20
1200.370141
30
0.0
11
2950.961033
21
1200.673782
31
0.0
0
LINE
8
00_Contorno Poliamida
10
2951.253249
20
1204.013823
30
0.0
11
2951.279814
21
1204.317463
31
0.0
0
LINE
8
00_Contorno Poliamida
10
2954.436820
20
1197.431316
30
0.0
11
2954.463385
21
1197.734956
31
0.0
0
LINE
8
00_Contorno Poliamida
10
2954.755601
20
1201.074998
30
0.0
11
2954.782166
21
1201.378638
31
0.0
0
LINE
8
00_Contorno Poliamida
10
2955.074382
20
1204.718680
30
0.0
11
2955.100947
21
1205.022320
31
0.0
0
LINE
8
00_Contorno Poliamida
10
2954.472897
20
1197.711476
30
0.0
11
2954.154468
21
1197.652741
31
0.0
0
LINE
8
00_Contorno Poliamida
10
2954.791702
20
1201.355153
30
0.0
11
2954.473274
21
1201.296417
31
0.0
0
LINE
8
00_Contorno Poliamida
10
2950.970563
20
1200.650326
30
0.0
11
2950.652135
21
1200.591591
31
0.0
0
LINE
8
00_Contorno Poliamida
10
2947.149424
20
1199.945500
30
0.0
11
2946.830995
21
1199.886764
31
0.0
0
LINE
8
00_Contorno Poliamida
10
2943.328284
20
1199.240673
30
0.0
11
2943.009856
21
1199.181937
31
0.0
0
LINE
8
00_Contorno Poliamida
10
2939.507145
20
1198.535846
30
0.0
11
2939.188716
21
1198.477111
31
0.0
0
LINE
8
00_Contorno Poliamida
10
2955.110508
20
1204.998830
30
0.0
11
2954.792080
21
1204.940094
31
0.0
0
LINE
8
00_Contorno Poliamida
10
2951.289369
20
1204.294003
30
0.0
11
2950.970940
21
1204.235267
31
0.0
0
LINE
8
00_Contorno Poliamida
10
2947.468229
20
1203.589176
30
0.0
11
2947.149801
21
1203.530441
31
0.0
0
LINE
8
00_Contorno Poliamida
10
2943.647090
20
1202.884350
30
0.0
11
2943.328662
21
1202.825614
31
0.0
0
LINE
8
00_Contorno Poliamida
10
2939.825950
20
1202.179523
30
0.0
11
2939.507522
21
1202.120787
31
0.0
0
LINE
8
00_Contorno Poliamida
10
2947.787035
20
1207.232853
30
0.0
11
2947.468607
21
1207.174118
31
0.0
0
LINE
8
00_Contorno Poliamida
10
2943.965895
20
1206.528026
30
0.0
11
2943.647467
21
1206.469291
31
0.0
0
LINE
8
00_Contorno Poliamida
10
2940.144756
20
1205.823200
30
0.0
11
2939.826328
21
1205.764464
31
0.0
0
LINE
8
00_Contorno Poliamida
10
2942.204285
20
1199.521108
30
0.0
11
2941.791908
21
1199.916781
31
0.0
0
LINE
8
00_Contorno Poliamida
10
2947.993654
20
1200.194606
30
0.0
11
2947.581277
21
1200.590279
31
0.0
0
LINE
8
00_Contorno Poliamida
10
2943.045132
20
1204.942689
30
0.0
11
2942.632755
21
1205.338362
31
0.0
0
LINE
8
00_Contorno Poliamida
10
2953.783023
20
1200.868104
30
0.0
11
2953.370647
21
1201.263778
31
0.0
0
LINE
8
00_Contorno Poliamida
10
2948.834501
20
1205.616187
30
0.0
11
2948.422124
21
1206.011860
31
0.0
0
LINE
8
00_Contorno Poliamida
10
2954.623870
20
1206.289685
30
0.0
11
2954.211493
21
1206.685358
31
0.0
0
LINE
8
00_Contorno Poliamida
10
2953.846776
20
1201.319463
30
0.0
11
2953.364330
21
1201.263339
31
0.0
0
LINE
8
00_Contorno Poliamida
10
2948.057420
20
1200.645966
30
0.0
11
2947.574974
21
1200.589842
31
0.0
0
LINE
8
00_Contorno Poliamida
10
2942.268063
20
1199.972469
30
0.0
11
2941.785617
21
1199.916345
31
0.0
0
LINE
8
00_Contorno Poliamida
10
2954.687622
20
1206.741045
30
0.0
11
2954.205175
21
1206.684920
31
0.0
0
LINE
8
00_Contorno Poliamida
10
2948.898265
20
1206.067548
30
0.0
11
2948.415819
21
1206.011423
31
0.0
0
LINE
8
00_Contorno Poliamida
10
2943.108909
20
1205.394051
30
0.0
11
2942.626462
21
1205.337926
31
0.0
0
LINE
8
00_Contorno Poliamida
10
2942.200307
20
1199.517032
30
0.0
11
2942.270378
21
1199.968831
31
0.0
0
LINE
8
00_Contorno Poliamida
10
2943.041162
20
1204.938614
30
0.0
11
2943.111233
21
1205.390412
31
0.0
0
LINE
8
00_Contorno Poliamida
10
2947.989665
20
1200.190522
30
0.0
11
2948.059736
21
1200.642320
31
0.0
0
LINE
8
00_Contorno Poliamida
10
2948.830520
20
1205.612103
30
0.0
11
2948.900591
21
1206.063902
31
0.0
0
LINE
8
00_Contorno Poliamida
10
2953.779022
20
1200.864011
30
0.0
11
2953.849094
21
1201.315810
31
0.0
0
LINE
8
00_Contorno Poliamida
10
2954.619878
20
1206.285593
30
0.0
11
2954.689949
21
1206.737391
31
0.0
0
LINE
8
00_Contorno Poliamida
10
2938.444580
20
1197.396639
30
0.0
11
2938.437445
21
1197.415226
31
0.0
0
LINE
8
00_Contorno Poliamida
10
2940.619294
20
1200.091829
30
0.0
11
2940.482756
21
1200.447524
31
0.0
0
LINE
8
00_Contorno Poliamida
10
2938.980836
20
1204.360159
30
0.0
11
2938.844297
21
1204.715853
31
0.0
0
LINE
8
00_Contorno Poliamida
10
2944.303062
20
1198.855797
30
0.0
11
2944.166524
21
1199.211491
31
0.0
0
LINE
8
00_Contorno Poliamida
10
2942.664604
20
1203.124127
30
0.0
11
2942.528066
21
1203.479821
31
0.0
0
LINE
8
00_Contorno Poliamida
10
2947.986831
20
1197.619765
30
0.0
11
2947.850293
21
1197.975459
31
0.0
0
LINE
8
00_Contorno Poliamida
10
2946.348373
20
1201.888095
30
0.0
11
2946.211835
21
1202.243789
31
0.0
0
LINE
8
00_Contorno Poliamida
10
2944.709915
20
1206.156425
30
0.0
11
2944.573376
21
1206.512119
31
0.0
0
LINE
8
00_Contorno Poliamida
10
2950.032141
20
1200.652063
30
0.0
11
2949.895603
21
1201.007757
31
0.0
0
LINE
8
00_Contorno Poliamida
10
2948.393683
20
1204.920392
30
0.0
11
2948.257145
21
1205.276087
31
0.0
0
LINE
8
00_Contorno Poliamida
10
2953.715910
20
1199.416031
30
0.0
11
2953.579372
21
1199.771725
31
0.0
0
LINE
8
00_Contorno Poliamida
10
2952.077452
20
1203.684360
30
0.0
11
2951.940914
21
1204.040055
31
0.0
0
LINE
8
00_Contorno Poliamida
10
2957.399679
20
1198.179999
30
0.0
11
2957.263141
21
1198.535693
31
0.0
0
LINE
8
00_Contorno Poliamida
10
2955.761220
20
1202.448328
30
0.0
11
2955.624682
21
1202.804022
31
0.0
0
LINE
8
00_Contorno Poliamida
10
2954.122762
20
1206.716658
30
0.0
11
2953.986224
21
1207.072352
31
0.0
0
LINE
8
00_Contorno Poliamida
10
2957.806531
20
1205.480626
30
0.0
11
2957.669993
21
1205.836320
31
0.0
0
LINE
8
00_Contorno Poliamida
10
2938.972676
20
1204.350422
30
0.0
11
2939.143118
21
1204.603113
31
0.0
0
LINE
8
00_Contorno Poliamida
10
2941.017979
20
1207.382710
30
0.0
11
2941.027375
21
1207.396639
31
0.0
0
LINE
8
00_Contorno Poliamida
10
2940.611131
20
1200.082094
30
0.0
11
2940.781573
21
1200.334784
31
0.0
0
LINE
8
00_Contorno Poliamida
10
2942.656435
20
1203.114382
30
0.0
11
2942.826877
21
1203.367072
31
0.0
0
LINE
8
00_Contorno Poliamida
10
2944.701739
20
1206.146669
30
0.0
11
2944.872181
21
1206.399360
31
0.0
0
LINE
8
00_Contorno Poliamida
10
2944.294890
20
1198.846053
30
0.0
11
2944.465332
21
1199.098744
31
0.0
0
LINE
8
00_Contorno Poliamida
10
2946.340194
20
1201.878341
30
0.0
11
2946.510636
21
1202.131032
31
0.0
0
LINE
8
00_Contorno Poliamida
10
2948.385498
20
1204.910629
30
0.0
11
2948.555940
21
1205.163319
31
0.0
0
LINE
8
00_Contorno Poliamida
10
2947.978650
20
1197.610013
30
0.0
11
2948.149092
21
1197.862703
31
0.0
0
LINE
8
00_Contorno Poliamida
10
2950.023953
20
1200.642300
30
0.0
11
2950.194395
21
1200.894991
31
0.0
0
LINE
8
00_Contorno Poliamida
10
2952.069257
20
1203.674588
30
0.0
11
2952.239699
21
1203.927279
31
0.0
0
LINE
8
00_Contorno Poliamida
10
2954.114561
20
1206.706876
30
0.0
11
2954.285003
21
1206.959567
31
0.0
0
LINE
8
00_Contorno Poliamida
10
2953.707713
20
1199.406260
30
0.0
11
2953.878155
21
1199.658950
31
0.0
0
LINE
8
00_Contorno Poliamida
10
2955.753017
20
1202.438548
30
0.0
11
2955.923459
21
1202.691238
31
0.0
0
LINE
8
00_Contorno Poliamida
10
2957.798321
20
1205.470835
30
0.0
11
2957.931988
21
1205.669005
31
0.0
0
LINE
8
00_Contorno Poliamida
10
2957.391472
20
1198.170219
30
0.0
11
2957.561914
21
1198.422910
31
0.0
0
LINE
8
00_Contorno Poliamida
10
2938.445949
20
1197.396639
30
0.0
11
2938.428180
21
1197.402601
31
0.0
0
LINE
8
00_Contorno Poliamida
10
2948.147980
20
1197.859795
30
0.0
11
2947.841000
21
1197.962799
31
0.0
0
LINE
8
00_Contorno Poliamida
10
2944.464221
20
1199.095839
30
0.0
11
2944.157241
21
1199.198843
31
0.0
0
LINE
8
00_Contorno Poliamida
10
2940.780462
20
1200.331884
30
0.0
11
2940.473482
21
1200.434887
31
0.0
0
LINE
8
00_Contorno Poliamida
10
2957.560801
20
1198.419993
30
0.0
11
2957.253821
21
1198.522997
31
0.0
0
LINE
8
00_Contorno Poliamida
10
2953.877042
20
1199.656037
30
0.0
11
2953.570062
21
1199.759041
31
0.0
0
LINE
8
00_Contorno Poliamida
10
2950.193282
20
1200.892081
30
0.0
11
2949.886303
21
1200.995085
31
0.0
0
LINE
8
00_Contorno Poliamida
10
2946.509523
20
1202.128125
30
0.0
11
2946.202543
21
1202.231129
31
0.0
0
LINE
8
00_Contorno Poliamida
10
2942.825764
20
1203.364169
30
0.0
11
2942.518784
21
1203.467173
31
0.0
0
LINE
8
00_Contorno Poliamida
10
2939.142005
20
1204.600213
30
0.0
11
2938.835025
21
1204.703217
31
0.0
0
LINE
8
00_Contorno Poliamida
10
2955.922344
20
1202.688323
30
0.0
11
2955.615364
21
1202.791326
31
0.0
0
LINE
8
00_Contorno Poliamida
10
2952.238585
20
1203.924367
30
0.0
11
2951.931605
21
1204.027370
31
0.0
0
LINE
8
00_Contorno Poliamida
10
2948.554825
20
1205.160411
30
0.0
11
2948.247845
21
1205.263415
31
0.0
0
LINE
8
00_Contorno Poliamida
10
2944.871066
20
1206.396455
30
0.0
11
2944.564086
21
1206.499459
31
0.0
0
LINE
8
00_Contorno Poliamida
10
2957.931988
20
1205.732573
30
0.0
11
2957.660666
21
1205.823612
31
0.0
0
LINE
8
00_Contorno Poliamida
10
2954.283887
20
1206.956652
30
0.0
11
2953.976907
21
1207.059656
31
0.0
0
LINE
8
0
10
2938.231988
20
1197.396639
30
0.0
11
2957.631988
21
1197.396639
31
0.0
0
ARC
8
0
10
2957.631988
20
1197.696639
30
0.0
40
0.300000
50
270.000000
51
0.000000
0
LINE
8
0
10
2957.931988
20
1197.696639
30
0.0
11
2957.931988
21
1207.096639
31
0.0
0
ARC
8
0
10
2957.631988
20
1207.096639
30
0.0
40
0.300000
50
0.000000
51
90.000000
0
LINE
8
0
10
2957.631988
20
1207.396639
30
0.0
11
2938.231988
21
1207.396639
31
0.0
0
ARC
8
0
10
2938.231988
20
1207.096639
30
0.0
40
0.300000
50
90.000000
51
180.000000
0
LINE
8
0
10
2937.931988
20
1207.096639
30
0.0
11
2937.931988
21
1197.696639
31
0.0
0
ARC
8
0
10
2938.231988
20
1197.696639
30
0.0
40
0.300000
50
180.000000
51
270.000000
0
LINE
8
0
10
2909.237150
20
1208.858317
30
0.0
11
2928.937150
21
1208.858317
31
0.0
0
LINE
8
0
10
2928.937150
20
1208.858317
30
0.0
11
2928.937150
21
1196.858317
31
0.0
0
LINE
8
0
10
2928.937150
20
1196.858317
30
0.0
11
2909.237150
21
1196.858317
31
0.0
0
LINE
8
0
10
2909.237150
20
1196.858317
30
0.0
11
2909.237150
21
1208.858317
31
0.0
0
ARC
8
0
10
2932.737150
20
1204.758791
30
0.0
40
0.200000
50
0.000000
51
181.773628
0
LINE
8
0
10
2932.537246
20
1204.752601
30
0.0
11
2930.861253
21
1203.730368
31
0.0
0
ARC
8
0
10
2930.705039
20
1203.986487
30
0.0
40
0.300000
50
270.000000
51
301.380132
0
LINE
8
0
10
2930.705039
20
1203.686487
30
0.0
11
2930.637150
21
1203.686487
31
0.0
0
ARC
8
0
10
2930.637150
20
1203.886487
30
0.0
40
0.200000
50
180.000000
51
270.000000
0
LINE
8
0
10
2930.437150
20
1203.886487
30
0.0
11
2930.437150
21
1208.386487
31
0.0
0
ARC
8
0
10
2930.437150
20
1208.686487
30
0.0
40
0.300000
50
90.000000
51
270.000000
0
LINE
8
0
10
2930.437150
20
1208.986487
30
0.0
11
2930.792175
21
1208.890936
31
0.0
0
ARC
8
0
10
2930.724042
20
1208.598776
30
0.0
40
0.300000
50
51.176024
51
76.872879
0
LINE
8
0
10
2930.912121
20
1208.832498
30
0.0
11
2932.555290
21
1207.510224
31
0.0
0
ARC
8
0
10
2932.429904
20
1207.354409
30
0.0
40
0.200000
50
358.000000
51
51.176024
0
LINE
8
0
10
2932.629783
20
1207.347429
30
0.0
11
2932.624353
21
1207.191942
31
0.0
0
ARC
8
0
10
2932.769885
20
1207.186859
30
0.0
40
0.145621
50
178.000000
51
322.253920
0
LINE
8
0
10
2932.885032
20
1207.097716
30
0.0
11
2934.949319
21
1209.764157
31
0.0
0
ARC
8
0
10
2934.664412
20
1209.858113
30
0.0
40
0.300000
50
341.748585
51
88.866021
0
LINE
8
0
10
2934.667797
20
1210.158138
30
0.0
11
2934.011176
21
1210.176751
31
0.0
0
ARC
8
0
10
2933.997008
20
1209.676952
30
0.0
40
0.500000
50
88.376251
51
128.194227
0
ARC
8
0
10
2932.451185
20
1211.641750
30
0.0
40
2.000000
50
236.002945
51
308.194227
0
LINE
8
0
10
2931.332884
20
1209.983617
30
0.0
11
2930.631436
21
1210.327663
31
0.0
0
ARC
8
0
10
2930.499327
20
1210.058317
30
0.0
40
0.300000
50
63.872968
51
90.000000
0
LINE
8
0
10
2930.499327
20
1210.358317
30
0.0
11
2909.237150
21
1210.358317
31
0.0
0
LINE
8
0
10
2909.237150
20
1210.358317
30
0.0
11
2909.237150
21
1213.858317
31
0.0
0
LINE
8
0
10
2909.237150
20
1213.858317
30
0.0
11
2912.937150
21
1213.858317
31
0.0
0
ARC
8
0
10
2912.937150
20
1214.358317
30
0.0
40
0.500000
50
270.000000
51
0.000000
0
LINE
8
0
10
2913.437150
20
1214.358317
30
0.0
11
2913.437150
21
1219.558317
31
0.0
0
ARC
8
0
10
2912.937150
20
1219.558317
30
0.0
40
0.500000
50
0.000000
51
90.000000
0
LINE
8
0
10
2912.937150
20
1220.058317
30
0.0
11
2912.437150
21
1220.058317
31
0.0
0
ARC
8
0
10
2912.437150
20
1219.558317
30
0.0
40
0.500000
50
90.000000
51
180.000000
0
LINE
8
0
10
2911.937150
20
1219.558317
30
0.0
11
2911.937150
21
1215.358317
31
0.0
0
LINE
8
0
10
2911.937150
20
1215.358317
30
0.0
11
2908.237150
21
1215.358317
31
0.0
0
ARC
8
0
10
2908.237150
20
1214.858317
30
0.0
40
0.500000
50
90.000000
51
180.000000
0
LINE
8
0
10
2907.737150
20
1214.858317
30
0.0
11
2907.737150
21
1210.358317
31
0.0
0
LINE
8
0
10
2907.737150
20
1210.358317
30
0.0
11
2897.531894
21
1210.358317
31
0.0
0
LINE
8
0
10
2897.531894
20
1210.358317
30
0.0
11
2893.337150
21
1212.780154
31
0.0
0
LINE
8
0
10
2893.337150
20
1212.780154
30
0.0
11
2893.337150
21
1220.858317
31
0.0
0
ARC
8
0
10
2892.837150
20
1220.858317
30
0.0
40
0.500000
50
0.000000
51
90.000000
0
LINE
8
0
10
2892.837150
20
1221.358317
30
0.0
11
2892.337150
21
1221.358317
31
0.0
0
ARC
8
0
10
2892.337150
20
1220.858317
30
0.0
40
0.500000
50
90.000000
51
180.000000
0
LINE
8
0
10
2891.837150
20
1220.858317
30
0.0
11
2891.837150
21
1212.202804
31
0.0
0
ARC
8
0
10
2892.337150
20
1212.202804
30
0.0
40
0.500000
50
180.000000
51
240.000000
0
LINE
8
0
10
2892.087150
20
1211.769791
30
0.0
11
2897.013945
21
1208.925305
31
0.0
0
ARC
8
0
10
2897.263945
20
1209.358317
30
0.0
40
0.500000
50
240.000000
51
270.000000
0
LINE
8
0
10
2897.263945
20
1208.858317
30
0.0
11
2907.737150
21
1208.858317
31
0.0
0
LINE
8
0
10
2907.737150
20
1208.858317
30
0.0
11
2907.737150
21
1190.858317
31
0.0
0
ARC
8
0
10
2908.237150
20
1190.858317
30
0.0
40
0.500000
50
180.000000
51
270.000000
0
LINE
8
0
10
2908.237150
20
1190.358317
30
0.0
11
2910.330044
21
1190.358317
31
0.0
0
ARC
8
0
10
2910.330044
20
1190.858317
30
0.0
40
0.500000
50
270.000000
51
315.000000
0
LINE
8
0
10
2910.683597
20
1190.504764
30
0.0
11
2911.390704
21
1191.211871
31
0.0
0
ARC
8
0
10
2911.037150
20
1191.565424
30
0.0
40
0.500000
50
315.000000
51
0.000000
0
LINE
8
0
10
2911.537150
20
1191.565424
30
0.0
11
2911.537150
21
1192.358317
31
0.0
0
LINE
8
0
10
2911.537150
20
1192.358317
30
0.0
11
2909.837150
21
1192.358317
31
0.0
0
ARC
8
0
10
2909.837150
20
1192.658317
30
0.0
40
0.300000
50
180.000000
51
270.000000
0
LINE
8
0
10
2909.537150
20
1192.658317
30
0.0
11
2909.537150
21
1195.058317
31
0.0
0
ARC
8
0
10
2909.837150
20
1195.058317
30
0.0
40
0.300000
50
90.000000
51
180.000000
0
LINE
8
0
10
2909.837150
20
1195.358317
30
0.0
11
2926.237150
21
1195.358317
31
0.0
0
ARC
8
0
10
2926.237150
20
1195.058317
30
0.0
40
0.300000
50
0.000000
51
90.000000
0
LINE
8
0
10
2926.537150
20
1195.058317
30
0.0
11
2926.537150
21
1192.658317
31
0.0
0
ARC
8
0
10
2926.237150
20
1192.658317
30
0.0
40
0.300000
50
270.000000
51
0.000000
0
LINE
8
0
10
2926.237150
20
1192.358317
30
0.0
11
2924.537150
21
1192.358317
31
0.0
0
LINE
8
0
10
2924.537150
20
1192.358317
30
0.0
11
2924.537150
21
1191.565424
31
0.0
0
ARC
8
0
10
2925.037150
20
1191.565424
30
0.0
40
0.500000
50
180.000000
51
225.000000
0
LINE
8
0
10
2924.683597
20
1191.211871
30
0.0
11
2925.390704
21
1190.504764
31
0.0
0
ARC
8
0
10
2925.744257
20
1190.858317
30
0.0
40
0.500000
50
225.000000
51
270.000000
0
LINE
8
0
10
2925.744257
20
1190.358317
30
0.0
11
2927.837150
21
1190.358317
31
0.0
0
ARC
8
0
10
2927.837150
20
1190.858317
30
0.0
40
0.500000
50
270.000000
51
0.000000
0
LINE
8
0
10
2928.337150
20
1190.858317
30
0.0
11
2928.337150
21
1195.058317
31
0.0
0
ARC
8
0
10
2928.637150
20
1195.058317
30
0.0
40
0.300000
50
90.000000
51
180.000000
0
LINE
8
0
10
2928.637150
20
1195.358317
30
0.0
11
2930.499327
21
1195.358317
31
0.0
0
ARC
8
0
10
2930.499327
20
1195.658317
30
0.0
40
0.300000
50
270.000000
51
296.127032
0
LINE
8
0
10
2930.631436
20
1195.388971
30
0.0
11
2931.332884
21
1195.733018
31
0.0
0
ARC
8
0
10
2932.451185
20
1194.074885
30
0.0
40
2.000000
50
51.805773
51
123.997055
0
ARC
8
0
10
2933.997008
20
1196.039683
30
0.0
40
0.500000
50
231.805773
51
271.623749
0
LINE
8
0
10
2934.011176
20
1195.539884
30
0.0
11
2934.667797
21
1195.558497
31
0.0
0
ARC
8
0
10
2934.664412
20
1195.858522
30
0.0
40
0.300000
50
271.133979
51
18.251415
0
LINE
8
0
10
2934.949319
20
1195.952478
30
0.0
11
2932.885032
21
1198.618919
31
0.0
0
ARC
8
0
10
2932.769885
20
1198.529775
30
0.0
40
0.145621
50
37.746080
51
182.000000
0
LINE
8
0
10
2932.624353
20
1198.524693
30
0.0
11
2932.629783
21
1198.369206
31
0.0
0
ARC
8
0
10
2932.429904
20
1198.362226
30
0.0
40
0.200000
50
308.823976
51
2.000000
0
LINE
8
0
10
2932.555290
20
1198.206411
30
0.0
11
2930.912121
21
1196.884136
31
0.0
0
ARC
8
0
10
2930.724042
20
1197.117859
30
0.0
40
0.300000
50
283.127121
51
308.823976
0
LINE
8
0
10
2930.792175
20
1196.825699
30
0.0
11
2930.437150
21
1196.730148
31
0.0
0
ARC
8
0
10
2930.437150
20
1197.030148
30
0.0
40
0.300000
50
90.000000
51
270.000000
0
LINE
8
0
10
2930.437150
20
1197.330148
30
0.0
11
2930.437150
21
1201.830148
31
0.0
0
ARC
8
0
10
2930.637150
20
1201.830148
30
0.0
40
0.200000
50
90.000000
51
180.000000
0
LINE
8
0
10
2930.637150
20
1202.030148
30
0.0
11
2930.705039
21
1202.030148
31
0.0
0
ARC
8
0
10
2930.705039
20
1201.730148
30
0.0
40
0.300000
50
58.619868
51
90.000000
0
LINE
8
0
10
2930.861253
20
1201.986267
30
0.0
11
2932.537246
21
1200.964034
31
0.0
0
ARC
8
0
10
2932.737150
20
1200.957844
30
0.0
40
0.200000
50
178.226373
51
0.000000
0
LINE
8
0
10
2932.937150
20
1200.957844
30
0.0
11
2932.937150
21
1204.758791
31
0.0
0
LINE
8
0
10
2976.237150
20
1203.854459
30
0.0
11
2976.237150
21
1196.858317
31
0.0
0
LINE
8
0
10
2976.237150
20
1196.858317
30
0.0
11
2966.937150
21
1196.858317
31
0.0
0
LINE
8
0
10
2966.937150
20
1196.858317
30
0.0
11
2966.937150
21
1204.550631
31
0.0
0
LINE
8
0
10
2966.937150
20
1204.550631
30
0.0
11
2976.237150
21
1203.854459
31
0.0
0
ARC
8
0
10
2963.137150
20
1204.758791
30
0.0
40
0.200000
50
358.226373
51
180.000000
0
LINE
8
0
10
2962.937150
20
1200.957844
30
0.0
11
2962.937150
21
1204.758791
31
0.0
0
ARC
8
0
10
2963.137150
20
1200.957844
30
0.0
40
0.200000
50
180.000000
51
1.773627
0
LINE
8
0
10
2965.013048
20
1201.986267
30
0.0
11
2963.337055
21
1200.964034
31
0.0
0
ARC
8
0
10
2965.169262
20
1201.730148
30
0.0
40
0.300000
50
90.000000
51
121.380132
0
LINE
8
0
10
2965.237150
20
1202.030148
30
0.0
11
2965.169262
21
1202.030148
31
0.0
0
ARC
8
0
10
2965.237150
20
1201.830148
30
0.0
40
0.200000
50
0.000000
51
90.000000
0
LINE
8
0
10
2965.437150
20
1197.330148
30
0.0
11
2965.437150
21
1201.830148
31
0.0
0
ARC
8
0
10
2965.437150
20
1197.030148
30
0.0
40
0.300000
50
270.000000
51
90.000000
0
LINE
8
0
10
2965.082125
20
1196.825699
30
0.0
11
2965.437150
21
1196.730148
31
0.0
0
ARC
8
0
10
2965.150259
20
1197.117859
30
0.0
40
0.300000
50
231.176024
51
256.872879
0
LINE
8
0
10
2963.319010
20
1198.206411
30
0.0
11
2964.962180
21
1196.884136
31
0.0
0
ARC
8
0
10
2963.444396
20
1198.362226
30
0.0
40
0.200000
50
178.000000
51
231.176024
0
LINE
8
0
10
2963.249948
20
1198.524693
30
0.0
11
2963.244518
21
1198.369206
31
0.0
0
ARC
8
0
10
2963.104416
20
1198.529775
30
0.0
40
0.145621
50
358.000000
51
142.253920
0
LINE
8
0
10
2960.924982
20
1195.952478
30
0.0
11
2962.989269
21
1198.618919
31
0.0
0
ARC
8
0
10
2961.209889
20
1195.858522
30
0.0
40
0.300000
50
161.748585
51
268.866021
0
LINE
8
0
10
2961.863125
20
1195.539884
30
0.0
11
2961.206504
21
1195.558497
31
0.0
0
ARC
8
0
10
2961.877293
20
1196.039683
30
0.0
40
0.500000
50
268.376251
51
308.194227
0
ARC
8
0
10
2963.423116
20
1194.074885
30
0.0
40
2.000000
50
56.002945
51
128.194227
0
LINE
8
0
10
2965.242865
20
1195.388971
30
0.0
11
2964.541417
21
1195.733018
31
0.0
0
ARC
8
0
10
2965.374973
20
1195.658317
30
0.0
40
0.300000
50
243.872968
51
270.000000
0
LINE
8
0
10
2975.637150
20
1195.358317
30
0.0
11
2965.374973
21
1195.358317
31
0.0
0
ARC
8
0
10
2975.637150
20
1195.058317
30
0.0
40
0.300000
50
0.000000
51
90.000000
0
LINE
8
0
10
2975.937150
20
1192.658317
30
0.0
11
2975.937150
21
1195.058317
31
0.0
0
ARC
8
0
10
2975.637150
20
1192.658317
30
0.0
40
0.300000
50
270.000000
51
0.000000
0
LINE
8
0
10
2973.937150
20
1192.358317
30
0.0
11
2975.637150
21
1192.358317
31
0.0
0
LINE
8
0
10
2973.937150
20
1191.565424
30
0.0
11
2973.937150
21
1192.358317
31
0.0
0
ARC
8
0
10
2974.437150
20
1191.565424
30
0.0
40
0.500000
50
180.000000
51
225.000000
0
LINE
8
0
10
2974.790704
20
1190.504764
30
0.0
11
2974.083597
21
1191.211871
31
0.0
0
ARC
8
0
10
2975.144257
20
1190.858317
30
0.0
40
0.500000
50
225.000000
51
270.000000
0
LINE
8
0
10
2977.237150
20
1190.358317
30
0.0
11
2975.144257
21
1190.358317
31
0.0
0
ARC
8
0
10
2977.237150
20
1190.858317
30
0.0
40
0.500000
50
270.000000
51
0.000000
0
LINE
8
0
10
2977.737150
20
1214.858317
30
0.0
11
2977.737150
21
1190.858317
31
0.0
0
ARC
8
0
10
2977.237150
20
1214.858317
30
0.0
40
0.500000
50
0.000000
51
90.000000
0
LINE
8
0
10
2973.537150
20
1215.358317
30
0.0
11
2977.237150
21
1215.358317
31
0.0
0
LINE
8
0
10
2973.537150
20
1219.558317
30
0.0
11
2973.537150
21
1215.358317
31
0.0
0
ARC
8
0
10
2973.037150
20
1219.558317
30
0.0
40
0.500000
50
0.000000
51
90.000000
0
LINE
8
0
10
2972.537150
20
1220.058317
30
0.0
11
2973.037150
21
1220.058317
31
0.0
0
ARC
8
0
10
2972.537150
20
1219.558317
30
0.0
40
0.500000
50
90.000000
51
180.000000
0
LINE
8
0
10
2972.037150
20
1214.358317
30
0.0
11
2972.037150
21
1219.558317
31
0.0
0
ARC
8
0
10
2972.537150
20
1214.358317
30
0.0
40
0.500000
50
180.000000
51
270.000000
0
LINE
8
0
10
2975.737150
20
1213.858317
30
0.0
11
2972.537150
21
1213.858317
31
0.0
0
ARC
8
0
10
2975.737150
20
1213.358317
30
0.0
40
0.500000
50
0.000000
51
90.000000
0
LINE
8
0
10
2976.237150
20
1205.358317
30
0.0
11
2976.237150
21
1213.358317
31
0.0
0
LINE
8
0
10
2967.401357
20
1206.021173
30
0.0
11
2976.237150
21
1205.358317
31
0.0
0
ARC
8
0
10
2967.437150
20
1206.519891
30
0.0
40
0.500000
50
180.000000
51
265.894902
0
LINE
8
0
10
2966.937150
20
1209.858317
30
0.0
11
2966.937150
21
1206.519891
31
0.0
0
ARC
8
0
10
2966.437150
20
1209.858317
30
0.0
40
0.500000
50
0.000000
51
90.000000
0
LINE
8
0
10
2965.374973
20
1210.358317
30
0.0
11
2966.437150
21
1210.358317
31
0.0
0
ARC
8
0
10
2965.374973
20
1210.058317
30
0.0
40
0.300000
50
90.000000
51
116.127032
0
LINE
8
0
10
2964.541417
20
1209.983617
30
0.0
11
2965.242865
21
1210.327663
31
0.0
0
ARC
8
0
10
2963.423116
20
1211.641750
30
0.0
40
2.000000
50
231.805773
51
303.997055
0
ARC
8
0
10
2961.877293
20
1209.676952
30
0.0
40
0.500000
50
51.805773
51
91.623749
0
LINE
8
0
10
2961.206504
20
1210.158138
30
0.0
11
2961.863125
21
1210.176751
31
0.0
0
ARC
8
0
10
2961.209889
20
1209.858113
30
0.0
40
0.300000
50
91.133979
51
198.251415
0
LINE
8
0
10
2962.989269
20
1207.097716
30
0.0
11
2960.924982
21
1209.764157
31
0.0
0
ARC
8
0
10
2963.104416
20
1207.186859
30
0.0
40
0.145621
50
217.746080
51
2.000000
0
LINE
8
0
10
2963.244518
20
1207.347429
30
0.0
11
2963.249948
21
1207.191942
31
0.0
0
ARC
8
0
10
2963.444396
20
1207.354409
30
0.0
40
0.200000
50
128.823976
51
182.000000
0
LINE
8
0
10
2964.962180
20
1208.832498
30
0.0
11
2963.319010
21
1207.510224
31
0.0
0
ARC
8
0
10
2965.150259
20
1208.598776
30
0.0
40
0.300000
50
103.127121
51
128.823976
0
LINE
8
0
10
2965.437150
20
1208.986487
30
0.0
11
2965.082125
21
1208.890936
31
0.0
0
ARC
8
0
10
2965.437150
20
1208.686487
30
0.0
40
0.300000
50
270.000000
51
90.000000
0
LINE
8
0
10
2965.437150
20
1203.886487
30
0.0
11
2965.437150
21
1208.386487
31
0.0
0
ARC
8
0
10
2965.237150
20
1203.886487
30
0.0
40
0.200000
50
270.000000
51
0.000000
0
LINE
8
0
10
2965.169262
20
1203.686487
30
0.0
11
2965.237150
21
1203.686487
31
0.0
0
ARC
8
0
10
2965.169262
20
1203.986487
30
0.0
40
0.300000
50
238.619868
51
270.000000
0
LINE
8
0
10
2963.337055
20
1204.752601
30
0.0
11
2965.013048
21
1203.730368
31
0.0
0
ATTDEF
8
0
10
0.000000
20
0.000000
30
0.0
40
3.5
1

3

2
PANE_WIDTH:0
70
0
0
ATTDEF
8
0
10
0.000000
20
0.000000
30
0.0
40
3.5
1

3

2
MIN_VETRO:0
70
0
0
ATTDEF
8
0
10
0.000000
20
0.000000
30
0.0
40
3.5
1

3

2
MAX_VETRO:0
70
0
0
ATTDEF
8
0
10
0.000000
20
0.000000
30
0.0
40
3.5
1

3

2
JX:0
70
0
0
ATTDEF
8
0
10
0.000000
20
0.000000
30
0.0
40
3.5
1

3

2
WX:0
70
0
0
ATTDEF
8
0
10
0.000000
20
0.000000
30
0.0
40
3.5
1

3

2
JY:0
70
0
0
ATTDEF
8
0
10
0.000000
20
0.000000
30
0.0
40
3.5
1

3

2
WY:0
70
0
0
ATTDEF
8
0
10
0.000000
20
0.000000
30
0.0
40
3.5
1

3

2
DESC:Condensacion HI
70
0
0
ATTDEF
8
0
10
0.000000
20
0.000000
30
0.0
40
3.5
1

3

2
DENS:1.1795
70
0
0
ATTDEF
8
0
10
0.000000
20
0.000000
30
0.0
40
3.5
1

3

2
TDEV:43.39
70
0
0
ATTDEF
8
0
10
0.000000
20
0.000000
30
0.0
40
3.5
1

3

2
TDEV2:0
70
0
0
ATTDEF
8
0
10
0.000000
20
0.000000
30
0.0
40
3.5
1

3

2
TDEV3:0
70
0
0
ATTDEF
8
0
10
0.000000
20
0.000000
30
0.0
40
3.5
1

3

2
TDEV4:0
70
0
0
ATTDEF
8
0
10
0.000000
20
0.000000
30
0.0
40
3.5
1

3

2
TDEV5:0
70
0
0
ATTDEF
8
0
10
0.000000
20
0.000000
30
0.0
40
3.5
1

3

2
PANE_WIDTH:0
70
0
0
ATTDEF
8
0
10
0.000000
20
0.000000
30
0.0
40
3.5
1

3

2
MIN_VETRO:0
70
0
0
ATTDEF
8
0
10
0.000000
20
0.000000
30
0.0
40
3.5
1

3

2
MAX_VETRO:0
70
0
0
ATTDEF
8
0
10
0.000000
20
0.000000
30
0.0
40
3.5
1

3

2
JX:0
70
0
0
ATTDEF
8
0
10
0.000000
20
0.000000
30
0.0
40
3.5
1

3

2
WX:0
70
0
0
ATTDEF
8
0
10
0.000000
20
0.000000
30
0.0
40
3.5
1

3

2
JY:0
70
0
0
ATTDEF
8
0
10
0.000000
20
0.000000
30
0.0
40
3.5
1

3

2
WY:0
70
0
0
ENDSEC
0
EOF
