0
SECTION
2
ENTITIES
0
LINE
8
0
10
6353.956365
20
17.783279
30
0.0
11
6353.956365
21
23.783279
31
0.0
0
LINE
8
0
10
6353.956365
20
23.783279
30
0.0
11
6361.956365
21
23.783279
31
0.0
0
LINE
8
0
10
6361.956365
20
23.783279
30
0.0
11
6361.956365
21
40.183279
31
0.0
0
LINE
8
0
10
6361.956365
20
40.183279
30
0.0
11
6337.556365
21
40.183279
31
0.0
0
LINE
8
0
10
6337.556365
20
40.183279
30
0.0
11
6337.556365
21
17.783279
31
0.0
0
LINE
8
0
10
6337.556365
20
17.783279
30
0.0
11
6353.956365
21
17.783279
31
0.0
0
LINE
8
0
10
6304.556365
20
16.483279
30
0.0
11
6304.556365
21
24.944802
31
0.0
0
LINE
8
0
10
6304.556365
20
24.944802
30
0.0
11
6307.356365
21
27.744802
31
0.0
0
LINE
8
0
10
6307.356365
20
27.744802
30
0.0
11
6307.356365
21
39.983279
31
0.0
0
LINE
8
0
10
6307.356365
20
39.983279
30
0.0
11
6336.256365
21
39.983279
31
0.0
0
LINE
8
0
10
6336.256365
20
39.983279
30
0.0
11
6336.256365
21
16.483279
31
0.0
0
LINE
8
0
10
6336.256365
20
16.483279
30
0.0
11
6362.756365
21
16.483279
31
0.0
0
ARC
8
0
10
6362.756365
20
16.983279
30
0.0
40
0.500000
50
270.000000
51
45.000000
0
LINE
8
0
10
6363.109918
20
17.336833
30
0.0
11
6362.422050
21
18.024701
31
0.0
0
ARC
8
0
10
6362.280629
20
17.883279
30
0.0
40
0.200000
50
45.000000
51
135.000000
0
LINE
8
0
10
6362.139208
20
18.024701
30
0.0
11
6361.797786
21
17.683279
31
0.0
0
LINE
8
0
10
6361.797786
20
17.683279
30
0.0
11
6355.256365
21
17.683279
31
0.0
0
LINE
8
0
10
6355.256365
20
17.683279
30
0.0
11
6355.256365
21
22.483279
31
0.0
0
LINE
8
0
10
6355.256365
20
22.483279
30
0.0
11
6363.256365
21
22.483279
31
0.0
0
LINE
8
0
10
6363.256365
20
22.483279
30
0.0
11
6363.256365
21
65.983279
31
0.0
0
ARC
8
0
10
6362.756365
20
65.983279
30
0.0
40
0.500000
50
0.000000
51
90.000000
0
LINE
8
0
10
6362.756365
20
66.483279
30
0.0
11
6358.756365
21
66.483279
31
0.0
0
ARC
8
0
10
6358.756365
20
65.983279
30
0.0
40
0.500000
50
90.000000
51
180.000000
0
LINE
8
0
10
6358.256365
20
65.983279
30
0.0
11
6358.256365
21
63.983279
31
0.0
0
ARC
8
0
10
6358.756365
20
63.983279
30
0.0
40
0.500000
50
180.000000
51
270.000000
0
LINE
8
0
10
6358.756365
20
63.483279
30
0.0
11
6358.956365
21
63.483279
31
0.0
0
ARC
8
0
10
6358.956365
20
63.983279
30
0.0
40
0.500000
50
270.000000
51
0.000000
0
LINE
8
0
10
6359.456365
20
63.983279
30
0.0
11
6359.456365
21
65.283279
31
0.0
0
LINE
8
0
10
6359.456365
20
65.283279
30
0.0
11
6360.956365
21
65.283279
31
0.0
0
LINE
8
0
10
6360.956365
20
65.283279
30
0.0
11
6360.956365
21
63.983279
31
0.0
0
ARC
8
0
10
6361.456365
20
63.983279
30
0.0
40
0.500000
50
180.000000
51
270.000000
0
LINE
8
0
10
6361.456365
20
63.483279
30
0.0
11
6361.956365
21
63.483279
31
0.0
0
LINE
8
0
10
6361.956365
20
63.483279
30
0.0
11
6361.956365
21
59.983279
31
0.0
0
LINE
8
0
10
6361.956365
20
59.983279
30
0.0
11
6361.456365
21
59.983279
31
0.0
0
ARC
8
0
10
6361.456365
20
59.483279
30
0.0
40
0.500000
50
90.000000
51
180.000000
0
LINE
8
0
10
6360.956365
20
59.483279
30
0.0
11
6360.956365
21
58.183279
31
0.0
0
LINE
8
0
10
6360.956365
20
58.183279
30
0.0
11
6359.456365
21
58.183279
31
0.0
0
LINE
8
0
10
6359.456365
20
58.183279
30
0.0
11
6359.456365
21
59.483279
31
0.0
0
ARC
8
0
10
6358.956365
20
59.483279
30
0.0
40
0.500000
50
0.000000
51
90.000000
0
LINE
8
0
10
6358.956365
20
59.983279
30
0.0
11
6358.756365
21
59.983279
31
0.0
0
ARC
8
0
10
6358.756365
20
59.483279
30
0.0
40
0.500000
50
90.000000
51
180.000000
0
LINE
8
0
10
6358.256365
20
59.483279
30
0.0
11
6358.256365
21
57.483279
31
0.0
0
ARC
8
0
10
6358.756365
20
57.483279
30
0.0
40
0.500000
50
180.000000
51
270.000000
0
LINE
8
0
10
6358.756365
20
56.983279
30
0.0
11
6361.956365
21
56.983279
31
0.0
0
LINE
8
0
10
6361.956365
20
56.983279
30
0.0
11
6361.956365
21
41.483279
31
0.0
0
LINE
8
0
10
6361.956365
20
41.483279
30
0.0
11
6337.556365
21
41.483279
31
0.0
0
LINE
8
0
10
6337.556365
20
41.483279
30
0.0
11
6337.556365
21
56.983279
31
0.0
0
LINE
8
0
10
6337.556365
20
56.983279
30
0.0
11
6340.756365
21
56.983279
31
0.0
0
ARC
8
0
10
6340.756365
20
57.483279
30
0.0
40
0.500000
50
270.000000
51
0.000000
0
LINE
8
0
10
6341.256365
20
57.483279
30
0.0
11
6341.256365
21
59.483279
31
0.0
0
ARC
8
0
10
6340.756365
20
59.483279
30
0.0
40
0.500000
50
0.000000
51
90.000000
0
LINE
8
0
10
6340.756365
20
59.983279
30
0.0
11
6340.556365
21
59.983279
31
0.0
0
ARC
8
0
10
6340.556365
20
59.483279
30
0.0
40
0.500000
50
90.000000
51
180.000000
0
LINE
8
0
10
6340.056365
20
59.483279
30
0.0
11
6340.056365
21
58.183279
31
0.0
0
LINE
8
0
10
6340.056365
20
58.183279
30
0.0
11
6338.556365
21
58.183279
31
0.0
0
LINE
8
0
10
6338.556365
20
58.183279
30
0.0
11
6338.556365
21
59.483279
31
0.0
0
ARC
8
0
10
6338.056365
20
59.483279
30
0.0
40
0.500000
50
0.000000
51
90.000000
0
LINE
8
0
10
6338.056365
20
59.983279
30
0.0
11
6337.556365
21
59.983279
31
0.0
0
LINE
8
0
10
6337.556365
20
59.983279
30
0.0
11
6337.556365
21
63.483279
31
0.0
0
LINE
8
0
10
6337.556365
20
63.483279
30
0.0
11
6338.056365
21
63.483279
31
0.0
0
ARC
8
0
10
6338.056365
20
63.983279
30
0.0
40
0.500000
50
270.000000
51
0.000000
0
LINE
8
0
10
6338.556365
20
63.983279
30
0.0
11
6338.556365
21
65.283279
31
0.0
0
LINE
8
0
10
6338.556365
20
65.283279
30
0.0
11
6340.056365
21
65.283279
31
0.0
0
LINE
8
0
10
6340.056365
20
65.283279
30
0.0
11
6340.056365
21
63.983279
31
0.0
0
ARC
8
0
10
6340.556365
20
63.983279
30
0.0
40
0.500000
50
180.000000
51
270.000000
0
LINE
8
0
10
6340.556365
20
63.483279
30
0.0
11
6340.756365
21
63.483279
31
0.0
0
ARC
8
0
10
6340.756365
20
63.983279
30
0.0
40
0.500000
50
270.000000
51
0.000000
0
LINE
8
0
10
6341.256365
20
63.983279
30
0.0
11
6341.256365
21
65.983279
31
0.0
0
ARC
8
0
10
6340.756365
20
65.983279
30
0.0
40
0.500000
50
0.000000
51
90.000000
0
LINE
8
0
10
6340.756365
20
66.483279
30
0.0
11
6336.756365
21
66.483279
31
0.0
0
ARC
8
0
10
6336.756365
20
65.983279
30
0.0
40
0.500000
50
90.000000
51
180.000000
0
LINE
8
0
10
6336.256365
20
65.983279
30
0.0
11
6336.256365
21
41.483279
31
0.0
0
LINE
8
0
10
6336.256365
20
41.483279
30
0.0
11
6303.756365
21
41.483279
31
0.0
0
ARC
8
0
10
6303.756365
20
40.983279
30
0.0
40
0.500000
50
90.000000
51
180.000000
0
LINE
8
0
10
6303.256365
20
40.983279
30
0.0
11
6303.256365
21
40.483279
31
0.0
0
ARC
8
0
10
6303.756365
20
40.483279
30
0.0
40
0.500000
50
180.000000
51
270.000000
0
LINE
8
0
10
6303.756365
20
39.983279
30
0.0
11
6305.856365
21
39.983279
31
0.0
0
LINE
8
0
10
6305.856365
20
39.983279
30
0.0
11
6305.856365
21
28.083279
31
0.0
0
LINE
8
0
10
6305.856365
20
28.083279
30
0.0
11
6303.256365
21
25.483279
31
0.0
0
LINE
8
0
10
6303.256365
20
25.483279
30
0.0
11
6303.256365
21
17.783279
31
0.0
0
LINE
8
0
10
6303.256365
20
17.783279
30
0.0
11
6300.756365
21
17.783279
31
0.0
0
ARC
8
0
10
6300.756365
20
17.283279
30
0.0
40
0.500000
50
90.000000
51
180.000000
0
LINE
8
0
10
6300.256365
20
17.283279
30
0.0
11
6300.256365
21
16.983279
31
0.0
0
ARC
8
0
10
6300.756365
20
16.983279
30
0.0
40
0.500000
50
180.000000
51
270.000000
0
LINE
8
0
10
6300.756365
20
16.483279
30
0.0
11
6304.556365
21
16.483279
31
0.0
0
ATTDEF
8
0
10
0.000000
20
0.000000
30
0.0
40
3.5
1

3

2
PANE_WIDTH:0
70
0
0
ATTDEF
8
0
10
0.000000
20
0.000000
30
0.0
40
3.5
1

3

2
MIN_VETRO:0
70
0
0
ATTDEF
8
0
10
0.000000
20
0.000000
30
0.0
40
3.5
1

3

2
MAX_VETRO:0
70
0
0
ATTDEF
8
0
10
0.000000
20
0.000000
30
0.0
40
3.5
1

3

2
JX:0
70
0
0
ATTDEF
8
0
10
0.000000
20
0.000000
30
0.0
40
3.5
1

3

2
WX:0
70
0
0
ATTDEF
8
0
10
0.000000
20
0.000000
30
0.0
40
3.5
1

3

2
JY:0
70
0
0
ATTDEF
8
0
10
0.000000
20
0.000000
30
0.0
40
3.5
1

3

2
WY:0
70
0
0
ATTDEF
8
0
10
0.000000
20
0.000000
30
0.0
40
3.5
1

3

2
DESC:N/F
70
0
0
ATTDEF
8
0
10
0.000000
20
0.000000
30
0.0
40
3.5
1

3

2
DENS:0
70
0
0
ATTDEF
8
0
10
0.000000
20
0.000000
30
0.0
40
3.5
1

3

2
TDEV:0
70
0
0
ATTDEF
8
0
10
0.000000
20
0.000000
30
0.0
40
3.5
1

3

2
TDEV2:0
70
0
0
ATTDEF
8
0
10
0.000000
20
0.000000
30
0.0
40
3.5
1

3

2
TDEV3:0
70
0
0
ATTDEF
8
0
10
0.000000
20
0.000000
30
0.0
40
3.5
1

3

2
TDEV4:0
70
0
0
ATTDEF
8
0
10
0.000000
20
0.000000
30
0.0
40
3.5
1

3

2
TDEV5:0
70
0
0
ATTDEF
8
0
10
0.000000
20
0.000000
30
0.0
40
3.5
1

3

2
PANE_WIDTH:0
70
0
0
ATTDEF
8
0
10
0.000000
20
0.000000
30
0.0
40
3.5
1

3

2
MIN_VETRO:0
70
0
0
ATTDEF
8
0
10
0.000000
20
0.000000
30
0.0
40
3.5
1

3

2
MAX_VETRO:0
70
0
0
ATTDEF
8
0
10
0.000000
20
0.000000
30
0.0
40
3.5
1

3

2
JX:0
70
0
0
ATTDEF
8
0
10
0.000000
20
0.000000
30
0.0
40
3.5
1

3

2
WX:0
70
0
0
ATTDEF
8
0
10
0.000000
20
0.000000
30
0.0
40
3.5
1

3

2
JY:0
70
0
0
ATTDEF
8
0
10
0.000000
20
0.000000
30
0.0
40
3.5
1

3

2
WY:0
70
0
0
ENDSEC
0
EOF
