0
SECTION
2
ENTITIES
0
LINE
8
0
10
2842.776264
20
1202.341639
30
0.0
11
2843.486228
21
1201.159716
31
0.0
0
ARC
8
0
10
2843.743398
20
1201.314194
30
0.0
40
0.300000
50
210.992639
51
325.616958
0
ARC
8
0
10
2842.753061
20
1201.991861
30
0.0
40
1.500000
50
325.616958
51
30.992639
0
LINE
8
0
10
2844.038912
20
1202.764253
30
0.0
11
2843.890667
21
1203.011045
31
0.0
0
ARC
8
0
10
2842.776264
20
1202.341639
30
0.0
40
1.300000
50
30.992639
51
79.230076
0
LINE
8
0
10
2843.019189
20
1203.618740
30
0.0
11
2829.575902
21
1206.175871
31
0.0
0
ARC
8
0
10
2829.192828
20
1204.161981
30
0.0
40
2.050000
50
79.230076
51
153.608985
0
LINE
8
0
10
2827.356476
20
1205.073195
30
0.0
11
2827.345956
21
1205.051995
31
0.0
0
ARC
8
0
10
2825.464815
20
1205.985434
30
0.0
40
2.100000
50
153.404030
51
333.608985
0
LINE
8
0
10
2823.587025
20
1206.925596
30
0.0
11
2846.004887
21
1251.700898
31
0.0
0
ARC
8
0
10
2842.875237
20
1253.267835
30
0.0
40
3.500000
50
333.404030
51
153.608985
0
LINE
8
0
10
2839.740002
20
1254.823566
30
0.0
11
2839.729482
21
1254.802366
31
0.0
0
ARC
8
0
10
2839.057646
20
1255.135737
30
0.0
40
0.750000
50
259.230076
51
333.608985
0
LINE
8
0
10
2838.917497
20
1254.398948
30
0.0
11
2829.575902
21
1256.175871
31
0.0
0
ARC
8
0
10
2829.192828
20
1254.161981
30
0.0
40
2.050000
50
79.230076
51
153.608985
0
LINE
8
0
10
2827.356476
20
1255.073195
30
0.0
11
2827.345956
21
1255.051995
31
0.0
0
ARC
8
0
10
2825.464815
20
1255.985434
30
0.0
40
2.100000
50
152.023951
51
333.608985
0
LINE
8
0
10
2823.610213
20
1256.970549
30
0.0
11
2847.100516
21
1301.193972
31
0.0
0
ARC
8
0
10
2844.009513
20
1302.835831
30
0.0
40
3.500000
50
332.023951
51
126.630987
0
ARC
8
0
10
2842.312064
20
1305.118867
30
0.0
40
0.655076
50
126.630987
51
305.732497
0
ARC
8
0
10
2843.921033
20
1302.882428
30
0.0
40
2.100000
50
332.023994
51
125.732497
0
LINE
8
0
10
2845.775636
20
1301.897314
30
0.0
11
2844.887908
21
1300.226050
31
0.0
0
LINE
8
0
10
2844.887908
20
1300.226050
30
0.0
11
2844.098019
21
1301.581747
31
0.0
0
ARC
8
0
10
2843.666000
20
1301.330034
30
0.0
40
0.500000
50
30.226959
51
210.226959
0
LINE
8
0
10
2843.233981
20
1301.078321
30
0.0
11
2844.335972
21
1299.186958
31
0.0
0
LINE
8
0
10
2844.335972
20
1299.186958
30
0.0
11
2822.275964
21
1257.656077
31
0.0
0
ARC
8
0
10
2825.375237
20
1256.029884
30
0.0
40
3.500000
50
152.313930
51
333.608985
0
LINE
8
0
10
2828.510472
20
1254.474152
30
0.0
11
2828.520992
21
1254.495352
31
0.0
0
ARC
8
0
10
2829.192828
20
1254.161981
30
0.0
40
0.750000
50
79.230076
51
153.608985
0
LINE
8
0
10
2829.332977
20
1254.898770
30
0.0
11
2838.674571
21
1253.121847
31
0.0
0
ARC
8
0
10
2839.057646
20
1255.135737
30
0.0
40
2.050000
50
259.230076
51
333.608985
0
LINE
8
0
10
2840.893998
20
1254.224523
30
0.0
11
2840.904518
21
1254.245723
31
0.0
0
ARC
8
0
10
2842.785659
20
1253.312284
30
0.0
40
2.100000
50
333.404030
51
153.608985
0
LINE
8
0
10
2844.663449
20
1252.372122
30
0.0
11
2822.245587
21
1207.596820
31
0.0
0
ARC
8
0
10
2825.375237
20
1206.029884
30
0.0
40
3.500000
50
153.404030
51
333.608985
0
LINE
8
0
10
2828.510472
20
1204.474152
30
0.0
11
2828.520992
21
1204.495352
31
0.0
0
ARC
8
0
10
2829.192828
20
1204.161981
30
0.0
40
0.750000
50
79.230076
51
153.608985
0
LINE
8
0
10
2829.332977
20
1204.898770
30
0.0
11
2842.776264
21
1202.341639
31
0.0
0
ATTDEF
8
0
10
0.000000
20
0.000000
30
0.0
40
3.5
1

3

2
PANE_WIDTH:0
70
0
0
ATTDEF
8
0
10
0.000000
20
0.000000
30
0.0
40
3.5
1

3

2
MIN_VETRO:0
70
0
0
ATTDEF
8
0
10
0.000000
20
0.000000
30
0.0
40
3.5
1

3

2
MAX_VETRO:0
70
0
0
ATTDEF
8
0
10
0.000000
20
0.000000
30
0.0
40
3.5
1

3

2
JX:0
70
0
0
ATTDEF
8
0
10
0.000000
20
0.000000
30
0.0
40
3.5
1

3

2
WX:0
70
0
0
ATTDEF
8
0
10
0.000000
20
0.000000
30
0.0
40
3.5
1

3

2
JY:0
70
0
0
ATTDEF
8
0
10
0.000000
20
0.000000
30
0.0
40
3.5
1

3

2
WY:0
70
0
0
ATTDEF
8
0
10
0.000000
20
0.000000
30
0.0
40
3.5
1

3

2
DESC:Lama fija s/troquelar
70
0
0
ATTDEF
8
0
10
0.000000
20
0.000000
30
0.0
40
3.5
1

3

2
DENS:0.6507
70
0
0
ATTDEF
8
0
10
0.000000
20
0.000000
30
0.0
40
3.5
1

3

2
TDEV:33.71
70
0
0
ATTDEF
8
0
10
0.000000
20
0.000000
30
0.0
40
3.5
1

3

2
TDEV2:0
70
0
0
ATTDEF
8
0
10
0.000000
20
0.000000
30
0.0
40
3.5
1

3

2
TDEV3:0
70
0
0
ATTDEF
8
0
10
0.000000
20
0.000000
30
0.0
40
3.5
1

3

2
TDEV4:0
70
0
0
ATTDEF
8
0
10
0.000000
20
0.000000
30
0.0
40
3.5
1

3

2
TDEV5:0
70
0
0
ATTDEF
8
0
10
0.000000
20
0.000000
30
0.0
40
3.5
1

3

2
PANE_WIDTH:0
70
0
0
ATTDEF
8
0
10
0.000000
20
0.000000
30
0.0
40
3.5
1

3

2
MIN_VETRO:0
70
0
0
ATTDEF
8
0
10
0.000000
20
0.000000
30
0.0
40
3.5
1

3

2
MAX_VETRO:0
70
0
0
ATTDEF
8
0
10
0.000000
20
0.000000
30
0.0
40
3.5
1

3

2
JX:0
70
0
0
ATTDEF
8
0
10
0.000000
20
0.000000
30
0.0
40
3.5
1

3

2
WX:0
70
0
0
ATTDEF
8
0
10
0.000000
20
0.000000
30
0.0
40
3.5
1

3

2
JY:0
70
0
0
ATTDEF
8
0
10
0.000000
20
0.000000
30
0.0
40
3.5
1

3

2
WY:0
70
0
0
ATTDEF
8
0
10
2844.009513
20
1306.335831
30
0.0
40
3.5
1

3

2
VC_START
70
0
0
ATTDEF
8
0
10
2843.743398
20
1201.014194
30
0.0
40
3.5
1

3

2
VC_END
70
0
0
ATTDEF
8
0
10
2821.875237
20
1201.014194
30
0.0
40
3.5
1

3

2
FP_LCS_ORIG
70
0
0
ATTDEF
8
0
10
2831.875237
20
1201.014194
30
0.0
40
3.5
1

3

2
FP_LCS_HOT
70
0
0
ATTDEF
8
0
10
2821.875237
20
1211.014194
30
0.0
40
3.5
1

3

2
FP_LCS_INTERN
70
0
0
ENDSEC
0
EOF
