0
SECTION
2
ENTITIES
0
LINE
8
0
10
31.480406
20
9.537190
30
0.0
11
27.180406
21
9.537190
31
0.0
0
LINE
8
0
10
27.180406
20
9.537190
30
0.0
11
27.180406
21
11.537190
31
0.0
0
ARC
8
0
10
26.680406
20
11.537190
30
0.0
40
0.500000
50
0.000000
51
90.000000
0
LINE
8
0
10
26.680406
20
12.037190
30
0.0
11
26.180406
21
12.037190
31
0.0
0
ARC
8
0
10
26.180406
20
11.537190
30
0.0
40
0.500000
50
90.000000
51
180.000000
0
LINE
8
0
10
25.680406
20
11.537190
30
0.0
11
25.680406
21
8.537190
31
0.0
0
ARC
8
0
10
26.180406
20
8.537190
30
0.0
40
0.500000
50
180.000000
51
270.000000
0
LINE
8
0
10
26.180406
20
8.037190
30
0.0
11
31.480406
21
8.037190
31
0.0
0
ARC
8
0
10
31.480406
20
9.537190
30
0.0
40
1.500000
50
270.000000
51
327.497252
0
LINE
8
0
10
32.745455
20
8.731180
30
0.0
11
35.547939
21
13.129734
31
0.0
0
LINE
8
0
10
35.547939
20
13.129734
30
0.0
11
35.394926
21
13.820087
31
0.0
0
LINE
8
0
10
35.394926
20
13.820087
30
0.0
11
36.085279
21
13.973100
31
0.0
0
LINE
8
0
10
36.085279
20
13.973100
30
0.0
11
37.858502
21
16.756206
31
0.0
0
LINE
8
0
10
37.858502
20
16.756206
30
0.0
11
34.380520
21
18.972160
31
0.0
0
ARC
8
0
10
34.541722
20
19.225169
30
0.0
40
0.300000
50
81.199796
51
237.497252
0
LINE
8
0
10
34.587619
20
19.521638
30
0.0
11
71.709797
21
13.774686
31
0.0
0
LINE
8
0
10
71.709797
20
13.774686
30
0.0
11
72.280406
21
14.192305
31
0.0
0
LINE
8
0
10
72.280406
20
14.192305
30
0.0
11
72.698025
21
13.621696
31
0.0
0
LINE
8
0
10
72.698025
20
13.621696
30
0.0
11
94.790491
21
10.201521
31
0.0
0
ARC
8
0
10
94.713996
20
9.707408
30
0.0
40
0.500000
50
329.675770
51
81.199796
0
ARC
8
0
10
98.080406
20
7.738326
30
0.0
40
3.400000
50
149.675770
51
223.559537
0
ARC
8
0
10
96.160061
20
5.912190
30
0.0
40
0.750000
50
223.559537
51
43.559537
0
ARC
8
0
10
98.080406
20
7.738326
30
0.0
40
1.900000
50
316.440463
51
223.559537
0
ARC
8
0
10
100.000752
20
5.912190
30
0.0
40
0.750000
50
136.440463
51
270.000000
0
LINE
8
0
10
100.000752
20
5.162190
30
0.0
11
101.480406
21
5.162190
31
0.0
0
LINE
8
0
10
101.480406
20
5.162190
30
0.0
11
101.480406
21
9.826637
31
0.0
0
ARC
8
0
10
100.480406
20
9.826637
30
0.0
40
1.000000
50
0.000000
51
81.605548
0
LINE
8
0
10
100.626393
20
10.815923
30
0.0
11
32.053400
21
21.431833
31
0.0
0
ARC
8
0
10
31.980406
20
20.937190
30
0.0
40
0.500000
50
81.605548
51
180.000000
0
LINE
8
0
10
31.480406
20
20.937190
30
0.0
11
31.480406
21
19.315637
31
0.0
0
ARC
8
0
10
31.980406
20
19.315637
30
0.0
40
0.500000
50
180.000000
51
237.497252
0
LINE
8
0
10
31.711736
20
18.893954
30
0.0
11
35.534433
21
16.458370
31
0.0
0
LINE
8
0
10
35.534433
20
16.458370
30
0.0
11
33.062669
21
12.578888
31
0.0
0
LINE
8
0
10
33.062669
20
12.578888
30
0.0
11
31.941608
21
13.293158
31
0.0
0
ARC
8
0
10
31.780406
20
13.040148
30
0.0
40
0.300000
50
57.497252
51
180.000000
0
LINE
8
0
10
31.480406
20
13.040148
30
0.0
11
31.480406
21
12.337190
31
0.0
0
LINE
8
0
10
31.480406
20
12.337190
30
0.0
11
31.830406
21
11.987190
31
0.0
0
LINE
8
0
10
31.830406
20
11.987190
30
0.0
11
31.480406
21
11.637190
31
0.0
0
LINE
8
0
10
31.480406
20
11.637190
30
0.0
11
31.830406
21
11.287190
31
0.0
0
LINE
8
0
10
31.830406
20
11.287190
30
0.0
11
31.480406
21
10.937190
31
0.0
0
LINE
8
0
10
31.480406
20
10.937190
30
0.0
11
31.830406
21
10.587190
31
0.0
0
LINE
8
0
10
31.830406
20
10.587190
30
0.0
11
31.480406
21
10.237190
31
0.0
0
LINE
8
0
10
31.480406
20
10.237190
30
0.0
11
31.830406
21
9.887190
31
0.0
0
LINE
8
0
10
31.830406
20
9.887190
30
0.0
11
31.480406
21
9.537190
31
0.0
0
ATTDEF
8
0
10
0.000000
20
0.000000
30
0.0
40
3.5
1

3

2
PANE_WIDTH:0
70
0
0
ATTDEF
8
0
10
0.000000
20
0.000000
30
0.0
40
3.5
1

3

2
MIN_VETRO:0
70
0
0
ATTDEF
8
0
10
0.000000
20
0.000000
30
0.0
40
3.5
1

3

2
MAX_VETRO:0
70
0
0
ATTDEF
8
0
10
0.000000
20
0.000000
30
0.0
40
3.5
1

3

2
JX:0
70
0
0
ATTDEF
8
0
10
0.000000
20
0.000000
30
0.0
40
3.5
1

3

2
WX:0
70
0
0
ATTDEF
8
0
10
0.000000
20
0.000000
30
0.0
40
3.5
1

3

2
JY:0
70
0
0
ATTDEF
8
0
10
0.000000
20
0.000000
30
0.0
40
3.5
1

3

2
WY:0
70
0
0
ATTDEF
8
0
10
0.000000
20
0.000000
30
0.0
40
3.5
1

3

2
DESC:Alargadera de 70mm.
70
0
0
ATTDEF
8
0
10
0.000000
20
0.000000
30
0.0
40
3.5
1

3

2
DENS:0.4374
70
0
0
ATTDEF
8
0
10
0.000000
20
0.000000
30
0.0
40
3.5
1

3

2
TDEV:20.92
70
0
0
ATTDEF
8
0
10
0.000000
20
0.000000
30
0.0
40
3.5
1

3

2
TDEV2:0
70
0
0
ATTDEF
8
0
10
0.000000
20
0.000000
30
0.0
40
3.5
1

3

2
TDEV3:0
70
0
0
ATTDEF
8
0
10
0.000000
20
0.000000
30
0.0
40
3.5
1

3

2
TDEV4:0
70
0
0
ATTDEF
8
0
10
0.000000
20
0.000000
30
0.0
40
3.5
1

3

2
TDEV5:0
70
0
0
ATTDEF
8
0
10
0.000000
20
0.000000
30
0.0
40
3.5
1

3

2
PANE_WIDTH:0
70
0
0
ATTDEF
8
0
10
0.000000
20
0.000000
30
0.0
40
3.5
1

3

2
MIN_VETRO:0
70
0
0
ATTDEF
8
0
10
0.000000
20
0.000000
30
0.0
40
3.5
1

3

2
MAX_VETRO:0
70
0
0
ATTDEF
8
0
10
0.000000
20
0.000000
30
0.0
40
3.5
1

3

2
JX:0
70
0
0
ATTDEF
8
0
10
0.000000
20
0.000000
30
0.0
40
3.5
1

3

2
WX:0
70
0
0
ATTDEF
8
0
10
0.000000
20
0.000000
30
0.0
40
3.5
1

3

2
JY:0
70
0
0
ATTDEF
8
0
10
0.000000
20
0.000000
30
0.0
40
3.5
1

3

2
WY:0
70
0
0
ENDSEC
0
EOF
