0
SECTION
2
ENTITIES
0
LINE
8
0
10
6047.911041
20
29.090703
30
0.0
11
6066.911041
21
29.090703
31
0.0
0
LINE
8
0
10
6066.911041
20
29.090703
30
0.0
11
6066.911041
21
26.640703
31
0.0
0
LINE
8
0
10
6066.911041
20
26.640703
30
0.0
11
6066.461041
21
26.640703
31
0.0
0
ARC
8
0
10
6066.461041
20
25.890703
30
0.0
40
0.750000
50
90.000000
51
270.000000
0
LINE
8
0
10
6066.461041
20
25.140703
30
0.0
11
6066.911041
21
25.140703
31
0.0
0
LINE
8
0
10
6066.911041
20
25.140703
30
0.0
11
6066.911041
21
17.640703
31
0.0
0
LINE
8
0
10
6066.911041
20
17.640703
30
0.0
11
6066.461041
21
17.640703
31
0.0
0
ARC
8
0
10
6066.461041
20
16.890703
30
0.0
40
0.750000
50
90.000000
51
270.000000
0
LINE
8
0
10
6066.461041
20
16.140703
30
0.0
11
6066.911041
21
16.140703
31
0.0
0
LINE
8
0
10
6066.911041
20
16.140703
30
0.0
11
6066.911041
21
8.640703
31
0.0
0
LINE
8
0
10
6066.911041
20
8.640703
30
0.0
11
6066.461041
21
8.640703
31
0.0
0
ARC
8
0
10
6066.461041
20
7.890703
30
0.0
40
0.750000
50
90.000000
51
270.000000
0
LINE
8
0
10
6066.461041
20
7.140703
30
0.0
11
6066.911041
21
7.140703
31
0.0
0
LINE
8
0
10
6066.911041
20
7.140703
30
0.0
11
6066.911041
21
4.690703
31
0.0
0
LINE
8
0
10
6066.911041
20
4.690703
30
0.0
11
6047.911041
21
4.690703
31
0.0
0
LINE
8
0
10
6047.911041
20
4.690703
30
0.0
11
6047.911041
21
7.140703
31
0.0
0
LINE
8
0
10
6047.911041
20
7.140703
30
0.0
11
6048.361041
21
7.140703
31
0.0
0
ARC
8
0
10
6048.361041
20
7.890703
30
0.0
40
0.750000
50
270.000000
51
90.000000
0
LINE
8
0
10
6048.361041
20
8.640703
30
0.0
11
6047.911041
21
8.640703
31
0.0
0
LINE
8
0
10
6047.911041
20
8.640703
30
0.0
11
6047.911041
21
16.140703
31
0.0
0
LINE
8
0
10
6047.911041
20
16.140703
30
0.0
11
6048.361041
21
16.140703
31
0.0
0
ARC
8
0
10
6048.361041
20
16.890703
30
0.0
40
0.750000
50
270.000000
51
90.000000
0
LINE
8
0
10
6048.361041
20
17.640703
30
0.0
11
6047.911041
21
17.640703
31
0.0
0
LINE
8
0
10
6047.911041
20
17.640703
30
0.0
11
6047.911041
21
25.140703
31
0.0
0
LINE
8
0
10
6047.911041
20
25.140703
30
0.0
11
6048.361041
21
25.140703
31
0.0
0
ARC
8
0
10
6048.361041
20
25.890703
30
0.0
40
0.750000
50
270.000000
51
90.000000
0
LINE
8
0
10
6048.361041
20
26.640703
30
0.0
11
6047.911041
21
26.640703
31
0.0
0
LINE
8
0
10
6047.911041
20
26.640703
30
0.0
11
6047.911041
21
29.090703
31
0.0
0
LINE
8
0
10
5969.011041
20
41.940703
30
0.0
11
5969.011041
21
42.290703
31
0.0
0
ARC
8
0
10
5969.761041
20
41.940703
30
0.0
40
0.750000
50
180.000000
51
360.000000
0
LINE
8
0
10
5970.511041
20
42.290703
30
0.0
11
5970.511041
21
41.940703
31
0.0
0
LINE
8
0
10
5984.011041
20
42.290703
30
0.0
11
5970.511041
21
42.290703
31
0.0
0
LINE
8
0
10
5984.011041
20
41.940703
30
0.0
11
5984.011041
21
42.290703
31
0.0
0
ARC
8
0
10
5984.761041
20
41.940703
30
0.0
40
0.750000
50
180.000000
51
360.000000
0
LINE
8
0
10
5985.511041
20
42.290703
30
0.0
11
5985.511041
21
41.940703
31
0.0
0
LINE
8
0
10
5999.011041
20
42.290703
30
0.0
11
5985.511041
21
42.290703
31
0.0
0
LINE
8
0
10
5999.011041
20
41.940703
30
0.0
11
5999.011041
21
42.290703
31
0.0
0
ARC
8
0
10
5999.761041
20
41.940703
30
0.0
40
0.750000
50
180.000000
51
360.000000
0
LINE
8
0
10
6000.511041
20
42.290703
30
0.0
11
6000.511041
21
41.940703
31
0.0
0
LINE
8
0
10
6014.011041
20
42.290703
30
0.0
11
6000.511041
21
42.290703
31
0.0
0
LINE
8
0
10
6014.011041
20
41.940703
30
0.0
11
6014.011041
21
42.290703
31
0.0
0
ARC
8
0
10
6014.761041
20
41.940703
30
0.0
40
0.750000
50
180.000000
51
360.000000
0
LINE
8
0
10
6015.511041
20
42.290703
30
0.0
11
6015.511041
21
41.940703
31
0.0
0
LINE
8
0
10
6040.724706
20
42.290703
30
0.0
11
6015.511041
21
42.290703
31
0.0
0
ARC
8
0
10
6040.724706
20
41.990703
30
0.0
40
0.300000
50
332.647767
51
90.000000
0
ARC
8
0
10
6044.011041
20
40.290703
30
0.0
40
3.400000
50
152.647767
51
167.016140
0
ARC
8
0
10
6041.185184
20
40.942265
30
0.0
40
0.500000
50
167.016140
51
225.000000
0
LINE
8
0
10
6041.428252
20
39.992090
30
0.0
11
6040.831631
21
40.588711
31
0.0
0
ARC
8
0
10
6041.711095
20
40.274933
30
0.0
40
0.400000
50
225.000000
51
360.000000
0
ARC
8
0
10
6044.011041
20
40.290703
30
0.0
40
1.900000
50
269.607141
51
180.392859
0
ARC
8
0
10
6043.995271
20
37.990757
30
0.0
40
0.400000
50
90.000000
51
225.000000
0
LINE
8
0
10
6044.309050
20
37.111293
30
0.0
11
6043.712428
21
37.707914
31
0.0
0
ARC
8
0
10
6044.662603
20
37.464846
30
0.0
40
0.500000
50
225.000000
51
282.983860
0
ARC
8
0
10
6044.011041
20
40.290703
30
0.0
40
3.400000
50
282.983860
51
297.352233
0
ARC
8
0
10
6045.711041
20
37.004367
30
0.0
40
0.300000
50
360.000000
51
117.352233
0
LINE
8
0
10
6046.011041
20
35.440703
30
0.0
11
6046.011041
21
37.004367
31
0.0
0
ARC
8
0
10
6048.509881
20
35.516866
30
0.0
40
2.500000
50
181.745814
51
220.576706
0
LINE
8
0
10
6046.611041
20
3.390703
30
0.0
11
6046.611041
21
33.890703
31
0.0
0
LINE
8
0
10
6068.211041
20
3.390703
30
0.0
11
6046.611041
21
3.390703
31
0.0
0
LINE
8
0
10
6068.211041
20
55.890703
30
0.0
11
6068.211041
21
3.390703
31
0.0
0
ARC
8
0
10
6067.711041
20
55.890703
30
0.0
40
0.500000
50
360.000000
51
90.000000
0
LINE
8
0
10
6065.211041
20
56.390703
30
0.0
11
6067.711041
21
56.390703
31
0.0
0
ARC
8
0
10
6065.211041
20
55.890703
30
0.0
40
0.500000
50
90.000000
51
180.000000
0
LINE
8
0
10
6064.711041
20
53.640703
30
0.0
11
6064.711041
21
55.890703
31
0.0
0
ARC
8
0
10
6065.211041
20
53.640703
30
0.0
40
0.500000
50
180.000000
51
360.000000
0
LINE
8
0
10
6065.711041
20
54.640703
30
0.0
11
6065.711041
21
53.640703
31
0.0
0
ARC
8
0
10
6066.461041
20
54.640703
30
0.0
40
0.750000
50
360.000000
51
180.000000
0
LINE
8
0
10
6067.211041
20
48.140703
30
0.0
11
6067.211041
21
54.640703
31
0.0
0
ARC
8
0
10
6066.461041
20
48.140703
30
0.0
40
0.750000
50
180.000000
51
360.000000
0
LINE
8
0
10
6065.711041
20
49.140703
30
0.0
11
6065.711041
21
48.140703
31
0.0
0
ARC
8
0
10
6065.211041
20
49.140703
30
0.0
40
0.500000
50
360.000000
51
180.000000
0
LINE
8
0
10
6064.711041
20
46.890703
30
0.0
11
6064.711041
21
49.140703
31
0.0
0
ARC
8
0
10
6065.211041
20
46.890703
30
0.0
40
0.500000
50
180.000000
51
270.000000
0
LINE
8
0
10
6066.911041
20
46.390703
30
0.0
11
6065.211041
21
46.390703
31
0.0
0
LINE
8
0
10
6066.911041
20
33.390703
30
0.0
11
6066.911041
21
46.390703
31
0.0
0
ARC
8
0
10
6063.911041
20
33.390703
30
0.0
40
3.000000
50
270.000000
51
360.000000
0
LINE
8
0
10
6050.911041
20
30.390703
30
0.0
11
6063.911041
21
30.390703
31
0.0
0
ARC
8
0
10
6050.911041
20
33.390703
30
0.0
40
3.000000
50
180.000000
51
270.000000
0
LINE
8
0
10
6047.911041
20
46.390703
30
0.0
11
6047.911041
21
33.390703
31
0.0
0
LINE
8
0
10
6049.611041
20
46.390703
30
0.0
11
6047.911041
21
46.390703
31
0.0
0
ARC
8
0
10
6049.611041
20
46.890703
30
0.0
40
0.500000
50
270.000000
51
360.000000
0
LINE
8
0
10
6050.111041
20
49.140703
30
0.0
11
6050.111041
21
46.890703
31
0.0
0
ARC
8
0
10
6049.611041
20
49.140703
30
0.0
40
0.500000
50
360.000000
51
180.000000
0
LINE
8
0
10
6049.111041
20
48.140703
30
0.0
11
6049.111041
21
49.140703
31
0.0
0
ARC
8
0
10
6048.361041
20
48.140703
30
0.0
40
0.750000
50
180.000000
51
360.000000
0
LINE
8
0
10
6047.611041
20
54.640703
30
0.0
11
6047.611041
21
48.140703
31
0.0
0
ARC
8
0
10
6048.361041
20
54.640703
30
0.0
40
0.750000
50
360.000000
51
180.000000
0
LINE
8
0
10
6049.111041
20
53.640703
30
0.0
11
6049.111041
21
54.640703
31
0.0
0
ARC
8
0
10
6049.611041
20
53.640703
30
0.0
40
0.500000
50
180.000000
51
360.000000
0
LINE
8
0
10
6050.111041
20
55.890703
30
0.0
11
6050.111041
21
53.640703
31
0.0
0
ARC
8
0
10
6049.611041
20
55.890703
30
0.0
40
0.500000
50
360.000000
51
90.000000
0
LINE
8
0
10
6049.611041
20
56.390703
30
0.0
11
6047.111041
21
56.390703
31
0.0
0
ARC
8
0
10
6047.111041
20
55.890703
30
0.0
40
0.500000
50
90.000000
51
180.000000
0
LINE
8
0
10
6046.611041
20
44.390703
30
0.0
11
6046.611041
21
55.890703
31
0.0
0
ARC
8
0
10
6046.111041
20
44.390703
30
0.0
40
0.500000
50
270.000000
51
360.000000
0
LINE
8
0
10
6046.111041
20
43.890703
30
0.0
11
5953.411041
21
43.890703
31
0.0
0
LINE
8
0
10
5953.411041
20
48.090703
30
0.0
11
5953.411041
21
43.890703
31
0.0
0
ARC
8
0
10
5953.111041
20
48.090703
30
0.0
40
0.300000
50
360.000000
51
90.000000
0
LINE
8
0
10
5953.111041
20
48.390703
30
0.0
11
5952.211041
21
48.390703
31
0.0
0
ARC
8
0
10
5952.211041
20
48.090703
30
0.0
40
0.300000
50
90.000000
51
180.000000
0
LINE
8
0
10
5951.911041
20
48.090703
30
0.0
11
5951.911041
21
43.890703
31
0.0
0
LINE
8
0
10
5951.911041
20
43.890703
30
0.0
11
5948.411041
21
43.890703
31
0.0
0
LINE
8
0
10
5948.411041
20
48.090703
30
0.0
11
5948.411041
21
43.890703
31
0.0
0
ARC
8
0
10
5948.111041
20
48.090703
30
0.0
40
0.300000
50
360.000000
51
90.000000
0
LINE
8
0
10
5948.111041
20
48.390703
30
0.0
11
5947.211041
21
48.390703
31
0.0
0
ARC
8
0
10
5947.211041
20
48.090703
30
0.0
40
0.300000
50
90.000000
51
180.000000
0
LINE
8
0
10
5946.911041
20
48.090703
30
0.0
11
5946.911041
21
43.890703
31
0.0
0
LINE
8
0
10
5946.911041
20
43.890703
30
0.0
11
5929.511041
21
43.890703
31
0.0
0
LINE
8
0
10
5929.511041
20
48.090703
30
0.0
11
5929.511041
21
43.890703
31
0.0
0
ARC
8
0
10
5929.211041
20
48.090703
30
0.0
40
0.300000
50
360.000000
51
90.000000
0
LINE
8
0
10
5929.211041
20
48.390703
30
0.0
11
5928.311041
21
48.390703
31
0.0
0
ARC
8
0
10
5928.311041
20
48.090703
30
0.0
40
0.300000
50
90.000000
51
180.000000
0
LINE
8
0
10
5928.011041
20
48.090703
30
0.0
11
5928.011041
21
43.890703
31
0.0
0
LINE
8
0
10
5928.011041
20
43.890703
30
0.0
11
5923.911041
21
43.890703
31
0.0
0
LINE
8
0
10
5923.911041
20
45.890703
30
0.0
11
5923.911041
21
43.890703
31
0.0
0
ARC
8
0
10
5923.611041
20
45.890703
30
0.0
40
0.300000
50
360.000000
51
90.000000
0
LINE
8
0
10
5923.611041
20
46.190703
30
0.0
11
5922.711041
21
46.190703
31
0.0
0
ARC
8
0
10
5922.711041
20
45.890703
30
0.0
40
0.300000
50
90.000000
51
180.000000
0
LINE
8
0
10
5922.411041
20
45.890703
30
0.0
11
5922.411041
21
43.890703
31
0.0
0
LINE
8
0
10
5922.411041
20
43.890703
30
0.0
11
5918.711041
21
43.890703
31
0.0
0
ARC
8
0
10
5918.711041
20
43.390703
30
0.0
40
0.500000
50
90.000000
51
180.000000
0
LINE
8
0
10
5918.211041
20
43.390703
30
0.0
11
5918.211041
21
1.590703
31
0.0
0
LINE
8
0
10
5922.211041
20
1.590703
30
0.0
11
5918.211041
21
1.590703
31
0.0
0
LINE
8
0
10
5922.211041
20
1.590703
30
0.0
11
5922.211041
21
3.390703
31
0.0
0
LINE
8
0
10
5922.211041
20
3.390703
30
0.0
11
5929.711041
21
3.390703
31
0.0
0
LINE
8
0
10
5929.711041
20
3.390703
30
0.0
11
5929.711041
21
1.790703
31
0.0
0
LINE
8
0
10
5929.711041
20
1.790703
30
0.0
11
5930.011041
21
1.790703
31
0.0
0
ARC
8
0
10
5930.011041
20
2.090703
30
0.0
40
0.300000
50
270.000000
51
336.242263
0
LINE
8
0
10
5930.285618
20
1.969842
30
0.0
11
5931.218530
21
4.089268
31
0.0
0
ARC
8
0
10
5930.760901
20
4.290703
30
0.0
40
0.500000
50
336.242263
51
90.000000
0
LINE
8
0
10
5930.760901
20
4.790703
30
0.0
11
5919.811041
21
4.790703
31
0.0
0
LINE
8
0
10
5919.811041
20
4.790703
30
0.0
11
5919.811041
21
41.790703
31
0.0
0
ARC
8
0
10
5920.311041
20
41.790703
30
0.0
40
0.500000
50
90.000000
51
180.000000
0
LINE
8
0
10
5920.311041
20
42.290703
30
0.0
11
5940.811041
21
42.290703
31
0.0
0
LINE
8
0
10
5940.811041
20
42.290703
30
0.0
11
5941.311041
21
42.790703
31
0.0
0
LINE
8
0
10
5941.311041
20
42.790703
30
0.0
11
5941.811041
21
42.290703
31
0.0
0
LINE
8
0
10
5969.011041
20
42.290703
30
0.0
11
5941.811041
21
42.290703
31
0.0
0
ATTDEF
8
0
10
0.000000
20
0.000000
30
0.0
40
3.5
1

3

2
PANE_WIDTH:0
70
0
0
ATTDEF
8
0
10
0.000000
20
0.000000
30
0.0
40
3.5
1

3

2
MIN_VETRO:0
70
0
0
ATTDEF
8
0
10
0.000000
20
0.000000
30
0.0
40
3.5
1

3

2
MAX_VETRO:0
70
0
0
ATTDEF
8
0
10
0.000000
20
0.000000
30
0.0
40
3.5
1

3

2
JX:0
70
0
0
ATTDEF
8
0
10
0.000000
20
0.000000
30
0.0
40
3.5
1

3

2
WX:0
70
0
0
ATTDEF
8
0
10
0.000000
20
0.000000
30
0.0
40
3.5
1

3

2
JY:0
70
0
0
ATTDEF
8
0
10
0.000000
20
0.000000
30
0.0
40
3.5
1

3

2
WY:0
70
0
0
ATTDEF
8
0
10
0.000000
20
0.000000
30
0.0
40
3.5
1

3

2
DESC:Guia 150mm
70
0
0
ATTDEF
8
0
10
0.000000
20
0.000000
30
0.0
40
3.5
1

3

2
DENS:1.4796
70
0
0
ATTDEF
8
0
10
0.000000
20
0.000000
30
0.0
40
3.5
1

3

2
TDEV:73.25
70
0
0
ATTDEF
8
0
10
0.000000
20
0.000000
30
0.0
40
3.5
1

3

2
TDEV2:0
70
0
0
ATTDEF
8
0
10
0.000000
20
0.000000
30
0.0
40
3.5
1

3

2
TDEV3:0
70
0
0
ATTDEF
8
0
10
0.000000
20
0.000000
30
0.0
40
3.5
1

3

2
TDEV4:0
70
0
0
ATTDEF
8
0
10
0.000000
20
0.000000
30
0.0
40
3.5
1

3

2
TDEV5:0
70
0
0
ATTDEF
8
0
10
0.000000
20
0.000000
30
0.0
40
3.5
1

3

2
PANE_WIDTH:0
70
0
0
ATTDEF
8
0
10
0.000000
20
0.000000
30
0.0
40
3.5
1

3

2
MIN_VETRO:0
70
0
0
ATTDEF
8
0
10
0.000000
20
0.000000
30
0.0
40
3.5
1

3

2
MAX_VETRO:0
70
0
0
ATTDEF
8
0
10
0.000000
20
0.000000
30
0.0
40
3.5
1

3

2
JX:0
70
0
0
ATTDEF
8
0
10
0.000000
20
0.000000
30
0.0
40
3.5
1

3

2
WX:0
70
0
0
ATTDEF
8
0
10
0.000000
20
0.000000
30
0.0
40
3.5
1

3

2
JY:0
70
0
0
ATTDEF
8
0
10
0.000000
20
0.000000
30
0.0
40
3.5
1

3

2
WY:0
70
0
0
ATTDEF
8
0
10
6048.361041
20
56.390703
30
0.0
40
3.5
1

3

2
VC_START
70
0
0
ATTDEF
8
0
10
5918.211041
20
1.590703
30
0.0
40
3.5
1

3

2
VC_END
70
0
0
ATTDEF
8
0
10
6068.211041
20
1.590703
30
0.0
40
3.5
1

3

2
FP_LCS_ORIG
70
0
0
ATTDEF
8
0
10
6058.211041
20
1.590703
30
0.0
40
3.5
1

3

2
FP_LCS_HOT
70
0
0
ATTDEF
8
0
10
6068.211041
20
11.590703
30
0.0
40
3.5
1

3

2
FP_LCS_INTERN
70
0
0
ENDSEC
0
EOF
