0
SECTION
2
ENTITIES
0
ARC
8
00_ALUMINIO
10
222.589354
20
17.452720
30
0.0
40
0.300000
50
180.000000
51
270.000000
0
LINE
8
00_ALUMINIO
10
222.289354
20
17.452720
30
0.0
11
222.289354
21
18.752720
31
0.0
0
ARC
8
00_ALUMINIO
10
221.989354
20
18.752720
30
0.0
40
0.300000
50
0.000000
51
90.000000
0
LINE
8
00_ALUMINIO
10
221.989354
20
19.052720
30
0.0
11
221.389354
21
19.052720
31
0.0
0
ARC
8
00_ALUMINIO
10
221.389354
20
18.752720
30
0.0
40
0.300000
50
90.000000
51
180.000000
0
LINE
8
00_ALUMINIO
10
221.089354
20
18.752720
30
0.0
11
221.089354
21
11.652720
31
0.0
0
ARC
8
00_ALUMINIO
10
221.389354
20
11.652720
30
0.0
40
0.300000
50
180.000000
51
270.000000
0
LINE
8
00_ALUMINIO
10
221.389354
20
11.352720
30
0.0
11
221.989354
21
11.352720
31
0.0
0
ARC
8
00_ALUMINIO
10
221.989354
20
11.652720
30
0.0
40
0.300000
50
270.000000
51
0.000000
0
LINE
8
00_ALUMINIO
10
222.289354
20
11.652720
30
0.0
11
222.289354
21
12.952720
31
0.0
0
ARC
8
00_ALUMINIO
10
222.589354
20
12.952720
30
0.0
40
0.300000
50
90.000000
51
180.000000
0
LINE
8
00_ALUMINIO
10
222.589354
20
13.252720
30
0.0
11
222.989354
21
13.252720
31
0.0
0
ARC
8
00_ALUMINIO
10
222.989354
20
12.752720
30
0.0
40
0.500000
50
0.000000
51
90.000000
0
LINE
8
00_ALUMINIO
10
223.489354
20
12.752720
30
0.0
11
223.489354
21
-15.747280
31
0.0
0
ARC
8
00_ALUMINIO
10
223.189354
20
-15.747280
30
0.0
40
0.300000
50
270.000000
51
0.000000
0
LINE
8
00_ALUMINIO
10
223.189354
20
-16.047280
30
0.0
11
220.189354
21
-16.047280
31
0.0
0
LINE
8
00_ALUMINIO
10
220.189354
20
-16.047280
30
0.0
11
220.189354
21
-18.347280
31
0.0
0
LINE
8
00_ALUMINIO
10
220.189354
20
-18.347280
30
0.0
11
220.989354
21
-19.090501
31
0.0
0
LINE
8
00_ALUMINIO
10
220.989354
20
-19.090501
30
0.0
11
219.872376
21
-20.421663
31
0.0
0
ARC
8
00_ALUMINIO
10
219.489354
20
-20.100270
30
0.0
40
0.500000
50
180.000000
51
320.000000
0
LINE
8
00_ALUMINIO
10
218.989354
20
-20.100270
30
0.0
11
218.989354
21
-15.247280
31
0.0
0
ARC
8
00_ALUMINIO
10
219.489354
20
-15.247280
30
0.0
40
0.500000
50
90.000000
51
180.000000
0
LINE
8
00_ALUMINIO
10
219.489354
20
-14.747280
30
0.0
11
221.789354
21
-14.747280
31
0.0
0
ARC
8
00_ALUMINIO
10
221.789354
20
-14.447280
30
0.0
40
0.300000
50
270.000000
51
0.000000
0
LINE
8
00_ALUMINIO
10
222.089354
20
-14.447280
30
0.0
11
222.089354
21
9.252720
31
0.0
0
ARC
8
00_ALUMINIO
10
221.589354
20
9.252720
30
0.0
40
0.500000
50
0.000000
51
90.000000
0
LINE
8
00_ALUMINIO
10
221.589354
20
9.752720
30
0.0
11
219.989354
21
9.752720
31
0.0
0
ARC
8
00_ALUMINIO
10
219.989354
20
10.252720
30
0.0
40
0.500000
50
180.000000
51
270.000000
0
LINE
8
00_ALUMINIO
10
219.489354
20
10.252720
30
0.0
11
219.489354
21
17.952720
31
0.0
0
ARC
8
00_ALUMINIO
10
218.489354
20
17.952720
30
0.0
40
1.000000
50
0.000000
51
90.000000
0
LINE
8
00_ALUMINIO
10
218.489354
20
18.952720
30
0.0
11
155.541527
21
18.952720
31
0.0
0
ARC
8
00_ALUMINIO
10
155.541527
20
17.952720
30
0.0
40
1.000000
50
90.000000
51
180.000000
0
LINE
8
00_ALUMINIO
10
154.541527
20
17.952720
30
0.0
11
154.541527
21
-14.247280
31
0.0
0
ARC
8
00_ALUMINIO
10
154.841527
20
-14.247280
30
0.0
40
0.300000
50
180.000000
51
270.000000
0
LINE
8
00_ALUMINIO
10
154.841527
20
-14.547280
30
0.0
11
157.413679
21
-14.547280
31
0.0
0
ARC
8
00_ALUMINIO
10
157.413679
20
-15.047280
30
0.0
40
0.500000
50
357.096322
51
90.000000
0
LINE
8
00_ALUMINIO
10
157.913038
20
-15.072609
30
0.0
11
157.662104
21
-20.019819
31
0.0
0
ARC
8
00_ALUMINIO
10
157.034544
20
-19.972222
30
0.0
40
0.629363
50
229.458087
51
355.662670
0
LINE
8
00_ALUMINIO
10
156.625456
20
-20.450493
30
0.0
11
154.908393
21
-18.729830
31
0.0
0
ARC
8
00_ALUMINIO
10
155.191533
20
-18.447285
30
0.0
40
0.400000
50
209.998236
51
224.939728
0
ARC
8
00_ALUMINIO
10
155.018325
20
-18.547280
30
0.0
40
0.200000
50
90.000000
51
209.998236
0
LINE
8
00_ALUMINIO
10
155.018325
20
-18.347280
30
0.0
11
155.588679
21
-18.347280
31
0.0
0
ARC
8
00_ALUMINIO
10
155.588679
20
-18.547280
30
0.0
40
0.200000
50
54.865517
51
90.000000
0
ARC
8
00_ALUMINIO
10
155.991528
20
-17.974818
30
0.0
40
0.500000
50
234.865517
51
0.000000
0
LINE
8
00_ALUMINIO
10
156.491528
20
-17.974818
30
0.0
11
156.491528
21
-16.650833
31
0.0
0
LINE
8
00_ALUMINIO
10
156.491528
20
-16.650833
30
0.0
11
156.191528
21
-16.350833
31
0.0
0
LINE
8
00_ALUMINIO
10
156.191528
20
-16.350833
30
0.0
11
156.495081
21
-16.047280
31
0.0
0
LINE
8
00_ALUMINIO
10
156.495081
20
-16.047280
30
0.0
11
153.241527
21
-16.047280
31
0.0
0
ARC
8
00_ALUMINIO
10
153.241527
20
-15.747280
30
0.0
40
0.300000
50
180.000000
51
270.000000
0
LINE
8
00_ALUMINIO
10
152.941527
20
-15.747280
30
0.0
11
152.941527
21
20.052720
31
0.0
0
ARC
8
00_ALUMINIO
10
153.441527
20
20.052720
30
0.0
40
0.500000
50
90.000000
51
180.000000
0
LINE
8
00_ALUMINIO
10
153.441527
20
20.552720
30
0.0
11
222.989354
21
20.552720
31
0.0
0
ARC
8
00_ALUMINIO
10
222.989354
20
20.052720
30
0.0
40
0.500000
50
0.000000
51
90.000000
0
LINE
8
00_ALUMINIO
10
223.489354
20
20.052720
30
0.0
11
223.489354
21
17.652720
31
0.0
0
ARC
8
00_ALUMINIO
10
222.989354
20
17.652720
30
0.0
40
0.500000
50
270.000000
51
0.000000
0
LINE
8
00_ALUMINIO
10
222.989354
20
17.152720
30
0.0
11
222.589354
21
17.152720
31
0.0
0
ATTDEF
8
0
10
0.000000
20
0.000000
30
0.0
40
3.5
1

3

2
PANE_WIDTH:0
70
0
0
ATTDEF
8
0
10
0.000000
20
0.000000
30
0.0
40
3.5
1

3

2
MIN_VETRO:0
70
0
0
ATTDEF
8
0
10
0.000000
20
0.000000
30
0.0
40
3.5
1

3

2
MAX_VETRO:0
70
0
0
ATTDEF
8
0
10
0.000000
20
0.000000
30
0.0
40
3.5
1

3

2
JX:0
70
0
0
ATTDEF
8
0
10
0.000000
20
0.000000
30
0.0
40
3.5
1

3

2
WX:0
70
0
0
ATTDEF
8
0
10
0.000000
20
0.000000
30
0.0
40
3.5
1

3

2
JY:0
70
0
0
ATTDEF
8
0
10
0.000000
20
0.000000
30
0.0
40
3.5
1

3

2
WY:0
70
0
0
ATTDEF
8
0
10
0.000000
20
0.000000
30
0.0
40
3.5
1

3

2
DESC:Tapa remate cruce hojas Galandage
70
0
0
ATTDEF
8
0
10
0.000000
20
0.000000
30
0.0
40
3.5
1

3

2
DENS:0.6777
70
0
0
ATTDEF
8
0
10
0.000000
20
0.000000
30
0.0
40
3.5
1

3

2
TDEV:32.58
70
0
0
ATTDEF
8
0
10
0.000000
20
0.000000
30
0.0
40
3.5
1

3

2
TDEV2:0
70
0
0
ATTDEF
8
0
10
0.000000
20
0.000000
30
0.0
40
3.5
1

3

2
TDEV3:0
70
0
0
ATTDEF
8
0
10
0.000000
20
0.000000
30
0.0
40
3.5
1

3

2
TDEV4:0
70
0
0
ATTDEF
8
0
10
0.000000
20
0.000000
30
0.0
40
3.5
1

3

2
TDEV5:0
70
0
0
ATTDEF
8
0
10
0.000000
20
0.000000
30
0.0
40
3.5
1

3

2
PANE_WIDTH:0
70
0
0
ATTDEF
8
0
10
0.000000
20
0.000000
30
0.0
40
3.5
1

3

2
MIN_VETRO:0
70
0
0
ATTDEF
8
0
10
0.000000
20
0.000000
30
0.0
40
3.5
1

3

2
MAX_VETRO:0
70
0
0
ATTDEF
8
0
10
0.000000
20
0.000000
30
0.0
40
3.5
1

3

2
JX:0
70
0
0
ATTDEF
8
0
10
0.000000
20
0.000000
30
0.0
40
3.5
1

3

2
WX:0
70
0
0
ATTDEF
8
0
10
0.000000
20
0.000000
30
0.0
40
3.5
1

3

2
JY:0
70
0
0
ATTDEF
8
0
10
0.000000
20
0.000000
30
0.0
40
3.5
1

3

2
WY:0
70
0
0
ENDSEC
0
EOF
