0
SECTION
2
ENTITIES
0
ARC
8
0
10
2551.633504
20
1211.589184
30
0.0
40
0.500000
50
247.380135
51
292.619865
0
LINE
8
0
10
2551.441197
20
1211.127645
30
0.0
11
2550.625812
21
1211.467389
31
0.0
0
ARC
8
0
10
2550.433504
20
1211.005850
30
0.0
40
0.500000
50
67.380135
51
112.619865
0
LINE
8
0
10
2550.241197
20
1211.467389
30
0.0
11
2549.425812
21
1211.127645
31
0.0
0
ARC
8
0
10
2549.233504
20
1211.589184
30
0.0
40
0.500000
50
247.380135
51
292.619865
0
LINE
8
0
10
2549.041197
20
1211.127645
30
0.0
11
2548.225812
21
1211.467389
31
0.0
0
ARC
8
0
10
2548.033504
20
1211.005850
30
0.0
40
0.500000
50
67.380135
51
112.619865
0
LINE
8
0
10
2547.841197
20
1211.467389
30
0.0
11
2547.025812
21
1211.127645
31
0.0
0
ARC
8
0
10
2546.833504
20
1211.589184
30
0.0
40
0.500000
50
247.380135
51
292.619865
0
LINE
8
0
10
2546.641197
20
1211.127645
30
0.0
11
2544.241086
21
1212.127691
31
0.0
0
ARC
8
0
10
2543.856471
20
1211.204614
30
0.0
40
1.000000
50
67.380135
51
90.000000
0
LINE
8
0
10
2543.856471
20
1212.204614
30
0.0
11
2542.336471
21
1212.204614
31
0.0
0
ARC
8
0
10
2542.036471
20
1212.204605
30
0.0
40
0.300000
50
270.000000
51
0.001747
0
LINE
8
0
10
2542.036471
20
1211.904605
30
0.0
11
2541.108228
21
1211.590797
31
0.0
0
ARC
8
0
10
2541.020516
20
1211.877688
30
0.0
40
0.300000
50
191.056118
51
287.000000
0
ARC
8
0
10
2540.431652
20
1211.762626
30
0.0
40
0.300000
50
11.056118
51
87.000000
0
LINE
8
0
10
2540.447353
20
1212.062215
30
0.0
11
2538.059294
21
1212.187368
31
0.0
0
ARC
8
0
10
2538.043593
20
1211.887779
30
0.0
40
0.300000
50
87.000000
51
217.246080
0
LINE
8
0
10
2537.804780
20
1211.706207
30
0.0
11
2539.889862
21
1208.963796
31
0.0
0
ARC
8
0
10
2540.003736
20
1209.054559
30
0.0
40
0.145621
50
218.556452
51
2.000000
0
LINE
8
0
10
2540.149268
20
1209.059641
30
0.0
11
2540.143839
21
1209.215128
31
0.0
0
ARC
8
0
10
2540.343717
20
1209.222108
30
0.0
40
0.200000
50
123.259504
51
182.000000
0
LINE
8
0
10
2540.234030
20
1209.389347
30
0.0
11
2541.772738
21
1210.350895
31
0.0
0
ARC
8
0
10
2542.049579
20
1210.466475
30
0.0
40
0.300000
50
107.000000
51
202.660312
0
LINE
8
0
10
2541.961868
20
1210.753367
30
0.0
11
2542.336471
21
1210.854187
31
0.0
0
ARC
8
0
10
2542.336471
20
1210.554187
30
0.0
40
0.300000
50
293.578179
51
90.000000
0
ARC
8
0
10
2542.536471
20
1210.095929
30
0.0
40
0.200000
50
113.578178
51
180.000000
0
LINE
8
0
10
2542.336471
20
1210.095929
30
0.0
11
2542.336471
21
1205.974605
31
0.0
0
ARC
8
0
10
2542.066471
20
1205.974605
30
0.0
40
0.270000
50
270.000000
51
0.000000
0
LINE
8
0
10
2542.066471
20
1205.704605
30
0.0
11
2541.736471
21
1205.704605
31
0.0
0
LINE
8
0
10
2541.736471
20
1205.704605
30
0.0
11
2540.236374
21
1206.620268
31
0.0
0
ARC
8
0
10
2540.036471
20
1206.626491
30
0.0
40
0.200000
50
358.217138
51
180.000000
0
LINE
8
0
10
2539.836471
20
1206.626491
30
0.0
11
2539.836471
21
1203.082738
31
0.0
0
ARC
8
0
10
2540.036471
20
1203.082738
30
0.0
40
0.200000
50
180.000000
51
1.782862
0
LINE
8
0
10
2540.236374
20
1203.088961
30
0.0
11
2541.736471
21
1204.004624
31
0.0
0
LINE
8
0
10
2541.736471
20
1204.004624
30
0.0
11
2542.066471
21
1204.004624
31
0.0
0
ARC
8
0
10
2542.066471
20
1203.734624
30
0.0
40
0.270000
50
0.000000
51
90.000000
0
LINE
8
0
10
2542.336471
20
1203.734624
30
0.0
11
2542.336471
21
1199.613299
31
0.0
0
ARC
8
0
10
2542.536471
20
1199.613299
30
0.0
40
0.200000
50
180.000000
51
246.421822
0
ARC
8
0
10
2542.336471
20
1199.155042
30
0.0
40
0.300000
50
270.000000
51
66.421822
0
LINE
8
0
10
2542.336471
20
1198.855042
30
0.0
11
2541.961868
21
1198.955862
31
0.0
0
ARC
8
0
10
2542.049579
20
1199.242753
30
0.0
40
0.300000
50
157.339688
51
253.000000
0
LINE
8
0
10
2541.772738
20
1199.358333
30
0.0
11
2540.241477
21
1200.315228
31
0.0
0
ARC
8
0
10
2540.343717
20
1200.487121
30
0.0
40
0.200000
50
178.000000
51
239.256452
0
LINE
8
0
10
2540.143839
20
1200.494101
30
0.0
11
2540.149268
21
1200.649588
31
0.0
0
ARC
8
0
10
2540.003736
20
1200.654670
30
0.0
40
0.145621
50
358.000000
51
144.064292
0
LINE
8
0
10
2539.885831
20
1200.740131
30
0.0
11
2537.804780
21
1198.003022
31
0.0
0
ARC
8
0
10
2538.043593
20
1197.821450
30
0.0
40
0.300000
50
142.753920
51
273.000000
0
LINE
8
0
10
2538.059294
20
1197.521861
30
0.0
11
2540.447353
21
1197.647014
31
0.0
0
ARC
8
0
10
2540.431652
20
1197.946603
30
0.0
40
0.300000
50
273.000000
51
348.943882
0
ARC
8
0
10
2541.020516
20
1197.831541
30
0.0
40
0.300000
50
73.000000
51
168.943882
0
LINE
8
0
10
2541.108228
20
1198.118432
30
0.0
11
2542.036471
21
1197.804624
31
0.0
0
ARC
8
0
10
2542.036471
20
1197.504624
30
0.0
40
0.300000
50
359.998253
51
90.000000
0
LINE
8
0
10
2542.336471
20
1197.504614
30
0.0
11
2545.336471
21
1197.504614
31
0.0
0
ARC
8
0
10
2545.836471
20
1197.504614
30
0.0
40
0.500000
50
90.000000
51
180.000000
0
LINE
8
0
10
2545.836471
20
1198.004614
30
0.0
11
2567.136471
21
1198.004614
31
0.0
0
ARC
8
0
10
2567.136471
20
1197.504614
30
0.0
40
0.500000
50
0.000000
51
90.000000
0
LINE
8
0
10
2567.636471
20
1197.504614
30
0.0
11
2570.136471
21
1197.504614
31
0.0
0
ARC
8
0
10
2570.136471
20
1198.004614
30
0.0
40
0.500000
50
270.000000
51
0.000000
0
LINE
8
0
10
2570.636471
20
1198.004614
30
0.0
11
2570.636471
21
1209.504614
31
0.0
0
ARC
8
0
10
2568.636471
20
1209.504614
30
0.0
40
2.000000
50
0.000000
51
90.000000
0
LINE
8
0
10
2568.636471
20
1211.504614
30
0.0
11
2567.268639
21
1211.504614
31
0.0
0
ARC
8
0
10
2567.233504
20
1211.005850
30
0.0
40
0.500000
50
85.970515
51
112.619865
0
LINE
8
0
10
2567.041197
20
1211.467389
30
0.0
11
2566.225812
21
1211.127645
31
0.0
0
ARC
8
0
10
2566.033504
20
1211.589184
30
0.0
40
0.500000
50
247.380135
51
292.619865
0
LINE
8
0
10
2565.841197
20
1211.127645
30
0.0
11
2565.025812
21
1211.467389
31
0.0
0
ARC
8
0
10
2564.833504
20
1211.005850
30
0.0
40
0.500000
50
67.380135
51
112.619865
0
LINE
8
0
10
2564.641197
20
1211.467389
30
0.0
11
2563.825812
21
1211.127645
31
0.0
0
ARC
8
0
10
2563.633504
20
1211.589184
30
0.0
40
0.500000
50
247.380135
51
292.619865
0
LINE
8
0
10
2563.441197
20
1211.127645
30
0.0
11
2562.625812
21
1211.467389
31
0.0
0
ARC
8
0
10
2562.433504
20
1211.005850
30
0.0
40
0.500000
50
67.380135
51
112.619865
0
LINE
8
0
10
2562.241197
20
1211.467389
30
0.0
11
2561.425812
21
1211.127645
31
0.0
0
ARC
8
0
10
2561.233504
20
1211.589184
30
0.0
40
0.500000
50
247.380135
51
292.619865
0
LINE
8
0
10
2561.041197
20
1211.127645
30
0.0
11
2560.225812
21
1211.467389
31
0.0
0
ARC
8
0
10
2560.033504
20
1211.005850
30
0.0
40
0.500000
50
67.380135
51
112.619865
0
LINE
8
0
10
2559.841197
20
1211.467389
30
0.0
11
2559.025812
21
1211.127645
31
0.0
0
ARC
8
0
10
2558.833504
20
1211.589184
30
0.0
40
0.500000
50
247.380135
51
292.619865
0
LINE
8
0
10
2558.641197
20
1211.127645
30
0.0
11
2557.825812
21
1211.467389
31
0.0
0
ARC
8
0
10
2557.633504
20
1211.005850
30
0.0
40
0.500000
50
67.380135
51
112.619865
0
LINE
8
0
10
2557.441197
20
1211.467389
30
0.0
11
2556.625812
21
1211.127645
31
0.0
0
ARC
8
0
10
2556.433504
20
1211.589184
30
0.0
40
0.500000
50
247.380135
51
292.619865
0
LINE
8
0
10
2556.241197
20
1211.127645
30
0.0
11
2555.425812
21
1211.467389
31
0.0
0
ARC
8
0
10
2555.233504
20
1211.005850
30
0.0
40
0.500000
50
67.380135
51
112.619865
0
LINE
8
0
10
2555.041197
20
1211.467389
30
0.0
11
2554.225812
21
1211.127645
31
0.0
0
ARC
8
0
10
2554.033504
20
1211.589184
30
0.0
40
0.500000
50
247.380135
51
292.619865
0
LINE
8
0
10
2553.841197
20
1211.127645
30
0.0
11
2553.025812
21
1211.467389
31
0.0
0
ARC
8
0
10
2552.833504
20
1211.005850
30
0.0
40
0.500000
50
67.380135
51
112.619865
0
LINE
8
0
10
2552.641197
20
1211.467389
30
0.0
11
2551.825812
21
1211.127645
31
0.0
0
LINE
8
0
10
2561.547112
20
1200.181863
30
0.0
11
2561.547112
21
1200.217114
31
0.0
0
ARC
8
0
10
2562.136471
20
1201.704614
30
0.0
40
1.600000
50
201.613846
51
248.386154
0
LINE
8
0
10
2560.648971
20
1201.115256
30
0.0
11
2560.613719
21
1201.115256
31
0.0
0
ARC
8
0
10
2560.613719
20
1201.415256
30
0.0
40
0.300000
50
190.759275
51
270.000000
0
ARC
8
0
10
2562.136471
20
1201.704614
30
0.0
40
1.850000
50
169.240725
51
190.759275
0
ARC
8
0
10
2560.613719
20
1201.993973
30
0.0
40
0.300000
50
90.000000
51
169.240725
0
LINE
8
0
10
2560.613719
20
1202.293973
30
0.0
11
2560.648971
21
1202.293973
31
0.0
0
ARC
8
0
10
2562.136471
20
1201.704614
30
0.0
40
1.600000
50
132.536898
51
158.386154
0
ARC
8
0
10
2560.851948
20
1203.104614
30
0.0
40
0.300000
50
312.536898
51
90.000000
0
LINE
8
0
10
2560.851948
20
1203.404614
30
0.0
11
2560.262971
21
1203.404614
31
0.0
0
ARC
8
0
10
2560.262971
20
1202.404614
30
0.0
40
1.000000
50
90.000000
51
159.512685
0
ARC
8
0
10
2562.136471
20
1201.704614
30
0.0
40
3.000000
50
159.512685
51
213.055731
0
ARC
8
0
10
2559.370607
20
1199.904614
30
0.0
40
0.300000
50
270.000000
51
33.055731
0
LINE
8
0
10
2559.370607
20
1199.604614
30
0.0
11
2545.836471
21
1199.604614
31
0.0
0
ARC
8
0
10
2545.836471
20
1197.504614
30
0.0
40
2.100000
50
90.000000
51
122.578970
0
ARC
8
0
10
2544.436471
20
1199.695505
30
0.0
40
0.500000
50
180.000000
51
302.578970
0
LINE
8
0
10
2543.936471
20
1199.695505
30
0.0
11
2543.936471
21
1209.771281
31
0.0
0
ARC
8
0
10
2544.436471
20
1209.771281
30
0.0
40
0.500000
50
67.380135
51
180.000000
0
LINE
8
0
10
2544.628778
20
1210.232820
30
0.0
11
2546.431855
21
1209.481538
31
0.0
0
ARC
8
0
10
2546.816471
20
1210.404614
30
0.0
40
1.000000
50
247.380135
51
270.000000
0
LINE
8
0
10
2546.816471
20
1209.404614
30
0.0
11
2568.536471
21
1209.404614
31
0.0
0
ARC
8
0
10
2568.536471
20
1208.904614
30
0.0
40
0.500000
50
0.000000
51
90.000000
0
LINE
8
0
10
2569.036471
20
1208.904614
30
0.0
11
2569.036471
21
1200.104614
31
0.0
0
ARC
8
0
10
2568.536471
20
1200.104614
30
0.0
40
0.500000
50
270.000000
51
0.000000
0
LINE
8
0
10
2568.536471
20
1199.604614
30
0.0
11
2564.902334
21
1199.604614
31
0.0
0
ARC
8
0
10
2564.902334
20
1199.904614
30
0.0
40
0.300000
50
146.944269
51
270.000000
0
ARC
8
0
10
2562.136471
20
1201.704614
30
0.0
40
3.000000
50
326.944269
51
20.487315
0
ARC
8
0
10
2564.009970
20
1202.404614
30
0.0
40
1.000000
50
20.487315
51
90.000000
0
LINE
8
0
10
2564.009970
20
1203.404614
30
0.0
11
2563.420994
21
1203.404614
31
0.0
0
ARC
8
0
10
2563.420994
20
1203.104614
30
0.0
40
0.300000
50
90.000000
51
227.463102
0
ARC
8
0
10
2562.136471
20
1201.704614
30
0.0
40
1.600000
50
21.613846
51
47.463102
0
LINE
8
0
10
2563.623971
20
1202.293973
30
0.0
11
2563.659222
21
1202.293973
31
0.0
0
ARC
8
0
10
2563.659222
20
1201.993973
30
0.0
40
0.300000
50
10.759275
51
90.000000
0
ARC
8
0
10
2562.136471
20
1201.704614
30
0.0
40
1.850000
50
349.240725
51
10.759275
0
ARC
8
0
10
2563.659222
20
1201.415256
30
0.0
40
0.300000
50
270.000000
51
349.240725
0
LINE
8
0
10
2563.659222
20
1201.115256
30
0.0
11
2563.623971
21
1201.115256
31
0.0
0
ARC
8
0
10
2562.136471
20
1201.704614
30
0.0
40
1.600000
50
291.613846
51
338.386154
0
LINE
8
0
10
2562.725830
20
1200.217114
30
0.0
11
2562.725830
21
1200.181863
31
0.0
0
ARC
8
0
10
2562.425830
20
1200.181863
30
0.0
40
0.300000
50
280.759275
51
0.000000
0
ARC
8
0
10
2562.136471
20
1201.704614
30
0.0
40
1.850000
50
259.240725
51
280.759275
0
ARC
8
0
10
2561.847112
20
1200.181863
30
0.0
40
0.300000
50
180.000000
51
259.240725
0
LINE
8
0
10
2512.864064
20
1208.481862
30
0.0
11
2513.890588
21
1209.508386
31
0.0
0
LINE
8
0
10
2512.517276
20
1205.890010
30
0.0
11
2515.651871
21
1209.024605
31
0.0
0
LINE
8
0
10
2517.218103
20
1210.590837
30
0.0
11
2518.451848
21
1211.824582
31
0.0
0
LINE
8
0
10
2512.336471
20
1203.464141
30
0.0
11
2512.756953
21
1203.884624
31
0.0
0
LINE
8
0
10
2515.696935
20
1206.824605
30
0.0
11
2520.696935
21
1211.824605
31
0.0
0
LINE
8
0
10
2513.408363
20
1202.290969
30
0.0
11
2514.267936
21
1203.150543
31
0.0
0
LINE
8
0
10
2521.341999
20
1210.224605
30
0.0
11
2522.941999
21
1211.824605
31
0.0
0
LINE
8
0
10
2513.116217
20
1199.753759
30
0.0
11
2516.247081
21
1202.884624
31
0.0
0
LINE
8
0
10
2523.587063
20
1210.224605
30
0.0
11
2525.187063
21
1211.824605
31
0.0
0
LINE
8
0
10
2516.102267
20
1200.494745
30
0.0
11
2517.666378
21
1202.058856
31
0.0
0
LINE
8
0
10
2525.832127
20
1210.224605
30
0.0
11
2527.432127
21
1211.824605
31
0.0
0
LINE
8
0
10
2517.107457
20
1199.254871
30
0.0
11
2518.671568
21
1200.818982
31
0.0
0
LINE
8
0
10
2528.077191
20
1210.224605
30
0.0
11
2529.677191
21
1211.824605
31
0.0
0
LINE
8
0
10
2518.116144
20
1198.018494
30
0.0
11
2519.736605
21
1199.638955
31
0.0
0
LINE
8
0
10
2530.322255
20
1210.224605
30
0.0
11
2531.922255
21
1211.824605
31
0.0
0
LINE
8
0
10
2520.227337
20
1197.884624
30
0.0
11
2521.827337
21
1199.484624
31
0.0
0
LINE
8
0
10
2532.567319
20
1210.224605
30
0.0
11
2534.167319
21
1211.824605
31
0.0
0
LINE
8
0
10
2522.472401
20
1197.884624
30
0.0
11
2524.072401
21
1199.484624
31
0.0
0
LINE
8
0
10
2534.744763
20
1210.156985
30
0.0
11
2536.383569
21
1211.795791
31
0.0
0
LINE
8
0
10
2524.717465
20
1197.884624
30
0.0
11
2526.317465
21
1199.484624
31
0.0
0
LINE
8
0
10
2535.876776
20
1209.043934
30
0.0
11
2537.440888
21
1210.608046
31
0.0
0
LINE
8
0
10
2526.962530
20
1197.884624
30
0.0
11
2528.562530
21
1199.484624
31
0.0
0
LINE
8
0
10
2536.881966
20
1207.804060
30
0.0
11
2538.446077
21
1209.368171
31
0.0
0
LINE
8
0
10
2529.207594
20
1197.884624
30
0.0
11
2530.807594
21
1199.484624
31
0.0
0
LINE
8
0
10
2538.151463
20
1206.828493
30
0.0
11
2540.898296
21
1209.575326
31
0.0
0
LINE
8
0
10
2531.452658
20
1197.884624
30
0.0
11
2533.052658
21
1199.484624
31
0.0
0
LINE
8
0
10
2542.033901
20
1208.465867
30
0.0
11
2542.220209
21
1208.652175
31
0.0
0
LINE
8
0
10
2540.228580
20
1206.660546
30
0.0
11
2541.117893
21
1207.549859
31
0.0
0
LINE
8
0
10
2533.697722
20
1197.884624
30
0.0
11
2538.697722
21
1202.884624
31
0.0
0
LINE
8
0
10
2541.653103
20
1205.840005
30
0.0
11
2542.336471
21
1206.523373
31
0.0
0
LINE
8
0
10
2535.942786
20
1197.884624
30
0.0
11
2541.942737
21
1203.884575
31
0.0
0
LINE
8
0
10
2540.605928
20
1200.302702
30
0.0
11
2541.494881
21
1201.191655
31
0.0
0
LINE
8
0
10
2513.411605
20
1199.924301
30
0.0
11
2512.436471
21
1200.899435
31
0.0
0
LINE
8
0
10
2514.897627
20
1200.683343
30
0.0
11
2513.673829
21
1201.907141
31
0.0
0
LINE
8
0
10
2513.208989
20
1202.371982
30
0.0
11
2512.336471
21
1203.244499
31
0.0
0
LINE
8
0
10
2519.941411
20
1197.884624
30
0.0
11
2514.941409
21
1202.884625
31
0.0
0
LINE
8
0
10
2522.186475
20
1197.884624
30
0.0
11
2520.586475
21
1199.484624
31
0.0
0
LINE
8
0
10
2513.788953
20
1206.282145
30
0.0
11
2512.677372
21
1207.393727
31
0.0
0
LINE
8
0
10
2524.431539
20
1197.884624
30
0.0
11
2522.831539
21
1199.484624
31
0.0
0
LINE
8
0
10
2515.491557
20
1206.824605
30
0.0
11
2512.432064
21
1209.884098
31
0.0
0
LINE
8
0
10
2526.676603
20
1197.884624
30
0.0
11
2525.076603
21
1199.484624
31
0.0
0
LINE
8
0
10
2517.327479
20
1207.233747
30
0.0
11
2515.536621
21
1209.024605
31
0.0
0
LINE
8
0
10
2528.921667
20
1197.884624
30
0.0
11
2527.321667
21
1199.484624
31
0.0
0
LINE
8
0
10
2518.333295
20
1208.472996
30
0.0
11
2516.769183
21
1210.037107
31
0.0
0
LINE
8
0
10
2531.166731
20
1197.884624
30
0.0
11
2529.566731
21
1199.484624
31
0.0
0
LINE
8
0
10
2519.338484
20
1209.712870
30
0.0
11
2517.774373
21
1211.276981
31
0.0
0
LINE
8
0
10
2533.411795
20
1197.884624
30
0.0
11
2531.811795
21
1199.484624
31
0.0
0
LINE
8
0
10
2521.071813
20
1210.224605
30
0.0
11
2519.471813
21
1211.824605
31
0.0
0
LINE
8
0
10
2535.656859
20
1197.884624
30
0.0
11
2534.056859
21
1199.484624
31
0.0
0
LINE
8
0
10
2523.316877
20
1210.224605
30
0.0
11
2521.716877
21
1211.824605
31
0.0
0
LINE
8
0
10
2537.102614
20
1198.683932
30
0.0
11
2535.538503
21
1200.248043
31
0.0
0
LINE
8
0
10
2525.561941
20
1210.224605
30
0.0
11
2523.961941
21
1211.824605
31
0.0
0
LINE
8
0
10
2538.107804
20
1199.923807
30
0.0
11
2536.543693
21
1201.487918
31
0.0
0
LINE
8
0
10
2527.807005
20
1210.224605
30
0.0
11
2526.207005
21
1211.824605
31
0.0
0
LINE
8
0
10
2539.592051
20
1200.684624
30
0.0
11
2537.589111
21
1202.687563
31
0.0
0
LINE
8
0
10
2530.052069
20
1210.224605
30
0.0
11
2528.452069
21
1211.824605
31
0.0
0
LINE
8
0
10
2542.336471
20
1200.185268
30
0.0
11
2539.637115
21
1202.884624
31
0.0
0
LINE
8
0
10
2532.297133
20
1210.224605
30
0.0
11
2530.697133
21
1211.824605
31
0.0
0
LINE
8
0
10
2542.227993
20
1202.538809
30
0.0
11
2541.172910
21
1203.593893
31
0.0
0
LINE
8
0
10
2534.561390
20
1210.205413
30
0.0
11
2532.942197
21
1211.824605
31
0.0
0
LINE
8
0
10
2537.886437
20
1206.880366
30
0.0
11
2536.535988
21
1208.230815
31
0.0
0
LINE
8
0
10
2540.518989
20
1206.492878
30
0.0
11
2535.187261
21
1211.824605
31
0.0
0
LINE
8
0
10
2542.236471
20
1207.020460
30
0.0
11
2541.864185
21
1207.392746
31
0.0
0
LINE
8
0
10
2541.054611
20
1208.202320
30
0.0
11
2540.126939
21
1209.129992
31
0.0
0
LINE
8
0
10
2542.336471
20
1209.165524
30
0.0
11
2541.550258
21
1209.951736
31
0.0
0
ARC
8
0
10
2536.216285
20
1211.324605
30
0.0
40
0.500000
50
39.032336
51
90.000000
0
LINE
8
0
10
2536.216285
20
1211.824605
30
0.0
11
2527.336471
21
1211.824605
31
0.0
0
LINE
8
0
10
2527.336471
20
1211.824605
30
0.0
11
2518.456657
21
1211.824605
31
0.0
0
ARC
8
0
10
2518.456657
20
1211.324605
30
0.0
40
0.500000
50
90.000000
51
140.967664
0
LINE
8
0
10
2518.068261
20
1211.639485
30
0.0
11
2516.038377
21
1209.135678
31
0.0
0
ARC
8
0
10
2515.805340
20
1209.324605
30
0.0
40
0.300000
50
270.000000
51
320.967664
0
LINE
8
0
10
2515.805340
20
1209.024605
30
0.0
11
2514.942881
21
1209.024605
31
0.0
0
ARC
8
0
10
2514.942881
20
1209.824605
30
0.0
40
0.800000
50
240.000000
51
270.000000
0
LINE
8
0
10
2514.542881
20
1209.131785
30
0.0
11
2513.042881
21
1209.997810
31
0.0
0
ARC
8
0
10
2512.942881
20
1209.824605
30
0.0
40
0.200000
50
60.000000
51
90.000000
0
LINE
8
0
10
2512.942881
20
1210.024605
30
0.0
11
2512.736471
21
1210.024605
31
0.0
0
ARC
8
0
10
2512.736471
20
1209.624605
30
0.0
40
0.400000
50
90.000000
51
180.000000
0
LINE
8
0
10
2512.336471
20
1209.624605
30
0.0
11
2512.336471
21
1209.024605
31
0.0
0
LINE
8
0
10
2512.336471
20
1209.024605
30
0.0
11
2512.436471
21
1209.024605
31
0.0
0
LINE
8
0
10
2512.436471
20
1209.024605
30
0.0
11
2512.436471
21
1208.749605
31
0.0
0
ARC
8
0
10
2512.736471
20
1208.749605
30
0.0
40
0.300000
50
180.000000
51
270.000000
0
LINE
8
0
10
2512.736471
20
1208.449605
30
0.0
11
2512.795997
21
1208.449605
31
0.0
0
ARC
8
0
10
2513.086471
20
1207.924605
30
0.0
40
0.600000
50
0.000000
51
118.955024
0
ARC
8
0
10
2513.086471
20
1207.924605
30
0.0
40
0.600000
50
241.044976
51
0.000000
0
LINE
8
0
10
2512.795997
20
1207.399605
30
0.0
11
2512.736471
21
1207.399605
31
0.0
0
ARC
8
0
10
2512.736471
20
1207.099605
30
0.0
40
0.300000
50
90.000000
51
180.000000
0
LINE
8
0
10
2512.436471
20
1207.099605
30
0.0
11
2512.436471
21
1206.824605
31
0.0
0
LINE
8
0
10
2512.436471
20
1206.824605
30
0.0
11
2512.336471
21
1206.824605
31
0.0
0
LINE
8
0
10
2512.336471
20
1206.824605
30
0.0
11
2512.336471
21
1206.224605
31
0.0
0
ARC
8
0
10
2512.736471
20
1206.224605
30
0.0
40
0.400000
50
180.000000
51
270.000000
0
LINE
8
0
10
2512.736471
20
1205.824605
30
0.0
11
2512.942881
21
1205.824605
31
0.0
0
ARC
8
0
10
2512.942881
20
1206.024605
30
0.0
40
0.200000
50
270.000000
51
300.000000
0
LINE
8
0
10
2513.042881
20
1205.851400
30
0.0
11
2514.542881
21
1206.717426
31
0.0
0
ARC
8
0
10
2514.942881
20
1206.024605
30
0.0
40
0.800000
50
90.000000
51
120.000000
0
LINE
8
0
10
2514.942881
20
1206.824605
30
0.0
11
2516.424958
21
1206.824605
31
0.0
0
ARC
8
0
10
2516.424958
20
1208.024605
30
0.0
40
1.200000
50
270.000000
51
320.967664
0
LINE
8
0
10
2517.357107
20
1207.268895
30
0.0
11
2519.393164
21
1209.780316
31
0.0
0
ARC
8
0
10
2520.325313
20
1209.024605
30
0.0
40
1.200000
50
90.000000
51
140.967664
0
LINE
8
0
10
2520.325313
20
1210.224605
30
0.0
11
2527.336471
21
1210.224605
31
0.0
0
LINE
8
0
10
2527.336471
20
1210.224605
30
0.0
11
2534.347629
21
1210.224605
31
0.0
0
ARC
8
0
10
2534.347629
20
1209.024605
30
0.0
40
1.200000
50
39.032336
51
90.000000
0
LINE
8
0
10
2535.279778
20
1209.780316
30
0.0
11
2537.315835
21
1207.268895
31
0.0
0
ARC
8
0
10
2538.247983
20
1208.024605
30
0.0
40
1.200000
50
219.032336
51
270.000000
0
LINE
8
0
10
2538.247983
20
1206.824605
30
0.0
11
2539.730061
21
1206.824605
31
0.0
0
ARC
8
0
10
2539.730061
20
1206.024605
30
0.0
40
0.800000
50
60.000000
51
90.000000
0
LINE
8
0
10
2540.130061
20
1206.717426
30
0.0
11
2541.630061
21
1205.851400
31
0.0
0
ARC
8
0
10
2541.730061
20
1206.024605
30
0.0
40
0.200000
50
240.000000
51
270.000000
0
LINE
8
0
10
2541.730061
20
1205.824605
30
0.0
11
2541.936471
21
1205.824605
31
0.0
0
ARC
8
0
10
2541.936471
20
1206.224605
30
0.0
40
0.400000
50
270.000000
51
0.000000
0
LINE
8
0
10
2542.336471
20
1206.224605
30
0.0
11
2542.336471
21
1206.824605
31
0.0
0
LINE
8
0
10
2542.336471
20
1206.824605
30
0.0
11
2542.236471
21
1206.824605
31
0.0
0
LINE
8
0
10
2542.236471
20
1206.824605
30
0.0
11
2542.236471
21
1207.099605
31
0.0
0
ARC
8
0
10
2541.936471
20
1207.099605
30
0.0
40
0.300000
50
0.000000
51
90.000000
0
LINE
8
0
10
2541.936471
20
1207.399605
30
0.0
11
2541.876945
21
1207.399605
31
0.0
0
ARC
8
0
10
2541.586471
20
1207.924605
30
0.0
40
0.600000
50
180.000000
51
298.955024
0
ARC
8
0
10
2541.586471
20
1207.924605
30
0.0
40
0.600000
50
61.044976
51
180.000000
0
LINE
8
0
10
2541.876945
20
1208.449605
30
0.0
11
2541.936471
21
1208.449605
31
0.0
0
ARC
8
0
10
2541.936471
20
1208.749605
30
0.0
40
0.300000
50
270.000000
51
0.000000
0
LINE
8
0
10
2542.236471
20
1208.749605
30
0.0
11
2542.236471
21
1209.024605
31
0.0
0
LINE
8
0
10
2542.236471
20
1209.024605
30
0.0
11
2542.336471
21
1209.024605
31
0.0
0
LINE
8
0
10
2542.336471
20
1209.024605
30
0.0
11
2542.336471
21
1209.624605
31
0.0
0
ARC
8
0
10
2541.936471
20
1209.624605
30
0.0
40
0.400000
50
0.000000
51
90.000000
0
LINE
8
0
10
2541.936471
20
1210.024605
30
0.0
11
2541.730061
21
1210.024605
31
0.0
0
ARC
8
0
10
2541.730061
20
1209.824605
30
0.0
40
0.200000
50
90.000000
51
120.000000
0
LINE
8
0
10
2541.630061
20
1209.997810
30
0.0
11
2540.130061
21
1209.131785
31
0.0
0
ARC
8
0
10
2539.730061
20
1209.824605
30
0.0
40
0.800000
50
270.000000
51
300.000000
0
LINE
8
0
10
2539.730061
20
1209.024605
30
0.0
11
2538.867601
21
1209.024605
31
0.0
0
ARC
8
0
10
2538.867601
20
1209.324605
30
0.0
40
0.300000
50
219.032336
51
270.000000
0
LINE
8
0
10
2538.634564
20
1209.135678
30
0.0
11
2536.604680
21
1211.639485
31
0.0
0
ARC
8
0
10
2536.216285
20
1198.384624
30
0.0
40
0.500000
50
270.000000
51
320.967664
0
LINE
8
0
10
2536.216285
20
1197.884624
30
0.0
11
2527.336471
21
1197.884624
31
0.0
0
LINE
8
0
10
2527.336471
20
1197.884624
30
0.0
11
2518.456657
21
1197.884624
31
0.0
0
ARC
8
0
10
2518.456657
20
1198.384624
30
0.0
40
0.500000
50
219.032336
51
270.000000
0
LINE
8
0
10
2518.068261
20
1198.069744
30
0.0
11
2516.038377
21
1200.573551
31
0.0
0
ARC
8
0
10
2515.805340
20
1200.384624
30
0.0
40
0.300000
50
39.032336
51
90.000000
0
LINE
8
0
10
2515.805340
20
1200.684624
30
0.0
11
2514.942881
21
1200.684624
31
0.0
0
ARC
8
0
10
2514.942881
20
1199.884624
30
0.0
40
0.800000
50
90.000000
51
120.000000
0
LINE
8
0
10
2514.542881
20
1200.577444
30
0.0
11
2513.042881
21
1199.711419
31
0.0
0
ARC
8
0
10
2512.942881
20
1199.884624
30
0.0
40
0.200000
50
270.000000
51
300.000000
0
LINE
8
0
10
2512.942881
20
1199.684624
30
0.0
11
2512.736471
21
1199.684624
31
0.0
0
ARC
8
0
10
2512.736471
20
1200.084624
30
0.0
40
0.400000
50
180.000000
51
270.000000
0
LINE
8
0
10
2512.336471
20
1200.084624
30
0.0
11
2512.336471
21
1200.684624
31
0.0
0
LINE
8
0
10
2512.336471
20
1200.684624
30
0.0
11
2512.436471
21
1200.684624
31
0.0
0
LINE
8
0
10
2512.436471
20
1200.684624
30
0.0
11
2512.436471
21
1200.959624
31
0.0
0
ARC
8
0
10
2512.736471
20
1200.959624
30
0.0
40
0.300000
50
90.000000
51
180.000000
0
LINE
8
0
10
2512.736471
20
1201.259624
30
0.0
11
2512.795997
21
1201.259624
31
0.0
0
ARC
8
0
10
2513.086471
20
1201.784624
30
0.0
40
0.600000
50
241.044976
51
0.000000
0
ARC
8
0
10
2513.086471
20
1201.784624
30
0.0
40
0.600000
50
0.000000
51
118.955024
0
LINE
8
0
10
2512.795997
20
1202.309624
30
0.0
11
2512.736471
21
1202.309624
31
0.0
0
ARC
8
0
10
2512.736471
20
1202.609624
30
0.0
40
0.300000
50
180.000000
51
270.000000
0
LINE
8
0
10
2512.436471
20
1202.609624
30
0.0
11
2512.436471
21
1202.884624
31
0.0
0
LINE
8
0
10
2512.436471
20
1202.884624
30
0.0
11
2512.336471
21
1202.884624
31
0.0
0
LINE
8
0
10
2512.336471
20
1202.884624
30
0.0
11
2512.336471
21
1203.484624
31
0.0
0
ARC
8
0
10
2512.736471
20
1203.484624
30
0.0
40
0.400000
50
90.000000
51
180.000000
0
LINE
8
0
10
2512.736471
20
1203.884624
30
0.0
11
2512.942881
21
1203.884624
31
0.0
0
ARC
8
0
10
2512.942881
20
1203.684624
30
0.0
40
0.200000
50
60.000000
51
90.000000
0
LINE
8
0
10
2513.042881
20
1203.857829
30
0.0
11
2514.542881
21
1202.991803
31
0.0
0
ARC
8
0
10
2514.942881
20
1203.684624
30
0.0
40
0.800000
50
240.000000
51
270.000000
0
LINE
8
0
10
2514.942881
20
1202.884624
30
0.0
11
2516.424958
21
1202.884624
31
0.0
0
ARC
8
0
10
2516.424958
20
1201.684624
30
0.0
40
1.200000
50
39.032336
51
90.000000
0
LINE
8
0
10
2517.357107
20
1202.440334
30
0.0
11
2519.393164
21
1199.928913
31
0.0
0
ARC
8
0
10
2520.325313
20
1200.684624
30
0.0
40
1.200000
50
219.032336
51
270.000000
0
LINE
8
0
10
2520.325313
20
1199.484624
30
0.0
11
2527.336471
21
1199.484624
31
0.0
0
LINE
8
0
10
2527.336471
20
1199.484624
30
0.0
11
2534.347629
21
1199.484624
31
0.0
0
ARC
8
0
10
2534.347629
20
1200.684624
30
0.0
40
1.200000
50
270.000000
51
320.967664
0
LINE
8
0
10
2535.279778
20
1199.928913
30
0.0
11
2537.315835
21
1202.440334
31
0.0
0
ARC
8
0
10
2538.247983
20
1201.684624
30
0.0
40
1.200000
50
90.000000
51
140.967664
0
LINE
8
0
10
2538.247983
20
1202.884624
30
0.0
11
2539.730061
21
1202.884624
31
0.0
0
ARC
8
0
10
2539.730061
20
1203.684624
30
0.0
40
0.800000
50
270.000000
51
300.000000
0
LINE
8
0
10
2540.130061
20
1202.991803
30
0.0
11
2541.630061
21
1203.857829
31
0.0
0
ARC
8
0
10
2541.730061
20
1203.684624
30
0.0
40
0.200000
50
90.000000
51
120.000000
0
LINE
8
0
10
2541.730061
20
1203.884624
30
0.0
11
2541.936471
21
1203.884624
31
0.0
0
ARC
8
0
10
2541.936471
20
1203.484624
30
0.0
40
0.400000
50
0.000000
51
90.000000
0
LINE
8
0
10
2542.336471
20
1203.484624
30
0.0
11
2542.336471
21
1202.884624
31
0.0
0
LINE
8
0
10
2542.336471
20
1202.884624
30
0.0
11
2542.236471
21
1202.884624
31
0.0
0
LINE
8
0
10
2542.236471
20
1202.884624
30
0.0
11
2542.236471
21
1202.609624
31
0.0
0
ARC
8
0
10
2541.936471
20
1202.609624
30
0.0
40
0.300000
50
270.000000
51
0.000000
0
LINE
8
0
10
2541.936471
20
1202.309624
30
0.0
11
2541.876945
21
1202.309624
31
0.0
0
ARC
8
0
10
2541.586471
20
1201.784624
30
0.0
40
0.600000
50
61.044976
51
180.000000
0
ARC
8
0
10
2541.586471
20
1201.784624
30
0.0
40
0.600000
50
180.000000
51
298.955024
0
LINE
8
0
10
2541.876945
20
1201.259624
30
0.0
11
2541.936471
21
1201.259624
31
0.0
0
ARC
8
0
10
2541.936471
20
1200.959624
30
0.0
40
0.300000
50
0.000000
51
90.000000
0
LINE
8
0
10
2542.236471
20
1200.959624
30
0.0
11
2542.236471
21
1200.684624
31
0.0
0
LINE
8
0
10
2542.236471
20
1200.684624
30
0.0
11
2542.336471
21
1200.684624
31
0.0
0
LINE
8
0
10
2542.336471
20
1200.684624
30
0.0
11
2542.336471
21
1200.084624
31
0.0
0
ARC
8
0
10
2541.936471
20
1200.084624
30
0.0
40
0.400000
50
270.000000
51
0.000000
0
LINE
8
0
10
2541.936471
20
1199.684624
30
0.0
11
2541.730061
21
1199.684624
31
0.0
0
ARC
8
0
10
2541.730061
20
1199.884624
30
0.0
40
0.200000
50
240.000000
51
270.000000
0
LINE
8
0
10
2541.630061
20
1199.711419
30
0.0
11
2540.130061
21
1200.577444
31
0.0
0
ARC
8
0
10
2539.730061
20
1199.884624
30
0.0
40
0.800000
50
60.000000
51
90.000000
0
LINE
8
0
10
2539.730061
20
1200.684624
30
0.0
11
2538.867601
21
1200.684624
31
0.0
0
ARC
8
0
10
2538.867601
20
1200.384624
30
0.0
40
0.300000
50
90.000000
51
140.967664
0
LINE
8
0
10
2538.634564
20
1200.573551
30
0.0
11
2536.604680
21
1198.069744
31
0.0
0
ARC
8
0
10
2504.436472
20
1198.004614
30
0.0
40
0.500000
50
270.000000
51
337.975687
0
ARC
8
0
10
2505.178092
20
1197.704614
30
0.0
40
0.300000
50
90.000000
51
157.975687
0
LINE
8
0
10
2505.178092
20
1198.004614
30
0.0
11
2509.994852
21
1198.004614
31
0.0
0
ARC
8
0
10
2509.994852
20
1197.704614
30
0.0
40
0.300000
50
22.024313
51
90.000000
0
ARC
8
0
10
2510.736472
20
1198.004614
30
0.0
40
0.500000
50
202.024313
51
270.000000
0
LINE
8
0
10
2510.736472
20
1197.504614
30
0.0
11
2512.386472
21
1197.504614
31
0.0
0
ARC
8
0
10
2513.248918
20
1196.953838
30
0.0
40
1.023313
50
109.065623
51
147.436840
0
LINE
8
0
10
2512.914652
20
1197.921017
30
0.0
11
2513.415950
21
1198.064761
31
0.0
0
ARC
8
0
10
2513.498641
20
1197.776383
30
0.0
40
0.300000
50
10.056118
51
106.000000
0
ARC
8
0
10
2514.089423
20
1197.881151
30
0.0
40
0.300000
50
190.056118
51
266.000000
0
LINE
8
0
10
2514.068496
20
1197.581881
30
0.0
11
2516.454007
21
1197.415070
31
0.0
0
ARC
8
0
10
2516.474934
20
1197.714339
30
0.0
40
0.300000
50
266.000000
51
36.246080
0
LINE
8
0
10
2516.716880
20
1197.891716
30
0.0
11
2514.679977
21
1200.670099
31
0.0
0
ARC
8
0
10
2514.564536
20
1200.581337
30
0.0
40
0.145621
50
37.556452
51
181.000000
0
LINE
8
0
10
2514.418938
20
1200.578795
30
0.0
11
2514.421653
21
1200.423237
31
0.0
0
ARC
8
0
10
2514.221683
20
1200.419747
30
0.0
40
0.200000
50
299.743548
51
1.000000
0
LINE
8
0
10
2514.320907
20
1200.246096
30
0.0
11
2512.773180
21
1199.316071
31
0.0
0
ARC
8
0
10
2512.494363
20
1199.205340
30
0.0
40
0.300000
50
286.000000
51
21.660312
0
LINE
8
0
10
2512.577055
20
1198.916962
30
0.0
11
2512.366298
21
1198.856528
31
0.0
0
ARC
8
0
10
2512.336472
20
1199.155042
30
0.0
40
0.300000
50
113.578178
51
275.705783
0
ARC
8
0
10
2512.136472
20
1199.613299
30
0.0
40
0.200000
50
293.578179
51
0.000000
0
LINE
8
0
10
2512.336472
20
1199.613299
30
0.0
11
2512.336472
21
1203.734624
31
0.0
0
ARC
8
0
10
2512.606472
20
1203.734624
30
0.0
40
0.270000
50
90.000000
51
180.000000
0
LINE
8
0
10
2512.606472
20
1204.004624
30
0.0
11
2512.936472
21
1204.004624
31
0.0
0
LINE
8
0
10
2512.936472
20
1204.004624
30
0.0
11
2514.436568
21
1203.088961
31
0.0
0
ARC
8
0
10
2514.636472
20
1203.082738
30
0.0
40
0.200000
50
178.217138
51
0.000000
0
LINE
8
0
10
2514.836472
20
1203.082738
30
0.0
11
2514.836472
21
1206.626491
31
0.0
0
ARC
8
0
10
2514.636472
20
1206.626491
30
0.0
40
0.200000
50
0.000000
51
181.782862
0
LINE
8
0
10
2514.436568
20
1206.620268
30
0.0
11
2512.936472
21
1205.704605
31
0.0
0
LINE
8
0
10
2512.936472
20
1205.704605
30
0.0
11
2512.606472
21
1205.704605
31
0.0
0
ARC
8
0
10
2512.606472
20
1205.974605
30
0.0
40
0.270000
50
180.000000
51
270.000000
0
LINE
8
0
10
2512.336472
20
1205.974605
30
0.0
11
2512.336472
21
1210.095929
31
0.0
0
ARC
8
0
10
2512.136472
20
1210.095929
30
0.0
40
0.200000
50
0.000000
51
66.421822
0
ARC
8
0
10
2512.336472
20
1210.554187
30
0.0
40
0.300000
50
84.294217
51
246.421822
0
LINE
8
0
10
2512.366298
20
1210.852701
30
0.0
11
2512.577055
21
1210.792267
31
0.0
0
ARC
8
0
10
2512.494363
20
1210.503889
30
0.0
40
0.300000
50
338.339688
51
74.000000
0
LINE
8
0
10
2512.773180
20
1210.393158
30
0.0
11
2514.320907
21
1209.463133
31
0.0
0
ARC
8
0
10
2514.221683
20
1209.289482
30
0.0
40
0.200000
50
359.000000
51
60.256452
0
LINE
8
0
10
2514.421653
20
1209.285992
30
0.0
11
2514.418938
21
1209.130434
31
0.0
0
ARC
8
0
10
2514.564536
20
1209.127892
30
0.0
40
0.145621
50
179.000000
51
322.443548
0
LINE
8
0
10
2514.679977
20
1209.039130
30
0.0
11
2516.716880
21
1211.817513
31
0.0
0
ARC
8
0
10
2516.474934
20
1211.994890
30
0.0
40
0.300000
50
323.753920
51
94.000000
0
LINE
8
0
10
2516.454007
20
1212.294159
30
0.0
11
2514.068496
21
1212.127348
31
0.0
0
ARC
8
0
10
2514.089423
20
1211.828078
30
0.0
40
0.300000
50
94.000000
51
169.943882
0
ARC
8
0
10
2513.498641
20
1211.932846
30
0.0
40
0.300000
50
254.000000
51
349.943882
0
LINE
8
0
10
2513.415950
20
1211.644467
30
0.0
11
2512.914652
21
1211.788212
31
0.0
0
ARC
8
0
10
2512.989551
20
1212.426400
30
0.0
40
0.642568
50
200.191251
51
263.306287
0
LINE
8
0
10
2512.386472
20
1212.204614
30
0.0
11
2508.175780
21
1212.204614
31
0.0
0
ARC
8
0
10
2508.175780
20
1213.204614
30
0.0
40
1.000000
50
243.083445
51
270.000000
0
LINE
8
0
10
2507.723088
20
1212.312948
30
0.0
11
2502.162818
21
1215.135854
31
0.0
0
ARC
8
0
10
2501.936472
20
1214.690021
30
0.0
40
0.500000
50
63.083445
51
180.000000
0
LINE
8
0
10
2501.436472
20
1214.690021
30
0.0
11
2501.436472
21
1198.004614
31
0.0
0
ARC
8
0
10
2501.936472
20
1198.004614
30
0.0
40
0.500000
50
180.000000
51
270.000000
0
LINE
8
0
10
2501.936472
20
1197.504614
30
0.0
11
2504.436472
21
1197.504614
31
0.0
0
LINE
8
0
10
2507.236537
20
1199.804614
30
0.0
11
2507.236537
21
1200.420091
31
0.0
0
ARC
8
0
10
2507.536537
20
1200.420091
30
0.0
40
0.300000
50
42.536898
51
180.000000
0
ARC
8
0
10
2508.936537
20
1201.704614
30
0.0
40
1.600000
50
222.536898
51
248.386154
0
LINE
8
0
10
2508.347178
20
1200.217114
30
0.0
11
2508.347178
21
1200.181863
31
0.0
0
ARC
8
0
10
2508.647178
20
1200.181863
30
0.0
40
0.300000
50
180.000000
51
259.240725
0
ARC
8
0
10
2508.936537
20
1201.704614
30
0.0
40
1.850000
50
259.240725
51
280.759275
0
ARC
8
0
10
2509.225896
20
1200.181863
30
0.0
40
0.300000
50
280.759275
51
0.000000
0
LINE
8
0
10
2509.525896
20
1200.181863
30
0.0
11
2509.525896
21
1200.217114
31
0.0
0
ARC
8
0
10
2508.936537
20
1201.704614
30
0.0
40
1.600000
50
291.613846
51
338.386154
0
LINE
8
0
10
2510.424037
20
1201.115256
30
0.0
11
2510.459288
21
1201.115256
31
0.0
0
ARC
8
0
10
2510.459288
20
1201.415256
30
0.0
40
0.300000
50
270.000000
51
349.240725
0
ARC
8
0
10
2508.936537
20
1201.704614
30
0.0
40
1.850000
50
349.240725
51
10.759275
0
ARC
8
0
10
2510.459288
20
1201.993973
30
0.0
40
0.300000
50
10.759275
51
90.000000
0
LINE
8
0
10
2510.459288
20
1202.293973
30
0.0
11
2510.424037
21
1202.293973
31
0.0
0
ARC
8
0
10
2508.936537
20
1201.704614
30
0.0
40
1.600000
50
21.613846
51
68.386154
0
LINE
8
0
10
2509.525896
20
1203.192114
30
0.0
11
2509.525896
21
1203.227366
31
0.0
0
ARC
8
0
10
2509.225896
20
1203.227366
30
0.0
40
0.300000
50
0.000000
51
79.240725
0
ARC
8
0
10
2508.936537
20
1201.704614
30
0.0
40
1.850000
50
79.240725
51
100.759275
0
ARC
8
0
10
2508.647178
20
1203.227366
30
0.0
40
0.300000
50
100.759275
51
180.000000
0
LINE
8
0
10
2508.347178
20
1203.227366
30
0.0
11
2508.347178
21
1203.192114
31
0.0
0
ARC
8
0
10
2508.936537
20
1201.704614
30
0.0
40
1.600000
50
111.613846
51
137.463102
0
ARC
8
0
10
2507.536537
20
1202.989138
30
0.0
40
0.300000
50
180.000000
51
317.463102
0
LINE
8
0
10
2507.236537
20
1202.989138
30
0.0
11
2507.236537
21
1203.578114
31
0.0
0
ARC
8
0
10
2508.236537
20
1203.578114
30
0.0
40
1.000000
50
110.487315
51
180.000000
0
ARC
8
0
10
2508.936537
20
1201.704614
30
0.0
40
3.000000
50
62.965585
51
110.487315
0
ARC
8
0
10
2510.436472
20
1204.644036
30
0.0
40
0.300000
50
242.965585
51
0.000000
0
LINE
8
0
10
2510.736472
20
1204.644036
30
0.0
11
2510.736472
21
1210.304614
31
0.0
0
ARC
8
0
10
2510.436472
20
1210.304614
30
0.0
40
0.300000
50
0.000000
51
90.000000
0
LINE
8
0
10
2510.436472
20
1210.604614
30
0.0
11
2508.175780
21
1210.604614
31
0.0
0
ARC
8
0
10
2508.175780
20
1213.204614
30
0.0
40
2.600000
50
243.083445
51
270.000000
0
LINE
8
0
10
2506.998780
20
1210.886281
30
0.0
11
2503.472279
21
1212.676658
31
0.0
0
ARC
8
0
10
2503.336472
20
1212.409158
30
0.0
40
0.300000
50
63.083445
51
180.000000
0
LINE
8
0
10
2503.036472
20
1212.409158
30
0.0
11
2503.036472
21
1199.804614
31
0.0
0
ARC
8
0
10
2503.336472
20
1199.804614
30
0.0
40
0.300000
50
180.000000
51
270.000000
0
LINE
8
0
10
2503.336472
20
1199.504614
30
0.0
11
2506.936537
21
1199.504614
31
0.0
0
ARC
8
0
10
2506.936537
20
1199.804614
30
0.0
40
0.300000
50
270.000000
51
0.000000
0
ATTDEF
8
0
10
0.000000
20
0.000000
30
0.0
40
3.5
1

3

2
PANE_WIDTH:0
70
0
0
ATTDEF
8
0
10
0.000000
20
0.000000
30
0.0
40
3.5
1

3

2
MIN_VETRO:0
70
0
0
ATTDEF
8
0
10
0.000000
20
0.000000
30
0.0
40
3.5
1

3

2
MAX_VETRO:0
70
0
0
ATTDEF
8
0
10
0.000000
20
0.000000
30
0.0
40
3.5
1

3

2
JX:0
70
0
0
ATTDEF
8
0
10
0.000000
20
0.000000
30
0.0
40
3.5
1

3

2
WX:0
70
0
0
ATTDEF
8
0
10
0.000000
20
0.000000
30
0.0
40
3.5
1

3

2
JY:0
70
0
0
ATTDEF
8
0
10
0.000000
20
0.000000
30
0.0
40
3.5
1

3

2
WY:0
70
0
0
ATTDEF
8
0
10
0.000000
20
0.000000
30
0.0
40
3.5
1

3

2
DESC:Umbral puerta A.E.
70
0
0
ATTDEF
8
0
10
0.000000
20
0.000000
30
0.0
40
3.5
1

3

2
DENS:1.0252
70
0
0
ATTDEF
8
0
10
0.000000
20
0.000000
30
0.0
40
3.5
1

3

2
TDEV:33.22
70
0
0
ATTDEF
8
0
10
0.000000
20
0.000000
30
0.0
40
3.5
1

3

2
TDEV2:0
70
0
0
ATTDEF
8
0
10
0.000000
20
0.000000
30
0.0
40
3.5
1

3

2
TDEV3:0
70
0
0
ATTDEF
8
0
10
0.000000
20
0.000000
30
0.0
40
3.5
1

3

2
TDEV4:0
70
0
0
ATTDEF
8
0
10
0.000000
20
0.000000
30
0.0
40
3.5
1

3

2
TDEV5:0
70
0
0
ATTDEF
8
0
10
0.000000
20
0.000000
30
0.0
40
3.5
1

3

2
PANE_WIDTH:0
70
0
0
ATTDEF
8
0
10
0.000000
20
0.000000
30
0.0
40
3.5
1

3

2
MIN_VETRO:0
70
0
0
ATTDEF
8
0
10
0.000000
20
0.000000
30
0.0
40
3.5
1

3

2
MAX_VETRO:0
70
0
0
ATTDEF
8
0
10
0.000000
20
0.000000
30
0.0
40
3.5
1

3

2
JX:0
70
0
0
ATTDEF
8
0
10
0.000000
20
0.000000
30
0.0
40
3.5
1

3

2
WX:0
70
0
0
ATTDEF
8
0
10
0.000000
20
0.000000
30
0.0
40
3.5
1

3

2
JY:0
70
0
0
ATTDEF
8
0
10
0.000000
20
0.000000
30
0.0
40
3.5
1

3

2
WY:0
70
0
0
ENDSEC
0
EOF
