0
SECTION
2
ENTITIES
0
LINE
8
0
10
6271.063668
20
1.888981
30
0.0
11
6271.063668
21
16.388981
31
0.0
0
LINE
8
0
10
6271.063668
20
16.388981
30
0.0
11
6272.763668
21
16.388981
31
0.0
0
ARC
8
0
10
6272.763668
20
16.888981
30
0.0
40
0.500000
50
270.000000
51
360.000000
0
LINE
8
0
10
6273.263668
20
16.888981
30
0.0
11
6273.263668
21
19.138981
31
0.0
0
ARC
8
0
10
6272.763668
20
19.138981
30
0.0
40
0.500000
50
360.000000
51
180.000000
0
LINE
8
0
10
6272.263668
20
19.138981
30
0.0
11
6272.263668
21
18.138981
31
0.0
0
ARC
8
0
10
6271.513668
20
18.138981
30
0.0
40
0.750000
50
180.000000
51
360.000000
0
LINE
8
0
10
6270.763668
20
18.138981
30
0.0
11
6270.763668
21
24.638981
31
0.0
0
ARC
8
0
10
6271.513668
20
24.638981
30
0.0
40
0.750000
50
360.000000
51
180.000000
0
LINE
8
0
10
6272.263668
20
24.638981
30
0.0
11
6272.263668
21
23.638981
31
0.0
0
ARC
8
0
10
6272.763668
20
23.638981
30
0.0
40
0.500000
50
180.000000
51
360.000000
0
LINE
8
0
10
6273.263668
20
23.638981
30
0.0
11
6273.263668
21
25.888981
31
0.0
0
ARC
8
0
10
6272.763668
20
25.888981
30
0.0
40
0.500000
50
360.000000
51
90.000000
0
LINE
8
0
10
6272.763668
20
26.388981
30
0.0
11
6270.263668
21
26.388981
31
0.0
0
ARC
8
0
10
6270.263668
20
25.888981
30
0.0
40
0.500000
50
90.000000
51
180.000000
0
LINE
8
0
10
6269.763668
20
25.888981
30
0.0
11
6269.763668
21
12.888981
31
0.0
0
ARC
8
0
10
6269.263668
20
12.888981
30
0.0
40
0.500000
50
270.000000
51
360.000000
0
LINE
8
0
10
6269.263668
20
12.388981
30
0.0
11
6210.763668
21
12.388981
31
0.0
0
LINE
8
0
10
6210.763668
20
12.388981
30
0.0
11
6210.763668
21
-0.211019
31
0.0
0
LINE
8
0
10
6210.763668
20
-0.211019
30
0.0
11
6202.763668
21
-0.211019
31
0.0
0
LINE
8
0
10
6202.763668
20
-0.211019
30
0.0
11
6202.763668
21
-1.611019
31
0.0
0
LINE
8
0
10
6202.763668
20
-1.611019
30
0.0
11
6212.163668
21
-1.611019
31
0.0
0
LINE
8
0
10
6212.163668
20
-1.611019
30
0.0
11
6212.163668
21
10.988981
31
0.0
0
LINE
8
0
10
6212.163668
20
10.988981
30
0.0
11
6225.913668
21
10.988981
31
0.0
0
LINE
8
0
10
6225.913668
20
10.988981
30
0.0
11
6225.913668
21
10.638981
31
0.0
0
ARC
8
0
10
6226.563668
20
10.638981
30
0.0
40
0.650000
50
180.000000
51
360.000000
0
LINE
8
0
10
6227.213668
20
10.638981
30
0.0
11
6227.213668
21
10.988981
31
0.0
0
LINE
8
0
10
6227.213668
20
10.988981
30
0.0
11
6240.313668
21
10.988981
31
0.0
0
LINE
8
0
10
6240.313668
20
10.988981
30
0.0
11
6240.313668
21
10.638981
31
0.0
0
ARC
8
0
10
6240.963668
20
10.638981
30
0.0
40
0.650000
50
180.000000
51
360.000000
0
LINE
8
0
10
6241.613668
20
10.638981
30
0.0
11
6241.613668
21
10.988981
31
0.0
0
LINE
8
0
10
6241.613668
20
10.988981
30
0.0
11
6254.713668
21
10.988981
31
0.0
0
LINE
8
0
10
6254.713668
20
10.988981
30
0.0
11
6254.713668
21
10.638981
31
0.0
0
ARC
8
0
10
6255.363668
20
10.638981
30
0.0
40
0.650000
50
180.000000
51
360.000000
0
LINE
8
0
10
6256.013668
20
10.638981
30
0.0
11
6256.013668
21
10.988981
31
0.0
0
LINE
8
0
10
6256.013668
20
10.988981
30
0.0
11
6269.263668
21
10.988981
31
0.0
0
ARC
8
0
10
6269.263668
20
10.488981
30
0.0
40
0.500000
50
360.000000
51
90.000000
0
LINE
8
0
10
6269.763668
20
10.488981
30
0.0
11
6269.763668
21
-25.111019
31
0.0
0
ARC
8
0
10
6270.263668
20
-25.111019
30
0.0
40
0.500000
50
180.000000
51
270.000000
0
LINE
8
0
10
6270.263668
20
-25.611019
30
0.0
11
6290.263668
21
-25.611019
31
0.0
0
ARC
8
0
10
6290.263668
20
-25.111019
30
0.0
40
0.500000
50
270.000000
51
360.000000
0
LINE
8
0
10
6290.763668
20
-25.111019
30
0.0
11
6290.763668
21
25.888981
31
0.0
0
ARC
8
0
10
6290.263668
20
25.888981
30
0.0
40
0.500000
50
360.000000
51
90.000000
0
LINE
8
0
10
6290.263668
20
26.388981
30
0.0
11
6287.763668
21
26.388981
31
0.0
0
ARC
8
0
10
6287.763668
20
25.888981
30
0.0
40
0.500000
50
90.000000
51
180.000000
0
LINE
8
0
10
6287.263668
20
25.888981
30
0.0
11
6287.263668
21
23.638981
31
0.0
0
ARC
8
0
10
6287.763668
20
23.638981
30
0.0
40
0.500000
50
180.000000
51
360.000000
0
LINE
8
0
10
6288.263668
20
23.638981
30
0.0
11
6288.263668
21
24.638981
31
0.0
0
ARC
8
0
10
6289.013668
20
24.638981
30
0.0
40
0.750000
50
360.000000
51
180.000000
0
LINE
8
0
10
6289.763668
20
24.638981
30
0.0
11
6289.763668
21
18.138981
31
0.0
0
ARC
8
0
10
6289.013668
20
18.138981
30
0.0
40
0.750000
50
180.000000
51
360.000000
0
LINE
8
0
10
6288.263668
20
18.138981
30
0.0
11
6288.263668
21
19.138981
31
0.0
0
ARC
8
0
10
6287.763668
20
19.138981
30
0.0
40
0.500000
50
360.000000
51
180.000000
0
LINE
8
0
10
6287.263668
20
19.138981
30
0.0
11
6287.263668
21
16.888981
31
0.0
0
ARC
8
0
10
6287.763668
20
16.888981
30
0.0
40
0.500000
50
180.000000
51
270.000000
0
LINE
8
0
10
6287.763668
20
16.388981
30
0.0
11
6289.463668
21
16.388981
31
0.0
0
LINE
8
0
10
6289.463668
20
16.388981
30
0.0
11
6289.463668
21
1.888981
31
0.0
0
ARC
8
0
10
6288.963668
20
1.888981
30
0.0
40
0.500000
50
270.000000
51
360.000000
0
LINE
8
0
10
6288.963668
20
1.388981
30
0.0
11
6271.563668
21
1.388981
31
0.0
0
ARC
8
0
10
6271.563668
20
1.888981
30
0.0
40
0.500000
50
180.000000
51
270.000000
0
LINE
8
0
10
6271.063668
20
0.088981
30
0.0
11
6271.063668
21
-2.461019
31
0.0
0
LINE
8
0
10
6271.063668
20
-2.461019
30
0.0
11
6271.313668
21
-2.461019
31
0.0
0
ARC
8
0
10
6271.313668
20
-3.111019
30
0.0
40
0.650000
50
270.000000
51
90.000000
0
LINE
8
0
10
6271.313668
20
-3.761019
30
0.0
11
6271.063668
21
-3.761019
31
0.0
0
LINE
8
0
10
6271.063668
20
-3.761019
30
0.0
11
6271.063668
21
-11.461019
31
0.0
0
LINE
8
0
10
6271.063668
20
-11.461019
30
0.0
11
6271.313668
21
-11.461019
31
0.0
0
ARC
8
0
10
6271.313668
20
-12.111019
30
0.0
40
0.650000
50
270.000000
51
90.000000
0
LINE
8
0
10
6271.313668
20
-12.761019
30
0.0
11
6271.063668
21
-12.761019
31
0.0
0
LINE
8
0
10
6271.063668
20
-12.761019
30
0.0
11
6271.063668
21
-20.461019
31
0.0
0
LINE
8
0
10
6271.063668
20
-20.461019
30
0.0
11
6271.313668
21
-20.461019
31
0.0
0
ARC
8
0
10
6271.313668
20
-21.111019
30
0.0
40
0.650000
50
270.000000
51
90.000000
0
LINE
8
0
10
6271.313668
20
-21.761019
30
0.0
11
6271.063668
21
-21.761019
31
0.0
0
LINE
8
0
10
6271.063668
20
-21.761019
30
0.0
11
6271.063668
21
-24.311019
31
0.0
0
LINE
8
0
10
6271.063668
20
-24.311019
30
0.0
11
6289.463668
21
-24.311019
31
0.0
0
LINE
8
0
10
6289.463668
20
-24.311019
30
0.0
11
6289.463668
21
-21.761019
31
0.0
0
LINE
8
0
10
6289.463668
20
-21.761019
30
0.0
11
6289.213668
21
-21.761019
31
0.0
0
ARC
8
0
10
6289.213668
20
-21.111019
30
0.0
40
0.650000
50
90.000000
51
270.000000
0
LINE
8
0
10
6289.213668
20
-20.461019
30
0.0
11
6289.463668
21
-20.461019
31
0.0
0
LINE
8
0
10
6289.463668
20
-20.461019
30
0.0
11
6289.463668
21
-12.761019
31
0.0
0
LINE
8
0
10
6289.463668
20
-12.761019
30
0.0
11
6289.213668
21
-12.761019
31
0.0
0
ARC
8
0
10
6289.213668
20
-12.111019
30
0.0
40
0.650000
50
90.000000
51
270.000000
0
LINE
8
0
10
6289.213668
20
-11.461019
30
0.0
11
6289.463668
21
-11.461019
31
0.0
0
LINE
8
0
10
6289.463668
20
-11.461019
30
0.0
11
6289.463668
21
-3.761019
31
0.0
0
LINE
8
0
10
6289.463668
20
-3.761019
30
0.0
11
6289.213668
21
-3.761019
31
0.0
0
ARC
8
0
10
6289.213668
20
-3.111019
30
0.0
40
0.650000
50
90.000000
51
270.000000
0
LINE
8
0
10
6289.213668
20
-2.461019
30
0.0
11
6289.463668
21
-2.461019
31
0.0
0
LINE
8
0
10
6289.463668
20
-2.461019
30
0.0
11
6289.463668
21
0.088981
31
0.0
0
LINE
8
0
10
6289.463668
20
0.088981
30
0.0
11
6271.063668
21
0.088981
31
0.0
0
ATTDEF
8
0
10
0.000000
20
0.000000
30
0.0
40
3.5
1

3

2
PANE_WIDTH:0
70
0
0
ATTDEF
8
0
10
0.000000
20
0.000000
30
0.0
40
3.5
1

3

2
MIN_VETRO:0
70
0
0
ATTDEF
8
0
10
0.000000
20
0.000000
30
0.0
40
3.5
1

3

2
MAX_VETRO:0
70
0
0
ATTDEF
8
0
10
0.000000
20
0.000000
30
0.0
40
3.5
1

3

2
JX:0
70
0
0
ATTDEF
8
0
10
0.000000
20
0.000000
30
0.0
40
3.5
1

3

2
WX:0
70
0
0
ATTDEF
8
0
10
0.000000
20
0.000000
30
0.0
40
3.5
1

3

2
JY:0
70
0
0
ATTDEF
8
0
10
0.000000
20
0.000000
30
0.0
40
3.5
1

3

2
WY:0
70
0
0
ATTDEF
8
0
10
0.000000
20
0.000000
30
0.0
40
3.5
1

3

2
DESC:N/F
70
0
0
ATTDEF
8
0
10
0.000000
20
0.000000
30
0.0
40
3.5
1

3

2
DENS:0
70
0
0
ATTDEF
8
0
10
0.000000
20
0.000000
30
0.0
40
3.5
1

3

2
TDEV:0
70
0
0
ATTDEF
8
0
10
0.000000
20
0.000000
30
0.0
40
3.5
1

3

2
TDEV2:0
70
0
0
ATTDEF
8
0
10
0.000000
20
0.000000
30
0.0
40
3.5
1

3

2
TDEV3:0
70
0
0
ATTDEF
8
0
10
0.000000
20
0.000000
30
0.0
40
3.5
1

3

2
TDEV4:0
70
0
0
ATTDEF
8
0
10
0.000000
20
0.000000
30
0.0
40
3.5
1

3

2
TDEV5:0
70
0
0
ATTDEF
8
0
10
0.000000
20
0.000000
30
0.0
40
3.5
1

3

2
PANE_WIDTH:0
70
0
0
ATTDEF
8
0
10
0.000000
20
0.000000
30
0.0
40
3.5
1

3

2
MIN_VETRO:0
70
0
0
ATTDEF
8
0
10
0.000000
20
0.000000
30
0.0
40
3.5
1

3

2
MAX_VETRO:0
70
0
0
ATTDEF
8
0
10
0.000000
20
0.000000
30
0.0
40
3.5
1

3

2
JX:0
70
0
0
ATTDEF
8
0
10
0.000000
20
0.000000
30
0.0
40
3.5
1

3

2
WX:0
70
0
0
ATTDEF
8
0
10
0.000000
20
0.000000
30
0.0
40
3.5
1

3

2
JY:0
70
0
0
ATTDEF
8
0
10
0.000000
20
0.000000
30
0.0
40
3.5
1

3

2
WY:0
70
0
0
ATTDEF
8
0
10
6271.513668
20
26.388981
30
0.0
40
3.5
1

3

2
VC_START
70
0
0
ATTDEF
8
0
10
6280.263668
20
-25.611019
30
0.0
40
3.5
1

3

2
VC_END
70
0
0
ATTDEF
8
0
10
6202.763668
20
-25.611019
30
0.0
40
3.5
1

3

2
FP_LCS_ORIG
70
0
0
ATTDEF
8
0
10
6212.763668
20
-25.611019
30
0.0
40
3.5
1

3

2
FP_LCS_HOT
70
0
0
ATTDEF
8
0
10
6202.763668
20
-15.611019
30
0.0
40
3.5
1

3

2
FP_LCS_INTERN
70
0
0
ENDSEC
0
EOF
