0
SECTION
2
ENTITIES
0
LINE
8
0
10
3079.640944
20
1241.521651
30
0.0
11
3079.640944
21
1228.521651
31
0.0
0
ARC
8
0
10
3080.640944
20
1228.521651
30
0.0
40
1.000000
50
180.000000
51
270.000000
0
LINE
8
0
10
3080.640944
20
1227.521651
30
0.0
11
3098.640944
21
1227.521651
31
0.0
0
ARC
8
0
10
3098.640944
20
1228.521651
30
0.0
40
1.000000
50
270.000000
51
360.000000
0
LINE
8
0
10
3099.640944
20
1228.521651
30
0.0
11
3099.640944
21
1241.521651
31
0.0
0
ARC
8
0
10
3098.640944
20
1241.521651
30
0.0
40
1.000000
50
360.000000
51
90.000000
0
LINE
8
0
10
3098.640944
20
1242.521651
30
0.0
11
3080.640944
21
1242.521651
31
0.0
0
ARC
8
0
10
3080.640944
20
1241.521651
30
0.0
40
1.000000
50
90.000000
51
180.000000
0
LINE
8
0
10
3081.140944
20
1241.021651
30
0.0
11
3081.140944
21
1229.021651
31
0.0
0
LINE
8
0
10
3081.140944
20
1229.021651
30
0.0
11
3098.140944
21
1229.021651
31
0.0
0
LINE
8
0
10
3098.140944
20
1229.021651
30
0.0
11
3098.140944
21
1241.021651
31
0.0
0
LINE
8
0
10
3098.140944
20
1241.021651
30
0.0
11
3081.140944
21
1241.021651
31
0.0
0
ATTDEF
8
0
10
0.000000
20
0.000000
30
0.0
40
3.5
1

3

2
PANE_WIDTH:0
70
0
0
ATTDEF
8
0
10
0.000000
20
0.000000
30
0.0
40
3.5
1

3

2
MIN_VETRO:0
70
0
0
ATTDEF
8
0
10
0.000000
20
0.000000
30
0.0
40
3.5
1

3

2
MAX_VETRO:0
70
0
0
ATTDEF
8
0
10
0.000000
20
0.000000
30
0.0
40
3.5
1

3

2
JX:0
70
0
0
ATTDEF
8
0
10
0.000000
20
0.000000
30
0.0
40
3.5
1

3

2
WX:0
70
0
0
ATTDEF
8
0
10
0.000000
20
0.000000
30
0.0
40
3.5
1

3

2
JY:0
70
0
0
ATTDEF
8
0
10
0.000000
20
0.000000
30
0.0
40
3.5
1

3

2
WY:0
70
0
0
ATTDEF
8
0
10
0.000000
20
0.000000
30
0.0
40
3.5
1

3

2
DESC:Tubo 15x20
70
0
0
ATTDEF
8
0
10
0.000000
20
0.000000
30
0.0
40
3.5
1

3

2
DENS:0
70
0
0
ATTDEF
8
0
10
0.000000
20
0.000000
30
0.0
40
3.5
1

3

2
TDEV:0
70
0
0
ATTDEF
8
0
10
0.000000
20
0.000000
30
0.0
40
3.5
1

3

2
TDEV2:0
70
0
0
ATTDEF
8
0
10
0.000000
20
0.000000
30
0.0
40
3.5
1

3

2
TDEV3:0
70
0
0
ATTDEF
8
0
10
0.000000
20
0.000000
30
0.0
40
3.5
1

3

2
TDEV4:0
70
0
0
ATTDEF
8
0
10
0.000000
20
0.000000
30
0.0
40
3.5
1

3

2
TDEV5:0
70
0
0
ATTDEF
8
0
10
0.000000
20
0.000000
30
0.0
40
3.5
1

3

2
PANE_WIDTH:0
70
0
0
ATTDEF
8
0
10
0.000000
20
0.000000
30
0.0
40
3.5
1

3

2
MIN_VETRO:0
70
0
0
ATTDEF
8
0
10
0.000000
20
0.000000
30
0.0
40
3.5
1

3

2
MAX_VETRO:0
70
0
0
ATTDEF
8
0
10
0.000000
20
0.000000
30
0.0
40
3.5
1

3

2
JX:0
70
0
0
ATTDEF
8
0
10
0.000000
20
0.000000
30
0.0
40
3.5
1

3

2
WX:0
70
0
0
ATTDEF
8
0
10
0.000000
20
0.000000
30
0.0
40
3.5
1

3

2
JY:0
70
0
0
ATTDEF
8
0
10
0.000000
20
0.000000
30
0.0
40
3.5
1

3

2
WY:0
70
0
0
ATTDEF
8
0
10
3080.640944
20
1242.521651
30
0.0
40
3.5
1

3

2
VC_START
70
0
0
ATTDEF
8
0
10
3080.640944
20
1227.521651
30
0.0
40
3.5
1

3

2
VC_END
70
0
0
ATTDEF
8
0
10
3079.640944
20
1227.521651
30
0.0
40
3.5
1

3

2
FP_LCS_ORIG
70
0
0
ATTDEF
8
0
10
3089.640944
20
1227.521651
30
0.0
40
3.5
1

3

2
FP_LCS_HOT
70
0
0
ATTDEF
8
0
10
3079.640944
20
1237.521651
30
0.0
40
3.5
1

3

2
FP_LCS_INTERN
70
0
0
ENDSEC
0
EOF
