0
SECTION
2
ENTITIES
0
LINE
8
0
10
6491.759712
20
103.081601
30
0.0
11
6491.759712
21
106.581601
31
0.0
0
LINE
8
0
10
6491.759712
20
106.581601
30
0.0
11
6492.509712
21
106.581601
31
0.0
0
ARC
8
0
10
6492.509712
20
107.331601
30
0.0
40
0.750000
50
270.000000
51
90.000000
0
LINE
8
0
10
6492.509712
20
108.081601
30
0.0
11
6491.759712
21
108.081601
31
0.0
0
LINE
8
0
10
6491.759712
20
108.081601
30
0.0
11
6491.759712
21
115.581601
31
0.0
0
LINE
8
0
10
6491.759712
20
115.581601
30
0.0
11
6492.509712
21
115.581601
31
0.0
0
ARC
8
0
10
6492.509712
20
116.331601
30
0.0
40
0.750000
50
270.000000
51
90.000000
0
LINE
8
0
10
6492.509712
20
117.081601
30
0.0
11
6491.759712
21
117.081601
31
0.0
0
LINE
8
0
10
6491.759712
20
117.081601
30
0.0
11
6491.759712
21
124.581601
31
0.0
0
LINE
8
0
10
6491.759712
20
124.581601
30
0.0
11
6492.509712
21
124.581601
31
0.0
0
ARC
8
0
10
6492.509712
20
125.331601
30
0.0
40
0.750000
50
270.000000
51
90.000000
0
LINE
8
0
10
6492.509712
20
126.081601
30
0.0
11
6491.759712
21
126.081601
31
0.0
0
LINE
8
0
10
6491.759712
20
126.081601
30
0.0
11
6491.759712
21
128.081601
31
0.0
0
LINE
8
0
10
6491.759712
20
128.081601
30
0.0
11
6511.359712
21
128.081601
31
0.0
0
LINE
8
0
10
6511.359712
20
128.081601
30
0.0
11
6511.359712
21
126.081601
31
0.0
0
LINE
8
0
10
6511.359712
20
126.081601
30
0.0
11
6510.609712
21
126.081601
31
0.0
0
ARC
8
0
10
6510.609712
20
125.331601
30
0.0
40
0.750000
50
90.000000
51
270.000000
0
LINE
8
0
10
6510.609712
20
124.581601
30
0.0
11
6511.359712
21
124.581601
31
0.0
0
LINE
8
0
10
6511.359712
20
124.581601
30
0.0
11
6511.359712
21
117.081601
31
0.0
0
LINE
8
0
10
6511.359712
20
117.081601
30
0.0
11
6510.609712
21
117.081601
31
0.0
0
ARC
8
0
10
6510.609712
20
116.331601
30
0.0
40
0.750000
50
90.000000
51
270.000000
0
LINE
8
0
10
6510.609712
20
115.581601
30
0.0
11
6511.359712
21
115.581601
31
0.0
0
LINE
8
0
10
6511.359712
20
115.581601
30
0.0
11
6511.359712
21
108.081601
31
0.0
0
LINE
8
0
10
6511.359712
20
108.081601
30
0.0
11
6510.609712
21
108.081601
31
0.0
0
ARC
8
0
10
6510.609712
20
107.331601
30
0.0
40
0.750000
50
90.000000
51
270.000000
0
LINE
8
0
10
6510.609712
20
106.581601
30
0.0
11
6511.359712
21
106.581601
31
0.0
0
LINE
8
0
10
6511.359712
20
106.581601
30
0.0
11
6511.359712
21
103.081601
31
0.0
0
LINE
8
0
10
6511.359712
20
103.081601
30
0.0
11
6491.759712
21
103.081601
31
0.0
0
ARC
8
0
10
6494.759712
20
132.081601
30
0.0
40
3.000000
50
180.000000
51
270.000000
0
LINE
8
0
10
6491.759712
20
132.081601
30
0.0
11
6491.759712
21
145.081601
31
0.0
0
LINE
8
0
10
6491.759712
20
145.081601
30
0.0
11
6494.259712
21
145.081601
31
0.0
0
LINE
8
0
10
6494.259712
20
145.081601
30
0.0
11
6494.259712
21
148.381601
31
0.0
0
LINE
8
0
10
6494.259712
20
148.381601
30
0.0
11
6493.259712
21
148.381601
31
0.0
0
LINE
8
0
10
6493.259712
20
148.381601
30
0.0
11
6493.259712
21
146.081601
31
0.0
0
LINE
8
0
10
6493.259712
20
146.081601
30
0.0
11
6491.759712
21
146.081601
31
0.0
0
LINE
8
0
10
6491.759712
20
146.081601
30
0.0
11
6491.759712
21
154.081601
31
0.0
0
LINE
8
0
10
6491.759712
20
154.081601
30
0.0
11
6493.259712
21
154.081601
31
0.0
0
LINE
8
0
10
6493.259712
20
154.081601
30
0.0
11
6493.259712
21
151.781601
31
0.0
0
LINE
8
0
10
6493.259712
20
151.781601
30
0.0
11
6494.259712
21
151.781601
31
0.0
0
LINE
8
0
10
6494.259712
20
151.781601
30
0.0
11
6494.259712
21
155.081601
31
0.0
0
LINE
8
0
10
6494.259712
20
155.081601
30
0.0
11
6491.509712
21
155.081601
31
0.0
0
ARC
8
0
10
6491.509712
20
154.331601
30
0.0
40
0.750000
50
90.000000
51
180.000000
0
LINE
8
0
10
6490.759712
20
154.331601
30
0.0
11
6490.759712
21
102.081601
31
0.0
0
LINE
8
0
10
6490.759712
20
102.081601
30
0.0
11
6512.359712
21
102.081601
31
0.0
0
LINE
8
0
10
6512.359712
20
102.081601
30
0.0
11
6512.359712
21
154.331601
31
0.0
0
ARC
8
0
10
6511.609712
20
154.331601
30
0.0
40
0.750000
50
360.000000
51
90.000000
0
LINE
8
0
10
6511.609712
20
155.081601
30
0.0
11
6508.859712
21
155.081601
31
0.0
0
LINE
8
0
10
6508.859712
20
155.081601
30
0.0
11
6508.859712
21
151.781601
31
0.0
0
LINE
8
0
10
6508.859712
20
151.781601
30
0.0
11
6509.859712
21
151.781601
31
0.0
0
LINE
8
0
10
6509.859712
20
151.781601
30
0.0
11
6509.859712
21
154.081601
31
0.0
0
LINE
8
0
10
6509.859712
20
154.081601
30
0.0
11
6511.359712
21
154.081601
31
0.0
0
LINE
8
0
10
6511.359712
20
154.081601
30
0.0
11
6511.359712
21
146.081601
31
0.0
0
LINE
8
0
10
6511.359712
20
146.081601
30
0.0
11
6509.859712
21
146.081601
31
0.0
0
LINE
8
0
10
6509.859712
20
146.081601
30
0.0
11
6509.859712
21
148.381601
31
0.0
0
LINE
8
0
10
6509.859712
20
148.381601
30
0.0
11
6508.859712
21
148.381601
31
0.0
0
LINE
8
0
10
6508.859712
20
148.381601
30
0.0
11
6508.859712
21
145.081601
31
0.0
0
LINE
8
0
10
6508.859712
20
145.081601
30
0.0
11
6511.359712
21
145.081601
31
0.0
0
LINE
8
0
10
6511.359712
20
145.081601
30
0.0
11
6511.359712
21
132.081601
31
0.0
0
ARC
8
0
10
6508.359712
20
132.081601
30
0.0
40
3.000000
50
270.000000
51
360.000000
0
LINE
8
0
10
6508.359712
20
129.081601
30
0.0
11
6494.759712
21
129.081601
31
0.0
0
ATTDEF
8
0
10
0.000000
20
0.000000
30
0.0
40
3.5
1

3

2
PANE_WIDTH:0
70
0
0
ATTDEF
8
0
10
0.000000
20
0.000000
30
0.0
40
3.5
1

3

2
MIN_VETRO:0
70
0
0
ATTDEF
8
0
10
0.000000
20
0.000000
30
0.0
40
3.5
1

3

2
MAX_VETRO:0
70
0
0
ATTDEF
8
0
10
0.000000
20
0.000000
30
0.0
40
3.5
1

3

2
JX:0
70
0
0
ATTDEF
8
0
10
0.000000
20
0.000000
30
0.0
40
3.5
1

3

2
WX:0
70
0
0
ATTDEF
8
0
10
0.000000
20
0.000000
30
0.0
40
3.5
1

3

2
JY:0
70
0
0
ATTDEF
8
0
10
0.000000
20
0.000000
30
0.0
40
3.5
1

3

2
WY:0
70
0
0
ATTDEF
8
0
10
0.000000
20
0.000000
30
0.0
40
3.5
1

3

2
DESC:N/F
70
0
0
ATTDEF
8
0
10
0.000000
20
0.000000
30
0.0
40
3.5
1

3

2
DENS:0
70
0
0
ATTDEF
8
0
10
0.000000
20
0.000000
30
0.0
40
3.5
1

3

2
TDEV:0
70
0
0
ATTDEF
8
0
10
0.000000
20
0.000000
30
0.0
40
3.5
1

3

2
TDEV2:0
70
0
0
ATTDEF
8
0
10
0.000000
20
0.000000
30
0.0
40
3.5
1

3

2
TDEV3:0
70
0
0
ATTDEF
8
0
10
0.000000
20
0.000000
30
0.0
40
3.5
1

3

2
TDEV4:0
70
0
0
ATTDEF
8
0
10
0.000000
20
0.000000
30
0.0
40
3.5
1

3

2
TDEV5:0
70
0
0
ATTDEF
8
0
10
0.000000
20
0.000000
30
0.0
40
3.5
1

3

2
PANE_WIDTH:0
70
0
0
ATTDEF
8
0
10
0.000000
20
0.000000
30
0.0
40
3.5
1

3

2
MIN_VETRO:0
70
0
0
ATTDEF
8
0
10
0.000000
20
0.000000
30
0.0
40
3.5
1

3

2
MAX_VETRO:0
70
0
0
ATTDEF
8
0
10
0.000000
20
0.000000
30
0.0
40
3.5
1

3

2
JX:0
70
0
0
ATTDEF
8
0
10
0.000000
20
0.000000
30
0.0
40
3.5
1

3

2
WX:0
70
0
0
ATTDEF
8
0
10
0.000000
20
0.000000
30
0.0
40
3.5
1

3

2
JY:0
70
0
0
ATTDEF
8
0
10
0.000000
20
0.000000
30
0.0
40
3.5
1

3

2
WY:0
70
0
0
ATTDEF
8
0
10
6501.559712
20
129.081601
30
0.0
40
3.5
1

3

2
VC_START
70
0
0
ATTDEF
8
0
10
6490.759712
20
102.081601
30
0.0
40
3.5
1

3

2
VC_END
70
0
0
ATTDEF
8
0
10
6490.759712
20
102.081601
30
0.0
40
3.5
1

3

2
FP_LCS_ORIG
70
0
0
ATTDEF
8
0
10
6500.759712
20
102.081601
30
0.0
40
3.5
1

3

2
FP_LCS_HOT
70
0
0
ATTDEF
8
0
10
6490.759712
20
112.081601
30
0.0
40
3.5
1

3

2
FP_LCS_INTERN
70
0
0
ENDSEC
0
EOF
