0
SECTION
2
ENTITIES
0
LINE
8
0
10
6173.275789
20
-418.845104
30
0.0
11
6154.275789
21
-418.845104
31
0.0
0
LINE
8
0
10
6154.275789
20
-418.845104
30
0.0
11
6154.275789
21
-416.395104
31
0.0
0
LINE
8
0
10
6154.275789
20
-416.395104
30
0.0
11
6154.725789
21
-416.395104
31
0.0
0
ARC
8
0
10
6154.725789
20
-415.645104
30
0.0
40
0.750000
50
270.000000
51
90.000000
0
LINE
8
0
10
6154.725789
20
-414.895104
30
0.0
11
6154.275789
21
-414.895104
31
0.0
0
LINE
8
0
10
6154.275789
20
-414.895104
30
0.0
11
6154.275789
21
-407.395104
31
0.0
0
LINE
8
0
10
6154.275789
20
-407.395104
30
0.0
11
6154.725789
21
-407.395104
31
0.0
0
ARC
8
0
10
6154.725789
20
-406.645104
30
0.0
40
0.750000
50
270.000000
51
90.000000
0
LINE
8
0
10
6154.725789
20
-405.895104
30
0.0
11
6154.275789
21
-405.895104
31
0.0
0
LINE
8
0
10
6154.275789
20
-405.895104
30
0.0
11
6154.275789
21
-398.395104
31
0.0
0
LINE
8
0
10
6154.275789
20
-398.395104
30
0.0
11
6154.725789
21
-398.395104
31
0.0
0
ARC
8
0
10
6154.725789
20
-397.645104
30
0.0
40
0.750000
50
270.000000
51
90.000000
0
LINE
8
0
10
6154.725789
20
-396.895104
30
0.0
11
6154.275789
21
-396.895104
31
0.0
0
LINE
8
0
10
6154.275789
20
-396.895104
30
0.0
11
6154.275789
21
-394.445104
31
0.0
0
LINE
8
0
10
6154.275789
20
-394.445104
30
0.0
11
6173.275789
21
-394.445104
31
0.0
0
LINE
8
0
10
6173.275789
20
-394.445104
30
0.0
11
6173.275789
21
-396.895104
31
0.0
0
LINE
8
0
10
6173.275789
20
-396.895104
30
0.0
11
6172.825789
21
-396.895104
31
0.0
0
ARC
8
0
10
6172.825789
20
-397.645104
30
0.0
40
0.750000
50
90.000000
51
270.000000
0
LINE
8
0
10
6172.825789
20
-398.395104
30
0.0
11
6173.275789
21
-398.395104
31
0.0
0
LINE
8
0
10
6173.275789
20
-398.395104
30
0.0
11
6173.275789
21
-405.895104
31
0.0
0
LINE
8
0
10
6173.275789
20
-405.895104
30
0.0
11
6172.825789
21
-405.895104
31
0.0
0
ARC
8
0
10
6172.825789
20
-406.645104
30
0.0
40
0.750000
50
90.000000
51
270.000000
0
LINE
8
0
10
6172.825789
20
-407.395104
30
0.0
11
6173.275789
21
-407.395104
31
0.0
0
LINE
8
0
10
6173.275789
20
-407.395104
30
0.0
11
6173.275789
21
-414.895104
31
0.0
0
LINE
8
0
10
6173.275789
20
-414.895104
30
0.0
11
6172.825789
21
-414.895104
31
0.0
0
ARC
8
0
10
6172.825789
20
-415.645104
30
0.0
40
0.750000
50
90.000000
51
270.000000
0
LINE
8
0
10
6172.825789
20
-416.395104
30
0.0
11
6173.275789
21
-416.395104
31
0.0
0
LINE
8
0
10
6173.275789
20
-416.395104
30
0.0
11
6173.275789
21
-418.845104
31
0.0
0
LINE
8
0
10
6077.675789
20
-380.745104
30
0.0
11
6078.175789
21
-381.245104
31
0.0
0
LINE
8
0
10
6078.175789
20
-381.245104
30
0.0
11
6147.089454
21
-381.245104
31
0.0
0
ARC
8
0
10
6147.089454
20
-381.545104
30
0.0
40
0.300000
50
332.647767
51
90.000000
0
ARC
8
0
10
6150.375789
20
-383.245104
30
0.0
40
3.400000
50
152.647767
51
167.016140
0
ARC
8
0
10
6147.549932
20
-382.593542
30
0.0
40
0.500000
50
167.016140
51
225.000000
0
LINE
8
0
10
6147.793000
20
-383.543717
30
0.0
11
6147.196379
21
-382.947096
31
0.0
0
ARC
8
0
10
6148.075843
20
-383.260875
30
0.0
40
0.400000
50
225.000000
51
360.000000
0
ARC
8
0
10
6150.375789
20
-383.245104
30
0.0
40
1.900000
50
269.607141
51
180.392859
0
ARC
8
0
10
6150.360019
20
-385.545050
30
0.0
40
0.400000
50
90.000000
51
225.000000
0
LINE
8
0
10
6150.673798
20
-386.424515
30
0.0
11
6150.077176
21
-385.827893
31
0.0
0
ARC
8
0
10
6151.027351
20
-386.070961
30
0.0
40
0.500000
50
225.000000
51
282.983860
0
ARC
8
0
10
6150.375789
20
-383.245104
30
0.0
40
3.400000
50
282.983860
51
297.352233
0
ARC
8
0
10
6152.075789
20
-386.531440
30
0.0
40
0.300000
50
360.000000
51
117.352233
0
LINE
8
0
10
6152.375789
20
-388.095104
30
0.0
11
6152.375789
21
-386.531440
31
0.0
0
ARC
8
0
10
6154.874629
20
-388.018941
30
0.0
40
2.500000
50
181.745814
51
220.576706
0
LINE
8
0
10
6152.975789
20
-420.145104
30
0.0
11
6152.975789
21
-389.645104
31
0.0
0
LINE
8
0
10
6174.575789
20
-420.145104
30
0.0
11
6152.975789
21
-420.145104
31
0.0
0
LINE
8
0
10
6174.575789
20
-367.645104
30
0.0
11
6174.575789
21
-420.145104
31
0.0
0
ARC
8
0
10
6174.075789
20
-367.645104
30
0.0
40
0.500000
50
360.000000
51
90.000000
0
LINE
8
0
10
6171.575789
20
-367.145104
30
0.0
11
6174.075789
21
-367.145104
31
0.0
0
ARC
8
0
10
6171.575789
20
-367.645104
30
0.0
40
0.500000
50
90.000000
51
180.000000
0
LINE
8
0
10
6171.075789
20
-369.895104
30
0.0
11
6171.075789
21
-367.645104
31
0.0
0
ARC
8
0
10
6171.575789
20
-369.895104
30
0.0
40
0.500000
50
180.000000
51
360.000000
0
LINE
8
0
10
6172.075789
20
-368.895104
30
0.0
11
6172.075789
21
-369.895104
31
0.0
0
ARC
8
0
10
6172.825789
20
-368.895104
30
0.0
40
0.750000
50
360.000000
51
180.000000
0
LINE
8
0
10
6173.575789
20
-375.395104
30
0.0
11
6173.575789
21
-368.895104
31
0.0
0
ARC
8
0
10
6172.825789
20
-375.395104
30
0.0
40
0.750000
50
180.000000
51
360.000000
0
LINE
8
0
10
6172.075789
20
-374.395104
30
0.0
11
6172.075789
21
-375.395104
31
0.0
0
ARC
8
0
10
6171.575789
20
-374.395104
30
0.0
40
0.500000
50
360.000000
51
180.000000
0
LINE
8
0
10
6171.075789
20
-376.645104
30
0.0
11
6171.075789
21
-374.395104
31
0.0
0
ARC
8
0
10
6171.575789
20
-376.645104
30
0.0
40
0.500000
50
180.000000
51
270.000000
0
LINE
8
0
10
6173.275789
20
-377.145104
30
0.0
11
6171.575789
21
-377.145104
31
0.0
0
LINE
8
0
10
6173.275789
20
-390.145104
30
0.0
11
6173.275789
21
-377.145104
31
0.0
0
ARC
8
0
10
6170.275789
20
-390.145104
30
0.0
40
3.000000
50
270.000000
51
360.000000
0
LINE
8
0
10
6157.275789
20
-393.145104
30
0.0
11
6170.275789
21
-393.145104
31
0.0
0
ARC
8
0
10
6157.275789
20
-390.145104
30
0.0
40
3.000000
50
180.000000
51
270.000000
0
LINE
8
0
10
6154.275789
20
-377.145104
30
0.0
11
6154.275789
21
-390.145104
31
0.0
0
LINE
8
0
10
6155.975789
20
-377.145104
30
0.0
11
6154.275789
21
-377.145104
31
0.0
0
ARC
8
0
10
6155.975789
20
-376.645104
30
0.0
40
0.500000
50
270.000000
51
360.000000
0
LINE
8
0
10
6156.475789
20
-374.395104
30
0.0
11
6156.475789
21
-376.645104
31
0.0
0
ARC
8
0
10
6155.975789
20
-374.395104
30
0.0
40
0.500000
50
360.000000
51
180.000000
0
LINE
8
0
10
6155.475789
20
-375.395104
30
0.0
11
6155.475789
21
-374.395104
31
0.0
0
ARC
8
0
10
6154.725789
20
-375.395104
30
0.0
40
0.750000
50
180.000000
51
360.000000
0
LINE
8
0
10
6153.975789
20
-368.895104
30
0.0
11
6153.975789
21
-375.395104
31
0.0
0
ARC
8
0
10
6154.725789
20
-368.895104
30
0.0
40
0.750000
50
360.000000
51
180.000000
0
LINE
8
0
10
6155.475789
20
-369.895104
30
0.0
11
6155.475789
21
-368.895104
31
0.0
0
ARC
8
0
10
6155.975789
20
-369.895104
30
0.0
40
0.500000
50
180.000000
51
360.000000
0
LINE
8
0
10
6156.475789
20
-367.645104
30
0.0
11
6156.475789
21
-369.895104
31
0.0
0
ARC
8
0
10
6155.975789
20
-367.645104
30
0.0
40
0.500000
50
360.000000
51
90.000000
0
LINE
8
0
10
6155.975789
20
-367.145104
30
0.0
11
6153.475789
21
-367.145104
31
0.0
0
ARC
8
0
10
6153.475789
20
-367.645104
30
0.0
40
0.500000
50
90.000000
51
180.000000
0
LINE
8
0
10
6152.975789
20
-379.145104
30
0.0
11
6152.975789
21
-367.645104
31
0.0
0
ARC
8
0
10
6152.475789
20
-379.145104
30
0.0
40
0.500000
50
270.000000
51
360.000000
0
LINE
8
0
10
6152.475789
20
-379.645104
30
0.0
11
6089.775789
21
-379.645104
31
0.0
0
LINE
8
0
10
6089.775789
20
-375.445104
30
0.0
11
6089.775789
21
-379.645104
31
0.0
0
ARC
8
0
10
6089.475789
20
-375.445104
30
0.0
40
0.300000
50
360.000000
51
90.000000
0
LINE
8
0
10
6089.475789
20
-375.145104
30
0.0
11
6088.575789
21
-375.145104
31
0.0
0
ARC
8
0
10
6088.575789
20
-375.445104
30
0.0
40
0.300000
50
90.000000
51
180.000000
0
LINE
8
0
10
6088.275789
20
-375.445104
30
0.0
11
6088.275789
21
-379.645104
31
0.0
0
LINE
8
0
10
6088.275789
20
-379.645104
30
0.0
11
6084.775789
21
-379.645104
31
0.0
0
LINE
8
0
10
6084.775789
20
-375.445104
30
0.0
11
6084.775789
21
-379.645104
31
0.0
0
ARC
8
0
10
6084.475789
20
-375.445104
30
0.0
40
0.300000
50
360.000000
51
90.000000
0
LINE
8
0
10
6084.475789
20
-375.145104
30
0.0
11
6083.575789
21
-375.145104
31
0.0
0
ARC
8
0
10
6083.575789
20
-375.445104
30
0.0
40
0.300000
50
90.000000
51
180.000000
0
LINE
8
0
10
6083.275789
20
-375.445104
30
0.0
11
6083.275789
21
-379.645104
31
0.0
0
LINE
8
0
10
6083.275789
20
-379.645104
30
0.0
11
6065.875789
21
-379.645104
31
0.0
0
LINE
8
0
10
6065.875789
20
-375.445104
30
0.0
11
6065.875789
21
-379.645104
31
0.0
0
ARC
8
0
10
6065.575789
20
-375.445104
30
0.0
40
0.300000
50
360.000000
51
90.000000
0
LINE
8
0
10
6065.575789
20
-375.145104
30
0.0
11
6064.675789
21
-375.145104
31
0.0
0
ARC
8
0
10
6064.675789
20
-375.445104
30
0.0
40
0.300000
50
90.000000
51
180.000000
0
LINE
8
0
10
6064.375789
20
-375.445104
30
0.0
11
6064.375789
21
-379.645104
31
0.0
0
LINE
8
0
10
6064.375789
20
-379.645104
30
0.0
11
6060.275789
21
-379.645104
31
0.0
0
LINE
8
0
10
6060.275789
20
-377.645104
30
0.0
11
6060.275789
21
-379.645104
31
0.0
0
ARC
8
0
10
6059.975789
20
-377.645104
30
0.0
40
0.300000
50
360.000000
51
90.000000
0
LINE
8
0
10
6059.975789
20
-377.345104
30
0.0
11
6059.075789
21
-377.345104
31
0.0
0
ARC
8
0
10
6059.075789
20
-377.645104
30
0.0
40
0.300000
50
90.000000
51
180.000000
0
LINE
8
0
10
6058.775789
20
-377.645104
30
0.0
11
6058.775789
21
-379.645104
31
0.0
0
LINE
8
0
10
6058.775789
20
-379.645104
30
0.0
11
6055.075789
21
-379.645104
31
0.0
0
ARC
8
0
10
6055.075789
20
-380.145104
30
0.0
40
0.500000
50
90.000000
51
180.000000
0
LINE
8
0
10
6054.575789
20
-380.145104
30
0.0
11
6054.575789
21
-421.945104
31
0.0
0
LINE
8
0
10
6058.575789
20
-421.945104
30
0.0
11
6054.575789
21
-421.945104
31
0.0
0
LINE
8
0
10
6058.575789
20
-421.945104
30
0.0
11
6058.575789
21
-420.145104
31
0.0
0
LINE
8
0
10
6058.575789
20
-420.145104
30
0.0
11
6066.075789
21
-420.145104
31
0.0
0
LINE
8
0
10
6066.075789
20
-420.145104
30
0.0
11
6066.075789
21
-421.745104
31
0.0
0
LINE
8
0
10
6066.075789
20
-421.745104
30
0.0
11
6066.375789
21
-421.745104
31
0.0
0
ARC
8
0
10
6066.375789
20
-421.445104
30
0.0
40
0.300000
50
270.000000
51
336.242263
0
LINE
8
0
10
6066.650366
20
-421.565965
30
0.0
11
6067.583278
21
-419.446539
31
0.0
0
ARC
8
0
10
6067.125649
20
-419.245104
30
0.0
40
0.500000
50
336.242263
51
90.000000
0
LINE
8
0
10
6067.125649
20
-418.745104
30
0.0
11
6056.175789
21
-418.745104
31
0.0
0
LINE
8
0
10
6056.175789
20
-418.745104
30
0.0
11
6056.175789
21
-381.745104
31
0.0
0
ARC
8
0
10
6056.675789
20
-381.745104
30
0.0
40
0.500000
50
90.000000
51
180.000000
0
LINE
8
0
10
6056.675789
20
-381.245104
30
0.0
11
6077.175789
21
-381.245104
31
0.0
0
LINE
8
0
10
6077.175789
20
-381.245104
30
0.0
11
6077.675789
21
-380.745104
31
0.0
0
ATTDEF
8
0
10
0.000000
20
0.000000
30
0.0
40
3.5
1

3

2
PANE_WIDTH:0
70
0
0
ATTDEF
8
0
10
0.000000
20
0.000000
30
0.0
40
3.5
1

3

2
MIN_VETRO:0
70
0
0
ATTDEF
8
0
10
0.000000
20
0.000000
30
0.0
40
3.5
1

3

2
MAX_VETRO:0
70
0
0
ATTDEF
8
0
10
0.000000
20
0.000000
30
0.0
40
3.5
1

3

2
JX:0
70
0
0
ATTDEF
8
0
10
0.000000
20
0.000000
30
0.0
40
3.5
1

3

2
WX:0
70
0
0
ATTDEF
8
0
10
0.000000
20
0.000000
30
0.0
40
3.5
1

3

2
JY:0
70
0
0
ATTDEF
8
0
10
0.000000
20
0.000000
30
0.0
40
3.5
1

3

2
WY:0
70
0
0
ATTDEF
8
0
10
0.000000
20
0.000000
30
0.0
40
3.5
1

3

2
DESC:Guia 120mm
70
0
0
ATTDEF
8
0
10
0.000000
20
0.000000
30
0.0
40
3.5
1

3

2
DENS:1.3338
70
0
0
ATTDEF
8
0
10
0.000000
20
0.000000
30
0.0
40
3.5
1

3

2
TDEV:66.63
70
0
0
ATTDEF
8
0
10
0.000000
20
0.000000
30
0.0
40
3.5
1

3

2
TDEV2:0
70
0
0
ATTDEF
8
0
10
0.000000
20
0.000000
30
0.0
40
3.5
1

3

2
TDEV3:0
70
0
0
ATTDEF
8
0
10
0.000000
20
0.000000
30
0.0
40
3.5
1

3

2
TDEV4:0
70
0
0
ATTDEF
8
0
10
0.000000
20
0.000000
30
0.0
40
3.5
1

3

2
TDEV5:0
70
0
0
ATTDEF
8
0
10
0.000000
20
0.000000
30
0.0
40
3.5
1

3

2
PANE_WIDTH:0
70
0
0
ATTDEF
8
0
10
0.000000
20
0.000000
30
0.0
40
3.5
1

3

2
MIN_VETRO:0
70
0
0
ATTDEF
8
0
10
0.000000
20
0.000000
30
0.0
40
3.5
1

3

2
MAX_VETRO:0
70
0
0
ATTDEF
8
0
10
0.000000
20
0.000000
30
0.0
40
3.5
1

3

2
JX:0
70
0
0
ATTDEF
8
0
10
0.000000
20
0.000000
30
0.0
40
3.5
1

3

2
WX:0
70
0
0
ATTDEF
8
0
10
0.000000
20
0.000000
30
0.0
40
3.5
1

3

2
JY:0
70
0
0
ATTDEF
8
0
10
0.000000
20
0.000000
30
0.0
40
3.5
1

3

2
WY:0
70
0
0
ATTDEF
8
0
10
6154.725789
20
-367.145104
30
0.0
40
3.5
1

3

2
VC_START
70
0
0
ATTDEF
8
0
10
6054.575789
20
-421.945104
30
0.0
40
3.5
1

3

2
VC_END
70
0
0
ATTDEF
8
0
10
6174.575789
20
-421.945104
30
0.0
40
3.5
1

3

2
FP_LCS_ORIG
70
0
0
ATTDEF
8
0
10
6164.575789
20
-421.945104
30
0.0
40
3.5
1

3

2
FP_LCS_HOT
70
0
0
ATTDEF
8
0
10
6174.575789
20
-411.945104
30
0.0
40
3.5
1

3

2
FP_LCS_INTERN
70
0
0
ENDSEC
0
EOF
