0
SECTION
2
ENTITIES
0
LINE
8
0
10
7.203734
20
23.107109
30
0.0
11
9.148099
21
23.107109
31
0.0
0
LINE
8
0
10
9.148099
20
23.107109
30
0.0
11
16.348099
21
23.107109
31
0.0
0
LINE
8
0
10
16.348099
20
23.107109
30
0.0
11
16.348099
21
28.107109
31
0.0
0
LINE
8
0
10
16.348099
20
28.107109
30
0.0
11
20.948099
21
28.107109
31
0.0
0
LINE
8
0
10
20.948099
20
28.107109
30
0.0
11
21.248099
21
28.407109
31
0.0
0
LINE
8
0
10
21.248099
20
28.407109
30
0.0
11
21.548099
21
28.107109
31
0.0
0
LINE
8
0
10
21.548099
20
28.107109
30
0.0
11
25.248099
21
28.107109
31
0.0
0
LINE
8
0
10
25.248099
20
28.107109
30
0.0
11
25.248099
21
29.207109
31
0.0
0
LINE
8
0
10
25.248099
20
29.207109
30
0.0
11
15.248099
21
29.207109
31
0.0
0
LINE
8
0
10
15.248099
20
29.207109
30
0.0
11
15.248099
21
24.207109
31
0.0
0
LINE
8
0
10
15.248099
20
24.207109
30
0.0
11
10.248099
21
24.207109
31
0.0
0
LINE
8
0
10
10.248099
20
24.207109
30
0.0
11
10.248099
21
25.707109
31
0.0
0
LINE
8
0
10
10.248099
20
25.707109
30
0.0
11
8.248099
21
25.707109
31
0.0
0
LINE
8
0
10
8.248099
20
25.707109
30
0.0
11
3.248099
21
20.707109
31
0.0
0
LINE
8
0
10
3.248099
20
20.707109
30
0.0
11
3.248099
21
-17.292891
31
0.0
0
LINE
8
0
10
3.248099
20
-17.292891
30
0.0
11
8.248099
21
-22.292891
31
0.0
0
LINE
8
0
10
8.248099
20
-22.292891
30
0.0
11
10.248099
21
-22.292891
31
0.0
0
LINE
8
0
10
10.248099
20
-22.292891
30
0.0
11
10.248099
21
-17.792891
31
0.0
0
LINE
8
0
10
10.248099
20
-17.792891
30
0.0
11
9.148099
21
-17.792891
31
0.0
0
LINE
8
0
10
9.148099
20
-17.792891
30
0.0
11
9.148099
21
-20.292891
31
0.0
0
LINE
8
0
10
9.148099
20
-20.292891
30
0.0
11
7.803734
21
-20.292891
31
0.0
0
LINE
8
0
10
7.803734
20
-20.292891
30
0.0
11
7.048099
21
-19.537256
31
0.0
0
LINE
8
0
10
7.048099
20
-19.537256
30
0.0
11
7.048099
21
-17.792891
31
0.0
0
LINE
8
0
10
7.048099
20
-17.792891
30
0.0
11
5.303734
21
-17.792891
31
0.0
0
LINE
8
0
10
5.303734
20
-17.792891
30
0.0
11
4.348099
21
-16.837256
31
0.0
0
LINE
8
0
10
4.348099
20
-16.837256
30
0.0
11
4.348099
21
-11.292891
31
0.0
0
LINE
8
0
10
4.348099
20
-11.292891
30
0.0
11
5.948099
21
-11.292891
31
0.0
0
LINE
8
0
10
5.948099
20
-11.292891
30
0.0
11
5.948099
21
-12.792891
31
0.0
0
LINE
8
0
10
5.948099
20
-12.792891
30
0.0
11
7.048099
21
-12.792891
31
0.0
0
LINE
8
0
10
7.048099
20
-12.792891
30
0.0
11
7.048099
21
-11.292891
31
0.0
0
LINE
8
0
10
7.048099
20
-11.292891
30
0.0
11
9.148099
21
-11.292891
31
0.0
0
LINE
8
0
10
9.148099
20
-11.292891
30
0.0
11
9.148099
21
-12.792891
31
0.0
0
LINE
8
0
10
9.148099
20
-12.792891
30
0.0
11
10.248099
21
-12.792891
31
0.0
0
LINE
8
0
10
10.248099
20
-12.792891
30
0.0
11
10.248099
21
-10.192891
31
0.0
0
LINE
8
0
10
10.248099
20
-10.192891
30
0.0
11
4.348099
21
-10.192891
31
0.0
0
LINE
8
0
10
4.348099
20
-10.192891
30
0.0
11
4.348099
21
20.251474
31
0.0
0
LINE
8
0
10
4.348099
20
20.251474
30
0.0
11
7.203734
21
23.107109
31
0.0
0
ATTDEF
8
0
10
8.248099
20
25.707109
30
0.0
40
3.5
1

3

2
VC_START
70
0
0
ATTDEF
8
0
10
8.248099
20
-22.292891
30
0.0
40
3.5
1

3

2
VC_END
70
0
0
ATTDEF
8
0
10
3.248099
20
-22.292891
30
0.0
40
3.5
1

3

2
FP_LCS_ORIG
70
0
0
ATTDEF
8
0
10
13.248099
20
-22.292891
30
0.0
40
3.5
1

3

2
FP_LCS_HOT
70
0
0
ATTDEF
8
0
10
3.248099
20
-12.292891
30
0.0
40
3.5
1

3

2
FP_LCS_INTERN
70
0
0
ATTDEF
8
0
10
0.000000
20
0.000000
30
0.0
40
3.5
1

3

2
PANE_WIDTH:0
70
0
0
ATTDEF
8
0
10
0.000000
20
0.000000
30
0.0
40
3.5
1

3

2
MIN_VETRO:0
70
0
0
ATTDEF
8
0
10
0.000000
20
0.000000
30
0.0
40
3.5
1

3

2
MAX_VETRO:0
70
0
0
ATTDEF
8
0
10
0.000000
20
0.000000
30
0.0
40
3.5
1

3

2
JX:0
70
0
0
ATTDEF
8
0
10
0.000000
20
0.000000
30
0.0
40
3.5
1

3

2
WX:0
70
0
0
ATTDEF
8
0
10
0.000000
20
0.000000
30
0.0
40
3.5
1

3

2
JY:0
70
0
0
ATTDEF
8
0
10
0.000000
20
0.000000
30
0.0
40
3.5
1

3

2
WY:0
70
0
0
ATTDEF
8
0
10
0.000000
20
0.000000
30
0.0
40
3.5
1

3

2
DESC:Solape 48
70
0
0
ATTDEF
8
0
10
0.000000
20
0.000000
30
0.0
40
3.5
1

3

2
DENS:0.2727
70
0
0
ATTDEF
8
0
10
0.000000
20
0.000000
30
0.0
40
3.5
1

3

2
TDEV:17.63
70
0
0
ATTDEF
8
0
10
0.000000
20
0.000000
30
0.0
40
3.5
1

3

2
TDEV2:0
70
0
0
ATTDEF
8
0
10
0.000000
20
0.000000
30
0.0
40
3.5
1

3

2
TDEV3:0
70
0
0
ATTDEF
8
0
10
0.000000
20
0.000000
30
0.0
40
3.5
1

3

2
TDEV4:0
70
0
0
ATTDEF
8
0
10
0.000000
20
0.000000
30
0.0
40
3.5
1

3

2
TDEV5:0
70
0
0
ATTDEF
8
0
10
0.000000
20
0.000000
30
0.0
40
3.5
1

3

2
PANE_WIDTH:0
70
0
0
ATTDEF
8
0
10
0.000000
20
0.000000
30
0.0
40
3.5
1

3

2
MIN_VETRO:0
70
0
0
ATTDEF
8
0
10
0.000000
20
0.000000
30
0.0
40
3.5
1

3

2
MAX_VETRO:0
70
0
0
ATTDEF
8
0
10
0.000000
20
0.000000
30
0.0
40
3.5
1

3

2
JX:0
70
0
0
ATTDEF
8
0
10
0.000000
20
0.000000
30
0.0
40
3.5
1

3

2
WX:0
70
0
0
ATTDEF
8
0
10
0.000000
20
0.000000
30
0.0
40
3.5
1

3

2
JY:0
70
0
0
ATTDEF
8
0
10
0.000000
20
0.000000
30
0.0
40
3.5
1

3

2
WY:0
70
0
0
ENDSEC
0
EOF
