0
SECTION
2
ENTITIES
0
LINE
8
0
10
3076.196412
20
1245.511455
30
0.0
11
3076.196412
21
1232.511455
31
0.0
0
ARC
8
0
10
3077.196412
20
1232.511455
30
0.0
40
1.000000
50
180.000000
51
270.000000
0
LINE
8
0
10
3077.196412
20
1231.511455
30
0.0
11
3100.196412
21
1231.511455
31
0.0
0
ARC
8
0
10
3100.196412
20
1232.511455
30
0.0
40
1.000000
50
270.000000
51
360.000000
0
LINE
8
0
10
3101.196412
20
1232.511455
30
0.0
11
3101.196412
21
1245.511455
31
0.0
0
ARC
8
0
10
3100.196412
20
1245.511455
30
0.0
40
1.000000
50
360.000000
51
90.000000
0
LINE
8
0
10
3100.196412
20
1246.511455
30
0.0
11
3077.196412
21
1246.511455
31
0.0
0
ARC
8
0
10
3077.196412
20
1245.511455
30
0.0
40
1.000000
50
90.000000
51
180.000000
0
LINE
8
0
10
3077.696412
20
1245.011455
30
0.0
11
3077.696412
21
1233.011455
31
0.0
0
LINE
8
0
10
3077.696412
20
1233.011455
30
0.0
11
3099.696412
21
1233.011455
31
0.0
0
LINE
8
0
10
3099.696412
20
1233.011455
30
0.0
11
3099.696412
21
1245.011455
31
0.0
0
LINE
8
0
10
3099.696412
20
1245.011455
30
0.0
11
3077.696412
21
1245.011455
31
0.0
0
ATTDEF
8
0
10
0.000000
20
0.000000
30
0.0
40
3.5
1

3

2
PANE_WIDTH:0
70
0
0
ATTDEF
8
0
10
0.000000
20
0.000000
30
0.0
40
3.5
1

3

2
MIN_VETRO:0
70
0
0
ATTDEF
8
0
10
0.000000
20
0.000000
30
0.0
40
3.5
1

3

2
MAX_VETRO:0
70
0
0
ATTDEF
8
0
10
0.000000
20
0.000000
30
0.0
40
3.5
1

3

2
JX:0
70
0
0
ATTDEF
8
0
10
0.000000
20
0.000000
30
0.0
40
3.5
1

3

2
WX:0
70
0
0
ATTDEF
8
0
10
0.000000
20
0.000000
30
0.0
40
3.5
1

3

2
JY:0
70
0
0
ATTDEF
8
0
10
0.000000
20
0.000000
30
0.0
40
3.5
1

3

2
WY:0
70
0
0
ATTDEF
8
0
10
0.000000
20
0.000000
30
0.0
40
3.5
1

3

2
DESC:Tubo 15x25
70
0
0
ATTDEF
8
0
10
0.000000
20
0.000000
30
0.0
40
3.5
1

3

2
DENS:0
70
0
0
ATTDEF
8
0
10
0.000000
20
0.000000
30
0.0
40
3.5
1

3

2
TDEV:0
70
0
0
ATTDEF
8
0
10
0.000000
20
0.000000
30
0.0
40
3.5
1

3

2
TDEV2:0
70
0
0
ATTDEF
8
0
10
0.000000
20
0.000000
30
0.0
40
3.5
1

3

2
TDEV3:0
70
0
0
ATTDEF
8
0
10
0.000000
20
0.000000
30
0.0
40
3.5
1

3

2
TDEV4:0
70
0
0
ATTDEF
8
0
10
0.000000
20
0.000000
30
0.0
40
3.5
1

3

2
TDEV5:0
70
0
0
ATTDEF
8
0
10
0.000000
20
0.000000
30
0.0
40
3.5
1

3

2
PANE_WIDTH:0
70
0
0
ATTDEF
8
0
10
0.000000
20
0.000000
30
0.0
40
3.5
1

3

2
MIN_VETRO:0
70
0
0
ATTDEF
8
0
10
0.000000
20
0.000000
30
0.0
40
3.5
1

3

2
MAX_VETRO:0
70
0
0
ATTDEF
8
0
10
0.000000
20
0.000000
30
0.0
40
3.5
1

3

2
JX:0
70
0
0
ATTDEF
8
0
10
0.000000
20
0.000000
30
0.0
40
3.5
1

3

2
WX:0
70
0
0
ATTDEF
8
0
10
0.000000
20
0.000000
30
0.0
40
3.5
1

3

2
JY:0
70
0
0
ATTDEF
8
0
10
0.000000
20
0.000000
30
0.0
40
3.5
1

3

2
WY:0
70
0
0
ATTDEF
8
0
10
3077.196412
20
1246.511455
30
0.0
40
3.5
1

3

2
VC_START
70
0
0
ATTDEF
8
0
10
3077.196412
20
1231.511455
30
0.0
40
3.5
1

3

2
VC_END
70
0
0
ATTDEF
8
0
10
3076.196412
20
1231.511455
30
0.0
40
3.5
1

3

2
FP_LCS_ORIG
70
0
0
ATTDEF
8
0
10
3086.196412
20
1231.511455
30
0.0
40
3.5
1

3

2
FP_LCS_HOT
70
0
0
ATTDEF
8
0
10
3076.196412
20
1241.511455
30
0.0
40
3.5
1

3

2
FP_LCS_INTERN
70
0
0
ENDSEC
0
EOF
