0
SECTION
2
ENTITIES
0
ARC
8
0
10
472.168788
20
3166.593358
30
0.0
40
0.500000
50
0.000000
51
101.536959
0
ARC
8
0
10
471.968788
20
3166.593358
30
0.0
40
0.500000
50
78.463041
51
180.000000
0
LINE
8
0
10
471.468788
20
3166.593358
30
0.0
11
471.468788
21
3165.343358
31
0.0
0
LINE
8
0
10
471.468788
20
3165.343358
30
0.0
11
470.168788
21
3165.343358
31
0.0
0
LINE
8
0
10
470.168788
20
3165.343358
30
0.0
11
470.168788
21
3172.843358
31
0.0
0
LINE
8
0
10
470.168788
20
3172.843358
30
0.0
11
471.468788
21
3172.843358
31
0.0
0
LINE
8
0
10
471.468788
20
3172.843358
30
0.0
11
471.468788
21
3171.593358
31
0.0
0
ARC
8
0
10
471.968788
20
3171.593358
30
0.0
40
0.500000
50
180.000000
51
281.536959
0
ARC
8
0
10
472.168788
20
3171.593358
30
0.0
40
0.500000
50
258.463041
51
0.000000
0
LINE
8
0
10
472.668788
20
3171.593358
30
0.0
11
472.668788
21
3174.343358
31
0.0
0
LINE
8
0
10
472.668788
20
3174.343358
30
0.0
11
461.168788
21
3174.343358
31
0.0
0
ARC
8
0
10
461.168788
20
3173.843358
30
0.0
40
0.500000
50
90.000000
51
180.000000
0
LINE
8
0
10
460.668788
20
3173.843358
30
0.0
11
460.668788
21
3154.343358
31
0.0
0
LINE
8
0
10
460.668788
20
3154.343358
30
0.0
11
464.168788
21
3154.343358
31
0.0
0
LINE
8
0
10
464.168788
20
3154.343358
30
0.0
11
464.168788
21
3152.143358
31
0.0
0
LINE
8
0
10
464.168788
20
3152.143358
30
0.0
11
463.418788
21
3151.393358
31
0.0
0
LINE
8
0
10
463.418788
20
3151.393358
30
0.0
11
464.479195
21
3149.896516
31
0.0
0
ARC
8
0
10
464.968788
20
3150.243358
30
0.0
40
0.600000
50
215.314899
51
0.000000
0
LINE
8
0
10
465.568788
20
3150.243358
30
0.0
11
465.568788
21
3155.143358
31
0.0
0
ARC
8
0
10
465.068788
20
3155.143358
30
0.0
40
0.500000
50
0.000000
51
90.000000
0
LINE
8
0
10
465.068788
20
3155.643358
30
0.0
11
461.968788
21
3155.643358
31
0.0
0
LINE
8
0
10
461.968788
20
3155.643358
30
0.0
11
461.968788
21
3173.043358
31
0.0
0
LINE
8
0
10
461.968788
20
3173.043358
30
0.0
11
468.868788
21
3173.043358
31
0.0
0
LINE
8
0
10
468.868788
20
3173.043358
30
0.0
11
468.868788
21
3163.843358
31
0.0
0
LINE
8
0
10
468.868788
20
3163.843358
30
0.0
11
472.340935
21
3153.872691
31
0.0
0
ARC
8
0
10
473.285312
20
3154.201557
30
0.0
40
1.000000
50
199.199966
51
233.338667
0
LINE
8
0
10
472.688228
20
3153.399378
30
0.0
11
477.490254
21
3149.825096
31
0.0
0
ARC
8
0
10
478.087338
20
3150.627275
30
0.0
40
1.000000
50
233.338667
51
318.280024
0
LINE
8
0
10
478.833745
20
3149.961784
30
0.0
11
480.291991
21
3151.597336
31
0.0
0
ARC
8
0
10
479.918788
20
3151.930081
30
0.0
40
0.500000
50
318.280024
51
103.970445
0
ARC
8
0
10
479.677366
20
3151.930081
30
0.0
40
0.500000
50
76.029555
51
144.992486
0
LINE
8
0
10
479.267828
20
3152.216923
30
0.0
11
478.489194
21
3151.289106
31
0.0
0
ARC
8
0
10
478.106192
20
3151.610525
30
0.0
40
0.500000
50
233.338667
51
319.996243
0
LINE
8
0
10
477.807651
20
3151.209436
30
0.0
11
473.612224
21
3154.332208
31
0.0
0
ARC
8
0
10
473.791350
20
3154.572862
30
0.0
40
0.300000
50
199.199966
51
233.338667
0
LINE
8
0
10
473.508037
20
3154.474202
30
0.0
11
470.384185
21
3163.444698
31
0.0
0
ARC
8
0
10
470.667498
20
3163.543358
30
0.0
40
0.300000
50
90.000000
51
199.199966
0
LINE
8
0
10
470.667498
20
3163.843358
30
0.0
11
472.168788
21
3163.843358
31
0.0
0
ARC
8
0
10
472.168788
20
3164.343358
30
0.0
40
0.500000
50
270.000000
51
0.000000
0
LINE
8
0
10
472.668788
20
3164.343358
30
0.0
11
472.668788
21
3166.593358
31
0.0
0
ATTDEF
8
0
10
466.918788
20
3174.343358
30
0.0
40
3.5
1

3

2
VC_START
70
0
0
ATTDEF
8
0
10
460.668788
20
3154.343358
30
0.0
40
3.5
1

3

2
VC_END
70
0
0
ATTDEF
8
0
10
480.418788
20
3149.627275
30
0.0
40
3.5
1

3

2
FP_LCS_ORIG
70
0
0
ATTDEF
8
0
10
470.418788
20
3149.627275
30
0.0
40
3.5
1

3

2
FP_LCS_HOT
70
0
0
ATTDEF
8
0
10
480.418788
20
3159.627275
30
0.0
40
3.5
1

3

2
FP_LCS_INTERN
70
0
0
ATTDEF
8
0
10
0.000000
20
0.000000
30
0.0
40
3.5
1

3

2
PANE_WIDTH:0
70
0
0
ATTDEF
8
0
10
0.000000
20
0.000000
30
0.0
40
3.5
1

3

2
MIN_VETRO:0
70
0
0
ATTDEF
8
0
10
0.000000
20
0.000000
30
0.0
40
3.5
1

3

2
MAX_VETRO:0
70
0
0
ATTDEF
8
0
10
0.000000
20
0.000000
30
0.0
40
3.5
1

3

2
JX:0
70
0
0
ATTDEF
8
0
10
0.000000
20
0.000000
30
0.0
40
3.5
1

3

2
WX:0
70
0
0
ATTDEF
8
0
10
0.000000
20
0.000000
30
0.0
40
3.5
1

3

2
JY:0
70
0
0
ATTDEF
8
0
10
0.000000
20
0.000000
30
0.0
40
3.5
1

3

2
WY:0
70
0
0
ATTDEF
8
0
10
0.000000
20
0.000000
30
0.0
40
3.5
1

3

2
DESC:Junquillo clip recto de 12mm.
70
0
0
ATTDEF
8
0
10
0.000000
20
0.000000
30
0.0
40
3.5
1

3

2
DENS:0.2619
70
0
0
ATTDEF
8
0
10
0.000000
20
0.000000
30
0.0
40
3.5
1

3

2
TDEV:14.77
70
0
0
ATTDEF
8
0
10
0.000000
20
0.000000
30
0.0
40
3.5
1

3

2
TDEV2:0
70
0
0
ATTDEF
8
0
10
0.000000
20
0.000000
30
0.0
40
3.5
1

3

2
TDEV3:0
70
0
0
ATTDEF
8
0
10
0.000000
20
0.000000
30
0.0
40
3.5
1

3

2
TDEV4:0
70
0
0
ATTDEF
8
0
10
0.000000
20
0.000000
30
0.0
40
3.5
1

3

2
TDEV5:0
70
0
0
ATTDEF
8
0
10
0.000000
20
0.000000
30
0.0
40
3.5
1

3

2
PANE_WIDTH:0
70
0
0
ATTDEF
8
0
10
0.000000
20
0.000000
30
0.0
40
3.5
1

3

2
MIN_VETRO:0
70
0
0
ATTDEF
8
0
10
0.000000
20
0.000000
30
0.0
40
3.5
1

3

2
MAX_VETRO:0
70
0
0
ATTDEF
8
0
10
0.000000
20
0.000000
30
0.0
40
3.5
1

3

2
JX:0
70
0
0
ATTDEF
8
0
10
0.000000
20
0.000000
30
0.0
40
3.5
1

3

2
WX:0
70
0
0
ATTDEF
8
0
10
0.000000
20
0.000000
30
0.0
40
3.5
1

3

2
JY:0
70
0
0
ATTDEF
8
0
10
0.000000
20
0.000000
30
0.0
40
3.5
1

3

2
WY:0
70
0
0
ENDSEC
0
EOF
