0
SECTION
2
ENTITIES
0
ARC
8
0
10
8281.072503
20
216.018048
30
0.0
40
0.500000
50
270.000000
51
360.000000
0
LINE
8
0
10
8281.072503
20
215.518048
30
0.0
11
8279.072503
21
215.518048
31
0.0
0
ARC
8
0
10
8279.072503
20
215.018048
30
0.0
40
0.500000
50
90.000000
51
180.000000
0
LINE
8
0
10
8278.572503
20
215.018048
30
0.0
11
8278.572503
21
214.618048
31
0.0
0
ARC
8
0
10
8279.072503
20
214.618048
30
0.0
40
0.500000
50
180.000000
51
270.000000
0
LINE
8
0
10
8279.072503
20
214.118048
30
0.0
11
8280.522503
21
214.118048
31
0.0
0
LINE
8
0
10
8280.522503
20
214.118048
30
0.0
11
8280.522503
21
212.418048
31
0.0
0
LINE
8
0
10
8280.522503
20
212.418048
30
0.0
11
8274.272503
21
212.418048
31
0.0
0
LINE
8
0
10
8274.272503
20
212.418048
30
0.0
11
8273.772503
21
211.918048
31
0.0
0
LINE
8
0
10
8273.772503
20
211.918048
30
0.0
11
8273.272503
21
212.418048
31
0.0
0
LINE
8
0
10
8273.272503
20
212.418048
30
0.0
11
8257.272503
21
212.418048
31
0.0
0
LINE
8
0
10
8257.272503
20
212.418048
30
0.0
11
8256.772503
21
211.918048
31
0.0
0
LINE
8
0
10
8256.772503
20
211.918048
30
0.0
11
8256.272503
21
212.418048
31
0.0
0
LINE
8
0
10
8256.272503
20
212.418048
30
0.0
11
8250.022503
21
212.418048
31
0.0
0
LINE
8
0
10
8250.022503
20
212.418048
30
0.0
11
8250.022503
21
214.118048
31
0.0
0
LINE
8
0
10
8250.022503
20
214.118048
30
0.0
11
8251.472503
21
214.118048
31
0.0
0
ARC
8
0
10
8251.472503
20
214.618048
30
0.0
40
0.500000
50
270.000000
51
360.000000
0
LINE
8
0
10
8251.972503
20
214.618048
30
0.0
11
8251.972503
21
215.018048
31
0.0
0
ARC
8
0
10
8251.472503
20
215.018048
30
0.0
40
0.500000
50
360.000000
51
90.000000
0
LINE
8
0
10
8251.472503
20
215.518048
30
0.0
11
8249.472503
21
215.518048
31
0.0
0
ARC
8
0
10
8249.472503
20
216.018048
30
0.0
40
0.500000
50
180.000000
51
270.000000
0
LINE
8
0
10
8248.972503
20
216.018048
30
0.0
11
8248.972503
21
218.618048
31
0.0
0
LINE
8
0
10
8248.972503
20
218.618048
30
0.0
11
8251.972503
21
218.618048
31
0.0
0
LINE
8
0
10
8251.972503
20
218.618048
30
0.0
11
8251.972503
21
219.418048
31
0.0
0
LINE
8
0
10
8251.972503
20
219.418048
30
0.0
11
8250.972503
21
220.418048
31
0.0
0
LINE
8
0
10
8250.972503
20
220.418048
30
0.0
11
8247.672503
21
220.418048
31
0.0
0
ARC
8
0
10
8247.672503
20
219.918048
30
0.0
40
0.500000
50
90.000000
51
180.000000
0
LINE
8
0
10
8247.172503
20
219.918048
30
0.0
11
8247.172503
21
200.918048
31
0.0
0
ARC
8
0
10
8247.672503
20
200.918048
30
0.0
40
0.500000
50
180.000000
51
270.000000
0
LINE
8
0
10
8247.672503
20
200.418048
30
0.0
11
8249.322503
21
200.418048
31
0.0
0
ARC
8
0
10
8249.322503
20
200.918048
30
0.0
40
0.500000
50
270.000000
51
360.000000
0
LINE
8
0
10
8249.822503
20
200.918048
30
0.0
11
8249.822503
21
202.318048
31
0.0
0
LINE
8
0
10
8249.822503
20
202.318048
30
0.0
11
8248.972503
21
202.318048
31
0.0
0
LINE
8
0
10
8248.972503
20
202.318048
30
0.0
11
8248.972503
21
209.918048
31
0.0
0
ARC
8
0
10
8249.472503
20
209.918048
30
0.0
40
0.500000
50
90.000000
51
180.000000
0
LINE
8
0
10
8249.472503
20
210.418048
30
0.0
11
8264.772503
21
210.418048
31
0.0
0
LINE
8
0
10
8264.772503
20
210.418048
30
0.0
11
8265.272503
21
210.918048
31
0.0
0
LINE
8
0
10
8265.272503
20
210.918048
30
0.0
11
8265.772503
21
210.418048
31
0.0
0
LINE
8
0
10
8265.772503
20
210.418048
30
0.0
11
8281.072503
21
210.418048
31
0.0
0
ARC
8
0
10
8281.072503
20
209.918048
30
0.0
40
0.500000
50
360.000000
51
90.000000
0
LINE
8
0
10
8281.572503
20
209.918048
30
0.0
11
8281.572503
21
202.318048
31
0.0
0
LINE
8
0
10
8281.572503
20
202.318048
30
0.0
11
8280.722503
21
202.318048
31
0.0
0
LINE
8
0
10
8280.722503
20
202.318048
30
0.0
11
8280.722503
21
200.918048
31
0.0
0
ARC
8
0
10
8281.222503
20
200.918048
30
0.0
40
0.500000
50
180.000000
51
270.000000
0
LINE
8
0
10
8281.222503
20
200.418048
30
0.0
11
8282.872503
21
200.418048
31
0.0
0
ARC
8
0
10
8282.872503
20
200.918048
30
0.0
40
0.500000
50
270.000000
51
360.000000
0
LINE
8
0
10
8283.372503
20
200.918048
30
0.0
11
8283.372503
21
219.918048
31
0.0
0
ARC
8
0
10
8282.872503
20
219.918048
30
0.0
40
0.500000
50
360.000000
51
90.000000
0
LINE
8
0
10
8282.872503
20
220.418048
30
0.0
11
8279.572503
21
220.418048
31
0.0
0
LINE
8
0
10
8279.572503
20
220.418048
30
0.0
11
8278.572503
21
219.418048
31
0.0
0
LINE
8
0
10
8278.572503
20
219.418048
30
0.0
11
8278.572503
21
218.618048
31
0.0
0
LINE
8
0
10
8278.572503
20
218.618048
30
0.0
11
8281.572503
21
218.618048
31
0.0
0
LINE
8
0
10
8281.572503
20
218.618048
30
0.0
11
8281.572503
21
216.018048
31
0.0
0
ATTDEF
8
0
10
0.000000
20
0.000000
30
0.0
40
3.5
1

3

2
PANE_WIDTH:0
70
0
0
ATTDEF
8
0
10
0.000000
20
0.000000
30
0.0
40
3.5
1

3

2
MIN_VETRO:0
70
0
0
ATTDEF
8
0
10
0.000000
20
0.000000
30
0.0
40
3.5
1

3

2
MAX_VETRO:0
70
0
0
ATTDEF
8
0
10
0.000000
20
0.000000
30
0.0
40
3.5
1

3

2
JX:0
70
0
0
ATTDEF
8
0
10
0.000000
20
0.000000
30
0.0
40
3.5
1

3

2
WX:0
70
0
0
ATTDEF
8
0
10
0.000000
20
0.000000
30
0.0
40
3.5
1

3

2
JY:0
70
0
0
ATTDEF
8
0
10
0.000000
20
0.000000
30
0.0
40
3.5
1

3

2
WY:0
70
0
0
ATTDEF
8
0
10
0.000000
20
0.000000
30
0.0
40
3.5
1

3

2
DESC:Marco para celosia
70
0
0
ATTDEF
8
0
10
0.000000
20
0.000000
30
0.0
40
3.5
1

3

2
DENS:0.4347
70
0
0
ATTDEF
8
0
10
0.000000
20
0.000000
30
0.0
40
3.5
1

3

2
TDEV:16.87
70
0
0
ATTDEF
8
0
10
0.000000
20
0.000000
30
0.0
40
3.5
1

3

2
TDEV2:0
70
0
0
ATTDEF
8
0
10
0.000000
20
0.000000
30
0.0
40
3.5
1

3

2
TDEV3:0
70
0
0
ATTDEF
8
0
10
0.000000
20
0.000000
30
0.0
40
3.5
1

3

2
TDEV4:0
70
0
0
ATTDEF
8
0
10
0.000000
20
0.000000
30
0.0
40
3.5
1

3

2
TDEV5:0
70
0
0
ATTDEF
8
0
10
0.000000
20
0.000000
30
0.0
40
3.5
1

3

2
PANE_WIDTH:0
70
0
0
ATTDEF
8
0
10
0.000000
20
0.000000
30
0.0
40
3.5
1

3

2
MIN_VETRO:0
70
0
0
ATTDEF
8
0
10
0.000000
20
0.000000
30
0.0
40
3.5
1

3

2
MAX_VETRO:0
70
0
0
ATTDEF
8
0
10
0.000000
20
0.000000
30
0.0
40
3.5
1

3

2
JX:0
70
0
0
ATTDEF
8
0
10
0.000000
20
0.000000
30
0.0
40
3.5
1

3

2
WX:0
70
0
0
ATTDEF
8
0
10
0.000000
20
0.000000
30
0.0
40
3.5
1

3

2
JY:0
70
0
0
ATTDEF
8
0
10
0.000000
20
0.000000
30
0.0
40
3.5
1

3

2
WY:0
70
0
0
ATTDEF
8
0
10
8250.022503
20
212.418048
30
0.0
40
3.5
1

3

2
VC_START
70
0
0
ATTDEF
8
0
10
8248.497503
20
200.418048
30
0.0
40
3.5
1

3

2
VC_END
70
0
0
ATTDEF
8
0
10
8247.172503
20
200.418048
30
0.0
40
3.5
1

3

2
FP_LCS_ORIG
70
0
0
ATTDEF
8
0
10
8257.172503
20
200.418048
30
0.0
40
3.5
1

3

2
FP_LCS_HOT
70
0
0
ATTDEF
8
0
10
8247.172503
20
210.418048
30
0.0
40
3.5
1

3

2
FP_LCS_INTERN
70
0
0
ENDSEC
0
EOF
