0
SECTION
2
ENTITIES
0
LINE
8
0
10
58.940755
20
66.193184
30
0.0
11
66.440755
21
66.193184
31
0.0
0
LINE
8
0
10
66.440755
20
66.193184
30
0.0
11
66.740755
21
66.493184
31
0.0
0
LINE
8
0
10
66.740755
20
66.493184
30
0.0
11
67.040755
21
66.193184
31
0.0
0
LINE
8
0
10
67.040755
20
66.193184
30
0.0
11
80.240755
21
66.193184
31
0.0
0
ARC
8
0
10
80.240755
20
66.693184
30
0.0
40
0.500000
50
270.000000
51
360.000000
0
LINE
8
0
10
80.740755
20
66.693184
30
0.0
11
80.740755
21
66.893184
31
0.0
0
ARC
8
0
10
80.240755
20
66.893184
30
0.0
40
0.500000
50
360.000000
51
90.000000
0
LINE
8
0
10
80.240755
20
67.393184
30
0.0
11
56.940755
21
67.393184
31
0.0
0
ARC
8
0
10
56.940755
20
67.193184
30
0.0
40
0.200000
50
90.000000
51
180.000000
0
LINE
8
0
10
56.740755
20
67.193184
30
0.0
11
56.740755
21
29.593184
31
0.0
0
ARC
8
0
10
56.940755
20
29.593184
30
0.0
40
0.200000
50
180.000000
51
270.000000
0
LINE
8
0
10
56.940755
20
29.393184
30
0.0
11
62.890755
21
29.393184
31
0.0
0
ARC
8
0
10
62.890755
20
29.693184
30
0.0
40
0.300000
50
270.000000
51
360.000000
0
LINE
8
0
10
63.190755
20
29.693184
30
0.0
11
63.190755
21
30.493184
31
0.0
0
ARC
8
0
10
62.890755
20
30.493184
30
0.0
40
0.300000
50
360.000000
51
90.000000
0
LINE
8
0
10
62.890755
20
30.793184
30
0.0
11
62.840755
21
30.793184
31
0.0
0
LINE
8
0
10
62.840755
20
30.793184
30
0.0
11
62.840755
21
34.893184
31
0.0
0
ARC
8
0
10
62.640755
20
34.893184
30
0.0
40
0.200000
50
360.000000
51
90.000000
0
LINE
8
0
10
62.640755
20
35.093184
30
0.0
11
61.840755
21
35.093184
31
0.0
0
ARC
8
0
10
61.840755
20
34.893184
30
0.0
40
0.200000
50
90.000000
51
180.000000
0
LINE
8
0
10
61.640755
20
34.893184
30
0.0
11
61.640755
21
30.593184
31
0.0
0
LINE
8
0
10
61.640755
20
30.593184
30
0.0
11
57.940755
21
30.593184
31
0.0
0
LINE
8
0
10
57.940755
20
30.593184
30
0.0
11
57.940755
21
47.593184
31
0.0
0
LINE
8
0
10
57.940755
20
47.593184
30
0.0
11
61.640755
21
47.593184
31
0.0
0
LINE
8
0
10
61.640755
20
47.593184
30
0.0
11
61.640755
21
43.293184
31
0.0
0
ARC
8
0
10
61.840755
20
43.293184
30
0.0
40
0.200000
50
180.000000
51
270.000000
0
LINE
8
0
10
61.840755
20
43.093184
30
0.0
11
62.640755
21
43.093184
31
0.0
0
ARC
8
0
10
62.640755
20
43.293184
30
0.0
40
0.200000
50
270.000000
51
360.000000
0
LINE
8
0
10
62.840755
20
43.293184
30
0.0
11
62.840755
21
48.593184
31
0.0
0
ARC
8
0
10
62.640755
20
48.593184
30
0.0
40
0.200000
50
360.000000
51
90.000000
0
LINE
8
0
10
62.640755
20
48.793184
30
0.0
11
57.940755
21
48.793184
31
0.0
0
LINE
8
0
10
57.940755
20
48.793184
30
0.0
11
57.940755
21
65.193184
31
0.0
0
ARC
8
0
10
58.940755
20
65.193184
30
0.0
40
1.000000
50
90.000000
51
180.000000
0
ATTDEF
8
0
10
0.000000
20
0.000000
30
0.0
40
3.5
1

3

2
PANE_WIDTH:0
70
0
0
ATTDEF
8
0
10
0.000000
20
0.000000
30
0.0
40
3.5
1

3

2
MIN_VETRO:0
70
0
0
ATTDEF
8
0
10
0.000000
20
0.000000
30
0.0
40
3.5
1

3

2
MAX_VETRO:0
70
0
0
ATTDEF
8
0
10
0.000000
20
0.000000
30
0.0
40
3.5
1

3

2
JX:0
70
0
0
ATTDEF
8
0
10
0.000000
20
0.000000
30
0.0
40
3.5
1

3

2
WX:0
70
0
0
ATTDEF
8
0
10
0.000000
20
0.000000
30
0.0
40
3.5
1

3

2
JY:0
70
0
0
ATTDEF
8
0
10
0.000000
20
0.000000
30
0.0
40
3.5
1

3

2
WY:0
70
0
0
ATTDEF
8
0
10
0.000000
20
0.000000
30
0.0
40
3.5
1

3

2
DESC:Tapajuntas atornillar 38 mm
70
0
0
ATTDEF
8
0
10
0.000000
20
0.000000
30
0.0
40
3.5
1

3

2
DENS:0.2592
70
0
0
ATTDEF
8
0
10
0.000000
20
0.000000
30
0.0
40
3.5
1

3

2
TDEV:16.08
70
0
0
ATTDEF
8
0
10
0.000000
20
0.000000
30
0.0
40
3.5
1

3

2
TDEV2:0
70
0
0
ATTDEF
8
0
10
0.000000
20
0.000000
30
0.0
40
3.5
1

3

2
TDEV3:0
70
0
0
ATTDEF
8
0
10
0.000000
20
0.000000
30
0.0
40
3.5
1

3

2
TDEV4:0
70
0
0
ATTDEF
8
0
10
0.000000
20
0.000000
30
0.0
40
3.5
1

3

2
TDEV5:0
70
0
0
ATTDEF
8
0
10
0.000000
20
0.000000
30
0.0
40
3.5
1

3

2
PANE_WIDTH:0
70
0
0
ATTDEF
8
0
10
0.000000
20
0.000000
30
0.0
40
3.5
1

3

2
MIN_VETRO:0
70
0
0
ATTDEF
8
0
10
0.000000
20
0.000000
30
0.0
40
3.5
1

3

2
MAX_VETRO:0
70
0
0
ATTDEF
8
0
10
0.000000
20
0.000000
30
0.0
40
3.5
1

3

2
JX:0
70
0
0
ATTDEF
8
0
10
0.000000
20
0.000000
30
0.0
40
3.5
1

3

2
WX:0
70
0
0
ATTDEF
8
0
10
0.000000
20
0.000000
30
0.0
40
3.5
1

3

2
JY:0
70
0
0
ATTDEF
8
0
10
0.000000
20
0.000000
30
0.0
40
3.5
1

3

2
WY:0
70
0
0
ATTDEF
8
0
10
68.590755
20
67.393184
30
0.0
40
3.5
1

3

2
VC_START
70
0
0
ATTDEF
8
0
10
59.915755
20
29.393184
30
0.0
40
3.5
1

3

2
VC_END
70
0
0
ATTDEF
8
0
10
56.740755
20
29.393184
30
0.0
40
3.5
1

3

2
FP_LCS_ORIG
70
0
0
ATTDEF
8
0
10
66.740755
20
29.393184
30
0.0
40
3.5
1

3

2
FP_LCS_HOT
70
0
0
ATTDEF
8
0
10
56.740755
20
39.393184
30
0.0
40
3.5
1

3

2
FP_LCS_INTERN
70
0
0
ENDSEC
0
EOF
