0
SECTION
2
ENTITIES
0
ARC
8
00_POLIAMIDAS
10
249.113143
20
30.937684
30
0.0
40
0.500000
50
32.000000
51
90.000000
0
LINE
8
00_POLIAMIDAS
10
249.537167
20
31.202643
30
0.0
11
251.020566
21
28.828708
31
0.0
0
ARC
8
00_POLIAMIDAS
10
251.274981
20
28.987684
30
0.0
40
0.300000
50
212.000000
51
270.000000
0
LINE
8
00_POLIAMIDAS
10
251.274981
20
28.687684
30
0.0
11
252.298570
21
28.687684
31
0.0
0
ARC
8
00_POLIAMIDAS
10
252.298570
20
27.487684
30
0.0
40
1.200000
50
60.000000
51
90.000000
0
LINE
8
00_POLIAMIDAS
10
252.898570
20
28.526914
30
0.0
11
254.542352
21
27.577876
31
0.0
0
ARC
8
00_POLIAMIDAS
10
254.692352
20
27.837684
30
0.0
40
0.300000
50
240.000000
51
270.000000
0
LINE
8
00_POLIAMIDAS
10
254.692352
20
27.537684
30
0.0
11
254.872737
21
27.537684
31
0.0
0
ARC
8
00_POLIAMIDAS
10
254.872737
20
27.937684
30
0.0
40
0.400000
50
270.000000
51
0.000000
0
LINE
8
00_POLIAMIDAS
10
255.272737
20
27.937684
30
0.0
11
255.272737
21
28.537684
31
0.0
0
LINE
8
00_POLIAMIDAS
10
255.272737
20
28.537684
30
0.0
11
255.172737
21
28.537684
31
0.0
0
LINE
8
00_POLIAMIDAS
10
255.172737
20
28.537684
30
0.0
11
255.172737
21
28.912684
31
0.0
0
ARC
8
00_POLIAMIDAS
10
254.972737
20
28.912684
30
0.0
40
0.200000
50
0.000000
51
90.000000
0
LINE
8
00_POLIAMIDAS
10
254.972737
20
29.112684
30
0.0
11
254.813211
21
29.112684
31
0.0
0
ARC
8
00_POLIAMIDAS
10
254.522737
20
29.637684
30
0.0
40
0.600000
50
61.044976
51
298.955024
0
LINE
8
00_POLIAMIDAS
10
254.813211
20
30.162684
30
0.0
11
254.972737
21
30.162684
31
0.0
0
ARC
8
00_POLIAMIDAS
10
254.972737
20
30.362684
30
0.0
40
0.200000
50
270.000000
51
0.000000
0
LINE
8
00_POLIAMIDAS
10
255.172737
20
30.362684
30
0.0
11
255.172737
21
30.737684
31
0.0
0
LINE
8
00_POLIAMIDAS
10
255.172737
20
30.737684
30
0.0
11
255.272737
21
30.737684
31
0.0
0
LINE
8
00_POLIAMIDAS
10
255.272737
20
30.737684
30
0.0
11
255.272737
21
31.337684
31
0.0
0
ARC
8
00_POLIAMIDAS
10
254.872737
20
31.337684
30
0.0
40
0.400000
50
0.000000
51
90.000000
0
LINE
8
00_POLIAMIDAS
10
254.872737
20
31.737684
30
0.0
11
254.692352
21
31.737684
31
0.0
0
ARC
8
00_POLIAMIDAS
10
254.692352
20
31.437684
30
0.0
40
0.300000
50
90.000000
51
120.000000
0
LINE
8
00_POLIAMIDAS
10
254.542352
20
31.697491
30
0.0
11
252.898570
21
30.748453
31
0.0
0
ARC
8
00_POLIAMIDAS
10
252.298570
20
31.787684
30
0.0
40
1.200000
50
270.000000
51
300.000000
0
LINE
8
00_POLIAMIDAS
10
252.298570
20
30.587684
30
0.0
11
252.272737
21
30.587684
31
0.0
0
ARC
8
00_POLIAMIDAS
10
252.272737
20
30.787684
30
0.0
40
0.200000
50
212.000000
51
270.000000
0
LINE
8
00_POLIAMIDAS
10
252.103127
20
30.681700
30
0.0
11
250.590354
21
33.102643
31
0.0
0
ARC
8
00_POLIAMIDAS
10
250.166330
20
32.837684
30
0.0
40
0.500000
50
32.000000
51
90.000000
0
LINE
8
00_POLIAMIDAS
10
250.166330
20
33.337684
30
0.0
11
244.272737
21
33.337684
31
0.0
0
LINE
8
00_POLIAMIDAS
10
244.272737
20
33.337684
30
0.0
11
238.379144
21
33.337684
31
0.0
0
ARC
8
00_POLIAMIDAS
10
238.379144
20
32.837684
30
0.0
40
0.500000
50
90.000000
51
148.000000
0
LINE
8
00_POLIAMIDAS
10
237.955120
20
33.102643
30
0.0
11
236.442346
21
30.681700
31
0.0
0
ARC
8
00_POLIAMIDAS
10
236.272737
20
30.787684
30
0.0
40
0.200000
50
270.000000
51
328.000000
0
LINE
8
00_POLIAMIDAS
10
236.272737
20
30.587684
30
0.0
11
236.246904
21
30.587684
31
0.0
0
ARC
8
00_POLIAMIDAS
10
236.246904
20
31.787684
30
0.0
40
1.200000
50
240.000000
51
270.000000
0
LINE
8
00_POLIAMIDAS
10
235.646904
20
30.748453
30
0.0
11
234.003122
21
31.697491
31
0.0
0
ARC
8
00_POLIAMIDAS
10
233.853122
20
31.437684
30
0.0
40
0.300000
50
60.000000
51
90.000000
0
LINE
8
00_POLIAMIDAS
10
233.853122
20
31.737684
30
0.0
11
233.672737
21
31.737684
31
0.0
0
ARC
8
00_POLIAMIDAS
10
233.672737
20
31.337684
30
0.0
40
0.400000
50
90.000000
51
180.000000
0
LINE
8
00_POLIAMIDAS
10
233.272737
20
31.337684
30
0.0
11
233.272737
21
30.737684
31
0.0
0
LINE
8
00_POLIAMIDAS
10
233.272737
20
30.737684
30
0.0
11
233.372737
21
30.737684
31
0.0
0
LINE
8
00_POLIAMIDAS
10
233.372737
20
30.737684
30
0.0
11
233.372737
21
30.362684
31
0.0
0
ARC
8
00_POLIAMIDAS
10
233.572737
20
30.362684
30
0.0
40
0.200000
50
180.000000
51
270.000000
0
LINE
8
00_POLIAMIDAS
10
233.572737
20
30.162684
30
0.0
11
233.732263
21
30.162684
31
0.0
0
ARC
8
00_POLIAMIDAS
10
234.022737
20
29.637684
30
0.0
40
0.600000
50
241.044976
51
118.955024
0
LINE
8
00_POLIAMIDAS
10
233.732263
20
29.112684
30
0.0
11
233.572737
21
29.112684
31
0.0
0
ARC
8
00_POLIAMIDAS
10
233.572737
20
28.912684
30
0.0
40
0.200000
50
90.000000
51
180.000000
0
LINE
8
00_POLIAMIDAS
10
233.372737
20
28.912684
30
0.0
11
233.372737
21
28.537684
31
0.0
0
LINE
8
00_POLIAMIDAS
10
233.372737
20
28.537684
30
0.0
11
233.272737
21
28.537684
31
0.0
0
LINE
8
00_POLIAMIDAS
10
233.272737
20
28.537684
30
0.0
11
233.272737
21
27.937684
31
0.0
0
ARC
8
00_POLIAMIDAS
10
233.672737
20
27.937684
30
0.0
40
0.400000
50
180.000000
51
270.000000
0
LINE
8
00_POLIAMIDAS
10
233.672737
20
27.537684
30
0.0
11
233.853122
21
27.537684
31
0.0
0
ARC
8
00_POLIAMIDAS
10
233.853122
20
27.837684
30
0.0
40
0.300000
50
270.000000
51
300.000000
0
LINE
8
00_POLIAMIDAS
10
234.003122
20
27.577876
30
0.0
11
235.646904
21
28.526914
31
0.0
0
ARC
8
00_POLIAMIDAS
10
236.246904
20
27.487684
30
0.0
40
1.200000
50
90.000000
51
120.000000
0
LINE
8
00_POLIAMIDAS
10
236.246904
20
28.687684
30
0.0
11
237.270493
21
28.687684
31
0.0
0
ARC
8
00_POLIAMIDAS
10
237.270493
20
28.987684
30
0.0
40
0.300000
50
270.000000
51
328.000000
0
LINE
8
00_POLIAMIDAS
10
237.524908
20
28.828708
30
0.0
11
239.008307
21
31.202643
31
0.0
0
ARC
8
00_POLIAMIDAS
10
239.432331
20
30.937684
30
0.0
40
0.500000
50
90.000000
51
148.000000
0
LINE
8
00_POLIAMIDAS
10
239.432331
20
31.437684
30
0.0
11
244.272737
21
31.437684
31
0.0
0
LINE
8
00_POLIAMIDAS
10
244.272737
20
31.437684
30
0.0
11
249.113143
21
31.437684
31
0.0
0
LINE
8
00_POLIAMIDAS
10
233.794844
20
30.192719
30
0.0
11
234.825066
21
31.222942
31
0.0
0
LINE
8
00_POLIAMIDAS
10
233.451574
20
27.604386
30
0.0
11
239.184872
21
33.337684
31
0.0
0
LINE
8
00_POLIAMIDAS
10
236.779936
20
28.687684
30
0.0
11
238.530926
21
30.438673
31
0.0
0
LINE
8
00_POLIAMIDAS
10
239.529936
20
31.437684
30
0.0
11
241.429936
21
33.337684
31
0.0
0
LINE
8
00_POLIAMIDAS
10
241.775000
20
31.437684
30
0.0
11
243.675000
21
33.337684
31
0.0
0
LINE
8
00_POLIAMIDAS
10
233.560655
20
20.978275
30
0.0
11
234.695407
21
22.113026
31
0.0
0
LINE
8
00_POLIAMIDAS
10
244.020064
20
31.437684
30
0.0
11
245.920064
21
33.337684
31
0.0
0
LINE
8
00_POLIAMIDAS
10
233.347500
20
18.520055
30
0.0
11
236.230466
21
21.403022
31
0.0
0
LINE
8
00_POLIAMIDAS
10
246.265128
20
31.437684
30
0.0
11
248.165128
21
33.337684
31
0.0
0
LINE
8
00_POLIAMIDAS
10
236.457366
20
19.384857
30
0.0
11
237.836208
21
20.763700
31
0.0
0
LINE
8
00_POLIAMIDAS
10
248.510192
20
31.437684
30
0.0
11
250.367804
21
33.295295
31
0.0
0
LINE
8
00_POLIAMIDAS
10
237.320741
20
18.003168
30
0.0
11
238.699583
21
19.382011
31
0.0
0
LINE
8
00_POLIAMIDAS
10
249.915214
20
30.597641
30
0.0
11
251.294056
21
31.976484
31
0.0
0
LINE
8
00_POLIAMIDAS
10
238.319157
20
16.756521
30
0.0
11
240.215546
21
18.652909
31
0.0
0
LINE
8
00_POLIAMIDAS
10
250.778589
20
29.215952
30
0.0
11
252.175531
21
30.612895
31
0.0
0
LINE
8
00_POLIAMIDAS
10
240.560610
20
16.752909
30
0.0
11
242.460610
21
18.652909
31
0.0
0
LINE
8
00_POLIAMIDAS
10
252.481378
20
28.673677
30
0.0
11
255.256883
21
31.449182
31
0.0
0
LINE
8
00_POLIAMIDAS
10
242.805674
20
16.752909
30
0.0
11
244.705674
21
18.652909
31
0.0
0
LINE
8
00_POLIAMIDAS
10
253.964350
20
27.911586
30
0.0
11
255.110467
21
29.057702
31
0.0
0
LINE
8
00_POLIAMIDAS
10
245.050738
20
16.752909
30
0.0
11
246.950738
21
18.652909
31
0.0
0
LINE
8
00_POLIAMIDAS
10
247.295802
20
16.752909
30
0.0
11
249.204155
21
18.661262
31
0.0
0
LINE
8
00_POLIAMIDAS
10
249.714275
20
19.171382
30
0.0
11
251.945802
21
21.402909
31
0.0
0
LINE
8
00_POLIAMIDAS
10
249.540866
20
16.752909
30
0.0
11
251.947010
21
19.159053
31
0.0
0
LINE
8
00_POLIAMIDAS
10
252.290866
20
19.502909
30
0.0
11
255.187585
21
22.399629
31
0.0
0
LINE
8
00_POLIAMIDAS
10
253.834691
20
18.801670
30
0.0
11
254.960930
21
19.927909
31
0.0
0
LINE
8
00_POLIAMIDAS
10
233.450108
20
18.420590
30
0.0
11
233.340417
21
18.530281
31
0.0
0
LINE
8
00_POLIAMIDAS
10
235.093265
20
19.022497
30
0.0
11
234.227009
21
19.888753
31
0.0
0
LINE
8
00_POLIAMIDAS
10
239.607916
20
16.752909
30
0.0
11
233.807916
21
22.552909
31
0.0
0
LINE
8
00_POLIAMIDAS
10
241.852980
20
16.752909
30
0.0
11
239.952980
21
18.652909
31
0.0
0
LINE
8
00_POLIAMIDAS
10
237.826244
20
20.779645
30
0.0
11
237.202980
21
21.402909
31
0.0
0
LINE
8
00_POLIAMIDAS
10
244.098044
20
16.752909
30
0.0
11
242.198044
21
18.652909
31
0.0
0
LINE
8
00_POLIAMIDAS
10
246.343108
20
16.752909
30
0.0
11
244.443108
21
18.652909
31
0.0
0
LINE
8
00_POLIAMIDAS
10
234.963606
20
28.132412
30
0.0
11
234.057336
21
29.038682
31
0.0
0
LINE
8
00_POLIAMIDAS
10
248.588172
20
16.752909
30
0.0
11
246.688172
21
18.652909
31
0.0
0
LINE
8
00_POLIAMIDAS
10
236.653398
20
28.687684
30
0.0
11
233.608577
21
31.732505
31
0.0
0
LINE
8
00_POLIAMIDAS
10
250.593370
20
16.992776
30
0.0
11
248.933237
21
18.652909
31
0.0
0
LINE
8
00_POLIAMIDAS
10
237.998897
20
29.587249
30
0.0
11
236.620054
21
30.966092
31
0.0
0
LINE
8
00_POLIAMIDAS
10
251.456745
20
18.374465
30
0.0
11
250.077902
21
19.753308
31
0.0
0
LINE
8
00_POLIAMIDAS
10
238.862272
20
30.968938
30
0.0
11
237.483429
21
32.347781
31
0.0
0
LINE
8
00_POLIAMIDAS
10
252.616152
20
19.460122
30
0.0
11
250.941277
21
21.134997
31
0.0
0
LINE
8
00_POLIAMIDAS
10
240.638590
20
31.437684
30
0.0
11
238.738590
21
33.337684
31
0.0
0
LINE
8
00_POLIAMIDAS
10
255.272737
20
19.048601
30
0.0
11
254.465713
21
19.855625
31
0.0
0
LINE
8
00_POLIAMIDAS
10
242.883654
20
31.437684
30
0.0
11
240.983654
21
33.337684
31
0.0
0
LINE
8
00_POLIAMIDAS
10
253.925453
20
20.395885
30
0.0
11
252.805907
21
21.515431
31
0.0
0
LINE
8
00_POLIAMIDAS
10
255.172737
20
21.393665
30
0.0
11
254.232550
21
22.333852
31
0.0
0
LINE
8
00_POLIAMIDAS
10
245.128718
20
31.437684
30
0.0
11
243.228718
21
33.337684
31
0.0
0
LINE
8
00_POLIAMIDAS
10
247.373782
20
31.437684
30
0.0
11
245.473782
21
33.337684
31
0.0
0
LINE
8
00_POLIAMIDAS
10
252.371037
20
28.685494
30
0.0
11
247.718846
21
33.337684
31
0.0
0
LINE
8
00_POLIAMIDAS
10
255.272737
20
28.028857
30
0.0
11
252.658621
21
30.642973
31
0.0
0
LINE
8
00_POLIAMIDAS
10
251.242329
20
32.059266
30
0.0
11
249.963911
21
33.337684
31
0.0
0
LINE
8
00_POLIAMIDAS
10
255.172737
20
30.373921
30
0.0
11
254.102890
21
31.443768
31
0.0
0
ARC
8
00_POLIAMIDAS
10
249.113143
20
19.152909
30
0.0
40
0.500000
50
270.000000
51
328.000000
0
LINE
8
00_POLIAMIDAS
10
249.537167
20
18.887950
30
0.0
11
251.020566
21
21.261885
31
0.0
0
ARC
8
00_POLIAMIDAS
10
251.274981
20
21.102909
30
0.0
40
0.300000
50
90.000000
51
148.000000
0
LINE
8
00_POLIAMIDAS
10
251.274981
20
21.402909
30
0.0
11
252.298570
21
21.402909
31
0.0
0
ARC
8
00_POLIAMIDAS
10
252.298570
20
22.602909
30
0.0
40
1.200000
50
270.000000
51
300.000000
0
LINE
8
00_POLIAMIDAS
10
252.898570
20
21.563679
30
0.0
11
254.542352
21
22.512717
31
0.0
0
ARC
8
00_POLIAMIDAS
10
254.692352
20
22.252909
30
0.0
40
0.300000
50
90.000000
51
120.000000
0
LINE
8
00_POLIAMIDAS
10
254.692352
20
22.552909
30
0.0
11
254.872737
21
22.552909
31
0.0
0
ARC
8
00_POLIAMIDAS
10
254.872737
20
22.152909
30
0.0
40
0.400000
50
0.000000
51
90.000000
0
LINE
8
00_POLIAMIDAS
10
255.272737
20
22.152909
30
0.0
11
255.272737
21
21.552909
31
0.0
0
LINE
8
00_POLIAMIDAS
10
255.272737
20
21.552909
30
0.0
11
255.172737
21
21.552909
31
0.0
0
LINE
8
00_POLIAMIDAS
10
255.172737
20
21.552909
30
0.0
11
255.172737
21
21.177909
31
0.0
0
ARC
8
00_POLIAMIDAS
10
254.972737
20
21.177909
30
0.0
40
0.200000
50
270.000000
51
0.000000
0
LINE
8
00_POLIAMIDAS
10
254.972737
20
20.977909
30
0.0
11
254.813211
21
20.977909
31
0.0
0
ARC
8
00_POLIAMIDAS
10
254.522737
20
20.452909
30
0.0
40
0.600000
50
61.044976
51
298.955024
0
LINE
8
00_POLIAMIDAS
10
254.813211
20
19.927909
30
0.0
11
254.972737
21
19.927909
31
0.0
0
ARC
8
00_POLIAMIDAS
10
254.972737
20
19.727909
30
0.0
40
0.200000
50
0.000000
51
90.000000
0
LINE
8
00_POLIAMIDAS
10
255.172737
20
19.727909
30
0.0
11
255.172737
21
19.352909
31
0.0
0
LINE
8
00_POLIAMIDAS
10
255.172737
20
19.352909
30
0.0
11
255.272737
21
19.352909
31
0.0
0
LINE
8
00_POLIAMIDAS
10
255.272737
20
19.352909
30
0.0
11
255.272737
21
18.752909
31
0.0
0
ARC
8
00_POLIAMIDAS
10
254.872737
20
18.752909
30
0.0
40
0.400000
50
270.000000
51
0.000000
0
LINE
8
00_POLIAMIDAS
10
254.872737
20
18.352909
30
0.0
11
254.692352
21
18.352909
31
0.0
0
ARC
8
00_POLIAMIDAS
10
254.692352
20
18.652909
30
0.0
40
0.300000
50
240.000000
51
270.000000
0
LINE
8
00_POLIAMIDAS
10
254.542352
20
18.393102
30
0.0
11
252.898570
21
19.342140
31
0.0
0
ARC
8
00_POLIAMIDAS
10
252.298570
20
18.302909
30
0.0
40
1.200000
50
60.000000
51
90.000000
0
LINE
8
00_POLIAMIDAS
10
252.298570
20
19.502909
30
0.0
11
252.272737
21
19.502909
31
0.0
0
ARC
8
00_POLIAMIDAS
10
252.272737
20
19.302909
30
0.0
40
0.200000
50
90.000000
51
148.000000
0
LINE
8
00_POLIAMIDAS
10
252.103127
20
19.408893
30
0.0
11
250.590354
21
16.987950
31
0.0
0
ARC
8
00_POLIAMIDAS
10
250.166330
20
17.252909
30
0.0
40
0.500000
50
270.000000
51
328.000000
0
LINE
8
00_POLIAMIDAS
10
250.166330
20
16.752909
30
0.0
11
244.272737
21
16.752909
31
0.0
0
LINE
8
00_POLIAMIDAS
10
244.272737
20
16.752909
30
0.0
11
238.379144
21
16.752909
31
0.0
0
ARC
8
00_POLIAMIDAS
10
238.379144
20
17.252909
30
0.0
40
0.500000
50
212.000000
51
270.000000
0
LINE
8
00_POLIAMIDAS
10
237.955120
20
16.987950
30
0.0
11
236.442346
21
19.408893
31
0.0
0
ARC
8
00_POLIAMIDAS
10
236.272737
20
19.302909
30
0.0
40
0.200000
50
32.000000
51
90.000000
0
LINE
8
00_POLIAMIDAS
10
236.272737
20
19.502909
30
0.0
11
236.246904
21
19.502909
31
0.0
0
ARC
8
00_POLIAMIDAS
10
236.246904
20
18.302909
30
0.0
40
1.200000
50
90.000000
51
120.000000
0
LINE
8
00_POLIAMIDAS
10
235.646904
20
19.342140
30
0.0
11
234.003122
21
18.393102
31
0.0
0
ARC
8
00_POLIAMIDAS
10
233.853122
20
18.652909
30
0.0
40
0.300000
50
270.000000
51
300.000000
0
LINE
8
00_POLIAMIDAS
10
233.853122
20
18.352909
30
0.0
11
233.672737
21
18.352909
31
0.0
0
ARC
8
00_POLIAMIDAS
10
233.672737
20
18.752909
30
0.0
40
0.400000
50
180.000000
51
270.000000
0
LINE
8
00_POLIAMIDAS
10
233.272737
20
18.752909
30
0.0
11
233.272737
21
19.352909
31
0.0
0
LINE
8
00_POLIAMIDAS
10
233.272737
20
19.352909
30
0.0
11
233.372737
21
19.352909
31
0.0
0
LINE
8
00_POLIAMIDAS
10
233.372737
20
19.352909
30
0.0
11
233.372737
21
19.727909
31
0.0
0
ARC
8
00_POLIAMIDAS
10
233.572737
20
19.727909
30
0.0
40
0.200000
50
90.000000
51
180.000000
0
LINE
8
00_POLIAMIDAS
10
233.572737
20
19.927909
30
0.0
11
233.732263
21
19.927909
31
0.0
0
ARC
8
00_POLIAMIDAS
10
234.022737
20
20.452909
30
0.0
40
0.600000
50
241.044976
51
118.955024
0
LINE
8
00_POLIAMIDAS
10
233.732263
20
20.977909
30
0.0
11
233.572737
21
20.977909
31
0.0
0
ARC
8
00_POLIAMIDAS
10
233.572737
20
21.177909
30
0.0
40
0.200000
50
180.000000
51
270.000000
0
LINE
8
00_POLIAMIDAS
10
233.372737
20
21.177909
30
0.0
11
233.372737
21
21.552909
31
0.0
0
LINE
8
00_POLIAMIDAS
10
233.372737
20
21.552909
30
0.0
11
233.272737
21
21.552909
31
0.0
0
LINE
8
00_POLIAMIDAS
10
233.272737
20
21.552909
30
0.0
11
233.272737
21
22.152909
31
0.0
0
ARC
8
00_POLIAMIDAS
10
233.672737
20
22.152909
30
0.0
40
0.400000
50
90.000000
51
180.000000
0
LINE
8
00_POLIAMIDAS
10
233.672737
20
22.552909
30
0.0
11
233.853122
21
22.552909
31
0.0
0
ARC
8
00_POLIAMIDAS
10
233.853122
20
22.252909
30
0.0
40
0.300000
50
60.000000
51
90.000000
0
LINE
8
00_POLIAMIDAS
10
234.003122
20
22.512717
30
0.0
11
235.646904
21
21.563679
31
0.0
0
ARC
8
00_POLIAMIDAS
10
236.246904
20
22.602909
30
0.0
40
1.200000
50
240.000000
51
270.000000
0
LINE
8
00_POLIAMIDAS
10
236.246904
20
21.402909
30
0.0
11
237.270493
21
21.402909
31
0.0
0
ARC
8
00_POLIAMIDAS
10
237.270493
20
21.102909
30
0.0
40
0.300000
50
32.000000
51
90.000000
0
LINE
8
00_POLIAMIDAS
10
237.524908
20
21.261885
30
0.0
11
239.008307
21
18.887950
31
0.0
0
ARC
8
00_POLIAMIDAS
10
239.432331
20
19.152909
30
0.0
40
0.500000
50
212.000000
51
270.000000
0
LINE
8
00_POLIAMIDAS
10
239.432331
20
18.652909
30
0.0
11
244.272737
21
18.652909
31
0.0
0
LINE
8
00_POLIAMIDAS
10
244.272737
20
18.652909
30
0.0
11
249.113143
21
18.652909
31
0.0
0
ARC
8
00_ALUMINIO
10
224.722737
20
17.796808
30
0.0
40
0.250000
50
180.000000
51
270.000000
0
LINE
8
00_ALUMINIO
10
224.472737
20
17.796808
30
0.0
11
224.472737
21
38.795297
31
0.0
0
ARC
8
00_ALUMINIO
10
224.722737
20
38.795297
30
0.0
40
0.250000
50
90.000000
51
180.000000
0
LINE
8
00_ALUMINIO
10
224.722737
20
39.045297
30
0.0
11
231.322737
21
39.045297
31
0.0
0
ARC
8
00_ALUMINIO
10
231.322737
20
38.795297
30
0.0
40
0.250000
50
0.000000
51
90.000000
0
LINE
8
00_ALUMINIO
10
231.572737
20
38.795297
30
0.0
11
231.572737
21
33.978859
31
0.0
0
ARC
8
00_ALUMINIO
10
231.322737
20
33.978859
30
0.0
40
0.250000
50
278.213211
51
0.000000
0
ARC
8
00_ALUMINIO
10
231.572737
20
32.246808
30
0.0
40
1.500000
50
98.213211
51
168.463041
0
ARC
8
00_ALUMINIO
10
230.347992
20
32.496808
30
0.0
40
0.250000
50
168.463041
51
270.000000
0
LINE
8
00_ALUMINIO
10
230.347992
20
32.246808
30
0.0
11
231.322737
21
32.246808
31
0.0
0
ARC
8
00_ALUMINIO
10
231.322737
20
31.996808
30
0.0
40
0.250000
50
0.000000
51
90.000000
0
LINE
8
00_ALUMINIO
10
231.572737
20
31.996808
30
0.0
11
231.572737
21
17.796808
31
0.0
0
ARC
8
00_ALUMINIO
10
231.322737
20
17.796808
30
0.0
40
0.250000
50
270.000000
51
0.000000
0
LINE
8
00_ALUMINIO
10
231.322737
20
17.546808
30
0.0
11
224.722737
21
17.546808
31
0.0
0
LINE
8
00_ALUMINIO
10
233.489098
20
33.785364
30
0.0
11
235.046369
21
33.333277
31
0.0
0
ARC
8
00_ALUMINIO
10
233.572737
20
34.073469
30
0.0
40
0.300000
50
180.000000
51
253.811597
0
LINE
8
00_ALUMINIO
10
233.272737
20
34.073469
30
0.0
11
233.272737
21
40.045297
31
0.0
0
ARC
8
00_ALUMINIO
10
232.772737
20
40.045297
30
0.0
40
0.500000
50
0.000000
51
90.000000
0
LINE
8
00_ALUMINIO
10
232.772737
20
40.545297
30
0.0
11
232.372737
21
40.545297
31
0.0
0
LINE
8
00_ALUMINIO
10
232.372737
20
40.545297
30
0.0
11
232.072737
21
40.245297
31
0.0
0
LINE
8
00_ALUMINIO
10
232.072737
20
40.245297
30
0.0
11
231.772737
21
40.545297
31
0.0
0
LINE
8
00_ALUMINIO
10
231.772737
20
40.545297
30
0.0
11
231.472737
21
40.245297
31
0.0
0
LINE
8
00_ALUMINIO
10
231.472737
20
40.245297
30
0.0
11
231.172737
21
40.545297
31
0.0
0
LINE
8
00_ALUMINIO
10
231.172737
20
40.545297
30
0.0
11
230.872737
21
40.245297
31
0.0
0
LINE
8
00_ALUMINIO
10
230.872737
20
40.245297
30
0.0
11
230.572737
21
40.545297
31
0.0
0
LINE
8
00_ALUMINIO
10
230.572737
20
40.545297
30
0.0
11
230.272737
21
40.245297
31
0.0
0
LINE
8
00_ALUMINIO
10
230.272737
20
40.245297
30
0.0
11
229.972737
21
40.545297
31
0.0
0
LINE
8
00_ALUMINIO
10
229.972737
20
40.545297
30
0.0
11
229.672737
21
40.245297
31
0.0
0
LINE
8
00_ALUMINIO
10
229.672737
20
40.245297
30
0.0
11
229.372737
21
40.545297
31
0.0
0
LINE
8
00_ALUMINIO
10
229.372737
20
40.545297
30
0.0
11
229.072737
21
40.245297
31
0.0
0
LINE
8
00_ALUMINIO
10
229.072737
20
40.245297
30
0.0
11
228.772737
21
40.545297
31
0.0
0
LINE
8
00_ALUMINIO
10
228.772737
20
40.545297
30
0.0
11
228.472737
21
40.245297
31
0.0
0
LINE
8
00_ALUMINIO
10
228.472737
20
40.245297
30
0.0
11
228.172737
21
40.545297
31
0.0
0
LINE
8
00_ALUMINIO
10
228.172737
20
40.545297
30
0.0
11
227.872737
21
40.245297
31
0.0
0
LINE
8
00_ALUMINIO
10
227.872737
20
40.245297
30
0.0
11
227.572737
21
40.545297
31
0.0
0
LINE
8
00_ALUMINIO
10
227.572737
20
40.545297
30
0.0
11
227.272737
21
40.245297
31
0.0
0
LINE
8
00_ALUMINIO
10
227.272737
20
40.245297
30
0.0
11
226.972737
21
40.545297
31
0.0
0
LINE
8
00_ALUMINIO
10
226.972737
20
40.545297
30
0.0
11
226.672737
21
40.245297
31
0.0
0
LINE
8
00_ALUMINIO
10
226.672737
20
40.245297
30
0.0
11
226.372737
21
40.545297
31
0.0
0
LINE
8
00_ALUMINIO
10
226.372737
20
40.545297
30
0.0
11
226.072737
21
40.245297
31
0.0
0
LINE
8
00_ALUMINIO
10
226.072737
20
40.245297
30
0.0
11
225.772737
21
40.545297
31
0.0
0
LINE
8
00_ALUMINIO
10
225.772737
20
40.545297
30
0.0
11
225.472737
21
40.245297
31
0.0
0
LINE
8
00_ALUMINIO
10
225.472737
20
40.245297
30
0.0
11
225.172737
21
40.545297
31
0.0
0
LINE
8
00_ALUMINIO
10
225.172737
20
40.545297
30
0.0
11
224.722737
21
40.545297
31
0.0
0
ARC
8
00_ALUMINIO
10
224.722737
20
40.795297
30
0.0
40
0.250000
50
180.000000
51
270.000000
0
LINE
8
00_ALUMINIO
10
224.472737
20
40.795297
30
0.0
11
224.472737
21
44.895297
31
0.0
0
ARC
8
00_ALUMINIO
10
224.722737
20
44.895297
30
0.0
40
0.250000
50
90.000000
51
180.000000
0
LINE
8
00_ALUMINIO
10
224.722737
20
45.145297
30
0.0
11
224.972737
21
45.145297
31
0.0
0
ARC
8
00_ALUMINIO
10
224.972737
20
45.645297
30
0.0
40
0.500000
50
270.000000
51
0.000000
0
LINE
8
00_ALUMINIO
10
225.472737
20
45.645297
30
0.0
11
225.472737
21
46.145297
31
0.0
0
ARC
8
00_ALUMINIO
10
224.972737
20
46.145297
30
0.0
40
0.500000
50
0.000000
51
90.000000
0
LINE
8
00_ALUMINIO
10
224.972737
20
46.645297
30
0.0
11
223.472737
21
46.645297
31
0.0
0
ARC
8
00_ALUMINIO
10
223.472737
20
46.145297
30
0.0
40
0.500000
50
90.000000
51
180.000000
0
LINE
8
00_ALUMINIO
10
222.972737
20
46.145297
30
0.0
11
222.972737
21
15.795297
31
0.0
0
ARC
8
00_ALUMINIO
10
223.222737
20
15.795297
30
0.0
40
0.250000
50
180.000000
51
270.000000
0
LINE
8
00_ALUMINIO
10
223.222737
20
15.545297
30
0.0
11
224.222737
21
15.545297
31
0.0
0
ARC
8
00_ALUMINIO
10
224.222737
20
15.795297
30
0.0
40
0.250000
50
270.000000
51
0.000000
0
ARC
8
00_ALUMINIO
10
224.722737
20
15.795297
30
0.0
40
0.250000
50
90.000000
51
180.000000
0
LINE
8
00_ALUMINIO
10
224.722737
20
16.045297
30
0.0
11
231.322737
21
16.045297
31
0.0
0
ARC
8
00_ALUMINIO
10
231.322737
20
15.795297
30
0.0
40
0.250000
50
0.000000
51
90.000000
0
ARC
8
00_ALUMINIO
10
231.822737
20
15.795297
30
0.0
40
0.250000
50
180.000000
51
270.000000
0
LINE
8
00_ALUMINIO
10
231.822737
20
15.545297
30
0.0
11
233.022737
21
15.545297
31
0.0
0
ARC
8
00_ALUMINIO
10
233.022737
20
15.795297
30
0.0
40
0.250000
50
270.000000
51
0.000000
0
LINE
8
00_ALUMINIO
10
233.272737
20
15.795297
30
0.0
11
233.272737
21
16.017124
31
0.0
0
ARC
8
00_ALUMINIO
10
233.572737
20
16.017124
30
0.0
40
0.300000
50
106.188403
51
180.000000
0
LINE
8
00_ALUMINIO
10
233.489098
20
16.305229
30
0.0
11
235.046369
21
16.757316
31
0.0
0
ARC
8
00_ALUMINIO
10
235.130008
20
16.469211
30
0.0
40
0.300000
50
48.000000
51
106.188403
0
LINE
8
00_ALUMINIO
10
235.330748
20
16.692155
30
0.0
11
235.589824
21
16.458881
31
0.0
0
ARC
8
00_ALUMINIO
10
235.790563
20
16.681825
30
0.0
40
0.300000
50
228.000000
51
270.000000
0
LINE
8
00_ALUMINIO
10
235.790563
20
16.381825
30
0.0
11
237.155121
21
16.381825
31
0.0
0
ARC
8
00_ALUMINIO
10
237.155121
20
16.681825
30
0.0
40
0.300000
50
270.000000
51
28.143025
0
LINE
8
00_ALUMINIO
10
237.419653
20
16.823327
30
0.0
11
236.325921
21
18.868009
31
0.0
0
ARC
8
00_ALUMINIO
10
236.061389
20
18.726507
30
0.0
40
0.300000
50
28.143025
51
61.000000
0
LINE
8
00_ALUMINIO
10
236.206832
20
18.988893
30
0.0
11
235.488802
21
19.386904
31
0.0
0
ARC
8
00_ALUMINIO
10
235.391840
20
19.211980
30
0.0
40
0.200000
50
61.000000
51
181.000000
0
LINE
8
00_ALUMINIO
10
235.191870
20
19.208489
30
0.0
11
235.195204
21
19.017518
31
0.0
0
ARC
8
00_ALUMINIO
10
234.995234
20
19.014027
30
0.0
40
0.200000
50
308.940638
51
1.000000
0
LINE
8
00_ALUMINIO
10
235.120937
20
18.858468
30
0.0
11
233.461002
21
17.517124
31
0.0
0
LINE
8
00_ALUMINIO
10
233.272737
20
17.517124
30
0.0
11
233.461002
21
17.517124
31
0.0
0
ARC
8
00_ALUMINIO
10
233.272737
20
17.817124
30
0.0
40
0.300000
50
90.000000
51
270.000000
0
LINE
8
00_ALUMINIO
10
233.272737
20
22.617124
30
0.0
11
233.272737
21
18.117124
31
0.0
0
ARC
8
00_ALUMINIO
10
233.472737
20
22.617124
30
0.0
40
0.200000
50
90.000000
51
180.000000
0
LINE
8
00_ALUMINIO
10
233.540626
20
22.817124
30
0.0
11
233.472737
21
22.817124
31
0.0
0
ARC
8
00_ALUMINIO
10
233.540626
20
22.517124
30
0.0
40
0.300000
50
58.619868
51
90.000000
0
LINE
8
00_ALUMINIO
10
235.378363
20
21.747637
30
0.0
11
233.696840
21
22.773243
31
0.0
0
ARC
8
00_ALUMINIO
10
235.572737
20
21.794741
30
0.0
40
0.200000
50
193.622214
51
0.000000
0
LINE
8
00_ALUMINIO
10
235.772737
20
21.794741
30
0.0
11
235.772737
21
23.699997
31
0.0
0
ARC
8
00_ALUMINIO
10
235.272737
20
23.699997
30
0.0
40
0.500000
50
0.000000
51
60.000000
0
LINE
8
00_ALUMINIO
10
235.522737
20
24.133010
30
0.0
11
234.392610
21
24.785489
31
0.0
0
ARC
8
00_ALUMINIO
10
234.542610
20
25.045297
30
0.0
40
0.300000
50
120.000000
51
240.000000
0
LINE
8
00_ALUMINIO
10
234.392610
20
25.305104
30
0.0
11
235.522737
21
25.957583
31
0.0
0
ARC
8
00_ALUMINIO
10
235.272737
20
26.390596
30
0.0
40
0.500000
50
300.000000
51
0.000000
0
LINE
8
00_ALUMINIO
10
235.772737
20
26.390596
30
0.0
11
235.772737
21
28.295852
31
0.0
0
ARC
8
00_ALUMINIO
10
235.572737
20
28.295852
30
0.0
40
0.200000
50
0.000000
51
166.377786
0
LINE
8
00_ALUMINIO
10
235.378363
20
28.342956
30
0.0
11
233.696840
21
27.317350
31
0.0
0
ARC
8
00_ALUMINIO
10
233.540626
20
27.573469
30
0.0
40
0.300000
50
270.000000
51
301.380132
0
LINE
8
00_ALUMINIO
10
233.540626
20
27.273469
30
0.0
11
233.472737
21
27.273469
31
0.0
0
ARC
8
00_ALUMINIO
10
233.472737
20
27.473469
30
0.0
40
0.200000
50
180.000000
51
270.000000
0
LINE
8
00_ALUMINIO
10
233.272737
20
27.473469
30
0.0
11
233.272737
21
31.973469
31
0.0
0
ARC
8
00_ALUMINIO
10
233.272737
20
32.273469
30
0.0
40
0.300000
50
90.000000
51
270.000000
0
LINE
8
00_ALUMINIO
10
233.272737
20
32.573469
30
0.0
11
233.461002
21
32.573469
31
0.0
0
LINE
8
00_ALUMINIO
10
235.120937
20
31.232125
30
0.0
11
233.461002
21
32.573469
31
0.0
0
ARC
8
00_ALUMINIO
10
234.995234
20
31.076566
30
0.0
40
0.200000
50
359.000000
51
51.059362
0
LINE
8
00_ALUMINIO
10
235.191870
20
30.882104
30
0.0
11
235.195204
21
31.073075
31
0.0
0
ARC
8
00_ALUMINIO
10
235.391840
20
30.878613
30
0.0
40
0.200000
50
179.000000
51
299.000000
0
LINE
8
00_ALUMINIO
10
236.206832
20
31.101700
30
0.0
11
235.488802
21
30.703689
31
0.0
0
ARC
8
00_ALUMINIO
10
236.061389
20
31.364086
30
0.0
40
0.300000
50
299.000000
51
331.856975
0
LINE
8
00_ALUMINIO
10
237.419653
20
33.267266
30
0.0
11
236.325921
21
31.222584
31
0.0
0
ARC
8
00_ALUMINIO
10
237.155121
20
33.408768
30
0.0
40
0.300000
50
331.856975
51
90.000000
0
LINE
8
00_ALUMINIO
10
235.790563
20
33.708768
30
0.0
11
237.155121
21
33.708768
31
0.0
0
ARC
8
00_ALUMINIO
10
235.790563
20
33.408768
30
0.0
40
0.300000
50
90.000000
51
132.000000
0
LINE
8
00_ALUMINIO
10
235.330748
20
33.398438
30
0.0
11
235.589824
21
33.631712
31
0.0
0
ARC
8
00_ALUMINIO
10
235.130008
20
33.621382
30
0.0
40
0.300000
50
253.811597
51
312.000000
0
LINE
8
00_ALUMINIO
10
257.272737
20
28.545297
30
0.0
11
257.272737
21
32.539280
31
0.0
0
ARC
8
00_ALUMINIO
10
257.772737
20
32.539280
30
0.0
40
0.500000
50
135.000000
51
180.000000
0
LINE
8
00_ALUMINIO
10
257.419183
20
32.892833
30
0.0
11
262.925200
21
38.398850
31
0.0
0
ARC
8
00_ALUMINIO
10
263.278754
20
38.045297
30
0.0
40
0.500000
50
90.000000
51
135.000000
0
LINE
8
00_ALUMINIO
10
263.278754
20
38.545297
30
0.0
11
314.797759
21
38.545297
31
0.0
0
LINE
8
00_ALUMINIO
10
314.797759
20
38.545297
30
0.0
11
366.014626
21
29.514381
31
0.0
0
ARC
8
00_ALUMINIO
10
364.972737
20
23.605535
30
0.0
40
6.000000
50
0.000000
51
80.000000
0
LINE
8
00_ALUMINIO
10
370.972737
20
23.605535
30
0.0
11
370.972737
21
13.295297
31
0.0
0
ARC
8
00_ALUMINIO
10
370.722737
20
13.295297
30
0.0
40
0.250000
50
270.000000
51
0.000000
0
LINE
8
00_ALUMINIO
10
370.722737
20
13.045297
30
0.0
11
364.922737
21
13.045297
31
0.0
0
ARC
8
00_ALUMINIO
10
364.922737
20
13.295297
30
0.0
40
0.250000
50
180.000000
51
270.000000
0
LINE
8
00_ALUMINIO
10
364.672737
20
13.295297
30
0.0
11
364.672737
21
17.545297
31
0.0
0
ARC
8
00_ALUMINIO
10
364.172737
20
17.545297
30
0.0
40
0.500000
50
0.000000
51
90.000000
0
LINE
8
00_ALUMINIO
10
364.172737
20
18.045297
30
0.0
11
305.022737
21
18.045297
31
0.0
0
ARC
8
00_ALUMINIO
10
305.022737
20
18.295297
30
0.0
40
0.250000
50
180.000000
51
270.000000
0
LINE
8
00_ALUMINIO
10
304.772737
20
18.295297
30
0.0
11
304.772737
21
27.295297
31
0.0
0
ARC
8
00_ALUMINIO
10
303.772737
20
27.295297
30
0.0
40
1.000000
50
0.000000
51
90.000000
0
LINE
8
00_ALUMINIO
10
303.772737
20
28.295297
30
0.0
11
257.522737
21
28.295297
31
0.0
0
ARC
8
00_ALUMINIO
10
257.522737
20
28.545297
30
0.0
40
0.250000
50
180.000000
51
270.000000
0
ARC
8
00_ALUMINIO
10
255.522737
20
15.795297
30
0.0
40
0.250000
50
180.000000
51
270.000000
0
LINE
8
00_ALUMINIO
10
255.522737
20
15.545297
30
0.0
11
261.972737
21
15.545297
31
0.0
0
ARC
8
00_ALUMINIO
10
261.972737
20
15.845297
30
0.0
40
0.300000
50
270.000000
51
0.000000
0
LINE
8
00_ALUMINIO
10
262.272737
20
15.845297
30
0.0
11
262.272737
21
17.795297
31
0.0
0
ARC
8
00_ALUMINIO
10
262.022737
20
17.795297
30
0.0
40
0.250000
50
0.000000
51
90.000000
0
LINE
8
00_ALUMINIO
10
262.022737
20
18.045297
30
0.0
11
257.522737
21
18.045297
31
0.0
0
ARC
8
00_ALUMINIO
10
257.522737
20
18.295297
30
0.0
40
0.250000
50
180.000000
51
270.000000
0
LINE
8
00_ALUMINIO
10
257.272737
20
18.295297
30
0.0
11
257.272737
21
26.045297
31
0.0
0
ARC
8
00_ALUMINIO
10
257.522737
20
26.045297
30
0.0
40
0.250000
50
90.000000
51
180.000000
0
LINE
8
00_ALUMINIO
10
257.522737
20
26.295297
30
0.0
11
302.522737
21
26.295297
31
0.0
0
ARC
8
00_ALUMINIO
10
302.522737
20
26.045297
30
0.0
40
0.250000
50
0.000000
51
90.000000
0
LINE
8
00_ALUMINIO
10
302.772737
20
26.045297
30
0.0
11
302.772737
21
18.295297
31
0.0
0
ARC
8
00_ALUMINIO
10
302.522737
20
18.295297
30
0.0
40
0.250000
50
270.000000
51
0.000000
0
LINE
8
00_ALUMINIO
10
302.522737
20
18.045297
30
0.0
11
298.022737
21
18.045297
31
0.0
0
ARC
8
00_ALUMINIO
10
298.022737
20
17.795297
30
0.0
40
0.250000
50
90.000000
51
180.000000
0
LINE
8
00_ALUMINIO
10
297.772737
20
17.795297
30
0.0
11
297.772737
21
16.295297
31
0.0
0
ARC
8
00_ALUMINIO
10
298.022737
20
16.295297
30
0.0
40
0.250000
50
180.000000
51
270.000000
0
LINE
8
00_ALUMINIO
10
298.022737
20
16.045297
30
0.0
11
302.772737
21
16.045297
31
0.0
0
LINE
8
00_ALUMINIO
10
302.772737
20
16.045297
30
0.0
11
302.772737
21
15.845297
31
0.0
0
ARC
8
00_ALUMINIO
10
303.072737
20
15.845297
30
0.0
40
0.300000
50
180.000000
51
270.000000
0
LINE
8
00_ALUMINIO
10
303.072737
20
15.545297
30
0.0
11
304.472737
21
15.545297
31
0.0
0
ARC
8
00_ALUMINIO
10
304.472737
20
15.845297
30
0.0
40
0.300000
50
270.000000
51
0.000000
0
LINE
8
00_ALUMINIO
10
304.772737
20
15.845297
30
0.0
11
304.772737
21
16.045297
31
0.0
0
LINE
8
00_ALUMINIO
10
304.772737
20
16.045297
30
0.0
11
362.922737
21
16.045297
31
0.0
0
ARC
8
00_ALUMINIO
10
362.922737
20
15.795297
30
0.0
40
0.250000
50
0.000000
51
90.000000
0
LINE
8
00_ALUMINIO
10
363.172737
20
15.795297
30
0.0
11
363.172737
21
8.495297
31
0.0
0
ARC
8
00_ALUMINIO
10
363.422737
20
8.495297
30
0.0
40
0.250000
50
180.000000
51
270.000000
0
LINE
8
00_ALUMINIO
10
363.422737
20
8.245297
30
0.0
11
364.422737
21
8.245297
31
0.0
0
ARC
8
00_ALUMINIO
10
364.422737
20
8.495297
30
0.0
40
0.250000
50
270.000000
51
0.000000
0
LINE
8
00_ALUMINIO
10
364.672737
20
8.495297
30
0.0
11
364.672737
21
10.795297
31
0.0
0
ARC
8
00_ALUMINIO
10
364.922737
20
10.795297
30
0.0
40
0.250000
50
90.000000
51
180.000000
0
LINE
8
00_ALUMINIO
10
364.922737
20
11.045297
30
0.0
11
370.722737
21
11.045297
31
0.0
0
ARC
8
00_ALUMINIO
10
370.722737
20
10.795297
30
0.0
40
0.250000
50
0.000000
51
90.000000
0
LINE
8
00_ALUMINIO
10
370.972737
20
10.795297
30
0.0
11
370.972737
21
8.495297
31
0.0
0
ARC
8
00_ALUMINIO
10
371.222737
20
8.495297
30
0.0
40
0.250000
50
180.000000
51
270.000000
0
LINE
8
00_ALUMINIO
10
371.222737
20
8.245297
30
0.0
11
372.472737
21
8.245297
31
0.0
0
ARC
8
00_ALUMINIO
10
372.472737
20
8.745297
30
0.0
40
0.500000
50
270.000000
51
0.000000
0
LINE
8
00_ALUMINIO
10
372.972737
20
8.745297
30
0.0
11
372.972737
21
23.605535
31
0.0
0
ARC
8
00_ALUMINIO
10
364.972737
20
23.605535
30
0.0
40
8.000000
50
0.000000
51
80.000000
0
LINE
8
00_ALUMINIO
10
366.361922
20
31.483997
30
0.0
11
314.972737
21
40.545297
31
0.0
0
LINE
8
00_ALUMINIO
10
314.972737
20
40.545297
30
0.0
11
262.450327
21
40.545297
31
0.0
0
ARC
8
00_ALUMINIO
10
262.450327
20
40.045297
30
0.0
40
0.500000
50
90.000000
51
135.000000
0
LINE
8
00_ALUMINIO
10
262.096773
20
40.398850
30
0.0
11
258.934755
21
37.236832
31
0.0
0
LINE
8
00_ALUMINIO
10
258.934755
20
37.236832
30
0.0
11
258.934755
21
36.883278
31
0.0
0
LINE
8
00_ALUMINIO
10
258.934755
20
36.883278
30
0.0
11
258.581202
21
36.883278
31
0.0
0
LINE
8
00_ALUMINIO
10
258.581202
20
36.883278
30
0.0
11
255.599022
21
33.901099
31
0.0
0
ARC
8
00_ALUMINIO
10
255.386890
20
34.113231
30
0.0
40
0.300000
50
284.002547
51
315.000000
0
LINE
8
00_ALUMINIO
10
255.459480
20
33.822146
30
0.0
11
253.499104
21
33.333277
31
0.0
0
ARC
8
00_ALUMINIO
10
253.415465
20
33.621382
30
0.0
40
0.300000
50
228.000000
51
286.188403
0
LINE
8
00_ALUMINIO
10
253.214726
20
33.398438
30
0.0
11
252.955650
21
33.631712
31
0.0
0
ARC
8
00_ALUMINIO
10
252.754910
20
33.408768
30
0.0
40
0.300000
50
48.000000
51
90.000000
0
LINE
8
00_ALUMINIO
10
252.754910
20
33.708768
30
0.0
11
251.390352
21
33.708768
31
0.0
0
ARC
8
00_ALUMINIO
10
251.390352
20
33.408768
30
0.0
40
0.300000
50
90.000000
51
208.143025
0
LINE
8
00_ALUMINIO
10
251.125820
20
33.267266
30
0.0
11
252.219553
21
31.222584
31
0.0
0
ARC
8
00_ALUMINIO
10
252.484085
20
31.364086
30
0.0
40
0.300000
50
208.143025
51
241.000000
0
LINE
8
00_ALUMINIO
10
252.338642
20
31.101700
30
0.0
11
253.056672
21
30.703689
31
0.0
0
ARC
8
00_ALUMINIO
10
253.153634
20
30.878613
30
0.0
40
0.200000
50
241.000000
51
1.000000
0
LINE
8
00_ALUMINIO
10
253.353603
20
30.882104
30
0.0
11
253.350270
21
31.073075
31
0.0
0
ARC
8
00_ALUMINIO
10
253.550239
20
31.076566
30
0.0
40
0.200000
50
128.940638
51
181.000000
0
LINE
8
00_ALUMINIO
10
253.424536
20
31.232125
30
0.0
11
255.084472
21
32.573469
31
0.0
0
LINE
8
00_ALUMINIO
10
255.272737
20
32.573469
30
0.0
11
255.084472
21
32.573469
31
0.0
0
ARC
8
00_ALUMINIO
10
255.272737
20
32.273469
30
0.0
40
0.300000
50
270.000000
51
90.000000
0
LINE
8
00_ALUMINIO
10
255.272737
20
27.473469
30
0.0
11
255.272737
21
31.973469
31
0.0
0
ARC
8
00_ALUMINIO
10
255.072737
20
27.473469
30
0.0
40
0.200000
50
270.000000
51
0.000000
0
LINE
8
00_ALUMINIO
10
255.004848
20
27.273469
30
0.0
11
255.072737
21
27.273469
31
0.0
0
ARC
8
00_ALUMINIO
10
255.004848
20
27.573469
30
0.0
40
0.300000
50
238.619868
51
270.000000
0
LINE
8
00_ALUMINIO
10
253.167111
20
28.342956
30
0.0
11
254.848634
21
27.317350
31
0.0
0
ARC
8
00_ALUMINIO
10
252.972737
20
28.295852
30
0.0
40
0.200000
50
13.622214
51
180.000000
0
LINE
8
00_ALUMINIO
10
252.772737
20
28.295852
30
0.0
11
252.772737
21
26.390596
31
0.0
0
ARC
8
00_ALUMINIO
10
253.272737
20
26.390596
30
0.0
40
0.500000
50
180.000000
51
240.000000
0
LINE
8
00_ALUMINIO
10
253.022737
20
25.957583
30
0.0
11
254.152864
21
25.305104
31
0.0
0
ARC
8
00_ALUMINIO
10
254.002864
20
25.045297
30
0.0
40
0.300000
50
300.000000
51
60.000000
0
LINE
8
00_ALUMINIO
10
254.152864
20
24.785489
30
0.0
11
253.022737
21
24.133010
31
0.0
0
ARC
8
00_ALUMINIO
10
253.272737
20
23.699997
30
0.0
40
0.500000
50
120.000000
51
180.000000
0
LINE
8
00_ALUMINIO
10
252.772737
20
23.699997
30
0.0
11
252.772737
21
21.794741
31
0.0
0
ARC
8
00_ALUMINIO
10
252.972737
20
21.794741
30
0.0
40
0.200000
50
180.000000
51
346.377786
0
LINE
8
00_ALUMINIO
10
253.167111
20
21.747637
30
0.0
11
254.848634
21
22.773243
31
0.0
0
ARC
8
00_ALUMINIO
10
255.004848
20
22.517124
30
0.0
40
0.300000
50
90.000000
51
121.380132
0
LINE
8
00_ALUMINIO
10
255.004848
20
22.817124
30
0.0
11
255.072737
21
22.817124
31
0.0
0
ARC
8
00_ALUMINIO
10
255.072737
20
22.617124
30
0.0
40
0.200000
50
0.000000
51
90.000000
0
LINE
8
00_ALUMINIO
10
255.272737
20
22.617124
30
0.0
11
255.272737
21
18.117124
31
0.0
0
ARC
8
00_ALUMINIO
10
255.272737
20
17.817124
30
0.0
40
0.300000
50
270.000000
51
90.000000
0
LINE
8
00_ALUMINIO
10
255.272737
20
17.517124
30
0.0
11
255.084472
21
17.517124
31
0.0
0
LINE
8
00_ALUMINIO
10
253.424536
20
18.858468
30
0.0
11
255.084472
21
17.517124
31
0.0
0
ARC
8
00_ALUMINIO
10
253.550239
20
19.014027
30
0.0
40
0.200000
50
179.000000
51
231.059362
0
LINE
8
00_ALUMINIO
10
253.353603
20
19.208489
30
0.0
11
253.350270
21
19.017518
31
0.0
0
ARC
8
00_ALUMINIO
10
253.153634
20
19.211980
30
0.0
40
0.200000
50
359.000000
51
119.000000
0
LINE
8
00_ALUMINIO
10
252.338642
20
18.988893
30
0.0
11
253.056672
21
19.386904
31
0.0
0
ARC
8
00_ALUMINIO
10
252.484085
20
18.726507
30
0.0
40
0.300000
50
119.000000
51
151.856975
0
LINE
8
00_ALUMINIO
10
251.125820
20
16.823327
30
0.0
11
252.219553
21
18.868009
31
0.0
0
ARC
8
00_ALUMINIO
10
251.390352
20
16.681825
30
0.0
40
0.300000
50
151.856975
51
270.000000
0
LINE
8
00_ALUMINIO
10
252.754910
20
16.381825
30
0.0
11
251.390352
21
16.381825
31
0.0
0
ARC
8
00_ALUMINIO
10
252.754910
20
16.681825
30
0.0
40
0.300000
50
270.000000
51
312.000000
0
LINE
8
00_ALUMINIO
10
253.214726
20
16.692155
30
0.0
11
252.955650
21
16.458881
31
0.0
0
ARC
8
00_ALUMINIO
10
253.415465
20
16.469211
30
0.0
40
0.300000
50
73.811597
51
132.000000
0
LINE
8
00_ALUMINIO
10
255.056376
20
16.305229
30
0.0
11
253.499104
21
16.757316
31
0.0
0
ARC
8
00_ALUMINIO
10
254.972737
20
16.017124
30
0.0
40
0.300000
50
0.000000
51
73.811597
0
LINE
8
00_ALUMINIO
10
255.272737
20
15.795297
30
0.0
11
255.272737
21
16.017124
31
0.0
0
ATTDEF
8
0
10
0.000000
20
0.000000
30
0.0
40
3.5
1

3

2
PANE_WIDTH:0
70
0
0
ATTDEF
8
0
10
0.000000
20
0.000000
30
0.0
40
3.5
1

3

2
MIN_VETRO:0
70
0
0
ATTDEF
8
0
10
0.000000
20
0.000000
30
0.0
40
3.5
1

3

2
MAX_VETRO:0
70
0
0
ATTDEF
8
0
10
0.000000
20
0.000000
30
0.0
40
3.5
1

3

2
JX:0
70
0
0
ATTDEF
8
0
10
0.000000
20
0.000000
30
0.0
40
3.5
1

3

2
WX:0
70
0
0
ATTDEF
8
0
10
0.000000
20
0.000000
30
0.0
40
3.5
1

3

2
JY:0
70
0
0
ATTDEF
8
0
10
0.000000
20
0.000000
30
0.0
40
3.5
1

3

2
WY:0
70
0
0
ATTDEF
8
0
10
0.000000
20
0.000000
30
0.0
40
3.5
1

3

2
DESC:Suplemento marco 150mm
70
0
0
ATTDEF
8
0
10
0.000000
20
0.000000
30
0.0
40
3.5
1

3

2
DENS:2.2574
70
0
0
ATTDEF
8
0
10
0.000000
20
0.000000
30
0.0
40
3.5
1

3

2
TDEV:79.87
70
0
0
ATTDEF
8
0
10
0.000000
20
0.000000
30
0.0
40
3.5
1

3

2
TDEV2:0
70
0
0
ATTDEF
8
0
10
0.000000
20
0.000000
30
0.0
40
3.5
1

3

2
TDEV3:0
70
0
0
ATTDEF
8
0
10
0.000000
20
0.000000
30
0.0
40
3.5
1

3

2
TDEV4:0
70
0
0
ATTDEF
8
0
10
0.000000
20
0.000000
30
0.0
40
3.5
1

3

2
TDEV5:0
70
0
0
ATTDEF
8
0
10
0.000000
20
0.000000
30
0.0
40
3.5
1

3

2
PANE_WIDTH:0
70
0
0
ATTDEF
8
0
10
0.000000
20
0.000000
30
0.0
40
3.5
1

3

2
MIN_VETRO:0
70
0
0
ATTDEF
8
0
10
0.000000
20
0.000000
30
0.0
40
3.5
1

3

2
MAX_VETRO:0
70
0
0
ATTDEF
8
0
10
0.000000
20
0.000000
30
0.0
40
3.5
1

3

2
JX:0
70
0
0
ATTDEF
8
0
10
0.000000
20
0.000000
30
0.0
40
3.5
1

3

2
WX:0
70
0
0
ATTDEF
8
0
10
0.000000
20
0.000000
30
0.0
40
3.5
1

3

2
JY:0
70
0
0
ATTDEF
8
0
10
0.000000
20
0.000000
30
0.0
40
3.5
1

3

2
WY:0
70
0
0
ENDSEC
0
EOF
