0
SECTION
2
ENTITIES
0
LINE
8
0
10
5398.957049
20
406.810285
30
0.0
11
5328.957049
21
406.810285
31
0.0
0
LINE
8
0
10
5328.957049
20
406.810285
30
0.0
11
5328.957049
21
450.810285
31
0.0
0
LINE
8
0
10
5328.957049
20
450.810285
30
0.0
11
5423.957049
21
450.810285
31
0.0
0
LINE
8
0
10
5423.957049
20
450.810285
30
0.0
11
5423.957049
21
446.810285
31
0.0
0
LINE
8
0
10
5423.957049
20
446.810285
30
0.0
11
5417.957049
21
446.810285
31
0.0
0
ARC
8
0
10
5417.957049
20
445.810285
30
0.0
40
1.000000
50
90.000000
51
180.000000
0
LINE
8
0
10
5416.957049
20
445.810285
30
0.0
11
5416.957049
21
443.810285
31
0.0
0
LINE
8
0
10
5416.957049
20
443.810285
30
0.0
11
5403.957049
21
443.810285
31
0.0
0
LINE
8
0
10
5403.957049
20
443.810285
30
0.0
11
5403.957049
21
438.227926
31
0.0
0
LINE
8
0
10
5403.957049
20
438.227926
30
0.0
11
5400.542835
21
434.813712
31
0.0
0
ARC
8
0
10
5403.371262
20
431.985285
30
0.0
40
4.000000
50
135.000000
51
225.000000
0
LINE
8
0
10
5400.542835
20
429.156858
30
0.0
11
5402.877276
21
426.822417
31
0.0
0
ARC
8
0
10
5402.665144
20
426.610285
30
0.0
40
0.300000
50
270.000000
51
45.000000
0
LINE
8
0
10
5402.665144
20
426.310285
30
0.0
11
5398.957049
21
426.310285
31
0.0
0
LINE
8
0
10
5398.957049
20
426.310285
30
0.0
11
5398.957049
21
406.810285
31
0.0
0
LINE
8
0
10
5327.957049
20
453.810285
30
0.0
11
5424.957049
21
453.810285
31
0.0
0
ARC
8
0
10
5327.957049
20
451.810285
30
0.0
40
2.000000
50
90.000000
51
180.000000
0
LINE
8
0
10
5325.957049
20
405.810285
30
0.0
11
5325.957049
21
451.810285
31
0.0
0
ARC
8
0
10
5327.957049
20
405.810285
30
0.0
40
2.000000
50
180.000000
51
270.000000
0
LINE
8
0
10
5406.957049
20
403.810285
30
0.0
11
5327.957049
21
403.810285
31
0.0
0
LINE
8
0
10
5406.957049
20
403.810285
30
0.0
11
5406.957049
21
406.310285
31
0.0
0
LINE
8
0
10
5406.957049
20
406.310285
30
0.0
11
5405.957049
21
407.310285
31
0.0
0
LINE
8
0
10
5405.957049
20
407.310285
30
0.0
11
5404.957049
21
407.310285
31
0.0
0
LINE
8
0
10
5404.957049
20
407.310285
30
0.0
11
5404.957049
21
405.310285
31
0.0
0
LINE
8
0
10
5404.957049
20
405.310285
30
0.0
11
5401.957049
21
405.310285
31
0.0
0
LINE
8
0
10
5401.957049
20
423.310285
30
0.0
11
5401.957049
21
405.310285
31
0.0
0
LINE
8
0
10
5401.957049
20
423.310285
30
0.0
11
5404.957049
21
423.310285
31
0.0
0
LINE
8
0
10
5404.957049
20
423.310285
30
0.0
11
5404.957049
21
421.310285
31
0.0
0
LINE
8
0
10
5404.957049
20
421.310285
30
0.0
11
5405.957049
21
421.310285
31
0.0
0
LINE
8
0
10
5405.957049
20
421.310285
30
0.0
11
5406.957049
21
422.310285
31
0.0
0
LINE
8
0
10
5406.957049
20
422.310285
30
0.0
11
5406.957049
21
426.985285
31
0.0
0
LINE
8
0
10
5406.957049
20
426.985285
30
0.0
11
5402.664156
21
431.278179
31
0.0
0
ARC
8
0
10
5403.371262
20
431.985285
30
0.0
40
1.000000
50
135.000000
51
225.000000
0
LINE
8
0
10
5406.957049
20
436.985285
30
0.0
11
5402.664156
21
432.692392
31
0.0
0
LINE
8
0
10
5406.957049
20
436.985285
30
0.0
11
5406.957049
21
440.810285
31
0.0
0
LINE
8
0
10
5419.957049
20
440.810285
30
0.0
11
5406.957049
21
440.810285
31
0.0
0
LINE
8
0
10
5419.957049
20
443.810285
30
0.0
11
5419.957049
21
440.810285
31
0.0
0
LINE
8
0
10
5423.957049
20
443.810285
30
0.0
11
5419.957049
21
443.810285
31
0.0
0
LINE
8
0
10
5423.957049
20
443.810285
30
0.0
11
5423.957049
21
440.810285
31
0.0
0
LINE
8
0
10
5426.957049
20
440.810285
30
0.0
11
5423.957049
21
440.810285
31
0.0
0
LINE
8
0
10
5426.957049
20
451.810285
30
0.0
11
5426.957049
21
440.810285
31
0.0
0
ARC
8
0
10
5424.957049
20
451.810285
30
0.0
40
2.000000
50
360.000000
51
90.000000
0
ATTDEF
8
0
10
0.000000
20
0.000000
30
0.0
40
3.5
1

3

2
PANE_WIDTH:0
70
0
0
ATTDEF
8
0
10
0.000000
20
0.000000
30
0.0
40
3.5
1

3

2
MIN_VETRO:0
70
0
0
ATTDEF
8
0
10
0.000000
20
0.000000
30
0.0
40
3.5
1

3

2
MAX_VETRO:0
70
0
0
ATTDEF
8
0
10
0.000000
20
0.000000
30
0.0
40
3.5
1

3

2
JX:0
70
0
0
ATTDEF
8
0
10
0.000000
20
0.000000
30
0.0
40
3.5
1

3

2
WX:0
70
0
0
ATTDEF
8
0
10
0.000000
20
0.000000
30
0.0
40
3.5
1

3

2
JY:0
70
0
0
ATTDEF
8
0
10
0.000000
20
0.000000
30
0.0
40
3.5
1

3

2
WY:0
70
0
0
ATTDEF
8
0
10
0.000000
20
0.000000
30
0.0
40
3.5
1

3

2
DESC:Hoja p/portales
70
0
0
ATTDEF
8
0
10
0.000000
20
0.000000
30
0.0
40
3.5
1

3

2
DENS:2.4327
70
0
0
ATTDEF
8
0
10
0.000000
20
0.000000
30
0.0
40
3.5
1

3

2
TDEV:60.55
70
0
0
ATTDEF
8
0
10
0.000000
20
0.000000
30
0.0
40
3.5
1

3

2
TDEV2:0
70
0
0
ATTDEF
8
0
10
0.000000
20
0.000000
30
0.0
40
3.5
1

3

2
TDEV3:0
70
0
0
ATTDEF
8
0
10
0.000000
20
0.000000
30
0.0
40
3.5
1

3

2
TDEV4:0
70
0
0
ATTDEF
8
0
10
0.000000
20
0.000000
30
0.0
40
3.5
1

3

2
TDEV5:0
70
0
0
ATTDEF
8
0
10
0.000000
20
0.000000
30
0.0
40
3.5
1

3

2
PANE_WIDTH:0
70
0
0
ATTDEF
8
0
10
0.000000
20
0.000000
30
0.0
40
3.5
1

3

2
MIN_VETRO:0
70
0
0
ATTDEF
8
0
10
0.000000
20
0.000000
30
0.0
40
3.5
1

3

2
MAX_VETRO:0
70
0
0
ATTDEF
8
0
10
0.000000
20
0.000000
30
0.0
40
3.5
1

3

2
JX:0
70
0
0
ATTDEF
8
0
10
0.000000
20
0.000000
30
0.0
40
3.5
1

3

2
WX:0
70
0
0
ATTDEF
8
0
10
0.000000
20
0.000000
30
0.0
40
3.5
1

3

2
JY:0
70
0
0
ATTDEF
8
0
10
0.000000
20
0.000000
30
0.0
40
3.5
1

3

2
WY:0
70
0
0
ATTDEF
8
0
10
5424.957049
20
453.810285
30
0.0
40
3.5
1

3

2
VC_START
70
0
0
ATTDEF
8
0
10
5406.957049
20
403.810285
30
0.0
40
3.5
1

3

2
VC_END
70
0
0
ATTDEF
8
0
10
5325.957049
20
403.810285
30
0.0
40
3.5
1

3

2
FP_LCS_ORIG
70
0
0
ATTDEF
8
0
10
5335.957049
20
403.810285
30
0.0
40
3.5
1

3

2
FP_LCS_HOT
70
0
0
ATTDEF
8
0
10
5325.957049
20
413.810285
30
0.0
40
3.5
1

3

2
FP_LCS_INTERN
70
0
0
ENDSEC
0
EOF
