0
SECTION
2
ENTITIES
0
LINE
8
0
10
4473.559442
20
1244.334759
30
0.0
11
4473.559442
21
1241.884759
31
0.0
0
LINE
8
0
10
4473.559442
20
1241.884759
30
0.0
11
4474.009442
21
1241.884759
31
0.0
0
ARC
8
0
10
4474.009442
20
1241.134759
30
0.0
40
0.750000
50
270.000000
51
90.000000
0
LINE
8
0
10
4474.009442
20
1240.384759
30
0.0
11
4473.559442
21
1240.384759
31
0.0
0
LINE
8
0
10
4473.559442
20
1240.384759
30
0.0
11
4473.559442
21
1232.884759
31
0.0
0
LINE
8
0
10
4473.559442
20
1232.884759
30
0.0
11
4474.009442
21
1232.884759
31
0.0
0
ARC
8
0
10
4474.009442
20
1232.134759
30
0.0
40
0.750000
50
270.000000
51
90.000000
0
LINE
8
0
10
4474.009442
20
1231.384759
30
0.0
11
4473.559442
21
1231.384759
31
0.0
0
LINE
8
0
10
4473.559442
20
1231.384759
30
0.0
11
4473.559442
21
1223.884759
31
0.0
0
LINE
8
0
10
4473.559442
20
1223.884759
30
0.0
11
4474.009442
21
1223.884759
31
0.0
0
ARC
8
0
10
4474.009442
20
1223.134759
30
0.0
40
0.750000
50
270.000000
51
90.000000
0
LINE
8
0
10
4474.009442
20
1222.384759
30
0.0
11
4473.559442
21
1222.384759
31
0.0
0
LINE
8
0
10
4473.559442
20
1222.384759
30
0.0
11
4473.559442
21
1219.934759
31
0.0
0
LINE
8
0
10
4473.559442
20
1219.934759
30
0.0
11
4492.559442
21
1219.934759
31
0.0
0
LINE
8
0
10
4492.559442
20
1219.934759
30
0.0
11
4492.559442
21
1222.384759
31
0.0
0
LINE
8
0
10
4492.559442
20
1222.384759
30
0.0
11
4492.109442
21
1222.384759
31
0.0
0
ARC
8
0
10
4492.109442
20
1223.134759
30
0.0
40
0.750000
50
90.000000
51
270.000000
0
LINE
8
0
10
4492.109442
20
1223.884759
30
0.0
11
4492.559442
21
1223.884759
31
0.0
0
LINE
8
0
10
4492.559442
20
1223.884759
30
0.0
11
4492.559442
21
1231.384759
31
0.0
0
LINE
8
0
10
4492.559442
20
1231.384759
30
0.0
11
4492.109442
21
1231.384759
31
0.0
0
ARC
8
0
10
4492.109442
20
1232.134759
30
0.0
40
0.750000
50
90.000000
51
270.000000
0
LINE
8
0
10
4492.109442
20
1232.884759
30
0.0
11
4492.559442
21
1232.884759
31
0.0
0
LINE
8
0
10
4492.559442
20
1232.884759
30
0.0
11
4492.559442
21
1240.384759
31
0.0
0
LINE
8
0
10
4492.559442
20
1240.384759
30
0.0
11
4492.109442
21
1240.384759
31
0.0
0
ARC
8
0
10
4492.109442
20
1241.134759
30
0.0
40
0.750000
50
90.000000
51
270.000000
0
LINE
8
0
10
4492.109442
20
1241.884759
30
0.0
11
4492.559442
21
1241.884759
31
0.0
0
LINE
8
0
10
4492.559442
20
1241.884759
30
0.0
11
4492.559442
21
1244.334759
31
0.0
0
LINE
8
0
10
4492.559442
20
1244.334759
30
0.0
11
4473.559442
21
1244.334759
31
0.0
0
LINE
8
0
10
4380.159442
20
1271.634759
30
0.0
11
4380.159442
21
1275.384759
31
0.0
0
ARC
8
0
10
4380.659442
20
1275.384759
30
0.0
40
0.500000
50
30.000000
51
180.000000
0
LINE
8
0
10
4381.092455
20
1275.634759
30
0.0
11
4381.859442
21
1274.306298
31
0.0
0
LINE
8
0
10
4381.859442
20
1274.306298
30
0.0
11
4381.359442
21
1273.806298
31
0.0
0
LINE
8
0
10
4381.359442
20
1273.806298
30
0.0
11
4381.359442
21
1271.634759
31
0.0
0
LINE
8
0
10
4381.359442
20
1271.634759
30
0.0
11
4475.259442
21
1271.634759
31
0.0
0
ARC
8
0
10
4475.259442
20
1271.134759
30
0.0
40
0.500000
50
0.000000
51
90.000000
0
LINE
8
0
10
4475.759442
20
1271.134759
30
0.0
11
4475.759442
21
1268.884759
31
0.0
0
ARC
8
0
10
4475.259442
20
1268.884759
30
0.0
40
0.500000
50
180.000000
51
0.000000
0
LINE
8
0
10
4474.759442
20
1268.884759
30
0.0
11
4474.759442
21
1269.884759
31
0.0
0
ARC
8
0
10
4474.009442
20
1269.884759
30
0.0
40
0.750000
50
0.000000
51
180.000000
0
LINE
8
0
10
4473.259442
20
1269.884759
30
0.0
11
4473.259442
21
1263.384759
31
0.0
0
ARC
8
0
10
4474.009442
20
1263.384759
30
0.0
40
0.750000
50
180.000000
51
0.000000
0
LINE
8
0
10
4474.759442
20
1263.384759
30
0.0
11
4474.759442
21
1264.384759
31
0.0
0
ARC
8
0
10
4475.259442
20
1264.384759
30
0.0
40
0.500000
50
0.000000
51
180.000000
0
LINE
8
0
10
4475.759442
20
1264.384759
30
0.0
11
4475.759442
21
1262.134759
31
0.0
0
ARC
8
0
10
4475.259442
20
1262.134759
30
0.0
40
0.500000
50
270.000000
51
0.000000
0
LINE
8
0
10
4475.259442
20
1261.634759
30
0.0
11
4473.559442
21
1261.634759
31
0.0
0
LINE
8
0
10
4473.559442
20
1261.634759
30
0.0
11
4473.559442
21
1248.634759
31
0.0
0
ARC
8
0
10
4476.559442
20
1248.634759
30
0.0
40
3.000000
50
180.000000
51
270.000000
0
LINE
8
0
10
4476.559442
20
1245.634759
30
0.0
11
4489.559442
21
1245.634759
31
0.0
0
ARC
8
0
10
4489.559442
20
1248.634759
30
0.0
40
3.000000
50
270.000000
51
0.000000
0
LINE
8
0
10
4492.559442
20
1248.634759
30
0.0
11
4492.559442
21
1261.634759
31
0.0
0
LINE
8
0
10
4492.559442
20
1261.634759
30
0.0
11
4490.859442
21
1261.634759
31
0.0
0
ARC
8
0
10
4490.859442
20
1262.134759
30
0.0
40
0.500000
50
180.000000
51
270.000000
0
LINE
8
0
10
4490.359442
20
1262.134759
30
0.0
11
4490.359442
21
1264.384759
31
0.0
0
ARC
8
0
10
4490.859442
20
1264.384759
30
0.0
40
0.500000
50
0.000000
51
180.000000
0
LINE
8
0
10
4491.359442
20
1264.384759
30
0.0
11
4491.359442
21
1263.384759
31
0.0
0
ARC
8
0
10
4492.109442
20
1263.384759
30
0.0
40
0.750000
50
180.000000
51
0.000000
0
LINE
8
0
10
4492.859442
20
1263.384759
30
0.0
11
4492.859442
21
1269.884759
31
0.0
0
ARC
8
0
10
4492.109442
20
1269.884759
30
0.0
40
0.750000
50
0.000000
51
180.000000
0
LINE
8
0
10
4491.359442
20
1269.884759
30
0.0
11
4491.359442
21
1268.884759
31
0.0
0
ARC
8
0
10
4490.859442
20
1268.884759
30
0.0
40
0.500000
50
180.000000
51
0.000000
0
LINE
8
0
10
4490.359442
20
1268.884759
30
0.0
11
4490.359442
21
1271.134759
31
0.0
0
ARC
8
0
10
4490.859442
20
1271.134759
30
0.0
40
0.500000
50
90.000000
51
180.000000
0
LINE
8
0
10
4490.859442
20
1271.634759
30
0.0
11
4493.359442
21
1271.634759
31
0.0
0
ARC
8
0
10
4493.359442
20
1271.134759
30
0.0
40
0.500000
50
0.000000
51
90.000000
0
LINE
8
0
10
4493.859442
20
1271.134759
30
0.0
11
4493.859442
21
1218.634759
31
0.0
0
LINE
8
0
10
4493.859442
20
1218.634759
30
0.0
11
4472.259442
21
1218.634759
31
0.0
0
LINE
8
0
10
4472.259442
20
1218.634759
30
0.0
11
4472.259442
21
1269.134759
31
0.0
0
ARC
8
0
10
4471.259442
20
1269.134759
30
0.0
40
1.000000
50
0.000000
51
90.000000
0
LINE
8
0
10
4471.259442
20
1270.134759
30
0.0
11
4381.559442
21
1270.134759
31
0.0
0
ARC
8
0
10
4381.559442
20
1269.134759
30
0.0
40
1.000000
50
90.000000
51
180.000000
0
LINE
8
0
10
4380.559442
20
1269.134759
30
0.0
11
4380.559442
21
1256.634759
31
0.0
0
LINE
8
0
10
4380.559442
20
1256.634759
30
0.0
11
4378.934899
21
1256.634759
31
0.0
0
LINE
8
0
10
4378.846826
20
1256.655195
30
0.0
11
4378.934899
21
1256.634759
31
0.0
0
LINE
8
0
10
4378.846826
20
1256.655195
30
0.0
11
4378.163277
21
1256.990462
31
0.0
0
ARC
8
0
10
4377.044976
20
1255.332329
30
0.0
40
2.000000
50
56.002945
51
128.194227
0
ARC
8
0
10
4375.499153
20
1257.297127
30
0.0
40
0.500000
50
268.376251
51
308.194227
0
LINE
8
0
10
4375.484985
20
1256.797328
30
0.0
11
4374.828364
21
1256.815942
31
0.0
0
ARC
8
0
10
4374.831749
20
1257.115966
30
0.0
40
0.300000
50
161.748585
51
268.866021
0
LINE
8
0
10
4374.546842
20
1257.209922
30
0.0
11
4376.611129
21
1259.876363
31
0.0
0
ARC
8
0
10
4376.726276
20
1259.787220
30
0.0
40
0.145621
50
358.000000
51
142.253920
0
LINE
8
0
10
4376.871808
20
1259.782138
30
0.0
11
4376.866378
21
1259.626651
31
0.0
0
ARC
8
0
10
4377.066256
20
1259.619671
30
0.0
40
0.200000
50
178.000000
51
231.176024
0
LINE
8
0
10
4376.940870
20
1259.463856
30
0.0
11
4378.584040
21
1258.141581
31
0.0
0
ARC
8
0
10
4378.772119
20
1258.375304
30
0.0
40
0.300000
50
231.176024
51
256.872879
0
LINE
8
0
10
4378.703985
20
1258.083143
30
0.0
11
4379.059010
21
1257.987592
31
0.0
0
ARC
8
0
10
4379.059010
20
1258.287592
30
0.0
40
0.300000
50
270.000000
51
90.000000
0
LINE
8
0
10
4379.059010
20
1258.587592
30
0.0
11
4379.059010
21
1263.087592
31
0.0
0
ARC
8
0
10
4378.859010
20
1263.087592
30
0.0
40
0.200000
50
0.000000
51
90.000000
0
LINE
8
0
10
4378.859010
20
1263.287592
30
0.0
11
4378.791122
21
1263.287592
31
0.0
0
ARC
8
0
10
4378.791122
20
1262.987592
30
0.0
40
0.300000
50
90.000000
51
121.380132
0
LINE
8
0
10
4378.634908
20
1263.243711
30
0.0
11
4376.958915
21
1262.221478
31
0.0
0
ARC
8
0
10
4376.759010
20
1262.215288
30
0.0
40
0.200000
50
180.000000
51
1.773627
0
LINE
8
0
10
4376.559010
20
1262.215288
30
0.0
11
4376.559010
21
1263.599068
31
0.0
0
ARC
8
0
10
4376.759010
20
1263.599068
30
0.0
40
0.200000
50
119.849964
51
180.000000
0
LINE
8
0
10
4376.659464
20
1263.772535
30
0.0
11
4376.837239
21
1263.874553
31
0.0
0
ARC
8
0
10
4376.687920
20
1264.134753
30
0.0
40
0.300000
50
299.849964
51
60.150036
0
LINE
8
0
10
4376.837239
20
1264.394952
30
0.0
11
4376.659464
21
1264.496970
31
0.0
0
ARC
8
0
10
4376.759010
20
1264.670437
30
0.0
40
0.200000
50
180.000000
51
240.150036
0
LINE
8
0
10
4376.559010
20
1264.670437
30
0.0
11
4376.559010
21
1266.054217
31
0.0
0
ARC
8
0
10
4376.759010
20
1266.054217
30
0.0
40
0.200000
50
358.226373
51
180.000000
0
LINE
8
0
10
4376.958915
20
1266.048027
30
0.0
11
4378.634908
21
1265.025794
31
0.0
0
ARC
8
0
10
4378.791122
20
1265.281913
30
0.0
40
0.300000
50
238.619868
51
270.000000
0
LINE
8
0
10
4378.791122
20
1264.981913
30
0.0
11
4378.859010
21
1264.981913
31
0.0
0
ARC
8
0
10
4378.859010
20
1265.181913
30
0.0
40
0.200000
50
270.000000
51
0.000000
0
LINE
8
0
10
4379.059010
20
1265.181913
30
0.0
11
4379.059010
21
1269.681913
31
0.0
0
ARC
8
0
10
4379.059010
20
1269.981913
30
0.0
40
0.300000
50
270.000000
51
90.000000
0
LINE
8
0
10
4379.059010
20
1270.281913
30
0.0
11
4378.703985
21
1270.186362
31
0.0
0
ARC
8
0
10
4378.772119
20
1269.894201
30
0.0
40
0.300000
50
103.127121
51
128.823976
0
LINE
8
0
10
4378.584040
20
1270.127924
30
0.0
11
4376.940870
21
1268.805649
31
0.0
0
ARC
8
0
10
4377.066256
20
1268.649834
30
0.0
40
0.200000
50
128.823976
51
182.000000
0
LINE
8
0
10
4376.866378
20
1268.642854
30
0.0
11
4376.871808
21
1268.487367
31
0.0
0
ARC
8
0
10
4376.726276
20
1268.482285
30
0.0
40
0.145621
50
217.746080
51
2.000000
0
LINE
8
0
10
4376.611129
20
1268.393142
30
0.0
11
4374.546842
21
1271.059583
31
0.0
0
ARC
8
0
10
4374.831749
20
1271.153539
30
0.0
40
0.300000
50
91.133979
51
198.251415
0
LINE
8
0
10
4374.828364
20
1271.453563
30
0.0
11
4375.484985
21
1271.472177
31
0.0
0
ARC
8
0
10
4375.499153
20
1270.972378
30
0.0
40
0.500000
50
51.805773
51
91.623749
0
ARC
8
0
10
4377.044976
20
1272.937176
30
0.0
40
2.000000
50
231.805773
51
303.997055
0
LINE
8
0
10
4378.163277
20
1271.279043
30
0.0
11
4378.581660
21
1271.484252
31
0.0
0
ARC
8
0
10
4378.362418
20
1272.201492
30
0.0
40
0.750000
50
286.997055
51
306.187685
0
ARC
8
0
10
4378.923329
20
1271.434759
30
0.0
40
0.200000
50
90.000000
51
126.187685
0
LINE
8
0
10
4378.923329
20
1271.634759
30
0.0
11
4380.159442
21
1271.634759
31
0.0
0
ARC
8
0
10
4364.594692
20
1271.434759
30
0.0
40
0.200000
50
53.812315
51
90.000000
0
LINE
8
0
10
4364.594692
20
1271.634759
30
0.0
11
4344.559442
21
1271.634759
31
0.0
0
LINE
8
0
10
4344.559442
20
1271.634759
30
0.0
11
4344.559442
21
1275.384759
31
0.0
0
ARC
8
0
10
4344.059442
20
1275.384759
30
0.0
40
0.500000
50
0.000000
51
150.000000
0
LINE
8
0
10
4343.626429
20
1275.634759
30
0.0
11
4342.859442
21
1274.306298
31
0.0
0
LINE
8
0
10
4342.859442
20
1274.306298
30
0.0
11
4343.359442
21
1273.806298
31
0.0
0
LINE
8
0
10
4343.359442
20
1273.806298
30
0.0
11
4343.359442
21
1271.634759
31
0.0
0
LINE
8
0
10
4343.359442
20
1271.634759
30
0.0
11
4338.859442
21
1271.634759
31
0.0
0
LINE
8
0
10
4338.859442
20
1271.634759
30
0.0
11
4338.859442
21
1216.634759
31
0.0
0
LINE
8
0
10
4338.859442
20
1216.634759
30
0.0
11
4340.259442
21
1216.634759
31
0.0
0
LINE
8
0
10
4340.259442
20
1216.634759
30
0.0
11
4340.259442
21
1218.634759
31
0.0
0
LINE
8
0
10
4340.259442
20
1218.634759
30
0.0
11
4348.859442
21
1218.634759
31
0.0
0
LINE
8
0
10
4348.859442
20
1218.634759
30
0.0
11
4348.859442
21
1220.034759
31
0.0
0
LINE
8
0
10
4348.859442
20
1220.034759
30
0.0
11
4340.259442
21
1220.034759
31
0.0
0
LINE
8
0
10
4340.259442
20
1220.034759
30
0.0
11
4340.259442
21
1270.234759
31
0.0
0
LINE
8
0
10
4340.259442
20
1270.234759
30
0.0
11
4362.959442
21
1270.234759
31
0.0
0
LINE
8
0
10
4362.959442
20
1270.234759
30
0.0
11
4362.959442
21
1256.634759
31
0.0
0
LINE
8
0
10
4362.959442
20
1256.634759
30
0.0
11
4364.583122
21
1256.634759
31
0.0
0
LINE
8
0
10
4364.583122
20
1256.634759
30
0.0
11
4364.671195
21
1256.655195
31
0.0
0
LINE
8
0
10
4364.671195
20
1256.655195
30
0.0
11
4365.354744
21
1256.990462
31
0.0
0
ARC
8
0
10
4366.473045
20
1255.332329
30
0.0
40
2.000000
50
51.805773
51
123.997055
0
ARC
8
0
10
4368.018868
20
1257.297127
30
0.0
40
0.500000
50
231.805773
51
271.623749
0
LINE
8
0
10
4368.033036
20
1256.797328
30
0.0
11
4368.689657
21
1256.815942
31
0.0
0
ARC
8
0
10
4368.686272
20
1257.115966
30
0.0
40
0.300000
50
271.133979
51
18.251415
0
LINE
8
0
10
4368.971179
20
1257.209922
30
0.0
11
4366.906892
21
1259.876363
31
0.0
0
ARC
8
0
10
4366.791745
20
1259.787220
30
0.0
40
0.145621
50
37.746080
51
182.000000
0
LINE
8
0
10
4366.646213
20
1259.782138
30
0.0
11
4366.651643
21
1259.626651
31
0.0
0
ARC
8
0
10
4366.451764
20
1259.619671
30
0.0
40
0.200000
50
308.823976
51
2.000000
0
LINE
8
0
10
4366.577150
20
1259.463856
30
0.0
11
4364.933981
21
1258.141581
31
0.0
0
ARC
8
0
10
4364.745902
20
1258.375304
30
0.0
40
0.300000
50
283.127121
51
308.823976
0
LINE
8
0
10
4364.814035
20
1258.083143
30
0.0
11
4364.459010
21
1257.987592
31
0.0
0
ARC
8
0
10
4364.459010
20
1258.287592
30
0.0
40
0.300000
50
90.000000
51
270.000000
0
LINE
8
0
10
4364.459010
20
1258.587592
30
0.0
11
4364.459010
21
1263.087592
31
0.0
0
ARC
8
0
10
4364.659010
20
1263.087592
30
0.0
40
0.200000
50
90.000000
51
180.000000
0
LINE
8
0
10
4364.659010
20
1263.287592
30
0.0
11
4364.726899
21
1263.287592
31
0.0
0
ARC
8
0
10
4364.726899
20
1262.987592
30
0.0
40
0.300000
50
58.619868
51
90.000000
0
LINE
8
0
10
4364.883113
20
1263.243711
30
0.0
11
4366.559106
21
1262.221478
31
0.0
0
ARC
8
0
10
4366.759010
20
1262.215288
30
0.0
40
0.200000
50
178.226373
51
0.000000
0
LINE
8
0
10
4366.959010
20
1262.215288
30
0.0
11
4366.959010
21
1263.599068
31
0.0
0
ARC
8
0
10
4366.759010
20
1263.599068
30
0.0
40
0.200000
50
0.000000
51
60.150036
0
LINE
8
0
10
4366.858556
20
1263.772535
30
0.0
11
4366.680782
21
1263.874553
31
0.0
0
ARC
8
0
10
4366.830101
20
1264.134753
30
0.0
40
0.300000
50
119.849964
51
240.150036
0
LINE
8
0
10
4366.680782
20
1264.394952
30
0.0
11
4366.858556
21
1264.496970
31
0.0
0
ARC
8
0
10
4366.759010
20
1264.670437
30
0.0
40
0.200000
50
299.849964
51
0.000000
0
LINE
8
0
10
4366.959010
20
1264.670437
30
0.0
11
4366.959010
21
1266.054217
31
0.0
0
ARC
8
0
10
4366.759010
20
1266.054217
30
0.0
40
0.200000
50
0.000000
51
181.773628
0
LINE
8
0
10
4366.559106
20
1266.048027
30
0.0
11
4364.883113
21
1265.025794
31
0.0
0
ARC
8
0
10
4364.726899
20
1265.281913
30
0.0
40
0.300000
50
270.000000
51
301.380132
0
LINE
8
0
10
4364.726899
20
1264.981913
30
0.0
11
4364.659010
21
1264.981913
31
0.0
0
ARC
8
0
10
4364.659010
20
1265.181913
30
0.0
40
0.200000
50
180.000000
51
270.000000
0
LINE
8
0
10
4364.459010
20
1265.181913
30
0.0
11
4364.459010
21
1269.681913
31
0.0
0
ARC
8
0
10
4364.459010
20
1269.981913
30
0.0
40
0.300000
50
90.000000
51
270.000000
0
LINE
8
0
10
4364.459010
20
1270.281913
30
0.0
11
4364.814035
21
1270.186362
31
0.0
0
ARC
8
0
10
4364.745902
20
1269.894201
30
0.0
40
0.300000
50
51.176024
51
76.872879
0
LINE
8
0
10
4364.933981
20
1270.127924
30
0.0
11
4366.577150
21
1268.805649
31
0.0
0
ARC
8
0
10
4366.451764
20
1268.649834
30
0.0
40
0.200000
50
358.000000
51
51.176024
0
LINE
8
0
10
4366.651643
20
1268.642854
30
0.0
11
4366.646213
21
1268.487367
31
0.0
0
ARC
8
0
10
4366.791745
20
1268.482285
30
0.0
40
0.145621
50
178.000000
51
322.253920
0
LINE
8
0
10
4366.906892
20
1268.393142
30
0.0
11
4368.971179
21
1271.059583
31
0.0
0
ARC
8
0
10
4368.686272
20
1271.153539
30
0.0
40
0.300000
50
341.748585
51
88.866021
0
LINE
8
0
10
4368.689657
20
1271.453563
30
0.0
11
4368.033036
21
1271.472177
31
0.0
0
ARC
8
0
10
4368.018868
20
1270.972378
30
0.0
40
0.500000
50
88.376251
51
128.194227
0
ARC
8
0
10
4366.473045
20
1272.937176
30
0.0
40
2.000000
50
236.002945
51
308.194227
0
LINE
8
0
10
4365.354744
20
1271.279043
30
0.0
11
4364.936361
21
1271.484252
31
0.0
0
ARC
8
0
10
4365.155602
20
1272.201492
30
0.0
40
0.750000
50
233.812315
51
253.002945
0
LINE
8
0
10
4364.482629
20
1268.463501
30
0.0
11
4365.349535
21
1269.330407
31
0.0
0
LINE
8
0
10
4364.459010
20
1266.194818
30
0.0
11
4364.527693
21
1266.263501
31
0.0
0
LINE
8
0
10
4365.787372
20
1267.523180
30
0.0
11
4366.772849
21
1268.508657
31
0.0
0
LINE
8
0
10
4364.559010
20
1266.294818
30
0.0
11
4365.049331
21
1266.785139
31
0.0
0
LINE
8
0
10
4366.665792
20
1266.156535
30
0.0
11
4368.772757
21
1268.263501
31
0.0
0
LINE
8
0
10
4364.559010
20
1261.804690
30
0.0
11
4365.535922
21
1262.781602
31
0.0
0
LINE
8
0
10
4369.217821
20
1266.463501
30
0.0
11
4371.017821
21
1268.263501
31
0.0
0
LINE
8
0
10
4364.459010
20
1259.459626
30
0.0
11
4365.335086
21
1260.335702
31
0.0
0
LINE
8
0
10
4371.462885
20
1266.463501
30
0.0
11
4373.262885
21
1268.263501
31
0.0
0
LINE
8
0
10
4365.795615
20
1260.796230
30
0.0
11
4366.959236
21
1261.959852
31
0.0
0
LINE
8
0
10
4367.250272
20
1260.005823
30
0.0
11
4369.066755
21
1261.822306
31
0.0
0
LINE
8
0
10
4373.707949
20
1266.463501
30
0.0
11
4375.507949
21
1268.263501
31
0.0
0
LINE
8
0
10
4369.511819
20
1260.022306
30
0.0
11
4371.311819
21
1261.822306
31
0.0
0
LINE
8
0
10
4375.953013
20
1266.463501
30
0.0
11
4378.883845
21
1269.394332
31
0.0
0
LINE
8
0
10
4371.756883
20
1260.022306
30
0.0
11
4373.556883
21
1261.822306
31
0.0
0
LINE
8
0
10
4377.510854
20
1265.776278
30
0.0
11
4378.547520
21
1266.812944
31
0.0
0
LINE
8
0
10
4374.001947
20
1260.022306
30
0.0
11
4375.801947
21
1261.822306
31
0.0
0
LINE
8
0
10
4376.236351
20
1260.011647
30
0.0
11
4379.019776
21
1262.795072
31
0.0
0
LINE
8
0
10
4377.697241
20
1259.227473
30
0.0
11
4378.846785
21
1260.377016
31
0.0
0
LINE
8
0
10
4365.869839
20
1259.255797
30
0.0
11
4364.730388
21
1260.395248
31
0.0
0
LINE
8
0
10
4367.350730
20
1260.019970
30
0.0
11
4364.526320
21
1262.844380
31
0.0
0
LINE
8
0
10
4369.593457
20
1260.022306
30
0.0
11
4367.793457
21
1261.822306
31
0.0
0
LINE
8
0
10
4371.838521
20
1260.022306
30
0.0
11
4370.038521
21
1261.822306
31
0.0
0
LINE
8
0
10
4366.056226
20
1265.804602
30
0.0
11
4365.084203
21
1266.776625
31
0.0
0
LINE
8
0
10
4374.083585
20
1260.022306
30
0.0
11
4372.283585
21
1261.822306
31
0.0
0
LINE
8
0
10
4367.642391
20
1266.463501
30
0.0
11
4364.683132
21
1269.422759
31
0.0
0
LINE
8
0
10
4376.375254
20
1259.975702
30
0.0
11
4374.528649
21
1261.822306
31
0.0
0
LINE
8
0
10
4369.887455
20
1266.463501
30
0.0
11
4368.087455
21
1268.263501
31
0.0
0
LINE
8
0
10
4379.059010
20
1259.537009
30
0.0
11
4378.272608
21
1260.323412
31
0.0
0
LINE
8
0
10
4372.132519
20
1266.463501
30
0.0
11
4370.332519
21
1268.263501
31
0.0
0
LINE
8
0
10
4377.710116
20
1260.885904
30
0.0
11
4376.607844
21
1261.988176
31
0.0
0
LINE
8
0
10
4378.959010
20
1261.882073
30
0.0
11
4378.031158
21
1262.809926
31
0.0
0
LINE
8
0
10
4374.377583
20
1266.463501
30
0.0
11
4372.577583
21
1268.263501
31
0.0
0
LINE
8
0
10
4377.035321
20
1266.050827
30
0.0
11
4374.822647
21
1268.263501
31
0.0
0
LINE
8
0
10
4378.959010
20
1266.372202
30
0.0
11
4378.526792
21
1266.804420
31
0.0
0
LINE
8
0
10
4377.749930
20
1267.581282
30
0.0
11
4376.794231
21
1268.536981
31
0.0
0
LINE
8
0
10
4379.059010
20
1268.517266
30
0.0
11
4378.217545
21
1269.358731
31
0.0
0
ARC
8
0
10
4378.647204
20
1268.088501
30
0.0
40
0.200000
50
244.992167
51
286.231301
0
ARC
8
0
10
4378.759010
20
1268.088501
30
0.0
40
0.200000
50
253.768699
51
0.000000
0
LINE
8
0
10
4378.959010
20
1268.088501
30
0.0
11
4378.959010
21
1268.463501
31
0.0
0
LINE
8
0
10
4378.959010
20
1268.463501
30
0.0
11
4379.059010
21
1268.463501
31
0.0
0
LINE
8
0
10
4379.059010
20
1268.463501
30
0.0
11
4379.059010
21
1269.063501
31
0.0
0
ARC
8
0
10
4378.659010
20
1269.063501
30
0.0
40
0.400000
50
0.000000
51
90.000000
0
LINE
8
0
10
4378.659010
20
1269.463501
30
0.0
11
4378.452600
21
1269.463501
31
0.0
0
ARC
8
0
10
4378.452600
20
1269.263501
30
0.0
40
0.200000
50
90.000000
51
120.000000
0
LINE
8
0
10
4378.352600
20
1269.436706
30
0.0
11
4376.506190
21
1268.370680
31
0.0
0
ARC
8
0
10
4376.106190
20
1269.063501
30
0.0
40
0.800000
50
270.000000
51
300.000000
0
LINE
8
0
10
4376.106190
20
1268.263501
30
0.0
11
4371.759010
21
1268.263501
31
0.0
0
LINE
8
0
10
4371.759010
20
1268.263501
30
0.0
11
4367.411831
21
1268.263501
31
0.0
0
ARC
8
0
10
4367.411831
20
1269.063501
30
0.0
40
0.800000
50
240.000000
51
270.000000
0
LINE
8
0
10
4367.011831
20
1268.370680
30
0.0
11
4365.165421
21
1269.436706
31
0.0
0
ARC
8
0
10
4365.065421
20
1269.263501
30
0.0
40
0.200000
50
60.000000
51
90.000000
0
LINE
8
0
10
4365.065421
20
1269.463501
30
0.0
11
4364.859010
21
1269.463501
31
0.0
0
ARC
8
0
10
4364.859010
20
1269.063501
30
0.0
40
0.400000
50
90.000000
51
180.000000
0
LINE
8
0
10
4364.459010
20
1269.063501
30
0.0
11
4364.459010
21
1268.463501
31
0.0
0
LINE
8
0
10
4364.459010
20
1268.463501
30
0.0
11
4364.559010
21
1268.463501
31
0.0
0
LINE
8
0
10
4364.559010
20
1268.463501
30
0.0
11
4364.559010
21
1268.088501
31
0.0
0
ARC
8
0
10
4364.759010
20
1268.088501
30
0.0
40
0.200000
50
180.000000
51
286.231301
0
ARC
8
0
10
4364.870817
20
1268.088501
30
0.0
40
0.200000
50
253.768699
51
295.007833
0
ARC
8
0
10
4365.209010
20
1267.363501
30
0.0
40
0.600000
50
0.000000
51
115.007833
0
ARC
8
0
10
4365.209010
20
1267.363501
30
0.0
40
0.600000
50
244.992167
51
0.000000
0
ARC
8
0
10
4364.870817
20
1266.638501
30
0.0
40
0.200000
50
64.992167
51
106.231301
0
ARC
8
0
10
4364.759010
20
1266.638501
30
0.0
40
0.200000
50
73.768699
51
180.000000
0
LINE
8
0
10
4364.559010
20
1266.638501
30
0.0
11
4364.559010
21
1266.263501
31
0.0
0
LINE
8
0
10
4364.559010
20
1266.263501
30
0.0
11
4364.459010
21
1266.263501
31
0.0
0
LINE
8
0
10
4364.459010
20
1266.263501
30
0.0
11
4364.459010
21
1265.663501
31
0.0
0
ARC
8
0
10
4364.859010
20
1265.663501
30
0.0
40
0.400000
50
180.000000
51
270.000000
0
LINE
8
0
10
4364.859010
20
1265.263501
30
0.0
11
4365.065421
21
1265.263501
31
0.0
0
ARC
8
0
10
4365.065421
20
1265.463501
30
0.0
40
0.200000
50
270.000000
51
300.000000
0
LINE
8
0
10
4365.165421
20
1265.290296
30
0.0
11
4367.011831
21
1266.356321
31
0.0
0
ARC
8
0
10
4367.411831
20
1265.663501
30
0.0
40
0.800000
50
90.000000
51
120.000000
0
LINE
8
0
10
4367.411831
20
1266.463501
30
0.0
11
4371.476168
21
1266.463501
31
0.0
0
ARC
8
0
10
4371.476168
20
1266.263501
30
0.0
40
0.200000
50
51.057559
51
90.000000
0
ARC
8
0
10
4371.759010
20
1266.613501
30
0.0
40
0.250000
50
231.057559
51
308.942441
0
ARC
8
0
10
4372.041853
20
1266.263501
30
0.0
40
0.200000
50
90.000000
51
128.942441
0
LINE
8
0
10
4372.041853
20
1266.463501
30
0.0
11
4376.106190
21
1266.463501
31
0.0
0
ARC
8
0
10
4376.106190
20
1265.663501
30
0.0
40
0.800000
50
60.000000
51
90.000000
0
LINE
8
0
10
4376.506190
20
1266.356321
30
0.0
11
4378.352600
21
1265.290296
31
0.0
0
ARC
8
0
10
4378.452600
20
1265.463501
30
0.0
40
0.200000
50
240.000000
51
270.000000
0
LINE
8
0
10
4378.452600
20
1265.263501
30
0.0
11
4378.659010
21
1265.263501
31
0.0
0
ARC
8
0
10
4378.659010
20
1265.663501
30
0.0
40
0.400000
50
270.000000
51
0.000000
0
LINE
8
0
10
4379.059010
20
1265.663501
30
0.0
11
4379.059010
21
1266.263501
31
0.0
0
LINE
8
0
10
4379.059010
20
1266.263501
30
0.0
11
4378.959010
21
1266.263501
31
0.0
0
LINE
8
0
10
4378.959010
20
1266.263501
30
0.0
11
4378.959010
21
1266.638501
31
0.0
0
ARC
8
0
10
4378.759010
20
1266.638501
30
0.0
40
0.200000
50
0.000000
51
106.231301
0
ARC
8
0
10
4378.647204
20
1266.638501
30
0.0
40
0.200000
50
73.768699
51
115.007833
0
ARC
8
0
10
4378.309010
20
1267.363501
30
0.0
40
0.600000
50
180.000000
51
295.007833
0
ARC
8
0
10
4378.309010
20
1267.363501
30
0.0
40
0.600000
50
64.992167
51
180.000000
0
ARC
8
0
10
4378.647204
20
1260.197306
30
0.0
40
0.200000
50
73.768699
51
115.007833
0
ARC
8
0
10
4378.759010
20
1260.197306
30
0.0
40
0.200000
50
0.000000
51
106.231301
0
LINE
8
0
10
4378.959010
20
1260.197306
30
0.0
11
4378.959010
21
1259.822306
31
0.0
0
LINE
8
0
10
4378.959010
20
1259.822306
30
0.0
11
4379.059010
21
1259.822306
31
0.0
0
LINE
8
0
10
4379.059010
20
1259.822306
30
0.0
11
4379.059010
21
1259.222306
31
0.0
0
ARC
8
0
10
4378.659010
20
1259.222306
30
0.0
40
0.400000
50
270.000000
51
0.000000
0
LINE
8
0
10
4378.659010
20
1258.822306
30
0.0
11
4378.452600
21
1258.822306
31
0.0
0
ARC
8
0
10
4378.452600
20
1259.022306
30
0.0
40
0.200000
50
240.000000
51
270.000000
0
LINE
8
0
10
4378.352600
20
1258.849101
30
0.0
11
4376.506190
21
1259.915127
31
0.0
0
ARC
8
0
10
4376.106190
20
1259.222306
30
0.0
40
0.800000
50
60.000000
51
90.000000
0
LINE
8
0
10
4376.106190
20
1260.022306
30
0.0
11
4371.759010
21
1260.022306
31
0.0
0
LINE
8
0
10
4371.759010
20
1260.022306
30
0.0
11
4367.411831
21
1260.022306
31
0.0
0
ARC
8
0
10
4367.411831
20
1259.222306
30
0.0
40
0.800000
50
90.000000
51
120.000000
0
LINE
8
0
10
4367.011831
20
1259.915127
30
0.0
11
4365.165421
21
1258.849101
31
0.0
0
ARC
8
0
10
4365.065421
20
1259.022306
30
0.0
40
0.200000
50
270.000000
51
300.000000
0
LINE
8
0
10
4365.065421
20
1258.822306
30
0.0
11
4364.859010
21
1258.822306
31
0.0
0
ARC
8
0
10
4364.859010
20
1259.222306
30
0.0
40
0.400000
50
180.000000
51
270.000000
0
LINE
8
0
10
4364.459010
20
1259.222306
30
0.0
11
4364.459010
21
1259.822306
31
0.0
0
LINE
8
0
10
4364.459010
20
1259.822306
30
0.0
11
4364.559010
21
1259.822306
31
0.0
0
LINE
8
0
10
4364.559010
20
1259.822306
30
0.0
11
4364.559010
21
1260.197306
31
0.0
0
ARC
8
0
10
4364.759010
20
1260.197306
30
0.0
40
0.200000
50
73.768699
51
180.000000
0
ARC
8
0
10
4364.870817
20
1260.197306
30
0.0
40
0.200000
50
64.992167
51
106.231301
0
ARC
8
0
10
4365.209010
20
1260.922306
30
0.0
40
0.600000
50
244.992167
51
0.000000
0
ARC
8
0
10
4365.209010
20
1260.922306
30
0.0
40
0.600000
50
0.000000
51
115.007833
0
ARC
8
0
10
4364.870817
20
1261.647306
30
0.0
40
0.200000
50
253.768699
51
295.007833
0
ARC
8
0
10
4364.759010
20
1261.647306
30
0.0
40
0.200000
50
180.000000
51
286.231301
0
LINE
8
0
10
4364.559010
20
1261.647306
30
0.0
11
4364.559010
21
1262.022306
31
0.0
0
LINE
8
0
10
4364.559010
20
1262.022306
30
0.0
11
4364.459010
21
1262.022306
31
0.0
0
LINE
8
0
10
4364.459010
20
1262.022306
30
0.0
11
4364.459010
21
1262.622306
31
0.0
0
ARC
8
0
10
4364.859010
20
1262.622306
30
0.0
40
0.400000
50
90.000000
51
180.000000
0
LINE
8
0
10
4364.859010
20
1263.022306
30
0.0
11
4365.065421
21
1263.022306
31
0.0
0
ARC
8
0
10
4365.065421
20
1262.822306
30
0.0
40
0.200000
50
60.000000
51
90.000000
0
LINE
8
0
10
4365.165421
20
1262.995511
30
0.0
11
4367.011831
21
1261.929486
31
0.0
0
ARC
8
0
10
4367.411831
20
1262.622306
30
0.0
40
0.800000
50
240.000000
51
270.000000
0
LINE
8
0
10
4367.411831
20
1261.822306
30
0.0
11
4371.476168
21
1261.822306
31
0.0
0
ARC
8
0
10
4371.476168
20
1262.022306
30
0.0
40
0.200000
50
270.000000
51
308.942441
0
ARC
8
0
10
4371.759010
20
1261.672306
30
0.0
40
0.250000
50
51.057559
51
128.942441
0
ARC
8
0
10
4372.041853
20
1262.022306
30
0.0
40
0.200000
50
231.057559
51
270.000000
0
LINE
8
0
10
4372.041853
20
1261.822306
30
0.0
11
4376.106190
21
1261.822306
31
0.0
0
ARC
8
0
10
4376.106190
20
1262.622306
30
0.0
40
0.800000
50
270.000000
51
300.000000
0
LINE
8
0
10
4376.506190
20
1261.929486
30
0.0
11
4378.352600
21
1262.995511
31
0.0
0
ARC
8
0
10
4378.452600
20
1262.822306
30
0.0
40
0.200000
50
90.000000
51
120.000000
0
LINE
8
0
10
4378.452600
20
1263.022306
30
0.0
11
4378.659010
21
1263.022306
31
0.0
0
ARC
8
0
10
4378.659010
20
1262.622306
30
0.0
40
0.400000
50
0.000000
51
90.000000
0
LINE
8
0
10
4379.059010
20
1262.622306
30
0.0
11
4379.059010
21
1262.022306
31
0.0
0
LINE
8
0
10
4379.059010
20
1262.022306
30
0.0
11
4378.959010
21
1262.022306
31
0.0
0
LINE
8
0
10
4378.959010
20
1262.022306
30
0.0
11
4378.959010
21
1261.647306
31
0.0
0
ARC
8
0
10
4378.759010
20
1261.647306
30
0.0
40
0.200000
50
253.768699
51
0.000000
0
ARC
8
0
10
4378.647204
20
1261.647306
30
0.0
40
0.200000
50
244.992167
51
286.231301
0
ARC
8
0
10
4378.309010
20
1260.922306
30
0.0
40
0.600000
50
64.992167
51
180.000000
0
ARC
8
0
10
4378.309010
20
1260.922306
30
0.0
40
0.600000
50
180.000000
51
295.007833
0
ATTDEF
8
0
10
0.000000
20
0.000000
30
0.0
40
3.5
1

3

2
PANE_WIDTH:0
70
0
0
ATTDEF
8
0
10
0.000000
20
0.000000
30
0.0
40
3.5
1

3

2
MIN_VETRO:0
70
0
0
ATTDEF
8
0
10
0.000000
20
0.000000
30
0.0
40
3.5
1

3

2
MAX_VETRO:0
70
0
0
ATTDEF
8
0
10
0.000000
20
0.000000
30
0.0
40
3.5
1

3

2
JX:0
70
0
0
ATTDEF
8
0
10
0.000000
20
0.000000
30
0.0
40
3.5
1

3

2
WX:0
70
0
0
ATTDEF
8
0
10
0.000000
20
0.000000
30
0.0
40
3.5
1

3

2
JY:0
70
0
0
ATTDEF
8
0
10
0.000000
20
0.000000
30
0.0
40
3.5
1

3

2
WY:0
70
0
0
ATTDEF
8
0
10
0.000000
20
0.000000
30
0.0
40
3.5
1

3

2
DESC:Guia 155 mm.
70
0
0
ATTDEF
8
0
10
0.000000
20
0.000000
30
0.0
40
3.5
1

3

2
DENS:1.6417
70
0
0
ATTDEF
8
0
10
0.000000
20
0.000000
30
0.0
40
3.5
1

3

2
TDEV:81.79
70
0
0
ATTDEF
8
0
10
0.000000
20
0.000000
30
0.0
40
3.5
1

3

2
TDEV2:0
70
0
0
ATTDEF
8
0
10
0.000000
20
0.000000
30
0.0
40
3.5
1

3

2
TDEV3:0
70
0
0
ATTDEF
8
0
10
0.000000
20
0.000000
30
0.0
40
3.5
1

3

2
TDEV4:0
70
0
0
ATTDEF
8
0
10
0.000000
20
0.000000
30
0.0
40
3.5
1

3

2
TDEV5:0
70
0
0
ATTDEF
8
0
10
0.000000
20
0.000000
30
0.0
40
3.5
1

3

2
PANE_WIDTH:0
70
0
0
ATTDEF
8
0
10
0.000000
20
0.000000
30
0.0
40
3.5
1

3

2
MIN_VETRO:0
70
0
0
ATTDEF
8
0
10
0.000000
20
0.000000
30
0.0
40
3.5
1

3

2
MAX_VETRO:0
70
0
0
ATTDEF
8
0
10
0.000000
20
0.000000
30
0.0
40
3.5
1

3

2
JX:0
70
0
0
ATTDEF
8
0
10
0.000000
20
0.000000
30
0.0
40
3.5
1

3

2
WX:0
70
0
0
ATTDEF
8
0
10
0.000000
20
0.000000
30
0.0
40
3.5
1

3

2
JY:0
70
0
0
ATTDEF
8
0
10
0.000000
20
0.000000
30
0.0
40
3.5
1

3

2
WY:0
70
0
0
ENDSEC
0
EOF
