0
SECTION
2
ENTITIES
0
LINE
8
0
10
750.221987
20
348.173796
30
0.0
11
747.121987
21
348.173796
31
0.0
0
ARC
8
0
10
750.221987
20
348.673796
30
0.0
40
0.500000
50
270.000000
51
360.000000
0
LINE
8
0
10
747.121987
20
348.173796
30
0.0
11
747.121987
21
317.523796
31
0.0
0
LINE
8
0
10
750.721987
20
349.914950
30
0.0
11
750.721987
21
348.673796
31
0.0
0
LINE
8
0
10
747.121987
20
317.523796
30
0.0
11
748.621987
21
317.523796
31
0.0
0
LINE
8
0
10
750.081794
20
351.023796
30
0.0
11
750.721987
21
349.914950
31
0.0
0
ARC
8
0
10
748.621987
20
317.023796
30
0.0
40
0.500000
50
360.000000
51
90.000000
0
ARC
8
0
10
749.821987
20
350.873796
30
0.0
40
0.300000
50
30.000000
51
180.000000
0
LINE
8
0
10
749.121987
20
317.023796
30
0.0
11
749.121987
21
315.323796
31
0.0
0
LINE
8
0
10
749.521987
20
349.373796
30
0.0
11
749.521987
21
350.873796
31
0.0
0
LINE
8
0
10
749.121987
20
315.323796
30
0.0
11
748.389936
21
315.323796
31
0.0
0
LINE
8
0
10
747.121987
20
349.373796
30
0.0
11
749.521987
21
349.373796
31
0.0
0
LINE
8
0
10
748.389936
20
315.323796
30
0.0
11
748.345544
21
315.489471
31
0.0
0
LINE
8
0
10
747.121987
20
372.873796
30
0.0
11
747.121987
21
349.373796
31
0.0
0
LINE
8
0
10
748.345544
20
315.489471
30
0.0
11
748.100595
21
315.630892
31
0.0
0
ARC
8
0
10
748.871987
20
372.873796
30
0.0
40
1.750000
50
90.000000
51
180.000000
0
LINE
8
0
10
748.100595
20
315.630892
30
0.0
11
748.242016
21
315.875841
31
0.0
0
LINE
8
0
10
749.221987
20
374.623796
30
0.0
11
748.871987
21
374.623796
31
0.0
0
LINE
8
0
10
748.242016
20
315.875841
30
0.0
11
748.121987
21
316.323796
31
0.0
0
ARC
8
0
10
749.221987
20
374.323796
30
0.0
40
0.300000
50
360.000000
51
90.000000
0
LINE
8
0
10
748.121987
20
316.323796
30
0.0
11
747.121987
21
316.323796
31
0.0
0
LINE
8
0
10
749.521987
20
373.473796
30
0.0
11
749.521987
21
374.323796
31
0.0
0
LINE
8
0
10
747.121987
20
316.323796
30
0.0
11
747.121987
21
301.323796
31
0.0
0
LINE
8
0
10
748.684116
20
373.040239
30
0.0
11
749.521987
21
373.473796
31
0.0
0
LINE
8
0
10
747.121987
20
301.323796
30
0.0
11
748.121987
21
301.323796
31
0.0
0
ARC
8
0
10
748.821987
20
372.773796
30
0.0
40
0.300000
50
117.359369
51
270.000000
0
LINE
8
0
10
748.121987
20
301.323796
30
0.0
11
748.242016
21
301.771751
31
0.0
0
LINE
8
0
10
749.521987
20
372.473796
30
0.0
11
748.821987
21
372.473796
31
0.0
0
LINE
8
0
10
748.242016
20
301.771751
30
0.0
11
748.100595
21
302.016700
31
0.0
0
LINE
8
0
10
749.521987
20
370.973796
30
0.0
11
749.521987
21
372.473796
31
0.0
0
LINE
8
0
10
748.100595
20
302.016700
30
0.0
11
748.345544
21
302.158122
31
0.0
0
ARC
8
0
10
749.821987
20
370.973796
30
0.0
40
0.300000
50
180.000000
51
330.000000
0
LINE
8
0
10
748.345544
20
302.158122
30
0.0
11
748.389936
21
302.323796
31
0.0
0
LINE
8
0
10
750.721987
20
371.932642
30
0.0
11
750.081794
21
370.823796
31
0.0
0
LINE
8
0
10
748.389936
20
302.323796
30
0.0
11
749.121987
21
302.323796
31
0.0
0
LINE
8
0
10
750.721987
20
374.623796
30
0.0
11
750.721987
21
371.932642
31
0.0
0
LINE
8
0
10
749.121987
20
302.323796
30
0.0
11
749.121987
21
300.023796
31
0.0
0
LINE
8
0
10
751.271987
20
374.623796
30
0.0
11
750.721987
21
374.623796
31
0.0
0
LINE
8
0
10
749.121987
20
300.023796
30
0.0
11
751.271987
21
300.023796
31
0.0
0
ARC
8
0
10
751.271987
20
374.923796
30
0.0
40
0.300000
50
270.000000
51
360.000000
0
ARC
8
0
10
751.271987
20
299.723796
30
0.0
40
0.300000
50
360.000000
51
90.000000
0
LINE
8
0
10
751.571987
20
375.623796
30
0.0
11
751.571987
21
374.923796
31
0.0
0
LINE
8
0
10
751.571987
20
299.723796
30
0.0
11
751.571987
21
299.223796
31
0.0
0
ARC
8
0
10
751.271987
20
375.623796
30
0.0
40
0.300000
50
360.000000
51
90.000000
0
ARC
8
0
10
751.271987
20
299.223796
30
0.0
40
0.300000
50
270.000000
51
360.000000
0
LINE
8
0
10
748.821987
20
375.923796
30
0.0
11
751.271987
21
375.923796
31
0.0
0
LINE
8
0
10
751.271987
20
298.923796
30
0.0
11
748.821987
21
298.923796
31
0.0
0
ARC
8
0
10
748.821987
20
372.923796
30
0.0
40
3.000000
50
90.000000
51
180.000000
0
ARC
8
0
10
748.821987
20
301.923796
30
0.0
40
3.000000
50
180.000000
51
270.000000
0
LINE
8
0
10
745.821987
20
301.923796
30
0.0
11
745.821987
21
372.923796
31
0.0
0
ATTDEF
8
0
10
0.000000
20
0.000000
30
0.0
40
3.5
1

3

2
PANE_WIDTH:0
70
0
0
ATTDEF
8
0
10
0.000000
20
0.000000
30
0.0
40
3.5
1

3

2
MIN_VETRO:0
70
0
0
ATTDEF
8
0
10
0.000000
20
0.000000
30
0.0
40
3.5
1

3

2
MAX_VETRO:0
70
0
0
ATTDEF
8
0
10
0.000000
20
0.000000
30
0.0
40
3.5
1

3

2
JX:0
70
0
0
ATTDEF
8
0
10
0.000000
20
0.000000
30
0.0
40
3.5
1

3

2
WX:0
70
0
0
ATTDEF
8
0
10
0.000000
20
0.000000
30
0.0
40
3.5
1

3

2
JY:0
70
0
0
ATTDEF
8
0
10
0.000000
20
0.000000
30
0.0
40
3.5
1

3

2
WY:0
70
0
0
ATTDEF
8
0
10
0.000000
20
0.000000
30
0.0
40
3.5
1

3

2
DESC:Solape 77mm.
70
0
0
ATTDEF
8
0
10
0.000000
20
0.000000
30
0.0
40
3.5
1

3

2
DENS:0.3375
70
0
0
ATTDEF
8
0
10
0.000000
20
0.000000
30
0.0
40
3.5
1

3

2
TDEV:19.66
70
0
0
ATTDEF
8
0
10
0.000000
20
0.000000
30
0.0
40
3.5
1

3

2
TDEV2:0
70
0
0
ATTDEF
8
0
10
0.000000
20
0.000000
30
0.0
40
3.5
1

3

2
TDEV3:0
70
0
0
ATTDEF
8
0
10
0.000000
20
0.000000
30
0.0
40
3.5
1

3

2
TDEV4:0
70
0
0
ATTDEF
8
0
10
0.000000
20
0.000000
30
0.0
40
3.5
1

3

2
TDEV5:0
70
0
0
ATTDEF
8
0
10
0.000000
20
0.000000
30
0.0
40
3.5
1

3

2
PANE_WIDTH:0
70
0
0
ATTDEF
8
0
10
0.000000
20
0.000000
30
0.0
40
3.5
1

3

2
MIN_VETRO:0
70
0
0
ATTDEF
8
0
10
0.000000
20
0.000000
30
0.0
40
3.5
1

3

2
MAX_VETRO:0
70
0
0
ATTDEF
8
0
10
0.000000
20
0.000000
30
0.0
40
3.5
1

3

2
JX:0
70
0
0
ATTDEF
8
0
10
0.000000
20
0.000000
30
0.0
40
3.5
1

3

2
WX:0
70
0
0
ATTDEF
8
0
10
0.000000
20
0.000000
30
0.0
40
3.5
1

3

2
JY:0
70
0
0
ATTDEF
8
0
10
0.000000
20
0.000000
30
0.0
40
3.5
1

3

2
WY:0
70
0
0
ATTDEF
8
0
10
750.046987
20
375.923796
30
0.0
40
3.5
1

3

2
VC_START
70
0
0
ATTDEF
8
0
10
747.121987
20
317.523796
30
0.0
40
3.5
1

3

2
VC_END
70
0
0
ATTDEF
8
0
10
745.821987
20
298.923796
30
0.0
40
3.5
1

3

2
FP_LCS_ORIG
70
0
0
ATTDEF
8
0
10
755.821987
20
298.923796
30
0.0
40
3.5
1

3

2
FP_LCS_HOT
70
0
0
ATTDEF
8
0
10
745.821987
20
308.923796
30
0.0
40
3.5
1

3

2
FP_LCS_INTERN
70
0
0
ENDSEC
0
EOF
