0
SECTION
2
ENTITIES
0
LINE
8
0
10
521.455898
20
3148.503678
30
0.0
11
527.265836
21
3148.503678
31
0.0
0
ARC
8
0
10
527.265836
20
3148.983678
30
0.0
40
0.480000
50
270.000000
51
54.469145
0
LINE
8
0
10
527.544784
20
3149.374303
30
0.0
11
524.912994
21
3151.253678
31
0.0
0
LINE
8
0
10
524.912994
20
3151.253678
30
0.0
11
524.075836
21
3149.803678
31
0.0
0
LINE
8
0
10
524.075836
20
3149.803678
30
0.0
11
522.366168
21
3149.803678
31
0.0
0
ARC
8
0
10
522.366168
20
3150.103678
30
0.0
40
0.300000
50
200.000002
51
270.000000
0
LINE
8
0
10
522.084260
20
3150.001072
30
0.0
11
518.660684
21
3159.407270
31
0.0
0
ARC
8
0
10
520.540069
20
3160.091310
30
0.0
40
2.000000
50
124.969632
51
199.999992
0
ARC
8
0
10
527.245845
20
3150.503650
30
0.0
40
13.700028
50
89.163574
51
124.969611
0
LINE
8
0
10
527.445836
20
3164.202218
30
0.0
11
541.145836
21
3164.202218
31
0.0
0
ARC
8
0
10
541.145836
20
3163.902218
30
0.0
40
0.300000
50
0.000000
51
90.000000
0
LINE
8
0
10
541.445836
20
3163.902218
30
0.0
11
541.445836
21
3155.303678
31
0.0
0
ARC
8
0
10
541.745836
20
3155.303678
30
0.0
40
0.300000
50
180.000000
51
270.000000
0
LINE
8
0
10
541.745836
20
3155.003678
30
0.0
11
544.945836
21
3155.003678
31
0.0
0
ARC
8
0
10
544.945836
20
3155.303678
30
0.0
40
0.300000
50
270.000000
51
0.000000
0
LINE
8
0
10
545.245836
20
3155.303678
30
0.0
11
545.245836
21
3157.753678
31
0.0
0
ARC
8
0
10
544.745836
20
3157.753678
30
0.0
40
0.500000
50
0.000000
51
90.000000
0
LINE
8
0
10
544.745836
20
3158.253678
30
0.0
11
544.545836
21
3158.253678
31
0.0
0
ARC
8
0
10
544.545836
20
3157.753678
30
0.0
40
0.500000
50
90.000000
51
180.000000
0
LINE
8
0
10
544.045836
20
3157.753678
30
0.0
11
544.045836
21
3156.503678
31
0.0
0
LINE
8
0
10
544.045836
20
3156.503678
30
0.0
11
542.745836
21
3156.503678
31
0.0
0
LINE
8
0
10
542.745836
20
3156.503678
30
0.0
11
542.745836
21
3164.003678
31
0.0
0
LINE
8
0
10
542.745836
20
3164.003678
30
0.0
11
544.045836
21
3164.003678
31
0.0
0
LINE
8
0
10
544.045836
20
3164.003678
30
0.0
11
544.045836
21
3162.753678
31
0.0
0
ARC
8
0
10
544.545836
20
3162.753678
30
0.0
40
0.500000
50
180.000000
51
270.000000
0
LINE
8
0
10
544.545836
20
3162.253678
30
0.0
11
544.745836
21
3162.253678
31
0.0
0
ARC
8
0
10
544.745836
20
3162.753678
30
0.0
40
0.500000
50
270.000000
51
0.000000
0
LINE
8
0
10
545.245836
20
3162.753678
30
0.0
11
545.245836
21
3165.203678
31
0.0
0
ARC
8
0
10
544.945836
20
3165.203678
30
0.0
40
0.300000
50
0.000000
51
90.000000
0
LINE
8
0
10
544.945836
20
3165.503678
30
0.0
11
527.245836
21
3165.503678
31
0.0
0
ARC
8
0
10
527.245825
20
3150.503689
30
0.0
40
14.999989
50
90.000000
51
180.000000
0
LINE
8
0
10
512.245836
20
3150.503678
30
0.0
11
512.245836
21
3145.803678
31
0.0
0
ARC
8
0
10
512.545836
20
3145.803678
30
0.0
40
0.300000
50
180.000000
51
270.000000
0
LINE
8
0
10
512.545836
20
3145.503678
30
0.0
11
515.545836
21
3145.503678
31
0.0
0
ARC
8
0
10
515.545836
20
3146.003678
30
0.0
40
0.500000
50
270.000000
51
0.000000
0
LINE
8
0
10
516.045836
20
3146.003678
30
0.0
11
516.045836
21
3146.303678
31
0.0
0
ARC
8
0
10
515.545836
20
3146.303678
30
0.0
40
0.500000
50
0.000000
51
90.000000
0
LINE
8
0
10
515.545836
20
3146.803678
30
0.0
11
513.545836
21
3146.803678
31
0.0
0
LINE
8
0
10
513.545836
20
3146.803678
30
0.0
11
513.545836
21
3150.503678
31
0.0
0
ARC
8
0
10
527.245869
20
3150.503667
30
0.0
40
13.700034
50
145.208353
51
180.000000
0
ARC
8
0
10
516.816189
20
3157.750227
30
0.0
40
1.000000
50
19.999992
51
145.208270
0
LINE
8
0
10
517.755882
20
3158.092247
30
0.0
11
521.173990
21
3148.701072
31
0.0
0
ARC
8
0
10
521.455898
20
3148.803678
30
0.0
40
0.300000
50
200.000002
51
270.000000
0
ATTDEF
8
0
10
544.945836
20
3165.503678
30
0.0
40
3.5
1

3

2
VC_START
70
0
0
ATTDEF
8
0
10
512.545836
20
3145.503678
30
0.0
40
3.5
1

3

2
VC_END
70
0
0
ATTDEF
8
0
10
545.245836
20
3145.503678
30
0.0
40
3.5
1

3

2
FP_LCS_ORIG
70
0
0
ATTDEF
8
0
10
535.245836
20
3145.503678
30
0.0
40
3.5
1

3

2
FP_LCS_HOT
70
0
0
ATTDEF
8
0
10
545.245836
20
3155.503678
30
0.0
40
3.5
1

3

2
FP_LCS_INTERN
70
0
0
ATTDEF
8
0
10
0.000000
20
0.000000
30
0.0
40
3.5
1

3

2
PANE_WIDTH:0
70
0
0
ATTDEF
8
0
10
0.000000
20
0.000000
30
0.0
40
3.5
1

3

2
MIN_VETRO:0
70
0
0
ATTDEF
8
0
10
0.000000
20
0.000000
30
0.0
40
3.5
1

3

2
MAX_VETRO:0
70
0
0
ATTDEF
8
0
10
0.000000
20
0.000000
30
0.0
40
3.5
1

3

2
JX:0
70
0
0
ATTDEF
8
0
10
0.000000
20
0.000000
30
0.0
40
3.5
1

3

2
WX:0
70
0
0
ATTDEF
8
0
10
0.000000
20
0.000000
30
0.0
40
3.5
1

3

2
JY:0
70
0
0
ATTDEF
8
0
10
0.000000
20
0.000000
30
0.0
40
3.5
1

3

2
WY:0
70
0
0
ATTDEF
8
0
10
0.000000
20
0.000000
30
0.0
40
3.5
1

3

2
DESC:Junquillo grapa pl s
70
0
0
ATTDEF
8
0
10
0.000000
20
0.000000
30
0.0
40
3.5
1

3

2
DENS:0.2943
70
0
0
ATTDEF
8
0
10
0.000000
20
0.000000
30
0.0
40
3.5
1

3

2
TDEV:16.15
70
0
0
ATTDEF
8
0
10
0.000000
20
0.000000
30
0.0
40
3.5
1

3

2
TDEV2:0
70
0
0
ATTDEF
8
0
10
0.000000
20
0.000000
30
0.0
40
3.5
1

3

2
TDEV3:0
70
0
0
ATTDEF
8
0
10
0.000000
20
0.000000
30
0.0
40
3.5
1

3

2
TDEV4:0
70
0
0
ATTDEF
8
0
10
0.000000
20
0.000000
30
0.0
40
3.5
1

3

2
TDEV5:0
70
0
0
ATTDEF
8
0
10
0.000000
20
0.000000
30
0.0
40
3.5
1

3

2
PANE_WIDTH:0
70
0
0
ATTDEF
8
0
10
0.000000
20
0.000000
30
0.0
40
3.5
1

3

2
MIN_VETRO:0
70
0
0
ATTDEF
8
0
10
0.000000
20
0.000000
30
0.0
40
3.5
1

3

2
MAX_VETRO:0
70
0
0
ATTDEF
8
0
10
0.000000
20
0.000000
30
0.0
40
3.5
1

3

2
JX:0
70
0
0
ATTDEF
8
0
10
0.000000
20
0.000000
30
0.0
40
3.5
1

3

2
WX:0
70
0
0
ATTDEF
8
0
10
0.000000
20
0.000000
30
0.0
40
3.5
1

3

2
JY:0
70
0
0
ATTDEF
8
0
10
0.000000
20
0.000000
30
0.0
40
3.5
1

3

2
WY:0
70
0
0
ENDSEC
0
EOF
