0
SECTION
2
ENTITIES
0
ARC
8
0
10
6377.673972
20
117.408615
30
0.0
40
0.600000
50
0.000000
51
180.000000
0
LINE
8
0
10
6378.273972
20
117.408615
30
0.0
11
6378.273972
21
116.508615
31
0.0
0
LINE
8
0
10
6378.273972
20
116.508615
30
0.0
11
6382.273972
21
116.508615
31
0.0
0
LINE
8
0
10
6382.273972
20
116.508615
30
0.0
11
6382.273972
21
117.408615
31
0.0
0
ARC
8
0
10
6382.873972
20
117.408615
30
0.0
40
0.600000
50
0.000000
51
180.000000
0
LINE
8
0
10
6383.473972
20
117.408615
30
0.0
11
6383.473972
21
116.508615
31
0.0
0
LINE
8
0
10
6383.473972
20
116.508615
30
0.0
11
6387.273972
21
116.508615
31
0.0
0
LINE
8
0
10
6387.273972
20
116.508615
30
0.0
11
6387.273972
21
117.408615
31
0.0
0
ARC
8
0
10
6387.873972
20
117.408615
30
0.0
40
0.600000
50
0.000000
51
180.000000
0
LINE
8
0
10
6388.473972
20
117.408615
30
0.0
11
6388.473972
21
116.508615
31
0.0
0
LINE
8
0
10
6388.473972
20
116.508615
30
0.0
11
6392.473972
21
116.508615
31
0.0
0
LINE
8
0
10
6392.473972
20
116.508615
30
0.0
11
6392.473972
21
117.408615
31
0.0
0
ARC
8
0
10
6393.073972
20
117.408615
30
0.0
40
0.600000
50
0.000000
51
180.000000
0
LINE
8
0
10
6393.673972
20
117.408615
30
0.0
11
6393.673972
21
116.508615
31
0.0
0
LINE
8
0
10
6393.673972
20
116.508615
30
0.0
11
6397.673972
21
116.508615
31
0.0
0
LINE
8
0
10
6397.673972
20
116.508615
30
0.0
11
6397.673972
21
136.708615
31
0.0
0
LINE
8
0
10
6397.673972
20
136.708615
30
0.0
11
6394.673972
21
136.708615
31
0.0
0
LINE
8
0
10
6394.673972
20
136.708615
30
0.0
11
6394.673972
21
135.458615
31
0.0
0
ARC
8
0
10
6393.923972
20
135.458615
30
0.0
40
0.750000
50
180.000000
51
0.000000
0
LINE
8
0
10
6393.173972
20
135.458615
30
0.0
11
6393.173972
21
138.208615
31
0.0
0
LINE
8
0
10
6393.173972
20
138.208615
30
0.0
11
6397.673972
21
138.208615
31
0.0
0
LINE
8
0
10
6397.673972
20
138.208615
30
0.0
11
6397.673972
21
142.708615
31
0.0
0
LINE
8
0
10
6397.673972
20
142.708615
30
0.0
11
6373.073972
21
142.708615
31
0.0
0
LINE
8
0
10
6373.073972
20
142.708615
30
0.0
11
6373.073972
21
138.208615
31
0.0
0
LINE
8
0
10
6373.073972
20
138.208615
30
0.0
11
6377.573972
21
138.208615
31
0.0
0
LINE
8
0
10
6377.573972
20
138.208615
30
0.0
11
6377.573972
21
135.458615
31
0.0
0
ARC
8
0
10
6376.823972
20
135.458615
30
0.0
40
0.750000
50
180.000000
51
0.000000
0
LINE
8
0
10
6376.073972
20
135.458615
30
0.0
11
6376.073972
21
136.708615
31
0.0
0
LINE
8
0
10
6376.073972
20
136.708615
30
0.0
11
6373.073972
21
136.708615
31
0.0
0
LINE
8
0
10
6373.073972
20
136.708615
30
0.0
11
6373.073972
21
116.508615
31
0.0
0
LINE
8
0
10
6373.073972
20
116.508615
30
0.0
11
6377.073972
21
116.508615
31
0.0
0
LINE
8
0
10
6377.073972
20
116.508615
30
0.0
11
6377.073972
21
117.408615
31
0.0
0
LINE
8
0
10
6399.173972
20
116.508615
30
0.0
11
6411.173972
21
116.508615
31
0.0
0
LINE
8
0
10
6411.173972
20
116.508615
30
0.0
11
6411.173972
21
123.358615
31
0.0
0
ARC
8
0
10
6411.923972
20
123.358615
30
0.0
40
0.750000
50
0.000000
51
180.000000
0
LINE
8
0
10
6412.673972
20
123.358615
30
0.0
11
6412.673972
21
116.508615
31
0.0
0
LINE
8
0
10
6412.673972
20
116.508615
30
0.0
11
6441.973972
21
116.508615
31
0.0
0
LINE
8
0
10
6441.973972
20
116.508615
30
0.0
11
6441.973972
21
119.608615
31
0.0
0
LINE
8
0
10
6441.973972
20
119.608615
30
0.0
11
6446.073972
21
119.608615
31
0.0
0
ARC
8
0
10
6446.073972
20
119.008615
30
0.0
40
0.600000
50
270.000000
51
90.000000
0
LINE
8
0
10
6446.073972
20
118.408615
30
0.0
11
6443.173972
21
118.408615
31
0.0
0
LINE
8
0
10
6443.173972
20
118.408615
30
0.0
11
6443.173972
21
116.408615
31
0.0
0
LINE
8
0
10
6443.173972
20
116.408615
30
0.0
11
6461.473972
21
116.408615
31
0.0
0
LINE
8
0
10
6461.473972
20
116.408615
30
0.0
11
6461.473972
21
118.408615
31
0.0
0
LINE
8
0
10
6461.473972
20
118.408615
30
0.0
11
6458.573972
21
118.408615
31
0.0
0
ARC
8
0
10
6458.573972
20
119.008615
30
0.0
40
0.600000
50
90.000000
51
270.000000
0
LINE
8
0
10
6458.573972
20
119.608615
30
0.0
11
6462.673972
21
119.608615
31
0.0
0
LINE
8
0
10
6462.673972
20
119.608615
30
0.0
11
6462.673972
21
115.008615
31
0.0
0
LINE
8
0
10
6462.673972
20
115.008615
30
0.0
11
6371.573972
21
115.008615
31
0.0
0
LINE
8
0
10
6371.573972
20
115.008615
30
0.0
11
6371.573972
21
144.208615
31
0.0
0
LINE
8
0
10
6371.573972
20
144.208615
30
0.0
11
6462.673972
21
144.208615
31
0.0
0
LINE
8
0
10
6462.673972
20
144.208615
30
0.0
11
6462.673972
21
139.608615
31
0.0
0
LINE
8
0
10
6462.673972
20
139.608615
30
0.0
11
6458.573972
21
139.608615
31
0.0
0
ARC
8
0
10
6458.573972
20
140.208615
30
0.0
40
0.600000
50
90.000000
51
270.000000
0
LINE
8
0
10
6458.573972
20
140.808615
30
0.0
11
6461.473972
21
140.808615
31
0.0
0
LINE
8
0
10
6461.473972
20
140.808615
30
0.0
11
6461.473972
21
142.808615
31
0.0
0
LINE
8
0
10
6461.473972
20
142.808615
30
0.0
11
6443.173972
21
142.808615
31
0.0
0
LINE
8
0
10
6443.173972
20
142.808615
30
0.0
11
6443.173972
21
140.808615
31
0.0
0
LINE
8
0
10
6443.173972
20
140.808615
30
0.0
11
6446.073972
21
140.808615
31
0.0
0
ARC
8
0
10
6446.073972
20
140.208615
30
0.0
40
0.600000
50
270.000000
51
90.000000
0
LINE
8
0
10
6446.073972
20
139.608615
30
0.0
11
6441.973972
21
139.608615
31
0.0
0
LINE
8
0
10
6441.973972
20
139.608615
30
0.0
11
6441.973972
21
142.708615
31
0.0
0
LINE
8
0
10
6441.973972
20
142.708615
30
0.0
11
6412.673972
21
142.708615
31
0.0
0
LINE
8
0
10
6412.673972
20
142.708615
30
0.0
11
6412.673972
21
135.858615
31
0.0
0
ARC
8
0
10
6411.923972
20
135.858615
30
0.0
40
0.750000
50
180.000000
51
0.000000
0
LINE
8
0
10
6411.173972
20
135.858615
30
0.0
11
6411.173972
21
142.708615
31
0.0
0
LINE
8
0
10
6411.173972
20
142.708615
30
0.0
11
6399.173972
21
142.708615
31
0.0
0
LINE
8
0
10
6399.173972
20
142.708615
30
0.0
11
6399.173972
21
116.508615
31
0.0
0
ATTDEF
8
0
10
0.000000
20
0.000000
30
0.0
40
3.5
1

3

2
PANE_WIDTH:0
70
0
0
ATTDEF
8
0
10
0.000000
20
0.000000
30
0.0
40
3.5
1

3

2
MIN_VETRO:0
70
0
0
ATTDEF
8
0
10
0.000000
20
0.000000
30
0.0
40
3.5
1

3

2
MAX_VETRO:0
70
0
0
ATTDEF
8
0
10
0.000000
20
0.000000
30
0.0
40
3.5
1

3

2
JX:0
70
0
0
ATTDEF
8
0
10
0.000000
20
0.000000
30
0.0
40
3.5
1

3

2
WX:0
70
0
0
ATTDEF
8
0
10
0.000000
20
0.000000
30
0.0
40
3.5
1

3

2
JY:0
70
0
0
ATTDEF
8
0
10
0.000000
20
0.000000
30
0.0
40
3.5
1

3

2
WY:0
70
0
0
ATTDEF
8
0
10
0.000000
20
0.000000
30
0.0
40
3.5
1

3

2
DESC:N/F
70
0
0
ATTDEF
8
0
10
0.000000
20
0.000000
30
0.0
40
3.5
1

3

2
DENS:0
70
0
0
ATTDEF
8
0
10
0.000000
20
0.000000
30
0.0
40
3.5
1

3

2
TDEV:0
70
0
0
ATTDEF
8
0
10
0.000000
20
0.000000
30
0.0
40
3.5
1

3

2
TDEV2:0
70
0
0
ATTDEF
8
0
10
0.000000
20
0.000000
30
0.0
40
3.5
1

3

2
TDEV3:0
70
0
0
ATTDEF
8
0
10
0.000000
20
0.000000
30
0.0
40
3.5
1

3

2
TDEV4:0
70
0
0
ATTDEF
8
0
10
0.000000
20
0.000000
30
0.0
40
3.5
1

3

2
TDEV5:0
70
0
0
ATTDEF
8
0
10
0.000000
20
0.000000
30
0.0
40
3.5
1

3

2
PANE_WIDTH:0
70
0
0
ATTDEF
8
0
10
0.000000
20
0.000000
30
0.0
40
3.5
1

3

2
MIN_VETRO:0
70
0
0
ATTDEF
8
0
10
0.000000
20
0.000000
30
0.0
40
3.5
1

3

2
MAX_VETRO:0
70
0
0
ATTDEF
8
0
10
0.000000
20
0.000000
30
0.0
40
3.5
1

3

2
JX:0
70
0
0
ATTDEF
8
0
10
0.000000
20
0.000000
30
0.0
40
3.5
1

3

2
WX:0
70
0
0
ATTDEF
8
0
10
0.000000
20
0.000000
30
0.0
40
3.5
1

3

2
JY:0
70
0
0
ATTDEF
8
0
10
0.000000
20
0.000000
30
0.0
40
3.5
1

3

2
WY:0
70
0
0
ENDSEC
0
EOF
