0
SECTION
2
ENTITIES
0
LINE
8
0
10
2206.523737
20
1028.022102
30
0.0
11
2183.523737
21
1028.022102
31
0.0
0
ARC
8
0
10
2183.523737
20
1029.022102
30
0.0
40
1.000000
50
180.000000
51
270.000000
0
LINE
8
0
10
2182.523737
20
1029.022102
30
0.0
11
2182.523737
21
1052.022102
31
0.0
0
ARC
8
0
10
2183.523737
20
1052.022102
30
0.0
40
1.000000
50
90.000000
51
180.000000
0
LINE
8
0
10
2183.523737
20
1053.022102
30
0.0
11
2206.523737
21
1053.022102
31
0.0
0
ARC
8
0
10
2206.523737
20
1052.022102
30
0.0
40
1.000000
50
0.000000
51
90.000000
0
LINE
8
0
10
2207.523737
20
1052.022102
30
0.0
11
2207.523737
21
1029.022102
31
0.0
0
ARC
8
0
10
2206.523737
20
1029.022102
30
0.0
40
1.000000
50
270.000000
51
0.000000
0
LINE
8
0
10
2205.523737
20
1029.522102
30
0.0
11
2184.523737
21
1029.522102
31
0.0
0
ARC
8
0
10
2184.523737
20
1030.022102
30
0.0
40
0.500000
50
180.000000
51
270.000000
0
LINE
8
0
10
2184.023737
20
1030.022102
30
0.0
11
2184.023737
21
1051.022102
31
0.0
0
ARC
8
0
10
2184.523737
20
1051.022102
30
0.0
40
0.500000
50
90.000000
51
180.000000
0
LINE
8
0
10
2184.523737
20
1051.522102
30
0.0
11
2205.523737
21
1051.522102
31
0.0
0
ARC
8
0
10
2205.523737
20
1051.022102
30
0.0
40
0.500000
50
0.000000
51
90.000000
0
LINE
8
0
10
2206.023737
20
1051.022102
30
0.0
11
2206.023737
21
1030.022102
31
0.0
0
ARC
8
0
10
2205.523737
20
1030.022102
30
0.0
40
0.500000
50
270.000000
51
0.000000
0
ATTDEF
8
0
10
2183.523737
20
1053.022102
30
0.0
40
3.5
1

3

2
VC_START
70
0
0
ATTDEF
8
0
10
2183.523737
20
1028.022102
30
0.0
40
3.5
1

3

2
VC_END
70
0
0
ATTDEF
8
0
10
2182.523737
20
1028.022102
30
0.0
40
3.5
1

3

2
FRONT_VIEW
70
0
0
ATTDEF
8
0
10
2182.523737
20
1028.022102
30
0.0
40
3.5
1

3

2
OPTI:500.000000,1,0,3000.000000,6500.000000,500.000000,0,0.000000,0
70
0
0
ATTDEF
8
0
10
2182.523737
20
1028.022102
30
0.0
40
3.5
1

3

2
GLASS_MIN:0.000000
70
0
0
ATTDEF
8
0
10
2182.523737
20
1028.022102
30
0.0
40
3.5
1

3

2
GLASS_MAX:0.000000
70
0
0
ATTDEF
8
0
10
2182.523737
20
1028.022102
30
0.0
40
3.5
1

3

2
FP_LCS_ORIG
70
0
0
ATTDEF
8
0
10
2192.523737
20
1028.022102
30
0.0
40
3.5
1

3

2
FP_LCS_HOT
70
0
0
ATTDEF
8
0
10
2182.523737
20
1038.022102
30
0.0
40
3.5
1

3

2
FP_LCS_INTERN
70
0
0
ATTDEF
8
0
10
0.000000
20
0.000000
30
0.0
40
3.5
1

3

2
TDEV4:0
70
0
0
ATTDEF
8
0
10
0.000000
20
0.000000
30
0.0
40
3.5
1

3

2
TDEV5:0
70
0
0
ATTDEF
8
0
10
0.000000
20
0.000000
30
0.0
40
3.5
1

3

2
PANE_WIDTH:0
70
0
0
ATTDEF
8
0
10
0.000000
20
0.000000
30
0.0
40
3.5
1

3

2
MIN_VETRO:0
70
0
0
ATTDEF
8
0
10
0.000000
20
0.000000
30
0.0
40
3.5
1

3

2
MAX_VETRO:0
70
0
0
ATTDEF
8
0
10
0.000000
20
0.000000
30
0.0
40
3.5
1

3

2
JX:0
70
0
0
ATTDEF
8
0
10
0.000000
20
0.000000
30
0.0
40
3.5
1

3

2
WX:0
70
0
0
ATTDEF
8
0
10
0.000000
20
0.000000
30
0.0
40
3.5
1

3

2
JY:0
70
0
0
ATTDEF
8
0
10
0.000000
20
0.000000
30
0.0
40
3.5
1

3

2
WY:0
70
0
0
ATTDEF
8
0
10
0.000000
20
0.000000
30
0.0
40
3.5
1

3

2
DESC:Tubo 25x25 Inox (25x25mm inox tube)
70
0
0
ATTDEF
8
0
10
0.000000
20
0.000000
30
0.0
40
3.5
1

3

2
DENS:0
70
0
0
ATTDEF
8
0
10
0.000000
20
0.000000
30
0.0
40
3.5
1

3

2
TDEV:18.8
70
0
0
ATTDEF
8
0
10
0.000000
20
0.000000
30
0.0
40
3.5
1

3

2
TDEV2:0
70
0
0
ATTDEF
8
0
10
0.000000
20
0.000000
30
0.0
40
3.5
1

3

2
TDEV3:0
70
0
0
ATTDEF
8
0
10
0.000000
20
0.000000
30
0.0
40
3.5
1

3

2
TDEV4:0
70
0
0
ATTDEF
8
0
10
0.000000
20
0.000000
30
0.0
40
3.5
1

3

2
TDEV5:0
70
0
0
ATTDEF
8
0
10
0.000000
20
0.000000
30
0.0
40
3.5
1

3

2
PANE_WIDTH:0
70
0
0
ATTDEF
8
0
10
0.000000
20
0.000000
30
0.0
40
3.5
1

3

2
MIN_VETRO:0
70
0
0
ATTDEF
8
0
10
0.000000
20
0.000000
30
0.0
40
3.5
1

3

2
MAX_VETRO:0
70
0
0
ATTDEF
8
0
10
0.000000
20
0.000000
30
0.0
40
3.5
1

3

2
JX:0
70
0
0
ATTDEF
8
0
10
0.000000
20
0.000000
30
0.0
40
3.5
1

3

2
WX:0
70
0
0
ATTDEF
8
0
10
0.000000
20
0.000000
30
0.0
40
3.5
1

3

2
JY:0
70
0
0
ATTDEF
8
0
10
0.000000
20
0.000000
30
0.0
40
3.5
1

3

2
WY:0
70
0
0
ENDSEC
0
EOF
