0
SECTION
2
ENTITIES
0
LINE
8
0
10
6268.867531
20
41.011578
30
0.0
11
6269.317531
21
41.011578
31
0.0
0
ARC
8
0
10
6269.317531
20
41.761578
30
0.0
40
0.750000
50
270.000000
51
90.000000
0
LINE
8
0
10
6269.317531
20
42.511578
30
0.0
11
6268.867531
21
42.511578
31
0.0
0
LINE
8
0
10
6268.867531
20
42.511578
30
0.0
11
6268.867531
21
50.011578
31
0.0
0
LINE
8
0
10
6268.867531
20
50.011578
30
0.0
11
6269.317531
21
50.011578
31
0.0
0
ARC
8
0
10
6269.317531
20
50.761578
30
0.0
40
0.750000
50
270.000000
51
90.000000
0
LINE
8
0
10
6269.317531
20
51.511578
30
0.0
11
6268.867531
21
51.511578
31
0.0
0
LINE
8
0
10
6268.867531
20
51.511578
30
0.0
11
6268.867531
21
59.011578
31
0.0
0
LINE
8
0
10
6268.867531
20
59.011578
30
0.0
11
6269.317531
21
59.011578
31
0.0
0
ARC
8
0
10
6269.317531
20
59.761578
30
0.0
40
0.750000
50
270.000000
51
90.000000
0
LINE
8
0
10
6269.317531
20
60.511578
30
0.0
11
6268.867531
21
60.511578
31
0.0
0
LINE
8
0
10
6268.867531
20
60.511578
30
0.0
11
6268.867531
21
63.211578
31
0.0
0
LINE
8
0
10
6268.867531
20
63.211578
30
0.0
11
6287.867531
21
63.211578
31
0.0
0
LINE
8
0
10
6287.867531
20
63.211578
30
0.0
11
6287.867531
21
60.511578
31
0.0
0
LINE
8
0
10
6287.867531
20
60.511578
30
0.0
11
6287.417531
21
60.511578
31
0.0
0
ARC
8
0
10
6287.417531
20
59.761578
30
0.0
40
0.750000
50
90.000000
51
270.000000
0
LINE
8
0
10
6287.417531
20
59.011578
30
0.0
11
6287.867531
21
59.011578
31
0.0
0
LINE
8
0
10
6287.867531
20
59.011578
30
0.0
11
6287.867531
21
51.511578
31
0.0
0
LINE
8
0
10
6287.867531
20
51.511578
30
0.0
11
6287.417531
21
51.511578
31
0.0
0
ARC
8
0
10
6287.417531
20
50.761578
30
0.0
40
0.750000
50
90.000000
51
270.000000
0
LINE
8
0
10
6287.417531
20
50.011578
30
0.0
11
6287.867531
21
50.011578
31
0.0
0
LINE
8
0
10
6287.867531
20
50.011578
30
0.0
11
6287.867531
21
42.511578
31
0.0
0
LINE
8
0
10
6287.867531
20
42.511578
30
0.0
11
6287.417531
21
42.511578
31
0.0
0
ARC
8
0
10
6287.417531
20
41.761578
30
0.0
40
0.750000
50
90.000000
51
270.000000
0
LINE
8
0
10
6287.417531
20
41.011578
30
0.0
11
6287.867531
21
41.011578
31
0.0
0
LINE
8
0
10
6287.867531
20
41.011578
30
0.0
11
6287.867531
21
38.811578
31
0.0
0
LINE
8
0
10
6287.867531
20
38.811578
30
0.0
11
6268.867531
21
38.811578
31
0.0
0
LINE
8
0
10
6268.867531
20
38.811578
30
0.0
11
6268.867531
21
41.011578
31
0.0
0
ARC
8
0
10
6269.317531
20
82.261578
30
0.0
40
0.750000
50
180.000000
51
0.000000
0
LINE
8
0
10
6270.067531
20
82.261578
30
0.0
11
6270.067531
21
83.311578
31
0.0
0
ARC
8
0
10
6270.567531
20
83.311578
30
0.0
40
0.500000
50
0.000000
51
180.000000
0
LINE
8
0
10
6271.067531
20
83.311578
30
0.0
11
6271.067531
21
81.011578
31
0.0
0
ARC
8
0
10
6270.567531
20
81.011578
30
0.0
40
0.500000
50
270.000000
51
0.000000
0
LINE
8
0
10
6270.567531
20
80.511578
30
0.0
11
6268.867531
21
80.511578
31
0.0
0
LINE
8
0
10
6268.867531
20
80.511578
30
0.0
11
6268.867531
21
67.511578
31
0.0
0
ARC
8
0
10
6271.867531
20
67.511578
30
0.0
40
3.000000
50
180.000000
51
270.000000
0
LINE
8
0
10
6271.867531
20
64.511578
30
0.0
11
6284.867531
21
64.511578
31
0.0
0
ARC
8
0
10
6284.867531
20
67.511578
30
0.0
40
3.000000
50
270.000000
51
0.000000
0
LINE
8
0
10
6287.867531
20
67.511578
30
0.0
11
6287.867531
21
80.511578
31
0.0
0
LINE
8
0
10
6287.867531
20
80.511578
30
0.0
11
6286.167531
21
80.511578
31
0.0
0
ARC
8
0
10
6286.167531
20
81.011578
30
0.0
40
0.500000
50
180.000000
51
270.000000
0
LINE
8
0
10
6285.667531
20
81.011578
30
0.0
11
6285.667531
21
83.311578
31
0.0
0
ARC
8
0
10
6286.167531
20
83.311578
30
0.0
40
0.500000
50
0.000000
51
180.000000
0
LINE
8
0
10
6286.667531
20
83.311578
30
0.0
11
6286.667531
21
82.261578
31
0.0
0
ARC
8
0
10
6287.417531
20
82.261578
30
0.0
40
0.750000
50
180.000000
51
0.000000
0
LINE
8
0
10
6288.167531
20
82.261578
30
0.0
11
6288.167531
21
88.761578
31
0.0
0
ARC
8
0
10
6287.417531
20
88.761578
30
0.0
40
0.750000
50
0.000000
51
180.000000
0
LINE
8
0
10
6286.667531
20
88.761578
30
0.0
11
6286.667531
21
87.711578
31
0.0
0
ARC
8
0
10
6286.167531
20
87.711578
30
0.0
40
0.500000
50
180.000000
51
0.000000
0
LINE
8
0
10
6285.667531
20
87.711578
30
0.0
11
6285.667531
21
90.011578
31
0.0
0
ARC
8
0
10
6286.167531
20
90.011578
30
0.0
40
0.500000
50
90.000000
51
180.000000
0
LINE
8
0
10
6286.167531
20
90.511578
30
0.0
11
6288.667531
21
90.511578
31
0.0
0
ARC
8
0
10
6288.667531
20
90.011578
30
0.0
40
0.500000
50
0.000000
51
90.000000
0
LINE
8
0
10
6289.167531
20
90.011578
30
0.0
11
6289.167531
21
37.511578
31
0.0
0
LINE
8
0
10
6289.167531
20
37.511578
30
0.0
11
6267.567531
21
37.511578
31
0.0
0
LINE
8
0
10
6267.567531
20
37.511578
30
0.0
11
6267.567531
21
76.011578
31
0.0
0
LINE
8
0
10
6267.567531
20
76.011578
30
0.0
11
6257.067531
21
76.011578
31
0.0
0
LINE
8
0
10
6257.067531
20
76.011578
30
0.0
11
6257.067531
21
75.261578
31
0.0
0
ARC
8
0
10
6256.317531
20
75.261578
30
0.0
40
0.750000
50
180.000000
51
0.000000
0
LINE
8
0
10
6255.567531
20
75.261578
30
0.0
11
6255.567531
21
76.011578
31
0.0
0
LINE
8
0
10
6255.567531
20
76.011578
30
0.0
11
6245.817531
21
76.011578
31
0.0
0
LINE
8
0
10
6245.817531
20
76.011578
30
0.0
11
6245.817531
21
75.261578
31
0.0
0
ARC
8
0
10
6245.067531
20
75.261578
30
0.0
40
0.750000
50
180.000000
51
0.000000
0
LINE
8
0
10
6244.317531
20
75.261578
30
0.0
11
6244.317531
21
76.011578
31
0.0
0
LINE
8
0
10
6244.317531
20
76.011578
30
0.0
11
6234.567531
21
76.011578
31
0.0
0
LINE
8
0
10
6234.567531
20
76.011578
30
0.0
11
6234.567531
21
75.261578
31
0.0
0
ARC
8
0
10
6233.817531
20
75.261578
30
0.0
40
0.750000
50
180.000000
51
0.000000
0
LINE
8
0
10
6233.067531
20
75.261578
30
0.0
11
6233.067531
21
76.011578
31
0.0
0
LINE
8
0
10
6233.067531
20
76.011578
30
0.0
11
6222.567531
21
76.011578
31
0.0
0
LINE
8
0
10
6222.567531
20
76.011578
30
0.0
11
6222.567531
21
63.011578
31
0.0
0
LINE
8
0
10
6222.567531
20
63.011578
30
0.0
11
6213.567531
21
63.011578
31
0.0
0
LINE
8
0
10
6213.567531
20
63.011578
30
0.0
11
6213.567531
21
64.511578
31
0.0
0
LINE
8
0
10
6213.567531
20
64.511578
30
0.0
11
6221.067531
21
64.511578
31
0.0
0
LINE
8
0
10
6221.067531
20
64.511578
30
0.0
11
6221.067531
21
77.511578
31
0.0
0
LINE
8
0
10
6221.067531
20
77.511578
30
0.0
11
6267.567531
21
77.511578
31
0.0
0
LINE
8
0
10
6267.567531
20
77.511578
30
0.0
11
6267.567531
21
82.011578
31
0.0
0
LINE
8
0
10
6267.567531
20
82.011578
30
0.0
11
6267.567531
21
90.011578
31
0.0
0
ARC
8
0
10
6268.067531
20
90.011578
30
0.0
40
0.500000
50
90.000000
51
180.000000
0
LINE
8
0
10
6268.067531
20
90.511578
30
0.0
11
6270.567531
21
90.511578
31
0.0
0
ARC
8
0
10
6270.567531
20
90.011578
30
0.0
40
0.500000
50
0.000000
51
90.000000
0
LINE
8
0
10
6271.067531
20
90.011578
30
0.0
11
6271.067531
21
87.711578
31
0.0
0
ARC
8
0
10
6270.567531
20
87.711578
30
0.0
40
0.500000
50
180.000000
51
0.000000
0
LINE
8
0
10
6270.067531
20
87.711578
30
0.0
11
6270.067531
21
88.761578
31
0.0
0
ARC
8
0
10
6269.317531
20
88.761578
30
0.0
40
0.750000
50
0.000000
51
180.000000
0
LINE
8
0
10
6268.567531
20
88.761578
30
0.0
11
6268.567531
21
82.261578
31
0.0
0
ATTDEF
8
0
10
0.000000
20
0.000000
30
0.0
40
3.5
1

3

2
PANE_WIDTH:0
70
0
0
ATTDEF
8
0
10
0.000000
20
0.000000
30
0.0
40
3.5
1

3

2
MIN_VETRO:0
70
0
0
ATTDEF
8
0
10
0.000000
20
0.000000
30
0.0
40
3.5
1

3

2
MAX_VETRO:0
70
0
0
ATTDEF
8
0
10
0.000000
20
0.000000
30
0.0
40
3.5
1

3

2
JX:0
70
0
0
ATTDEF
8
0
10
0.000000
20
0.000000
30
0.0
40
3.5
1

3

2
WX:0
70
0
0
ATTDEF
8
0
10
0.000000
20
0.000000
30
0.0
40
3.5
1

3

2
JY:0
70
0
0
ATTDEF
8
0
10
0.000000
20
0.000000
30
0.0
40
3.5
1

3

2
WY:0
70
0
0
ATTDEF
8
0
10
0.000000
20
0.000000
30
0.0
40
3.5
1

3

2
DESC:N/F
70
0
0
ATTDEF
8
0
10
0.000000
20
0.000000
30
0.0
40
3.5
1

3

2
DENS:0
70
0
0
ATTDEF
8
0
10
0.000000
20
0.000000
30
0.0
40
3.5
1

3

2
TDEV:0
70
0
0
ATTDEF
8
0
10
0.000000
20
0.000000
30
0.0
40
3.5
1

3

2
TDEV2:0
70
0
0
ATTDEF
8
0
10
0.000000
20
0.000000
30
0.0
40
3.5
1

3

2
TDEV3:0
70
0
0
ATTDEF
8
0
10
0.000000
20
0.000000
30
0.0
40
3.5
1

3

2
TDEV4:0
70
0
0
ATTDEF
8
0
10
0.000000
20
0.000000
30
0.0
40
3.5
1

3

2
TDEV5:0
70
0
0
ATTDEF
8
0
10
0.000000
20
0.000000
30
0.0
40
3.5
1

3

2
PANE_WIDTH:0
70
0
0
ATTDEF
8
0
10
0.000000
20
0.000000
30
0.0
40
3.5
1

3

2
MIN_VETRO:0
70
0
0
ATTDEF
8
0
10
0.000000
20
0.000000
30
0.0
40
3.5
1

3

2
MAX_VETRO:0
70
0
0
ATTDEF
8
0
10
0.000000
20
0.000000
30
0.0
40
3.5
1

3

2
JX:0
70
0
0
ATTDEF
8
0
10
0.000000
20
0.000000
30
0.0
40
3.5
1

3

2
WX:0
70
0
0
ATTDEF
8
0
10
0.000000
20
0.000000
30
0.0
40
3.5
1

3

2
JY:0
70
0
0
ATTDEF
8
0
10
0.000000
20
0.000000
30
0.0
40
3.5
1

3

2
WY:0
70
0
0
ENDSEC
0
EOF
