0
SECTION
2
ENTITIES
0
ARC
8
0
10
6258.986755
20
-381.983576
30
0.0
40
0.300000
50
360.000000
51
90.000000
0
LINE
8
0
10
6258.986755
20
-381.683576
30
0.0
11
6257.386755
21
-381.683576
31
0.0
0
ARC
8
0
10
6257.386755
20
-380.683576
30
0.0
40
1.000000
50
180.000000
51
270.000000
0
LINE
8
0
10
6256.386755
20
-380.683576
30
0.0
11
6256.386755
21
-378.983576
31
0.0
0
ARC
8
0
10
6256.686755
20
-378.983576
30
0.0
40
0.300000
50
90.000000
51
180.000000
0
LINE
8
0
10
6256.686755
20
-378.683576
30
0.0
11
6257.386755
21
-378.683576
31
0.0
0
ARC
8
0
10
6257.386755
20
-378.983576
30
0.0
40
0.300000
50
360.000000
51
90.000000
0
LINE
8
0
10
6257.686755
20
-378.983576
30
0.0
11
6257.686755
21
-379.983576
31
0.0
0
ARC
8
0
10
6257.986755
20
-379.983576
30
0.0
40
0.300000
50
180.000000
51
270.000000
0
LINE
8
0
10
6257.986755
20
-380.283576
30
0.0
11
6258.886755
21
-380.283576
31
0.0
0
ARC
8
0
10
6258.886755
20
-379.983576
30
0.0
40
0.300000
50
270.000000
51
360.000000
0
LINE
8
0
10
6259.186755
20
-379.983576
30
0.0
11
6259.186755
21
-372.883576
31
0.0
0
ARC
8
0
10
6258.886755
20
-372.883576
30
0.0
40
0.300000
50
360.000000
51
90.000000
0
LINE
8
0
10
6258.886755
20
-372.583576
30
0.0
11
6257.986755
21
-372.583576
31
0.0
0
ARC
8
0
10
6257.986755
20
-372.883576
30
0.0
40
0.300000
50
90.000000
51
180.000000
0
LINE
8
0
10
6257.686755
20
-372.883576
30
0.0
11
6257.686755
21
-373.883576
31
0.0
0
ARC
8
0
10
6257.386755
20
-373.883576
30
0.0
40
0.300000
50
270.000000
51
360.000000
0
LINE
8
0
10
6257.386755
20
-374.183576
30
0.0
11
6256.686755
21
-374.183576
31
0.0
0
ARC
8
0
10
6256.686755
20
-373.883576
30
0.0
40
0.300000
50
180.000000
51
270.000000
0
LINE
8
0
10
6256.386755
20
-373.883576
30
0.0
11
6256.386755
21
-372.183576
31
0.0
0
ARC
8
0
10
6257.386755
20
-372.183576
30
0.0
40
1.000000
50
90.000000
51
180.000000
0
LINE
8
0
10
6257.386755
20
-371.183576
30
0.0
11
6259.586755
21
-371.183576
31
0.0
0
ARC
8
0
10
6259.586755
20
-372.183576
30
0.0
40
1.000000
50
360.000000
51
90.000000
0
LINE
8
0
10
6260.586755
20
-372.183576
30
0.0
11
6260.586755
21
-429.983576
31
0.0
0
ARC
8
0
10
6260.386755
20
-429.983576
30
0.0
40
0.200000
50
270.000000
51
360.000000
0
LINE
8
0
10
6260.386755
20
-430.183576
30
0.0
11
6259.486755
21
-430.183576
31
0.0
0
ARC
8
0
10
6259.486755
20
-429.983576
30
0.0
40
0.200000
50
180.000000
51
270.000000
0
ARC
8
0
10
6259.086755
20
-429.983576
30
0.0
40
0.200000
50
360.000000
51
90.000000
0
LINE
8
0
10
6259.086755
20
-429.783576
30
0.0
11
6254.786755
21
-429.783576
31
0.0
0
LINE
8
0
10
6254.786755
20
-429.783576
30
0.0
11
6254.169959
21
-430.049366
31
0.0
0
LINE
8
0
10
6254.169959
20
-430.049366
30
0.0
11
6253.925540
21
-430.166339
31
0.0
0
LINE
8
0
10
6253.844313
20
-430.183576
30
0.0
11
6253.925540
21
-430.166339
31
0.0
0
LINE
8
0
10
6253.844313
20
-430.183576
30
0.0
11
6252.786755
21
-430.183576
31
0.0
0
ARC
8
0
10
6252.786755
20
-429.983576
30
0.0
40
0.200000
50
180.000000
51
270.000000
0
LINE
8
0
10
6252.586755
20
-429.983576
30
0.0
11
6252.586755
21
-429.783576
31
0.0
0
LINE
8
0
10
6252.586755
20
-429.783576
30
0.0
11
6251.786755
21
-429.783576
31
0.0
0
ARC
8
0
10
6251.786755
20
-429.983576
30
0.0
40
0.200000
50
90.000000
51
180.000000
0
LINE
8
0
10
6251.586755
20
-429.983576
30
0.0
11
6251.586755
21
-431.944959
31
0.0
0
ARC
8
0
10
6251.786755
20
-431.944959
30
0.0
40
0.200000
50
180.000000
51
270.000000
0
LINE
8
0
10
6251.786755
20
-432.144959
30
0.0
11
6254.510461
21
-432.144959
31
0.0
0
LINE
8
0
10
6254.510461
20
-432.144959
30
0.0
11
6255.013265
21
-431.642155
31
0.0
0
ARC
8
0
10
6255.154686
20
-431.783576
30
0.0
40
0.200000
50
66.000000
51
135.000000
0
LINE
8
0
10
6255.236033
20
-431.600867
30
0.0
11
6257.104046
21
-432.432560
31
0.0
0
ARC
8
0
10
6257.022699
20
-432.615269
30
0.0
40
0.200000
50
336.000000
51
66.000000
0
LINE
8
0
10
6257.205408
20
-432.696616
30
0.0
11
6256.880019
21
-433.427453
31
0.0
0
ARC
8
0
10
6256.697310
20
-433.346106
30
0.0
40
0.200000
50
246.000000
51
336.000000
0
LINE
8
0
10
6256.615962
20
-433.528815
30
0.0
11
6255.599238
21
-433.076140
31
0.0
0
ARC
8
0
10
6255.517891
20
-433.258849
30
0.0
40
0.200000
50
66.000000
51
135.000000
0
LINE
8
0
10
6255.376470
20
-433.117428
30
0.0
11
6255.107517
21
-433.386380
31
0.0
0
ARC
8
0
10
6254.966096
20
-433.244959
30
0.0
40
0.200000
50
270.000000
51
315.000000
0
LINE
8
0
10
6254.966096
20
-433.444959
30
0.0
11
6250.586755
21
-433.444959
31
0.0
0
ARC
8
0
10
6250.586755
20
-433.144959
30
0.0
40
0.300000
50
180.000000
51
270.000000
0
LINE
8
0
10
6250.286755
20
-433.144959
30
0.0
11
6250.286755
21
-428.783576
31
0.0
0
ARC
8
0
10
6250.586755
20
-428.783576
30
0.0
40
0.300000
50
90.000000
51
180.000000
0
LINE
8
0
10
6250.586755
20
-428.483576
30
0.0
11
6258.986755
21
-428.483576
31
0.0
0
ARC
8
0
10
6258.986755
20
-428.183576
30
0.0
40
0.300000
50
270.000000
51
360.000000
0
LINE
8
0
10
6259.286755
20
-428.183576
30
0.0
11
6259.286755
21
-424.483576
31
0.0
0
ARC
8
0
10
6258.986755
20
-424.483576
30
0.0
40
0.300000
50
360.000000
51
90.000000
0
LINE
8
0
10
6258.986755
20
-424.183576
30
0.0
11
6257.586755
21
-424.183576
31
0.0
0
ARC
8
0
10
6257.586755
20
-423.883576
30
0.0
40
0.300000
50
180.000000
51
270.000000
0
LINE
8
0
10
6257.286755
20
-423.883576
30
0.0
11
6257.286755
21
-423.183576
31
0.0
0
ARC
8
0
10
6257.586755
20
-423.183576
30
0.0
40
0.300000
50
90.000000
51
180.000000
0
LINE
8
0
10
6257.586755
20
-422.883576
30
0.0
11
6258.986755
21
-422.883576
31
0.0
0
ARC
8
0
10
6258.986755
20
-422.583576
30
0.0
40
0.300000
50
270.000000
51
360.000000
0
LINE
8
0
10
6259.286755
20
-422.583576
30
0.0
11
6259.286755
21
-398.783576
31
0.0
0
ARC
8
0
10
6258.986755
20
-398.783576
30
0.0
40
0.300000
50
360.000000
51
90.000000
0
LINE
8
0
10
6258.986755
20
-398.483576
30
0.0
11
6238.486755
21
-398.483576
31
0.0
0
ARC
8
0
10
6238.486755
20
-398.183576
30
0.0
40
0.300000
50
180.000000
51
270.000000
0
LINE
8
0
10
6238.186755
20
-398.183576
30
0.0
11
6238.186755
21
-372.727887
31
0.0
0
ARC
8
0
10
6237.886755
20
-372.727887
30
0.0
40
0.300000
50
360.000000
51
78.415015
0
ARC
8
0
10
6223.624433
20
-442.301061
30
0.0
40
71.320000
50
78.415015
51
100.906671
0
ARC
8
0
10
6210.186755
20
-372.563917
30
0.0
40
0.300000
50
100.906671
51
180.000000
0
LINE
8
0
10
6209.886755
20
-372.563917
30
0.0
11
6209.886755
21
-381.993021
31
0.0
0
ARC
8
0
10
6210.186755
20
-381.993021
30
0.0
40
0.300000
50
180.000000
51
240.000000
0
LINE
8
0
10
6210.036755
20
-382.252828
30
0.0
11
6214.476948
21
-384.816375
31
0.0
0
ARC
8
0
10
6214.326948
20
-385.076182
30
0.0
40
0.300000
50
330.000000
51
60.000000
0
LINE
8
0
10
6214.586755
20
-385.226182
30
0.0
11
6212.386755
21
-389.036694
31
0.0
0
LINE
8
0
10
6212.386755
20
-389.036694
30
0.0
11
6211.976948
21
-389.146502
31
0.0
0
LINE
8
0
10
6211.976948
20
-389.146502
30
0.0
11
6212.086755
21
-389.556309
31
0.0
0
LINE
8
0
10
6212.086755
20
-389.556309
30
0.0
11
6209.736755
21
-393.626629
31
0.0
0
LINE
8
0
10
6209.736755
20
-393.626629
30
0.0
11
6207.176113
21
-393.626629
31
0.0
0
ARC
8
0
10
6207.176113
20
-393.926629
30
0.0
40
0.300000
50
90.000000
51
240.000000
0
LINE
8
0
10
6207.026113
20
-394.186436
30
0.0
11
6207.604574
21
-394.520411
31
0.0
0
ARC
8
0
10
6207.254574
20
-395.126629
30
0.0
40
0.700000
50
240.000000
51
60.000000
0
LINE
8
0
10
6206.904574
20
-395.732847
30
0.0
11
6202.574447
21
-393.232847
31
0.0
0
LINE
8
0
10
6202.574447
20
-393.232847
30
0.0
11
6202.464639
21
-392.823039
31
0.0
0
LINE
8
0
10
6202.464639
20
-392.823039
30
0.0
11
6202.054832
21
-392.932847
31
0.0
0
LINE
8
0
10
6202.054832
20
-392.932847
30
0.0
11
6199.456755
21
-391.432847
31
0.0
0
ARC
8
0
10
6199.806755
20
-390.826629
30
0.0
40
0.700000
50
60.000000
51
240.000000
0
LINE
8
0
10
6200.156755
20
-390.220411
30
0.0
11
6203.036755
21
-391.883180
31
0.0
0
ARC
8
0
10
6203.186755
20
-391.623372
30
0.0
40
0.300000
50
240.000000
51
360.000000
0
LINE
8
0
10
6203.486755
20
-391.623372
30
0.0
11
6203.486755
21
-388.726629
31
0.0
0
ARC
8
0
10
6203.986755
20
-388.726629
30
0.0
40
0.500000
50
30.000000
51
180.000000
0
LINE
8
0
10
6204.419768
20
-388.476629
30
0.0
11
6205.486755
21
-390.324705
31
0.0
0
LINE
8
0
10
6205.486755
20
-390.324705
30
0.0
11
6204.886755
21
-390.924705
31
0.0
0
LINE
8
0
10
6204.886755
20
-390.924705
30
0.0
11
6204.886755
21
-392.026629
31
0.0
0
ARC
8
0
10
6205.186755
20
-392.026629
30
0.0
40
0.300000
50
180.000000
51
270.000000
0
LINE
8
0
10
6205.186755
20
-392.326629
30
0.0
11
6208.586755
21
-392.326629
31
0.0
0
LINE
8
0
10
6208.586755
20
-392.326629
30
0.0
11
6208.586755
21
-390.326629
31
0.0
0
LINE
8
0
10
6208.586755
20
-390.326629
30
0.0
11
6209.967696
21
-390.326629
31
0.0
0
ARC
8
0
10
6209.967696
20
-390.026629
30
0.0
40
0.300000
50
270.000000
51
330.000000
0
LINE
8
0
10
6210.227503
20
-390.176629
30
0.0
11
6212.810922
21
-385.702015
31
0.0
0
ARC
8
0
10
6212.551115
20
-385.552015
30
0.0
40
0.300000
50
330.000000
51
60.000000
0
LINE
8
0
10
6212.701115
20
-385.292208
30
0.0
11
6208.736755
21
-383.003384
31
0.0
0
ARC
8
0
10
6208.886755
20
-382.743576
30
0.0
40
0.300000
50
180.000000
51
240.000000
0
LINE
8
0
10
6208.586755
20
-382.743576
30
0.0
11
6208.586755
21
-371.527028
31
0.0
0
ARC
8
0
10
6208.886772
20
-371.527034
30
0.0
40
0.300016
50
102.375663
51
180.000000
0
ARC
8
0
10
6223.624433
20
-441.001061
30
0.0
40
71.320000
50
78.218331
51
101.978400
0
LINE
8
0
10
6238.186755
20
-371.183576
30
0.0
11
6241.386755
21
-371.183576
31
0.0
0
ARC
8
0
10
6241.386755
20
-372.183576
30
0.0
40
1.000000
50
360.000000
51
90.000000
0
LINE
8
0
10
6242.386755
20
-372.183576
30
0.0
11
6242.386755
21
-373.883576
31
0.0
0
ARC
8
0
10
6242.086755
20
-373.883576
30
0.0
40
0.300000
50
270.000000
51
360.000000
0
LINE
8
0
10
6242.086755
20
-374.183576
30
0.0
11
6241.386755
21
-374.183576
31
0.0
0
ARC
8
0
10
6241.386755
20
-373.883576
30
0.0
40
0.300000
50
180.000000
51
270.000000
0
LINE
8
0
10
6241.086755
20
-373.883576
30
0.0
11
6241.086755
21
-372.883576
31
0.0
0
ARC
8
0
10
6240.786755
20
-372.883576
30
0.0
40
0.300000
50
360.000000
51
90.000000
0
LINE
8
0
10
6240.786755
20
-372.583576
30
0.0
11
6239.886755
21
-372.583576
31
0.0
0
ARC
8
0
10
6239.886755
20
-372.883576
30
0.0
40
0.300000
50
90.000000
51
180.000000
0
LINE
8
0
10
6239.586755
20
-372.883576
30
0.0
11
6239.586755
21
-379.983576
31
0.0
0
ARC
8
0
10
6239.886755
20
-379.983576
30
0.0
40
0.300000
50
180.000000
51
270.000000
0
LINE
8
0
10
6239.886755
20
-380.283576
30
0.0
11
6240.786755
21
-380.283576
31
0.0
0
ARC
8
0
10
6240.786755
20
-379.983576
30
0.0
40
0.300000
50
270.000000
51
360.000000
0
LINE
8
0
10
6241.086755
20
-379.983576
30
0.0
11
6241.086755
21
-378.983576
31
0.0
0
ARC
8
0
10
6241.386755
20
-378.983576
30
0.0
40
0.300000
50
90.000000
51
180.000000
0
LINE
8
0
10
6241.386755
20
-378.683576
30
0.0
11
6242.086755
21
-378.683576
31
0.0
0
ARC
8
0
10
6242.086755
20
-378.983576
30
0.0
40
0.300000
50
360.000000
51
90.000000
0
LINE
8
0
10
6242.386755
20
-378.983576
30
0.0
11
6242.386755
21
-380.683576
31
0.0
0
ARC
8
0
10
6241.386755
20
-380.683576
30
0.0
40
1.000000
50
270.000000
51
360.000000
0
LINE
8
0
10
6241.386755
20
-381.683576
30
0.0
11
6239.786755
21
-381.683576
31
0.0
0
ARC
8
0
10
6239.786755
20
-381.983576
30
0.0
40
0.300000
50
90.000000
51
180.000000
0
LINE
8
0
10
6239.486755
20
-381.983576
30
0.0
11
6239.486755
21
-396.883576
31
0.0
0
ARC
8
0
10
6239.786755
20
-396.883576
30
0.0
40
0.300000
50
180.000000
51
270.000000
0
LINE
8
0
10
6239.786755
20
-397.183576
30
0.0
11
6258.986755
21
-397.183576
31
0.0
0
ARC
8
0
10
6258.986755
20
-396.883576
30
0.0
40
0.300000
50
270.000000
51
360.000000
0
LINE
8
0
10
6259.286755
20
-396.883576
30
0.0
11
6259.286755
21
-381.983576
31
0.0
0
ATTDEF
8
0
10
0.000000
20
0.000000
30
0.0
40
3.5
1

3

2
PANE_WIDTH:0
70
0
0
ATTDEF
8
0
10
0.000000
20
0.000000
30
0.0
40
3.5
1

3

2
MIN_VETRO:0
70
0
0
ATTDEF
8
0
10
0.000000
20
0.000000
30
0.0
40
3.5
1

3

2
MAX_VETRO:0
70
0
0
ATTDEF
8
0
10
0.000000
20
0.000000
30
0.0
40
3.5
1

3

2
JX:0
70
0
0
ATTDEF
8
0
10
0.000000
20
0.000000
30
0.0
40
3.5
1

3

2
WX:0
70
0
0
ATTDEF
8
0
10
0.000000
20
0.000000
30
0.0
40
3.5
1

3

2
JY:0
70
0
0
ATTDEF
8
0
10
0.000000
20
0.000000
30
0.0
40
3.5
1

3

2
WY:0
70
0
0
ATTDEF
8
0
10
0.000000
20
0.000000
30
0.0
40
3.5
1

3

2
DESC:Guia de 52
70
0
0
ATTDEF
8
0
10
0.000000
20
0.000000
30
0.0
40
3.5
1

3

2
DENS:0.7776
70
0
0
ATTDEF
8
0
10
0.000000
20
0.000000
30
0.0
40
3.5
1

3

2
TDEV:42.65
70
0
0
ATTDEF
8
0
10
0.000000
20
0.000000
30
0.0
40
3.5
1

3

2
TDEV2:0
70
0
0
ATTDEF
8
0
10
0.000000
20
0.000000
30
0.0
40
3.5
1

3

2
TDEV3:0
70
0
0
ATTDEF
8
0
10
0.000000
20
0.000000
30
0.0
40
3.5
1

3

2
TDEV4:0
70
0
0
ATTDEF
8
0
10
0.000000
20
0.000000
30
0.0
40
3.5
1

3

2
TDEV5:0
70
0
0
ATTDEF
8
0
10
0.000000
20
0.000000
30
0.0
40
3.5
1

3

2
PANE_WIDTH:0
70
0
0
ATTDEF
8
0
10
0.000000
20
0.000000
30
0.0
40
3.5
1

3

2
MIN_VETRO:0
70
0
0
ATTDEF
8
0
10
0.000000
20
0.000000
30
0.0
40
3.5
1

3

2
MAX_VETRO:0
70
0
0
ATTDEF
8
0
10
0.000000
20
0.000000
30
0.0
40
3.5
1

3

2
JX:0
70
0
0
ATTDEF
8
0
10
0.000000
20
0.000000
30
0.0
40
3.5
1

3

2
WX:0
70
0
0
ATTDEF
8
0
10
0.000000
20
0.000000
30
0.0
40
3.5
1

3

2
JY:0
70
0
0
ATTDEF
8
0
10
0.000000
20
0.000000
30
0.0
40
3.5
1

3

2
WY:0
70
0
0
ATTDEF
8
0
10
6223.624433
20
-369.681061
30
0.0
40
3.5
1

3

2
VC_START
70
0
0
ATTDEF
8
0
10
6248.736755
20
-398.483576
30
0.0
40
3.5
1

3

2
VC_END
70
0
0
ATTDEF
8
0
10
6199.106755
20
-433.546106
30
0.0
40
3.5
1

3

2
FP_LCS_ORIG
70
0
0
ATTDEF
8
0
10
6209.106755
20
-433.546106
30
0.0
40
3.5
1

3

2
FP_LCS_HOT
70
0
0
ATTDEF
8
0
10
6199.106755
20
-423.546106
30
0.0
40
3.5
1

3

2
FP_LCS_INTERN
70
0
0
ENDSEC
0
EOF
