0
SECTION
2
ENTITIES
0
LINE
8
0
10
1.266301
20
9.118918
30
0.0
11
4.309175
21
12.161791
31
0.0
0
ARC
8
0
10
4.521307
20
11.949659
30
0.0
40
0.300000
50
360.000000
51
135.000000
0
LINE
8
0
10
4.821307
20
11.949659
30
0.0
11
4.821307
21
9.523954
31
0.0
0
ARC
8
0
10
5.121307
20
9.523954
30
0.0
40
0.300000
50
180.000000
51
330.000000
0
LINE
8
0
10
5.381114
20
9.373954
30
0.0
11
5.921301
21
10.309585
31
0.0
0
LINE
8
0
10
5.921301
20
10.309585
30
0.0
11
5.921301
21
13.157396
31
0.0
0
LINE
8
0
10
5.921301
20
13.157396
30
0.0
11
6.166301
21
13.157396
31
0.0
0
LINE
8
0
10
6.166301
20
13.157396
30
0.0
11
6.166301
21
14.157396
31
0.0
0
ARC
8
0
10
5.866301
20
14.157396
30
0.0
40
0.300000
50
360.000000
51
90.000000
0
LINE
8
0
10
5.866301
20
14.457396
30
0.0
11
4.973408
21
14.457396
31
0.0
0
ARC
8
0
10
4.973408
20
13.957396
30
0.0
40
0.500000
50
90.000000
51
135.000000
0
LINE
8
0
10
4.619854
20
14.310949
30
0.0
11
0.112748
21
9.803842
31
0.0
0
ARC
8
0
10
0.466301
20
9.450289
30
0.0
40
0.500000
50
135.000000
51
180.000000
0
LINE
8
0
10
-0.033699
20
9.450289
30
0.0
11
-0.033699
21
-15.535498
31
0.0
0
ARC
8
0
10
0.466301
20
-15.535498
30
0.0
40
0.500000
50
180.000000
51
225.000000
0
LINE
8
0
10
0.112748
20
-15.889051
30
0.0
11
4.619854
21
-20.396158
31
0.0
0
ARC
8
0
10
4.973408
20
-20.042604
30
0.0
40
0.500000
50
225.000000
51
270.000000
0
LINE
8
0
10
4.973408
20
-20.542604
30
0.0
11
5.866301
21
-20.542604
31
0.0
0
ARC
8
0
10
5.866301
20
-20.242604
30
0.0
40
0.300000
50
270.000000
51
360.000000
0
LINE
8
0
10
6.166301
20
-20.242604
30
0.0
11
6.166301
21
-19.242604
31
0.0
0
LINE
8
0
10
6.166301
20
-19.242604
30
0.0
11
5.921301
21
-19.242604
31
0.0
0
LINE
8
0
10
5.921301
20
-19.242604
30
0.0
11
5.921301
21
-16.394794
31
0.0
0
LINE
8
0
10
5.921301
20
-16.394794
30
0.0
11
5.381114
21
-15.459163
31
0.0
0
ARC
8
0
10
5.121307
20
-15.609163
30
0.0
40
0.300000
50
30.000000
51
180.000000
0
LINE
8
0
10
4.821307
20
-15.609163
30
0.0
11
4.821307
21
-18.034868
31
0.0
0
ARC
8
0
10
4.521307
20
-18.034868
30
0.0
40
0.300000
50
225.000000
51
360.000000
0
LINE
8
0
10
4.309175
20
-18.247000
30
0.0
11
1.266301
21
-15.204127
31
0.0
0
LINE
8
0
10
1.266301
20
-15.204127
30
0.0
11
1.266301
21
9.118918
31
0.0
0
ATTDEF
8
0
10
0.000000
20
0.000000
30
0.0
40
3.5
1

3

2
PANE_WIDTH:0
70
0
0
ATTDEF
8
0
10
0.000000
20
0.000000
30
0.0
40
3.5
1

3

2
MIN_VETRO:0
70
0
0
ATTDEF
8
0
10
0.000000
20
0.000000
30
0.0
40
3.5
1

3

2
MAX_VETRO:0
70
0
0
ATTDEF
8
0
10
0.000000
20
0.000000
30
0.0
40
3.5
1

3

2
JX:0
70
0
0
ATTDEF
8
0
10
0.000000
20
0.000000
30
0.0
40
3.5
1

3

2
WX:0
70
0
0
ATTDEF
8
0
10
0.000000
20
0.000000
30
0.0
40
3.5
1

3

2
JY:0
70
0
0
ATTDEF
8
0
10
0.000000
20
0.000000
30
0.0
40
3.5
1

3

2
WY:0
70
0
0
ATTDEF
8
0
10
0.000000
20
0.000000
30
0.0
40
3.5
1

3

2
DESC:Solape de 35mm.
70
0
0
ATTDEF
8
0
10
0.000000
20
0.000000
30
0.0
40
3.5
1

3

2
DENS:0.1593
70
0
0
ATTDEF
8
0
10
0.000000
20
0.000000
30
0.0
40
3.5
1

3

2
TDEV:9.31
70
0
0
ATTDEF
8
0
10
0.000000
20
0.000000
30
0.0
40
3.5
1

3

2
TDEV2:0
70
0
0
ATTDEF
8
0
10
0.000000
20
0.000000
30
0.0
40
3.5
1

3

2
TDEV3:0
70
0
0
ATTDEF
8
0
10
0.000000
20
0.000000
30
0.0
40
3.5
1

3

2
TDEV4:0
70
0
0
ATTDEF
8
0
10
0.000000
20
0.000000
30
0.0
40
3.5
1

3

2
TDEV5:0
70
0
0
ATTDEF
8
0
10
0.000000
20
0.000000
30
0.0
40
3.5
1

3

2
PANE_WIDTH:0
70
0
0
ATTDEF
8
0
10
0.000000
20
0.000000
30
0.0
40
3.5
1

3

2
MIN_VETRO:0
70
0
0
ATTDEF
8
0
10
0.000000
20
0.000000
30
0.0
40
3.5
1

3

2
MAX_VETRO:0
70
0
0
ATTDEF
8
0
10
0.000000
20
0.000000
30
0.0
40
3.5
1

3

2
JX:0
70
0
0
ATTDEF
8
0
10
0.000000
20
0.000000
30
0.0
40
3.5
1

3

2
WX:0
70
0
0
ATTDEF
8
0
10
0.000000
20
0.000000
30
0.0
40
3.5
1

3

2
JY:0
70
0
0
ATTDEF
8
0
10
0.000000
20
0.000000
30
0.0
40
3.5
1

3

2
WY:0
70
0
0
ATTDEF
8
0
10
5.419854
20
14.457396
30
0.0
40
3.5
1

3

2
VC_START
70
0
0
ATTDEF
8
0
10
5.419854
20
-20.542604
30
0.0
40
3.5
1

3

2
VC_END
70
0
0
ATTDEF
8
0
10
-0.033699
20
-20.542604
30
0.0
40
3.5
1

3

2
FP_LCS_ORIG
70
0
0
ATTDEF
8
0
10
9.966301
20
-20.542604
30
0.0
40
3.5
1

3

2
FP_LCS_HOT
70
0
0
ATTDEF
8
0
10
-0.033699
20
-10.542604
30
0.0
40
3.5
1

3

2
FP_LCS_INTERN
70
0
0
ENDSEC
0
EOF
