0
SECTION
2
ENTITIES
0
LINE
8
0
10
2999.227395
20
1284.476572
30
0.0
11
2999.227395
21
1243.776572
31
0.0
0
LINE
8
0
10
2999.227395
20
1243.776572
30
0.0
11
3039.927395
21
1243.776572
31
0.0
0
LINE
8
0
10
3039.927395
20
1243.776572
30
0.0
11
3039.927395
21
1284.476572
31
0.0
0
LINE
8
0
10
3039.927395
20
1284.476572
30
0.0
11
2999.227395
21
1284.476572
31
0.0
0
LINE
8
0
10
3041.477395
20
1286.026572
30
0.0
11
2979.227395
21
1286.026572
31
0.0
0
LINE
8
0
10
2979.227395
20
1286.026572
30
0.0
11
2979.227395
21
1284.476572
31
0.0
0
LINE
8
0
10
2979.227395
20
1284.476572
30
0.0
11
2997.677395
21
1284.476572
31
0.0
0
LINE
8
0
10
2997.677395
20
1284.476572
30
0.0
11
2997.677395
21
1243.776572
31
0.0
0
LINE
8
0
10
2997.677395
20
1243.776572
30
0.0
11
2979.227395
21
1243.776572
31
0.0
0
LINE
8
0
10
2979.227395
20
1243.776572
30
0.0
11
2979.227395
21
1242.226572
31
0.0
0
LINE
8
0
10
2979.227395
20
1242.226572
30
0.0
11
2997.677395
21
1242.226572
31
0.0
0
LINE
8
0
10
2997.677395
20
1242.226572
30
0.0
11
2997.677395
21
1223.776572
31
0.0
0
LINE
8
0
10
2997.677395
20
1223.776572
30
0.0
11
2999.227395
21
1223.776572
31
0.0
0
LINE
8
0
10
2999.227395
20
1223.776572
30
0.0
11
2999.227395
21
1242.226572
31
0.0
0
LINE
8
0
10
2999.227395
20
1242.226572
30
0.0
11
3039.927395
21
1242.226572
31
0.0
0
LINE
8
0
10
3039.927395
20
1242.226572
30
0.0
11
3039.927395
21
1223.776572
31
0.0
0
LINE
8
0
10
3039.927395
20
1223.776572
30
0.0
11
3041.477395
21
1223.776572
31
0.0
0
LINE
8
0
10
3041.477395
20
1223.776572
30
0.0
11
3041.477395
21
1286.026572
31
0.0
0
ATTDEF
8
0
10
0.000000
20
0.000000
30
0.0
40
3.5
1

3

2
PANE_WIDTH:0
70
0
0
ATTDEF
8
0
10
0.000000
20
0.000000
30
0.0
40
3.5
1

3

2
MIN_VETRO:0
70
0
0
ATTDEF
8
0
10
0.000000
20
0.000000
30
0.0
40
3.5
1

3

2
MAX_VETRO:0
70
0
0
ATTDEF
8
0
10
0.000000
20
0.000000
30
0.0
40
3.5
1

3

2
JX:0
70
0
0
ATTDEF
8
0
10
0.000000
20
0.000000
30
0.0
40
3.5
1

3

2
WX:0
70
0
0
ATTDEF
8
0
10
0.000000
20
0.000000
30
0.0
40
3.5
1

3

2
JY:0
70
0
0
ATTDEF
8
0
10
0.000000
20
0.000000
30
0.0
40
3.5
1

3

2
WY:0
70
0
0
ATTDEF
8
0
10
0.000000
20
0.000000
30
0.0
40
3.5
1

3

2
DESC:N/F
70
0
0
ATTDEF
8
0
10
0.000000
20
0.000000
30
0.0
40
3.5
1

3

2
DENS:0
70
0
0
ATTDEF
8
0
10
0.000000
20
0.000000
30
0.0
40
3.5
1

3

2
TDEV:0
70
0
0
ATTDEF
8
0
10
0.000000
20
0.000000
30
0.0
40
3.5
1

3

2
TDEV2:0
70
0
0
ATTDEF
8
0
10
0.000000
20
0.000000
30
0.0
40
3.5
1

3

2
TDEV3:0
70
0
0
ATTDEF
8
0
10
0.000000
20
0.000000
30
0.0
40
3.5
1

3

2
TDEV4:0
70
0
0
ATTDEF
8
0
10
0.000000
20
0.000000
30
0.0
40
3.5
1

3

2
TDEV5:0
70
0
0
ATTDEF
8
0
10
0.000000
20
0.000000
30
0.0
40
3.5
1

3

2
PANE_WIDTH:0
70
0
0
ATTDEF
8
0
10
0.000000
20
0.000000
30
0.0
40
3.5
1

3

2
MIN_VETRO:0
70
0
0
ATTDEF
8
0
10
0.000000
20
0.000000
30
0.0
40
3.5
1

3

2
MAX_VETRO:0
70
0
0
ATTDEF
8
0
10
0.000000
20
0.000000
30
0.0
40
3.5
1

3

2
JX:0
70
0
0
ATTDEF
8
0
10
0.000000
20
0.000000
30
0.0
40
3.5
1

3

2
WX:0
70
0
0
ATTDEF
8
0
10
0.000000
20
0.000000
30
0.0
40
3.5
1

3

2
JY:0
70
0
0
ATTDEF
8
0
10
0.000000
20
0.000000
30
0.0
40
3.5
1

3

2
WY:0
70
0
0
ENDSEC
0
EOF
