0
SECTION
2
ENTITIES
0
LINE
8
0
10
2991.060335
20
1250.632988
30
0.0
11
2991.060335
21
1268.132988
31
0.0
0
LINE
8
0
10
2991.060335
20
1268.132988
30
0.0
11
2996.460335
21
1268.132988
31
0.0
0
LINE
8
0
10
2996.460335
20
1268.132988
30
0.0
11
2996.460335
21
1265.632988
31
0.0
0
LINE
8
0
10
2996.460335
20
1265.632988
30
0.0
11
2997.860335
21
1265.632988
31
0.0
0
LINE
8
0
10
2997.860335
20
1265.632988
30
0.0
11
2997.860335
21
1268.132988
31
0.0
0
LINE
8
0
10
2997.860335
20
1268.132988
30
0.0
11
3035.760335
21
1268.132988
31
0.0
0
LINE
8
0
10
3035.760335
20
1268.132988
30
0.0
11
3035.760335
21
1242.132988
31
0.0
0
LINE
8
0
10
3035.760335
20
1242.132988
30
0.0
11
2997.860335
21
1242.132988
31
0.0
0
LINE
8
0
10
2997.860335
20
1242.132988
30
0.0
11
2997.860335
21
1243.532988
31
0.0
0
LINE
8
0
10
2997.860335
20
1243.532988
30
0.0
11
2997.560335
21
1243.532988
31
0.0
0
LINE
8
0
10
2997.560335
20
1243.532988
30
0.0
11
2997.560335
21
1249.232988
31
0.0
0
LINE
8
0
10
2997.560335
20
1249.232988
30
0.0
11
2997.860335
21
1249.232988
31
0.0
0
LINE
8
0
10
2997.860335
20
1249.232988
30
0.0
11
2997.860335
21
1250.632988
31
0.0
0
LINE
8
0
10
2997.860335
20
1250.632988
30
0.0
11
2991.060335
21
1250.632988
31
0.0
0
LINE
8
0
10
3029.660335
20
1240.732988
30
0.0
11
3009.660335
21
1240.732988
31
0.0
0
LINE
8
0
10
3009.660335
20
1240.732988
30
0.0
11
3009.660335
21
1237.732988
31
0.0
0
LINE
8
0
10
3009.660335
20
1237.732988
30
0.0
11
3009.710335
21
1237.732988
31
0.0
0
LINE
8
0
10
3009.710335
20
1237.732988
30
0.0
11
3012.160335
21
1237.732988
31
0.0
0
LINE
8
0
10
3012.160335
20
1237.732988
30
0.0
11
3012.160335
21
1236.232988
31
0.0
0
LINE
8
0
10
3012.160335
20
1236.232988
30
0.0
11
3008.360335
21
1236.232988
31
0.0
0
LINE
8
0
10
3008.360335
20
1236.232988
30
0.0
11
3007.160335
21
1240.732988
31
0.0
0
LINE
8
0
10
3007.160335
20
1240.732988
30
0.0
11
2996.660335
21
1240.732988
31
0.0
0
ARC
8
0
10
2996.660335
20
1241.232988
30
0.0
40
0.500000
50
180.000000
51
270.000000
0
LINE
8
0
10
2996.160335
20
1241.232988
30
0.0
11
2996.160335
21
1249.232988
31
0.0
0
LINE
8
0
10
2996.160335
20
1249.232988
30
0.0
11
2990.160335
21
1249.232988
31
0.0
0
ARC
8
0
10
2990.160335
20
1249.732988
30
0.0
40
0.500000
50
180.000000
51
270.000000
0
LINE
8
0
10
2989.660335
20
1249.732988
30
0.0
11
2989.660335
21
1274.532988
31
0.0
0
LINE
8
0
10
2989.660335
20
1274.532988
30
0.0
11
2992.160335
21
1274.532988
31
0.0
0
LINE
8
0
10
2992.160335
20
1274.532988
30
0.0
11
2993.160335
21
1273.532988
31
0.0
0
LINE
8
0
10
2993.160335
20
1273.532988
30
0.0
11
2993.160335
21
1272.532988
31
0.0
0
LINE
8
0
10
2993.160335
20
1272.532988
30
0.0
11
2990.960335
21
1272.532988
31
0.0
0
LINE
8
0
10
2990.960335
20
1272.532988
30
0.0
11
2990.960335
21
1269.532988
31
0.0
0
LINE
8
0
10
2990.960335
20
1269.532988
30
0.0
11
3009.360335
21
1269.532988
31
0.0
0
LINE
8
0
10
3009.360335
20
1269.532988
30
0.0
11
3009.360335
21
1272.532988
31
0.0
0
LINE
8
0
10
3009.360335
20
1272.532988
30
0.0
11
3007.160335
21
1272.532988
31
0.0
0
LINE
8
0
10
3007.160335
20
1272.532988
30
0.0
11
3007.160335
21
1273.532988
31
0.0
0
LINE
8
0
10
3007.160335
20
1273.532988
30
0.0
11
3008.160335
21
1274.532988
31
0.0
0
LINE
8
0
10
3008.160335
20
1274.532988
30
0.0
11
3010.660335
21
1274.532988
31
0.0
0
LINE
8
0
10
3010.660335
20
1274.532988
30
0.0
11
3010.660335
21
1269.532988
31
0.0
0
LINE
8
0
10
3010.660335
20
1269.532988
30
0.0
11
3034.760335
21
1269.532988
31
0.0
0
ARC
8
0
10
3034.760335
20
1270.532988
30
0.0
40
1.000000
50
270.000000
51
360.000000
0
LINE
8
0
10
3035.760335
20
1270.532988
30
0.0
11
3035.760335
21
1288.532988
31
0.0
0
ARC
8
0
10
3031.160335
20
1288.532988
30
0.0
40
4.600000
50
360.000000
51
90.000000
0
LINE
8
0
10
3031.160335
20
1293.132988
30
0.0
11
3030.660335
21
1293.132988
31
0.0
0
ARC
8
0
10
3030.660335
20
1292.632988
30
0.0
40
0.500000
50
90.000000
51
180.000000
0
LINE
8
0
10
3030.160335
20
1292.632988
30
0.0
11
3030.160335
21
1284.532988
31
0.0
0
ARC
8
0
10
3029.660335
20
1284.532988
30
0.0
40
0.500000
50
270.000000
51
360.000000
0
LINE
8
0
10
3029.660335
20
1284.032988
30
0.0
11
3028.660335
21
1284.032988
31
0.0
0
LINE
8
0
10
3028.660335
20
1284.032988
30
0.0
11
3027.160335
21
1284.032988
31
0.0
0
ARC
8
0
10
3027.160335
20
1284.532988
30
0.0
40
0.500000
50
180.000000
51
270.000000
0
LINE
8
0
10
3026.660335
20
1284.532988
30
0.0
11
3026.660335
21
1285.532988
31
0.0
0
LINE
8
0
10
3026.660335
20
1285.532988
30
0.0
11
3027.160335
21
1287.282988
31
0.0
0
LINE
8
0
10
3027.160335
20
1287.282988
30
0.0
11
3027.660335
21
1287.282988
31
0.0
0
LINE
8
0
10
3027.660335
20
1287.282988
30
0.0
11
3027.660335
21
1286.782988
31
0.0
0
LINE
8
0
10
3027.660335
20
1286.782988
30
0.0
11
3027.660335
21
1285.532988
31
0.0
0
LINE
8
0
10
3027.660335
20
1285.532988
30
0.0
11
3028.960335
21
1285.532988
31
0.0
0
LINE
8
0
10
3028.960335
20
1285.532988
30
0.0
11
3028.960335
21
1293.032988
31
0.0
0
LINE
8
0
10
3028.960335
20
1293.032988
30
0.0
11
3027.660335
21
1293.032988
31
0.0
0
LINE
8
0
10
3027.660335
20
1293.032988
30
0.0
11
3027.660335
21
1291.782988
31
0.0
0
LINE
8
0
10
3027.660335
20
1291.782988
30
0.0
11
3027.660335
21
1291.282988
31
0.0
0
LINE
8
0
10
3027.660335
20
1291.282988
30
0.0
11
3027.160335
21
1291.282988
31
0.0
0
LINE
8
0
10
3027.160335
20
1291.282988
30
0.0
11
3026.660335
21
1293.032988
31
0.0
0
LINE
8
0
10
3026.660335
20
1293.032988
30
0.0
11
3026.660335
21
1294.032988
31
0.0
0
ARC
8
0
10
3027.160335
20
1294.032988
30
0.0
40
0.500000
50
90.000000
51
180.000000
0
LINE
8
0
10
3027.160335
20
1294.532988
30
0.0
11
3031.160335
21
1294.532988
31
0.0
0
ARC
8
0
10
3031.160335
20
1288.532988
30
0.0
40
6.000000
50
360.000000
51
90.000000
0
LINE
8
0
10
3037.160335
20
1288.532988
30
0.0
11
3037.160335
21
1219.232988
31
0.0
0
ARC
8
0
10
3036.660335
20
1219.232988
30
0.0
40
0.500000
50
270.000000
51
360.000000
0
LINE
8
0
10
3036.660335
20
1218.732988
30
0.0
11
3034.160335
21
1218.732988
31
0.0
0
ARC
8
0
10
3034.160335
20
1219.232988
30
0.0
40
0.500000
50
180.000000
51
270.000000
0
LINE
8
0
10
3033.660335
20
1219.232988
30
0.0
11
3033.660335
21
1219.932988
31
0.0
0
LINE
8
0
10
3033.660335
20
1219.932988
30
0.0
11
3034.160335
21
1221.232988
31
0.0
0
LINE
8
0
10
3034.160335
20
1221.232988
30
0.0
11
3034.660335
21
1221.232988
31
0.0
0
LINE
8
0
10
3034.660335
20
1221.232988
30
0.0
11
3034.660335
21
1219.932988
31
0.0
0
LINE
8
0
10
3034.660335
20
1219.932988
30
0.0
11
3035.960335
21
1219.932988
31
0.0
0
LINE
8
0
10
3035.960335
20
1219.932988
30
0.0
11
3035.960335
21
1226.032988
31
0.0
0
LINE
8
0
10
3035.960335
20
1226.032988
30
0.0
11
3034.660335
21
1226.032988
31
0.0
0
LINE
8
0
10
3034.660335
20
1226.032988
30
0.0
11
3034.660335
21
1224.732988
31
0.0
0
LINE
8
0
10
3034.660335
20
1224.732988
30
0.0
11
3034.160335
21
1224.732988
31
0.0
0
LINE
8
0
10
3034.160335
20
1224.732988
30
0.0
11
3033.660335
21
1226.032988
31
0.0
0
LINE
8
0
10
3033.660335
20
1226.032988
30
0.0
11
3033.660335
21
1226.732988
31
0.0
0
ARC
8
0
10
3034.160335
20
1226.732988
30
0.0
40
0.500000
50
90.000000
51
180.000000
0
LINE
8
0
10
3034.160335
20
1227.232988
30
0.0
11
3034.560335
21
1227.232988
31
0.0
0
LINE
8
0
10
3034.560335
20
1227.232988
30
0.0
11
3035.760335
21
1227.232988
31
0.0
0
LINE
8
0
10
3035.760335
20
1227.232988
30
0.0
11
3035.760335
21
1240.732988
31
0.0
0
LINE
8
0
10
3035.760335
20
1240.732988
30
0.0
11
3030.960335
21
1240.732988
31
0.0
0
LINE
8
0
10
3030.960335
20
1240.732988
30
0.0
11
3030.960335
21
1237.732988
31
0.0
0
LINE
8
0
10
3030.960335
20
1237.732988
30
0.0
11
3031.660335
21
1237.732988
31
0.0
0
LINE
8
0
10
3031.660335
20
1237.732988
30
0.0
11
3031.660335
21
1236.232988
31
0.0
0
LINE
8
0
10
3031.660335
20
1236.232988
30
0.0
11
3027.160335
21
1236.232988
31
0.0
0
LINE
8
0
10
3027.160335
20
1236.232988
30
0.0
11
3027.160335
21
1237.732988
31
0.0
0
LINE
8
0
10
3027.160335
20
1237.732988
30
0.0
11
3029.660335
21
1237.732988
31
0.0
0
LINE
8
0
10
3029.660335
20
1237.732988
30
0.0
11
3029.660335
21
1240.732988
31
0.0
0
ATTDEF
8
0
10
0.000000
20
0.000000
30
0.0
40
3.5
1

3

2
PANE_WIDTH:0
70
0
0
ATTDEF
8
0
10
0.000000
20
0.000000
30
0.0
40
3.5
1

3

2
MIN_VETRO:0
70
0
0
ATTDEF
8
0
10
0.000000
20
0.000000
30
0.0
40
3.5
1

3

2
MAX_VETRO:0
70
0
0
ATTDEF
8
0
10
0.000000
20
0.000000
30
0.0
40
3.5
1

3

2
JX:0
70
0
0
ATTDEF
8
0
10
0.000000
20
0.000000
30
0.0
40
3.5
1

3

2
WX:0
70
0
0
ATTDEF
8
0
10
0.000000
20
0.000000
30
0.0
40
3.5
1

3

2
JY:0
70
0
0
ATTDEF
8
0
10
0.000000
20
0.000000
30
0.0
40
3.5
1

3

2
WY:0
70
0
0
ATTDEF
8
0
10
0.000000
20
0.000000
30
0.0
40
3.5
1

3

2
DESC:Hoja Ventana Ap. Ext
70
0
0
ATTDEF
8
0
10
0.000000
20
0.000000
30
0.0
40
3.5
1

3

2
DENS:0.9558
70
0
0
ATTDEF
8
0
10
0.000000
20
0.000000
30
0.0
40
3.5
1

3

2
TDEV:50.7
70
0
0
ATTDEF
8
0
10
0.000000
20
0.000000
30
0.0
40
3.5
1

3

2
TDEV2:0
70
0
0
ATTDEF
8
0
10
0.000000
20
0.000000
30
0.0
40
3.5
1

3

2
TDEV3:0
70
0
0
ATTDEF
8
0
10
0.000000
20
0.000000
30
0.0
40
3.5
1

3

2
TDEV4:0
70
0
0
ATTDEF
8
0
10
0.000000
20
0.000000
30
0.0
40
3.5
1

3

2
TDEV5:0
70
0
0
ATTDEF
8
0
10
0.000000
20
0.000000
30
0.0
40
3.5
1

3

2
PANE_WIDTH:0
70
0
0
ATTDEF
8
0
10
0.000000
20
0.000000
30
0.0
40
3.5
1

3

2
MIN_VETRO:0
70
0
0
ATTDEF
8
0
10
0.000000
20
0.000000
30
0.0
40
3.5
1

3

2
MAX_VETRO:0
70
0
0
ATTDEF
8
0
10
0.000000
20
0.000000
30
0.0
40
3.5
1

3

2
JX:0
70
0
0
ATTDEF
8
0
10
0.000000
20
0.000000
30
0.0
40
3.5
1

3

2
WX:0
70
0
0
ATTDEF
8
0
10
0.000000
20
0.000000
30
0.0
40
3.5
1

3

2
JY:0
70
0
0
ATTDEF
8
0
10
0.000000
20
0.000000
30
0.0
40
3.5
1

3

2
WY:0
70
0
0
ATTDEF
8
0
10
2989.660335
20
1274.532988
30
0.0
40
3.5
1

3

2
VC_START
70
0
0
ATTDEF
8
0
10
3029.410335
20
1236.232988
30
0.0
40
3.5
1

3

2
VC_END
70
0
0
ATTDEF
8
0
10
3037.160335
20
1218.732988
30
0.0
40
3.5
1

3

2
FP_LCS_ORIG
70
0
0
ATTDEF
8
0
10
3027.160335
20
1218.732988
30
0.0
40
3.5
1

3

2
FP_LCS_HOT
70
0
0
ATTDEF
8
0
10
3037.160335
20
1228.732988
30
0.0
40
3.5
1

3

2
FP_LCS_INTERN
70
0
0
ENDSEC
0
EOF
