0
SECTION
2
ENTITIES
0
LINE
8
0
10
2975.474926
20
1223.206280
30
0.0
11
2975.474926
21
1225.206280
31
0.0
0
LINE
8
0
10
2949.874926
20
1223.206280
30
0.0
11
2975.474926
21
1223.206280
31
0.0
0
LINE
8
0
10
2949.874926
20
1237.206280
30
0.0
11
2949.874926
21
1223.206280
31
0.0
0
LINE
8
0
10
2975.474926
20
1237.206280
30
0.0
11
2949.874926
21
1237.206280
31
0.0
0
LINE
8
0
10
2975.474926
20
1235.206280
30
0.0
11
2975.474926
21
1237.206280
31
0.0
0
LINE
8
0
10
2976.774926
20
1235.206280
30
0.0
11
2975.474926
21
1235.206280
31
0.0
0
LINE
8
0
10
2976.774926
20
1236.006280
30
0.0
11
2976.774926
21
1235.206280
31
0.0
0
ARC
8
0
10
2977.274926
20
1236.006280
30
0.0
40
0.500000
50
90.000000
51
180.000000
0
LINE
8
0
10
2982.974926
20
1236.506280
30
0.0
11
2977.274926
21
1236.506280
31
0.0
0
ARC
8
0
10
2982.974926
20
1236.006280
30
0.0
40
0.500000
50
360.000000
51
90.000000
0
LINE
8
0
10
2983.474926
20
1227.744758
30
0.0
11
2983.474926
21
1236.006280
31
0.0
0
LINE
8
0
10
2983.121372
20
1227.391204
30
0.0
11
2983.474926
21
1227.744758
31
0.0
0
ARC
8
0
10
2983.474926
20
1227.037651
30
0.0
40
0.500000
50
135.000000
51
180.000000
0
LINE
8
0
10
2982.974926
20
1219.506280
30
0.0
11
2982.974926
21
1227.037651
31
0.0
0
ARC
8
0
10
2982.474926
20
1219.506280
30
0.0
40
0.500000
50
270.000000
51
360.000000
0
LINE
8
0
10
2980.974926
20
1219.006280
30
0.0
11
2982.474926
21
1219.006280
31
0.0
0
LINE
8
0
10
2980.474926
20
1218.506280
30
0.0
11
2980.974926
21
1219.006280
31
0.0
0
LINE
8
0
10
2979.974926
20
1219.006280
30
0.0
11
2980.474926
21
1218.506280
31
0.0
0
LINE
8
0
10
2977.274926
20
1219.006280
30
0.0
11
2979.974926
21
1219.006280
31
0.0
0
ARC
8
0
10
2977.274926
20
1219.506280
30
0.0
40
0.500000
50
180.000000
51
270.000000
0
LINE
8
0
10
2976.774926
20
1225.206280
30
0.0
11
2976.774926
21
1219.506280
31
0.0
0
LINE
8
0
10
2975.474926
20
1225.206280
30
0.0
11
2976.774926
21
1225.206280
31
0.0
0
ARC
8
0
10
2984.474926
20
1236.386665
30
0.0
40
0.300000
50
360.000000
51
60.000000
0
ARC
8
0
10
2984.774926
20
1236.906280
30
0.0
40
0.300000
50
90.000000
51
240.000000
0
LINE
8
0
10
2988.074926
20
1237.206280
30
0.0
11
2984.774926
21
1237.206280
31
0.0
0
ARC
8
0
10
2988.074926
20
1237.706280
30
0.0
40
0.500000
50
270.000000
51
360.000000
0
LINE
8
0
10
2988.574926
20
1243.006280
30
0.0
11
2988.574926
21
1237.706280
31
0.0
0
ARC
8
0
10
2988.074926
20
1243.006280
30
0.0
40
0.500000
50
360.000000
51
90.000000
0
LINE
8
0
10
2986.282033
20
1243.506280
30
0.0
11
2988.074926
21
1243.506280
31
0.0
0
ARC
8
0
10
2986.282033
20
1243.006280
30
0.0
40
0.500000
50
90.000000
51
135.000000
0
LINE
8
0
10
2985.074926
20
1242.506280
30
0.0
11
2985.928479
21
1243.359833
31
0.0
0
LINE
8
0
10
2985.074926
20
1241.506280
30
0.0
11
2985.074926
21
1242.506280
31
0.0
0
LINE
8
0
10
2987.274926
20
1241.506280
30
0.0
11
2985.074926
21
1241.506280
31
0.0
0
LINE
8
0
10
2987.274926
20
1238.506280
30
0.0
11
2987.274926
21
1241.506280
31
0.0
0
LINE
8
0
10
2980.974926
20
1238.506280
30
0.0
11
2987.274926
21
1238.506280
31
0.0
0
LINE
8
0
10
2980.474926
20
1238.006280
30
0.0
11
2980.974926
21
1238.506280
31
0.0
0
LINE
8
0
10
2979.974926
20
1238.506280
30
0.0
11
2980.474926
21
1238.006280
31
0.0
0
LINE
8
0
10
2968.974926
20
1238.506280
30
0.0
11
2979.974926
21
1238.506280
31
0.0
0
LINE
8
0
10
2968.974926
20
1241.506280
30
0.0
11
2968.974926
21
1238.506280
31
0.0
0
LINE
8
0
10
2971.074926
20
1241.506280
30
0.0
11
2968.974926
21
1241.506280
31
0.0
0
LINE
8
0
10
2971.074926
20
1242.506280
30
0.0
11
2971.074926
21
1241.506280
31
0.0
0
LINE
8
0
10
2970.221372
20
1243.359833
30
0.0
11
2971.074926
21
1242.506280
31
0.0
0
ARC
8
0
10
2969.867819
20
1243.006280
30
0.0
40
0.500000
50
45.000000
51
90.000000
0
LINE
8
0
10
2968.174926
20
1243.506280
30
0.0
11
2969.867819
21
1243.506280
31
0.0
0
ARC
8
0
10
2968.174926
20
1243.006280
30
0.0
40
0.500000
50
90.000000
51
180.000000
0
LINE
8
0
10
2967.674926
20
1238.506280
30
0.0
11
2967.674926
21
1243.006280
31
0.0
0
LINE
8
0
10
2950.374926
20
1238.506280
30
0.0
11
2967.674926
21
1238.506280
31
0.0
0
ARC
8
0
10
2950.374926
20
1239.006280
30
0.0
40
0.500000
50
180.000000
51
270.000000
0
LINE
8
0
10
2949.874926
20
1253.506280
30
0.0
11
2949.874926
21
1239.006280
31
0.0
0
LINE
8
0
10
2951.574926
20
1253.506280
30
0.0
11
2949.874926
21
1253.506280
31
0.0
0
ARC
8
0
10
2951.574926
20
1254.006280
30
0.0
40
0.500000
50
270.000000
51
360.000000
0
LINE
8
0
10
2952.074926
20
1254.906280
30
0.0
11
2952.074926
21
1254.006280
31
0.0
0
LINE
8
0
10
2951.574926
20
1256.506280
30
0.0
11
2952.074926
21
1254.906280
31
0.0
0
LINE
8
0
10
2951.074926
20
1256.506280
30
0.0
11
2951.574926
21
1256.506280
31
0.0
0
LINE
8
0
10
2951.074926
20
1254.906280
30
0.0
11
2951.074926
21
1256.506280
31
0.0
0
LINE
8
0
10
2949.774926
20
1254.906280
30
0.0
11
2951.074926
21
1254.906280
31
0.0
0
LINE
8
0
10
2949.774926
20
1262.106280
30
0.0
11
2949.774926
21
1254.906280
31
0.0
0
LINE
8
0
10
2951.074926
20
1262.106280
30
0.0
11
2949.774926
21
1262.106280
31
0.0
0
LINE
8
0
10
2951.074926
20
1260.506280
30
0.0
11
2951.074926
21
1262.106280
31
0.0
0
LINE
8
0
10
2951.574926
20
1260.506280
30
0.0
11
2951.074926
21
1260.506280
31
0.0
0
LINE
8
0
10
2952.074926
20
1262.106280
30
0.0
11
2951.574926
21
1260.506280
31
0.0
0
LINE
8
0
10
2952.074926
20
1263.006280
30
0.0
11
2952.074926
21
1262.106280
31
0.0
0
ARC
8
0
10
2951.574926
20
1263.006280
30
0.0
40
0.500000
50
360.000000
51
90.000000
0
LINE
8
0
10
2949.074926
20
1263.506280
30
0.0
11
2951.574926
21
1263.506280
31
0.0
0
ARC
8
0
10
2949.074926
20
1263.006280
30
0.0
40
0.500000
50
90.000000
51
180.000000
0
LINE
8
0
10
2948.574926
20
1217.706280
30
0.0
11
2948.574926
21
1263.006280
31
0.0
0
ARC
8
0
10
2949.074926
20
1217.706280
30
0.0
40
0.500000
50
180.000000
51
270.000000
0
LINE
8
0
10
2951.574926
20
1217.206280
30
0.0
11
2949.074926
21
1217.206280
31
0.0
0
ARC
8
0
10
2951.574926
20
1217.706280
30
0.0
40
0.500000
50
270.000000
51
360.000000
0
LINE
8
0
10
2952.074926
20
1218.006280
30
0.0
11
2952.074926
21
1217.706280
31
0.0
0
ARC
8
0
10
2951.574926
20
1218.006280
30
0.0
40
0.500000
50
360.000000
51
90.000000
0
LINE
8
0
10
2949.874926
20
1218.506280
30
0.0
11
2951.574926
21
1218.506280
31
0.0
0
LINE
8
0
10
2949.874926
20
1221.906280
30
0.0
11
2949.874926
21
1218.506280
31
0.0
0
LINE
8
0
10
2975.474926
20
1221.906280
30
0.0
11
2949.874926
21
1221.906280
31
0.0
0
LINE
8
0
10
2975.474926
20
1217.906280
30
0.0
11
2975.474926
21
1221.906280
31
0.0
0
ARC
8
0
10
2975.974926
20
1217.906280
30
0.0
40
0.500000
50
180.000000
51
270.000000
0
LINE
8
0
10
2977.974926
20
1217.406280
30
0.0
11
2975.974926
21
1217.406280
31
0.0
0
LINE
8
0
10
2977.974926
20
1217.706280
30
0.0
11
2977.974926
21
1217.406280
31
0.0
0
LINE
8
0
10
2986.674926
20
1217.706280
30
0.0
11
2977.974926
21
1217.706280
31
0.0
0
ARC
8
0
10
2986.674926
20
1218.006280
30
0.0
40
0.300000
50
270.000000
51
360.000000
0
LINE
8
0
10
2986.974926
20
1218.706280
30
0.0
11
2986.974926
21
1218.006280
31
0.0
0
ARC
8
0
10
2986.674926
20
1218.706280
30
0.0
40
0.300000
50
360.000000
51
90.000000
0
LINE
8
0
10
2984.274926
20
1219.006280
30
0.0
11
2986.674926
21
1219.006280
31
0.0
0
LINE
8
0
10
2984.274926
20
1226.706280
30
0.0
11
2984.274926
21
1219.006280
31
0.0
0
LINE
8
0
10
2984.628479
20
1227.059833
30
0.0
11
2984.274926
21
1226.706280
31
0.0
0
ARC
8
0
10
2984.274926
20
1227.413387
30
0.0
40
0.500000
50
315.000000
51
360.000000
0
LINE
8
0
10
2984.774926
20
1236.386665
30
0.0
11
2984.774926
21
1227.413387
31
0.0
0
ATTDEF
8
0
10
0.000000
20
0.000000
30
0.0
40
3.5
1

3

2
PANE_WIDTH:0
70
0
0
ATTDEF
8
0
10
0.000000
20
0.000000
30
0.0
40
3.5
1

3

2
MIN_VETRO:0
70
0
0
ATTDEF
8
0
10
0.000000
20
0.000000
30
0.0
40
3.5
1

3

2
MAX_VETRO:0
70
0
0
ATTDEF
8
0
10
0.000000
20
0.000000
30
0.0
40
3.5
1

3

2
JX:0
70
0
0
ATTDEF
8
0
10
0.000000
20
0.000000
30
0.0
40
3.5
1

3

2
WX:0
70
0
0
ATTDEF
8
0
10
0.000000
20
0.000000
30
0.0
40
3.5
1

3

2
JY:0
70
0
0
ATTDEF
8
0
10
0.000000
20
0.000000
30
0.0
40
3.5
1

3

2
WY:0
70
0
0
ATTDEF
8
0
10
0.000000
20
0.000000
30
0.0
40
3.5
1

3

2
DESC:Conversor apert.ext.
70
0
0
ATTDEF
8
0
10
0.000000
20
0.000000
30
0.0
40
3.5
1

3

2
DENS:0.6183
70
0
0
ATTDEF
8
0
10
0.000000
20
0.000000
30
0.0
40
3.5
1

3

2
TDEV:34.06
70
0
0
ATTDEF
8
0
10
0.000000
20
0.000000
30
0.0
40
3.5
1

3

2
TDEV2:0
70
0
0
ATTDEF
8
0
10
0.000000
20
0.000000
30
0.0
40
3.5
1

3

2
TDEV3:0
70
0
0
ATTDEF
8
0
10
0.000000
20
0.000000
30
0.0
40
3.5
1

3

2
TDEV4:0
70
0
0
ATTDEF
8
0
10
0.000000
20
0.000000
30
0.0
40
3.5
1

3

2
TDEV5:0
70
0
0
ATTDEF
8
0
10
0.000000
20
0.000000
30
0.0
40
3.5
1

3

2
PANE_WIDTH:0
70
0
0
ATTDEF
8
0
10
0.000000
20
0.000000
30
0.0
40
3.5
1

3

2
MIN_VETRO:0
70
0
0
ATTDEF
8
0
10
0.000000
20
0.000000
30
0.0
40
3.5
1

3

2
MAX_VETRO:0
70
0
0
ATTDEF
8
0
10
0.000000
20
0.000000
30
0.0
40
3.5
1

3

2
JX:0
70
0
0
ATTDEF
8
0
10
0.000000
20
0.000000
30
0.0
40
3.5
1

3

2
WX:0
70
0
0
ATTDEF
8
0
10
0.000000
20
0.000000
30
0.0
40
3.5
1

3

2
JY:0
70
0
0
ATTDEF
8
0
10
0.000000
20
0.000000
30
0.0
40
3.5
1

3

2
WY:0
70
0
0
ATTDEF
8
0
10
2988.074926
20
1243.506280
30
0.0
40
3.5
1

3

2
VC_START
70
0
0
ATTDEF
8
0
10
2950.324926
20
1217.206280
30
0.0
40
3.5
1

3

2
VC_END
70
0
0
ATTDEF
8
0
10
2948.574926
20
1217.206280
30
0.0
40
3.5
1

3

2
FP_LCS_ORIG
70
0
0
ATTDEF
8
0
10
2958.574926
20
1217.206280
30
0.0
40
3.5
1

3

2
FP_LCS_HOT
70
0
0
ATTDEF
8
0
10
2948.574926
20
1227.206280
30
0.0
40
3.5
1

3

2
FP_LCS_INTERN
70
0
0
ENDSEC
0
EOF
