0
SECTION
2
ENTITIES
0
LINE
8
0
10
3013.988754
20
1205.434327
30
0.0
11
3013.688754
21
1205.434327
31
0.0
0
LINE
8
0
10
3013.688754
20
1205.434327
30
0.0
11
3013.688754
21
1211.134327
31
0.0
0
LINE
8
0
10
3013.688754
20
1211.134327
30
0.0
11
3013.988754
21
1211.134327
31
0.0
0
LINE
8
0
10
3013.988754
20
1211.134327
30
0.0
11
3013.988754
21
1212.534327
31
0.0
0
LINE
8
0
10
3013.988754
20
1212.534327
30
0.0
11
3007.188754
21
1212.534327
31
0.0
0
LINE
8
0
10
3007.188754
20
1212.534327
30
0.0
11
3007.188754
21
1244.034327
31
0.0
0
LINE
8
0
10
3007.188754
20
1244.034327
30
0.0
11
3012.588754
21
1244.034327
31
0.0
0
LINE
8
0
10
3012.588754
20
1244.034327
30
0.0
11
3012.588754
21
1241.534327
31
0.0
0
LINE
8
0
10
3012.588754
20
1241.534327
30
0.0
11
3013.988754
21
1241.534327
31
0.0
0
LINE
8
0
10
3013.988754
20
1241.534327
30
0.0
11
3013.988754
21
1244.034327
31
0.0
0
LINE
8
0
10
3013.988754
20
1244.034327
30
0.0
11
3051.888754
21
1244.034327
31
0.0
0
LINE
8
0
10
3051.888754
20
1244.034327
30
0.0
11
3051.888754
21
1204.034327
31
0.0
0
LINE
8
0
10
3051.888754
20
1204.034327
30
0.0
11
3013.988754
21
1204.034327
31
0.0
0
LINE
8
0
10
3013.988754
20
1204.034327
30
0.0
11
3013.988754
21
1205.434327
31
0.0
0
LINE
8
0
10
3009.288754
20
1249.434327
30
0.0
11
3009.288754
21
1248.434327
31
0.0
0
LINE
8
0
10
3009.288754
20
1248.434327
30
0.0
11
3007.088754
21
1248.434327
31
0.0
0
LINE
8
0
10
3007.088754
20
1248.434327
30
0.0
11
3007.088754
21
1245.434327
31
0.0
0
LINE
8
0
10
3007.088754
20
1245.434327
30
0.0
11
3025.488754
21
1245.434327
31
0.0
0
LINE
8
0
10
3025.488754
20
1245.434327
30
0.0
11
3025.488754
21
1248.434327
31
0.0
0
LINE
8
0
10
3025.488754
20
1248.434327
30
0.0
11
3023.288754
21
1248.434327
31
0.0
0
LINE
8
0
10
3023.288754
20
1248.434327
30
0.0
11
3023.288754
21
1249.434327
31
0.0
0
LINE
8
0
10
3023.288754
20
1249.434327
30
0.0
11
3024.288754
21
1250.434327
31
0.0
0
LINE
8
0
10
3024.288754
20
1250.434327
30
0.0
11
3026.788754
21
1250.434327
31
0.0
0
LINE
8
0
10
3026.788754
20
1250.434327
30
0.0
11
3026.788754
21
1245.434327
31
0.0
0
LINE
8
0
10
3026.788754
20
1245.434327
30
0.0
11
3050.888754
21
1245.434327
31
0.0
0
ARC
8
0
10
3050.888754
20
1246.434327
30
0.0
40
1.000000
50
270.000000
51
360.000000
0
LINE
8
0
10
3051.888754
20
1246.434327
30
0.0
11
3051.888754
21
1268.534327
31
0.0
0
ARC
8
0
10
3051.388754
20
1268.534327
30
0.0
40
0.500000
50
360.000000
51
90.000000
0
LINE
8
0
10
3051.388754
20
1269.034327
30
0.0
11
3046.288754
21
1269.034327
31
0.0
0
ARC
8
0
10
3046.288754
20
1268.534327
30
0.0
40
0.500000
50
90.000000
51
180.000000
0
LINE
8
0
10
3045.788754
20
1268.534327
30
0.0
11
3045.788754
21
1260.434327
31
0.0
0
ARC
8
0
10
3045.288754
20
1260.434327
30
0.0
40
0.500000
50
270.000000
51
360.000000
0
LINE
8
0
10
3045.288754
20
1259.934327
30
0.0
11
3042.788754
21
1259.934327
31
0.0
0
ARC
8
0
10
3042.788754
20
1260.434327
30
0.0
40
0.500000
50
180.000000
51
270.000000
0
LINE
8
0
10
3042.288754
20
1260.434327
30
0.0
11
3042.288754
21
1261.434327
31
0.0
0
LINE
8
0
10
3042.288754
20
1261.434327
30
0.0
11
3042.788754
21
1263.184327
31
0.0
0
LINE
8
0
10
3042.788754
20
1263.184327
30
0.0
11
3043.288754
21
1263.184327
31
0.0
0
LINE
8
0
10
3043.288754
20
1263.184327
30
0.0
11
3043.288754
21
1261.434327
31
0.0
0
LINE
8
0
10
3043.288754
20
1261.434327
30
0.0
11
3044.588754
21
1261.434327
31
0.0
0
LINE
8
0
10
3044.588754
20
1261.434327
30
0.0
11
3044.588754
21
1268.934327
31
0.0
0
LINE
8
0
10
3044.588754
20
1268.934327
30
0.0
11
3043.288754
21
1268.934327
31
0.0
0
LINE
8
0
10
3043.288754
20
1268.934327
30
0.0
11
3043.288754
21
1267.184327
31
0.0
0
LINE
8
0
10
3043.288754
20
1267.184327
30
0.0
11
3042.788754
21
1267.184327
31
0.0
0
LINE
8
0
10
3042.788754
20
1267.184327
30
0.0
11
3042.288754
21
1268.934327
31
0.0
0
LINE
8
0
10
3042.288754
20
1268.934327
30
0.0
11
3042.288754
21
1269.934327
31
0.0
0
ARC
8
0
10
3042.788754
20
1269.934327
30
0.0
40
0.500000
50
90.000000
51
180.000000
0
LINE
8
0
10
3042.788754
20
1270.434327
30
0.0
11
3052.788754
21
1270.434327
31
0.0
0
ARC
8
0
10
3052.788754
20
1269.934327
30
0.0
40
0.500000
50
360.000000
51
90.000000
0
LINE
8
0
10
3053.288754
20
1269.934327
30
0.0
11
3053.288754
21
1181.134327
31
0.0
0
ARC
8
0
10
3052.788754
20
1181.134327
30
0.0
40
0.500000
50
270.000000
51
360.000000
0
LINE
8
0
10
3052.788754
20
1180.634327
30
0.0
11
3050.288754
21
1180.634327
31
0.0
0
ARC
8
0
10
3050.288754
20
1181.134327
30
0.0
40
0.500000
50
180.000000
51
270.000000
0
LINE
8
0
10
3049.788754
20
1181.134327
30
0.0
11
3049.788754
21
1181.834327
31
0.0
0
LINE
8
0
10
3049.788754
20
1181.834327
30
0.0
11
3050.288754
21
1183.134327
31
0.0
0
LINE
8
0
10
3050.288754
20
1183.134327
30
0.0
11
3050.788754
21
1183.134327
31
0.0
0
LINE
8
0
10
3050.788754
20
1183.134327
30
0.0
11
3050.788754
21
1181.834327
31
0.0
0
LINE
8
0
10
3050.788754
20
1181.834327
30
0.0
11
3052.088754
21
1181.834327
31
0.0
0
LINE
8
0
10
3052.088754
20
1181.834327
30
0.0
11
3052.088754
21
1187.934327
31
0.0
0
LINE
8
0
10
3052.088754
20
1187.934327
30
0.0
11
3050.788754
21
1187.934327
31
0.0
0
LINE
8
0
10
3050.788754
20
1187.934327
30
0.0
11
3050.788754
21
1186.634327
31
0.0
0
LINE
8
0
10
3050.788754
20
1186.634327
30
0.0
11
3050.288754
21
1186.634327
31
0.0
0
LINE
8
0
10
3050.288754
20
1186.634327
30
0.0
11
3049.788754
21
1187.934327
31
0.0
0
LINE
8
0
10
3049.788754
20
1187.934327
30
0.0
11
3049.788754
21
1188.634327
31
0.0
0
ARC
8
0
10
3050.288754
20
1188.634327
30
0.0
40
0.500000
50
90.000000
51
180.000000
0
LINE
8
0
10
3050.288754
20
1189.134327
30
0.0
11
3050.688754
21
1189.134327
31
0.0
0
LINE
8
0
10
3050.688754
20
1189.134327
30
0.0
11
3051.888754
21
1189.134327
31
0.0
0
LINE
8
0
10
3051.888754
20
1189.134327
30
0.0
11
3051.888754
21
1202.634327
31
0.0
0
LINE
8
0
10
3051.888754
20
1202.634327
30
0.0
11
3047.088754
21
1202.634327
31
0.0
0
LINE
8
0
10
3047.088754
20
1202.634327
30
0.0
11
3047.088754
21
1199.634327
31
0.0
0
LINE
8
0
10
3047.088754
20
1199.634327
30
0.0
11
3047.788754
21
1199.634327
31
0.0
0
LINE
8
0
10
3047.788754
20
1199.634327
30
0.0
11
3047.788754
21
1198.134327
31
0.0
0
LINE
8
0
10
3047.788754
20
1198.134327
30
0.0
11
3047.288754
21
1198.134327
31
0.0
0
LINE
8
0
10
3047.288754
20
1198.134327
30
0.0
11
3043.288754
21
1198.134327
31
0.0
0
LINE
8
0
10
3043.288754
20
1198.134327
30
0.0
11
3043.288754
21
1199.634327
31
0.0
0
LINE
8
0
10
3043.288754
20
1199.634327
30
0.0
11
3045.788754
21
1199.634327
31
0.0
0
LINE
8
0
10
3045.788754
20
1199.634327
30
0.0
11
3045.788754
21
1202.634327
31
0.0
0
LINE
8
0
10
3045.788754
20
1202.634327
30
0.0
11
3025.788754
21
1202.634327
31
0.0
0
LINE
8
0
10
3025.788754
20
1202.634327
30
0.0
11
3025.788754
21
1199.634327
31
0.0
0
LINE
8
0
10
3025.788754
20
1199.634327
30
0.0
11
3025.838754
21
1199.634327
31
0.0
0
LINE
8
0
10
3025.838754
20
1199.634327
30
0.0
11
3028.288754
21
1199.634327
31
0.0
0
LINE
8
0
10
3028.288754
20
1199.634327
30
0.0
11
3028.288754
21
1198.134327
31
0.0
0
LINE
8
0
10
3028.288754
20
1198.134327
30
0.0
11
3024.488754
21
1198.134327
31
0.0
0
LINE
8
0
10
3024.488754
20
1198.134327
30
0.0
11
3023.288754
21
1202.634327
31
0.0
0
LINE
8
0
10
3023.288754
20
1202.634327
30
0.0
11
3012.788754
21
1202.634327
31
0.0
0
ARC
8
0
10
3012.788754
20
1203.134327
30
0.0
40
0.500000
50
180.000000
51
270.000000
0
LINE
8
0
10
3012.288754
20
1203.134327
30
0.0
11
3012.288754
21
1211.134327
31
0.0
0
LINE
8
0
10
3012.288754
20
1211.134327
30
0.0
11
3006.288754
21
1211.134327
31
0.0
0
ARC
8
0
10
3006.288754
20
1211.634327
30
0.0
40
0.500000
50
180.000000
51
270.000000
0
LINE
8
0
10
3005.788754
20
1211.634327
30
0.0
11
3005.788754
21
1250.434327
31
0.0
0
LINE
8
0
10
3005.788754
20
1250.434327
30
0.0
11
3008.288754
21
1250.434327
31
0.0
0
LINE
8
0
10
3008.288754
20
1250.434327
30
0.0
11
3009.288754
21
1249.434327
31
0.0
0
ATTDEF
8
0
10
0.000000
20
0.000000
30
0.0
40
3.5
1

3

2
PANE_WIDTH:0
70
0
0
ATTDEF
8
0
10
0.000000
20
0.000000
30
0.0
40
3.5
1

3

2
MIN_VETRO:0
70
0
0
ATTDEF
8
0
10
0.000000
20
0.000000
30
0.0
40
3.5
1

3

2
MAX_VETRO:0
70
0
0
ATTDEF
8
0
10
0.000000
20
0.000000
30
0.0
40
3.5
1

3

2
JX:0
70
0
0
ATTDEF
8
0
10
0.000000
20
0.000000
30
0.0
40
3.5
1

3

2
WX:0
70
0
0
ATTDEF
8
0
10
0.000000
20
0.000000
30
0.0
40
3.5
1

3

2
JY:0
70
0
0
ATTDEF
8
0
10
0.000000
20
0.000000
30
0.0
40
3.5
1

3

2
WY:0
70
0
0
ATTDEF
8
0
10
0.000000
20
0.000000
30
0.0
40
3.5
1

3

2
DESC:Hoja puerta ap.ext.canto recto
70
0
0
ATTDEF
8
0
10
0.000000
20
0.000000
30
0.0
40
3.5
1

3

2
DENS:1.0665
70
0
0
ATTDEF
8
0
10
0.000000
20
0.000000
30
0.0
40
3.5
1

3

2
TDEV:56.41
70
0
0
ATTDEF
8
0
10
0.000000
20
0.000000
30
0.0
40
3.5
1

3

2
TDEV2:0
70
0
0
ATTDEF
8
0
10
0.000000
20
0.000000
30
0.0
40
3.5
1

3

2
TDEV3:0
70
0
0
ATTDEF
8
0
10
0.000000
20
0.000000
30
0.0
40
3.5
1

3

2
TDEV4:0
70
0
0
ATTDEF
8
0
10
0.000000
20
0.000000
30
0.0
40
3.5
1

3

2
TDEV5:0
70
0
0
ATTDEF
8
0
10
0.000000
20
0.000000
30
0.0
40
3.5
1

3

2
PANE_WIDTH:0
70
0
0
ATTDEF
8
0
10
0.000000
20
0.000000
30
0.0
40
3.5
1

3

2
MIN_VETRO:0
70
0
0
ATTDEF
8
0
10
0.000000
20
0.000000
30
0.0
40
3.5
1

3

2
MAX_VETRO:0
70
0
0
ATTDEF
8
0
10
0.000000
20
0.000000
30
0.0
40
3.5
1

3

2
JX:0
70
0
0
ATTDEF
8
0
10
0.000000
20
0.000000
30
0.0
40
3.5
1

3

2
WX:0
70
0
0
ATTDEF
8
0
10
0.000000
20
0.000000
30
0.0
40
3.5
1

3

2
JY:0
70
0
0
ATTDEF
8
0
10
0.000000
20
0.000000
30
0.0
40
3.5
1

3

2
WY:0
70
0
0
ATTDEF
8
0
10
3005.788754
20
1250.434327
30
0.0
40
3.5
1

3

2
VC_START
70
0
0
ATTDEF
8
0
10
3045.288754
20
1198.134327
30
0.0
40
3.5
1

3

2
VC_END
70
0
0
ATTDEF
8
0
10
3053.288754
20
1180.634327
30
0.0
40
3.5
1

3

2
FP_LCS_ORIG
70
0
0
ATTDEF
8
0
10
3043.288754
20
1180.634327
30
0.0
40
3.5
1

3

2
FP_LCS_HOT
70
0
0
ATTDEF
8
0
10
3053.288754
20
1190.634327
30
0.0
40
3.5
1

3

2
FP_LCS_INTERN
70
0
0
ENDSEC
0
EOF
