0
SECTION
2
ENTITIES
0
LINE
8
00_ALUMINIO
10
65.201574
20
22.583988
30
0.0
11
68.401574
21
22.583988
31
0.0
0
ARC
8
00_ALUMINIO
10
68.401574
20
22.883988
30
0.0
40
0.300000
50
270.000000
51
0.000000
0
LINE
8
00_ALUMINIO
10
68.701574
20
22.883988
30
0.0
11
68.701574
21
23.459724
31
0.0
0
ARC
8
00_ALUMINIO
10
68.401574
20
23.459724
30
0.0
40
0.300000
50
0.000000
51
45.000000
0
LINE
8
00_ALUMINIO
10
68.613706
20
23.671856
30
0.0
11
67.789442
21
24.496120
31
0.0
0
ARC
8
00_ALUMINIO
10
67.577310
20
24.283988
30
0.0
40
0.300000
50
45.000000
51
90.000000
0
LINE
8
00_ALUMINIO
10
67.577310
20
24.583988
30
0.0
11
65.201574
21
24.583988
31
0.0
0
LINE
8
00_ALUMINIO
10
65.201574
20
24.583988
30
0.0
11
65.201574
21
133.083988
31
0.0
0
ARC
8
00_ALUMINIO
10
64.201574
20
133.083988
30
0.0
40
1.000000
50
0.000000
51
90.000000
0
LINE
8
00_ALUMINIO
10
64.201574
20
134.083988
30
0.0
11
60.201574
21
134.083988
31
0.0
0
ARC
8
00_ALUMINIO
10
60.201574
20
133.583988
30
0.0
40
0.500000
50
90.000000
51
180.000000
0
LINE
8
00_ALUMINIO
10
59.701574
20
133.583988
30
0.0
11
59.701574
21
132.283988
31
0.0
0
LINE
8
00_ALUMINIO
10
59.701574
20
132.283988
30
0.0
11
61.201574
21
132.283988
31
0.0
0
LINE
8
00_ALUMINIO
10
61.201574
20
132.283988
30
0.0
11
61.201574
21
125.759949
31
0.0
0
ARC
8
00_ALUMINIO
10
61.001574
20
125.759949
30
0.0
40
0.200000
50
275.626271
51
0.000000
0
ARC
8
00_ALUMINIO
10
61.251574
20
123.222234
30
0.0
40
2.350000
50
95.626271
51
123.438028
0
ARC
8
00_ALUMINIO
10
60.066849
20
125.016370
30
0.0
40
0.200000
50
123.438028
51
176.999999
0
LINE
8
00_ALUMINIO
10
59.867123
20
125.026838
30
0.0
11
59.823131
21
124.187417
31
0.0
0
ARC
8
00_ALUMINIO
10
60.022857
20
124.176950
30
0.0
40
0.200000
50
176.999999
51
247.053282
0
ARC
8
00_ALUMINIO
10
60.139820
20
124.453210
30
0.0
40
0.500000
50
247.053282
51
312.360299
0
ARC
8
00_ALUMINIO
10
61.251574
20
123.233988
30
0.0
40
1.150000
50
110.760240
51
132.360299
0
LINE
8
00_ALUMINIO
10
60.843947
20
124.309321
30
0.0
11
60.843947
21
124.520977
31
0.0
0
ARC
8
00_ALUMINIO
10
61.251574
20
123.233988
30
0.0
40
1.350000
50
72.425488
51
107.574512
0
LINE
8
00_ALUMINIO
10
61.659201
20
124.520977
30
0.0
11
61.659201
21
124.309321
31
0.0
0
ARC
8
00_ALUMINIO
10
61.251574
20
123.233988
30
0.0
40
1.150000
50
20.760240
51
69.239760
0
ARC
8
00_ALUMINIO
10
61.251574
20
123.233988
30
0.0
40
1.150000
50
290.760240
51
20.760240
0
LINE
8
00_ALUMINIO
10
61.659201
20
122.158655
30
0.0
11
61.659201
21
121.946999
31
0.0
0
ARC
8
00_ALUMINIO
10
61.251574
20
123.233988
30
0.0
40
1.350000
50
252.425488
51
287.574512
0
LINE
8
00_ALUMINIO
10
60.843947
20
121.946999
30
0.0
11
60.843947
21
122.158655
31
0.0
0
ARC
8
00_ALUMINIO
10
61.251574
20
123.233988
30
0.0
40
1.150000
50
227.639701
51
249.239760
0
ARC
8
00_ALUMINIO
10
60.139820
20
122.014766
30
0.0
40
0.500000
50
47.639701
51
137.044226
0
ARC
8
00_ALUMINIO
10
59.920256
20
122.219196
30
0.0
40
0.200000
50
137.044226
51
177.000000
0
LINE
8
00_ALUMINIO
10
59.720530
20
122.229663
30
0.0
11
55.702944
21
45.569570
31
0.0
0
LINE
8
00_ALUMINIO
10
55.702944
20
45.569570
30
0.0
11
55.701574
21
45.517234
31
0.0
0
LINE
8
00_ALUMINIO
10
55.701574
20
45.517234
30
0.0
11
55.701574
21
25.083988
31
0.0
0
ARC
8
00_ALUMINIO
10
54.701574
20
25.083988
30
0.0
40
1.000000
50
270.000000
51
0.000000
0
LINE
8
00_ALUMINIO
10
54.701574
20
24.083988
30
0.0
11
42.451574
21
24.083988
31
0.0
0
LINE
8
00_ALUMINIO
10
42.451574
20
24.083988
30
0.0
11
41.951574
21
23.583988
31
0.0
0
LINE
8
00_ALUMINIO
10
41.951574
20
23.583988
30
0.0
11
41.451574
21
24.083988
31
0.0
0
LINE
8
00_ALUMINIO
10
41.451574
20
24.083988
30
0.0
11
29.201574
21
24.083988
31
0.0
0
ARC
8
00_ALUMINIO
10
29.201574
20
25.083988
30
0.0
40
1.000000
50
180.000000
51
270.000000
0
LINE
8
00_ALUMINIO
10
28.201574
20
25.083988
30
0.0
11
28.201574
21
55.083988
31
0.0
0
LINE
8
00_ALUMINIO
10
28.201574
20
55.083988
30
0.0
11
24.864021
21
118.768287
31
0.0
0
ARC
8
00_ALUMINIO
10
25.163610
20
118.783988
30
0.0
40
0.300000
50
90.000000
51
183.000000
0
LINE
8
00_ALUMINIO
10
25.163610
20
119.083988
30
0.0
11
26.401574
21
119.083988
31
0.0
0
ARC
8
00_ALUMINIO
10
26.401574
20
119.383988
30
0.0
40
0.300000
50
270.000000
51
0.000000
0
LINE
8
00_ALUMINIO
10
26.701574
20
119.383988
30
0.0
11
26.701574
21
120.783988
31
0.0
0
ARC
8
00_ALUMINIO
10
26.401574
20
120.783988
30
0.0
40
0.300000
50
0.000000
51
90.000000
0
LINE
8
00_ALUMINIO
10
26.401574
20
121.083988
30
0.0
11
26.001574
21
121.083988
31
0.0
0
ARC
8
00_ALUMINIO
10
26.001574
20
121.383988
30
0.0
40
0.300000
50
180.000000
51
270.000000
0
LINE
8
00_ALUMINIO
10
25.701574
20
121.383988
30
0.0
11
25.701574
21
123.083988
31
0.0
0
LINE
8
00_ALUMINIO
10
25.701574
20
123.083988
30
0.0
11
25.201574
21
124.583988
31
0.0
0
LINE
8
00_ALUMINIO
10
25.201574
20
124.583988
30
0.0
11
24.201574
21
124.583988
31
0.0
0
LINE
8
00_ALUMINIO
10
24.201574
20
124.583988
30
0.0
11
24.201574
21
123.641615
31
0.0
0
LINE
8
00_ALUMINIO
10
24.201574
20
123.641615
30
0.0
11
24.438563
21
123.641615
31
0.0
0
ARC
8
00_ALUMINIO
10
23.151574
20
123.233988
30
0.0
40
1.350000
50
342.425488
51
17.574512
0
LINE
8
00_ALUMINIO
10
24.438563
20
122.826361
30
0.0
11
24.226907
21
122.826361
31
0.0
0
ARC
8
00_ALUMINIO
10
23.151574
20
123.233988
30
0.0
40
1.150000
50
290.760240
51
339.239760
0
LINE
8
00_ALUMINIO
10
23.559201
20
122.158655
30
0.0
11
23.559201
21
121.946999
31
0.0
0
ARC
8
00_ALUMINIO
10
23.151574
20
123.233988
30
0.0
40
1.350000
50
252.425488
51
287.574512
0
LINE
8
00_ALUMINIO
10
22.743947
20
121.946999
30
0.0
11
22.743947
21
122.158655
31
0.0
0
ARC
8
00_ALUMINIO
10
23.151574
20
123.233988
30
0.0
40
1.150000
50
200.760240
51
249.239760
0
LINE
8
00_ALUMINIO
10
22.076241
20
122.826361
30
0.0
11
21.926907
21
122.826361
31
0.0
0
LINE
8
00_ALUMINIO
10
21.926907
20
122.826361
30
0.0
11
21.926907
21
123.641615
31
0.0
0
LINE
8
00_ALUMINIO
10
21.926907
20
123.641615
30
0.0
11
22.076241
21
123.641615
31
0.0
0
ARC
8
00_ALUMINIO
10
23.151574
20
123.233988
30
0.0
40
1.150000
50
137.639701
51
159.239760
0
ARC
8
00_ALUMINIO
10
21.932352
20
124.345742
30
0.0
40
0.500000
50
317.639701
51
30.000000
0
LINE
8
00_ALUMINIO
10
22.365365
20
124.595742
30
0.0
11
22.310599
21
124.690600
31
0.0
0
ARC
8
00_ALUMINIO
10
21.444573
20
124.190600
30
0.0
40
1.000000
50
30.000000
51
50.357116
0
ARC
8
00_ALUMINIO
10
22.401574
20
125.345654
30
0.0
40
0.500000
50
180.000000
51
230.357116
0
LINE
8
00_ALUMINIO
10
21.901574
20
125.345654
30
0.0
11
21.901574
21
130.083988
31
0.0
0
LINE
8
00_ALUMINIO
10
21.901574
20
130.083988
30
0.0
11
24.201574
21
130.083988
31
0.0
0
LINE
8
00_ALUMINIO
10
24.201574
20
130.083988
30
0.0
11
24.201574
21
128.583988
31
0.0
0
LINE
8
00_ALUMINIO
10
24.201574
20
128.583988
30
0.0
11
25.201574
21
128.583988
31
0.0
0
LINE
8
00_ALUMINIO
10
25.201574
20
128.583988
30
0.0
11
25.701574
21
130.083988
31
0.0
0
LINE
8
00_ALUMINIO
10
25.701574
20
130.083988
30
0.0
11
25.701574
21
131.283988
31
0.0
0
ARC
8
00_ALUMINIO
10
25.401574
20
131.283988
30
0.0
40
0.300000
50
0.000000
51
90.000000
0
LINE
8
00_ALUMINIO
10
25.401574
20
131.583988
30
0.0
11
22.901574
21
131.583988
31
0.0
0
ARC
8
00_ALUMINIO
10
22.901574
20
131.883988
30
0.0
40
0.300000
50
180.000000
51
270.000000
0
LINE
8
00_ALUMINIO
10
22.601574
20
131.883988
30
0.0
11
22.601574
21
132.683988
31
0.0
0
ARC
8
00_ALUMINIO
10
22.901574
20
132.683988
30
0.0
40
0.300000
50
90.000000
51
180.000000
0
LINE
8
00_ALUMINIO
10
22.901574
20
132.983988
30
0.0
11
23.401574
21
132.983988
31
0.0
0
ARC
8
00_ALUMINIO
10
23.401574
20
133.283988
30
0.0
40
0.300000
50
270.000000
51
0.000000
0
LINE
8
00_ALUMINIO
10
23.701574
20
133.283988
30
0.0
11
23.701574
21
133.583988
31
0.0
0
ARC
8
00_ALUMINIO
10
23.201574
20
133.583988
30
0.0
40
0.500000
50
0.000000
51
90.000000
0
LINE
8
00_ALUMINIO
10
23.201574
20
134.083988
30
0.0
11
20.201574
21
134.083988
31
0.0
0
ARC
8
00_ALUMINIO
10
20.201574
20
133.083988
30
0.0
40
1.000000
50
90.000000
51
180.000000
0
LINE
8
00_ALUMINIO
10
19.201574
20
133.083988
30
0.0
11
19.201574
21
10.583988
31
0.0
0
ARC
8
00_ALUMINIO
10
20.201574
20
10.583988
30
0.0
40
1.000000
50
180.000000
51
270.000000
0
LINE
8
00_ALUMINIO
10
20.201574
20
9.583988
30
0.0
11
31.451574
21
9.583988
31
0.0
0
LINE
8
00_ALUMINIO
10
31.451574
20
9.583988
30
0.0
11
31.451574
21
11.583988
31
0.0
0
LINE
8
00_ALUMINIO
10
31.451574
20
11.583988
30
0.0
11
28.951574
21
11.583988
31
0.0
0
LINE
8
00_ALUMINIO
10
28.951574
20
11.583988
30
0.0
11
28.951574
21
14.083988
31
0.0
0
LINE
8
00_ALUMINIO
10
28.951574
20
14.083988
30
0.0
11
54.951574
21
14.083988
31
0.0
0
LINE
8
00_ALUMINIO
10
54.951574
20
14.083988
30
0.0
11
54.951574
21
11.583988
31
0.0
0
LINE
8
00_ALUMINIO
10
54.951574
20
11.583988
30
0.0
11
52.451574
21
11.583988
31
0.0
0
LINE
8
00_ALUMINIO
10
52.451574
20
11.583988
30
0.0
11
52.451574
21
9.583988
31
0.0
0
LINE
8
00_ALUMINIO
10
52.451574
20
9.583988
30
0.0
11
110.201574
21
9.583988
31
0.0
0
LINE
8
00_ALUMINIO
10
110.201574
20
24.283988
30
0.0
11
110.201574
21
9.583988
31
0.0
0
ARC
8
00_ALUMINIO
10
109.901574
20
24.283988
30
0.0
40
0.300000
50
0.000000
51
90.000000
0
LINE
8
00_ALUMINIO
10
107.825838
20
24.583988
30
0.0
11
109.901574
21
24.583988
31
0.0
0
ARC
8
00_ALUMINIO
10
107.825838
20
24.283988
30
0.0
40
0.300000
50
90.000000
51
135.000000
0
LINE
8
00_ALUMINIO
10
106.789442
20
23.671856
30
0.0
11
107.613706
21
24.496120
31
0.0
0
ARC
8
00_ALUMINIO
10
107.001574
20
23.459724
30
0.0
40
0.300000
50
135.000000
51
180.000000
0
LINE
8
00_ALUMINIO
10
106.701574
20
22.883988
30
0.0
11
106.701574
21
23.459724
31
0.0
0
ARC
8
00_ALUMINIO
10
107.001574
20
22.883988
30
0.0
40
0.300000
50
180.000000
51
270.000000
0
LINE
8
00_ALUMINIO
10
107.901574
20
22.583988
30
0.0
11
107.001574
21
22.583988
31
0.0
0
ARC
8
00_ALUMINIO
10
107.901574
20
22.283988
30
0.0
40
0.300000
50
0.000000
51
90.000000
0
LINE
8
00_ALUMINIO
10
108.201574
20
19.883988
30
0.0
11
108.201574
21
22.283988
31
0.0
0
ARC
8
00_ALUMINIO
10
107.901574
20
19.883988
30
0.0
40
0.300000
50
270.000000
51
0.000000
0
LINE
8
00_ALUMINIO
10
89.701574
20
19.583988
30
0.0
11
107.901574
21
19.583988
31
0.0
0
LINE
8
00_ALUMINIO
10
89.201574
20
19.083988
30
0.0
11
89.701574
21
19.583988
31
0.0
0
LINE
8
00_ALUMINIO
10
89.201574
20
19.083988
30
0.0
11
88.701574
21
19.583988
31
0.0
0
LINE
8
00_ALUMINIO
10
65.201574
20
19.583988
30
0.0
11
88.701574
21
19.583988
31
0.0
0
LINE
8
00_ALUMINIO
10
65.201574
20
19.583988
30
0.0
11
65.201574
21
22.583988
31
0.0
0
ATTDEF
8
0
10
0.000000
20
0.000000
30
0.0
40
3.5
1

3

2
PANE_WIDTH:0
70
0
0
ATTDEF
8
0
10
0.000000
20
0.000000
30
0.0
40
3.5
1

3

2
MIN_VETRO:0
70
0
0
ATTDEF
8
0
10
0.000000
20
0.000000
30
0.0
40
3.5
1

3

2
MAX_VETRO:0
70
0
0
ATTDEF
8
0
10
0.000000
20
0.000000
30
0.0
40
3.5
1

3

2
JX:0
70
0
0
ATTDEF
8
0
10
0.000000
20
0.000000
30
0.0
40
3.5
1

3

2
WX:0
70
0
0
ATTDEF
8
0
10
0.000000
20
0.000000
30
0.0
40
3.5
1

3

2
JY:0
70
0
0
ATTDEF
8
0
10
0.000000
20
0.000000
30
0.0
40
3.5
1

3

2
WY:0
70
0
0
ATTDEF
8
0
10
0.000000
20
0.000000
30
0.0
40
3.5
1

3

2
DESC:Soporte infer.barandilla c/solape
70
0
0
ATTDEF
8
0
10
0.000000
20
0.000000
30
0.0
40
3.5
1

3

2
DENS:7.2144
70
0
0
ATTDEF
8
0
10
0.000000
20
0.000000
30
0.0
40
3.5
1

3

2
TDEV:70.76
70
0
0
ATTDEF
8
0
10
0.000000
20
0.000000
30
0.0
40
3.5
1

3

2
TDEV2:0
70
0
0
ATTDEF
8
0
10
0.000000
20
0.000000
30
0.0
40
3.5
1

3

2
TDEV3:0
70
0
0
ATTDEF
8
0
10
0.000000
20
0.000000
30
0.0
40
3.5
1

3

2
TDEV4:0
70
0
0
ATTDEF
8
0
10
0.000000
20
0.000000
30
0.0
40
3.5
1

3

2
TDEV5:0
70
0
0
ATTDEF
8
0
10
0.000000
20
0.000000
30
0.0
40
3.5
1

3

2
PANE_WIDTH:0
70
0
0
ATTDEF
8
0
10
0.000000
20
0.000000
30
0.0
40
3.5
1

3

2
MIN_VETRO:0
70
0
0
ATTDEF
8
0
10
0.000000
20
0.000000
30
0.0
40
3.5
1

3

2
MAX_VETRO:0
70
0
0
ATTDEF
8
0
10
0.000000
20
0.000000
30
0.0
40
3.5
1

3

2
JX:0
70
0
0
ATTDEF
8
0
10
0.000000
20
0.000000
30
0.0
40
3.5
1

3

2
WX:0
70
0
0
ATTDEF
8
0
10
0.000000
20
0.000000
30
0.0
40
3.5
1

3

2
JY:0
70
0
0
ATTDEF
8
0
10
0.000000
20
0.000000
30
0.0
40
3.5
1

3

2
WY:0
70
0
0
ENDSEC
0
EOF
