0
SECTION
2
ENTITIES
0
LINE
8
00_ALUMINIO
10
966.957877
20
116.019000
30
0.0
11
966.957877
21
121.089129
31
0.0
0
ARC
8
00_ALUMINIO
10
966.457877
20
121.089129
30
0.0
40
0.500000
50
0.000000
51
90.000000
0
LINE
8
00_ALUMINIO
10
966.457877
20
121.589129
30
0.0
11
949.457877
21
121.589129
31
0.0
0
LINE
8
00_ALUMINIO
10
949.457877
20
121.589129
30
0.0
11
949.457877
21
100.488168
31
0.0
0
LINE
8
00_ALUMINIO
10
949.457877
20
100.488168
30
0.0
11
951.457877
21
99.988168
31
0.0
0
LINE
8
00_ALUMINIO
10
951.457877
20
99.988168
30
0.0
11
951.457877
21
98.688168
31
0.0
0
LINE
8
00_ALUMINIO
10
951.457877
20
98.688168
30
0.0
11
949.457877
21
98.688168
31
0.0
0
LINE
8
00_ALUMINIO
10
949.457877
20
98.688168
30
0.0
11
949.457877
21
84.488168
31
0.0
0
LINE
8
00_ALUMINIO
10
949.457877
20
84.488168
30
0.0
11
954.857877
21
84.488168
31
0.0
0
LINE
8
00_ALUMINIO
10
954.857877
20
84.488168
30
0.0
11
954.857877
21
108.496978
31
0.0
0
ARC
8
00_ALUMINIO
10
955.357877
20
108.496978
30
0.0
40
0.500000
50
119.846880
51
180.000000
0
LINE
8
00_ALUMINIO
10
955.109036
20
108.930657
30
0.0
11
966.706719
21
115.585321
31
0.0
0
ARC
8
00_ALUMINIO
10
966.457877
20
116.019000
30
0.0
40
0.500000
50
299.846880
51
0.000000
0
ARC
8
00_ALUMINIO
10
969.507877
20
123.844127
30
0.0
40
0.750000
50
180.000000
51
223.922027
0
LINE
8
00_ALUMINIO
10
968.757877
20
123.844127
30
0.0
11
968.757877
21
128.289129
31
0.0
0
LINE
8
00_ALUMINIO
10
968.757877
20
128.289129
30
0.0
11
966.257877
21
128.289129
31
0.0
0
LINE
8
00_ALUMINIO
10
966.257877
20
128.289129
30
0.0
11
965.257877
21
127.289129
31
0.0
0
LINE
8
00_ALUMINIO
10
965.257877
20
127.289129
30
0.0
11
965.257877
21
126.289129
31
0.0
0
LINE
8
00_ALUMINIO
10
965.257877
20
126.289129
30
0.0
11
967.257877
21
126.289129
31
0.0
0
LINE
8
00_ALUMINIO
10
967.257877
20
126.289129
30
0.0
11
967.257877
21
123.289129
31
0.0
0
LINE
8
00_ALUMINIO
10
967.257877
20
123.289129
30
0.0
11
949.257877
21
123.289129
31
0.0
0
LINE
8
00_ALUMINIO
10
949.257877
20
123.289129
30
0.0
11
949.257877
21
126.289129
31
0.0
0
LINE
8
00_ALUMINIO
10
949.257877
20
126.289129
30
0.0
11
951.257877
21
126.289129
31
0.0
0
LINE
8
00_ALUMINIO
10
951.257877
20
126.289129
30
0.0
11
951.257877
21
127.289129
31
0.0
0
LINE
8
00_ALUMINIO
10
951.257877
20
127.289129
30
0.0
11
950.257877
21
128.289129
31
0.0
0
LINE
8
00_ALUMINIO
10
950.257877
20
128.289129
30
0.0
11
947.757877
21
128.289129
31
0.0
0
LINE
8
00_ALUMINIO
10
947.757877
20
128.289129
30
0.0
11
947.757877
21
81.288168
31
0.0
0
LINE
8
00_ALUMINIO
10
947.757877
20
81.288168
30
0.0
11
948.257877
21
81.288168
31
0.0
0
ARC
8
00_ALUMINIO
10
948.257877
20
82.288168
30
0.0
40
1.000000
50
270.000000
51
0.000000
0
LINE
8
00_ALUMINIO
10
949.257877
20
82.288168
30
0.0
11
949.257877
21
82.788168
31
0.0
0
LINE
8
00_ALUMINIO
10
949.257877
20
82.788168
30
0.0
11
953.756423
21
82.788168
31
0.0
0
ARC
8
00_ALUMINIO
10
953.756423
20
81.788168
30
0.0
40
1.000000
50
0.000000
51
90.000000
0
LINE
8
00_ALUMINIO
10
954.756423
20
81.788168
30
0.0
11
954.756423
21
73.245492
31
0.0
0
ARC
8
00_ALUMINIO
10
955.256423
20
73.245492
30
0.0
40
0.500000
50
180.000000
51
270.000000
0
LINE
8
00_ALUMINIO
10
955.256423
20
72.745492
30
0.0
11
956.056423
21
72.745492
31
0.0
0
ARC
8
00_ALUMINIO
10
956.056423
20
73.245492
30
0.0
40
0.500000
50
270.000000
51
0.000000
0
LINE
8
00_ALUMINIO
10
956.556423
20
73.245492
30
0.0
11
956.556423
21
75.683219
31
0.0
0
ARC
8
00_ALUMINIO
10
957.306423
20
75.683219
30
0.0
40
0.750000
50
132.865878
51
180.000000
0
ARC
8
00_ALUMINIO
10
958.156779
20
74.767034
30
0.0
40
2.000000
50
46.465725
51
132.865878
0
ARC
8
00_ALUMINIO
10
959.878750
20
76.579440
30
0.0
40
0.500000
50
226.465725
51
270.000000
0
LINE
8
00_ALUMINIO
10
959.878750
20
76.079440
30
0.0
11
960.567546
21
76.079440
31
0.0
0
ARC
8
00_ALUMINIO
10
960.567546
20
76.379440
30
0.0
40
0.300000
50
270.000000
51
30.497622
0
LINE
8
00_ALUMINIO
10
960.826041
20
76.531691
30
0.0
11
959.402338
21
78.948890
31
0.0
0
LINE
8
00_ALUMINIO
10
959.402338
20
78.948890
30
0.0
11
959.359724
21
79.004954
31
0.0
0
LINE
8
00_ALUMINIO
10
959.359724
20
79.004954
30
0.0
11
958.899556
21
79.481835
31
0.0
0
ARC
8
00_ALUMINIO
10
958.794767
20
79.380718
30
0.0
40
0.145621
50
43.978161
51
183.658900
0
LINE
8
00_ALUMINIO
10
958.649443
20
79.371425
30
0.0
11
958.659372
21
79.216161
31
0.0
0
ARC
8
00_ALUMINIO
10
958.459780
20
79.203397
30
0.0
40
0.200000
50
310.482877
51
3.658900
0
LINE
8
00_ALUMINIO
10
958.589624
20
79.051277
30
0.0
11
956.985422
21
77.681988
31
0.0
0
ARC
8
00_ALUMINIO
10
956.790655
20
77.910168
30
0.0
40
0.300000
50
288.658900
51
310.482877
0
LINE
8
00_ALUMINIO
10
956.886635
20
77.625936
30
0.0
11
956.602403
21
77.529956
31
0.0
0
ARC
8
00_ALUMINIO
10
956.506423
20
77.814188
30
0.0
40
0.300000
50
90.000000
51
288.658900
0
LINE
8
00_ALUMINIO
10
956.506423
20
78.114188
30
0.0
11
956.506423
21
82.614188
31
0.0
0
ARC
8
00_ALUMINIO
10
956.706423
20
82.614188
30
0.0
40
0.200000
50
90.000000
51
180.000000
0
LINE
8
00_ALUMINIO
10
956.706423
20
82.814188
30
0.0
11
956.774312
21
82.814188
31
0.0
0
ARC
8
00_ALUMINIO
10
956.774312
20
82.514188
30
0.0
40
0.300000
50
58.619868
51
90.000000
0
LINE
8
00_ALUMINIO
10
956.930526
20
82.770308
30
0.0
11
958.606519
21
81.748075
31
0.0
0
ARC
8
00_ALUMINIO
10
958.806423
20
81.741885
30
0.0
40
0.200000
50
178.226372
51
0.000000
0
LINE
8
00_ALUMINIO
10
959.006423
20
81.741885
30
0.0
11
959.006423
21
83.148875
31
0.0
0
ARC
8
00_ALUMINIO
10
958.806423
20
83.148875
30
0.0
40
0.200000
50
0.000000
51
58.619868
0
LINE
8
00_ALUMINIO
10
958.910566
20
83.319621
30
0.0
11
956.893378
21
84.549958
31
0.0
0
ARC
8
00_ALUMINIO
10
957.257877
20
85.147570
30
0.0
40
0.700000
50
180.000000
51
238.619868
0
LINE
8
00_ALUMINIO
10
956.557877
20
85.147570
30
0.0
11
956.557877
21
107.396624
31
0.0
0
ARC
8
00_ALUMINIO
10
957.257877
20
107.396624
30
0.0
40
0.700000
50
119.846880
51
180.000000
0
LINE
8
00_ALUMINIO
10
956.909499
20
108.003775
30
0.0
11
971.157414
21
116.179122
31
0.0
0
ARC
8
00_ALUMINIO
10
971.057877
20
116.352594
30
0.0
40
0.200000
50
299.846880
51
0.000000
0
LINE
8
00_ALUMINIO
10
971.257877
20
116.352594
30
0.0
11
971.257877
21
117.736374
31
0.0
0
ARC
8
00_ALUMINIO
10
971.057877
20
117.736374
30
0.0
40
0.200000
50
0.000000
51
181.773628
0
LINE
8
00_ALUMINIO
10
970.857973
20
117.730184
30
0.0
11
969.181980
21
116.707951
31
0.0
0
ARC
8
00_ALUMINIO
10
969.025766
20
116.964071
30
0.0
40
0.300000
50
270.000000
51
301.380132
0
LINE
8
00_ALUMINIO
10
969.025766
20
116.664071
30
0.0
11
968.957877
21
116.664071
31
0.0
0
ARC
8
00_ALUMINIO
10
968.957877
20
116.864071
30
0.0
40
0.200000
50
180.000000
51
270.000000
0
LINE
8
00_ALUMINIO
10
968.757877
20
116.864071
30
0.0
11
968.757877
21
121.364071
31
0.0
0
ARC
8
00_ALUMINIO
10
968.757877
20
121.664071
30
0.0
40
0.300000
50
71.341100
51
270.000000
0
LINE
8
00_ALUMINIO
10
968.853857
20
121.948303
30
0.0
11
969.138089
21
121.852323
31
0.0
0
ARC
8
00_ALUMINIO
10
969.042109
20
121.568091
30
0.0
40
0.300000
50
49.517123
51
71.341100
0
LINE
8
00_ALUMINIO
10
969.236876
20
121.796271
30
0.0
11
970.841078
21
120.426981
31
0.0
0
ARC
8
00_ALUMINIO
10
970.711234
20
120.274861
30
0.0
40
0.200000
50
356.341100
51
49.517123
0
LINE
8
00_ALUMINIO
10
970.910826
20
120.262098
30
0.0
11
970.900897
21
120.106833
31
0.0
0
ARC
8
00_ALUMINIO
10
971.046221
20
120.097540
30
0.0
40
0.145621
50
176.341100
51
316.021840
0
LINE
8
00_ALUMINIO
10
971.151011
20
119.996424
30
0.0
11
971.611178
21
120.473305
31
0.0
0
LINE
8
00_ALUMINIO
10
971.611178
20
120.473305
30
0.0
11
971.653792
21
120.529369
31
0.0
0
LINE
8
00_ALUMINIO
10
971.653792
20
120.529369
30
0.0
11
973.077496
21
122.946568
31
0.0
0
ARC
8
00_ALUMINIO
10
972.819000
20
123.098819
30
0.0
40
0.300000
50
329.502378
51
90.000000
0
LINE
8
00_ALUMINIO
10
972.819000
20
123.398819
30
0.0
11
972.130204
21
123.398819
31
0.0
0
ARC
8
00_ALUMINIO
10
972.130204
20
122.898819
30
0.0
40
0.500000
50
90.000000
51
133.534275
0
ARC
8
00_ALUMINIO
10
970.408233
20
124.711225
30
0.0
40
2.000000
50
223.922027
51
313.534275
0
LINE
8
00_POLIAMIDAS
10
968.757877
20
120.444789
30
0.0
11
969.484809
21
121.171720
31
0.0
0
LINE
8
00_POLIAMIDAS
10
968.857877
20
118.299725
30
0.0
11
969.142172
21
118.584020
31
0.0
0
LINE
8
00_POLIAMIDAS
10
973.475876
20
122.917724
30
0.0
11
973.715214
21
123.157062
31
0.0
0
LINE
8
00_POLIAMIDAS
10
970.004246
20
119.446093
30
0.0
11
970.907289
21
120.349136
31
0.0
0
LINE
8
00_POLIAMIDAS
10
970.349652
20
117.546435
30
0.0
11
976.012236
21
123.209020
31
0.0
0
LINE
8
00_POLIAMIDAS
10
976.257300
20
121.209020
30
0.0
11
978.257300
21
123.209020
31
0.0
0
LINE
8
00_POLIAMIDAS
10
978.502364
20
121.209020
30
0.0
11
980.502364
21
123.209020
31
0.0
0
LINE
8
00_POLIAMIDAS
10
980.747428
20
121.209020
30
0.0
11
982.747428
21
123.209020
31
0.0
0
LINE
8
00_POLIAMIDAS
10
982.992492
20
121.209020
30
0.0
11
984.992492
21
123.209020
31
0.0
0
LINE
8
00_POLIAMIDAS
10
984.946310
20
120.917774
30
0.0
11
986.399960
21
122.371424
31
0.0
0
LINE
8
00_POLIAMIDAS
10
985.850656
20
119.577056
30
0.0
11
987.291865
21
121.018265
31
0.0
0
LINE
8
00_POLIAMIDAS
10
986.768124
20
118.249460
30
0.0
11
989.223404
21
120.704739
31
0.0
0
LINE
8
00_POLIAMIDAS
10
988.623777
20
117.860049
30
0.0
11
989.521463
21
118.757734
31
0.0
0
LINE
8
00_POLIAMIDAS
10
990.397748
20
119.634020
30
0.0
11
990.657877
21
119.894149
31
0.0
0
LINE
8
00_POLIAMIDAS
10
990.046257
20
117.037465
30
0.0
11
990.757877
21
117.749085
31
0.0
0
LINE
8
00_POLIAMIDAS
10
956.606423
20
81.352567
30
0.0
11
957.513623
21
82.259766
31
0.0
0
LINE
8
00_POLIAMIDAS
10
956.506423
20
79.007503
30
0.0
11
957.258060
21
79.759139
31
0.0
0
LINE
8
00_POLIAMIDAS
10
957.856421
20
80.357500
30
0.0
11
958.970766
21
81.471845
31
0.0
0
LINE
8
00_POLIAMIDAS
10
958.998375
20
79.254390
30
0.0
11
960.709497
21
80.965513
31
0.0
0
LINE
8
00_POLIAMIDAS
10
960.157766
20
78.168717
30
0.0
11
961.598338
21
79.609289
31
0.0
0
LINE
8
00_POLIAMIDAS
10
961.049671
20
76.815558
30
0.0
11
962.591399
21
78.357286
31
0.0
0
LINE
8
00_POLIAMIDAS
10
962.738314
20
76.259137
30
0.0
11
964.738314
21
78.259137
31
0.0
0
LINE
8
00_POLIAMIDAS
10
964.983378
20
76.259137
30
0.0
11
966.983378
21
78.259137
31
0.0
0
LINE
8
00_POLIAMIDAS
10
967.228442
20
76.259137
30
0.0
11
969.228442
21
78.259137
31
0.0
0
LINE
8
00_POLIAMIDAS
10
969.473506
20
76.259137
30
0.0
11
971.473506
21
78.259137
31
0.0
0
LINE
8
00_POLIAMIDAS
10
971.718570
20
76.259137
30
0.0
11
977.918570
21
82.459137
31
0.0
0
LINE
8
00_POLIAMIDAS
10
976.652591
20
78.948094
30
0.0
11
977.514548
21
79.810051
31
0.0
0
LINE
8
00_POLIAMIDAS
10
978.227446
20
78.277885
30
0.0
11
978.487676
21
78.538115
31
0.0
0
LINE
8
00_POLIAMIDAS
10
958.084426
20
78.788589
30
0.0
11
957.090472
21
79.782544
31
0.0
0
LINE
8
00_POLIAMIDAS
10
962.858943
20
76.259137
30
0.0
11
956.710315
21
82.407765
31
0.0
0
LINE
8
00_POLIAMIDAS
10
965.104007
20
76.259137
30
0.0
11
963.104007
21
78.259137
31
0.0
0
LINE
8
00_POLIAMIDAS
10
961.302586
20
80.060558
30
0.0
11
959.905813
21
81.457331
31
0.0
0
LINE
8
00_POLIAMIDAS
10
967.349071
20
76.259137
30
0.0
11
965.349071
21
78.259137
31
0.0
0
LINE
8
00_POLIAMIDAS
10
969.594135
20
76.259137
30
0.0
11
967.594135
21
78.259137
31
0.0
0
LINE
8
00_POLIAMIDAS
10
971.839199
20
76.259137
30
0.0
11
969.839199
21
78.259137
31
0.0
0
LINE
8
00_POLIAMIDAS
10
973.790229
20
76.553171
30
0.0
11
972.080138
21
78.263262
31
0.0
0
LINE
8
00_POLIAMIDAS
10
974.682134
20
77.906330
30
0.0
11
973.242156
21
79.346308
31
0.0
0
LINE
8
00_POLIAMIDAS
10
975.641821
20
79.191707
30
0.0
11
974.130997
21
80.702531
31
0.0
0
LINE
8
00_POLIAMIDAS
10
978.498529
20
78.580062
30
0.0
11
975.619455
21
81.459137
31
0.0
0
LINE
8
00_POLIAMIDAS
10
978.363421
20
80.960235
30
0.0
11
977.223395
21
82.100261
31
0.0
0
LINE
8
00_POLIAMIDAS
10
969.255405
20
117.009020
30
0.0
11
968.757877
21
117.506547
31
0.0
0
LINE
8
00_POLIAMIDAS
10
970.738305
20
117.771184
30
0.0
11
969.875024
21
118.634464
31
0.0
0
LINE
8
00_POLIAMIDAS
10
972.606260
20
118.148293
30
0.0
11
969.717242
21
121.037310
31
0.0
0
LINE
8
00_POLIAMIDAS
10
973.569076
20
119.430541
30
0.0
11
972.127536
21
120.872081
31
0.0
0
LINE
8
00_POLIAMIDAS
10
974.458365
20
120.786315
30
0.0
11
973.019441
21
122.225240
31
0.0
0
LINE
8
00_POLIAMIDAS
10
976.280725
20
121.209020
30
0.0
11
974.280725
21
123.209020
31
0.0
0
LINE
8
00_POLIAMIDAS
10
978.525789
20
121.209020
30
0.0
11
976.525789
21
123.209020
31
0.0
0
LINE
8
00_POLIAMIDAS
10
980.770853
20
121.209020
30
0.0
11
978.770853
21
123.209020
31
0.0
0
LINE
8
00_POLIAMIDAS
10
983.015917
20
121.209020
30
0.0
11
981.015917
21
123.209020
31
0.0
0
LINE
8
00_POLIAMIDAS
10
988.590995
20
117.879006
30
0.0
11
983.260981
21
123.209020
31
0.0
0
LINE
8
00_POLIAMIDAS
10
990.757877
20
117.957187
30
0.0
11
990.706045
21
118.009020
31
0.0
0
LINE
8
00_POLIAMIDAS
10
986.508863
20
122.206202
30
0.0
11
985.506045
21
123.209020
31
0.0
0
LINE
8
00_POLIAMIDAS
10
990.657877
20
118.057187
30
0.0
11
990.180636
21
118.534429
31
0.0
0
LINE
8
00_POLIAMIDAS
10
989.433287
20
119.281778
30
0.0
11
988.451398
21
120.263667
31
0.0
0
LINE
8
00_POLIAMIDAS
10
990.751109
20
120.209020
30
0.0
11
989.877273
21
121.082855
31
0.0
0
ARC
8
00_POLIAMIDAS
10
985.578599
20
122.709020
30
0.0
40
0.500000
50
33.390000
51
90.000000
0
LINE
8
00_POLIAMIDAS
10
985.578599
20
123.209020
30
0.0
11
980.757877
21
123.209020
31
0.0
0
LINE
8
00_POLIAMIDAS
10
980.757877
20
123.209020
30
0.0
11
973.937156
21
123.209020
31
0.0
0
ARC
8
00_POLIAMIDAS
10
973.937156
20
122.709020
30
0.0
40
0.500000
50
90.000000
51
146.610000
0
LINE
8
00_POLIAMIDAS
10
973.519684
20
122.984187
30
0.0
11
971.889181
21
120.510459
31
0.0
0
ARC
8
00_POLIAMIDAS
10
971.329463
20
120.879385
30
0.0
40
0.670365
50
239.960294
51
326.610000
0
LINE
8
00_POLIAMIDAS
10
970.993878
20
120.299064
30
0.0
11
969.462728
21
121.184489
31
0.0
0
LINE
8
00_POLIAMIDAS
10
969.462728
20
121.184489
30
0.0
11
969.366757
21
121.209020
31
0.0
0
LINE
8
00_POLIAMIDAS
10
969.366757
20
121.209020
30
0.0
11
969.157877
21
121.209020
31
0.0
0
ARC
8
00_POLIAMIDAS
10
969.157877
20
120.809020
30
0.0
40
0.400000
50
90.000000
51
180.000000
0
LINE
8
00_POLIAMIDAS
10
968.757877
20
120.809020
30
0.0
11
968.757877
21
120.209020
31
0.0
0
LINE
8
00_POLIAMIDAS
10
968.757877
20
120.209020
30
0.0
11
968.857877
21
120.209020
31
0.0
0
LINE
8
00_POLIAMIDAS
10
968.857877
20
120.209020
30
0.0
11
968.857877
21
119.834020
31
0.0
0
ARC
8
00_POLIAMIDAS
10
969.057877
20
119.834020
30
0.0
40
0.200000
50
180.000000
51
270.000000
0
LINE
8
00_POLIAMIDAS
10
969.057877
20
119.634020
30
0.0
11
969.217404
21
119.634020
31
0.0
0
ARC
8
00_POLIAMIDAS
10
969.507877
20
119.109020
30
0.0
40
0.600000
50
0.000000
51
118.955024
0
ARC
8
00_POLIAMIDAS
10
969.507877
20
119.109020
30
0.0
40
0.600000
50
241.044976
51
0.000000
0
LINE
8
00_POLIAMIDAS
10
969.217404
20
118.584020
30
0.0
11
969.057877
21
118.584020
31
0.0
0
ARC
8
00_POLIAMIDAS
10
969.057877
20
118.384020
30
0.0
40
0.200000
50
90.000000
51
180.000000
0
LINE
8
00_POLIAMIDAS
10
968.857877
20
118.384020
30
0.0
11
968.857877
21
118.009020
31
0.0
0
LINE
8
00_POLIAMIDAS
10
968.857877
20
118.009020
30
0.0
11
968.757877
21
118.009020
31
0.0
0
LINE
8
00_POLIAMIDAS
10
968.757877
20
118.009020
30
0.0
11
968.757877
21
117.409020
31
0.0
0
ARC
8
00_POLIAMIDAS
10
969.157877
20
117.409020
30
0.0
40
0.400000
50
180.000000
51
270.000000
0
LINE
8
00_POLIAMIDAS
10
969.157877
20
117.009020
30
0.0
11
969.366757
21
117.009020
31
0.0
0
LINE
8
00_POLIAMIDAS
10
969.366757
20
117.009020
30
0.0
11
969.462728
21
117.033550
31
0.0
0
LINE
8
00_POLIAMIDAS
10
969.462728
20
117.033550
30
0.0
11
970.963767
21
117.901562
31
0.0
0
ARC
8
00_POLIAMIDAS
10
971.364247
20
117.209020
30
0.0
40
0.800000
50
90.000000
51
120.039706
0
LINE
8
00_POLIAMIDAS
10
971.364247
20
118.009020
30
0.0
11
972.097193
21
118.009020
31
0.0
0
ARC
8
00_POLIAMIDAS
10
972.097193
20
119.009020
30
0.0
40
1.000000
50
270.000000
51
326.760000
0
LINE
8
00_POLIAMIDAS
10
972.933575
20
118.460872
30
0.0
11
974.438519
21
120.757167
31
0.0
0
ARC
8
00_POLIAMIDAS
10
975.274900
20
120.209020
30
0.0
40
1.000000
50
90.000000
51
146.760000
0
LINE
8
00_POLIAMIDAS
10
975.274900
20
121.209020
30
0.0
11
980.757877
21
121.209020
31
0.0
0
LINE
8
00_POLIAMIDAS
10
980.757877
20
121.209020
30
0.0
11
984.090294
21
121.209020
31
0.0
0
LINE
8
00_POLIAMIDAS
10
984.090294
20
121.209020
30
0.0
11
984.240854
21
121.209020
31
0.0
0
ARC
8
00_POLIAMIDAS
10
984.240854
20
120.209020
30
0.0
40
1.000000
50
33.240000
51
90.000000
0
LINE
8
00_POLIAMIDAS
10
985.077236
20
120.757167
30
0.0
11
986.582180
21
118.460872
31
0.0
0
ARC
8
00_POLIAMIDAS
10
987.418562
20
119.009020
30
0.0
40
1.000000
50
213.240000
51
270.000000
0
LINE
8
00_POLIAMIDAS
10
987.418562
20
118.009020
30
0.0
11
988.151508
21
118.009020
31
0.0
0
ARC
8
00_POLIAMIDAS
10
988.151508
20
117.209020
30
0.0
40
0.800000
50
59.960294
51
90.000000
0
LINE
8
00_POLIAMIDAS
10
988.551988
20
117.901562
30
0.0
11
990.053027
21
117.033550
31
0.0
0
LINE
8
00_POLIAMIDAS
10
990.053027
20
117.033550
30
0.0
11
990.148998
21
117.009020
31
0.0
0
LINE
8
00_POLIAMIDAS
10
990.148998
20
117.009020
30
0.0
11
990.357877
21
117.009020
31
0.0
0
ARC
8
00_POLIAMIDAS
10
990.357877
20
117.409020
30
0.0
40
0.400000
50
270.000000
51
0.000000
0
LINE
8
00_POLIAMIDAS
10
990.757877
20
117.409020
30
0.0
11
990.757877
21
118.009020
31
0.0
0
LINE
8
00_POLIAMIDAS
10
990.757877
20
118.009020
30
0.0
11
990.657877
21
118.009020
31
0.0
0
LINE
8
00_POLIAMIDAS
10
990.657877
20
118.009020
30
0.0
11
990.657877
21
118.384020
31
0.0
0
ARC
8
00_POLIAMIDAS
10
990.457877
20
118.384020
30
0.0
40
0.200000
50
0.000000
51
90.000000
0
LINE
8
00_POLIAMIDAS
10
990.457877
20
118.584020
30
0.0
11
990.298351
21
118.584020
31
0.0
0
ARC
8
00_POLIAMIDAS
10
990.007877
20
119.109020
30
0.0
40
0.600000
50
180.000000
51
298.955024
0
ARC
8
00_POLIAMIDAS
10
990.007877
20
119.109020
30
0.0
40
0.600000
50
61.044976
51
180.000000
0
LINE
8
00_POLIAMIDAS
10
990.298351
20
119.634020
30
0.0
11
990.457877
21
119.634020
31
0.0
0
ARC
8
00_POLIAMIDAS
10
990.457877
20
119.834020
30
0.0
40
0.200000
50
270.000000
51
0.000000
0
LINE
8
00_POLIAMIDAS
10
990.657877
20
119.834020
30
0.0
11
990.657877
21
120.209020
31
0.0
0
LINE
8
00_POLIAMIDAS
10
990.657877
20
120.209020
30
0.0
11
990.757877
21
120.209020
31
0.0
0
LINE
8
00_POLIAMIDAS
10
990.757877
20
120.209020
30
0.0
11
990.757877
21
120.809020
31
0.0
0
ARC
8
00_POLIAMIDAS
10
990.357877
20
120.809020
30
0.0
40
0.400000
50
0.000000
51
90.000000
0
LINE
8
00_POLIAMIDAS
10
990.357877
20
121.209020
30
0.0
11
990.148998
21
121.209020
31
0.0
0
LINE
8
00_POLIAMIDAS
10
990.148998
20
121.209020
30
0.0
11
990.053027
21
121.184489
31
0.0
0
LINE
8
00_POLIAMIDAS
10
990.053027
20
121.184489
30
0.0
11
988.521877
21
120.299064
31
0.0
0
ARC
8
00_POLIAMIDAS
10
988.186292
20
120.879385
30
0.0
40
0.670365
50
213.390000
51
300.039706
0
LINE
8
00_POLIAMIDAS
10
987.626574
20
120.510459
30
0.0
11
985.996071
21
122.984187
31
0.0
0
ARC
8
00_POLIAMIDAS
10
973.327145
20
76.759137
30
0.0
40
0.500000
50
270.000000
51
326.610000
0
LINE
8
00_POLIAMIDAS
10
973.327145
20
76.259137
30
0.0
11
968.506423
21
76.259137
31
0.0
0
LINE
8
00_POLIAMIDAS
10
968.506423
20
76.259137
30
0.0
11
961.685702
21
76.259137
31
0.0
0
ARC
8
00_POLIAMIDAS
10
961.685702
20
76.759137
30
0.0
40
0.500000
50
213.390000
51
270.000000
0
LINE
8
00_POLIAMIDAS
10
961.268230
20
76.483970
30
0.0
11
959.637726
21
78.957697
31
0.0
0
ARC
8
00_POLIAMIDAS
10
959.078009
20
78.588772
30
0.0
40
0.670365
50
33.390000
51
120.039706
0
LINE
8
00_POLIAMIDAS
10
958.742424
20
79.169093
30
0.0
11
957.211274
21
78.283667
31
0.0
0
LINE
8
00_POLIAMIDAS
10
957.115303
20
78.259137
30
0.0
11
957.211274
21
78.283667
31
0.0
0
LINE
8
00_POLIAMIDAS
10
957.115303
20
78.259137
30
0.0
11
956.906423
21
78.259137
31
0.0
0
ARC
8
00_POLIAMIDAS
10
956.906423
20
78.659137
30
0.0
40
0.400000
50
180.000000
51
270.000000
0
LINE
8
00_POLIAMIDAS
10
956.506423
20
78.659137
30
0.0
11
956.506423
21
79.259137
31
0.0
0
LINE
8
00_POLIAMIDAS
10
956.506423
20
79.259137
30
0.0
11
956.606423
21
79.259137
31
0.0
0
LINE
8
00_POLIAMIDAS
10
956.606423
20
79.259137
30
0.0
11
956.606423
21
79.634137
31
0.0
0
ARC
8
00_POLIAMIDAS
10
956.806423
20
79.634137
30
0.0
40
0.200000
50
90.000000
51
180.000000
0
LINE
8
00_POLIAMIDAS
10
956.806423
20
79.834137
30
0.0
11
956.965950
21
79.834137
31
0.0
0
ARC
8
00_POLIAMIDAS
10
957.256423
20
80.359137
30
0.0
40
0.600000
50
241.044976
51
0.000000
0
ARC
8
00_POLIAMIDAS
10
957.256423
20
80.359137
30
0.0
40
0.600000
50
0.000000
51
118.955024
0
LINE
8
00_POLIAMIDAS
10
956.965950
20
80.884137
30
0.0
11
956.806423
21
80.884137
31
0.0
0
ARC
8
00_POLIAMIDAS
10
956.806423
20
81.084137
30
0.0
40
0.200000
50
180.000000
51
270.000000
0
LINE
8
00_POLIAMIDAS
10
956.606423
20
81.084137
30
0.0
11
956.606423
21
81.459137
31
0.0
0
LINE
8
00_POLIAMIDAS
10
956.606423
20
81.459137
30
0.0
11
956.506423
21
81.459137
31
0.0
0
LINE
8
00_POLIAMIDAS
10
956.506423
20
81.459137
30
0.0
11
956.506423
21
82.059137
31
0.0
0
ARC
8
00_POLIAMIDAS
10
956.906423
20
82.059137
30
0.0
40
0.400000
50
90.000000
51
180.000000
0
LINE
8
00_POLIAMIDAS
10
956.906423
20
82.459137
30
0.0
11
957.115303
21
82.459137
31
0.0
0
LINE
8
00_POLIAMIDAS
10
957.211274
20
82.434607
30
0.0
11
957.115303
21
82.459137
31
0.0
0
LINE
8
00_POLIAMIDAS
10
957.211274
20
82.434607
30
0.0
11
958.712313
21
81.566594
31
0.0
0
ARC
8
00_POLIAMIDAS
10
959.112793
20
82.259137
30
0.0
40
0.800000
50
239.960294
51
270.000000
0
LINE
8
00_POLIAMIDAS
10
959.112793
20
81.459137
30
0.0
11
959.845739
21
81.459137
31
0.0
0
ARC
8
00_POLIAMIDAS
10
959.845739
20
80.459137
30
0.0
40
1.000000
50
33.240000
51
90.000000
0
LINE
8
00_POLIAMIDAS
10
960.682121
20
81.007284
30
0.0
11
962.187065
21
78.710990
31
0.0
0
ARC
8
00_POLIAMIDAS
10
963.023446
20
79.259137
30
0.0
40
1.000000
50
213.240000
51
270.000000
0
LINE
8
00_POLIAMIDAS
10
963.023446
20
78.259137
30
0.0
11
968.506423
21
78.259137
31
0.0
0
LINE
8
00_POLIAMIDAS
10
968.506423
20
78.259137
30
0.0
11
971.838840
21
78.259137
31
0.0
0
LINE
8
00_POLIAMIDAS
10
971.838840
20
78.259137
30
0.0
11
971.989400
21
78.259137
31
0.0
0
ARC
8
00_POLIAMIDAS
10
971.989400
20
79.259137
30
0.0
40
1.000000
50
270.000000
51
326.760000
0
LINE
8
00_POLIAMIDAS
10
972.825782
20
78.710990
30
0.0
11
974.330726
21
81.007284
31
0.0
0
ARC
8
00_POLIAMIDAS
10
975.167108
20
80.459137
30
0.0
40
1.000000
50
90.000000
51
146.760000
0
LINE
8
00_POLIAMIDAS
10
975.167108
20
81.459137
30
0.0
11
975.900054
21
81.459137
31
0.0
0
ARC
8
00_POLIAMIDAS
10
975.900054
20
82.259137
30
0.0
40
0.800000
50
270.000000
51
300.039706
0
LINE
8
00_POLIAMIDAS
10
976.300534
20
81.566594
30
0.0
11
977.801573
21
82.434607
31
0.0
0
LINE
8
00_POLIAMIDAS
10
977.897544
20
82.459137
30
0.0
11
977.801573
21
82.434607
31
0.0
0
LINE
8
00_POLIAMIDAS
10
977.897544
20
82.459137
30
0.0
11
978.106423
21
82.459137
31
0.0
0
ARC
8
00_POLIAMIDAS
10
978.106423
20
82.059137
30
0.0
40
0.400000
50
0.000000
51
90.000000
0
LINE
8
00_POLIAMIDAS
10
978.506423
20
82.059137
30
0.0
11
978.506423
21
81.459137
31
0.0
0
LINE
8
00_POLIAMIDAS
10
978.506423
20
81.459137
30
0.0
11
978.406423
21
81.459137
31
0.0
0
LINE
8
00_POLIAMIDAS
10
978.406423
20
81.459137
30
0.0
11
978.406423
21
81.084137
31
0.0
0
ARC
8
00_POLIAMIDAS
10
978.206423
20
81.084137
30
0.0
40
0.200000
50
270.000000
51
0.000000
0
LINE
8
00_POLIAMIDAS
10
978.206423
20
80.884137
30
0.0
11
978.046897
21
80.884137
31
0.0
0
ARC
8
00_POLIAMIDAS
10
977.756423
20
80.359137
30
0.0
40
0.600000
50
61.044976
51
180.000000
0
ARC
8
00_POLIAMIDAS
10
977.756423
20
80.359137
30
0.0
40
0.600000
50
180.000000
51
298.955024
0
LINE
8
00_POLIAMIDAS
10
978.046897
20
79.834137
30
0.0
11
978.206423
21
79.834137
31
0.0
0
ARC
8
00_POLIAMIDAS
10
978.206423
20
79.634137
30
0.0
40
0.200000
50
0.000000
51
90.000000
0
LINE
8
00_POLIAMIDAS
10
978.406423
20
79.634137
30
0.0
11
978.406423
21
79.259137
31
0.0
0
LINE
8
00_POLIAMIDAS
10
978.406423
20
79.259137
30
0.0
11
978.506423
21
79.259137
31
0.0
0
LINE
8
00_POLIAMIDAS
10
978.506423
20
79.259137
30
0.0
11
978.506423
21
78.659137
31
0.0
0
ARC
8
00_POLIAMIDAS
10
978.106423
20
78.659137
30
0.0
40
0.400000
50
270.000000
51
0.000000
0
LINE
8
00_POLIAMIDAS
10
978.106423
20
78.259137
30
0.0
11
977.897544
21
78.259137
31
0.0
0
LINE
8
00_POLIAMIDAS
10
977.801573
20
78.283667
30
0.0
11
977.897544
21
78.259137
31
0.0
0
LINE
8
00_POLIAMIDAS
10
977.801573
20
78.283667
30
0.0
11
976.270423
21
79.169093
31
0.0
0
ARC
8
00_POLIAMIDAS
10
975.934838
20
78.588772
30
0.0
40
0.670365
50
59.960294
51
146.610000
0
LINE
8
00_POLIAMIDAS
10
975.375120
20
78.957697
30
0.0
11
973.744617
21
76.483970
31
0.0
0
LINE
8
00_ALUMINIO
10
1008.653074
20
111.588168
30
0.0
11
1008.653074
21
147.054857
31
0.0
0
ARC
8
00_ALUMINIO
10
1008.353074
20
147.054857
30
0.0
40
0.300000
50
0.000000
51
60.000000
0
LINE
8
00_ALUMINIO
10
1008.503074
20
147.314665
30
0.0
11
1004.328074
21
149.725102
31
0.0
0
ARC
8
00_ALUMINIO
10
1004.153074
20
149.421993
30
0.0
40
0.350000
50
60.000000
51
180.000000
0
LINE
8
00_ALUMINIO
10
1003.803074
20
149.421993
30
0.0
11
1003.803074
21
143.489129
31
0.0
0
LINE
8
00_ALUMINIO
10
1003.803074
20
143.489129
30
0.0
11
1004.153074
21
143.489129
31
0.0
0
ARC
8
00_ALUMINIO
10
1004.153074
20
141.989129
30
0.0
40
1.500000
50
0.000000
51
90.000000
0
LINE
8
00_ALUMINIO
10
1005.653074
20
141.989129
30
0.0
11
1005.653074
21
132.689129
31
0.0
0
ARC
8
00_ALUMINIO
10
1004.153074
20
132.689129
30
0.0
40
1.500000
50
270.000000
51
0.000000
0
LINE
8
00_ALUMINIO
10
1004.153074
20
131.189129
30
0.0
11
1003.353074
21
131.189129
31
0.0
0
LINE
8
00_ALUMINIO
10
1003.353074
20
131.189129
30
0.0
11
1003.353074
21
122.838168
31
0.0
0
ARC
8
00_ALUMINIO
10
1002.353074
20
122.838168
30
0.0
40
1.000000
50
270.000000
51
0.000000
0
LINE
8
00_ALUMINIO
10
1002.353074
20
121.838168
30
0.0
11
992.257877
21
121.838168
31
0.0
0
LINE
8
00_ALUMINIO
10
992.257877
20
121.838168
30
0.0
11
992.257877
21
111.588168
31
0.0
0
LINE
8
00_ALUMINIO
10
992.257877
20
111.588168
30
0.0
11
1008.653074
21
111.588168
31
0.0
0
LINE
8
00_ALUMINIO
10
980.053074
20
80.488168
30
0.0
11
980.653074
21
80.488168
31
0.0
0
LINE
8
00_ALUMINIO
10
980.653074
20
80.488168
30
0.0
11
980.653074
21
78.688168
31
0.0
0
LINE
8
00_ALUMINIO
10
980.653074
20
78.688168
30
0.0
11
998.353074
21
78.688168
31
0.0
0
ARC
8
00_ALUMINIO
10
998.353074
20
78.188168
30
0.0
40
0.500000
50
0.000000
51
90.000000
0
LINE
8
00_ALUMINIO
10
998.853074
20
78.188168
30
0.0
11
998.853074
21
66.788168
31
0.0
0
LINE
8
00_ALUMINIO
10
998.853074
20
66.788168
30
0.0
11
1005.539417
21
66.788168
31
0.0
0
ARC
8
00_ALUMINIO
10
1005.539417
20
67.088168
30
0.0
40
0.300000
50
270.000000
51
345.000000
0
LINE
8
00_ALUMINIO
10
1005.829194
20
67.010522
30
0.0
11
1006.541150
21
69.667578
31
0.0
0
ARC
8
00_ALUMINIO
10
1007.024113
20
69.538168
30
0.0
40
0.500000
50
90.000000
51
165.000000
0
LINE
8
00_ALUMINIO
10
1007.024113
20
70.038168
30
0.0
11
1008.653074
21
70.038168
31
0.0
0
LINE
8
00_ALUMINIO
10
1008.653074
20
70.038168
30
0.0
11
1008.653074
21
109.888168
31
0.0
0
ARC
8
00_ALUMINIO
10
1008.353074
20
109.888168
30
0.0
40
0.300000
50
0.000000
51
90.000000
0
LINE
8
00_ALUMINIO
10
1008.353074
20
110.188168
30
0.0
11
1007.606393
21
110.188168
31
0.0
0
ARC
8
00_ALUMINIO
10
1007.606393
20
109.888168
30
0.0
40
0.300000
50
90.000000
51
156.519241
0
LINE
8
00_ALUMINIO
10
1007.331235
20
110.007701
30
0.0
11
1006.636513
21
108.408480
31
0.0
0
ARC
8
00_ALUMINIO
10
1006.453074
20
108.488168
30
0.0
40
0.200000
50
180.000000
51
336.519241
0
LINE
8
00_ALUMINIO
10
1006.253074
20
108.488168
30
0.0
11
1006.253074
21
110.188168
31
0.0
0
LINE
8
00_ALUMINIO
10
1006.253074
20
110.188168
30
0.0
11
1004.253074
21
110.188168
31
0.0
0
LINE
8
00_ALUMINIO
10
1004.253074
20
110.188168
30
0.0
11
1004.253074
21
110.288168
31
0.0
0
LINE
8
00_ALUMINIO
10
1004.253074
20
110.288168
30
0.0
11
982.653074
21
110.288168
31
0.0
0
LINE
8
00_ALUMINIO
10
982.653074
20
110.288168
30
0.0
11
982.653074
21
110.188168
31
0.0
0
LINE
8
00_ALUMINIO
10
982.653074
20
110.188168
30
0.0
11
980.653074
21
110.188168
31
0.0
0
LINE
8
00_ALUMINIO
10
980.653074
20
110.188168
30
0.0
11
980.653074
21
108.488168
31
0.0
0
LINE
8
00_ALUMINIO
10
980.653074
20
108.488168
30
0.0
11
980.053074
21
108.488168
31
0.0
0
LINE
8
00_ALUMINIO
10
980.053074
20
108.488168
30
0.0
11
980.053074
21
80.488168
31
0.0
0
LINE
8
00_ALUMINIO
10
990.471869
20
121.573521
30
0.0
11
988.721104
21
120.389432
31
0.0
0
ARC
8
00_ALUMINIO
10
988.555393
20
120.277450
30
0.0
40
0.200000
50
213.039809
51
34.049592
0
LINE
8
00_ALUMINIO
10
988.387735
20
120.168406
30
0.0
11
986.429697
21
122.991318
31
0.0
0
ARC
8
00_ALUMINIO
10
986.719131
20
123.070235
30
0.0
40
0.300000
50
88.623749
51
195.251415
0
LINE
8
00_ALUMINIO
10
986.726337
20
123.370148
30
0.0
11
987.784367
21
123.344730
31
0.0
0
LINE
8
00_ALUMINIO
10
987.784367
20
123.344730
30
0.0
11
987.836380
21
123.136116
31
0.0
0
LINE
8
00_ALUMINIO
10
987.836380
20
123.136116
30
0.0
11
988.264636
21
122.559887
31
0.0
0
ARC
8
00_ALUMINIO
10
989.067247
20
123.156390
30
0.0
40
1.000000
50
216.619865
51
303.109098
0
LINE
8
00_ALUMINIO
10
989.613482
20
122.318758
30
0.0
11
990.530995
21
122.917085
31
0.0
0
ARC
8
00_ALUMINIO
10
990.257877
20
123.335901
30
0.0
40
0.500000
50
303.109098
51
0.259827
0
LINE
8
00_ALUMINIO
10
990.757872
20
123.338168
30
0.0
11
1001.853074
21
123.338168
31
0.0
0
LINE
8
00_ALUMINIO
10
1001.853074
20
123.338168
30
0.0
11
1001.853074
21
131.189129
31
0.0
0
ARC
8
00_ALUMINIO
10
1001.853074
20
132.189129
30
0.0
40
1.000000
50
180.000000
51
270.000000
0
LINE
8
00_ALUMINIO
10
1000.853074
20
132.189129
30
0.0
11
1000.853074
21
133.439129
31
0.0
0
ARC
8
00_ALUMINIO
10
1001.353074
20
133.439129
30
0.0
40
0.500000
50
0.000000
51
180.000000
0
LINE
8
00_ALUMINIO
10
1001.853074
20
133.439129
30
0.0
11
1001.853074
21
132.589129
31
0.0
0
LINE
8
00_ALUMINIO
10
1001.853074
20
132.589129
30
0.0
11
1004.253074
21
132.589129
31
0.0
0
LINE
8
00_ALUMINIO
10
1004.253074
20
132.589129
30
0.0
11
1004.253074
21
142.089129
31
0.0
0
LINE
8
00_ALUMINIO
10
1004.253074
20
142.089129
30
0.0
11
1001.853074
21
142.089129
31
0.0
0
LINE
8
00_ALUMINIO
10
1001.853074
20
142.089129
30
0.0
11
1001.853074
21
141.239129
31
0.0
0
ARC
8
00_ALUMINIO
10
1001.353074
20
141.239129
30
0.0
40
0.500000
50
180.000000
51
0.000000
0
LINE
8
00_ALUMINIO
10
1000.853074
20
141.239129
30
0.0
11
1000.853074
21
142.489129
31
0.0
0
LINE
8
00_ALUMINIO
10
1000.853074
20
142.489129
30
0.0
11
999.153074
21
142.489129
31
0.0
0
LINE
8
00_ALUMINIO
10
999.153074
20
142.489129
30
0.0
11
999.153074
21
143.489129
31
0.0
0
LINE
8
00_ALUMINIO
10
999.153074
20
143.489129
30
0.0
11
1000.053074
21
143.489129
31
0.0
0
LINE
8
00_ALUMINIO
10
1000.053074
20
143.489129
30
0.0
11
1000.553074
21
145.239129
31
0.0
0
LINE
8
00_ALUMINIO
10
1000.553074
20
145.239129
30
0.0
11
1001.053074
21
145.239129
31
0.0
0
LINE
8
00_ALUMINIO
10
1001.053074
20
145.239129
30
0.0
11
1001.053074
21
143.489129
31
0.0
0
LINE
8
00_ALUMINIO
10
1001.053074
20
143.489129
30
0.0
11
1002.353074
21
143.489129
31
0.0
0
LINE
8
00_ALUMINIO
10
1002.353074
20
143.489129
30
0.0
11
1002.353074
21
150.989129
31
0.0
0
LINE
8
00_ALUMINIO
10
1002.353074
20
150.989129
30
0.0
11
1001.053074
21
150.989129
31
0.0
0
LINE
8
00_ALUMINIO
10
1001.053074
20
150.989129
30
0.0
11
1001.053074
21
149.239129
31
0.0
0
LINE
8
00_ALUMINIO
10
1001.053074
20
149.239129
30
0.0
11
1000.553074
21
149.239129
31
0.0
0
LINE
8
00_ALUMINIO
10
1000.553074
20
149.239129
30
0.0
11
1000.110217
21
150.789129
31
0.0
0
LINE
8
00_ALUMINIO
10
1000.110217
20
150.789129
30
0.0
11
999.153074
21
150.789129
31
0.0
0
LINE
8
00_ALUMINIO
10
999.153074
20
150.789129
30
0.0
11
999.153074
21
151.789129
31
0.0
0
ARC
8
00_ALUMINIO
10
999.653074
20
151.789129
30
0.0
40
0.500000
50
90.000000
51
180.000000
0
LINE
8
00_ALUMINIO
10
999.653074
20
152.289129
30
0.0
11
1002.653074
21
152.289129
31
0.0
0
ARC
8
00_ALUMINIO
10
1002.653074
20
151.789129
30
0.0
40
0.500000
50
60.000000
51
90.000000
0
LINE
8
00_ALUMINIO
10
1002.903074
20
152.222142
30
0.0
11
1009.903074
21
148.180690
31
0.0
0
ARC
8
00_ALUMINIO
10
1009.653074
20
147.747678
30
0.0
40
0.500000
50
0.000000
51
60.000000
0
LINE
8
00_ALUMINIO
10
1010.153074
20
147.747678
30
0.0
11
1010.153074
21
45.788168
31
0.0
0
ARC
8
00_ALUMINIO
10
1009.653074
20
45.788168
30
0.0
40
0.500000
50
270.000000
51
0.000000
0
LINE
8
00_ALUMINIO
10
1009.653074
20
45.288168
30
0.0
11
1007.153074
21
45.288168
31
0.0
0
ARC
8
00_ALUMINIO
10
1007.153074
20
45.788168
30
0.0
40
0.500000
50
180.000000
51
270.000000
0
LINE
8
00_ALUMINIO
10
1006.653074
20
45.788168
30
0.0
11
1006.653074
21
46.488168
31
0.0
0
LINE
8
00_ALUMINIO
10
1006.653074
20
46.488168
30
0.0
11
1007.153074
21
47.788168
31
0.0
0
LINE
8
00_ALUMINIO
10
1007.153074
20
47.788168
30
0.0
11
1007.653074
21
47.788168
31
0.0
0
LINE
8
00_ALUMINIO
10
1007.653074
20
47.788168
30
0.0
11
1007.653074
21
46.488168
31
0.0
0
LINE
8
00_ALUMINIO
10
1007.653074
20
46.488168
30
0.0
11
1008.953074
21
46.488168
31
0.0
0
LINE
8
00_ALUMINIO
10
1008.953074
20
46.488168
30
0.0
11
1008.953074
21
52.588168
31
0.0
0
LINE
8
00_ALUMINIO
10
1008.953074
20
52.588168
30
0.0
11
1007.653074
21
52.588168
31
0.0
0
LINE
8
00_ALUMINIO
10
1007.653074
20
52.588168
30
0.0
11
1007.653074
21
51.288168
31
0.0
0
LINE
8
00_ALUMINIO
10
1007.653074
20
51.288168
30
0.0
11
1007.153074
21
51.288168
31
0.0
0
LINE
8
00_ALUMINIO
10
1007.153074
20
51.288168
30
0.0
11
1006.453074
21
53.108168
31
0.0
0
LINE
8
00_ALUMINIO
10
1006.453074
20
53.108168
30
0.0
11
1006.453074
21
53.688168
31
0.0
0
ARC
8
00_ALUMINIO
10
1007.453074
20
53.688168
30
0.0
40
1.000000
50
88.163309
51
180.000000
0
LINE
8
00_ALUMINIO
10
1007.485125
20
54.687654
30
0.0
11
1007.485125
21
54.588168
31
0.0
0
LINE
8
00_ALUMINIO
10
1007.485125
20
54.588168
30
0.0
11
1007.529517
21
54.422494
31
0.0
0
LINE
8
00_ALUMINIO
10
1007.529517
20
54.422494
30
0.0
11
1007.662930
21
54.422494
31
0.0
0
ARC
8
00_ALUMINIO
10
1007.662930
20
54.310958
30
0.0
40
0.111536
50
330.000000
51
90.000000
0
LINE
8
00_ALUMINIO
10
1007.759523
20
54.255191
30
0.0
11
1007.633045
21
54.036123
31
0.0
0
LINE
8
00_ALUMINIO
10
1007.633045
20
54.036123
30
0.0
11
1007.753074
21
53.588168
31
0.0
0
LINE
8
00_ALUMINIO
10
1007.753074
20
53.588168
30
0.0
11
1008.753074
21
53.588168
31
0.0
0
LINE
8
00_ALUMINIO
10
1008.753074
20
53.588168
30
0.0
11
1008.753074
21
68.588168
31
0.0
0
LINE
8
00_ALUMINIO
10
1008.753074
20
68.588168
30
0.0
11
1007.753074
21
68.588168
31
0.0
0
LINE
8
00_ALUMINIO
10
1007.753074
20
68.588168
30
0.0
11
1007.633045
21
68.140213
31
0.0
0
LINE
8
00_ALUMINIO
10
1007.633045
20
68.140213
30
0.0
11
1007.759523
21
67.921146
31
0.0
0
ARC
8
00_ALUMINIO
10
1007.662930
20
67.865378
30
0.0
40
0.111536
50
270.000000
51
30.000000
0
LINE
8
00_ALUMINIO
10
1007.662930
20
67.753843
30
0.0
11
1007.529517
21
67.753843
31
0.0
0
LINE
8
00_ALUMINIO
10
1007.529517
20
67.753843
30
0.0
11
1007.067440
21
66.029349
31
0.0
0
ARC
8
00_ALUMINIO
10
1006.101514
20
66.288168
30
0.0
40
1.000000
50
270.000000
51
345.000000
0
LINE
8
00_ALUMINIO
10
1006.101514
20
65.288168
30
0.0
11
997.728074
21
65.288168
31
0.0
0
ARC
8
00_ALUMINIO
10
997.728074
20
65.588168
30
0.0
40
0.300000
50
180.000000
51
270.000000
0
LINE
8
00_ALUMINIO
10
997.428074
20
65.588168
30
0.0
11
997.428074
21
67.488168
31
0.0
0
LINE
8
00_ALUMINIO
10
997.428074
20
67.488168
30
0.0
11
995.353074
21
67.488168
31
0.0
0
LINE
8
00_ALUMINIO
10
995.353074
20
67.488168
30
0.0
11
995.353074
21
69.088168
31
0.0
0
LINE
8
00_ALUMINIO
10
995.353074
20
69.088168
30
0.0
11
997.353074
21
69.088168
31
0.0
0
LINE
8
00_ALUMINIO
10
997.353074
20
69.088168
30
0.0
11
997.353074
21
77.188168
31
0.0
0
LINE
8
00_ALUMINIO
10
997.353074
20
77.188168
30
0.0
11
993.253074
21
77.188168
31
0.0
0
LINE
8
00_ALUMINIO
10
993.253074
20
77.188168
30
0.0
11
993.253074
21
76.788168
31
0.0
0
LINE
8
00_ALUMINIO
10
993.253074
20
76.788168
30
0.0
11
989.553074
21
76.788168
31
0.0
0
LINE
8
00_ALUMINIO
10
989.553074
20
76.788168
30
0.0
11
989.253074
21
77.088168
31
0.0
0
LINE
8
00_ALUMINIO
10
989.253074
20
77.088168
30
0.0
11
988.953074
21
76.788168
31
0.0
0
LINE
8
00_ALUMINIO
10
988.953074
20
76.788168
30
0.0
11
985.253074
21
76.788168
31
0.0
0
LINE
8
00_ALUMINIO
10
985.253074
20
76.788168
30
0.0
11
985.253074
21
77.188168
31
0.0
0
LINE
8
00_ALUMINIO
10
985.253074
20
77.188168
30
0.0
11
981.153074
21
77.188168
31
0.0
0
LINE
8
00_ALUMINIO
10
981.153074
20
77.188168
30
0.0
11
981.153074
21
69.088168
31
0.0
0
LINE
8
00_ALUMINIO
10
981.153074
20
69.088168
30
0.0
11
983.153074
21
69.088168
31
0.0
0
LINE
8
00_ALUMINIO
10
983.153074
20
69.088168
30
0.0
11
983.153074
21
67.488168
31
0.0
0
LINE
8
00_ALUMINIO
10
983.153074
20
67.488168
30
0.0
11
981.078074
21
67.488168
31
0.0
0
LINE
8
00_ALUMINIO
10
981.078074
20
67.488168
30
0.0
11
981.078074
21
65.588168
31
0.0
0
ARC
8
00_ALUMINIO
10
980.778074
20
65.588168
30
0.0
40
0.300000
50
270.000000
51
0.000000
0
LINE
8
00_ALUMINIO
10
980.778074
20
65.288168
30
0.0
11
979.553074
21
65.288168
31
0.0
0
LINE
8
00_ALUMINIO
10
979.553074
20
65.288168
30
0.0
11
979.553074
21
76.146060
31
0.0
0
LINE
8
00_ALUMINIO
10
979.553074
20
76.146060
30
0.0
11
978.506420
21
76.146060
31
0.0
0
ARC
8
00_ALUMINIO
10
978.006423
20
76.147843
30
0.0
40
0.500000
50
359.795690
51
56.890902
0
LINE
8
00_ALUMINIO
10
978.279541
20
76.566659
30
0.0
11
977.362028
21
77.164986
31
0.0
0
ARC
8
00_ALUMINIO
10
976.815793
20
76.327354
30
0.0
40
1.000000
50
56.890902
51
143.380135
0
LINE
8
00_ALUMINIO
10
976.013182
20
76.923857
30
0.0
11
975.584926
21
76.347628
31
0.0
0
LINE
8
00_ALUMINIO
10
975.584926
20
76.347628
30
0.0
11
975.532913
21
76.139014
31
0.0
0
LINE
8
00_ALUMINIO
10
975.532913
20
76.139014
30
0.0
11
974.474882
21
76.113596
31
0.0
0
ARC
8
00_ALUMINIO
10
974.467677
20
76.413509
30
0.0
40
0.300000
50
164.748585
51
271.376251
0
LINE
8
00_ALUMINIO
10
974.178243
20
76.492426
30
0.0
11
976.136281
21
79.315338
31
0.0
0
ARC
8
00_ALUMINIO
10
976.303939
20
79.206294
30
0.0
40
0.200000
50
325.950408
51
146.960191
0
LINE
8
00_ALUMINIO
10
976.469650
20
79.094312
30
0.0
11
978.220415
21
77.910223
31
0.0
0
ARC
8
00_ALUMINIO
10
978.506423
20
77.819673
30
0.0
40
0.300000
50
162.432275
51
90.000000
0
LINE
8
00_ALUMINIO
10
978.506423
20
78.119673
30
0.0
11
978.506423
21
82.619673
31
0.0
0
ARC
8
00_ALUMINIO
10
978.306423
20
82.619673
30
0.0
40
0.200000
50
0.000000
51
120.000000
0
LINE
8
00_ALUMINIO
10
978.206423
20
82.792879
30
0.0
11
976.406327
21
81.753592
31
0.0
0
ARC
8
00_ALUMINIO
10
976.206423
20
81.747370
30
0.0
40
0.200000
50
180.000000
51
1.782862
0
LINE
8
00_ALUMINIO
10
976.006423
20
81.747370
30
0.0
11
976.006423
21
83.015857
31
0.0
0
ARC
8
00_ALUMINIO
10
976.206423
20
83.015857
30
0.0
40
0.200000
50
119.846880
51
180.000000
0
LINE
8
00_ALUMINIO
10
976.106887
20
83.189329
30
0.0
11
978.402379
21
84.506465
31
0.0
0
ARC
8
00_ALUMINIO
10
978.253074
20
84.766673
30
0.0
40
0.300000
50
299.846880
51
0.000000
0
LINE
8
00_ALUMINIO
10
978.553074
20
84.766673
30
0.0
11
978.553074
21
110.788168
31
0.0
0
ARC
8
00_ALUMINIO
10
979.553074
20
110.788168
30
0.0
40
1.000000
50
90.000000
51
180.000000
0
LINE
8
00_ALUMINIO
10
979.553074
20
111.788168
30
0.0
11
990.257877
21
111.788168
31
0.0
0
ARC
8
00_ALUMINIO
10
990.257877
20
112.288168
30
0.0
40
0.500000
50
270.000000
51
0.000000
0
LINE
8
00_ALUMINIO
10
990.757877
20
112.288168
30
0.0
11
990.757877
21
114.743839
31
0.0
0
ARC
8
00_ALUMINIO
10
990.457877
20
114.743839
30
0.0
40
0.300000
50
0.000000
51
60.153120
0
LINE
8
00_ALUMINIO
10
990.607183
20
115.004046
30
0.0
11
988.358341
21
116.294415
31
0.0
0
ARC
8
00_ALUMINIO
10
988.457877
20
116.467887
30
0.0
40
0.200000
50
180.000000
51
240.153120
0
LINE
8
00_ALUMINIO
10
988.257877
20
116.467887
30
0.0
11
988.257877
21
117.736374
31
0.0
0
ARC
8
00_ALUMINIO
10
988.457877
20
117.736374
30
0.0
40
0.200000
50
358.217138
51
180.000000
0
LINE
8
00_ALUMINIO
10
988.657781
20
117.730152
30
0.0
11
990.457877
21
116.690866
31
0.0
0
ARC
8
00_ALUMINIO
10
990.557877
20
116.864071
30
0.0
40
0.200000
50
240.000000
51
0.000000
0
LINE
8
00_ALUMINIO
10
990.757877
20
116.864071
30
0.0
11
990.757877
21
121.364071
31
0.0
0
ARC
8
00_ALUMINIO
10
990.757877
20
121.664071
30
0.0
40
0.300000
50
270.000000
51
197.567725
0
ATTDEF
8
0
10
0.000000
20
0.000000
30
0.0
40
3.5
1

3

2
PANE_WIDTH:0
70
0
0
ATTDEF
8
0
10
0.000000
20
0.000000
30
0.0
40
3.5
1

3

2
MIN_VETRO:0
70
0
0
ATTDEF
8
0
10
0.000000
20
0.000000
30
0.0
40
3.5
1

3

2
MAX_VETRO:0
70
0
0
ATTDEF
8
0
10
0.000000
20
0.000000
30
0.0
40
3.5
1

3

2
JX:0
70
0
0
ATTDEF
8
0
10
0.000000
20
0.000000
30
0.0
40
3.5
1

3

2
WX:0
70
0
0
ATTDEF
8
0
10
0.000000
20
0.000000
30
0.0
40
3.5
1

3

2
JY:0
70
0
0
ATTDEF
8
0
10
0.000000
20
0.000000
30
0.0
40
3.5
1

3

2
WY:0
70
0
0
ATTDEF
8
0
10
0.000000
20
0.000000
30
0.0
40
3.5
1

3

2
DESC:H.ap.ext.C16 achaflanada
70
0
0
ATTDEF
8
0
10
0.000000
20
0.000000
30
0.0
40
3.5
1

3

2
DENS:2.1791
70
0
0
ATTDEF
8
0
10
0.000000
20
0.000000
30
0.0
40
3.5
1

3

2
TDEV:94.55
70
0
0
ATTDEF
8
0
10
0.000000
20
0.000000
30
0.0
40
3.5
1

3

2
TDEV2:0
70
0
0
ATTDEF
8
0
10
0.000000
20
0.000000
30
0.0
40
3.5
1

3

2
TDEV3:0
70
0
0
ATTDEF
8
0
10
0.000000
20
0.000000
30
0.0
40
3.5
1

3

2
TDEV4:0
70
0
0
ATTDEF
8
0
10
0.000000
20
0.000000
30
0.0
40
3.5
1

3

2
TDEV5:0
70
0
0
ATTDEF
8
0
10
0.000000
20
0.000000
30
0.0
40
3.5
1

3

2
PANE_WIDTH:0
70
0
0
ATTDEF
8
0
10
0.000000
20
0.000000
30
0.0
40
3.5
1

3

2
MIN_VETRO:0
70
0
0
ATTDEF
8
0
10
0.000000
20
0.000000
30
0.0
40
3.5
1

3

2
MAX_VETRO:0
70
0
0
ATTDEF
8
0
10
0.000000
20
0.000000
30
0.0
40
3.5
1

3

2
JX:0
70
0
0
ATTDEF
8
0
10
0.000000
20
0.000000
30
0.0
40
3.5
1

3

2
WX:0
70
0
0
ATTDEF
8
0
10
0.000000
20
0.000000
30
0.0
40
3.5
1

3

2
JY:0
70
0
0
ATTDEF
8
0
10
0.000000
20
0.000000
30
0.0
40
3.5
1

3

2
WY:0
70
0
0
ENDSEC
0
EOF
