0
SECTION
2
ENTITIES
0
LINE
8
00_ALUMINIO
10
384.401828
20
9.816623
30
0.0
11
384.701828
21
10.116623
31
0.0
0
LINE
8
00_ALUMINIO
10
384.701828
20
10.116623
30
0.0
11
384.205640
21
10.612810
31
0.0
0
LINE
8
00_ALUMINIO
10
384.205640
20
10.612810
30
0.0
11
381.133393
21
23.920176
31
0.0
0
LINE
8
00_ALUMINIO
10
381.133393
20
23.920176
30
0.0
11
383.201828
21
23.920176
31
0.0
0
ARC
8
00_ALUMINIO
10
383.201828
20
24.420176
30
0.0
40
0.500000
50
270.000000
51
0.000000
0
LINE
8
00_ALUMINIO
10
383.701828
20
24.420176
30
0.0
11
383.701828
21
26.670176
31
0.0
0
ARC
8
00_ALUMINIO
10
383.201828
20
26.670176
30
0.0
40
0.500000
50
0.000000
51
90.000000
0
LINE
8
00_ALUMINIO
10
383.201828
20
27.170176
30
0.0
11
383.001828
21
27.170176
31
0.0
0
ARC
8
00_ALUMINIO
10
383.001828
20
26.670176
30
0.0
40
0.500000
50
90.000000
51
180.000000
0
LINE
8
00_ALUMINIO
10
382.501828
20
26.670176
30
0.0
11
382.501828
21
25.220176
31
0.0
0
LINE
8
00_ALUMINIO
10
382.501828
20
25.220176
30
0.0
11
381.201828
21
25.220176
31
0.0
0
LINE
8
00_ALUMINIO
10
381.201828
20
25.220176
30
0.0
11
381.201828
21
32.920176
31
0.0
0
LINE
8
00_ALUMINIO
10
381.201828
20
32.920176
30
0.0
11
382.501828
21
32.920176
31
0.0
0
LINE
8
00_ALUMINIO
10
382.501828
20
32.920176
30
0.0
11
382.501828
21
31.670176
31
0.0
0
ARC
8
00_ALUMINIO
10
383.001828
20
31.670176
30
0.0
40
0.500000
50
180.000000
51
270.000000
0
LINE
8
00_ALUMINIO
10
383.001828
20
31.170176
30
0.0
11
383.201828
21
31.170176
31
0.0
0
ARC
8
00_ALUMINIO
10
383.201828
20
31.670176
30
0.0
40
0.500000
50
270.000000
51
0.000000
0
LINE
8
00_ALUMINIO
10
383.701828
20
31.670176
30
0.0
11
383.701828
21
32.656871
31
0.0
0
ARC
8
00_ALUMINIO
10
381.701828
20
32.656871
30
0.0
40
2.000000
50
0.000000
51
15.000000
0
LINE
8
00_ALUMINIO
10
383.633680
20
33.174509
30
0.0
11
383.359484
21
34.197822
31
0.0
0
ARC
8
00_ALUMINIO
10
383.069706
20
34.120176
30
0.0
40
0.300000
50
15.000000
51
90.000000
0
LINE
8
00_ALUMINIO
10
383.069706
20
34.420176
30
0.0
11
367.001828
21
34.420176
31
0.0
0
ARC
8
00_ALUMINIO
10
367.001828
20
34.120176
30
0.0
40
0.300000
50
90.000000
51
180.000000
0
LINE
8
00_ALUMINIO
10
366.701828
20
34.120176
30
0.0
11
366.701828
21
10.420176
31
0.0
0
LINE
8
00_ALUMINIO
10
366.701828
20
10.420176
30
0.0
11
370.201828
21
10.420176
31
0.0
0
LINE
8
00_ALUMINIO
10
370.201828
20
10.420176
30
0.0
11
370.201828
21
8.320176
31
0.0
0
LINE
8
00_ALUMINIO
10
370.201828
20
8.320176
30
0.0
11
369.351828
21
7.470176
31
0.0
0
LINE
8
00_ALUMINIO
10
369.351828
20
7.470176
30
0.0
11
370.285034
21
6.152889
31
0.0
0
ARC
8
00_ALUMINIO
10
370.831783
20
6.540222
30
0.0
40
0.670045
50
215.314899
51
0.000000
0
LINE
8
00_ALUMINIO
10
371.501828
20
6.540222
30
0.0
11
371.501828
21
11.220176
31
0.0
0
ARC
8
00_ALUMINIO
10
371.001828
20
11.220176
30
0.0
40
0.500000
50
0.000000
51
90.000000
0
LINE
8
00_ALUMINIO
10
371.001828
20
11.720176
30
0.0
11
368.001828
21
11.720176
31
0.0
0
LINE
8
00_ALUMINIO
10
368.001828
20
11.720176
30
0.0
11
368.001828
21
33.120176
31
0.0
0
LINE
8
00_ALUMINIO
10
368.001828
20
33.120176
30
0.0
11
379.901828
21
33.120176
31
0.0
0
LINE
8
00_ALUMINIO
10
379.901828
20
33.120176
30
0.0
11
379.901828
21
23.920176
31
0.0
0
LINE
8
00_ALUMINIO
10
379.901828
20
23.920176
30
0.0
11
383.076198
21
10.170469
31
0.0
0
ARC
8
00_ALUMINIO
10
382.101828
20
9.945518
30
0.0
40
1.000000
50
0.000000
51
13.000000
0
LINE
8
00_ALUMINIO
10
383.101828
20
9.945518
30
0.0
11
383.101828
21
9.816623
31
0.0
0
LINE
8
00_ALUMINIO
10
383.101828
20
9.816623
30
0.0
11
383.101828
21
6.303688
31
0.0
0
ARC
8
00_ALUMINIO
10
383.535340
20
6.303688
30
0.0
40
0.433512
50
180.000000
51
317.313684
0
LINE
8
00_ALUMINIO
10
383.854005
20
6.009774
30
0.0
11
385.767663
21
8.084579
31
0.0
0
ARC
8
00_ALUMINIO
10
385.620648
20
8.220176
30
0.0
40
0.200000
50
317.313684
51
90.000000
0
LINE
8
00_ALUMINIO
10
385.620648
20
8.420176
30
0.0
11
385.233842
21
8.420176
31
0.0
0
ARC
8
00_ALUMINIO
10
385.233842
20
8.120176
30
0.0
40
0.300000
50
90.000000
51
140.000000
0
LINE
8
00_ALUMINIO
10
385.004029
20
8.313012
30
0.0
11
384.931641
21
8.226744
31
0.0
0
ARC
8
00_ALUMINIO
10
384.701828
20
8.419581
30
0.0
40
0.300000
50
180.000000
51
320.000000
0
LINE
8
00_ALUMINIO
10
384.401828
20
8.419581
30
0.0
11
384.401828
21
9.816623
31
0.0
0
ATTDEF
8
0
10
0.000000
20
0.000000
30
0.0
40
3.5
1

3

2
PANE_WIDTH:0
70
0
0
ATTDEF
8
0
10
0.000000
20
0.000000
30
0.0
40
3.5
1

3

2
MIN_VETRO:0
70
0
0
ATTDEF
8
0
10
0.000000
20
0.000000
30
0.0
40
3.5
1

3

2
MAX_VETRO:0
70
0
0
ATTDEF
8
0
10
0.000000
20
0.000000
30
0.0
40
3.5
1

3

2
JX:0
70
0
0
ATTDEF
8
0
10
0.000000
20
0.000000
30
0.0
40
3.5
1

3

2
WX:0
70
0
0
ATTDEF
8
0
10
0.000000
20
0.000000
30
0.0
40
3.5
1

3

2
JY:0
70
0
0
ATTDEF
8
0
10
0.000000
20
0.000000
30
0.0
40
3.5
1

3

2
WY:0
70
0
0
ATTDEF
8
0
10
0.000000
20
0.000000
30
0.0
40
3.5
1

3

2
DESC:Junquillo alto 17mm.
70
0
0
ATTDEF
8
0
10
0.000000
20
0.000000
30
0.0
40
3.5
1

3

2
DENS:0.2861
70
0
0
ATTDEF
8
0
10
0.000000
20
0.000000
30
0.0
40
3.5
1

3

2
TDEV:16.59
70
0
0
ATTDEF
8
0
10
0.000000
20
0.000000
30
0.0
40
3.5
1

3

2
TDEV2:0
70
0
0
ATTDEF
8
0
10
0.000000
20
0.000000
30
0.0
40
3.5
1

3

2
TDEV3:0
70
0
0
ATTDEF
8
0
10
0.000000
20
0.000000
30
0.0
40
3.5
1

3

2
TDEV4:0
70
0
0
ATTDEF
8
0
10
0.000000
20
0.000000
30
0.0
40
3.5
1

3

2
TDEV5:0
70
0
0
ATTDEF
8
0
10
0.000000
20
0.000000
30
0.0
40
3.5
1

3

2
PANE_WIDTH:0
70
0
0
ATTDEF
8
0
10
0.000000
20
0.000000
30
0.0
40
3.5
1

3

2
MIN_VETRO:0
70
0
0
ATTDEF
8
0
10
0.000000
20
0.000000
30
0.0
40
3.5
1

3

2
MAX_VETRO:0
70
0
0
ATTDEF
8
0
10
0.000000
20
0.000000
30
0.0
40
3.5
1

3

2
JX:0
70
0
0
ATTDEF
8
0
10
0.000000
20
0.000000
30
0.0
40
3.5
1

3

2
WX:0
70
0
0
ATTDEF
8
0
10
0.000000
20
0.000000
30
0.0
40
3.5
1

3

2
JY:0
70
0
0
ATTDEF
8
0
10
0.000000
20
0.000000
30
0.0
40
3.5
1

3

2
WY:0
70
0
0
ENDSEC
0
EOF
