0
SECTION
2
ENTITIES
0
LINE
8
0
10
1732.629731
20
2385.498890
30
0.0
11
1751.729731
21
2385.498890
31
0.0
0
LINE
8
0
10
1751.729731
20
2385.498890
30
0.0
11
1751.729731
21
2353.698890
31
0.0
0
LINE
8
0
10
1751.729731
20
2353.698890
30
0.0
11
1732.629731
21
2353.698890
31
0.0
0
LINE
8
0
10
1732.629731
20
2353.698890
30
0.0
11
1732.629731
21
2385.498890
31
0.0
0
ARC
8
0
10
1753.444394
20
2386.898890
30
0.0
40
0.200000
50
45.729847
51
90.000000
0
LINE
8
0
10
1753.444394
20
2387.098890
30
0.0
11
1750.829731
21
2387.098890
31
0.0
0
LINE
8
0
10
1750.829731
20
2387.098890
30
0.0
11
1750.829731
21
2391.798890
31
0.0
0
ARC
8
0
10
1750.529731
20
2391.798890
30
0.0
40
0.300000
50
0.000000
51
90.000000
0
LINE
8
0
10
1750.529731
20
2392.098890
30
0.0
11
1748.236838
21
2392.098890
31
0.0
0
ARC
8
0
10
1748.236838
20
2391.598890
30
0.0
40
0.500000
50
90.000000
51
135.000000
0
LINE
8
0
10
1747.883285
20
2391.952444
30
0.0
11
1747.176178
21
2391.245337
31
0.0
0
ARC
8
0
10
1747.529731
20
2390.891783
30
0.0
40
0.500000
50
135.000000
51
180.000000
0
LINE
8
0
10
1747.029731
20
2390.891783
30
0.0
11
1747.029731
21
2390.098890
31
0.0
0
LINE
8
0
10
1747.029731
20
2390.098890
30
0.0
11
1749.029731
21
2390.098890
31
0.0
0
LINE
8
0
10
1749.029731
20
2390.098890
30
0.0
11
1749.029731
21
2387.098890
31
0.0
0
LINE
8
0
10
1749.029731
20
2387.098890
30
0.0
11
1733.029731
21
2387.098890
31
0.0
0
LINE
8
0
10
1733.029731
20
2387.098890
30
0.0
11
1733.029731
21
2390.098890
31
0.0
0
LINE
8
0
10
1733.029731
20
2390.098890
30
0.0
11
1735.029731
21
2390.098890
31
0.0
0
LINE
8
0
10
1735.029731
20
2390.098890
30
0.0
11
1735.029731
21
2390.891783
31
0.0
0
ARC
8
0
10
1734.529731
20
2390.891783
30
0.0
40
0.500000
50
0.000000
51
45.000000
0
LINE
8
0
10
1734.883285
20
2391.245337
30
0.0
11
1734.176178
21
2391.952444
31
0.0
0
ARC
8
0
10
1733.822624
20
2391.598890
30
0.0
40
0.500000
50
45.000000
51
90.000000
0
LINE
8
0
10
1733.822624
20
2392.098890
30
0.0
11
1732.653995
21
2392.098890
31
0.0
0
ARC
8
0
10
1732.653995
20
2391.798890
30
0.0
40
0.300000
50
90.000000
51
135.000000
0
LINE
8
0
10
1732.441863
20
2392.011022
30
0.0
11
1731.117599
21
2390.686758
31
0.0
0
ARC
8
0
10
1731.329731
20
2390.474626
30
0.0
40
0.300000
50
135.000000
51
180.000000
0
LINE
8
0
10
1731.029731
20
2390.474626
30
0.0
11
1731.029731
21
2348.723154
31
0.0
0
ARC
8
0
10
1731.329731
20
2348.723154
30
0.0
40
0.300000
50
180.000000
51
225.000000
0
LINE
8
0
10
1731.117599
20
2348.511022
30
0.0
11
1732.441863
21
2347.186758
31
0.0
0
ARC
8
0
10
1732.653995
20
2347.398890
30
0.0
40
0.300000
50
225.000000
51
270.000000
0
LINE
8
0
10
1732.653995
20
2347.098890
30
0.0
11
1733.822624
21
2347.098890
31
0.0
0
ARC
8
0
10
1733.822624
20
2347.598890
30
0.0
40
0.500000
50
270.000000
51
315.000000
0
LINE
8
0
10
1734.176178
20
2347.245337
30
0.0
11
1734.883285
21
2347.952444
31
0.0
0
ARC
8
0
10
1734.529731
20
2348.305997
30
0.0
40
0.500000
50
315.000000
51
0.000000
0
LINE
8
0
10
1735.029731
20
2348.305997
30
0.0
11
1735.029731
21
2348.598890
31
0.0
0
LINE
8
0
10
1735.029731
20
2348.598890
30
0.0
11
1733.292473
21
2348.598890
31
0.0
0
LINE
8
0
10
1733.292473
20
2348.598890
30
0.0
11
1732.629731
21
2349.261632
31
0.0
0
LINE
8
0
10
1732.629731
20
2349.261632
30
0.0
11
1732.629731
21
2352.098890
31
0.0
0
LINE
8
0
10
1732.629731
20
2352.098890
30
0.0
11
1749.029731
21
2352.098890
31
0.0
0
LINE
8
0
10
1749.029731
20
2352.098890
30
0.0
11
1749.029731
21
2350.498890
31
0.0
0
LINE
8
0
10
1749.029731
20
2350.498890
30
0.0
11
1749.329731
21
2350.498890
31
0.0
0
ARC
8
0
10
1749.329731
20
2350.798890
30
0.0
40
0.300000
50
270.000000
51
336.242263
0
LINE
8
0
10
1749.604308
20
2350.678029
30
0.0
11
1750.229731
21
2352.098890
31
0.0
0
LINE
8
0
10
1750.229731
20
2352.098890
30
0.0
11
1753.444394
21
2352.098890
31
0.0
0
ARC
8
0
10
1753.444394
20
2352.298890
30
0.0
40
0.200000
50
270.000000
51
314.270153
0
ARC
8
0
10
1754.980087
20
2350.723566
30
0.0
40
2.000000
50
46.465725
51
134.270153
0
ARC
8
0
10
1756.702058
20
2352.535972
30
0.0
40
0.500000
50
226.465725
51
270.000000
0
LINE
8
0
10
1756.702058
20
2352.035972
30
0.0
11
1757.390854
21
2352.035972
31
0.0
0
ARC
8
0
10
1757.390854
20
2352.335972
30
0.0
40
0.300000
50
270.000000
51
30.497622
0
LINE
8
0
10
1757.649349
20
2352.488223
30
0.0
11
1756.225645
21
2354.905422
31
0.0
0
LINE
8
0
10
1756.225645
20
2354.905422
30
0.0
11
1756.183032
21
2354.961486
31
0.0
0
LINE
8
0
10
1756.183032
20
2354.961486
30
0.0
11
1755.722864
21
2355.438367
31
0.0
0
ARC
8
0
10
1755.618075
20
2355.337251
30
0.0
40
0.145621
50
43.978161
51
183.658900
0
LINE
8
0
10
1755.472751
20
2355.327958
30
0.0
11
1755.482680
21
2355.172693
31
0.0
0
ARC
8
0
10
1755.283087
20
2355.159930
30
0.0
40
0.200000
50
310.482877
51
3.658900
0
LINE
8
0
10
1755.412931
20
2355.007810
30
0.0
11
1753.808729
21
2353.638520
31
0.0
0
ARC
8
0
10
1753.613963
20
2353.866700
30
0.0
40
0.300000
50
288.658900
51
310.482877
0
LINE
8
0
10
1753.709943
20
2353.582468
30
0.0
11
1753.425711
21
2353.486488
31
0.0
0
ARC
8
0
10
1753.329731
20
2353.770720
30
0.0
40
0.300000
50
90.000000
51
288.658900
0
LINE
8
0
10
1753.329731
20
2354.070720
30
0.0
11
1753.329731
21
2358.570720
31
0.0
0
ARC
8
0
10
1753.529731
20
2358.570720
30
0.0
40
0.200000
50
90.000000
51
180.000000
0
LINE
8
0
10
1753.529731
20
2358.770720
30
0.0
11
1753.597620
21
2358.770720
31
0.0
0
ARC
8
0
10
1753.597620
20
2358.470720
30
0.0
40
0.300000
50
58.619868
51
90.000000
0
LINE
8
0
10
1753.753834
20
2358.726840
30
0.0
11
1755.429827
21
2357.704607
31
0.0
0
ARC
8
0
10
1755.629731
20
2357.698417
30
0.0
40
0.200000
50
178.226373
51
0.000000
0
LINE
8
0
10
1755.829731
20
2357.698417
30
0.0
11
1755.829731
21
2359.105407
31
0.0
0
ARC
8
0
10
1755.629731
20
2359.105407
30
0.0
40
0.200000
50
0.000000
51
58.619868
0
LINE
8
0
10
1755.733874
20
2359.276153
30
0.0
11
1753.665232
21
2360.537874
31
0.0
0
ARC
8
0
10
1754.029731
20
2361.135486
30
0.0
40
0.700000
50
180.000000
51
238.619868
0
LINE
8
0
10
1753.329731
20
2361.135486
30
0.0
11
1753.329731
21
2378.062295
31
0.0
0
ARC
8
0
10
1754.029731
20
2378.062295
30
0.0
40
0.700000
50
121.380132
51
180.000000
0
LINE
8
0
10
1753.665232
20
2378.659907
30
0.0
11
1755.733874
21
2379.921627
31
0.0
0
ARC
8
0
10
1755.629731
20
2380.092373
30
0.0
40
0.200000
50
301.380132
51
0.000000
0
LINE
8
0
10
1755.829731
20
2380.092373
30
0.0
11
1755.829731
21
2381.499364
31
0.0
0
ARC
8
0
10
1755.629731
20
2381.499364
30
0.0
40
0.200000
50
0.000000
51
181.773628
0
LINE
8
0
10
1755.429827
20
2381.493174
30
0.0
11
1753.753834
21
2380.470941
31
0.0
0
ARC
8
0
10
1753.597620
20
2380.727060
30
0.0
40
0.300000
50
270.000000
51
301.380132
0
LINE
8
0
10
1753.597620
20
2380.427060
30
0.0
11
1753.529731
21
2380.427060
31
0.0
0
ARC
8
0
10
1753.529731
20
2380.627060
30
0.0
40
0.200000
50
180.000000
51
270.000000
0
LINE
8
0
10
1753.329731
20
2380.627060
30
0.0
11
1753.329731
21
2385.127060
31
0.0
0
ARC
8
0
10
1753.329731
20
2385.427060
30
0.0
40
0.300000
50
71.341100
51
270.000000
0
LINE
8
0
10
1753.425711
20
2385.711292
30
0.0
11
1753.709943
21
2385.615312
31
0.0
0
ARC
8
0
10
1753.613963
20
2385.331080
30
0.0
40
0.300000
50
49.517123
51
71.341100
0
LINE
8
0
10
1753.808729
20
2385.559260
30
0.0
11
1755.412931
21
2384.189971
31
0.0
0
ARC
8
0
10
1755.283087
20
2384.037851
30
0.0
40
0.200000
50
356.341100
51
49.517123
0
LINE
8
0
10
1755.482680
20
2384.025088
30
0.0
11
1755.472751
21
2383.869823
31
0.0
0
ARC
8
0
10
1755.618075
20
2383.860530
30
0.0
40
0.145621
50
176.341100
51
316.021840
0
LINE
8
0
10
1755.722864
20
2383.759413
30
0.0
11
1756.183032
21
2384.236294
31
0.0
0
LINE
8
0
10
1756.183032
20
2384.236294
30
0.0
11
1756.225645
21
2384.292359
31
0.0
0
LINE
8
0
10
1756.225645
20
2384.292359
30
0.0
11
1757.649349
21
2386.709558
31
0.0
0
ARC
8
0
10
1757.390854
20
2386.861808
30
0.0
40
0.300000
50
329.502378
51
90.000000
0
LINE
8
0
10
1757.390854
20
2387.161808
30
0.0
11
1756.702058
21
2387.161808
31
0.0
0
ARC
8
0
10
1756.702058
20
2386.661808
30
0.0
40
0.500000
50
90.000000
51
133.534275
0
ARC
8
0
10
1754.980087
20
2388.474214
30
0.0
40
2.000000
50
225.729847
51
313.534275
0
LINE
8
0
10
1753.429731
20
2383.842169
30
0.0
11
1754.217282
21
2384.629719
31
0.0
0
LINE
8
0
10
1753.329731
20
2381.497105
30
0.0
11
1754.001519
21
2382.168893
31
0.0
0
LINE
8
0
10
1757.309315
20
2385.476688
30
0.0
11
1758.683033
21
2386.850407
31
0.0
0
LINE
8
0
10
1754.674612
20
2382.841985
30
0.0
11
1755.704598
21
2383.871972
31
0.0
0
LINE
8
0
10
1755.736361
20
2381.658671
30
0.0
11
1760.941464
21
2386.863774
31
0.0
0
LINE
8
0
10
1762.329731
20
2388.252041
30
0.0
11
1764.264484
21
2390.186793
31
0.0
0
LINE
8
0
10
1761.586528
20
2385.263774
30
0.0
11
1763.549013
21
2387.226259
31
0.0
0
LINE
8
0
10
1762.829731
20
2384.261913
30
0.0
11
1765.431592
21
2386.863774
31
0.0
0
LINE
8
0
10
1762.829731
20
2382.016849
30
0.0
11
1764.029731
21
2383.216849
31
0.0
0
LINE
8
0
10
1770.329731
20
2389.516849
30
0.0
11
1772.324922
21
2391.512040
31
0.0
0
LINE
8
0
10
1766.076656
20
2385.263774
30
0.0
11
1767.676656
21
2386.863774
31
0.0
0
LINE
8
0
10
1762.829731
20
2379.771785
30
0.0
11
1764.029731
21
2380.971785
31
0.0
0
LINE
8
0
10
1772.671720
20
2389.613774
30
0.0
11
1773.229731
21
2390.171785
31
0.0
0
LINE
8
0
10
1768.321720
20
2385.263774
30
0.0
11
1769.932368
21
2386.874421
31
0.0
0
LINE
8
0
10
1770.319083
20
2387.261137
30
0.0
11
1771.829731
21
2388.771785
31
0.0
0
LINE
8
0
10
1762.829731
20
2377.526721
30
0.0
11
1764.029731
21
2378.726721
31
0.0
0
LINE
8
0
10
1770.209061
20
2384.906051
30
0.0
11
1772.187454
21
2386.884444
31
0.0
0
LINE
8
0
10
1762.829731
20
2375.281657
30
0.0
11
1764.029731
21
2376.481657
31
0.0
0
LINE
8
0
10
1777.161848
20
2389.613774
30
0.0
11
1779.089234
21
2391.541159
31
0.0
0
LINE
8
0
10
1770.229731
20
2382.681657
30
0.0
11
1771.429731
21
2383.881657
31
0.0
0
LINE
8
0
10
1772.811848
20
2385.263774
30
0.0
11
1774.411848
21
2386.863774
31
0.0
0
LINE
8
0
10
1762.829731
20
2373.036593
30
0.0
11
1764.029731
21
2374.236593
31
0.0
0
LINE
8
0
10
1777.829731
20
2388.036593
30
0.0
11
1779.329731
21
2389.536593
31
0.0
0
LINE
8
0
10
1770.229731
20
2380.436593
30
0.0
11
1771.429731
21
2381.636593
31
0.0
0
LINE
8
0
10
1775.056912
20
2385.263774
30
0.0
11
1776.656912
21
2386.863774
31
0.0
0
LINE
8
0
10
1762.829731
20
2370.791529
30
0.0
11
1764.029731
21
2371.991529
31
0.0
0
LINE
8
0
10
1777.250565
20
2385.212363
30
0.0
11
1779.334329
21
2387.296126
31
0.0
0
LINE
8
0
10
1770.229731
20
2378.191529
30
0.0
11
1771.429731
21
2379.391529
31
0.0
0
LINE
8
0
10
1762.829731
20
2368.546464
30
0.0
11
1763.554217
21
2369.270951
31
0.0
0
LINE
8
0
10
1779.547040
20
2385.263774
30
0.0
11
1781.147040
21
2386.863774
31
0.0
0
LINE
8
0
10
1770.229731
20
2375.946464
30
0.0
11
1771.429731
21
2377.146464
31
0.0
0
LINE
8
0
10
1777.529731
20
2383.246464
30
0.0
11
1778.729731
21
2384.446464
31
0.0
0
LINE
8
0
10
1753.548367
20
2357.020036
30
0.0
11
1754.602201
21
2358.073870
31
0.0
0
LINE
8
0
10
1781.735979
20
2385.207649
30
0.0
11
1783.287601
21
2386.759270
31
0.0
0
LINE
8
0
10
1762.829731
20
2366.301400
30
0.0
11
1764.029731
21
2367.501400
31
0.0
0
LINE
8
0
10
1777.529731
20
2381.001400
30
0.0
11
1778.729731
21
2382.201400
31
0.0
0
LINE
8
0
10
1770.229731
20
2373.701400
30
0.0
11
1771.429731
21
2374.901400
31
0.0
0
LINE
8
0
10
1753.392416
20
2354.619022
30
0.0
11
1756.307402
21
2357.534007
31
0.0
0
LINE
8
0
10
1782.864942
20
2384.091547
30
0.0
11
1784.310750
21
2385.537355
31
0.0
0
LINE
8
0
10
1762.829731
20
2364.056336
30
0.0
11
1764.029731
21
2365.256336
31
0.0
0
LINE
8
0
10
1777.529731
20
2378.756336
30
0.0
11
1778.729731
21
2379.956336
31
0.0
0
LINE
8
0
10
1770.229731
20
2371.456336
30
0.0
11
1771.429731
21
2372.656336
31
0.0
0
LINE
8
0
10
1756.286584
20
2355.268125
30
0.0
11
1757.743351
21
2356.724892
31
0.0
0
LINE
8
0
10
1783.748873
20
2382.730414
30
0.0
11
1785.194680
21
2384.176222
31
0.0
0
LINE
8
0
10
1762.829731
20
2361.811272
30
0.0
11
1764.029731
21
2363.011272
31
0.0
0
LINE
8
0
10
1777.529731
20
2376.511272
30
0.0
11
1778.729731
21
2377.711272
31
0.0
0
LINE
8
0
10
1770.779947
20
2369.761488
30
0.0
11
1771.429731
21
2370.411272
31
0.0
0
LINE
8
0
10
1757.181473
20
2353.917951
30
0.0
11
1758.627281
21
2355.363759
31
0.0
0
LINE
8
0
10
1784.937436
20
2381.673913
30
0.0
11
1788.017540
21
2384.754017
31
0.0
0
LINE
8
0
10
1762.829731
20
2359.566208
30
0.0
11
1764.029731
21
2360.766208
31
0.0
0
LINE
8
0
10
1777.529731
20
2374.266208
30
0.0
11
1778.729731
21
2375.466208
31
0.0
0
LINE
8
0
10
1770.229731
20
2366.966208
30
0.0
11
1771.429731
21
2368.166208
31
0.0
0
LINE
8
0
10
1758.108429
20
2352.599842
30
0.0
11
1759.624972
21
2354.116385
31
0.0
0
LINE
8
0
10
1786.789779
20
2381.281192
30
0.0
11
1787.680962
21
2382.172375
31
0.0
0
LINE
8
0
10
1762.829731
20
2357.321144
30
0.0
11
1764.029731
21
2358.521144
31
0.0
0
LINE
8
0
10
1777.529731
20
2372.021144
30
0.0
11
1778.729731
21
2373.221144
31
0.0
0
LINE
8
0
10
1770.229731
20
2364.721144
30
0.0
11
1771.429731
21
2365.921144
31
0.0
0
LINE
8
0
10
1760.087658
20
2352.334007
30
0.0
11
1761.687658
21
2353.934007
31
0.0
0
LINE
8
0
10
1777.695289
20
2369.941638
30
0.0
11
1778.729731
21
2370.976080
31
0.0
0
LINE
8
0
10
1762.829731
20
2355.076080
30
0.0
11
1764.029731
21
2356.276080
31
0.0
0
LINE
8
0
10
1770.229731
20
2362.476080
30
0.0
11
1771.429731
21
2363.676080
31
0.0
0
LINE
8
0
10
1762.332722
20
2352.334007
30
0.0
11
1764.131016
21
2354.132301
31
0.0
0
LINE
8
0
10
1777.529731
20
2367.531016
30
0.0
11
1778.728019
21
2368.729304
31
0.0
0
LINE
8
0
10
1770.229731
20
2360.231016
30
0.0
11
1771.429731
21
2361.431016
31
0.0
0
LINE
8
0
10
1764.577786
20
2352.334007
30
0.0
11
1766.177786
21
2353.934007
31
0.0
0
LINE
8
0
10
1777.529731
20
2365.285952
30
0.0
11
1778.729731
21
2366.485952
31
0.0
0
LINE
8
0
10
1770.229731
20
2357.985952
30
0.0
11
1771.429731
21
2359.185952
31
0.0
0
LINE
8
0
10
1766.822850
20
2352.334007
30
0.0
11
1768.422850
21
2353.934007
31
0.0
0
LINE
8
0
10
1777.529731
20
2363.040888
30
0.0
11
1778.729731
21
2364.240888
31
0.0
0
LINE
8
0
10
1770.229731
20
2355.740888
30
0.0
11
1771.429731
21
2356.940888
31
0.0
0
LINE
8
0
10
1769.067914
20
2352.334007
30
0.0
11
1771.429731
21
2354.695824
31
0.0
0
LINE
8
0
10
1777.529731
20
2360.795824
30
0.0
11
1778.729731
21
2361.995824
31
0.0
0
LINE
8
0
10
1771.312978
20
2352.334007
30
0.0
11
1772.912978
21
2353.934007
31
0.0
0
LINE
8
0
10
1777.529731
20
2358.550760
30
0.0
11
1778.729731
21
2359.750760
31
0.0
0
LINE
8
0
10
1773.558042
20
2352.334007
30
0.0
11
1775.158042
21
2353.934007
31
0.0
0
LINE
8
0
10
1777.529731
20
2356.305696
30
0.0
11
1778.729731
21
2357.505696
31
0.0
0
LINE
8
0
10
1775.803106
20
2352.334007
30
0.0
11
1778.729731
21
2355.260632
31
0.0
0
LINE
8
0
10
1778.048170
20
2352.334007
30
0.0
11
1779.648170
21
2353.934007
31
0.0
0
LINE
8
0
10
1780.293234
20
2352.334007
30
0.0
11
1782.146101
21
2354.186874
31
0.0
0
LINE
8
0
10
1782.490685
20
2354.531457
30
0.0
11
1785.493234
21
2357.534007
31
0.0
0
LINE
8
0
10
1782.538298
20
2352.334007
30
0.0
11
1785.136945
21
2354.932654
31
0.0
0
LINE
8
0
10
1785.537411
20
2355.333120
30
0.0
11
1788.321073
21
2358.116782
31
0.0
0
LINE
8
0
10
1787.174885
20
2354.725530
30
0.0
11
1788.196194
21
2355.746839
31
0.0
0
LINE
8
0
10
1754.216129
20
2354.567382
30
0.0
11
1753.429731
21
2355.353779
31
0.0
0
LINE
8
0
10
1758.680874
20
2352.347701
30
0.0
11
1757.312709
21
2353.715866
31
0.0
0
LINE
8
0
10
1753.999902
20
2357.028673
30
0.0
11
1753.329731
21
2357.698843
31
0.0
0
LINE
8
0
10
1755.702950
20
2355.325625
30
0.0
11
1754.674397
21
2356.354178
31
0.0
0
LINE
8
0
10
1760.939632
20
2352.334007
30
0.0
11
1755.734340
21
2357.539299
31
0.0
0
LINE
8
0
10
1763.184696
20
2352.334007
30
0.0
11
1761.584696
21
2353.934007
31
0.0
0
LINE
8
0
10
1765.429760
20
2352.334007
30
0.0
11
1762.829731
21
2354.934035
31
0.0
0
LINE
8
0
10
1767.674824
20
2352.334007
30
0.0
11
1766.074824
21
2353.934007
31
0.0
0
LINE
8
0
10
1764.029731
20
2355.979099
30
0.0
11
1762.829731
21
2357.179099
31
0.0
0
LINE
8
0
10
1769.919888
20
2352.334007
30
0.0
11
1768.319888
21
2353.934007
31
0.0
0
LINE
8
0
10
1764.029731
20
2358.224164
30
0.0
11
1762.829731
21
2359.424164
31
0.0
0
LINE
8
0
10
1772.164952
20
2352.334007
30
0.0
11
1770.208640
21
2354.290319
31
0.0
0
LINE
8
0
10
1764.029731
20
2360.469228
30
0.0
11
1762.829731
21
2361.669228
31
0.0
0
LINE
8
0
10
1774.410016
20
2352.334007
30
0.0
11
1772.810016
21
2353.934007
31
0.0
0
LINE
8
0
10
1764.029731
20
2362.714292
30
0.0
11
1762.829731
21
2363.914292
31
0.0
0
LINE
8
0
10
1771.429731
20
2355.314292
30
0.0
11
1770.229731
21
2356.514292
31
0.0
0
LINE
8
0
10
1776.655080
20
2352.334007
30
0.0
11
1775.055080
21
2353.934007
31
0.0
0
LINE
8
0
10
1764.029731
20
2364.959356
30
0.0
11
1762.829731
21
2366.159356
31
0.0
0
LINE
8
0
10
1771.429731
20
2357.559356
30
0.0
11
1770.229731
21
2358.759356
31
0.0
0
LINE
8
0
10
1778.900144
20
2352.334007
30
0.0
11
1777.249336
21
2353.984815
31
0.0
0
LINE
8
0
10
1764.029731
20
2367.204420
30
0.0
11
1762.829731
21
2368.404420
31
0.0
0
LINE
8
0
10
1771.429731
20
2359.804420
30
0.0
11
1770.229731
21
2361.004420
31
0.0
0
LINE
8
0
10
1781.145208
20
2352.334007
30
0.0
11
1779.545208
21
2353.934007
31
0.0
0
LINE
8
0
10
1763.670260
20
2369.808955
30
0.0
11
1762.829731
21
2370.649484
31
0.0
0
LINE
8
0
10
1778.729731
20
2354.749484
30
0.0
11
1777.529731
21
2355.949484
31
0.0
0
LINE
8
0
10
1771.429731
20
2362.049484
30
0.0
11
1770.229731
21
2363.249484
31
0.0
0
LINE
8
0
10
1783.286334
20
2352.437945
30
0.0
11
1781.734561
21
2353.989718
31
0.0
0
LINE
8
0
10
1754.601047
20
2381.123232
30
0.0
11
1753.547327
21
2382.176952
31
0.0
0
LINE
8
0
10
1778.729731
20
2356.994548
30
0.0
11
1777.529731
21
2358.194548
31
0.0
0
LINE
8
0
10
1764.029731
20
2371.694548
30
0.0
11
1762.829731
21
2372.894548
31
0.0
0
LINE
8
0
10
1771.429731
20
2364.294548
30
0.0
11
1770.229731
21
2365.494548
31
0.0
0
LINE
8
0
10
1784.310029
20
2353.659314
30
0.0
11
1782.864221
21
2355.105122
31
0.0
0
LINE
8
0
10
1756.305569
20
2381.663774
30
0.0
11
1753.391705
21
2384.577638
31
0.0
0
LINE
8
0
10
1778.729731
20
2359.239612
30
0.0
11
1777.529731
21
2360.439612
31
0.0
0
LINE
8
0
10
1764.029731
20
2373.939612
30
0.0
11
1762.829731
21
2375.139612
31
0.0
0
LINE
8
0
10
1771.429731
20
2366.539612
30
0.0
11
1770.229731
21
2367.739612
31
0.0
0
LINE
8
0
10
1785.193959
20
2355.020448
30
0.0
11
1783.748151
21
2356.466256
31
0.0
0
LINE
8
0
10
1757.742629
20
2382.471777
30
0.0
11
1756.285564
21
2383.928842
31
0.0
0
LINE
8
0
10
1778.729731
20
2361.484676
30
0.0
11
1777.529731
21
2362.684676
31
0.0
0
LINE
8
0
10
1764.029731
20
2376.184676
30
0.0
11
1762.829731
21
2377.384676
31
0.0
0
LINE
8
0
10
1771.419368
20
2368.795039
30
0.0
11
1770.940763
21
2369.273644
31
0.0
0
LINE
8
0
10
1788.016041
20
2354.443430
30
0.0
11
1784.935817
21
2357.523654
31
0.0
0
LINE
8
0
10
1758.626560
20
2383.832911
30
0.0
11
1757.180752
21
2385.278719
31
0.0
0
LINE
8
0
10
1778.729731
20
2363.729740
30
0.0
11
1777.529731
21
2364.929740
31
0.0
0
LINE
8
0
10
1764.029731
20
2378.429740
30
0.0
11
1762.829731
21
2379.629740
31
0.0
0
LINE
8
0
10
1771.429731
20
2371.029740
30
0.0
11
1770.229731
21
2372.229740
31
0.0
0
LINE
8
0
10
1787.678756
20
2357.025779
30
0.0
11
1786.788625
21
2357.915910
31
0.0
0
LINE
8
0
10
1759.623803
20
2385.080732
30
0.0
11
1758.107415
21
2386.597120
31
0.0
0
LINE
8
0
10
1778.729731
20
2365.974804
30
0.0
11
1777.529731
21
2367.174804
31
0.0
0
LINE
8
0
10
1764.029731
20
2380.674804
30
0.0
11
1762.829731
21
2381.874804
31
0.0
0
LINE
8
0
10
1771.429731
20
2373.274804
30
0.0
11
1770.229731
21
2374.474804
31
0.0
0
LINE
8
0
10
1778.729731
20
2368.219868
30
0.0
11
1777.778871
21
2369.170728
31
0.0
0
LINE
8
0
10
1761.685825
20
2385.263774
30
0.0
11
1760.085825
21
2386.863774
31
0.0
0
LINE
8
0
10
1771.429731
20
2375.519868
30
0.0
11
1770.229731
21
2376.719868
31
0.0
0
LINE
8
0
10
1764.029731
20
2382.919868
30
0.0
11
1762.829731
21
2384.119868
31
0.0
0
LINE
8
0
10
1778.729731
20
2370.464932
30
0.0
11
1777.529731
21
2371.664932
31
0.0
0
LINE
8
0
10
1764.130228
20
2385.064435
30
0.0
11
1762.183863
21
2387.010800
31
0.0
0
LINE
8
0
10
1771.429731
20
2377.764932
30
0.0
11
1770.229731
21
2378.964932
31
0.0
0
LINE
8
0
10
1778.729731
20
2372.709996
30
0.0
11
1777.529731
21
2373.909996
31
0.0
0
LINE
8
0
10
1763.529731
20
2387.909996
30
0.0
11
1762.329731
21
2389.109996
31
0.0
0
LINE
8
0
10
1771.429731
20
2380.009996
30
0.0
11
1770.229731
21
2381.209996
31
0.0
0
LINE
8
0
10
1766.175953
20
2385.263774
30
0.0
11
1764.575953
21
2386.863774
31
0.0
0
LINE
8
0
10
1778.729731
20
2374.955060
30
0.0
11
1777.529731
21
2376.155060
31
0.0
0
LINE
8
0
10
1764.621017
20
2389.063774
30
0.0
11
1763.421017
21
2390.263774
31
0.0
0
LINE
8
0
10
1771.429731
20
2382.255060
30
0.0
11
1770.229731
21
2383.455060
31
0.0
0
LINE
8
0
10
1768.421017
20
2385.263774
30
0.0
11
1766.821017
21
2386.863774
31
0.0
0
LINE
8
0
10
1778.729731
20
2377.200124
30
0.0
11
1777.529731
21
2378.400124
31
0.0
0
LINE
8
0
10
1771.429731
20
2384.500124
30
0.0
11
1769.066081
21
2386.863774
31
0.0
0
LINE
8
0
10
1778.729731
20
2379.445188
30
0.0
11
1777.529731
21
2380.645188
31
0.0
0
LINE
8
0
10
1772.911145
20
2385.263774
30
0.0
11
1770.329731
21
2387.845188
31
0.0
0
LINE
8
0
10
1778.729731
20
2381.690252
30
0.0
11
1777.529731
21
2382.890252
31
0.0
0
LINE
8
0
10
1771.829731
20
2388.590252
30
0.0
11
1770.329731
21
2390.090252
31
0.0
0
LINE
8
0
10
1775.156210
20
2385.263774
30
0.0
11
1773.556210
21
2386.863774
31
0.0
0
LINE
8
0
10
1778.729731
20
2383.935316
30
0.0
11
1775.801274
21
2386.863774
31
0.0
0
LINE
8
0
10
1773.032956
20
2389.632092
30
0.0
11
1771.051274
21
2391.613774
31
0.0
0
LINE
8
0
10
1779.646338
20
2385.263774
30
0.0
11
1777.774591
21
2387.135520
31
0.0
0
LINE
8
0
10
1785.491402
20
2381.663774
30
0.0
11
1782.494874
21
2384.660301
31
0.0
0
LINE
8
0
10
1777.541638
20
2389.613537
30
0.0
11
1776.497375
21
2390.657800
31
0.0
0
LINE
8
0
10
1782.140079
20
2385.015096
30
0.0
11
1780.291402
21
2386.863774
31
0.0
0
LINE
8
0
10
1779.329731
20
2387.825444
30
0.0
11
1777.829495
21
2389.325680
31
0.0
0
LINE
8
0
10
1788.320750
20
2381.079489
30
0.0
11
1785.535418
21
2383.864821
31
0.0
0
LINE
8
0
10
1779.329731
20
2390.070508
30
0.0
11
1777.786466
21
2391.613774
31
0.0
0
LINE
8
0
10
1785.140339
20
2384.259900
30
0.0
11
1782.536466
21
2386.863774
31
0.0
0
LINE
8
0
10
1788.195567
20
2383.449736
30
0.0
11
1787.173732
21
2384.471571
31
0.0
0
ARC
8
0
10
1758.861645
20
2353.534007
30
0.0
40
1.200000
50
213.000000
51
270.000000
0
LINE
8
0
10
1758.861645
20
2352.334007
30
0.0
11
1761.829731
21
2352.334007
31
0.0
0
LINE
8
0
10
1761.829731
20
2352.334007
30
0.0
11
1779.829731
21
2352.334007
31
0.0
0
LINE
8
0
10
1779.829731
20
2352.334007
30
0.0
11
1782.797817
21
2352.334007
31
0.0
0
ARC
8
0
10
1782.797817
20
2353.534007
30
0.0
40
1.200000
50
270.000000
51
327.000000
0
LINE
8
0
10
1783.804222
20
2352.880440
30
0.0
11
1785.307758
21
2355.195682
31
0.0
0
ARC
8
0
10
1785.560465
20
2355.034007
30
0.0
40
0.300000
50
90.000000
51
147.390000
0
LINE
8
0
10
1785.560465
20
2355.334007
30
0.0
11
1785.814925
21
2355.334007
31
0.0
0
ARC
8
0
10
1785.814925
20
2354.134007
30
0.0
40
1.200000
50
58.993666
51
90.000000
0
LINE
8
0
10
1786.433085
20
2355.162539
30
0.0
11
1787.599254
21
2354.475526
31
0.0
0
ARC
8
0
10
1787.751529
20
2354.734007
30
0.0
40
0.300000
50
239.496833
51
270.000000
0
LINE
8
0
10
1787.751529
20
2354.434007
30
0.0
11
1787.929731
21
2354.434007
31
0.0
0
ARC
8
0
10
1787.929731
20
2354.834007
30
0.0
40
0.400000
50
270.000000
51
0.000000
0
LINE
8
0
10
1788.329731
20
2354.834007
30
0.0
11
1788.329731
21
2355.234007
31
0.0
0
ARC
8
0
10
1788.229731
20
2355.234007
30
0.0
40
0.100000
50
0.000000
51
90.000000
0
LINE
8
0
10
1788.229731
20
2355.334007
30
0.0
11
1788.229731
21
2355.609007
31
0.0
0
ARC
8
0
10
1787.929731
20
2355.609007
30
0.0
40
0.300000
50
0.000000
51
90.000000
0
LINE
8
0
10
1787.929731
20
2355.909007
30
0.0
11
1787.870205
21
2355.909007
31
0.0
0
ARC
8
0
10
1787.579731
20
2356.434007
30
0.0
40
0.600000
50
61.044976
51
298.955024
0
LINE
8
0
10
1787.870205
20
2356.959007
30
0.0
11
1787.929731
21
2356.959007
31
0.0
0
ARC
8
0
10
1787.929731
20
2357.259007
30
0.0
40
0.300000
50
270.000000
51
0.000000
0
LINE
8
0
10
1788.229731
20
2357.259007
30
0.0
11
1788.229731
21
2357.534007
31
0.0
0
ARC
8
0
10
1788.229731
20
2357.634007
30
0.0
40
0.100000
50
270.000000
51
0.000000
0
LINE
8
0
10
1788.329731
20
2357.634007
30
0.0
11
1788.329731
21
2358.034007
31
0.0
0
ARC
8
0
10
1787.929731
20
2358.034007
30
0.0
40
0.400000
50
0.000000
51
90.000000
0
LINE
8
0
10
1787.929731
20
2358.434007
30
0.0
11
1787.751396
21
2358.434007
31
0.0
0
ARC
8
0
10
1787.751396
20
2358.134007
30
0.0
40
0.300000
50
90.000000
51
120.455827
0
LINE
8
0
10
1787.599334
20
2358.392613
30
0.0
11
1786.429010
21
2357.704454
31
0.0
0
ARC
8
0
10
1785.812551
20
2358.734007
30
0.0
40
1.200000
50
270.000000
51
300.911655
0
LINE
8
0
10
1785.812551
20
2357.534007
30
0.0
11
1785.093104
21
2357.534007
31
0.0
0
ARC
8
0
10
1785.093104
20
2356.334007
30
0.0
40
1.200000
50
90.000000
51
147.000000
0
LINE
8
0
10
1784.086699
20
2356.987574
30
0.0
11
1782.517690
21
2354.571512
31
0.0
0
ARC
8
0
10
1781.343551
20
2355.334007
30
0.0
40
1.400000
50
270.000000
51
327.000000
0
LINE
8
0
10
1781.343551
20
2353.934007
30
0.0
11
1779.229731
21
2353.934007
31
0.0
0
ARC
8
0
10
1779.229731
20
2354.434007
30
0.0
40
0.500000
50
180.000000
51
270.000000
0
LINE
8
0
10
1778.729731
20
2354.434007
30
0.0
11
1778.729731
21
2368.684007
31
0.0
0
ARC
8
0
10
1778.129731
20
2368.684007
30
0.0
40
0.600000
50
0.000000
51
180.000000
0
LINE
8
0
10
1777.529731
20
2368.684007
30
0.0
11
1777.529731
21
2354.434007
31
0.0
0
ARC
8
0
10
1777.029731
20
2354.434007
30
0.0
40
0.500000
50
270.000000
51
0.000000
0
LINE
8
0
10
1777.029731
20
2353.934007
30
0.0
11
1771.929731
21
2353.934007
31
0.0
0
ARC
8
0
10
1771.929731
20
2354.434007
30
0.0
40
0.500000
50
180.000000
51
270.000000
0
LINE
8
0
10
1771.429731
20
2354.434007
30
0.0
11
1771.429731
21
2368.684007
31
0.0
0
ARC
8
0
10
1770.829731
20
2368.684007
30
0.0
40
0.600000
50
0.000000
51
180.000000
0
LINE
8
0
10
1770.229731
20
2368.684007
30
0.0
11
1770.229731
21
2354.434007
31
0.0
0
ARC
8
0
10
1769.729731
20
2354.434007
30
0.0
40
0.500000
50
270.000000
51
0.000000
0
LINE
8
0
10
1769.729731
20
2353.934007
30
0.0
11
1764.529731
21
2353.934007
31
0.0
0
ARC
8
0
10
1764.529731
20
2354.434007
30
0.0
40
0.500000
50
180.000000
51
270.000000
0
LINE
8
0
10
1764.029731
20
2354.434007
30
0.0
11
1764.029731
21
2368.684007
31
0.0
0
ARC
8
0
10
1763.429731
20
2368.684007
30
0.0
40
0.600000
50
0.000000
51
180.000000
0
LINE
8
0
10
1762.829731
20
2368.684007
30
0.0
11
1762.829731
21
2354.434007
31
0.0
0
ARC
8
0
10
1762.329731
20
2354.434007
30
0.0
40
0.500000
50
270.000000
51
0.000000
0
LINE
8
0
10
1762.329731
20
2353.934007
30
0.0
11
1760.315911
21
2353.934007
31
0.0
0
ARC
8
0
10
1760.315911
20
2355.334007
30
0.0
40
1.400000
50
213.000000
51
270.000000
0
LINE
8
0
10
1759.141772
20
2354.571512
30
0.0
11
1757.572763
21
2356.987574
31
0.0
0
ARC
8
0
10
1756.566359
20
2356.334007
30
0.0
40
1.200000
50
33.000000
51
90.000000
0
LINE
8
0
10
1756.566359
20
2357.534007
30
0.0
11
1755.846911
21
2357.534007
31
0.0
0
ARC
8
0
10
1755.846911
20
2358.734007
30
0.0
40
1.200000
50
239.088345
51
270.000000
0
LINE
8
0
10
1755.230452
20
2357.704454
30
0.0
11
1754.060128
21
2358.392613
31
0.0
0
ARC
8
0
10
1753.908066
20
2358.134007
30
0.0
40
0.300000
50
59.544173
51
90.000000
0
LINE
8
0
10
1753.908066
20
2358.434007
30
0.0
11
1753.729731
21
2358.434007
31
0.0
0
ARC
8
0
10
1753.729731
20
2358.034007
30
0.0
40
0.400000
50
90.000000
51
180.000000
0
LINE
8
0
10
1753.329731
20
2358.034007
30
0.0
11
1753.329731
21
2357.634007
31
0.0
0
ARC
8
0
10
1753.429731
20
2357.634007
30
0.0
40
0.100000
50
180.000000
51
270.000000
0
LINE
8
0
10
1753.429731
20
2357.534007
30
0.0
11
1753.429731
21
2357.259007
31
0.0
0
ARC
8
0
10
1753.729731
20
2357.259007
30
0.0
40
0.300000
50
180.000000
51
270.000000
0
LINE
8
0
10
1753.729731
20
2356.959007
30
0.0
11
1753.789257
21
2356.959007
31
0.0
0
ARC
8
0
10
1754.079731
20
2356.434007
30
0.0
40
0.600000
50
241.044976
51
118.955024
0
LINE
8
0
10
1753.789257
20
2355.909007
30
0.0
11
1753.729731
21
2355.909007
31
0.0
0
ARC
8
0
10
1753.729731
20
2355.609007
30
0.0
40
0.300000
50
90.000000
51
180.000000
0
LINE
8
0
10
1753.429731
20
2355.609007
30
0.0
11
1753.429731
21
2355.334007
31
0.0
0
ARC
8
0
10
1753.429731
20
2355.234007
30
0.0
40
0.100000
50
90.000000
51
180.000000
0
LINE
8
0
10
1753.329731
20
2355.234007
30
0.0
11
1753.329731
21
2354.834007
31
0.0
0
ARC
8
0
10
1753.729731
20
2354.834007
30
0.0
40
0.400000
50
180.000000
51
270.000000
0
LINE
8
0
10
1753.729731
20
2354.434007
30
0.0
11
1753.907933
21
2354.434007
31
0.0
0
ARC
8
0
10
1753.907933
20
2354.734007
30
0.0
40
0.300000
50
270.000000
51
300.503167
0
LINE
8
0
10
1754.060209
20
2354.475526
30
0.0
11
1755.226377
21
2355.162539
31
0.0
0
ARC
8
0
10
1755.844537
20
2354.134007
30
0.0
40
1.200000
50
90.000000
51
121.006334
0
LINE
8
0
10
1755.844537
20
2355.334007
30
0.0
11
1756.098997
21
2355.334007
31
0.0
0
ARC
8
0
10
1756.098997
20
2355.034007
30
0.0
40
0.300000
50
32.610000
51
90.000000
0
LINE
8
0
10
1756.351705
20
2355.195682
30
0.0
11
1757.855241
21
2352.880440
31
0.0
0
LINE
8
0
10
1758.861645
20
2386.863774
30
0.0
11
1761.829731
21
2386.863774
31
0.0
0
ARC
8
0
10
1761.829731
20
2387.363774
30
0.0
40
0.500000
50
270.000000
51
0.000000
0
LINE
8
0
10
1762.329731
20
2387.363774
30
0.0
11
1762.329731
21
2389.963774
31
0.0
0
ARC
8
0
10
1762.629731
20
2389.963774
30
0.0
40
0.300000
50
90.000000
51
180.000000
0
LINE
8
0
10
1762.629731
20
2390.263774
30
0.0
11
1763.529731
21
2390.263774
31
0.0
0
LINE
8
0
10
1763.529731
20
2390.263774
30
0.0
11
1763.879731
21
2390.263774
31
0.0
0
ARC
8
0
10
1763.879731
20
2389.263774
30
0.0
40
1.000000
50
0.000000
51
90.000000
0
ARC
8
0
10
1764.679731
20
2389.263774
30
0.0
40
0.200000
50
270.000000
51
0.000000
0
LINE
8
0
10
1764.679731
20
2389.063774
30
0.0
11
1763.829731
21
2389.063774
31
0.0
0
ARC
8
0
10
1763.829731
20
2388.763774
30
0.0
40
0.300000
50
90.000000
51
180.000000
0
LINE
8
0
10
1763.529731
20
2388.763774
30
0.0
11
1763.529731
21
2387.363774
31
0.0
0
ARC
8
0
10
1764.029731
20
2387.363774
30
0.0
40
0.500000
50
180.000000
51
270.000000
0
LINE
8
0
10
1764.029731
20
2386.863774
30
0.0
11
1769.829731
21
2386.863774
31
0.0
0
ARC
8
0
10
1769.829731
20
2387.363774
30
0.0
40
0.500000
50
270.000000
51
0.000000
0
LINE
8
0
10
1770.329731
20
2387.363774
30
0.0
11
1770.329731
21
2391.113774
31
0.0
0
ARC
8
0
10
1770.829731
20
2391.113774
30
0.0
40
0.500000
50
90.000000
51
180.000000
0
LINE
8
0
10
1770.829731
20
2391.613774
30
0.0
11
1772.022624
21
2391.613774
31
0.0
0
ARC
8
0
10
1772.022624
20
2391.113774
30
0.0
40
0.500000
50
45.000000
51
90.000000
0
LINE
8
0
10
1772.376178
20
2391.467327
30
0.0
11
1773.083285
21
2390.760220
31
0.0
0
ARC
8
0
10
1772.729731
20
2390.406667
30
0.0
40
0.500000
50
0.000000
51
45.000000
0
LINE
8
0
10
1773.229731
20
2390.406667
30
0.0
11
1773.229731
21
2389.913774
31
0.0
0
ARC
8
0
10
1772.929731
20
2389.913774
30
0.0
40
0.300000
50
270.000000
51
0.000000
0
LINE
8
0
10
1772.929731
20
2389.613774
30
0.0
11
1772.129731
21
2389.613774
31
0.0
0
ARC
8
0
10
1772.129731
20
2389.313774
30
0.0
40
0.300000
50
90.000000
51
180.000000
0
LINE
8
0
10
1771.829731
20
2389.313774
30
0.0
11
1771.829731
21
2387.363774
31
0.0
0
ARC
8
0
10
1772.329731
20
2387.363774
30
0.0
40
0.500000
50
180.000000
51
270.000000
0
LINE
8
0
10
1772.329731
20
2386.863774
30
0.0
11
1777.329731
21
2386.863774
31
0.0
0
ARC
8
0
10
1777.329731
20
2387.363774
30
0.0
40
0.500000
50
270.000000
51
0.000000
0
LINE
8
0
10
1777.829731
20
2387.363774
30
0.0
11
1777.829731
21
2389.313774
31
0.0
0
ARC
8
0
10
1777.529731
20
2389.313774
30
0.0
40
0.300000
50
0.000000
51
90.000000
0
LINE
8
0
10
1777.529731
20
2389.613774
30
0.0
11
1776.729731
21
2389.613774
31
0.0
0
ARC
8
0
10
1776.729731
20
2389.913774
30
0.0
40
0.300000
50
180.000000
51
270.000000
0
LINE
8
0
10
1776.429731
20
2389.913774
30
0.0
11
1776.429731
21
2390.406667
31
0.0
0
ARC
8
0
10
1776.929731
20
2390.406667
30
0.0
40
0.500000
50
135.000000
51
180.000000
0
LINE
8
0
10
1776.576178
20
2390.760220
30
0.0
11
1777.283285
21
2391.467327
31
0.0
0
ARC
8
0
10
1777.636838
20
2391.113774
30
0.0
40
0.500000
50
90.000000
51
135.000000
0
LINE
8
0
10
1777.636838
20
2391.613774
30
0.0
11
1778.829731
21
2391.613774
31
0.0
0
ARC
8
0
10
1778.829731
20
2391.113774
30
0.0
40
0.500000
50
0.000000
51
90.000000
0
LINE
8
0
10
1779.329731
20
2391.113774
30
0.0
11
1779.329731
21
2387.363774
31
0.0
0
ARC
8
0
10
1779.829731
20
2387.363774
30
0.0
40
0.500000
50
180.000000
51
270.000000
0
LINE
8
0
10
1779.829731
20
2386.863774
30
0.0
11
1782.797817
21
2386.863774
31
0.0
0
ARC
8
0
10
1782.797817
20
2385.663774
30
0.0
40
1.200000
50
33.000000
51
90.000000
0
LINE
8
0
10
1783.804222
20
2386.317341
30
0.0
11
1785.307758
21
2384.002098
31
0.0
0
ARC
8
0
10
1785.560465
20
2384.163774
30
0.0
40
0.300000
50
212.610000
51
270.000000
0
LINE
8
0
10
1785.560465
20
2383.863774
30
0.0
11
1785.814834
21
2383.863774
31
0.0
0
ARC
8
0
10
1785.814834
20
2385.063774
30
0.0
40
1.200000
50
270.000000
51
300.503167
0
LINE
8
0
10
1786.423937
20
2384.029852
30
0.0
11
1787.599254
21
2384.722254
31
0.0
0
ARC
8
0
10
1787.751529
20
2384.463774
30
0.0
40
0.300000
50
90.000000
51
120.503167
0
LINE
8
0
10
1787.751529
20
2384.763774
30
0.0
11
1787.929731
21
2384.763774
31
0.0
0
ARC
8
0
10
1787.929731
20
2384.363774
30
0.0
40
0.400000
50
0.000000
51
90.000000
0
LINE
8
0
10
1788.329731
20
2384.363774
30
0.0
11
1788.329731
21
2383.963774
31
0.0
0
ARC
8
0
10
1788.229731
20
2383.963774
30
0.0
40
0.100000
50
270.000000
51
0.000000
0
LINE
8
0
10
1788.229731
20
2383.863774
30
0.0
11
1788.229731
21
2383.588774
31
0.0
0
ARC
8
0
10
1787.929731
20
2383.588774
30
0.0
40
0.300000
50
254.493566
51
0.000000
0
ARC
8
0
10
1787.579731
20
2382.763774
30
0.0
40
0.600000
50
63.278126
51
296.721874
0
ARC
8
0
10
1787.929731
20
2381.938774
30
0.0
40
0.300000
50
0.000000
51
105.506434
0
LINE
8
0
10
1788.229731
20
2381.938774
30
0.0
11
1788.229731
21
2381.663774
31
0.0
0
ARC
8
0
10
1788.229731
20
2381.563774
30
0.0
40
0.100000
50
0.000000
51
90.000000
0
LINE
8
0
10
1788.329731
20
2381.563774
30
0.0
11
1788.329731
21
2381.163774
31
0.0
0
ARC
8
0
10
1787.929731
20
2381.163774
30
0.0
40
0.400000
50
270.000000
51
0.000000
0
LINE
8
0
10
1787.929731
20
2380.763774
30
0.0
11
1787.751396
21
2380.763774
31
0.0
0
ARC
8
0
10
1787.751396
20
2381.063774
30
0.0
40
0.300000
50
239.544173
51
270.000000
0
LINE
8
0
10
1787.599334
20
2380.805168
30
0.0
11
1786.429010
21
2381.493326
31
0.0
0
ARC
8
0
10
1785.812551
20
2380.463774
30
0.0
40
1.200000
50
59.088345
51
90.000000
0
LINE
8
0
10
1785.812551
20
2381.663774
30
0.0
11
1785.093104
21
2381.663774
31
0.0
0
ARC
8
0
10
1785.093104
20
2382.863774
30
0.0
40
1.200000
50
213.000000
51
270.000000
0
LINE
8
0
10
1784.086699
20
2382.210207
30
0.0
11
1782.517690
21
2384.626268
31
0.0
0
ARC
8
0
10
1781.343551
20
2383.863774
30
0.0
40
1.400000
50
33.000000
51
90.000000
0
LINE
8
0
10
1781.343551
20
2385.263774
30
0.0
11
1779.229731
21
2385.263774
31
0.0
0
ARC
8
0
10
1779.229731
20
2384.763774
30
0.0
40
0.500000
50
90.000000
51
180.000000
0
LINE
8
0
10
1778.729731
20
2384.763774
30
0.0
11
1778.729731
21
2370.263774
31
0.0
0
ARC
8
0
10
1778.129731
20
2370.368525
30
0.0
40
0.609075
50
189.903232
51
350.096768
0
LINE
8
0
10
1777.529731
20
2370.263774
30
0.0
11
1777.529731
21
2384.763774
31
0.0
0
ARC
8
0
10
1777.029731
20
2384.763774
30
0.0
40
0.500000
50
0.000000
51
90.000000
0
LINE
8
0
10
1777.029731
20
2385.263774
30
0.0
11
1771.929731
21
2385.263774
31
0.0
0
ARC
8
0
10
1771.929731
20
2384.763774
30
0.0
40
0.500000
50
90.000000
51
180.000000
0
LINE
8
0
10
1771.429731
20
2384.763774
30
0.0
11
1771.429731
21
2370.263774
31
0.0
0
ARC
8
0
10
1770.829731
20
2370.368525
30
0.0
40
0.609075
50
189.903232
51
350.096768
0
LINE
8
0
10
1770.229731
20
2370.263774
30
0.0
11
1770.229731
21
2384.763774
31
0.0
0
ARC
8
0
10
1769.729731
20
2384.763774
30
0.0
40
0.500000
50
0.000000
51
90.000000
0
LINE
8
0
10
1769.729731
20
2385.263774
30
0.0
11
1764.529731
21
2385.263774
31
0.0
0
ARC
8
0
10
1764.529731
20
2384.763774
30
0.0
40
0.500000
50
90.000000
51
180.000000
0
LINE
8
0
10
1764.029731
20
2384.763774
30
0.0
11
1764.029731
21
2370.263774
31
0.0
0
ARC
8
0
10
1763.429731
20
2370.368525
30
0.0
40
0.609075
50
189.903232
51
350.096768
0
LINE
8
0
10
1762.829731
20
2370.263774
30
0.0
11
1762.829731
21
2384.763774
31
0.0
0
ARC
8
0
10
1762.329731
20
2384.763774
30
0.0
40
0.500000
50
0.000000
51
90.000000
0
LINE
8
0
10
1762.329731
20
2385.263774
30
0.0
11
1760.315911
21
2385.263774
31
0.0
0
ARC
8
0
10
1760.315911
20
2383.863774
30
0.0
40
1.400000
50
90.000000
51
147.000000
0
LINE
8
0
10
1759.141772
20
2384.626268
30
0.0
11
1757.572763
21
2382.210207
31
0.0
0
ARC
8
0
10
1756.566359
20
2382.863774
30
0.0
40
1.200000
50
270.000000
51
327.000000
0
LINE
8
0
10
1756.566359
20
2381.663774
30
0.0
11
1755.846911
21
2381.663774
31
0.0
0
ARC
8
0
10
1755.846911
20
2380.463774
30
0.0
40
1.200000
50
90.000000
51
120.911655
0
LINE
8
0
10
1755.230452
20
2381.493326
30
0.0
11
1754.060128
21
2380.805168
31
0.0
0
ARC
8
0
10
1753.908066
20
2381.063774
30
0.0
40
0.300000
50
270.000000
51
300.455827
0
LINE
8
0
10
1753.908066
20
2380.763774
30
0.0
11
1753.729731
21
2380.763774
31
0.0
0
ARC
8
0
10
1753.729731
20
2381.163774
30
0.0
40
0.400000
50
180.000000
51
270.000000
0
LINE
8
0
10
1753.329731
20
2381.163774
30
0.0
11
1753.329731
21
2381.563774
31
0.0
0
ARC
8
0
10
1753.429731
20
2381.563774
30
0.0
40
0.100000
50
90.000000
51
180.000000
0
LINE
8
0
10
1753.429731
20
2381.663774
30
0.0
11
1753.429731
21
2381.938774
31
0.0
0
ARC
8
0
10
1753.729731
20
2381.938774
30
0.0
40
0.300000
50
74.493566
51
180.000000
0
ARC
8
0
10
1754.079731
20
2382.763774
30
0.0
40
0.600000
50
243.278126
51
116.721874
0
ARC
8
0
10
1753.729731
20
2383.588774
30
0.0
40
0.300000
50
180.000000
51
285.506434
0
LINE
8
0
10
1753.429731
20
2383.588774
30
0.0
11
1753.429731
21
2383.863774
31
0.0
0
ARC
8
0
10
1753.429731
20
2383.963774
30
0.0
40
0.100000
50
180.000000
51
270.000000
0
LINE
8
0
10
1753.329731
20
2383.963774
30
0.0
11
1753.329731
21
2384.363774
31
0.0
0
ARC
8
0
10
1753.729731
20
2384.363774
30
0.0
40
0.400000
50
90.000000
51
180.000000
0
LINE
8
0
10
1753.729731
20
2384.763774
30
0.0
11
1753.907933
21
2384.763774
31
0.0
0
ARC
8
0
10
1753.907933
20
2384.463774
30
0.0
40
0.300000
50
59.496833
51
90.000000
0
LINE
8
0
10
1754.060209
20
2384.722254
30
0.0
11
1755.235525
21
2384.029852
31
0.0
0
ARC
8
0
10
1755.844628
20
2385.063774
30
0.0
40
1.200000
50
239.496833
51
270.000000
0
LINE
8
0
10
1755.844628
20
2383.863774
30
0.0
11
1756.098997
21
2383.863774
31
0.0
0
ARC
8
0
10
1756.098997
20
2384.163774
30
0.0
40
0.300000
50
270.000000
51
327.390000
0
LINE
8
0
10
1756.351705
20
2384.002098
30
0.0
11
1757.855241
21
2386.317341
31
0.0
0
ARC
8
0
10
1758.861645
20
2385.663774
30
0.0
40
1.200000
50
90.000000
51
147.000000
0
LINE
8
0
10
1799.429731
20
2384.498890
30
0.0
11
1799.429731
21
2353.698890
31
0.0
0
LINE
8
0
10
1799.429731
20
2353.698890
30
0.0
11
1789.929731
21
2353.698890
31
0.0
0
LINE
8
0
10
1789.929731
20
2353.698890
30
0.0
11
1789.929731
21
2384.498890
31
0.0
0
LINE
8
0
10
1789.929731
20
2384.498890
30
0.0
11
1799.429731
21
2384.498890
31
0.0
0
LINE
8
0
10
1788.329731
20
2387.208926
30
0.0
11
1788.329731
21
2387.598890
31
0.0
0
LINE
8
0
10
1788.329731
20
2387.598890
30
0.0
11
1789.829731
21
2387.598890
31
0.0
0
LINE
8
0
10
1789.829731
20
2387.598890
30
0.0
11
1789.829731
21
2386.098890
31
0.0
0
LINE
8
0
10
1789.829731
20
2386.098890
30
0.0
11
1798.514537
21
2386.098890
31
0.0
0
ARC
8
0
10
1798.514537
20
2386.598890
30
0.0
40
0.500000
50
270.000000
51
358.285023
0
LINE
8
0
10
1799.014313
20
2386.583926
30
0.0
11
1799.329731
21
2397.118613
31
0.0
0
LINE
8
0
10
1799.329731
20
2397.118613
30
0.0
11
1799.329731
21
2409.842266
31
0.0
0
ARC
8
0
10
1799.029731
20
2409.842266
30
0.0
40
0.300000
50
0.000000
51
120.000000
0
LINE
8
0
10
1798.879731
20
2410.102074
30
0.0
11
1795.526141
21
2408.165878
31
0.0
0
ARC
8
0
10
1795.276141
20
2408.598890
30
0.0
40
0.500000
50
270.000000
51
300.000000
0
LINE
8
0
10
1795.276141
20
2408.098890
30
0.0
11
1793.829731
21
2408.098890
31
0.0
0
ARC
8
0
10
1793.829731
20
2408.598890
30
0.0
40
0.500000
50
180.000000
51
270.000000
0
LINE
8
0
10
1793.329731
20
2408.598890
30
0.0
11
1793.329731
21
2410.148890
31
0.0
0
ARC
8
0
10
1793.829731
20
2410.148890
30
0.0
40
0.500000
50
90.000000
51
180.000000
0
LINE
8
0
10
1793.829731
20
2410.648890
30
0.0
11
1794.529731
21
2410.648890
31
0.0
0
LINE
8
0
10
1794.529731
20
2410.648890
30
0.0
11
1794.529731
21
2409.398890
31
0.0
0
LINE
8
0
10
1794.529731
20
2409.398890
30
0.0
11
1795.061782
21
2409.398890
31
0.0
0
LINE
8
0
10
1795.061782
20
2409.398890
30
0.0
11
1799.179731
21
2411.776389
31
0.0
0
ARC
8
0
10
1799.029731
20
2412.036197
30
0.0
40
0.300000
50
300.000000
51
0.000000
0
LINE
8
0
10
1799.329731
20
2412.036197
30
0.0
11
1799.329731
21
2415.398890
31
0.0
0
LINE
8
0
10
1799.329731
20
2415.398890
30
0.0
11
1794.529731
21
2415.398890
31
0.0
0
LINE
8
0
10
1794.529731
20
2415.398890
30
0.0
11
1794.529731
21
2414.148890
31
0.0
0
LINE
8
0
10
1794.529731
20
2414.148890
30
0.0
11
1793.829731
21
2414.148890
31
0.0
0
ARC
8
0
10
1793.829731
20
2414.648890
30
0.0
40
0.500000
50
180.000000
51
270.000000
0
LINE
8
0
10
1793.329731
20
2414.648890
30
0.0
11
1793.329731
21
2416.598890
31
0.0
0
ARC
8
0
10
1793.829731
20
2416.598890
30
0.0
40
0.500000
50
90.000000
51
180.000000
0
LINE
8
0
10
1793.829731
20
2417.098890
30
0.0
11
1800.729731
21
2417.098890
31
0.0
0
ARC
8
0
10
1800.729731
20
2416.798890
30
0.0
40
0.300000
50
0.000000
51
90.000000
0
LINE
8
0
10
1801.029731
20
2416.798890
30
0.0
11
1801.029731
21
2348.723154
31
0.0
0
ARC
8
0
10
1800.729731
20
2348.723154
30
0.0
40
0.300000
50
315.000000
51
0.000000
0
LINE
8
0
10
1800.941863
20
2348.511022
30
0.0
11
1799.617599
21
2347.186758
31
0.0
0
ARC
8
0
10
1799.405467
20
2347.398890
30
0.0
40
0.300000
50
270.000000
51
315.000000
0
LINE
8
0
10
1799.405467
20
2347.098890
30
0.0
11
1798.236838
21
2347.098890
31
0.0
0
ARC
8
0
10
1798.236838
20
2347.598890
30
0.0
40
0.500000
50
225.000000
51
270.000000
0
LINE
8
0
10
1797.883285
20
2347.245337
30
0.0
11
1797.176178
21
2347.952444
31
0.0
0
ARC
8
0
10
1797.529731
20
2348.305997
30
0.0
40
0.500000
50
180.000000
51
225.000000
0
LINE
8
0
10
1797.029731
20
2348.305997
30
0.0
11
1797.029731
21
2348.598890
31
0.0
0
LINE
8
0
10
1797.029731
20
2348.598890
30
0.0
11
1798.766989
21
2348.598890
31
0.0
0
LINE
8
0
10
1798.766989
20
2348.598890
30
0.0
11
1799.429731
21
2349.261632
31
0.0
0
LINE
8
0
10
1799.429731
20
2349.261632
30
0.0
11
1799.429731
21
2352.098890
31
0.0
0
LINE
8
0
10
1799.429731
20
2352.098890
30
0.0
11
1789.529731
21
2352.098890
31
0.0
0
LINE
8
0
10
1789.529731
20
2352.098890
30
0.0
11
1789.529731
21
2350.498890
31
0.0
0
LINE
8
0
10
1789.529731
20
2350.498890
30
0.0
11
1789.229731
21
2350.498890
31
0.0
0
ARC
8
0
10
1789.229731
20
2350.798890
30
0.0
40
0.300000
50
203.757737
51
270.000000
0
LINE
8
0
10
1788.955154
20
2350.678029
30
0.0
11
1788.289624
21
2352.190008
31
0.0
0
ARC
8
0
10
1786.982673
20
2350.973990
30
0.0
40
1.785166
50
42.935817
51
66.982550
0
LINE
8
0
10
1787.680693
20
2352.617032
30
0.0
11
1786.901869
21
2352.933174
31
0.0
0
ARC
8
0
10
1786.808313
20
2351.135607
30
0.0
40
1.800000
50
87.020673
51
146.279610
0
LINE
8
0
10
1785.311151
20
2352.134860
30
0.0
11
1784.257955
21
2352.127944
31
0.0
0
LINE
8
0
10
1784.257955
20
2352.127944
30
0.0
11
1784.247698
21
2352.127921
31
0.0
0
ARC
8
0
10
1784.250868
20
2352.427904
30
0.0
40
0.300000
50
163.748585
51
269.394588
0
LINE
8
0
10
1783.962855
20
2352.511860
30
0.0
11
1785.932827
21
2355.248719
31
0.0
0
ARC
8
0
10
1786.051015
20
2355.163648
30
0.0
40
0.145621
50
0.000000
51
144.253920
0
LINE
8
0
10
1786.196636
20
2355.163648
30
0.0
11
1786.196636
21
2355.008066
31
0.0
0
ARC
8
0
10
1786.396636
20
2355.008066
30
0.0
40
0.200000
50
180.000000
51
241.256452
0
LINE
8
0
10
1786.300458
20
2354.832710
30
0.0
11
1787.864181
21
2353.929839
31
0.0
0
ARC
8
0
10
1788.144887
20
2353.823991
30
0.0
40
0.300000
50
159.339688
51
255.000000
0
LINE
8
0
10
1788.067241
20
2353.534213
30
0.0
11
1788.297866
21
2353.472418
31
0.0
0
ARC
8
0
10
1788.329731
20
2353.770720
30
0.0
40
0.300000
50
263.902651
51
89.999996
0
LINE
8
0
10
1788.329731
20
2354.070720
30
0.0
11
1788.329731
21
2358.570720
31
0.0
0
ARC
8
0
10
1788.129731
20
2358.570720
30
0.0
40
0.200000
50
0.000000
51
90.000000
0
LINE
8
0
10
1788.129731
20
2358.770720
30
0.0
11
1788.061842
21
2358.770720
31
0.0
0
ARC
8
0
10
1788.061842
20
2358.470720
30
0.0
40
0.300000
50
90.000000
51
121.380132
0
LINE
8
0
10
1787.905628
20
2358.726840
30
0.0
11
1786.229635
21
2357.704607
31
0.0
0
ARC
8
0
10
1786.029731
20
2357.698417
30
0.0
40
0.200000
50
180.000000
51
1.773627
0
LINE
8
0
10
1785.829731
20
2357.698417
30
0.0
11
1785.829731
21
2359.105407
31
0.0
0
ARC
8
0
10
1786.029731
20
2359.105407
30
0.0
40
0.200000
50
121.380132
51
180.000000
0
LINE
8
0
10
1785.925588
20
2359.276153
30
0.0
11
1787.994231
21
2360.537874
31
0.0
0
ARC
8
0
10
1787.629731
20
2361.135486
30
0.0
40
0.700000
50
301.380132
51
0.000000
0
LINE
8
0
10
1788.329731
20
2361.135486
30
0.0
11
1788.329731
21
2378.062295
31
0.0
0
ARC
8
0
10
1787.629731
20
2378.062295
30
0.0
40
0.700000
50
0.000000
51
58.619868
0
LINE
8
0
10
1787.994231
20
2378.659907
30
0.0
11
1785.925588
21
2379.921627
31
0.0
0
ARC
8
0
10
1786.029731
20
2380.092373
30
0.0
40
0.200000
50
180.000000
51
238.619868
0
LINE
8
0
10
1785.829731
20
2380.092373
30
0.0
11
1785.829731
21
2381.499364
31
0.0
0
ARC
8
0
10
1786.029731
20
2381.499364
30
0.0
40
0.200000
50
358.226373
51
180.000000
0
LINE
8
0
10
1786.229635
20
2381.493174
30
0.0
11
1787.905628
21
2380.470941
31
0.0
0
ARC
8
0
10
1788.061842
20
2380.727060
30
0.0
40
0.300000
50
238.619868
51
270.000000
0
LINE
8
0
10
1788.061842
20
2380.427060
30
0.0
11
1788.129731
21
2380.427060
31
0.0
0
ARC
8
0
10
1788.129731
20
2380.627060
30
0.0
40
0.200000
50
270.000000
51
0.000000
0
LINE
8
0
10
1788.329731
20
2380.627060
30
0.0
11
1788.329731
21
2385.127060
31
0.0
0
ARC
8
0
10
1788.329731
20
2385.427060
30
0.0
40
0.300000
50
270.000000
51
83.513496
0
LINE
8
0
10
1788.363622
20
2385.725140
30
0.0
11
1788.120670
21
2385.660041
31
0.0
0
ARC
8
0
10
1788.198316
20
2385.370263
30
0.0
40
0.300000
50
105.000000
51
200.660312
0
LINE
8
0
10
1787.917609
20
2385.264415
30
0.0
11
1786.353887
21
2384.361544
31
0.0
0
ARC
8
0
10
1786.450065
20
2384.186188
30
0.0
40
0.200000
50
118.743548
51
180.000000
0
LINE
8
0
10
1786.250065
20
2384.186188
30
0.0
11
1786.250065
21
2384.030606
31
0.0
0
ARC
8
0
10
1786.104444
20
2384.030606
30
0.0
40
0.145621
50
215.746080
51
0.000000
0
LINE
8
0
10
1785.986256
20
2383.945535
30
0.0
11
1784.016284
21
2386.682394
31
0.0
0
ARC
8
0
10
1784.304297
20
2386.766350
30
0.0
40
0.300000
50
90.605413
51
196.251415
0
LINE
8
0
10
1784.301127
20
2387.066334
30
0.0
11
1784.311384
21
2387.066310
31
0.0
0
LINE
8
0
10
1784.311384
20
2387.066310
30
0.0
11
1785.364580
21
2387.059394
31
0.0
0
ARC
8
0
10
1786.861742
20
2388.058647
30
0.0
40
1.800000
50
213.720390
51
272.979327
0
LINE
8
0
10
1786.955298
20
2386.261080
30
0.0
11
1787.732008
21
2386.576364
31
0.0
0
ARC
8
0
10
1787.425289
20
2387.464873
30
0.0
40
0.939960
50
289.045036
51
344.199128
0
ATTDEF
8
0
10
0.000000
20
0.000000
30
0.0
40
3.5
1

3

2
PANE_WIDTH:0
70
0
0
ATTDEF
8
0
10
0.000000
20
0.000000
30
0.0
40
3.5
1

3

2
MIN_VETRO:0
70
0
0
ATTDEF
8
0
10
0.000000
20
0.000000
30
0.0
40
3.5
1

3

2
MAX_VETRO:0
70
0
0
ATTDEF
8
0
10
0.000000
20
0.000000
30
0.0
40
3.5
1

3

2
JX:0
70
0
0
ATTDEF
8
0
10
0.000000
20
0.000000
30
0.0
40
3.5
1

3

2
WX:0
70
0
0
ATTDEF
8
0
10
0.000000
20
0.000000
30
0.0
40
3.5
1

3

2
JY:0
70
0
0
ATTDEF
8
0
10
0.000000
20
0.000000
30
0.0
40
3.5
1

3

2
WY:0
70
0
0
ATTDEF
8
0
10
0.000000
20
0.000000
30
0.0
40
3.5
1

3

2
DESC:Marco balconera AI est.recta
70
0
0
ATTDEF
8
0
10
0.000000
20
0.000000
30
0.0
40
3.5
1

3

2
DENS:1.8349
70
0
0
ATTDEF
8
0
10
0.000000
20
0.000000
30
0.0
40
3.5
1

3

2
TDEV:60.2
70
0
0
ATTDEF
8
0
10
0.000000
20
0.000000
30
0.0
40
3.5
1

3

2
TDEV2:0
70
0
0
ATTDEF
8
0
10
0.000000
20
0.000000
30
0.0
40
3.5
1

3

2
TDEV3:0
70
0
0
ATTDEF
8
0
10
0.000000
20
0.000000
30
0.0
40
3.5
1

3

2
TDEV4:0
70
0
0
ATTDEF
8
0
10
0.000000
20
0.000000
30
0.0
40
3.5
1

3

2
TDEV5:0
70
0
0
ATTDEF
8
0
10
0.000000
20
0.000000
30
0.0
40
3.5
1

3

2
PANE_WIDTH:0
70
0
0
ATTDEF
8
0
10
0.000000
20
0.000000
30
0.0
40
3.5
1

3

2
MIN_VETRO:0
70
0
0
ATTDEF
8
0
10
0.000000
20
0.000000
30
0.0
40
3.5
1

3

2
MAX_VETRO:0
70
0
0
ATTDEF
8
0
10
0.000000
20
0.000000
30
0.0
40
3.5
1

3

2
JX:0
70
0
0
ATTDEF
8
0
10
0.000000
20
0.000000
30
0.0
40
3.5
1

3

2
WX:0
70
0
0
ATTDEF
8
0
10
0.000000
20
0.000000
30
0.0
40
3.5
1

3

2
JY:0
70
0
0
ATTDEF
8
0
10
0.000000
20
0.000000
30
0.0
40
3.5
1

3

2
WY:0
70
0
0
ENDSEC
0
EOF
