0
SECTION
2
ENTITIES
0
LINE
8
0
10
2420.124474
20
858.470866
30
0.0
11
2420.493424
21
858.839815
31
0.0
0
LINE
8
0
10
2421.225442
20
857.326769
30
0.0
11
2422.015247
21
858.116574
31
0.0
0
LINE
8
0
10
2421.273326
20
855.129589
30
0.0
11
2423.936895
21
857.793158
31
0.0
0
LINE
8
0
10
2423.478449
20
855.089648
30
0.0
11
2424.924257
21
856.535456
31
0.0
0
LINE
8
0
10
2424.362379
20
853.728515
30
0.0
11
2425.808193
21
855.174329
31
0.0
0
LINE
8
0
10
2425.620373
20
852.741444
30
0.0
11
2427.419865
21
854.540937
31
0.0
0
LINE
8
0
10
2427.864929
20
852.740937
30
0.0
11
2429.664929
21
854.540937
31
0.0
0
LINE
8
0
10
2430.109993
20
852.740937
30
0.0
11
2431.909993
21
854.540937
31
0.0
0
LINE
8
0
10
2432.355057
20
852.740937
30
0.0
11
2434.155057
21
854.540937
31
0.0
0
LINE
8
0
10
2434.600121
20
852.740937
30
0.0
11
2436.400121
21
854.540937
31
0.0
0
LINE
8
0
10
2436.845185
20
852.740937
30
0.0
11
2438.645185
21
854.540937
31
0.0
0
LINE
8
0
10
2439.090249
20
852.740937
30
0.0
11
2440.890249
21
854.540937
31
0.0
0
LINE
8
0
10
2441.335313
20
852.740937
30
0.0
11
2443.135313
21
854.540937
31
0.0
0
LINE
8
0
10
2443.580377
20
852.740937
30
0.0
11
2445.380377
21
854.540937
31
0.0
0
LINE
8
0
10
2445.825442
20
852.740937
30
0.0
11
2447.625442
21
854.540937
31
0.0
0
LINE
8
0
10
2448.070506
20
852.740937
30
0.0
11
2453.752547
21
858.422978
31
0.0
0
LINE
8
0
10
2453.173965
20
855.599332
30
0.0
11
2453.970723
21
856.396090
31
0.0
0
LINE
8
0
10
2454.660634
20
854.840937
30
0.0
11
2455.123353
21
855.303656
31
0.0
0
LINE
8
0
10
2421.308856
20
855.150521
30
0.0
11
2420.275061
21
856.184315
31
0.0
0
LINE
8
0
10
2425.963504
20
852.740937
30
0.0
11
2423.225898
21
855.478543
31
0.0
0
LINE
8
0
10
2422.975052
20
855.729389
30
0.0
11
2420.142192
21
858.562249
31
0.0
0
LINE
8
0
10
2428.208568
20
852.740937
30
0.0
11
2426.087427
21
854.862078
31
0.0
0
LINE
8
0
10
2425.900792
20
855.048713
30
0.0
11
2423.008568
21
857.940937
31
0.0
0
LINE
8
0
10
2430.453632
20
852.740937
30
0.0
11
2428.653632
21
854.540937
31
0.0
0
LINE
8
0
10
2432.698696
20
852.740937
30
0.0
11
2430.898696
21
854.540937
31
0.0
0
LINE
8
0
10
2434.943760
20
852.740937
30
0.0
11
2433.143760
21
854.540937
31
0.0
0
LINE
8
0
10
2437.188824
20
852.740937
30
0.0
11
2435.388824
21
854.540937
31
0.0
0
LINE
8
0
10
2439.433888
20
852.740937
30
0.0
11
2437.633888
21
854.540937
31
0.0
0
LINE
8
0
10
2441.678952
20
852.740937
30
0.0
11
2439.878952
21
854.540937
31
0.0
0
LINE
8
0
10
2443.924016
20
852.740937
30
0.0
11
2442.124016
21
854.540937
31
0.0
0
LINE
8
0
10
2446.169080
20
852.740937
30
0.0
11
2444.369080
21
854.540937
31
0.0
0
LINE
8
0
10
2448.414144
20
852.740937
30
0.0
11
2446.614144
21
854.540937
31
0.0
0
LINE
8
0
10
2450.371272
20
853.028873
30
0.0
11
2448.766927
21
854.633218
31
0.0
0
LINE
8
0
10
2451.290792
20
854.354417
30
0.0
11
2449.844984
21
855.800225
31
0.0
0
LINE
8
0
10
2452.194995
20
855.695279
30
0.0
11
2450.728914
21
857.161359
31
0.0
0
LINE
8
0
10
2455.078479
20
855.056858
30
0.0
11
2452.194401
21
857.940937
31
0.0
0
LINE
8
0
10
2454.930994
20
857.449407
30
0.0
11
2453.881562
21
858.498840
31
0.0
0
LINE
8
0
10
2420.378858
20
903.626530
30
0.0
11
2421.433659
21
904.681331
31
0.0
0
LINE
8
0
10
2420.211427
20
901.214035
30
0.0
11
2426.161831
21
907.164439
31
0.0
0
LINE
8
0
10
2423.206895
20
901.964439
30
0.0
11
2425.501960
21
904.259504
31
0.0
0
LINE
8
0
10
2426.534106
20
905.291650
30
0.0
11
2428.406895
21
907.164439
31
0.0
0
LINE
8
0
10
2428.851959
20
905.364439
30
0.0
11
2430.651959
21
907.164439
31
0.0
0
LINE
8
0
10
2431.097023
20
905.364439
30
0.0
11
2432.897023
21
907.164439
31
0.0
0
LINE
8
0
10
2433.342087
20
905.364439
30
0.0
11
2435.142087
21
907.164439
31
0.0
0
LINE
8
0
10
2435.587151
20
905.364439
30
0.0
11
2437.387151
21
907.164439
31
0.0
0
LINE
8
0
10
2437.832215
20
905.364439
30
0.0
11
2439.632215
21
907.164439
31
0.0
0
LINE
8
0
10
2440.077279
20
905.364439
30
0.0
11
2441.877279
21
907.164439
31
0.0
0
LINE
8
0
10
2442.322343
20
905.364439
30
0.0
11
2444.122343
21
907.164439
31
0.0
0
LINE
8
0
10
2444.567407
20
905.364439
30
0.0
11
2446.367407
21
907.164439
31
0.0
0
LINE
8
0
10
2446.812471
20
905.364439
30
0.0
11
2448.612471
21
907.164439
31
0.0
0
LINE
8
0
10
2448.904166
20
905.211070
30
0.0
11
2450.472371
21
906.779275
31
0.0
0
LINE
8
0
10
2449.923069
20
903.984909
30
0.0
11
2451.368877
21
905.430717
31
0.0
0
LINE
8
0
10
2450.807000
20
902.623776
30
0.0
11
2452.347730
21
904.164506
31
0.0
0
LINE
8
0
10
2452.392727
20
901.964439
30
0.0
11
2455.122261
21
904.693973
31
0.0
0
LINE
8
0
10
2454.006452
20
901.333100
30
0.0
11
2455.007883
21
902.334531
31
0.0
0
LINE
8
0
10
2421.890357
20
901.715365
30
0.0
11
2421.097744
21
902.507978
31
0.0
0
LINE
8
0
10
2423.801980
20
902.048806
30
0.0
11
2420.804599
21
905.046187
31
0.0
0
LINE
8
0
10
2424.846171
20
903.249678
30
0.0
11
2423.400363
21
904.695486
31
0.0
0
LINE
8
0
10
2425.730102
20
904.610812
30
0.0
11
2424.284294
21
906.056620
31
0.0
0
LINE
8
0
10
2427.221539
20
905.364439
30
0.0
11
2425.440850
21
907.145127
31
0.0
0
LINE
8
0
10
2429.466603
20
905.364439
30
0.0
11
2427.666603
21
907.164439
31
0.0
0
LINE
8
0
10
2431.711667
20
905.364439
30
0.0
11
2429.911667
21
907.164439
31
0.0
0
LINE
8
0
10
2433.956731
20
905.364439
30
0.0
11
2432.156731
21
907.164439
31
0.0
0
LINE
8
0
10
2436.201795
20
905.364439
30
0.0
11
2434.401795
21
907.164439
31
0.0
0
LINE
8
0
10
2438.446859
20
905.364439
30
0.0
11
2436.646859
21
907.164439
31
0.0
0
LINE
8
0
10
2440.691923
20
905.364439
30
0.0
11
2438.891923
21
907.164439
31
0.0
0
LINE
8
0
10
2442.936987
20
905.364439
30
0.0
11
2441.136987
21
907.164439
31
0.0
0
LINE
8
0
10
2445.182051
20
905.364439
30
0.0
11
2443.382051
21
907.164439
31
0.0
0
LINE
8
0
10
2447.427115
20
905.364439
30
0.0
11
2445.627115
21
907.164439
31
0.0
0
LINE
8
0
10
2453.271163
20
901.765454
30
0.0
11
2447.872179
21
907.164439
31
0.0
0
LINE
8
0
10
2455.022717
20
902.258965
30
0.0
11
2454.742879
21
902.538803
31
0.0
0
LINE
8
0
10
2453.878276
20
903.403406
30
0.0
11
2453.037805
21
904.243877
31
0.0
0
LINE
8
0
10
2455.123353
20
904.403393
30
0.0
11
2454.471491
21
905.055255
31
0.0
0
ARC
8
0
10
2449.591439
20
905.964439
30
0.0
40
1.200000
50
33.000000
51
90.000000
0
LINE
8
0
10
2449.591439
20
907.164439
30
0.0
11
2425.655267
21
907.164439
31
0.0
0
ARC
8
0
10
2425.655267
20
905.964439
30
0.0
40
1.200000
50
90.000000
51
147.000000
0
LINE
8
0
10
2424.648862
20
906.618006
30
0.0
11
2423.145326
21
904.302763
31
0.0
0
ARC
8
0
10
2422.892619
20
904.464439
30
0.0
40
0.300000
50
270.000000
51
327.390000
0
LINE
8
0
10
2422.892619
20
904.164439
30
0.0
11
2422.638250
21
904.164439
31
0.0
0
ARC
8
0
10
2422.638250
20
905.364439
30
0.0
40
1.200000
50
239.496833
51
270.000000
0
LINE
8
0
10
2422.029146
20
904.330517
30
0.0
11
2420.853830
21
905.022919
31
0.0
0
ARC
8
0
10
2420.701554
20
904.764439
30
0.0
40
0.300000
50
59.496833
51
90.000000
0
LINE
8
0
10
2420.701554
20
905.064439
30
0.0
11
2420.523353
21
905.064439
31
0.0
0
ARC
8
0
10
2420.523353
20
904.664439
30
0.0
40
0.400000
50
90.000000
51
180.000000
0
LINE
8
0
10
2420.123353
20
904.664439
30
0.0
11
2420.123353
21
904.264439
31
0.0
0
ARC
8
0
10
2420.223353
20
904.264439
30
0.0
40
0.100000
50
180.000000
51
270.000000
0
LINE
8
0
10
2420.223353
20
904.164439
30
0.0
11
2420.223353
21
903.889439
31
0.0
0
ARC
8
0
10
2420.523353
20
903.889439
30
0.0
40
0.300000
50
180.000000
51
270.000000
0
LINE
8
0
10
2420.523353
20
903.589439
30
0.0
11
2420.582879
21
903.589439
31
0.0
0
ARC
8
0
10
2420.873353
20
903.064439
30
0.0
40
0.600000
50
241.044976
51
118.955024
0
LINE
8
0
10
2420.582879
20
902.539439
30
0.0
11
2420.523353
21
902.539439
31
0.0
0
ARC
8
0
10
2420.523353
20
902.239439
30
0.0
40
0.300000
50
90.000000
51
180.000000
0
LINE
8
0
10
2420.223353
20
902.239439
30
0.0
11
2420.223353
21
901.964439
31
0.0
0
ARC
8
0
10
2420.223353
20
901.864439
30
0.0
40
0.100000
50
90.000000
51
180.000000
0
LINE
8
0
10
2420.123353
20
901.864439
30
0.0
11
2420.123353
21
901.464439
31
0.0
0
ARC
8
0
10
2420.523353
20
901.464439
30
0.0
40
0.400000
50
180.000000
51
270.000000
0
LINE
8
0
10
2420.523353
20
901.064439
30
0.0
11
2420.701688
21
901.064439
31
0.0
0
ARC
8
0
10
2420.701688
20
901.364439
30
0.0
40
0.300000
50
270.000000
51
300.455827
0
LINE
8
0
10
2420.853750
20
901.105833
30
0.0
11
2422.032359
21
901.798863
31
0.0
0
ARC
8
0
10
2422.640607
20
900.764439
30
0.0
40
1.200000
50
90.000000
51
120.455827
0
LINE
8
0
10
2422.640607
20
901.964439
30
0.0
11
2423.359980
21
901.964439
31
0.0
0
ARC
8
0
10
2423.359980
20
903.164439
30
0.0
40
1.200000
50
270.000000
51
327.000000
0
LINE
8
0
10
2424.366385
20
902.510872
30
0.0
11
2425.805512
21
904.726933
31
0.0
0
ARC
8
0
10
2426.979651
20
903.964439
30
0.0
40
1.400000
50
90.000000
51
147.000000
0
LINE
8
0
10
2426.979651
20
905.364439
30
0.0
11
2448.267055
21
905.364439
31
0.0
0
ARC
8
0
10
2448.267055
20
903.964439
30
0.0
40
1.400000
50
33.000000
51
90.000000
0
LINE
8
0
10
2449.441193
20
904.726933
30
0.0
11
2450.880320
21
902.510872
31
0.0
0
ARC
8
0
10
2451.886725
20
903.164439
30
0.0
40
1.200000
50
213.000000
51
270.000000
0
LINE
8
0
10
2451.886725
20
901.964439
30
0.0
11
2452.606098
21
901.964439
31
0.0
0
ARC
8
0
10
2452.606098
20
900.764439
30
0.0
40
1.200000
50
59.544173
51
90.000000
0
LINE
8
0
10
2453.214347
20
901.798863
30
0.0
11
2454.392956
21
901.105833
31
0.0
0
ARC
8
0
10
2454.545018
20
901.364439
30
0.0
40
0.300000
50
239.544173
51
270.000000
0
LINE
8
0
10
2454.545018
20
901.064439
30
0.0
11
2454.723353
21
901.064439
31
0.0
0
ARC
8
0
10
2454.723353
20
901.464439
30
0.0
40
0.400000
50
270.000000
51
0.000000
0
LINE
8
0
10
2455.123353
20
901.464439
30
0.0
11
2455.123353
21
901.864439
31
0.0
0
ARC
8
0
10
2455.023353
20
901.864439
30
0.0
40
0.100000
50
0.000000
51
90.000000
0
LINE
8
0
10
2455.023353
20
901.964439
30
0.0
11
2455.023353
21
902.239439
31
0.0
0
ARC
8
0
10
2454.723353
20
902.239439
30
0.0
40
0.300000
50
0.000000
51
90.000000
0
LINE
8
0
10
2454.723353
20
902.539439
30
0.0
11
2454.663826
21
902.539439
31
0.0
0
ARC
8
0
10
2454.373353
20
903.064439
30
0.0
40
0.600000
50
61.044976
51
298.955024
0
LINE
8
0
10
2454.663826
20
903.589439
30
0.0
11
2454.723353
21
903.589439
31
0.0
0
ARC
8
0
10
2454.723353
20
903.889439
30
0.0
40
0.300000
50
270.000000
51
0.000000
0
LINE
8
0
10
2455.023353
20
903.889439
30
0.0
11
2455.023353
21
904.164439
31
0.0
0
ARC
8
0
10
2455.023353
20
904.264439
30
0.0
40
0.100000
50
270.000000
51
0.000000
0
LINE
8
0
10
2455.123353
20
904.264439
30
0.0
11
2455.123353
21
904.664439
31
0.0
0
ARC
8
0
10
2454.723353
20
904.664439
30
0.0
40
0.400000
50
0.000000
51
90.000000
0
LINE
8
0
10
2454.723353
20
905.064439
30
0.0
11
2454.545151
21
905.064439
31
0.0
0
ARC
8
0
10
2454.545151
20
904.764439
30
0.0
40
0.300000
50
90.000000
51
120.503167
0
LINE
8
0
10
2454.392875
20
905.022919
30
0.0
11
2453.217559
21
904.330517
31
0.0
0
ARC
8
0
10
2452.608456
20
905.364439
30
0.0
40
1.200000
50
270.000000
51
300.503167
0
LINE
8
0
10
2452.608456
20
904.164439
30
0.0
11
2452.354087
21
904.164439
31
0.0
0
ARC
8
0
10
2452.354087
20
904.464439
30
0.0
40
0.300000
50
212.610000
51
270.000000
0
LINE
8
0
10
2452.101379
20
904.302763
30
0.0
11
2450.597843
21
906.618006
31
0.0
0
ARC
8
0
10
2449.591439
20
853.940937
30
0.0
40
1.200000
50
270.000000
51
327.000000
0
LINE
8
0
10
2449.591439
20
852.740937
30
0.0
11
2425.655267
21
852.740937
31
0.0
0
ARC
8
0
10
2425.655267
20
853.940937
30
0.0
40
1.200000
50
213.000000
51
270.000000
0
LINE
8
0
10
2424.648862
20
853.287370
30
0.0
11
2423.145326
21
855.602612
31
0.0
0
ARC
8
0
10
2422.892619
20
855.440937
30
0.0
40
0.300000
50
32.610000
51
90.000000
0
LINE
8
0
10
2422.892619
20
855.740937
30
0.0
11
2422.638250
21
855.740937
31
0.0
0
ARC
8
0
10
2422.638250
20
854.540937
30
0.0
40
1.200000
50
90.000000
51
120.503167
0
LINE
8
0
10
2422.029146
20
855.574858
30
0.0
11
2420.853830
21
854.882456
31
0.0
0
ARC
8
0
10
2420.701554
20
855.140937
30
0.0
40
0.300000
50
270.000000
51
300.503167
0
LINE
8
0
10
2420.701554
20
854.840937
30
0.0
11
2420.523353
21
854.840937
31
0.0
0
ARC
8
0
10
2420.523353
20
855.240937
30
0.0
40
0.400000
50
180.000000
51
270.000000
0
LINE
8
0
10
2420.123353
20
855.240937
30
0.0
11
2420.123353
21
855.640937
31
0.0
0
ARC
8
0
10
2420.223353
20
855.640937
30
0.0
40
0.100000
50
90.000000
51
180.000000
0
LINE
8
0
10
2420.223353
20
855.740937
30
0.0
11
2420.223353
21
856.015937
31
0.0
0
ARC
8
0
10
2420.523353
20
856.015937
30
0.0
40
0.300000
50
90.000000
51
180.000000
0
LINE
8
0
10
2420.523353
20
856.315937
30
0.0
11
2420.582879
21
856.315937
31
0.0
0
ARC
8
0
10
2420.873353
20
856.840937
30
0.0
40
0.600000
50
241.044976
51
118.955024
0
LINE
8
0
10
2420.582879
20
857.365937
30
0.0
11
2420.523353
21
857.365937
31
0.0
0
ARC
8
0
10
2420.523353
20
857.665937
30
0.0
40
0.300000
50
180.000000
51
270.000000
0
LINE
8
0
10
2420.223353
20
857.665937
30
0.0
11
2420.223353
21
857.940937
31
0.0
0
ARC
8
0
10
2420.223353
20
858.040937
30
0.0
40
0.100000
50
180.000000
51
270.000000
0
LINE
8
0
10
2420.123353
20
858.040937
30
0.0
11
2420.123353
21
858.440937
31
0.0
0
ARC
8
0
10
2420.523353
20
858.440937
30
0.0
40
0.400000
50
90.000000
51
180.000000
0
LINE
8
0
10
2420.523353
20
858.840937
30
0.0
11
2420.701688
21
858.840937
31
0.0
0
ARC
8
0
10
2420.701688
20
858.540937
30
0.0
40
0.300000
50
59.544173
51
90.000000
0
LINE
8
0
10
2420.853750
20
858.799543
30
0.0
11
2422.032359
21
858.106512
31
0.0
0
ARC
8
0
10
2422.640607
20
859.140937
30
0.0
40
1.200000
50
239.544173
51
270.000000
0
LINE
8
0
10
2422.640607
20
857.940937
30
0.0
11
2423.359980
21
857.940937
31
0.0
0
ARC
8
0
10
2423.359980
20
856.740937
30
0.0
40
1.200000
50
33.000000
51
90.000000
0
LINE
8
0
10
2424.366385
20
857.394504
30
0.0
11
2425.805512
21
855.178442
31
0.0
0
ARC
8
0
10
2426.979651
20
855.940937
30
0.0
40
1.400000
50
213.000000
51
270.000000
0
LINE
8
0
10
2426.979651
20
854.540937
30
0.0
11
2448.267055
21
854.540937
31
0.0
0
ARC
8
0
10
2448.267055
20
855.940937
30
0.0
40
1.400000
50
270.000000
51
327.000000
0
LINE
8
0
10
2449.441193
20
855.178442
30
0.0
11
2450.880320
21
857.394504
31
0.0
0
ARC
8
0
10
2451.886725
20
856.740937
30
0.0
40
1.200000
50
90.000000
51
147.000000
0
LINE
8
0
10
2451.886725
20
857.940937
30
0.0
11
2452.606098
21
857.940937
31
0.0
0
ARC
8
0
10
2452.606098
20
859.140937
30
0.0
40
1.200000
50
270.000000
51
300.455827
0
LINE
8
0
10
2453.214347
20
858.106512
30
0.0
11
2454.392956
21
858.799543
31
0.0
0
ARC
8
0
10
2454.545018
20
858.540937
30
0.0
40
0.300000
50
90.000000
51
120.455827
0
LINE
8
0
10
2454.545018
20
858.840937
30
0.0
11
2454.723353
21
858.840937
31
0.0
0
ARC
8
0
10
2454.723353
20
858.440937
30
0.0
40
0.400000
50
0.000000
51
90.000000
0
LINE
8
0
10
2455.123353
20
858.440937
30
0.0
11
2455.123353
21
858.040937
31
0.0
0
ARC
8
0
10
2455.023353
20
858.040937
30
0.0
40
0.100000
50
270.000000
51
0.000000
0
LINE
8
0
10
2455.023353
20
857.940937
30
0.0
11
2455.023353
21
857.665937
31
0.0
0
ARC
8
0
10
2454.723353
20
857.665937
30
0.0
40
0.300000
50
270.000000
51
0.000000
0
LINE
8
0
10
2454.723353
20
857.365937
30
0.0
11
2454.663826
21
857.365937
31
0.0
0
ARC
8
0
10
2454.373353
20
856.840937
30
0.0
40
0.600000
50
61.044976
51
298.955024
0
LINE
8
0
10
2454.663826
20
856.315937
30
0.0
11
2454.723353
21
856.315937
31
0.0
0
ARC
8
0
10
2454.723353
20
856.015937
30
0.0
40
0.300000
50
0.000000
51
90.000000
0
LINE
8
0
10
2455.023353
20
856.015937
30
0.0
11
2455.023353
21
855.740937
31
0.0
0
ARC
8
0
10
2455.023353
20
855.640937
30
0.0
40
0.100000
50
0.000000
51
90.000000
0
LINE
8
0
10
2455.123353
20
855.640937
30
0.0
11
2455.123353
21
855.240937
31
0.0
0
ARC
8
0
10
2454.723353
20
855.240937
30
0.0
40
0.400000
50
270.000000
51
0.000000
0
LINE
8
0
10
2454.723353
20
854.840937
30
0.0
11
2454.545151
21
854.840937
31
0.0
0
ARC
8
0
10
2454.545151
20
855.140937
30
0.0
40
0.300000
50
239.496833
51
270.000000
0
LINE
8
0
10
2454.392875
20
854.882456
30
0.0
11
2453.217559
21
855.574858
31
0.0
0
ARC
8
0
10
2452.608456
20
854.540937
30
0.0
40
1.200000
50
59.496833
51
90.000000
0
LINE
8
0
10
2452.608456
20
855.740937
30
0.0
11
2452.354087
21
855.740937
31
0.0
0
ARC
8
0
10
2452.354087
20
855.440937
30
0.0
40
0.300000
50
90.000000
51
147.390000
0
LINE
8
0
10
2452.101379
20
855.602612
30
0.0
11
2450.597843
21
853.287370
31
0.0
0
ARC
8
0
10
2420.410244
20
854.192225
30
0.0
40
0.300000
50
283.127121
51
29.807633
0
LINE
8
0
10
2420.478378
20
853.900064
30
0.0
11
2420.123353
21
853.804513
31
0.0
0
ARC
8
0
10
2420.123353
20
854.104513
30
0.0
40
0.300000
50
90.000000
51
270.000000
0
LINE
8
0
10
2420.123353
20
854.404513
30
0.0
11
2420.123353
21
858.904513
31
0.0
0
ARC
8
0
10
2420.323353
20
858.904513
30
0.0
40
0.200000
50
60.000000
51
180.000000
0
LINE
8
0
10
2420.423353
20
859.077718
30
0.0
11
2422.223450
21
858.038432
31
0.0
0
ARC
8
0
10
2422.423353
20
858.032210
30
0.0
40
0.200000
50
178.217138
51
0.000000
0
LINE
8
0
10
2422.623353
20
858.032210
30
0.0
11
2422.623353
21
859.424129
31
0.0
0
ARC
8
0
10
2422.423353
20
859.424129
30
0.0
40
0.200000
50
0.000000
51
60.000000
0
LINE
8
0
10
2422.523353
20
859.597334
30
0.0
11
2420.473353
21
860.780902
31
0.0
0
ARC
8
0
10
2420.823353
20
861.387119
30
0.0
40
0.700000
50
180.000000
51
240.000000
0
LINE
8
0
10
2420.123353
20
861.387119
30
0.0
11
2420.123353
21
898.478247
31
0.0
0
ARC
8
0
10
2420.823353
20
898.478247
30
0.0
40
0.700000
50
120.000000
51
180.000000
0
LINE
8
0
10
2420.473353
20
899.084465
30
0.0
11
2422.523353
21
900.268033
31
0.0
0
ARC
8
0
10
2422.423353
20
900.441238
30
0.0
40
0.200000
50
300.000000
51
0.000000
0
LINE
8
0
10
2422.623353
20
900.441238
30
0.0
11
2422.623353
21
901.833157
31
0.0
0
ARC
8
0
10
2422.423353
20
901.833157
30
0.0
40
0.200000
50
0.000000
51
181.782862
0
LINE
8
0
10
2422.223450
20
901.826934
30
0.0
11
2420.423353
21
900.787648
31
0.0
0
ARC
8
0
10
2420.323353
20
900.960853
30
0.0
40
0.200000
50
180.000000
51
300.000000
0
LINE
8
0
10
2420.123353
20
900.960853
30
0.0
11
2420.123353
21
905.460853
31
0.0
0
ARC
8
0
10
2420.123353
20
905.760853
30
0.0
40
0.300000
50
90.000000
51
270.000000
0
LINE
8
0
10
2420.123353
20
906.060853
30
0.0
11
2420.478378
21
905.965302
31
0.0
0
ARC
8
0
10
2420.410244
20
905.673141
30
0.0
40
0.300000
50
330.192367
51
76.872879
0
LINE
8
0
10
2420.670554
20
905.524015
30
0.0
11
2422.211082
21
904.360125
31
0.0
0
ARC
8
0
10
2422.370705
20
904.239624
30
0.0
40
0.200000
50
142.950408
51
323.960191
0
LINE
8
0
10
2422.532427
20
904.121954
30
0.0
11
2424.635522
21
906.838523
31
0.0
0
ARC
8
0
10
2424.350614
20
906.932479
30
0.0
40
0.300000
50
341.748585
51
88.866021
0
LINE
8
0
10
2424.353999
20
907.232503
30
0.0
11
2423.301204
21
907.262347
31
0.0
0
LINE
8
0
10
2423.301204
20
907.262347
30
0.0
11
2423.238344
21
907.056742
31
0.0
0
LINE
8
0
10
2423.238344
20
907.056742
30
0.0
11
2422.851083
21
906.588954
31
0.0
0
ARC
8
0
10
2422.015163
20
907.137805
30
0.0
40
1.000000
50
236.989198
51
326.711802
0
LINE
8
0
10
2421.470366
20
906.299237
30
0.0
11
2420.829467
21
906.783828
31
0.0
0
ARC
8
0
10
2420.226352
20
905.986173
30
0.0
40
1.000000
50
52.906671
51
74.652821
0
ARC
8
0
10
2420.623353
20
907.432683
30
0.0
40
0.500000
50
180.000000
51
254.652821
0
LINE
8
0
10
2420.123353
20
907.432683
30
0.0
11
2417.623353
21
907.432683
31
0.0
0
LINE
8
0
10
2417.623353
20
907.432683
30
0.0
11
2417.623353
21
912.132683
31
0.0
0
ARC
8
0
10
2417.323353
20
912.132683
30
0.0
40
0.300000
50
0.000000
51
90.000000
0
LINE
8
0
10
2417.323353
20
912.432683
30
0.0
11
2415.030460
21
912.432683
31
0.0
0
ARC
8
0
10
2415.030460
20
911.932683
30
0.0
40
0.500000
50
90.000000
51
135.000000
0
LINE
8
0
10
2414.676906
20
912.286237
30
0.0
11
2413.969799
21
911.579130
31
0.0
0
ARC
8
0
10
2414.323353
20
911.225576
30
0.0
40
0.500000
50
135.000000
51
180.000000
0
LINE
8
0
10
2413.823353
20
911.225576
30
0.0
11
2413.823353
21
910.432683
31
0.0
0
LINE
8
0
10
2413.823353
20
910.432683
30
0.0
11
2415.823353
21
910.432683
31
0.0
0
LINE
8
0
10
2415.823353
20
910.432683
30
0.0
11
2415.823353
21
907.432683
31
0.0
0
LINE
8
0
10
2415.823353
20
907.432683
30
0.0
11
2399.823353
21
907.432683
31
0.0
0
LINE
8
0
10
2399.823353
20
907.432683
30
0.0
11
2399.823353
21
910.432683
31
0.0
0
LINE
8
0
10
2399.823353
20
910.432683
30
0.0
11
2401.823353
21
910.432683
31
0.0
0
LINE
8
0
10
2401.823353
20
910.432683
30
0.0
11
2401.823353
21
911.225576
31
0.0
0
ARC
8
0
10
2401.323353
20
911.225576
30
0.0
40
0.500000
50
0.000000
51
45.000000
0
LINE
8
0
10
2401.676906
20
911.579130
30
0.0
11
2400.969799
21
912.286237
31
0.0
0
ARC
8
0
10
2400.616246
20
911.932683
30
0.0
40
0.500000
50
45.000000
51
90.000000
0
LINE
8
0
10
2400.616246
20
912.432683
30
0.0
11
2399.447617
21
912.432683
31
0.0
0
ARC
8
0
10
2399.447617
20
912.132683
30
0.0
40
0.300000
50
90.000000
51
135.000000
0
LINE
8
0
10
2399.235485
20
912.344815
30
0.0
11
2397.911221
21
911.020551
31
0.0
0
ARC
8
0
10
2398.123353
20
910.808419
30
0.0
40
0.300000
50
135.000000
51
180.000000
0
LINE
8
0
10
2397.823353
20
910.808419
30
0.0
11
2397.823353
21
849.056947
31
0.0
0
ARC
8
0
10
2398.123353
20
849.056947
30
0.0
40
0.300000
50
180.000000
51
225.000000
0
LINE
8
0
10
2397.911221
20
848.844815
30
0.0
11
2399.235485
21
847.520551
31
0.0
0
ARC
8
0
10
2399.447617
20
847.732683
30
0.0
40
0.300000
50
225.000000
51
270.000000
0
LINE
8
0
10
2399.447617
20
847.432683
30
0.0
11
2400.616246
21
847.432683
31
0.0
0
ARC
8
0
10
2400.616246
20
847.932683
30
0.0
40
0.500000
50
270.000000
51
315.000000
0
LINE
8
0
10
2400.969799
20
847.579130
30
0.0
11
2401.676906
21
848.286237
31
0.0
0
ARC
8
0
10
2401.323353
20
848.639790
30
0.0
40
0.500000
50
315.000000
51
0.000000
0
LINE
8
0
10
2401.823353
20
848.639790
30
0.0
11
2401.823353
21
849.432683
31
0.0
0
LINE
8
0
10
2401.823353
20
849.432683
30
0.0
11
2399.823353
21
849.432683
31
0.0
0
LINE
8
0
10
2399.823353
20
849.432683
30
0.0
11
2399.823353
21
852.432683
31
0.0
0
LINE
8
0
10
2399.823353
20
852.432683
30
0.0
11
2415.823353
21
852.432683
31
0.0
0
LINE
8
0
10
2415.823353
20
852.432683
30
0.0
11
2415.823353
21
849.432683
31
0.0
0
LINE
8
0
10
2415.823353
20
849.432683
30
0.0
11
2413.823353
21
849.432683
31
0.0
0
LINE
8
0
10
2413.823353
20
849.432683
30
0.0
11
2413.823353
21
848.639790
31
0.0
0
ARC
8
0
10
2414.323353
20
848.639790
30
0.0
40
0.500000
50
180.000000
51
225.000000
0
LINE
8
0
10
2413.969799
20
848.286237
30
0.0
11
2414.676906
21
847.579130
31
0.0
0
ARC
8
0
10
2415.030460
20
847.932683
30
0.0
40
0.500000
50
225.000000
51
270.000000
0
LINE
8
0
10
2415.030460
20
847.432683
30
0.0
11
2417.323353
21
847.432683
31
0.0
0
ARC
8
0
10
2417.323353
20
847.732683
30
0.0
40
0.300000
50
270.000000
51
0.000000
0
LINE
8
0
10
2417.623353
20
847.732683
30
0.0
11
2417.623353
21
852.432683
31
0.0
0
LINE
8
0
10
2417.623353
20
852.432683
30
0.0
11
2420.123353
21
852.432683
31
0.0
0
ARC
8
0
10
2420.623353
20
852.432683
30
0.0
40
0.500000
50
105.347179
51
180.000000
0
ARC
8
0
10
2420.226352
20
853.879193
30
0.0
40
1.000000
50
285.347179
51
307.093329
0
LINE
8
0
10
2420.829467
20
853.081539
30
0.0
11
2421.470366
21
853.566129
31
0.0
0
ARC
8
0
10
2422.015163
20
852.727561
30
0.0
40
1.000000
50
33.288198
51
123.010802
0
LINE
8
0
10
2422.851083
20
853.276412
30
0.0
11
2423.238344
21
852.808625
31
0.0
0
LINE
8
0
10
2423.238344
20
852.808625
30
0.0
11
2423.301204
21
852.603019
31
0.0
0
LINE
8
0
10
2423.301204
20
852.603019
30
0.0
11
2424.353999
21
852.632863
31
0.0
0
ARC
8
0
10
2424.350614
20
852.932888
30
0.0
40
0.300000
50
271.133979
51
18.251415
0
LINE
8
0
10
2424.635522
20
853.026844
30
0.0
11
2422.532427
21
855.743412
31
0.0
0
ARC
8
0
10
2422.370705
20
855.625742
30
0.0
40
0.200000
50
36.039809
51
217.049592
0
LINE
8
0
10
2422.211082
20
855.505241
30
0.0
11
2420.670554
21
854.341352
31
0.0
0
LINE
8
0
10
2399.523353
20
854.132683
30
0.0
11
2399.523353
21
905.732683
31
0.0
0
LINE
8
0
10
2399.523353
20
905.732683
30
0.0
11
2418.423353
21
905.732683
31
0.0
0
LINE
8
0
10
2418.423353
20
905.732683
30
0.0
11
2418.423353
21
854.132683
31
0.0
0
LINE
8
0
10
2418.423353
20
854.132683
30
0.0
11
2399.523353
21
854.132683
31
0.0
0
ARC
8
0
10
2457.123353
20
899.787019
30
0.0
40
0.300000
50
63.103454
51
180.000000
0
ARC
8
0
10
2459.023353
20
903.532683
30
0.0
40
3.900000
50
243.103454
51
273.818053
0
ARC
8
0
10
2459.226447
20
900.489452
30
0.0
40
0.850000
50
273.818053
51
93.818053
0
ARC
8
0
10
2459.023353
20
903.532683
30
0.0
40
2.200000
50
356.181947
51
273.818053
0
ARC
8
0
10
2462.066583
20
903.329589
30
0.0
40
0.850000
50
176.181947
51
356.181947
0
ARC
8
0
10
2459.023353
20
903.532683
30
0.0
40
3.900000
50
356.181947
51
12.373625
0
ARC
8
0
10
2463.125791
20
904.432683
30
0.0
40
0.300000
50
90.000000
51
192.373625
0
LINE
8
0
10
2463.125791
20
904.732683
30
0.0
11
2470.323353
21
904.732683
31
0.0
0
ARC
8
0
10
2470.323353
20
904.432683
30
0.0
40
0.300000
50
0.000000
51
90.000000
0
LINE
8
0
10
2470.623353
20
904.432683
30
0.0
11
2470.623353
21
855.432683
31
0.0
0
ARC
8
0
10
2470.323353
20
855.432683
30
0.0
40
0.300000
50
270.000000
51
0.000000
0
LINE
8
0
10
2470.323353
20
855.132683
30
0.0
11
2463.125791
21
855.132683
31
0.0
0
ARC
8
0
10
2463.125791
20
855.432683
30
0.0
40
0.300000
50
167.626375
51
270.000000
0
ARC
8
0
10
2459.023353
20
856.332683
30
0.0
40
3.900000
50
347.626375
51
3.818053
0
ARC
8
0
10
2462.066583
20
856.535777
30
0.0
40
0.850000
50
3.818053
51
183.818053
0
ARC
8
0
10
2459.023353
20
856.332683
30
0.0
40
2.200000
50
86.181947
51
3.818053
0
ARC
8
0
10
2459.226447
20
859.375914
30
0.0
40
0.850000
50
266.181947
51
86.181947
0
ARC
8
0
10
2459.023353
20
856.332683
30
0.0
40
3.900000
50
86.181947
51
116.896546
0
ARC
8
0
10
2457.123353
20
860.078347
30
0.0
40
0.300000
50
180.000000
51
296.896546
0
LINE
8
0
10
2456.823353
20
860.078347
30
0.0
11
2456.823353
21
899.787019
31
0.0
0
ARC
8
0
10
2471.823353
20
934.219137
30
0.0
40
0.500000
50
0.000000
51
60.000000
0
LINE
8
0
10
2472.073353
20
934.652150
30
0.0
11
2467.373353
21
937.365696
31
0.0
0
ARC
8
0
10
2467.123353
20
936.932683
30
0.0
40
0.500000
50
60.000000
51
90.000000
0
LINE
8
0
10
2467.123353
20
937.432683
30
0.0
11
2465.623353
21
937.432683
31
0.0
0
ARC
8
0
10
2465.623353
20
936.932683
30
0.0
40
0.500000
50
90.000000
51
180.000000
0
LINE
8
0
10
2465.123353
20
936.932683
30
0.0
11
2465.123353
21
934.982683
31
0.0
0
ARC
8
0
10
2465.623353
20
934.982683
30
0.0
40
0.500000
50
180.000000
51
270.000000
0
LINE
8
0
10
2465.623353
20
934.482683
30
0.0
11
2466.323353
21
934.482683
31
0.0
0
LINE
8
0
10
2466.323353
20
934.482683
30
0.0
11
2466.323353
21
935.932683
31
0.0
0
LINE
8
0
10
2466.323353
20
935.932683
30
0.0
11
2466.855404
21
935.932683
31
0.0
0
LINE
8
0
10
2466.855404
20
935.932683
30
0.0
11
2470.673353
21
933.728389
31
0.0
0
ARC
8
0
10
2470.523353
20
933.468581
30
0.0
40
0.300000
50
0.000000
51
60.000000
0
LINE
8
0
10
2470.823353
20
933.468581
30
0.0
11
2470.823353
21
932.312255
31
0.0
0
ARC
8
0
10
2470.523353
20
932.312255
30
0.0
40
0.300000
50
300.000000
51
0.000000
0
LINE
8
0
10
2470.673353
20
932.052447
30
0.0
11
2466.655404
21
929.732683
31
0.0
0
LINE
8
0
10
2466.655404
20
929.732683
30
0.0
11
2466.323353
21
929.732683
31
0.0
0
LINE
8
0
10
2466.323353
20
929.732683
30
0.0
11
2466.323353
21
930.982683
31
0.0
0
LINE
8
0
10
2466.323353
20
930.982683
30
0.0
11
2465.623353
21
930.982683
31
0.0
0
ARC
8
0
10
2465.623353
20
930.482683
30
0.0
40
0.500000
50
90.000000
51
180.000000
0
LINE
8
0
10
2465.123353
20
930.482683
30
0.0
11
2465.123353
21
928.932683
31
0.0
0
ARC
8
0
10
2465.623353
20
928.932683
30
0.0
40
0.500000
50
180.000000
51
270.000000
0
LINE
8
0
10
2465.623353
20
928.432683
30
0.0
11
2467.323353
21
928.432683
31
0.0
0
ARC
8
0
10
2467.323353
20
928.732683
30
0.0
40
0.300000
50
270.000000
51
300.000000
0
LINE
8
0
10
2467.473353
20
928.472875
30
0.0
11
2470.373353
21
930.147191
31
0.0
0
ARC
8
0
10
2470.523353
20
929.887384
30
0.0
40
0.300000
50
0.000000
51
120.000000
0
LINE
8
0
10
2470.823353
20
929.887384
30
0.0
11
2470.823353
21
917.452406
31
0.0
0
LINE
8
0
10
2470.823353
20
917.452406
30
0.0
11
2470.507934
21
906.917719
31
0.0
0
ARC
8
0
10
2470.008158
20
906.932683
30
0.0
40
0.500000
50
270.000000
51
358.285023
0
LINE
8
0
10
2470.008158
20
906.432683
30
0.0
11
2461.823353
21
906.432683
31
0.0
0
LINE
8
0
10
2461.823353
20
906.432683
30
0.0
11
2461.823353
21
906.932683
31
0.0
0
ARC
8
0
10
2461.323353
20
906.932683
30
0.0
40
0.500000
50
0.000000
51
90.000000
0
LINE
8
0
10
2461.323353
20
907.432683
30
0.0
11
2455.123353
21
907.432683
31
0.0
0
ARC
8
0
10
2454.623353
20
907.432683
30
0.0
40
0.500000
50
285.347179
51
0.000000
0
ARC
8
0
10
2455.020354
20
905.986173
30
0.0
40
1.000000
50
105.347179
51
127.093329
0
LINE
8
0
10
2454.417238
20
906.783828
30
0.0
11
2453.776340
21
906.299237
31
0.0
0
ARC
8
0
10
2453.231542
20
907.137805
30
0.0
40
1.000000
50
213.288198
51
303.010802
0
LINE
8
0
10
2452.395622
20
906.588954
30
0.0
11
2452.008361
21
907.056742
31
0.0
0
LINE
8
0
10
2452.008361
20
907.056742
30
0.0
11
2451.945501
21
907.262347
31
0.0
0
LINE
8
0
10
2451.945501
20
907.262347
30
0.0
11
2450.892706
21
907.232503
31
0.0
0
LINE
8
0
10
2450.892706
20
907.232503
30
0.0
11
2450.882454
21
907.232169
31
0.0
0
ARC
8
0
10
2450.896091
20
906.932479
30
0.0
40
0.300000
50
92.605413
51
198.251415
0
LINE
8
0
10
2450.611184
20
906.838523
30
0.0
11
2452.721569
21
904.112537
31
0.0
0
ARC
8
0
10
2452.876000
20
904.239624
30
0.0
40
0.200000
50
219.452352
51
37.049592
0
LINE
8
0
10
2453.035623
20
904.360125
30
0.0
11
2454.576152
21
905.524015
31
0.0
0
ARC
8
0
10
2454.836461
20
905.673141
30
0.0
40
0.300000
50
107.000000
51
209.807633
0
LINE
8
0
10
2454.748750
20
905.960033
30
0.0
11
2455.123353
21
906.060853
31
0.0
0
ARC
8
0
10
2455.123353
20
905.760853
30
0.0
40
0.300000
50
270.000000
51
90.000000
0
LINE
8
0
10
2455.123353
20
905.460853
30
0.0
11
2455.123353
21
900.960853
31
0.0
0
ARC
8
0
10
2454.923353
20
900.960853
30
0.0
40
0.200000
50
240.000000
51
0.000000
0
LINE
8
0
10
2454.823353
20
900.787648
30
0.0
11
2453.023256
21
901.826934
31
0.0
0
ARC
8
0
10
2452.823353
20
901.833157
30
0.0
40
0.200000
50
358.217138
51
180.000000
0
LINE
8
0
10
2452.623353
20
901.833157
30
0.0
11
2452.623353
21
900.441238
31
0.0
0
ARC
8
0
10
2452.823353
20
900.441238
30
0.0
40
0.200000
50
180.000000
51
240.000000
0
LINE
8
0
10
2452.723353
20
900.268033
30
0.0
11
2454.773353
21
899.084465
31
0.0
0
ARC
8
0
10
2454.423353
20
898.478247
30
0.0
40
0.700000
50
0.000000
51
60.000000
0
LINE
8
0
10
2455.123353
20
898.478247
30
0.0
11
2455.123353
21
861.387119
31
0.0
0
ARC
8
0
10
2454.423353
20
861.387119
30
0.0
40
0.700000
50
300.000000
51
0.000000
0
LINE
8
0
10
2454.773353
20
860.780902
30
0.0
11
2452.723353
21
859.597334
31
0.0
0
ARC
8
0
10
2452.823353
20
859.424129
30
0.0
40
0.200000
50
120.000000
51
180.000000
0
LINE
8
0
10
2452.623353
20
859.424129
30
0.0
11
2452.623353
21
858.032210
31
0.0
0
ARC
8
0
10
2452.823353
20
858.032210
30
0.0
40
0.200000
50
180.000000
51
1.782862
0
LINE
8
0
10
2453.023256
20
858.038432
30
0.0
11
2454.823353
21
859.077718
31
0.0
0
ARC
8
0
10
2454.923353
20
858.904513
30
0.0
40
0.200000
50
0.000000
51
120.000000
0
LINE
8
0
10
2455.123353
20
858.904513
30
0.0
11
2455.123353
21
854.404513
31
0.0
0
ARC
8
0
10
2455.123353
20
854.104513
30
0.0
40
0.300000
50
270.000000
51
90.000000
0
LINE
8
0
10
2455.123353
20
853.804513
30
0.0
11
2454.768328
21
853.900064
31
0.0
0
ARC
8
0
10
2454.836461
20
854.192225
30
0.0
40
0.300000
50
150.192367
51
256.872879
0
LINE
8
0
10
2454.576152
20
854.341352
30
0.0
11
2453.035623
21
855.505241
31
0.0
0
ARC
8
0
10
2452.876000
20
855.625742
30
0.0
40
0.200000
50
322.950408
51
143.960191
0
LINE
8
0
10
2452.714278
20
855.743412
30
0.0
11
2450.611184
21
853.026844
31
0.0
0
ARC
8
0
10
2450.896091
20
852.932888
30
0.0
40
0.300000
50
161.748585
51
268.866021
0
LINE
8
0
10
2450.892706
20
852.632863
30
0.0
11
2451.945501
21
852.603019
31
0.0
0
LINE
8
0
10
2451.945501
20
852.603019
30
0.0
11
2452.008361
21
852.808625
31
0.0
0
LINE
8
0
10
2452.008361
20
852.808625
30
0.0
11
2452.395622
21
853.276412
31
0.0
0
ARC
8
0
10
2453.231542
20
852.727561
30
0.0
40
1.000000
50
56.989198
51
146.711802
0
LINE
8
0
10
2453.776340
20
853.566129
30
0.0
11
2454.417238
21
853.081539
31
0.0
0
ARC
8
0
10
2455.020354
20
853.879193
30
0.0
40
1.000000
50
232.906671
51
254.652821
0
ARC
8
0
10
2454.623353
20
852.432683
30
0.0
40
0.500000
50
0.000000
51
74.652821
0
LINE
8
0
10
2455.123353
20
852.432683
30
0.0
11
2461.323353
21
852.432683
31
0.0
0
ARC
8
0
10
2461.323353
20
852.932683
30
0.0
40
0.500000
50
270.000000
51
0.000000
0
LINE
8
0
10
2461.823353
20
852.932683
30
0.0
11
2461.823353
21
853.432683
31
0.0
0
LINE
8
0
10
2461.823353
20
853.432683
30
0.0
11
2470.008158
21
853.432683
31
0.0
0
ARC
8
0
10
2470.008158
20
852.932683
30
0.0
40
0.500000
50
1.714978
51
90.000000
0
LINE
8
0
10
2470.507934
20
852.947647
30
0.0
11
2470.823353
21
842.412960
31
0.0
0
LINE
8
0
10
2470.823353
20
842.412960
30
0.0
11
2470.823353
21
829.977983
31
0.0
0
ARC
8
0
10
2470.523353
20
829.977983
30
0.0
40
0.300000
50
240.000000
51
0.000000
0
LINE
8
0
10
2470.373353
20
829.718175
30
0.0
11
2467.473353
21
831.392491
31
0.0
0
ARC
8
0
10
2467.323353
20
831.132683
30
0.0
40
0.300000
50
60.000000
51
90.000000
0
LINE
8
0
10
2467.323353
20
831.432683
30
0.0
11
2465.623353
21
831.432683
31
0.0
0
ARC
8
0
10
2465.623353
20
830.932683
30
0.0
40
0.500000
50
90.000000
51
180.000000
0
LINE
8
0
10
2465.123353
20
830.932683
30
0.0
11
2465.123353
21
829.382683
31
0.0
0
ARC
8
0
10
2465.623353
20
829.382683
30
0.0
40
0.500000
50
180.000000
51
270.000000
0
LINE
8
0
10
2465.623353
20
828.882683
30
0.0
11
2466.323353
21
828.882683
31
0.0
0
LINE
8
0
10
2466.323353
20
828.882683
30
0.0
11
2466.323353
21
830.132683
31
0.0
0
LINE
8
0
10
2466.323353
20
830.132683
30
0.0
11
2466.655404
21
830.132683
31
0.0
0
LINE
8
0
10
2466.655404
20
830.132683
30
0.0
11
2470.673353
21
827.812919
31
0.0
0
ARC
8
0
10
2470.523353
20
827.553111
30
0.0
40
0.300000
50
0.000000
51
60.000000
0
LINE
8
0
10
2470.823353
20
827.553111
30
0.0
11
2470.823353
21
826.396785
31
0.0
0
ARC
8
0
10
2470.523353
20
826.396785
30
0.0
40
0.300000
50
300.000000
51
0.000000
0
LINE
8
0
10
2470.673353
20
826.136977
30
0.0
11
2466.855404
21
823.932683
31
0.0
0
LINE
8
0
10
2466.855404
20
823.932683
30
0.0
11
2466.323353
21
823.932683
31
0.0
0
LINE
8
0
10
2466.323353
20
823.932683
30
0.0
11
2466.323353
21
825.382683
31
0.0
0
LINE
8
0
10
2466.323353
20
825.382683
30
0.0
11
2465.623353
21
825.382683
31
0.0
0
ARC
8
0
10
2465.623353
20
824.882683
30
0.0
40
0.500000
50
90.000000
51
180.000000
0
LINE
8
0
10
2465.123353
20
824.882683
30
0.0
11
2465.123353
21
822.932683
31
0.0
0
ARC
8
0
10
2465.623353
20
822.932683
30
0.0
40
0.500000
50
180.000000
51
270.000000
0
LINE
8
0
10
2465.623353
20
822.432683
30
0.0
11
2467.123353
21
822.432683
31
0.0
0
ARC
8
0
10
2467.123353
20
822.932683
30
0.0
40
0.500000
50
270.000000
51
300.000000
0
LINE
8
0
10
2467.373353
20
822.499670
30
0.0
11
2472.073353
21
825.213217
31
0.0
0
ARC
8
0
10
2471.823353
20
825.646229
30
0.0
40
0.500000
50
300.000000
51
0.000000
0
LINE
8
0
10
2472.323353
20
825.646229
30
0.0
11
2472.323353
21
934.219137
31
0.0
0
ATTDEF
8
0
10
0.000000
20
0.000000
30
0.0
40
3.5
1

3

2
PANE_WIDTH:0
70
0
0
ATTDEF
8
0
10
0.000000
20
0.000000
30
0.0
40
3.5
1

3

2
MIN_VETRO:0
70
0
0
ATTDEF
8
0
10
0.000000
20
0.000000
30
0.0
40
3.5
1

3

2
MAX_VETRO:0
70
0
0
ATTDEF
8
0
10
0.000000
20
0.000000
30
0.0
40
3.5
1

3

2
JX:0
70
0
0
ATTDEF
8
0
10
0.000000
20
0.000000
30
0.0
40
3.5
1

3

2
WX:0
70
0
0
ATTDEF
8
0
10
0.000000
20
0.000000
30
0.0
40
3.5
1

3

2
JY:0
70
0
0
ATTDEF
8
0
10
0.000000
20
0.000000
30
0.0
40
3.5
1

3

2
WY:0
70
0
0
ATTDEF
8
0
10
0.000000
20
0.000000
30
0.0
40
3.5
1

3

2
DESC:Div.h.pta.ap.ext.65
70
0
0
ATTDEF
8
0
10
0.000000
20
0.000000
30
0.0
40
3.5
1

3

2
DENS:2.2537
70
0
0
ATTDEF
8
0
10
0.000000
20
0.000000
30
0.0
40
3.5
1

3

2
TDEV:87.3
70
0
0
ATTDEF
8
0
10
0.000000
20
0.000000
30
0.0
40
3.5
1

3

2
TDEV2:0
70
0
0
ATTDEF
8
0
10
0.000000
20
0.000000
30
0.0
40
3.5
1

3

2
TDEV3:0
70
0
0
ATTDEF
8
0
10
0.000000
20
0.000000
30
0.0
40
3.5
1

3

2
TDEV4:0
70
0
0
ATTDEF
8
0
10
0.000000
20
0.000000
30
0.0
40
3.5
1

3

2
TDEV5:0
70
0
0
ATTDEF
8
0
10
0.000000
20
0.000000
30
0.0
40
3.5
1

3

2
PANE_WIDTH:0
70
0
0
ATTDEF
8
0
10
0.000000
20
0.000000
30
0.0
40
3.5
1

3

2
MIN_VETRO:0
70
0
0
ATTDEF
8
0
10
0.000000
20
0.000000
30
0.0
40
3.5
1

3

2
MAX_VETRO:0
70
0
0
ATTDEF
8
0
10
0.000000
20
0.000000
30
0.0
40
3.5
1

3

2
JX:0
70
0
0
ATTDEF
8
0
10
0.000000
20
0.000000
30
0.0
40
3.5
1

3

2
WX:0
70
0
0
ATTDEF
8
0
10
0.000000
20
0.000000
30
0.0
40
3.5
1

3

2
JY:0
70
0
0
ATTDEF
8
0
10
0.000000
20
0.000000
30
0.0
40
3.5
1

3

2
WY:0
70
0
0
ENDSEC
0
EOF
