0
SECTION
2
ENTITIES
0
ARC
8
0
10
2439.722805
20
872.744391
30
0.0
40
0.600000
50
0.000000
51
180.000000
0
ARC
8
0
10
2439.722805
20
872.744391
30
0.0
40
0.600000
50
180.000000
51
0.000000
0
ARC
8
0
10
2462.222805
20
872.744391
30
0.0
40
0.600000
50
0.000000
51
180.000000
0
ARC
8
0
10
2462.222805
20
872.744391
30
0.0
40
0.600000
50
180.000000
51
0.000000
0
ARC
8
0
10
2462.222805
20
864.327411
30
0.0
40
0.600000
50
0.000000
51
180.000000
0
ARC
8
0
10
2462.222805
20
864.327411
30
0.0
40
0.600000
50
180.000000
51
0.000000
0
ARC
8
0
10
2439.722805
20
864.327411
30
0.0
40
0.600000
50
0.000000
51
180.000000
0
ARC
8
0
10
2439.722805
20
864.327411
30
0.0
40
0.600000
50
180.000000
51
0.000000
0
LINE
8
0
10
2441.090945
20
874.211605
30
0.0
11
2439.447776
21
875.533880
31
0.0
0
ARC
8
0
10
2439.259697
20
875.300157
30
0.0
40
0.300000
50
51.176024
51
76.872879
0
LINE
8
0
10
2439.327830
20
875.592318
30
0.0
11
2438.972805
21
875.687869
31
0.0
0
ARC
8
0
10
2438.972805
20
875.387869
30
0.0
40
0.300000
50
90.000000
51
270.000000
0
LINE
8
0
10
2438.972805
20
875.087869
30
0.0
11
2438.972805
21
870.587869
31
0.0
0
ARC
8
0
10
2439.172805
20
870.587869
30
0.0
40
0.200000
50
180.000000
51
270.000000
0
LINE
8
0
10
2439.172805
20
870.387869
30
0.0
11
2439.240694
21
870.387869
31
0.0
0
ARC
8
0
10
2439.240694
20
870.687869
30
0.0
40
0.300000
50
270.000000
51
301.380132
0
LINE
8
0
10
2439.396908
20
870.431749
30
0.0
11
2441.072901
21
871.453982
31
0.0
0
ARC
8
0
10
2441.272805
20
871.460172
30
0.0
40
0.200000
50
0.000000
51
180.000000
0
LINE
8
0
10
2441.472805
20
871.460172
30
0.0
11
2441.472805
21
870.053182
31
0.0
0
ARC
8
0
10
2441.272805
20
870.053182
30
0.0
40
0.200000
50
301.380132
51
0.000000
0
LINE
8
0
10
2441.376948
20
869.882436
30
0.0
11
2440.162717
21
869.141844
31
0.0
0
ARC
8
0
10
2440.527216
20
868.544232
30
0.0
40
0.700000
50
121.380132
51
238.619868
0
LINE
8
0
10
2440.162717
20
867.946620
30
0.0
11
2441.376948
21
867.206028
31
0.0
0
ARC
8
0
10
2441.272805
20
867.035281
30
0.0
40
0.200000
50
0.000000
51
58.619868
0
LINE
8
0
10
2441.472805
20
867.035281
30
0.0
11
2441.472805
21
865.628291
31
0.0
0
ARC
8
0
10
2441.272805
20
865.628291
30
0.0
40
0.200000
50
180.000000
51
0.000000
0
LINE
8
0
10
2441.072901
20
865.634481
30
0.0
11
2439.396908
21
866.656714
31
0.0
0
ARC
8
0
10
2439.240694
20
866.400595
30
0.0
40
0.300000
50
58.619868
51
90.000000
0
LINE
8
0
10
2439.240694
20
866.700595
30
0.0
11
2439.172805
21
866.700595
31
0.0
0
ARC
8
0
10
2439.172805
20
866.500595
30
0.0
40
0.200000
50
90.000000
51
180.000000
0
LINE
8
0
10
2438.972805
20
866.500595
30
0.0
11
2438.972805
21
862.000595
31
0.0
0
ARC
8
0
10
2438.972805
20
861.700595
30
0.0
40
0.300000
50
90.000000
51
270.000000
0
LINE
8
0
10
2438.972805
20
861.400595
30
0.0
11
2439.327830
21
861.496146
31
0.0
0
ARC
8
0
10
2439.259697
20
861.788306
30
0.0
40
0.300000
50
283.127121
51
308.823976
0
LINE
8
0
10
2439.447776
20
861.554583
30
0.0
11
2441.090945
21
862.876858
31
0.0
0
ARC
8
0
10
2440.965559
20
863.032673
30
0.0
40
0.200000
50
308.823976
51
0.000000
0
LINE
8
0
10
2441.165437
20
863.039653
30
0.0
11
2441.160008
21
863.195140
31
0.0
0
ARC
8
0
10
2441.305540
20
863.200222
30
0.0
40
0.145621
50
37.746080
51
180.000000
0
LINE
8
0
10
2441.420687
20
863.289366
30
0.0
11
2443.484974
21
860.622925
31
0.0
0
ARC
8
0
10
2443.200067
20
860.528969
30
0.0
40
0.300000
50
270.000000
51
18.251415
0
LINE
8
0
10
2443.203452
20
860.228944
30
0.0
11
2442.546830
21
860.210331
31
0.0
0
ARC
8
0
10
2442.532662
20
860.710130
30
0.0
40
0.500000
50
231.805773
51
271.623749
0
ARC
8
0
10
2440.986839
20
858.745332
30
0.0
40
2.000000
50
51.805773
51
123.997055
0
LINE
8
0
10
2439.868539
20
860.403465
30
0.0
11
2439.084733
21
860.019023
31
0.0
0
ARC
8
0
10
2439.172805
20
859.839459
30
0.0
40
0.200000
50
116.127032
51
180.000000
0
LINE
8
0
10
2438.972805
20
859.839459
30
0.0
11
2438.972805
21
854.850595
31
0.0
0
LINE
8
0
10
2438.972805
20
854.850595
30
0.0
11
2435.472805
21
854.850595
31
0.0
0
LINE
8
0
10
2435.472805
20
854.850595
30
0.0
11
2435.472805
21
856.350595
31
0.0
0
LINE
8
0
10
2435.472805
20
856.350595
30
0.0
11
2437.472805
21
856.350595
31
0.0
0
LINE
8
0
10
2437.472805
20
856.350595
30
0.0
11
2437.472805
21
859.850595
31
0.0
0
LINE
8
0
10
2437.472805
20
859.850595
30
0.0
11
2414.872805
21
859.850595
31
0.0
0
LINE
8
0
10
2414.872805
20
859.850595
30
0.0
11
2414.872805
21
856.350595
31
0.0
0
LINE
8
0
10
2414.872805
20
856.350595
30
0.0
11
2420.072661
21
856.350595
31
0.0
0
LINE
8
0
10
2420.072661
20
856.350595
30
0.0
11
2420.072661
21
854.850595
31
0.0
0
LINE
8
0
10
2420.072661
20
854.850595
30
0.0
11
2414.972747
21
854.850595
31
0.0
0
LINE
8
0
10
2414.972747
20
854.850595
30
0.0
11
2414.972747
21
820.350595
31
0.0
0
LINE
8
0
10
2414.972747
20
820.350595
30
0.0
11
2416.572805
21
820.350595
31
0.0
0
ARC
8
0
10
2416.572805
20
819.850595
30
0.0
40
0.500000
50
0.000000
51
90.000000
0
LINE
8
0
10
2417.072805
20
819.850595
30
0.0
11
2417.072805
21
817.600595
31
0.0
0
ARC
8
0
10
2416.572805
20
817.600595
30
0.0
40
0.500000
50
180.000000
51
0.000000
0
LINE
8
0
10
2416.072805
20
817.600595
30
0.0
11
2416.072805
21
818.850595
31
0.0
0
LINE
8
0
10
2416.072805
20
818.850595
30
0.0
11
2414.872805
21
818.850595
31
0.0
0
LINE
8
0
10
2414.872805
20
818.850595
30
0.0
11
2414.872805
21
811.350595
31
0.0
0
LINE
8
0
10
2414.872805
20
811.350595
30
0.0
11
2416.072805
21
811.350595
31
0.0
0
LINE
8
0
10
2416.072805
20
811.350595
30
0.0
11
2416.072805
21
812.600595
31
0.0
0
ARC
8
0
10
2416.572805
20
812.600595
30
0.0
40
0.500000
50
0.000000
51
180.000000
0
LINE
8
0
10
2417.072805
20
812.600595
30
0.0
11
2417.072805
21
810.350595
31
0.0
0
ARC
8
0
10
2416.572805
20
810.350595
30
0.0
40
0.500000
50
270.000000
51
0.000000
0
LINE
8
0
10
2416.572805
20
809.850595
30
0.0
11
2414.372805
21
809.850595
31
0.0
0
ARC
8
0
10
2414.372805
20
810.850595
30
0.0
40
1.000000
50
180.000000
51
270.000000
0
LINE
8
0
10
2413.372805
20
810.850595
30
0.0
11
2413.372805
21
882.250595
31
0.0
0
LINE
8
0
10
2413.372805
20
882.250595
30
0.0
11
2415.872805
21
882.250595
31
0.0
0
LINE
8
0
10
2415.872805
20
882.250595
30
0.0
11
2416.872805
21
881.250595
31
0.0
0
LINE
8
0
10
2416.872805
20
881.250595
30
0.0
11
2416.872805
21
880.250595
31
0.0
0
LINE
8
0
10
2416.872805
20
880.250595
30
0.0
11
2414.872805
21
880.250595
31
0.0
0
LINE
8
0
10
2414.872805
20
880.250595
30
0.0
11
2414.872805
21
877.250595
31
0.0
0
LINE
8
0
10
2414.872805
20
877.250595
30
0.0
11
2432.872805
21
877.250595
31
0.0
0
LINE
8
0
10
2432.872805
20
877.250595
30
0.0
11
2432.872805
21
880.250595
31
0.0
0
LINE
8
0
10
2432.872805
20
880.250595
30
0.0
11
2430.872805
21
880.250595
31
0.0
0
LINE
8
0
10
2430.872805
20
880.250595
30
0.0
11
2430.872805
21
881.250595
31
0.0
0
LINE
8
0
10
2430.872805
20
881.250595
30
0.0
11
2431.872805
21
882.250595
31
0.0
0
LINE
8
0
10
2431.872805
20
882.250595
30
0.0
11
2440.172805
21
882.250595
31
0.0
0
ARC
8
0
10
2440.172805
20
881.950595
30
0.0
40
0.300000
50
0.000000
51
90.000000
0
LINE
8
0
10
2440.472805
20
881.950595
30
0.0
11
2440.472805
21
881.050595
31
0.0
0
ARC
8
0
10
2440.172805
20
881.050595
30
0.0
40
0.300000
50
270.000000
51
0.000000
0
LINE
8
0
10
2440.172805
20
880.750595
30
0.0
11
2438.972805
21
880.750595
31
0.0
0
LINE
8
0
10
2438.972805
20
880.750595
30
0.0
11
2438.972805
21
877.249004
31
0.0
0
ARC
8
0
10
2439.172805
20
877.249004
30
0.0
40
0.200000
50
180.000000
51
243.872968
0
LINE
8
0
10
2439.084733
20
877.069440
30
0.0
11
2439.868539
21
876.684999
31
0.0
0
ARC
8
0
10
2440.986839
20
878.343131
30
0.0
40
2.000000
50
236.002945
51
308.194227
0
ARC
8
0
10
2442.532662
20
876.378333
30
0.0
40
0.500000
50
88.376251
51
128.194227
0
LINE
8
0
10
2442.546830
20
876.878132
30
0.0
11
2443.203452
21
876.859519
31
0.0
0
ARC
8
0
10
2443.200067
20
876.559494
30
0.0
40
0.300000
50
341.748585
51
90.000000
0
LINE
8
0
10
2443.484974
20
876.465538
30
0.0
11
2441.420687
21
873.799097
31
0.0
0
ARC
8
0
10
2441.305540
20
873.888241
30
0.0
40
0.145621
50
180.000000
51
322.253920
0
LINE
8
0
10
2441.160008
20
873.893323
30
0.0
11
2441.165437
21
874.048810
31
0.0
0
ARC
8
0
10
2440.965559
20
874.055790
30
0.0
40
0.200000
50
0.000000
51
51.176024
0
LINE
8
0
10
2437.372805
20
880.650595
30
0.0
11
2437.372805
21
861.450595
31
0.0
0
LINE
8
0
10
2437.372805
20
861.450595
30
0.0
11
2414.972805
21
861.450595
31
0.0
0
LINE
8
0
10
2414.972805
20
861.450595
30
0.0
11
2414.972805
21
875.650595
31
0.0
0
LINE
8
0
10
2414.972805
20
875.650595
30
0.0
11
2434.472805
21
875.650595
31
0.0
0
LINE
8
0
10
2434.472805
20
875.650595
30
0.0
11
2434.472805
21
880.650595
31
0.0
0
LINE
8
0
10
2434.472805
20
880.650595
30
0.0
11
2437.372805
21
880.650595
31
0.0
0
LINE
8
0
10
2471.772805
20
879.140616
30
0.0
11
2471.772805
21
874.550146
31
0.0
0
LINE
8
0
10
2471.772805
20
874.550146
30
0.0
11
2469.971396
21
874.550146
31
0.0
0
LINE
8
0
10
2469.971396
20
874.550146
30
0.0
11
2469.971396
21
872.950146
31
0.0
0
LINE
8
0
10
2469.971396
20
872.950146
30
0.0
11
2471.772805
21
872.950146
31
0.0
0
LINE
8
0
10
2471.772805
20
872.950146
30
0.0
11
2471.772805
21
863.050146
31
0.0
0
LINE
8
0
10
2471.772805
20
863.050146
30
0.0
11
2469.971396
21
863.050146
31
0.0
0
LINE
8
0
10
2469.971396
20
863.050146
30
0.0
11
2469.971396
21
861.450595
31
0.0
0
LINE
8
0
10
2469.971396
20
861.450595
30
0.0
11
2464.572805
21
861.450595
31
0.0
0
LINE
8
0
10
2464.572805
20
861.450595
30
0.0
11
2464.572805
21
875.650595
31
0.0
0
LINE
8
0
10
2464.572805
20
875.650595
30
0.0
11
2466.071396
21
875.650595
31
0.0
0
LINE
8
0
10
2466.071396
20
875.650595
30
0.0
11
2466.071396
21
877.250146
31
0.0
0
LINE
8
0
10
2466.071396
20
877.250146
30
0.0
11
2464.572805
21
877.250146
31
0.0
0
LINE
8
0
10
2464.572805
20
877.250146
30
0.0
11
2464.572805
21
880.645102
31
0.0
0
LINE
8
0
10
2464.572805
20
880.645102
30
0.0
11
2471.772805
21
879.140616
31
0.0
0
ARC
8
0
10
2462.685914
20
875.310037
30
0.0
40
0.300000
50
103.127121
51
128.823976
0
LINE
8
0
10
2462.617780
20
875.602198
30
0.0
11
2462.972805
21
875.697749
31
0.0
0
ARC
8
0
10
2462.972805
20
875.397749
30
0.0
40
0.300000
50
270.000000
51
90.000000
0
LINE
8
0
10
2462.972805
20
875.097749
30
0.0
11
2462.972805
21
870.597749
31
0.0
0
ARC
8
0
10
2462.772805
20
870.597749
30
0.0
40
0.200000
50
270.000000
51
0.000000
0
LINE
8
0
10
2462.772805
20
870.397749
30
0.0
11
2462.704916
21
870.397749
31
0.0
0
ARC
8
0
10
2462.704916
20
870.697749
30
0.0
40
0.300000
50
238.619868
51
270.000000
0
LINE
8
0
10
2462.548702
20
870.441629
30
0.0
11
2460.872709
21
871.463862
31
0.0
0
ARC
8
0
10
2460.672805
20
871.470053
30
0.0
40
0.200000
50
0.000000
51
180.000000
0
LINE
8
0
10
2460.472805
20
871.470053
30
0.0
11
2460.472805
21
870.086272
31
0.0
0
ARC
8
0
10
2460.672805
20
870.086272
30
0.0
40
0.200000
50
180.000000
51
240.153120
0
LINE
8
0
10
2460.573268
20
869.912801
30
0.0
11
2461.879946
21
869.163039
31
0.0
0
ARC
8
0
10
2461.540792
20
868.550595
30
0.0
40
0.700000
50
298.976366
51
61.023634
0
LINE
8
0
10
2461.879946
20
867.938150
30
0.0
11
2460.573268
21
867.188389
31
0.0
0
ARC
8
0
10
2460.672805
20
867.014917
30
0.0
40
0.200000
50
119.846880
51
180.000000
0
LINE
8
0
10
2460.472805
20
867.014917
30
0.0
11
2460.472805
21
865.631137
31
0.0
0
ARC
8
0
10
2460.672805
20
865.631137
30
0.0
40
0.200000
50
180.000000
51
0.000000
0
LINE
8
0
10
2460.872709
20
865.637327
30
0.0
11
2462.548702
21
866.659560
31
0.0
0
ARC
8
0
10
2462.704916
20
866.403440
30
0.0
40
0.300000
50
90.000000
51
121.380132
0
LINE
8
0
10
2462.704916
20
866.703440
30
0.0
11
2462.772805
21
866.703440
31
0.0
0
ARC
8
0
10
2462.772805
20
866.503440
30
0.0
40
0.200000
50
0.000000
51
90.000000
0
LINE
8
0
10
2462.972805
20
866.503440
30
0.0
11
2462.972805
21
862.003440
31
0.0
0
ARC
8
0
10
2462.972805
20
861.703440
30
0.0
40
0.300000
50
270.000000
51
90.000000
0
LINE
8
0
10
2462.972805
20
861.403440
30
0.0
11
2462.617780
21
861.498991
31
0.0
0
ARC
8
0
10
2462.685914
20
861.791152
30
0.0
40
0.300000
50
231.176024
51
256.872879
0
LINE
8
0
10
2462.497835
20
861.557429
30
0.0
11
2460.854665
21
862.879704
31
0.0
0
ARC
8
0
10
2460.980051
20
863.035519
30
0.0
40
0.200000
50
180.000000
51
231.176024
0
LINE
8
0
10
2460.780173
20
863.042499
30
0.0
11
2460.785603
21
863.197986
31
0.0
0
ARC
8
0
10
2460.640071
20
863.203068
30
0.0
40
0.145621
50
0.000000
51
142.253920
0
LINE
8
0
10
2460.524924
20
863.292212
30
0.0
11
2458.460636
21
860.625771
31
0.0
0
ARC
8
0
10
2458.745544
20
860.531814
30
0.0
40
0.300000
50
161.748585
51
270.000000
0
LINE
8
0
10
2458.742159
20
860.231790
30
0.0
11
2459.398780
21
860.213176
31
0.0
0
ARC
8
0
10
2459.412948
20
860.712976
30
0.0
40
0.500000
50
268.376251
51
308.194227
0
ARC
8
0
10
2460.958771
20
858.748178
30
0.0
40
2.000000
50
56.002945
51
128.194227
0
LINE
8
0
10
2462.077072
20
860.406310
30
0.0
11
2462.495455
21
860.201102
31
0.0
0
ARC
8
0
10
2462.276213
20
859.483862
30
0.0
40
0.750000
50
29.273376
51
73.002945
0
LINE
8
0
10
2462.930436
20
859.850595
30
0.0
11
2471.872805
21
859.850595
31
0.0
0
LINE
8
0
10
2471.872805
20
859.850595
30
0.0
11
2471.872805
21
856.450595
31
0.0
0
LINE
8
0
10
2471.872805
20
856.450595
30
0.0
11
2469.872805
21
856.450595
31
0.0
0
LINE
8
0
10
2469.872805
20
856.450595
30
0.0
11
2469.872805
21
854.850595
31
0.0
0
LINE
8
0
10
2469.872805
20
854.850595
30
0.0
11
2473.372805
21
854.850595
31
0.0
0
LINE
8
0
10
2473.372805
20
854.850595
30
0.0
11
2473.372805
21
901.750595
31
0.0
0
ARC
8
0
10
2472.872805
20
901.750595
30
0.0
40
0.500000
50
0.000000
51
90.000000
0
LINE
8
0
10
2472.872805
20
902.250595
30
0.0
11
2469.872805
21
902.250595
31
0.0
0
ARC
8
0
10
2469.872805
20
901.750595
30
0.0
40
0.500000
50
90.000000
51
180.000000
0
LINE
8
0
10
2469.372805
20
901.750595
30
0.0
11
2469.372805
21
900.250595
31
0.0
0
LINE
8
0
10
2469.372805
20
900.250595
30
0.0
11
2469.872805
21
898.500595
31
0.0
0
LINE
8
0
10
2469.872805
20
898.500595
30
0.0
11
2470.372805
21
898.500595
31
0.0
0
LINE
8
0
10
2470.372805
20
898.500595
30
0.0
11
2470.372805
21
900.250595
31
0.0
0
LINE
8
0
10
2470.372805
20
900.250595
30
0.0
11
2471.872805
21
900.250595
31
0.0
0
LINE
8
0
10
2471.872805
20
900.250595
30
0.0
11
2471.872805
21
892.750595
31
0.0
0
LINE
8
0
10
2471.872805
20
892.750595
30
0.0
11
2470.372805
21
892.750595
31
0.0
0
LINE
8
0
10
2470.372805
20
892.750595
30
0.0
11
2470.372805
21
894.500595
31
0.0
0
LINE
8
0
10
2470.372805
20
894.500595
30
0.0
11
2469.872805
21
894.500595
31
0.0
0
LINE
8
0
10
2469.872805
20
894.500595
30
0.0
11
2469.372805
21
892.750595
31
0.0
0
LINE
8
0
10
2469.372805
20
892.750595
30
0.0
11
2469.372805
21
891.750595
31
0.0
0
ARC
8
0
10
2469.872805
20
891.750595
30
0.0
40
0.500000
50
180.000000
51
270.000000
0
LINE
8
0
10
2469.872805
20
891.250595
30
0.0
11
2471.772805
21
891.250595
31
0.0
0
LINE
8
0
10
2471.772805
20
891.250595
30
0.0
11
2471.772805
21
880.743431
31
0.0
0
LINE
8
0
10
2471.772805
20
880.743431
30
0.0
11
2471.669214
21
880.773045
31
0.0
0
LINE
8
0
10
2471.669214
20
880.773045
30
0.0
11
2464.470126
21
882.250595
31
0.0
0
LINE
8
0
10
2464.470126
20
882.250595
30
0.0
11
2461.772805
21
882.250595
31
0.0
0
ARC
8
0
10
2461.772805
20
881.950595
30
0.0
40
0.300000
50
90.000000
51
180.000000
0
LINE
8
0
10
2461.472805
20
881.950595
30
0.0
11
2461.472805
21
881.050595
31
0.0
0
ARC
8
0
10
2461.772805
20
881.050595
30
0.0
40
0.300000
50
180.000000
51
270.000000
0
LINE
8
0
10
2461.772805
20
880.750595
30
0.0
11
2462.972805
21
880.750595
31
0.0
0
LINE
8
0
10
2462.972805
20
880.750595
30
0.0
11
2462.972805
21
877.339372
31
0.0
0
ARC
8
0
10
2462.276213
20
877.617327
30
0.0
40
0.750000
50
286.997055
51
338.246886
0
LINE
8
0
10
2462.495455
20
876.900088
30
0.0
11
2462.077072
21
876.694879
31
0.0
0
ARC
8
0
10
2460.958771
20
878.353012
30
0.0
40
2.000000
50
231.805773
51
303.997055
0
ARC
8
0
10
2459.412948
20
876.388214
30
0.0
40
0.500000
50
51.805773
51
91.623749
0
LINE
8
0
10
2459.398780
20
876.888013
30
0.0
11
2458.742159
21
876.869399
31
0.0
0
ARC
8
0
10
2458.745544
20
876.569375
30
0.0
40
0.300000
50
90.000000
51
198.251415
0
LINE
8
0
10
2458.460636
20
876.475419
30
0.0
11
2460.524924
21
873.808978
31
0.0
0
ARC
8
0
10
2460.640071
20
873.898121
30
0.0
40
0.145621
50
217.746080
51
0.000000
0
LINE
8
0
10
2460.785603
20
873.903203
30
0.0
11
2460.780173
21
874.058690
31
0.0
0
ARC
8
0
10
2460.980051
20
874.065670
30
0.0
40
0.200000
50
128.823976
51
180.000000
0
LINE
8
0
10
2460.854665
20
874.221485
30
0.0
11
2462.497835
21
875.543760
31
0.0
0
LINE
8
0
10
2438.972805
20
874.007325
30
0.0
11
2439.745885
21
874.780405
31
0.0
0
LINE
8
0
10
2439.072805
20
871.862261
30
0.0
11
2439.429935
21
872.219391
31
0.0
0
LINE
8
0
10
2443.549966
20
876.339422
30
0.0
11
2444.042859
21
876.832315
31
0.0
0
LINE
8
0
10
2440.246950
20
873.036406
30
0.0
11
2441.168365
21
873.957821
31
0.0
0
LINE
8
0
10
2440.737288
20
871.281680
30
0.0
11
2446.299999
21
876.844391
31
0.0
0
LINE
8
0
10
2446.545063
20
874.844391
30
0.0
11
2448.545063
21
876.844391
31
0.0
0
LINE
8
0
10
2439.072805
20
865.127069
30
0.0
11
2440.102779
21
866.157043
31
0.0
0
LINE
8
0
10
2448.790127
20
874.844391
30
0.0
11
2450.790127
21
876.844391
31
0.0
0
LINE
8
0
10
2438.972805
20
862.782005
30
0.0
11
2439.972751
21
863.781951
31
0.0
0
LINE
8
0
10
2451.035191
20
874.844391
30
0.0
11
2453.035191
21
876.844391
31
0.0
0
LINE
8
0
10
2440.268266
20
864.077466
30
0.0
11
2441.618211
21
865.427411
31
0.0
0
LINE
8
0
10
2441.654218
20
863.218354
30
0.0
11
2443.252595
21
864.816731
31
0.0
0
LINE
8
0
10
2453.280255
20
874.844391
30
0.0
11
2455.280255
21
876.844391
31
0.0
0
LINE
8
0
10
2442.701128
20
862.020200
30
0.0
11
2444.141436
21
863.460508
31
0.0
0
LINE
8
0
10
2455.525319
20
874.844391
30
0.0
11
2457.525319
21
876.844391
31
0.0
0
LINE
8
0
10
2443.593033
20
860.667041
30
0.0
11
2445.197183
21
862.271191
31
0.0
0
LINE
8
0
10
2457.302603
20
874.376611
30
0.0
11
2458.741181
21
875.815189
31
0.0
0
LINE
8
0
10
2445.398468
20
860.227411
30
0.0
11
2447.398468
21
862.227411
31
0.0
0
LINE
8
0
10
2458.191443
20
873.020387
30
0.0
11
2459.633086
21
874.462030
31
0.0
0
LINE
8
0
10
2447.643532
20
860.227411
30
0.0
11
2449.643532
21
862.227411
31
0.0
0
LINE
8
0
10
2459.172899
20
871.756779
30
0.0
11
2462.192138
21
874.776018
31
0.0
0
LINE
8
0
10
2449.888596
20
860.227411
30
0.0
11
2451.888596
21
862.227411
31
0.0
0
LINE
8
0
10
2461.040127
20
871.378943
30
0.0
11
2461.899885
21
872.238701
31
0.0
0
LINE
8
0
10
2452.133660
20
860.227411
30
0.0
11
2454.133660
21
862.227411
31
0.0
0
LINE
8
0
10
2462.550639
20
870.644391
30
0.0
11
2462.972805
21
871.066557
31
0.0
0
LINE
8
0
10
2454.378724
20
860.227411
30
0.0
11
2456.378724
21
862.227411
31
0.0
0
LINE
8
0
10
2458.169984
20
864.018671
30
0.0
11
2459.577134
21
865.425822
31
0.0
0
LINE
8
0
10
2456.623788
20
860.227411
30
0.0
11
2462.771149
21
866.374773
31
0.0
0
LINE
8
0
10
2461.397021
20
862.755581
30
0.0
11
2462.393706
21
863.752265
31
0.0
0
LINE
8
0
10
2439.568222
20
862.227411
30
0.0
11
2438.972805
21
862.822828
31
0.0
0
LINE
8
0
10
2441.015256
20
863.025442
30
0.0
11
2440.142283
21
863.898415
31
0.0
0
LINE
8
0
10
2446.058350
20
860.227411
30
0.0
11
2440.164287
21
866.121475
31
0.0
0
LINE
8
0
10
2448.303414
20
860.227411
30
0.0
11
2446.303414
21
862.227411
31
0.0
0
LINE
8
0
10
2450.548478
20
860.227411
30
0.0
11
2448.548478
21
862.227411
31
0.0
0
LINE
8
0
10
2439.949669
20
870.826220
30
0.0
11
2439.072805
21
871.703085
31
0.0
0
LINE
8
0
10
2452.793542
20
860.227411
30
0.0
11
2450.793542
21
862.227411
31
0.0
0
LINE
8
0
10
2439.678221
20
873.342732
30
0.0
11
2438.972805
21
874.048149
31
0.0
0
LINE
8
0
10
2441.397471
20
871.623483
30
0.0
11
2440.321146
21
872.699807
31
0.0
0
LINE
8
0
10
2455.038606
20
860.227411
30
0.0
11
2453.038606
21
862.227411
31
0.0
0
LINE
8
0
10
2443.156924
20
872.109094
30
0.0
11
2441.407501
21
873.858517
31
0.0
0
LINE
8
0
10
2457.283670
20
860.227411
30
0.0
11
2455.283670
21
862.227411
31
0.0
0
LINE
8
0
10
2444.045765
20
873.465317
30
0.0
11
2442.605127
21
874.905955
31
0.0
0
LINE
8
0
10
2458.645180
20
861.110965
30
0.0
11
2457.198424
21
862.557722
31
0.0
0
LINE
8
0
10
2445.025888
20
874.730258
30
0.0
11
2443.497032
21
876.259114
31
0.0
0
LINE
8
0
10
2459.537085
20
862.464124
30
0.0
11
2458.095772
21
863.905437
31
0.0
0
LINE
8
0
10
2447.156819
20
874.844391
30
0.0
11
2445.156819
21
876.844391
31
0.0
0
LINE
8
0
10
2461.619138
20
862.627136
30
0.0
11
2459.025170
21
865.221104
31
0.0
0
LINE
8
0
10
2449.401883
20
874.844391
30
0.0
11
2447.401883
21
876.844391
31
0.0
0
LINE
8
0
10
2462.872096
20
863.619242
30
0.0
11
2462.689636
21
863.801702
31
0.0
0
LINE
8
0
10
2451.646947
20
874.844391
30
0.0
11
2449.646947
21
876.844391
31
0.0
0
LINE
8
0
10
2461.770124
20
864.721214
30
0.0
11
2460.887018
21
865.604320
31
0.0
0
LINE
8
0
10
2462.972805
20
865.763597
30
0.0
11
2462.315053
21
866.421348
31
0.0
0
LINE
8
0
10
2453.892011
20
874.844391
30
0.0
11
2451.892011
21
876.844391
31
0.0
0
LINE
8
0
10
2459.267819
20
871.713647
30
0.0
11
2458.629537
21
872.351929
31
0.0
0
LINE
8
0
10
2456.137075
20
874.844391
30
0.0
11
2454.137075
21
876.844391
31
0.0
0
LINE
8
0
10
2462.582032
20
870.644498
30
0.0
11
2456.382139
21
876.844391
31
0.0
0
LINE
8
0
10
2462.133836
20
873.337758
30
0.0
11
2461.243911
21
874.227683
31
0.0
0
ARC
8
0
10
2457.793527
20
860.727411
30
0.0
40
0.500000
50
270.000000
51
326.610000
0
LINE
8
0
10
2457.793527
20
860.227411
30
0.0
11
2450.972805
21
860.227411
31
0.0
0
LINE
8
0
10
2450.972805
20
860.227411
30
0.0
11
2444.152084
21
860.227411
31
0.0
0
ARC
8
0
10
2444.152084
20
860.727411
30
0.0
40
0.500000
50
213.390000
51
270.000000
0
LINE
8
0
10
2443.734612
20
860.452244
30
0.0
11
2442.104108
21
862.925972
31
0.0
0
ARC
8
0
10
2441.544391
20
862.557046
30
0.0
40
0.670365
50
33.390000
51
120.039706
0
LINE
8
0
10
2441.208806
20
863.137367
30
0.0
11
2439.677655
21
862.251942
31
0.0
0
LINE
8
0
10
2439.581685
20
862.227411
30
0.0
11
2439.677655
21
862.251942
31
0.0
0
LINE
8
0
10
2439.581685
20
862.227411
30
0.0
11
2439.372805
21
862.227411
31
0.0
0
ARC
8
0
10
2439.372805
20
862.627411
30
0.0
40
0.400000
50
180.000000
51
270.000000
0
LINE
8
0
10
2438.972805
20
862.627411
30
0.0
11
2438.972805
21
863.227411
31
0.0
0
LINE
8
0
10
2438.972805
20
863.227411
30
0.0
11
2439.072805
21
863.227411
31
0.0
0
LINE
8
0
10
2439.072805
20
863.227411
30
0.0
11
2439.072805
21
863.602411
31
0.0
0
ARC
8
0
10
2439.272805
20
863.602411
30
0.0
40
0.200000
50
90.000000
51
180.000000
0
LINE
8
0
10
2439.272805
20
863.802411
30
0.0
11
2439.432331
21
863.802411
31
0.0
0
ARC
8
0
10
2439.722805
20
864.327411
30
0.0
40
0.600000
50
241.044976
51
0.000000
0
ARC
8
0
10
2439.722805
20
864.327411
30
0.0
40
0.600000
50
0.000000
51
118.955024
0
LINE
8
0
10
2439.432331
20
864.852411
30
0.0
11
2439.272805
21
864.852411
31
0.0
0
ARC
8
0
10
2439.272805
20
865.052411
30
0.0
40
0.200000
50
180.000000
51
270.000000
0
LINE
8
0
10
2439.072805
20
865.052411
30
0.0
11
2439.072805
21
865.427411
31
0.0
0
LINE
8
0
10
2439.072805
20
865.427411
30
0.0
11
2438.972805
21
865.427411
31
0.0
0
LINE
8
0
10
2438.972805
20
865.427411
30
0.0
11
2438.972805
21
866.027411
31
0.0
0
ARC
8
0
10
2439.372805
20
866.027411
30
0.0
40
0.400000
50
90.000000
51
180.000000
0
LINE
8
0
10
2439.372805
20
866.427411
30
0.0
11
2439.581685
21
866.427411
31
0.0
0
LINE
8
0
10
2439.677655
20
866.402881
30
0.0
11
2439.581685
21
866.427411
31
0.0
0
LINE
8
0
10
2439.677655
20
866.402881
30
0.0
11
2441.178694
21
865.534869
31
0.0
0
ARC
8
0
10
2441.579174
20
866.227411
30
0.0
40
0.800000
50
239.960294
51
270.000000
0
LINE
8
0
10
2441.579174
20
865.427411
30
0.0
11
2442.312121
21
865.427411
31
0.0
0
ARC
8
0
10
2442.312121
20
864.427411
30
0.0
40
1.000000
50
33.240000
51
90.000000
0
LINE
8
0
10
2443.148503
20
864.975559
30
0.0
11
2444.653446
21
862.679264
31
0.0
0
ARC
8
0
10
2445.489828
20
863.227411
30
0.0
40
1.000000
50
213.240000
51
270.000000
0
LINE
8
0
10
2445.489828
20
862.227411
30
0.0
11
2450.972805
21
862.227411
31
0.0
0
LINE
8
0
10
2450.972805
20
862.227411
30
0.0
11
2456.305221
21
862.227411
31
0.0
0
LINE
8
0
10
2456.305221
20
862.227411
30
0.0
11
2456.455782
21
862.227411
31
0.0
0
ARC
8
0
10
2456.455782
20
863.227411
30
0.0
40
1.000000
50
270.000000
51
326.760000
0
LINE
8
0
10
2457.292164
20
862.679264
30
0.0
11
2458.797108
21
864.975559
31
0.0
0
ARC
8
0
10
2459.633489
20
864.427411
30
0.0
40
1.000000
50
90.000000
51
146.760000
0
LINE
8
0
10
2459.633489
20
865.427411
30
0.0
11
2460.366436
21
865.427411
31
0.0
0
ARC
8
0
10
2460.366436
20
866.227411
30
0.0
40
0.800000
50
270.000000
51
300.039706
0
LINE
8
0
10
2460.766916
20
865.534869
30
0.0
11
2462.267955
21
866.402881
31
0.0
0
LINE
8
0
10
2462.363925
20
866.427411
30
0.0
11
2462.267955
21
866.402881
31
0.0
0
LINE
8
0
10
2462.363925
20
866.427411
30
0.0
11
2462.572805
21
866.427411
31
0.0
0
ARC
8
0
10
2462.572805
20
866.027411
30
0.0
40
0.400000
50
0.000000
51
90.000000
0
LINE
8
0
10
2462.972805
20
866.027411
30
0.0
11
2462.972805
21
865.427411
31
0.0
0
LINE
8
0
10
2462.972805
20
865.427411
30
0.0
11
2462.872805
21
865.427411
31
0.0
0
LINE
8
0
10
2462.872805
20
865.427411
30
0.0
11
2462.872805
21
865.052411
31
0.0
0
ARC
8
0
10
2462.672805
20
865.052411
30
0.0
40
0.200000
50
270.000000
51
0.000000
0
LINE
8
0
10
2462.672805
20
864.852411
30
0.0
11
2462.513279
21
864.852411
31
0.0
0
ARC
8
0
10
2462.222805
20
864.327411
30
0.0
40
0.600000
50
61.044976
51
180.000000
0
ARC
8
0
10
2462.222805
20
864.327411
30
0.0
40
0.600000
50
180.000000
51
298.955024
0
LINE
8
0
10
2462.513279
20
863.802411
30
0.0
11
2462.672805
21
863.802411
31
0.0
0
ARC
8
0
10
2462.672805
20
863.602411
30
0.0
40
0.200000
50
0.000000
51
90.000000
0
LINE
8
0
10
2462.872805
20
863.602411
30
0.0
11
2462.872805
21
863.227411
31
0.0
0
LINE
8
0
10
2462.872805
20
863.227411
30
0.0
11
2462.972805
21
863.227411
31
0.0
0
LINE
8
0
10
2462.972805
20
863.227411
30
0.0
11
2462.972805
21
862.627411
31
0.0
0
ARC
8
0
10
2462.572805
20
862.627411
30
0.0
40
0.400000
50
270.000000
51
0.000000
0
LINE
8
0
10
2462.572805
20
862.227411
30
0.0
11
2462.363925
21
862.227411
31
0.0
0
LINE
8
0
10
2462.267955
20
862.251942
30
0.0
11
2462.363925
21
862.227411
31
0.0
0
LINE
8
0
10
2462.267955
20
862.251942
30
0.0
11
2460.736804
21
863.137367
31
0.0
0
ARC
8
0
10
2460.401219
20
862.557046
30
0.0
40
0.670365
50
59.960294
51
146.610000
0
LINE
8
0
10
2459.841502
20
862.925972
30
0.0
11
2458.210999
21
860.452244
31
0.0
0
ARC
8
0
10
2457.793527
20
876.344391
30
0.0
40
0.500000
50
33.390000
51
90.000000
0
LINE
8
0
10
2457.793527
20
876.844391
30
0.0
11
2450.972805
21
876.844391
31
0.0
0
LINE
8
0
10
2450.972805
20
876.844391
30
0.0
11
2444.152084
21
876.844391
31
0.0
0
ARC
8
0
10
2444.152084
20
876.344391
30
0.0
40
0.500000
50
90.000000
51
146.610000
0
LINE
8
0
10
2443.734612
20
876.619559
30
0.0
11
2442.104108
21
874.145831
31
0.0
0
ARC
8
0
10
2441.544391
20
874.514756
30
0.0
40
0.670365
50
239.960294
51
326.610000
0
LINE
8
0
10
2441.208806
20
873.934436
30
0.0
11
2439.677655
21
874.819861
31
0.0
0
LINE
8
0
10
2439.677655
20
874.819861
30
0.0
11
2439.581685
21
874.844391
31
0.0
0
LINE
8
0
10
2439.581685
20
874.844391
30
0.0
11
2439.372805
21
874.844391
31
0.0
0
ARC
8
0
10
2439.372805
20
874.444391
30
0.0
40
0.400000
50
90.000000
51
180.000000
0
LINE
8
0
10
2438.972805
20
874.444391
30
0.0
11
2438.972805
21
873.844391
31
0.0
0
LINE
8
0
10
2438.972805
20
873.844391
30
0.0
11
2439.072805
21
873.844391
31
0.0
0
LINE
8
0
10
2439.072805
20
873.844391
30
0.0
11
2439.072805
21
873.469391
31
0.0
0
ARC
8
0
10
2439.272805
20
873.469391
30
0.0
40
0.200000
50
180.000000
51
270.000000
0
LINE
8
0
10
2439.272805
20
873.269391
30
0.0
11
2439.432331
21
873.269391
31
0.0
0
ARC
8
0
10
2439.722805
20
872.744391
30
0.0
40
0.600000
50
0.000000
51
118.955024
0
ARC
8
0
10
2439.722805
20
872.744391
30
0.0
40
0.600000
50
241.044976
51
0.000000
0
LINE
8
0
10
2439.432331
20
872.219391
30
0.0
11
2439.272805
21
872.219391
31
0.0
0
ARC
8
0
10
2439.272805
20
872.019391
30
0.0
40
0.200000
50
90.000000
51
180.000000
0
LINE
8
0
10
2439.072805
20
872.019391
30
0.0
11
2439.072805
21
871.644391
31
0.0
0
LINE
8
0
10
2439.072805
20
871.644391
30
0.0
11
2438.972805
21
871.644391
31
0.0
0
LINE
8
0
10
2438.972805
20
871.644391
30
0.0
11
2438.972805
21
871.044391
31
0.0
0
ARC
8
0
10
2439.372805
20
871.044391
30
0.0
40
0.400000
50
180.000000
51
270.000000
0
LINE
8
0
10
2439.372805
20
870.644391
30
0.0
11
2439.581685
21
870.644391
31
0.0
0
LINE
8
0
10
2439.581685
20
870.644391
30
0.0
11
2439.677655
21
870.668921
31
0.0
0
LINE
8
0
10
2439.677655
20
870.668921
30
0.0
11
2441.178694
21
871.536934
31
0.0
0
ARC
8
0
10
2441.579174
20
870.844391
30
0.0
40
0.800000
50
90.000000
51
120.039706
0
LINE
8
0
10
2441.579174
20
871.644391
30
0.0
11
2442.312121
21
871.644391
31
0.0
0
ARC
8
0
10
2442.312121
20
872.644391
30
0.0
40
1.000000
50
270.000000
51
326.760000
0
LINE
8
0
10
2443.148503
20
872.096244
30
0.0
11
2444.653446
21
874.392538
31
0.0
0
ARC
8
0
10
2445.489828
20
873.844391
30
0.0
40
1.000000
50
90.000000
51
146.760000
0
LINE
8
0
10
2445.489828
20
874.844391
30
0.0
11
2450.972805
21
874.844391
31
0.0
0
LINE
8
0
10
2450.972805
20
874.844391
30
0.0
11
2456.305221
21
874.844391
31
0.0
0
LINE
8
0
10
2456.305221
20
874.844391
30
0.0
11
2456.455782
21
874.844391
31
0.0
0
ARC
8
0
10
2456.455782
20
873.844391
30
0.0
40
1.000000
50
33.240000
51
90.000000
0
LINE
8
0
10
2457.292164
20
874.392538
30
0.0
11
2458.797108
21
872.096244
31
0.0
0
ARC
8
0
10
2459.633489
20
872.644391
30
0.0
40
1.000000
50
213.240000
51
270.000000
0
LINE
8
0
10
2459.633489
20
871.644391
30
0.0
11
2460.366436
21
871.644391
31
0.0
0
ARC
8
0
10
2460.366436
20
870.844391
30
0.0
40
0.800000
50
59.960294
51
90.000000
0
LINE
8
0
10
2460.766916
20
871.536934
30
0.0
11
2462.267955
21
870.668921
31
0.0
0
LINE
8
0
10
2462.267955
20
870.668921
30
0.0
11
2462.363925
21
870.644391
31
0.0
0
LINE
8
0
10
2462.363925
20
870.644391
30
0.0
11
2462.572805
21
870.644391
31
0.0
0
ARC
8
0
10
2462.572805
20
871.044391
30
0.0
40
0.400000
50
270.000000
51
0.000000
0
LINE
8
0
10
2462.972805
20
871.044391
30
0.0
11
2462.972805
21
871.644391
31
0.0
0
LINE
8
0
10
2462.972805
20
871.644391
30
0.0
11
2462.872805
21
871.644391
31
0.0
0
LINE
8
0
10
2462.872805
20
871.644391
30
0.0
11
2462.872805
21
872.019391
31
0.0
0
ARC
8
0
10
2462.672805
20
872.019391
30
0.0
40
0.200000
50
0.000000
51
90.000000
0
LINE
8
0
10
2462.672805
20
872.219391
30
0.0
11
2462.513279
21
872.219391
31
0.0
0
ARC
8
0
10
2462.222805
20
872.744391
30
0.0
40
0.600000
50
180.000000
51
298.955024
0
ARC
8
0
10
2462.222805
20
872.744391
30
0.0
40
0.600000
50
61.044976
51
180.000000
0
LINE
8
0
10
2462.513279
20
873.269391
30
0.0
11
2462.672805
21
873.269391
31
0.0
0
ARC
8
0
10
2462.672805
20
873.469391
30
0.0
40
0.200000
50
270.000000
51
0.000000
0
LINE
8
0
10
2462.872805
20
873.469391
30
0.0
11
2462.872805
21
873.844391
31
0.0
0
LINE
8
0
10
2462.872805
20
873.844391
30
0.0
11
2462.972805
21
873.844391
31
0.0
0
LINE
8
0
10
2462.972805
20
873.844391
30
0.0
11
2462.972805
21
874.444391
31
0.0
0
ARC
8
0
10
2462.572805
20
874.444391
30
0.0
40
0.400000
50
0.000000
51
90.000000
0
LINE
8
0
10
2462.572805
20
874.844391
30
0.0
11
2462.363925
21
874.844391
31
0.0
0
LINE
8
0
10
2462.363925
20
874.844391
30
0.0
11
2462.267955
21
874.819861
31
0.0
0
LINE
8
0
10
2462.267955
20
874.819861
30
0.0
11
2460.736804
21
873.934436
31
0.0
0
ARC
8
0
10
2460.401219
20
874.514756
30
0.0
40
0.670365
50
213.390000
51
300.039706
0
LINE
8
0
10
2459.841502
20
874.145831
30
0.0
11
2458.210999
21
876.619559
31
0.0
0
ATTDEF
8
0
10
2436.022805
20
882.250595
30
0.0
40
3.5
1

3

2
VC_START
70
0
0
ATTDEF
8
0
10
2473.372805
20
854.850595
30
0.0
40
3.5
1

3

2
VC_END
70
0
0
ATTDEF
8
0
10
2473.372805
20
809.850595
30
0.0
40
3.5
1

3

2
FRONT_VIEW
70
0
0
ATTDEF
8
0
10
2473.372805
20
809.850595
30
0.0
40
3.5
1

3

2
OPTI:500.000000,1,0,3000.000000,6500.000000,500.000000,0,0.000000,0
70
0
0
ATTDEF
8
0
10
2473.372805
20
809.850595
30
0.0
40
3.5
1

3

2
GLASS_MIN:0.000000
70
0
0
ATTDEF
8
0
10
2473.372805
20
809.850595
30
0.0
40
3.5
1

3

2
GLASS_MAX:0.000000
70
0
0
ATTDEF
8
0
10
2473.372805
20
809.850595
30
0.0
40
3.5
1

3

2
FP_LCS_ORIG
70
0
0
ATTDEF
8
0
10
2463.372805
20
809.850595
30
0.0
40
3.5
1

3

2
FP_LCS_HOT
70
0
0
ATTDEF
8
0
10
2473.372805
20
819.850595
30
0.0
40
3.5
1

3

2
FP_LCS_INTERN
70
0
0
ATTDEF
8
0
10
0.000000
20
0.000000
30
0.0
40
3.5
1

3

2
TDEV4:0
70
0
0
ATTDEF
8
0
10
0.000000
20
0.000000
30
0.0
40
3.5
1

3

2
TDEV5:0
70
0
0
ATTDEF
8
0
10
0.000000
20
0.000000
30
0.0
40
3.5
1

3

2
PANE_WIDTH:0
70
0
0
ATTDEF
8
0
10
0.000000
20
0.000000
30
0.0
40
3.5
1

3

2
MIN_VETRO:0
70
0
0
ATTDEF
8
0
10
0.000000
20
0.000000
30
0.0
40
3.5
1

3

2
MAX_VETRO:0
70
0
0
ATTDEF
8
0
10
0.000000
20
0.000000
30
0.0
40
3.5
1

3

2
JX:0
70
0
0
ATTDEF
8
0
10
0.000000
20
0.000000
30
0.0
40
3.5
1

3

2
WX:0
70
0
0
ATTDEF
8
0
10
0.000000
20
0.000000
30
0.0
40
3.5
1

3

2
JY:0
70
0
0
ATTDEF
8
0
10
0.000000
20
0.000000
30
0.0
40
3.5
1

3

2
WY:0
70
0
0
ATTDEF
8
0
10
0.000000
20
0.000000
30
0.0
40
3.5
1

3

2
DESC:Marco ventana solape recto 45mm (Window frame 45mm straight overlap)
70
0
0
ATTDEF
8
0
10
0.000000
20
0.000000
30
0.0
40
3.5
1

3

2
DENS:1.4717
70
0
0
ATTDEF
8
0
10
0.000000
20
0.000000
30
0.0
40
3.5
1

3

2
TDEV:59.41
70
0
0
ATTDEF
8
0
10
0.000000
20
0.000000
30
0.0
40
3.5
1

3

2
TDEV2:0
70
0
0
ATTDEF
8
0
10
0.000000
20
0.000000
30
0.0
40
3.5
1

3

2
TDEV3:0
70
0
0
ATTDEF
8
0
10
0.000000
20
0.000000
30
0.0
40
3.5
1

3

2
TDEV4:0
70
0
0
ATTDEF
8
0
10
0.000000
20
0.000000
30
0.0
40
3.5
1

3

2
TDEV5:0
70
0
0
ATTDEF
8
0
10
0.000000
20
0.000000
30
0.0
40
3.5
1

3

2
PANE_WIDTH:0
70
0
0
ATTDEF
8
0
10
0.000000
20
0.000000
30
0.0
40
3.5
1

3

2
MIN_VETRO:0
70
0
0
ATTDEF
8
0
10
0.000000
20
0.000000
30
0.0
40
3.5
1

3

2
MAX_VETRO:0
70
0
0
ATTDEF
8
0
10
0.000000
20
0.000000
30
0.0
40
3.5
1

3

2
JX:0
70
0
0
ATTDEF
8
0
10
0.000000
20
0.000000
30
0.0
40
3.5
1

3

2
WX:0
70
0
0
ATTDEF
8
0
10
0.000000
20
0.000000
30
0.0
40
3.5
1

3

2
JY:0
70
0
0
ATTDEF
8
0
10
0.000000
20
0.000000
30
0.0
40
3.5
1

3

2
WY:0
70
0
0
ENDSEC
0
EOF
