0
SECTION
2
ENTITIES
0
LINE
8
0
10
2307.754420
20
975.397950
30
0.0
11
2308.885879
21
976.529409
31
0.0
0
LINE
8
0
10
2307.629456
20
973.027921
30
0.0
11
2313.476006
21
978.874471
31
0.0
0
LINE
8
0
10
2310.521070
20
973.674471
30
0.0
11
2315.721070
21
978.874471
31
0.0
0
LINE
8
0
10
2315.966134
20
976.874471
30
0.0
11
2317.966134
21
978.874471
31
0.0
0
LINE
8
0
10
2318.211198
20
976.874471
30
0.0
11
2320.211198
21
978.874471
31
0.0
0
LINE
8
0
10
2320.456262
20
976.874471
30
0.0
11
2322.456262
21
978.874471
31
0.0
0
LINE
8
0
10
2322.701326
20
976.874471
30
0.0
11
2324.701326
21
978.874471
31
0.0
0
LINE
8
0
10
2324.946390
20
976.874471
30
0.0
11
2326.800478
21
978.728559
31
0.0
0
LINE
8
0
10
2326.260252
20
975.943269
30
0.0
11
2327.699878
21
977.382895
31
0.0
0
LINE
8
0
10
2327.149093
20
974.587046
30
0.0
11
2328.607704
21
976.045657
31
0.0
0
LINE
8
0
10
2328.481583
20
973.674471
30
0.0
11
2331.535670
21
976.728559
31
0.0
0
LINE
8
0
10
2330.180121
20
973.127946
30
0.0
11
2331.301647
21
974.249471
31
0.0
0
LINE
8
0
10
2308.753406
20
972.942928
30
0.0
11
2307.726738
21
973.969596
31
0.0
0
LINE
8
0
10
2310.266926
20
973.674471
30
0.0
11
2308.926430
21
975.014968
31
0.0
0
LINE
8
0
10
2308.617234
20
975.324164
30
0.0
11
2307.626738
21
976.314660
31
0.0
0
LINE
8
0
10
2311.904462
20
974.282000
30
0.0
11
2310.303662
21
975.882799
31
0.0
0
LINE
8
0
10
2312.793302
20
975.638223
30
0.0
11
2311.352988
21
977.078538
31
0.0
0
LINE
8
0
10
2313.847127
20
976.829463
30
0.0
11
2312.244893
21
978.431697
31
0.0
0
LINE
8
0
10
2316.047182
20
976.874471
30
0.0
11
2314.047182
21
978.874471
31
0.0
0
LINE
8
0
10
2318.292246
20
976.874471
30
0.0
11
2316.292246
21
978.874471
31
0.0
0
LINE
8
0
10
2320.537310
20
976.874471
30
0.0
11
2318.537310
21
978.874471
31
0.0
0
LINE
8
0
10
2322.782374
20
976.874471
30
0.0
11
2320.782374
21
978.874471
31
0.0
0
LINE
8
0
10
2328.225521
20
973.676389
30
0.0
11
2326.833839
21
975.068071
31
0.0
0
LINE
8
0
10
2325.027438
20
976.874471
30
0.0
11
2323.027438
21
978.874471
31
0.0
0
LINE
8
0
10
2331.421747
20
972.725227
30
0.0
11
2325.272502
21
978.874471
31
0.0
0
LINE
8
0
10
2331.040287
20
975.351751
30
0.0
11
2330.047647
21
976.344390
31
0.0
0
LINE
8
0
10
2328.495435
20
976.175911
30
0.0
11
2326.864931
21
978.649639
31
0.0
0
ARC
8
0
10
2326.447459
20
978.374471
30
0.0
40
0.500000
50
33.390000
51
90.000000
0
LINE
8
0
10
2326.447459
20
978.874471
30
0.0
11
2319.626738
21
978.874471
31
0.0
0
LINE
8
0
10
2319.626738
20
978.874471
30
0.0
11
2312.806016
21
978.874471
31
0.0
0
ARC
8
0
10
2312.806016
20
978.374471
30
0.0
40
0.500000
50
90.000000
51
146.610000
0
LINE
8
0
10
2312.388544
20
978.649639
30
0.0
11
2310.758041
21
976.175911
31
0.0
0
ARC
8
0
10
2310.198323
20
976.544837
30
0.0
40
0.670365
50
239.960294
51
326.610000
0
LINE
8
0
10
2309.862739
20
975.964516
30
0.0
11
2308.331588
21
976.849941
31
0.0
0
LINE
8
0
10
2308.331588
20
976.849941
30
0.0
11
2308.235618
21
976.874471
31
0.0
0
LINE
8
0
10
2308.235618
20
976.874471
30
0.0
11
2308.026738
21
976.874471
31
0.0
0
ARC
8
0
10
2308.026738
20
976.474471
30
0.0
40
0.400000
50
90.000000
51
180.000000
0
LINE
8
0
10
2307.626738
20
976.474471
30
0.0
11
2307.626738
21
975.874471
31
0.0
0
LINE
8
0
10
2307.626738
20
975.874471
30
0.0
11
2307.726738
21
975.874471
31
0.0
0
LINE
8
0
10
2307.726738
20
975.874471
30
0.0
11
2307.726738
21
975.499471
31
0.0
0
ARC
8
0
10
2307.926738
20
975.499471
30
0.0
40
0.200000
50
180.000000
51
270.000000
0
LINE
8
0
10
2307.926738
20
975.299471
30
0.0
11
2308.086264
21
975.299471
31
0.0
0
ARC
8
0
10
2308.376738
20
974.774471
30
0.0
40
0.600000
50
0.000000
51
118.955024
0
ARC
8
0
10
2308.376738
20
974.774471
30
0.0
40
0.600000
50
241.044976
51
0.000000
0
LINE
8
0
10
2308.086264
20
974.249471
30
0.0
11
2307.926738
21
974.249471
31
0.0
0
ARC
8
0
10
2307.926738
20
974.049471
30
0.0
40
0.200000
50
90.000000
51
180.000000
0
LINE
8
0
10
2307.726738
20
974.049471
30
0.0
11
2307.726738
21
973.674471
31
0.0
0
LINE
8
0
10
2307.726738
20
973.674471
30
0.0
11
2307.626738
21
973.674471
31
0.0
0
LINE
8
0
10
2307.626738
20
973.674471
30
0.0
11
2307.626738
21
973.074471
31
0.0
0
ARC
8
0
10
2308.026738
20
973.074471
30
0.0
40
0.400000
50
180.000000
51
270.000000
0
LINE
8
0
10
2308.026738
20
972.674471
30
0.0
11
2308.235618
21
972.674471
31
0.0
0
LINE
8
0
10
2308.235618
20
972.674471
30
0.0
11
2308.331588
21
972.699002
31
0.0
0
LINE
8
0
10
2308.331588
20
972.699002
30
0.0
11
2309.832627
21
973.567014
31
0.0
0
ARC
8
0
10
2310.233107
20
972.874471
30
0.0
40
0.800000
50
90.000000
51
120.039706
0
LINE
8
0
10
2310.233107
20
973.674471
30
0.0
11
2310.966053
21
973.674471
31
0.0
0
ARC
8
0
10
2310.966053
20
974.674471
30
0.0
40
1.000000
50
270.000000
51
326.760000
0
LINE
8
0
10
2311.802435
20
974.126324
30
0.0
11
2313.307379
21
976.422619
31
0.0
0
ARC
8
0
10
2314.143761
20
975.874471
30
0.0
40
1.000000
50
90.000000
51
146.760000
0
LINE
8
0
10
2314.143761
20
976.874471
30
0.0
11
2319.626738
21
976.874471
31
0.0
0
LINE
8
0
10
2319.626738
20
976.874471
30
0.0
11
2324.959154
21
976.874471
31
0.0
0
LINE
8
0
10
2324.959154
20
976.874471
30
0.0
11
2325.109715
21
976.874471
31
0.0
0
ARC
8
0
10
2325.109715
20
975.874471
30
0.0
40
1.000000
50
33.240000
51
90.000000
0
LINE
8
0
10
2325.946097
20
976.422619
30
0.0
11
2327.451040
21
974.126324
31
0.0
0
ARC
8
0
10
2328.287422
20
974.674471
30
0.0
40
1.000000
50
213.240000
51
270.000000
0
LINE
8
0
10
2328.287422
20
973.674471
30
0.0
11
2329.020368
21
973.674471
31
0.0
0
ARC
8
0
10
2329.020368
20
972.874471
30
0.0
40
0.800000
50
59.960294
51
90.000000
0
LINE
8
0
10
2329.420848
20
973.567014
30
0.0
11
2330.921887
21
972.699002
31
0.0
0
LINE
8
0
10
2330.921887
20
972.699002
30
0.0
11
2331.017858
21
972.674471
31
0.0
0
LINE
8
0
10
2331.017858
20
972.674471
30
0.0
11
2331.226738
21
972.674471
31
0.0
0
ARC
8
0
10
2331.226738
20
973.074471
30
0.0
40
0.400000
50
270.000000
51
0.000000
0
LINE
8
0
10
2331.626738
20
973.074471
30
0.0
11
2331.626738
21
973.674471
31
0.0
0
LINE
8
0
10
2331.626738
20
973.674471
30
0.0
11
2331.526738
21
973.674471
31
0.0
0
LINE
8
0
10
2331.526738
20
973.674471
30
0.0
11
2331.526738
21
974.049471
31
0.0
0
ARC
8
0
10
2331.326738
20
974.049471
30
0.0
40
0.200000
50
0.000000
51
90.000000
0
LINE
8
0
10
2331.326738
20
974.249471
30
0.0
11
2331.167212
21
974.249471
31
0.0
0
ARC
8
0
10
2330.876738
20
974.774471
30
0.0
40
0.600000
50
61.044976
51
298.955024
0
LINE
8
0
10
2331.167212
20
975.299471
30
0.0
11
2331.326738
21
975.299471
31
0.0
0
ARC
8
0
10
2331.326738
20
975.499471
30
0.0
40
0.200000
50
270.000000
51
0.000000
0
LINE
8
0
10
2331.526738
20
975.499471
30
0.0
11
2331.526738
21
975.874471
31
0.0
0
LINE
8
0
10
2331.526738
20
975.874471
30
0.0
11
2331.626738
21
975.874471
31
0.0
0
LINE
8
0
10
2331.626738
20
975.874471
30
0.0
11
2331.626738
21
976.474471
31
0.0
0
ARC
8
0
10
2331.226738
20
976.474471
30
0.0
40
0.400000
50
0.000000
51
90.000000
0
LINE
8
0
10
2331.226738
20
976.874471
30
0.0
11
2331.017858
21
976.874471
31
0.0
0
LINE
8
0
10
2331.017858
20
976.874471
30
0.0
11
2330.921887
21
976.849941
31
0.0
0
LINE
8
0
10
2330.921887
20
976.849941
30
0.0
11
2329.390737
21
975.964516
31
0.0
0
ARC
8
0
10
2329.055152
20
976.544837
30
0.0
40
0.670365
50
213.390000
51
300.039706
0
ARC
8
0
10
2308.376738
20
974.774471
30
0.0
40
0.600000
50
0.000000
51
180.000000
0
ARC
8
0
10
2308.376738
20
974.774471
30
0.0
40
0.600000
50
180.000000
51
0.000000
0
ARC
8
0
10
2330.876738
20
974.774471
30
0.0
40
0.600000
50
0.000000
51
180.000000
0
ARC
8
0
10
2330.876738
20
974.774471
30
0.0
40
0.600000
50
180.000000
51
0.000000
0
ARC
8
0
10
2308.376738
20
936.663105
30
0.0
40
0.600000
50
0.000000
51
180.000000
0
ARC
8
0
10
2308.376738
20
936.663105
30
0.0
40
0.600000
50
180.000000
51
0.000000
0
ARC
8
0
10
2330.876738
20
936.663105
30
0.0
40
0.600000
50
0.000000
51
180.000000
0
ARC
8
0
10
2330.876738
20
936.663105
30
0.0
40
0.600000
50
180.000000
51
0.000000
0
LINE
8
0
10
2322.496738
20
931.763105
30
0.0
11
2322.496738
21
927.263105
31
0.0
0
ARC
8
0
10
2323.296738
20
931.763105
30
0.0
40
0.800000
50
90.000000
51
180.000000
0
LINE
8
0
10
2326.447459
20
932.563105
30
0.0
11
2323.296738
21
932.563105
31
0.0
0
ARC
8
0
10
2326.447459
20
933.063105
30
0.0
40
0.500000
50
270.000000
51
326.610000
0
LINE
8
0
10
2326.864931
20
932.787938
30
0.0
11
2328.495434
21
935.261666
31
0.0
0
ARC
8
0
10
2329.055152
20
934.892740
30
0.0
40
0.670365
50
59.960294
51
146.609962
0
LINE
8
0
10
2330.913645
20
934.592402
30
0.0
11
2329.390737
21
935.473061
31
0.0
0
ARC
8
0
10
2331.017858
20
934.763105
30
0.0
40
0.200000
50
238.596344
51
270.000000
0
LINE
8
0
10
2331.226738
20
934.563105
30
0.0
11
2331.017858
21
934.563105
31
0.0
0
ARC
8
0
10
2331.226738
20
934.963105
30
0.0
40
0.400000
50
270.000000
51
0.000000
0
LINE
8
0
10
2331.626738
20
935.563105
30
0.0
11
2331.626738
21
934.963105
31
0.0
0
LINE
8
0
10
2331.526738
20
935.563105
30
0.0
11
2331.626738
21
935.563105
31
0.0
0
LINE
8
0
10
2331.526738
20
935.938105
30
0.0
11
2331.526738
21
935.563105
31
0.0
0
ARC
8
0
10
2331.326738
20
935.938105
30
0.0
40
0.200000
50
0.000000
51
90.000000
0
LINE
8
0
10
2331.167212
20
936.138105
30
0.0
11
2331.326738
21
936.138105
31
0.0
0
ARC
8
0
10
2330.876738
20
936.663105
30
0.0
40
0.600000
50
180.000000
51
298.955024
0
ARC
8
0
10
2330.876738
20
936.663105
30
0.0
40
0.600000
50
61.044976
51
180.000000
0
LINE
8
0
10
2331.326738
20
937.188105
30
0.0
11
2331.167212
21
937.188105
31
0.0
0
ARC
8
0
10
2331.326738
20
937.388105
30
0.0
40
0.200000
50
270.000000
51
0.000000
0
LINE
8
0
10
2331.526738
20
937.763105
30
0.0
11
2331.526738
21
937.388105
31
0.0
0
LINE
8
0
10
2331.626738
20
937.763105
30
0.0
11
2331.526738
21
937.763105
31
0.0
0
LINE
8
0
10
2331.626738
20
938.363105
30
0.0
11
2331.626738
21
937.763105
31
0.0
0
ARC
8
0
10
2331.226738
20
938.363105
30
0.0
40
0.400000
50
0.000000
51
90.000000
0
LINE
8
0
10
2331.017858
20
938.763105
30
0.0
11
2331.226738
21
938.763105
31
0.0
0
ARC
8
0
10
2331.017858
20
938.563105
30
0.0
40
0.200000
50
90.000000
51
121.403656
0
LINE
8
0
10
2329.420848
20
937.870562
30
0.0
11
2330.913645
21
938.733809
31
0.0
0
ARC
8
0
10
2329.020368
20
938.563105
30
0.0
40
0.800000
50
270.000000
51
300.039706
0
LINE
8
0
10
2328.287422
20
937.763105
30
0.0
11
2329.020368
21
937.763105
31
0.0
0
ARC
8
0
10
2328.287422
20
936.763105
30
0.0
40
1.000000
50
90.000000
51
146.760000
0
LINE
8
0
10
2325.946097
20
935.014958
30
0.0
11
2327.451040
21
937.311253
31
0.0
0
ARC
8
0
10
2325.109715
20
935.563105
30
0.0
40
1.000000
50
270.000000
51
326.760000
0
LINE
8
0
10
2319.626738
20
934.563105
30
0.0
11
2325.109715
21
934.563105
31
0.0
0
LINE
8
0
10
2314.143761
20
934.563105
30
0.0
11
2319.626738
21
934.563105
31
0.0
0
ARC
8
0
10
2314.143761
20
935.563105
30
0.0
40
1.000000
50
213.240000
51
270.000000
0
LINE
8
0
10
2311.802435
20
937.311253
30
0.0
11
2313.307379
21
935.014958
31
0.0
0
ARC
8
0
10
2310.966053
20
936.763105
30
0.0
40
1.000000
50
33.240000
51
90.000000
0
LINE
8
0
10
2310.233107
20
937.763105
30
0.0
11
2310.966053
21
937.763105
31
0.0
0
ARC
8
0
10
2310.233107
20
938.563105
30
0.0
40
0.800000
50
239.960294
51
270.000000
0
LINE
8
0
10
2308.339830
20
938.733809
30
0.0
11
2309.832627
21
937.870562
31
0.0
0
ARC
8
0
10
2308.235618
20
938.563105
30
0.0
40
0.200000
50
58.596344
51
90.000000
0
LINE
8
0
10
2308.026738
20
938.763105
30
0.0
11
2308.235618
21
938.763105
31
0.0
0
ARC
8
0
10
2308.026738
20
938.363105
30
0.0
40
0.400000
50
90.000000
51
180.000000
0
LINE
8
0
10
2307.626738
20
937.763105
30
0.0
11
2307.626738
21
938.363105
31
0.0
0
LINE
8
0
10
2307.726738
20
937.763105
30
0.0
11
2307.626738
21
937.763105
31
0.0
0
LINE
8
0
10
2307.726738
20
937.388105
30
0.0
11
2307.726738
21
937.763105
31
0.0
0
ARC
8
0
10
2307.926738
20
937.388105
30
0.0
40
0.200000
50
180.000000
51
270.000000
0
LINE
8
0
10
2308.086264
20
937.188105
30
0.0
11
2307.926738
21
937.188105
31
0.0
0
ARC
8
0
10
2308.376738
20
936.663105
30
0.0
40
0.600000
50
0.000000
51
118.955024
0
ARC
8
0
10
2308.376738
20
936.663105
30
0.0
40
0.600000
50
241.044976
51
0.000000
0
LINE
8
0
10
2307.926738
20
936.138105
30
0.0
11
2308.086264
21
936.138105
31
0.0
0
ARC
8
0
10
2307.926738
20
935.938105
30
0.0
40
0.200000
50
90.000000
51
180.000000
0
LINE
8
0
10
2307.726738
20
935.563105
30
0.0
11
2307.726738
21
935.938105
31
0.0
0
LINE
8
0
10
2307.626738
20
935.563105
30
0.0
11
2307.726738
21
935.563105
31
0.0
0
LINE
8
0
10
2307.626738
20
934.963105
30
0.0
11
2307.626738
21
935.563105
31
0.0
0
ARC
8
0
10
2308.026738
20
934.963105
30
0.0
40
0.400000
50
180.000000
51
270.000000
0
LINE
8
0
10
2308.235618
20
934.563105
30
0.0
11
2308.026738
21
934.563105
31
0.0
0
ARC
8
0
10
2308.235618
20
934.763105
30
0.0
40
0.200000
50
270.000000
51
301.403656
0
LINE
8
0
10
2308.339831
20
934.592401
30
0.0
11
2309.862739
21
935.473062
31
0.0
0
ARC
8
0
10
2310.198323
20
934.892740
30
0.0
40
0.670365
50
33.390000
51
120.039653
0
LINE
8
0
10
2312.388544
20
932.787938
30
0.0
11
2310.758041
21
935.261666
31
0.0
0
ARC
8
0
10
2312.806016
20
933.063105
30
0.0
40
0.500000
50
213.390000
51
270.000000
0
LINE
8
0
10
2319.896738
20
932.563105
30
0.0
11
2312.806016
21
932.563105
31
0.0
0
ARC
8
0
10
2319.896738
20
931.763105
30
0.0
40
0.800000
50
0.000000
51
90.000000
0
LINE
8
0
10
2320.696738
20
927.263105
30
0.0
11
2320.696738
21
931.763105
31
0.0
0
ARC
8
0
10
2321.596738
20
927.263105
30
0.0
40
0.900000
50
180.000000
51
0.000000
0
LINE
8
0
10
2279.627169
20
974.075288
30
0.0
11
2279.627169
21
977.075288
31
0.0
0
LINE
8
0
10
2279.627169
20
977.075288
30
0.0
11
2281.627169
21
977.075288
31
0.0
0
LINE
8
0
10
2281.627169
20
977.075288
30
0.0
11
2281.627169
21
978.075288
31
0.0
0
LINE
8
0
10
2281.627169
20
978.075288
30
0.0
11
2280.627169
21
979.075288
31
0.0
0
LINE
8
0
10
2280.627169
20
979.075288
30
0.0
11
2278.127169
21
979.075288
31
0.0
0
LINE
8
0
10
2278.127169
20
979.075288
30
0.0
11
2278.127169
21
910.875288
31
0.0
0
ARC
8
0
10
2278.627169
20
910.875288
30
0.0
40
0.500000
50
180.000000
51
270.000000
0
LINE
8
0
10
2278.627169
20
910.375288
30
0.0
11
2281.127169
21
910.375288
31
0.0
0
ARC
8
0
10
2281.127169
20
910.875288
30
0.0
40
0.500000
50
270.000000
51
0.000000
0
LINE
8
0
10
2281.627169
20
910.875288
30
0.0
11
2281.627169
21
911.625288
31
0.0
0
LINE
8
0
10
2281.627169
20
911.625288
30
0.0
11
2281.127169
21
913.125288
31
0.0
0
LINE
8
0
10
2281.127169
20
913.125288
30
0.0
11
2280.627169
21
913.125288
31
0.0
0
LINE
8
0
10
2280.627169
20
913.125288
30
0.0
11
2280.627169
21
911.625288
31
0.0
0
LINE
8
0
10
2280.627169
20
911.625288
30
0.0
11
2279.327169
21
911.625288
31
0.0
0
LINE
8
0
10
2279.327169
20
911.625288
30
0.0
11
2279.327169
21
918.125288
31
0.0
0
LINE
8
0
10
2279.327169
20
918.125288
30
0.0
11
2280.627169
21
918.125288
31
0.0
0
LINE
8
0
10
2280.627169
20
918.125288
30
0.0
11
2280.627169
21
916.625288
31
0.0
0
LINE
8
0
10
2280.627169
20
916.625288
30
0.0
11
2281.127169
21
916.625288
31
0.0
0
LINE
8
0
10
2281.127169
20
916.625288
30
0.0
11
2281.627169
21
918.125288
31
0.0
0
LINE
8
0
10
2281.627169
20
918.125288
30
0.0
11
2281.627169
21
918.875288
31
0.0
0
ARC
8
0
10
2281.127169
20
918.875288
30
0.0
40
0.500000
50
0.000000
51
90.000000
0
LINE
8
0
10
2281.127169
20
919.375288
30
0.0
11
2279.727169
21
919.375288
31
0.0
0
LINE
8
0
10
2279.727169
20
919.375288
30
0.0
11
2279.727169
21
932.375288
31
0.0
0
LINE
8
0
10
2279.727169
20
932.375288
30
0.0
11
2284.627169
21
932.375288
31
0.0
0
LINE
8
0
10
2284.627169
20
932.375288
30
0.0
11
2284.627169
21
929.375288
31
0.0
0
ARC
8
0
10
2284.627169
20
928.875288
30
0.0
40
0.500000
50
90.000000
51
180.000000
0
LINE
8
0
10
2284.127169
20
928.875288
30
0.0
11
2284.127169
21
928.375288
31
0.0
0
ARC
8
0
10
2284.627169
20
928.375288
30
0.0
40
0.500000
50
180.000000
51
270.000000
0
LINE
8
0
10
2284.627169
20
927.875288
30
0.0
11
2288.627169
21
927.875288
31
0.0
0
LINE
8
0
10
2288.627169
20
927.875288
30
0.0
11
2288.627169
21
929.375288
31
0.0
0
LINE
8
0
10
2288.627169
20
929.375288
30
0.0
11
2286.127169
21
929.375288
31
0.0
0
LINE
8
0
10
2286.127169
20
929.375288
30
0.0
11
2286.127169
21
932.375288
31
0.0
0
LINE
8
0
10
2286.127169
20
932.375288
30
0.0
11
2288.627169
21
932.375288
31
0.0
0
LINE
8
0
10
2288.627169
20
932.375288
30
0.0
11
2288.627169
21
934.875288
31
0.0
0
LINE
8
0
10
2288.627169
20
934.875288
30
0.0
11
2305.271656
21
934.875288
31
0.0
0
ARC
8
0
10
2305.271656
20
934.375288
30
0.0
40
0.500000
50
300.000000
51
90.000000
0
LINE
8
0
10
2305.521656
20
933.942275
30
0.0
11
2303.777169
21
932.935096
31
0.0
0
ARC
8
0
10
2303.927169
20
932.675288
30
0.0
40
0.300000
50
120.000000
51
270.000000
0
LINE
8
0
10
2303.927169
20
932.375288
30
0.0
11
2306.127169
21
932.375288
31
0.0
0
LINE
8
0
10
2306.127169
20
932.375288
30
0.0
11
2306.127169
21
929.375288
31
0.0
0
LINE
8
0
10
2306.127169
20
929.375288
30
0.0
11
2303.627169
21
929.375288
31
0.0
0
LINE
8
0
10
2303.627169
20
929.375288
30
0.0
11
2303.627169
21
927.875288
31
0.0
0
LINE
8
0
10
2303.627169
20
927.875288
30
0.0
11
2307.627169
21
927.875288
31
0.0
0
LINE
8
0
10
2307.627169
20
927.875288
30
0.0
11
2307.626738
21
931.130794
31
0.0
0
LINE
8
0
10
2307.626738
20
931.130794
30
0.0
11
2307.626738
21
931.969398
31
0.0
0
ARC
8
0
10
2308.126738
20
931.969398
30
0.0
40
0.500000
50
141.847401
51
180.000000
0
ARC
8
0
10
2308.323330
20
931.814958
30
0.0
40
0.750000
50
106.997055
51
141.847401
0
LINE
8
0
10
2308.104088
20
932.532198
30
0.0
11
2308.522471
21
932.737407
31
0.0
0
ARC
8
0
10
2309.640772
20
931.079274
30
0.0
40
2.000000
50
51.805773
51
123.997055
0
ARC
8
0
10
2311.186595
20
933.044072
30
0.0
40
0.500000
50
231.805773
51
271.623749
0
LINE
8
0
10
2311.200763
20
932.544273
30
0.0
11
2311.857384
21
932.562886
31
0.0
0
ARC
8
0
10
2311.853999
20
932.862911
30
0.0
40
0.300000
50
272.605413
51
18.251415
0
LINE
8
0
10
2312.138907
20
932.956867
30
0.0
11
2310.074619
21
935.623308
31
0.0
0
ARC
8
0
10
2309.928023
20
935.553473
30
0.0
40
0.162380
50
25.472270
51
217.320431
0
ARC
8
0
10
2309.619492
20
935.366616
30
0.0
40
0.200000
50
308.823976
51
26.234983
0
LINE
8
0
10
2309.744878
20
935.210800
30
0.0
11
2308.052871
21
933.849226
31
0.0
0
LINE
8
0
10
2308.052871
20
933.849226
30
0.0
11
2307.777314
21
933.775063
31
0.0
0
ARC
8
0
10
2307.626738
20
934.034537
30
0.0
40
0.300000
50
90.000000
51
300.127121
0
LINE
8
0
10
2307.626738
20
934.334537
30
0.0
11
2307.626738
21
938.834537
31
0.0
0
ARC
8
0
10
2307.826738
20
938.834537
30
0.0
40
0.200000
50
90.000000
51
180.000000
0
LINE
8
0
10
2307.826738
20
939.034537
30
0.0
11
2307.978897
21
939.034537
31
0.0
0
LINE
8
0
10
2307.978897
20
939.034537
30
0.0
11
2309.726834
21
937.968423
31
0.0
0
ARC
8
0
10
2309.926738
20
937.962233
30
0.0
40
0.200000
50
180.000000
51
0.000000
0
LINE
8
0
10
2310.126738
20
937.962233
30
0.0
11
2310.126738
21
939.346003
31
0.0
0
ARC
8
0
10
2309.926738
20
939.346003
30
0.0
40
0.200000
50
0.000000
51
60.065178
0
LINE
8
0
10
2310.026541
20
939.519322
30
0.0
11
2308.127723
21
940.612726
31
0.0
0
ARC
8
0
10
2308.626738
20
941.479320
30
0.0
40
1.000000
50
180.000000
51
240.065178
0
LINE
8
0
10
2307.626738
20
941.479320
30
0.0
11
2307.626738
21
969.971296
31
0.0
0
ARC
8
0
10
2308.626738
20
969.971296
30
0.0
40
1.000000
50
119.934822
51
180.000000
0
LINE
8
0
10
2308.127723
20
970.837890
30
0.0
11
2310.026541
21
971.931294
31
0.0
0
ARC
8
0
10
2309.926738
20
972.104613
30
0.0
40
0.200000
50
299.934822
51
0.000000
0
LINE
8
0
10
2310.126738
20
972.104613
30
0.0
11
2310.126738
21
973.488383
31
0.0
0
ARC
8
0
10
2309.926738
20
973.488383
30
0.0
40
0.200000
50
0.000000
51
180.000000
0
LINE
8
0
10
2309.726834
20
973.482193
30
0.0
11
2307.978897
21
972.416079
31
0.0
0
LINE
8
0
10
2307.978897
20
972.416079
30
0.0
11
2307.826738
21
972.416079
31
0.0
0
ARC
8
0
10
2307.826738
20
972.616079
30
0.0
40
0.200000
50
180.000000
51
270.000000
0
LINE
8
0
10
2307.626738
20
972.616079
30
0.0
11
2307.626738
21
977.116079
31
0.0
0
ARC
8
0
10
2307.626738
20
977.416079
30
0.0
40
0.300000
50
90.000000
51
270.000000
0
LINE
8
0
10
2307.626738
20
977.716079
30
0.0
11
2308.052871
21
977.601391
31
0.0
0
LINE
8
0
10
2308.052871
20
977.601391
30
0.0
11
2309.744878
21
976.239816
31
0.0
0
ARC
8
0
10
2309.619492
20
976.084001
30
0.0
40
0.200000
50
0.000000
51
51.176024
0
LINE
8
0
10
2309.819370
20
976.077021
30
0.0
11
2309.813940
21
975.921534
31
0.0
0
ARC
8
0
10
2309.959472
20
975.916452
30
0.0
40
0.145621
50
180.000000
51
322.253920
0
LINE
8
0
10
2310.074619
20
975.827308
30
0.0
11
2312.138907
21
978.493749
31
0.0
0
ARC
8
0
10
2311.853999
20
978.587705
30
0.0
40
0.300000
50
341.748585
51
90.000000
0
LINE
8
0
10
2311.857384
20
978.887730
30
0.0
11
2311.200763
21
978.906343
31
0.0
0
ARC
8
0
10
2311.186595
20
978.406544
30
0.0
40
0.500000
50
88.376251
51
128.194227
0
ARC
8
0
10
2309.640772
20
980.371342
30
0.0
40
2.000000
50
236.002945
51
308.194227
0
LINE
8
0
10
2308.522471
20
978.713209
30
0.0
11
2308.104088
21
978.918418
31
0.0
0
ARC
8
0
10
2308.323330
20
979.635658
30
0.0
40
0.750000
50
238.026805
51
253.002945
0
ARC
8
0
10
2307.661427
20
978.575288
30
0.0
40
0.500000
50
58.026805
51
90.000000
0
LINE
8
0
10
2307.661427
20
979.075288
30
0.0
11
2296.627169
21
979.075288
31
0.0
0
LINE
8
0
10
2296.627169
20
979.075288
30
0.0
11
2295.627169
21
978.075288
31
0.0
0
LINE
8
0
10
2295.627169
20
978.075288
30
0.0
11
2295.627169
21
977.075288
31
0.0
0
LINE
8
0
10
2295.627169
20
977.075288
30
0.0
11
2297.627169
21
977.075288
31
0.0
0
LINE
8
0
10
2297.627169
20
977.075288
30
0.0
11
2297.627169
21
974.075288
31
0.0
0
LINE
8
0
10
2297.627169
20
974.075288
30
0.0
11
2279.627169
21
974.075288
31
0.0
0
LINE
8
0
10
2302.527169
20
972.775288
30
0.0
11
2302.527169
21
973.775288
31
0.0
0
ARC
8
0
10
2302.827169
20
973.775288
30
0.0
40
0.300000
50
90.000000
51
180.000000
0
LINE
8
0
10
2302.827169
20
974.075288
30
0.0
11
2306.027169
21
974.075288
31
0.0
0
LINE
8
0
10
2306.027169
20
974.075288
30
0.0
11
2306.027169
21
977.475288
31
0.0
0
LINE
8
0
10
2306.027169
20
977.475288
30
0.0
11
2299.227169
21
977.475288
31
0.0
0
LINE
8
0
10
2299.227169
20
977.475288
30
0.0
11
2299.227169
21
972.475288
31
0.0
0
LINE
8
0
10
2299.227169
20
972.475288
30
0.0
11
2279.727169
21
972.475288
31
0.0
0
LINE
8
0
10
2279.727169
20
972.475288
30
0.0
11
2279.727169
21
933.975288
31
0.0
0
LINE
8
0
10
2279.727169
20
933.975288
30
0.0
11
2287.027169
21
933.975288
31
0.0
0
LINE
8
0
10
2287.027169
20
933.975288
30
0.0
11
2287.027169
21
935.475288
31
0.0
0
ARC
8
0
10
2288.027169
20
935.475288
30
0.0
40
1.000000
50
90.000000
51
180.000000
0
LINE
8
0
10
2288.027169
20
936.475288
30
0.0
11
2306.027169
21
936.475288
31
0.0
0
LINE
8
0
10
2306.027169
20
936.475288
30
0.0
11
2306.027169
21
972.475288
31
0.0
0
LINE
8
0
10
2306.027169
20
972.475288
30
0.0
11
2302.827169
21
972.475288
31
0.0
0
ARC
8
0
10
2302.827169
20
972.775288
30
0.0
40
0.300000
50
180.000000
51
270.000000
0
LINE
8
0
10
2337.526738
20
975.475288
30
0.0
11
2339.126738
21
975.475288
31
0.0
0
LINE
8
0
10
2339.126738
20
975.475288
30
0.0
11
2339.126738
21
980.975288
31
0.0
0
LINE
8
0
10
2339.126738
20
980.975288
30
0.0
11
2340.126738
21
980.975288
31
0.0
0
LINE
8
0
10
2340.126738
20
980.975288
30
0.0
11
2340.126738
21
982.575288
31
0.0
0
LINE
8
0
10
2340.126738
20
982.575288
30
0.0
11
2339.126738
21
982.575288
31
0.0
0
LINE
8
0
10
2339.126738
20
982.575288
30
0.0
11
2339.126738
21
997.381691
31
0.0
0
LINE
8
0
10
2339.126738
20
997.381691
30
0.0
11
2344.526738
21
996.909252
31
0.0
0
LINE
8
0
10
2344.526738
20
996.909252
30
0.0
11
2344.526738
21
982.575288
31
0.0
0
LINE
8
0
10
2344.526738
20
982.575288
30
0.0
11
2343.526738
21
982.575288
31
0.0
0
LINE
8
0
10
2343.526738
20
982.575288
30
0.0
11
2343.526738
21
980.975288
31
0.0
0
LINE
8
0
10
2343.526738
20
980.975288
30
0.0
11
2344.526738
21
980.975288
31
0.0
0
LINE
8
0
10
2344.526738
20
980.975288
30
0.0
11
2344.526738
21
944.975288
31
0.0
0
LINE
8
0
10
2344.526738
20
944.975288
30
0.0
11
2339.126738
21
944.975288
31
0.0
0
LINE
8
0
10
2339.126738
20
944.975288
30
0.0
11
2339.126738
21
946.975288
31
0.0
0
LINE
8
0
10
2339.126738
20
946.975288
30
0.0
11
2337.526738
21
946.975288
31
0.0
0
LINE
8
0
10
2337.526738
20
946.975288
30
0.0
11
2337.526738
21
944.664142
31
0.0
0
ARC
8
0
10
2338.626736
20
942.875289
30
0.0
40
2.099998
50
121.588106
51
180.000000
0
LINE
8
0
10
2336.526738
20
942.875288
30
0.0
11
2336.526738
21
935.975288
31
0.0
0
LINE
8
0
10
2336.526738
20
935.975288
30
0.0
11
2333.226738
21
935.975288
31
0.0
0
LINE
8
0
10
2333.226738
20
935.975288
30
0.0
11
2333.226738
21
977.475288
31
0.0
0
LINE
8
0
10
2333.226738
20
977.475288
30
0.0
11
2337.526738
21
977.475288
31
0.0
0
LINE
8
0
10
2337.526738
20
977.475288
30
0.0
11
2337.526738
21
975.475288
31
0.0
0
LINE
8
0
10
2329.126738
20
939.345787
30
0.0
11
2329.126738
21
937.962193
31
0.0
0
ARC
8
0
10
2329.326738
20
937.962193
30
0.0
40
0.200000
50
180.000000
51
0.000000
0
LINE
8
0
10
2329.526642
20
937.968383
30
0.0
11
2331.202635
21
938.990616
31
0.0
0
ARC
8
0
10
2331.358849
20
938.734497
30
0.0
40
0.300000
50
90.000000
51
121.380132
0
LINE
8
0
10
2331.358849
20
939.034497
30
0.0
11
2331.426738
21
939.034497
31
0.0
0
ARC
8
0
10
2331.426738
20
938.834497
30
0.0
40
0.200000
50
0.000000
51
90.000000
0
LINE
8
0
10
2331.626738
20
938.834497
30
0.0
11
2331.626738
21
934.334497
31
0.0
0
ARC
8
0
10
2331.626738
20
934.034497
30
0.0
40
0.300000
50
270.000000
51
90.000000
0
LINE
8
0
10
2331.626738
20
933.734497
30
0.0
11
2331.271713
21
933.830048
31
0.0
0
ARC
8
0
10
2331.339846
20
934.122208
30
0.0
40
0.300000
50
231.176024
51
256.872879
0
LINE
8
0
10
2331.151767
20
933.888486
30
0.0
11
2329.508598
21
935.210760
31
0.0
0
ARC
8
0
10
2329.633984
20
935.366575
30
0.0
40
0.200000
50
180.000000
51
231.176024
0
LINE
8
0
10
2329.434106
20
935.373555
30
0.0
11
2329.439535
21
935.529042
31
0.0
0
ARC
8
0
10
2329.294003
20
935.534124
30
0.0
40
0.145621
50
0.000000
51
142.253920
0
LINE
8
0
10
2329.178856
20
935.623268
30
0.0
11
2327.114569
21
932.956827
31
0.0
0
ARC
8
0
10
2327.399476
20
932.862871
30
0.0
40
0.300000
50
161.748585
51
270.000000
0
LINE
8
0
10
2327.396091
20
932.562846
30
0.0
11
2328.052713
21
932.544233
31
0.0
0
ARC
8
0
10
2328.066881
20
933.044032
30
0.0
40
0.500000
50
268.376251
51
308.194227
0
ARC
8
0
10
2329.612704
20
931.079234
30
0.0
40
2.000000
50
56.002945
51
128.194227
0
LINE
8
0
10
2330.731004
20
932.737367
30
0.0
11
2331.149388
21
932.532158
31
0.0
0
ARC
8
0
10
2330.930146
20
931.814918
30
0.0
40
0.750000
50
55.024771
51
73.002945
0
ARC
8
0
10
2331.532029
20
932.675288
30
0.0
40
0.300000
50
235.024771
51
270.000000
0
LINE
8
0
10
2331.532029
20
932.375288
30
0.0
11
2333.226738
21
932.375288
31
0.0
0
LINE
8
0
10
2333.226738
20
932.375288
30
0.0
11
2333.226738
21
934.375288
31
0.0
0
LINE
8
0
10
2333.226738
20
934.375288
30
0.0
11
2336.526738
21
934.375288
31
0.0
0
LINE
8
0
10
2336.526738
20
934.375288
30
0.0
11
2336.526738
21
932.375288
31
0.0
0
LINE
8
0
10
2336.526738
20
932.375288
30
0.0
11
2338.126738
21
932.375288
31
0.0
0
ARC
8
0
10
2338.126738
20
932.875288
30
0.0
40
0.500000
50
270.000000
51
0.000000
0
LINE
8
0
10
2338.626738
20
932.875288
30
0.0
11
2338.626738
21
934.375288
31
0.0
0
LINE
8
0
10
2338.626738
20
934.375288
30
0.0
11
2338.126738
21
934.375288
31
0.0
0
LINE
8
0
10
2338.126738
20
934.375288
30
0.0
11
2338.126738
21
942.875288
31
0.0
0
ARC
8
0
10
2338.626737
20
942.875288
30
0.0
40
0.500000
50
90.000000
51
180.000000
0
LINE
8
0
10
2338.626738
20
943.375288
30
0.0
11
2344.026814
21
943.375288
31
0.0
0
ARC
8
0
10
2344.026814
20
942.875306
30
0.0
40
0.499982
50
0.000000
51
90.000000
0
LINE
8
0
10
2344.526796
20
942.875306
30
0.0
11
2344.526796
21
942.750503
31
0.0
0
ARC
8
0
10
2345.026778
20
942.750503
30
0.0
40
0.499982
50
180.000000
51
319.464173
0
ARC
8
0
10
2343.126853
20
944.375249
30
0.0
40
2.999885
50
319.464149
51
0.000000
0
LINE
8
0
10
2346.126738
20
944.375252
30
0.0
11
2346.126738
21
997.917216
31
0.0
0
ARC
8
0
10
2345.626738
20
997.917217
30
0.0
40
0.500000
50
0.000000
51
84.999981
0
LINE
8
0
10
2345.670316
20
998.415314
30
0.0
11
2338.126774
21
999.075288
31
0.0
0
LINE
8
0
10
2338.126774
20
999.075288
30
0.0
11
2334.626774
21
999.075288
31
0.0
0
ARC
8
0
10
2334.626773
20
998.575288
30
0.0
40
0.500000
50
90.000000
51
180.000000
0
LINE
8
0
10
2334.126774
20
998.575288
30
0.0
11
2334.126774
21
997.575288
31
0.0
0
LINE
8
0
10
2334.126774
20
997.575288
30
0.0
11
2334.626738
21
995.825288
31
0.0
0
LINE
8
0
10
2334.626738
20
995.825288
30
0.0
11
2335.126738
21
995.825288
31
0.0
0
LINE
8
0
10
2335.126738
20
995.825288
30
0.0
11
2335.126738
21
997.575288
31
0.0
0
LINE
8
0
10
2335.126738
20
997.575288
30
0.0
11
2337.526738
21
997.575288
31
0.0
0
LINE
8
0
10
2337.526738
20
997.575288
30
0.0
11
2337.526738
21
996.625288
31
0.0
0
LINE
8
0
10
2337.526738
20
996.625288
30
0.0
11
2336.626738
21
996.625288
31
0.0
0
LINE
8
0
10
2336.626738
20
996.625288
30
0.0
11
2336.626738
21
995.825288
31
0.0
0
LINE
8
0
10
2336.626738
20
995.825288
30
0.0
11
2337.526738
21
995.825288
31
0.0
0
LINE
8
0
10
2337.526738
20
995.825288
30
0.0
11
2337.526738
21
991.825288
31
0.0
0
LINE
8
0
10
2337.526738
20
991.825288
30
0.0
11
2336.626738
21
991.825288
31
0.0
0
LINE
8
0
10
2336.626738
20
991.825288
30
0.0
11
2336.626738
21
991.025288
31
0.0
0
LINE
8
0
10
2336.626738
20
991.025288
30
0.0
11
2337.526738
21
991.025288
31
0.0
0
LINE
8
0
10
2337.526738
20
991.025288
30
0.0
11
2337.526738
21
990.075288
31
0.0
0
LINE
8
0
10
2337.526738
20
990.075288
30
0.0
11
2335.126738
21
990.075288
31
0.0
0
LINE
8
0
10
2335.126738
20
990.075288
30
0.0
11
2335.126738
21
991.825288
31
0.0
0
LINE
8
0
10
2335.126738
20
991.825288
30
0.0
11
2334.626738
21
991.825288
31
0.0
0
LINE
8
0
10
2334.626738
20
991.825288
30
0.0
11
2334.126774
21
990.075288
31
0.0
0
LINE
8
0
10
2334.126774
20
990.075288
30
0.0
11
2334.126774
21
987.725270
31
0.0
0
ARC
8
0
10
2334.626756
20
987.725270
30
0.0
40
0.499982
50
180.000000
51
0.000000
0
LINE
8
0
10
2335.126738
20
987.725270
30
0.0
11
2335.126738
21
988.575288
31
0.0
0
LINE
8
0
10
2335.126738
20
988.575288
30
0.0
11
2337.526738
21
988.575288
31
0.0
0
LINE
8
0
10
2337.526738
20
988.575288
30
0.0
11
2337.526738
21
979.575288
31
0.0
0
ARC
8
0
10
2337.026738
20
979.575288
30
0.0
40
0.500000
50
270.000000
51
0.000000
0
LINE
8
0
10
2337.026738
20
979.075288
30
0.0
11
2335.126738
21
979.075288
31
0.0
0
LINE
8
0
10
2335.126738
20
979.075288
30
0.0
11
2335.126738
21
980.175297
31
0.0
0
ARC
8
0
10
2334.876747
20
980.175297
30
0.0
40
0.249991
50
0.000000
51
90.000000
0
LINE
8
0
10
2334.876747
20
980.425288
30
0.0
11
2333.576794
21
980.425288
31
0.0
0
ARC
8
0
10
2333.576794
20
980.175297
30
0.0
40
0.249991
50
90.000000
51
180.000000
0
LINE
8
0
10
2333.326803
20
980.175297
30
0.0
11
2333.326803
21
979.075288
31
0.0
0
LINE
8
0
10
2333.326803
20
979.075288
30
0.0
11
2331.532029
21
979.075288
31
0.0
0
ARC
8
0
10
2331.532029
20
978.775288
30
0.0
40
0.300000
50
90.000000
51
124.975229
0
ARC
8
0
10
2330.930146
20
979.635658
30
0.0
40
0.750000
50
286.997055
51
304.975229
0
LINE
8
0
10
2331.149388
20
978.918418
30
0.0
11
2330.731004
21
978.713209
31
0.0
0
ARC
8
0
10
2329.612704
20
980.371342
30
0.0
40
2.000000
50
231.805773
51
303.997055
0
ARC
8
0
10
2328.066881
20
978.406544
30
0.0
40
0.500000
50
51.805773
51
91.623749
0
LINE
8
0
10
2328.052713
20
978.906343
30
0.0
11
2327.396091
21
978.887730
31
0.0
0
ARC
8
0
10
2327.399476
20
978.587705
30
0.0
40
0.300000
50
90.000000
51
198.251415
0
LINE
8
0
10
2327.114569
20
978.493749
30
0.0
11
2329.178856
21
975.827308
31
0.0
0
ARC
8
0
10
2329.294003
20
975.916452
30
0.0
40
0.145621
50
217.746080
51
0.000000
0
LINE
8
0
10
2329.439535
20
975.921534
30
0.0
11
2329.434106
21
976.077021
31
0.0
0
ARC
8
0
10
2329.633984
20
976.084001
30
0.0
40
0.200000
50
128.823976
51
180.000000
0
LINE
8
0
10
2329.508598
20
976.239816
30
0.0
11
2331.151767
21
977.562091
31
0.0
0
ARC
8
0
10
2331.339846
20
977.328368
30
0.0
40
0.300000
50
103.127121
51
128.823976
0
LINE
8
0
10
2331.271713
20
977.620529
30
0.0
11
2331.626738
21
977.716080
31
0.0
0
ARC
8
0
10
2331.626738
20
977.416080
30
0.0
40
0.300000
50
270.000000
51
90.000000
0
LINE
8
0
10
2331.626738
20
977.116080
30
0.0
11
2331.626738
21
972.616080
31
0.0
0
ARC
8
0
10
2331.426738
20
972.616080
30
0.0
40
0.200000
50
270.000000
51
0.000000
0
LINE
8
0
10
2331.426738
20
972.416080
30
0.0
11
2331.358849
21
972.416080
31
0.0
0
ARC
8
0
10
2331.358849
20
972.716080
30
0.0
40
0.300000
50
238.619868
51
270.000000
0
LINE
8
0
10
2331.202635
20
972.459960
30
0.0
11
2329.526642
21
973.482193
31
0.0
0
ARC
8
0
10
2329.326738
20
973.488383
30
0.0
40
0.200000
50
0.000000
51
180.000000
0
LINE
8
0
10
2329.126738
20
973.488383
30
0.0
11
2329.126738
21
972.104790
31
0.0
0
ARC
8
0
10
2329.326738
20
972.104602
30
0.0
40
0.200000
50
180.000000
51
241.694347
0
LINE
8
0
10
2329.232122
20
971.928308
30
0.0
11
2331.125752
21
970.837890
31
0.0
0
ARC
8
0
10
2330.626737
20
969.971296
30
0.0
40
1.000001
50
0.000000
51
60.065190
0
LINE
8
0
10
2331.626738
20
969.971296
30
0.0
11
2331.626738
21
941.479320
31
0.0
0
ARC
8
0
10
2330.626738
20
941.479320
30
0.0
40
1.000000
50
299.935702
51
0.000000
0
LINE
8
0
10
2331.125766
20
940.612734
30
0.0
11
2329.232122
21
939.522268
31
0.0
0
ARC
8
0
10
2329.326738
20
939.345974
30
0.0
40
0.200000
50
118.305653
51
180.000000
0
ATTDEF
8
0
10
2302.144298
20
979.075288
30
0.0
40
3.5
1

3

2
VC_START
70
0
0
ATTDEF
8
0
10
2307.627169
20
927.875288
30
0.0
40
3.5
1

3

2
VC_END
70
0
0
ATTDEF
8
0
10
2346.126738
20
910.375288
30
0.0
40
3.5
1

3

2
FRONT_VIEW
70
0
0
ATTDEF
8
0
10
2346.126738
20
910.375288
30
0.0
40
3.5
1

3

2
OPTI:500.000000,1,0,3000.000000,6500.000000,500.000000,0,0.000000,0
70
0
0
ATTDEF
8
0
10
2346.126738
20
910.375288
30
0.0
40
3.5
1

3

2
GLASS_MIN:0.000000
70
0
0
ATTDEF
8
0
10
2346.126738
20
910.375288
30
0.0
40
3.5
1

3

2
GLASS_MAX:0.000000
70
0
0
ATTDEF
8
0
10
2346.126738
20
910.375288
30
0.0
40
3.5
1

3

2
FP_LCS_ORIG
70
0
0
ATTDEF
8
0
10
2336.126738
20
910.375288
30
0.0
40
3.5
1

3

2
FP_LCS_HOT
70
0
0
ATTDEF
8
0
10
2346.126738
20
920.375288
30
0.0
40
3.5
1

3

2
FP_LCS_INTERN
70
0
0
ATTDEF
8
0
10
0.000000
20
0.000000
30
0.0
40
3.5
1

3

2
TDEV4:0
70
0
0
ATTDEF
8
0
10
0.000000
20
0.000000
30
0.0
40
3.5
1

3

2
TDEV5:0
70
0
0
ATTDEF
8
0
10
0.000000
20
0.000000
30
0.0
40
3.5
1

3

2
PANE_WIDTH:56
70
0
0
ATTDEF
8
0
10
0.000000
20
0.000000
30
0.0
40
3.5
1

3

2
MIN_VETRO:0
70
0
0
ATTDEF
8
0
10
0.000000
20
0.000000
30
0.0
40
3.5
1

3

2
MAX_VETRO:0
70
0
0
ATTDEF
8
0
10
0.000000
20
0.000000
30
0.0
40
3.5
1

3

2
JX:0
70
0
0
ATTDEF
8
0
10
0.000000
20
0.000000
30
0.0
40
3.5
1

3

2
WX:0
70
0
0
ATTDEF
8
0
10
0.000000
20
0.000000
30
0.0
40
3.5
1

3

2
JY:0
70
0
0
ATTDEF
8
0
10
0.000000
20
0.000000
30
0.0
40
3.5
1

3

2
WY:0
70
0
0
ATTDEF
8
0
10
0.000000
20
0.000000
30
0.0
40
3.5
1

3

2
DESC:Hoja puerta canto recto (Straight edge door sash)
70
0
0
ATTDEF
8
0
10
0.000000
20
0.000000
30
0.0
40
3.5
1

3

2
DENS:1.9638
70
0
0
ATTDEF
8
0
10
0.000000
20
0.000000
30
0.0
40
3.5
1

3

2
TDEV:82.18
70
0
0
ATTDEF
8
0
10
0.000000
20
0.000000
30
0.0
40
3.5
1

3

2
TDEV2:0
70
0
0
ATTDEF
8
0
10
0.000000
20
0.000000
30
0.0
40
3.5
1

3

2
TDEV3:0
70
0
0
ATTDEF
8
0
10
0.000000
20
0.000000
30
0.0
40
3.5
1

3

2
TDEV4:0
70
0
0
ATTDEF
8
0
10
0.000000
20
0.000000
30
0.0
40
3.5
1

3

2
TDEV5:0
70
0
0
ATTDEF
8
0
10
0.000000
20
0.000000
30
0.0
40
3.5
1

3

2
PANE_WIDTH:56
70
0
0
ATTDEF
8
0
10
0.000000
20
0.000000
30
0.0
40
3.5
1

3

2
MIN_VETRO:0
70
0
0
ATTDEF
8
0
10
0.000000
20
0.000000
30
0.0
40
3.5
1

3

2
MAX_VETRO:0
70
0
0
ATTDEF
8
0
10
0.000000
20
0.000000
30
0.0
40
3.5
1

3

2
JX:0
70
0
0
ATTDEF
8
0
10
0.000000
20
0.000000
30
0.0
40
3.5
1

3

2
WX:0
70
0
0
ATTDEF
8
0
10
0.000000
20
0.000000
30
0.0
40
3.5
1

3

2
JY:0
70
0
0
ATTDEF
8
0
10
0.000000
20
0.000000
30
0.0
40
3.5
1

3

2
WY:0
70
0
0
ENDSEC
0
EOF
