0
SECTION
2
ENTITIES
0
ARC
8
00_ALUMINIO
10
291.138042
20
22.170983
30
0.0
40
0.300000
50
270.000000
51
0.000000
0
LINE
8
00_ALUMINIO
10
291.138042
20
21.870983
30
0.0
11
281.113042
21
21.870983
31
0.0
0
ARC
8
00_ALUMINIO
10
281.113042
20
22.170983
30
0.0
40
0.300000
50
180.000000
51
270.000000
0
LINE
8
00_ALUMINIO
10
280.813042
20
22.170983
30
0.0
11
280.813042
21
32.570993
31
0.0
0
ARC
8
00_ALUMINIO
10
281.113042
20
32.570993
30
0.0
40
0.300000
50
90.000000
51
180.000000
0
LINE
8
00_ALUMINIO
10
281.113042
20
32.870993
30
0.0
11
282.563041
21
32.870993
31
0.0
0
ARC
8
00_ALUMINIO
10
282.563041
20
33.370993
30
0.0
40
0.500000
50
270.000000
51
0.000000
0
LINE
8
00_ALUMINIO
10
283.063041
20
33.370993
30
0.0
11
283.063041
21
34.870983
31
0.0
0
ARC
8
00_ALUMINIO
10
282.563041
20
34.870983
30
0.0
40
0.500000
50
0.000000
51
90.000000
0
LINE
8
00_ALUMINIO
10
282.563041
20
35.370983
30
0.0
11
276.563043
21
35.370983
31
0.0
0
ARC
8
00_ALUMINIO
10
276.563043
20
34.870983
30
0.0
40
0.500000
50
90.000000
51
180.000000
0
LINE
8
00_ALUMINIO
10
276.063043
20
34.870983
30
0.0
11
276.063043
21
33.370993
31
0.0
0
ARC
8
00_ALUMINIO
10
276.563043
20
33.370993
30
0.0
40
0.500000
50
180.000000
51
270.000000
0
LINE
8
00_ALUMINIO
10
276.563043
20
32.870993
30
0.0
11
278.013042
21
32.870993
31
0.0
0
ARC
8
00_ALUMINIO
10
278.013042
20
32.570993
30
0.0
40
0.300000
50
0.000000
51
90.000000
0
LINE
8
00_ALUMINIO
10
278.313042
20
32.570993
30
0.0
11
278.313042
21
29.670983
31
0.0
0
ARC
8
00_ALUMINIO
10
278.013042
20
29.670983
30
0.0
40
0.300000
50
270.000000
51
0.000000
0
LINE
8
00_ALUMINIO
10
278.013042
20
29.370983
30
0.0
11
260.488042
21
29.370983
31
0.0
0
ARC
8
00_ALUMINIO
10
260.488042
20
29.070983
30
0.0
40
0.300000
50
90.000000
51
180.000000
0
LINE
8
00_ALUMINIO
10
260.188042
20
29.070983
30
0.0
11
260.188042
21
22.170983
31
0.0
0
ARC
8
00_ALUMINIO
10
259.888042
20
22.170983
30
0.0
40
0.300000
50
270.000000
51
0.000000
0
LINE
8
00_ALUMINIO
10
259.888042
20
21.870983
30
0.0
11
249.863042
21
21.870983
31
0.0
0
ARC
8
00_ALUMINIO
10
249.863042
20
22.170983
30
0.0
40
0.300000
50
180.000000
51
270.000000
0
LINE
8
00_ALUMINIO
10
249.563042
20
22.170983
30
0.0
11
249.563042
21
29.070983
31
0.0
0
ARC
8
00_ALUMINIO
10
249.263042
20
29.070983
30
0.0
40
0.300000
50
0.000000
51
90.000000
0
LINE
8
00_ALUMINIO
10
249.263042
20
29.370983
30
0.0
11
229.238042
21
29.370983
31
0.0
0
ARC
8
00_ALUMINIO
10
229.238042
20
29.070983
30
0.0
40
0.300000
50
90.000000
51
180.000000
0
LINE
8
00_ALUMINIO
10
228.938042
20
29.070983
30
0.0
11
228.938042
21
22.170983
31
0.0
0
ARC
8
00_ALUMINIO
10
228.638042
20
22.170983
30
0.0
40
0.300000
50
270.000000
51
0.000000
0
LINE
8
00_ALUMINIO
10
228.638042
20
21.870983
30
0.0
11
218.613042
21
21.870983
31
0.0
0
ARC
8
00_ALUMINIO
10
218.613042
20
22.170983
30
0.0
40
0.300000
50
180.000000
51
270.000000
0
LINE
8
00_ALUMINIO
10
218.313042
20
22.170983
30
0.0
11
218.313042
21
29.070983
31
0.0
0
ARC
8
00_ALUMINIO
10
218.013042
20
29.070983
30
0.0
40
0.300000
50
0.000000
51
90.000000
0
LINE
8
00_ALUMINIO
10
218.013042
20
29.370983
30
0.0
11
197.988042
21
29.370983
31
0.0
0
ARC
8
00_ALUMINIO
10
197.988042
20
29.070983
30
0.0
40
0.300000
50
90.000000
51
180.000000
0
LINE
8
00_ALUMINIO
10
197.688042
20
29.070983
30
0.0
11
197.688042
21
22.170983
31
0.0
0
ARC
8
00_ALUMINIO
10
197.388042
20
22.170983
30
0.0
40
0.300000
50
270.000000
51
0.000000
0
LINE
8
00_ALUMINIO
10
197.388042
20
21.870983
30
0.0
11
187.363042
21
21.870983
31
0.0
0
ARC
8
00_ALUMINIO
10
187.363042
20
22.170983
30
0.0
40
0.300000
50
180.000000
51
270.000000
0
LINE
8
00_ALUMINIO
10
187.063042
20
22.170983
30
0.0
11
187.063042
21
32.570993
31
0.0
0
ARC
8
00_ALUMINIO
10
187.363042
20
32.570993
30
0.0
40
0.300000
50
90.000000
51
180.000000
0
LINE
8
00_ALUMINIO
10
187.363042
20
32.870993
30
0.0
11
188.813041
21
32.870993
31
0.0
0
ARC
8
00_ALUMINIO
10
188.813041
20
33.370993
30
0.0
40
0.500000
50
270.000000
51
0.000000
0
LINE
8
00_ALUMINIO
10
189.313041
20
33.370993
30
0.0
11
189.313041
21
34.870983
31
0.0
0
ARC
8
00_ALUMINIO
10
188.813041
20
34.870983
30
0.0
40
0.500000
50
0.000000
51
90.000000
0
LINE
8
00_ALUMINIO
10
188.813041
20
35.370983
30
0.0
11
182.813044
21
35.370983
31
0.0
0
ARC
8
00_ALUMINIO
10
182.813044
20
34.870983
30
0.0
40
0.500000
50
90.000000
51
180.000000
0
LINE
8
00_ALUMINIO
10
182.313044
20
34.870983
30
0.0
11
182.313044
21
33.370993
31
0.0
0
ARC
8
00_ALUMINIO
10
182.813044
20
33.370993
30
0.0
40
0.500000
50
180.000000
51
270.000000
0
LINE
8
00_ALUMINIO
10
182.813044
20
32.870993
30
0.0
11
184.263042
21
32.870993
31
0.0
0
ARC
8
00_ALUMINIO
10
184.263042
20
32.570993
30
0.0
40
0.300000
50
0.000000
51
90.000000
0
LINE
8
00_ALUMINIO
10
184.563042
20
32.570993
30
0.0
11
184.563042
21
29.670983
31
0.0
0
ARC
8
00_ALUMINIO
10
184.263042
20
29.670983
30
0.0
40
0.300000
50
270.000000
51
0.000000
0
LINE
8
00_ALUMINIO
10
184.263042
20
29.370983
30
0.0
11
166.738042
21
29.370983
31
0.0
0
ARC
8
00_ALUMINIO
10
166.738042
20
29.070983
30
0.0
40
0.300000
50
90.000000
51
180.000000
0
LINE
8
00_ALUMINIO
10
166.438042
20
29.070983
30
0.0
11
166.438042
21
22.170983
31
0.0
0
ARC
8
00_ALUMINIO
10
166.138042
20
22.170983
30
0.0
40
0.300000
50
270.000000
51
0.000000
0
LINE
8
00_ALUMINIO
10
166.138042
20
21.870983
30
0.0
11
156.113042
21
21.870983
31
0.0
0
ARC
8
00_ALUMINIO
10
156.113042
20
22.170983
30
0.0
40
0.300000
50
180.000000
51
270.000000
0
LINE
8
00_ALUMINIO
10
155.813042
20
22.170983
30
0.0
11
155.813042
21
29.070983
31
0.0
0
ARC
8
00_ALUMINIO
10
155.513042
20
29.070983
30
0.0
40
0.300000
50
0.000000
51
90.000000
0
LINE
8
00_ALUMINIO
10
155.513042
20
29.370983
30
0.0
11
135.488042
21
29.370983
31
0.0
0
ARC
8
00_ALUMINIO
10
135.488042
20
29.070983
30
0.0
40
0.300000
50
90.000000
51
180.000000
0
LINE
8
00_ALUMINIO
10
135.188042
20
29.070983
30
0.0
11
135.188042
21
22.170983
31
0.0
0
ARC
8
00_ALUMINIO
10
134.888042
20
22.170983
30
0.0
40
0.300000
50
270.000000
51
0.000000
0
LINE
8
00_ALUMINIO
10
134.888042
20
21.870983
30
0.0
11
124.863042
21
21.870983
31
0.0
0
ARC
8
00_ALUMINIO
10
124.863042
20
22.170983
30
0.0
40
0.300000
50
180.000000
51
270.000000
0
LINE
8
00_ALUMINIO
10
124.563042
20
22.170983
30
0.0
11
124.563042
21
29.070983
31
0.0
0
ARC
8
00_ALUMINIO
10
124.263042
20
29.070983
30
0.0
40
0.300000
50
0.000000
51
90.000000
0
LINE
8
00_ALUMINIO
10
124.263042
20
29.370983
30
0.0
11
104.238043
21
29.370983
31
0.0
0
ARC
8
00_ALUMINIO
10
104.238043
20
29.070983
30
0.0
40
0.300000
50
90.000000
51
180.000000
0
LINE
8
00_ALUMINIO
10
103.938043
20
29.070983
30
0.0
11
103.938043
21
22.170983
31
0.0
0
ARC
8
00_ALUMINIO
10
103.638043
20
22.170983
30
0.0
40
0.300000
50
270.000000
51
0.000000
0
LINE
8
00_ALUMINIO
10
103.638043
20
21.870983
30
0.0
11
93.613043
21
21.870983
31
0.0
0
ARC
8
00_ALUMINIO
10
93.613043
20
22.170983
30
0.0
40
0.300000
50
180.000000
51
270.000000
0
LINE
8
00_ALUMINIO
10
93.313043
20
22.170983
30
0.0
11
93.313043
21
26.570968
31
0.0
0
ARC
8
00_ALUMINIO
10
93.613042
20
26.571504
30
0.0
40
0.300000
50
92.390036
51
180.102465
0
ARC
8
00_ALUMINIO
10
93.588042
20
27.170983
30
0.0
40
0.300000
50
272.385985
51
0.000000
0
LINE
8
00_ALUMINIO
10
93.888042
20
27.170983
30
0.0
11
93.888042
21
33.370983
31
0.0
0
LINE
8
00_ALUMINIO
10
93.888042
20
33.370983
30
0.0
11
95.888042
21
33.370983
31
0.0
0
ARC
8
00_ALUMINIO
10
95.888042
20
33.870983
30
0.0
40
0.500000
50
270.000000
51
0.000000
0
LINE
8
00_ALUMINIO
10
96.388042
20
33.870983
30
0.0
11
96.388042
21
34.870983
31
0.0
0
ARC
8
00_ALUMINIO
10
95.888042
20
34.870983
30
0.0
40
0.500000
50
0.000000
51
90.001222
0
LINE
8
00_ALUMINIO
10
95.888031
20
35.370983
30
0.0
11
91.888042
21
35.370983
31
0.0
0
ARC
8
00_ALUMINIO
10
91.888042
20
34.870983
30
0.0
40
0.500000
50
90.000000
51
180.000000
0
LINE
8
00_ALUMINIO
10
91.388042
20
34.870983
30
0.0
11
91.388042
21
30.370983
31
0.0
0
ARC
8
00_ALUMINIO
10
90.888042
20
30.370983
30
0.0
40
0.500000
50
270.000000
51
0.000000
0
LINE
8
00_ALUMINIO
10
90.888042
20
29.870983
30
0.0
11
86.488042
21
29.870983
31
0.0
0
ARC
8
00_ALUMINIO
10
86.488042
20
30.370983
30
0.0
40
0.500000
50
180.000000
51
270.000000
0
LINE
8
00_ALUMINIO
10
85.988042
20
30.370983
30
0.0
11
85.988042
21
34.870983
31
0.0
0
ARC
8
00_ALUMINIO
10
85.488042
20
34.870983
30
0.0
40
0.500000
50
0.000000
51
90.000000
0
LINE
8
00_ALUMINIO
10
85.488042
20
35.370983
30
0.0
11
42.217905
21
35.370983
31
0.0
0
ARC
8
00_ALUMINIO
10
42.217905
20
34.670983
30
0.0
40
0.700000
50
90.000000
51
270.000000
0
LINE
8
00_ALUMINIO
10
42.217905
20
33.970983
30
0.0
11
51.367905
21
33.970983
31
0.0
0
LINE
8
00_ALUMINIO
10
51.367905
20
33.970983
30
0.0
11
51.867905
21
34.470983
31
0.0
0
LINE
8
00_ALUMINIO
10
51.867905
20
34.470983
30
0.0
11
52.367905
21
33.970983
31
0.0
0
LINE
8
00_ALUMINIO
10
52.367905
20
33.970983
30
0.0
11
61.517905
21
33.970983
31
0.0
0
LINE
8
00_ALUMINIO
10
61.517905
20
33.970983
30
0.0
11
62.117905
21
33.370983
31
0.0
0
LINE
8
00_ALUMINIO
10
62.117905
20
33.370983
30
0.0
11
82.988042
21
33.370983
31
0.0
0
ARC
8
00_ALUMINIO
10
82.988042
20
32.870983
30
0.0
40
0.500000
50
0.000000
51
90.000000
0
LINE
8
00_ALUMINIO
10
83.488042
20
32.870983
30
0.0
11
83.488042
21
29.420983
31
0.0
0
ARC
8
00_ALUMINIO
10
82.988042
20
29.420983
30
0.0
40
0.500000
50
270.000000
51
0.000000
0
LINE
8
00_ALUMINIO
10
82.988042
20
28.920983
30
0.0
11
75.888042
21
28.920983
31
0.0
0
ARC
8
00_ALUMINIO
10
75.888042
20
28.620983
30
0.0
40
0.300000
50
90.000000
51
180.000000
0
LINE
8
00_ALUMINIO
10
75.588042
20
28.620983
30
0.0
11
75.588042
21
27.170983
31
0.0
0
ARC
8
00_ALUMINIO
10
75.888042
20
27.170983
30
0.0
40
0.300000
50
180.000000
51
270.000000
0
LINE
8
00_ALUMINIO
10
75.888042
20
26.870983
30
0.0
11
90.513043
21
26.870983
31
0.0
0
ARC
8
00_ALUMINIO
10
90.513043
20
26.570983
30
0.0
40
0.300000
50
0.043241
51
90.000000
0
LINE
8
00_ALUMINIO
10
90.813043
20
26.571209
30
0.0
11
90.813043
21
19.670983
31
0.0
0
ARC
8
00_ALUMINIO
10
91.113043
20
19.670983
30
0.0
40
0.300000
50
180.000000
51
270.000000
0
LINE
8
00_ALUMINIO
10
91.113043
20
19.370983
30
0.0
11
106.138043
21
19.370983
31
0.0
0
ARC
8
00_ALUMINIO
10
106.138043
20
19.670983
30
0.0
40
0.300000
50
270.000000
51
0.000000
0
LINE
8
00_ALUMINIO
10
106.438043
20
19.670983
30
0.0
11
106.438043
21
26.570983
31
0.0
0
ARC
8
00_ALUMINIO
10
106.738043
20
26.570983
30
0.0
40
0.300000
50
90.000000
51
180.000000
0
LINE
8
00_ALUMINIO
10
106.738043
20
26.870983
30
0.0
11
121.763042
21
26.870983
31
0.0
0
ARC
8
00_ALUMINIO
10
121.763042
20
26.570983
30
0.0
40
0.300000
50
0.000000
51
90.000000
0
LINE
8
00_ALUMINIO
10
122.063042
20
26.570983
30
0.0
11
122.063042
21
19.670983
31
0.0
0
ARC
8
00_ALUMINIO
10
122.363042
20
19.670983
30
0.0
40
0.300000
50
180.000000
51
270.000000
0
LINE
8
00_ALUMINIO
10
122.363042
20
19.370983
30
0.0
11
137.388042
21
19.370983
31
0.0
0
ARC
8
00_ALUMINIO
10
137.388042
20
19.670983
30
0.0
40
0.300000
50
270.000000
51
0.000000
0
LINE
8
00_ALUMINIO
10
137.688042
20
19.670983
30
0.0
11
137.688042
21
26.570983
31
0.0
0
ARC
8
00_ALUMINIO
10
137.988042
20
26.570983
30
0.0
40
0.300000
50
90.000000
51
180.000000
0
LINE
8
00_ALUMINIO
10
137.988042
20
26.870983
30
0.0
11
153.013042
21
26.870983
31
0.0
0
ARC
8
00_ALUMINIO
10
153.013042
20
26.570983
30
0.0
40
0.300000
50
0.000000
51
90.000000
0
LINE
8
00_ALUMINIO
10
153.313042
20
26.570983
30
0.0
11
153.313042
21
19.670983
31
0.0
0
ARC
8
00_ALUMINIO
10
153.613042
20
19.670983
30
0.0
40
0.300000
50
180.000000
51
270.000000
0
LINE
8
00_ALUMINIO
10
153.613042
20
19.370983
30
0.0
11
168.638042
21
19.370983
31
0.0
0
ARC
8
00_ALUMINIO
10
168.638042
20
19.670983
30
0.0
40
0.300000
50
270.000000
51
0.000000
0
LINE
8
00_ALUMINIO
10
168.938042
20
19.670983
30
0.0
11
168.938042
21
26.570983
31
0.0
0
ARC
8
00_ALUMINIO
10
169.238042
20
26.570983
30
0.0
40
0.300000
50
90.000000
51
180.000000
0
LINE
8
00_ALUMINIO
10
169.238042
20
26.870983
30
0.0
11
184.263042
21
26.870983
31
0.0
0
ARC
8
00_ALUMINIO
10
184.263042
20
26.570983
30
0.0
40
0.300000
50
0.000000
51
90.000000
0
LINE
8
00_ALUMINIO
10
184.563042
20
26.570983
30
0.0
11
184.563042
21
19.670983
31
0.0
0
ARC
8
00_ALUMINIO
10
184.863042
20
19.670983
30
0.0
40
0.300000
50
180.000000
51
270.000000
0
LINE
8
00_ALUMINIO
10
184.863042
20
19.370983
30
0.0
11
199.888042
21
19.370983
31
0.0
0
ARC
8
00_ALUMINIO
10
199.888042
20
19.670983
30
0.0
40
0.300000
50
270.000000
51
0.000000
0
LINE
8
00_ALUMINIO
10
200.188042
20
19.670983
30
0.0
11
200.188042
21
26.570983
31
0.0
0
ARC
8
00_ALUMINIO
10
200.488042
20
26.570983
30
0.0
40
0.300000
50
90.000000
51
180.000000
0
LINE
8
00_ALUMINIO
10
200.488042
20
26.870983
30
0.0
11
215.513042
21
26.870983
31
0.0
0
ARC
8
00_ALUMINIO
10
215.513042
20
26.570983
30
0.0
40
0.300000
50
0.000000
51
90.000000
0
LINE
8
00_ALUMINIO
10
215.813042
20
26.570983
30
0.0
11
215.813042
21
19.670983
31
0.0
0
ARC
8
00_ALUMINIO
10
216.113042
20
19.670983
30
0.0
40
0.300000
50
180.000000
51
270.000000
0
LINE
8
00_ALUMINIO
10
216.113042
20
19.370983
30
0.0
11
231.138042
21
19.370983
31
0.0
0
ARC
8
00_ALUMINIO
10
231.138042
20
19.670983
30
0.0
40
0.300000
50
270.000000
51
0.000000
0
LINE
8
00_ALUMINIO
10
231.438042
20
19.670983
30
0.0
11
231.438042
21
26.570983
31
0.0
0
ARC
8
00_ALUMINIO
10
231.738042
20
26.570983
30
0.0
40
0.300000
50
90.000000
51
180.000000
0
LINE
8
00_ALUMINIO
10
231.738042
20
26.870983
30
0.0
11
246.763042
21
26.870983
31
0.0
0
ARC
8
00_ALUMINIO
10
246.763042
20
26.570983
30
0.0
40
0.300000
50
0.000000
51
90.000000
0
LINE
8
00_ALUMINIO
10
247.063042
20
26.570983
30
0.0
11
247.063042
21
19.670983
31
0.0
0
ARC
8
00_ALUMINIO
10
247.363042
20
19.670983
30
0.0
40
0.300000
50
180.000000
51
270.000000
0
LINE
8
00_ALUMINIO
10
247.363042
20
19.370983
30
0.0
11
262.388042
21
19.370983
31
0.0
0
ARC
8
00_ALUMINIO
10
262.388042
20
19.670983
30
0.0
40
0.300000
50
270.000000
51
0.000000
0
LINE
8
00_ALUMINIO
10
262.688042
20
19.670983
30
0.0
11
262.688042
21
26.570983
31
0.0
0
ARC
8
00_ALUMINIO
10
262.988042
20
26.570983
30
0.0
40
0.300000
50
90.000000
51
180.000000
0
LINE
8
00_ALUMINIO
10
262.988042
20
26.870983
30
0.0
11
278.013042
21
26.870983
31
0.0
0
ARC
8
00_ALUMINIO
10
278.013042
20
26.570983
30
0.0
40
0.300000
50
0.000000
51
90.000000
0
LINE
8
00_ALUMINIO
10
278.313042
20
26.570983
30
0.0
11
278.313042
21
19.670983
31
0.0
0
ARC
8
00_ALUMINIO
10
278.613042
20
19.670983
30
0.0
40
0.300000
50
180.000000
51
270.000000
0
LINE
8
00_ALUMINIO
10
278.613042
20
19.370983
30
0.0
11
293.638042
21
19.370983
31
0.0
0
ARC
8
00_ALUMINIO
10
293.638042
20
19.670983
30
0.0
40
0.300000
50
270.000000
51
0.000000
0
LINE
8
00_ALUMINIO
10
293.938042
20
19.670983
30
0.0
11
293.938042
21
26.570983
31
0.0
0
ARC
8
00_ALUMINIO
10
294.238042
20
26.570983
30
0.0
40
0.300000
50
90.000000
51
180.000000
0
LINE
8
00_ALUMINIO
10
294.238042
20
26.870983
30
0.0
11
309.263042
21
26.870983
31
0.0
0
ARC
8
00_ALUMINIO
10
309.263042
20
26.570983
30
0.0
40
0.300000
50
0.000000
51
90.000000
0
LINE
8
00_ALUMINIO
10
309.563042
20
26.570983
30
0.0
11
309.563042
21
19.670983
31
0.0
0
ARC
8
00_ALUMINIO
10
309.863042
20
19.670983
30
0.0
40
0.300000
50
180.000000
51
270.000000
0
LINE
8
00_ALUMINIO
10
309.863042
20
19.370983
30
0.0
11
324.888042
21
19.370983
31
0.0
0
ARC
8
00_ALUMINIO
10
324.888042
20
19.670983
30
0.0
40
0.300000
50
270.000000
51
0.000000
0
LINE
8
00_ALUMINIO
10
325.188042
20
19.670983
30
0.0
11
325.188042
21
29.120983
31
0.0
0
LINE
8
00_ALUMINIO
10
325.188042
20
29.120983
30
0.0
11
332.338042
21
29.120983
31
0.0
0
ARC
8
00_ALUMINIO
10
332.338042
20
29.870983
30
0.0
40
0.750000
50
270.000000
51
0.000000
0
LINE
8
00_ALUMINIO
10
333.088042
20
29.870983
30
0.0
11
333.088042
21
32.220983
31
0.0
0
ARC
8
00_ALUMINIO
10
332.088042
20
32.220983
30
0.0
40
1.000000
50
0.000000
51
180.000000
0
LINE
8
00_ALUMINIO
10
331.088042
20
32.220983
30
0.0
11
331.088042
21
31.520983
31
0.0
0
LINE
8
00_ALUMINIO
10
331.088042
20
31.520983
30
0.0
11
324.683784
21
31.520983
31
0.0
0
ARC
8
00_ALUMINIO
10
324.683784
20
29.520983
30
0.0
40
2.000000
50
90.000000
51
183.739335
0
LINE
8
00_ALUMINIO
10
322.688042
20
29.390548
30
0.0
11
322.688042
21
22.170983
31
0.0
0
ARC
8
00_ALUMINIO
10
322.388042
20
22.170983
30
0.0
40
0.300000
50
270.000000
51
0.000000
0
LINE
8
00_ALUMINIO
10
322.388042
20
21.870983
30
0.0
11
312.363042
21
21.870983
31
0.0
0
ARC
8
00_ALUMINIO
10
312.363042
20
22.170983
30
0.0
40
0.300000
50
180.000000
51
270.000000
0
LINE
8
00_ALUMINIO
10
312.063042
20
22.170983
30
0.0
11
312.063042
21
29.070983
31
0.0
0
ARC
8
00_ALUMINIO
10
311.763042
20
29.070983
30
0.0
40
0.300000
50
0.000000
51
90.000000
0
LINE
8
00_ALUMINIO
10
311.763042
20
29.370983
30
0.0
11
291.738042
21
29.370983
31
0.0
0
ARC
8
00_ALUMINIO
10
291.738042
20
29.070983
30
0.0
40
0.300000
50
90.000000
51
180.000000
0
LINE
8
00_ALUMINIO
10
291.438042
20
29.070983
30
0.0
11
291.438042
21
22.170983
31
0.0
0
ATTDEF
8
0
10
0.000000
20
0.000000
30
0.0
40
3.5
1

3

2
PANE_WIDTH:0
70
0
0
ATTDEF
8
0
10
0.000000
20
0.000000
30
0.0
40
3.5
1

3

2
MIN_VETRO:0
70
0
0
ATTDEF
8
0
10
0.000000
20
0.000000
30
0.0
40
3.5
1

3

2
MAX_VETRO:0
70
0
0
ATTDEF
8
0
10
0.000000
20
0.000000
30
0.0
40
3.5
1

3

2
JX:0
70
0
0
ATTDEF
8
0
10
0.000000
20
0.000000
30
0.0
40
3.5
1

3

2
WX:0
70
0
0
ATTDEF
8
0
10
0.000000
20
0.000000
30
0.0
40
3.5
1

3

2
JY:0
70
0
0
ATTDEF
8
0
10
0.000000
20
0.000000
30
0.0
40
3.5
1

3

2
WY:0
70
0
0
ATTDEF
8
0
10
0.000000
20
0.000000
30
0.0
40
3.5
1

3

2
DESC:Perfil revestim.fachada
70
0
0
ATTDEF
8
0
10
0.000000
20
0.000000
30
0.0
40
3.5
1

3

2
DENS:2.9954
70
0
0
ATTDEF
8
0
10
0.000000
20
0.000000
30
0.0
40
3.5
1

3

2
TDEV:90.79
70
0
0
ATTDEF
8
0
10
0.000000
20
0.000000
30
0.0
40
3.5
1

3

2
TDEV2:0
70
0
0
ATTDEF
8
0
10
0.000000
20
0.000000
30
0.0
40
3.5
1

3

2
TDEV3:0
70
0
0
ATTDEF
8
0
10
0.000000
20
0.000000
30
0.0
40
3.5
1

3

2
TDEV4:0
70
0
0
ATTDEF
8
0
10
0.000000
20
0.000000
30
0.0
40
3.5
1

3

2
TDEV5:0
70
0
0
ATTDEF
8
0
10
0.000000
20
0.000000
30
0.0
40
3.5
1

3

2
PANE_WIDTH:0
70
0
0
ATTDEF
8
0
10
0.000000
20
0.000000
30
0.0
40
3.5
1

3

2
MIN_VETRO:0
70
0
0
ATTDEF
8
0
10
0.000000
20
0.000000
30
0.0
40
3.5
1

3

2
MAX_VETRO:0
70
0
0
ATTDEF
8
0
10
0.000000
20
0.000000
30
0.0
40
3.5
1

3

2
JX:0
70
0
0
ATTDEF
8
0
10
0.000000
20
0.000000
30
0.0
40
3.5
1

3

2
WX:0
70
0
0
ATTDEF
8
0
10
0.000000
20
0.000000
30
0.0
40
3.5
1

3

2
JY:0
70
0
0
ATTDEF
8
0
10
0.000000
20
0.000000
30
0.0
40
3.5
1

3

2
WY:0
70
0
0
ENDSEC
0
EOF
