0
SECTION
2
ENTITIES
0
LINE
8
00_ALUMINIO
10
39.797282
20
20.011738
30
0.0
11
36.553561
21
19.555863
31
0.0
0
ARC
8
00_ALUMINIO
10
36.595313
20
19.258782
30
0.0
40
0.300000
50
98.000000
51
180.000000
0
LINE
8
00_ALUMINIO
10
36.295313
20
19.258782
30
0.0
11
36.295313
21
18.333427
31
0.0
0
LINE
8
00_ALUMINIO
10
36.295313
20
18.333427
30
0.0
11
32.795313
21
18.333427
31
0.0
0
ARC
8
00_ALUMINIO
10
32.795313
20
17.833427
30
0.0
40
0.500000
50
90.000000
51
180.000000
0
LINE
8
00_ALUMINIO
10
32.295313
20
17.833427
30
0.0
11
32.295313
21
17.233427
31
0.0
0
LINE
8
00_ALUMINIO
10
32.295313
20
17.233427
30
0.0
11
131.295313
21
17.233427
31
0.0
0
LINE
8
00_ALUMINIO
10
131.295313
20
17.233427
30
0.0
11
131.295313
21
18.433427
31
0.0
0
LINE
8
00_ALUMINIO
10
131.295313
20
18.433427
30
0.0
11
134.795313
21
18.433427
31
0.0
0
ARC
8
00_ALUMINIO
10
134.795313
20
18.933427
30
0.0
40
0.500000
50
270.000000
51
0.000000
0
LINE
8
00_ALUMINIO
10
135.295313
20
18.933427
30
0.0
11
135.295313
21
19.506492
31
0.0
0
ARC
8
00_ALUMINIO
10
132.295313
20
19.506492
30
0.0
40
3.000000
50
0.000000
51
15.000000
0
LINE
8
00_ALUMINIO
10
135.193090
20
20.282950
30
0.0
11
131.547016
21
33.890284
31
0.0
0
ARC
8
00_ALUMINIO
10
130.098127
20
33.502056
30
0.0
40
1.500000
50
15.000000
51
27.818139
0
LINE
8
00_ALUMINIO
10
131.424777
20
34.202056
30
0.0
11
131.424777
21
34.502056
31
0.0
0
LINE
8
00_ALUMINIO
10
131.424777
20
34.502056
30
0.0
11
131.216161
21
34.502056
31
0.0
0
ARC
8
00_ALUMINIO
10
130.098127
20
33.502056
30
0.0
40
1.500000
50
41.810315
51
90.000000
0
LINE
8
00_ALUMINIO
10
130.098127
20
35.002056
30
0.0
11
129.841901
21
35.002056
31
0.0
0
LINE
8
00_ALUMINIO
10
129.841901
20
35.002056
30
0.0
11
128.906260
21
34.461863
31
0.0
0
ARC
8
00_ALUMINIO
10
129.056260
20
34.202056
30
0.0
40
0.300000
50
120.000000
51
270.000000
0
LINE
8
00_ALUMINIO
10
129.056260
20
33.902056
30
0.0
11
130.301530
21
33.902056
31
0.0
0
LINE
8
00_ALUMINIO
10
130.301530
20
33.902056
30
0.0
11
134.050403
21
19.911073
31
0.0
0
ARC
8
00_ALUMINIO
10
133.760625
20
19.833427
30
0.0
40
0.300000
50
270.000000
51
15.000000
0
LINE
8
00_ALUMINIO
10
133.760625
20
19.533427
30
0.0
11
130.595313
21
19.533427
31
0.0
0
ARC
8
00_ALUMINIO
10
130.595313
20
19.033427
30
0.0
40
0.500000
50
90.000000
51
180.000000
0
LINE
8
00_ALUMINIO
10
130.095313
20
19.033427
30
0.0
11
130.095313
21
18.533427
31
0.0
0
LINE
8
00_ALUMINIO
10
130.095313
20
18.533427
30
0.0
11
123.479287
21
18.533427
31
0.0
0
LINE
8
00_ALUMINIO
10
123.479287
20
18.533427
30
0.0
11
123.179287
21
18.233427
31
0.0
0
LINE
8
00_ALUMINIO
10
123.179287
20
18.233427
30
0.0
11
122.879287
21
18.533427
31
0.0
0
LINE
8
00_ALUMINIO
10
122.879287
20
18.533427
30
0.0
11
111.795313
21
18.533427
31
0.0
0
LINE
8
00_ALUMINIO
10
111.795313
20
18.533427
30
0.0
11
111.048903
21
18.333427
31
0.0
0
LINE
8
00_ALUMINIO
10
111.048903
20
18.333427
30
0.0
11
104.214928
21
18.333427
31
0.0
0
ARC
8
00_ALUMINIO
10
104.214928
20
18.533427
30
0.0
40
0.200000
50
120.000000
51
270.000000
0
LINE
8
00_ALUMINIO
10
104.114928
20
18.706632
30
0.0
11
105.893158
21
19.733294
31
0.0
0
ARC
8
00_ALUMINIO
10
105.818158
20
19.863198
30
0.0
40
0.150000
50
300.000000
51
98.000000
0
LINE
8
00_ALUMINIO
10
105.797282
20
20.011738
30
0.0
11
102.393924
21
19.533427
31
0.0
0
LINE
8
00_ALUMINIO
10
102.393924
20
19.533427
30
0.0
11
98.547016
21
33.890284
31
0.0
0
ARC
8
00_ALUMINIO
10
97.098127
20
33.502056
30
0.0
40
1.500000
50
15.000000
51
27.818139
0
LINE
8
00_ALUMINIO
10
98.424777
20
34.202056
30
0.0
11
98.424777
21
34.502056
31
0.0
0
LINE
8
00_ALUMINIO
10
98.424777
20
34.502056
30
0.0
11
98.216161
21
34.502056
31
0.0
0
ARC
8
00_ALUMINIO
10
97.098127
20
33.502056
30
0.0
40
1.500000
50
41.810315
51
90.000000
0
LINE
8
00_ALUMINIO
10
97.098127
20
35.002056
30
0.0
11
96.841901
21
35.002056
31
0.0
0
LINE
8
00_ALUMINIO
10
96.841901
20
35.002056
30
0.0
11
95.906260
21
34.461863
31
0.0
0
ARC
8
00_ALUMINIO
10
96.056260
20
34.202056
30
0.0
40
0.300000
50
120.000000
51
270.000000
0
LINE
8
00_ALUMINIO
10
96.056260
20
33.902056
30
0.0
11
97.301530
21
33.902056
31
0.0
0
LINE
8
00_ALUMINIO
10
97.301530
20
33.902056
30
0.0
11
101.250892
21
19.162837
31
0.0
0
ARC
8
00_ALUMINIO
10
100.767929
20
19.033427
30
0.0
40
0.500000
50
270.000000
51
15.000000
0
LINE
8
00_ALUMINIO
10
100.767929
20
18.533427
30
0.0
11
90.479287
21
18.533427
31
0.0
0
LINE
8
00_ALUMINIO
10
90.479287
20
18.533427
30
0.0
11
90.179287
21
18.233427
31
0.0
0
LINE
8
00_ALUMINIO
10
90.179287
20
18.233427
30
0.0
11
89.879287
21
18.533427
31
0.0
0
LINE
8
00_ALUMINIO
10
89.879287
20
18.533427
30
0.0
11
78.795313
21
18.533427
31
0.0
0
LINE
8
00_ALUMINIO
10
78.795313
20
18.533427
30
0.0
11
78.048903
21
18.333427
31
0.0
0
LINE
8
00_ALUMINIO
10
78.048903
20
18.333427
30
0.0
11
71.214928
21
18.333427
31
0.0
0
ARC
8
00_ALUMINIO
10
71.214928
20
18.533427
30
0.0
40
0.200000
50
120.000000
51
270.000000
0
LINE
8
00_ALUMINIO
10
71.114928
20
18.706632
30
0.0
11
72.893158
21
19.733294
31
0.0
0
ARC
8
00_ALUMINIO
10
72.818158
20
19.863198
30
0.0
40
0.150000
50
300.000000
51
98.000000
0
LINE
8
00_ALUMINIO
10
72.797282
20
20.011738
30
0.0
11
69.393924
21
19.533427
31
0.0
0
LINE
8
00_ALUMINIO
10
69.393924
20
19.533427
30
0.0
11
65.547016
21
33.890284
31
0.0
0
ARC
8
00_ALUMINIO
10
64.098127
20
33.502056
30
0.0
40
1.500000
50
15.000000
51
27.818139
0
LINE
8
00_ALUMINIO
10
65.424777
20
34.202056
30
0.0
11
65.424777
21
34.502056
31
0.0
0
LINE
8
00_ALUMINIO
10
65.424777
20
34.502056
30
0.0
11
65.216161
21
34.502056
31
0.0
0
ARC
8
00_ALUMINIO
10
64.098127
20
33.502056
30
0.0
40
1.500000
50
41.810315
51
90.000000
0
LINE
8
00_ALUMINIO
10
64.098127
20
35.002056
30
0.0
11
63.841901
21
35.002056
31
0.0
0
LINE
8
00_ALUMINIO
10
63.841901
20
35.002056
30
0.0
11
62.906260
21
34.461863
31
0.0
0
ARC
8
00_ALUMINIO
10
63.056260
20
34.202056
30
0.0
40
0.300000
50
120.000000
51
270.000000
0
LINE
8
00_ALUMINIO
10
63.056260
20
33.902056
30
0.0
11
64.301530
21
33.902056
31
0.0
0
LINE
8
00_ALUMINIO
10
64.301530
20
33.902056
30
0.0
11
68.250892
21
19.162837
31
0.0
0
ARC
8
00_ALUMINIO
10
67.767929
20
19.033427
30
0.0
40
0.500000
50
270.000000
51
15.000000
0
LINE
8
00_ALUMINIO
10
67.767929
20
18.533427
30
0.0
11
57.479287
21
18.533427
31
0.0
0
LINE
8
00_ALUMINIO
10
57.479287
20
18.533427
30
0.0
11
57.179287
21
18.233427
31
0.0
0
LINE
8
00_ALUMINIO
10
57.179287
20
18.233427
30
0.0
11
56.879287
21
18.533427
31
0.0
0
LINE
8
00_ALUMINIO
10
56.879287
20
18.533427
30
0.0
11
45.795313
21
18.533427
31
0.0
0
LINE
8
00_ALUMINIO
10
45.795313
20
18.533427
30
0.0
11
45.048903
21
18.333427
31
0.0
0
LINE
8
00_ALUMINIO
10
45.048903
20
18.333427
30
0.0
11
38.214928
21
18.333427
31
0.0
0
ARC
8
00_ALUMINIO
10
38.214928
20
18.533427
30
0.0
40
0.200000
50
120.000000
51
270.000000
0
LINE
8
00_ALUMINIO
10
38.114928
20
18.706632
30
0.0
11
39.893158
21
19.733294
31
0.0
0
ARC
8
00_ALUMINIO
10
39.818158
20
19.863198
30
0.0
40
0.150000
50
300.000000
51
98.000000
0
ATTDEF
8
0
10
0.000000
20
0.000000
30
0.0
40
3.5
1

3

2
PANE_WIDTH:0
70
0
0
ATTDEF
8
0
10
0.000000
20
0.000000
30
0.0
40
3.5
1

3

2
MIN_VETRO:0
70
0
0
ATTDEF
8
0
10
0.000000
20
0.000000
30
0.0
40
3.5
1

3

2
MAX_VETRO:0
70
0
0
ATTDEF
8
0
10
0.000000
20
0.000000
30
0.0
40
3.5
1

3

2
JX:0
70
0
0
ATTDEF
8
0
10
0.000000
20
0.000000
30
0.0
40
3.5
1

3

2
WX:0
70
0
0
ATTDEF
8
0
10
0.000000
20
0.000000
30
0.0
40
3.5
1

3

2
JY:0
70
0
0
ATTDEF
8
0
10
0.000000
20
0.000000
30
0.0
40
3.5
1

3

2
WY:0
70
0
0
ATTDEF
8
0
10
0.000000
20
0.000000
30
0.0
40
3.5
1

3

2
DESC:Sopte.lama vent.mini
70
0
0
ATTDEF
8
0
10
0.000000
20
0.000000
30
0.0
40
3.5
1

3

2
DENS:0.5427
70
0
0
ATTDEF
8
0
10
0.000000
20
0.000000
30
0.0
40
3.5
1

3

2
TDEV:32.91
70
0
0
ATTDEF
8
0
10
0.000000
20
0.000000
30
0.0
40
3.5
1

3

2
TDEV2:0
70
0
0
ATTDEF
8
0
10
0.000000
20
0.000000
30
0.0
40
3.5
1

3

2
TDEV3:0
70
0
0
ATTDEF
8
0
10
0.000000
20
0.000000
30
0.0
40
3.5
1

3

2
TDEV4:0
70
0
0
ATTDEF
8
0
10
0.000000
20
0.000000
30
0.0
40
3.5
1

3

2
TDEV5:0
70
0
0
ATTDEF
8
0
10
0.000000
20
0.000000
30
0.0
40
3.5
1

3

2
PANE_WIDTH:0
70
0
0
ATTDEF
8
0
10
0.000000
20
0.000000
30
0.0
40
3.5
1

3

2
MIN_VETRO:0
70
0
0
ATTDEF
8
0
10
0.000000
20
0.000000
30
0.0
40
3.5
1

3

2
MAX_VETRO:0
70
0
0
ATTDEF
8
0
10
0.000000
20
0.000000
30
0.0
40
3.5
1

3

2
JX:0
70
0
0
ATTDEF
8
0
10
0.000000
20
0.000000
30
0.0
40
3.5
1

3

2
WX:0
70
0
0
ATTDEF
8
0
10
0.000000
20
0.000000
30
0.0
40
3.5
1

3

2
JY:0
70
0
0
ATTDEF
8
0
10
0.000000
20
0.000000
30
0.0
40
3.5
1

3

2
WY:0
70
0
0
ENDSEC
0
EOF
