0
SECTION
2
ENTITIES
0
ARC
8
0
10
3082.590661
20
1300.878305
30
0.0
40
0.300000
50
270.000000
51
360.000000
0
LINE
8
0
10
3082.590661
20
1300.578305
30
0.0
11
3066.340661
21
1300.578305
31
0.0
0
ARC
8
0
10
3066.340661
20
1301.078305
30
0.0
40
0.500000
50
180.000000
51
270.000000
0
LINE
8
0
10
3065.840661
20
1301.078305
30
0.0
11
3065.840661
21
1304.099240
31
0.0
0
ARC
8
0
10
3065.340661
20
1304.099240
30
0.0
40
0.500000
50
360.000000
51
66.421822
0
ARC
8
0
10
3065.740661
20
1305.015755
30
0.0
40
0.500000
50
180.000000
51
246.421822
0
LINE
8
0
10
3065.240661
20
1305.015755
30
0.0
11
3065.240661
21
1309.099240
31
0.0
0
ARC
8
0
10
3065.540661
20
1309.099240
30
0.0
40
0.300000
50
90.000000
51
180.000000
0
LINE
8
0
10
3065.540661
20
1309.399240
30
0.0
11
3075.368153
21
1309.399240
31
0.0
0
ARC
8
0
10
3075.368153
20
1309.099240
30
0.0
40
0.300000
50
62.232430
51
90.000000
0
LINE
8
0
10
3075.507919
20
1309.364693
30
0.0
11
3075.891273
21
1309.162851
31
0.0
0
ARC
8
0
10
3076.031038
20
1309.428305
30
0.0
40
0.300000
50
242.232430
51
270.000000
0
LINE
8
0
10
3076.031038
20
1309.128305
30
0.0
11
3080.263926
21
1309.128305
31
0.0
0
LINE
8
0
10
3080.263926
20
1309.128305
30
0.0
11
3080.359160
21
1309.143822
31
0.0
0
ARC
8
0
10
3079.343328
20
1312.178305
30
0.0
40
3.200000
50
288.508628
51
315.743442
0
ARC
8
0
10
3081.850106
20
1309.735751
30
0.0
40
0.300000
50
90.000000
51
135.743442
0
LINE
8
0
10
3081.850106
20
1310.035751
30
0.0
11
3082.590661
21
1310.035751
31
0.0
0
ARC
8
0
10
3082.590661
20
1309.735751
30
0.0
40
0.300000
50
360.000000
51
90.000000
0
LINE
8
0
10
3082.890661
20
1309.735751
30
0.0
11
3082.890661
21
1300.878305
31
0.0
0
ARC
8
0
10
3095.612009
20
1309.878305
30
0.0
40
0.300000
50
270.000000
51
335.897654
0
LINE
8
0
10
3095.612009
20
1309.578305
30
0.0
11
3084.440661
21
1309.578305
31
0.0
0
LINE
8
0
10
3084.440661
20
1309.578305
30
0.0
11
3084.440661
21
1300.578305
31
0.0
0
LINE
8
0
10
3084.440661
20
1300.578305
30
0.0
11
3108.440661
21
1300.578305
31
0.0
0
LINE
8
0
10
3108.440661
20
1300.578305
30
0.0
11
3108.440661
21
1309.578305
31
0.0
0
LINE
8
0
10
3108.440661
20
1309.578305
30
0.0
11
3107.240661
21
1309.578305
31
0.0
0
ARC
8
0
10
3107.240661
20
1309.878305
30
0.0
40
0.300000
50
180.000000
51
270.000000
0
LINE
8
0
10
3106.940661
20
1309.878305
30
0.0
11
3106.940661
21
1310.278305
31
0.0
0
ARC
8
0
10
3107.240661
20
1310.278305
30
0.0
40
0.300000
50
90.000000
51
180.000000
0
LINE
8
0
10
3107.240661
20
1310.578305
30
0.0
11
3108.140661
21
1310.578305
31
0.0
0
ARC
8
0
10
3108.140661
20
1310.878305
30
0.0
40
0.300000
50
270.000000
51
360.000000
0
LINE
8
0
10
3108.440661
20
1310.878305
30
0.0
11
3108.440661
21
1311.478305
31
0.0
0
ARC
8
0
10
3108.140661
20
1311.478305
30
0.0
40
0.300000
50
360.000000
51
90.000000
0
LINE
8
0
10
3108.140661
20
1311.778305
30
0.0
11
3096.985107
21
1311.778305
31
0.0
0
ARC
8
0
10
3096.985107
20
1311.478305
30
0.0
40
0.300000
50
90.000000
51
155.897654
0
LINE
8
0
10
3096.711262
20
1311.600815
30
0.0
11
3095.885854
21
1309.755794
31
0.0
0
LINE
8
0
10
3041.240661
20
1308.608866
30
0.0
11
3041.983597
21
1309.351802
31
0.0
0
LINE
8
0
10
3041.340661
20
1306.463802
30
0.0
11
3041.651099
21
1306.774240
31
0.0
0
LINE
8
0
10
3042.497389
20
1307.620530
30
0.0
11
3043.406910
21
1308.530051
31
0.0
0
LINE
8
0
10
3042.894528
20
1305.772605
30
0.0
11
3048.121163
21
1310.999240
31
0.0
0
LINE
8
0
10
3048.466227
20
1309.099240
30
0.0
11
3050.366227
21
1310.999240
31
0.0
0
LINE
8
0
10
3040.938044
20
1299.325993
30
0.0
11
3041.877107
21
1300.265056
31
0.0
0
LINE
8
0
10
3050.711291
20
1309.099240
30
0.0
11
3052.611291
21
1310.999240
31
0.0
0
LINE
8
0
10
3040.508044
20
1296.650929
30
0.0
11
3043.680368
21
1299.823253
31
0.0
0
LINE
8
0
10
3052.956355
20
1309.099240
30
0.0
11
3054.856355
21
1310.999240
31
0.0
0
LINE
8
0
10
3043.394641
20
1297.292462
30
0.0
11
3044.836922
21
1298.734743
31
0.0
0
LINE
8
0
10
3055.201419
20
1309.099240
30
0.0
11
3057.101419
21
1310.999240
31
0.0
0
LINE
8
0
10
3044.286546
20
1295.939303
30
0.0
11
3045.725762
21
1297.378519
31
0.0
0
LINE
8
0
10
3057.360866
20
1309.013622
30
0.0
11
3058.771007
21
1310.423763
31
0.0
0
LINE
8
0
10
3045.250277
20
1294.657970
30
0.0
11
3047.220612
21
1296.628305
31
0.0
0
LINE
8
0
10
3058.255539
20
1307.663232
30
0.0
11
3059.634382
21
1309.042074
31
0.0
0
LINE
8
0
10
3047.465676
20
1294.628305
30
0.0
11
3049.465676
21
1296.628305
31
0.0
0
LINE
8
0
10
3059.191115
20
1306.353744
30
0.0
11
3061.767681
21
1308.930310
31
0.0
0
LINE
8
0
10
3049.710740
20
1294.628305
30
0.0
11
3051.710740
21
1296.628305
31
0.0
0
LINE
8
0
10
3062.906675
20
1307.824240
30
0.0
11
3063.140661
21
1308.058226
31
0.0
0
LINE
8
0
10
3061.122881
20
1306.040446
30
0.0
11
3062.015418
21
1306.932983
31
0.0
0
LINE
8
0
10
3051.955804
20
1294.628305
30
0.0
11
3053.955804
21
1296.628305
31
0.0
0
LINE
8
0
10
3062.548386
20
1305.220887
30
0.0
11
3063.240661
21
1305.913162
31
0.0
0
LINE
8
0
10
3054.200868
20
1294.628305
30
0.0
11
3056.200868
21
1296.628305
31
0.0
0
LINE
8
0
10
3056.445932
20
1294.628305
30
0.0
11
3061.646018
21
1299.828391
31
0.0
0
LINE
8
0
10
3058.690996
20
1294.628305
30
0.0
11
3060.567552
21
1296.504861
31
0.0
0
LINE
8
0
10
3063.380864
20
1299.318173
30
0.0
11
3064.240661
21
1300.177970
31
0.0
0
LINE
8
0
10
3061.690649
20
1297.627958
30
0.0
11
3062.900793
21
1298.838102
31
0.0
0
LINE
8
0
10
3063.171349
20
1296.863594
30
0.0
11
3064.140661
21
1297.832906
31
0.0
0
LINE
8
0
10
3041.329461
20
1296.874863
30
0.0
11
3040.340661
21
1297.863662
31
0.0
0
LINE
8
0
10
3045.821083
20
1294.628305
30
0.0
11
3043.854298
21
1296.595089
31
0.0
0
LINE
8
0
10
3041.139953
20
1299.309435
30
0.0
11
3040.240661
21
1300.208726
31
0.0
0
LINE
8
0
10
3042.821142
20
1297.628246
30
0.0
11
3041.571791
21
1298.877596
31
0.0
0
LINE
8
0
10
3048.066147
20
1294.628305
30
0.0
11
3042.866147
21
1299.828305
31
0.0
0
LINE
8
0
10
3050.311211
20
1294.628305
30
0.0
11
3048.311211
21
1296.628305
31
0.0
0
LINE
8
0
10
3052.556275
20
1294.628305
30
0.0
11
3050.556275
21
1296.628305
31
0.0
0
LINE
8
0
10
3041.954180
20
1305.230399
30
0.0
11
3041.240661
21
1305.943918
31
0.0
0
LINE
8
0
10
3054.801339
20
1294.628305
30
0.0
11
3052.801339
21
1296.628305
31
0.0
0
LINE
8
0
10
3041.605404
20
1307.824240
30
0.0
11
3041.340661
21
1308.088983
31
0.0
0
LINE
8
0
10
3043.377941
20
1306.051703
30
0.0
11
3042.479004
21
1306.950640
31
0.0
0
LINE
8
0
10
3057.046403
20
1294.628305
30
0.0
11
3055.046403
21
1296.628305
31
0.0
0
LINE
8
0
10
3045.315418
20
1306.359290
30
0.0
11
3042.786412
21
1308.888296
31
0.0
0
LINE
8
0
10
3059.253207
20
1294.666565
30
0.0
11
3057.291467
21
1296.628305
31
0.0
0
LINE
8
0
10
3046.237612
20
1307.682160
30
0.0
11
3044.858769
21
1309.061003
31
0.0
0
LINE
8
0
10
3060.206996
20
1295.957840
30
0.0
11
3058.767737
21
1297.397099
31
0.0
0
LINE
8
0
10
3047.139174
20
1309.025662
30
0.0
11
3045.722144
21
1310.442692
31
0.0
0
LINE
8
0
10
3061.098901
20
1297.310999
30
0.0
11
3059.656578
21
1298.753322
31
0.0
0
LINE
8
0
10
3049.310660
20
1309.099240
30
0.0
11
3047.410660
21
1310.999240
31
0.0
0
LINE
8
0
10
3063.995482
20
1296.659482
30
0.0
11
3060.829261
21
1299.825703
31
0.0
0
LINE
8
0
10
3051.555724
20
1309.099240
30
0.0
11
3049.655724
21
1310.999240
31
0.0
0
LINE
8
0
10
3063.578134
20
1299.321894
30
0.0
11
3062.623703
21
1300.276325
31
0.0
0
LINE
8
0
10
3053.800788
20
1309.099240
30
0.0
11
3051.900788
21
1310.999240
31
0.0
0
LINE
8
0
10
3056.045852
20
1309.099240
30
0.0
11
3054.145852
21
1310.999240
31
0.0
0
LINE
8
0
10
3061.659566
20
1305.730591
30
0.0
11
3056.390916
21
1310.999240
31
0.0
0
LINE
8
0
10
3063.140661
20
1306.494559
30
0.0
11
3062.860980
21
1306.774240
31
0.0
0
LINE
8
0
10
3061.996166
20
1307.639055
30
0.0
11
3061.093911
21
1308.541309
31
0.0
0
LINE
8
0
10
3063.240661
20
1308.639623
30
0.0
11
3062.517304
21
1309.362980
31
0.0
0
ARC
8
0
10
3057.081067
20
1308.599240
30
0.0
40
0.500000
50
32.000000
51
90.000000
0
LINE
8
0
10
3057.505091
20
1308.864200
30
0.0
11
3058.988491
21
1306.490264
31
0.0
0
ARC
8
0
10
3059.242905
20
1306.649240
30
0.0
40
0.300000
50
212.000000
51
270.000000
0
LINE
8
0
10
3059.242905
20
1306.349240
30
0.0
11
3060.266494
21
1306.349240
31
0.0
0
ARC
8
0
10
3060.266494
20
1305.149240
30
0.0
40
1.200000
50
60.000000
51
90.000000
0
LINE
8
0
10
3060.866494
20
1306.188470
30
0.0
11
3062.510277
21
1305.239432
31
0.0
0
ARC
8
0
10
3062.660277
20
1305.499240
30
0.0
40
0.300000
50
240.000000
51
270.000000
0
LINE
8
0
10
3062.660277
20
1305.199240
30
0.0
11
3062.840661
21
1305.199240
31
0.0
0
ARC
8
0
10
3062.840661
20
1305.599240
30
0.0
40
0.400000
50
270.000000
51
360.000000
0
LINE
8
0
10
3063.240661
20
1305.599240
30
0.0
11
3063.240661
21
1306.199240
31
0.0
0
LINE
8
0
10
3063.240661
20
1306.199240
30
0.0
11
3063.140661
21
1306.199240
31
0.0
0
LINE
8
0
10
3063.140661
20
1306.199240
30
0.0
11
3063.140661
21
1306.574240
31
0.0
0
ARC
8
0
10
3062.940661
20
1306.574240
30
0.0
40
0.200000
50
360.000000
51
90.000000
0
LINE
8
0
10
3062.940661
20
1306.774240
30
0.0
11
3062.781135
21
1306.774240
31
0.0
0
ARC
8
0
10
3062.490661
20
1307.299240
30
0.0
40
0.600000
50
61.044976
51
298.955024
0
LINE
8
0
10
3062.781135
20
1307.824240
30
0.0
11
3062.940661
21
1307.824240
31
0.0
0
ARC
8
0
10
3062.940661
20
1308.024240
30
0.0
40
0.200000
50
270.000000
51
360.000000
0
LINE
8
0
10
3063.140661
20
1308.024240
30
0.0
11
3063.140661
21
1308.399240
31
0.0
0
LINE
8
0
10
3063.140661
20
1308.399240
30
0.0
11
3063.240661
21
1308.399240
31
0.0
0
LINE
8
0
10
3063.240661
20
1308.399240
30
0.0
11
3063.240661
21
1308.999240
31
0.0
0
ARC
8
0
10
3062.840661
20
1308.999240
30
0.0
40
0.400000
50
360.000000
51
90.000000
0
LINE
8
0
10
3062.840661
20
1309.399240
30
0.0
11
3062.660277
21
1309.399240
31
0.0
0
ARC
8
0
10
3062.660277
20
1309.099240
30
0.0
40
0.300000
50
90.000000
51
120.000000
0
LINE
8
0
10
3062.510277
20
1309.359048
30
0.0
11
3060.866494
21
1308.410009
31
0.0
0
ARC
8
0
10
3060.266494
20
1309.449240
30
0.0
40
1.200000
50
270.000000
51
300.000000
0
LINE
8
0
10
3060.266494
20
1308.249240
30
0.0
11
3060.240661
21
1308.249240
31
0.0
0
ARC
8
0
10
3060.240661
20
1308.449240
30
0.0
40
0.200000
50
212.000000
51
270.000000
0
LINE
8
0
10
3060.071052
20
1308.343256
30
0.0
11
3058.558278
21
1310.764200
31
0.0
0
ARC
8
0
10
3058.134254
20
1310.499240
30
0.0
40
0.500000
50
32.000000
51
90.000000
0
LINE
8
0
10
3058.134254
20
1310.999240
30
0.0
11
3052.240661
21
1310.999240
31
0.0
0
LINE
8
0
10
3052.240661
20
1310.999240
30
0.0
11
3046.347068
21
1310.999240
31
0.0
0
ARC
8
0
10
3046.347068
20
1310.499240
30
0.0
40
0.500000
50
90.000000
51
148.000000
0
LINE
8
0
10
3045.923044
20
1310.764200
30
0.0
11
3044.410271
21
1308.343256
31
0.0
0
ARC
8
0
10
3044.240661
20
1308.449240
30
0.0
40
0.200000
50
270.000000
51
328.000000
0
LINE
8
0
10
3044.240661
20
1308.249240
30
0.0
11
3044.214828
21
1308.249240
31
0.0
0
ARC
8
0
10
3044.214828
20
1309.449240
30
0.0
40
1.200000
50
240.000000
51
270.000000
0
LINE
8
0
10
3043.614828
20
1308.410009
30
0.0
11
3041.971046
21
1309.359048
31
0.0
0
ARC
8
0
10
3041.821046
20
1309.099240
30
0.0
40
0.300000
50
60.000000
51
90.000000
0
LINE
8
0
10
3041.821046
20
1309.399240
30
0.0
11
3041.640661
21
1309.399240
31
0.0
0
ARC
8
0
10
3041.640661
20
1308.999240
30
0.0
40
0.400000
50
90.000000
51
180.000000
0
LINE
8
0
10
3041.240661
20
1308.999240
30
0.0
11
3041.240661
21
1308.399240
31
0.0
0
LINE
8
0
10
3041.240661
20
1308.399240
30
0.0
11
3041.340661
21
1308.399240
31
0.0
0
LINE
8
0
10
3041.340661
20
1308.399240
30
0.0
11
3041.340661
21
1308.024240
31
0.0
0
ARC
8
0
10
3041.540661
20
1308.024240
30
0.0
40
0.200000
50
180.000000
51
270.000000
0
LINE
8
0
10
3041.540661
20
1307.824240
30
0.0
11
3041.700188
21
1307.824240
31
0.0
0
ARC
8
0
10
3041.990661
20
1307.299240
30
0.0
40
0.600000
50
241.044976
51
118.955024
0
LINE
8
0
10
3041.700188
20
1306.774240
30
0.0
11
3041.540661
21
1306.774240
31
0.0
0
ARC
8
0
10
3041.540661
20
1306.574240
30
0.0
40
0.200000
50
90.000000
51
180.000000
0
LINE
8
0
10
3041.340661
20
1306.574240
30
0.0
11
3041.340661
21
1306.199240
31
0.0
0
LINE
8
0
10
3041.340661
20
1306.199240
30
0.0
11
3041.240661
21
1306.199240
31
0.0
0
LINE
8
0
10
3041.240661
20
1306.199240
30
0.0
11
3041.240661
21
1305.599240
31
0.0
0
ARC
8
0
10
3041.640661
20
1305.599240
30
0.0
40
0.400000
50
180.000000
51
270.000000
0
LINE
8
0
10
3041.640661
20
1305.199240
30
0.0
11
3041.821046
21
1305.199240
31
0.0
0
ARC
8
0
10
3041.821046
20
1305.499240
30
0.0
40
0.300000
50
270.000000
51
300.000000
0
LINE
8
0
10
3041.971046
20
1305.239432
30
0.0
11
3043.614828
21
1306.188470
31
0.0
0
ARC
8
0
10
3044.214828
20
1305.149240
30
0.0
40
1.200000
50
90.000000
51
120.000000
0
LINE
8
0
10
3044.214828
20
1306.349240
30
0.0
11
3045.238418
21
1306.349240
31
0.0
0
ARC
8
0
10
3045.238418
20
1306.649240
30
0.0
40
0.300000
50
270.000000
51
328.000000
0
LINE
8
0
10
3045.492832
20
1306.490264
30
0.0
11
3046.976232
21
1308.864200
31
0.0
0
ARC
8
0
10
3047.400256
20
1308.599240
30
0.0
40
0.500000
50
90.000000
51
148.000000
0
LINE
8
0
10
3047.400256
20
1309.099240
30
0.0
11
3052.240661
21
1309.099240
31
0.0
0
LINE
8
0
10
3052.240661
20
1309.099240
30
0.0
11
3057.081067
21
1309.099240
31
0.0
0
ARC
8
0
10
3025.137994
20
1312.178305
30
0.0
40
3.200000
50
224.256558
51
251.491372
0
LINE
8
0
10
3024.122162
20
1309.143822
30
0.0
11
3024.217397
21
1309.128305
31
0.0
0
LINE
8
0
10
3024.217397
20
1309.128305
30
0.0
11
3028.450284
21
1309.128305
31
0.0
0
ARC
8
0
10
3028.450284
20
1309.428305
30
0.0
40
0.300000
50
270.000000
51
297.767570
0
LINE
8
0
10
3028.590050
20
1309.162851
30
0.0
11
3028.973404
21
1309.364693
31
0.0
0
ARC
8
0
10
3029.113169
20
1309.099240
30
0.0
40
0.300000
50
90.000000
51
117.767570
0
LINE
8
0
10
3029.113169
20
1309.399240
30
0.0
11
3038.940661
21
1309.399240
31
0.0
0
ARC
8
0
10
3038.940661
20
1309.099240
30
0.0
40
0.300000
50
360.000000
51
90.000000
0
LINE
8
0
10
3039.240661
20
1309.099240
30
0.0
11
3039.240661
21
1305.015755
31
0.0
0
ARC
8
0
10
3038.740661
20
1305.015755
30
0.0
40
0.500000
50
293.578179
51
360.000000
0
ARC
8
0
10
3039.140661
20
1304.099240
30
0.0
40
0.500000
50
113.578178
51
180.000000
0
LINE
8
0
10
3038.640661
20
1304.099240
30
0.0
11
3038.640661
21
1301.078305
31
0.0
0
ARC
8
0
10
3038.140661
20
1301.078305
30
0.0
40
0.500000
50
270.000000
51
360.000000
0
LINE
8
0
10
3038.140661
20
1300.578305
30
0.0
11
3021.890661
21
1300.578305
31
0.0
0
ARC
8
0
10
3021.890661
20
1300.878305
30
0.0
40
0.300000
50
180.000000
51
270.000000
0
LINE
8
0
10
3021.590661
20
1300.878305
30
0.0
11
3021.590661
21
1309.735751
31
0.0
0
ARC
8
0
10
3021.890661
20
1309.735751
30
0.0
40
0.300000
50
90.000000
51
180.000000
0
LINE
8
0
10
3021.890661
20
1310.035751
30
0.0
11
3022.631217
21
1310.035751
31
0.0
0
ARC
8
0
10
3022.631217
20
1309.735751
30
0.0
40
0.300000
50
44.256558
51
90.000000
0
ARC
8
0
10
3008.869314
20
1309.878305
30
0.0
40
0.300000
50
204.102346
51
270.000000
0
LINE
8
0
10
3008.869314
20
1309.578305
30
0.0
11
3020.040661
21
1309.578305
31
0.0
0
LINE
8
0
10
3020.040661
20
1309.578305
30
0.0
11
3020.040661
21
1300.578305
31
0.0
0
LINE
8
0
10
3020.040661
20
1300.578305
30
0.0
11
2996.040661
21
1300.578305
31
0.0
0
LINE
8
0
10
2996.040661
20
1300.578305
30
0.0
11
2996.040661
21
1309.578305
31
0.0
0
LINE
8
0
10
2996.040661
20
1309.578305
30
0.0
11
2997.240661
21
1309.578305
31
0.0
0
ARC
8
0
10
2997.240661
20
1309.878305
30
0.0
40
0.300000
50
270.000000
51
360.000000
0
LINE
8
0
10
2997.540661
20
1309.878305
30
0.0
11
2997.540661
21
1310.278305
31
0.0
0
ARC
8
0
10
2997.240661
20
1310.278305
30
0.0
40
0.300000
50
360.000000
51
90.000000
0
LINE
8
0
10
2997.240661
20
1310.578305
30
0.0
11
2996.340661
21
1310.578305
31
0.0
0
ARC
8
0
10
2996.340661
20
1310.878305
30
0.0
40
0.300000
50
180.000000
51
270.000000
0
LINE
8
0
10
2996.040661
20
1310.878305
30
0.0
11
2996.040661
21
1311.478305
31
0.0
0
ARC
8
0
10
2996.340661
20
1311.478305
30
0.0
40
0.300000
50
90.000000
51
180.000000
0
LINE
8
0
10
2996.340661
20
1311.778305
30
0.0
11
3007.496215
21
1311.778305
31
0.0
0
ARC
8
0
10
3007.496215
20
1311.478305
30
0.0
40
0.300000
50
24.102346
51
90.000000
0
LINE
8
0
10
3007.770061
20
1311.600815
30
0.0
11
3008.595469
21
1309.755794
31
0.0
0
ARC
8
0
10
3040.851610
20
1311.499240
30
0.0
40
0.500000
50
29.713468
51
90.000000
0
LINE
8
0
10
3040.851610
20
1311.999240
30
0.0
11
3039.740661
21
1311.999240
31
0.0
0
ARC
8
0
10
3039.740661
20
1311.499240
30
0.0
40
0.500000
50
90.000000
51
180.000000
0
ARC
8
0
10
3038.740661
20
1311.499240
30
0.0
40
0.500000
50
270.000000
51
360.000000
0
LINE
8
0
10
3038.740661
20
1310.999240
30
0.0
11
3036.002576
21
1310.999240
31
0.0
0
LINE
8
0
10
3036.002576
20
1310.999240
30
0.0
11
3035.914708
21
1310.911372
31
0.0
0
ARC
8
0
10
3035.702576
20
1311.123504
30
0.0
40
0.300000
50
225.000000
51
315.000000
0
LINE
8
0
10
3035.490444
20
1310.911372
30
0.0
11
3035.402576
21
1310.999240
31
0.0
0
LINE
8
0
10
3035.402576
20
1310.999240
30
0.0
11
3032.740661
21
1310.999240
31
0.0
0
ARC
8
0
10
3032.740661
20
1311.499240
30
0.0
40
0.500000
50
180.000000
51
270.000000
0
LINE
8
0
10
3032.240661
20
1311.499240
30
0.0
11
3032.240661
21
1312.878305
31
0.0
0
ARC
8
0
10
3031.740661
20
1312.878305
30
0.0
40
0.500000
50
360.000000
51
90.000000
0
LINE
8
0
10
3031.740661
20
1313.378305
30
0.0
11
3024.929241
21
1313.378305
31
0.0
0
ARC
8
0
10
3024.929241
20
1313.078305
30
0.0
40
0.300000
50
90.000000
51
217.464043
0
ARC
8
0
10
3023.341770
20
1311.861778
30
0.0
40
1.700000
50
14.967045
51
37.464043
0
ARC
8
0
10
3025.273919
20
1312.378305
30
0.0
40
0.300000
50
194.967045
51
270.000000
0
LINE
8
0
10
3025.273919
20
1312.078305
30
0.0
11
3028.240227
21
1312.078305
31
0.0
0
ARC
8
0
10
3028.240227
20
1311.578305
30
0.0
40
0.500000
50
360.000000
51
90.000000
0
LINE
8
0
10
3028.740227
20
1311.578305
30
0.0
11
3028.740227
21
1311.228305
31
0.0
0
ARC
8
0
10
3028.240227
20
1311.228305
30
0.0
40
0.500000
50
270.000000
51
360.000000
0
LINE
8
0
10
3028.240227
20
1310.728305
30
0.0
11
3024.531777
21
1310.728305
31
0.0
0
ARC
8
0
10
3024.531777
20
1311.028305
30
0.0
40
0.300000
50
242.204228
51
270.000000
0
ARC
8
0
10
3025.137994
20
1312.178305
30
0.0
40
1.600000
50
216.523595
51
242.204228
0
ARC
8
0
10
3022.244992
20
1310.035751
30
0.0
40
2.000000
50
36.523595
51
90.000000
0
LINE
8
0
10
3022.244992
20
1312.035751
30
0.0
11
3016.236331
21
1312.035751
31
0.0
0
ARC
8
0
10
3016.236331
20
1310.035751
30
0.0
40
2.000000
50
90.000000
51
143.476405
0
ARC
8
0
10
3013.343328
20
1312.178305
30
0.0
40
1.600000
50
297.795773
51
323.476405
0
ARC
8
0
10
3013.949546
20
1311.028305
30
0.0
40
0.300000
50
270.000000
51
297.795773
0
LINE
8
0
10
3013.949546
20
1310.728305
30
0.0
11
3010.240661
21
1310.728305
31
0.0
0
ARC
8
0
10
3010.240661
20
1311.228305
30
0.0
40
0.500000
50
180.000000
51
270.000000
0
LINE
8
0
10
3009.740661
20
1311.228305
30
0.0
11
3009.740661
21
1311.578305
31
0.0
0
ARC
8
0
10
3010.240661
20
1311.578305
30
0.0
40
0.500000
50
90.000000
51
180.000000
0
LINE
8
0
10
3010.240661
20
1312.078305
30
0.0
11
3013.207404
21
1312.078305
31
0.0
0
ARC
8
0
10
3013.207404
20
1312.378305
30
0.0
40
0.300000
50
270.000000
51
345.032955
0
ARC
8
0
10
3015.139553
20
1311.861778
30
0.0
40
1.700000
50
142.535957
51
165.032955
0
ARC
8
0
10
3013.552082
20
1313.078305
30
0.0
40
0.300000
50
322.535957
51
90.000000
0
LINE
8
0
10
3013.552082
20
1313.378305
30
0.0
11
3007.042140
21
1313.378305
31
0.0
0
LINE
8
0
10
3007.042140
20
1313.378305
30
0.0
11
3007.042846
21
1318.628781
31
0.0
0
LINE
8
0
10
3007.042846
20
1318.628781
30
0.0
11
3001.791848
21
1318.628966
31
0.0
0
ARC
8
0
10
3001.791838
20
1318.328966
30
0.0
40
0.300000
50
90.000000
51
180.000000
0
LINE
8
0
10
3001.491838
20
1318.328977
30
0.0
11
3001.491713
21
1316.978966
31
0.0
0
ARC
8
0
10
3001.991713
20
1316.978966
30
0.0
40
0.500000
50
180.000000
51
270.000000
0
LINE
8
0
10
3001.991713
20
1316.478966
30
0.0
11
3002.791705
21
1316.478966
31
0.0
0
ARC
8
0
10
3002.791705
20
1316.778966
30
0.0
40
0.300000
50
270.000000
51
360.000000
0
LINE
8
0
10
3003.091705
20
1316.778770
30
0.0
11
3003.091792
21
1317.028938
31
0.0
0
LINE
8
0
10
3003.091792
20
1317.028938
30
0.0
11
3005.541713
21
1317.028851
31
0.0
0
LINE
8
0
10
3005.541713
20
1317.028851
30
0.0
11
3005.541713
21
1314.778895
31
0.0
0
ARC
8
0
10
3005.241713
20
1314.778895
30
0.0
40
0.300000
50
270.000000
51
360.000000
0
LINE
8
0
10
3005.241713
20
1314.478895
30
0.0
11
3003.091925
21
1314.478895
31
0.0
0
LINE
8
0
10
3003.091925
20
1314.478895
30
0.0
11
3001.190350
21
1313.377987
31
0.0
0
LINE
8
0
10
3001.190350
20
1313.377987
30
0.0
11
2996.140661
21
1313.378967
31
0.0
0
LINE
8
0
10
2996.140661
20
1313.378967
30
0.0
11
2996.140661
21
1314.308887
31
0.0
0
LINE
8
0
10
2996.140661
20
1314.308887
30
0.0
11
2994.340661
21
1313.826579
31
0.0
0
LINE
8
0
10
2994.340661
20
1313.826579
30
0.0
11
2994.340661
21
1294.678305
31
0.0
0
ARC
8
0
10
2994.840661
20
1294.678305
30
0.0
40
0.500000
50
180.000000
51
270.000000
0
LINE
8
0
10
2994.840661
20
1294.178305
30
0.0
11
2997.340661
21
1294.178305
31
0.0
0
ARC
8
0
10
2997.340661
20
1294.678305
30
0.0
40
0.500000
50
270.000000
51
360.000000
0
LINE
8
0
10
2997.840661
20
1294.678305
30
0.0
11
2997.840661
21
1295.378305
31
0.0
0
ARC
8
0
10
2997.540661
20
1295.378305
30
0.0
40
0.300000
50
360.000000
51
90.000000
0
LINE
8
0
10
2997.540661
20
1295.678305
30
0.0
11
2996.140661
21
1295.678305
31
0.0
0
ARC
8
0
10
2996.140661
20
1295.978305
30
0.0
40
0.300000
50
180.000000
51
270.000000
0
LINE
8
0
10
2995.840661
20
1295.978305
30
0.0
11
2995.840661
21
1298.878305
31
0.0
0
ARC
8
0
10
2996.140661
20
1298.878305
30
0.0
40
0.300000
50
90.000000
51
180.000000
0
LINE
8
0
10
2996.140661
20
1299.178305
30
0.0
11
3019.740661
21
1299.178305
31
0.0
0
ARC
8
0
10
3019.740661
20
1298.878305
30
0.0
40
0.300000
50
360.000000
51
90.000000
0
LINE
8
0
10
3020.040661
20
1298.878305
30
0.0
11
3020.040661
21
1294.478305
31
0.0
0
ARC
8
0
10
3020.340661
20
1294.478305
30
0.0
40
0.300000
50
180.000000
51
270.000000
0
LINE
8
0
10
3020.340661
20
1294.178305
30
0.0
11
3021.290661
21
1294.178305
31
0.0
0
ARC
8
0
10
3021.290661
20
1294.478305
30
0.0
40
0.300000
50
270.000000
51
360.000000
0
LINE
8
0
10
3021.590661
20
1294.478305
30
0.0
11
3021.590661
21
1298.878305
31
0.0
0
ARC
8
0
10
3021.890661
20
1298.878305
30
0.0
40
0.300000
50
90.000000
51
180.000000
0
LINE
8
0
10
3021.890661
20
1299.178305
30
0.0
11
3038.240661
21
1299.178305
31
0.0
0
ARC
8
0
10
3038.240661
20
1298.878305
30
0.0
40
0.300000
50
360.000000
51
90.000000
0
LINE
8
0
10
3038.540661
20
1298.878305
30
0.0
11
3038.540661
21
1295.978305
31
0.0
0
ARC
8
0
10
3038.240661
20
1295.978305
30
0.0
40
0.300000
50
270.000000
51
360.000000
0
LINE
8
0
10
3038.240661
20
1295.678305
30
0.0
11
3037.040661
21
1295.678305
31
0.0
0
ARC
8
0
10
3037.040661
20
1295.378305
30
0.0
40
0.300000
50
90.000000
51
180.000000
0
LINE
8
0
10
3036.740661
20
1295.378305
30
0.0
11
3036.740661
21
1294.678305
31
0.0
0
ARC
8
0
10
3037.240661
20
1294.678305
30
0.0
40
0.500000
50
180.000000
51
270.000000
0
LINE
8
0
10
3037.240661
20
1294.178305
30
0.0
11
3039.900722
21
1294.178305
31
0.0
0
ARC
8
0
10
3039.900722
20
1294.678305
30
0.0
40
0.500000
50
270.000000
51
326.019223
0
ARC
8
0
10
3040.937253
20
1293.979661
30
0.0
40
0.750000
50
106.997055
51
146.019223
0
LINE
8
0
10
3040.718012
20
1294.696901
30
0.0
11
3041.136395
21
1294.902110
31
0.0
0
ARC
8
0
10
3042.254696
20
1293.243977
30
0.0
40
2.000000
50
51.805773
51
123.997055
0
ARC
8
0
10
3043.800519
20
1295.208775
30
0.0
40
0.500000
50
231.805773
51
271.623749
0
LINE
8
0
10
3043.814687
20
1294.708976
30
0.0
11
3044.471308
21
1294.727590
31
0.0
0
ARC
8
0
10
3044.467923
20
1295.027614
30
0.0
40
0.300000
50
270.000000
51
18.251415
0
LINE
8
0
10
3044.752830
20
1295.121570
30
0.0
11
3042.688543
21
1297.788011
31
0.0
0
ARC
8
0
10
3042.573396
20
1297.698868
30
0.0
40
0.145621
50
37.746080
51
180.000000
0
LINE
8
0
10
3042.427864
20
1297.693786
30
0.0
11
3042.433294
21
1297.538299
31
0.0
0
ARC
8
0
10
3042.233415
20
1297.531319
30
0.0
40
0.200000
50
308.823976
51
360.000000
0
LINE
8
0
10
3042.358801
20
1297.375504
30
0.0
11
3040.715632
21
1296.053229
31
0.0
0
ARC
8
0
10
3040.527553
20
1296.286951
30
0.0
40
0.300000
50
283.127121
51
308.823976
0
LINE
8
0
10
3040.595686
20
1295.994791
30
0.0
11
3040.240661
21
1295.899240
31
0.0
0
ARC
8
0
10
3040.240661
20
1296.199240
30
0.0
40
0.300000
50
90.000000
51
270.000000
0
LINE
8
0
10
3040.240661
20
1296.499240
30
0.0
11
3040.240661
21
1300.999240
31
0.0
0
ARC
8
0
10
3040.440661
20
1300.999240
30
0.0
40
0.200000
50
90.000000
51
180.000000
0
LINE
8
0
10
3040.440661
20
1301.199240
30
0.0
11
3040.508550
21
1301.199240
31
0.0
0
ARC
8
0
10
3040.508550
20
1300.899240
30
0.0
40
0.300000
50
58.619868
51
90.000000
0
LINE
8
0
10
3040.664764
20
1301.155359
30
0.0
11
3042.340757
21
1300.133126
31
0.0
0
ARC
8
0
10
3042.540661
20
1300.126936
30
0.0
40
0.200000
50
180.000000
51
360.000000
0
LINE
8
0
10
3042.740661
20
1300.126936
30
0.0
11
3042.740661
21
1301.201938
31
0.0
0
ARC
8
0
10
3041.740661
20
1301.201938
30
0.0
40
1.000000
50
360.000000
51
58.619868
0
LINE
8
0
10
3042.261375
20
1302.055669
30
0.0
11
3041.552294
21
1302.488157
31
0.0
0
ARC
8
0
10
3041.708508
20
1302.744277
30
0.0
40
0.300000
50
121.380132
51
238.619868
0
LINE
8
0
10
3041.552294
20
1303.000396
30
0.0
11
3043.261375
21
1304.042810
31
0.0
0
ARC
8
0
10
3042.740661
20
1304.896542
30
0.0
40
1.000000
50
301.380132
51
360.000000
0
LINE
8
0
10
3043.740661
20
1304.896542
30
0.0
11
3043.740661
21
1305.971544
31
0.0
0
ARC
8
0
10
3043.540661
20
1305.971544
30
0.0
40
0.200000
50
360.000000
51
180.000000
0
LINE
8
0
10
3043.340757
20
1305.965353
30
0.0
11
3041.664764
21
1304.943121
31
0.0
0
ARC
8
0
10
3041.508550
20
1305.199240
30
0.0
40
0.300000
50
270.000000
51
301.380132
0
LINE
8
0
10
3041.508550
20
1304.899240
30
0.0
11
3041.440661
21
1304.899240
31
0.0
0
ARC
8
0
10
3041.440661
20
1305.099240
30
0.0
40
0.200000
50
180.000000
51
270.000000
0
LINE
8
0
10
3041.240661
20
1305.099240
30
0.0
11
3041.240661
21
1309.599240
31
0.0
0
ARC
8
0
10
3041.240661
20
1309.899240
30
0.0
40
0.300000
50
90.000000
51
270.000000
0
LINE
8
0
10
3041.240661
20
1310.199240
30
0.0
11
3041.595686
21
1310.103689
31
0.0
0
ARC
8
0
10
3041.527553
20
1309.811528
30
0.0
40
0.300000
50
51.176024
51
76.872879
0
LINE
8
0
10
3041.715632
20
1310.045251
30
0.0
11
3043.358801
21
1308.722976
31
0.0
0
ARC
8
0
10
3043.233415
20
1308.567161
30
0.0
40
0.200000
50
360.000000
51
51.176024
0
LINE
8
0
10
3043.433294
20
1308.560181
30
0.0
11
3043.427864
21
1308.404694
31
0.0
0
ARC
8
0
10
3043.573396
20
1308.399612
30
0.0
40
0.145621
50
180.000000
51
322.253920
0
LINE
8
0
10
3043.688543
20
1308.310469
30
0.0
11
3045.752830
21
1310.976910
31
0.0
0
ARC
8
0
10
3045.467923
20
1311.070866
30
0.0
40
0.300000
50
341.748585
51
90.000000
0
LINE
8
0
10
3045.471308
20
1311.370890
30
0.0
11
3044.814687
21
1311.389504
31
0.0
0
ARC
8
0
10
3044.800519
20
1310.889705
30
0.0
40
0.500000
50
88.376251
51
128.194227
0
ARC
8
0
10
3043.254696
20
1312.854503
30
0.0
40
2.000000
50
236.002945
51
308.194227
0
LINE
8
0
10
3042.136395
20
1311.196370
30
0.0
11
3041.718012
21
1311.401579
31
0.0
0
ARC
8
0
10
3041.937253
20
1312.118819
30
0.0
40
0.750000
50
209.713468
51
253.002945
0
ARC
8
0
10
3059.061383
20
1295.128305
30
0.0
40
0.500000
50
270.000000
51
326.610000
0
LINE
8
0
10
3059.061383
20
1294.628305
30
0.0
11
3052.240661
21
1294.628305
31
0.0
0
LINE
8
0
10
3052.240661
20
1294.628305
30
0.0
11
3045.419940
21
1294.628305
31
0.0
0
ARC
8
0
10
3045.419940
20
1295.128305
30
0.0
40
0.500000
50
213.390000
51
270.000000
0
LINE
8
0
10
3045.002468
20
1294.853137
30
0.0
11
3043.371964
21
1297.326865
31
0.0
0
ARC
8
0
10
3042.812247
20
1296.957940
30
0.0
40
0.670365
50
33.390000
51
120.039706
0
LINE
8
0
10
3042.476662
20
1297.538260
30
0.0
11
3040.945512
21
1296.652835
31
0.0
0
LINE
8
0
10
3040.849541
20
1296.628305
30
0.0
11
3040.945512
21
1296.652835
31
0.0
0
LINE
8
0
10
3040.849541
20
1296.628305
30
0.0
11
3040.640661
21
1296.628305
31
0.0
0
ARC
8
0
10
3040.640661
20
1297.028305
30
0.0
40
0.400000
50
180.000000
51
270.000000
0
LINE
8
0
10
3040.240661
20
1297.028305
30
0.0
11
3040.240661
21
1297.628305
31
0.0
0
LINE
8
0
10
3040.240661
20
1297.628305
30
0.0
11
3040.340661
21
1297.628305
31
0.0
0
LINE
8
0
10
3040.340661
20
1297.628305
30
0.0
11
3040.340661
21
1298.003305
31
0.0
0
ARC
8
0
10
3040.540661
20
1298.003305
30
0.0
40
0.200000
50
90.000000
51
180.000000
0
LINE
8
0
10
3040.540661
20
1298.203305
30
0.0
11
3040.700188
21
1298.203305
31
0.0
0
ARC
8
0
10
3040.990661
20
1298.728305
30
0.0
40
0.600000
50
241.044976
51
360.000000
0
ARC
8
0
10
3040.990661
20
1298.728305
30
0.0
40
0.600000
50
360.000000
51
118.955024
0
LINE
8
0
10
3040.700188
20
1299.253305
30
0.0
11
3040.540661
21
1299.253305
31
0.0
0
ARC
8
0
10
3040.540661
20
1299.453305
30
0.0
40
0.200000
50
180.000000
51
270.000000
0
LINE
8
0
10
3040.340661
20
1299.453305
30
0.0
11
3040.340661
21
1299.828305
31
0.0
0
LINE
8
0
10
3040.340661
20
1299.828305
30
0.0
11
3040.240661
21
1299.828305
31
0.0
0
LINE
8
0
10
3040.240661
20
1299.828305
30
0.0
11
3040.240661
21
1300.428305
31
0.0
0
ARC
8
0
10
3040.640661
20
1300.428305
30
0.0
40
0.400000
50
90.000000
51
180.000000
0
LINE
8
0
10
3040.640661
20
1300.828305
30
0.0
11
3040.849541
21
1300.828305
31
0.0
0
LINE
8
0
10
3040.945512
20
1300.803775
30
0.0
11
3040.849541
21
1300.828305
31
0.0
0
LINE
8
0
10
3040.945512
20
1300.803775
30
0.0
11
3042.446551
21
1299.935762
31
0.0
0
ARC
8
0
10
3042.847031
20
1300.628305
30
0.0
40
0.800000
50
239.960294
51
270.000000
0
LINE
8
0
10
3042.847031
20
1299.828305
30
0.0
11
3043.579977
21
1299.828305
31
0.0
0
ARC
8
0
10
3043.579977
20
1298.828305
30
0.0
40
1.000000
50
33.240000
51
90.000000
0
LINE
8
0
10
3044.416359
20
1299.376452
30
0.0
11
3045.921303
21
1297.080158
31
0.0
0
ARC
8
0
10
3046.757684
20
1297.628305
30
0.0
40
1.000000
50
213.240000
51
270.000000
0
LINE
8
0
10
3046.757684
20
1296.628305
30
0.0
11
3052.240661
21
1296.628305
31
0.0
0
LINE
8
0
10
3052.240661
20
1296.628305
30
0.0
11
3057.573078
21
1296.628305
31
0.0
0
LINE
8
0
10
3057.573078
20
1296.628305
30
0.0
11
3057.723638
21
1296.628305
31
0.0
0
ARC
8
0
10
3057.723638
20
1297.628305
30
0.0
40
1.000000
50
270.000000
51
326.760000
0
LINE
8
0
10
3058.560020
20
1297.080158
30
0.0
11
3060.064964
21
1299.376452
31
0.0
0
ARC
8
0
10
3060.901346
20
1298.828305
30
0.0
40
1.000000
50
90.000000
51
146.760000
0
LINE
8
0
10
3060.901346
20
1299.828305
30
0.0
11
3061.634292
21
1299.828305
31
0.0
0
ARC
8
0
10
3061.634292
20
1300.628305
30
0.0
40
0.800000
50
270.000000
51
300.039706
0
LINE
8
0
10
3062.034772
20
1299.935762
30
0.0
11
3063.535811
21
1300.803775
31
0.0
0
LINE
8
0
10
3063.631782
20
1300.828305
30
0.0
11
3063.535811
21
1300.803775
31
0.0
0
LINE
8
0
10
3063.631782
20
1300.828305
30
0.0
11
3063.840661
21
1300.828305
31
0.0
0
ARC
8
0
10
3063.840661
20
1300.428305
30
0.0
40
0.400000
50
360.000000
51
90.000000
0
LINE
8
0
10
3064.240661
20
1300.428305
30
0.0
11
3064.240661
21
1299.828305
31
0.0
0
LINE
8
0
10
3064.240661
20
1299.828305
30
0.0
11
3064.140661
21
1299.828305
31
0.0
0
LINE
8
0
10
3064.140661
20
1299.828305
30
0.0
11
3064.140661
21
1299.453305
31
0.0
0
ARC
8
0
10
3063.940661
20
1299.453305
30
0.0
40
0.200000
50
270.000000
51
360.000000
0
LINE
8
0
10
3063.940661
20
1299.253305
30
0.0
11
3063.781135
21
1299.253305
31
0.0
0
ARC
8
0
10
3063.490661
20
1298.728305
30
0.0
40
0.600000
50
61.044976
51
180.000000
0
ARC
8
0
10
3063.490661
20
1298.728305
30
0.0
40
0.600000
50
180.000000
51
298.955024
0
LINE
8
0
10
3063.781135
20
1298.203305
30
0.0
11
3063.940661
21
1298.203305
31
0.0
0
ARC
8
0
10
3063.940661
20
1298.003305
30
0.0
40
0.200000
50
360.000000
51
90.000000
0
LINE
8
0
10
3064.140661
20
1298.003305
30
0.0
11
3064.140661
21
1297.628305
31
0.0
0
LINE
8
0
10
3064.140661
20
1297.628305
30
0.0
11
3064.240661
21
1297.628305
31
0.0
0
LINE
8
0
10
3064.240661
20
1297.628305
30
0.0
11
3064.240661
21
1297.028305
31
0.0
0
ARC
8
0
10
3063.840661
20
1297.028305
30
0.0
40
0.400000
50
270.000000
51
360.000000
0
LINE
8
0
10
3063.840661
20
1296.628305
30
0.0
11
3063.631782
21
1296.628305
31
0.0
0
LINE
8
0
10
3063.535811
20
1296.652835
30
0.0
11
3063.631782
21
1296.628305
31
0.0
0
LINE
8
0
10
3063.535811
20
1296.652835
30
0.0
11
3062.004661
21
1297.538260
31
0.0
0
ARC
8
0
10
3061.669076
20
1296.957940
30
0.0
40
0.670365
50
59.960294
51
146.610000
0
LINE
8
0
10
3061.109358
20
1297.326865
30
0.0
11
3059.478855
21
1294.853137
31
0.0
0
ARC
8
0
10
3063.490661
20
1294.019184
30
0.0
40
0.750000
50
22.211207
51
43.922027
0
ARC
8
0
10
3062.590306
20
1293.152086
30
0.0
40
2.000000
50
43.922027
51
133.534275
0
ARC
8
0
10
3060.868335
20
1294.964492
30
0.0
40
0.500000
50
270.000000
51
313.534275
0
LINE
8
0
10
3060.868335
20
1294.464492
30
0.0
11
3060.179538
21
1294.464492
31
0.0
0
ARC
8
0
10
3060.179538
20
1294.764492
30
0.0
40
0.300000
50
149.502378
51
270.000000
0
LINE
8
0
10
3059.921043
20
1294.916742
30
0.0
11
3061.344747
21
1297.333941
31
0.0
0
LINE
8
0
10
3061.387361
20
1297.390006
30
0.0
11
3061.344747
21
1297.333941
31
0.0
0
LINE
8
0
10
3061.387361
20
1297.390006
30
0.0
11
3061.847528
21
1297.866887
31
0.0
0
ARC
8
0
10
3061.952318
20
1297.765770
30
0.0
40
0.145621
50
360.000000
51
136.021839
0
LINE
8
0
10
3062.097642
20
1297.756477
30
0.0
11
3062.087713
21
1297.601212
31
0.0
0
ARC
8
0
10
3062.287305
20
1297.588449
30
0.0
40
0.200000
50
176.341100
51
229.517123
0
LINE
8
0
10
3062.157461
20
1297.436329
30
0.0
11
3063.761663
21
1296.067040
31
0.0
0
ARC
8
0
10
3063.956429
20
1296.295220
30
0.0
40
0.300000
50
229.517123
51
251.341100
0
LINE
8
0
10
3063.860449
20
1296.010988
30
0.0
11
3064.144681
21
1295.915008
31
0.0
0
ARC
8
0
10
3064.240661
20
1296.199240
30
0.0
40
0.300000
50
251.341100
51
90.000000
0
LINE
8
0
10
3064.240661
20
1296.499240
30
0.0
11
3064.240661
21
1300.999240
31
0.0
0
ARC
8
0
10
3064.040661
20
1300.999240
30
0.0
40
0.200000
50
360.000000
51
90.000000
0
LINE
8
0
10
3064.040661
20
1301.199240
30
0.0
11
3063.972773
21
1301.199240
31
0.0
0
ARC
8
0
10
3063.972773
20
1300.899240
30
0.0
40
0.300000
50
90.000000
51
121.380132
0
LINE
8
0
10
3063.816559
20
1301.155359
30
0.0
11
3062.140566
21
1300.133126
31
0.0
0
ARC
8
0
10
3061.940661
20
1300.126936
30
0.0
40
0.200000
50
180.000000
51
360.000000
0
LINE
8
0
10
3061.740661
20
1300.126936
30
0.0
11
3061.740661
21
1301.201938
31
0.0
0
ARC
8
0
10
3062.740661
20
1301.201938
30
0.0
40
1.000000
50
121.380132
51
180.000000
0
LINE
8
0
10
3062.219948
20
1302.055669
30
0.0
11
3062.929029
21
1302.488157
31
0.0
0
ARC
8
0
10
3062.772815
20
1302.744277
30
0.0
40
0.300000
50
301.380132
51
58.619868
0
LINE
8
0
10
3062.929029
20
1303.000396
30
0.0
11
3061.219948
21
1304.042810
31
0.0
0
ARC
8
0
10
3061.740661
20
1304.896542
30
0.0
40
1.000000
50
180.000000
51
238.619868
0
LINE
8
0
10
3060.740661
20
1304.896542
30
0.0
11
3060.740661
21
1305.971544
31
0.0
0
ARC
8
0
10
3060.940661
20
1305.971544
30
0.0
40
0.200000
50
360.000000
51
180.000000
0
LINE
8
0
10
3061.140566
20
1305.965353
30
0.0
11
3062.816559
21
1304.943121
31
0.0
0
ARC
8
0
10
3062.972773
20
1305.199240
30
0.0
40
0.300000
50
238.619868
51
270.000000
0
LINE
8
0
10
3062.972773
20
1304.899240
30
0.0
11
3063.040661
21
1304.899240
31
0.0
0
ARC
8
0
10
3063.040661
20
1305.099240
30
0.0
40
0.200000
50
270.000000
51
360.000000
0
LINE
8
0
10
3063.240661
20
1305.099240
30
0.0
11
3063.240661
21
1309.599240
31
0.0
0
ARC
8
0
10
3063.240661
20
1309.899240
30
0.0
40
0.300000
50
270.000000
51
108.658900
0
LINE
8
0
10
3063.144681
20
1310.183472
30
0.0
11
3062.860449
21
1310.087492
31
0.0
0
ARC
8
0
10
3062.956429
20
1309.803260
30
0.0
40
0.300000
50
108.658900
51
130.482877
0
LINE
8
0
10
3062.761663
20
1310.031440
30
0.0
11
3061.157461
21
1308.662151
31
0.0
0
ARC
8
0
10
3061.287305
20
1308.510031
30
0.0
40
0.200000
50
130.482877
51
183.658900
0
LINE
8
0
10
3061.087713
20
1308.497268
30
0.0
11
3061.097642
21
1308.342003
31
0.0
0
ARC
8
0
10
3060.952318
20
1308.332710
30
0.0
40
0.145621
50
238.749887
51
360.000000
0
LINE
8
0
10
3060.876773
20
1308.208217
30
0.0
11
3060.240498
21
1308.594320
31
0.0
0
ARC
8
0
10
3060.396131
20
1308.850793
30
0.0
40
0.300000
50
210.202719
51
238.749887
0
LINE
8
0
10
3060.136855
20
1308.699875
30
0.0
11
3058.543037
21
1311.438031
31
0.0
0
ARC
8
0
10
3058.802312
20
1311.588949
30
0.0
40
0.300000
50
90.000000
51
210.202719
0
LINE
8
0
10
3058.802312
20
1311.888949
30
0.0
11
3059.491109
21
1311.888949
31
0.0
0
ARC
8
0
10
3059.491109
20
1311.388949
30
0.0
40
0.500000
50
37.418197
51
90.000000
0
ARC
8
0
10
3061.476663
20
1312.908019
30
0.0
40
2.000000
50
217.418197
51
306.561026
0
LINE
8
0
10
3062.668020
20
1311.301573
30
0.0
11
3062.937420
21
1311.501364
31
0.0
0
ARC
8
0
10
3062.490661
20
1312.103781
30
0.0
40
0.750000
50
306.561026
51
341.302647
0
ARC
8
0
10
3063.390525
20
1311.799240
30
0.0
40
0.200000
50
90.000000
51
161.302647
0
LINE
8
0
10
3063.390525
20
1311.999240
30
0.0
11
3064.740661
21
1311.999240
31
0.0
0
ARC
8
0
10
3064.740661
20
1311.499240
30
0.0
40
0.500000
50
360.000000
51
90.000000
0
ARC
8
0
10
3065.740661
20
1311.499240
30
0.0
40
0.500000
50
180.000000
51
270.000000
0
LINE
8
0
10
3065.740661
20
1310.999240
30
0.0
11
3068.478747
21
1310.999240
31
0.0
0
LINE
8
0
10
3068.478747
20
1310.999240
30
0.0
11
3068.566615
21
1310.911372
31
0.0
0
ARC
8
0
10
3068.778747
20
1311.123504
30
0.0
40
0.300000
50
225.000000
51
315.000000
0
LINE
8
0
10
3068.990879
20
1310.911372
30
0.0
11
3069.078747
21
1310.999240
31
0.0
0
LINE
8
0
10
3069.078747
20
1310.999240
30
0.0
11
3071.740661
21
1310.999240
31
0.0
0
ARC
8
0
10
3071.740661
20
1311.499240
30
0.0
40
0.500000
50
270.000000
51
360.000000
0
LINE
8
0
10
3072.240661
20
1311.499240
30
0.0
11
3072.240661
21
1312.878305
31
0.0
0
ARC
8
0
10
3072.740661
20
1312.878305
30
0.0
40
0.500000
50
90.000000
51
180.000000
0
LINE
8
0
10
3072.740661
20
1313.378305
30
0.0
11
3079.552082
21
1313.378305
31
0.0
0
ARC
8
0
10
3079.552082
20
1313.078305
30
0.0
40
0.300000
50
322.535957
51
90.000000
0
ARC
8
0
10
3081.139553
20
1311.861778
30
0.0
40
1.700000
50
142.535957
51
165.032955
0
ARC
8
0
10
3079.207404
20
1312.378305
30
0.0
40
0.300000
50
270.000000
51
345.032955
0
LINE
8
0
10
3079.207404
20
1312.078305
30
0.0
11
3076.241096
21
1312.078305
31
0.0
0
ARC
8
0
10
3076.241096
20
1311.578305
30
0.0
40
0.500000
50
90.000000
51
180.000000
0
LINE
8
0
10
3075.741096
20
1311.578305
30
0.0
11
3075.741096
21
1311.228305
31
0.0
0
ARC
8
0
10
3076.241096
20
1311.228305
30
0.0
40
0.500000
50
180.000000
51
270.000000
0
LINE
8
0
10
3076.241096
20
1310.728305
30
0.0
11
3079.949546
21
1310.728305
31
0.0
0
ARC
8
0
10
3079.949546
20
1311.028305
30
0.0
40
0.300000
50
270.000000
51
297.795773
0
ARC
8
0
10
3079.343328
20
1312.178305
30
0.0
40
1.600000
50
297.795773
51
323.476405
0
ARC
8
0
10
3082.236331
20
1310.035751
30
0.0
40
2.000000
50
90.000000
51
143.476405
0
LINE
8
0
10
3082.236331
20
1312.035751
30
0.0
11
3088.244992
21
1312.035751
31
0.0
0
ARC
8
0
10
3088.244992
20
1310.035751
30
0.0
40
2.000000
50
36.523595
51
90.000000
0
ARC
8
0
10
3091.137994
20
1312.178305
30
0.0
40
1.600000
50
216.523595
51
242.204228
0
ARC
8
0
10
3090.531777
20
1311.028305
30
0.0
40
0.300000
50
242.204228
51
270.000000
0
LINE
8
0
10
3090.531777
20
1310.728305
30
0.0
11
3094.240661
21
1310.728305
31
0.0
0
ARC
8
0
10
3094.240661
20
1311.228305
30
0.0
40
0.500000
50
270.000000
51
360.000000
0
LINE
8
0
10
3094.740661
20
1311.228305
30
0.0
11
3094.740661
21
1311.578305
31
0.0
0
ARC
8
0
10
3094.240661
20
1311.578305
30
0.0
40
0.500000
50
360.000000
51
90.000000
0
LINE
8
0
10
3094.240661
20
1312.078305
30
0.0
11
3091.273919
21
1312.078305
31
0.0
0
ARC
8
0
10
3091.273919
20
1312.378305
30
0.0
40
0.300000
50
194.967045
51
270.000000
0
ARC
8
0
10
3089.341770
20
1311.861778
30
0.0
40
1.700000
50
14.967045
51
37.464043
0
ARC
8
0
10
3090.929241
20
1313.078305
30
0.0
40
0.300000
50
90.000000
51
217.464043
0
LINE
8
0
10
3090.929241
20
1313.378305
30
0.0
11
3107.940661
21
1313.378305
31
0.0
0
ARC
8
0
10
3107.940661
20
1313.878305
30
0.0
40
0.500000
50
270.000000
51
360.000000
0
LINE
8
0
10
3108.440661
20
1313.878305
30
0.0
11
3108.440661
21
1319.078305
31
0.0
0
ARC
8
0
10
3108.140661
20
1319.078305
30
0.0
40
0.300000
50
360.000000
51
90.000000
0
LINE
8
0
10
3108.140661
20
1319.378305
30
0.0
11
3106.690661
21
1319.378305
31
0.0
0
ARC
8
0
10
3106.690661
20
1320.128305
30
0.0
40
0.750000
50
180.000000
51
270.000000
0
LINE
8
0
10
3105.940661
20
1320.128305
30
0.0
11
3105.940661
21
1321.778305
31
0.0
0
ARC
8
0
10
3106.240661
20
1321.778305
30
0.0
40
0.300000
50
90.000000
51
180.000000
0
LINE
8
0
10
3106.240661
20
1322.078305
30
0.0
11
3106.840661
21
1322.078305
31
0.0
0
ARC
8
0
10
3106.840661
20
1321.778305
30
0.0
40
0.300000
50
360.000000
51
90.000000
0
LINE
8
0
10
3107.140661
20
1321.778305
30
0.0
11
3107.140661
21
1320.878305
31
0.0
0
ARC
8
0
10
3107.440661
20
1320.878305
30
0.0
40
0.300000
50
180.000000
51
270.000000
0
LINE
8
0
10
3107.440661
20
1320.578305
30
0.0
11
3108.140661
21
1320.578305
31
0.0
0
ARC
8
0
10
3108.140661
20
1320.878305
30
0.0
40
0.300000
50
270.000000
51
360.000000
0
LINE
8
0
10
3108.440661
20
1320.878305
30
0.0
11
3108.440661
21
1327.778305
31
0.0
0
ARC
8
0
10
3108.140661
20
1327.778305
30
0.0
40
0.300000
50
360.000000
51
90.000000
0
LINE
8
0
10
3108.140661
20
1328.078305
30
0.0
11
3107.440661
21
1328.078305
31
0.0
0
ARC
8
0
10
3107.440661
20
1327.778305
30
0.0
40
0.300000
50
90.000000
51
180.000000
0
LINE
8
0
10
3107.140661
20
1327.778305
30
0.0
11
3107.140661
21
1326.878305
31
0.0
0
ARC
8
0
10
3106.840661
20
1326.878305
30
0.0
40
0.300000
50
270.000000
51
360.000000
0
LINE
8
0
10
3106.840661
20
1326.578305
30
0.0
11
3106.240661
21
1326.578305
31
0.0
0
ARC
8
0
10
3106.240661
20
1326.878305
30
0.0
40
0.300000
50
180.000000
51
270.000000
0
LINE
8
0
10
3105.940661
20
1326.878305
30
0.0
11
3105.940661
21
1328.628305
31
0.0
0
ARC
8
0
10
3106.690661
20
1328.628305
30
0.0
40
0.750000
50
121.588136
51
180.000000
0
ARC
8
0
10
3106.140661
20
1329.522732
30
0.0
40
0.300000
50
301.588136
51
360.000000
0
LINE
8
0
10
3106.440661
20
1329.522732
30
0.0
11
3106.440661
21
1330.578305
31
0.0
0
ARC
8
0
10
3106.990661
20
1330.578305
30
0.0
40
0.550000
50
360.000000
51
180.000000
0
LINE
8
0
10
3107.540661
20
1330.578305
30
0.0
11
3107.540661
21
1329.578305
31
0.0
0
ARC
8
0
10
3107.840661
20
1329.578305
30
0.0
40
0.300000
50
180.000000
51
270.000000
0
LINE
8
0
10
3107.840661
20
1329.278305
30
0.0
11
3108.440661
21
1329.278305
31
0.0
0
ARC
8
0
10
3108.440661
20
1329.578305
30
0.0
40
0.300000
50
270.000000
51
360.000000
0
LINE
8
0
10
3108.740661
20
1329.578305
30
0.0
11
3108.740661
21
1336.578305
31
0.0
0
ARC
8
0
10
3108.440661
20
1336.578305
30
0.0
40
0.300000
50
360.000000
51
90.000000
0
LINE
8
0
10
3108.440661
20
1336.878305
30
0.0
11
3107.840661
21
1336.878305
31
0.0
0
ARC
8
0
10
3107.840661
20
1336.578305
30
0.0
40
0.300000
50
90.000000
51
180.000000
0
LINE
8
0
10
3107.540661
20
1336.578305
30
0.0
11
3107.540661
21
1335.578305
31
0.0
0
ARC
8
0
10
3106.990661
20
1335.578305
30
0.0
40
0.550000
50
180.000000
51
360.000000
0
LINE
8
0
10
3106.440661
20
1335.578305
30
0.0
11
3106.440661
21
1337.678305
31
0.0
0
ARC
8
0
10
3106.940661
20
1337.678305
30
0.0
40
0.500000
50
90.000000
51
180.000000
0
LINE
8
0
10
3106.940661
20
1338.178305
30
0.0
11
3109.640661
21
1338.178305
31
0.0
0
ARC
8
0
10
3109.640661
20
1337.678305
30
0.0
40
0.500000
50
360.000000
51
90.000000
0
LINE
8
0
10
3110.140661
20
1337.678305
30
0.0
11
3110.140661
21
1294.678305
31
0.0
0
ARC
8
0
10
3109.640661
20
1294.678305
30
0.0
40
0.500000
50
270.000000
51
360.000000
0
LINE
8
0
10
3109.640661
20
1294.178305
30
0.0
11
3107.140661
21
1294.178305
31
0.0
0
ARC
8
0
10
3107.140661
20
1294.678305
30
0.0
40
0.500000
50
180.000000
51
270.000000
0
LINE
8
0
10
3106.640661
20
1294.678305
30
0.0
11
3106.640661
21
1295.378305
31
0.0
0
ARC
8
0
10
3106.940661
20
1295.378305
30
0.0
40
0.300000
50
90.000000
51
180.000000
0
LINE
8
0
10
3106.940661
20
1295.678305
30
0.0
11
3108.340661
21
1295.678305
31
0.0
0
ARC
8
0
10
3108.340661
20
1295.978305
30
0.0
40
0.300000
50
270.000000
51
360.000000
0
LINE
8
0
10
3108.640661
20
1295.978305
30
0.0
11
3108.640661
21
1298.878305
31
0.0
0
ARC
8
0
10
3108.340661
20
1298.878305
30
0.0
40
0.300000
50
360.000000
51
90.000000
0
LINE
8
0
10
3108.340661
20
1299.178305
30
0.0
11
3084.740661
21
1299.178305
31
0.0
0
ARC
8
0
10
3084.740661
20
1298.878305
30
0.0
40
0.300000
50
90.000000
51
180.000000
0
LINE
8
0
10
3084.440661
20
1298.878305
30
0.0
11
3084.440661
21
1294.478305
31
0.0
0
ARC
8
0
10
3084.140661
20
1294.478305
30
0.0
40
0.300000
50
270.000000
51
360.000000
0
LINE
8
0
10
3084.140661
20
1294.178305
30
0.0
11
3083.190661
21
1294.178305
31
0.0
0
ARC
8
0
10
3083.190661
20
1294.478305
30
0.0
40
0.300000
50
180.000000
51
270.000000
0
LINE
8
0
10
3082.890661
20
1294.478305
30
0.0
11
3082.890661
21
1298.878305
31
0.0
0
ARC
8
0
10
3082.590661
20
1298.878305
30
0.0
40
0.300000
50
360.000000
51
90.000000
0
LINE
8
0
10
3082.590661
20
1299.178305
30
0.0
11
3066.240661
21
1299.178305
31
0.0
0
ARC
8
0
10
3066.240661
20
1298.878305
30
0.0
40
0.300000
50
90.000000
51
180.000000
0
LINE
8
0
10
3065.940661
20
1298.878305
30
0.0
11
3065.940661
21
1295.978305
31
0.0
0
ARC
8
0
10
3066.240661
20
1295.978305
30
0.0
40
0.300000
50
180.000000
51
270.000000
0
LINE
8
0
10
3066.240661
20
1295.678305
30
0.0
11
3067.440661
21
1295.678305
31
0.0
0
ARC
8
0
10
3067.440661
20
1295.378305
30
0.0
40
0.300000
50
360.000000
51
90.000000
0
LINE
8
0
10
3067.740661
20
1295.378305
30
0.0
11
3067.740661
21
1294.678305
31
0.0
0
ARC
8
0
10
3067.240661
20
1294.678305
30
0.0
40
0.500000
50
270.000000
51
360.000000
0
LINE
8
0
10
3067.240661
20
1294.178305
30
0.0
11
3064.370168
21
1294.178305
31
0.0
0
ARC
8
0
10
3064.370168
20
1294.378305
30
0.0
40
0.200000
50
202.211208
51
270.000000
0
LINE
8
0
10
3048.240661
20
1296.628305
30
0.0
11
3056.240661
21
1296.628305
31
0.0
0
ARC
8
0
10
3056.240661
20
1297.628305
30
0.0
40
1.000000
50
270.000000
51
360.000000
0
LINE
8
0
10
3057.240661
20
1297.628305
30
0.0
11
3057.240661
21
1305.628305
31
0.0
0
ARC
8
0
10
3056.240661
20
1305.628305
30
0.0
40
1.000000
50
360.000000
51
90.000000
0
LINE
8
0
10
3056.240661
20
1306.628305
30
0.0
11
3048.240661
21
1306.628305
31
0.0
0
ARC
8
0
10
3048.240661
20
1305.628305
30
0.0
40
1.000000
50
90.000000
51
180.000000
0
LINE
8
0
10
3047.240661
20
1305.628305
30
0.0
11
3047.240661
21
1297.628305
31
0.0
0
ARC
8
0
10
3048.240661
20
1297.628305
30
0.0
40
1.000000
50
180.000000
51
270.000000
0
LINE
8
0
10
3047.668553
20
1305.281486
30
0.0
11
3047.764972
21
1305.396393
31
0.0
0
LINE
8
0
10
3047.946056
20
1303.777102
30
0.0
11
3048.042474
21
1303.892009
31
0.0
0
LINE
8
0
10
3049.103074
20
1305.155982
30
0.0
11
3049.199492
21
1305.270889
31
0.0
0
LINE
8
0
10
3050.260092
20
1306.534862
30
0.0
11
3050.338499
21
1306.628305
31
0.0
0
LINE
8
0
10
3048.223559
20
1302.272718
30
0.0
11
3048.319977
21
1302.387624
31
0.0
0
LINE
8
0
10
3049.380576
20
1303.651598
30
0.0
11
3049.476995
21
1303.766504
31
0.0
0
LINE
8
0
10
3050.537594
20
1305.030478
30
0.0
11
3050.634012
21
1305.145384
31
0.0
0
LINE
8
0
10
3051.694612
20
1306.409358
30
0.0
11
3051.791030
21
1306.524264
31
0.0
0
LINE
8
0
10
3047.344044
20
1299.389453
30
0.0
11
3047.440462
21
1299.504360
31
0.0
0
LINE
8
0
10
3048.501061
20
1300.768333
30
0.0
11
3048.597480
21
1300.883240
31
0.0
0
LINE
8
0
10
3049.658079
20
1302.147213
30
0.0
11
3049.754497
21
1302.262120
31
0.0
0
LINE
8
0
10
3050.815097
20
1303.526093
30
0.0
11
3050.911515
21
1303.641000
31
0.0
0
LINE
8
0
10
3051.972115
20
1304.904973
30
0.0
11
3052.068533
21
1305.019880
31
0.0
0
LINE
8
0
10
3053.129132
20
1306.283853
30
0.0
11
3053.225550
21
1306.398760
31
0.0
0
LINE
8
0
10
3047.621546
20
1297.885069
30
0.0
11
3047.717965
21
1297.999976
31
0.0
0
LINE
8
0
10
3048.778564
20
1299.263949
30
0.0
11
3048.874982
21
1299.378856
31
0.0
0
LINE
8
0
10
3049.935582
20
1300.642829
30
0.0
11
3050.032000
21
1300.757736
31
0.0
0
LINE
8
0
10
3051.092600
20
1302.021709
30
0.0
11
3051.189018
21
1302.136616
31
0.0
0
LINE
8
0
10
3052.249617
20
1303.400589
30
0.0
11
3052.346035
21
1303.515496
31
0.0
0
LINE
8
0
10
3053.406635
20
1304.779469
30
0.0
11
3053.503053
21
1304.894376
31
0.0
0
LINE
8
0
10
3054.563653
20
1306.158349
30
0.0
11
3054.660071
21
1306.273256
31
0.0
0
LINE
8
0
10
3049.056067
20
1297.759565
30
0.0
11
3049.152485
21
1297.874472
31
0.0
0
LINE
8
0
10
3050.213084
20
1299.138445
30
0.0
11
3050.309503
21
1299.253352
31
0.0
0
LINE
8
0
10
3051.370102
20
1300.517325
30
0.0
11
3051.466520
21
1300.632232
31
0.0
0
LINE
8
0
10
3052.527120
20
1301.896205
30
0.0
11
3052.623538
21
1302.011112
31
0.0
0
LINE
8
0
10
3053.684138
20
1303.275085
30
0.0
11
3053.780556
21
1303.389992
31
0.0
0
LINE
8
0
10
3054.841155
20
1304.653965
30
0.0
11
3054.937573
21
1304.768872
31
0.0
0
LINE
8
0
10
3055.998173
20
1306.032845
30
0.0
11
3056.094591
21
1306.147752
31
0.0
0
LINE
8
0
10
3050.490587
20
1297.634061
30
0.0
11
3050.587005
21
1297.748967
31
0.0
0
LINE
8
0
10
3051.647605
20
1299.012941
30
0.0
11
3051.744023
21
1299.127847
31
0.0
0
LINE
8
0
10
3052.804623
20
1300.391821
30
0.0
11
3052.901041
21
1300.506727
31
0.0
0
LINE
8
0
10
3053.961640
20
1301.770701
30
0.0
11
3054.058058
21
1301.885607
31
0.0
0
LINE
8
0
10
3055.118658
20
1303.149581
30
0.0
11
3055.215076
21
1303.264487
31
0.0
0
LINE
8
0
10
3056.275676
20
1304.528461
30
0.0
11
3056.372094
21
1304.643367
31
0.0
0
LINE
8
0
10
3051.925108
20
1297.508556
30
0.0
11
3052.021526
21
1297.623463
31
0.0
0
LINE
8
0
10
3053.082125
20
1298.887436
30
0.0
11
3053.178543
21
1299.002343
31
0.0
0
LINE
8
0
10
3054.239143
20
1300.266316
30
0.0
11
3054.335561
21
1300.381223
31
0.0
0
LINE
8
0
10
3055.396161
20
1301.645196
30
0.0
11
3055.492579
21
1301.760103
31
0.0
0
LINE
8
0
10
3056.553178
20
1303.024076
30
0.0
11
3056.649596
21
1303.138983
31
0.0
0
LINE
8
0
10
3053.359628
20
1297.383052
30
0.0
11
3053.456046
21
1297.497959
31
0.0
0
LINE
8
0
10
3054.516646
20
1298.761932
30
0.0
11
3054.613064
21
1298.876839
31
0.0
0
LINE
8
0
10
3055.673663
20
1300.140812
30
0.0
11
3055.770081
21
1300.255719
31
0.0
0
LINE
8
0
10
3056.830681
20
1301.519692
30
0.0
11
3056.927099
21
1301.634599
31
0.0
0
LINE
8
0
10
3054.794148
20
1297.257548
30
0.0
11
3054.890566
21
1297.372455
31
0.0
0
LINE
8
0
10
3055.951166
20
1298.636428
30
0.0
11
3056.047584
21
1298.751335
31
0.0
0
LINE
8
0
10
3057.108184
20
1300.015308
30
0.0
11
3057.204602
21
1300.130215
31
0.0
0
LINE
8
0
10
3056.228669
20
1297.132044
30
0.0
11
3056.325087
21
1297.246950
31
0.0
0
LINE
8
0
10
3050.260092
20
1306.534863
30
0.0
11
3050.379635
21
1306.524404
31
0.0
0
LINE
8
0
10
3051.694612
20
1306.409358
30
0.0
11
3051.814155
21
1306.398900
31
0.0
0
LINE
8
0
10
3053.129132
20
1306.283854
30
0.0
11
3053.248676
21
1306.273395
31
0.0
0
LINE
8
0
10
3054.563653
20
1306.158350
30
0.0
11
3054.683196
21
1306.147891
31
0.0
0
LINE
8
0
10
3055.998173
20
1306.032845
30
0.0
11
3056.117716
21
1306.022387
31
0.0
0
LINE
8
0
10
3047.668554
20
1305.281487
30
0.0
11
3047.788097
21
1305.271028
31
0.0
0
LINE
8
0
10
3049.103074
20
1305.155983
30
0.0
11
3049.222617
21
1305.145524
31
0.0
0
LINE
8
0
10
3050.537594
20
1305.030478
30
0.0
11
3050.657138
21
1305.020020
31
0.0
0
LINE
8
0
10
3051.972115
20
1304.904974
30
0.0
11
3052.091658
21
1304.894515
31
0.0
0
LINE
8
0
10
3053.406635
20
1304.779470
30
0.0
11
3053.526178
21
1304.769011
31
0.0
0
LINE
8
0
10
3054.841155
20
1304.653965
30
0.0
11
3054.960699
21
1304.643507
31
0.0
0
LINE
8
0
10
3056.275676
20
1304.528461
30
0.0
11
3056.395219
21
1304.518003
31
0.0
0
LINE
8
0
10
3047.946056
20
1303.777103
30
0.0
11
3048.065600
21
1303.766644
31
0.0
0
LINE
8
0
10
3049.380577
20
1303.651598
30
0.0
11
3049.500120
21
1303.641140
31
0.0
0
LINE
8
0
10
3050.815097
20
1303.526094
30
0.0
11
3050.934640
21
1303.515635
31
0.0
0
LINE
8
0
10
3052.249617
20
1303.400590
30
0.0
11
3052.369161
21
1303.390131
31
0.0
0
LINE
8
0
10
3053.684138
20
1303.275085
30
0.0
11
3053.803681
21
1303.264627
31
0.0
0
LINE
8
0
10
3055.118658
20
1303.149581
30
0.0
11
3055.238201
21
1303.139123
31
0.0
0
LINE
8
0
10
3056.553178
20
1303.024077
30
0.0
11
3056.672722
21
1303.013618
31
0.0
0
LINE
8
0
10
3048.223559
20
1302.272718
30
0.0
11
3048.343102
21
1302.262260
31
0.0
0
LINE
8
0
10
3049.658079
20
1302.147214
30
0.0
11
3049.777623
21
1302.136755
31
0.0
0
LINE
8
0
10
3051.092600
20
1302.021710
30
0.0
11
3051.212143
21
1302.011251
31
0.0
0
LINE
8
0
10
3052.527120
20
1301.896205
30
0.0
11
3052.646663
21
1301.885747
31
0.0
0
LINE
8
0
10
3053.961640
20
1301.770701
30
0.0
11
3054.081184
21
1301.760243
31
0.0
0
LINE
8
0
10
3055.396161
20
1301.645197
30
0.0
11
3055.515704
21
1301.634738
31
0.0
0
LINE
8
0
10
3056.830681
20
1301.519693
30
0.0
11
3056.950224
21
1301.509234
31
0.0
0
LINE
8
0
10
3048.501062
20
1300.768334
30
0.0
11
3048.620605
21
1300.757875
31
0.0
0
LINE
8
0
10
3049.935582
20
1300.642830
30
0.0
11
3050.055125
21
1300.632371
31
0.0
0
LINE
8
0
10
3051.370102
20
1300.517325
30
0.0
11
3051.489646
21
1300.506867
31
0.0
0
LINE
8
0
10
3052.804623
20
1300.391821
30
0.0
11
3052.924166
21
1300.381363
31
0.0
0
LINE
8
0
10
3054.239143
20
1300.266317
30
0.0
11
3054.358686
21
1300.255858
31
0.0
0
LINE
8
0
10
3055.673663
20
1300.140813
30
0.0
11
3055.793207
21
1300.130354
31
0.0
0
LINE
8
0
10
3057.108184
20
1300.015308
30
0.0
11
3057.227727
21
1300.004850
31
0.0
0
LINE
8
0
10
3047.344044
20
1299.389454
30
0.0
11
3047.463587
21
1299.378995
31
0.0
0
LINE
8
0
10
3048.778564
20
1299.263950
30
0.0
11
3048.898108
21
1299.253491
31
0.0
0
LINE
8
0
10
3050.213085
20
1299.138445
30
0.0
11
3050.332628
21
1299.127987
31
0.0
0
LINE
8
0
10
3051.647605
20
1299.012941
30
0.0
11
3051.767148
21
1299.002483
31
0.0
0
LINE
8
0
10
3053.082125
20
1298.887437
30
0.0
11
3053.201669
21
1298.876978
31
0.0
0
LINE
8
0
10
3054.516646
20
1298.761933
30
0.0
11
3054.636189
21
1298.751474
31
0.0
0
LINE
8
0
10
3055.951166
20
1298.636428
30
0.0
11
3056.070709
21
1298.625970
31
0.0
0
LINE
8
0
10
3047.621547
20
1297.885070
30
0.0
11
3047.741090
21
1297.874611
31
0.0
0
LINE
8
0
10
3049.056067
20
1297.759565
30
0.0
11
3049.175610
21
1297.749107
31
0.0
0
LINE
8
0
10
3050.490587
20
1297.634061
30
0.0
11
3050.610131
21
1297.623603
31
0.0
0
LINE
8
0
10
3051.925108
20
1297.508557
30
0.0
11
3052.044651
21
1297.498098
31
0.0
0
LINE
8
0
10
3053.359628
20
1297.383053
30
0.0
11
3053.479171
21
1297.372594
31
0.0
0
LINE
8
0
10
3054.794148
20
1297.257548
30
0.0
11
3054.913692
21
1297.247090
31
0.0
0
LINE
8
0
10
3056.228669
20
1297.132044
30
0.0
11
3056.348212
21
1297.121585
31
0.0
0
LINE
8
0
10
3047.740983
20
1297.873103
30
0.0
11
3047.717858
21
1297.998468
31
0.0
0
LINE
8
0
10
3047.463481
20
1299.377487
30
0.0
11
3047.440356
21
1299.502853
31
0.0
0
LINE
8
0
10
3049.175503
20
1297.747597
30
0.0
11
3049.152378
21
1297.872963
31
0.0
0
LINE
8
0
10
3048.898001
20
1299.251982
30
0.0
11
3048.874876
21
1299.377347
31
0.0
0
LINE
8
0
10
3048.620500
20
1300.756366
30
0.0
11
3048.597375
21
1300.881732
31
0.0
0
LINE
8
0
10
3048.342998
20
1302.260751
30
0.0
11
3048.319873
21
1302.386116
31
0.0
0
LINE
8
0
10
3048.065497
20
1303.765135
30
0.0
11
3048.042372
21
1303.890501
31
0.0
0
LINE
8
0
10
3047.787995
20
1305.269520
30
0.0
11
3047.764870
21
1305.394885
31
0.0
0
LINE
8
0
10
3050.610023
20
1297.622092
30
0.0
11
3050.586898
21
1297.747457
31
0.0
0
LINE
8
0
10
3050.332522
20
1299.126476
30
0.0
11
3050.309397
21
1299.251842
31
0.0
0
LINE
8
0
10
3050.055020
20
1300.630861
30
0.0
11
3050.031895
21
1300.756226
31
0.0
0
LINE
8
0
10
3049.777519
20
1302.135245
30
0.0
11
3049.754394
21
1302.260611
31
0.0
0
LINE
8
0
10
3049.500017
20
1303.639630
30
0.0
11
3049.476892
21
1303.764995
31
0.0
0
LINE
8
0
10
3049.222516
20
1305.144014
30
0.0
11
3049.199391
21
1305.269380
31
0.0
0
LINE
8
0
10
3052.044543
20
1297.496586
30
0.0
11
3052.021418
21
1297.621952
31
0.0
0
LINE
8
0
10
3051.767042
20
1299.000971
30
0.0
11
3051.743917
21
1299.126336
31
0.0
0
LINE
8
0
10
3051.489540
20
1300.505355
30
0.0
11
3051.466415
21
1300.630721
31
0.0
0
LINE
8
0
10
3051.212039
20
1302.009740
30
0.0
11
3051.188914
21
1302.135105
31
0.0
0
LINE
8
0
10
3050.934537
20
1303.514124
30
0.0
11
3050.911412
21
1303.639490
31
0.0
0
LINE
8
0
10
3050.657036
20
1305.018509
30
0.0
11
3050.633911
21
1305.143874
31
0.0
0
LINE
8
0
10
3050.379534
20
1306.522893
30
0.0
11
3050.360090
21
1306.628305
31
0.0
0
LINE
8
0
10
3053.479064
20
1297.371081
30
0.0
11
3053.455939
21
1297.496446
31
0.0
0
LINE
8
0
10
3053.201562
20
1298.875466
30
0.0
11
3053.178437
21
1299.000831
31
0.0
0
LINE
8
0
10
3052.924061
20
1300.379850
30
0.0
11
3052.900936
21
1300.505215
31
0.0
0
LINE
8
0
10
3052.646559
20
1301.884235
30
0.0
11
3052.623434
21
1302.009600
31
0.0
0
LINE
8
0
10
3052.369058
20
1303.388619
30
0.0
11
3052.345933
21
1303.513984
31
0.0
0
LINE
8
0
10
3052.091556
20
1304.893003
30
0.0
11
3052.068431
21
1305.018369
31
0.0
0
LINE
8
0
10
3051.814055
20
1306.397388
30
0.0
11
3051.790930
21
1306.522753
31
0.0
0
LINE
8
0
10
3054.913584
20
1297.245576
30
0.0
11
3054.890459
21
1297.370941
31
0.0
0
LINE
8
0
10
3054.636082
20
1298.749960
30
0.0
11
3054.612957
21
1298.875326
31
0.0
0
LINE
8
0
10
3054.358581
20
1300.254345
30
0.0
11
3054.335456
21
1300.379710
31
0.0
0
LINE
8
0
10
3054.081079
20
1301.758729
30
0.0
11
3054.057954
21
1301.884094
31
0.0
0
LINE
8
0
10
3053.803578
20
1303.263114
30
0.0
11
3053.780453
21
1303.388479
31
0.0
0
LINE
8
0
10
3053.526076
20
1304.767498
30
0.0
11
3053.502951
21
1304.892863
31
0.0
0
LINE
8
0
10
3053.248575
20
1306.271883
30
0.0
11
3053.225450
21
1306.397248
31
0.0
0
LINE
8
0
10
3056.348104
20
1297.120070
30
0.0
11
3056.324979
21
1297.245436
31
0.0
0
LINE
8
0
10
3056.070603
20
1298.624455
30
0.0
11
3056.047478
21
1298.749820
31
0.0
0
LINE
8
0
10
3055.793101
20
1300.128839
30
0.0
11
3055.769976
21
1300.254205
31
0.0
0
LINE
8
0
10
3055.515600
20
1301.633224
30
0.0
11
3055.492475
21
1301.758589
31
0.0
0
LINE
8
0
10
3055.238098
20
1303.137608
30
0.0
11
3055.214973
21
1303.262974
31
0.0
0
LINE
8
0
10
3054.960597
20
1304.641993
30
0.0
11
3054.937472
21
1304.767358
31
0.0
0
LINE
8
0
10
3054.683095
20
1306.146377
30
0.0
11
3054.659970
21
1306.271743
31
0.0
0
LINE
8
0
10
3057.227621
20
1300.003334
30
0.0
11
3057.204496
21
1300.128699
31
0.0
0
LINE
8
0
10
3056.950120
20
1301.507718
30
0.0
11
3056.926995
21
1301.633084
31
0.0
0
LINE
8
0
10
3056.672618
20
1303.012103
30
0.0
11
3056.649493
21
1303.137468
31
0.0
0
LINE
8
0
10
3056.395117
20
1304.516487
30
0.0
11
3056.371992
21
1304.641853
31
0.0
0
LINE
8
0
10
3056.117615
20
1306.020872
30
0.0
11
3056.094490
21
1306.146237
31
0.0
0
LINE
8
0
10
3047.732165
20
1306.153760
30
0.0
11
3047.887942
21
1306.316114
31
0.0
0
LINE
8
0
10
3047.997323
20
1303.874485
30
0.0
11
3048.153100
21
1304.036838
31
0.0
0
LINE
8
0
10
3049.866647
20
1305.822722
30
0.0
11
3050.022424
21
1305.985076
31
0.0
0
LINE
8
0
10
3048.262481
20
1301.595210
30
0.0
11
3048.418258
21
1301.757563
31
0.0
0
LINE
8
0
10
3050.131805
20
1303.543447
30
0.0
11
3050.287582
21
1303.705800
31
0.0
0
LINE
8
0
10
3052.001129
20
1305.491684
30
0.0
11
3052.156906
21
1305.654038
31
0.0
0
LINE
8
0
10
3048.527640
20
1299.315935
30
0.0
11
3048.683417
21
1299.478288
31
0.0
0
LINE
8
0
10
3050.396964
20
1301.264172
30
0.0
11
3050.552741
21
1301.426525
31
0.0
0
LINE
8
0
10
3052.266287
20
1303.212409
30
0.0
11
3052.422064
21
1303.374762
31
0.0
0
LINE
8
0
10
3054.135611
20
1305.160646
30
0.0
11
3054.291388
21
1305.322999
31
0.0
0
LINE
8
0
10
3048.792798
20
1297.036660
30
0.0
11
3048.948575
21
1297.199013
31
0.0
0
LINE
8
0
10
3050.662122
20
1298.984897
30
0.0
11
3050.817899
21
1299.147250
31
0.0
0
LINE
8
0
10
3052.531446
20
1300.933134
30
0.0
11
3052.687223
21
1301.095487
31
0.0
0
LINE
8
0
10
3054.400770
20
1302.881371
30
0.0
11
3054.556547
21
1303.043724
31
0.0
0
LINE
8
0
10
3056.270093
20
1304.829608
30
0.0
11
3056.425870
21
1304.991961
31
0.0
0
LINE
8
0
10
3050.927280
20
1296.705622
30
0.0
11
3051.083057
21
1296.867975
31
0.0
0
LINE
8
0
10
3052.796604
20
1298.653859
30
0.0
11
3052.952381
21
1298.816212
31
0.0
0
LINE
8
0
10
3054.665928
20
1300.602096
30
0.0
11
3054.821705
21
1300.764449
31
0.0
0
LINE
8
0
10
3056.535252
20
1302.550333
30
0.0
11
3056.691029
21
1302.712686
31
0.0
0
LINE
8
0
10
3054.931086
20
1298.322821
30
0.0
11
3055.086863
21
1298.485174
31
0.0
0
LINE
8
0
10
3056.800410
20
1300.271058
30
0.0
11
3056.956187
21
1300.433411
31
0.0
0
LINE
8
0
10
3057.065568
20
1297.991783
30
0.0
11
3057.221345
21
1298.154136
31
0.0
0
LINE
8
0
10
3048.970546
20
1297.007850
30
0.0
11
3048.948449
21
1297.197789
31
0.0
0
LINE
8
0
10
3048.705389
20
1299.287125
30
0.0
11
3048.683293
21
1299.477064
31
0.0
0
LINE
8
0
10
3048.440233
20
1301.566400
30
0.0
11
3048.418137
21
1301.756339
31
0.0
0
LINE
8
0
10
3048.175077
20
1303.845675
30
0.0
11
3048.152980
21
1304.035614
31
0.0
0
LINE
8
0
10
3047.909920
20
1306.124950
30
0.0
11
3047.887824
21
1306.314890
31
0.0
0
LINE
8
0
10
3051.105028
20
1296.676810
30
0.0
11
3051.082931
21
1296.866750
31
0.0
0
LINE
8
0
10
3050.839871
20
1298.956085
30
0.0
11
3050.817775
21
1299.146025
31
0.0
0
LINE
8
0
10
3050.574715
20
1301.235360
30
0.0
11
3050.552619
21
1301.425300
31
0.0
0
LINE
8
0
10
3050.309558
20
1303.514636
30
0.0
11
3050.287462
21
1303.704575
31
0.0
0
LINE
8
0
10
3050.044402
20
1305.793911
30
0.0
11
3050.022306
21
1305.983850
31
0.0
0
LINE
8
0
10
3052.974353
20
1298.625046
30
0.0
11
3052.952257
21
1298.814986
31
0.0
0
LINE
8
0
10
3052.709197
20
1300.904321
30
0.0
11
3052.687100
21
1301.094261
31
0.0
0
LINE
8
0
10
3052.444040
20
1303.183596
30
0.0
11
3052.421944
21
1303.373536
31
0.0
0
LINE
8
0
10
3052.178884
20
1305.462871
30
0.0
11
3052.156788
21
1305.652811
31
0.0
0
LINE
8
0
10
3055.108835
20
1298.294007
30
0.0
11
3055.086738
21
1298.483946
31
0.0
0
LINE
8
0
10
3054.843678
20
1300.573282
30
0.0
11
3054.821582
21
1300.763221
31
0.0
0
LINE
8
0
10
3054.578522
20
1302.852557
30
0.0
11
3054.556426
21
1303.042496
31
0.0
0
LINE
8
0
10
3054.313366
20
1305.131832
30
0.0
11
3054.291269
21
1305.321772
31
0.0
0
LINE
8
0
10
3057.240661
20
1297.985792
30
0.0
11
3057.221220
21
1298.152907
31
0.0
0
LINE
8
0
10
3056.978160
20
1300.242242
30
0.0
11
3056.956064
21
1300.432182
31
0.0
0
LINE
8
0
10
3056.713004
20
1302.521517
30
0.0
11
3056.690908
21
1302.711457
31
0.0
0
LINE
8
0
10
3056.447848
20
1304.800793
30
0.0
11
3056.425751
21
1304.990732
31
0.0
0
LINE
8
0
10
3047.732165
20
1306.153761
30
0.0
11
3047.910039
21
1306.126175
31
0.0
0
LINE
8
0
10
3049.866647
20
1305.822723
30
0.0
11
3050.044521
21
1305.795136
31
0.0
0
LINE
8
0
10
3052.001129
20
1305.491685
30
0.0
11
3052.179003
21
1305.464098
31
0.0
0
LINE
8
0
10
3054.135611
20
1305.160647
30
0.0
11
3054.313485
21
1305.133060
31
0.0
0
LINE
8
0
10
3056.270094
20
1304.829609
30
0.0
11
3056.447967
21
1304.802022
31
0.0
0
LINE
8
0
10
3047.997323
20
1303.874486
30
0.0
11
3048.175197
21
1303.846899
31
0.0
0
LINE
8
0
10
3050.131805
20
1303.543448
30
0.0
11
3050.309679
21
1303.515861
31
0.0
0
LINE
8
0
10
3052.266288
20
1303.212410
30
0.0
11
3052.444161
21
1303.184823
31
0.0
0
LINE
8
0
10
3054.400770
20
1302.881372
30
0.0
11
3054.578643
21
1302.853785
31
0.0
0
LINE
8
0
10
3056.535252
20
1302.550334
30
0.0
11
3056.713125
21
1302.522747
31
0.0
0
LINE
8
0
10
3048.262482
20
1301.595211
30
0.0
11
3048.440355
21
1301.567624
31
0.0
0
LINE
8
0
10
3050.396964
20
1301.264173
30
0.0
11
3050.574837
21
1301.236586
31
0.0
0
LINE
8
0
10
3052.531446
20
1300.933134
30
0.0
11
3052.709319
21
1300.905548
31
0.0
0
LINE
8
0
10
3054.665928
20
1300.602096
30
0.0
11
3054.843801
21
1300.574510
31
0.0
0
LINE
8
0
10
3056.800410
20
1300.271058
30
0.0
11
3056.978283
21
1300.243472
31
0.0
0
LINE
8
0
10
3048.527640
20
1299.315935
30
0.0
11
3048.705513
21
1299.288349
31
0.0
0
LINE
8
0
10
3050.662122
20
1298.984897
30
0.0
11
3050.839995
21
1298.957311
31
0.0
0
LINE
8
0
10
3052.796604
20
1298.653859
30
0.0
11
3052.974477
21
1298.626273
31
0.0
0
LINE
8
0
10
3054.931086
20
1298.322821
30
0.0
11
3055.108960
21
1298.295235
31
0.0
0
LINE
8
0
10
3057.065568
20
1297.991783
30
0.0
11
3057.240661
21
1297.964628
31
0.0
0
LINE
8
0
10
3048.792798
20
1297.036660
30
0.0
11
3048.970671
21
1297.009074
31
0.0
0
LINE
8
0
10
3050.927280
20
1296.705622
30
0.0
11
3051.105154
21
1296.678036
31
0.0
0
LINE
8
0
10
3048.538856
20
1306.586494
30
0.0
11
3048.647777
21
1306.628305
31
0.0
0
LINE
8
0
10
3048.052225
20
1305.136194
30
0.0
11
3048.192262
21
1305.189949
31
0.0
0
LINE
8
0
10
3049.732670
20
1305.781256
30
0.0
11
3049.872707
21
1305.835011
31
0.0
0
LINE
8
0
10
3051.413115
20
1306.426318
30
0.0
11
3051.553152
21
1306.480074
31
0.0
0
LINE
8
0
10
3047.565594
20
1303.685894
30
0.0
11
3047.705632
21
1303.739649
31
0.0
0
LINE
8
0
10
3049.246039
20
1304.330956
30
0.0
11
3049.386076
21
1304.384711
31
0.0
0
LINE
8
0
10
3050.926484
20
1304.976018
30
0.0
11
3051.066521
21
1305.029774
31
0.0
0
LINE
8
0
10
3052.606929
20
1305.621081
30
0.0
11
3052.746966
21
1305.674836
31
0.0
0
LINE
8
0
10
3054.287374
20
1306.266143
30
0.0
11
3054.427411
21
1306.319898
31
0.0
0
LINE
8
0
10
3048.759409
20
1302.880656
30
0.0
11
3048.899446
21
1302.934411
31
0.0
0
LINE
8
0
10
3050.439853
20
1303.525718
30
0.0
11
3050.579890
21
1303.579473
31
0.0
0
LINE
8
0
10
3052.120298
20
1304.170781
30
0.0
11
3052.260335
21
1304.224536
31
0.0
0
LINE
8
0
10
3053.800743
20
1304.815843
30
0.0
11
3053.940780
21
1304.869598
31
0.0
0
LINE
8
0
10
3055.481188
20
1305.460905
30
0.0
11
3055.621225
21
1305.514660
31
0.0
0
LINE
8
0
10
3048.272778
20
1301.430356
30
0.0
11
3048.412815
21
1301.484111
31
0.0
0
LINE
8
0
10
3049.953223
20
1302.075418
30
0.0
11
3050.093260
21
1302.129173
31
0.0
0
LINE
8
0
10
3051.633667
20
1302.720481
30
0.0
11
3051.773705
21
1302.774236
31
0.0
0
LINE
8
0
10
3053.314112
20
1303.365543
30
0.0
11
3053.454149
21
1303.419298
31
0.0
0
LINE
8
0
10
3054.994557
20
1304.010605
30
0.0
11
3055.134594
21
1304.064360
31
0.0
0
LINE
8
0
10
3056.675002
20
1304.655667
30
0.0
11
3056.815039
21
1304.709423
31
0.0
0
LINE
8
0
10
3047.786147
20
1299.980056
30
0.0
11
3047.926184
21
1300.033811
31
0.0
0
LINE
8
0
10
3049.466592
20
1300.625118
30
0.0
11
3049.606629
21
1300.678873
31
0.0
0
LINE
8
0
10
3051.147037
20
1301.270180
30
0.0
11
3051.287074
21
1301.323936
31
0.0
0
LINE
8
0
10
3052.827482
20
1301.915243
30
0.0
11
3052.967519
21
1301.968998
31
0.0
0
LINE
8
0
10
3054.507926
20
1302.560305
30
0.0
11
3054.647963
21
1302.614060
31
0.0
0
LINE
8
0
10
3056.188371
20
1303.205367
30
0.0
11
3056.328408
21
1303.259123
31
0.0
0
LINE
8
0
10
3047.299517
20
1298.529756
30
0.0
11
3047.439554
21
1298.583511
31
0.0
0
LINE
8
0
10
3048.979961
20
1299.174818
30
0.0
11
3049.119998
21
1299.228573
31
0.0
0
LINE
8
0
10
3050.660406
20
1299.819880
30
0.0
11
3050.800443
21
1299.873636
31
0.0
0
LINE
8
0
10
3052.340851
20
1300.464943
30
0.0
11
3052.480888
21
1300.518698
31
0.0
0
LINE
8
0
10
3054.021296
20
1301.110005
30
0.0
11
3054.161333
21
1301.163760
31
0.0
0
LINE
8
0
10
3055.701740
20
1301.755067
30
0.0
11
3055.841778
21
1301.808822
31
0.0
0
LINE
8
0
10
3048.493331
20
1297.724518
30
0.0
11
3048.633368
21
1297.778273
31
0.0
0
LINE
8
0
10
3050.173775
20
1298.369580
30
0.0
11
3050.313813
21
1298.423335
31
0.0
0
LINE
8
0
10
3051.854220
20
1299.014643
30
0.0
11
3051.994257
21
1299.068398
31
0.0
0
LINE
8
0
10
3053.534665
20
1299.659705
30
0.0
11
3053.674702
21
1299.713460
31
0.0
0
LINE
8
0
10
3055.215110
20
1300.304767
30
0.0
11
3055.355147
21
1300.358522
31
0.0
0
LINE
8
0
10
3056.895555
20
1300.949829
30
0.0
11
3057.035592
21
1301.003585
31
0.0
0
LINE
8
0
10
3049.687145
20
1296.919280
30
0.0
11
3049.827182
21
1296.973035
31
0.0
0
LINE
8
0
10
3051.367590
20
1297.564342
30
0.0
11
3051.507627
21
1297.618098
31
0.0
0
LINE
8
0
10
3053.048034
20
1298.209405
30
0.0
11
3053.188071
21
1298.263160
31
0.0
0
LINE
8
0
10
3054.728479
20
1298.854467
30
0.0
11
3054.868516
21
1298.908222
31
0.0
0
LINE
8
0
10
3056.408924
20
1299.499529
30
0.0
11
3056.548961
21
1299.553285
31
0.0
0
LINE
8
0
10
3052.561404
20
1296.759105
30
0.0
11
3052.701441
21
1296.812860
31
0.0
0
LINE
8
0
10
3054.241848
20
1297.404167
30
0.0
11
3054.381886
21
1297.457922
31
0.0
0
LINE
8
0
10
3055.922293
20
1298.049229
30
0.0
11
3056.062330
21
1298.102984
31
0.0
0
LINE
8
0
10
3055.512189
20
1296.628305
30
0.0
11
3055.575700
21
1296.652684
31
0.0
0
LINE
8
0
10
3057.116107
20
1297.243992
30
0.0
11
3057.172595
21
1297.265675
31
0.0
0
LINE
8
0
10
3054.287374
20
1306.266143
30
0.0
11
3054.386859
21
1306.199040
31
0.0
0
LINE
8
0
10
3055.481188
20
1305.460905
30
0.0
11
3055.580673
21
1305.393802
31
0.0
0
LINE
8
0
10
3056.675002
20
1304.655668
30
0.0
11
3056.774487
21
1304.588564
31
0.0
0
LINE
8
0
10
3051.413115
20
1306.426319
30
0.0
11
3051.512600
21
1306.359216
31
0.0
0
LINE
8
0
10
3052.606929
20
1305.621081
30
0.0
11
3052.706414
21
1305.553978
31
0.0
0
LINE
8
0
10
3053.800743
20
1304.815843
30
0.0
11
3053.900228
21
1304.748740
31
0.0
0
LINE
8
0
10
3054.994558
20
1304.010605
30
0.0
11
3055.094042
21
1303.943502
31
0.0
0
LINE
8
0
10
3056.188372
20
1303.205368
30
0.0
11
3056.287856
21
1303.138264
31
0.0
0
LINE
8
0
10
3048.538856
20
1306.586494
30
0.0
11
3048.638341
21
1306.519391
31
0.0
0
LINE
8
0
10
3049.732671
20
1305.781256
30
0.0
11
3049.832155
21
1305.714153
31
0.0
0
LINE
8
0
10
3050.926485
20
1304.976019
30
0.0
11
3051.025969
21
1304.908915
31
0.0
0
LINE
8
0
10
3052.120299
20
1304.170781
30
0.0
11
3052.219783
21
1304.103678
31
0.0
0
LINE
8
0
10
3053.314113
20
1303.365543
30
0.0
11
3053.413597
21
1303.298440
31
0.0
0
LINE
8
0
10
3054.507927
20
1302.560305
30
0.0
11
3054.607411
21
1302.493202
31
0.0
0
LINE
8
0
10
3055.701741
20
1301.755067
30
0.0
11
3055.801226
21
1301.687964
31
0.0
0
LINE
8
0
10
3056.895555
20
1300.949830
30
0.0
11
3056.995040
21
1300.882727
31
0.0
0
LINE
8
0
10
3048.052226
20
1305.136194
30
0.0
11
3048.151710
21
1305.069091
31
0.0
0
LINE
8
0
10
3049.246040
20
1304.330956
30
0.0
11
3049.345524
21
1304.263853
31
0.0
0
LINE
8
0
10
3050.439854
20
1303.525718
30
0.0
11
3050.539338
21
1303.458615
31
0.0
0
LINE
8
0
10
3051.633668
20
1302.720481
30
0.0
11
3051.733153
21
1302.653378
31
0.0
0
LINE
8
0
10
3052.827482
20
1301.915243
30
0.0
11
3052.926967
21
1301.848140
31
0.0
0
LINE
8
0
10
3054.021296
20
1301.110005
30
0.0
11
3054.120781
21
1301.042902
31
0.0
0
LINE
8
0
10
3055.215110
20
1300.304767
30
0.0
11
3055.314595
21
1300.237664
31
0.0
0
LINE
8
0
10
3056.408924
20
1299.499530
30
0.0
11
3056.508409
21
1299.432426
31
0.0
0
LINE
8
0
10
3047.565595
20
1303.685894
30
0.0
11
3047.665080
21
1303.618791
31
0.0
0
LINE
8
0
10
3048.759409
20
1302.880656
30
0.0
11
3048.858894
21
1302.813553
31
0.0
0
LINE
8
0
10
3049.953223
20
1302.075418
30
0.0
11
3050.052708
21
1302.008315
31
0.0
0
LINE
8
0
10
3051.147037
20
1301.270181
30
0.0
11
3051.246522
21
1301.203077
31
0.0
0
LINE
8
0
10
3052.340851
20
1300.464943
30
0.0
11
3052.440336
21
1300.397840
31
0.0
0
LINE
8
0
10
3053.534666
20
1299.659705
30
0.0
11
3053.634150
21
1299.592602
31
0.0
0
LINE
8
0
10
3054.728480
20
1298.854467
30
0.0
11
3054.827964
21
1298.787364
31
0.0
0
LINE
8
0
10
3055.922294
20
1298.049229
30
0.0
11
3056.021778
21
1297.982126
31
0.0
0
LINE
8
0
10
3057.116108
20
1297.243992
30
0.0
11
3057.153082
21
1297.219052
31
0.0
0
LINE
8
0
10
3048.272779
20
1301.430356
30
0.0
11
3048.372263
21
1301.363253
31
0.0
0
LINE
8
0
10
3049.466593
20
1300.625118
30
0.0
11
3049.566077
21
1300.558015
31
0.0
0
LINE
8
0
10
3050.660407
20
1299.819881
30
0.0
11
3050.759891
21
1299.752777
31
0.0
0
LINE
8
0
10
3051.854221
20
1299.014643
30
0.0
11
3051.953705
21
1298.947540
31
0.0
0
LINE
8
0
10
3053.048035
20
1298.209405
30
0.0
11
3053.147519
21
1298.142302
31
0.0
0
LINE
8
0
10
3054.241849
20
1297.404167
30
0.0
11
3054.341334
21
1297.337064
31
0.0
0
LINE
8
0
10
3047.786148
20
1299.980056
30
0.0
11
3047.885632
21
1299.912953
31
0.0
0
LINE
8
0
10
3048.979962
20
1299.174818
30
0.0
11
3049.079446
21
1299.107715
31
0.0
0
LINE
8
0
10
3050.173776
20
1298.369580
30
0.0
11
3050.273261
21
1298.302477
31
0.0
0
LINE
8
0
10
3051.367590
20
1297.564343
30
0.0
11
3051.467075
21
1297.497239
31
0.0
0
LINE
8
0
10
3052.561404
20
1296.759105
30
0.0
11
3052.660889
21
1296.692002
31
0.0
0
LINE
8
0
10
3047.299517
20
1298.529756
30
0.0
11
3047.399002
21
1298.462653
31
0.0
0
LINE
8
0
10
3048.493331
20
1297.724518
30
0.0
11
3048.592816
21
1297.657415
31
0.0
0
LINE
8
0
10
3049.687145
20
1296.919280
30
0.0
11
3049.786630
21
1296.852177
31
0.0
0
LINE
8
0
10
3047.664973
20
1303.617289
30
0.0
11
3047.705526
21
1303.738147
31
0.0
0
LINE
8
0
10
3048.151605
20
1305.067589
30
0.0
11
3048.192158
21
1305.188447
31
0.0
0
LINE
8
0
10
3048.638237
20
1306.517889
30
0.0
11
3048.675286
21
1306.628305
31
0.0
0
LINE
8
0
10
3047.398891
20
1298.461151
30
0.0
11
3047.439444
21
1298.582010
31
0.0
0
LINE
8
0
10
3047.885523
20
1299.911451
30
0.0
11
3047.926076
21
1300.032309
31
0.0
0
LINE
8
0
10
3048.372155
20
1301.361751
30
0.0
11
3048.412707
21
1301.482609
31
0.0
0
LINE
8
0
10
3048.858787
20
1302.812050
30
0.0
11
3048.899339
21
1302.932909
31
0.0
0
LINE
8
0
10
3049.345418
20
1304.262350
30
0.0
11
3049.385971
21
1304.383208
31
0.0
0
LINE
8
0
10
3049.832050
20
1305.712650
30
0.0
11
3049.872603
21
1305.833508
31
0.0
0
LINE
8
0
10
3048.592705
20
1297.655913
30
0.0
11
3048.633257
21
1297.776771
31
0.0
0
LINE
8
0
10
3049.079337
20
1299.106212
30
0.0
11
3049.119889
21
1299.227071
31
0.0
0
LINE
8
0
10
3049.565968
20
1300.556512
30
0.0
11
3049.606521
21
1300.677370
31
0.0
0
LINE
8
0
10
3050.052600
20
1302.006812
30
0.0
11
3050.093153
21
1302.127670
31
0.0
0
LINE
8
0
10
3050.539232
20
1303.457111
30
0.0
11
3050.579785
21
1303.577970
31
0.0
0
LINE
8
0
10
3051.025864
20
1304.907411
30
0.0
11
3051.066416
21
1305.028269
31
0.0
0
LINE
8
0
10
3051.512495
20
1306.357711
30
0.0
11
3051.553048
21
1306.478569
31
0.0
0
LINE
8
0
10
3049.786518
20
1296.850674
30
0.0
11
3049.827071
21
1296.971532
31
0.0
0
LINE
8
0
10
3050.273150
20
1298.300974
30
0.0
11
3050.313703
21
1298.421832
31
0.0
0
LINE
8
0
10
3050.759782
20
1299.751273
30
0.0
11
3050.800334
21
1299.872132
31
0.0
0
LINE
8
0
10
3051.246414
20
1301.201573
30
0.0
11
3051.286966
21
1301.322431
31
0.0
0
LINE
8
0
10
3051.733045
20
1302.651873
30
0.0
11
3051.773598
21
1302.772731
31
0.0
0
LINE
8
0
10
3052.219677
20
1304.102172
30
0.0
11
3052.260230
21
1304.223031
31
0.0
0
LINE
8
0
10
3052.706309
20
1305.552472
30
0.0
11
3052.746862
21
1305.673330
31
0.0
0
LINE
8
0
10
3051.466963
20
1297.495735
30
0.0
11
3051.507516
21
1297.616593
31
0.0
0
LINE
8
0
10
3051.953595
20
1298.946035
30
0.0
11
3051.994148
21
1299.066893
31
0.0
0
LINE
8
0
10
3052.440227
20
1300.396334
30
0.0
11
3052.480780
21
1300.517193
31
0.0
0
LINE
8
0
10
3052.926859
20
1301.846634
30
0.0
11
3052.967411
21
1301.967492
31
0.0
0
LINE
8
0
10
3053.413491
20
1303.296934
30
0.0
11
3053.454043
21
1303.417792
31
0.0
0
LINE
8
0
10
3053.900122
20
1304.747233
30
0.0
11
3053.940675
21
1304.868092
31
0.0
0
LINE
8
0
10
3054.386754
20
1306.197533
30
0.0
11
3054.427307
21
1306.318391
31
0.0
0
LINE
8
0
10
3052.660777
20
1296.690496
30
0.0
11
3052.701330
21
1296.811354
31
0.0
0
LINE
8
0
10
3053.147409
20
1298.140796
30
0.0
11
3053.187961
21
1298.261654
31
0.0
0
LINE
8
0
10
3053.634040
20
1299.591096
30
0.0
11
3053.674593
21
1299.711954
31
0.0
0
LINE
8
0
10
3054.120672
20
1301.041395
30
0.0
11
3054.161225
21
1301.162254
31
0.0
0
LINE
8
0
10
3054.607304
20
1302.491695
30
0.0
11
3054.647857
21
1302.612553
31
0.0
0
LINE
8
0
10
3055.093936
20
1303.941995
30
0.0
11
3055.134489
21
1304.062853
31
0.0
0
LINE
8
0
10
3055.580568
20
1305.392294
30
0.0
11
3055.621120
21
1305.513153
31
0.0
0
LINE
8
0
10
3054.341222
20
1297.335557
30
0.0
11
3054.381775
21
1297.456415
31
0.0
0
LINE
8
0
10
3054.827854
20
1298.785857
30
0.0
11
3054.868407
21
1298.906715
31
0.0
0
LINE
8
0
10
3055.314486
20
1300.236157
30
0.0
11
3055.355038
21
1300.357015
31
0.0
0
LINE
8
0
10
3055.801118
20
1301.686456
30
0.0
11
3055.841670
21
1301.807315
31
0.0
0
LINE
8
0
10
3056.287749
20
1303.136756
30
0.0
11
3056.328302
21
1303.257614
31
0.0
0
LINE
8
0
10
3056.774381
20
1304.587056
30
0.0
11
3056.814934
21
1304.707914
31
0.0
0
LINE
8
0
10
3055.567914
20
1296.628305
30
0.0
11
3055.575588
21
1296.651177
31
0.0
0
LINE
8
0
10
3056.021667
20
1297.980618
30
0.0
11
3056.062220
21
1298.101476
31
0.0
0
LINE
8
0
10
3056.508299
20
1299.430918
30
0.0
11
3056.548852
21
1299.551776
31
0.0
0
LINE
8
0
10
3056.994931
20
1300.881218
30
0.0
11
3057.035484
21
1301.002076
31
0.0
0
ATTDEF
8
0
10
0.000000
20
0.000000
30
0.0
40
3.5
1

3

2
PANE_WIDTH:0
70
0
0
ATTDEF
8
0
10
0.000000
20
0.000000
30
0.0
40
3.5
1

3

2
MIN_VETRO:0
70
0
0
ATTDEF
8
0
10
0.000000
20
0.000000
30
0.0
40
3.5
1

3

2
MAX_VETRO:0
70
0
0
ATTDEF
8
0
10
0.000000
20
0.000000
30
0.0
40
3.5
1

3

2
JX:0
70
0
0
ATTDEF
8
0
10
0.000000
20
0.000000
30
0.0
40
3.5
1

3

2
WX:0
70
0
0
ATTDEF
8
0
10
0.000000
20
0.000000
30
0.0
40
3.5
1

3

2
JY:0
70
0
0
ATTDEF
8
0
10
0.000000
20
0.000000
30
0.0
40
3.5
1

3

2
WY:0
70
0
0
ATTDEF
8
0
10
0.000000
20
0.000000
30
0.0
40
3.5
1

3

2
DESC:Marco GA lateral Galandage c/carril A.In
70
0
0
ATTDEF
8
0
10
0.000000
20
0.000000
30
0.0
40
3.5
1

3

2
DENS:1.8902
70
0
0
ATTDEF
8
0
10
0.000000
20
0.000000
30
0.0
40
3.5
1

3

2
TDEV:76.26
70
0
0
ATTDEF
8
0
10
0.000000
20
0.000000
30
0.0
40
3.5
1

3

2
TDEV2:0
70
0
0
ATTDEF
8
0
10
0.000000
20
0.000000
30
0.0
40
3.5
1

3

2
TDEV3:0
70
0
0
ATTDEF
8
0
10
0.000000
20
0.000000
30
0.0
40
3.5
1

3

2
TDEV4:0
70
0
0
ATTDEF
8
0
10
0.000000
20
0.000000
30
0.0
40
3.5
1

3

2
TDEV5:0
70
0
0
ATTDEF
8
0
10
0.000000
20
0.000000
30
0.0
40
3.5
1

3

2
PANE_WIDTH:0
70
0
0
ATTDEF
8
0
10
0.000000
20
0.000000
30
0.0
40
3.5
1

3

2
MIN_VETRO:0
70
0
0
ATTDEF
8
0
10
0.000000
20
0.000000
30
0.0
40
3.5
1

3

2
MAX_VETRO:0
70
0
0
ATTDEF
8
0
10
0.000000
20
0.000000
30
0.0
40
3.5
1

3

2
JX:0
70
0
0
ATTDEF
8
0
10
0.000000
20
0.000000
30
0.0
40
3.5
1

3

2
WX:0
70
0
0
ATTDEF
8
0
10
0.000000
20
0.000000
30
0.0
40
3.5
1

3

2
JY:0
70
0
0
ATTDEF
8
0
10
0.000000
20
0.000000
30
0.0
40
3.5
1

3

2
WY:0
70
0
0
ATTDEF
8
0
10
2998.665506
20
1313.378477
30
0.0
40
3.5
1

3

2
VC_START
70
0
0
ATTDEF
8
0
10
2996.090661
20
1294.178305
30
0.0
40
3.5
1

3

2
VC_END
70
0
0
ATTDEF
8
0
10
2994.340661
20
1294.178305
30
0.0
40
3.5
1

3

2
FP_LCS_ORIG
70
0
0
ATTDEF
8
0
10
3004.340661
20
1294.178305
30
0.0
40
3.5
1

3

2
FP_LCS_HOT
70
0
0
ATTDEF
8
0
10
2994.340661
20
1304.178305
30
0.0
40
3.5
1

3

2
FP_LCS_INTERN
70
0
0
ENDSEC
0
EOF
