0
SECTION
2
ENTITIES
0
LINE
8
0
10
64.905383
20
15.914207
30
0.0
11
64.905383
21
18.814207
31
0.0
0
ARC
8
0
10
64.605383
20
18.814207
30
0.0
40
0.300000
50
360.000000
51
90.000000
0
LINE
8
0
10
64.605383
20
19.114207
30
0.0
11
52.005438
21
19.114207
31
0.0
0
ARC
8
0
10
52.005383
20
18.814207
30
0.0
40
0.300000
50
90.000000
51
180.000000
0
LINE
8
0
10
51.705383
20
18.814207
30
0.0
11
51.705383
21
16.614207
31
0.0
0
ARC
8
0
10
51.205383
20
16.614207
30
0.0
40
0.500000
50
270.000000
51
360.000000
0
LINE
8
0
10
51.205383
20
16.114207
30
0.0
11
50.805383
21
16.114207
31
0.0
0
ARC
8
0
10
50.805383
20
16.614207
30
0.0
40
0.500000
50
180.000000
51
270.000000
0
LINE
8
0
10
50.305383
20
16.614207
30
0.0
11
50.305383
21
18.814207
31
0.0
0
ARC
8
0
10
50.005383
20
18.814207
30
0.0
40
0.300000
50
360.000000
51
90.000000
0
LINE
8
0
10
50.005329
20
19.114207
30
0.0
11
22.505383
21
19.114207
31
0.0
0
ARC
8
0
10
22.505383
20
18.814207
30
0.0
40
0.300000
50
90.000000
51
180.000000
0
LINE
8
0
10
22.205383
20
18.814207
30
0.0
11
22.205383
21
15.914207
31
0.0
0
ARC
8
0
10
22.505383
20
15.914207
30
0.0
40
0.300000
50
180.000000
51
270.000000
0
LINE
8
0
10
22.505383
20
15.614207
30
0.0
11
23.905383
21
15.614207
31
0.0
0
ARC
8
0
10
23.905383
20
15.314207
30
0.0
40
0.300000
50
360.000000
51
90.000000
0
LINE
8
0
10
24.205383
20
15.314207
30
0.0
11
24.205383
21
14.614207
31
0.0
0
ARC
8
0
10
23.705383
20
14.614207
30
0.0
40
0.500000
50
270.000000
51
360.000000
0
LINE
8
0
10
23.705383
20
14.114207
30
0.0
11
21.205383
21
14.114207
31
0.0
0
ARC
8
0
10
21.205383
20
14.614207
30
0.0
40
0.500000
50
180.000000
51
270.000000
0
LINE
8
0
10
20.705383
20
14.614207
30
0.0
11
20.705383
21
55.614207
31
0.0
0
ARC
8
0
10
21.205383
20
55.614207
30
0.0
40
0.500000
50
90.000000
51
180.000000
0
LINE
8
0
10
21.205383
20
56.114207
30
0.0
11
23.905383
21
56.114207
31
0.0
0
ARC
8
0
10
23.905383
20
55.614207
30
0.0
40
0.500000
50
360.000000
51
90.000000
0
LINE
8
0
10
24.405383
20
55.614207
30
0.0
11
24.405383
21
53.514207
31
0.0
0
ARC
8
0
10
23.855383
20
53.514207
30
0.0
40
0.550000
50
180.000000
51
360.000000
0
LINE
8
0
10
23.305383
20
53.514207
30
0.0
11
23.305383
21
54.514207
31
0.0
0
ARC
8
0
10
23.005383
20
54.514207
30
0.0
40
0.300000
50
360.000000
51
90.000000
0
LINE
8
0
10
23.005383
20
54.814207
30
0.0
11
22.405383
21
54.814207
31
0.0
0
ARC
8
0
10
22.405383
20
54.514207
30
0.0
40
0.300000
50
90.000000
51
180.000000
0
LINE
8
0
10
22.105383
20
54.514207
30
0.0
11
22.105383
21
47.514207
31
0.0
0
ARC
8
0
10
22.405383
20
47.514207
30
0.0
40
0.300000
50
180.000000
51
270.000000
0
LINE
8
0
10
22.405383
20
47.214207
30
0.0
11
23.005383
21
47.214207
31
0.0
0
ARC
8
0
10
23.005383
20
47.514207
30
0.0
40
0.300000
50
270.000000
51
360.000000
0
LINE
8
0
10
23.305383
20
47.514207
30
0.0
11
23.305383
21
48.514207
31
0.0
0
ARC
8
0
10
23.855383
20
48.514207
30
0.0
40
0.550000
50
360.000000
51
180.000000
0
LINE
8
0
10
24.405383
20
48.514207
30
0.0
11
24.405383
21
47.458634
31
0.0
0
ARC
8
0
10
24.705383
20
47.458634
30
0.0
40
0.300000
50
180.000000
51
238.411865
0
ARC
8
0
10
24.155383
20
46.564207
30
0.0
40
0.750000
50
360.000000
51
58.411864
0
LINE
8
0
10
24.905383
20
46.564207
30
0.0
11
24.905383
21
44.814207
31
0.0
0
ARC
8
0
10
24.605383
20
44.814207
30
0.0
40
0.300000
50
270.000000
51
360.000000
0
LINE
8
0
10
24.605383
20
44.514207
30
0.0
11
24.005383
21
44.514207
31
0.0
0
ARC
8
0
10
24.005383
20
44.814207
30
0.0
40
0.300000
50
180.000000
51
270.000000
0
LINE
8
0
10
23.705383
20
44.814207
30
0.0
11
23.705383
21
45.714207
31
0.0
0
ARC
8
0
10
23.405383
20
45.714207
30
0.0
40
0.300000
50
360.000000
51
90.000000
0
LINE
8
0
10
23.405383
20
46.014207
30
0.0
11
22.705383
21
46.014207
31
0.0
0
ARC
8
0
10
22.705383
20
45.714207
30
0.0
40
0.300000
50
90.000000
51
180.000000
0
LINE
8
0
10
22.405383
20
45.714207
30
0.0
11
22.405383
21
38.814207
31
0.0
0
ARC
8
0
10
22.705383
20
38.814207
30
0.0
40
0.300000
50
180.000000
51
270.000000
0
LINE
8
0
10
22.705383
20
38.514207
30
0.0
11
23.405383
21
38.514207
31
0.0
0
ARC
8
0
10
23.405383
20
38.814207
30
0.0
40
0.300000
50
270.000000
51
360.000000
0
LINE
8
0
10
23.705383
20
38.814207
30
0.0
11
23.705383
21
39.714207
31
0.0
0
ARC
8
0
10
24.005383
20
39.714207
30
0.0
40
0.300000
50
90.000000
51
180.000000
0
LINE
8
0
10
24.005383
20
40.014207
30
0.0
11
24.605383
21
40.014207
31
0.0
0
ARC
8
0
10
24.605383
20
39.714207
30
0.0
40
0.300000
50
360.000000
51
90.000000
0
LINE
8
0
10
24.905383
20
39.714207
30
0.0
11
24.905383
21
38.064207
31
0.0
0
ARC
8
0
10
24.155383
20
38.064207
30
0.0
40
0.750000
50
270.000000
51
360.000000
0
LINE
8
0
10
24.155383
20
37.314207
30
0.0
11
22.705383
21
37.314207
31
0.0
0
ARC
8
0
10
22.705383
20
37.014207
30
0.0
40
0.300000
50
90.000000
51
180.000000
0
LINE
8
0
10
22.405383
20
37.014207
30
0.0
11
22.405383
21
31.814207
31
0.0
0
ARC
8
0
10
22.905383
20
31.814207
30
0.0
40
0.500000
50
180.000000
51
270.000000
0
LINE
8
0
10
22.905383
20
31.314207
30
0.0
11
40.490412
21
31.314207
31
0.0
0
ARC
8
0
10
40.490412
20
32.314207
30
0.0
40
1.000000
50
270.000000
51
285.000000
0
LINE
8
0
10
40.749231
20
31.348281
30
0.0
11
45.346564
21
32.580133
31
0.0
0
ARC
8
0
10
45.605383
20
31.614207
30
0.0
40
1.000000
50
75.000000
51
105.000000
0
LINE
8
0
10
45.864202
20
32.580133
30
0.0
11
50.461535
21
31.348281
31
0.0
0
ARC
8
0
10
50.720354
20
32.314207
30
0.0
40
1.000000
50
255.000000
51
270.000000
0
LINE
8
0
10
50.720354
20
31.314207
30
0.0
11
58.105383
21
31.314207
31
0.0
0
ARC
8
0
10
58.105383
20
30.814207
30
0.0
40
0.500000
50
360.000000
51
90.000000
0
LINE
8
0
10
58.605383
20
30.814207
30
0.0
11
58.605383
21
29.435142
31
0.0
0
ARC
8
0
10
59.105383
20
29.435142
30
0.0
40
0.500000
50
180.000000
51
270.000000
0
LINE
8
0
10
59.105383
20
28.935142
30
0.0
11
61.767298
21
28.935142
31
0.0
0
LINE
8
0
10
61.767298
20
28.935142
30
0.0
11
61.855166
21
28.847274
31
0.0
0
ARC
8
0
10
62.067298
20
29.059406
30
0.0
40
0.300000
50
225.000000
51
315.000000
0
LINE
8
0
10
62.279430
20
28.847274
30
0.0
11
62.367298
21
28.935142
31
0.0
0
LINE
8
0
10
62.367298
20
28.935142
30
0.0
11
65.105383
21
28.935142
31
0.0
0
ARC
8
0
10
65.105383
20
29.435142
30
0.0
40
0.500000
50
270.000000
51
360.000000
0
ARC
8
0
10
66.105383
20
29.435142
30
0.0
40
0.500000
50
90.000000
51
180.000000
0
LINE
8
0
10
66.105383
20
29.935142
30
0.0
11
67.496879
21
29.935142
31
0.0
0
ARC
8
0
10
67.496879
20
29.635142
30
0.0
40
0.300000
50
35.152390
51
90.000000
0
ARC
8
0
10
68.355383
20
30.239683
30
0.0
40
0.750000
50
215.152390
51
233.438974
0
LINE
8
0
10
67.908624
20
29.637266
30
0.0
11
68.178025
21
29.437476
31
0.0
0
ARC
8
0
10
69.369382
20
31.043922
30
0.0
40
2.000000
50
233.438974
51
322.581803
0
ARC
8
0
10
71.354936
20
29.524851
30
0.0
40
0.500000
50
90.000000
51
142.581803
0
LINE
8
0
10
71.354936
20
30.024851
30
0.0
11
72.043733
21
30.024851
31
0.0
0
ARC
8
0
10
72.043733
20
29.724851
30
0.0
40
0.300000
50
329.797281
51
90.000000
0
LINE
8
0
10
72.303008
20
29.573933
30
0.0
11
70.709189
21
26.835777
31
0.0
0
ARC
8
0
10
70.449914
20
26.986696
30
0.0
40
0.300000
50
301.250114
51
329.797281
0
LINE
8
0
10
70.605546
20
26.730222
30
0.0
11
69.969271
21
26.344120
31
0.0
0
ARC
8
0
10
69.893727
20
26.468612
30
0.0
40
0.145621
50
180.000000
51
301.250114
0
LINE
8
0
10
69.748403
20
26.477905
30
0.0
11
69.758332
21
26.633170
31
0.0
0
ARC
8
0
10
69.558739
20
26.645933
30
0.0
40
0.200000
50
356.341100
51
49.517123
0
LINE
8
0
10
69.688584
20
26.798053
30
0.0
11
68.084382
21
28.167342
31
0.0
0
ARC
8
0
10
67.889615
20
27.939162
30
0.0
40
0.300000
50
49.517123
51
71.341100
0
LINE
8
0
10
67.985595
20
28.223394
30
0.0
11
67.701363
21
28.319374
31
0.0
0
ARC
8
0
10
67.605383
20
28.035142
30
0.0
40
0.300000
50
71.341100
51
270.000000
0
LINE
8
0
10
67.605383
20
27.735142
30
0.0
11
67.605383
21
23.235142
31
0.0
0
ARC
8
0
10
67.805383
20
23.235142
30
0.0
40
0.200000
50
180.000000
51
270.000000
0
LINE
8
0
10
67.805383
20
23.035142
30
0.0
11
67.873272
21
23.035142
31
0.0
0
ARC
8
0
10
67.873272
20
23.335142
30
0.0
40
0.300000
50
270.000000
51
301.380132
0
LINE
8
0
10
68.029486
20
23.079023
30
0.0
11
69.705479
21
24.101256
31
0.0
0
ARC
8
0
10
69.905383
20
24.107446
30
0.0
40
0.200000
50
360.000000
51
180.000000
0
LINE
8
0
10
70.105383
20
24.107446
30
0.0
11
70.105383
21
23.032444
31
0.0
0
ARC
8
0
10
69.105383
20
23.032444
30
0.0
40
1.000000
50
301.380132
51
360.000000
0
LINE
8
0
10
69.626097
20
22.178713
30
0.0
11
69.345026
21
22.007281
31
0.0
0
ARC
8
0
10
69.605383
20
21.580415
30
0.0
40
0.500000
50
121.380132
51
180.000000
0
LINE
8
0
10
69.105383
20
21.580415
30
0.0
11
69.105383
21
20.062839
31
0.0
0
ARC
8
0
10
68.905383
20
20.062839
30
0.0
40
0.200000
50
180.000000
51
360.000000
0
LINE
8
0
10
68.705479
20
20.069029
30
0.0
11
67.029486
21
21.091262
31
0.0
0
ARC
8
0
10
66.873272
20
20.835142
30
0.0
40
0.300000
50
58.619868
51
90.000000
0
LINE
8
0
10
66.873272
20
21.135142
30
0.0
11
66.805383
21
21.135142
31
0.0
0
ARC
8
0
10
66.805383
20
20.935142
30
0.0
40
0.200000
50
90.000000
51
180.000000
0
LINE
8
0
10
66.605383
20
20.935142
30
0.0
11
66.605383
21
16.435142
31
0.0
0
ARC
8
0
10
66.605383
20
16.135142
30
0.0
40
0.300000
50
90.000000
51
288.658900
0
LINE
8
0
10
66.701363
20
15.850910
30
0.0
11
66.985595
21
15.946890
31
0.0
0
ARC
8
0
10
66.889615
20
16.231122
30
0.0
40
0.300000
50
288.658900
51
310.482877
0
LINE
8
0
10
67.084382
20
16.002942
30
0.0
11
68.688584
21
17.372232
31
0.0
0
ARC
8
0
10
68.558739
20
17.524352
30
0.0
40
0.200000
50
310.482877
51
3.658900
0
LINE
8
0
10
68.758332
20
17.537115
30
0.0
11
68.748403
21
17.692380
31
0.0
0
ARC
8
0
10
68.893727
20
17.701673
30
0.0
40
0.145621
50
43.978161
51
180.000000
0
LINE
8
0
10
68.998516
20
17.802789
30
0.0
11
69.458684
21
17.325908
31
0.0
0
LINE
8
0
10
69.501298
20
17.269844
30
0.0
11
69.458684
21
17.325908
31
0.0
0
LINE
8
0
10
69.501298
20
17.269844
30
0.0
11
70.925001
21
14.852645
31
0.0
0
ARC
8
0
10
70.666506
20
14.700394
30
0.0
40
0.300000
50
270.000000
51
30.497622
0
LINE
8
0
10
70.666506
20
14.400394
30
0.0
11
69.977710
21
14.400394
31
0.0
0
ARC
8
0
10
69.977710
20
14.900394
30
0.0
40
0.500000
50
226.465725
51
270.000000
0
ARC
8
0
10
68.255739
20
13.087988
30
0.0
40
2.000000
50
46.465725
51
136.077973
0
ARC
8
0
10
67.355383
20
13.955086
30
0.0
40
0.750000
50
136.077973
51
154.070945
0
ARC
8
0
10
66.411080
20
14.414207
30
0.0
40
0.300000
50
270.000000
51
334.070945
0
LINE
8
0
10
66.411080
20
14.114207
30
0.0
11
63.605383
21
14.114207
31
0.0
0
ARC
8
0
10
63.605383
20
14.614207
30
0.0
40
0.500000
50
180.000000
51
270.000000
0
LINE
8
0
10
63.105383
20
14.614207
30
0.0
11
63.105383
21
15.314207
31
0.0
0
ARC
8
0
10
63.405383
20
15.314207
30
0.0
40
0.300000
50
90.000000
51
180.000000
0
LINE
8
0
10
63.405383
20
15.614207
30
0.0
11
64.605383
21
15.614207
31
0.0
0
ARC
8
0
10
64.605383
20
15.914207
30
0.0
40
0.300000
50
270.000000
51
360.000000
0
LINE
8
0
10
25.405383
20
29.514207
30
0.0
11
25.629806
21
29.663822
31
0.0
0
ARC
8
0
10
25.796216
20
29.414207
30
0.0
40
0.300000
50
90.000000
51
123.690068
0
LINE
8
0
10
25.796216
20
29.714207
30
0.0
11
43.014551
21
29.714207
31
0.0
0
ARC
8
0
10
43.014551
20
29.414207
30
0.0
40
0.300000
50
56.309932
51
90.000000
0
LINE
8
0
10
43.180961
20
29.663822
30
0.0
11
43.405383
21
29.514207
31
0.0
0
LINE
8
0
10
43.405383
20
29.514207
30
0.0
11
46.405383
21
29.514207
31
0.0
0
LINE
8
0
10
46.405383
20
29.514207
30
0.0
11
46.405383
21
27.514207
31
0.0
0
LINE
8
0
10
46.405383
20
27.514207
30
0.0
11
47.605383
21
27.514207
31
0.0
0
ARC
8
0
10
47.605383
20
28.014207
30
0.0
40
0.500000
50
270.000000
51
360.000000
0
LINE
8
0
10
48.105383
20
28.014207
30
0.0
11
48.105383
21
28.614207
31
0.0
0
ARC
8
0
10
48.605383
20
28.614207
30
0.0
40
0.500000
50
90.000000
51
180.000000
0
LINE
8
0
10
48.605383
20
29.114207
30
0.0
11
56.605383
21
29.114207
31
0.0
0
ARC
8
0
10
56.605383
20
28.614207
30
0.0
40
0.500000
50
360.000000
51
90.000000
0
LINE
8
0
10
57.105383
20
28.614207
30
0.0
11
57.105383
21
27.735142
31
0.0
0
ARC
8
0
10
57.605383
20
27.735142
30
0.0
40
0.500000
50
180.000000
51
270.000000
0
LINE
8
0
10
57.605383
20
27.235142
30
0.0
11
65.105383
21
27.235142
31
0.0
0
ARC
8
0
10
65.105383
20
26.735142
30
0.0
40
0.500000
50
360.000000
51
90.000000
0
LINE
8
0
10
65.605383
20
26.735142
30
0.0
11
65.605383
21
23.151658
31
0.0
0
ARC
8
0
10
65.105383
20
23.151658
30
0.0
40
0.500000
50
293.578179
51
360.000000
0
ARC
8
0
10
65.505383
20
22.235142
30
0.0
40
0.500000
50
113.578178
51
180.000000
0
LINE
8
0
10
65.005383
20
22.235142
30
0.0
11
65.005383
21
21.014207
31
0.0
0
ARC
8
0
10
64.505383
20
21.014207
30
0.0
40
0.500000
50
270.000000
51
360.000000
0
LINE
8
0
10
64.505383
20
20.514207
30
0.0
11
22.405383
21
20.514207
31
0.0
0
LINE
8
0
10
22.405383
20
20.514207
30
0.0
11
22.405383
21
29.514207
31
0.0
0
LINE
8
0
10
22.405383
20
29.514207
30
0.0
11
25.405383
21
29.514207
31
0.0
0
ARC
8
0
10
92.605383
20
15.914207
30
0.0
40
0.300000
50
180.000000
51
270.000000
0
LINE
8
0
10
92.605383
20
15.614207
30
0.0
11
93.805383
21
15.614207
31
0.0
0
ARC
8
0
10
93.805383
20
15.314207
30
0.0
40
0.300000
50
360.000000
51
90.000000
0
LINE
8
0
10
94.105383
20
15.314207
30
0.0
11
94.105383
21
14.614207
31
0.0
0
ARC
8
0
10
93.605383
20
14.614207
30
0.0
40
0.500000
50
270.000000
51
360.000000
0
LINE
8
0
10
93.605383
20
14.114207
30
0.0
11
90.903060
21
14.114207
31
0.0
0
ARC
8
0
10
90.903060
20
14.414207
30
0.0
40
0.300000
50
184.368104
51
270.000000
0
ARC
8
0
10
90.105383
20
14.353276
30
0.0
40
0.500000
50
4.368104
51
82.906671
0
LINE
8
0
10
90.167126
20
14.849449
30
0.0
11
89.045142
21
15.375961
31
0.0
0
ARC
8
0
10
88.888908
20
13.582754
30
0.0
40
1.800000
50
85.020673
51
144.279610
0
LINE
8
0
10
87.427532
20
14.633648
30
0.0
11
86.374737
21
14.663492
31
0.0
0
ARC
8
0
10
86.378122
20
14.963517
30
0.0
40
0.300000
50
161.748585
51
267.394588
0
LINE
8
0
10
86.093214
20
15.057473
30
0.0
11
88.157502
21
17.723914
31
0.0
0
ARC
8
0
10
88.272649
20
17.634770
30
0.0
40
0.145621
50
360.000000
51
142.253920
0
LINE
8
0
10
88.418181
20
17.629688
30
0.0
11
88.412751
21
17.474201
31
0.0
0
ARC
8
0
10
88.612629
20
17.467221
30
0.0
40
0.200000
50
180.000000
51
239.256452
0
LINE
8
0
10
88.510390
20
17.295328
30
0.0
11
90.041650
21
16.338434
31
0.0
0
ARC
8
0
10
90.318492
20
16.222854
30
0.0
40
0.300000
50
157.339688
51
253.000000
0
LINE
8
0
10
90.230780
20
15.935963
30
0.0
11
90.605383
21
15.835142
31
0.0
0
ARC
8
0
10
90.605383
20
16.135142
30
0.0
40
0.300000
50
270.000000
51
66.419583
0
ARC
8
0
10
90.805383
20
16.593400
30
0.0
40
0.200000
50
180.000000
51
246.425179
0
LINE
8
0
10
90.605383
20
16.593400
30
0.0
11
90.605383
21
20.935142
31
0.0
0
ARC
8
0
10
90.405383
20
20.935142
30
0.0
40
0.200000
50
360.000000
51
90.000000
0
LINE
8
0
10
90.405383
20
21.135142
30
0.0
11
90.337495
21
21.135142
31
0.0
0
ARC
8
0
10
90.337495
20
20.835142
30
0.0
40
0.300000
50
90.000000
51
121.380132
0
LINE
8
0
10
90.181280
20
21.091262
30
0.0
11
88.505287
21
20.069029
31
0.0
0
ARC
8
0
10
88.305383
20
20.062839
30
0.0
40
0.200000
50
180.000000
51
360.000000
0
LINE
8
0
10
88.105383
20
20.062839
30
0.0
11
88.105383
21
21.580415
31
0.0
0
ARC
8
0
10
87.605383
20
21.580415
30
0.0
40
0.500000
50
360.000000
51
58.619868
0
LINE
8
0
10
87.865740
20
22.007281
30
0.0
11
87.584670
21
22.178713
31
0.0
0
ARC
8
0
10
88.105383
20
23.032444
30
0.0
40
1.000000
50
180.000000
51
238.619868
0
LINE
8
0
10
87.105383
20
23.032444
30
0.0
11
87.105383
21
24.107446
31
0.0
0
ARC
8
0
10
87.305383
20
24.107446
30
0.0
40
0.200000
50
360.000000
51
180.000000
0
LINE
8
0
10
87.505287
20
24.101256
30
0.0
11
89.181280
21
23.079023
31
0.0
0
ARC
8
0
10
89.337495
20
23.335142
30
0.0
40
0.300000
50
238.619868
51
270.000000
0
LINE
8
0
10
89.337495
20
23.035142
30
0.0
11
89.405383
21
23.035142
31
0.0
0
ARC
8
0
10
89.405383
20
23.235142
30
0.0
40
0.200000
50
270.000000
51
360.000000
0
LINE
8
0
10
89.605383
20
23.235142
30
0.0
11
89.605383
21
27.576885
31
0.0
0
ARC
8
0
10
89.805383
20
27.576885
30
0.0
40
0.200000
50
113.574821
51
180.000000
0
ARC
8
0
10
89.605383
20
28.035142
30
0.0
40
0.300000
50
293.580417
51
90.000000
0
LINE
8
0
10
89.605383
20
28.335142
30
0.0
11
89.230780
21
28.234322
31
0.0
0
ARC
8
0
10
89.318492
20
27.947431
30
0.0
40
0.300000
50
107.000000
51
202.660312
0
LINE
8
0
10
89.041650
20
27.831851
30
0.0
11
87.510390
21
26.874956
31
0.0
0
ARC
8
0
10
87.612629
20
26.703064
30
0.0
40
0.200000
50
120.743548
51
180.000000
0
LINE
8
0
10
87.412751
20
26.696084
30
0.0
11
87.418181
21
26.540597
31
0.0
0
ARC
8
0
10
87.272649
20
26.535515
30
0.0
40
0.145621
50
217.746080
51
360.000000
0
LINE
8
0
10
87.157502
20
26.446371
30
0.0
11
85.093214
21
29.112812
31
0.0
0
ARC
8
0
10
85.378122
20
29.206768
30
0.0
40
0.300000
50
92.605413
51
198.251415
0
LINE
8
0
10
85.374737
20
29.506793
30
0.0
11
86.427532
21
29.536637
31
0.0
0
ARC
8
0
10
87.888908
20
30.587531
30
0.0
40
1.800000
50
215.720390
51
274.979327
0
LINE
8
0
10
88.045142
20
28.794324
30
0.0
11
89.247083
21
29.330785
31
0.0
0
ARC
8
0
10
89.185340
20
29.826958
30
0.0
40
0.500000
50
277.093329
51
336.932459
0
ARC
8
0
10
90.105383
20
29.435142
30
0.0
40
0.500000
50
90.000000
51
156.932459
0
LINE
8
0
10
90.105383
20
29.935142
30
0.0
11
91.105383
21
29.935142
31
0.0
0
ARC
8
0
10
91.105383
20
29.435142
30
0.0
40
0.500000
50
360.000000
51
90.000000
0
ARC
8
0
10
92.105383
20
29.435142
30
0.0
40
0.500000
50
180.000000
51
270.000000
0
LINE
8
0
10
92.105383
20
28.935142
30
0.0
11
94.843469
21
28.935142
31
0.0
0
LINE
8
0
10
94.843469
20
28.935142
30
0.0
11
94.931337
21
28.847274
31
0.0
0
ARC
8
0
10
95.143469
20
29.059406
30
0.0
40
0.300000
50
225.000000
51
315.000000
0
LINE
8
0
10
95.355601
20
28.847274
30
0.0
11
95.443469
21
28.935142
31
0.0
0
LINE
8
0
10
95.443469
20
28.935142
30
0.0
11
98.105383
21
28.935142
31
0.0
0
ARC
8
0
10
98.105383
20
29.435142
30
0.0
40
0.500000
50
270.000000
51
360.000000
0
LINE
8
0
10
98.605383
20
29.435142
30
0.0
11
98.605383
21
30.814207
31
0.0
0
ARC
8
0
10
99.105383
20
30.814207
30
0.0
40
0.500000
50
90.000000
51
180.000000
0
LINE
8
0
10
99.105383
20
31.314207
30
0.0
11
106.490412
21
31.314207
31
0.0
0
ARC
8
0
10
106.490412
20
32.314207
30
0.0
40
1.000000
50
270.000000
51
285.000000
0
LINE
8
0
10
106.749231
20
31.348281
30
0.0
11
111.346564
21
32.580133
31
0.0
0
ARC
8
0
10
111.605383
20
31.614207
30
0.0
40
1.000000
50
75.000000
51
105.000000
0
LINE
8
0
10
111.864202
20
32.580133
30
0.0
11
116.461535
21
31.348281
31
0.0
0
ARC
8
0
10
116.720354
20
32.314207
30
0.0
40
1.000000
50
255.000000
51
270.000000
0
LINE
8
0
10
116.720354
20
31.314207
30
0.0
11
124.105383
21
31.314207
31
0.0
0
ARC
8
0
10
124.105383
20
30.814207
30
0.0
40
0.500000
50
360.000000
51
90.000000
0
LINE
8
0
10
124.605383
20
30.814207
30
0.0
11
124.605383
21
29.435142
31
0.0
0
ARC
8
0
10
125.105383
20
29.435142
30
0.0
40
0.500000
50
180.000000
51
270.000000
0
LINE
8
0
10
125.105383
20
28.935142
30
0.0
11
127.767298
21
28.935142
31
0.0
0
LINE
8
0
10
127.767298
20
28.935142
30
0.0
11
127.855166
21
28.847274
31
0.0
0
ARC
8
0
10
128.067298
20
29.059406
30
0.0
40
0.300000
50
225.000000
51
315.000000
0
LINE
8
0
10
128.279430
20
28.847274
30
0.0
11
128.367298
21
28.935142
31
0.0
0
LINE
8
0
10
128.367298
20
28.935142
30
0.0
11
131.105383
21
28.935142
31
0.0
0
ARC
8
0
10
131.105383
20
29.435142
30
0.0
40
0.500000
50
270.000000
51
360.000000
0
ARC
8
0
10
132.105383
20
29.435142
30
0.0
40
0.500000
50
90.000000
51
180.000000
0
LINE
8
0
10
132.105383
20
29.935142
30
0.0
11
133.105383
21
29.935142
31
0.0
0
ARC
8
0
10
133.105383
20
29.435142
30
0.0
40
0.500000
50
23.067541
51
90.000000
0
ARC
8
0
10
134.025427
20
29.826958
30
0.0
40
0.500000
50
203.067541
51
262.906671
0
LINE
8
0
10
133.963684
20
29.330785
30
0.0
11
135.165625
21
28.794324
31
0.0
0
ARC
8
0
10
135.321858
20
30.587531
30
0.0
40
1.800000
50
265.020673
51
324.279610
0
LINE
8
0
10
136.783235
20
29.536637
30
0.0
11
137.836030
21
29.506793
31
0.0
0
ARC
8
0
10
137.832645
20
29.206768
30
0.0
40
0.300000
50
341.748585
51
87.394587
0
LINE
8
0
10
138.117552
20
29.112812
30
0.0
11
136.053265
21
26.446371
31
0.0
0
ARC
8
0
10
135.938118
20
26.535515
30
0.0
40
0.145621
50
180.000000
51
322.253920
0
LINE
8
0
10
135.792586
20
26.540597
30
0.0
11
135.798015
21
26.696084
31
0.0
0
ARC
8
0
10
135.598137
20
26.703064
30
0.0
40
0.200000
50
360.000000
51
59.256452
0
LINE
8
0
10
135.700377
20
26.874956
30
0.0
11
134.169116
21
27.831851
31
0.0
0
ARC
8
0
10
133.892275
20
27.947431
30
0.0
40
0.300000
50
337.339688
51
73.000000
0
LINE
8
0
10
133.979986
20
28.234322
30
0.0
11
133.605383
21
28.335142
31
0.0
0
ARC
8
0
10
133.605383
20
28.035142
30
0.0
40
0.300000
50
90.000000
51
246.419583
0
ARC
8
0
10
133.405383
20
27.576885
30
0.0
40
0.200000
50
360.000000
51
66.425179
0
LINE
8
0
10
133.605383
20
27.576885
30
0.0
11
133.605383
21
23.235142
31
0.0
0
ARC
8
0
10
133.805383
20
23.235142
30
0.0
40
0.200000
50
180.000000
51
270.000000
0
LINE
8
0
10
133.805383
20
23.035142
30
0.0
11
133.873272
21
23.035142
31
0.0
0
ARC
8
0
10
133.873272
20
23.335142
30
0.0
40
0.300000
50
270.000000
51
301.380132
0
LINE
8
0
10
134.029486
20
23.079023
30
0.0
11
135.705479
21
24.101256
31
0.0
0
ARC
8
0
10
135.905383
20
24.107446
30
0.0
40
0.200000
50
360.000000
51
180.000000
0
LINE
8
0
10
136.105383
20
24.107446
30
0.0
11
136.105383
21
23.032444
31
0.0
0
ARC
8
0
10
135.105383
20
23.032444
30
0.0
40
1.000000
50
301.380132
51
360.000000
0
LINE
8
0
10
135.626097
20
22.178713
30
0.0
11
135.345026
21
22.007281
31
0.0
0
ARC
8
0
10
135.605383
20
21.580415
30
0.0
40
0.500000
50
121.380132
51
180.000000
0
LINE
8
0
10
135.105383
20
21.580415
30
0.0
11
135.105383
21
20.062839
31
0.0
0
ARC
8
0
10
134.905383
20
20.062839
30
0.0
40
0.200000
50
180.000000
51
360.000000
0
LINE
8
0
10
134.705479
20
20.069029
30
0.0
11
133.029486
21
21.091262
31
0.0
0
ARC
8
0
10
132.873272
20
20.835142
30
0.0
40
0.300000
50
58.619868
51
90.000000
0
LINE
8
0
10
132.873272
20
21.135142
30
0.0
11
132.805383
21
21.135142
31
0.0
0
ARC
8
0
10
132.805383
20
20.935142
30
0.0
40
0.200000
50
90.000000
51
180.000000
0
LINE
8
0
10
132.605383
20
20.935142
30
0.0
11
132.605383
21
16.593400
31
0.0
0
ARC
8
0
10
132.405383
20
16.593400
30
0.0
40
0.200000
50
293.574821
51
360.000000
0
ARC
8
0
10
132.605383
20
16.135142
30
0.0
40
0.300000
50
113.580417
51
270.000000
0
LINE
8
0
10
132.605383
20
15.835142
30
0.0
11
132.979986
21
15.935963
31
0.0
0
ARC
8
0
10
132.892275
20
16.222854
30
0.0
40
0.300000
50
287.000000
51
22.660312
0
LINE
8
0
10
133.169116
20
16.338434
30
0.0
11
134.700377
21
17.295328
31
0.0
0
ARC
8
0
10
134.598137
20
17.467221
30
0.0
40
0.200000
50
300.743548
51
360.000000
0
LINE
8
0
10
134.798015
20
17.474201
30
0.0
11
134.792586
21
17.629688
31
0.0
0
ARC
8
0
10
134.938118
20
17.634770
30
0.0
40
0.145621
50
37.746080
51
180.000000
0
LINE
8
0
10
135.053265
20
17.723914
30
0.0
11
137.117552
21
15.057473
31
0.0
0
ARC
8
0
10
136.832645
20
14.963517
30
0.0
40
0.300000
50
272.605413
51
18.251415
0
LINE
8
0
10
136.836030
20
14.663492
30
0.0
11
135.783235
21
14.633648
31
0.0
0
ARC
8
0
10
134.321858
20
13.582754
30
0.0
40
1.800000
50
35.720390
51
94.979327
0
LINE
8
0
10
134.165625
20
15.375961
30
0.0
11
133.043640
21
14.849449
31
0.0
0
ARC
8
0
10
133.105383
20
14.353276
30
0.0
40
0.500000
50
97.093329
51
175.631896
0
ARC
8
0
10
132.307707
20
14.414207
30
0.0
40
0.300000
50
270.000000
51
355.631896
0
LINE
8
0
10
132.307707
20
14.114207
30
0.0
11
129.605383
21
14.114207
31
0.0
0
ARC
8
0
10
129.605383
20
14.614207
30
0.0
40
0.500000
50
180.000000
51
270.000000
0
LINE
8
0
10
129.105383
20
14.614207
30
0.0
11
129.105383
21
15.314207
31
0.0
0
ARC
8
0
10
129.405383
20
15.314207
30
0.0
40
0.300000
50
90.000000
51
180.000000
0
LINE
8
0
10
129.405383
20
15.614207
30
0.0
11
130.605383
21
15.614207
31
0.0
0
ARC
8
0
10
130.605383
20
15.914207
30
0.0
40
0.300000
50
270.000000
51
360.000000
0
LINE
8
0
10
130.905383
20
15.914207
30
0.0
11
130.905383
21
16.815142
31
0.0
0
ARC
8
0
10
130.605383
20
16.815142
30
0.0
40
0.300000
50
360.000000
51
90.000000
0
LINE
8
0
10
130.605383
20
17.115142
30
0.0
11
92.605383
21
17.115142
31
0.0
0
ARC
8
0
10
92.605383
20
16.815142
30
0.0
40
0.300000
50
90.000000
51
180.000000
0
LINE
8
0
10
92.305383
20
16.815142
30
0.0
11
92.305383
21
15.914207
31
0.0
0
LINE
8
0
10
120.605383
20
29.014207
30
0.0
11
120.605383
21
28.515142
31
0.0
0
ARC
8
0
10
121.605383
20
28.515142
30
0.0
40
1.000000
50
180.000000
51
270.000000
0
LINE
8
0
10
121.605383
20
27.515142
30
0.0
11
123.605383
21
27.515142
31
0.0
0
LINE
8
0
10
123.605383
20
27.515142
30
0.0
11
123.605383
21
25.035142
31
0.0
0
LINE
8
0
10
123.605383
20
25.035142
30
0.0
11
124.905383
21
25.035142
31
0.0
0
ARC
8
0
10
124.905383
20
25.535142
30
0.0
40
0.500000
50
270.000000
51
360.000000
0
LINE
8
0
10
125.405383
20
25.535142
30
0.0
11
125.405383
21
26.735142
31
0.0
0
ARC
8
0
10
125.905383
20
26.735142
30
0.0
40
0.500000
50
90.000000
51
180.000000
0
LINE
8
0
10
125.905383
20
27.235142
30
0.0
11
131.105383
21
27.235142
31
0.0
0
ARC
8
0
10
131.105383
20
26.735142
30
0.0
40
0.500000
50
360.000000
51
90.000000
0
LINE
8
0
10
131.605383
20
26.735142
30
0.0
11
131.605383
21
23.151658
31
0.0
0
ARC
8
0
10
131.105383
20
23.151658
30
0.0
40
0.500000
50
293.578179
51
360.000000
0
ARC
8
0
10
131.505383
20
22.235142
30
0.0
40
0.500000
50
113.578178
51
180.000000
0
LINE
8
0
10
131.005383
20
22.235142
30
0.0
11
131.005383
21
19.015142
31
0.0
0
ARC
8
0
10
130.505383
20
19.015142
30
0.0
40
0.500000
50
270.000000
51
360.000000
0
LINE
8
0
10
130.505383
20
18.515142
30
0.0
11
92.705383
21
18.515142
31
0.0
0
ARC
8
0
10
92.705383
20
19.015142
30
0.0
40
0.500000
50
180.000000
51
270.000000
0
LINE
8
0
10
92.205383
20
19.015142
30
0.0
11
92.205383
21
22.235142
31
0.0
0
ARC
8
0
10
91.705383
20
22.235142
30
0.0
40
0.500000
50
360.000000
51
66.421822
0
ARC
8
0
10
92.105383
20
23.151658
30
0.0
40
0.500000
50
180.000000
51
246.421822
0
LINE
8
0
10
91.605383
20
23.151658
30
0.0
11
91.605383
21
26.735142
31
0.0
0
ARC
8
0
10
92.105383
20
26.735142
30
0.0
40
0.500000
50
90.000000
51
180.000000
0
LINE
8
0
10
92.105383
20
27.235142
30
0.0
11
97.305383
21
27.235142
31
0.0
0
ARC
8
0
10
97.305383
20
26.735142
30
0.0
40
0.500000
50
360.000000
51
90.000000
0
LINE
8
0
10
97.805383
20
26.735142
30
0.0
11
97.805383
21
25.535142
31
0.0
0
ARC
8
0
10
98.305383
20
25.535142
30
0.0
40
0.500000
50
180.000000
51
270.000000
0
LINE
8
0
10
98.305383
20
25.035142
30
0.0
11
99.605383
21
25.035142
31
0.0
0
LINE
8
0
10
99.605383
20
25.035142
30
0.0
11
99.605383
21
27.515142
31
0.0
0
LINE
8
0
10
99.605383
20
27.515142
30
0.0
11
101.605383
21
27.515142
31
0.0
0
ARC
8
0
10
101.605383
20
28.515142
30
0.0
40
1.000000
50
270.000000
51
360.000000
0
LINE
8
0
10
102.605383
20
28.515142
30
0.0
11
102.605383
21
29.014207
31
0.0
0
ARC
8
0
10
102.905383
20
29.014207
30
0.0
40
0.300000
50
90.000000
51
180.000000
0
LINE
8
0
10
102.905383
20
29.314207
30
0.0
11
120.305383
21
29.314207
31
0.0
0
ARC
8
0
10
120.305383
20
29.014207
30
0.0
40
0.300000
50
360.000000
51
90.000000
0
ARC
8
0
10
85.426105
20
15.164207
30
0.0
40
0.500000
50
270.000000
51
326.610000
0
LINE
8
0
10
85.426105
20
14.664207
30
0.0
11
78.605383
21
14.664207
31
0.0
0
LINE
8
0
10
78.605383
20
14.664207
30
0.0
11
71.784662
21
14.664207
31
0.0
0
ARC
8
0
10
71.784662
20
15.164207
30
0.0
40
0.500000
50
213.390000
51
270.000000
0
LINE
8
0
10
71.367190
20
14.889040
30
0.0
11
69.736686
21
17.362768
31
0.0
0
ARC
8
0
10
69.176969
20
16.993842
30
0.0
40
0.670365
50
33.390000
51
120.039706
0
LINE
8
0
10
68.841384
20
17.574163
30
0.0
11
67.310234
21
16.688737
31
0.0
0
LINE
8
0
10
67.214263
20
16.664207
30
0.0
11
67.310234
21
16.688737
31
0.0
0
LINE
8
0
10
67.214263
20
16.664207
30
0.0
11
67.005383
21
16.664207
31
0.0
0
ARC
8
0
10
67.005383
20
17.064207
30
0.0
40
0.400000
50
180.000000
51
270.000000
0
LINE
8
0
10
66.605383
20
17.064207
30
0.0
11
66.605383
21
17.664207
31
0.0
0
LINE
8
0
10
66.605383
20
17.664207
30
0.0
11
66.705383
21
17.664207
31
0.0
0
LINE
8
0
10
66.705383
20
17.664207
30
0.0
11
66.705383
21
18.039207
31
0.0
0
ARC
8
0
10
66.905383
20
18.039207
30
0.0
40
0.200000
50
90.000000
51
180.000000
0
LINE
8
0
10
66.905383
20
18.239207
30
0.0
11
67.064910
21
18.239207
31
0.0
0
ARC
8
0
10
67.355383
20
18.764207
30
0.0
40
0.600000
50
241.044976
51
360.000000
0
ARC
8
0
10
67.355383
20
18.764207
30
0.0
40
0.600000
50
360.000000
51
118.955024
0
LINE
8
0
10
67.064910
20
19.289207
30
0.0
11
66.905383
21
19.289207
31
0.0
0
ARC
8
0
10
66.905383
20
19.489207
30
0.0
40
0.200000
50
180.000000
51
270.000000
0
LINE
8
0
10
66.705383
20
19.489207
30
0.0
11
66.705383
21
19.864207
31
0.0
0
LINE
8
0
10
66.705383
20
19.864207
30
0.0
11
66.605383
21
19.864207
31
0.0
0
LINE
8
0
10
66.605383
20
19.864207
30
0.0
11
66.605383
21
20.464207
31
0.0
0
ARC
8
0
10
67.005383
20
20.464207
30
0.0
40
0.400000
50
90.000000
51
180.000000
0
LINE
8
0
10
67.005383
20
20.864207
30
0.0
11
67.214263
21
20.864207
31
0.0
0
LINE
8
0
10
67.310234
20
20.839677
30
0.0
11
67.214263
21
20.864207
31
0.0
0
LINE
8
0
10
67.310234
20
20.839677
30
0.0
11
68.811273
21
19.971664
31
0.0
0
ARC
8
0
10
69.211753
20
20.664207
30
0.0
40
0.800000
50
239.960294
51
270.000000
0
LINE
8
0
10
69.211753
20
19.864207
30
0.0
11
69.944699
21
19.864207
31
0.0
0
ARC
8
0
10
69.944699
20
18.864207
30
0.0
40
1.000000
50
33.240000
51
90.000000
0
LINE
8
0
10
70.781081
20
19.412355
30
0.0
11
72.286024
21
17.116060
31
0.0
0
ARC
8
0
10
73.122406
20
17.664207
30
0.0
40
1.000000
50
213.240000
51
270.000000
0
LINE
8
0
10
73.122406
20
16.664207
30
0.0
11
78.605383
21
16.664207
31
0.0
0
LINE
8
0
10
78.605383
20
16.664207
30
0.0
11
83.937799
21
16.664207
31
0.0
0
LINE
8
0
10
83.937799
20
16.664207
30
0.0
11
84.088360
21
16.664207
31
0.0
0
ARC
8
0
10
84.088360
20
17.664207
30
0.0
40
1.000000
50
270.000000
51
326.760000
0
LINE
8
0
10
84.924742
20
17.116060
30
0.0
11
86.429686
21
19.412355
31
0.0
0
ARC
8
0
10
87.266068
20
18.864207
30
0.0
40
1.000000
50
90.000000
51
146.760000
0
LINE
8
0
10
87.266068
20
19.864207
30
0.0
11
87.999014
21
19.864207
31
0.0
0
ARC
8
0
10
87.999014
20
20.664207
30
0.0
40
0.800000
50
270.000000
51
300.039706
0
LINE
8
0
10
88.399494
20
19.971664
30
0.0
11
89.900533
21
20.839677
31
0.0
0
LINE
8
0
10
89.996503
20
20.864207
30
0.0
11
89.900533
21
20.839677
31
0.0
0
LINE
8
0
10
89.996503
20
20.864207
30
0.0
11
90.205383
21
20.864207
31
0.0
0
ARC
8
0
10
90.205383
20
20.464207
30
0.0
40
0.400000
50
360.000000
51
90.000000
0
LINE
8
0
10
90.605383
20
20.464207
30
0.0
11
90.605383
21
19.864207
31
0.0
0
LINE
8
0
10
90.605383
20
19.864207
30
0.0
11
90.505383
21
19.864207
31
0.0
0
LINE
8
0
10
90.505383
20
19.864207
30
0.0
11
90.505383
21
19.489207
31
0.0
0
ARC
8
0
10
90.305383
20
19.489207
30
0.0
40
0.200000
50
270.000000
51
360.000000
0
LINE
8
0
10
90.305383
20
19.289207
30
0.0
11
90.145857
21
19.289207
31
0.0
0
ARC
8
0
10
89.855383
20
18.764207
30
0.0
40
0.600000
50
61.044976
51
180.000000
0
ARC
8
0
10
89.855383
20
18.764207
30
0.0
40
0.600000
50
180.000000
51
298.955024
0
LINE
8
0
10
90.145857
20
18.239207
30
0.0
11
90.305383
21
18.239207
31
0.0
0
ARC
8
0
10
90.305383
20
18.039207
30
0.0
40
0.200000
50
360.000000
51
90.000000
0
LINE
8
0
10
90.505383
20
18.039207
30
0.0
11
90.505383
21
17.664207
31
0.0
0
LINE
8
0
10
90.505383
20
17.664207
30
0.0
11
90.605383
21
17.664207
31
0.0
0
LINE
8
0
10
90.605383
20
17.664207
30
0.0
11
90.605383
21
17.064207
31
0.0
0
ARC
8
0
10
90.205383
20
17.064207
30
0.0
40
0.400000
50
270.000000
51
360.000000
0
LINE
8
0
10
90.205383
20
16.664207
30
0.0
11
89.996503
21
16.664207
31
0.0
0
LINE
8
0
10
89.900533
20
16.688737
30
0.0
11
89.996503
21
16.664207
31
0.0
0
LINE
8
0
10
89.900533
20
16.688737
30
0.0
11
88.369383
21
17.574163
31
0.0
0
ARC
8
0
10
88.033798
20
16.993842
30
0.0
40
0.670365
50
59.960294
51
146.610000
0
LINE
8
0
10
87.474080
20
17.362768
30
0.0
11
85.843577
21
14.889040
31
0.0
0
ARC
8
0
10
83.445789
20
26.735142
30
0.0
40
0.500000
50
32.000000
51
90.000000
0
LINE
8
0
10
83.869813
20
27.000102
30
0.0
11
85.353213
21
24.626167
31
0.0
0
ARC
8
0
10
85.607627
20
24.785142
30
0.0
40
0.300000
50
212.000000
51
270.000000
0
LINE
8
0
10
85.607627
20
24.485142
30
0.0
11
86.631216
21
24.485142
31
0.0
0
ARC
8
0
10
86.631216
20
23.285142
30
0.0
40
1.200000
50
60.000000
51
90.000000
0
LINE
8
0
10
87.231216
20
24.324373
30
0.0
11
88.874999
21
23.375335
31
0.0
0
ARC
8
0
10
89.024999
20
23.635142
30
0.0
40
0.300000
50
240.000000
51
270.000000
0
LINE
8
0
10
89.024999
20
23.335142
30
0.0
11
89.205383
21
23.335142
31
0.0
0
ARC
8
0
10
89.205383
20
23.735142
30
0.0
40
0.400000
50
270.000000
51
360.000000
0
LINE
8
0
10
89.605383
20
23.735142
30
0.0
11
89.605383
21
24.335142
31
0.0
0
LINE
8
0
10
89.605383
20
24.335142
30
0.0
11
89.505383
21
24.335142
31
0.0
0
LINE
8
0
10
89.505383
20
24.335142
30
0.0
11
89.505383
21
24.710142
31
0.0
0
ARC
8
0
10
89.305383
20
24.710142
30
0.0
40
0.200000
50
360.000000
51
90.000000
0
LINE
8
0
10
89.305383
20
24.910142
30
0.0
11
89.145857
21
24.910142
31
0.0
0
ARC
8
0
10
88.855383
20
25.435142
30
0.0
40
0.600000
50
61.044976
51
298.955024
0
LINE
8
0
10
89.145857
20
25.960142
30
0.0
11
89.305383
21
25.960142
31
0.0
0
ARC
8
0
10
89.305383
20
26.160142
30
0.0
40
0.200000
50
270.000000
51
360.000000
0
LINE
8
0
10
89.505383
20
26.160142
30
0.0
11
89.505383
21
26.535142
31
0.0
0
LINE
8
0
10
89.505383
20
26.535142
30
0.0
11
89.605383
21
26.535142
31
0.0
0
LINE
8
0
10
89.605383
20
26.535142
30
0.0
11
89.605383
21
27.135142
31
0.0
0
ARC
8
0
10
89.205383
20
27.135142
30
0.0
40
0.400000
50
360.000000
51
90.000000
0
LINE
8
0
10
89.205383
20
27.535142
30
0.0
11
89.024999
21
27.535142
31
0.0
0
ARC
8
0
10
89.024999
20
27.235142
30
0.0
40
0.300000
50
90.000000
51
120.000000
0
LINE
8
0
10
88.874999
20
27.494950
30
0.0
11
87.231216
21
26.545912
31
0.0
0
ARC
8
0
10
86.631216
20
27.585142
30
0.0
40
1.200000
50
270.000000
51
300.000000
0
LINE
8
0
10
86.631216
20
26.385142
30
0.0
11
86.605383
21
26.385142
31
0.0
0
ARC
8
0
10
86.605383
20
26.585142
30
0.0
40
0.200000
50
212.000000
51
270.000000
0
LINE
8
0
10
86.435774
20
26.479159
30
0.0
11
84.923000
21
28.900102
31
0.0
0
ARC
8
0
10
84.498976
20
28.635142
30
0.0
40
0.500000
50
32.000000
51
90.000000
0
LINE
8
0
10
84.498976
20
29.135142
30
0.0
11
78.605383
21
29.135142
31
0.0
0
LINE
8
0
10
78.605383
20
29.135142
30
0.0
11
72.711790
21
29.135142
31
0.0
0
ARC
8
0
10
72.711790
20
28.635142
30
0.0
40
0.500000
50
90.000000
51
148.000000
0
LINE
8
0
10
72.287766
20
28.900102
30
0.0
11
70.774993
21
26.479159
31
0.0
0
ARC
8
0
10
70.605383
20
26.585142
30
0.0
40
0.200000
50
270.000000
51
328.000000
0
LINE
8
0
10
70.605383
20
26.385142
30
0.0
11
70.579550
21
26.385142
31
0.0
0
ARC
8
0
10
70.579550
20
27.585142
30
0.0
40
1.200000
50
240.000000
51
270.000000
0
LINE
8
0
10
69.979550
20
26.545912
30
0.0
11
68.335768
21
27.494950
31
0.0
0
ARC
8
0
10
68.185768
20
27.235142
30
0.0
40
0.300000
50
60.000000
51
90.000000
0
LINE
8
0
10
68.185768
20
27.535142
30
0.0
11
68.005383
21
27.535142
31
0.0
0
ARC
8
0
10
68.005383
20
27.135142
30
0.0
40
0.400000
50
90.000000
51
180.000000
0
LINE
8
0
10
67.605383
20
27.135142
30
0.0
11
67.605383
21
26.535142
31
0.0
0
LINE
8
0
10
67.605383
20
26.535142
30
0.0
11
67.705383
21
26.535142
31
0.0
0
LINE
8
0
10
67.705383
20
26.535142
30
0.0
11
67.705383
21
26.160142
31
0.0
0
ARC
8
0
10
67.905383
20
26.160142
30
0.0
40
0.200000
50
180.000000
51
270.000000
0
LINE
8
0
10
67.905383
20
25.960142
30
0.0
11
68.064910
21
25.960142
31
0.0
0
ARC
8
0
10
68.355383
20
25.435142
30
0.0
40
0.600000
50
241.044976
51
118.955024
0
LINE
8
0
10
68.064910
20
24.910142
30
0.0
11
67.905383
21
24.910142
31
0.0
0
ARC
8
0
10
67.905383
20
24.710142
30
0.0
40
0.200000
50
90.000000
51
180.000000
0
LINE
8
0
10
67.705383
20
24.710142
30
0.0
11
67.705383
21
24.335142
31
0.0
0
LINE
8
0
10
67.705383
20
24.335142
30
0.0
11
67.605383
21
24.335142
31
0.0
0
LINE
8
0
10
67.605383
20
24.335142
30
0.0
11
67.605383
21
23.735142
31
0.0
0
ARC
8
0
10
68.005383
20
23.735142
30
0.0
40
0.400000
50
180.000000
51
270.000000
0
LINE
8
0
10
68.005383
20
23.335142
30
0.0
11
68.185768
21
23.335142
31
0.0
0
ARC
8
0
10
68.185768
20
23.635142
30
0.0
40
0.300000
50
270.000000
51
300.000000
0
LINE
8
0
10
68.335768
20
23.375335
30
0.0
11
69.979550
21
24.324373
31
0.0
0
ARC
8
0
10
70.579550
20
23.285142
30
0.0
40
1.200000
50
90.000000
51
120.000000
0
LINE
8
0
10
70.579550
20
24.485142
30
0.0
11
71.603140
21
24.485142
31
0.0
0
ARC
8
0
10
71.603140
20
24.785142
30
0.0
40
0.300000
50
270.000000
51
328.000000
0
LINE
8
0
10
71.857554
20
24.626167
30
0.0
11
73.340953
21
27.000102
31
0.0
0
ARC
8
0
10
73.764978
20
26.735142
30
0.0
40
0.500000
50
90.000000
51
148.000000
0
LINE
8
0
10
73.764978
20
27.235142
30
0.0
11
78.605383
21
27.235142
31
0.0
0
LINE
8
0
10
78.605383
20
27.235142
30
0.0
11
83.445789
21
27.235142
31
0.0
0
ARC
8
0
10
151.426105
20
15.164207
30
0.0
40
0.500000
50
270.000000
51
326.610000
0
LINE
8
0
10
151.426105
20
14.664207
30
0.0
11
144.605383
21
14.664207
31
0.0
0
LINE
8
0
10
144.605383
20
14.664207
30
0.0
11
137.784662
21
14.664207
31
0.0
0
ARC
8
0
10
137.784662
20
15.164207
30
0.0
40
0.500000
50
213.390000
51
270.000000
0
LINE
8
0
10
137.367190
20
14.889040
30
0.0
11
135.736686
21
17.362768
31
0.0
0
ARC
8
0
10
135.176969
20
16.993842
30
0.0
40
0.670365
50
33.390000
51
120.039706
0
LINE
8
0
10
134.841384
20
17.574163
30
0.0
11
133.310234
21
16.688737
31
0.0
0
LINE
8
0
10
133.214263
20
16.664207
30
0.0
11
133.310234
21
16.688737
31
0.0
0
LINE
8
0
10
133.214263
20
16.664207
30
0.0
11
133.005383
21
16.664207
31
0.0
0
ARC
8
0
10
133.005383
20
17.064207
30
0.0
40
0.400000
50
180.000000
51
270.000000
0
LINE
8
0
10
132.605383
20
17.064207
30
0.0
11
132.605383
21
17.664207
31
0.0
0
LINE
8
0
10
132.605383
20
17.664207
30
0.0
11
132.705383
21
17.664207
31
0.0
0
LINE
8
0
10
132.705383
20
17.664207
30
0.0
11
132.705383
21
18.039207
31
0.0
0
ARC
8
0
10
132.905383
20
18.039207
30
0.0
40
0.200000
50
90.000000
51
180.000000
0
LINE
8
0
10
132.905383
20
18.239207
30
0.0
11
133.064910
21
18.239207
31
0.0
0
ARC
8
0
10
133.355383
20
18.764207
30
0.0
40
0.600000
50
241.044976
51
360.000000
0
ARC
8
0
10
133.355383
20
18.764207
30
0.0
40
0.600000
50
360.000000
51
118.955024
0
LINE
8
0
10
133.064910
20
19.289207
30
0.0
11
132.905383
21
19.289207
31
0.0
0
ARC
8
0
10
132.905383
20
19.489207
30
0.0
40
0.200000
50
180.000000
51
270.000000
0
LINE
8
0
10
132.705383
20
19.489207
30
0.0
11
132.705383
21
19.864207
31
0.0
0
LINE
8
0
10
132.705383
20
19.864207
30
0.0
11
132.605383
21
19.864207
31
0.0
0
LINE
8
0
10
132.605383
20
19.864207
30
0.0
11
132.605383
21
20.464207
31
0.0
0
ARC
8
0
10
133.005383
20
20.464207
30
0.0
40
0.400000
50
90.000000
51
180.000000
0
LINE
8
0
10
133.005383
20
20.864207
30
0.0
11
133.214263
21
20.864207
31
0.0
0
LINE
8
0
10
133.310234
20
20.839677
30
0.0
11
133.214263
21
20.864207
31
0.0
0
LINE
8
0
10
133.310234
20
20.839677
30
0.0
11
134.811273
21
19.971664
31
0.0
0
ARC
8
0
10
135.211753
20
20.664207
30
0.0
40
0.800000
50
239.960294
51
270.000000
0
LINE
8
0
10
135.211753
20
19.864207
30
0.0
11
135.944699
21
19.864207
31
0.0
0
ARC
8
0
10
135.944699
20
18.864207
30
0.0
40
1.000000
50
33.240000
51
90.000000
0
LINE
8
0
10
136.781081
20
19.412355
30
0.0
11
138.286024
21
17.116060
31
0.0
0
ARC
8
0
10
139.122406
20
17.664207
30
0.0
40
1.000000
50
213.240000
51
270.000000
0
LINE
8
0
10
139.122406
20
16.664207
30
0.0
11
144.605383
21
16.664207
31
0.0
0
LINE
8
0
10
144.605383
20
16.664207
30
0.0
11
149.937799
21
16.664207
31
0.0
0
LINE
8
0
10
149.937799
20
16.664207
30
0.0
11
150.088360
21
16.664207
31
0.0
0
ARC
8
0
10
150.088360
20
17.664207
30
0.0
40
1.000000
50
270.000000
51
326.760000
0
LINE
8
0
10
150.924742
20
17.116060
30
0.0
11
152.429686
21
19.412355
31
0.0
0
ARC
8
0
10
153.266068
20
18.864207
30
0.0
40
1.000000
50
90.000000
51
146.760000
0
LINE
8
0
10
153.266068
20
19.864207
30
0.0
11
153.999014
21
19.864207
31
0.0
0
ARC
8
0
10
153.999014
20
20.664207
30
0.0
40
0.800000
50
270.000000
51
300.039706
0
LINE
8
0
10
154.399494
20
19.971664
30
0.0
11
155.900533
21
20.839677
31
0.0
0
LINE
8
0
10
155.996503
20
20.864207
30
0.0
11
155.900533
21
20.839677
31
0.0
0
LINE
8
0
10
155.996503
20
20.864207
30
0.0
11
156.205383
21
20.864207
31
0.0
0
ARC
8
0
10
156.205383
20
20.464207
30
0.0
40
0.400000
50
360.000000
51
90.000000
0
LINE
8
0
10
156.605383
20
20.464207
30
0.0
11
156.605383
21
19.864207
31
0.0
0
LINE
8
0
10
156.605383
20
19.864207
30
0.0
11
156.505383
21
19.864207
31
0.0
0
LINE
8
0
10
156.505383
20
19.864207
30
0.0
11
156.505383
21
19.489207
31
0.0
0
ARC
8
0
10
156.305383
20
19.489207
30
0.0
40
0.200000
50
270.000000
51
360.000000
0
LINE
8
0
10
156.305383
20
19.289207
30
0.0
11
156.145857
21
19.289207
31
0.0
0
ARC
8
0
10
155.855383
20
18.764207
30
0.0
40
0.600000
50
61.044976
51
180.000000
0
ARC
8
0
10
155.855383
20
18.764207
30
0.0
40
0.600000
50
180.000000
51
298.955024
0
LINE
8
0
10
156.145857
20
18.239207
30
0.0
11
156.305383
21
18.239207
31
0.0
0
ARC
8
0
10
156.305383
20
18.039207
30
0.0
40
0.200000
50
360.000000
51
90.000000
0
LINE
8
0
10
156.505383
20
18.039207
30
0.0
11
156.505383
21
17.664207
31
0.0
0
LINE
8
0
10
156.505383
20
17.664207
30
0.0
11
156.605383
21
17.664207
31
0.0
0
LINE
8
0
10
156.605383
20
17.664207
30
0.0
11
156.605383
21
17.064207
31
0.0
0
ARC
8
0
10
156.205383
20
17.064207
30
0.0
40
0.400000
50
270.000000
51
360.000000
0
LINE
8
0
10
156.205383
20
16.664207
30
0.0
11
155.996503
21
16.664207
31
0.0
0
LINE
8
0
10
155.900533
20
16.688737
30
0.0
11
155.996503
21
16.664207
31
0.0
0
LINE
8
0
10
155.900533
20
16.688737
30
0.0
11
154.369383
21
17.574163
31
0.0
0
ARC
8
0
10
154.033798
20
16.993842
30
0.0
40
0.670365
50
59.960294
51
146.610000
0
LINE
8
0
10
153.474080
20
17.362768
30
0.0
11
151.843577
21
14.889040
31
0.0
0
ARC
8
0
10
149.445789
20
26.735142
30
0.0
40
0.500000
50
32.000000
51
90.000000
0
LINE
8
0
10
149.869813
20
27.000102
30
0.0
11
151.353213
21
24.626167
31
0.0
0
ARC
8
0
10
151.607627
20
24.785142
30
0.0
40
0.300000
50
212.000000
51
270.000000
0
LINE
8
0
10
151.607627
20
24.485142
30
0.0
11
152.631216
21
24.485142
31
0.0
0
ARC
8
0
10
152.631216
20
23.285142
30
0.0
40
1.200000
50
60.000000
51
90.000000
0
LINE
8
0
10
153.231216
20
24.324373
30
0.0
11
154.874999
21
23.375335
31
0.0
0
ARC
8
0
10
155.024999
20
23.635142
30
0.0
40
0.300000
50
240.000000
51
270.000000
0
LINE
8
0
10
155.024999
20
23.335142
30
0.0
11
155.205383
21
23.335142
31
0.0
0
ARC
8
0
10
155.205383
20
23.735142
30
0.0
40
0.400000
50
270.000000
51
360.000000
0
LINE
8
0
10
155.605383
20
23.735142
30
0.0
11
155.605383
21
24.335142
31
0.0
0
LINE
8
0
10
155.605383
20
24.335142
30
0.0
11
155.505383
21
24.335142
31
0.0
0
LINE
8
0
10
155.505383
20
24.335142
30
0.0
11
155.505383
21
24.710142
31
0.0
0
ARC
8
0
10
155.305383
20
24.710142
30
0.0
40
0.200000
50
360.000000
51
90.000000
0
LINE
8
0
10
155.305383
20
24.910142
30
0.0
11
155.145857
21
24.910142
31
0.0
0
ARC
8
0
10
154.855383
20
25.435142
30
0.0
40
0.600000
50
61.044976
51
298.955024
0
LINE
8
0
10
155.145857
20
25.960142
30
0.0
11
155.305383
21
25.960142
31
0.0
0
ARC
8
0
10
155.305383
20
26.160142
30
0.0
40
0.200000
50
270.000000
51
360.000000
0
LINE
8
0
10
155.505383
20
26.160142
30
0.0
11
155.505383
21
26.535142
31
0.0
0
LINE
8
0
10
155.505383
20
26.535142
30
0.0
11
155.605383
21
26.535142
31
0.0
0
LINE
8
0
10
155.605383
20
26.535142
30
0.0
11
155.605383
21
27.135142
31
0.0
0
ARC
8
0
10
155.205383
20
27.135142
30
0.0
40
0.400000
50
360.000000
51
90.000000
0
LINE
8
0
10
155.205383
20
27.535142
30
0.0
11
155.024999
21
27.535142
31
0.0
0
ARC
8
0
10
155.024999
20
27.235142
30
0.0
40
0.300000
50
90.000000
51
120.000000
0
LINE
8
0
10
154.874999
20
27.494950
30
0.0
11
153.231216
21
26.545912
31
0.0
0
ARC
8
0
10
152.631216
20
27.585142
30
0.0
40
1.200000
50
270.000000
51
300.000000
0
LINE
8
0
10
152.631216
20
26.385142
30
0.0
11
152.605383
21
26.385142
31
0.0
0
ARC
8
0
10
152.605383
20
26.585142
30
0.0
40
0.200000
50
212.000000
51
270.000000
0
LINE
8
0
10
152.435774
20
26.479159
30
0.0
11
150.923000
21
28.900102
31
0.0
0
ARC
8
0
10
150.498976
20
28.635142
30
0.0
40
0.500000
50
32.000000
51
90.000000
0
LINE
8
0
10
150.498976
20
29.135142
30
0.0
11
144.605383
21
29.135142
31
0.0
0
LINE
8
0
10
144.605383
20
29.135142
30
0.0
11
138.711790
21
29.135142
31
0.0
0
ARC
8
0
10
138.711790
20
28.635142
30
0.0
40
0.500000
50
90.000000
51
148.000000
0
LINE
8
0
10
138.287766
20
28.900102
30
0.0
11
136.774993
21
26.479159
31
0.0
0
ARC
8
0
10
136.605383
20
26.585142
30
0.0
40
0.200000
50
270.000000
51
328.000000
0
LINE
8
0
10
136.605383
20
26.385142
30
0.0
11
136.579550
21
26.385142
31
0.0
0
ARC
8
0
10
136.579550
20
27.585142
30
0.0
40
1.200000
50
240.000000
51
270.000000
0
LINE
8
0
10
135.979550
20
26.545912
30
0.0
11
134.335768
21
27.494950
31
0.0
0
ARC
8
0
10
134.185768
20
27.235142
30
0.0
40
0.300000
50
60.000000
51
90.000000
0
LINE
8
0
10
134.185768
20
27.535142
30
0.0
11
134.005383
21
27.535142
31
0.0
0
ARC
8
0
10
134.005383
20
27.135142
30
0.0
40
0.400000
50
90.000000
51
180.000000
0
LINE
8
0
10
133.605383
20
27.135142
30
0.0
11
133.605383
21
26.535142
31
0.0
0
LINE
8
0
10
133.605383
20
26.535142
30
0.0
11
133.705383
21
26.535142
31
0.0
0
LINE
8
0
10
133.705383
20
26.535142
30
0.0
11
133.705383
21
26.160142
31
0.0
0
ARC
8
0
10
133.905383
20
26.160142
30
0.0
40
0.200000
50
180.000000
51
270.000000
0
LINE
8
0
10
133.905383
20
25.960142
30
0.0
11
134.064910
21
25.960142
31
0.0
0
ARC
8
0
10
134.355383
20
25.435142
30
0.0
40
0.600000
50
241.044976
51
118.955024
0
LINE
8
0
10
134.064910
20
24.910142
30
0.0
11
133.905383
21
24.910142
31
0.0
0
ARC
8
0
10
133.905383
20
24.710142
30
0.0
40
0.200000
50
90.000000
51
180.000000
0
LINE
8
0
10
133.705383
20
24.710142
30
0.0
11
133.705383
21
24.335142
31
0.0
0
LINE
8
0
10
133.705383
20
24.335142
30
0.0
11
133.605383
21
24.335142
31
0.0
0
LINE
8
0
10
133.605383
20
24.335142
30
0.0
11
133.605383
21
23.735142
31
0.0
0
ARC
8
0
10
134.005383
20
23.735142
30
0.0
40
0.400000
50
180.000000
51
270.000000
0
LINE
8
0
10
134.005383
20
23.335142
30
0.0
11
134.185768
21
23.335142
31
0.0
0
ARC
8
0
10
134.185768
20
23.635142
30
0.0
40
0.300000
50
270.000000
51
300.000000
0
LINE
8
0
10
134.335768
20
23.375335
30
0.0
11
135.979550
21
24.324373
31
0.0
0
ARC
8
0
10
136.579550
20
23.285142
30
0.0
40
1.200000
50
90.000000
51
120.000000
0
LINE
8
0
10
136.579550
20
24.485142
30
0.0
11
137.603140
21
24.485142
31
0.0
0
ARC
8
0
10
137.603140
20
24.785142
30
0.0
40
0.300000
50
270.000000
51
328.000000
0
LINE
8
0
10
137.857554
20
24.626167
30
0.0
11
139.340953
21
27.000102
31
0.0
0
ARC
8
0
10
139.764978
20
26.735142
30
0.0
40
0.500000
50
90.000000
51
148.000000
0
LINE
8
0
10
139.764978
20
27.235142
30
0.0
11
144.605383
21
27.235142
31
0.0
0
LINE
8
0
10
144.605383
20
27.235142
30
0.0
11
149.445789
21
27.235142
31
0.0
0
LINE
8
0
10
155.605383
20
26.735068
30
0.0
11
154.856298
21
27.484153
31
0.0
0
LINE
8
0
10
155.505383
20
24.590004
30
0.0
11
155.185245
21
24.910142
31
0.0
0
LINE
8
0
10
154.344922
20
25.750466
30
0.0
11
153.432984
21
26.662403
31
0.0
0
LINE
8
0
10
153.928564
20
23.921759
30
0.0
11
148.715181
21
29.135142
31
0.0
0
LINE
8
0
10
156.315781
20
19.289478
30
0.0
11
155.181424
21
20.423835
31
0.0
0
LINE
8
0
10
148.370117
20
27.235142
30
0.0
11
146.470117
21
29.135142
31
0.0
0
LINE
8
0
10
156.529877
20
16.830318
30
0.0
11
153.495988
21
19.864207
31
0.0
0
LINE
8
0
10
146.125053
20
27.235142
30
0.0
11
144.225053
21
29.135142
31
0.0
0
LINE
8
0
10
153.605546
20
17.509585
30
0.0
11
152.141896
21
18.973235
31
0.0
0
LINE
8
0
10
143.879989
20
27.235142
30
0.0
11
141.979989
21
29.135142
31
0.0
0
LINE
8
0
10
152.692730
20
16.177337
30
0.0
11
151.253055
21
17.617012
31
0.0
0
LINE
8
0
10
141.634925
20
27.235142
30
0.0
11
139.734925
21
29.135142
31
0.0
0
LINE
8
0
10
151.796578
20
14.828425
30
0.0
11
149.960796
21
16.664207
31
0.0
0
LINE
8
0
10
139.479423
20
27.145580
30
0.0
11
138.071307
21
28.553696
31
0.0
0
LINE
8
0
10
149.715732
20
14.664207
30
0.0
11
147.715732
21
16.664207
31
0.0
0
LINE
8
0
10
138.586775
20
25.793164
30
0.0
11
137.207932
21
27.172007
31
0.0
0
LINE
8
0
10
147.470668
20
14.664207
30
0.0
11
145.470668
21
16.664207
31
0.0
0
LINE
8
0
10
137.646572
20
24.488303
30
0.0
11
135.055411
21
27.079464
31
0.0
0
LINE
8
0
10
145.225604
20
14.664207
30
0.0
11
143.225604
21
16.664207
31
0.0
0
LINE
8
0
10
133.929669
20
25.960142
30
0.0
11
133.705383
21
26.184428
31
0.0
0
LINE
8
0
10
135.717014
20
24.172797
30
0.0
11
134.826376
21
25.063435
31
0.0
0
LINE
8
0
10
142.980540
20
14.664207
30
0.0
11
140.980540
21
16.664207
31
0.0
0
LINE
8
0
10
134.290667
20
23.354080
30
0.0
11
133.605383
21
24.039364
31
0.0
0
LINE
8
0
10
140.735476
20
14.664207
30
0.0
11
138.567165
21
16.832518
31
0.0
0
LINE
8
0
10
138.290717
20
17.108966
30
0.0
11
135.535476
21
19.864207
31
0.0
0
LINE
8
0
10
138.490412
20
14.664207
30
0.0
11
132.612954
21
20.541664
31
0.0
0
LINE
8
0
10
133.887182
20
17.022372
30
0.0
11
132.747533
21
18.162022
31
0.0
0
LINE
8
0
10
88.963144
20
26.025386
30
0.0
11
87.999214
21
26.989316
31
0.0
0
LINE
8
0
10
89.371980
20
23.371487
30
0.0
11
83.608324
21
29.135142
31
0.0
0
LINE
8
0
10
90.605383
20
19.893019
30
0.0
11
89.747323
21
20.751080
31
0.0
0
LINE
8
0
10
83.263260
20
27.235142
30
0.0
11
81.363260
21
29.135142
31
0.0
0
LINE
8
0
10
86.013260
20
24.485142
30
0.0
11
84.488656
21
26.009746
31
0.0
0
LINE
8
0
10
90.605383
20
17.647955
30
0.0
11
90.589131
21
17.664207
31
0.0
0
LINE
8
0
10
81.018196
20
27.235142
30
0.0
11
79.118196
21
29.135142
31
0.0
0
LINE
8
0
10
90.505383
20
17.747955
30
0.0
11
90.054964
21
18.198374
31
0.0
0
LINE
8
0
10
89.289550
20
18.963788
30
0.0
11
88.321329
21
19.932010
31
0.0
0
LINE
8
0
10
88.522868
20
17.485406
30
0.0
11
86.500597
21
19.507678
31
0.0
0
LINE
8
0
10
78.773132
20
27.235142
30
0.0
11
76.873132
21
29.135142
31
0.0
0
LINE
8
0
10
87.047552
20
16.715658
30
0.0
11
85.606659
21
18.156552
31
0.0
0
LINE
8
0
10
76.528068
20
27.235142
30
0.0
11
74.628068
21
29.135142
31
0.0
0
LINE
8
0
10
86.155647
20
15.362499
30
0.0
11
84.668474
21
16.849672
31
0.0
0
LINE
8
0
10
74.283004
20
27.235142
30
0.0
11
72.454364
21
29.063782
31
0.0
0
LINE
8
0
10
84.608875
20
14.664207
30
0.0
11
82.608875
21
16.664207
31
0.0
0
LINE
8
0
10
72.930247
20
26.342835
30
0.0
11
71.551405
21
27.721677
31
0.0
0
LINE
8
0
10
82.363811
20
14.664207
30
0.0
11
80.363811
21
16.664207
31
0.0
0
LINE
8
0
10
72.066872
20
24.961146
30
0.0
11
70.639878
21
26.388140
31
0.0
0
LINE
8
0
10
80.118747
20
14.664207
30
0.0
11
78.118747
21
16.664207
31
0.0
0
LINE
8
0
10
70.325099
20
24.457855
30
0.0
11
67.607427
21
27.175527
31
0.0
0
LINE
8
0
10
77.873683
20
14.664207
30
0.0
11
75.873683
21
16.664207
31
0.0
0
LINE
8
0
10
68.859930
20
23.677960
30
0.0
11
67.730576
21
24.807314
31
0.0
0
LINE
8
0
10
75.628619
20
14.664207
30
0.0
11
73.628619
21
16.664207
31
0.0
0
LINE
8
0
10
73.383555
20
14.664207
30
0.0
11
67.183555
21
20.864207
31
0.0
0
LINE
8
0
10
68.453081
20
17.349617
30
0.0
11
67.590504
21
18.212194
31
0.0
0
LINE
8
0
10
66.869717
20
16.687916
30
0.0
11
66.629092
21
16.928541
31
0.0
0
LINE
8
0
10
154.803673
20
17.323024
30
0.0
11
155.673188
21
18.192539
31
0.0
0
LINE
8
0
10
149.899792
20
14.664207
30
0.0
11
156.099792
21
20.864207
31
0.0
0
LINE
8
0
10
147.654728
20
14.664207
30
0.0
11
149.654728
21
16.664207
31
0.0
0
LINE
8
0
10
152.515342
20
19.524821
30
0.0
11
152.605454
21
19.614933
31
0.0
0
LINE
8
0
10
145.409664
20
14.664207
30
0.0
11
147.409664
21
16.664207
31
0.0
0
LINE
8
0
10
154.396850
20
23.651394
30
0.0
11
155.500319
21
24.754863
31
0.0
0
LINE
8
0
10
143.164600
20
14.664207
30
0.0
11
145.164600
21
16.664207
31
0.0
0
LINE
8
0
10
152.944043
20
24.443650
30
0.0
11
155.605383
21
27.104991
31
0.0
0
LINE
8
0
10
140.919536
20
14.664207
30
0.0
11
142.919536
21
16.664207
31
0.0
0
LINE
8
0
10
151.171806
20
24.916478
30
0.0
11
152.640507
21
26.385178
31
0.0
0
LINE
8
0
10
138.674472
20
14.664207
30
0.0
11
140.674472
21
16.664207
31
0.0
0
LINE
8
0
10
150.308431
20
26.298167
30
0.0
11
151.687274
21
27.677009
31
0.0
0
LINE
8
0
10
137.083954
20
15.318753
30
0.0
11
138.585662
21
16.820462
31
0.0
0
LINE
8
0
10
149.000343
20
27.235142
30
0.0
11
150.799757
21
29.034556
31
0.0
0
LINE
8
0
10
136.192049
20
16.671912
30
0.0
11
137.632843
21
18.112707
31
0.0
0
LINE
8
0
10
146.755279
20
27.235142
30
0.0
11
148.655279
21
29.135142
31
0.0
0
LINE
8
0
10
134.859155
20
17.584082
30
0.0
11
136.742371
21
19.467299
31
0.0
0
LINE
8
0
10
144.510215
20
27.235142
30
0.0
11
146.410215
21
29.135142
31
0.0
0
LINE
8
0
10
132.605383
20
17.575375
30
0.0
11
132.694216
21
17.664207
31
0.0
0
LINE
8
0
10
142.265151
20
27.235142
30
0.0
11
144.165151
21
29.135142
31
0.0
0
LINE
8
0
10
132.705383
20
17.675375
30
0.0
11
133.211679
21
18.181671
31
0.0
0
LINE
8
0
10
133.937920
20
18.907912
30
0.0
11
134.941313
21
19.911305
31
0.0
0
LINE
8
0
10
132.649152
20
19.864207
30
0.0
11
133.509431
21
20.724486
31
0.0
0
LINE
8
0
10
140.020087
20
27.235142
30
0.0
11
141.920087
21
29.135142
31
0.0
0
LINE
8
0
10
137.270087
20
24.485142
30
0.0
11
138.601211
21
25.816267
31
0.0
0
LINE
8
0
10
133.891559
20
23.351679
30
0.0
11
139.675023
21
29.135142
31
0.0
0
LINE
8
0
10
134.329396
20
26.034579
30
0.0
11
135.257566
21
26.962750
31
0.0
0
LINE
8
0
10
89.369571
20
16.995779
30
0.0
11
90.489976
21
18.116184
31
0.0
0
LINE
8
0
10
84.792935
20
14.664207
30
0.0
11
87.440406
21
17.311678
31
0.0
0
LINE
8
0
10
87.708992
20
17.580264
30
0.0
11
90.605195
21
20.476468
31
0.0
0
LINE
8
0
10
82.547871
20
14.664207
30
0.0
11
87.747871
21
19.864207
31
0.0
0
LINE
8
0
10
80.302807
20
14.664207
30
0.0
11
82.302807
21
16.664207
31
0.0
0
LINE
8
0
10
88.977523
20
23.338923
30
0.0
11
89.605383
21
23.966784
31
0.0
0
LINE
8
0
10
78.057743
20
14.664207
30
0.0
11
80.057743
21
16.664207
31
0.0
0
LINE
8
0
10
89.361800
20
25.968265
30
0.0
11
89.497261
21
26.103726
31
0.0
0
LINE
8
0
10
87.539767
20
24.146231
30
0.0
11
88.417977
21
25.024441
31
0.0
0
LINE
8
0
10
75.812679
20
14.664207
30
0.0
11
77.812679
21
16.664207
31
0.0
0
LINE
8
0
10
85.633614
20
24.485142
30
0.0
11
88.327082
21
27.178610
31
0.0
0
LINE
8
0
10
73.567615
20
14.664207
30
0.0
11
75.567615
21
16.664207
31
0.0
0
LINE
8
0
10
84.651903
20
25.748496
30
0.0
11
86.030746
21
27.127338
31
0.0
0
LINE
8
0
10
71.450561
20
14.792217
30
0.0
11
73.322551
21
16.664207
31
0.0
0
LINE
8
0
10
83.772222
20
27.113879
30
0.0
11
85.167371
21
28.509027
31
0.0
0
LINE
8
0
10
70.546871
20
16.133591
30
0.0
11
71.986446
21
17.573167
31
0.0
0
LINE
8
0
10
81.648422
20
27.235142
30
0.0
11
83.548422
21
29.135142
31
0.0
0
LINE
8
0
10
69.643474
20
17.475259
30
0.0
11
71.097606
21
18.929390
31
0.0
0
LINE
8
0
10
79.403358
20
27.235142
30
0.0
11
81.303358
21
29.135142
31
0.0
0
LINE
8
0
10
66.713672
20
16.790520
30
0.0
11
69.787359
21
19.864207
31
0.0
0
LINE
8
0
10
77.158294
20
27.235142
30
0.0
11
79.058294
21
29.135142
31
0.0
0
LINE
8
0
10
66.967295
20
19.289207
30
0.0
11
68.075329
21
20.397242
31
0.0
0
LINE
8
0
10
74.913230
20
27.235142
30
0.0
11
76.813230
21
29.135142
31
0.0
0
LINE
8
0
10
69.453928
20
24.020905
30
0.0
11
74.568166
21
29.135142
31
0.0
0
LINE
8
0
10
67.705383
20
24.517424
30
0.0
11
68.086649
21
24.898689
31
0.0
0
LINE
8
0
10
68.891836
20
25.703877
30
0.0
11
69.823796
21
26.635837
31
0.0
0
LINE
8
0
10
67.605383
20
26.662488
30
0.0
11
68.400483
21
27.457587
31
0.0
0
LINE
8
0
10
166.105383
20
27.735142
30
0.0
11
166.105383
21
28.614207
31
0.0
0
ARC
8
0
10
166.605383
20
28.614207
30
0.0
40
0.500000
50
90.000000
51
180.000000
0
LINE
8
0
10
166.605383
20
29.114207
30
0.0
11
174.605383
21
29.114207
31
0.0
0
ARC
8
0
10
174.605383
20
28.614207
30
0.0
40
0.500000
50
360.000000
51
90.000000
0
LINE
8
0
10
175.105383
20
28.614207
30
0.0
11
175.105383
21
28.014207
31
0.0
0
ARC
8
0
10
175.605383
20
28.014207
30
0.0
40
0.500000
50
180.000000
51
270.000000
0
LINE
8
0
10
175.605383
20
27.514207
30
0.0
11
176.805383
21
27.514207
31
0.0
0
LINE
8
0
10
176.805383
20
27.514207
30
0.0
11
176.805383
21
29.514207
31
0.0
0
LINE
8
0
10
176.805383
20
29.514207
30
0.0
11
179.805383
21
29.514207
31
0.0
0
LINE
8
0
10
179.805383
20
29.514207
30
0.0
11
180.029806
21
29.663822
31
0.0
0
ARC
8
0
10
180.196216
20
29.414207
30
0.0
40
0.300000
50
90.000000
51
123.690068
0
LINE
8
0
10
180.196216
20
29.714207
30
0.0
11
197.414551
21
29.714207
31
0.0
0
ARC
8
0
10
197.414551
20
29.414207
30
0.0
40
0.300000
50
56.309932
51
90.000000
0
LINE
8
0
10
197.580961
20
29.663822
30
0.0
11
197.805383
21
29.514207
31
0.0
0
LINE
8
0
10
197.805383
20
29.514207
30
0.0
11
200.805383
21
29.514207
31
0.0
0
LINE
8
0
10
200.805383
20
29.514207
30
0.0
11
200.805383
21
20.514207
31
0.0
0
LINE
8
0
10
200.805383
20
20.514207
30
0.0
11
158.705383
21
20.514207
31
0.0
0
ARC
8
0
10
158.705383
20
21.014207
30
0.0
40
0.500000
50
180.000000
51
270.000000
0
LINE
8
0
10
158.205383
20
21.014207
30
0.0
11
158.205383
21
22.235142
31
0.0
0
ARC
8
0
10
157.705383
20
22.235142
30
0.0
40
0.500000
50
360.000000
51
66.421822
0
ARC
8
0
10
158.105383
20
23.151658
30
0.0
40
0.500000
50
180.000000
51
246.421822
0
LINE
8
0
10
157.605383
20
23.151658
30
0.0
11
157.605383
21
26.735142
31
0.0
0
ARC
8
0
10
158.105383
20
26.735142
30
0.0
40
0.500000
50
90.000000
51
180.000000
0
LINE
8
0
10
158.105383
20
27.235142
30
0.0
11
165.605383
21
27.235142
31
0.0
0
ARC
8
0
10
165.605383
20
27.735142
30
0.0
40
0.500000
50
270.000000
51
360.000000
0
ARC
8
0
10
154.272649
20
17.634770
30
0.0
40
0.145621
50
360.000000
51
142.253920
0
LINE
8
0
10
154.418181
20
17.629688
30
0.0
11
154.412751
21
17.474201
31
0.0
0
ARC
8
0
10
154.612629
20
17.467221
30
0.0
40
0.200000
50
180.000000
51
231.176024
0
LINE
8
0
10
154.487243
20
17.311406
30
0.0
11
156.130413
21
15.989131
31
0.0
0
ARC
8
0
10
156.318492
20
16.222854
30
0.0
40
0.300000
50
231.176024
51
256.872879
0
LINE
8
0
10
156.250358
20
15.930693
30
0.0
11
156.605383
21
15.835142
31
0.0
0
ARC
8
0
10
156.605383
20
16.135142
30
0.0
40
0.300000
50
270.000000
51
90.000000
0
LINE
8
0
10
156.605383
20
16.435142
30
0.0
11
156.605383
21
20.935142
31
0.0
0
ARC
8
0
10
156.405383
20
20.935142
30
0.0
40
0.200000
50
360.000000
51
90.000000
0
LINE
8
0
10
156.405383
20
21.135142
30
0.0
11
156.337495
21
21.135142
31
0.0
0
ARC
8
0
10
156.337495
20
20.835142
30
0.0
40
0.300000
50
90.000000
51
121.380132
0
LINE
8
0
10
156.181280
20
21.091262
30
0.0
11
154.505287
21
20.069029
31
0.0
0
ARC
8
0
10
154.305383
20
20.062839
30
0.0
40
0.200000
50
180.000000
51
360.000000
0
LINE
8
0
10
154.105383
20
20.062839
30
0.0
11
154.105383
21
21.580415
31
0.0
0
ARC
8
0
10
153.605383
20
21.580415
30
0.0
40
0.500000
50
360.000000
51
58.619868
0
LINE
8
0
10
153.865740
20
22.007281
30
0.0
11
153.584670
21
22.178713
31
0.0
0
ARC
8
0
10
154.105383
20
23.032444
30
0.0
40
1.000000
50
180.000000
51
238.619868
0
LINE
8
0
10
153.105383
20
23.032444
30
0.0
11
153.105383
21
24.107446
31
0.0
0
ARC
8
0
10
153.305383
20
24.107446
30
0.0
40
0.200000
50
360.000000
51
180.000000
0
LINE
8
0
10
153.505287
20
24.101256
30
0.0
11
155.181280
21
23.079023
31
0.0
0
ARC
8
0
10
155.337495
20
23.335142
30
0.0
40
0.300000
50
238.619868
51
270.000000
0
LINE
8
0
10
155.337495
20
23.035142
30
0.0
11
155.405383
21
23.035142
31
0.0
0
ARC
8
0
10
155.405383
20
23.235142
30
0.0
40
0.200000
50
270.000000
51
360.000000
0
LINE
8
0
10
155.605383
20
23.235142
30
0.0
11
155.605383
21
27.735142
31
0.0
0
ARC
8
0
10
155.605383
20
28.035142
30
0.0
40
0.300000
50
270.000000
51
90.000000
0
LINE
8
0
10
155.605383
20
28.335142
30
0.0
11
155.250358
21
28.239591
31
0.0
0
ARC
8
0
10
155.318492
20
27.947431
30
0.0
40
0.300000
50
103.127121
51
128.823976
0
LINE
8
0
10
155.130413
20
28.181154
30
0.0
11
153.487243
21
26.858879
31
0.0
0
ARC
8
0
10
153.612629
20
26.703064
30
0.0
40
0.200000
50
128.823976
51
180.000000
0
LINE
8
0
10
153.412751
20
26.696084
30
0.0
11
153.418181
21
26.540597
31
0.0
0
ARC
8
0
10
153.272649
20
26.535515
30
0.0
40
0.145621
50
217.746080
51
360.000000
0
LINE
8
0
10
153.157502
20
26.446371
30
0.0
11
151.093214
21
29.112812
31
0.0
0
ARC
8
0
10
151.378122
20
29.206768
30
0.0
40
0.300000
50
90.000000
51
198.251415
0
LINE
8
0
10
151.374737
20
29.506793
30
0.0
11
152.031358
21
29.525406
31
0.0
0
ARC
8
0
10
152.045526
20
29.025607
30
0.0
40
0.500000
50
51.805773
51
91.623749
0
ARC
8
0
10
153.591349
20
30.990405
30
0.0
40
2.000000
50
231.805773
51
303.997055
0
LINE
8
0
10
154.709650
20
29.332272
30
0.0
11
155.128033
21
29.537481
31
0.0
0
ARC
8
0
10
154.908791
20
30.254721
30
0.0
40
0.750000
50
286.997055
51
319.030071
0
ARC
8
0
10
155.852608
20
29.435142
30
0.0
40
0.500000
50
90.000000
51
139.030071
0
LINE
8
0
10
155.852608
20
29.935142
30
0.0
11
157.105383
21
29.935142
31
0.0
0
ARC
8
0
10
157.105383
20
29.435142
30
0.0
40
0.500000
50
360.000000
51
90.000000
0
ARC
8
0
10
158.105383
20
29.435142
30
0.0
40
0.500000
50
180.000000
51
270.000000
0
LINE
8
0
10
158.105383
20
28.935142
30
0.0
11
160.843469
21
28.935142
31
0.0
0
LINE
8
0
10
160.843469
20
28.935142
30
0.0
11
160.931337
21
28.847274
31
0.0
0
ARC
8
0
10
161.143469
20
29.059406
30
0.0
40
0.300000
50
225.000000
51
315.000000
0
LINE
8
0
10
161.355601
20
28.847274
30
0.0
11
161.443469
21
28.935142
31
0.0
0
LINE
8
0
10
161.443469
20
28.935142
30
0.0
11
164.105383
21
28.935142
31
0.0
0
ARC
8
0
10
164.105383
20
29.435142
30
0.0
40
0.500000
50
270.000000
51
360.000000
0
LINE
8
0
10
164.605383
20
29.435142
30
0.0
11
164.605383
21
30.814207
31
0.0
0
ARC
8
0
10
165.105383
20
30.814207
30
0.0
40
0.500000
50
90.000000
51
180.000000
0
LINE
8
0
10
165.105383
20
31.314207
30
0.0
11
166.093254
21
31.314207
31
0.0
0
ARC
8
0
10
165.605481
20
31.424106
30
0.0
40
0.500000
50
347.302825
51
360.000000
0
LINE
8
0
10
166.105481
20
31.424106
30
0.0
11
166.105481
21
35.814106
31
0.0
0
ARC
8
0
10
166.405481
20
35.814106
30
0.0
40
0.300000
50
90.000000
51
180.000000
0
LINE
8
0
10
166.405481
20
36.114106
30
0.0
11
168.481217
21
36.114106
31
0.0
0
ARC
8
0
10
168.481217
20
35.814106
30
0.0
40
0.300000
50
45.000000
51
90.000000
0
LINE
8
0
10
168.693349
20
36.026238
30
0.0
11
169.517613
21
35.201974
31
0.0
0
ARC
8
0
10
169.305481
20
34.989842
30
0.0
40
0.300000
50
360.000000
51
45.000000
0
LINE
8
0
10
169.605481
20
34.989842
30
0.0
11
169.605481
21
34.414106
31
0.0
0
ARC
8
0
10
169.305481
20
34.414106
30
0.0
40
0.300000
50
270.000000
51
360.000000
0
LINE
8
0
10
169.305481
20
34.114106
30
0.0
11
167.905481
21
34.114106
31
0.0
0
ARC
8
0
10
167.905481
20
33.814106
30
0.0
40
0.300000
50
90.000000
51
180.000000
0
LINE
8
0
10
167.605481
20
33.814106
30
0.0
11
167.605481
21
31.114106
31
0.0
0
LINE
8
0
10
167.605481
20
31.114106
30
0.0
11
185.605481
21
31.114106
31
0.0
0
LINE
8
0
10
185.605481
20
31.114106
30
0.0
11
185.605481
21
33.814106
31
0.0
0
ARC
8
0
10
185.305481
20
33.814106
30
0.0
40
0.300000
50
360.000000
51
90.000000
0
LINE
8
0
10
185.305481
20
34.114106
30
0.0
11
183.905481
21
34.114106
31
0.0
0
ARC
8
0
10
183.905481
20
34.414106
30
0.0
40
0.300000
50
180.000000
51
270.000000
0
LINE
8
0
10
183.605481
20
34.414106
30
0.0
11
183.605481
21
34.989842
31
0.0
0
ARC
8
0
10
183.905481
20
34.989842
30
0.0
40
0.300000
50
135.000000
51
180.000000
0
LINE
8
0
10
183.693349
20
35.201974
30
0.0
11
184.517613
21
36.026238
31
0.0
0
ARC
8
0
10
184.729745
20
35.814106
30
0.0
40
0.300000
50
90.000000
51
135.000000
0
LINE
8
0
10
184.729745
20
36.114106
30
0.0
11
186.605481
21
36.114106
31
0.0
0
ARC
8
0
10
186.605481
20
35.614106
30
0.0
40
0.500000
50
360.000000
51
90.000000
0
LINE
8
0
10
187.105481
20
35.614106
30
0.0
11
187.105481
21
31.314207
31
0.0
0
LINE
8
0
10
187.105481
20
31.314207
30
0.0
11
189.803904
21
31.314207
31
0.0
0
LINE
8
0
10
189.803904
20
31.314207
30
0.0
11
189.803199
21
36.564684
31
0.0
0
LINE
8
0
10
189.803199
20
36.564684
30
0.0
11
195.054197
21
36.564869
31
0.0
0
ARC
8
0
10
195.054207
20
36.264869
30
0.0
40
0.300000
50
360.000000
51
90.000000
0
LINE
8
0
10
195.354207
20
36.264879
30
0.0
11
195.354332
21
34.914869
31
0.0
0
ARC
8
0
10
194.854332
20
34.914869
30
0.0
40
0.500000
50
270.000000
51
360.000000
0
LINE
8
0
10
194.854332
20
34.414869
30
0.0
11
194.054339
21
34.414869
31
0.0
0
ARC
8
0
10
194.054339
20
34.714869
30
0.0
40
0.300000
50
180.000000
51
270.000000
0
LINE
8
0
10
193.754339
20
34.714672
30
0.0
11
193.754253
21
34.964840
31
0.0
0
LINE
8
0
10
193.754253
20
34.964840
30
0.0
11
191.304332
21
34.964754
31
0.0
0
LINE
8
0
10
191.304332
20
34.964754
30
0.0
11
191.304332
21
32.714797
31
0.0
0
ARC
8
0
10
191.604332
20
32.714797
30
0.0
40
0.300000
50
180.000000
51
270.000000
0
LINE
8
0
10
191.604332
20
32.414797
30
0.0
11
193.754120
21
32.414797
31
0.0
0
LINE
8
0
10
193.754120
20
32.414797
30
0.0
11
195.655695
21
31.313889
31
0.0
0
LINE
8
0
10
195.655695
20
31.313889
30
0.0
11
200.705383
21
31.314869
31
0.0
0
LINE
8
0
10
200.705383
20
31.314869
30
0.0
11
200.705383
21
32.244790
31
0.0
0
LINE
8
0
10
200.705383
20
32.244790
30
0.0
11
202.505383
21
31.762481
31
0.0
0
LINE
8
0
10
202.505383
20
31.762481
30
0.0
11
202.505383
21
14.614207
31
0.0
0
ARC
8
0
10
202.005383
20
14.614207
30
0.0
40
0.500000
50
270.000000
51
360.000000
0
LINE
8
0
10
202.005383
20
14.114207
30
0.0
11
199.505383
21
14.114207
31
0.0
0
ARC
8
0
10
199.505383
20
14.614207
30
0.0
40
0.500000
50
180.000000
51
270.000000
0
LINE
8
0
10
199.005383
20
14.614207
30
0.0
11
199.005383
21
15.314207
31
0.0
0
ARC
8
0
10
199.305383
20
15.314207
30
0.0
40
0.300000
50
90.000000
51
180.000000
0
LINE
8
0
10
199.305383
20
15.614207
30
0.0
11
200.705383
21
15.614207
31
0.0
0
ARC
8
0
10
200.705383
20
15.914207
30
0.0
40
0.300000
50
270.000000
51
360.000000
0
LINE
8
0
10
201.005383
20
15.914207
30
0.0
11
201.005383
21
18.814207
31
0.0
0
ARC
8
0
10
200.705383
20
18.814207
30
0.0
40
0.300000
50
360.000000
51
90.000000
0
LINE
8
0
10
200.705383
20
19.114207
30
0.0
11
173.205383
21
19.114207
31
0.0
0
ARC
8
0
10
173.205383
20
18.814207
30
0.0
40
0.300000
50
90.000000
51
180.000000
0
LINE
8
0
10
172.905383
20
18.814207
30
0.0
11
172.905383
21
16.614207
31
0.0
0
ARC
8
0
10
172.405383
20
16.614207
30
0.0
40
0.500000
50
270.000000
51
360.000000
0
LINE
8
0
10
172.405383
20
16.114207
30
0.0
11
172.005383
21
16.114207
31
0.0
0
ARC
8
0
10
172.005383
20
16.614207
30
0.0
40
0.500000
50
180.000000
51
270.000000
0
LINE
8
0
10
171.505383
20
16.614207
30
0.0
11
171.505383
21
18.814207
31
0.0
0
ARC
8
0
10
171.205383
20
18.814207
30
0.0
40
0.300000
50
360.000000
51
90.000000
0
LINE
8
0
10
171.205383
20
19.114207
30
0.0
11
158.605383
21
19.114207
31
0.0
0
ARC
8
0
10
158.605383
20
18.814207
30
0.0
40
0.300000
50
90.000000
51
180.000000
0
LINE
8
0
10
158.305383
20
18.814207
30
0.0
11
158.305383
21
15.914207
31
0.0
0
ARC
8
0
10
158.605383
20
15.914207
30
0.0
40
0.300000
50
180.000000
51
270.000000
0
LINE
8
0
10
158.605383
20
15.614207
30
0.0
11
159.805383
21
15.614207
31
0.0
0
ARC
8
0
10
159.805383
20
15.314207
30
0.0
40
0.300000
50
360.000000
51
90.000000
0
LINE
8
0
10
160.105383
20
15.314207
30
0.0
11
160.105383
21
14.614207
31
0.0
0
ARC
8
0
10
159.605383
20
14.614207
30
0.0
40
0.500000
50
270.000000
51
360.000000
0
LINE
8
0
10
159.605383
20
14.114207
30
0.0
11
156.945323
21
14.114207
31
0.0
0
ARC
8
0
10
156.945323
20
14.614207
30
0.0
40
0.500000
50
213.980777
51
270.000000
0
ARC
8
0
10
155.908791
20
13.915564
30
0.0
40
0.750000
50
33.980777
51
73.002945
0
LINE
8
0
10
156.128033
20
14.632804
30
0.0
11
155.709650
21
14.838012
31
0.0
0
ARC
8
0
10
154.591349
20
13.179880
30
0.0
40
2.000000
50
56.002945
51
128.194227
0
ARC
8
0
10
153.045526
20
15.144678
30
0.0
40
0.500000
50
268.376251
51
308.194227
0
LINE
8
0
10
153.031358
20
14.644879
30
0.0
11
152.374737
21
14.663492
31
0.0
0
ARC
8
0
10
152.378122
20
14.963517
30
0.0
40
0.300000
50
161.748585
51
270.000000
0
LINE
8
0
10
152.093214
20
15.057473
30
0.0
11
154.157502
21
17.723914
31
0.0
0
ATTDEF
8
0
10
0.000000
20
0.000000
30
0.0
40
3.5
1

3

2
PANE_WIDTH:0
70
0
0
ATTDEF
8
0
10
0.000000
20
0.000000
30
0.0
40
3.5
1

3

2
MIN_VETRO:0
70
0
0
ATTDEF
8
0
10
0.000000
20
0.000000
30
0.0
40
3.5
1

3

2
MAX_VETRO:0
70
0
0
ATTDEF
8
0
10
0.000000
20
0.000000
30
0.0
40
3.5
1

3

2
JX:0
70
0
0
ATTDEF
8
0
10
0.000000
20
0.000000
30
0.0
40
3.5
1

3

2
WX:0
70
0
0
ATTDEF
8
0
10
0.000000
20
0.000000
30
0.0
40
3.5
1

3

2
JY:0
70
0
0
ATTDEF
8
0
10
0.000000
20
0.000000
30
0.0
40
3.5
1

3

2
WY:0
70
0
0
ATTDEF
8
0
10
0.000000
20
0.000000
30
0.0
40
3.5
1

3

2
DESC:Marco tricarril para 2 hojas y fijo
70
0
0
ATTDEF
8
0
10
0.000000
20
0.000000
30
0.0
40
3.5
1

3

2
DENS:2.6518
70
0
0
ATTDEF
8
0
10
0.000000
20
0.000000
30
0.0
40
3.5
1

3

2
TDEV:99.03
70
0
0
ATTDEF
8
0
10
0.000000
20
0.000000
30
0.0
40
3.5
1

3

2
TDEV2:0
70
0
0
ATTDEF
8
0
10
0.000000
20
0.000000
30
0.0
40
3.5
1

3

2
TDEV3:0
70
0
0
ATTDEF
8
0
10
0.000000
20
0.000000
30
0.0
40
3.5
1

3

2
TDEV4:0
70
0
0
ATTDEF
8
0
10
0.000000
20
0.000000
30
0.0
40
3.5
1

3

2
TDEV5:0
70
0
0
ATTDEF
8
0
10
0.000000
20
0.000000
30
0.0
40
3.5
1

3

2
PANE_WIDTH:0
70
0
0
ATTDEF
8
0
10
0.000000
20
0.000000
30
0.0
40
3.5
1

3

2
MIN_VETRO:0
70
0
0
ATTDEF
8
0
10
0.000000
20
0.000000
30
0.0
40
3.5
1

3

2
MAX_VETRO:0
70
0
0
ATTDEF
8
0
10
0.000000
20
0.000000
30
0.0
40
3.5
1

3

2
JX:0
70
0
0
ATTDEF
8
0
10
0.000000
20
0.000000
30
0.0
40
3.5
1

3

2
WX:0
70
0
0
ATTDEF
8
0
10
0.000000
20
0.000000
30
0.0
40
3.5
1

3

2
JY:0
70
0
0
ATTDEF
8
0
10
0.000000
20
0.000000
30
0.0
40
3.5
1

3

2
WY:0
70
0
0
ATTDEF
8
0
10
189.803904
20
31.314207
30
0.0
40
3.5
1

3

2
VC_START
70
0
0
ATTDEF
8
0
10
22.455383
20
14.114207
30
0.0
40
3.5
1

3

2
VC_END
70
0
0
ATTDEF
8
0
10
20.705383
20
14.114207
30
0.0
40
3.5
1

3

2
FP_LCS_ORIG
70
0
0
ATTDEF
8
0
10
30.705383
20
14.114207
30
0.0
40
3.5
1

3

2
FP_LCS_HOT
70
0
0
ATTDEF
8
0
10
20.705383
20
24.114207
30
0.0
40
3.5
1

3

2
FP_LCS_INTERN
70
0
0
ENDSEC
0
EOF
