0
SECTION
2
ENTITIES
0
LINE
8
0
10
3079.968781
20
1250.241597
30
0.0
11
3081.074027
21
1251.346842
31
0.0
0
LINE
8
0
10
3079.862944
20
1247.890695
30
0.0
11
3082.527455
21
1250.555207
31
0.0
0
LINE
8
0
10
3083.785005
20
1251.812756
30
0.0
11
3085.236814
21
1253.264566
31
0.0
0
LINE
8
0
10
3082.831867
20
1248.614554
30
0.0
11
3087.481878
21
1253.264566
31
0.0
0
LINE
8
0
10
3087.826942
20
1251.364566
30
0.0
11
3089.726942
21
1253.264566
31
0.0
0
LINE
8
0
10
3090.072006
20
1251.364566
30
0.0
11
3091.972006
21
1253.264566
31
0.0
0
LINE
8
0
10
3092.317070
20
1251.364566
30
0.0
11
3094.217070
21
1253.264566
31
0.0
0
LINE
8
0
10
3094.562135
20
1251.364566
30
0.0
11
3096.462135
21
1253.264566
31
0.0
0
LINE
8
0
10
3096.298422
20
1250.855790
30
0.0
11
3097.677265
21
1252.234632
31
0.0
0
LINE
8
0
10
3097.161797
20
1249.474101
30
0.0
11
3098.540640
21
1250.852943
31
0.0
0
LINE
8
0
10
3098.547327
20
1248.614566
30
0.0
11
3101.579859
21
1251.647098
31
0.0
0
LINE
8
0
10
3100.213311
20
1248.035486
30
0.0
11
3101.143152
21
1248.965327
31
0.0
0
LINE
8
0
10
3080.837639
20
1247.645811
30
0.0
11
3079.962944
21
1248.520507
31
0.0
0
LINE
8
0
10
3082.261185
20
1248.467329
30
0.0
11
3081.211089
21
1249.517426
31
0.0
0
LINE
8
0
10
3080.565803
20
1250.162711
30
0.0
11
3079.862944
21
1250.865571
31
0.0
0
LINE
8
0
10
3084.154676
20
1248.818902
30
0.0
11
3082.360154
21
1250.613424
31
0.0
0
LINE
8
0
10
3085.018051
20
1250.200591
30
0.0
11
3083.639209
21
1251.579434
31
0.0
0
LINE
8
0
10
3086.099141
20
1251.364566
30
0.0
11
3084.502584
21
1252.961123
31
0.0
0
LINE
8
0
10
3088.344205
20
1251.364566
30
0.0
11
3086.444205
21
1253.264566
31
0.0
0
LINE
8
0
10
3090.589269
20
1251.364566
30
0.0
11
3088.689269
21
1253.264566
31
0.0
0
LINE
8
0
10
3092.834333
20
1251.364566
30
0.0
11
3090.934333
21
1253.264566
31
0.0
0
LINE
8
0
10
3097.826950
20
1248.617012
30
0.0
11
3097.481512
21
1248.962451
31
0.0
0
LINE
8
0
10
3095.079397
20
1251.364566
30
0.0
11
3093.179397
21
1253.264566
31
0.0
0
LINE
8
0
10
3101.217271
20
1247.471756
30
0.0
11
3095.424461
21
1253.264566
31
0.0
0
LINE
8
0
10
3100.836832
20
1250.097259
30
0.0
11
3099.976924
21
1250.957167
31
0.0
0
LINE
8
0
10
3101.859072
20
1251.320083
30
0.0
11
3101.518460
21
1251.660694
31
0.0
0
ARC
8
0
10
3086.022538
20
1250.864566
30
0.0
40
0.500000
50
90.000000
51
148.000000
0
LINE
8
0
10
3085.598514
20
1251.129525
30
0.0
11
3084.115114
21
1248.755590
31
0.0
0
ARC
8
0
10
3083.860700
20
1248.914566
30
0.0
40
0.300000
50
270.000000
51
328.000000
0
LINE
8
0
10
3083.860700
20
1248.614566
30
0.0
11
3082.837110
21
1248.614566
31
0.0
0
ARC
8
0
10
3082.837110
20
1247.414566
30
0.0
40
1.200000
50
90.000000
51
120.000000
0
LINE
8
0
10
3082.237110
20
1248.453796
30
0.0
11
3080.593328
21
1247.504758
31
0.0
0
ARC
8
0
10
3080.443328
20
1247.764566
30
0.0
40
0.300000
50
270.000000
51
300.000000
0
LINE
8
0
10
3080.443328
20
1247.464566
30
0.0
11
3080.262944
21
1247.464566
31
0.0
0
ARC
8
0
10
3080.262944
20
1247.864566
30
0.0
40
0.400000
50
180.000000
51
270.000000
0
LINE
8
0
10
3079.862944
20
1247.864566
30
0.0
11
3079.862944
21
1248.464566
31
0.0
0
LINE
8
0
10
3079.862944
20
1248.464566
30
0.0
11
3079.962944
21
1248.464566
31
0.0
0
LINE
8
0
10
3079.962944
20
1248.464566
30
0.0
11
3079.962944
21
1248.839566
31
0.0
0
ARC
8
0
10
3080.162944
20
1248.839566
30
0.0
40
0.200000
50
90.000000
51
180.000000
0
LINE
8
0
10
3080.162944
20
1249.039566
30
0.0
11
3080.322470
21
1249.039566
31
0.0
0
ARC
8
0
10
3080.612944
20
1249.564566
30
0.0
40
0.600000
50
241.044976
51
118.955024
0
LINE
8
0
10
3080.322470
20
1250.089566
30
0.0
11
3080.162944
21
1250.089566
31
0.0
0
ARC
8
0
10
3080.162944
20
1250.289566
30
0.0
40
0.200000
50
180.000000
51
270.000000
0
LINE
8
0
10
3079.962944
20
1250.289566
30
0.0
11
3079.962944
21
1250.664566
31
0.0
0
LINE
8
0
10
3079.962944
20
1250.664566
30
0.0
11
3079.862944
21
1250.664566
31
0.0
0
LINE
8
0
10
3079.862944
20
1250.664566
30
0.0
11
3079.862944
21
1251.264566
31
0.0
0
ARC
8
0
10
3080.262944
20
1251.264566
30
0.0
40
0.400000
50
90.000000
51
180.000000
0
LINE
8
0
10
3080.262944
20
1251.664566
30
0.0
11
3080.443328
21
1251.664566
31
0.0
0
ARC
8
0
10
3080.443328
20
1251.364566
30
0.0
40
0.300000
50
60.000000
51
90.000000
0
LINE
8
0
10
3080.593328
20
1251.624373
30
0.0
11
3082.237110
21
1250.675335
31
0.0
0
ARC
8
0
10
3082.837110
20
1251.714566
30
0.0
40
1.200000
50
240.000000
51
270.000000
0
LINE
8
0
10
3082.837110
20
1250.514566
30
0.0
11
3082.862944
21
1250.514566
31
0.0
0
ARC
8
0
10
3082.862944
20
1250.714566
30
0.0
40
0.200000
50
270.000000
51
328.000000
0
LINE
8
0
10
3083.032553
20
1250.608582
30
0.0
11
3084.545327
21
1253.029525
31
0.0
0
ARC
8
0
10
3084.969351
20
1252.764566
30
0.0
40
0.500000
50
90.000000
51
148.000000
0
LINE
8
0
10
3084.969351
20
1253.264566
30
0.0
11
3090.862944
21
1253.264566
31
0.0
0
LINE
8
0
10
3090.862944
20
1253.264566
30
0.0
11
3096.756536
21
1253.264566
31
0.0
0
ARC
8
0
10
3096.756536
20
1252.764566
30
0.0
40
0.500000
50
32.000000
51
90.000000
0
LINE
8
0
10
3097.180561
20
1253.029525
30
0.0
11
3098.693334
21
1250.608582
31
0.0
0
ARC
8
0
10
3098.862944
20
1250.714566
30
0.0
40
0.200000
50
212.000000
51
270.000000
0
LINE
8
0
10
3098.862944
20
1250.514566
30
0.0
11
3098.888777
21
1250.514566
31
0.0
0
ARC
8
0
10
3098.888777
20
1251.714566
30
0.0
40
1.200000
50
270.000000
51
300.000000
0
LINE
8
0
10
3099.488777
20
1250.675335
30
0.0
11
3101.132559
21
1251.624373
31
0.0
0
ARC
8
0
10
3101.282559
20
1251.364566
30
0.0
40
0.300000
50
90.000000
51
120.000000
0
LINE
8
0
10
3101.282559
20
1251.664566
30
0.0
11
3101.462944
21
1251.664566
31
0.0
0
ARC
8
0
10
3101.462944
20
1251.264566
30
0.0
40
0.400000
50
360.000000
51
90.000000
0
LINE
8
0
10
3101.862944
20
1251.264566
30
0.0
11
3101.862944
21
1250.664566
31
0.0
0
LINE
8
0
10
3101.862944
20
1250.664566
30
0.0
11
3101.762944
21
1250.664566
31
0.0
0
LINE
8
0
10
3101.762944
20
1250.664566
30
0.0
11
3101.762944
21
1250.289566
31
0.0
0
ARC
8
0
10
3101.562944
20
1250.289566
30
0.0
40
0.200000
50
270.000000
51
360.000000
0
LINE
8
0
10
3101.562944
20
1250.089566
30
0.0
11
3101.403417
21
1250.089566
31
0.0
0
ARC
8
0
10
3101.112944
20
1249.564566
30
0.0
40
0.600000
50
61.044976
51
298.955024
0
LINE
8
0
10
3101.403417
20
1249.039566
30
0.0
11
3101.562944
21
1249.039566
31
0.0
0
ARC
8
0
10
3101.562944
20
1248.839566
30
0.0
40
0.200000
50
360.000000
51
90.000000
0
LINE
8
0
10
3101.762944
20
1248.839566
30
0.0
11
3101.762944
21
1248.464566
31
0.0
0
LINE
8
0
10
3101.762944
20
1248.464566
30
0.0
11
3101.862944
21
1248.464566
31
0.0
0
LINE
8
0
10
3101.862944
20
1248.464566
30
0.0
11
3101.862944
21
1247.864566
31
0.0
0
ARC
8
0
10
3101.462944
20
1247.864566
30
0.0
40
0.400000
50
270.000000
51
360.000000
0
LINE
8
0
10
3101.462944
20
1247.464566
30
0.0
11
3101.282559
21
1247.464566
31
0.0
0
ARC
8
0
10
3101.282559
20
1247.764566
30
0.0
40
0.300000
50
240.000000
51
270.000000
0
LINE
8
0
10
3101.132559
20
1247.504758
30
0.0
11
3099.488777
21
1248.453796
31
0.0
0
ARC
8
0
10
3098.888777
20
1247.414566
30
0.0
40
1.200000
50
60.000000
51
90.000000
0
LINE
8
0
10
3098.888777
20
1248.614566
30
0.0
11
3097.865187
21
1248.614566
31
0.0
0
ARC
8
0
10
3097.865187
20
1248.914566
30
0.0
40
0.300000
50
212.000000
51
270.000000
0
LINE
8
0
10
3097.610773
20
1248.755590
30
0.0
11
3096.127373
21
1251.129525
31
0.0
0
ARC
8
0
10
3095.703349
20
1250.864566
30
0.0
40
0.500000
50
32.000000
51
90.000000
0
LINE
8
0
10
3095.703349
20
1251.364566
30
0.0
11
3090.862944
21
1251.364566
31
0.0
0
LINE
8
0
10
3090.862944
20
1251.364566
30
0.0
11
3086.022538
21
1251.364566
31
0.0
0
LINE
8
0
10
3078.866873
20
1244.649560
30
0.0
11
3079.207014
21
1244.989701
31
0.0
0
LINE
8
0
10
3079.888822
20
1243.426445
30
0.0
11
3080.748630
21
1244.286253
31
0.0
0
LINE
8
0
10
3079.503614
20
1240.796173
30
0.0
11
3082.612878
21
1243.905437
31
0.0
0
LINE
8
0
10
3082.173198
20
1241.220693
30
0.0
11
3083.614942
21
1242.662438
31
0.0
0
LINE
8
0
10
3083.065103
20
1239.867534
30
0.0
11
3084.503783
21
1241.306214
31
0.0
0
LINE
8
0
10
3084.236263
20
1238.793631
30
0.0
11
3086.236263
21
1240.793631
31
0.0
0
LINE
8
0
10
3086.481327
20
1238.793631
30
0.0
11
3088.481327
21
1240.793631
31
0.0
0
LINE
8
0
10
3088.726391
20
1238.793631
30
0.0
11
3090.726391
21
1240.793631
31
0.0
0
LINE
8
0
10
3090.971455
20
1238.793631
30
0.0
11
3092.971455
21
1240.793631
31
0.0
0
LINE
8
0
10
3093.216520
20
1238.793631
30
0.0
11
3095.216520
21
1240.793631
31
0.0
0
LINE
8
0
10
3095.461584
20
1238.793631
30
0.0
11
3100.922598
21
1244.254645
31
0.0
0
LINE
8
0
10
3097.707202
20
1238.794185
30
0.0
11
3098.429195
21
1239.516177
31
0.0
0
LINE
8
0
10
3102.355454
20
1243.442437
30
0.0
11
3102.762944
21
1243.849926
31
0.0
0
LINE
8
0
10
3100.620360
20
1241.707343
30
0.0
11
3101.564137
21
1242.651120
31
0.0
0
LINE
8
0
10
3102.042872
20
1240.884790
30
0.0
11
3102.862944
21
1241.704862
31
0.0
0
LINE
8
0
10
3080.430954
20
1241.317304
30
0.0
11
3079.424152
21
1242.324106
31
0.0
0
LINE
8
0
10
3085.199692
20
1238.793631
30
0.0
11
3079.056864
21
1244.936459
31
0.0
0
LINE
8
0
10
3087.444756
20
1238.793631
30
0.0
11
3085.444756
21
1240.793631
31
0.0
0
LINE
8
0
10
3083.689098
20
1242.549288
30
0.0
11
3082.245700
21
1243.992687
31
0.0
0
LINE
8
0
10
3089.689820
20
1238.793631
30
0.0
11
3087.689820
21
1240.793631
31
0.0
0
LINE
8
0
10
3091.934884
20
1238.793631
30
0.0
11
3089.934884
21
1240.793631
31
0.0
0
LINE
8
0
10
3094.179948
20
1238.793631
30
0.0
11
3092.179948
21
1240.793631
31
0.0
0
LINE
8
0
10
3096.425012
20
1238.793631
30
0.0
11
3094.425012
21
1240.793631
31
0.0
0
LINE
8
0
10
3098.237841
20
1239.225865
30
0.0
11
3096.629133
21
1240.834573
31
0.0
0
LINE
8
0
10
3099.129747
20
1240.579024
30
0.0
11
3097.689456
21
1242.019315
31
0.0
0
LINE
8
0
10
3100.171082
20
1241.782752
30
0.0
11
3098.578296
21
1243.375538
31
0.0
0
LINE
8
0
10
3102.862944
20
1241.335955
30
0.0
11
3101.839164
21
1242.359735
31
0.0
0
LINE
8
0
10
3101.579048
20
1242.619851
30
0.0
11
3100.205268
21
1243.993631
31
0.0
0
LINE
8
0
10
3102.762944
20
1243.681019
30
0.0
11
3101.725196
21
1244.718767
31
0.0
0
ARC
8
0
10
3084.042222
20
1239.293631
30
0.0
40
0.500000
50
213.390000
51
270.000000
0
LINE
8
0
10
3084.042222
20
1238.793631
30
0.0
11
3090.862944
21
1238.793631
31
0.0
0
LINE
8
0
10
3090.862944
20
1238.793631
30
0.0
11
3097.683665
21
1238.793631
31
0.0
0
ARC
8
0
10
3097.683665
20
1239.293631
30
0.0
40
0.500000
50
270.000000
51
326.610000
0
LINE
8
0
10
3098.101137
20
1239.018463
30
0.0
11
3099.731640
21
1241.492191
31
0.0
0
ARC
8
0
10
3100.291358
20
1241.123265
30
0.0
40
0.670365
50
59.960294
51
146.610000
0
LINE
8
0
10
3100.626943
20
1241.703586
30
0.0
11
3102.158093
21
1240.818161
31
0.0
0
LINE
8
0
10
3102.158093
20
1240.818161
30
0.0
11
3102.254064
21
1240.793631
31
0.0
0
LINE
8
0
10
3102.254064
20
1240.793631
30
0.0
11
3102.462944
21
1240.793631
31
0.0
0
ARC
8
0
10
3102.462944
20
1241.193631
30
0.0
40
0.400000
50
270.000000
51
360.000000
0
LINE
8
0
10
3102.862944
20
1241.193631
30
0.0
11
3102.862944
21
1241.793631
31
0.0
0
LINE
8
0
10
3102.862944
20
1241.793631
30
0.0
11
3102.762944
21
1241.793631
31
0.0
0
LINE
8
0
10
3102.762944
20
1241.793631
30
0.0
11
3102.762944
21
1242.168631
31
0.0
0
ARC
8
0
10
3102.562944
20
1242.168631
30
0.0
40
0.200000
50
360.000000
51
90.000000
0
LINE
8
0
10
3102.562944
20
1242.368631
30
0.0
11
3102.403417
21
1242.368631
31
0.0
0
ARC
8
0
10
3102.112944
20
1242.893631
30
0.0
40
0.600000
50
180.000000
51
298.955024
0
ARC
8
0
10
3102.112944
20
1242.893631
30
0.0
40
0.600000
50
61.044976
51
180.000000
0
LINE
8
0
10
3102.403417
20
1243.418631
30
0.0
11
3102.562944
21
1243.418631
31
0.0
0
ARC
8
0
10
3102.562944
20
1243.618631
30
0.0
40
0.200000
50
270.000000
51
360.000000
0
LINE
8
0
10
3102.762944
20
1243.618631
30
0.0
11
3102.762944
21
1243.993631
31
0.0
0
LINE
8
0
10
3102.762944
20
1243.993631
30
0.0
11
3102.862944
21
1243.993631
31
0.0
0
LINE
8
0
10
3102.862944
20
1243.993631
30
0.0
11
3102.862944
21
1244.593631
31
0.0
0
ARC
8
0
10
3102.462944
20
1244.593631
30
0.0
40
0.400000
50
360.000000
51
90.000000
0
LINE
8
0
10
3102.462944
20
1244.993631
30
0.0
11
3102.254064
21
1244.993631
31
0.0
0
LINE
8
0
10
3102.254064
20
1244.993631
30
0.0
11
3102.158093
21
1244.969100
31
0.0
0
LINE
8
0
10
3102.158093
20
1244.969100
30
0.0
11
3100.657054
21
1244.101088
31
0.0
0
ARC
8
0
10
3100.256574
20
1244.793631
30
0.0
40
0.800000
50
270.000000
51
300.039706
0
LINE
8
0
10
3100.256574
20
1243.993631
30
0.0
11
3099.523628
21
1243.993631
31
0.0
0
ARC
8
0
10
3099.523628
20
1242.993631
30
0.0
40
1.000000
50
90.000000
51
146.760000
0
LINE
8
0
10
3098.687246
20
1243.541778
30
0.0
11
3097.182302
21
1241.245483
31
0.0
0
ARC
8
0
10
3096.345921
20
1241.793631
30
0.0
40
1.000000
50
270.000000
51
326.760000
0
LINE
8
0
10
3096.345921
20
1240.793631
30
0.0
11
3090.862944
21
1240.793631
31
0.0
0
LINE
8
0
10
3090.862944
20
1240.793631
30
0.0
11
3085.530527
21
1240.793631
31
0.0
0
LINE
8
0
10
3085.530527
20
1240.793631
30
0.0
11
3085.379967
21
1240.793631
31
0.0
0
ARC
8
0
10
3085.379967
20
1241.793631
30
0.0
40
1.000000
50
213.240000
51
270.000000
0
LINE
8
0
10
3084.543585
20
1241.245483
30
0.0
11
3083.038641
21
1243.541778
31
0.0
0
ARC
8
0
10
3082.202259
20
1242.993631
30
0.0
40
1.000000
50
33.240000
51
90.000000
0
LINE
8
0
10
3082.202259
20
1243.993631
30
0.0
11
3081.469313
21
1243.993631
31
0.0
0
ARC
8
0
10
3081.469313
20
1244.793631
30
0.0
40
0.800000
50
239.960294
51
270.000000
0
LINE
8
0
10
3081.068833
20
1244.101088
30
0.0
11
3079.567794
21
1244.969100
31
0.0
0
LINE
8
0
10
3079.567794
20
1244.969100
30
0.0
11
3079.471823
21
1244.993631
31
0.0
0
LINE
8
0
10
3079.471823
20
1244.993631
30
0.0
11
3079.262944
21
1244.993631
31
0.0
0
ARC
8
0
10
3079.262944
20
1244.593631
30
0.0
40
0.400000
50
90.000000
51
180.000000
0
LINE
8
0
10
3078.862944
20
1244.593631
30
0.0
11
3078.862944
21
1243.993631
31
0.0
0
LINE
8
0
10
3078.862944
20
1243.993631
30
0.0
11
3078.962944
21
1243.993631
31
0.0
0
LINE
8
0
10
3078.962944
20
1243.993631
30
0.0
11
3078.962944
21
1243.618631
31
0.0
0
ARC
8
0
10
3079.162944
20
1243.618631
30
0.0
40
0.200000
50
180.000000
51
270.000000
0
LINE
8
0
10
3079.162944
20
1243.418631
30
0.0
11
3079.322470
21
1243.418631
31
0.0
0
ARC
8
0
10
3079.612944
20
1242.893631
30
0.0
40
0.600000
50
360.000000
51
118.955024
0
ARC
8
0
10
3079.612944
20
1242.893631
30
0.0
40
0.600000
50
241.044976
51
360.000000
0
LINE
8
0
10
3079.322470
20
1242.368631
30
0.0
11
3079.162944
21
1242.368631
31
0.0
0
ARC
8
0
10
3079.162944
20
1242.168631
30
0.0
40
0.200000
50
90.000000
51
180.000000
0
LINE
8
0
10
3078.962944
20
1242.168631
30
0.0
11
3078.962944
21
1241.793631
31
0.0
0
LINE
8
0
10
3078.962944
20
1241.793631
30
0.0
11
3078.862944
21
1241.793631
31
0.0
0
LINE
8
0
10
3078.862944
20
1241.793631
30
0.0
11
3078.862944
21
1241.193631
31
0.0
0
ARC
8
0
10
3079.262944
20
1241.193631
30
0.0
40
0.400000
50
180.000000
51
270.000000
0
LINE
8
0
10
3079.262944
20
1240.793631
30
0.0
11
3079.471823
21
1240.793631
31
0.0
0
LINE
8
0
10
3079.471823
20
1240.793631
30
0.0
11
3079.567794
21
1240.818161
31
0.0
0
LINE
8
0
10
3079.567794
20
1240.818161
30
0.0
11
3081.098944
21
1241.703586
31
0.0
0
ARC
8
0
10
3081.434529
20
1241.123265
30
0.0
40
0.670365
50
33.390000
51
120.039706
0
LINE
8
0
10
3081.994247
20
1241.492191
30
0.0
11
3083.624750
21
1239.018463
31
0.0
0
LINE
8
0
10
3086.290836
20
1249.446812
30
0.0
11
3086.387254
21
1249.561719
31
0.0
0
LINE
8
0
10
3086.568338
20
1247.942428
30
0.0
11
3086.664756
21
1248.057334
31
0.0
0
LINE
8
0
10
3087.725356
20
1249.321308
30
0.0
11
3087.821774
21
1249.436214
31
0.0
0
LINE
8
0
10
3088.882374
20
1250.700188
30
0.0
11
3088.960781
21
1250.793631
31
0.0
0
LINE
8
0
10
3086.845841
20
1246.438043
30
0.0
11
3086.942259
21
1246.552950
31
0.0
0
LINE
8
0
10
3088.002859
20
1247.816923
30
0.0
11
3088.099277
21
1247.931830
31
0.0
0
LINE
8
0
10
3089.159876
20
1249.195803
30
0.0
11
3089.256294
21
1249.310710
31
0.0
0
LINE
8
0
10
3090.316894
20
1250.574683
30
0.0
11
3090.413312
21
1250.689590
31
0.0
0
LINE
8
0
10
3085.966326
20
1243.554779
30
0.0
11
3086.062744
21
1243.669686
31
0.0
0
LINE
8
0
10
3087.123344
20
1244.933659
30
0.0
11
3087.219762
21
1245.048566
31
0.0
0
LINE
8
0
10
3088.280361
20
1246.312539
30
0.0
11
3088.376779
21
1246.427446
31
0.0
0
LINE
8
0
10
3089.437379
20
1247.691419
30
0.0
11
3089.533797
21
1247.806326
31
0.0
0
LINE
8
0
10
3090.594397
20
1249.070299
30
0.0
11
3090.690815
21
1249.185206
31
0.0
0
LINE
8
0
10
3091.751414
20
1250.449179
30
0.0
11
3091.847833
21
1250.564086
31
0.0
0
LINE
8
0
10
3086.243829
20
1242.050395
30
0.0
11
3086.340247
21
1242.165302
31
0.0
0
LINE
8
0
10
3087.400846
20
1243.429275
30
0.0
11
3087.497264
21
1243.544182
31
0.0
0
LINE
8
0
10
3088.557864
20
1244.808155
30
0.0
11
3088.654282
21
1244.923062
31
0.0
0
LINE
8
0
10
3089.714882
20
1246.187035
30
0.0
11
3089.811300
21
1246.301942
31
0.0
0
LINE
8
0
10
3090.871899
20
1247.565915
30
0.0
11
3090.968317
21
1247.680822
31
0.0
0
LINE
8
0
10
3092.028917
20
1248.944795
30
0.0
11
3092.125335
21
1249.059702
31
0.0
0
LINE
8
0
10
3093.185935
20
1250.323675
30
0.0
11
3093.282353
21
1250.438582
31
0.0
0
LINE
8
0
10
3087.678349
20
1241.924891
30
0.0
11
3087.774767
21
1242.039797
31
0.0
0
LINE
8
0
10
3088.835367
20
1243.303771
30
0.0
11
3088.931785
21
1243.418677
31
0.0
0
LINE
8
0
10
3089.992384
20
1244.682651
30
0.0
11
3090.088802
21
1244.797557
31
0.0
0
LINE
8
0
10
3091.149402
20
1246.061531
30
0.0
11
3091.245820
21
1246.176437
31
0.0
0
LINE
8
0
10
3092.306420
20
1247.440411
30
0.0
11
3092.402838
21
1247.555317
31
0.0
0
LINE
8
0
10
3093.463437
20
1248.819291
30
0.0
11
3093.559856
21
1248.934197
31
0.0
0
LINE
8
0
10
3094.620455
20
1250.198171
30
0.0
11
3094.716873
21
1250.313077
31
0.0
0
LINE
8
0
10
3089.112869
20
1241.799386
30
0.0
11
3089.209287
21
1241.914293
31
0.0
0
LINE
8
0
10
3090.269887
20
1243.178266
30
0.0
11
3090.366305
21
1243.293173
31
0.0
0
LINE
8
0
10
3091.426905
20
1244.557146
30
0.0
11
3091.523323
21
1244.672053
31
0.0
0
LINE
8
0
10
3092.583922
20
1245.936026
30
0.0
11
3092.680341
21
1246.050933
31
0.0
0
LINE
8
0
10
3093.740940
20
1247.314906
30
0.0
11
3093.837358
21
1247.429813
31
0.0
0
LINE
8
0
10
3094.897958
20
1248.693786
30
0.0
11
3094.994376
21
1248.808693
31
0.0
0
LINE
8
0
10
3090.547390
20
1241.673882
30
0.0
11
3090.643808
21
1241.788789
31
0.0
0
LINE
8
0
10
3091.704407
20
1243.052762
30
0.0
11
3091.800825
21
1243.167669
31
0.0
0
LINE
8
0
10
3092.861425
20
1244.431642
30
0.0
11
3092.957843
21
1244.546549
31
0.0
0
LINE
8
0
10
3094.018443
20
1245.810522
30
0.0
11
3094.114861
21
1245.925429
31
0.0
0
LINE
8
0
10
3095.175460
20
1247.189402
30
0.0
11
3095.271879
21
1247.304309
31
0.0
0
LINE
8
0
10
3091.981910
20
1241.548378
30
0.0
11
3092.078328
21
1241.663285
31
0.0
0
LINE
8
0
10
3093.138928
20
1242.927258
30
0.0
11
3093.235346
21
1243.042165
31
0.0
0
LINE
8
0
10
3094.295945
20
1244.306138
30
0.0
11
3094.392364
21
1244.421045
31
0.0
0
LINE
8
0
10
3095.452963
20
1245.685018
30
0.0
11
3095.549381
21
1245.799925
31
0.0
0
LINE
8
0
10
3093.416430
20
1241.422874
30
0.0
11
3093.512849
21
1241.537780
31
0.0
0
LINE
8
0
10
3094.573448
20
1242.801754
30
0.0
11
3094.669866
21
1242.916660
31
0.0
0
LINE
8
0
10
3095.730466
20
1244.180634
30
0.0
11
3095.826884
21
1244.295540
31
0.0
0
LINE
8
0
10
3094.850951
20
1241.297369
30
0.0
11
3094.947369
21
1241.412276
31
0.0
0
LINE
8
0
10
3088.882374
20
1250.700188
30
0.0
11
3089.001917
21
1250.689730
31
0.0
0
LINE
8
0
10
3090.316894
20
1250.574684
30
0.0
11
3090.436437
21
1250.564225
31
0.0
0
LINE
8
0
10
3091.751414
20
1250.449180
30
0.0
11
3091.870958
21
1250.438721
31
0.0
0
LINE
8
0
10
3093.185935
20
1250.323675
30
0.0
11
3093.305478
21
1250.313217
31
0.0
0
LINE
8
0
10
3094.620455
20
1250.198171
30
0.0
11
3094.739999
21
1250.187713
31
0.0
0
LINE
8
0
10
3086.290836
20
1249.446813
30
0.0
11
3086.410379
21
1249.436354
31
0.0
0
LINE
8
0
10
3087.725356
20
1249.321308
30
0.0
11
3087.844899
21
1249.310850
31
0.0
0
LINE
8
0
10
3089.159876
20
1249.195804
30
0.0
11
3089.279420
21
1249.185345
31
0.0
0
LINE
8
0
10
3090.594397
20
1249.070300
30
0.0
11
3090.713940
21
1249.059841
31
0.0
0
LINE
8
0
10
3092.028917
20
1248.944795
30
0.0
11
3092.148461
21
1248.934337
31
0.0
0
LINE
8
0
10
3093.463438
20
1248.819291
30
0.0
11
3093.582981
21
1248.808833
31
0.0
0
LINE
8
0
10
3094.897958
20
1248.693787
30
0.0
11
3095.017501
21
1248.683328
31
0.0
0
LINE
8
0
10
3086.568338
20
1247.942428
30
0.0
11
3086.687882
21
1247.931970
31
0.0
0
LINE
8
0
10
3088.002859
20
1247.816924
30
0.0
11
3088.122402
21
1247.806465
31
0.0
0
LINE
8
0
10
3089.437379
20
1247.691420
30
0.0
11
3089.556922
21
1247.680961
31
0.0
0
LINE
8
0
10
3090.871899
20
1247.565915
30
0.0
11
3090.991443
21
1247.555457
31
0.0
0
LINE
8
0
10
3092.306420
20
1247.440411
30
0.0
11
3092.425963
21
1247.429953
31
0.0
0
LINE
8
0
10
3093.740940
20
1247.314907
30
0.0
11
3093.860484
21
1247.304448
31
0.0
0
LINE
8
0
10
3095.175461
20
1247.189403
30
0.0
11
3095.295004
21
1247.178944
31
0.0
0
LINE
8
0
10
3086.845841
20
1246.438044
30
0.0
11
3086.965384
21
1246.427585
31
0.0
0
LINE
8
0
10
3088.280361
20
1246.312540
30
0.0
11
3088.399905
21
1246.302081
31
0.0
0
LINE
8
0
10
3089.714882
20
1246.187035
30
0.0
11
3089.834425
21
1246.176577
31
0.0
0
LINE
8
0
10
3091.149402
20
1246.061531
30
0.0
11
3091.268945
21
1246.051073
31
0.0
0
LINE
8
0
10
3092.583922
20
1245.936027
30
0.0
11
3092.703466
21
1245.925568
31
0.0
0
LINE
8
0
10
3094.018443
20
1245.810523
30
0.0
11
3094.137986
21
1245.800064
31
0.0
0
LINE
8
0
10
3095.452963
20
1245.685018
30
0.0
11
3095.572507
21
1245.674560
31
0.0
0
LINE
8
0
10
3087.123344
20
1244.933660
30
0.0
11
3087.242887
21
1244.923201
31
0.0
0
LINE
8
0
10
3088.557864
20
1244.808155
30
0.0
11
3088.677407
21
1244.797697
31
0.0
0
LINE
8
0
10
3089.992384
20
1244.682651
30
0.0
11
3090.111928
21
1244.672193
31
0.0
0
LINE
8
0
10
3091.426905
20
1244.557147
30
0.0
11
3091.546448
21
1244.546688
31
0.0
0
LINE
8
0
10
3092.861425
20
1244.431643
30
0.0
11
3092.980969
21
1244.421184
31
0.0
0
LINE
8
0
10
3094.295946
20
1244.306138
30
0.0
11
3094.415489
21
1244.295680
31
0.0
0
LINE
8
0
10
3095.730466
20
1244.180634
30
0.0
11
3095.850009
21
1244.170175
31
0.0
0
LINE
8
0
10
3085.966326
20
1243.554780
30
0.0
11
3086.085869
21
1243.544321
31
0.0
0
LINE
8
0
10
3087.400846
20
1243.429275
30
0.0
11
3087.520390
21
1243.418817
31
0.0
0
LINE
8
0
10
3088.835367
20
1243.303771
30
0.0
11
3088.954910
21
1243.293313
31
0.0
0
LINE
8
0
10
3090.269887
20
1243.178267
30
0.0
11
3090.389430
21
1243.167808
31
0.0
0
LINE
8
0
10
3091.704407
20
1243.052763
30
0.0
11
3091.823951
21
1243.042304
31
0.0
0
LINE
8
0
10
3093.138928
20
1242.927258
30
0.0
11
3093.258471
21
1242.916800
31
0.0
0
LINE
8
0
10
3094.573448
20
1242.801754
30
0.0
11
3094.692992
21
1242.791295
31
0.0
0
LINE
8
0
10
3086.243829
20
1242.050395
30
0.0
11
3086.363372
21
1242.039937
31
0.0
0
LINE
8
0
10
3087.678349
20
1241.924891
30
0.0
11
3087.797892
21
1241.914433
31
0.0
0
LINE
8
0
10
3089.112869
20
1241.799387
30
0.0
11
3089.232413
21
1241.788928
31
0.0
0
LINE
8
0
10
3090.547390
20
1241.673883
30
0.0
11
3090.666933
21
1241.663424
31
0.0
0
LINE
8
0
10
3091.981910
20
1241.548378
30
0.0
11
3092.101453
21
1241.537920
31
0.0
0
LINE
8
0
10
3093.416430
20
1241.422874
30
0.0
11
3093.535974
21
1241.412415
31
0.0
0
LINE
8
0
10
3094.850951
20
1241.297370
30
0.0
11
3094.970494
21
1241.286911
31
0.0
0
LINE
8
0
10
3086.363265
20
1242.038428
30
0.0
11
3086.340140
21
1242.163794
31
0.0
0
LINE
8
0
10
3086.085763
20
1243.542813
30
0.0
11
3086.062638
21
1243.668178
31
0.0
0
LINE
8
0
10
3087.797785
20
1241.912923
30
0.0
11
3087.774660
21
1242.038288
31
0.0
0
LINE
8
0
10
3087.520284
20
1243.417307
30
0.0
11
3087.497158
21
1243.542673
31
0.0
0
LINE
8
0
10
3087.242782
20
1244.921692
30
0.0
11
3087.219657
21
1245.047057
31
0.0
0
LINE
8
0
10
3086.965281
20
1246.426076
30
0.0
11
3086.942155
21
1246.551442
31
0.0
0
LINE
8
0
10
3086.687779
20
1247.930461
30
0.0
11
3086.664654
21
1248.055826
31
0.0
0
LINE
8
0
10
3086.410278
20
1249.434845
30
0.0
11
3086.387152
21
1249.560211
31
0.0
0
LINE
8
0
10
3089.232305
20
1241.787418
30
0.0
11
3089.209180
21
1241.912783
31
0.0
0
LINE
8
0
10
3088.954804
20
1243.291802
30
0.0
11
3088.931679
21
1243.417167
31
0.0
0
LINE
8
0
10
3088.677302
20
1244.796187
30
0.0
11
3088.654177
21
1244.921552
31
0.0
0
LINE
8
0
10
3088.399801
20
1246.300571
30
0.0
11
3088.376676
21
1246.425936
31
0.0
0
LINE
8
0
10
3088.122299
20
1247.804956
30
0.0
11
3088.099174
21
1247.930321
31
0.0
0
LINE
8
0
10
3087.844798
20
1249.309340
30
0.0
11
3087.821673
21
1249.434705
31
0.0
0
LINE
8
0
10
3090.666826
20
1241.661912
30
0.0
11
3090.643700
21
1241.787278
31
0.0
0
LINE
8
0
10
3090.389324
20
1243.166297
30
0.0
11
3090.366199
21
1243.291662
31
0.0
0
LINE
8
0
10
3090.111823
20
1244.670681
30
0.0
11
3090.088697
21
1244.796047
31
0.0
0
LINE
8
0
10
3089.834321
20
1246.175066
30
0.0
11
3089.811196
21
1246.300431
31
0.0
0
LINE
8
0
10
3089.556820
20
1247.679450
30
0.0
11
3089.533694
21
1247.804815
31
0.0
0
LINE
8
0
10
3089.279318
20
1249.183835
30
0.0
11
3089.256193
21
1249.309200
31
0.0
0
LINE
8
0
10
3089.001817
20
1250.688219
30
0.0
11
3088.982372
21
1250.793631
31
0.0
0
LINE
8
0
10
3092.101346
20
1241.536407
30
0.0
11
3092.078221
21
1241.661772
31
0.0
0
LINE
8
0
10
3091.823844
20
1243.040791
30
0.0
11
3091.800719
21
1243.166157
31
0.0
0
LINE
8
0
10
3091.546343
20
1244.545176
30
0.0
11
3091.523218
21
1244.670541
31
0.0
0
LINE
8
0
10
3091.268841
20
1246.049560
30
0.0
11
3091.245716
21
1246.174926
31
0.0
0
LINE
8
0
10
3090.991340
20
1247.553945
30
0.0
11
3090.968215
21
1247.679310
31
0.0
0
LINE
8
0
10
3090.713838
20
1249.058329
30
0.0
11
3090.690713
21
1249.183695
31
0.0
0
LINE
8
0
10
3090.436337
20
1250.562714
30
0.0
11
3090.413212
21
1250.688079
31
0.0
0
LINE
8
0
10
3093.535866
20
1241.410901
30
0.0
11
3093.512741
21
1241.536267
31
0.0
0
LINE
8
0
10
3093.258365
20
1242.915286
30
0.0
11
3093.235239
21
1243.040651
31
0.0
0
LINE
8
0
10
3092.980863
20
1244.419670
30
0.0
11
3092.957738
21
1244.545036
31
0.0
0
LINE
8
0
10
3092.703362
20
1245.924055
30
0.0
11
3092.680236
21
1246.049420
31
0.0
0
LINE
8
0
10
3092.425860
20
1247.428439
30
0.0
11
3092.402735
21
1247.553805
31
0.0
0
LINE
8
0
10
3092.148359
20
1248.932824
30
0.0
11
3092.125233
21
1249.058189
31
0.0
0
LINE
8
0
10
3091.870857
20
1250.437208
30
0.0
11
3091.847732
21
1250.562574
31
0.0
0
LINE
8
0
10
3094.970386
20
1241.285396
30
0.0
11
3094.947261
21
1241.410761
31
0.0
0
LINE
8
0
10
3094.692885
20
1242.789780
30
0.0
11
3094.669760
21
1242.915146
31
0.0
0
LINE
8
0
10
3094.415383
20
1244.294165
30
0.0
11
3094.392258
21
1244.419530
31
0.0
0
LINE
8
0
10
3094.137882
20
1245.798549
30
0.0
11
3094.114757
21
1245.923915
31
0.0
0
LINE
8
0
10
3093.860380
20
1247.302934
30
0.0
11
3093.837255
21
1247.428299
31
0.0
0
LINE
8
0
10
3093.582879
20
1248.807318
30
0.0
11
3093.559754
21
1248.932684
31
0.0
0
LINE
8
0
10
3093.305377
20
1250.311703
30
0.0
11
3093.282252
21
1250.437068
31
0.0
0
LINE
8
0
10
3095.849904
20
1244.168660
30
0.0
11
3095.826778
21
1244.294025
31
0.0
0
LINE
8
0
10
3095.572402
20
1245.673044
30
0.0
11
3095.549277
21
1245.798409
31
0.0
0
LINE
8
0
10
3095.294901
20
1247.177429
30
0.0
11
3095.271775
21
1247.302794
31
0.0
0
LINE
8
0
10
3095.017399
20
1248.681813
30
0.0
11
3094.994274
21
1248.807178
31
0.0
0
LINE
8
0
10
3094.739898
20
1250.186197
30
0.0
11
3094.716772
21
1250.311563
31
0.0
0
LINE
8
0
10
3086.354447
20
1250.319086
30
0.0
11
3086.510224
21
1250.481439
31
0.0
0
LINE
8
0
10
3086.619605
20
1248.039811
30
0.0
11
3086.775382
21
1248.202164
31
0.0
0
LINE
8
0
10
3088.488929
20
1249.988048
30
0.0
11
3088.644706
21
1250.150401
31
0.0
0
LINE
8
0
10
3086.884764
20
1245.760536
30
0.0
11
3087.040541
21
1245.922889
31
0.0
0
LINE
8
0
10
3088.754087
20
1247.708773
30
0.0
11
3088.909864
21
1247.871126
31
0.0
0
LINE
8
0
10
3090.623411
20
1249.657010
30
0.0
11
3090.779188
21
1249.819363
31
0.0
0
LINE
8
0
10
3087.149922
20
1243.481260
30
0.0
11
3087.305699
21
1243.643614
31
0.0
0
LINE
8
0
10
3089.019246
20
1245.429498
30
0.0
11
3089.175023
21
1245.591851
31
0.0
0
LINE
8
0
10
3090.888570
20
1247.377735
30
0.0
11
3091.044347
21
1247.540088
31
0.0
0
LINE
8
0
10
3092.757893
20
1249.325972
30
0.0
11
3092.913670
21
1249.488325
31
0.0
0
LINE
8
0
10
3087.415080
20
1241.201985
30
0.0
11
3087.570857
21
1241.364338
31
0.0
0
LINE
8
0
10
3089.284404
20
1243.150222
30
0.0
11
3089.440181
21
1243.312576
31
0.0
0
LINE
8
0
10
3091.153728
20
1245.098460
30
0.0
11
3091.309505
21
1245.260813
31
0.0
0
LINE
8
0
10
3093.023052
20
1247.046697
30
0.0
11
3093.178829
21
1247.209050
31
0.0
0
LINE
8
0
10
3094.892376
20
1248.994934
30
0.0
11
3095.048153
21
1249.157287
31
0.0
0
LINE
8
0
10
3089.549562
20
1240.870947
30
0.0
11
3089.705339
21
1241.033300
31
0.0
0
LINE
8
0
10
3091.418886
20
1242.819184
30
0.0
11
3091.574663
21
1242.981538
31
0.0
0
LINE
8
0
10
3093.288210
20
1244.767422
30
0.0
11
3093.443987
21
1244.929775
31
0.0
0
LINE
8
0
10
3095.157534
20
1246.715659
30
0.0
11
3095.313311
21
1246.878012
31
0.0
0
LINE
8
0
10
3093.553368
20
1242.488146
30
0.0
11
3093.709145
21
1242.650500
31
0.0
0
LINE
8
0
10
3095.422692
20
1244.436384
30
0.0
11
3095.578469
21
1244.598737
31
0.0
0
LINE
8
0
10
3095.687850
20
1242.157108
30
0.0
11
3095.843627
21
1242.319461
31
0.0
0
LINE
8
0
10
3087.592828
20
1241.173175
30
0.0
11
3087.570732
21
1241.363115
31
0.0
0
LINE
8
0
10
3087.327672
20
1243.452450
30
0.0
11
3087.305575
21
1243.642390
31
0.0
0
LINE
8
0
10
3087.062515
20
1245.731725
30
0.0
11
3087.040419
21
1245.921665
31
0.0
0
LINE
8
0
10
3086.797359
20
1248.011001
30
0.0
11
3086.775262
21
1248.200940
31
0.0
0
LINE
8
0
10
3086.532202
20
1250.290276
30
0.0
11
3086.510106
21
1250.480215
31
0.0
0
LINE
8
0
10
3089.727310
20
1240.842136
30
0.0
11
3089.705213
21
1241.032076
31
0.0
0
LINE
8
0
10
3089.462153
20
1243.121411
30
0.0
11
3089.440057
21
1243.311351
31
0.0
0
LINE
8
0
10
3089.196997
20
1245.400686
30
0.0
11
3089.174901
21
1245.590626
31
0.0
0
LINE
8
0
10
3088.931841
20
1247.679961
30
0.0
11
3088.909744
21
1247.869901
31
0.0
0
LINE
8
0
10
3088.666684
20
1249.959236
30
0.0
11
3088.644588
21
1250.149176
31
0.0
0
LINE
8
0
10
3091.596635
20
1242.790372
30
0.0
11
3091.574539
21
1242.980311
31
0.0
0
LINE
8
0
10
3091.331479
20
1245.069647
30
0.0
11
3091.309382
21
1245.259586
31
0.0
0
LINE
8
0
10
3091.066322
20
1247.348922
30
0.0
11
3091.044226
21
1247.538861
31
0.0
0
LINE
8
0
10
3090.801166
20
1249.628197
30
0.0
11
3090.779070
21
1249.818137
31
0.0
0
LINE
8
0
10
3093.731117
20
1242.459332
30
0.0
11
3093.709021
21
1242.649272
31
0.0
0
LINE
8
0
10
3093.465961
20
1244.738607
30
0.0
11
3093.443864
21
1244.928547
31
0.0
0
LINE
8
0
10
3093.200804
20
1247.017882
30
0.0
11
3093.178708
21
1247.207822
31
0.0
0
LINE
8
0
10
3092.935648
20
1249.297158
30
0.0
11
3092.913551
21
1249.487097
31
0.0
0
LINE
8
0
10
3095.862944
20
1242.151118
30
0.0
11
3095.843502
21
1242.318233
31
0.0
0
LINE
8
0
10
3095.600442
20
1244.407568
30
0.0
11
3095.578346
21
1244.597508
31
0.0
0
LINE
8
0
10
3095.335286
20
1246.686843
30
0.0
11
3095.313190
21
1246.876783
31
0.0
0
LINE
8
0
10
3095.070130
20
1248.966118
30
0.0
11
3095.048033
21
1249.156058
31
0.0
0
LINE
8
0
10
3086.354447
20
1250.319087
30
0.0
11
3086.532321
21
1250.291500
31
0.0
0
LINE
8
0
10
3088.488929
20
1249.988049
30
0.0
11
3088.666803
21
1249.960462
31
0.0
0
LINE
8
0
10
3090.623411
20
1249.657011
30
0.0
11
3090.801285
21
1249.629424
31
0.0
0
LINE
8
0
10
3092.757894
20
1249.325973
30
0.0
11
3092.935767
21
1249.298386
31
0.0
0
LINE
8
0
10
3094.892376
20
1248.994935
30
0.0
11
3095.070249
21
1248.967348
31
0.0
0
LINE
8
0
10
3086.619605
20
1248.039811
30
0.0
11
3086.797479
21
1248.012225
31
0.0
0
LINE
8
0
10
3088.754088
20
1247.708773
30
0.0
11
3088.931961
21
1247.681187
31
0.0
0
LINE
8
0
10
3090.888570
20
1247.377735
30
0.0
11
3091.066443
21
1247.350149
31
0.0
0
LINE
8
0
10
3093.023052
20
1247.046697
30
0.0
11
3093.200925
21
1247.019111
31
0.0
0
LINE
8
0
10
3095.157534
20
1246.715659
30
0.0
11
3095.335407
21
1246.688073
31
0.0
0
LINE
8
0
10
3086.884764
20
1245.760536
30
0.0
11
3087.062637
21
1245.732950
31
0.0
0
LINE
8
0
10
3089.019246
20
1245.429498
30
0.0
11
3089.197119
21
1245.401912
31
0.0
0
LINE
8
0
10
3091.153728
20
1245.098460
30
0.0
11
3091.331601
21
1245.070874
31
0.0
0
LINE
8
0
10
3093.288210
20
1244.767422
30
0.0
11
3093.466083
21
1244.739836
31
0.0
0
LINE
8
0
10
3095.422692
20
1244.436384
30
0.0
11
3095.600566
21
1244.408798
31
0.0
0
LINE
8
0
10
3087.149922
20
1243.481261
30
0.0
11
3087.327795
21
1243.453675
31
0.0
0
LINE
8
0
10
3089.284404
20
1243.150223
30
0.0
11
3089.462278
21
1243.122637
31
0.0
0
LINE
8
0
10
3091.418886
20
1242.819185
30
0.0
11
3091.596760
21
1242.791598
31
0.0
0
LINE
8
0
10
3093.553368
20
1242.488147
30
0.0
11
3093.731242
21
1242.460560
31
0.0
0
LINE
8
0
10
3095.687850
20
1242.157109
30
0.0
11
3095.862944
21
1242.129954
31
0.0
0
LINE
8
0
10
3087.415080
20
1241.201986
30
0.0
11
3087.592954
21
1241.174399
31
0.0
0
LINE
8
0
10
3089.549562
20
1240.870948
30
0.0
11
3089.727436
21
1240.843361
31
0.0
0
LINE
8
0
10
3087.161138
20
1250.751820
30
0.0
11
3087.270059
21
1250.793631
31
0.0
0
LINE
8
0
10
3086.674507
20
1249.301520
30
0.0
11
3086.814544
21
1249.355275
31
0.0
0
LINE
8
0
10
3088.354952
20
1249.946582
30
0.0
11
3088.494989
21
1250.000337
31
0.0
0
LINE
8
0
10
3090.035397
20
1250.591644
30
0.0
11
3090.175434
21
1250.645399
31
0.0
0
LINE
8
0
10
3086.187877
20
1247.851219
30
0.0
11
3086.327914
21
1247.904975
31
0.0
0
LINE
8
0
10
3087.868321
20
1248.496282
30
0.0
11
3088.008358
21
1248.550037
31
0.0
0
LINE
8
0
10
3089.548766
20
1249.141344
30
0.0
11
3089.688803
21
1249.195099
31
0.0
0
LINE
8
0
10
3091.229211
20
1249.786406
30
0.0
11
3091.369248
21
1249.840162
31
0.0
0
LINE
8
0
10
3092.909656
20
1250.431469
30
0.0
11
3093.049693
21
1250.485224
31
0.0
0
LINE
8
0
10
3087.381691
20
1247.045982
30
0.0
11
3087.521728
21
1247.099737
31
0.0
0
LINE
8
0
10
3089.062136
20
1247.691044
30
0.0
11
3089.202173
21
1247.744799
31
0.0
0
LINE
8
0
10
3090.742580
20
1248.336106
30
0.0
11
3090.882617
21
1248.389862
31
0.0
0
LINE
8
0
10
3092.423025
20
1248.981169
30
0.0
11
3092.563062
21
1249.034924
31
0.0
0
LINE
8
0
10
3094.103470
20
1249.626231
30
0.0
11
3094.243507
21
1249.679986
31
0.0
0
LINE
8
0
10
3086.895060
20
1245.595682
30
0.0
11
3087.035097
21
1245.649437
31
0.0
0
LINE
8
0
10
3088.575505
20
1246.240744
30
0.0
11
3088.715542
21
1246.294499
31
0.0
0
LINE
8
0
10
3090.255950
20
1246.885806
30
0.0
11
3090.395987
21
1246.939561
31
0.0
0
LINE
8
0
10
3091.936394
20
1247.530869
30
0.0
11
3092.076431
21
1247.584624
31
0.0
0
LINE
8
0
10
3093.616839
20
1248.175931
30
0.0
11
3093.756876
21
1248.229686
31
0.0
0
LINE
8
0
10
3095.297284
20
1248.820993
30
0.0
11
3095.437321
21
1248.874748
31
0.0
0
LINE
8
0
10
3086.408429
20
1244.145382
30
0.0
11
3086.548466
21
1244.199137
31
0.0
0
LINE
8
0
10
3088.088874
20
1244.790444
30
0.0
11
3088.228911
21
1244.844199
31
0.0
0
LINE
8
0
10
3089.769319
20
1245.435506
30
0.0
11
3089.909356
21
1245.489261
31
0.0
0
LINE
8
0
10
3091.449764
20
1246.080568
30
0.0
11
3091.589801
21
1246.134324
31
0.0
0
LINE
8
0
10
3093.130208
20
1246.725631
30
0.0
11
3093.270246
21
1246.779386
31
0.0
0
LINE
8
0
10
3094.810653
20
1247.370693
30
0.0
11
3094.950690
21
1247.424448
31
0.0
0
LINE
8
0
10
3085.921799
20
1242.695081
30
0.0
11
3086.061836
21
1242.748837
31
0.0
0
LINE
8
0
10
3087.602244
20
1243.340144
30
0.0
11
3087.742281
21
1243.393899
31
0.0
0
LINE
8
0
10
3089.282688
20
1243.985206
30
0.0
11
3089.422725
21
1244.038961
31
0.0
0
LINE
8
0
10
3090.963133
20
1244.630268
30
0.0
11
3091.103170
21
1244.684024
31
0.0
0
LINE
8
0
10
3092.643578
20
1245.275331
30
0.0
11
3092.783615
21
1245.329086
31
0.0
0
LINE
8
0
10
3094.324023
20
1245.920393
30
0.0
11
3094.464060
21
1245.974148
31
0.0
0
LINE
8
0
10
3087.115613
20
1241.889844
30
0.0
11
3087.255650
21
1241.943599
31
0.0
0
LINE
8
0
10
3088.796058
20
1242.534906
30
0.0
11
3088.936095
21
1242.588661
31
0.0
0
LINE
8
0
10
3090.476502
20
1243.179968
30
0.0
11
3090.616539
21
1243.233723
31
0.0
0
LINE
8
0
10
3092.156947
20
1243.825031
30
0.0
11
3092.296984
21
1243.878786
31
0.0
0
LINE
8
0
10
3093.837392
20
1244.470093
30
0.0
11
3093.977429
21
1244.523848
31
0.0
0
LINE
8
0
10
3095.517837
20
1245.115155
30
0.0
11
3095.657874
21
1245.168910
31
0.0
0
LINE
8
0
10
3088.309427
20
1241.084606
30
0.0
11
3088.449464
21
1241.138361
31
0.0
0
LINE
8
0
10
3089.989872
20
1241.729668
30
0.0
11
3090.129909
21
1241.783423
31
0.0
0
LINE
8
0
10
3091.670316
20
1242.374730
30
0.0
11
3091.810354
21
1242.428486
31
0.0
0
LINE
8
0
10
3093.350761
20
1243.019793
30
0.0
11
3093.490798
21
1243.073548
31
0.0
0
LINE
8
0
10
3095.031206
20
1243.664855
30
0.0
11
3095.171243
21
1243.718610
31
0.0
0
LINE
8
0
10
3091.183686
20
1240.924430
30
0.0
11
3091.323723
21
1240.978186
31
0.0
0
LINE
8
0
10
3092.864131
20
1241.569493
30
0.0
11
3093.004168
21
1241.623248
31
0.0
0
LINE
8
0
10
3094.544575
20
1242.214555
30
0.0
11
3094.684612
21
1242.268310
31
0.0
0
LINE
8
0
10
3094.134471
20
1240.793631
30
0.0
11
3094.197982
21
1240.818010
31
0.0
0
LINE
8
0
10
3095.738389
20
1241.409317
30
0.0
11
3095.794877
21
1241.431001
31
0.0
0
LINE
8
0
10
3092.909656
20
1250.431469
30
0.0
11
3093.009141
21
1250.364366
31
0.0
0
LINE
8
0
10
3094.103470
20
1249.626231
30
0.0
11
3094.202955
21
1249.559128
31
0.0
0
LINE
8
0
10
3095.297284
20
1248.820993
30
0.0
11
3095.396769
21
1248.753890
31
0.0
0
LINE
8
0
10
3090.035397
20
1250.591644
30
0.0
11
3090.134882
21
1250.524541
31
0.0
0
LINE
8
0
10
3091.229212
20
1249.786407
30
0.0
11
3091.328696
21
1249.719303
31
0.0
0
LINE
8
0
10
3092.423026
20
1248.981169
30
0.0
11
3092.522510
21
1248.914066
31
0.0
0
LINE
8
0
10
3093.616840
20
1248.175931
30
0.0
11
3093.716324
21
1248.108828
31
0.0
0
LINE
8
0
10
3094.810654
20
1247.370693
30
0.0
11
3094.910138
21
1247.303590
31
0.0
0
LINE
8
0
10
3087.161139
20
1250.751820
30
0.0
11
3087.260623
21
1250.684717
31
0.0
0
LINE
8
0
10
3088.354953
20
1249.946582
30
0.0
11
3088.454437
21
1249.879479
31
0.0
0
LINE
8
0
10
3089.548767
20
1249.141344
30
0.0
11
3089.648251
21
1249.074241
31
0.0
0
LINE
8
0
10
3090.742581
20
1248.336106
30
0.0
11
3090.842065
21
1248.269003
31
0.0
0
LINE
8
0
10
3091.936395
20
1247.530869
30
0.0
11
3092.035879
21
1247.463766
31
0.0
0
LINE
8
0
10
3093.130209
20
1246.725631
30
0.0
11
3093.229694
21
1246.658528
31
0.0
0
LINE
8
0
10
3094.324023
20
1245.920393
30
0.0
11
3094.423508
21
1245.853290
31
0.0
0
LINE
8
0
10
3095.517837
20
1245.115155
30
0.0
11
3095.617322
21
1245.048052
31
0.0
0
LINE
8
0
10
3086.674508
20
1249.301520
30
0.0
11
3086.773992
21
1249.234417
31
0.0
0
LINE
8
0
10
3087.868322
20
1248.496282
30
0.0
11
3087.967806
21
1248.429179
31
0.0
0
LINE
8
0
10
3089.062136
20
1247.691044
30
0.0
11
3089.161621
21
1247.623941
31
0.0
0
LINE
8
0
10
3090.255950
20
1246.885806
30
0.0
11
3090.355435
21
1246.818703
31
0.0
0
LINE
8
0
10
3091.449764
20
1246.080569
30
0.0
11
3091.549249
21
1246.013465
31
0.0
0
LINE
8
0
10
3092.643578
20
1245.275331
30
0.0
11
3092.743063
21
1245.208228
31
0.0
0
LINE
8
0
10
3093.837393
20
1244.470093
30
0.0
11
3093.936877
21
1244.402990
31
0.0
0
LINE
8
0
10
3095.031207
20
1243.664855
30
0.0
11
3095.130691
21
1243.597752
31
0.0
0
LINE
8
0
10
3086.187877
20
1247.851220
30
0.0
11
3086.287362
21
1247.784117
31
0.0
0
LINE
8
0
10
3087.381691
20
1247.045982
30
0.0
11
3087.481176
21
1246.978879
31
0.0
0
LINE
8
0
10
3088.575505
20
1246.240744
30
0.0
11
3088.674990
21
1246.173641
31
0.0
0
LINE
8
0
10
3089.769320
20
1245.435506
30
0.0
11
3089.868804
21
1245.368403
31
0.0
0
LINE
8
0
10
3090.963134
20
1244.630269
30
0.0
11
3091.062618
21
1244.563165
31
0.0
0
LINE
8
0
10
3092.156948
20
1243.825031
30
0.0
11
3092.256432
21
1243.757928
31
0.0
0
LINE
8
0
10
3093.350762
20
1243.019793
30
0.0
11
3093.450246
21
1242.952690
31
0.0
0
LINE
8
0
10
3094.544576
20
1242.214555
30
0.0
11
3094.644060
21
1242.147452
31
0.0
0
LINE
8
0
10
3095.738390
20
1241.409317
30
0.0
11
3095.775365
21
1241.384378
31
0.0
0
LINE
8
0
10
3086.895061
20
1245.595682
30
0.0
11
3086.994545
21
1245.528579
31
0.0
0
LINE
8
0
10
3088.088875
20
1244.790444
30
0.0
11
3088.188359
21
1244.723341
31
0.0
0
LINE
8
0
10
3089.282689
20
1243.985206
30
0.0
11
3089.382173
21
1243.918103
31
0.0
0
LINE
8
0
10
3090.476503
20
1243.179968
30
0.0
11
3090.575987
21
1243.112865
31
0.0
0
LINE
8
0
10
3091.670317
20
1242.374731
30
0.0
11
3091.769802
21
1242.307628
31
0.0
0
LINE
8
0
10
3092.864131
20
1241.569493
30
0.0
11
3092.963616
21
1241.502390
31
0.0
0
LINE
8
0
10
3086.408430
20
1244.145382
30
0.0
11
3086.507914
21
1244.078279
31
0.0
0
LINE
8
0
10
3087.602244
20
1243.340144
30
0.0
11
3087.701729
21
1243.273041
31
0.0
0
LINE
8
0
10
3088.796058
20
1242.534906
30
0.0
11
3088.895543
21
1242.467803
31
0.0
0
LINE
8
0
10
3089.989872
20
1241.729668
30
0.0
11
3090.089357
21
1241.662565
31
0.0
0
LINE
8
0
10
3091.183686
20
1240.924431
30
0.0
11
3091.283171
21
1240.857327
31
0.0
0
LINE
8
0
10
3085.921799
20
1242.695082
30
0.0
11
3086.021284
21
1242.627978
31
0.0
0
LINE
8
0
10
3087.115613
20
1241.889844
30
0.0
11
3087.215098
21
1241.822741
31
0.0
0
LINE
8
0
10
3088.309428
20
1241.084606
30
0.0
11
3088.408912
21
1241.017503
31
0.0
0
LINE
8
0
10
3086.287255
20
1247.782615
30
0.0
11
3086.327808
21
1247.903473
31
0.0
0
LINE
8
0
10
3086.773887
20
1249.232915
30
0.0
11
3086.814440
21
1249.353773
31
0.0
0
LINE
8
0
10
3087.260519
20
1250.683214
30
0.0
11
3087.297568
21
1250.793631
31
0.0
0
LINE
8
0
10
3086.021173
20
1242.626477
30
0.0
11
3086.061726
21
1242.747335
31
0.0
0
LINE
8
0
10
3086.507805
20
1244.076777
30
0.0
11
3086.548358
21
1244.197635
31
0.0
0
LINE
8
0
10
3086.994437
20
1245.527076
30
0.0
11
3087.034990
21
1245.647935
31
0.0
0
LINE
8
0
10
3087.481069
20
1246.977376
30
0.0
11
3087.521621
21
1247.098234
31
0.0
0
LINE
8
0
10
3087.967701
20
1248.427676
30
0.0
11
3088.008253
21
1248.548534
31
0.0
0
LINE
8
0
10
3088.454332
20
1249.877976
30
0.0
11
3088.494885
21
1249.998834
31
0.0
0
LINE
8
0
10
3087.214987
20
1241.821238
30
0.0
11
3087.255540
21
1241.942097
31
0.0
0
LINE
8
0
10
3087.701619
20
1243.271538
30
0.0
11
3087.742171
21
1243.392396
31
0.0
0
LINE
8
0
10
3088.188250
20
1244.721838
30
0.0
11
3088.228803
21
1244.842696
31
0.0
0
LINE
8
0
10
3088.674882
20
1246.172137
30
0.0
11
3088.715435
21
1246.292996
31
0.0
0
LINE
8
0
10
3089.161514
20
1247.622437
30
0.0
11
3089.202067
21
1247.743295
31
0.0
0
LINE
8
0
10
3089.648146
20
1249.072737
30
0.0
11
3089.688698
21
1249.193595
31
0.0
0
LINE
8
0
10
3090.134778
20
1250.523037
30
0.0
11
3090.175330
21
1250.643895
31
0.0
0
LINE
8
0
10
3088.408800
20
1241.016000
30
0.0
11
3088.449353
21
1241.136858
31
0.0
0
LINE
8
0
10
3088.895432
20
1242.466299
30
0.0
11
3088.935985
21
1242.587158
31
0.0
0
LINE
8
0
10
3089.382064
20
1243.916599
30
0.0
11
3089.422617
21
1244.037457
31
0.0
0
LINE
8
0
10
3089.868696
20
1245.366899
30
0.0
11
3089.909248
21
1245.487757
31
0.0
0
LINE
8
0
10
3090.355327
20
1246.817198
30
0.0
11
3090.395880
21
1246.938057
31
0.0
0
LINE
8
0
10
3090.841959
20
1248.267498
30
0.0
11
3090.882512
21
1248.388356
31
0.0
0
LINE
8
0
10
3091.328591
20
1249.717798
30
0.0
11
3091.369144
21
1249.838656
31
0.0
0
LINE
8
0
10
3090.089246
20
1241.661061
30
0.0
11
3090.129798
21
1241.781919
31
0.0
0
LINE
8
0
10
3090.575877
20
1243.111360
30
0.0
11
3090.616430
21
1243.232219
31
0.0
0
LINE
8
0
10
3091.062509
20
1244.561660
30
0.0
11
3091.103062
21
1244.682518
31
0.0
0
LINE
8
0
10
3091.549141
20
1246.011960
30
0.0
11
3091.589694
21
1246.132818
31
0.0
0
LINE
8
0
10
3092.035773
20
1247.462259
30
0.0
11
3092.076325
21
1247.583118
31
0.0
0
LINE
8
0
10
3092.522405
20
1248.912559
30
0.0
11
3092.562957
21
1249.033417
31
0.0
0
LINE
8
0
10
3093.009036
20
1250.362859
30
0.0
11
3093.049589
21
1250.483717
31
0.0
0
LINE
8
0
10
3091.283059
20
1240.855822
30
0.0
11
3091.323612
21
1240.976680
31
0.0
0
LINE
8
0
10
3091.769691
20
1242.306122
30
0.0
11
3091.810243
21
1242.426980
31
0.0
0
LINE
8
0
10
3092.256323
20
1243.756421
30
0.0
11
3092.296875
21
1243.877280
31
0.0
0
LINE
8
0
10
3092.742954
20
1245.206721
30
0.0
11
3092.783507
21
1245.327579
31
0.0
0
LINE
8
0
10
3093.229586
20
1246.657021
30
0.0
11
3093.270139
21
1246.777879
31
0.0
0
LINE
8
0
10
3093.716218
20
1248.107320
30
0.0
11
3093.756771
21
1248.228179
31
0.0
0
LINE
8
0
10
3094.202850
20
1249.557620
30
0.0
11
3094.243402
21
1249.678478
31
0.0
0
LINE
8
0
10
3092.963504
20
1241.500883
30
0.0
11
3093.004057
21
1241.621741
31
0.0
0
LINE
8
0
10
3093.450136
20
1242.951183
30
0.0
11
3093.490689
21
1243.072041
31
0.0
0
LINE
8
0
10
3093.936768
20
1244.401482
30
0.0
11
3093.977321
21
1244.522341
31
0.0
0
LINE
8
0
10
3094.423400
20
1245.851782
30
0.0
11
3094.463952
21
1245.972640
31
0.0
0
LINE
8
0
10
3094.910031
20
1247.302082
30
0.0
11
3094.950584
21
1247.422940
31
0.0
0
LINE
8
0
10
3095.396663
20
1248.752381
30
0.0
11
3095.437216
21
1248.873240
31
0.0
0
LINE
8
0
10
3094.190196
20
1240.793631
30
0.0
11
3094.197870
21
1240.816502
31
0.0
0
LINE
8
0
10
3094.643950
20
1242.145944
30
0.0
11
3094.684502
21
1242.266802
31
0.0
0
LINE
8
0
10
3095.130581
20
1243.596244
30
0.0
11
3095.171134
21
1243.717102
31
0.0
0
LINE
8
0
10
3095.617213
20
1245.046543
30
0.0
11
3095.657766
21
1245.167402
31
0.0
0
LINE
8
0
10
3086.862944
20
1240.793631
30
0.0
11
3094.862944
21
1240.793631
31
0.0
0
ARC
8
0
10
3094.862944
20
1241.793631
30
0.0
40
1.000000
50
270.000000
51
360.000000
0
LINE
8
0
10
3095.862944
20
1241.793631
30
0.0
11
3095.862944
21
1249.793631
31
0.0
0
ARC
8
0
10
3094.862944
20
1249.793631
30
0.0
40
1.000000
50
360.000000
51
90.000000
0
LINE
8
0
10
3094.862944
20
1250.793631
30
0.0
11
3086.862944
21
1250.793631
31
0.0
0
ARC
8
0
10
3086.862944
20
1249.793631
30
0.0
40
1.000000
50
90.000000
51
180.000000
0
LINE
8
0
10
3085.862944
20
1249.793631
30
0.0
11
3085.862944
21
1241.793631
31
0.0
0
ARC
8
0
10
3086.862944
20
1241.793631
30
0.0
40
1.000000
50
180.000000
51
270.000000
0
ARC
8
0
10
3111.862944
20
1251.864566
30
0.0
40
0.500000
50
270.000000
51
360.000000
0
LINE
8
0
10
3112.362944
20
1252.743631
30
0.0
11
3112.362944
21
1251.864566
31
0.0
0
ARC
8
0
10
3112.862944
20
1252.743631
30
0.0
40
0.500000
50
90.000000
51
180.000000
0
LINE
8
0
10
3120.862944
20
1253.243631
30
0.0
11
3112.862944
21
1253.243631
31
0.0
0
ARC
8
0
10
3120.862944
20
1252.743631
30
0.0
40
0.500000
50
360.000000
51
90.000000
0
LINE
8
0
10
3121.362944
20
1252.143631
30
0.0
11
3121.362944
21
1252.743631
31
0.0
0
ARC
8
0
10
3121.862944
20
1252.143631
30
0.0
40
0.500000
50
180.000000
51
270.000000
0
LINE
8
0
10
3123.062944
20
1251.643631
30
0.0
11
3121.862944
21
1251.643631
31
0.0
0
LINE
8
0
10
3123.062944
20
1253.643631
30
0.0
11
3123.062944
21
1251.643631
31
0.0
0
LINE
8
0
10
3126.062944
20
1253.643631
30
0.0
11
3123.062944
21
1253.643631
31
0.0
0
LINE
8
0
10
3126.287366
20
1253.793246
30
0.0
11
3126.062944
21
1253.643631
31
0.0
0
ARC
8
0
10
3126.453776
20
1253.543631
30
0.0
40
0.300000
50
90.000000
51
123.690068
0
LINE
8
0
10
3143.672111
20
1253.843631
30
0.0
11
3126.453776
21
1253.843631
31
0.0
0
ARC
8
0
10
3143.672111
20
1253.543631
30
0.0
40
0.300000
50
56.309932
51
90.000000
0
LINE
8
0
10
3144.062944
20
1253.643631
30
0.0
11
3143.838521
21
1253.793246
31
0.0
0
LINE
8
0
10
3147.062944
20
1253.643631
30
0.0
11
3144.062944
21
1253.643631
31
0.0
0
LINE
8
0
10
3147.062944
20
1244.643631
30
0.0
11
3147.062944
21
1253.643631
31
0.0
0
LINE
8
0
10
3104.962944
20
1244.643631
30
0.0
11
3147.062944
21
1244.643631
31
0.0
0
ARC
8
0
10
3104.962944
20
1245.143631
30
0.0
40
0.500000
50
180.000000
51
270.000000
0
LINE
8
0
10
3104.462944
20
1246.364566
30
0.0
11
3104.462944
21
1245.143631
31
0.0
0
ARC
8
0
10
3103.962944
20
1246.364566
30
0.0
40
0.500000
50
360.000000
51
66.421822
0
ARC
8
0
10
3104.362944
20
1247.281081
30
0.0
40
0.500000
50
180.000000
51
246.421822
0
LINE
8
0
10
3103.862944
20
1250.864566
30
0.0
11
3103.862944
21
1247.281081
31
0.0
0
ARC
8
0
10
3104.362944
20
1250.864566
30
0.0
40
0.500000
50
90.000000
51
180.000000
0
LINE
8
0
10
3111.862944
20
1251.364566
30
0.0
11
3104.362944
21
1251.364566
31
0.0
0
ARC
8
0
10
3099.862944
20
1245.709838
30
0.0
40
0.500000
50
360.000000
51
58.619868
0
LINE
8
0
10
3100.362944
20
1244.192262
30
0.0
11
3100.362944
21
1245.709838
31
0.0
0
ARC
8
0
10
3100.562944
20
1244.192262
30
0.0
40
0.200000
50
180.000000
51
360.000000
0
LINE
8
0
10
3102.438841
20
1245.220685
30
0.0
11
3100.762848
21
1244.198452
31
0.0
0
ARC
8
0
10
3102.595055
20
1244.964566
30
0.0
40
0.300000
50
90.000000
51
121.380132
0
LINE
8
0
10
3102.662944
20
1245.264566
30
0.0
11
3102.595055
21
1245.264566
31
0.0
0
ARC
8
0
10
3102.662944
20
1245.064566
30
0.0
40
0.200000
50
360.000000
51
90.000000
0
LINE
8
0
10
3102.862944
20
1240.564566
30
0.0
11
3102.862944
21
1245.064566
31
0.0
0
ARC
8
0
10
3102.862944
20
1240.264566
30
0.0
40
0.300000
50
270.000000
51
90.000000
0
LINE
8
0
10
3102.507918
20
1240.060117
30
0.0
11
3102.862944
21
1239.964566
31
0.0
0
ARC
8
0
10
3102.576052
20
1240.352277
30
0.0
40
0.300000
50
231.176024
51
256.872879
0
LINE
8
0
10
3100.744804
20
1241.440829
30
0.0
11
3102.387973
21
1240.118554
31
0.0
0
ARC
8
0
10
3100.870189
20
1241.596644
30
0.0
40
0.200000
50
180.000000
51
231.176024
0
LINE
8
0
10
3100.675741
20
1241.759111
30
0.0
11
3100.670311
21
1241.603624
31
0.0
0
ARC
8
0
10
3100.530209
20
1241.764193
30
0.0
40
0.145621
50
360.000000
51
142.253920
0
LINE
8
0
10
3098.350775
20
1239.186896
30
0.0
11
3100.415062
21
1241.853337
31
0.0
0
ARC
8
0
10
3098.635682
20
1239.092940
30
0.0
40
0.300000
50
161.748585
51
270.000000
0
LINE
8
0
10
3099.288918
20
1238.774302
30
0.0
11
3098.632297
21
1238.792915
31
0.0
0
ARC
8
0
10
3099.303086
20
1239.274101
30
0.0
40
0.500000
50
268.376251
51
308.194227
0
ARC
8
0
10
3100.848909
20
1237.309303
30
0.0
40
2.000000
50
56.002945
51
128.194227
0
LINE
8
0
10
3102.385593
20
1238.762227
30
0.0
11
3101.967210
21
1238.967436
31
0.0
0
ARC
8
0
10
3102.166351
20
1238.044987
30
0.0
40
0.750000
50
33.980777
51
73.002945
0
ARC
8
0
10
3103.202883
20
1238.743631
30
0.0
40
0.500000
50
213.980777
51
270.000000
0
LINE
8
0
10
3105.862944
20
1238.243631
30
0.0
11
3103.202883
21
1238.243631
31
0.0
0
ARC
8
0
10
3105.862944
20
1238.743631
30
0.0
40
0.500000
50
270.000000
51
360.000000
0
LINE
8
0
10
3106.362944
20
1239.443631
30
0.0
11
3106.362944
21
1238.743631
31
0.0
0
ARC
8
0
10
3106.062944
20
1239.443631
30
0.0
40
0.300000
50
360.000000
51
90.000000
0
LINE
8
0
10
3104.862944
20
1239.743631
30
0.0
11
3106.062944
21
1239.743631
31
0.0
0
ARC
8
0
10
3104.862944
20
1240.043631
30
0.0
40
0.300000
50
180.000000
51
270.000000
0
LINE
8
0
10
3104.562944
20
1242.943631
30
0.0
11
3104.562944
21
1240.043631
31
0.0
0
ARC
8
0
10
3104.862944
20
1242.943631
30
0.0
40
0.300000
50
90.000000
51
180.000000
0
LINE
8
0
10
3117.462944
20
1243.243631
30
0.0
11
3104.862944
21
1243.243631
31
0.0
0
ARC
8
0
10
3117.462944
20
1242.943631
30
0.0
40
0.300000
50
360.000000
51
90.000000
0
LINE
8
0
10
3117.762944
20
1240.743631
30
0.0
11
3117.762944
21
1242.943631
31
0.0
0
ARC
8
0
10
3118.262944
20
1240.743631
30
0.0
40
0.500000
50
180.000000
51
270.000000
0
LINE
8
0
10
3118.662944
20
1240.243631
30
0.0
11
3118.262944
21
1240.243631
31
0.0
0
ARC
8
0
10
3118.662944
20
1240.743631
30
0.0
40
0.500000
50
270.000000
51
360.000000
0
LINE
8
0
10
3119.162944
20
1242.943631
30
0.0
11
3119.162944
21
1240.743631
31
0.0
0
ARC
8
0
10
3119.462944
20
1242.943631
30
0.0
40
0.300000
50
90.000000
51
180.000000
0
LINE
8
0
10
3146.962944
20
1243.243631
30
0.0
11
3119.462944
21
1243.243631
31
0.0
0
ARC
8
0
10
3146.962944
20
1242.943631
30
0.0
40
0.300000
50
360.000000
51
90.000000
0
LINE
8
0
10
3147.262944
20
1240.043631
30
0.0
11
3147.262944
21
1242.943631
31
0.0
0
ARC
8
0
10
3146.962944
20
1240.043631
30
0.0
40
0.300000
50
270.000000
51
360.000000
0
LINE
8
0
10
3145.562944
20
1239.743631
30
0.0
11
3146.962944
21
1239.743631
31
0.0
0
ARC
8
0
10
3145.562944
20
1239.443631
30
0.0
40
0.300000
50
90.000000
51
180.000000
0
LINE
8
0
10
3145.262944
20
1238.743631
30
0.0
11
3145.262944
21
1239.443631
31
0.0
0
ARC
8
0
10
3145.762944
20
1238.743631
30
0.0
40
0.500000
50
180.000000
51
270.000000
0
LINE
8
0
10
3148.262944
20
1238.243631
30
0.0
11
3145.762944
21
1238.243631
31
0.0
0
ARC
8
0
10
3148.262944
20
1238.743631
30
0.0
40
0.500000
50
270.000000
51
360.000000
0
LINE
8
0
10
3148.762944
20
1279.743631
30
0.0
11
3148.762944
21
1238.743631
31
0.0
0
ARC
8
0
10
3148.262944
20
1279.743631
30
0.0
40
0.500000
50
360.000000
51
90.000000
0
LINE
8
0
10
3145.562944
20
1280.243631
30
0.0
11
3148.262944
21
1280.243631
31
0.0
0
ARC
8
0
10
3145.562944
20
1279.743631
30
0.0
40
0.500000
50
90.000000
51
180.000000
0
LINE
8
0
10
3145.062944
20
1277.643631
30
0.0
11
3145.062944
21
1279.743631
31
0.0
0
ARC
8
0
10
3145.612944
20
1277.643631
30
0.0
40
0.550000
50
180.000000
51
360.000000
0
LINE
8
0
10
3146.162944
20
1278.643631
30
0.0
11
3146.162944
21
1277.643631
31
0.0
0
ARC
8
0
10
3146.462944
20
1278.643631
30
0.0
40
0.300000
50
90.000000
51
180.000000
0
LINE
8
0
10
3147.062944
20
1278.943631
30
0.0
11
3146.462944
21
1278.943631
31
0.0
0
ARC
8
0
10
3147.062944
20
1278.643631
30
0.0
40
0.300000
50
360.000000
51
90.000000
0
LINE
8
0
10
3147.362944
20
1271.643631
30
0.0
11
3147.362944
21
1278.643631
31
0.0
0
ARC
8
0
10
3147.062944
20
1271.643631
30
0.0
40
0.300000
50
270.000000
51
360.000000
0
LINE
8
0
10
3146.462944
20
1271.343631
30
0.0
11
3147.062944
21
1271.343631
31
0.0
0
ARC
8
0
10
3146.462944
20
1271.643631
30
0.0
40
0.300000
50
180.000000
51
270.000000
0
LINE
8
0
10
3146.162944
20
1272.643631
30
0.0
11
3146.162944
21
1271.643631
31
0.0
0
ARC
8
0
10
3145.612944
20
1272.643631
30
0.0
40
0.550000
50
360.000000
51
180.000000
0
LINE
8
0
10
3145.062944
20
1271.588058
30
0.0
11
3145.062944
21
1272.643631
31
0.0
0
ARC
8
0
10
3144.762944
20
1271.588058
30
0.0
40
0.300000
50
301.588136
51
360.000000
0
ARC
8
0
10
3145.312944
20
1270.693631
30
0.0
40
0.750000
50
121.588136
51
180.000000
0
LINE
8
0
10
3144.562944
20
1268.943631
30
0.0
11
3144.562944
21
1270.693631
31
0.0
0
ARC
8
0
10
3144.862944
20
1268.943631
30
0.0
40
0.300000
50
180.000000
51
270.000000
0
LINE
8
0
10
3145.462944
20
1268.643631
30
0.0
11
3144.862944
21
1268.643631
31
0.0
0
ARC
8
0
10
3145.462944
20
1268.943631
30
0.0
40
0.300000
50
270.000000
51
360.000000
0
LINE
8
0
10
3145.762944
20
1269.843631
30
0.0
11
3145.762944
21
1268.943631
31
0.0
0
ARC
8
0
10
3146.062944
20
1269.843631
30
0.0
40
0.300000
50
90.000000
51
180.000000
0
LINE
8
0
10
3146.762944
20
1270.143631
30
0.0
11
3146.062944
21
1270.143631
31
0.0
0
ARC
8
0
10
3146.762944
20
1269.843631
30
0.0
40
0.300000
50
360.000000
51
90.000000
0
LINE
8
0
10
3147.062944
20
1262.943631
30
0.0
11
3147.062944
21
1269.843631
31
0.0
0
ARC
8
0
10
3146.762944
20
1262.943631
30
0.0
40
0.300000
50
270.000000
51
360.000000
0
LINE
8
0
10
3146.062944
20
1262.643631
30
0.0
11
3146.762944
21
1262.643631
31
0.0
0
ARC
8
0
10
3146.062944
20
1262.943631
30
0.0
40
0.300000
50
180.000000
51
270.000000
0
LINE
8
0
10
3145.762944
20
1263.843631
30
0.0
11
3145.762944
21
1262.943631
31
0.0
0
ARC
8
0
10
3145.462944
20
1263.843631
30
0.0
40
0.300000
50
360.000000
51
90.000000
0
LINE
8
0
10
3144.862944
20
1264.143631
30
0.0
11
3145.462944
21
1264.143631
31
0.0
0
ARC
8
0
10
3144.862944
20
1263.843631
30
0.0
40
0.300000
50
90.000000
51
180.000000
0
LINE
8
0
10
3144.562944
20
1262.193631
30
0.0
11
3144.562944
21
1263.843631
31
0.0
0
ARC
8
0
10
3145.312944
20
1262.193631
30
0.0
40
0.750000
50
180.000000
51
270.000000
0
LINE
8
0
10
3146.762944
20
1261.443631
30
0.0
11
3145.312944
21
1261.443631
31
0.0
0
ARC
8
0
10
3146.762944
20
1261.143631
30
0.0
40
0.300000
50
360.000000
51
90.000000
0
LINE
8
0
10
3147.062944
20
1255.943631
30
0.0
11
3147.062944
21
1261.143631
31
0.0
0
ARC
8
0
10
3146.562944
20
1255.943631
30
0.0
40
0.500000
50
270.000000
51
360.000000
0
LINE
8
0
10
3133.363042
20
1255.443631
30
0.0
11
3146.562944
21
1255.443631
31
0.0
0
LINE
8
0
10
3133.363042
20
1259.743530
30
0.0
11
3133.363042
21
1255.443631
31
0.0
0
ARC
8
0
10
3132.863042
20
1259.743530
30
0.0
40
0.500000
50
360.000000
51
90.000000
0
LINE
8
0
10
3130.987306
20
1260.243530
30
0.0
11
3132.863042
21
1260.243530
31
0.0
0
ARC
8
0
10
3130.987306
20
1259.943530
30
0.0
40
0.300000
50
90.000000
51
135.000000
0
LINE
8
0
10
3129.950909
20
1259.331398
30
0.0
11
3130.775174
21
1260.155662
31
0.0
0
ARC
8
0
10
3130.163042
20
1259.119266
30
0.0
40
0.300000
50
135.000000
51
180.000000
0
LINE
8
0
10
3129.863042
20
1258.543530
30
0.0
11
3129.863042
21
1259.119266
31
0.0
0
ARC
8
0
10
3130.163042
20
1258.543530
30
0.0
40
0.300000
50
180.000000
51
270.000000
0
LINE
8
0
10
3131.563042
20
1258.243530
30
0.0
11
3130.163042
21
1258.243530
31
0.0
0
ARC
8
0
10
3131.563042
20
1257.943530
30
0.0
40
0.300000
50
360.000000
51
90.000000
0
LINE
8
0
10
3131.863042
20
1255.243530
30
0.0
11
3131.863042
21
1257.943530
31
0.0
0
LINE
8
0
10
3113.863042
20
1255.243530
30
0.0
11
3131.863042
21
1255.243530
31
0.0
0
LINE
8
0
10
3113.863042
20
1257.943530
30
0.0
11
3113.863042
21
1255.243530
31
0.0
0
ARC
8
0
10
3114.163042
20
1257.943530
30
0.0
40
0.300000
50
90.000000
51
180.000000
0
LINE
8
0
10
3115.563042
20
1258.243530
30
0.0
11
3114.163042
21
1258.243530
31
0.0
0
ARC
8
0
10
3115.563042
20
1258.543530
30
0.0
40
0.300000
50
270.000000
51
360.000000
0
LINE
8
0
10
3115.863042
20
1259.119266
30
0.0
11
3115.863042
21
1258.543530
31
0.0
0
ARC
8
0
10
3115.563042
20
1259.119266
30
0.0
40
0.300000
50
360.000000
51
45.000000
0
LINE
8
0
10
3114.950909
20
1260.155662
30
0.0
11
3115.775174
21
1259.331398
31
0.0
0
ARC
8
0
10
3114.738777
20
1259.943530
30
0.0
40
0.300000
50
45.000000
51
90.000000
0
LINE
8
0
10
3112.663042
20
1260.243530
30
0.0
11
3114.738777
21
1260.243530
31
0.0
0
ARC
8
0
10
3112.663042
20
1259.943530
30
0.0
40
0.300000
50
90.000000
51
180.000000
0
LINE
8
0
10
3112.363042
20
1255.553530
30
0.0
11
3112.363042
21
1259.943530
31
0.0
0
ARC
8
0
10
3111.863042
20
1255.553530
30
0.0
40
0.500000
50
347.302825
51
360.000000
0
LINE
8
0
10
3111.362944
20
1255.443631
30
0.0
11
3112.350814
21
1255.443631
31
0.0
0
ARC
8
0
10
3111.362944
20
1254.943631
30
0.0
40
0.500000
50
90.000000
51
180.000000
0
LINE
8
0
10
3110.862944
20
1253.564566
30
0.0
11
3110.862944
21
1254.943631
31
0.0
0
ARC
8
0
10
3110.362944
20
1253.564566
30
0.0
40
0.500000
50
270.000000
51
360.000000
0
LINE
8
0
10
3107.701029
20
1253.064566
30
0.0
11
3110.362944
21
1253.064566
31
0.0
0
LINE
8
0
10
3107.613161
20
1252.976698
30
0.0
11
3107.701029
21
1253.064566
31
0.0
0
ARC
8
0
10
3107.401029
20
1253.188830
30
0.0
40
0.300000
50
225.000000
51
315.000000
0
LINE
8
0
10
3107.101029
20
1253.064566
30
0.0
11
3107.188897
21
1252.976698
31
0.0
0
LINE
8
0
10
3104.362944
20
1253.064566
30
0.0
11
3107.101029
21
1253.064566
31
0.0
0
ARC
8
0
10
3104.362944
20
1253.564566
30
0.0
40
0.500000
50
180.000000
51
270.000000
0
ARC
8
0
10
3103.362944
20
1253.564566
30
0.0
40
0.500000
50
360.000000
51
90.000000
0
LINE
8
0
10
3102.110169
20
1254.064566
30
0.0
11
3103.362944
21
1254.064566
31
0.0
0
ARC
8
0
10
3102.110169
20
1253.564566
30
0.0
40
0.500000
50
90.000000
51
139.030071
0
ARC
8
0
10
3101.166351
20
1254.384144
30
0.0
40
0.750000
50
286.997055
51
319.030071
0
LINE
8
0
10
3101.385593
20
1253.666904
30
0.0
11
3100.967210
21
1253.461696
31
0.0
0
ARC
8
0
10
3099.848909
20
1255.119828
30
0.0
40
2.000000
50
231.805773
51
303.997055
0
ARC
8
0
10
3098.303086
20
1253.155030
30
0.0
40
0.500000
50
51.805773
51
91.623749
0
LINE
8
0
10
3098.288918
20
1253.654830
30
0.0
11
3097.632297
21
1253.636216
31
0.0
0
ARC
8
0
10
3097.635682
20
1253.336191
30
0.0
40
0.300000
50
90.000000
51
198.251415
0
LINE
8
0
10
3097.350775
20
1253.242235
30
0.0
11
3099.415062
21
1250.575794
31
0.0
0
ARC
8
0
10
3099.530209
20
1250.664938
30
0.0
40
0.145621
50
217.746080
51
360.000000
0
LINE
8
0
10
3099.675741
20
1250.670020
30
0.0
11
3099.670311
21
1250.825507
31
0.0
0
ARC
8
0
10
3099.870189
20
1250.832487
30
0.0
40
0.200000
50
128.823976
51
180.000000
0
LINE
8
0
10
3099.744804
20
1250.988302
30
0.0
11
3101.387973
21
1252.310577
31
0.0
0
ARC
8
0
10
3101.576052
20
1252.076854
30
0.0
40
0.300000
50
103.127121
51
128.823976
0
LINE
8
0
10
3101.507918
20
1252.369015
30
0.0
11
3101.862944
21
1252.464566
31
0.0
0
ARC
8
0
10
3101.862944
20
1252.164566
30
0.0
40
0.300000
50
270.000000
51
90.000000
0
LINE
8
0
10
3101.862944
20
1251.864566
30
0.0
11
3101.862944
21
1247.364566
31
0.0
0
ARC
8
0
10
3101.662944
20
1247.364566
30
0.0
40
0.200000
50
270.000000
51
360.000000
0
LINE
8
0
10
3101.662944
20
1247.164566
30
0.0
11
3101.595055
21
1247.164566
31
0.0
0
ARC
8
0
10
3101.595055
20
1247.464566
30
0.0
40
0.300000
50
238.619868
51
270.000000
0
LINE
8
0
10
3101.438841
20
1247.208446
30
0.0
11
3099.762848
21
1248.230679
31
0.0
0
ARC
8
0
10
3099.562944
20
1248.236869
30
0.0
40
0.200000
50
360.000000
51
180.000000
0
LINE
8
0
10
3099.362944
20
1248.236869
30
0.0
11
3099.362944
21
1247.161868
31
0.0
0
ARC
8
0
10
3100.362944
20
1247.161868
30
0.0
40
1.000000
50
180.000000
51
238.619868
0
LINE
8
0
10
3100.123300
20
1246.136704
30
0.0
11
3099.842230
21
1246.308136
31
0.0
0
ARC
8
0
10
3069.862944
20
1251.864566
30
0.0
40
0.500000
50
180.000000
51
270.000000
0
LINE
8
0
10
3077.362944
20
1251.364566
30
0.0
11
3069.862944
21
1251.364566
31
0.0
0
ARC
8
0
10
3077.362944
20
1250.864566
30
0.0
40
0.500000
50
360.000000
51
90.000000
0
LINE
8
0
10
3077.862944
20
1247.281081
30
0.0
11
3077.862944
21
1250.864566
31
0.0
0
ARC
8
0
10
3077.362944
20
1247.281081
30
0.0
40
0.500000
50
293.578179
51
360.000000
0
ARC
8
0
10
3077.762944
20
1246.364566
30
0.0
40
0.500000
50
113.578178
51
180.000000
0
LINE
8
0
10
3077.262944
20
1245.143631
30
0.0
11
3077.262944
21
1246.364566
31
0.0
0
ARC
8
0
10
3076.762944
20
1245.143631
30
0.0
40
0.500000
50
270.000000
51
360.000000
0
LINE
8
0
10
3034.662944
20
1244.643631
30
0.0
11
3076.762944
21
1244.643631
31
0.0
0
LINE
8
0
10
3034.662944
20
1253.643631
30
0.0
11
3034.662944
21
1244.643631
31
0.0
0
LINE
8
0
10
3037.662944
20
1253.643631
30
0.0
11
3034.662944
21
1253.643631
31
0.0
0
LINE
8
0
10
3037.887366
20
1253.793246
30
0.0
11
3037.662944
21
1253.643631
31
0.0
0
ARC
8
0
10
3038.053776
20
1253.543631
30
0.0
40
0.300000
50
90.000000
51
123.690068
0
LINE
8
0
10
3055.272111
20
1253.843631
30
0.0
11
3038.053776
21
1253.843631
31
0.0
0
ARC
8
0
10
3055.272111
20
1253.543631
30
0.0
40
0.300000
50
56.309932
51
90.000000
0
LINE
8
0
10
3055.662944
20
1253.643631
30
0.0
11
3055.438521
21
1253.793246
31
0.0
0
LINE
8
0
10
3058.662944
20
1253.643631
30
0.0
11
3055.662944
21
1253.643631
31
0.0
0
LINE
8
0
10
3058.662944
20
1251.643631
30
0.0
11
3058.662944
21
1253.643631
31
0.0
0
LINE
8
0
10
3059.862944
20
1251.643631
30
0.0
11
3058.662944
21
1251.643631
31
0.0
0
ARC
8
0
10
3059.862944
20
1252.143631
30
0.0
40
0.500000
50
270.000000
51
360.000000
0
LINE
8
0
10
3060.362944
20
1252.743631
30
0.0
11
3060.362944
21
1252.143631
31
0.0
0
ARC
8
0
10
3060.862944
20
1252.743631
30
0.0
40
0.500000
50
90.000000
51
180.000000
0
LINE
8
0
10
3068.862944
20
1253.243631
30
0.0
11
3060.862944
21
1253.243631
31
0.0
0
ARC
8
0
10
3068.862944
20
1252.743631
30
0.0
40
0.500000
50
360.000000
51
90.000000
0
LINE
8
0
10
3069.362944
20
1251.864566
30
0.0
11
3069.362944
21
1252.743631
31
0.0
0
ARC
8
0
10
3075.662944
20
1239.443631
30
0.0
40
0.300000
50
90.000000
51
180.000000
0
LINE
8
0
10
3075.362944
20
1238.743631
30
0.0
11
3075.362944
21
1239.443631
31
0.0
0
ARC
8
0
10
3075.862944
20
1238.743631
30
0.0
40
0.500000
50
180.000000
51
270.000000
0
LINE
8
0
10
3078.523004
20
1238.243631
30
0.0
11
3075.862944
21
1238.243631
31
0.0
0
ARC
8
0
10
3078.523004
20
1238.743631
30
0.0
40
0.500000
50
270.000000
51
326.019223
0
ARC
8
0
10
3079.559536
20
1238.044987
30
0.0
40
0.750000
50
106.997055
51
146.019223
0
LINE
8
0
10
3079.758677
20
1238.967436
30
0.0
11
3079.340294
21
1238.762227
31
0.0
0
ARC
8
0
10
3080.876978
20
1237.309303
30
0.0
40
2.000000
50
51.805773
51
123.997055
0
ARC
8
0
10
3082.422801
20
1239.274101
30
0.0
40
0.500000
50
231.805773
51
271.623749
0
LINE
8
0
10
3083.093590
20
1238.792915
30
0.0
11
3082.436969
21
1238.774302
31
0.0
0
ARC
8
0
10
3083.090205
20
1239.092940
30
0.0
40
0.300000
50
270.000000
51
18.251415
0
LINE
8
0
10
3081.310825
20
1241.853337
30
0.0
11
3083.375112
21
1239.186896
31
0.0
0
ARC
8
0
10
3081.195678
20
1241.764193
30
0.0
40
0.145621
50
37.746080
51
180.000000
0
LINE
8
0
10
3081.055576
20
1241.603624
30
0.0
11
3081.050146
21
1241.759111
31
0.0
0
ARC
8
0
10
3080.855698
20
1241.596644
30
0.0
40
0.200000
50
308.823976
51
360.000000
0
LINE
8
0
10
3079.337914
20
1240.118554
30
0.0
11
3080.981084
21
1241.440829
31
0.0
0
ARC
8
0
10
3079.149835
20
1240.352277
30
0.0
40
0.300000
50
283.127121
51
308.823976
0
LINE
8
0
10
3078.862944
20
1239.964566
30
0.0
11
3079.217969
21
1240.060117
31
0.0
0
ARC
8
0
10
3078.862944
20
1240.264566
30
0.0
40
0.300000
50
90.000000
51
270.000000
0
LINE
8
0
10
3078.862944
20
1245.064566
30
0.0
11
3078.862944
21
1240.564566
31
0.0
0
ARC
8
0
10
3079.062944
20
1245.064566
30
0.0
40
0.200000
50
90.000000
51
180.000000
0
LINE
8
0
10
3079.130832
20
1245.264566
30
0.0
11
3079.062944
21
1245.264566
31
0.0
0
ARC
8
0
10
3079.130832
20
1244.964566
30
0.0
40
0.300000
50
58.619868
51
90.000000
0
LINE
8
0
10
3080.963039
20
1244.198452
30
0.0
11
3079.287046
21
1245.220685
31
0.0
0
ARC
8
0
10
3081.162944
20
1244.192262
30
0.0
40
0.200000
50
180.000000
51
360.000000
0
LINE
8
0
10
3081.362944
20
1245.709838
30
0.0
11
3081.362944
21
1244.192262
31
0.0
0
ARC
8
0
10
3081.862944
20
1245.709838
30
0.0
40
0.500000
50
121.380132
51
180.000000
0
LINE
8
0
10
3081.883657
20
1246.308136
30
0.0
11
3081.602587
21
1246.136704
31
0.0
0
ARC
8
0
10
3081.362944
20
1247.161868
30
0.0
40
1.000000
50
301.380132
51
360.000000
0
LINE
8
0
10
3082.362944
20
1248.236869
30
0.0
11
3082.362944
21
1247.161868
31
0.0
0
ARC
8
0
10
3082.162944
20
1248.236869
30
0.0
40
0.200000
50
360.000000
51
180.000000
0
LINE
8
0
10
3080.287046
20
1247.208446
30
0.0
11
3081.963039
21
1248.230679
31
0.0
0
ARC
8
0
10
3080.130832
20
1247.464566
30
0.0
40
0.300000
50
270.000000
51
301.380132
0
LINE
8
0
10
3080.062944
20
1247.164566
30
0.0
11
3080.130832
21
1247.164566
31
0.0
0
ARC
8
0
10
3080.062944
20
1247.364566
30
0.0
40
0.200000
50
180.000000
51
270.000000
0
LINE
8
0
10
3079.862944
20
1251.864566
30
0.0
11
3079.862944
21
1247.364566
31
0.0
0
ARC
8
0
10
3079.862944
20
1252.164566
30
0.0
40
0.300000
50
90.000000
51
270.000000
0
LINE
8
0
10
3080.217969
20
1252.369015
30
0.0
11
3079.862944
21
1252.464566
31
0.0
0
ARC
8
0
10
3080.149835
20
1252.076854
30
0.0
40
0.300000
50
51.176024
51
76.872879
0
LINE
8
0
10
3081.981084
20
1250.988302
30
0.0
11
3080.337914
21
1252.310577
31
0.0
0
ARC
8
0
10
3081.855698
20
1250.832487
30
0.0
40
0.200000
50
360.000000
51
51.176024
0
LINE
8
0
10
3082.050146
20
1250.670020
30
0.0
11
3082.055576
21
1250.825507
31
0.0
0
ARC
8
0
10
3082.195678
20
1250.664938
30
0.0
40
0.145621
50
180.000000
51
322.253920
0
LINE
8
0
10
3084.375112
20
1253.242235
30
0.0
11
3082.310825
21
1250.575794
31
0.0
0
ARC
8
0
10
3084.090205
20
1253.336191
30
0.0
40
0.300000
50
341.748585
51
90.000000
0
LINE
8
0
10
3083.436969
20
1253.654830
30
0.0
11
3084.093590
21
1253.636216
31
0.0
0
ARC
8
0
10
3083.422801
20
1253.155030
30
0.0
40
0.500000
50
88.376251
51
128.194227
0
ARC
8
0
10
3081.876978
20
1255.119828
30
0.0
40
2.000000
50
236.002945
51
308.194227
0
LINE
8
0
10
3080.340294
20
1253.666904
30
0.0
11
3080.758677
21
1253.461696
31
0.0
0
ARC
8
0
10
3080.559536
20
1254.384144
30
0.0
40
0.750000
50
220.969929
51
253.002945
0
ARC
8
0
10
3079.615718
20
1253.564566
30
0.0
40
0.500000
50
40.969929
51
90.000000
0
LINE
8
0
10
3078.362944
20
1254.064566
30
0.0
11
3079.615718
21
1254.064566
31
0.0
0
ARC
8
0
10
3078.362944
20
1253.564566
30
0.0
40
0.500000
50
90.000000
51
180.000000
0
ARC
8
0
10
3077.362944
20
1253.564566
30
0.0
40
0.500000
50
270.000000
51
360.000000
0
LINE
8
0
10
3074.624858
20
1253.064566
30
0.0
11
3077.362944
21
1253.064566
31
0.0
0
LINE
8
0
10
3074.536990
20
1252.976698
30
0.0
11
3074.624858
21
1253.064566
31
0.0
0
ARC
8
0
10
3074.324858
20
1253.188830
30
0.0
40
0.300000
50
225.000000
51
315.000000
0
LINE
8
0
10
3074.024858
20
1253.064566
30
0.0
11
3074.112726
21
1252.976698
31
0.0
0
LINE
8
0
10
3071.362944
20
1253.064566
30
0.0
11
3074.024858
21
1253.064566
31
0.0
0
ARC
8
0
10
3071.362944
20
1253.564566
30
0.0
40
0.500000
50
180.000000
51
270.000000
0
LINE
8
0
10
3070.862944
20
1254.943631
30
0.0
11
3070.862944
21
1253.564566
31
0.0
0
ARC
8
0
10
3070.362944
20
1254.943631
30
0.0
40
0.500000
50
360.000000
51
90.000000
0
LINE
8
0
10
3069.375073
20
1255.443631
30
0.0
11
3070.362944
21
1255.443631
31
0.0
0
ARC
8
0
10
3069.862846
20
1255.553530
30
0.0
40
0.500000
50
180.000000
51
192.697175
0
LINE
8
0
10
3069.362846
20
1255.553530
30
0.0
11
3069.362846
21
1259.943530
31
0.0
0
ARC
8
0
10
3069.062846
20
1259.943530
30
0.0
40
0.300000
50
360.000000
51
90.000000
0
LINE
8
0
10
3069.062846
20
1260.243530
30
0.0
11
3066.987110
21
1260.243530
31
0.0
0
ARC
8
0
10
3066.987110
20
1259.943530
30
0.0
40
0.300000
50
90.000000
51
135.000000
0
LINE
8
0
10
3066.774978
20
1260.155662
30
0.0
11
3065.950713
21
1259.331398
31
0.0
0
ARC
8
0
10
3066.162846
20
1259.119266
30
0.0
40
0.300000
50
135.000000
51
180.000000
0
LINE
8
0
10
3065.862846
20
1259.119266
30
0.0
11
3065.862846
21
1258.543530
31
0.0
0
ARC
8
0
10
3066.162846
20
1258.543530
30
0.0
40
0.300000
50
180.000000
51
270.000000
0
LINE
8
0
10
3066.162846
20
1258.243530
30
0.0
11
3067.562846
21
1258.243530
31
0.0
0
ARC
8
0
10
3067.562846
20
1257.943530
30
0.0
40
0.300000
50
360.000000
51
90.000000
0
LINE
8
0
10
3067.862846
20
1257.943530
30
0.0
11
3067.862846
21
1255.243530
31
0.0
0
LINE
8
0
10
3067.862846
20
1255.243530
30
0.0
11
3049.862846
21
1255.243530
31
0.0
0
LINE
8
0
10
3049.862846
20
1255.243530
30
0.0
11
3049.862846
21
1257.943530
31
0.0
0
ARC
8
0
10
3050.162846
20
1257.943530
30
0.0
40
0.300000
50
90.000000
51
180.000000
0
LINE
8
0
10
3050.162846
20
1258.243530
30
0.0
11
3051.562846
21
1258.243530
31
0.0
0
ARC
8
0
10
3051.562846
20
1258.543530
30
0.0
40
0.300000
50
270.000000
51
360.000000
0
LINE
8
0
10
3051.862846
20
1258.543530
30
0.0
11
3051.862846
21
1259.119266
31
0.0
0
ARC
8
0
10
3051.562846
20
1259.119266
30
0.0
40
0.300000
50
360.000000
51
45.000000
0
LINE
8
0
10
3051.774978
20
1259.331398
30
0.0
11
3050.950713
21
1260.155662
31
0.0
0
ARC
8
0
10
3050.738581
20
1259.943530
30
0.0
40
0.300000
50
45.000000
51
90.000000
0
LINE
8
0
10
3050.738581
20
1260.243530
30
0.0
11
3048.862846
21
1260.243530
31
0.0
0
ARC
8
0
10
3048.862846
20
1259.743530
30
0.0
40
0.500000
50
90.000000
51
180.000000
0
LINE
8
0
10
3048.362846
20
1259.743530
30
0.0
11
3048.362846
21
1255.443631
31
0.0
0
LINE
8
0
10
3045.664422
20
1255.443631
30
0.0
11
3048.362846
21
1255.443631
31
0.0
0
LINE
8
0
10
3045.665128
20
1260.694107
30
0.0
11
3045.664422
21
1255.443631
31
0.0
0
LINE
8
0
10
3040.414130
20
1260.694292
30
0.0
11
3045.665128
21
1260.694107
31
0.0
0
ARC
8
0
10
3040.414120
20
1260.394292
30
0.0
40
0.300000
50
90.000000
51
180.000000
0
LINE
8
0
10
3040.113995
20
1259.044292
30
0.0
11
3040.114120
21
1260.394303
31
0.0
0
ARC
8
0
10
3040.613995
20
1259.044292
30
0.0
40
0.500000
50
180.000000
51
270.000000
0
LINE
8
0
10
3041.413988
20
1258.544292
30
0.0
11
3040.613995
21
1258.544292
31
0.0
0
ARC
8
0
10
3041.413988
20
1258.844292
30
0.0
40
0.300000
50
270.000000
51
360.000000
0
LINE
8
0
10
3041.714074
20
1259.094263
30
0.0
11
3041.713988
21
1258.844096
31
0.0
0
LINE
8
0
10
3044.163995
20
1259.094177
30
0.0
11
3041.714074
21
1259.094263
31
0.0
0
LINE
8
0
10
3044.163995
20
1256.844220
30
0.0
11
3044.163995
21
1259.094177
31
0.0
0
ARC
8
0
10
3043.863995
20
1256.844220
30
0.0
40
0.300000
50
270.000000
51
360.000000
0
LINE
8
0
10
3041.714207
20
1256.544220
30
0.0
11
3043.863995
21
1256.544220
31
0.0
0
LINE
8
0
10
3039.812632
20
1255.443312
30
0.0
11
3041.714207
21
1256.544220
31
0.0
0
LINE
8
0
10
3034.762944
20
1255.444293
30
0.0
11
3039.812632
21
1255.443312
31
0.0
0
LINE
8
0
10
3034.762944
20
1256.374213
30
0.0
11
3034.762944
21
1255.444293
31
0.0
0
LINE
8
0
10
3032.962944
20
1255.891904
30
0.0
11
3034.762944
21
1256.374213
31
0.0
0
LINE
8
0
10
3032.962944
20
1238.743631
30
0.0
11
3032.962944
21
1255.891904
31
0.0
0
ARC
8
0
10
3033.462944
20
1238.743631
30
0.0
40
0.500000
50
180.000000
51
270.000000
0
LINE
8
0
10
3035.962944
20
1238.243631
30
0.0
11
3033.462944
21
1238.243631
31
0.0
0
ARC
8
0
10
3035.962944
20
1238.743631
30
0.0
40
0.500000
50
270.000000
51
360.000000
0
LINE
8
0
10
3036.462944
20
1239.443631
30
0.0
11
3036.462944
21
1238.743631
31
0.0
0
ARC
8
0
10
3036.162944
20
1239.443631
30
0.0
40
0.300000
50
360.000000
51
90.000000
0
LINE
8
0
10
3034.762944
20
1239.743631
30
0.0
11
3036.162944
21
1239.743631
31
0.0
0
ARC
8
0
10
3034.762944
20
1240.043631
30
0.0
40
0.300000
50
180.000000
51
270.000000
0
LINE
8
0
10
3034.462944
20
1242.943631
30
0.0
11
3034.462944
21
1240.043631
31
0.0
0
ARC
8
0
10
3034.762944
20
1242.943631
30
0.0
40
0.300000
50
90.000000
51
180.000000
0
LINE
8
0
10
3062.262944
20
1243.243631
30
0.0
11
3034.762944
21
1243.243631
31
0.0
0
ARC
8
0
10
3062.262944
20
1242.943631
30
0.0
40
0.300000
50
360.000000
51
90.000000
0
LINE
8
0
10
3062.562944
20
1240.743631
30
0.0
11
3062.562944
21
1242.943631
31
0.0
0
ARC
8
0
10
3063.062944
20
1240.743631
30
0.0
40
0.500000
50
180.000000
51
270.000000
0
LINE
8
0
10
3063.462944
20
1240.243631
30
0.0
11
3063.062944
21
1240.243631
31
0.0
0
ARC
8
0
10
3063.462944
20
1240.743631
30
0.0
40
0.500000
50
270.000000
51
360.000000
0
LINE
8
0
10
3063.962944
20
1242.943631
30
0.0
11
3063.962944
21
1240.743631
31
0.0
0
ARC
8
0
10
3064.262944
20
1242.943631
30
0.0
40
0.300000
50
90.000000
51
180.000000
0
LINE
8
0
10
3076.862944
20
1243.243631
30
0.0
11
3064.262944
21
1243.243631
31
0.0
0
ARC
8
0
10
3076.862944
20
1242.943631
30
0.0
40
0.300000
50
360.000000
51
90.000000
0
LINE
8
0
10
3077.162944
20
1240.043631
30
0.0
11
3077.162944
21
1242.943631
31
0.0
0
ARC
8
0
10
3076.862944
20
1240.043631
30
0.0
40
0.300000
50
270.000000
51
360.000000
0
LINE
8
0
10
3075.662944
20
1239.743631
30
0.0
11
3076.862944
21
1239.743631
31
0.0
0
ATTDEF
8
0
10
0.000000
20
0.000000
30
0.0
40
3.5
1

3

2
PANE_WIDTH:0
70
0
0
ATTDEF
8
0
10
0.000000
20
0.000000
30
0.0
40
3.5
1

3

2
MIN_VETRO:0
70
0
0
ATTDEF
8
0
10
0.000000
20
0.000000
30
0.0
40
3.5
1

3

2
MAX_VETRO:0
70
0
0
ATTDEF
8
0
10
0.000000
20
0.000000
30
0.0
40
3.5
1

3

2
JX:0
70
0
0
ATTDEF
8
0
10
0.000000
20
0.000000
30
0.0
40
3.5
1

3

2
WX:0
70
0
0
ATTDEF
8
0
10
0.000000
20
0.000000
30
0.0
40
3.5
1

3

2
JY:0
70
0
0
ATTDEF
8
0
10
0.000000
20
0.000000
30
0.0
40
3.5
1

3

2
WY:0
70
0
0
ATTDEF
8
0
10
0.000000
20
0.000000
30
0.0
40
3.5
1

3

2
DESC:Marco para fijo
70
0
0
ATTDEF
8
0
10
0.000000
20
0.000000
30
0.0
40
3.5
1

3

2
DENS:1.766
70
0
0
ATTDEF
8
0
10
0.000000
20
0.000000
30
0.0
40
3.5
1

3

2
TDEV:71.54
70
0
0
ATTDEF
8
0
10
0.000000
20
0.000000
30
0.0
40
3.5
1

3

2
TDEV2:0
70
0
0
ATTDEF
8
0
10
0.000000
20
0.000000
30
0.0
40
3.5
1

3

2
TDEV3:0
70
0
0
ATTDEF
8
0
10
0.000000
20
0.000000
30
0.0
40
3.5
1

3

2
TDEV4:0
70
0
0
ATTDEF
8
0
10
0.000000
20
0.000000
30
0.0
40
3.5
1

3

2
TDEV5:0
70
0
0
ATTDEF
8
0
10
0.000000
20
0.000000
30
0.0
40
3.5
1

3

2
PANE_WIDTH:0
70
0
0
ATTDEF
8
0
10
0.000000
20
0.000000
30
0.0
40
3.5
1

3

2
MIN_VETRO:0
70
0
0
ATTDEF
8
0
10
0.000000
20
0.000000
30
0.0
40
3.5
1

3

2
MAX_VETRO:0
70
0
0
ATTDEF
8
0
10
0.000000
20
0.000000
30
0.0
40
3.5
1

3

2
JX:0
70
0
0
ATTDEF
8
0
10
0.000000
20
0.000000
30
0.0
40
3.5
1

3

2
WX:0
70
0
0
ATTDEF
8
0
10
0.000000
20
0.000000
30
0.0
40
3.5
1

3

2
JY:0
70
0
0
ATTDEF
8
0
10
0.000000
20
0.000000
30
0.0
40
3.5
1

3

2
WY:0
70
0
0
ATTDEF
8
0
10
3146.912944
20
1280.243631
30
0.0
40
3.5
1

3

2
VC_START
70
0
0
ATTDEF
8
0
10
3147.012944
20
1238.243631
30
0.0
40
3.5
1

3

2
VC_END
70
0
0
ATTDEF
8
0
10
3032.962944
20
1238.243631
30
0.0
40
3.5
1

3

2
FP_LCS_ORIG
70
0
0
ATTDEF
8
0
10
3042.962944
20
1238.243631
30
0.0
40
3.5
1

3

2
FP_LCS_HOT
70
0
0
ATTDEF
8
0
10
3032.962944
20
1248.243631
30
0.0
40
3.5
1

3

2
FP_LCS_INTERN
70
0
0
ENDSEC
0
EOF
