0
SECTION
2
ENTITIES
0
LINE
8
0
10
58.902547
20
23.506984
30
0.0
11
58.902547
21
25.906984
31
0.0
0
ARC
8
0
10
59.902547
20
25.906984
30
0.0
40
1.000000
50
90.000000
51
180.000000
0
LINE
8
0
10
59.902547
20
26.906984
30
0.0
11
60.402547
21
26.906984
31
0.0
0
ARC
8
0
10
60.402547
20
27.406984
30
0.0
40
0.500000
50
270.000000
51
360.000000
0
LINE
8
0
10
60.902547
20
27.406984
30
0.0
11
60.902547
21
35.335091
31
0.0
0
ARC
8
0
10
60.402547
20
35.335091
30
0.0
40
0.500000
50
360.000000
51
58.619868
0
LINE
8
0
10
60.662904
20
35.761956
30
0.0
11
59.881834
21
36.238352
31
0.0
0
ARC
8
0
10
60.402547
20
37.092084
30
0.0
40
1.000000
50
180.000000
51
238.619868
0
LINE
8
0
10
59.402547
20
37.092084
30
0.0
11
59.402547
21
67.725118
31
0.0
0
ARC
8
0
10
59.102547
20
67.725118
30
0.0
40
0.300000
50
360.000000
51
90.000000
0
LINE
8
0
10
59.102547
20
68.025118
30
0.0
11
57.902547
21
68.025118
31
0.0
0
ARC
8
0
10
57.902547
20
69.025118
30
0.0
40
1.000000
50
180.000000
51
270.000000
0
LINE
8
0
10
56.902547
20
69.025118
30
0.0
11
56.902547
21
73.906984
31
0.0
0
ARC
8
0
10
56.402547
20
73.906984
30
0.0
40
0.500000
50
360.000000
51
90.000000
0
LINE
8
0
10
56.402547
20
74.406984
30
0.0
11
54.302547
21
74.406984
31
0.0
0
ARC
8
0
10
54.302547
20
74.106984
30
0.0
40
0.300000
50
90.000000
51
180.000000
0
LINE
8
0
10
54.002547
20
74.106984
30
0.0
11
54.002547
21
23.506984
31
0.0
0
ARC
8
0
10
54.502547
20
23.506984
30
0.0
40
0.500000
50
180.000000
51
270.000000
0
LINE
8
0
10
54.502547
20
23.006984
30
0.0
11
58.402547
21
23.006984
31
0.0
0
ARC
8
0
10
58.402547
20
23.506984
30
0.0
40
0.500000
50
270.000000
51
360.000000
0
LINE
8
0
10
82.102547
20
23.506984
30
0.0
11
82.102547
21
25.906984
31
0.0
0
ARC
8
0
10
81.102547
20
25.906984
30
0.0
40
1.000000
50
360.000000
51
90.000000
0
LINE
8
0
10
81.102547
20
26.906984
30
0.0
11
80.602547
21
26.906984
31
0.0
0
ARC
8
0
10
80.602547
20
27.406984
30
0.0
40
0.500000
50
180.000000
51
270.000000
0
LINE
8
0
10
80.102547
20
27.406984
30
0.0
11
80.102547
21
35.335091
31
0.0
0
ARC
8
0
10
80.602547
20
35.335091
30
0.0
40
0.500000
50
121.380132
51
180.000000
0
LINE
8
0
10
80.342190
20
35.761956
30
0.0
11
81.123261
21
36.238352
31
0.0
0
ARC
8
0
10
80.602547
20
37.092084
30
0.0
40
1.000000
50
301.380132
51
360.000000
0
LINE
8
0
10
81.602547
20
37.092084
30
0.0
11
81.602547
21
67.725118
31
0.0
0
ARC
8
0
10
81.902547
20
67.725118
30
0.0
40
0.300000
50
90.000000
51
180.000000
0
LINE
8
0
10
81.902547
20
68.025118
30
0.0
11
83.102547
21
68.025118
31
0.0
0
ARC
8
0
10
83.102547
20
69.025118
30
0.0
40
1.000000
50
270.000000
51
360.000000
0
LINE
8
0
10
84.102547
20
69.025118
30
0.0
11
84.102547
21
73.906984
31
0.0
0
ARC
8
0
10
84.602547
20
73.906984
30
0.0
40
0.500000
50
90.000000
51
180.000000
0
LINE
8
0
10
84.602547
20
74.406984
30
0.0
11
86.702547
21
74.406984
31
0.0
0
ARC
8
0
10
86.702547
20
74.106984
30
0.0
40
0.300000
50
360.000000
51
90.000000
0
LINE
8
0
10
87.002547
20
74.106984
30
0.0
11
87.002547
21
23.506984
31
0.0
0
ARC
8
0
10
86.502547
20
23.506984
30
0.0
40
0.500000
50
270.000000
51
360.000000
0
LINE
8
0
10
86.502547
20
23.006984
30
0.0
11
82.602547
21
23.006984
31
0.0
0
ARC
8
0
10
82.602547
20
23.506984
30
0.0
40
0.500000
50
180.000000
51
270.000000
0
LINE
8
0
10
58.502547
20
73.519447
30
0.0
11
59.244246
21
74.261145
31
0.0
0
LINE
8
0
10
58.602547
20
71.374383
30
0.0
11
58.910149
21
71.681984
31
0.0
0
LINE
8
0
10
63.175478
20
75.947314
30
0.0
11
63.501498
21
76.273334
31
0.0
0
LINE
8
0
10
59.758172
20
72.530007
30
0.0
11
60.666726
21
73.438561
31
0.0
0
LINE
8
0
10
60.149587
20
70.676359
30
0.0
11
65.780213
21
76.306984
31
0.0
0
LINE
8
0
10
66.025277
20
74.306984
30
0.0
11
68.025277
21
76.306984
31
0.0
0
LINE
8
0
10
68.270341
20
74.306984
30
0.0
11
70.270341
21
76.306984
31
0.0
0
LINE
8
0
10
70.515405
20
74.306984
30
0.0
11
72.515405
21
76.306984
31
0.0
0
LINE
8
0
10
72.760469
20
74.306984
30
0.0
11
74.760469
21
76.306984
31
0.0
0
LINE
8
0
10
75.005533
20
74.306984
30
0.0
11
77.005533
21
76.306984
31
0.0
0
LINE
8
0
10
76.812635
20
73.869022
30
0.0
11
78.251247
21
75.307634
31
0.0
0
LINE
8
0
10
77.701577
20
72.512900
30
0.0
11
79.143152
21
73.954475
31
0.0
0
LINE
8
0
10
78.670528
20
71.236787
30
0.0
11
81.604438
21
74.170697
31
0.0
0
LINE
8
0
10
80.538488
20
70.859683
30
0.0
11
81.400167
21
71.721362
31
0.0
0
LINE
8
0
10
82.030853
20
70.106984
30
0.0
11
82.502547
21
70.578678
31
0.0
0
LINE
8
0
10
62.609819
20
32.725438
30
0.0
11
63.717927
21
33.833546
31
0.0
0
LINE
8
0
10
62.502547
20
30.373102
30
0.0
11
65.145929
21
33.016484
31
0.0
0
LINE
8
0
10
65.528757
20
31.154248
30
0.0
11
67.005959
21
32.631450
31
0.0
0
LINE
8
0
10
66.575516
20
29.955942
30
0.0
11
67.881763
21
31.262190
31
0.0
0
LINE
8
0
10
67.438900
20
28.574263
30
0.0
11
68.745121
21
29.880484
31
0.0
0
LINE
8
0
10
68.813948
20
27.704247
30
0.0
11
70.613947
21
29.504246
31
0.0
0
LINE
8
0
10
71.059012
20
27.704247
30
0.0
11
77.053403
21
33.698638
31
0.0
0
LINE
8
0
10
76.391709
20
30.791880
30
0.0
11
77.281888
21
31.682058
31
0.0
0
LINE
8
0
10
78.179076
20
32.579246
30
0.0
11
78.402556
21
32.802727
31
0.0
0
LINE
8
0
10
77.815929
20
29.971035
30
0.0
11
78.502454
21
30.657560
31
0.0
0
LINE
8
0
10
63.977214
20
30.424645
30
0.0
11
62.872612
21
31.529247
31
0.0
0
LINE
8
0
10
68.942676
20
27.704247
30
0.0
11
66.383172
21
30.263751
31
0.0
0
LINE
8
0
10
65.492675
20
31.154248
30
0.0
11
62.614812
21
34.032111
31
0.0
0
LINE
8
0
10
71.187740
20
27.704247
30
0.0
11
69.387741
21
29.504246
31
0.0
0
LINE
8
0
10
68.301436
20
30.590550
30
0.0
11
65.937742
21
32.954245
31
0.0
0
LINE
8
0
10
73.180257
20
27.956794
30
0.0
11
71.632805
21
29.504246
31
0.0
0
LINE
8
0
10
74.043641
20
29.338474
30
0.0
11
72.737406
21
30.644709
31
0.0
0
LINE
8
0
10
74.907026
20
30.720153
30
0.0
11
73.600764
21
32.026415
31
0.0
0
LINE
8
0
10
77.917997
20
29.954246
30
0.0
11
74.917998
21
32.954245
31
0.0
0
LINE
8
0
10
77.512954
20
32.604353
30
0.0
11
76.650996
21
33.466311
31
0.0
0
LINE
8
0
10
78.482073
20
33.880298
30
0.0
11
78.228504
21
34.133867
31
0.0
0
LINE
8
0
10
59.830845
20
70.492038
30
0.0
11
58.681608
21
71.641275
31
0.0
0
LINE
8
0
10
61.460963
20
71.106984
30
0.0
11
58.526003
21
74.041944
31
0.0
0
LINE
8
0
10
62.906260
20
71.906751
30
0.0
11
61.413676
21
73.399335
31
0.0
0
LINE
8
0
10
63.795101
20
73.262974
30
0.0
11
62.355221
21
74.702855
31
0.0
0
LINE
8
0
10
64.996423
20
74.306716
30
0.0
11
63.247126
21
76.056014
31
0.0
0
LINE
8
0
10
67.241219
20
74.306984
30
0.0
11
65.241219
21
76.306984
31
0.0
0
LINE
8
0
10
69.486283
20
74.306984
30
0.0
11
67.486283
21
76.306984
31
0.0
0
LINE
8
0
10
71.731347
20
74.306984
30
0.0
11
69.731347
21
76.306984
31
0.0
0
LINE
8
0
10
73.976411
20
74.306984
30
0.0
11
71.976411
21
76.306984
31
0.0
0
LINE
8
0
10
79.421475
20
71.106984
30
0.0
11
77.104463
21
73.423997
31
0.0
0
LINE
8
0
10
76.259834
20
74.268625
30
0.0
11
74.221475
21
76.306984
31
0.0
0
LINE
8
0
10
82.455240
20
70.318284
30
0.0
11
76.466539
21
76.306984
31
0.0
0
LINE
8
0
10
82.273569
20
72.745019
30
0.0
11
81.125087
21
73.893501
31
0.0
0
ARC
8
0
10
82.102547
20
73.906984
30
0.0
40
0.400000
50
360.000000
51
90.000000
0
LINE
8
0
10
82.502547
20
73.906984
30
0.0
11
82.502547
21
73.306984
31
0.0
0
LINE
8
0
10
82.502547
20
73.306984
30
0.0
11
82.402547
21
73.306984
31
0.0
0
LINE
8
0
10
82.402547
20
73.306984
30
0.0
11
82.402547
21
72.931984
31
0.0
0
ARC
8
0
10
82.202547
20
72.931984
30
0.0
40
0.200000
50
270.000000
51
360.000000
0
LINE
8
0
10
82.202547
20
72.731984
30
0.0
11
82.043021
21
72.731984
31
0.0
0
ARC
8
0
10
81.752547
20
72.206984
30
0.0
40
0.600000
50
61.044976
51
180.000000
0
ARC
8
0
10
81.752547
20
72.206984
30
0.0
40
0.600000
50
180.000000
51
298.955024
0
LINE
8
0
10
82.043021
20
71.681984
30
0.0
11
82.202547
21
71.681984
31
0.0
0
ARC
8
0
10
82.202547
20
71.481984
30
0.0
40
0.200000
50
360.000000
51
90.000000
0
LINE
8
0
10
82.402547
20
71.481984
30
0.0
11
82.402547
21
71.106984
31
0.0
0
LINE
8
0
10
82.402547
20
71.106984
30
0.0
11
82.502547
21
71.106984
31
0.0
0
LINE
8
0
10
82.502547
20
71.106984
30
0.0
11
82.502547
21
70.506984
31
0.0
0
ARC
8
0
10
82.102547
20
70.506984
30
0.0
40
0.400000
50
270.000000
51
360.000000
0
LINE
8
0
10
82.102547
20
70.106984
30
0.0
11
81.893667
21
70.106984
31
0.0
0
LINE
8
0
10
81.797697
20
70.131514
30
0.0
11
81.893667
21
70.106984
31
0.0
0
LINE
8
0
10
81.797697
20
70.131514
30
0.0
11
80.296658
21
70.999527
31
0.0
0
ARC
8
0
10
79.896178
20
70.306984
30
0.0
40
0.800000
50
59.960294
51
90.000000
0
LINE
8
0
10
79.896178
20
71.106984
30
0.0
11
79.163232
21
71.106984
31
0.0
0
ARC
8
0
10
79.163232
20
72.106984
30
0.0
40
1.000000
50
213.240000
51
270.000000
0
LINE
8
0
10
78.326850
20
71.558837
30
0.0
11
76.821906
21
73.855131
31
0.0
0
ARC
8
0
10
75.985524
20
73.306984
30
0.0
40
1.000000
50
33.240000
51
90.000000
0
LINE
8
0
10
75.985524
20
74.306984
30
0.0
11
70.502547
21
74.306984
31
0.0
0
LINE
8
0
10
70.502547
20
74.306984
30
0.0
11
65.170131
21
74.306984
31
0.0
0
LINE
8
0
10
65.170131
20
74.306984
30
0.0
11
65.019570
21
74.306984
31
0.0
0
ARC
8
0
10
65.019570
20
73.306984
30
0.0
40
1.000000
50
90.000000
51
146.760000
0
LINE
8
0
10
64.183188
20
73.855131
30
0.0
11
62.678245
21
71.558837
31
0.0
0
ARC
8
0
10
61.841863
20
72.106984
30
0.0
40
1.000000
50
270.000000
51
326.760000
0
LINE
8
0
10
61.841863
20
71.106984
30
0.0
11
61.108917
21
71.106984
31
0.0
0
ARC
8
0
10
61.108917
20
70.306984
30
0.0
40
0.800000
50
90.000000
51
120.039706
0
LINE
8
0
10
60.708437
20
70.999527
30
0.0
11
59.207397
21
70.131514
31
0.0
0
LINE
8
0
10
59.111427
20
70.106984
30
0.0
11
59.207397
21
70.131514
31
0.0
0
LINE
8
0
10
59.111427
20
70.106984
30
0.0
11
58.902547
21
70.106984
31
0.0
0
ARC
8
0
10
58.902547
20
70.506984
30
0.0
40
0.400000
50
180.000000
51
270.000000
0
LINE
8
0
10
58.502547
20
70.506984
30
0.0
11
58.502547
21
71.106984
31
0.0
0
LINE
8
0
10
58.502547
20
71.106984
30
0.0
11
58.602547
21
71.106984
31
0.0
0
LINE
8
0
10
58.602547
20
71.106984
30
0.0
11
58.602547
21
71.481984
31
0.0
0
ARC
8
0
10
58.802547
20
71.481984
30
0.0
40
0.200000
50
90.000000
51
180.000000
0
LINE
8
0
10
58.802547
20
71.681984
30
0.0
11
58.962073
21
71.681984
31
0.0
0
ARC
8
0
10
59.252547
20
72.206984
30
0.0
40
0.600000
50
241.044976
51
360.000000
0
ARC
8
0
10
59.252547
20
72.206984
30
0.0
40
0.600000
50
360.000000
51
118.955024
0
LINE
8
0
10
58.962073
20
72.731984
30
0.0
11
58.802547
21
72.731984
31
0.0
0
ARC
8
0
10
58.802547
20
72.931984
30
0.0
40
0.200000
50
180.000000
51
270.000000
0
LINE
8
0
10
58.602547
20
72.931984
30
0.0
11
58.602547
21
73.306984
31
0.0
0
LINE
8
0
10
58.602547
20
73.306984
30
0.0
11
58.502547
21
73.306984
31
0.0
0
LINE
8
0
10
58.502547
20
73.306984
30
0.0
11
58.502547
21
73.906984
31
0.0
0
ARC
8
0
10
58.902547
20
73.906984
30
0.0
40
0.400000
50
90.000000
51
180.000000
0
LINE
8
0
10
58.902547
20
74.306984
30
0.0
11
59.111427
21
74.306984
31
0.0
0
LINE
8
0
10
59.207397
20
74.282454
30
0.0
11
59.111427
21
74.306984
31
0.0
0
LINE
8
0
10
59.207397
20
74.282454
30
0.0
11
60.738548
21
73.397028
31
0.0
0
ARC
8
0
10
61.074133
20
73.977349
30
0.0
40
0.670365
50
239.960294
51
326.610000
0
LINE
8
0
10
61.633850
20
73.608424
30
0.0
11
63.264354
21
76.082152
31
0.0
0
ARC
8
0
10
63.681826
20
75.806984
30
0.0
40
0.500000
50
90.000000
51
146.610000
0
LINE
8
0
10
63.681826
20
76.306984
30
0.0
11
70.502547
21
76.306984
31
0.0
0
LINE
8
0
10
70.502547
20
76.306984
30
0.0
11
77.323269
21
76.306984
31
0.0
0
ARC
8
0
10
77.323269
20
75.806984
30
0.0
40
0.500000
50
33.390000
51
90.000000
0
LINE
8
0
10
77.740741
20
76.082152
30
0.0
11
79.371244
21
73.608424
31
0.0
0
ARC
8
0
10
79.930962
20
73.977349
30
0.0
40
0.670365
50
213.390000
51
300.039706
0
LINE
8
0
10
80.266546
20
73.397028
30
0.0
11
81.797697
21
74.282454
31
0.0
0
LINE
8
0
10
81.893667
20
74.306984
30
0.0
11
81.797697
21
74.282454
31
0.0
0
LINE
8
0
10
81.893667
20
74.306984
30
0.0
11
82.102547
21
74.306984
31
0.0
0
ARC
8
0
10
76.738549
20
26.416338
30
0.0
40
2.000000
50
53.438974
51
142.581803
0
LINE
8
0
10
77.929906
20
28.022784
30
0.0
11
78.211382
21
27.814038
31
0.0
0
ARC
8
0
10
78.032679
20
27.573071
30
0.0
40
0.300000
50
296.729611
51
53.438974
0
ARC
8
0
10
78.302547
20
27.037188
30
0.0
40
0.300000
50
116.729611
51
180.000000
0
LINE
8
0
10
78.002547
20
27.037188
30
0.0
11
78.002547
21
25.806984
31
0.0
0
ARC
8
0
10
78.502547
20
25.806984
30
0.0
40
0.500000
50
180.000000
51
270.000000
0
LINE
8
0
10
78.502547
20
25.306984
30
0.0
11
80.202547
21
25.306984
31
0.0
0
ARC
8
0
10
80.202547
20
25.006984
30
0.0
40
0.300000
50
360.000000
51
90.000000
0
LINE
8
0
10
80.502547
20
25.006984
30
0.0
11
80.502547
21
22.606984
31
0.0
0
ARC
8
0
10
80.202547
20
22.606984
30
0.0
40
0.300000
50
270.000000
51
360.000000
0
LINE
8
0
10
80.202547
20
22.306984
30
0.0
11
78.802547
21
22.306984
31
0.0
0
ARC
8
0
10
78.802547
20
22.006984
30
0.0
40
0.300000
50
90.000000
51
180.000000
0
LINE
8
0
10
78.502547
20
22.006984
30
0.0
11
78.502547
21
21.106984
31
0.0
0
ARC
8
0
10
78.802547
20
21.106984
30
0.0
40
0.300000
50
180.000000
51
270.000000
0
LINE
8
0
10
78.802547
20
20.806984
30
0.0
11
86.702547
21
20.806984
31
0.0
0
ARC
8
0
10
86.702547
20
22.806984
30
0.0
40
2.000000
50
270.000000
51
360.000000
0
LINE
8
0
10
88.702547
20
22.806984
30
0.0
11
88.702547
21
86.725424
31
0.0
0
ARC
8
0
10
91.702547
20
86.725424
30
0.0
40
3.000000
50
106.000000
51
180.000000
0
LINE
8
0
10
90.875635
20
89.609209
30
0.0
11
95.658081
21
90.980553
31
0.0
0
ARC
8
0
10
96.484993
20
88.096768
30
0.0
40
3.000000
50
67.447482
51
106.000000
0
ARC
8
0
10
182.118750
20
294.300143
30
0.0
40
220.277791
50
247.447482
51
251.725361
0
ARC
8
0
10
113.202547
20
85.606984
30
0.0
40
0.500000
50
251.725361
51
360.000000
0
LINE
8
0
10
113.702547
20
85.606984
30
0.0
11
113.702547
21
88.367023
31
0.0
0
ARC
8
0
10
112.702547
20
88.367023
30
0.0
40
1.000000
50
360.000000
51
73.000000
0
LINE
8
0
10
112.994919
20
89.323328
30
0.0
11
97.777046
21
93.975898
31
0.0
0
ARC
8
0
10
96.899931
20
91.106984
30
0.0
40
3.000000
50
73.000000
51
90.000000
0
LINE
8
0
10
96.899931
20
94.106984
30
0.0
11
96.098999
21
94.106984
31
0.0
0
ARC
8
0
10
96.098999
20
91.106984
30
0.0
40
3.000000
50
90.000000
51
106.000000
0
LINE
8
0
10
95.272087
20
93.990769
30
0.0
11
88.837644
21
92.145722
31
0.0
0
ARC
8
0
10
88.562006
20
93.106984
30
0.0
40
1.000000
50
270.000000
51
286.000000
0
LINE
8
0
10
88.562006
20
92.106984
30
0.0
11
87.502547
21
92.106984
31
0.0
0
ARC
8
0
10
87.502547
20
91.606984
30
0.0
40
0.500000
50
90.000000
51
180.000000
0
LINE
8
0
10
87.002547
20
91.606984
30
0.0
11
87.002547
21
90.106984
31
0.0
0
LINE
8
0
10
87.002547
20
90.106984
30
0.0
11
87.233741
21
90.106984
31
0.0
0
ARC
8
0
10
87.233741
20
89.906984
30
0.0
40
0.200000
50
343.300756
51
90.000000
0
LINE
8
0
10
87.425306
20
89.849514
30
0.0
11
87.102547
21
88.773651
31
0.0
0
LINE
8
0
10
87.102547
20
88.773651
30
0.0
11
87.102547
21
88.106984
31
0.0
0
LINE
8
0
10
87.102547
20
88.106984
30
0.0
11
87.233741
21
88.106984
31
0.0
0
ARC
8
0
10
87.233741
20
87.906984
30
0.0
40
0.200000
50
343.300756
51
90.000000
0
LINE
8
0
10
87.425306
20
87.849514
30
0.0
11
87.115199
21
86.815824
31
0.0
0
LINE
8
0
10
87.115199
20
86.815824
30
0.0
11
87.102547
21
86.729620
31
0.0
0
LINE
8
0
10
87.102547
20
86.729620
30
0.0
11
87.102547
21
77.606984
31
0.0
0
ARC
8
0
10
86.102547
20
77.606984
30
0.0
40
1.000000
50
270.000000
51
360.000000
0
LINE
8
0
10
86.102547
20
76.606984
30
0.0
11
82.493207
21
76.606984
31
0.0
0
ARC
8
0
10
82.493207
20
76.406984
30
0.0
40
0.200000
50
90.000000
51
138.237836
0
ARC
8
0
10
80.852192
20
77.872272
30
0.0
40
2.000000
50
226.465725
51
318.237836
0
ARC
8
0
10
79.130221
20
76.059866
30
0.0
40
0.500000
50
46.465725
51
90.000000
0
LINE
8
0
10
79.130221
20
76.559866
30
0.0
11
78.441424
21
76.559866
31
0.0
0
ARC
8
0
10
78.441424
20
76.259866
30
0.0
40
0.300000
50
90.000000
51
210.497622
0
LINE
8
0
10
78.182929
20
76.107615
30
0.0
11
79.606633
21
73.690416
31
0.0
0
LINE
8
0
10
79.606633
20
73.690416
30
0.0
11
79.649247
21
73.634352
31
0.0
0
LINE
8
0
10
79.649247
20
73.634352
30
0.0
11
80.109414
21
73.157471
31
0.0
0
ARC
8
0
10
80.214203
20
73.258588
30
0.0
40
0.145621
50
223.978161
51
360.000000
0
LINE
8
0
10
80.359527
20
73.267881
30
0.0
11
80.349599
21
73.423145
31
0.0
0
ARC
8
0
10
80.549191
20
73.435909
30
0.0
40
0.200000
50
130.482877
51
183.658900
0
LINE
8
0
10
80.419347
20
73.588029
30
0.0
11
82.023549
21
74.957318
31
0.0
0
ARC
8
0
10
82.218315
20
74.729138
30
0.0
40
0.300000
50
108.658900
51
130.482877
0
LINE
8
0
10
82.122335
20
75.013370
30
0.0
11
82.406567
21
75.109350
31
0.0
0
ARC
8
0
10
82.502547
20
74.825118
30
0.0
40
0.300000
50
270.000000
51
108.658900
0
LINE
8
0
10
82.502547
20
74.525118
30
0.0
11
82.502547
21
70.025118
31
0.0
0
ARC
8
0
10
82.302547
20
70.025118
30
0.0
40
0.200000
50
270.000000
51
360.000000
0
LINE
8
0
10
82.302547
20
69.825118
30
0.0
11
82.234658
21
69.825118
31
0.0
0
ARC
8
0
10
82.234658
20
70.125118
30
0.0
40
0.300000
50
238.619868
51
270.000000
0
LINE
8
0
10
82.078444
20
69.868998
30
0.0
11
80.402451
21
70.891231
31
0.0
0
ARC
8
0
10
80.202547
20
70.897421
30
0.0
40
0.200000
50
360.000000
51
180.000000
0
LINE
8
0
10
80.002547
20
70.897421
30
0.0
11
80.002547
21
41.346721
31
0.0
0
ARC
8
0
10
79.502547
20
41.346721
30
0.0
40
0.500000
50
251.790043
51
360.000000
0
ARC
8
0
10
78.502547
20
38.306984
30
0.0
40
2.700000
50
71.790043
51
136.863441
0
ARC
8
0
10
76.897150
20
39.811211
30
0.0
40
0.500000
50
136.863441
51
240.000000
0
LINE
8
0
10
76.647150
20
39.378198
30
0.0
11
76.915096
21
39.223499
31
0.0
0
ARC
8
0
10
77.165096
20
39.656512
30
0.0
40
0.500000
50
240.000000
51
314.742477
0
ARC
8
0
10
78.502547
20
38.306984
30
0.0
40
1.400000
50
110.573121
51
134.742477
0
LINE
8
0
10
78.010584
20
39.617698
30
0.0
11
78.010584
21
39.829473
31
0.0
0
ARC
8
0
10
78.502547
20
38.306984
30
0.0
40
1.600000
50
72.092741
51
107.907259
0
LINE
8
0
10
78.994511
20
39.829473
30
0.0
11
78.994511
21
39.617698
31
0.0
0
ARC
8
0
10
78.502547
20
38.306984
30
0.0
40
1.400000
50
20.573121
51
69.426879
0
LINE
8
0
10
79.813262
20
38.798948
30
0.0
11
80.025036
21
38.798948
31
0.0
0
ARC
8
0
10
78.502547
20
38.306984
30
0.0
40
1.600000
50
342.092741
51
17.907259
0
LINE
8
0
10
80.025036
20
37.815021
30
0.0
11
79.813262
21
37.815021
31
0.0
0
ARC
8
0
10
78.502547
20
38.306984
30
0.0
40
1.400000
50
290.573121
51
339.426879
0
LINE
8
0
10
78.994511
20
36.996270
30
0.0
11
78.994511
21
36.784495
31
0.0
0
ARC
8
0
10
78.502547
20
38.306984
30
0.0
40
1.600000
50
252.092741
51
287.907259
0
LINE
8
0
10
78.010584
20
36.784495
30
0.0
11
78.010584
21
36.996270
31
0.0
0
ARC
8
0
10
78.502547
20
38.306984
30
0.0
40
1.400000
50
225.257523
51
249.426879
0
ARC
8
0
10
77.165096
20
36.957456
30
0.0
40
0.500000
50
45.257523
51
120.000000
0
LINE
8
0
10
76.915096
20
37.390469
30
0.0
11
76.647150
21
37.235770
31
0.0
0
ARC
8
0
10
76.897150
20
36.802757
30
0.0
40
0.500000
50
120.000000
51
223.136559
0
ARC
8
0
10
78.502547
20
38.306984
30
0.0
40
2.700000
50
223.136559
51
226.426040
0
ARC
8
0
10
76.296818
20
35.988631
30
0.0
40
0.500000
50
301.380132
51
46.426040
0
LINE
8
0
10
76.557175
20
35.561766
30
0.0
11
76.481834
21
35.515813
31
0.0
0
ARC
8
0
10
77.002547
20
34.662082
30
0.0
40
1.000000
50
121.380132
51
180.000000
0
LINE
8
0
10
76.002547
20
34.662082
30
0.0
11
76.002547
21
33.352814
31
0.0
0
ARC
8
0
10
76.202547
20
33.352814
30
0.0
40
0.200000
50
180.000000
51
360.000000
0
LINE
8
0
10
76.402451
20
33.359004
30
0.0
11
78.078444
21
34.381237
31
0.0
0
ARC
8
0
10
78.234658
20
34.125118
30
0.0
40
0.300000
50
90.000000
51
121.380132
0
LINE
8
0
10
78.234658
20
34.425118
30
0.0
11
78.302547
21
34.425118
31
0.0
0
ARC
8
0
10
78.302547
20
34.225118
30
0.0
40
0.200000
50
360.000000
51
90.000000
0
LINE
8
0
10
78.502547
20
34.225118
30
0.0
11
78.502547
21
29.725118
31
0.0
0
ARC
8
0
10
78.502547
20
29.425118
30
0.0
40
0.300000
50
251.341100
51
90.000000
0
LINE
8
0
10
78.406567
20
29.140886
30
0.0
11
78.122335
21
29.236866
31
0.0
0
ARC
8
0
10
78.218315
20
29.521098
30
0.0
40
0.300000
50
229.517123
51
251.341100
0
LINE
8
0
10
78.023549
20
29.292918
30
0.0
11
76.419347
21
30.662207
31
0.0
0
ARC
8
0
10
76.549191
20
30.814327
30
0.0
40
0.200000
50
176.341100
51
229.517123
0
LINE
8
0
10
76.349599
20
30.827090
30
0.0
11
76.359527
21
30.982355
31
0.0
0
ARC
8
0
10
76.214203
20
30.991648
30
0.0
40
0.145621
50
360.000000
51
121.250113
0
LINE
8
0
10
76.138659
20
31.116141
30
0.0
11
75.502384
21
30.730038
31
0.0
0
ARC
8
0
10
75.658017
20
30.473564
30
0.0
40
0.300000
50
121.250113
51
149.797281
0
LINE
8
0
10
75.398741
20
30.624483
30
0.0
11
73.804923
21
27.886327
31
0.0
0
ARC
8
0
10
74.064198
20
27.735409
30
0.0
40
0.300000
50
149.797281
51
270.000000
0
LINE
8
0
10
74.064198
20
27.435409
30
0.0
11
74.752994
21
27.435409
31
0.0
0
ARC
8
0
10
74.752994
20
27.935409
30
0.0
40
0.500000
50
270.000000
51
322.581803
0
LINE
8
0
10
70.502500
20
27.704247
30
0.0
11
72.800723
21
27.704247
31
0.0
0
ARC
8
0
10
72.800723
20
28.104247
30
0.0
40
0.400000
50
270.000000
51
327.999547
0
LINE
8
0
10
73.139941
20
27.892276
30
0.0
11
75.119535
21
31.060233
31
0.0
0
ARC
8
0
10
75.289144
20
30.954248
30
0.0
40
0.200000
50
90.000000
51
147.999547
0
LINE
8
0
10
75.289144
20
31.154248
30
0.0
11
75.549705
21
31.154248
31
0.0
0
ARC
8
0
10
75.549705
20
30.354248
30
0.0
40
0.800000
50
60.000304
51
90.000000
0
LINE
8
0
10
75.949701
20
31.047070
30
0.0
11
77.796141
21
29.981040
31
0.0
0
ARC
8
0
10
77.896140
20
30.154246
30
0.0
40
0.200000
50
240.000304
51
270.000000
0
LINE
8
0
10
77.896140
20
29.954246
30
0.0
11
78.102454
21
29.954246
31
0.0
0
ARC
8
0
10
78.102454
20
30.354246
30
0.0
40
0.400000
50
270.000000
51
360.000000
0
LINE
8
0
10
78.502454
20
30.354246
30
0.0
11
78.502454
21
30.954248
31
0.0
0
LINE
8
0
10
78.502454
20
30.954248
30
0.0
11
78.402556
21
30.954248
31
0.0
0
LINE
8
0
10
78.402556
20
30.954248
30
0.0
11
78.402556
21
31.329247
31
0.0
0
ARC
8
0
10
78.202556
20
31.329247
30
0.0
40
0.200000
50
360.000000
51
90.000000
0
LINE
8
0
10
78.202556
20
31.529247
30
0.0
11
78.042974
21
31.529247
31
0.0
0
ARC
8
0
10
77.752500
20
32.054247
30
0.0
40
0.600000
50
180.000000
51
298.955054
0
ARC
8
0
10
77.752500
20
32.054247
30
0.0
40
0.600000
50
61.044946
51
180.000000
0
LINE
8
0
10
78.042974
20
32.579246
30
0.0
11
78.202556
21
32.579246
31
0.0
0
ARC
8
0
10
78.202556
20
32.779246
30
0.0
40
0.200000
50
270.000000
51
360.000000
0
LINE
8
0
10
78.402556
20
32.779246
30
0.0
11
78.402556
21
33.154245
31
0.0
0
LINE
8
0
10
78.402556
20
33.154245
30
0.0
11
78.502454
21
33.154245
31
0.0
0
LINE
8
0
10
78.502454
20
33.154245
30
0.0
11
78.502454
21
33.754247
31
0.0
0
ARC
8
0
10
78.102454
20
33.754247
30
0.0
40
0.400000
50
360.000000
51
90.000000
0
LINE
8
0
10
78.102454
20
34.154247
30
0.0
11
77.896140
21
34.154247
31
0.0
0
ARC
8
0
10
77.896140
20
33.954247
30
0.0
40
0.200000
50
90.000000
51
119.999696
0
LINE
8
0
10
77.796141
20
34.127453
30
0.0
11
75.949700
21
33.061422
31
0.0
0
ARC
8
0
10
75.549704
20
33.754245
30
0.0
40
0.800000
50
270.000000
51
299.999696
0
LINE
8
0
10
75.549704
20
32.954245
30
0.0
11
74.734836
21
32.954245
31
0.0
0
ARC
8
0
10
74.734836
20
31.954245
30
0.0
40
1.000000
50
90.000000
51
148.000809
0
LINE
8
0
10
73.886781
20
32.484152
30
0.0
11
72.142282
21
29.692283
31
0.0
0
ARC
8
0
10
71.803060
20
29.904246
30
0.0
40
0.400000
50
270.000000
51
328.000809
0
LINE
8
0
10
71.803060
20
29.504246
30
0.0
11
70.502500
21
29.504246
31
0.0
0
LINE
8
0
10
70.502500
20
29.504246
30
0.0
11
69.201941
21
29.504246
31
0.0
0
ARC
8
0
10
69.201941
20
29.904246
30
0.0
40
0.400000
50
211.999191
51
270.000000
0
LINE
8
0
10
68.862719
20
29.692283
30
0.0
11
67.118220
21
32.484152
31
0.0
0
ARC
8
0
10
66.270164
20
31.954245
30
0.0
40
1.000000
50
31.999191
51
90.000000
0
LINE
8
0
10
66.270164
20
32.954245
30
0.0
11
65.455297
21
32.954245
31
0.0
0
ARC
8
0
10
65.455297
20
33.754245
30
0.0
40
0.800000
50
240.000304
51
270.000000
0
LINE
8
0
10
65.055301
20
33.061422
30
0.0
11
63.208859
21
34.127453
31
0.0
0
ARC
8
0
10
63.108860
20
33.954247
30
0.0
40
0.200000
50
60.000304
51
90.000000
0
LINE
8
0
10
63.108860
20
34.154247
30
0.0
11
62.902547
21
34.154247
31
0.0
0
ARC
8
0
10
62.902547
20
33.754247
30
0.0
40
0.400000
50
90.000000
51
180.000000
0
LINE
8
0
10
62.502547
20
33.754247
30
0.0
11
62.502547
21
33.154245
31
0.0
0
LINE
8
0
10
62.502547
20
33.154245
30
0.0
11
62.602445
21
33.154245
31
0.0
0
LINE
8
0
10
62.602445
20
33.154245
30
0.0
11
62.602445
21
32.779246
31
0.0
0
ARC
8
0
10
62.802445
20
32.779246
30
0.0
40
0.200000
50
180.000000
51
270.000000
0
LINE
8
0
10
62.802445
20
32.579246
30
0.0
11
62.962026
21
32.579246
31
0.0
0
ARC
8
0
10
63.252500
20
32.054247
30
0.0
40
0.600000
50
360.000000
51
118.955054
0
ARC
8
0
10
63.252500
20
32.054247
30
0.0
40
0.600000
50
241.044946
51
360.000000
0
LINE
8
0
10
62.962026
20
31.529247
30
0.0
11
62.802445
21
31.529247
31
0.0
0
ARC
8
0
10
62.802445
20
31.329247
30
0.0
40
0.200000
50
90.000000
51
180.000000
0
LINE
8
0
10
62.602445
20
31.329247
30
0.0
11
62.602445
21
30.954248
31
0.0
0
LINE
8
0
10
62.602445
20
30.954248
30
0.0
11
62.502547
21
30.954248
31
0.0
0
LINE
8
0
10
62.502547
20
30.954248
30
0.0
11
62.502547
21
30.354246
31
0.0
0
ARC
8
0
10
62.902547
20
30.354246
30
0.0
40
0.400000
50
180.000000
51
270.000000
0
LINE
8
0
10
62.902547
20
29.954246
30
0.0
11
63.108860
21
29.954246
31
0.0
0
ARC
8
0
10
63.108860
20
30.154246
30
0.0
40
0.200000
50
270.000000
51
299.999696
0
LINE
8
0
10
63.208859
20
29.981040
30
0.0
11
65.055300
21
31.047070
31
0.0
0
ARC
8
0
10
65.455296
20
30.354248
30
0.0
40
0.800000
50
90.000000
51
119.999696
0
LINE
8
0
10
65.455296
20
31.154248
30
0.0
11
65.715857
21
31.154248
31
0.0
0
ARC
8
0
10
65.715857
20
30.954248
30
0.0
40
0.200000
50
32.000453
51
90.000000
0
LINE
8
0
10
65.885466
20
31.060233
30
0.0
11
67.865060
21
27.892276
31
0.0
0
ARC
8
0
10
68.204277
20
28.104247
30
0.0
40
0.400000
50
212.000453
51
270.000000
0
LINE
8
0
10
68.204277
20
27.704247
30
0.0
11
70.502500
21
27.704247
31
0.0
0
LINE
8
0
10
64.866435
20
31.116141
30
0.0
11
65.502710
21
30.730038
31
0.0
0
ARC
8
0
10
65.347078
20
30.473564
30
0.0
40
0.300000
50
30.202719
51
58.749887
0
LINE
8
0
10
65.606353
20
30.624483
30
0.0
11
67.200172
21
27.886327
31
0.0
0
ARC
8
0
10
66.940896
20
27.735409
30
0.0
40
0.300000
50
270.000000
51
30.202719
0
LINE
8
0
10
66.940896
20
27.435409
30
0.0
11
66.252100
21
27.435409
31
0.0
0
ARC
8
0
10
66.252100
20
27.935409
30
0.0
40
0.500000
50
217.418197
51
270.000000
0
ARC
8
0
10
64.266546
20
26.416338
30
0.0
40
2.000000
50
37.418197
51
126.561026
0
LINE
8
0
10
63.075189
20
28.022784
30
0.0
11
62.793712
21
27.814038
31
0.0
0
ARC
8
0
10
62.972416
20
27.573071
30
0.0
40
0.300000
50
126.561026
51
243.270389
0
ARC
8
0
10
62.702547
20
27.037188
30
0.0
40
0.300000
50
360.000000
51
63.270389
0
LINE
8
0
10
63.002547
20
27.037188
30
0.0
11
63.002547
21
25.806984
31
0.0
0
ARC
8
0
10
62.502547
20
25.806984
30
0.0
40
0.500000
50
270.000000
51
360.000000
0
LINE
8
0
10
62.502547
20
25.306984
30
0.0
11
60.802547
21
25.306984
31
0.0
0
ARC
8
0
10
60.802547
20
25.006984
30
0.0
40
0.300000
50
90.000000
51
180.000000
0
LINE
8
0
10
60.502547
20
25.006984
30
0.0
11
60.502547
21
22.606984
31
0.0
0
ARC
8
0
10
60.802547
20
22.606984
30
0.0
40
0.300000
50
180.000000
51
270.000000
0
LINE
8
0
10
60.802547
20
22.306984
30
0.0
11
62.202547
21
22.306984
31
0.0
0
ARC
8
0
10
62.202547
20
22.006984
30
0.0
40
0.300000
50
360.000000
51
90.000000
0
LINE
8
0
10
62.502547
20
22.006984
30
0.0
11
62.502547
21
21.106984
31
0.0
0
ARC
8
0
10
62.202547
20
21.106984
30
0.0
40
0.300000
50
270.000000
51
360.000000
0
LINE
8
0
10
62.202547
20
20.806984
30
0.0
11
54.302547
21
20.806984
31
0.0
0
ARC
8
0
10
54.302547
20
22.806984
30
0.0
40
2.000000
50
180.000000
51
270.000000
0
LINE
8
0
10
52.302547
20
22.806984
30
0.0
11
52.302547
21
86.725424
31
0.0
0
ARC
8
0
10
49.302547
20
86.725424
30
0.0
40
3.000000
50
360.000000
51
74.000000
0
LINE
8
0
10
50.129459
20
89.609209
30
0.0
11
45.347013
21
90.980553
31
0.0
0
ARC
8
0
10
44.520101
20
88.096768
30
0.0
40
3.000000
50
74.000000
51
112.552518
0
ARC
8
0
10
-41.113655
20
294.300143
30
0.0
40
220.277791
50
288.274640
51
292.552518
0
ARC
8
0
10
27.802547
20
85.606984
30
0.0
40
0.500000
50
180.000000
51
288.274640
0
LINE
8
0
10
27.302547
20
85.606984
30
0.0
11
27.302547
21
88.367023
31
0.0
0
ARC
8
0
10
28.302547
20
88.367023
30
0.0
40
1.000000
50
107.000000
51
180.000000
0
LINE
8
0
10
28.010176
20
89.323328
30
0.0
11
43.228048
21
93.975898
31
0.0
0
ARC
8
0
10
44.105163
20
91.106984
30
0.0
40
3.000000
50
90.000000
51
107.000000
0
LINE
8
0
10
44.105163
20
94.106984
30
0.0
11
44.906096
21
94.106984
31
0.0
0
ARC
8
0
10
44.906096
20
91.106984
30
0.0
40
3.000000
50
74.000000
51
90.000000
0
LINE
8
0
10
45.733008
20
93.990769
30
0.0
11
52.167451
21
92.145722
31
0.0
0
ARC
8
0
10
52.443088
20
93.106984
30
0.0
40
1.000000
50
254.000000
51
270.000000
0
LINE
8
0
10
52.443088
20
92.106984
30
0.0
11
53.502547
21
92.106984
31
0.0
0
ARC
8
0
10
53.502547
20
91.606984
30
0.0
40
0.500000
50
360.000000
51
90.000000
0
LINE
8
0
10
54.002547
20
91.606984
30
0.0
11
54.002547
21
90.106984
31
0.0
0
LINE
8
0
10
54.002547
20
90.106984
30
0.0
11
53.771353
21
90.106984
31
0.0
0
ARC
8
0
10
53.771353
20
89.906984
30
0.0
40
0.200000
50
90.000000
51
196.699244
0
LINE
8
0
10
53.579788
20
89.849514
30
0.0
11
53.902547
21
88.773651
31
0.0
0
LINE
8
0
10
53.902547
20
88.773651
30
0.0
11
53.902547
21
88.106984
31
0.0
0
LINE
8
0
10
53.902547
20
88.106984
30
0.0
11
53.771353
21
88.106984
31
0.0
0
ARC
8
0
10
53.771353
20
87.906984
30
0.0
40
0.200000
50
90.000000
51
196.699244
0
LINE
8
0
10
53.579788
20
87.849514
30
0.0
11
53.889895
21
86.815824
31
0.0
0
LINE
8
0
10
53.902547
20
86.729620
30
0.0
11
53.889895
21
86.815824
31
0.0
0
LINE
8
0
10
53.902547
20
86.729620
30
0.0
11
53.902547
21
77.606984
31
0.0
0
ARC
8
0
10
54.902547
20
77.606984
30
0.0
40
1.000000
50
180.000000
51
270.000000
0
LINE
8
0
10
54.902547
20
76.606984
30
0.0
11
58.511888
21
76.606984
31
0.0
0
ARC
8
0
10
58.511888
20
76.406984
30
0.0
40
0.200000
50
41.762164
51
90.000000
0
ARC
8
0
10
60.152903
20
77.872272
30
0.0
40
2.000000
50
221.762165
51
313.534275
0
ARC
8
0
10
61.874874
20
76.059866
30
0.0
40
0.500000
50
90.000000
51
133.534275
0
LINE
8
0
10
61.874874
20
76.559866
30
0.0
11
62.563670
21
76.559866
31
0.0
0
ARC
8
0
10
62.563670
20
76.259866
30
0.0
40
0.300000
50
329.502378
51
90.000000
0
LINE
8
0
10
62.822165
20
76.107615
30
0.0
11
61.398462
21
73.690416
31
0.0
0
LINE
8
0
10
61.355848
20
73.634352
30
0.0
11
61.398462
21
73.690416
31
0.0
0
LINE
8
0
10
61.355848
20
73.634352
30
0.0
11
60.895680
21
73.157471
31
0.0
0
ARC
8
0
10
60.790891
20
73.258588
30
0.0
40
0.145621
50
180.000000
51
316.021840
0
LINE
8
0
10
60.645567
20
73.267881
30
0.0
11
60.655496
21
73.423145
31
0.0
0
ARC
8
0
10
60.455903
20
73.435909
30
0.0
40
0.200000
50
356.341100
51
49.517123
0
LINE
8
0
10
60.585748
20
73.588029
30
0.0
11
58.981545
21
74.957318
31
0.0
0
ARC
8
0
10
58.786779
20
74.729138
30
0.0
40
0.300000
50
49.517123
51
71.341100
0
LINE
8
0
10
58.882759
20
75.013370
30
0.0
11
58.598527
21
75.109350
31
0.0
0
ARC
8
0
10
58.502547
20
74.825118
30
0.0
40
0.300000
50
71.341100
51
270.000000
0
LINE
8
0
10
58.502547
20
74.525118
30
0.0
11
58.502547
21
70.025118
31
0.0
0
ARC
8
0
10
58.702547
20
70.025118
30
0.0
40
0.200000
50
180.000000
51
270.000000
0
LINE
8
0
10
58.702547
20
69.825118
30
0.0
11
58.770436
21
69.825118
31
0.0
0
ARC
8
0
10
58.770436
20
70.125118
30
0.0
40
0.300000
50
270.000000
51
301.380132
0
LINE
8
0
10
58.926650
20
69.868998
30
0.0
11
60.602643
21
70.891231
31
0.0
0
ARC
8
0
10
60.802547
20
70.897421
30
0.0
40
0.200000
50
360.000000
51
180.000000
0
LINE
8
0
10
61.002547
20
70.897421
30
0.0
11
61.002547
21
41.346721
31
0.0
0
ARC
8
0
10
61.502547
20
41.346721
30
0.0
40
0.500000
50
180.000000
51
288.209957
0
ARC
8
0
10
62.502547
20
38.306984
30
0.0
40
2.700000
50
43.136559
51
108.209957
0
ARC
8
0
10
64.107945
20
39.811211
30
0.0
40
0.500000
50
300.000000
51
43.136559
0
LINE
8
0
10
64.357945
20
39.378198
30
0.0
11
64.089998
21
39.223499
31
0.0
0
ARC
8
0
10
63.839998
20
39.656512
30
0.0
40
0.500000
50
225.257523
51
300.000000
0
ARC
8
0
10
62.502547
20
38.306984
30
0.0
40
1.400000
50
45.257523
51
69.426879
0
LINE
8
0
10
62.994511
20
39.617698
30
0.0
11
62.994511
21
39.829473
31
0.0
0
ARC
8
0
10
62.502547
20
38.306984
30
0.0
40
1.600000
50
72.092741
51
107.907259
0
LINE
8
0
10
62.010584
20
39.829473
30
0.0
11
62.010584
21
39.617698
31
0.0
0
ARC
8
0
10
62.502547
20
38.306984
30
0.0
40
1.400000
50
110.573121
51
159.426879
0
LINE
8
0
10
61.191833
20
38.798948
30
0.0
11
60.980058
21
38.798948
31
0.0
0
ARC
8
0
10
62.502547
20
38.306984
30
0.0
40
1.600000
50
162.092741
51
197.907259
0
LINE
8
0
10
60.980058
20
37.815021
30
0.0
11
61.191833
21
37.815021
31
0.0
0
ARC
8
0
10
62.502547
20
38.306984
30
0.0
40
1.400000
50
200.573121
51
249.426879
0
LINE
8
0
10
62.010584
20
36.996270
30
0.0
11
62.010584
21
36.784495
31
0.0
0
ARC
8
0
10
62.502547
20
38.306984
30
0.0
40
1.600000
50
252.092741
51
287.907259
0
LINE
8
0
10
62.994511
20
36.784495
30
0.0
11
62.994511
21
36.996270
31
0.0
0
ARC
8
0
10
62.502547
20
38.306984
30
0.0
40
1.400000
50
290.573121
51
314.742477
0
ARC
8
0
10
63.839998
20
36.957456
30
0.0
40
0.500000
50
60.000000
51
134.742477
0
LINE
8
0
10
64.089998
20
37.390469
30
0.0
11
64.357945
21
37.235770
31
0.0
0
ARC
8
0
10
64.107945
20
36.802757
30
0.0
40
0.500000
50
316.863441
51
60.000000
0
ARC
8
0
10
62.502547
20
38.306984
30
0.0
40
2.700000
50
313.573960
51
316.863441
0
ARC
8
0
10
64.708276
20
35.988631
30
0.0
40
0.500000
50
133.573960
51
238.619868
0
LINE
8
0
10
64.447920
20
35.561766
30
0.0
11
64.523261
21
35.515813
31
0.0
0
ARC
8
0
10
64.002547
20
34.662082
30
0.0
40
1.000000
50
360.000000
51
58.619868
0
LINE
8
0
10
65.002547
20
34.662082
30
0.0
11
65.002547
21
33.352814
31
0.0
0
ARC
8
0
10
64.802547
20
33.352814
30
0.0
40
0.200000
50
180.000000
51
360.000000
0
LINE
8
0
10
64.602643
20
33.359004
30
0.0
11
62.926650
21
34.381237
31
0.0
0
ARC
8
0
10
62.770436
20
34.125118
30
0.0
40
0.300000
50
58.619868
51
90.000000
0
LINE
8
0
10
62.770436
20
34.425118
30
0.0
11
62.702547
21
34.425118
31
0.0
0
ARC
8
0
10
62.702547
20
34.225118
30
0.0
40
0.200000
50
90.000000
51
180.000000
0
LINE
8
0
10
62.502547
20
34.225118
30
0.0
11
62.502547
21
29.725118
31
0.0
0
ARC
8
0
10
62.502547
20
29.425118
30
0.0
40
0.300000
50
90.000000
51
288.658900
0
LINE
8
0
10
62.598527
20
29.140886
30
0.0
11
62.882759
21
29.236866
31
0.0
0
ARC
8
0
10
62.786779
20
29.521098
30
0.0
40
0.300000
50
288.658900
51
310.482877
0
LINE
8
0
10
62.981545
20
29.292918
30
0.0
11
64.585748
21
30.662207
31
0.0
0
ARC
8
0
10
64.455903
20
30.814327
30
0.0
40
0.200000
50
310.482877
51
3.658900
0
LINE
8
0
10
64.655496
20
30.827090
30
0.0
11
64.645567
21
30.982355
31
0.0
0
ARC
8
0
10
64.790891
20
30.991648
30
0.0
40
0.145621
50
58.749887
51
180.000000
0
ATTDEF
8
0
10
0.000000
20
0.000000
30
0.0
40
3.5
1

3

2
PANE_WIDTH:0
70
0
0
ATTDEF
8
0
10
0.000000
20
0.000000
30
0.0
40
3.5
1

3

2
MIN_VETRO:0
70
0
0
ATTDEF
8
0
10
0.000000
20
0.000000
30
0.0
40
3.5
1

3

2
MAX_VETRO:0
70
0
0
ATTDEF
8
0
10
0.000000
20
0.000000
30
0.0
40
3.5
1

3

2
JX:0
70
0
0
ATTDEF
8
0
10
0.000000
20
0.000000
30
0.0
40
3.5
1

3

2
WX:0
70
0
0
ATTDEF
8
0
10
0.000000
20
0.000000
30
0.0
40
3.5
1

3

2
JY:0
70
0
0
ATTDEF
8
0
10
0.000000
20
0.000000
30
0.0
40
3.5
1

3

2
WY:0
70
0
0
ATTDEF
8
0
10
0.000000
20
0.000000
30
0.0
40
3.5
1

3

2
DESC:Hoja lateral balconera
70
0
0
ATTDEF
8
0
10
0.000000
20
0.000000
30
0.0
40
3.5
1

3

2
DENS:2.1028
70
0
0
ATTDEF
8
0
10
0.000000
20
0.000000
30
0.0
40
3.5
1

3

2
TDEV:73.66
70
0
0
ATTDEF
8
0
10
0.000000
20
0.000000
30
0.0
40
3.5
1

3

2
TDEV2:0
70
0
0
ATTDEF
8
0
10
0.000000
20
0.000000
30
0.0
40
3.5
1

3

2
TDEV3:0
70
0
0
ATTDEF
8
0
10
0.000000
20
0.000000
30
0.0
40
3.5
1

3

2
TDEV4:0
70
0
0
ATTDEF
8
0
10
0.000000
20
0.000000
30
0.0
40
3.5
1

3

2
TDEV5:0
70
0
0
ATTDEF
8
0
10
0.000000
20
0.000000
30
0.0
40
3.5
1

3

2
PANE_WIDTH:0
70
0
0
ATTDEF
8
0
10
0.000000
20
0.000000
30
0.0
40
3.5
1

3

2
MIN_VETRO:0
70
0
0
ATTDEF
8
0
10
0.000000
20
0.000000
30
0.0
40
3.5
1

3

2
MAX_VETRO:0
70
0
0
ATTDEF
8
0
10
0.000000
20
0.000000
30
0.0
40
3.5
1

3

2
JX:0
70
0
0
ATTDEF
8
0
10
0.000000
20
0.000000
30
0.0
40
3.5
1

3

2
WX:0
70
0
0
ATTDEF
8
0
10
0.000000
20
0.000000
30
0.0
40
3.5
1

3

2
JY:0
70
0
0
ATTDEF
8
0
10
0.000000
20
0.000000
30
0.0
40
3.5
1

3

2
WY:0
70
0
0
ATTDEF
8
0
10
56.707217
20
76.606984
30
0.0
40
3.5
1

3

2
VC_START
70
0
0
ATTDEF
8
0
10
54.302547
20
20.806984
30
0.0
40
3.5
1

3

2
VC_END
70
0
0
ATTDEF
8
0
10
27.302547
20
20.806984
30
0.0
40
3.5
1

3

2
FP_LCS_ORIG
70
0
0
ATTDEF
8
0
10
37.302547
20
20.806984
30
0.0
40
3.5
1

3

2
FP_LCS_HOT
70
0
0
ATTDEF
8
0
10
27.302547
20
30.806984
30
0.0
40
3.5
1

3

2
FP_LCS_INTERN
70
0
0
ENDSEC
0
EOF
