0
SECTION
2
ENTITIES
0
ARC
8
00_ALUMINIO
10
214.907383
20
20.343215
30
0.0
40
2.100000
50
270.000000
51
346.450441
0
ARC
8
00_ALUMINIO
10
217.240586
20
19.780928
30
0.0
40
0.300000
50
87.000000
51
166.450441
0
LINE
8
00_ALUMINIO
10
217.256286
20
20.080517
30
0.0
11
226.643519
21
19.588552
31
0.0
0
ARC
8
00_ALUMINIO
10
226.627819
20
19.288964
30
0.0
40
0.300000
50
0.000000
51
87.000000
0
LINE
8
00_ALUMINIO
10
226.927819
20
19.288964
30
0.0
11
226.927819
21
15.444025
31
0.0
0
ARC
8
00_ALUMINIO
10
226.627819
20
15.444025
30
0.0
40
0.300000
50
270.000000
51
0.000000
0
LINE
8
00_ALUMINIO
10
226.627819
20
15.144025
30
0.0
11
219.474886
21
15.144025
31
0.0
0
ARC
8
00_ALUMINIO
10
219.474886
20
13.144025
30
0.0
40
2.000000
50
90.000000
51
180.000000
0
LINE
8
00_ALUMINIO
10
217.474886
20
13.144025
30
0.0
11
217.474886
21
10.991996
31
0.0
0
ARC
8
00_ALUMINIO
10
217.174886
20
10.991996
30
0.0
40
0.300000
50
270.000000
51
0.000000
0
LINE
8
00_ALUMINIO
10
217.174886
20
10.691996
30
0.0
11
216.227815
21
10.691996
31
0.0
0
ARC
8
00_ALUMINIO
10
216.227815
20
10.191996
30
0.0
40
0.500000
50
90.000000
51
180.000000
0
LINE
8
00_ALUMINIO
10
215.727815
20
10.191996
30
0.0
11
215.727815
21
8.591996
31
0.0
0
ARC
8
00_ALUMINIO
10
215.227815
20
8.591996
30
0.0
40
0.500000
50
270.000000
51
0.000000
0
LINE
8
00_ALUMINIO
10
215.227815
20
8.091996
30
0.0
11
200.927815
21
8.091996
31
0.0
0
ARC
8
00_ALUMINIO
10
200.927815
20
8.591996
30
0.0
40
0.500000
50
180.000000
51
270.000000
0
LINE
8
00_ALUMINIO
10
200.427815
20
8.591996
30
0.0
11
200.427815
21
21.591996
31
0.0
0
ARC
8
00_ALUMINIO
10
200.727815
20
21.591996
30
0.0
40
0.300000
50
90.000000
51
180.000000
0
LINE
8
00_ALUMINIO
10
200.727815
20
21.891996
30
0.0
11
206.007383
21
21.891996
31
0.0
0
ARC
8
00_ALUMINIO
10
206.007383
20
21.591996
30
0.0
40
0.300000
50
0.000000
51
90.000000
0
LINE
8
00_ALUMINIO
10
206.307383
20
21.591996
30
0.0
11
206.307383
21
20.343215
31
0.0
0
ARC
8
00_ALUMINIO
10
208.407383
20
20.343215
30
0.0
40
2.100000
50
180.000000
51
270.000000
0
LINE
8
00_ALUMINIO
10
208.407383
20
18.243215
30
0.0
11
214.907383
21
18.243215
31
0.0
0
ARC
8
00_ALUMINIO
10
228.027819
20
9.591996
30
0.0
40
0.500000
50
270.000000
51
0.000000
0
LINE
8
00_ALUMINIO
10
228.027819
20
9.091996
30
0.0
11
225.224883
21
9.091996
31
0.0
0
ARC
8
00_ALUMINIO
10
225.224883
20
9.391996
30
0.0
40
0.300000
50
180.000000
51
270.000000
0
LINE
8
00_ALUMINIO
10
224.924883
20
9.391996
30
0.0
11
224.924883
21
10.294025
31
0.0
0
ARC
8
00_ALUMINIO
10
225.224883
20
10.294025
30
0.0
40
0.300000
50
90.000000
51
180.000000
0
LINE
8
00_ALUMINIO
10
225.224883
20
10.594025
30
0.0
11
226.627819
21
10.594025
31
0.0
0
ARC
8
00_ALUMINIO
10
226.627819
20
10.894025
30
0.0
40
0.300000
50
270.000000
51
0.000000
0
LINE
8
00_ALUMINIO
10
226.927819
20
10.894025
30
0.0
11
226.927819
21
13.044025
31
0.0
0
ARC
8
00_ALUMINIO
10
226.627819
20
13.044025
30
0.0
40
0.300000
50
0.000000
51
90.000000
0
LINE
8
00_ALUMINIO
10
226.627819
20
13.344025
30
0.0
11
223.649884
21
13.344025
31
0.0
0
LINE
8
00_ALUMINIO
10
223.649884
20
13.344025
30
0.0
11
223.349884
21
13.644025
31
0.0
0
LINE
8
00_ALUMINIO
10
223.349884
20
13.644025
30
0.0
11
222.549884
21
13.644025
31
0.0
0
LINE
8
00_ALUMINIO
10
222.549884
20
13.644025
30
0.0
11
222.249884
21
13.344025
31
0.0
0
LINE
8
00_ALUMINIO
10
222.249884
20
13.344025
30
0.0
11
219.374886
21
13.344025
31
0.0
0
ARC
8
00_ALUMINIO
10
219.374886
20
13.044025
30
0.0
40
0.300000
50
90.000000
51
180.000000
0
LINE
8
00_ALUMINIO
10
219.074886
20
13.044025
30
0.0
11
219.074886
21
10.894025
31
0.0
0
ARC
8
00_ALUMINIO
10
219.374886
20
10.894025
30
0.0
40
0.300000
50
180.000000
51
270.000000
0
LINE
8
00_ALUMINIO
10
219.374886
20
10.594025
30
0.0
11
220.674885
21
10.594025
31
0.0
0
ARC
8
00_ALUMINIO
10
220.674885
20
10.294025
30
0.0
40
0.300000
50
0.000000
51
90.000000
0
LINE
8
00_ALUMINIO
10
220.974885
20
10.294025
30
0.0
11
220.974885
21
9.391996
31
0.0
0
ARC
8
00_ALUMINIO
10
220.674885
20
9.391996
30
0.0
40
0.300000
50
270.000000
51
0.000000
0
LINE
8
00_ALUMINIO
10
220.674885
20
9.091996
30
0.0
11
218.327815
21
9.091996
31
0.0
0
ARC
8
00_ALUMINIO
10
218.327815
20
8.591996
30
0.0
40
0.500000
50
90.000000
51
180.000000
0
LINE
8
00_ALUMINIO
10
217.827815
20
8.591996
30
0.0
11
217.827815
21
6.391995
31
0.0
0
LINE
8
00_ALUMINIO
10
217.827815
20
6.391995
30
0.0
11
216.643674
21
5.207854
31
0.0
0
ARC
8
00_ALUMINIO
10
216.547430
20
5.491997
30
0.0
40
0.300000
50
210.000000
51
288.712203
0
LINE
8
00_ALUMINIO
10
216.287622
20
5.341997
30
0.0
11
216.201020
21
5.491997
31
0.0
0
ARC
8
00_ALUMINIO
10
216.027815
20
5.391997
30
0.0
40
0.200000
50
30.000000
51
150.000000
0
LINE
8
00_ALUMINIO
10
215.854610
20
5.491997
30
0.0
11
215.768007
21
5.341997
31
0.0
0
ARC
8
00_ALUMINIO
10
215.508200
20
5.491997
30
0.0
40
0.300000
50
270.000000
51
330.000000
0
LINE
8
00_ALUMINIO
10
215.508200
20
5.191997
30
0.0
11
214.747430
21
5.191997
31
0.0
0
ARC
8
00_ALUMINIO
10
214.747430
20
5.491997
30
0.0
40
0.300000
50
210.000000
51
270.000000
0
LINE
8
00_ALUMINIO
10
214.487622
20
5.341997
30
0.0
11
214.401020
21
5.491997
31
0.0
0
ARC
8
00_ALUMINIO
10
214.227815
20
5.391997
30
0.0
40
0.200000
50
30.000000
51
150.000000
0
LINE
8
00_ALUMINIO
10
214.054610
20
5.491997
30
0.0
11
213.968007
21
5.341997
31
0.0
0
ARC
8
00_ALUMINIO
10
213.708200
20
5.491997
30
0.0
40
0.300000
50
270.000000
51
330.000000
0
LINE
8
00_ALUMINIO
10
213.708200
20
5.191997
30
0.0
11
212.947430
21
5.191997
31
0.0
0
ARC
8
00_ALUMINIO
10
212.947430
20
5.491997
30
0.0
40
0.300000
50
210.000000
51
270.000000
0
LINE
8
00_ALUMINIO
10
212.687622
20
5.341997
30
0.0
11
212.601020
21
5.491997
31
0.0
0
ARC
8
00_ALUMINIO
10
212.427815
20
5.391997
30
0.0
40
0.200000
50
30.000000
51
150.000000
0
LINE
8
00_ALUMINIO
10
212.254610
20
5.491997
30
0.0
11
212.168007
21
5.341997
31
0.0
0
ARC
8
00_ALUMINIO
10
211.908200
20
5.491997
30
0.0
40
0.300000
50
270.000000
51
330.000000
0
LINE
8
00_ALUMINIO
10
211.908200
20
5.191997
30
0.0
11
211.147430
21
5.191997
31
0.0
0
ARC
8
00_ALUMINIO
10
211.147430
20
5.491997
30
0.0
40
0.300000
50
210.000000
51
270.000000
0
LINE
8
00_ALUMINIO
10
210.887622
20
5.341997
30
0.0
11
210.801020
21
5.491997
31
0.0
0
ARC
8
00_ALUMINIO
10
210.627815
20
5.391997
30
0.0
40
0.200000
50
30.000000
51
150.000000
0
LINE
8
00_ALUMINIO
10
210.454610
20
5.491997
30
0.0
11
210.368007
21
5.341997
31
0.0
0
ARC
8
00_ALUMINIO
10
210.108200
20
5.491997
30
0.0
40
0.300000
50
270.000000
51
330.000000
0
LINE
8
00_ALUMINIO
10
210.108200
20
5.191997
30
0.0
11
209.347430
21
5.191997
31
0.0
0
ARC
8
00_ALUMINIO
10
209.347430
20
5.491997
30
0.0
40
0.300000
50
210.000000
51
270.000000
0
LINE
8
00_ALUMINIO
10
209.087622
20
5.341997
30
0.0
11
209.001020
21
5.491997
31
0.0
0
ARC
8
00_ALUMINIO
10
208.827815
20
5.391997
30
0.0
40
0.200000
50
30.000000
51
150.000000
0
LINE
8
00_ALUMINIO
10
208.654610
20
5.491997
30
0.0
11
208.568007
21
5.341997
31
0.0
0
ARC
8
00_ALUMINIO
10
208.308200
20
5.491997
30
0.0
40
0.300000
50
270.000000
51
330.000000
0
LINE
8
00_ALUMINIO
10
208.308200
20
5.191997
30
0.0
11
207.547430
21
5.191997
31
0.0
0
ARC
8
00_ALUMINIO
10
207.547430
20
5.491997
30
0.0
40
0.300000
50
210.000000
51
270.000000
0
LINE
8
00_ALUMINIO
10
207.287622
20
5.341997
30
0.0
11
207.201020
21
5.491997
31
0.0
0
ARC
8
00_ALUMINIO
10
207.027815
20
5.391997
30
0.0
40
0.200000
50
30.000000
51
150.000000
0
LINE
8
00_ALUMINIO
10
206.854610
20
5.491997
30
0.0
11
206.768007
21
5.341997
31
0.0
0
ARC
8
00_ALUMINIO
10
206.508200
20
5.491997
30
0.0
40
0.300000
50
270.000000
51
330.000000
0
LINE
8
00_ALUMINIO
10
206.508200
20
5.191997
30
0.0
11
204.827815
21
5.191996
31
0.0
0
ARC
8
00_ALUMINIO
10
204.827815
20
3.691996
30
0.0
40
1.500000
50
90.000000
51
180.000000
0
LINE
8
00_ALUMINIO
10
203.327815
20
3.691996
30
0.0
11
203.327815
21
3.391996
31
0.0
0
LINE
8
00_ALUMINIO
10
203.327815
20
3.391996
30
0.0
11
203.027815
21
3.091996
31
0.0
0
LINE
8
00_ALUMINIO
10
203.027815
20
3.091996
30
0.0
11
203.327815
21
2.791996
31
0.0
0
LINE
8
00_ALUMINIO
10
203.327815
20
2.791996
30
0.0
11
203.327815
21
2.491996
31
0.0
0
ARC
8
00_ALUMINIO
10
204.827815
20
2.491996
30
0.0
40
1.500000
50
180.000000
51
270.000000
0
LINE
8
00_ALUMINIO
10
204.827815
20
0.991996
30
0.0
11
205.609446
21
0.991996
31
0.0
0
ARC
8
00_ALUMINIO
10
205.608058
20
0.691756
30
0.0
40
0.300243
50
30.026110
51
89.735160
0
LINE
8
00_ALUMINIO
10
205.868007
20
0.841996
30
0.0
11
205.954610
21
0.691997
31
0.0
0
ARC
8
00_ALUMINIO
10
206.127815
20
0.791997
30
0.0
40
0.200000
50
210.000000
51
330.000000
0
LINE
8
00_ALUMINIO
10
206.301020
20
0.691997
30
0.0
11
206.387622
21
0.841996
31
0.0
0
ARC
8
00_ALUMINIO
10
206.647430
20
0.691996
30
0.0
40
0.300000
50
90.000000
51
150.000000
0
LINE
8
00_ALUMINIO
10
206.647430
20
0.991996
30
0.0
11
207.408200
21
0.991996
31
0.0
0
ARC
8
00_ALUMINIO
10
207.408200
20
0.691996
30
0.0
40
0.300000
50
30.000000
51
90.000000
0
LINE
8
00_ALUMINIO
10
207.668007
20
0.841996
30
0.0
11
207.754610
21
0.691996
31
0.0
0
ARC
8
00_ALUMINIO
10
207.927815
20
0.791996
30
0.0
40
0.200000
50
210.000000
51
330.000000
0
LINE
8
00_ALUMINIO
10
208.101020
20
0.691996
30
0.0
11
208.187622
21
0.841996
31
0.0
0
ARC
8
00_ALUMINIO
10
208.447430
20
0.691996
30
0.0
40
0.300000
50
90.000000
51
150.000000
0
LINE
8
00_ALUMINIO
10
208.447430
20
0.991996
30
0.0
11
209.208200
21
0.991996
31
0.0
0
ARC
8
00_ALUMINIO
10
209.208200
20
0.691996
30
0.0
40
0.300000
50
30.000000
51
90.000000
0
LINE
8
00_ALUMINIO
10
209.468007
20
0.841996
30
0.0
11
209.554610
21
0.691996
31
0.0
0
ARC
8
00_ALUMINIO
10
209.727815
20
0.791996
30
0.0
40
0.200000
50
210.000000
51
330.000000
0
LINE
8
00_ALUMINIO
10
209.901020
20
0.691996
30
0.0
11
209.987622
21
0.841996
31
0.0
0
ARC
8
00_ALUMINIO
10
210.247430
20
0.691996
30
0.0
40
0.300000
50
90.000000
51
150.000000
0
LINE
8
00_ALUMINIO
10
210.247430
20
0.991996
30
0.0
11
211.008200
21
0.991996
31
0.0
0
ARC
8
00_ALUMINIO
10
211.008200
20
0.691996
30
0.0
40
0.300000
50
30.000000
51
90.000000
0
LINE
8
00_ALUMINIO
10
211.268007
20
0.841996
30
0.0
11
211.354610
21
0.691996
31
0.0
0
ARC
8
00_ALUMINIO
10
211.527815
20
0.791996
30
0.0
40
0.200000
50
210.000000
51
330.000000
0
LINE
8
00_ALUMINIO
10
211.701020
20
0.691996
30
0.0
11
211.787622
21
0.841996
31
0.0
0
ARC
8
00_ALUMINIO
10
212.047430
20
0.691996
30
0.0
40
0.300000
50
90.000000
51
150.000000
0
LINE
8
00_ALUMINIO
10
212.047430
20
0.991996
30
0.0
11
212.808200
21
0.991996
31
0.0
0
ARC
8
00_ALUMINIO
10
212.808200
20
0.691996
30
0.0
40
0.300000
50
30.000000
51
90.000000
0
LINE
8
00_ALUMINIO
10
213.068007
20
0.841996
30
0.0
11
213.154610
21
0.691996
31
0.0
0
ARC
8
00_ALUMINIO
10
213.327815
20
0.791996
30
0.0
40
0.200000
50
210.000000
51
330.000000
0
LINE
8
00_ALUMINIO
10
213.501020
20
0.691996
30
0.0
11
213.587622
21
0.841996
31
0.0
0
ARC
8
00_ALUMINIO
10
213.847430
20
0.691996
30
0.0
40
0.300000
50
90.000000
51
150.000000
0
LINE
8
00_ALUMINIO
10
213.847430
20
0.991996
30
0.0
11
214.608200
21
0.991996
31
0.0
0
ARC
8
00_ALUMINIO
10
214.608200
20
0.691996
30
0.0
40
0.300000
50
30.000000
51
90.000000
0
LINE
8
00_ALUMINIO
10
214.868007
20
0.841996
30
0.0
11
214.954610
21
0.691996
31
0.0
0
ARC
8
00_ALUMINIO
10
215.127815
20
0.791996
30
0.0
40
0.200000
50
210.000000
51
330.000000
0
LINE
8
00_ALUMINIO
10
215.301020
20
0.691996
30
0.0
11
215.387622
21
0.841996
31
0.0
0
ARC
8
00_ALUMINIO
10
215.647430
20
0.691996
30
0.0
40
0.300000
50
90.000000
51
150.000000
0
LINE
8
00_ALUMINIO
10
215.647430
20
0.991996
30
0.0
11
216.627816
21
0.991996
31
0.0
0
LINE
8
00_ALUMINIO
10
216.627816
20
0.991996
30
0.0
11
217.827815
21
-0.208003
31
0.0
0
LINE
8
00_ALUMINIO
10
217.827815
20
-0.208003
30
0.0
11
217.827815
21
-1.908004
31
0.0
0
LINE
8
00_ALUMINIO
10
217.827815
20
-1.908004
30
0.0
11
208.827815
21
-1.908004
31
0.0
0
ARC
8
00_ALUMINIO
10
208.827815
20
-2.908004
30
0.0
40
1.000000
50
90.000000
51
180.000000
0
LINE
8
00_ALUMINIO
10
207.827815
20
-2.908004
30
0.0
11
207.827815
21
-4.908004
31
0.0
0
ARC
8
00_ALUMINIO
10
208.827815
20
-4.908004
30
0.0
40
1.000000
50
180.000000
51
270.000000
0
LINE
8
00_ALUMINIO
10
208.827815
20
-5.908004
30
0.0
11
209.327815
21
-5.908004
31
0.0
0
ARC
8
00_ALUMINIO
10
209.327815
20
-6.408004
30
0.0
40
0.500000
50
0.000000
51
90.000000
0
LINE
8
00_ALUMINIO
10
209.827815
20
-6.408004
30
0.0
11
209.827815
21
-10.408004
31
0.0
0
LINE
8
00_ALUMINIO
10
209.827815
20
-10.408004
30
0.0
11
209.327815
21
-10.908004
31
0.0
0
LINE
8
00_ALUMINIO
10
209.327815
20
-10.908004
30
0.0
11
209.827815
21
-11.408004
31
0.0
0
LINE
8
00_ALUMINIO
10
209.827815
20
-11.408004
30
0.0
11
209.827815
21
-15.408004
31
0.0
0
ARC
8
00_ALUMINIO
10
209.327815
20
-15.408004
30
0.0
40
0.500000
50
270.000000
51
0.000000
0
LINE
8
00_ALUMINIO
10
209.327815
20
-15.908004
30
0.0
11
206.327815
21
-15.908004
31
0.0
0
ARC
8
00_ALUMINIO
10
206.327815
20
-15.408004
30
0.0
40
0.500000
50
180.000000
51
270.000000
0
LINE
8
00_ALUMINIO
10
205.827815
20
-15.408004
30
0.0
11
205.827815
21
-5.208004
31
0.0
0
ARC
8
00_ALUMINIO
10
205.527815
20
-5.208004
30
0.0
40
0.300000
50
0.000000
51
90.000000
0
LINE
8
00_ALUMINIO
10
205.527815
20
-4.908004
30
0.0
11
204.527815
21
-4.908004
31
0.0
0
ARC
8
00_ALUMINIO
10
204.527815
20
-4.408004
30
0.0
40
0.500000
50
180.000000
51
270.000000
0
LINE
8
00_ALUMINIO
10
204.027815
20
-4.408004
30
0.0
11
204.027815
21
-3.908004
31
0.0
0
ARC
8
00_ALUMINIO
10
204.527815
20
-3.908004
30
0.0
40
0.500000
50
90.000000
51
180.000000
0
LINE
8
00_ALUMINIO
10
204.527815
20
-3.408004
30
0.0
11
205.127815
21
-3.408004
31
0.0
0
ARC
8
00_ALUMINIO
10
205.127815
20
-2.908004
30
0.0
40
0.500000
50
270.000000
51
0.000000
0
LINE
8
00_ALUMINIO
10
205.627815
20
-2.908004
30
0.0
11
205.627815
21
-2.408004
31
0.0
0
ARC
8
00_ALUMINIO
10
205.127815
20
-2.408004
30
0.0
40
0.500000
50
0.000000
51
90.000000
0
LINE
8
00_ALUMINIO
10
205.127815
20
-1.908004
30
0.0
11
198.827815
21
-1.908004
31
0.0
0
ARC
8
00_ALUMINIO
10
198.827815
20
-1.408004
30
0.0
40
0.500000
50
180.000000
51
270.000000
0
LINE
8
00_ALUMINIO
10
198.327815
20
-1.408004
30
0.0
11
198.327815
21
-0.408004
31
0.0
0
ARC
8
00_ALUMINIO
10
198.827815
20
-0.408004
30
0.0
40
0.500000
50
90.000000
51
180.000000
0
LINE
8
00_ALUMINIO
10
198.827815
20
0.091996
30
0.0
11
200.027815
21
0.091996
31
0.0
0
ARC
8
00_ALUMINIO
10
200.027815
20
0.591996
30
0.0
40
0.500000
50
270.000000
51
0.000000
0
LINE
8
00_ALUMINIO
10
200.527815
20
0.591996
30
0.0
11
200.527815
21
5.591996
31
0.0
0
ARC
8
00_ALUMINIO
10
200.027815
20
5.591996
30
0.0
40
0.500000
50
0.000000
51
90.000000
0
LINE
8
00_ALUMINIO
10
200.027815
20
6.091996
30
0.0
11
198.827815
21
6.091996
31
0.0
0
ARC
8
00_ALUMINIO
10
198.827815
20
6.591996
30
0.0
40
0.500000
50
180.000000
51
270.000000
0
LINE
8
00_ALUMINIO
10
198.327815
20
6.591996
30
0.0
11
198.327815
21
19.491996
31
0.0
0
ARC
8
00_ALUMINIO
10
197.327815
20
19.491996
30
0.0
40
1.000000
50
0.000000
51
90.000000
0
LINE
8
00_ALUMINIO
10
197.327815
20
20.491996
30
0.0
11
194.480747
21
20.491996
31
0.0
0
ARC
8
00_ALUMINIO
10
194.480747
20
19.491996
30
0.0
40
1.000000
50
90.000000
51
180.000000
0
LINE
8
00_ALUMINIO
10
193.480747
20
19.491996
30
0.0
11
193.480747
21
17.835749
31
0.0
0
ARC
8
00_ALUMINIO
10
192.480747
20
17.835749
30
0.0
40
1.000000
50
270.000000
51
0.000000
0
LINE
8
00_ALUMINIO
10
192.480747
20
16.835749
30
0.0
11
189.777811
21
16.835749
31
0.0
0
ARC
8
00_ALUMINIO
10
189.777811
20
17.135749
30
0.0
40
0.300000
50
180.000000
51
270.000000
0
LINE
8
00_ALUMINIO
10
189.477811
20
17.135749
30
0.0
11
189.477811
21
18.041996
31
0.0
0
ARC
8
00_ALUMINIO
10
189.777811
20
18.041996
30
0.0
40
0.300000
50
90.000000
51
180.000000
0
LINE
8
00_ALUMINIO
10
189.777811
20
18.341996
30
0.0
11
191.180747
21
18.341996
31
0.0
0
ARC
8
00_ALUMINIO
10
191.180747
20
18.641996
30
0.0
40
0.300000
50
270.000000
51
0.000000
0
LINE
8
00_ALUMINIO
10
191.480747
20
18.641996
30
0.0
11
191.480747
21
20.791996
31
0.0
0
ARC
8
00_ALUMINIO
10
191.180747
20
20.791996
30
0.0
40
0.300000
50
0.000000
51
90.000000
0
LINE
8
00_ALUMINIO
10
191.180747
20
21.091996
30
0.0
11
188.202813
21
21.091996
31
0.0
0
LINE
8
00_ALUMINIO
10
188.202813
20
21.091996
30
0.0
11
187.902813
21
21.391996
31
0.0
0
LINE
8
00_ALUMINIO
10
187.902813
20
21.391996
30
0.0
11
187.102813
21
21.391996
31
0.0
0
LINE
8
00_ALUMINIO
10
187.102813
20
21.391996
30
0.0
11
186.802813
21
21.091996
31
0.0
0
LINE
8
00_ALUMINIO
10
186.802813
20
21.091996
30
0.0
11
183.927815
21
21.091996
31
0.0
0
ARC
8
00_ALUMINIO
10
183.927815
20
20.791996
30
0.0
40
0.300000
50
90.000000
51
180.000000
0
LINE
8
00_ALUMINIO
10
183.627815
20
20.791996
30
0.0
11
183.627815
21
18.641996
31
0.0
0
ARC
8
00_ALUMINIO
10
183.927815
20
18.641996
30
0.0
40
0.300000
50
180.000000
51
270.000000
0
LINE
8
00_ALUMINIO
10
183.927815
20
18.341996
30
0.0
11
185.227814
21
18.341996
31
0.0
0
ARC
8
00_ALUMINIO
10
185.227814
20
18.041996
30
0.0
40
0.300000
50
0.000000
51
90.000000
0
LINE
8
00_ALUMINIO
10
185.527814
20
18.041996
30
0.0
11
185.527814
21
17.139968
31
0.0
0
ARC
8
00_ALUMINIO
10
185.227814
20
17.139968
30
0.0
40
0.300000
50
270.000000
51
0.000000
0
LINE
8
00_ALUMINIO
10
185.227814
20
16.839968
30
0.0
11
182.827815
21
16.839968
31
0.0
0
LINE
8
00_ALUMINIO
10
182.827815
20
16.839968
30
0.0
11
182.827815
21
16.391996
31
0.0
0
ARC
8
00_ALUMINIO
10
182.527815
20
16.391996
30
0.0
40
0.300000
50
270.000000
51
0.000000
0
LINE
8
00_ALUMINIO
10
182.527815
20
16.091996
30
0.0
11
178.227815
21
16.091996
31
0.0
0
ARC
8
00_ALUMINIO
10
178.227815
20
16.391996
30
0.0
40
0.300000
50
180.000000
51
270.000000
0
LINE
8
00_ALUMINIO
10
177.927815
20
16.391996
30
0.0
11
164.627815
21
16.391996
31
0.0
0
ARC
8
00_ALUMINIO
10
164.327815
20
16.391996
30
0.0
40
0.300000
50
270.000000
51
0.000000
0
LINE
8
00_ALUMINIO
10
164.327815
20
16.091996
30
0.0
11
162.127815
21
16.091996
31
0.0
0
ARC
8
00_ALUMINIO
10
162.127815
20
16.591996
30
0.0
40
0.500000
50
180.000000
51
270.000000
0
LINE
8
00_ALUMINIO
10
161.627815
20
16.591996
30
0.0
11
161.627815
21
23.091996
31
0.0
0
ARC
8
00_ALUMINIO
10
162.127815
20
23.091996
30
0.0
40
0.500000
50
90.000000
51
180.000000
0
LINE
8
00_ALUMINIO
10
162.127815
20
23.591996
30
0.0
11
164.503551
21
23.591996
31
0.0
0
ARC
8
00_ALUMINIO
10
164.503551
20
23.291996
30
0.0
40
0.300000
50
45.000000
51
90.000000
0
LINE
8
00_ALUMINIO
10
164.715683
20
23.504128
30
0.0
11
165.539947
21
22.679864
31
0.0
0
ARC
8
00_ALUMINIO
10
165.327815
20
22.467732
30
0.0
40
0.300000
50
0.000000
51
45.000000
0
LINE
8
00_ALUMINIO
10
165.627815
20
22.467732
30
0.0
11
165.627815
21
21.891996
31
0.0
0
ARC
8
00_ALUMINIO
10
165.327815
20
21.891996
30
0.0
40
0.300000
50
270.000000
51
0.000000
0
LINE
8
00_ALUMINIO
10
165.327815
20
21.591996
30
0.0
11
163.927815
21
21.591996
31
0.0
0
ARC
8
00_ALUMINIO
10
163.927815
20
21.291996
30
0.0
40
0.300000
50
90.000000
51
180.000000
0
LINE
8
00_ALUMINIO
10
163.627815
20
21.291996
30
0.0
11
163.627815
21
18.891996
31
0.0
0
ARC
8
00_ALUMINIO
10
163.927815
20
18.891996
30
0.0
40
0.300000
50
180.000000
51
270.000000
0
LINE
8
00_ALUMINIO
10
163.927815
20
18.591996
30
0.0
11
181.327815
21
18.591996
31
0.0
0
ARC
8
00_ALUMINIO
10
181.327815
20
18.891996
30
0.0
40
0.300000
50
270.000000
51
0.000000
0
LINE
8
00_ALUMINIO
10
181.627815
20
18.891996
30
0.0
11
181.627815
21
21.291996
31
0.0
0
ARC
8
00_ALUMINIO
10
181.327815
20
21.291996
30
0.0
40
0.300000
50
0.000000
51
90.000000
0
LINE
8
00_ALUMINIO
10
181.327815
20
21.591996
30
0.0
11
179.927815
21
21.591996
31
0.0
0
ARC
8
00_ALUMINIO
10
179.927815
20
21.891996
30
0.0
40
0.300000
50
180.000000
51
270.000000
0
LINE
8
00_ALUMINIO
10
179.627815
20
21.891996
30
0.0
11
179.627815
21
22.467732
31
0.0
0
ARC
8
00_ALUMINIO
10
179.927815
20
22.467732
30
0.0
40
0.300000
50
135.000000
51
180.000000
0
LINE
8
00_ALUMINIO
10
179.715683
20
22.679864
30
0.0
11
180.539947
21
23.504128
31
0.0
0
ARC
8
00_ALUMINIO
10
180.752079
20
23.291996
30
0.0
40
0.300000
50
90.000000
51
135.000000
0
LINE
8
00_ALUMINIO
10
180.752079
20
23.591996
30
0.0
11
183.652079
21
23.591996
31
0.0
0
ARC
8
00_ALUMINIO
10
183.652079
20
23.491996
30
0.0
40
0.100000
50
0.000000
51
90.000000
0
LINE
8
00_ALUMINIO
10
183.752079
20
23.491996
30
0.0
11
206.107383
21
23.491996
31
0.0
0
ARC
8
00_ALUMINIO
10
206.107383
20
23.791996
30
0.0
40
0.300000
50
270.000000
51
0.000000
0
LINE
8
00_ALUMINIO
10
206.407383
20
23.791996
30
0.0
11
206.407383
21
24.543215
31
0.0
0
ARC
8
00_ALUMINIO
10
206.907383
20
24.543215
30
0.0
40
0.500000
50
90.000000
51
180.000000
0
LINE
8
00_ALUMINIO
10
206.907383
20
25.043215
30
0.0
11
209.207383
21
25.043215
31
0.0
0
ARC
8
00_ALUMINIO
10
209.207383
20
24.843215
30
0.0
40
0.200000
50
0.000000
51
90.000000
0
LINE
8
00_ALUMINIO
10
209.407383
20
24.843215
30
0.0
11
209.407383
21
23.743215
31
0.0
0
ARC
8
00_ALUMINIO
10
209.207383
20
23.743215
30
0.0
40
0.200000
50
270.000000
51
0.000000
0
LINE
8
00_ALUMINIO
10
209.207383
20
23.543215
30
0.0
11
208.107383
21
23.543215
31
0.0
0
ARC
8
00_ALUMINIO
10
208.107383
20
23.343215
30
0.0
40
0.200000
50
90.000000
51
180.000000
0
LINE
8
00_ALUMINIO
10
207.907383
20
23.343215
30
0.0
11
207.907383
21
20.343215
31
0.0
0
ARC
8
00_ALUMINIO
10
208.407383
20
20.343215
30
0.0
40
0.500000
50
180.000000
51
270.000000
0
LINE
8
00_ALUMINIO
10
208.407383
20
19.843215
30
0.0
11
214.907383
21
19.843215
31
0.0
0
ARC
8
00_ALUMINIO
10
214.907383
20
20.343215
30
0.0
40
0.500000
50
270.000000
51
0.000000
0
LINE
8
00_ALUMINIO
10
215.407383
20
20.343215
30
0.0
11
215.407383
21
23.353215
31
0.0
0
ARC
8
00_ALUMINIO
10
215.207383
20
23.353215
30
0.0
40
0.200000
50
0.000000
51
90.000000
0
LINE
8
00_ALUMINIO
10
215.207383
20
23.553215
30
0.0
11
214.107383
21
23.553215
31
0.0
0
ARC
8
00_ALUMINIO
10
214.107383
20
23.753215
30
0.0
40
0.200000
50
180.000000
51
270.000000
0
LINE
8
00_ALUMINIO
10
213.907383
20
23.753215
30
0.0
11
213.907383
21
24.853215
31
0.0
0
ARC
8
00_ALUMINIO
10
214.107383
20
24.853215
30
0.0
40
0.200000
50
90.000000
51
180.000000
0
LINE
8
00_ALUMINIO
10
214.107383
20
25.053215
30
0.0
11
215.907383
21
25.053215
31
0.0
0
ARC
8
00_ALUMINIO
10
215.907383
20
24.053215
30
0.0
40
1.000000
50
0.000000
51
90.000000
0
LINE
8
00_ALUMINIO
10
216.907383
20
24.053215
30
0.0
11
216.907383
21
22.649962
31
0.0
0
ARC
8
00_ALUMINIO
10
217.907383
20
22.649962
30
0.0
40
1.000000
50
180.000000
51
267.000000
0
LINE
8
00_ALUMINIO
10
217.855047
20
21.651333
30
0.0
11
228.053987
21
21.116829
31
0.0
0
ARC
8
00_ALUMINIO
10
228.027819
20
20.617514
30
0.0
40
0.500000
50
0.000000
51
87.000000
0
LINE
8
00_ALUMINIO
10
228.527819
20
20.617514
30
0.0
11
228.527819
21
9.591996
31
0.0
0
ATTDEF
8
0
10
0.000000
20
0.000000
30
0.0
40
3.5
1

3

2
PANE_WIDTH:0
70
0
0
ATTDEF
8
0
10
0.000000
20
0.000000
30
0.0
40
3.5
1

3

2
MIN_VETRO:0
70
0
0
ATTDEF
8
0
10
0.000000
20
0.000000
30
0.0
40
3.5
1

3

2
MAX_VETRO:0
70
0
0
ATTDEF
8
0
10
0.000000
20
0.000000
30
0.0
40
3.5
1

3

2
JX:0
70
0
0
ATTDEF
8
0
10
0.000000
20
0.000000
30
0.0
40
3.5
1

3

2
WX:0
70
0
0
ATTDEF
8
0
10
0.000000
20
0.000000
30
0.0
40
3.5
1

3

2
JY:0
70
0
0
ATTDEF
8
0
10
0.000000
20
0.000000
30
0.0
40
3.5
1

3

2
WY:0
70
0
0
ATTDEF
8
0
10
0.000000
20
0.000000
30
0.0
40
3.5
1

3

2
DESC:Marco ventana oscilo TP52
70
0
0
ATTDEF
8
0
10
0.000000
20
0.000000
30
0.0
40
3.5
1

3

2
DENS:1.2015
70
0
0
ATTDEF
8
0
10
0.000000
20
0.000000
30
0.0
40
3.5
1

3

2
TDEV:40.24
70
0
0
ATTDEF
8
0
10
0.000000
20
0.000000
30
0.0
40
3.5
1

3

2
TDEV2:0
70
0
0
ATTDEF
8
0
10
0.000000
20
0.000000
30
0.0
40
3.5
1

3

2
TDEV3:0
70
0
0
ATTDEF
8
0
10
0.000000
20
0.000000
30
0.0
40
3.5
1

3

2
TDEV4:0
70
0
0
ATTDEF
8
0
10
0.000000
20
0.000000
30
0.0
40
3.5
1

3

2
TDEV5:0
70
0
0
ATTDEF
8
0
10
0.000000
20
0.000000
30
0.0
40
3.5
1

3

2
PANE_WIDTH:0
70
0
0
ATTDEF
8
0
10
0.000000
20
0.000000
30
0.0
40
3.5
1

3

2
MIN_VETRO:0
70
0
0
ATTDEF
8
0
10
0.000000
20
0.000000
30
0.0
40
3.5
1

3

2
MAX_VETRO:0
70
0
0
ATTDEF
8
0
10
0.000000
20
0.000000
30
0.0
40
3.5
1

3

2
JX:0
70
0
0
ATTDEF
8
0
10
0.000000
20
0.000000
30
0.0
40
3.5
1

3

2
WX:0
70
0
0
ATTDEF
8
0
10
0.000000
20
0.000000
30
0.0
40
3.5
1

3

2
JY:0
70
0
0
ATTDEF
8
0
10
0.000000
20
0.000000
30
0.0
40
3.5
1

3

2
WY:0
70
0
0
ENDSEC
0
EOF
