0
SECTION
2
ENTITIES
0
LINE
8
0
10
2395.028647
20
1207.991875
30
0.0
11
2393.219392
21
1207.991871
31
0.0
0
ARC
8
0
10
2393.219392
20
1207.691871
30
0.0
40
0.300000
50
89.999995
51
180.000000
0
LINE
8
0
10
2392.919392
20
1207.691871
30
0.0
11
2392.919392
21
1202.491871
31
0.0
0
ARC
8
0
10
2393.419392
20
1202.491871
30
0.0
40
0.500000
50
180.000000
51
270.000000
0
LINE
8
0
10
2393.419392
20
1201.991871
30
0.0
11
2394.116676
21
1201.991871
31
0.0
0
ARC
8
0
10
2394.116676
20
1202.291871
30
0.0
40
0.300000
50
270.000000
51
0.000000
0
LINE
8
0
10
2394.416676
20
1202.291871
30
0.0
11
2394.416676
21
1202.541871
31
0.0
0
LINE
8
0
10
2394.416676
20
1202.541871
30
0.0
11
2395.618034
21
1202.541871
31
0.0
0
ARC
8
0
10
2395.618034
20
1202.341871
30
0.0
40
0.200000
50
0.000000
51
90.000000
0
LINE
8
0
10
2395.818034
20
1202.341871
30
0.0
11
2395.818034
21
1200.241866
31
0.0
0
LINE
8
0
10
2395.818034
20
1200.241866
30
0.0
11
2395.418034
21
1200.241866
31
0.0
0
ARC
8
0
10
2395.418034
20
1199.941866
30
0.0
40
0.300000
50
90.000000
51
210.000000
0
LINE
8
0
10
2395.158226
20
1199.791866
30
0.0
11
2396.083880
21
1198.188587
31
0.0
0
ARC
8
0
10
2396.424602
20
1198.385303
30
0.0
40
0.393432
50
210.000000
51
0.000000
0
LINE
8
0
10
2396.818034
20
1198.385303
30
0.0
11
2396.818034
21
1202.341871
31
0.0
0
ARC
8
0
10
2397.018034
20
1202.341871
30
0.0
40
0.200000
50
90.000000
51
180.000000
0
LINE
8
0
10
2397.018034
20
1202.541871
30
0.0
11
2398.818034
21
1202.541871
31
0.0
0
ARC
8
0
10
2398.818034
20
1202.341871
30
0.0
40
0.200000
50
0.000000
51
90.000000
0
LINE
8
0
10
2399.018034
20
1202.341871
30
0.0
11
2399.018034
21
1198.385303
31
0.0
0
ARC
8
0
10
2399.411466
20
1198.385303
30
0.0
40
0.393432
50
180.000000
51
330.000000
0
LINE
8
0
10
2399.752188
20
1198.188587
30
0.0
11
2400.677842
21
1199.791866
31
0.0
0
ARC
8
0
10
2400.418034
20
1199.941866
30
0.0
40
0.300000
50
330.000000
51
90.000000
0
LINE
8
0
10
2400.418034
20
1200.241866
30
0.0
11
2400.018034
21
1200.241866
31
0.0
0
LINE
8
0
10
2400.018034
20
1200.241866
30
0.0
11
2400.018034
21
1202.341871
31
0.0
0
ARC
8
0
10
2400.218034
20
1202.341871
30
0.0
40
0.200000
50
90.000000
51
180.000000
0
LINE
8
0
10
2400.218034
20
1202.541871
30
0.0
11
2401.419392
21
1202.541871
31
0.0
0
LINE
8
0
10
2401.419392
20
1202.541871
30
0.0
11
2401.419392
21
1202.291871
31
0.0
0
ARC
8
0
10
2401.719392
20
1202.291871
30
0.0
40
0.300000
50
180.000000
51
270.000000
0
LINE
8
0
10
2401.719392
20
1201.991871
30
0.0
11
2402.416676
21
1201.991871
31
0.0
0
ARC
8
0
10
2402.416676
20
1202.491871
30
0.0
40
0.500000
50
270.000000
51
0.000000
0
LINE
8
0
10
2402.916676
20
1202.491871
30
0.0
11
2402.916676
21
1207.691871
31
0.0
0
ARC
8
0
10
2402.616676
20
1207.691871
30
0.0
40
0.300000
50
0.000000
51
90.000005
0
LINE
8
0
10
2402.616676
20
1207.991871
30
0.0
11
2400.807421
21
1207.991875
31
0.0
0
ARC
8
0
10
2400.807421
20
1207.691875
30
0.0
40
0.300000
50
90.000002
51
150.000120
0
LINE
8
0
10
2400.547613
20
1207.841874
30
0.0
11
2400.056868
21
1206.991874
31
0.0
0
ARC
8
0
10
2400.316676
20
1206.841875
30
0.0
40
0.300000
50
150.000122
51
269.999989
0
LINE
8
0
10
2400.316676
20
1206.541875
30
0.0
11
2401.416676
21
1206.541870
31
0.0
0
LINE
8
0
10
2401.416676
20
1206.541870
30
0.0
11
2401.416676
21
1204.041871
31
0.0
0
LINE
8
0
10
2401.416676
20
1204.041871
30
0.0
11
2394.419392
21
1204.041871
31
0.0
0
LINE
8
0
10
2394.419392
20
1204.041871
30
0.0
11
2394.419392
21
1206.541870
31
0.0
0
LINE
8
0
10
2394.419392
20
1206.541870
30
0.0
11
2395.519392
21
1206.541875
31
0.0
0
ARC
8
0
10
2395.519392
20
1206.841875
30
0.0
40
0.300000
50
270.000011
51
29.999878
0
LINE
8
0
10
2395.779200
20
1206.991874
30
0.0
11
2395.288455
21
1207.841874
31
0.0
0
ARC
8
0
10
2395.028647
20
1207.691875
30
0.0
40
0.300000
50
29.999878
51
89.999995
0
ATTDEF
8
0
10
0.000000
20
0.000000
30
0.0
40
3.5
1

3

2
PANE_WIDTH:0
70
0
0
ATTDEF
8
0
10
0.000000
20
0.000000
30
0.0
40
3.5
1

3

2
MIN_VETRO:0
70
0
0
ATTDEF
8
0
10
0.000000
20
0.000000
30
0.0
40
3.5
1

3

2
MAX_VETRO:0
70
0
0
ATTDEF
8
0
10
0.000000
20
0.000000
30
0.0
40
3.5
1

3

2
JX:0
70
0
0
ATTDEF
8
0
10
0.000000
20
0.000000
30
0.0
40
3.5
1

3

2
WX:0
70
0
0
ATTDEF
8
0
10
0.000000
20
0.000000
30
0.0
40
3.5
1

3

2
JY:0
70
0
0
ATTDEF
8
0
10
0.000000
20
0.000000
30
0.0
40
3.5
1

3

2
WY:0
70
0
0
ATTDEF
8
0
10
0.000000
20
0.000000
30
0.0
40
3.5
1

3

2
DESC:Expansión de distanciador 6mm
70
0
0
ATTDEF
8
0
10
0.000000
20
0.000000
30
0.0
40
3.5
1

3

2
DENS:0
70
0
0
ATTDEF
8
0
10
0.000000
20
0.000000
30
0.0
40
3.5
1

3

2
TDEV:0
70
0
0
ATTDEF
8
0
10
0.000000
20
0.000000
30
0.0
40
3.5
1

3

2
TDEV2:0
70
0
0
ATTDEF
8
0
10
0.000000
20
0.000000
30
0.0
40
3.5
1

3

2
TDEV3:0
70
0
0
ATTDEF
8
0
10
0.000000
20
0.000000
30
0.0
40
3.5
1

3

2
TDEV4:0
70
0
0
ATTDEF
8
0
10
0.000000
20
0.000000
30
0.0
40
3.5
1

3

2
TDEV5:0
70
0
0
ATTDEF
8
0
10
0.000000
20
0.000000
30
0.0
40
3.5
1

3

2
PANE_WIDTH:0
70
0
0
ATTDEF
8
0
10
0.000000
20
0.000000
30
0.0
40
3.5
1

3

2
MIN_VETRO:0
70
0
0
ATTDEF
8
0
10
0.000000
20
0.000000
30
0.0
40
3.5
1

3

2
MAX_VETRO:0
70
0
0
ATTDEF
8
0
10
0.000000
20
0.000000
30
0.0
40
3.5
1

3

2
JX:0
70
0
0
ATTDEF
8
0
10
0.000000
20
0.000000
30
0.0
40
3.5
1

3

2
WX:0
70
0
0
ATTDEF
8
0
10
0.000000
20
0.000000
30
0.0
40
3.5
1

3

2
JY:0
70
0
0
ATTDEF
8
0
10
0.000000
20
0.000000
30
0.0
40
3.5
1

3

2
WY:0
70
0
0
ENDSEC
0
EOF
