0
SECTION
2
ENTITIES
0
ARC
8
00_ALUMINIO
10
57.926444
20
42.223663
30
0.0
40
0.500000
50
180.000000
51
270.000000
0
LINE
8
00_ALUMINIO
10
57.426444
20
42.223663
30
0.0
11
52.426394
21
42.223663
31
0.0
0
LINE
8
00_ALUMINIO
10
52.426394
20
42.223663
30
0.0
11
51.926444
21
41.723713
31
0.0
0
LINE
8
00_ALUMINIO
10
51.926444
20
41.723713
30
0.0
11
51.426494
21
42.223663
31
0.0
0
LINE
8
00_ALUMINIO
10
51.426494
20
42.223663
30
0.0
11
46.426444
21
42.223663
31
0.0
0
ARC
8
00_ALUMINIO
10
45.926444
20
42.223663
30
0.0
40
0.500000
50
270.000000
51
0.000000
0
LINE
8
00_ALUMINIO
10
45.926444
20
41.723663
30
0.0
11
45.146394
21
41.723663
31
0.0
0
ARC
8
00_ALUMINIO
10
45.146394
20
43.223663
30
0.0
40
1.500000
50
135.000000
51
270.000000
0
LINE
8
00_ALUMINIO
10
44.085734
20
44.284323
30
0.0
11
44.378007
21
44.576596
31
0.0
0
ARC
8
00_ALUMINIO
10
44.024454
20
44.930150
30
0.0
40
0.500000
50
315.000000
51
45.000000
0
LINE
8
00_ALUMINIO
10
44.378007
20
45.283703
30
0.0
11
41.185114
21
48.476596
31
0.0
0
ARC
8
00_ALUMINIO
10
40.831560
20
48.123043
30
0.0
40
0.500000
50
45.000000
51
90.000000
0
LINE
8
00_ALUMINIO
10
40.831560
20
48.623043
30
0.0
11
36.926444
21
48.623043
31
0.0
0
ARC
8
00_ALUMINIO
10
36.926444
20
48.123043
30
0.0
40
0.500000
50
90.000000
51
180.000000
0
LINE
8
00_ALUMINIO
10
36.426444
20
48.123043
30
0.0
11
36.426444
21
45.968803
31
0.0
0
ARC
8
00_ALUMINIO
10
36.926444
20
45.968803
30
0.0
40
0.500000
50
180.000000
51
240.000000
0
LINE
8
00_ALUMINIO
10
36.676444
20
45.535790
30
0.0
11
40.426444
21
43.370727
31
0.0
0
ARC
8
00_ALUMINIO
10
39.926444
20
42.504701
30
0.0
40
1.000000
50
0.000000
51
60.000000
0
LINE
8
00_ALUMINIO
10
40.926444
20
42.504701
30
0.0
11
40.926444
21
40.723663
31
0.0
0
ARC
8
00_ALUMINIO
10
41.926444
20
40.723663
30
0.0
40
1.000000
50
180.000000
51
270.000000
0
LINE
8
00_ALUMINIO
10
41.926444
20
39.723663
30
0.0
11
60.426444
21
39.723663
31
0.0
0
ARC
8
00_ALUMINIO
10
60.426444
20
38.723663
30
0.0
40
1.000000
50
0.000000
51
90.000000
0
LINE
8
00_ALUMINIO
10
61.426444
20
38.723663
30
0.0
11
61.426444
21
27.918573
31
0.0
0
ARC
8
00_ALUMINIO
10
60.426444
20
27.918573
30
0.0
40
1.000000
50
295.000000
51
0.000000
0
LINE
8
00_ALUMINIO
10
60.849062
20
27.012265
30
0.0
11
55.003825
21
24.286587
31
0.0
0
ARC
8
00_ALUMINIO
10
55.426444
20
23.380279
30
0.0
40
1.000000
50
115.000000
51
295.000000
0
LINE
8
00_ALUMINIO
10
55.849062
20
22.473971
30
0.0
11
63.560371
21
26.069814
31
0.0
0
ARC
8
00_ALUMINIO
10
62.926444
20
27.429275
30
0.0
40
1.500000
50
295.000000
51
0.000000
0
LINE
8
00_ALUMINIO
10
64.426444
20
27.429275
30
0.0
11
64.426444
21
44.123043
31
0.0
0
ARC
8
00_ALUMINIO
10
65.926444
20
44.123043
30
0.0
40
1.500000
50
90.000000
51
180.000000
0
LINE
8
00_ALUMINIO
10
65.926444
20
45.623043
30
0.0
11
68.926444
21
45.623043
31
0.0
0
ARC
8
00_ALUMINIO
10
68.926444
20
45.123043
30
0.0
40
0.500000
50
0.000000
51
90.000000
0
LINE
8
00_ALUMINIO
10
69.426444
20
45.123043
30
0.0
11
69.426444
21
43.223663
31
0.0
0
ARC
8
00_ALUMINIO
10
72.426444
20
43.223663
30
0.0
40
3.000000
50
180.000000
51
275.963041
0
ARC
8
00_ALUMINIO
10
72.686161
20
40.737190
30
0.0
40
0.500000
50
275.963041
51
17.500000
0
LINE
8
00_ALUMINIO
10
73.163019
20
40.887543
30
0.0
11
73.039765
21
41.278454
31
0.0
0
ARC
8
00_ALUMINIO
10
72.562907
20
41.128101
30
0.0
40
0.500000
50
17.500000
51
93.725853
0
ARC
8
00_ALUMINIO
10
72.426444
20
43.223663
30
0.0
40
1.600000
50
255.320781
51
273.725853
0
ARC
8
00_ALUMINIO
10
71.944970
20
41.385679
30
0.0
40
0.300000
50
75.320781
51
132.149131
0
ARC
8
00_ALUMINIO
10
71.542333
20
41.830520
30
0.0
40
0.300000
50
237.600129
51
312.149131
0
ARC
8
00_ALUMINIO
10
72.426444
20
43.223663
30
0.0
40
1.950000
50
217.399871
51
237.600129
0
ARC
8
00_ALUMINIO
10
71.115657
20
42.221496
30
0.0
40
0.300000
50
142.850869
51
217.399871
0
ARC
8
00_ALUMINIO
10
70.637417
20
42.583831
30
0.0
40
0.300000
50
322.850869
51
19.679219
0
ARC
8
00_ALUMINIO
10
72.426444
20
43.223663
30
0.0
40
1.600000
50
165.320781
51
199.679219
0
ARC
8
00_ALUMINIO
10
70.588460
20
43.705136
30
0.0
40
0.300000
50
345.320781
51
42.149131
0
ARC
8
00_ALUMINIO
10
71.033301
20
44.107774
30
0.0
40
0.300000
50
147.600129
51
222.149131
0
ARC
8
00_ALUMINIO
10
72.426444
20
43.223663
30
0.0
40
1.950000
50
127.399871
51
147.600129
0
ARC
8
00_ALUMINIO
10
71.424276
20
44.534449
30
0.0
40
0.300000
50
52.850869
51
127.399871
0
ARC
8
00_ALUMINIO
10
71.786611
20
45.012689
30
0.0
40
0.300000
50
232.850869
51
289.679219
0
ARC
8
00_ALUMINIO
10
72.426444
20
43.223663
30
0.0
40
1.600000
50
75.320781
51
109.679219
0
ARC
8
00_ALUMINIO
10
72.907917
20
45.061646
30
0.0
40
0.300000
50
255.320781
51
312.149131
0
ARC
8
00_ALUMINIO
10
73.310555
20
44.616806
30
0.0
40
0.300000
50
57.600129
51
132.149131
0
ARC
8
00_ALUMINIO
10
72.426444
20
43.223663
30
0.0
40
1.950000
50
37.399871
51
57.600129
0
ARC
8
00_ALUMINIO
10
73.737230
20
44.225830
30
0.0
40
0.300000
50
322.850869
51
37.399871
0
ARC
8
00_ALUMINIO
10
74.215470
20
43.863495
30
0.0
40
0.300000
50
142.850869
51
199.679219
0
ARC
8
00_ALUMINIO
10
72.426444
20
43.223663
30
0.0
40
1.600000
50
1.274147
51
19.679219
0
ARC
8
00_ALUMINIO
10
74.525924
20
43.270359
30
0.0
40
0.500000
50
181.274147
51
257.500000
0
LINE
8
00_ALUMINIO
10
74.417705
20
42.782211
30
0.0
11
74.817871
21
42.693496
31
0.0
0
ARC
8
00_ALUMINIO
10
74.926090
20
43.181644
30
0.0
40
0.500000
50
257.500000
51
359.036959
0
ARC
8
00_ALUMINIO
10
72.426444
20
43.223663
30
0.0
40
3.000000
50
359.036959
51
32.866265
0
ARC
8
00_ALUMINIO
10
75.366232
20
45.123043
30
0.0
40
0.500000
50
90.000000
51
212.866265
0
LINE
8
00_ALUMINIO
10
75.366232
20
45.623043
30
0.0
11
104.374136
21
45.623043
31
0.0
0
ARC
8
00_ALUMINIO
10
104.374136
20
45.123043
30
0.0
40
0.500000
50
20.000000
51
90.000000
0
LINE
8
00_ALUMINIO
10
104.843983
20
45.294053
30
0.0
11
106.407988
21
40.996982
31
0.0
0
ARC
8
00_ALUMINIO
10
109.227066
20
42.023043
30
0.0
40
3.000000
50
200.000000
51
270.000000
0
LINE
8
00_ALUMINIO
10
109.227066
20
39.023043
30
0.0
11
113.626444
21
39.023043
31
0.0
0
ARC
8
00_ALUMINIO
10
113.626444
20
39.523043
30
0.0
40
0.500000
50
270.000000
51
0.000000
0
LINE
8
00_ALUMINIO
10
114.126444
20
39.523043
30
0.0
11
114.126444
21
40.523043
31
0.0
0
ARC
8
00_ALUMINIO
10
113.626444
20
40.523043
30
0.0
40
0.500000
50
0.000000
51
90.000000
0
LINE
8
00_ALUMINIO
10
113.626444
20
41.023043
30
0.0
11
109.426444
21
41.023043
31
0.0
0
ARC
8
00_ALUMINIO
10
109.426444
20
41.323043
30
0.0
40
0.300000
50
180.000000
51
270.000000
0
LINE
8
00_ALUMINIO
10
109.126444
20
41.323043
30
0.0
11
109.126444
21
45.323043
31
0.0
0
ARC
8
00_ALUMINIO
10
109.426444
20
45.323043
30
0.0
40
0.300000
50
90.000000
51
180.000000
0
LINE
8
00_ALUMINIO
10
109.426444
20
45.623043
30
0.0
11
149.426444
21
45.623043
31
0.0
0
ARC
8
00_ALUMINIO
10
149.426444
20
45.323043
30
0.0
40
0.300000
50
0.000000
51
90.000000
0
LINE
8
00_ALUMINIO
10
149.726444
20
45.323043
30
0.0
11
149.726444
21
41.323043
31
0.0
0
ARC
8
00_ALUMINIO
10
149.426444
20
41.323043
30
0.0
40
0.300000
50
270.000000
51
0.000000
0
LINE
8
00_ALUMINIO
10
149.426444
20
41.023043
30
0.0
11
145.226444
21
41.023043
31
0.0
0
ARC
8
00_ALUMINIO
10
145.226444
20
40.523043
30
0.0
40
0.500000
50
90.000000
51
180.000000
0
LINE
8
00_ALUMINIO
10
144.726444
20
40.523043
30
0.0
11
144.726444
21
39.523043
31
0.0
0
ARC
8
00_ALUMINIO
10
145.226444
20
39.523043
30
0.0
40
0.500000
50
180.000000
51
270.000000
0
LINE
8
00_ALUMINIO
10
145.226444
20
39.023043
30
0.0
11
149.226444
21
39.023043
31
0.0
0
ARC
8
00_ALUMINIO
10
149.226444
20
38.523043
30
0.0
40
0.500000
50
0.000000
51
90.000000
0
LINE
8
00_ALUMINIO
10
149.726444
20
38.523043
30
0.0
11
149.726444
21
27.918573
31
0.0
0
ARC
8
00_ALUMINIO
10
148.726444
20
27.918573
30
0.0
40
1.000000
50
295.000000
51
0.000000
0
LINE
8
00_ALUMINIO
10
149.149062
20
27.012265
30
0.0
11
143.303825
21
24.286587
31
0.0
0
ARC
8
00_ALUMINIO
10
143.726444
20
23.380279
30
0.0
40
1.000000
50
115.000000
51
295.000000
0
LINE
8
00_ALUMINIO
10
144.149062
20
22.473971
30
0.0
11
151.860371
21
26.069814
31
0.0
0
ARC
8
00_ALUMINIO
10
151.226444
20
27.429275
30
0.0
40
1.500000
50
295.000000
51
0.000000
0
LINE
8
00_ALUMINIO
10
152.726444
20
27.429275
30
0.0
11
152.726444
21
43.623043
31
0.0
0
ARC
8
00_ALUMINIO
10
154.726444
20
43.623043
30
0.0
40
2.000000
50
90.000000
51
180.000000
0
LINE
8
00_ALUMINIO
10
154.726444
20
45.623043
30
0.0
11
192.486655
21
45.623043
31
0.0
0
ARC
8
00_ALUMINIO
10
192.486655
20
45.123043
30
0.0
40
0.500000
50
327.133735
51
90.000000
0
ARC
8
00_ALUMINIO
10
195.426444
20
43.223663
30
0.0
40
3.000000
50
147.133735
51
180.963041
0
ARC
8
00_ALUMINIO
10
192.926797
20
43.181644
30
0.0
40
0.500000
50
180.963041
51
282.500000
0
LINE
8
00_ALUMINIO
10
193.035017
20
42.693496
30
0.0
11
193.435183
21
42.782211
31
0.0
0
ARC
8
00_ALUMINIO
10
193.326963
20
43.270359
30
0.0
40
0.500000
50
282.500000
51
358.725853
0
ARC
8
00_ALUMINIO
10
195.426444
20
43.223663
30
0.0
40
1.600000
50
160.320781
51
178.725853
0
ARC
8
00_ALUMINIO
10
193.637417
20
43.863495
30
0.0
40
0.300000
50
340.320781
51
37.149131
0
ARC
8
00_ALUMINIO
10
194.115657
20
44.225830
30
0.0
40
0.300000
50
142.600129
51
217.149131
0
ARC
8
00_ALUMINIO
10
195.426444
20
43.223663
30
0.0
40
1.950000
50
122.399871
51
142.600129
0
ARC
8
00_ALUMINIO
10
194.542333
20
44.616806
30
0.0
40
0.300000
50
47.850869
51
122.399871
0
ARC
8
00_ALUMINIO
10
194.944970
20
45.061646
30
0.0
40
0.300000
50
227.850869
51
284.679219
0
ARC
8
00_ALUMINIO
10
195.426444
20
43.223663
30
0.0
40
1.600000
50
70.320781
51
104.679219
0
ARC
8
00_ALUMINIO
10
196.066276
20
45.012689
30
0.0
40
0.300000
50
250.320781
51
307.149131
0
ARC
8
00_ALUMINIO
10
196.428611
20
44.534449
30
0.0
40
0.300000
50
52.600129
51
127.149131
0
ARC
8
00_ALUMINIO
10
195.426444
20
43.223663
30
0.0
40
1.950000
50
32.399871
51
52.600129
0
ARC
8
00_ALUMINIO
10
196.819587
20
44.107774
30
0.0
40
0.300000
50
317.850869
51
32.399871
0
ARC
8
00_ALUMINIO
10
197.264427
20
43.705136
30
0.0
40
0.300000
50
137.850869
51
194.679219
0
ARC
8
00_ALUMINIO
10
195.426444
20
43.223663
30
0.0
40
1.600000
50
340.320781
51
14.679219
0
ARC
8
00_ALUMINIO
10
197.215470
20
42.583831
30
0.0
40
0.300000
50
160.320781
51
217.149131
0
ARC
8
00_ALUMINIO
10
196.737230
20
42.221496
30
0.0
40
0.300000
50
322.600129
51
37.149131
0
ARC
8
00_ALUMINIO
10
195.426444
20
43.223663
30
0.0
40
1.950000
50
302.399871
51
322.600129
0
ARC
8
00_ALUMINIO
10
196.310555
20
41.830520
30
0.0
40
0.300000
50
227.850869
51
302.399871
0
ARC
8
00_ALUMINIO
10
195.907917
20
41.385679
30
0.0
40
0.300000
50
47.850869
51
104.679219
0
ARC
8
00_ALUMINIO
10
195.426444
20
43.223663
30
0.0
40
1.600000
50
266.274147
51
284.679219
0
ARC
8
00_ALUMINIO
10
195.289980
20
41.128101
30
0.0
40
0.500000
50
86.274147
51
162.500000
0
LINE
8
00_ALUMINIO
10
194.813122
20
41.278454
30
0.0
11
194.689868
21
40.887543
31
0.0
0
ARC
8
00_ALUMINIO
10
195.166726
20
40.737190
30
0.0
40
0.500000
50
162.500000
51
264.036959
0
ARC
8
00_ALUMINIO
10
195.426444
20
43.223663
30
0.0
40
3.000000
50
264.036959
51
0.000000
0
LINE
8
00_ALUMINIO
10
198.426444
20
43.223663
30
0.0
11
198.426444
21
48.123043
31
0.0
0
ARC
8
00_ALUMINIO
10
197.926444
20
48.123043
30
0.0
40
0.500000
50
0.000000
51
90.000000
0
LINE
8
00_ALUMINIO
10
197.926444
20
48.623043
30
0.0
11
63.217347
21
48.623043
31
0.0
0
ARC
8
00_ALUMINIO
10
63.217347
20
48.123043
30
0.0
40
0.500000
50
90.000000
51
135.000000
0
LINE
8
00_ALUMINIO
10
62.863793
20
48.476596
30
0.0
11
59.670900
21
45.283703
31
0.0
0
ARC
8
00_ALUMINIO
10
60.024454
20
44.930150
30
0.0
40
0.500000
50
135.000000
51
225.000000
0
LINE
8
00_ALUMINIO
10
59.670900
20
44.576596
30
0.0
11
59.963173
21
44.284323
31
0.0
0
ARC
8
00_ALUMINIO
10
58.902513
20
43.223663
30
0.0
40
1.500000
50
270.000000
51
45.000000
0
LINE
8
00_ALUMINIO
10
58.902513
20
41.723663
30
0.0
11
57.926444
21
41.723663
31
0.0
0
ATTDEF
8
0
10
0.000000
20
0.000000
30
0.0
40
3.5
1

3

2
PANE_WIDTH:0
70
0
0
ATTDEF
8
0
10
0.000000
20
0.000000
30
0.0
40
3.5
1

3

2
MIN_VETRO:0
70
0
0
ATTDEF
8
0
10
0.000000
20
0.000000
30
0.0
40
3.5
1

3

2
MAX_VETRO:0
70
0
0
ATTDEF
8
0
10
0.000000
20
0.000000
30
0.0
40
3.5
1

3

2
JX:0
70
0
0
ATTDEF
8
0
10
0.000000
20
0.000000
30
0.0
40
3.5
1

3

2
WX:0
70
0
0
ATTDEF
8
0
10
0.000000
20
0.000000
30
0.0
40
3.5
1

3

2
JY:0
70
0
0
ATTDEF
8
0
10
0.000000
20
0.000000
30
0.0
40
3.5
1

3

2
WY:0
70
0
0
ATTDEF
8
0
10
0.000000
20
0.000000
30
0.0
40
3.5
1

3

2
DESC:N/F
70
0
0
ATTDEF
8
0
10
0.000000
20
0.000000
30
0.0
40
3.5
1

3

2
DENS:0
70
0
0
ATTDEF
8
0
10
0.000000
20
0.000000
30
0.0
40
3.5
1

3

2
TDEV:0
70
0
0
ATTDEF
8
0
10
0.000000
20
0.000000
30
0.0
40
3.5
1

3

2
TDEV2:0
70
0
0
ATTDEF
8
0
10
0.000000
20
0.000000
30
0.0
40
3.5
1

3

2
TDEV3:0
70
0
0
ATTDEF
8
0
10
0.000000
20
0.000000
30
0.0
40
3.5
1

3

2
TDEV4:0
70
0
0
ATTDEF
8
0
10
0.000000
20
0.000000
30
0.0
40
3.5
1

3

2
TDEV5:0
70
0
0
ATTDEF
8
0
10
0.000000
20
0.000000
30
0.0
40
3.5
1

3

2
PANE_WIDTH:0
70
0
0
ATTDEF
8
0
10
0.000000
20
0.000000
30
0.0
40
3.5
1

3

2
MIN_VETRO:0
70
0
0
ATTDEF
8
0
10
0.000000
20
0.000000
30
0.0
40
3.5
1

3

2
MAX_VETRO:0
70
0
0
ATTDEF
8
0
10
0.000000
20
0.000000
30
0.0
40
3.5
1

3

2
JX:0
70
0
0
ATTDEF
8
0
10
0.000000
20
0.000000
30
0.0
40
3.5
1

3

2
WX:0
70
0
0
ATTDEF
8
0
10
0.000000
20
0.000000
30
0.0
40
3.5
1

3

2
JY:0
70
0
0
ATTDEF
8
0
10
0.000000
20
0.000000
30
0.0
40
3.5
1

3

2
WY:0
70
0
0
ENDSEC
0
EOF
