0
SECTION
2
ENTITIES
0
LINE
8
0
10
3306.952407
20
1213.828642
30
0.0
11
3306.952386
21
1217.878601
31
0.0
0
LINE
8
0
10
3306.952386
20
1217.878601
30
0.0
11
3309.452540
21
1217.878604
31
0.0
0
LINE
8
0
10
3309.452540
20
1217.878604
30
0.0
11
3309.452538
21
1219.778624
31
0.0
0
LINE
8
0
10
3309.452538
20
1219.778624
30
0.0
11
3285.452538
21
1219.778624
31
0.0
0
LINE
8
0
10
3285.452538
20
1219.778624
30
0.0
11
3285.452538
21
1216.278624
31
0.0
0
LINE
8
0
10
3285.452538
20
1216.278624
30
0.0
11
3287.452538
21
1216.278624
31
0.0
0
LINE
8
0
10
3287.452538
20
1216.278624
30
0.0
11
3287.452538
21
1214.778624
31
0.0
0
LINE
8
0
10
3287.452538
20
1214.778624
30
0.0
11
3285.452538
21
1214.778624
31
0.0
0
LINE
8
0
10
3285.452538
20
1214.778624
30
0.0
11
3285.452538
21
1209.778624
31
0.0
0
LINE
8
0
10
3285.452538
20
1209.778624
30
0.0
11
3299.652538
21
1209.778624
31
0.0
0
LINE
8
0
10
3299.652538
20
1209.778624
30
0.0
11
3299.652538
21
1214.778624
31
0.0
0
LINE
8
0
10
3299.652538
20
1214.778624
30
0.0
11
3297.452538
21
1214.778624
31
0.0
0
LINE
8
0
10
3297.452538
20
1214.778624
30
0.0
11
3297.452538
21
1216.278624
31
0.0
0
LINE
8
0
10
3297.452538
20
1216.278624
30
0.0
11
3300.952538
21
1216.278624
31
0.0
0
LINE
8
0
10
3300.952538
20
1216.278624
30
0.0
11
3300.952538
21
1213.828615
31
0.0
0
LINE
8
0
10
3300.952538
20
1213.828615
30
0.0
11
3306.952407
21
1213.828642
31
0.0
0
LINE
8
0
10
3320.452538
20
1218.278619
30
0.0
11
3320.452538
21
1217.978606
31
0.0
0
ARC
8
0
10
3320.352538
20
1217.978606
30
0.0
40
0.100000
50
270.000000
51
0.000076
0
LINE
8
0
10
3320.352538
20
1217.878606
30
0.0
11
3310.952538
21
1217.878606
31
0.0
0
LINE
8
0
10
3310.952538
20
1217.878606
30
0.0
11
3310.952538
21
1221.278624
31
0.0
0
LINE
8
0
10
3310.952538
20
1221.278624
30
0.0
11
3298.252538
21
1221.278624
31
0.0
0
LINE
8
0
10
3298.252538
20
1221.278624
30
0.0
11
3297.952538
21
1220.978624
31
0.0
0
LINE
8
0
10
3297.952538
20
1220.978624
30
0.0
11
3297.652538
21
1221.278624
31
0.0
0
LINE
8
0
10
3297.652538
20
1221.278624
30
0.0
11
3294.252538
21
1221.278624
31
0.0
0
LINE
8
0
10
3294.252538
20
1221.278624
30
0.0
11
3293.952538
21
1220.978624
31
0.0
0
LINE
8
0
10
3293.952538
20
1220.978624
30
0.0
11
3293.652538
21
1221.278624
31
0.0
0
LINE
8
0
10
3293.652538
20
1221.278624
30
0.0
11
3283.952538
21
1221.278624
31
0.0
0
LINE
8
0
10
3283.952538
20
1221.278624
30
0.0
11
3283.952538
21
1208.981734
31
0.0
0
ARC
8
0
10
3284.252538
20
1208.981734
30
0.0
40
0.300000
50
180.000000
51
248.198591
0
LINE
8
0
10
3284.141121
20
1208.703191
30
0.0
11
3286.273730
21
1207.850147
31
0.0
0
ARC
8
0
10
3286.645121
20
1208.778624
30
0.0
40
1.000000
50
248.198591
51
270.000000
0
LINE
8
0
10
3286.645121
20
1207.778624
30
0.0
11
3287.352538
21
1207.778624
31
0.0
0
ARC
8
0
10
3287.352538
20
1207.878624
30
0.0
40
0.100000
50
270.000000
51
0.000000
0
LINE
8
0
10
3287.452538
20
1207.878624
30
0.0
11
3287.452538
21
1208.178624
31
0.0
0
ARC
8
0
10
3287.552538
20
1208.178624
30
0.0
40
0.100000
50
90.000000
51
180.000000
0
LINE
8
0
10
3287.552538
20
1208.278624
30
0.0
11
3296.952538
21
1208.278624
31
0.0
0
LINE
8
0
10
3296.952538
20
1208.278624
30
0.0
11
3296.952538
21
1202.878633
31
0.0
0
LINE
8
0
10
3296.952538
20
1202.878633
30
0.0
11
3311.652538
21
1202.878633
31
0.0
0
LINE
8
0
10
3311.652538
20
1202.878633
30
0.0
11
3311.952538
21
1203.178633
31
0.0
0
LINE
8
0
10
3311.952538
20
1203.178633
30
0.0
11
3312.252538
21
1202.878633
31
0.0
0
LINE
8
0
10
3312.252538
20
1202.878633
30
0.0
11
3323.952538
21
1202.878633
31
0.0
0
LINE
8
0
10
3323.952538
20
1202.878633
30
0.0
11
3323.952538
21
1208.328628
31
0.0
0
LINE
8
0
10
3323.952538
20
1208.328628
30
0.0
11
3323.952538
21
1208.628628
31
0.0
0
LINE
8
0
10
3323.952538
20
1208.628628
30
0.0
11
3323.952538
21
1208.928628
31
0.0
0
LINE
8
0
10
3323.952538
20
1208.928628
30
0.0
11
3323.952538
21
1212.328628
31
0.0
0
LINE
8
0
10
3323.952538
20
1212.328628
30
0.0
11
3323.952538
21
1212.628628
31
0.0
0
LINE
8
0
10
3323.952538
20
1212.628628
30
0.0
11
3323.952538
21
1212.928628
31
0.0
0
LINE
8
0
10
3323.952538
20
1212.928628
30
0.0
11
3323.952538
21
1217.175513
31
0.0
0
ARC
8
0
10
3323.652538
20
1217.175513
30
0.0
40
0.300000
50
0.000000
51
68.198656
0
LINE
8
0
10
3323.763955
20
1217.454057
30
0.0
11
3321.631347
21
1218.307097
31
0.0
0
ARC
8
0
10
3321.259957
20
1217.378620
30
0.0
40
1.000000
50
68.198656
51
90.000076
0
LINE
8
0
10
3321.259956
20
1218.378620
30
0.0
11
3320.552537
21
1218.378619
31
0.0
0
ARC
8
0
10
3320.552538
20
1218.278619
30
0.0
40
0.100000
50
90.000076
51
180.000076
0
LINE
8
0
10
3306.952413
20
1212.328615
30
0.0
11
3300.952538
21
1212.328615
31
0.0
0
LINE
8
0
10
3300.952538
20
1212.328615
30
0.0
11
3300.952538
21
1208.278624
31
0.0
0
LINE
8
0
10
3300.952538
20
1208.278624
30
0.0
11
3298.452364
21
1208.278624
31
0.0
0
LINE
8
0
10
3298.452364
20
1208.278624
30
0.0
11
3298.452364
21
1204.378633
31
0.0
0
LINE
8
0
10
3298.452364
20
1204.378633
30
0.0
11
3322.452538
21
1204.378633
31
0.0
0
LINE
8
0
10
3322.452538
20
1204.378633
30
0.0
11
3322.452538
21
1209.878624
31
0.0
0
LINE
8
0
10
3322.452538
20
1209.878624
30
0.0
11
3320.452538
21
1209.878624
31
0.0
0
LINE
8
0
10
3320.452538
20
1209.878624
30
0.0
11
3320.452538
21
1211.378624
31
0.0
0
LINE
8
0
10
3320.452538
20
1211.378624
30
0.0
11
3322.452538
21
1211.378624
31
0.0
0
LINE
8
0
10
3322.452538
20
1211.378624
30
0.0
11
3322.452538
21
1216.378624
31
0.0
0
LINE
8
0
10
3322.452538
20
1216.378624
30
0.0
11
3308.252538
21
1216.378624
31
0.0
0
LINE
8
0
10
3308.252538
20
1216.378624
30
0.0
11
3308.252538
21
1211.378624
31
0.0
0
LINE
8
0
10
3308.252538
20
1211.378624
30
0.0
11
3310.452538
21
1211.378624
31
0.0
0
LINE
8
0
10
3310.452538
20
1211.378624
30
0.0
11
3310.452538
21
1209.878624
31
0.0
0
LINE
8
0
10
3310.452538
20
1209.878624
30
0.0
11
3306.952425
21
1209.878607
31
0.0
0
LINE
8
0
10
3306.952425
20
1209.878607
30
0.0
11
3306.952413
21
1212.328615
31
0.0
0
ATTDEF
8
0
10
0.000000
20
0.000000
30
0.0
40
3.5
1

3

2
PANE_WIDTH:0
70
0
0
ATTDEF
8
0
10
0.000000
20
0.000000
30
0.0
40
3.5
1

3

2
MIN_VETRO:0
70
0
0
ATTDEF
8
0
10
0.000000
20
0.000000
30
0.0
40
3.5
1

3

2
MAX_VETRO:0
70
0
0
ATTDEF
8
0
10
0.000000
20
0.000000
30
0.0
40
3.5
1

3

2
JX:0
70
0
0
ATTDEF
8
0
10
0.000000
20
0.000000
30
0.0
40
3.5
1

3

2
WX:0
70
0
0
ATTDEF
8
0
10
0.000000
20
0.000000
30
0.0
40
3.5
1

3

2
JY:0
70
0
0
ATTDEF
8
0
10
0.000000
20
0.000000
30
0.0
40
3.5
1

3

2
WY:0
70
0
0
ATTDEF
8
0
10
0.000000
20
0.000000
30
0.0
40
3.5
1

3

2
DESC:Bastidor SG
70
0
0
ATTDEF
8
0
10
0.000000
20
0.000000
30
0.0
40
3.5
1

3

2
DENS:0.5751
70
0
0
ATTDEF
8
0
10
0.000000
20
0.000000
30
0.0
40
3.5
1

3

2
TDEV:28.43
70
0
0
ATTDEF
8
0
10
0.000000
20
0.000000
30
0.0
40
3.5
1

3

2
TDEV2:0
70
0
0
ATTDEF
8
0
10
0.000000
20
0.000000
30
0.0
40
3.5
1

3

2
TDEV3:0
70
0
0
ATTDEF
8
0
10
0.000000
20
0.000000
30
0.0
40
3.5
1

3

2
TDEV4:0
70
0
0
ATTDEF
8
0
10
0.000000
20
0.000000
30
0.0
40
3.5
1

3

2
TDEV5:0
70
0
0
ATTDEF
8
0
10
0.000000
20
0.000000
30
0.0
40
3.5
1

3

2
PANE_WIDTH:0
70
0
0
ATTDEF
8
0
10
0.000000
20
0.000000
30
0.0
40
3.5
1

3

2
MIN_VETRO:0
70
0
0
ATTDEF
8
0
10
0.000000
20
0.000000
30
0.0
40
3.5
1

3

2
MAX_VETRO:0
70
0
0
ATTDEF
8
0
10
0.000000
20
0.000000
30
0.0
40
3.5
1

3

2
JX:0
70
0
0
ATTDEF
8
0
10
0.000000
20
0.000000
30
0.0
40
3.5
1

3

2
WX:0
70
0
0
ATTDEF
8
0
10
0.000000
20
0.000000
30
0.0
40
3.5
1

3

2
JY:0
70
0
0
ATTDEF
8
0
10
0.000000
20
0.000000
30
0.0
40
3.5
1

3

2
WY:0
70
0
0
ENDSEC
0
EOF
