0
SECTION
2
ENTITIES
0
LINE
8
0
10
3268.420268
20
1203.217141
30
0.0
11
3268.420268
21
1203.717141
31
0.0
0
ARC
8
0
10
3268.170268
20
1203.717141
30
0.0
40
0.250000
50
0.000000
51
90.000000
0
LINE
8
0
10
3268.170268
20
1203.967141
30
0.0
11
3267.870268
21
1203.967141
31
0.0
0
ARC
8
0
10
3267.870268
20
1204.217141
30
0.0
40
0.250000
50
180.000000
51
270.000000
0
LINE
8
0
10
3267.620268
20
1204.217141
30
0.0
11
3267.620268
21
1207.257141
31
0.0
0
LINE
8
0
10
3267.620268
20
1207.257141
30
0.0
11
3255.620268
21
1207.257141
31
0.0
0
LINE
8
0
10
3255.620268
20
1207.257141
30
0.0
11
3255.620268
21
1204.567141
31
0.0
0
LINE
8
0
10
3255.620268
20
1204.567141
30
0.0
11
3256.120268
21
1204.067141
31
0.0
0
LINE
8
0
10
3256.120268
20
1204.067141
30
0.0
11
3256.620268
21
1204.067141
31
0.0
0
LINE
8
0
10
3256.620268
20
1204.067141
30
0.0
11
3256.620268
21
1206.107141
31
0.0
0
LINE
8
0
10
3256.620268
20
1206.107141
30
0.0
11
3259.270268
21
1206.107141
31
0.0
0
LINE
8
0
10
3259.270268
20
1206.107141
30
0.0
11
3262.516715
21
1202.860695
31
0.0
0
ARC
8
0
10
3262.163162
20
1202.507141
30
0.0
40
0.500000
50
315.000000
51
45.000000
0
LINE
8
0
10
3262.516715
20
1202.153588
30
0.0
11
3259.270268
21
1198.907141
31
0.0
0
LINE
8
0
10
3259.270268
20
1198.907141
30
0.0
11
3256.620268
21
1198.907141
31
0.0
0
LINE
8
0
10
3256.620268
20
1198.907141
30
0.0
11
3256.620268
21
1200.947141
31
0.0
0
LINE
8
0
10
3256.620268
20
1200.947141
30
0.0
11
3256.120268
21
1200.947141
31
0.0
0
LINE
8
0
10
3256.120268
20
1200.947141
30
0.0
11
3255.620268
21
1200.447141
31
0.0
0
LINE
8
0
10
3255.620268
20
1200.447141
30
0.0
11
3255.620268
21
1197.757141
31
0.0
0
LINE
8
0
10
3255.620268
20
1197.757141
30
0.0
11
3266.442512
21
1197.757141
31
0.0
0
LINE
8
0
10
3266.442512
20
1197.757141
30
0.0
11
3266.442512
21
1192.007141
31
0.0
0
LINE
8
0
10
3266.442512
20
1192.007141
30
0.0
11
3266.642508
21
1191.757141
31
0.0
0
LINE
8
0
10
3266.642508
20
1191.757141
30
0.0
11
3266.442512
21
1191.507141
31
0.0
0
LINE
8
0
10
3266.442512
20
1191.507141
30
0.0
11
3266.442512
21
1182.757141
31
0.0
0
LINE
8
0
10
3266.442512
20
1182.757141
30
0.0
11
3267.620268
21
1182.757141
31
0.0
0
LINE
8
0
10
3267.620268
20
1182.757141
30
0.0
11
3267.620268
21
1200.847141
31
0.0
0
ARC
8
0
10
3267.820268
20
1200.847141
30
0.0
40
0.200000
50
90.000000
51
180.000000
0
LINE
8
0
10
3267.820268
20
1201.047141
30
0.0
11
3267.798025
21
1201.047141
31
0.0
0
LINE
8
0
10
3267.798025
20
1201.047141
30
0.0
11
3269.020278
21
1201.047141
31
0.0
0
LINE
8
0
10
3269.020278
20
1201.047141
30
0.0
11
3269.020278
21
1200.147141
31
0.0
0
ARC
8
0
10
3269.120278
20
1200.147141
30
0.0
40
0.100000
50
180.000000
51
270.000000
0
LINE
8
0
10
3269.120278
20
1200.047141
30
0.0
11
3269.520278
21
1200.047141
31
0.0
0
LINE
8
0
10
3269.520278
20
1200.047141
30
0.0
11
3270.020278
21
1200.547141
31
0.0
0
LINE
8
0
10
3270.020278
20
1200.547141
30
0.0
11
3270.020278
21
1201.547141
31
0.0
0
ARC
8
0
10
3269.520278
20
1201.547141
30
0.0
40
0.500000
50
0.000000
51
90.000000
0
LINE
8
0
10
3269.520278
20
1202.047141
30
0.0
11
3267.620268
21
1202.047141
31
0.0
0
LINE
8
0
10
3267.620268
20
1202.047141
30
0.0
11
3267.620268
21
1202.967141
31
0.0
0
LINE
8
0
10
3267.620268
20
1202.967141
30
0.0
11
3268.170268
21
1202.967141
31
0.0
0
ARC
8
0
10
3268.170268
20
1203.217141
30
0.0
40
0.250000
50
270.000000
51
0.000000
0
ARC
8
0
10
3262.375294
20
1202.507141
30
0.0
40
1.500000
50
315.000000
51
45.000000
0
LINE
8
0
10
3263.435954
20
1201.446481
30
0.0
11
3261.067325
21
1199.077852
31
0.0
0
ARC
8
0
10
3261.138035
20
1199.007141
30
0.0
40
0.100000
50
135.000000
51
270.000000
0
LINE
8
0
10
3261.138035
20
1198.907141
30
0.0
11
3266.470268
21
1198.907141
31
0.0
0
LINE
8
0
10
3266.470268
20
1198.907141
30
0.0
11
3266.470268
21
1202.257141
31
0.0
0
LINE
8
0
10
3266.470268
20
1202.257141
30
0.0
11
3266.670265
21
1202.507141
31
0.0
0
LINE
8
0
10
3266.670265
20
1202.507141
30
0.0
11
3266.470268
21
1202.757141
31
0.0
0
LINE
8
0
10
3266.470268
20
1202.757141
30
0.0
11
3266.470268
21
1206.107141
31
0.0
0
LINE
8
0
10
3266.470268
20
1206.107141
30
0.0
11
3261.138035
21
1206.107141
31
0.0
0
ARC
8
0
10
3261.138035
20
1206.007141
30
0.0
40
0.100000
50
90.000000
51
225.000000
0
LINE
8
0
10
3261.067325
20
1205.936431
30
0.0
11
3263.435954
21
1203.567801
31
0.0
0
ATTDEF
8
0
10
0.000000
20
0.000000
30
0.0
40
3.5
1

3

2
PANE_WIDTH:0
70
0
0
ATTDEF
8
0
10
0.000000
20
0.000000
30
0.0
40
3.5
1

3

2
MIN_VETRO:0
70
0
0
ATTDEF
8
0
10
0.000000
20
0.000000
30
0.0
40
3.5
1

3

2
MAX_VETRO:0
70
0
0
ATTDEF
8
0
10
0.000000
20
0.000000
30
0.0
40
3.5
1

3

2
JX:0
70
0
0
ATTDEF
8
0
10
0.000000
20
0.000000
30
0.0
40
3.5
1

3

2
WX:0
70
0
0
ATTDEF
8
0
10
0.000000
20
0.000000
30
0.0
40
3.5
1

3

2
JY:0
70
0
0
ATTDEF
8
0
10
0.000000
20
0.000000
30
0.0
40
3.5
1

3

2
WY:0
70
0
0
ATTDEF
8
0
10
0.000000
20
0.000000
30
0.0
40
3.5
1

3

2
DESC:N/F
70
0
0
ATTDEF
8
0
10
0.000000
20
0.000000
30
0.0
40
3.5
1

3

2
DENS:0
70
0
0
ATTDEF
8
0
10
0.000000
20
0.000000
30
0.0
40
3.5
1

3

2
TDEV:0
70
0
0
ATTDEF
8
0
10
0.000000
20
0.000000
30
0.0
40
3.5
1

3

2
TDEV2:0
70
0
0
ATTDEF
8
0
10
0.000000
20
0.000000
30
0.0
40
3.5
1

3

2
TDEV3:0
70
0
0
ATTDEF
8
0
10
0.000000
20
0.000000
30
0.0
40
3.5
1

3

2
TDEV4:0
70
0
0
ATTDEF
8
0
10
0.000000
20
0.000000
30
0.0
40
3.5
1

3

2
TDEV5:0
70
0
0
ATTDEF
8
0
10
0.000000
20
0.000000
30
0.0
40
3.5
1

3

2
PANE_WIDTH:0
70
0
0
ATTDEF
8
0
10
0.000000
20
0.000000
30
0.0
40
3.5
1

3

2
MIN_VETRO:0
70
0
0
ATTDEF
8
0
10
0.000000
20
0.000000
30
0.0
40
3.5
1

3

2
MAX_VETRO:0
70
0
0
ATTDEF
8
0
10
0.000000
20
0.000000
30
0.0
40
3.5
1

3

2
JX:0
70
0
0
ATTDEF
8
0
10
0.000000
20
0.000000
30
0.0
40
3.5
1

3

2
WX:0
70
0
0
ATTDEF
8
0
10
0.000000
20
0.000000
30
0.0
40
3.5
1

3

2
JY:0
70
0
0
ATTDEF
8
0
10
0.000000
20
0.000000
30
0.0
40
3.5
1

3

2
WY:0
70
0
0
ENDSEC
0
EOF
