0
SECTION
2
ENTITIES
0
ARC
8
0
10
3272.014126
20
1198.174482
30
0.0
40
2.500000
50
315.000000
51
45.000000
0
LINE
8
0
10
3273.781893
20
1196.406715
30
0.0
11
3271.307019
21
1193.931842
31
0.0
0
LINE
8
0
10
3271.307019
20
1193.931842
30
0.0
11
3269.404902
21
1195.833959
31
0.0
0
LINE
8
0
10
3269.404902
20
1195.833959
30
0.0
11
3269.404902
21
1196.541066
31
0.0
0
LINE
8
0
10
3269.404902
20
1196.541066
30
0.0
11
3269.758455
21
1196.894619
31
0.0
0
LINE
8
0
10
3269.758455
20
1196.894619
30
0.0
11
3270.953465
21
1195.699608
31
0.0
0
LINE
8
0
10
3270.953465
20
1195.699608
30
0.0
11
3272.367679
21
1197.113822
31
0.0
0
ARC
8
0
10
3271.660572
20
1197.820929
30
0.0
40
1.000000
50
315.000000
51
45.000000
0
LINE
8
0
10
3272.367679
20
1198.528036
30
0.0
11
3270.041678
21
1200.854037
31
0.0
0
ARC
8
0
10
3269.334571
20
1200.146930
30
0.0
40
1.000000
50
45.000000
51
115.000000
0
LINE
8
0
10
3268.911953
20
1201.053238
30
0.0
11
3267.007313
21
1200.165089
31
0.0
0
LINE
8
0
10
3267.007313
20
1200.165089
30
0.0
11
3266.747649
21
1199.905425
31
0.0
0
LINE
8
0
10
3266.747649
20
1199.905425
30
0.0
11
3267.552282
21
1199.100792
31
0.0
0
LINE
8
0
10
3267.552282
20
1199.100792
30
0.0
11
3267.198728
21
1198.747239
31
0.0
0
LINE
8
0
10
3267.198728
20
1198.747239
30
0.0
11
3266.491622
21
1198.747239
31
0.0
0
LINE
8
0
10
3266.491622
20
1198.747239
30
0.0
11
3265.077408
21
1200.161452
31
0.0
0
LINE
8
0
10
3265.077408
20
1200.161452
30
0.0
11
3265.254185
21
1200.338229
31
0.0
0
ARC
8
0
10
3265.077408
20
1200.515006
30
0.0
40
0.250000
50
315.000000
51
45.000000
0
LINE
8
0
10
3265.254185
20
1200.691782
30
0.0
11
3264.797078
21
1201.148889
31
0.0
0
ARC
8
0
10
3264.620301
20
1200.972112
30
0.0
40
0.250000
50
45.000000
51
90.000000
0
LINE
8
0
10
3264.620301
20
1201.222112
30
0.0
11
3264.370301
21
1201.222112
31
0.0
0
LINE
8
0
10
3264.370301
20
1201.222112
30
0.0
11
3264.370301
21
1329.708650
31
0.0
0
ARC
8
0
10
3264.870301
20
1329.708650
30
0.0
40
0.500000
50
90.000000
51
180.000000
0
LINE
8
0
10
3264.870301
20
1330.208650
30
0.0
11
3315.870301
21
1330.208650
31
0.0
0
ARC
8
0
10
3315.870301
20
1329.708650
30
0.0
40
0.500000
50
0.000000
51
90.000000
0
LINE
8
0
10
3316.370301
20
1329.708650
30
0.0
11
3316.370301
21
1201.222112
31
0.0
0
LINE
8
0
10
3316.370301
20
1201.222112
30
0.0
11
3316.120301
21
1201.222112
31
0.0
0
ARC
8
0
10
3316.120301
20
1200.972112
30
0.0
40
0.250000
50
90.000000
51
135.000000
0
LINE
8
0
10
3315.943525
20
1201.148889
30
0.0
11
3315.486418
21
1200.691782
31
0.0
0
ARC
8
0
10
3315.663195
20
1200.515006
30
0.0
40
0.250000
50
135.000000
51
225.000000
0
LINE
8
0
10
3315.486418
20
1200.338229
30
0.0
11
3315.663195
21
1200.161452
31
0.0
0
LINE
8
0
10
3315.663195
20
1200.161452
30
0.0
11
3314.248981
21
1198.747239
31
0.0
0
LINE
8
0
10
3314.248981
20
1198.747239
30
0.0
11
3313.541874
21
1198.747239
31
0.0
0
LINE
8
0
10
3313.541874
20
1198.747239
30
0.0
11
3313.188321
21
1199.100792
31
0.0
0
LINE
8
0
10
3313.188321
20
1199.100792
30
0.0
11
3313.992954
21
1199.905425
31
0.0
0
LINE
8
0
10
3313.992954
20
1199.905425
30
0.0
11
3313.733289
21
1200.165089
31
0.0
0
LINE
8
0
10
3313.733289
20
1200.165089
30
0.0
11
3311.828650
21
1201.053238
31
0.0
0
ARC
8
0
10
3311.406031
20
1200.146930
30
0.0
40
1.000000
50
65.000000
51
135.000000
0
LINE
8
0
10
3310.698925
20
1200.854037
30
0.0
11
3308.372924
21
1198.528036
31
0.0
0
ARC
8
0
10
3309.080030
20
1197.820929
30
0.0
40
1.000000
50
135.000000
51
225.000000
0
LINE
8
0
10
3308.372924
20
1197.113822
30
0.0
11
3309.787137
21
1195.699608
31
0.0
0
LINE
8
0
10
3309.787137
20
1195.699608
30
0.0
11
3310.982148
21
1196.894619
31
0.0
0
LINE
8
0
10
3310.982148
20
1196.894619
30
0.0
11
3311.335701
21
1196.541066
31
0.0
0
LINE
8
0
10
3311.335701
20
1196.541066
30
0.0
11
3311.335701
21
1195.833959
31
0.0
0
LINE
8
0
10
3311.335701
20
1195.833959
30
0.0
11
3309.433584
21
1193.931842
31
0.0
0
LINE
8
0
10
3309.433584
20
1193.931842
30
0.0
11
3306.958710
21
1196.406715
31
0.0
0
ARC
8
0
10
3308.726477
20
1198.174482
30
0.0
40
2.500000
50
135.000000
51
225.000000
0
LINE
8
0
10
3306.958710
20
1199.942249
30
0.0
11
3309.156028
21
1202.139567
31
0.0
0
ARC
8
0
10
3310.923795
20
1200.371800
30
0.0
40
2.500000
50
65.000000
51
135.000000
0
LINE
8
0
10
3311.980341
20
1202.637570
30
0.0
11
3314.381156
21
1201.518051
31
0.0
0
ARC
8
0
10
3314.423418
20
1201.608682
30
0.0
40
0.100000
50
245.000000
51
315.000000
0
LINE
8
0
10
3314.494129
20
1201.537971
30
0.0
11
3314.554475
21
1201.598317
31
0.0
0
ARC
8
0
10
3314.766607
20
1201.810449
30
0.0
40
0.300000
50
225.000000
51
45.000000
0
LINE
8
0
10
3314.978739
20
1202.022581
30
0.0
11
3315.039625
21
1202.083467
31
0.0
0
ARC
8
0
10
3314.968914
20
1202.154177
30
0.0
40
0.100000
50
315.000000
51
20.000000
0
LINE
8
0
10
3315.062883
20
1202.188379
30
0.0
11
3313.671838
21
1206.010244
31
0.0
0
ARC
8
0
10
3318.370301
20
1207.720345
30
0.0
40
5.000000
50
180.000000
51
200.000000
0
LINE
8
0
10
3313.370301
20
1207.720345
30
0.0
11
3313.370301
21
1212.208641
31
0.0
0
ARC
8
0
10
3312.370301
20
1212.208641
30
0.0
40
1.000000
50
0.000000
51
90.000000
0
LINE
8
0
10
3312.370301
20
1213.208641
30
0.0
11
3301.420301
21
1213.208641
31
0.0
0
LINE
8
0
10
3301.420301
20
1213.208641
30
0.0
11
3301.120301
21
1213.508641
31
0.0
0
LINE
8
0
10
3301.120301
20
1213.508641
30
0.0
11
3300.820301
21
1213.208641
31
0.0
0
LINE
8
0
10
3300.820301
20
1213.208641
30
0.0
11
3296.370301
21
1213.208641
31
0.0
0
ARC
8
0
10
3296.370301
20
1212.208641
30
0.0
40
1.000000
50
90.000000
51
180.000000
0
LINE
8
0
10
3295.370301
20
1212.208641
30
0.0
11
3295.370301
21
1183.208650
31
0.0
0
LINE
8
0
10
3295.370301
20
1183.208650
30
0.0
11
3293.670300
21
1183.208650
31
0.0
0
LINE
8
0
10
3293.670300
20
1183.208650
30
0.0
11
3292.470302
21
1184.408649
31
0.0
0
LINE
8
0
10
3292.470302
20
1184.408649
30
0.0
11
3292.470302
21
1184.489036
31
0.0
0
ARC
8
0
10
3292.770302
20
1184.489036
30
0.0
40
0.300000
50
120.000000
51
180.000000
0
LINE
8
0
10
3292.620302
20
1184.748843
30
0.0
11
3292.770302
21
1184.835445
31
0.0
0
ARC
8
0
10
3292.670302
20
1185.008650
30
0.0
40
0.200000
50
300.000000
51
60.000000
0
LINE
8
0
10
3292.770302
20
1185.181855
30
0.0
11
3292.620302
21
1185.268458
31
0.0
0
ARC
8
0
10
3292.770302
20
1185.528265
30
0.0
40
0.300000
50
180.000000
51
240.000000
0
LINE
8
0
10
3292.470302
20
1185.528265
30
0.0
11
3292.470302
21
1186.289036
31
0.0
0
ARC
8
0
10
3292.770302
20
1186.289036
30
0.0
40
0.300000
50
120.000000
51
180.000000
0
LINE
8
0
10
3292.620302
20
1186.548843
30
0.0
11
3292.770302
21
1186.635445
31
0.0
0
ARC
8
0
10
3292.670302
20
1186.808650
30
0.0
40
0.200000
50
300.000000
51
60.000000
0
LINE
8
0
10
3292.770302
20
1186.981855
30
0.0
11
3292.620302
21
1187.068458
31
0.0
0
ARC
8
0
10
3292.770302
20
1187.328265
30
0.0
40
0.300000
50
180.000000
51
240.000000
0
LINE
8
0
10
3292.470302
20
1187.328265
30
0.0
11
3292.470302
21
1188.089036
31
0.0
0
ARC
8
0
10
3292.770302
20
1188.089036
30
0.0
40
0.300000
50
120.000000
51
180.000000
0
LINE
8
0
10
3292.620302
20
1188.348843
30
0.0
11
3292.770302
21
1188.435445
31
0.0
0
ARC
8
0
10
3292.670302
20
1188.608650
30
0.0
40
0.200000
50
300.000000
51
60.000000
0
LINE
8
0
10
3292.770302
20
1188.781855
30
0.0
11
3292.620302
21
1188.868458
31
0.0
0
ARC
8
0
10
3292.770302
20
1189.128265
30
0.0
40
0.300000
50
180.000000
51
240.000000
0
LINE
8
0
10
3292.470302
20
1189.128265
30
0.0
11
3292.470302
21
1189.889036
31
0.0
0
ARC
8
0
10
3292.770302
20
1189.889036
30
0.0
40
0.300000
50
120.000000
51
180.000000
0
LINE
8
0
10
3292.620302
20
1190.148843
30
0.0
11
3292.770302
21
1190.235445
31
0.0
0
ARC
8
0
10
3292.670302
20
1190.408650
30
0.0
40
0.200000
50
300.000000
51
60.000000
0
LINE
8
0
10
3292.770302
20
1190.581855
30
0.0
11
3292.620302
21
1190.668458
31
0.0
0
ARC
8
0
10
3292.770302
20
1190.928265
30
0.0
40
0.300000
50
180.000000
51
240.000000
0
LINE
8
0
10
3292.470302
20
1190.928265
30
0.0
11
3292.470302
21
1191.689036
31
0.0
0
ARC
8
0
10
3292.770302
20
1191.689036
30
0.0
40
0.300000
50
120.000000
51
180.000000
0
LINE
8
0
10
3292.620302
20
1191.948843
30
0.0
11
3292.770302
21
1192.035445
31
0.0
0
ARC
8
0
10
3292.670302
20
1192.208650
30
0.0
40
0.200000
50
300.000000
51
60.000000
0
LINE
8
0
10
3292.770302
20
1192.381855
30
0.0
11
3292.620302
21
1192.468458
31
0.0
0
ARC
8
0
10
3292.770302
20
1192.728265
30
0.0
40
0.300000
50
180.000000
51
240.000000
0
LINE
8
0
10
3292.470302
20
1192.728265
30
0.0
11
3292.470302
21
1193.489036
31
0.0
0
ARC
8
0
10
3292.770302
20
1193.489036
30
0.0
40
0.300000
50
120.000000
51
180.000000
0
LINE
8
0
10
3292.620302
20
1193.748843
30
0.0
11
3292.770302
21
1193.835445
31
0.0
0
ARC
8
0
10
3292.670302
20
1194.008650
30
0.0
40
0.200000
50
300.000000
51
60.000000
0
LINE
8
0
10
3292.770302
20
1194.181855
30
0.0
11
3292.620302
21
1194.268458
31
0.0
0
ARC
8
0
10
3292.770302
20
1194.528265
30
0.0
40
0.300000
50
180.000000
51
240.000000
0
LINE
8
0
10
3292.470302
20
1194.528265
30
0.0
11
3292.470302
21
1196.108650
31
0.0
0
ARC
8
0
10
3290.970302
20
1196.108650
30
0.0
40
1.500000
50
0.000000
51
90.000000
0
LINE
8
0
10
3290.970302
20
1197.608650
30
0.0
11
3289.770301
21
1197.608650
31
0.0
0
ARC
8
0
10
3289.770301
20
1196.108650
30
0.0
40
1.500000
50
90.000000
51
180.000000
0
LINE
8
0
10
3288.270301
20
1196.108650
30
0.0
11
3288.270301
21
1195.429795
31
0.0
0
ARC
8
0
10
3287.970061
20
1195.428407
30
0.0
40
0.300243
50
300.026110
51
0.264840
0
LINE
8
0
10
3288.120301
20
1195.168458
30
0.0
11
3287.970301
21
1195.081855
31
0.0
0
ARC
8
0
10
3288.070301
20
1194.908650
30
0.0
40
0.200000
50
120.000000
51
240.000000
0
LINE
8
0
10
3287.970301
20
1194.735445
30
0.0
11
3288.120301
21
1194.648843
31
0.0
0
ARC
8
0
10
3287.970301
20
1194.389036
30
0.0
40
0.300000
50
0.000000
51
60.000000
0
LINE
8
0
10
3288.270301
20
1194.389036
30
0.0
11
3288.270301
21
1193.628265
31
0.0
0
ARC
8
0
10
3287.970301
20
1193.628265
30
0.0
40
0.300000
50
300.000000
51
0.000000
0
LINE
8
0
10
3288.120301
20
1193.368458
30
0.0
11
3287.970301
21
1193.281855
31
0.0
0
ARC
8
0
10
3288.070301
20
1193.108650
30
0.0
40
0.200000
50
120.000000
51
240.000000
0
LINE
8
0
10
3287.970301
20
1192.935445
30
0.0
11
3288.120301
21
1192.848843
31
0.0
0
ARC
8
0
10
3287.970301
20
1192.589036
30
0.0
40
0.300000
50
0.000000
51
60.000000
0
LINE
8
0
10
3288.270301
20
1192.589036
30
0.0
11
3288.270301
21
1191.828265
31
0.0
0
ARC
8
0
10
3287.970301
20
1191.828265
30
0.0
40
0.300000
50
300.000000
51
0.000000
0
LINE
8
0
10
3288.120301
20
1191.568458
30
0.0
11
3287.970301
21
1191.481855
31
0.0
0
ARC
8
0
10
3288.070301
20
1191.308650
30
0.0
40
0.200000
50
120.000000
51
240.000000
0
LINE
8
0
10
3287.970301
20
1191.135445
30
0.0
11
3288.120301
21
1191.048843
31
0.0
0
ARC
8
0
10
3287.970301
20
1190.789036
30
0.0
40
0.300000
50
0.000000
51
60.000000
0
LINE
8
0
10
3288.270301
20
1190.789036
30
0.0
11
3288.270301
21
1190.028265
31
0.0
0
ARC
8
0
10
3287.970301
20
1190.028265
30
0.0
40
0.300000
50
300.000000
51
0.000000
0
LINE
8
0
10
3288.120301
20
1189.768458
30
0.0
11
3287.970301
21
1189.681855
31
0.0
0
ARC
8
0
10
3288.070301
20
1189.508650
30
0.0
40
0.200000
50
120.000000
51
240.000000
0
LINE
8
0
10
3287.970301
20
1189.335445
30
0.0
11
3288.120301
21
1189.248843
31
0.0
0
ARC
8
0
10
3287.970301
20
1188.989036
30
0.0
40
0.300000
50
0.000000
51
60.000000
0
LINE
8
0
10
3288.270301
20
1188.989036
30
0.0
11
3288.270301
21
1188.228265
31
0.0
0
ARC
8
0
10
3287.970301
20
1188.228265
30
0.0
40
0.300000
50
300.000000
51
0.000000
0
LINE
8
0
10
3288.120301
20
1187.968458
30
0.0
11
3287.970301
21
1187.881855
31
0.0
0
ARC
8
0
10
3288.070301
20
1187.708650
30
0.0
40
0.200000
50
120.000000
51
240.000000
0
LINE
8
0
10
3287.970301
20
1187.535445
30
0.0
11
3288.120301
21
1187.448843
31
0.0
0
ARC
8
0
10
3287.970301
20
1187.189036
30
0.0
40
0.300000
50
0.000000
51
60.000000
0
LINE
8
0
10
3288.270301
20
1187.189036
30
0.0
11
3288.270301
21
1186.428265
31
0.0
0
ARC
8
0
10
3287.970301
20
1186.428265
30
0.0
40
0.300000
50
300.000000
51
0.000000
0
LINE
8
0
10
3288.120301
20
1186.168458
30
0.0
11
3287.970301
21
1186.081855
31
0.0
0
ARC
8
0
10
3288.070301
20
1185.908650
30
0.0
40
0.200000
50
120.000000
51
240.000000
0
LINE
8
0
10
3287.970301
20
1185.735445
30
0.0
11
3288.120301
21
1185.648843
31
0.0
0
ARC
8
0
10
3287.970301
20
1185.389036
30
0.0
40
0.300000
50
0.000000
51
60.000000
0
LINE
8
0
10
3288.270301
20
1185.389036
30
0.0
11
3288.270301
21
1184.408649
31
0.0
0
LINE
8
0
10
3288.270301
20
1184.408649
30
0.0
11
3287.070302
21
1183.208650
31
0.0
0
LINE
8
0
10
3287.070302
20
1183.208650
30
0.0
11
3285.370301
21
1183.208650
31
0.0
0
LINE
8
0
10
3285.370301
20
1183.208650
30
0.0
11
3285.370301
21
1212.208641
31
0.0
0
ARC
8
0
10
3284.370301
20
1212.208641
30
0.0
40
1.000000
50
0.000000
51
90.000000
0
LINE
8
0
10
3284.370301
20
1213.208641
30
0.0
11
3279.920301
21
1213.208641
31
0.0
0
LINE
8
0
10
3279.920301
20
1213.208641
30
0.0
11
3279.620301
21
1213.508641
31
0.0
0
LINE
8
0
10
3279.620301
20
1213.508641
30
0.0
11
3279.320301
21
1213.208641
31
0.0
0
LINE
8
0
10
3279.320301
20
1213.208641
30
0.0
11
3268.370301
21
1213.208641
31
0.0
0
ARC
8
0
10
3268.370301
20
1212.208641
30
0.0
40
1.000000
50
90.000000
51
180.000000
0
LINE
8
0
10
3267.370301
20
1212.208641
30
0.0
11
3267.370301
21
1207.720345
31
0.0
0
ARC
8
0
10
3262.370301
20
1207.720345
30
0.0
40
5.000000
50
340.000000
51
0.000000
0
LINE
8
0
10
3267.068764
20
1206.010244
30
0.0
11
3265.677719
21
1202.188379
31
0.0
0
ARC
8
0
10
3265.771689
20
1202.154177
30
0.0
40
0.100000
50
160.000000
51
225.000000
0
LINE
8
0
10
3265.700978
20
1202.083467
30
0.0
11
3265.761864
21
1202.022581
31
0.0
0
ARC
8
0
10
3265.973996
20
1201.810449
30
0.0
40
0.300000
50
135.000000
51
315.000000
0
LINE
8
0
10
3266.186128
20
1201.598317
30
0.0
11
3266.246474
21
1201.537971
31
0.0
0
ARC
8
0
10
3266.317184
20
1201.608682
30
0.0
40
0.100000
50
225.000000
51
295.000000
0
LINE
8
0
10
3266.359446
20
1201.518051
30
0.0
11
3268.760262
21
1202.637570
31
0.0
0
ARC
8
0
10
3269.816808
20
1200.371800
30
0.0
40
2.500000
50
45.000000
51
115.000000
0
LINE
8
0
10
3271.584575
20
1202.139567
30
0.0
11
3273.781893
21
1199.942249
31
0.0
0
ARC
8
0
10
3313.770301
20
1325.208650
30
0.0
40
0.500000
50
0.000000
51
90.000000
0
LINE
8
0
10
3314.270301
20
1325.208650
30
0.0
11
3314.270301
21
1308.508650
31
0.0
0
LINE
8
0
10
3314.270301
20
1308.508650
30
0.0
11
3312.120291
21
1308.508641
31
0.0
0
LINE
8
0
10
3312.120291
20
1308.508641
30
0.0
11
3312.120301
21
1307.008641
31
0.0
0
LINE
8
0
10
3312.120301
20
1307.008641
30
0.0
11
3314.270301
21
1307.008641
31
0.0
0
LINE
8
0
10
3314.270301
20
1307.008641
30
0.0
11
3314.270301
21
1228.008641
31
0.0
0
LINE
8
0
10
3314.270301
20
1228.008641
30
0.0
11
3312.120301
21
1228.008641
31
0.0
0
LINE
8
0
10
3312.120301
20
1228.008641
30
0.0
11
3312.120301
21
1226.508641
31
0.0
0
LINE
8
0
10
3312.120301
20
1226.508641
30
0.0
11
3314.270301
21
1226.508641
31
0.0
0
LINE
8
0
10
3314.270301
20
1226.508641
30
0.0
11
3314.270301
21
1216.008650
31
0.0
0
ARC
8
0
10
3313.770301
20
1216.008650
30
0.0
40
0.500000
50
270.000000
51
0.000000
0
LINE
8
0
10
3313.770301
20
1215.508650
30
0.0
11
3266.970301
21
1215.508650
31
0.0
0
ARC
8
0
10
3266.970301
20
1216.008650
30
0.0
40
0.500000
50
180.000000
51
270.000000
0
LINE
8
0
10
3266.470301
20
1216.008650
30
0.0
11
3266.470301
21
1226.508641
31
0.0
0
LINE
8
0
10
3266.470301
20
1226.508641
30
0.0
11
3268.620301
21
1226.508641
31
0.0
0
LINE
8
0
10
3268.620301
20
1226.508641
30
0.0
11
3268.620301
21
1228.008641
31
0.0
0
LINE
8
0
10
3268.620301
20
1228.008641
30
0.0
11
3266.470301
21
1228.008641
31
0.0
0
LINE
8
0
10
3266.470301
20
1228.008641
30
0.0
11
3266.470301
21
1307.008641
31
0.0
0
LINE
8
0
10
3266.470301
20
1307.008641
30
0.0
11
3268.620301
21
1307.008641
31
0.0
0
LINE
8
0
10
3268.620301
20
1307.008641
30
0.0
11
3268.620311
21
1308.508641
31
0.0
0
LINE
8
0
10
3268.620311
20
1308.508641
30
0.0
11
3266.470301
21
1308.508650
31
0.0
0
LINE
8
0
10
3266.470301
20
1308.508650
30
0.0
11
3266.470301
21
1325.208650
31
0.0
0
ARC
8
0
10
3266.970301
20
1325.208650
30
0.0
40
0.500000
50
90.000000
51
180.000000
0
LINE
8
0
10
3266.970301
20
1325.708650
30
0.0
11
3275.770301
21
1325.708650
31
0.0
0
LINE
8
0
10
3275.770301
20
1325.708650
30
0.0
11
3276.370301
21
1319.508650
31
0.0
0
LINE
8
0
10
3276.370301
20
1319.508650
30
0.0
11
3277.370301
21
1319.508650
31
0.0
0
LINE
8
0
10
3277.370301
20
1319.508650
30
0.0
11
3277.370301
21
1325.708650
31
0.0
0
LINE
8
0
10
3277.370301
20
1325.708650
30
0.0
11
3303.370301
21
1325.708650
31
0.0
0
LINE
8
0
10
3303.370301
20
1325.708650
30
0.0
11
3303.370301
21
1319.508650
31
0.0
0
LINE
8
0
10
3303.370301
20
1319.508650
30
0.0
11
3304.370301
21
1319.508650
31
0.0
0
LINE
8
0
10
3304.370301
20
1319.508650
30
0.0
11
3304.970301
21
1325.708650
31
0.0
0
LINE
8
0
10
3304.970301
20
1325.708650
30
0.0
11
3313.770301
21
1325.708650
31
0.0
0
LINE
8
0
10
3292.370301
20
1213.208650
30
0.0
11
3288.370301
21
1213.208650
31
0.0
0
ARC
8
0
10
3288.370301
20
1212.208650
30
0.0
40
1.000000
50
90.000000
51
180.000000
0
LINE
8
0
10
3287.370301
20
1212.208650
30
0.0
11
3287.370301
21
1201.208650
31
0.0
0
ARC
8
0
10
3288.370301
20
1201.208650
30
0.0
40
1.000000
50
180.000000
51
270.000000
0
LINE
8
0
10
3288.370301
20
1200.208650
30
0.0
11
3292.370301
21
1200.208650
31
0.0
0
ARC
8
0
10
3292.370301
20
1201.208650
30
0.0
40
1.000000
50
270.000000
51
0.000000
0
LINE
8
0
10
3293.370301
20
1201.208650
30
0.0
11
3293.370301
21
1212.208650
31
0.0
0
ARC
8
0
10
3292.370301
20
1212.208650
30
0.0
40
1.000000
50
0.000000
51
90.000000
0
ATTDEF
8
0
10
0.000000
20
0.000000
30
0.0
40
3.5
1

3

2
PANE_WIDTH:0
70
0
0
ATTDEF
8
0
10
0.000000
20
0.000000
30
0.0
40
3.5
1

3

2
MIN_VETRO:0
70
0
0
ATTDEF
8
0
10
0.000000
20
0.000000
30
0.0
40
3.5
1

3

2
MAX_VETRO:0
70
0
0
ATTDEF
8
0
10
0.000000
20
0.000000
30
0.0
40
3.5
1

3

2
JX:0
70
0
0
ATTDEF
8
0
10
0.000000
20
0.000000
30
0.0
40
3.5
1

3

2
WX:0
70
0
0
ATTDEF
8
0
10
0.000000
20
0.000000
30
0.0
40
3.5
1

3

2
JY:0
70
0
0
ATTDEF
8
0
10
0.000000
20
0.000000
30
0.0
40
3.5
1

3

2
WY:0
70
0
0
ATTDEF
8
0
10
0.000000
20
0.000000
30
0.0
40
3.5
1

3

2
DESC:Montante poligonal 130mm
70
0
0
ATTDEF
8
0
10
0.000000
20
0.000000
30
0.0
40
3.5
1

3

2
DENS:3.0375
70
0
0
ATTDEF
8
0
10
0.000000
20
0.000000
30
0.0
40
3.5
1

3

2
TDEV:93.92
70
0
0
ATTDEF
8
0
10
0.000000
20
0.000000
30
0.0
40
3.5
1

3

2
TDEV2:0
70
0
0
ATTDEF
8
0
10
0.000000
20
0.000000
30
0.0
40
3.5
1

3

2
TDEV3:0
70
0
0
ATTDEF
8
0
10
0.000000
20
0.000000
30
0.0
40
3.5
1

3

2
TDEV4:0
70
0
0
ATTDEF
8
0
10
0.000000
20
0.000000
30
0.0
40
3.5
1

3

2
TDEV5:0
70
0
0
ATTDEF
8
0
10
0.000000
20
0.000000
30
0.0
40
3.5
1

3

2
PANE_WIDTH:0
70
0
0
ATTDEF
8
0
10
0.000000
20
0.000000
30
0.0
40
3.5
1

3

2
MIN_VETRO:0
70
0
0
ATTDEF
8
0
10
0.000000
20
0.000000
30
0.0
40
3.5
1

3

2
MAX_VETRO:0
70
0
0
ATTDEF
8
0
10
0.000000
20
0.000000
30
0.0
40
3.5
1

3

2
JX:0
70
0
0
ATTDEF
8
0
10
0.000000
20
0.000000
30
0.0
40
3.5
1

3

2
WX:0
70
0
0
ATTDEF
8
0
10
0.000000
20
0.000000
30
0.0
40
3.5
1

3

2
JY:0
70
0
0
ATTDEF
8
0
10
0.000000
20
0.000000
30
0.0
40
3.5
1

3

2
WY:0
70
0
0
ENDSEC
0
EOF
