0
SECTION
2
ENTITIES
0
LINE
8
00_POLIAMIDAS
10
191.276261
20
19.782499
30
0.0
11
192.253243
21
20.759481
31
0.0
0
LINE
8
00_POLIAMIDAS
10
191.176364
20
17.437538
30
0.0
11
192.052454
21
18.313628
31
0.0
0
LINE
8
00_POLIAMIDAS
10
196.102201
20
22.363375
30
0.0
11
196.989045
21
23.250219
31
0.0
0
LINE
8
00_POLIAMIDAS
10
192.512908
20
18.774082
30
0.0
11
193.676563
21
19.937737
31
0.0
0
LINE
8
00_POLIAMIDAS
10
193.967647
20
17.983757
30
0.0
11
199.234109
21
23.250219
31
0.0
0
LINE
8
00_POLIAMIDAS
10
199.679174
20
21.450220
30
0.0
11
201.479147
21
23.250193
31
0.0
0
LINE
8
00_POLIAMIDAS
10
191.203528
20
10.729510
30
0.0
11
192.069103
21
11.595085
31
0.0
0
LINE
8
00_POLIAMIDAS
10
201.169932
20
20.695914
30
0.0
11
202.476160
21
22.002142
31
0.0
0
LINE
8
00_POLIAMIDAS
10
191.176364
20
8.457282
30
0.0
11
191.248596
21
8.529514
31
0.0
0
LINE
8
00_POLIAMIDAS
10
202.033290
20
19.314208
30
0.0
11
203.339545
21
20.620463
31
0.0
0
LINE
8
00_POLIAMIDAS
10
191.276261
20
8.557179
30
0.0
11
191.769460
21
9.050378
31
0.0
0
LINE
8
00_POLIAMIDAS
10
192.505451
20
9.786369
30
0.0
11
193.492423
21
10.773341
31
0.0
0
LINE
8
00_POLIAMIDAS
10
193.391645
20
8.427499
30
0.0
11
195.389118
21
10.424972
31
0.0
0
LINE
8
00_POLIAMIDAS
10
203.036283
20
18.072137
30
0.0
11
205.210339
21
20.246193
31
0.0
0
LINE
8
00_POLIAMIDAS
10
195.053619
20
7.844409
30
0.0
11
196.359872
21
9.150662
31
0.0
0
LINE
8
00_POLIAMIDAS
10
206.661441
20
19.452231
30
0.0
11
207.076373
21
19.867163
31
0.0
0
LINE
8
00_POLIAMIDAS
10
204.927025
20
17.717815
30
0.0
11
205.874305
21
18.665095
31
0.0
0
LINE
8
00_POLIAMIDAS
10
195.917003
20
6.462729
30
0.0
11
197.223230
21
7.768956
31
0.0
0
LINE
8
00_POLIAMIDAS
10
206.350345
20
16.896071
30
0.0
11
207.176270
21
17.721996
31
0.0
0
LINE
8
00_POLIAMIDAS
10
196.978850
20
5.279512
30
0.0
11
198.778849
21
7.079511
31
0.0
0
LINE
8
00_POLIAMIDAS
10
199.223914
20
5.279512
30
0.0
11
204.538552
21
10.594150
31
0.0
0
LINE
8
00_POLIAMIDAS
10
201.468978
20
5.279512
30
0.0
11
202.074873
21
5.885407
31
0.0
0
LINE
8
00_POLIAMIDAS
10
206.418933
20
10.229467
30
0.0
11
207.176270
21
10.986804
31
0.0
0
LINE
8
00_POLIAMIDAS
10
204.742886
20
8.553419
30
0.0
11
205.826362
21
9.636896
31
0.0
0
LINE
8
00_POLIAMIDAS
10
206.166205
20
7.731675
30
0.0
11
207.076373
21
8.641842
31
0.0
0
LINE
8
00_POLIAMIDAS
10
191.974412
20
7.609269
30
0.0
11
191.176364
21
8.407318
31
0.0
0
LINE
8
00_POLIAMIDAS
10
193.397732
20
8.431013
30
0.0
11
192.464495
21
9.364250
31
0.0
0
LINE
8
00_POLIAMIDAS
10
191.661055
20
10.167691
30
0.0
11
191.276261
21
10.552484
31
0.0
0
LINE
8
00_POLIAMIDAS
10
198.794297
20
5.279512
30
0.0
11
193.038260
21
11.035549
31
0.0
0
LINE
8
00_POLIAMIDAS
10
201.039361
20
5.279512
30
0.0
11
199.239362
21
7.079511
31
0.0
0
LINE
8
00_POLIAMIDAS
10
202.307022
20
6.256916
30
0.0
11
201.000798
21
7.563139
31
0.0
0
LINE
8
00_POLIAMIDAS
10
191.763719
20
16.800219
30
0.0
11
191.176364
21
17.387574
31
0.0
0
LINE
8
00_POLIAMIDAS
10
203.170406
20
7.638595
30
0.0
11
201.864157
21
8.944845
31
0.0
0
LINE
8
00_POLIAMIDAS
10
193.213593
20
17.595409
30
0.0
11
192.341723
21
18.467278
31
0.0
0
LINE
8
00_POLIAMIDAS
10
204.331932
20
8.722134
30
0.0
11
202.761876
21
10.292190
31
0.0
0
LINE
8
00_POLIAMIDAS
10
195.048380
20
18.005685
30
0.0
11
192.351057
21
20.703008
31
0.0
0
LINE
8
00_POLIAMIDAS
10
207.176270
20
8.122860
30
0.0
11
206.239935
21
9.059195
31
0.0
0
LINE
8
00_POLIAMIDAS
10
196.190739
20
19.108391
30
0.0
11
194.884480
21
20.414649
31
0.0
0
LINE
8
00_POLIAMIDAS
10
205.856000
20
9.443130
30
0.0
11
204.648194
21
10.650935
31
0.0
0
LINE
8
00_POLIAMIDAS
10
207.076373
20
10.467821
30
0.0
11
206.071514
21
11.472679
31
0.0
0
LINE
8
00_POLIAMIDAS
10
197.054097
20
20.490096
30
0.0
11
195.747865
21
21.796329
31
0.0
0
LINE
8
00_POLIAMIDAS
10
198.339038
20
21.450220
30
0.0
11
196.627370
21
23.161888
31
0.0
0
LINE
8
00_POLIAMIDAS
10
204.034101
20
18.000221
30
0.0
11
200.889318
21
21.145004
31
0.0
0
LINE
8
00_POLIAMIDAS
10
200.605267
20
21.429055
30
0.0
11
198.784103
21
23.250219
31
0.0
0
LINE
8
00_POLIAMIDAS
10
207.166598
20
17.112788
30
0.0
11
204.447248
21
19.832138
31
0.0
0
LINE
8
00_POLIAMIDAS
10
202.807518
20
21.471867
30
0.0
11
201.029167
21
23.250219
31
0.0
0
LINE
8
00_POLIAMIDAS
10
207.028760
20
19.495689
30
0.0
11
205.887375
21
20.637075
31
0.0
0
LINE
8
00_POLIAMIDAS
10
199.176317
20
5.279512
30
0.0
11
201.474540
21
5.279512
31
0.0
0
ARC
8
00_POLIAMIDAS
10
201.474540
20
5.679512
30
0.0
40
0.400000
50
270.000000
51
327.999547
0
LINE
8
00_POLIAMIDAS
10
201.813757
20
5.467542
30
0.0
11
203.793351
21
8.635498
31
0.0
0
ARC
8
00_POLIAMIDAS
10
203.962960
20
8.529513
30
0.0
40
0.200000
50
90.000000
51
147.999547
0
LINE
8
00_POLIAMIDAS
10
203.962960
20
8.729513
30
0.0
11
204.223521
21
8.729513
31
0.0
0
ARC
8
00_POLIAMIDAS
10
204.223521
20
7.929513
30
0.0
40
0.800000
50
60.000304
51
90.000000
0
LINE
8
00_POLIAMIDAS
10
204.623517
20
8.622336
30
0.0
11
206.469958
21
7.556306
31
0.0
0
ARC
8
00_POLIAMIDAS
10
206.569957
20
7.729512
30
0.0
40
0.200000
50
240.000304
51
270.000000
0
LINE
8
00_POLIAMIDAS
10
206.569957
20
7.529512
30
0.0
11
206.776270
21
7.529512
31
0.0
0
ARC
8
00_POLIAMIDAS
10
206.776270
20
7.929512
30
0.0
40
0.400000
50
270.000000
51
0.000000
0
LINE
8
00_POLIAMIDAS
10
207.176270
20
7.929512
30
0.0
11
207.176270
21
8.529514
31
0.0
0
LINE
8
00_POLIAMIDAS
10
207.176270
20
8.529514
30
0.0
11
207.076373
21
8.529514
31
0.0
0
LINE
8
00_POLIAMIDAS
10
207.076373
20
8.529514
30
0.0
11
207.076373
21
8.904512
31
0.0
0
ARC
8
00_POLIAMIDAS
10
206.876373
20
8.904512
30
0.0
40
0.200000
50
0.000000
51
90.000000
0
LINE
8
00_POLIAMIDAS
10
206.876373
20
9.104512
30
0.0
11
206.716791
21
9.104512
31
0.0
0
ARC
8
00_POLIAMIDAS
10
206.426317
20
9.629512
30
0.0
40
0.600000
50
180.000000
51
298.955054
0
ARC
8
00_POLIAMIDAS
10
206.426317
20
9.629512
30
0.0
40
0.600000
50
61.044946
51
180.000000
0
LINE
8
00_POLIAMIDAS
10
206.716791
20
10.154512
30
0.0
11
206.876373
21
10.154512
31
0.0
0
ARC
8
00_POLIAMIDAS
10
206.876373
20
10.354512
30
0.0
40
0.200000
50
270.000000
51
0.000000
0
LINE
8
00_POLIAMIDAS
10
207.076373
20
10.354512
30
0.0
11
207.076373
21
10.729510
31
0.0
0
LINE
8
00_POLIAMIDAS
10
207.076373
20
10.729510
30
0.0
11
207.176270
21
10.729510
31
0.0
0
LINE
8
00_POLIAMIDAS
10
207.176270
20
10.729510
30
0.0
11
207.176270
21
11.329512
31
0.0
0
ARC
8
00_POLIAMIDAS
10
206.776270
20
11.329512
30
0.0
40
0.400000
50
0.000000
51
90.000000
0
LINE
8
00_POLIAMIDAS
10
206.776270
20
11.729512
30
0.0
11
206.569957
21
11.729512
31
0.0
0
ARC
8
00_POLIAMIDAS
10
206.569957
20
11.529512
30
0.0
40
0.200000
50
90.000000
51
119.999696
0
LINE
8
00_POLIAMIDAS
10
206.469958
20
11.702718
30
0.0
11
204.623516
21
10.636688
31
0.0
0
ARC
8
00_POLIAMIDAS
10
204.223520
20
11.329510
30
0.0
40
0.800000
50
270.000000
51
299.999696
0
LINE
8
00_POLIAMIDAS
10
204.223520
20
10.529510
30
0.0
11
203.408653
21
10.529510
31
0.0
0
ARC
8
00_POLIAMIDAS
10
203.408653
20
9.529510
30
0.0
40
1.000000
50
90.000000
51
148.000809
0
LINE
8
00_POLIAMIDAS
10
202.560597
20
10.059417
30
0.0
11
200.816099
21
7.267548
31
0.0
0
ARC
8
00_POLIAMIDAS
10
200.476876
20
7.479511
30
0.0
40
0.400000
50
270.000000
51
328.000809
0
LINE
8
00_POLIAMIDAS
10
200.476876
20
7.079511
30
0.0
11
199.176317
21
7.079511
31
0.0
0
LINE
8
00_POLIAMIDAS
10
199.176317
20
7.079511
30
0.0
11
197.875757
21
7.079511
31
0.0
0
ARC
8
00_POLIAMIDAS
10
197.875757
20
7.479511
30
0.0
40
0.400000
50
211.999191
51
270.000000
0
LINE
8
00_POLIAMIDAS
10
197.536535
20
7.267548
30
0.0
11
195.792036
21
10.059417
31
0.0
0
ARC
8
00_POLIAMIDAS
10
194.943981
20
9.529510
30
0.0
40
1.000000
50
31.999191
51
90.000000
0
LINE
8
00_POLIAMIDAS
10
194.943981
20
10.529510
30
0.0
11
194.129113
21
10.529510
31
0.0
0
ARC
8
00_POLIAMIDAS
10
194.129113
20
11.329510
30
0.0
40
0.800000
50
240.000304
51
270.000000
0
LINE
8
00_POLIAMIDAS
10
193.729117
20
10.636688
30
0.0
11
191.882676
21
11.702718
31
0.0
0
ARC
8
00_POLIAMIDAS
10
191.782677
20
11.529512
30
0.0
40
0.200000
50
60.000304
51
90.000000
0
LINE
8
00_POLIAMIDAS
10
191.782677
20
11.729512
30
0.0
11
191.576364
21
11.729512
31
0.0
0
ARC
8
00_POLIAMIDAS
10
191.576364
20
11.329512
30
0.0
40
0.400000
50
90.000000
51
180.000000
0
LINE
8
00_POLIAMIDAS
10
191.176364
20
11.329512
30
0.0
11
191.176364
21
10.729510
31
0.0
0
LINE
8
00_POLIAMIDAS
10
191.176364
20
10.729510
30
0.0
11
191.276261
21
10.729510
31
0.0
0
LINE
8
00_POLIAMIDAS
10
191.276261
20
10.729510
30
0.0
11
191.276261
21
10.354512
31
0.0
0
ARC
8
00_POLIAMIDAS
10
191.476261
20
10.354512
30
0.0
40
0.200000
50
180.000000
51
270.000000
0
LINE
8
00_POLIAMIDAS
10
191.476261
20
10.154512
30
0.0
11
191.635843
21
10.154512
31
0.0
0
ARC
8
00_POLIAMIDAS
10
191.926317
20
9.629512
30
0.0
40
0.600000
50
0.000000
51
118.955054
0
ARC
8
00_POLIAMIDAS
10
191.926317
20
9.629512
30
0.0
40
0.600000
50
241.044946
51
0.000000
0
LINE
8
00_POLIAMIDAS
10
191.635843
20
9.104512
30
0.0
11
191.476261
21
9.104512
31
0.0
0
ARC
8
00_POLIAMIDAS
10
191.476261
20
8.904512
30
0.0
40
0.200000
50
90.000000
51
180.000000
0
LINE
8
00_POLIAMIDAS
10
191.276261
20
8.904512
30
0.0
11
191.276261
21
8.529514
31
0.0
0
LINE
8
00_POLIAMIDAS
10
191.276261
20
8.529514
30
0.0
11
191.176364
21
8.529514
31
0.0
0
LINE
8
00_POLIAMIDAS
10
191.176364
20
8.529514
30
0.0
11
191.176364
21
7.929512
31
0.0
0
ARC
8
00_POLIAMIDAS
10
191.576364
20
7.929512
30
0.0
40
0.400000
50
180.000000
51
270.000000
0
LINE
8
00_POLIAMIDAS
10
191.576364
20
7.529512
30
0.0
11
191.782677
21
7.529512
31
0.0
0
ARC
8
00_POLIAMIDAS
10
191.782677
20
7.729512
30
0.0
40
0.200000
50
270.000000
51
299.999696
0
LINE
8
00_POLIAMIDAS
10
191.882676
20
7.556306
30
0.0
11
193.729116
21
8.622336
31
0.0
0
ARC
8
00_POLIAMIDAS
10
194.129112
20
7.929513
30
0.0
40
0.800000
50
90.000000
51
119.999696
0
LINE
8
00_POLIAMIDAS
10
194.129112
20
8.729513
30
0.0
11
194.389674
21
8.729513
31
0.0
0
ARC
8
00_POLIAMIDAS
10
194.389674
20
8.529513
30
0.0
40
0.200000
50
32.000453
51
90.000000
0
LINE
8
00_POLIAMIDAS
10
194.559282
20
8.635498
30
0.0
11
196.538876
21
5.467542
31
0.0
0
ARC
8
00_POLIAMIDAS
10
196.878094
20
5.679512
30
0.0
40
0.400000
50
212.000453
51
270.000000
0
LINE
8
00_POLIAMIDAS
10
196.878094
20
5.279512
30
0.0
11
199.176317
21
5.279512
31
0.0
0
LINE
8
00_ALUMINIO
10
215.676413
20
13.764866
30
0.0
11
215.976413
21
13.464866
31
0.0
0
LINE
8
00_ALUMINIO
10
215.976413
20
13.464866
30
0.0
11
215.676413
21
13.164866
31
0.0
0
LINE
8
00_ALUMINIO
10
215.676413
20
13.164866
30
0.0
11
215.976413
21
12.864866
31
0.0
0
LINE
8
00_ALUMINIO
10
215.976413
20
12.864866
30
0.0
11
215.676413
21
12.564866
31
0.0
0
LINE
8
00_ALUMINIO
10
215.676413
20
12.564866
30
0.0
11
215.976413
21
12.264866
31
0.0
0
LINE
8
00_ALUMINIO
10
215.976413
20
12.264866
30
0.0
11
215.676413
21
11.964866
31
0.0
0
LINE
8
00_ALUMINIO
10
215.676413
20
11.964866
30
0.0
11
215.976413
21
11.664866
31
0.0
0
LINE
8
00_ALUMINIO
10
215.976413
20
11.664866
30
0.0
11
215.676413
21
11.364866
31
0.0
0
LINE
8
00_ALUMINIO
10
215.676413
20
11.364866
30
0.0
11
215.976413
21
11.064866
31
0.0
0
LINE
8
00_ALUMINIO
10
215.976413
20
11.064866
30
0.0
11
215.676413
21
10.764866
31
0.0
0
LINE
8
00_ALUMINIO
10
215.676413
20
10.764866
30
0.0
11
215.976413
21
10.464866
31
0.0
0
LINE
8
00_ALUMINIO
10
215.976413
20
10.464866
30
0.0
11
215.676413
21
10.164866
31
0.0
0
LINE
8
00_ALUMINIO
10
215.676413
20
10.164866
30
0.0
11
215.976413
21
9.864866
31
0.0
0
LINE
8
00_ALUMINIO
10
215.976413
20
9.864866
30
0.0
11
215.676413
21
9.564866
31
0.0
0
LINE
8
00_ALUMINIO
10
215.676413
20
9.564866
30
0.0
11
215.976413
21
9.264866
31
0.0
0
LINE
8
00_ALUMINIO
10
215.976413
20
9.264866
30
0.0
11
215.676413
21
8.964866
31
0.0
0
LINE
8
00_ALUMINIO
10
215.676413
20
8.964866
30
0.0
11
215.976413
21
8.664866
31
0.0
0
LINE
8
00_ALUMINIO
10
215.976413
20
8.664866
30
0.0
11
215.676413
21
8.364866
31
0.0
0
LINE
8
00_ALUMINIO
10
215.676413
20
8.364866
30
0.0
11
215.976413
21
8.064866
31
0.0
0
LINE
8
00_ALUMINIO
10
215.976413
20
8.064866
30
0.0
11
215.976413
21
6.431959
31
0.0
0
ARC
8
00_ALUMINIO
10
215.609319
20
6.431959
30
0.0
40
0.367094
50
220.194429
51
0.000000
0
LINE
8
00_ALUMINIO
10
215.328911
20
6.195043
30
0.0
11
215.059655
21
6.579581
31
0.0
0
ARC
8
00_ALUMINIO
10
214.895824
20
6.464866
30
0.0
40
0.200000
50
35.000000
51
90.000000
0
LINE
8
00_ALUMINIO
10
214.895824
20
6.664866
30
0.0
11
211.876413
21
6.664866
31
0.0
0
LINE
8
00_ALUMINIO
10
211.876413
20
6.664866
30
0.0
11
211.576413
21
6.964866
31
0.0
0
LINE
8
00_ALUMINIO
10
211.576413
20
6.964866
30
0.0
11
211.276413
21
6.664866
31
0.0
0
LINE
8
00_ALUMINIO
10
211.276413
20
6.664866
30
0.0
11
209.325700
21
6.664866
31
0.0
0
ARC
8
00_ALUMINIO
10
209.325700
20
6.164866
30
0.0
40
0.500000
50
90.000000
51
180.000000
0
LINE
8
00_ALUMINIO
10
208.825700
20
6.164866
30
0.0
11
208.825700
21
4.138831
31
0.0
0
LINE
8
00_ALUMINIO
10
208.825396
20
4.121381
30
0.0
11
208.825700
21
4.138831
31
0.0
0
LINE
8
00_ALUMINIO
10
208.825396
20
4.121381
30
0.0
11
208.712507
21
0.888691
31
0.0
0
ARC
8
00_ALUMINIO
10
207.962964
20
0.914866
30
0.0
40
0.750000
50
262.333046
51
358.000000
0
ARC
8
00_ALUMINIO
10
207.762842
20
0.914866
30
0.0
40
0.750000
50
178.000000
51
277.666954
0
LINE
8
00_ALUMINIO
10
207.013299
20
0.941040
30
0.0
11
207.165545
21
5.300781
31
0.0
0
ARC
8
00_ALUMINIO
10
206.965667
20
5.307761
30
0.0
40
0.200000
50
358.000000
51
73.873357
0
LINE
8
00_ALUMINIO
10
207.021219
20
5.499891
30
0.0
11
205.826898
21
5.845215
31
0.0
0
ARC
8
00_ALUMINIO
10
205.549137
20
4.884565
30
0.0
40
1.000000
50
73.873357
51
132.000000
0
LINE
8
00_ALUMINIO
10
204.880006
20
5.627710
30
0.0
11
204.206981
21
5.021715
31
0.0
0
ARC
8
00_ALUMINIO
10
204.006242
20
5.244659
30
0.0
40
0.300000
50
270.000000
51
312.000000
0
LINE
8
00_ALUMINIO
10
204.006242
20
4.944659
30
0.0
11
202.641683
21
4.944659
31
0.0
0
ARC
8
00_ALUMINIO
10
202.641683
20
5.244659
30
0.0
40
0.300000
50
150.607487
51
270.000000
0
LINE
8
00_ALUMINIO
10
202.380300
20
5.391896
30
0.0
11
203.794325
21
7.902152
31
0.0
0
ARC
8
00_ALUMINIO
10
204.055708
20
7.754915
30
0.0
40
0.300000
50
119.000000
51
150.607487
0
LINE
8
00_ALUMINIO
10
203.910265
20
8.017301
30
0.0
11
204.960205
21
8.599292
31
0.0
0
ARC
8
00_ALUMINIO
10
205.057167
20
8.424368
30
0.0
40
0.200000
50
359.000000
51
119.000000
0
LINE
8
00_ALUMINIO
10
205.257136
20
8.420878
30
0.0
11
205.253803
21
8.229907
31
0.0
0
ARC
8
00_ALUMINIO
10
205.453773
20
8.226416
30
0.0
40
0.200000
50
179.000000
51
231.059362
0
LINE
8
00_ALUMINIO
10
205.328070
20
8.070857
30
0.0
11
206.988005
21
6.729513
31
0.0
0
LINE
8
00_ALUMINIO
10
206.988005
20
6.729513
30
0.0
11
207.176270
21
6.729513
31
0.0
0
ARC
8
00_ALUMINIO
10
207.176270
20
7.029513
30
0.0
40
0.300000
50
270.000000
51
90.000000
0
LINE
8
00_ALUMINIO
10
207.176270
20
7.329513
30
0.0
11
207.176270
21
11.829513
31
0.0
0
ARC
8
00_ALUMINIO
10
206.976270
20
11.829513
30
0.0
40
0.200000
50
0.000000
51
90.000000
0
LINE
8
00_ALUMINIO
10
206.976270
20
12.029513
30
0.0
11
206.908381
21
12.029513
31
0.0
0
ARC
8
00_ALUMINIO
10
206.908381
20
11.729513
30
0.0
40
0.300000
50
90.000000
51
121.380132
0
LINE
8
00_ALUMINIO
10
206.752167
20
11.985632
30
0.0
11
205.070644
21
10.960026
31
0.0
0
ARC
8
00_ALUMINIO
10
204.876270
20
11.007130
30
0.0
40
0.200000
50
180.000000
51
346.377786
0
LINE
8
00_ALUMINIO
10
204.676270
20
11.007130
30
0.0
11
204.676270
21
12.172561
31
0.0
0
ARC
8
00_ALUMINIO
10
205.426270
20
12.172561
30
0.0
40
0.750000
50
121.380132
51
180.000000
0
LINE
8
00_ALUMINIO
10
205.035735
20
12.812860
30
0.0
11
206.716494
21
13.838000
31
0.0
0
ARC
8
00_ALUMINIO
10
206.456137
20
14.264866
30
0.0
40
0.500000
50
301.380132
51
58.619868
0
LINE
8
00_ALUMINIO
10
206.716494
20
14.691731
30
0.0
11
205.035735
21
15.716871
31
0.0
0
ARC
8
00_ALUMINIO
10
205.426270
20
16.357170
30
0.0
40
0.750000
50
180.000000
51
238.619868
0
LINE
8
00_ALUMINIO
10
204.676270
20
16.357170
30
0.0
11
204.676270
21
17.522601
31
0.0
0
ARC
8
00_ALUMINIO
10
204.876270
20
17.522601
30
0.0
40
0.200000
50
13.622214
51
180.000000
0
LINE
8
00_ALUMINIO
10
205.070644
20
17.569705
30
0.0
11
206.752167
21
16.544099
31
0.0
0
ARC
8
00_ALUMINIO
10
206.908381
20
16.800219
30
0.0
40
0.300000
50
238.619868
51
270.000000
0
LINE
8
00_ALUMINIO
10
206.908381
20
16.500219
30
0.0
11
206.976270
21
16.500219
31
0.0
0
ARC
8
00_ALUMINIO
10
206.976270
20
16.700219
30
0.0
40
0.200000
50
270.000000
51
0.000000
0
LINE
8
00_ALUMINIO
10
207.176270
20
16.700219
30
0.0
11
207.176270
21
21.200219
31
0.0
0
ARC
8
00_ALUMINIO
10
207.176270
20
21.500219
30
0.0
40
0.300000
50
270.000000
51
90.000000
0
LINE
8
00_ALUMINIO
10
207.176270
20
21.800219
30
0.0
11
206.988005
21
21.800219
31
0.0
0
LINE
8
00_ALUMINIO
10
206.988005
20
21.800219
30
0.0
11
205.328070
21
20.458875
31
0.0
0
ARC
8
00_ALUMINIO
10
205.453773
20
20.303315
30
0.0
40
0.200000
50
128.940638
51
225.860382
0
ARC
8
00_ALUMINIO
10
205.125628
20
20.063216
30
0.0
40
0.212120
50
218.752319
51
27.081748
0
LINE
8
00_ALUMINIO
10
204.960205
20
19.930439
30
0.0
11
203.910265
21
20.512430
31
0.0
0
ARC
8
00_ALUMINIO
10
204.055708
20
20.774816
30
0.0
40
0.300000
50
209.392513
51
241.000000
0
LINE
8
00_ALUMINIO
10
203.794325
20
20.627579
30
0.0
11
202.380300
21
23.137836
31
0.0
0
ARC
8
00_ALUMINIO
10
202.641683
20
23.285073
30
0.0
40
0.300000
50
90.000000
51
209.392513
0
LINE
8
00_ALUMINIO
10
202.641683
20
23.585073
30
0.0
11
204.006242
21
23.585073
31
0.0
0
ARC
8
00_ALUMINIO
10
204.006242
20
23.285073
30
0.0
40
0.300000
50
48.000000
51
90.000000
0
LINE
8
00_ALUMINIO
10
204.206981
20
23.508016
30
0.0
11
204.880006
21
22.902021
31
0.0
0
ARC
8
00_ALUMINIO
10
205.549137
20
23.645166
30
0.0
40
1.000000
50
228.000000
51
286.126643
0
LINE
8
00_ALUMINIO
10
205.826898
20
22.684516
30
0.0
11
206.959598
21
23.012024
31
0.0
0
ARC
8
00_ALUMINIO
10
206.876270
20
23.300219
30
0.0
40
0.300000
50
286.126643
51
344.293719
0
ARC
8
00_ALUMINIO
10
207.357601
20
23.164866
30
0.0
40
0.200000
50
90.000000
51
164.293719
0
LINE
8
00_ALUMINIO
10
207.357601
20
23.364866
30
0.0
11
211.276413
21
23.364866
31
0.0
0
LINE
8
00_ALUMINIO
10
211.276413
20
23.364866
30
0.0
11
211.576413
21
23.064866
31
0.0
0
LINE
8
00_ALUMINIO
10
211.576413
20
23.064866
30
0.0
11
211.876413
21
23.364866
31
0.0
0
LINE
8
00_ALUMINIO
10
211.876413
20
23.364866
30
0.0
11
215.476413
21
23.364866
31
0.0
0
ARC
8
00_ALUMINIO
10
215.476413
20
22.864866
30
0.0
40
0.500000
50
0.000000
51
90.000000
0
LINE
8
00_ALUMINIO
10
215.976413
20
22.864866
30
0.0
11
215.976413
21
21.864866
31
0.0
0
LINE
8
00_ALUMINIO
10
215.976413
20
21.864866
30
0.0
11
215.676413
21
21.564866
31
0.0
0
LINE
8
00_ALUMINIO
10
215.676413
20
21.564866
30
0.0
11
215.976413
21
21.264866
31
0.0
0
LINE
8
00_ALUMINIO
10
215.976413
20
21.264866
30
0.0
11
215.676413
21
20.964866
31
0.0
0
LINE
8
00_ALUMINIO
10
215.676413
20
20.964866
30
0.0
11
215.976413
21
20.664866
31
0.0
0
LINE
8
00_ALUMINIO
10
215.976413
20
20.664866
30
0.0
11
215.676413
21
20.364866
31
0.0
0
LINE
8
00_ALUMINIO
10
215.676413
20
20.364866
30
0.0
11
215.976413
21
20.064866
31
0.0
0
LINE
8
00_ALUMINIO
10
215.976413
20
20.064866
30
0.0
11
215.676413
21
19.764866
31
0.0
0
LINE
8
00_ALUMINIO
10
215.676413
20
19.764866
30
0.0
11
215.976413
21
19.464866
31
0.0
0
LINE
8
00_ALUMINIO
10
215.976413
20
19.464866
30
0.0
11
215.676413
21
19.164866
31
0.0
0
LINE
8
00_ALUMINIO
10
215.676413
20
19.164866
30
0.0
11
215.976413
21
18.864866
31
0.0
0
LINE
8
00_ALUMINIO
10
215.976413
20
18.864866
30
0.0
11
215.676413
21
18.564866
31
0.0
0
LINE
8
00_ALUMINIO
10
215.676413
20
18.564866
30
0.0
11
215.976413
21
18.264866
31
0.0
0
LINE
8
00_ALUMINIO
10
215.976413
20
18.264866
30
0.0
11
215.676413
21
17.964866
31
0.0
0
LINE
8
00_ALUMINIO
10
215.676413
20
17.964866
30
0.0
11
215.976413
21
17.664866
31
0.0
0
LINE
8
00_ALUMINIO
10
215.976413
20
17.664866
30
0.0
11
215.676413
21
17.364866
31
0.0
0
LINE
8
00_ALUMINIO
10
215.676413
20
17.364866
30
0.0
11
215.976413
21
17.064866
31
0.0
0
LINE
8
00_ALUMINIO
10
215.976413
20
17.064866
30
0.0
11
215.676413
21
16.764866
31
0.0
0
LINE
8
00_ALUMINIO
10
215.676413
20
16.764866
30
0.0
11
215.976413
21
16.464866
31
0.0
0
LINE
8
00_ALUMINIO
10
215.976413
20
16.464866
30
0.0
11
215.676413
21
16.164866
31
0.0
0
LINE
8
00_ALUMINIO
10
215.676413
20
16.164866
30
0.0
11
215.976413
21
15.864866
31
0.0
0
LINE
8
00_ALUMINIO
10
215.976413
20
15.864866
30
0.0
11
215.676413
21
15.564866
31
0.0
0
LINE
8
00_ALUMINIO
10
215.676413
20
15.564866
30
0.0
11
215.976413
21
15.264866
31
0.0
0
LINE
8
00_ALUMINIO
10
215.976413
20
15.264866
30
0.0
11
215.676413
21
14.964866
31
0.0
0
LINE
8
00_ALUMINIO
10
215.676413
20
14.964866
30
0.0
11
215.976413
21
14.664866
31
0.0
0
LINE
8
00_ALUMINIO
10
215.976413
20
14.664866
30
0.0
11
215.676413
21
14.364866
31
0.0
0
LINE
8
00_ALUMINIO
10
215.676413
20
14.364866
30
0.0
11
215.976413
21
14.064866
31
0.0
0
LINE
8
00_ALUMINIO
10
215.976413
20
14.064866
30
0.0
11
215.676413
21
13.764866
31
0.0
0
LINE
8
00_ALUMINIO
10
208.776413
20
8.364866
30
0.0
11
208.776413
21
18.164866
31
0.0
0
LINE
8
00_ALUMINIO
10
208.776413
20
18.164866
30
0.0
11
210.026413
21
18.164866
31
0.0
0
ARC
8
00_ALUMINIO
10
210.026413
20
18.464866
30
0.0
40
0.300000
50
270.000000
51
0.000000
0
LINE
8
00_ALUMINIO
10
210.326413
20
18.464866
30
0.0
11
210.326413
21
19.164866
31
0.0
0
ARC
8
00_ALUMINIO
10
210.026413
20
19.164866
30
0.0
40
0.300000
50
0.000000
51
90.000000
0
LINE
8
00_ALUMINIO
10
210.026413
20
19.464866
30
0.0
11
209.076413
21
19.464866
31
0.0
0
ARC
8
00_ALUMINIO
10
209.076413
20
19.764866
30
0.0
40
0.300000
50
180.000000
51
270.000000
0
LINE
8
00_ALUMINIO
10
208.776413
20
19.764866
30
0.0
11
208.776413
21
21.364866
31
0.0
0
ARC
8
00_ALUMINIO
10
209.076413
20
21.364866
30
0.0
40
0.300000
50
89.999999
51
180.000000
0
LINE
8
00_ALUMINIO
10
209.076413
20
21.664866
30
0.0
11
214.076413
21
21.664866
31
0.0
0
ARC
8
00_ALUMINIO
10
214.076413
20
21.364866
30
0.0
40
0.300000
50
0.000000
51
89.999999
0
LINE
8
00_ALUMINIO
10
214.376413
20
21.364866
30
0.0
11
214.376413
21
19.764866
31
0.0
0
ARC
8
00_ALUMINIO
10
214.076413
20
19.764866
30
0.0
40
0.300000
50
270.000000
51
0.000000
0
LINE
8
00_ALUMINIO
10
214.076413
20
19.464866
30
0.0
11
213.126413
21
19.464866
31
0.0
0
ARC
8
00_ALUMINIO
10
213.126413
20
19.164866
30
0.0
40
0.300000
50
90.000000
51
180.000000
0
LINE
8
00_ALUMINIO
10
212.826413
20
19.164866
30
0.0
11
212.826413
21
18.464866
31
0.0
0
ARC
8
00_ALUMINIO
10
213.126413
20
18.464866
30
0.0
40
0.300000
50
180.000000
51
270.000000
0
LINE
8
00_ALUMINIO
10
213.126413
20
18.164866
30
0.0
11
214.376413
21
18.164866
31
0.0
0
LINE
8
00_ALUMINIO
10
214.376413
20
18.164866
30
0.0
11
214.376413
21
8.364866
31
0.0
0
LINE
8
00_ALUMINIO
10
214.376413
20
8.364866
30
0.0
11
208.776413
21
8.364866
31
0.0
0
LINE
8
00_ALUMINIO
10
189.076364
20
6.764866
30
0.0
11
185.376413
21
6.764866
31
0.0
0
ARC
8
00_ALUMINIO
10
185.376413
20
7.264866
30
0.0
40
0.500000
50
180.000000
51
270.000000
0
LINE
8
00_ALUMINIO
10
184.876413
20
7.264866
30
0.0
11
184.876413
21
8.764866
31
0.0
0
ARC
8
00_ALUMINIO
10
184.376413
20
8.764866
30
0.0
40
0.500000
50
0.000000
51
90.000000
0
LINE
8
00_ALUMINIO
10
184.376413
20
9.264866
30
0.0
11
183.976413
21
9.264866
31
0.0
0
ARC
8
00_ALUMINIO
10
183.976413
20
8.964866
30
0.0
40
0.300000
50
90.000000
51
180.000000
0
LINE
8
00_ALUMINIO
10
183.676413
20
8.964866
30
0.0
11
183.676413
21
6.764866
31
0.0
0
LINE
8
00_ALUMINIO
10
183.676413
20
6.764866
30
0.0
11
158.178099
21
6.764866
31
0.0
0
LINE
8
00_ALUMINIO
10
158.178099
20
6.764866
30
0.0
11
158.178099
21
9.764866
31
0.0
0
LINE
8
00_ALUMINIO
10
158.178099
20
9.764866
30
0.0
11
157.576317
21
9.764866
31
0.0
0
ARC
8
00_ALUMINIO
10
157.576317
20
10.064866
30
0.0
40
0.300000
50
180.000000
51
270.000000
0
LINE
8
00_ALUMINIO
10
157.276317
20
10.064866
30
0.0
11
157.276317
21
35.064866
31
0.0
0
ARC
8
00_ALUMINIO
10
157.576317
20
35.064866
30
0.0
40
0.300000
50
90.000000
51
180.000000
0
LINE
8
00_ALUMINIO
10
157.576317
20
35.364866
30
0.0
11
158.178099
21
35.364866
31
0.0
0
LINE
8
00_ALUMINIO
10
158.178099
20
35.364866
30
0.0
11
158.178099
21
38.364866
31
0.0
0
LINE
8
00_ALUMINIO
10
158.178099
20
38.364866
30
0.0
11
161.676317
21
38.364866
31
0.0
0
LINE
8
00_ALUMINIO
10
161.676317
20
38.364866
30
0.0
11
161.676317
21
38.764866
31
0.0
0
LINE
8
00_ALUMINIO
10
161.676317
20
38.764866
30
0.0
11
180.176413
21
38.764866
31
0.0
0
LINE
8
00_ALUMINIO
10
180.176413
20
38.764866
30
0.0
11
180.176413
21
38.364866
31
0.0
0
LINE
8
00_ALUMINIO
10
180.176413
20
38.364866
30
0.0
11
183.676413
21
38.364866
31
0.0
0
LINE
8
00_ALUMINIO
10
183.676413
20
38.364866
30
0.0
11
183.676413
21
32.314866
31
0.0
0
ARC
8
00_ALUMINIO
10
185.176413
20
32.314866
30
0.0
40
1.500000
50
180.000000
51
270.000000
0
LINE
8
00_ALUMINIO
10
185.176413
20
30.814866
30
0.0
11
185.376413
21
30.814866
31
0.0
0
ARC
8
00_ALUMINIO
10
185.376413
20
30.514866
30
0.0
40
0.300000
50
0.000000
51
90.000000
0
LINE
8
00_ALUMINIO
10
185.676413
20
30.514866
30
0.0
11
185.676413
21
29.981297
31
0.0
0
ARC
8
00_ALUMINIO
10
185.376413
20
29.981297
30
0.0
40
0.300000
50
279.594068
51
0.000000
0
ARC
8
00_ALUMINIO
10
185.776413
20
27.614866
30
0.0
40
2.100000
50
99.594068
51
180.000000
0
LINE
8
00_ALUMINIO
10
183.676413
20
27.614866
30
0.0
11
183.676413
21
22.764866
31
0.0
0
ARC
8
00_ALUMINIO
10
184.676413
20
22.764866
30
0.0
40
1.000000
50
180.000000
51
270.000000
0
LINE
8
00_ALUMINIO
10
184.676413
20
21.764866
30
0.0
11
189.076364
21
21.764866
31
0.0
0
ARC
8
00_ALUMINIO
10
189.076364
20
21.264866
30
0.0
40
0.500000
50
0.000000
51
90.000000
0
LINE
8
00_ALUMINIO
10
189.576364
20
21.264866
30
0.0
11
189.576364
21
7.264866
31
0.0
0
ARC
8
00_ALUMINIO
10
189.076364
20
7.264866
30
0.0
40
0.500000
50
270.000000
51
0.000000
0
LINE
8
00_ALUMINIO
10
156.576413
20
-11.535134
30
0.0
11
158.276508
21
-11.535134
31
0.0
0
ARC
8
00_ALUMINIO
10
158.276508
20
-10.535134
30
0.0
40
1.000000
50
270.000000
51
0.000000
0
LINE
8
00_ALUMINIO
10
159.276508
20
-10.535134
30
0.0
11
159.276508
21
-8.726844
31
0.0
0
ARC
8
00_ALUMINIO
10
158.976508
20
-8.726844
30
0.0
40
0.300000
50
0.000000
51
90.000000
0
ARC
8
00_ALUMINIO
10
158.938291
20
-8.724400
30
0.0
40
0.300000
50
82.681036
51
165.482756
0
LINE
8
00_ALUMINIO
10
158.647869
20
-8.649198
30
0.0
11
158.500065
21
-9.200809
31
0.0
0
LINE
8
00_ALUMINIO
10
158.500065
20
-9.200809
30
0.0
11
158.366652
21
-9.200809
31
0.0
0
ARC
8
00_ALUMINIO
10
158.366652
20
-9.312344
30
0.0
40
0.111536
50
90.000000
51
210.000000
0
LINE
8
00_ALUMINIO
10
158.270059
20
-9.368112
30
0.0
11
158.396538
21
-9.587179
31
0.0
0
LINE
8
00_ALUMINIO
10
158.396538
20
-9.587179
30
0.0
11
158.336088
21
-9.812780
31
0.0
0
ARC
8
00_ALUMINIO
10
158.046310
20
-9.735134
30
0.0
40
0.300000
50
270.000000
51
345.000000
0
LINE
8
00_ALUMINIO
10
158.046310
20
-10.035134
30
0.0
11
157.576508
21
-10.035134
31
0.0
0
ARC
8
00_ALUMINIO
10
157.576508
20
-9.735134
30
0.0
40
0.300000
50
180.000000
51
270.000000
0
LINE
8
00_ALUMINIO
10
157.276508
20
-9.735134
30
0.0
11
157.276508
21
4.664866
31
0.0
0
ARC
8
00_ALUMINIO
10
157.576508
20
4.664866
30
0.0
40
0.300000
50
90.000000
51
180.000000
0
LINE
8
00_ALUMINIO
10
157.576508
20
4.964866
30
0.0
11
158.046310
21
4.964866
31
0.0
0
ARC
8
00_ALUMINIO
10
158.046310
20
4.664866
30
0.0
40
0.300000
50
15.000000
51
90.000000
0
LINE
8
00_ALUMINIO
10
158.336088
20
4.742511
30
0.0
11
158.396538
21
4.516910
31
0.0
0
LINE
8
00_ALUMINIO
10
158.396538
20
4.516910
30
0.0
11
158.270059
21
4.297843
31
0.0
0
ARC
8
00_ALUMINIO
10
158.366652
20
4.242075
30
0.0
40
0.111536
50
150.000000
51
270.000000
0
LINE
8
00_ALUMINIO
10
158.366652
20
4.130540
30
0.0
11
158.500065
21
4.130540
31
0.0
0
LINE
8
00_ALUMINIO
10
158.500065
20
4.130540
30
0.0
11
158.544458
21
3.964866
31
0.0
0
LINE
8
00_ALUMINIO
10
158.544458
20
3.964866
30
0.0
11
158.976508
21
3.964866
31
0.0
0
ARC
8
00_ALUMINIO
10
158.976508
20
4.264866
30
0.0
40
0.300000
50
270.000000
51
0.000000
0
LINE
8
00_ALUMINIO
10
159.276508
20
4.264866
30
0.0
11
159.276508
21
4.664866
31
0.0
0
ARC
8
00_ALUMINIO
10
159.776508
20
4.664866
30
0.0
40
0.500000
50
90.000000
51
180.000000
0
LINE
8
00_ALUMINIO
10
159.776508
20
5.164866
30
0.0
11
161.476413
21
5.164866
31
0.0
0
ARC
8
00_ALUMINIO
10
161.476413
20
4.664866
30
0.0
40
0.500000
50
0.000000
51
90.000000
0
LINE
8
00_ALUMINIO
10
161.976413
20
4.664866
30
0.0
11
161.976413
21
0.664866
31
0.0
0
ARC
8
00_ALUMINIO
10
162.476413
20
0.664866
30
0.0
40
0.500000
50
180.000000
51
270.000000
0
LINE
8
00_ALUMINIO
10
162.476413
20
0.164866
30
0.0
11
165.676413
21
0.164866
31
0.0
0
ARC
8
00_ALUMINIO
10
165.676413
20
0.464866
30
0.0
40
0.300000
50
270.000000
51
0.000000
0
LINE
8
00_ALUMINIO
10
165.976413
20
0.464866
30
0.0
11
165.976413
21
1.364866
31
0.0
0
ARC
8
00_ALUMINIO
10
165.676413
20
1.364866
30
0.0
40
0.300000
50
0.000000
51
90.000000
0
LINE
8
00_ALUMINIO
10
165.676413
20
1.664866
30
0.0
11
163.776413
21
1.664866
31
0.0
0
ARC
8
00_ALUMINIO
10
163.776413
20
1.964866
30
0.0
40
0.300000
50
180.000000
51
270.000000
0
LINE
8
00_ALUMINIO
10
163.476413
20
1.964866
30
0.0
11
163.476413
21
4.364866
31
0.0
0
ARC
8
00_ALUMINIO
10
163.776413
20
4.364866
30
0.0
40
0.300000
50
90.000000
51
180.000000
0
LINE
8
00_ALUMINIO
10
163.776413
20
4.664866
30
0.0
11
166.676413
21
4.664866
31
0.0
0
ARC
8
00_ALUMINIO
10
166.676413
20
4.964866
30
0.0
40
0.300000
50
270.000000
51
0.000000
0
LINE
8
00_ALUMINIO
10
166.976413
20
4.964866
30
0.0
11
166.976413
21
5.164866
31
0.0
0
LINE
8
00_ALUMINIO
10
166.976413
20
5.164866
30
0.0
11
179.976413
21
5.164866
31
0.0
0
LINE
8
00_ALUMINIO
10
179.976413
20
5.164866
30
0.0
11
179.976413
21
4.964866
31
0.0
0
ARC
8
00_ALUMINIO
10
180.276413
20
4.964866
30
0.0
40
0.300000
50
180.000000
51
270.000000
0
LINE
8
00_ALUMINIO
10
180.276413
20
4.664866
30
0.0
11
183.176413
21
4.664866
31
0.0
0
ARC
8
00_ALUMINIO
10
183.176413
20
4.364866
30
0.0
40
0.300000
50
0.000000
51
90.000000
0
LINE
8
00_ALUMINIO
10
183.476413
20
4.364866
30
0.0
11
183.476413
21
1.964866
31
0.0
0
ARC
8
00_ALUMINIO
10
183.176413
20
1.964866
30
0.0
40
0.300000
50
270.000000
51
0.000000
0
LINE
8
00_ALUMINIO
10
183.176413
20
1.664866
30
0.0
11
181.276413
21
1.664866
31
0.0
0
ARC
8
00_ALUMINIO
10
181.276413
20
1.364866
30
0.0
40
0.300000
50
90.000000
51
180.000000
0
LINE
8
00_ALUMINIO
10
180.976413
20
1.364866
30
0.0
11
180.976413
21
0.464866
31
0.0
0
ARC
8
00_ALUMINIO
10
181.276413
20
0.464866
30
0.0
40
0.300000
50
180.000000
51
270.000000
0
LINE
8
00_ALUMINIO
10
181.276413
20
0.164866
30
0.0
11
184.476413
21
0.164866
31
0.0
0
ARC
8
00_ALUMINIO
10
184.476413
20
0.664866
30
0.0
40
0.500000
50
270.000000
51
0.000000
0
LINE
8
00_ALUMINIO
10
184.976413
20
0.664866
30
0.0
11
184.976413
21
4.664866
31
0.0
0
ARC
8
00_ALUMINIO
10
185.476413
20
4.664866
30
0.0
40
0.500000
50
90.000000
51
180.000000
0
LINE
8
00_ALUMINIO
10
185.476413
20
5.164866
30
0.0
11
190.995033
21
5.164866
31
0.0
0
ARC
8
00_ALUMINIO
10
190.995033
20
5.364866
30
0.0
40
0.200000
50
270.000000
51
344.293719
0
ARC
8
00_ALUMINIO
10
191.476364
20
5.229513
30
0.0
40
0.300000
50
106.126643
51
164.293719
0
LINE
8
00_ALUMINIO
10
191.393035
20
5.517708
30
0.0
11
192.525735
21
5.845215
31
0.0
0
ARC
8
00_ALUMINIO
10
192.803497
20
4.884565
30
0.0
40
1.000000
50
48.000000
51
106.126643
0
LINE
8
00_ALUMINIO
10
193.472627
20
5.627710
30
0.0
11
194.145653
21
5.021715
31
0.0
0
ARC
8
00_ALUMINIO
10
194.346392
20
5.244659
30
0.0
40
0.300000
50
228.000000
51
270.000000
0
LINE
8
00_ALUMINIO
10
194.346392
20
4.944659
30
0.0
11
195.710950
21
4.944659
31
0.0
0
ARC
8
00_ALUMINIO
10
195.710950
20
5.244659
30
0.0
40
0.300000
50
270.000000
51
29.392513
0
LINE
8
00_ALUMINIO
10
195.972334
20
5.391896
30
0.0
11
194.558309
21
7.902152
31
0.0
0
ARC
8
00_ALUMINIO
10
194.296925
20
7.754915
30
0.0
40
0.300000
50
29.392513
51
61.000000
0
LINE
8
00_ALUMINIO
10
194.442368
20
8.017301
30
0.0
11
193.392429
21
8.599292
31
0.0
0
ARC
8
00_ALUMINIO
10
193.227005
20
8.466515
30
0.0
40
0.212120
50
38.752319
51
207.081748
0
ARC
8
00_ALUMINIO
10
192.898861
20
8.226416
30
0.0
40
0.200000
50
308.940638
51
45.860382
0
LINE
8
00_ALUMINIO
10
193.024564
20
8.070857
30
0.0
11
191.364629
21
6.729513
31
0.0
0
LINE
8
00_ALUMINIO
10
191.364629
20
6.729513
30
0.0
11
191.176364
21
6.729513
31
0.0
0
ARC
8
00_ALUMINIO
10
191.176364
20
7.029513
30
0.0
40
0.300000
50
90.000000
51
270.000000
0
LINE
8
00_ALUMINIO
10
191.176364
20
7.329513
30
0.0
11
191.176364
21
11.829513
31
0.0
0
ARC
8
00_ALUMINIO
10
191.376364
20
11.829513
30
0.0
40
0.200000
50
90.000000
51
180.000000
0
LINE
8
00_ALUMINIO
10
191.376364
20
12.029513
30
0.0
11
191.444252
21
12.029513
31
0.0
0
ARC
8
00_ALUMINIO
10
191.444252
20
11.729513
30
0.0
40
0.300000
50
58.619868
51
90.000000
0
LINE
8
00_ALUMINIO
10
191.600466
20
11.985632
30
0.0
11
193.281990
21
10.960026
31
0.0
0
ARC
8
00_ALUMINIO
10
193.476364
20
11.007130
30
0.0
40
0.200000
50
193.622214
51
0.000000
0
LINE
8
00_ALUMINIO
10
193.676364
20
11.007130
30
0.0
11
193.676364
21
12.172561
31
0.0
0
ARC
8
00_ALUMINIO
10
192.926364
20
12.172561
30
0.0
40
0.750000
50
0.000000
51
58.619868
0
LINE
8
00_ALUMINIO
10
193.316899
20
12.812860
30
0.0
11
191.636139
21
13.838000
31
0.0
0
ARC
8
00_ALUMINIO
10
191.896496
20
14.264866
30
0.0
40
0.500000
50
121.380132
51
238.619868
0
LINE
8
00_ALUMINIO
10
191.636139
20
14.691731
30
0.0
11
193.316899
21
15.716871
31
0.0
0
ARC
8
00_ALUMINIO
10
192.926364
20
16.357170
30
0.0
40
0.750000
50
301.380132
51
0.000000
0
LINE
8
00_ALUMINIO
10
193.676364
20
16.357170
30
0.0
11
193.676364
21
17.522601
31
0.0
0
ARC
8
00_ALUMINIO
10
193.476364
20
17.522601
30
0.0
40
0.200000
50
0.000000
51
166.377786
0
LINE
8
00_ALUMINIO
10
193.281990
20
17.569705
30
0.0
11
191.600466
21
16.544099
31
0.0
0
ARC
8
00_ALUMINIO
10
191.444252
20
16.800219
30
0.0
40
0.300000
50
270.000000
51
301.380132
0
LINE
8
00_ALUMINIO
10
191.444252
20
16.500219
30
0.0
11
191.376364
21
16.500219
31
0.0
0
ARC
8
00_ALUMINIO
10
191.376364
20
16.700219
30
0.0
40
0.200000
50
180.000000
51
270.000000
0
LINE
8
00_ALUMINIO
10
191.176364
20
16.700219
30
0.0
11
191.176364
21
21.200219
31
0.0
0
ARC
8
00_ALUMINIO
10
191.176364
20
21.500219
30
0.0
40
0.300000
50
90.000000
51
270.000000
0
LINE
8
00_ALUMINIO
10
191.176364
20
21.800219
30
0.0
11
191.364629
21
21.800219
31
0.0
0
LINE
8
00_ALUMINIO
10
191.364629
20
21.800219
30
0.0
11
193.024564
21
20.458875
31
0.0
0
ARC
8
00_ALUMINIO
10
192.898861
20
20.303315
30
0.0
40
0.200000
50
359.000000
51
51.059362
0
LINE
8
00_ALUMINIO
10
193.098831
20
20.299825
30
0.0
11
193.095497
21
20.108853
31
0.0
0
ARC
8
00_ALUMINIO
10
193.295467
20
20.105363
30
0.0
40
0.200000
50
179.000000
51
299.000000
0
LINE
8
00_ALUMINIO
10
193.392429
20
19.930439
30
0.0
11
194.442368
21
20.512430
31
0.0
0
ARC
8
00_ALUMINIO
10
194.296925
20
20.774816
30
0.0
40
0.300000
50
299.000000
51
330.607487
0
LINE
8
00_ALUMINIO
10
194.558309
20
20.627579
30
0.0
11
195.972334
21
23.137836
31
0.0
0
ARC
8
00_ALUMINIO
10
195.710950
20
23.285073
30
0.0
40
0.300000
50
330.607487
51
90.000000
0
LINE
8
00_ALUMINIO
10
195.710950
20
23.585073
30
0.0
11
194.346392
21
23.585073
31
0.0
0
ARC
8
00_ALUMINIO
10
194.346392
20
23.285073
30
0.0
40
0.300000
50
90.000000
51
132.000000
0
LINE
8
00_ALUMINIO
10
194.145653
20
23.508016
30
0.0
11
193.472627
21
22.902021
31
0.0
0
ARC
8
00_ALUMINIO
10
192.803497
20
23.645166
30
0.0
40
1.000000
50
253.873357
51
312.000000
0
LINE
8
00_ALUMINIO
10
192.525735
20
22.684516
30
0.0
11
191.393035
21
23.012024
31
0.0
0
ARC
8
00_ALUMINIO
10
191.476364
20
23.300219
30
0.0
40
0.300000
50
195.706281
51
253.873357
0
ARC
8
00_ALUMINIO
10
190.995033
20
23.164866
30
0.0
40
0.200000
50
15.706281
51
90.000000
0
LINE
8
00_ALUMINIO
10
190.995033
20
23.364866
30
0.0
11
185.576413
21
23.364866
31
0.0
0
ARC
8
00_ALUMINIO
10
185.576413
20
23.664866
30
0.0
40
0.300000
50
180.000000
51
270.000000
0
LINE
8
00_ALUMINIO
10
185.276413
20
23.664866
30
0.0
11
185.276413
21
27.614866
31
0.0
0
ARC
8
00_ALUMINIO
10
185.776413
20
27.614866
30
0.0
40
0.500000
50
90.000000
51
180.000000
0
LINE
8
00_ALUMINIO
10
185.776413
20
28.114866
30
0.0
11
187.176413
21
28.114866
31
0.0
0
ARC
8
00_ALUMINIO
10
187.176413
20
27.614866
30
0.0
40
0.500000
50
0.000000
51
90.000000
0
LINE
8
00_ALUMINIO
10
187.676413
20
27.614866
30
0.0
11
187.676413
21
26.964866
31
0.0
0
LINE
8
00_ALUMINIO
10
187.676413
20
26.964866
30
0.0
11
187.826413
21
26.964866
31
0.0
0
ARC
8
00_ALUMINIO
10
187.826413
20
27.714866
30
0.0
40
0.750000
50
270.000000
51
0.000000
0
LINE
8
00_ALUMINIO
10
188.576413
20
27.714866
30
0.0
11
188.576413
21
28.714866
31
0.0
0
ARC
8
00_ALUMINIO
10
187.576413
20
28.714866
30
0.0
40
1.000000
50
0.000000
51
90.000000
0
ARC
8
00_ALUMINIO
10
187.576413
20
30.014866
30
0.0
40
0.300000
50
180.000000
51
270.000000
0
LINE
8
00_ALUMINIO
10
187.276413
20
30.014866
30
0.0
11
187.276413
21
30.514866
31
0.0
0
ARC
8
00_ALUMINIO
10
187.576413
20
30.514866
30
0.0
40
0.300000
50
90.000000
51
180.000000
0
LINE
8
00_ALUMINIO
10
187.576413
20
30.814866
30
0.0
11
188.176413
21
30.814866
31
0.0
0
ARC
8
00_ALUMINIO
10
188.176413
20
31.814866
30
0.0
40
1.000000
50
270.000000
51
0.000000
0
LINE
8
00_ALUMINIO
10
189.176413
20
31.814866
30
0.0
11
189.176413
21
33.440601
31
0.0
0
ARC
8
00_ALUMINIO
10
188.876413
20
33.440601
30
0.0
40
0.300000
50
0.000000
51
45.000000
0
LINE
8
00_ALUMINIO
10
189.088545
20
33.652734
30
0.0
11
188.764281
21
33.976998
31
0.0
0
ARC
8
00_ALUMINIO
10
188.552149
20
33.764866
30
0.0
40
0.300000
50
45.000000
51
90.000000
0
LINE
8
00_ALUMINIO
10
188.552149
20
34.064866
30
0.0
11
188.176413
21
34.064866
31
0.0
0
LINE
8
00_ALUMINIO
10
188.176413
20
34.064866
30
0.0
11
188.176413
21
32.414866
31
0.0
0
ARC
8
00_ALUMINIO
10
187.876413
20
32.414866
30
0.0
40
0.300000
50
270.000000
51
0.000000
0
LINE
8
00_ALUMINIO
10
187.876413
20
32.114866
30
0.0
11
185.476413
21
32.114866
31
0.0
0
ARC
8
00_ALUMINIO
10
185.476413
20
32.314866
30
0.0
40
0.200000
50
180.000000
51
270.000000
0
LINE
8
00_ALUMINIO
10
185.276413
20
32.314866
30
0.0
11
185.276413
21
35.314866
31
0.0
0
LINE
8
00_ALUMINIO
10
185.276413
20
35.314866
30
0.0
11
184.976413
21
35.614866
31
0.0
0
LINE
8
00_ALUMINIO
10
184.976413
20
35.614866
30
0.0
11
185.276413
21
35.914866
31
0.0
0
LINE
8
00_ALUMINIO
10
185.276413
20
35.914866
30
0.0
11
185.276413
21
38.864866
31
0.0
0
ARC
8
00_ALUMINIO
10
185.476413
20
38.864866
30
0.0
40
0.200000
50
90.000000
51
180.000000
0
LINE
8
00_ALUMINIO
10
185.476413
20
39.064866
30
0.0
11
187.876413
21
39.064866
31
0.0
0
ARC
8
00_ALUMINIO
10
187.876413
20
38.764866
30
0.0
40
0.300000
50
0.000000
51
90.000000
0
LINE
8
00_ALUMINIO
10
188.176413
20
38.764866
30
0.0
11
188.176413
21
37.164866
31
0.0
0
LINE
8
00_ALUMINIO
10
188.176413
20
37.164866
30
0.0
11
188.552149
21
37.164866
31
0.0
0
ARC
8
00_ALUMINIO
10
188.552149
20
37.464866
30
0.0
40
0.300000
50
270.000000
51
315.000000
0
LINE
8
00_ALUMINIO
10
188.764281
20
37.252734
30
0.0
11
189.088545
21
37.576998
31
0.0
0
ARC
8
00_ALUMINIO
10
188.876413
20
37.789130
30
0.0
40
0.300000
50
315.000000
51
0.000000
0
LINE
8
00_ALUMINIO
10
189.176413
20
37.789130
30
0.0
11
189.176413
21
40.064866
31
0.0
0
ARC
8
00_ALUMINIO
10
188.876413
20
40.064866
30
0.0
40
0.300000
50
0.000000
51
90.000000
0
LINE
8
00_ALUMINIO
10
188.876413
20
40.364866
30
0.0
11
156.576413
21
40.364866
31
0.0
0
ARC
8
00_ALUMINIO
10
156.576413
20
39.364866
30
0.0
40
1.000000
50
90.000000
51
180.000000
0
LINE
8
00_ALUMINIO
10
155.576413
20
39.364866
30
0.0
11
155.576413
21
-10.535134
31
0.0
0
ARC
8
00_ALUMINIO
10
156.576413
20
-10.535134
30
0.0
40
1.000000
50
180.000000
51
270.000000
0
LINE
8
00_POLIAMIDAS
10
199.176317
20
23.250219
30
0.0
11
201.474540
21
23.250219
31
0.0
0
ARC
8
00_POLIAMIDAS
10
201.474540
20
22.850219
30
0.0
40
0.400000
50
32.000453
51
90.000000
0
LINE
8
00_POLIAMIDAS
10
201.813757
20
23.062190
30
0.0
11
203.793351
21
19.894233
31
0.0
0
ARC
8
00_POLIAMIDAS
10
203.962960
20
20.000218
30
0.0
40
0.200000
50
212.000453
51
270.000000
0
LINE
8
00_POLIAMIDAS
10
203.962960
20
19.800218
30
0.0
11
204.223521
21
19.800218
31
0.0
0
ARC
8
00_POLIAMIDAS
10
204.223521
20
20.600218
30
0.0
40
0.800000
50
270.000000
51
299.999696
0
LINE
8
00_POLIAMIDAS
10
204.623517
20
19.907395
30
0.0
11
206.469958
21
20.973425
31
0.0
0
ARC
8
00_POLIAMIDAS
10
206.569957
20
20.800220
30
0.0
40
0.200000
50
90.000000
51
119.999696
0
LINE
8
00_POLIAMIDAS
10
206.569957
20
21.000220
30
0.0
11
206.776270
21
21.000220
31
0.0
0
ARC
8
00_POLIAMIDAS
10
206.776270
20
20.600220
30
0.0
40
0.400000
50
0.000000
51
90.000000
0
LINE
8
00_POLIAMIDAS
10
207.176270
20
20.600220
30
0.0
11
207.176270
21
20.000218
31
0.0
0
LINE
8
00_POLIAMIDAS
10
207.176270
20
20.000218
30
0.0
11
207.076373
21
20.000218
31
0.0
0
LINE
8
00_POLIAMIDAS
10
207.076373
20
20.000218
30
0.0
11
207.076373
21
19.625219
31
0.0
0
ARC
8
00_POLIAMIDAS
10
206.876373
20
19.625219
30
0.0
40
0.200000
50
270.000000
51
0.000000
0
LINE
8
00_POLIAMIDAS
10
206.876373
20
19.425219
30
0.0
11
206.716791
21
19.425219
31
0.0
0
ARC
8
00_POLIAMIDAS
10
206.426317
20
18.900219
30
0.0
40
0.600000
50
61.044946
51
180.000000
0
ARC
8
00_POLIAMIDAS
10
206.426317
20
18.900219
30
0.0
40
0.600000
50
180.000000
51
298.955054
0
LINE
8
00_POLIAMIDAS
10
206.716791
20
18.375219
30
0.0
11
206.876373
21
18.375219
31
0.0
0
ARC
8
00_POLIAMIDAS
10
206.876373
20
18.175219
30
0.0
40
0.200000
50
0.000000
51
90.000000
0
LINE
8
00_POLIAMIDAS
10
207.076373
20
18.175219
30
0.0
11
207.076373
21
17.800221
31
0.0
0
LINE
8
00_POLIAMIDAS
10
207.076373
20
17.800221
30
0.0
11
207.176270
21
17.800221
31
0.0
0
LINE
8
00_POLIAMIDAS
10
207.176270
20
17.800221
30
0.0
11
207.176270
21
17.200219
31
0.0
0
ARC
8
00_POLIAMIDAS
10
206.776270
20
17.200219
30
0.0
40
0.400000
50
270.000000
51
0.000000
0
LINE
8
00_POLIAMIDAS
10
206.776270
20
16.800219
30
0.0
11
206.569957
21
16.800219
31
0.0
0
ARC
8
00_POLIAMIDAS
10
206.569957
20
17.000219
30
0.0
40
0.200000
50
240.000304
51
270.000000
0
LINE
8
00_POLIAMIDAS
10
206.469958
20
16.827013
30
0.0
11
204.623516
21
17.893043
31
0.0
0
ARC
8
00_POLIAMIDAS
10
204.223520
20
17.200221
30
0.0
40
0.800000
50
60.000304
51
90.000000
0
LINE
8
00_POLIAMIDAS
10
204.223520
20
18.000221
30
0.0
11
203.408653
21
18.000221
31
0.0
0
ARC
8
00_POLIAMIDAS
10
203.408653
20
19.000221
30
0.0
40
1.000000
50
211.999191
51
270.000000
0
LINE
8
00_POLIAMIDAS
10
202.560597
20
18.470314
30
0.0
11
200.816099
21
21.262183
31
0.0
0
ARC
8
00_POLIAMIDAS
10
200.476876
20
21.050220
30
0.0
40
0.400000
50
31.999191
51
90.000000
0
LINE
8
00_POLIAMIDAS
10
200.476876
20
21.450220
30
0.0
11
199.176317
21
21.450220
31
0.0
0
LINE
8
00_POLIAMIDAS
10
199.176317
20
21.450220
30
0.0
11
197.875757
21
21.450220
31
0.0
0
ARC
8
00_POLIAMIDAS
10
197.875757
20
21.050220
30
0.0
40
0.400000
50
90.000000
51
148.000809
0
LINE
8
00_POLIAMIDAS
10
197.536535
20
21.262183
30
0.0
11
195.792036
21
18.470314
31
0.0
0
ARC
8
00_POLIAMIDAS
10
194.943981
20
19.000221
30
0.0
40
1.000000
50
270.000000
51
328.000809
0
LINE
8
00_POLIAMIDAS
10
194.943981
20
18.000221
30
0.0
11
194.129113
21
18.000221
31
0.0
0
ARC
8
00_POLIAMIDAS
10
194.129113
20
17.200221
30
0.0
40
0.800000
50
90.000000
51
119.999696
0
LINE
8
00_POLIAMIDAS
10
193.729117
20
17.893043
30
0.0
11
191.882676
21
16.827013
31
0.0
0
ARC
8
00_POLIAMIDAS
10
191.782677
20
17.000219
30
0.0
40
0.200000
50
270.000000
51
299.999696
0
LINE
8
00_POLIAMIDAS
10
191.782677
20
16.800219
30
0.0
11
191.576364
21
16.800219
31
0.0
0
ARC
8
00_POLIAMIDAS
10
191.576364
20
17.200219
30
0.0
40
0.400000
50
180.000000
51
270.000000
0
LINE
8
00_POLIAMIDAS
10
191.176364
20
17.200219
30
0.0
11
191.176364
21
17.800221
31
0.0
0
LINE
8
00_POLIAMIDAS
10
191.176364
20
17.800221
30
0.0
11
191.276261
21
17.800221
31
0.0
0
LINE
8
00_POLIAMIDAS
10
191.276261
20
17.800221
30
0.0
11
191.276261
21
18.175219
31
0.0
0
ARC
8
00_POLIAMIDAS
10
191.476261
20
18.175219
30
0.0
40
0.200000
50
90.000000
51
180.000000
0
LINE
8
00_POLIAMIDAS
10
191.476261
20
18.375219
30
0.0
11
191.635843
21
18.375219
31
0.0
0
ARC
8
00_POLIAMIDAS
10
191.926317
20
18.900219
30
0.0
40
0.600000
50
241.044946
51
0.000000
0
ARC
8
00_POLIAMIDAS
10
191.926317
20
18.900219
30
0.0
40
0.600000
50
0.000000
51
118.955054
0
LINE
8
00_POLIAMIDAS
10
191.635843
20
19.425219
30
0.0
11
191.476261
21
19.425219
31
0.0
0
ARC
8
00_POLIAMIDAS
10
191.476261
20
19.625219
30
0.0
40
0.200000
50
180.000000
51
270.000000
0
LINE
8
00_POLIAMIDAS
10
191.276261
20
19.625219
30
0.0
11
191.276261
21
20.000218
31
0.0
0
LINE
8
00_POLIAMIDAS
10
191.276261
20
20.000218
30
0.0
11
191.176364
21
20.000218
31
0.0
0
LINE
8
00_POLIAMIDAS
10
191.176364
20
20.000218
30
0.0
11
191.176364
21
20.600220
31
0.0
0
ARC
8
00_POLIAMIDAS
10
191.576364
20
20.600220
30
0.0
40
0.400000
50
90.000000
51
180.000000
0
LINE
8
00_POLIAMIDAS
10
191.576364
20
21.000220
30
0.0
11
191.782677
21
21.000220
31
0.0
0
ARC
8
00_POLIAMIDAS
10
191.782677
20
20.800220
30
0.0
40
0.200000
50
60.000304
51
90.000000
0
LINE
8
00_POLIAMIDAS
10
191.882676
20
20.973425
30
0.0
11
193.729116
21
19.907395
31
0.0
0
ARC
8
00_POLIAMIDAS
10
194.129112
20
20.600218
30
0.0
40
0.800000
50
240.000304
51
270.000000
0
LINE
8
00_POLIAMIDAS
10
194.129112
20
19.800218
30
0.0
11
194.389674
21
19.800218
31
0.0
0
ARC
8
00_POLIAMIDAS
10
194.389674
20
20.000218
30
0.0
40
0.200000
50
270.000000
51
327.999547
0
LINE
8
00_POLIAMIDAS
10
194.559282
20
19.894233
30
0.0
11
196.538876
21
23.062190
31
0.0
0
ARC
8
00_POLIAMIDAS
10
196.878094
20
22.850219
30
0.0
40
0.400000
50
90.000000
51
147.999547
0
LINE
8
00_POLIAMIDAS
10
196.878094
20
23.250219
30
0.0
11
199.176317
21
23.250219
31
0.0
0
ATTDEF
8
0
10
0.000000
20
0.000000
30
0.0
40
3.5
1

3

2
PANE_WIDTH:0
70
0
0
ATTDEF
8
0
10
0.000000
20
0.000000
30
0.0
40
3.5
1

3

2
MIN_VETRO:0
70
0
0
ATTDEF
8
0
10
0.000000
20
0.000000
30
0.0
40
3.5
1

3

2
MAX_VETRO:0
70
0
0
ATTDEF
8
0
10
0.000000
20
0.000000
30
0.0
40
3.5
1

3

2
JX:0
70
0
0
ATTDEF
8
0
10
0.000000
20
0.000000
30
0.0
40
3.5
1

3

2
WX:0
70
0
0
ATTDEF
8
0
10
0.000000
20
0.000000
30
0.0
40
3.5
1

3

2
JY:0
70
0
0
ATTDEF
8
0
10
0.000000
20
0.000000
30
0.0
40
3.5
1

3

2
WY:0
70
0
0
ATTDEF
8
0
10
0.000000
20
0.000000
30
0.0
40
3.5
1

3

2
DESC:Hoja ventana oscilo TP52
70
0
0
ATTDEF
8
0
10
0.000000
20
0.000000
30
0.0
40
3.5
1

3

2
DENS:1.3731
70
0
0
ATTDEF
8
0
10
0.000000
20
0.000000
30
0.0
40
3.5
1

3

2
TDEV:54.94
70
0
0
ATTDEF
8
0
10
0.000000
20
0.000000
30
0.0
40
3.5
1

3

2
TDEV2:0
70
0
0
ATTDEF
8
0
10
0.000000
20
0.000000
30
0.0
40
3.5
1

3

2
TDEV3:0
70
0
0
ATTDEF
8
0
10
0.000000
20
0.000000
30
0.0
40
3.5
1

3

2
TDEV4:0
70
0
0
ATTDEF
8
0
10
0.000000
20
0.000000
30
0.0
40
3.5
1

3

2
TDEV5:0
70
0
0
ATTDEF
8
0
10
0.000000
20
0.000000
30
0.0
40
3.5
1

3

2
PANE_WIDTH:0
70
0
0
ATTDEF
8
0
10
0.000000
20
0.000000
30
0.0
40
3.5
1

3

2
MIN_VETRO:0
70
0
0
ATTDEF
8
0
10
0.000000
20
0.000000
30
0.0
40
3.5
1

3

2
MAX_VETRO:0
70
0
0
ATTDEF
8
0
10
0.000000
20
0.000000
30
0.0
40
3.5
1

3

2
JX:0
70
0
0
ATTDEF
8
0
10
0.000000
20
0.000000
30
0.0
40
3.5
1

3

2
WX:0
70
0
0
ATTDEF
8
0
10
0.000000
20
0.000000
30
0.0
40
3.5
1

3

2
JY:0
70
0
0
ATTDEF
8
0
10
0.000000
20
0.000000
30
0.0
40
3.5
1

3

2
WY:0
70
0
0
ENDSEC
0
EOF
