0
SECTION
2
ENTITIES
0
ARC
8
0
10
3112.173205
20
1226.178989
30
0.0
40
0.600000
50
0.000000
51
180.000000
0
ARC
8
0
10
3112.173205
20
1226.178989
30
0.0
40
0.600000
50
180.000000
51
0.000000
0
ARC
8
0
10
3123.402022
20
1226.178989
30
0.0
40
0.600000
50
0.000000
51
180.000000
0
ARC
8
0
10
3123.402022
20
1226.178989
30
0.0
40
0.600000
50
180.000000
51
0.000000
0
ARC
8
0
10
3123.402022
20
1249.678989
30
0.0
40
0.600000
50
0.000000
51
180.000000
0
ARC
8
0
10
3123.402022
20
1249.678989
30
0.0
40
0.600000
50
180.000000
51
0.000000
0
ARC
8
0
10
3112.173205
20
1249.678989
30
0.0
40
0.600000
50
0.000000
51
180.000000
0
ARC
8
0
10
3112.173205
20
1249.678989
30
0.0
40
0.600000
50
180.000000
51
0.000000
0
LINE
8
0
10
3121.970090
20
1225.428989
30
0.0
11
3121.402022
21
1225.997057
31
0.0
0
LINE
8
0
10
3124.071990
20
1225.572152
30
0.0
11
3123.970185
21
1225.673957
31
0.0
0
LINE
8
0
10
3123.010500
20
1226.633643
30
0.0
11
3122.194486
21
1227.449657
31
0.0
0
LINE
8
0
10
3124.831091
20
1227.058116
30
0.0
11
3122.525776
21
1229.363431
31
0.0
0
LINE
8
0
10
3112.510218
20
1239.378989
30
0.0
11
3111.410218
21
1240.478989
31
0.0
0
LINE
8
0
10
3125.272672
20
1228.861599
30
0.0
11
3123.826864
21
1230.307407
31
0.0
0
LINE
8
0
10
3114.755282
20
1239.378989
30
0.0
11
3113.655282
21
1240.478989
31
0.0
0
LINE
8
0
10
3126.633805
20
1229.745530
30
0.0
11
3125.187997
21
1231.191338
31
0.0
0
LINE
8
0
10
3117.000346
20
1239.378989
30
0.0
11
3115.900346
21
1240.478989
31
0.0
0
LINE
8
0
10
3127.502022
20
1231.122377
30
0.0
11
3125.902022
21
1232.722377
31
0.0
0
LINE
8
0
10
3119.245410
20
1239.378989
30
0.0
11
3118.145410
21
1240.478989
31
0.0
0
LINE
8
0
10
3127.502022
20
1233.367441
30
0.0
11
3125.902022
21
1234.967441
31
0.0
0
LINE
8
0
10
3121.490474
20
1239.378989
30
0.0
11
3120.390474
21
1240.478989
31
0.0
0
LINE
8
0
10
3127.502022
20
1235.612505
30
0.0
11
3125.902022
21
1237.212505
31
0.0
0
LINE
8
0
10
3123.735538
20
1239.378989
30
0.0
11
3122.635538
21
1240.478989
31
0.0
0
LINE
8
0
10
3127.502022
20
1237.857569
30
0.0
11
3124.880602
21
1240.478989
31
0.0
0
LINE
8
0
10
3127.502022
20
1240.102633
30
0.0
11
3125.902022
21
1241.702633
31
0.0
0
LINE
8
0
10
3127.502022
20
1242.347697
30
0.0
11
3125.686450
21
1244.163269
31
0.0
0
LINE
8
0
10
3125.173967
20
1244.675752
30
0.0
11
3122.302022
21
1247.547697
31
0.0
0
LINE
8
0
10
3127.502022
20
1244.592761
30
0.0
11
3124.775606
21
1247.319178
31
0.0
0
LINE
8
0
10
3124.512077
20
1247.582707
30
0.0
11
3121.683696
21
1250.411087
31
0.0
0
LINE
8
0
10
3125.093892
20
1249.245955
30
0.0
11
3124.060991
21
1250.278856
31
0.0
0
LINE
8
0
10
3124.786625
20
1227.133594
30
0.0
11
3123.982774
21
1226.329743
31
0.0
0
LINE
8
0
10
3127.502022
20
1232.094055
30
0.0
11
3121.402022
21
1225.994055
31
0.0
0
LINE
8
0
10
3127.502022
20
1234.339119
30
0.0
11
3125.902022
21
1232.739119
31
0.0
0
LINE
8
0
10
3122.806152
20
1229.643249
30
0.0
11
3122.524390
21
1229.361487
31
0.0
0
LINE
8
0
10
3127.502022
20
1236.584183
30
0.0
11
3125.902022
21
1234.984183
31
0.0
0
LINE
8
0
10
3127.502022
20
1238.829247
30
0.0
11
3125.902022
21
1237.229247
31
0.0
0
LINE
8
0
10
3127.502022
20
1241.074311
30
0.0
11
3125.704687
21
1239.276976
31
0.0
0
LINE
8
0
10
3127.502022
20
1243.319375
30
0.0
11
3125.902022
21
1241.719375
31
0.0
0
LINE
8
0
10
3124.661636
20
1240.478989
30
0.0
11
3123.561636
21
1239.378989
31
0.0
0
LINE
8
0
10
3127.445553
20
1245.507970
30
0.0
11
3125.818796
21
1243.881213
31
0.0
0
LINE
8
0
10
3122.416572
20
1240.478989
30
0.0
11
3121.316572
21
1239.378989
31
0.0
0
LINE
8
0
10
3126.131299
20
1246.438780
30
0.0
11
3124.685491
21
1244.992972
31
0.0
0
LINE
8
0
10
3120.171508
20
1240.478989
30
0.0
11
3119.071508
21
1239.378989
31
0.0
0
LINE
8
0
10
3124.770165
20
1247.322710
30
0.0
11
3123.324357
21
1245.876903
31
0.0
0
LINE
8
0
10
3117.926444
20
1240.478989
30
0.0
11
3116.826444
21
1239.378989
31
0.0
0
LINE
8
0
10
3125.375252
20
1250.172862
30
0.0
11
3122.305357
21
1247.102966
31
0.0
0
LINE
8
0
10
3115.681380
20
1240.478989
30
0.0
11
3114.581380
21
1239.378989
31
0.0
0
LINE
8
0
10
3122.836348
20
1249.879021
30
0.0
11
3121.892381
21
1248.935055
31
0.0
0
LINE
8
0
10
3113.436316
20
1240.478989
30
0.0
11
3112.336316
21
1239.378989
31
0.0
0
LINE
8
0
10
3111.191252
20
1240.478989
30
0.0
11
3110.372279
21
1239.660016
31
0.0
0
LINE
8
0
10
3122.302022
20
1228.665617
30
0.0
11
3122.302022
21
1227.946169
31
0.0
0
ARC
8
0
10
3121.102022
20
1227.946169
30
0.0
40
1.200000
50
329.088345
51
0.000000
0
LINE
8
0
10
3122.131575
20
1227.329710
30
0.0
11
3121.443416
21
1226.159386
31
0.0
0
ARC
8
0
10
3121.702022
20
1226.007324
30
0.0
40
0.300000
50
149.544173
51
180.000000
0
LINE
8
0
10
3121.402022
20
1226.007324
30
0.0
11
3121.402022
21
1225.828989
31
0.0
0
ARC
8
0
10
3121.802022
20
1225.828989
30
0.0
40
0.400000
50
180.000000
51
270.000000
0
LINE
8
0
10
3121.802022
20
1225.428989
30
0.0
11
3122.202022
21
1225.428989
31
0.0
0
ARC
8
0
10
3122.202022
20
1225.528989
30
0.0
40
0.100000
50
270.000000
51
0.000000
0
LINE
8
0
10
3122.302022
20
1225.528989
30
0.0
11
3122.577022
21
1225.528989
31
0.0
0
ARC
8
0
10
3122.577022
20
1225.828989
30
0.0
40
0.300000
50
270.000000
51
15.506434
0
ARC
8
0
10
3123.402022
20
1226.178989
30
0.0
40
0.600000
50
333.278126
51
206.721874
0
ARC
8
0
10
3124.227022
20
1225.828989
30
0.0
40
0.300000
50
164.493566
51
270.000000
0
LINE
8
0
10
3124.227022
20
1225.528989
30
0.0
11
3124.502022
21
1225.528989
31
0.0
0
ARC
8
0
10
3124.602022
20
1225.528989
30
0.0
40
0.100000
50
180.000000
51
270.000000
0
LINE
8
0
10
3124.602022
20
1225.428989
30
0.0
11
3125.002022
21
1225.428989
31
0.0
0
ARC
8
0
10
3125.002022
20
1225.828989
30
0.0
40
0.400000
50
270.000000
51
0.000000
0
LINE
8
0
10
3125.402022
20
1225.828989
30
0.0
11
3125.402022
21
1226.007191
31
0.0
0
ARC
8
0
10
3125.102022
20
1226.007191
30
0.0
40
0.300000
50
0.000000
51
30.503167
0
LINE
8
0
10
3125.360502
20
1226.159467
30
0.0
11
3124.668101
21
1227.334783
31
0.0
0
ARC
8
0
10
3125.702022
20
1227.943886
30
0.0
40
1.200000
50
180.000000
51
210.503167
0
LINE
8
0
10
3124.502022
20
1227.943886
30
0.0
11
3124.502022
21
1228.198255
31
0.0
0
ARC
8
0
10
3124.802022
20
1228.198255
30
0.0
40
0.300000
50
122.610000
51
180.000000
0
LINE
8
0
10
3124.640347
20
1228.450963
30
0.0
11
3127.274342
21
1230.161499
31
0.0
0
ARC
8
0
10
3127.002022
20
1230.580834
30
0.0
40
0.500000
50
303.000000
51
0.000000
0
LINE
8
0
10
3127.502022
20
1230.580834
30
0.0
11
3127.502022
21
1245.277144
31
0.0
0
ARC
8
0
10
3127.002022
20
1245.277144
30
0.0
40
0.500000
50
0.000000
51
57.000000
0
LINE
8
0
10
3127.274342
20
1245.696479
30
0.0
11
3124.640347
21
1247.407016
31
0.0
0
ARC
8
0
10
3124.802022
20
1247.659723
30
0.0
40
0.300000
50
180.000000
51
237.390000
0
LINE
8
0
10
3124.502022
20
1247.659723
30
0.0
11
3124.502022
21
1247.914092
31
0.0
0
ARC
8
0
10
3125.702022
20
1247.914092
30
0.0
40
1.200000
50
149.496833
51
180.000000
0
LINE
8
0
10
3124.668101
20
1248.523196
30
0.0
11
3125.360502
21
1249.698512
31
0.0
0
ARC
8
0
10
3125.102022
20
1249.850788
30
0.0
40
0.300000
50
329.496833
51
0.000000
0
LINE
8
0
10
3125.402022
20
1249.850788
30
0.0
11
3125.402022
21
1250.028989
31
0.0
0
ARC
8
0
10
3125.002022
20
1250.028989
30
0.0
40
0.400000
50
0.000000
51
90.000000
0
LINE
8
0
10
3125.002022
20
1250.428989
30
0.0
11
3124.602022
21
1250.428989
31
0.0
0
ARC
8
0
10
3124.602022
20
1250.328989
30
0.0
40
0.100000
50
90.000000
51
180.000000
0
LINE
8
0
10
3124.502022
20
1250.328989
30
0.0
11
3124.227022
21
1250.328989
31
0.0
0
ARC
8
0
10
3124.227022
20
1250.028989
30
0.0
40
0.300000
50
90.000000
51
195.506434
0
ARC
8
0
10
3123.402022
20
1249.678989
30
0.0
40
0.600000
50
153.278126
51
26.721874
0
ARC
8
0
10
3122.577022
20
1250.028989
30
0.0
40
0.300000
50
344.493566
51
90.000000
0
LINE
8
0
10
3122.577022
20
1250.328989
30
0.0
11
3122.302022
21
1250.328989
31
0.0
0
ARC
8
0
10
3122.202022
20
1250.328989
30
0.0
40
0.100000
50
0.000000
51
90.000000
0
LINE
8
0
10
3122.202022
20
1250.428989
30
0.0
11
3121.802022
21
1250.428989
31
0.0
0
ARC
8
0
10
3121.802022
20
1250.028989
30
0.0
40
0.400000
50
90.000000
51
180.000000
0
LINE
8
0
10
3121.402022
20
1250.028989
30
0.0
11
3121.402022
21
1249.850654
31
0.0
0
ARC
8
0
10
3121.702022
20
1249.850654
30
0.0
40
0.300000
50
180.000000
51
210.455827
0
LINE
8
0
10
3121.443416
20
1249.698592
30
0.0
11
3122.131575
21
1248.528268
31
0.0
0
ARC
8
0
10
3121.102022
20
1247.911810
30
0.0
40
1.200000
50
0.000000
51
30.911655
0
LINE
8
0
10
3122.302022
20
1247.911810
30
0.0
11
3122.302022
21
1247.192362
31
0.0
0
ARC
8
0
10
3123.502022
20
1247.192362
30
0.0
40
1.200000
50
180.000000
51
237.000000
0
LINE
8
0
10
3122.848455
20
1246.185957
30
0.0
11
3125.218981
21
1244.646520
31
0.0
0
ARC
8
0
10
3124.402022
20
1243.388514
30
0.0
40
1.500000
50
0.000000
51
57.000000
0
LINE
8
0
10
3125.902022
20
1243.388514
30
0.0
11
3125.902022
21
1240.978989
31
0.0
0
ARC
8
0
10
3125.402022
20
1240.978989
30
0.0
40
0.500000
50
270.000000
51
0.000000
0
LINE
8
0
10
3125.402022
20
1240.478989
30
0.0
11
3110.852022
21
1240.478989
31
0.0
0
ARC
8
0
10
3110.852022
20
1239.928989
30
0.0
40
0.550000
50
90.000000
51
270.000000
0
LINE
8
0
10
3110.852022
20
1239.378989
30
0.0
11
3125.402022
21
1239.378989
31
0.0
0
ARC
8
0
10
3125.402022
20
1238.878989
30
0.0
40
0.500000
50
0.000000
51
90.000000
0
LINE
8
0
10
3125.902022
20
1238.878989
30
0.0
11
3125.902022
21
1232.469465
31
0.0
0
ARC
8
0
10
3124.402022
20
1232.469465
30
0.0
40
1.500000
50
303.000000
51
0.000000
0
LINE
8
0
10
3125.218981
20
1231.211459
30
0.0
11
3122.848455
21
1229.672021
31
0.0
0
ARC
8
0
10
3123.502022
20
1228.665617
30
0.0
40
1.200000
50
123.000000
51
180.000000
0
ARC
8
0
10
3145.498796
20
1261.328989
30
0.0
40
0.300000
50
30.000000
51
90.000000
0
LINE
8
0
10
3145.758604
20
1261.478989
30
0.0
11
3148.251573
21
1257.161040
31
0.0
0
LINE
8
0
10
3148.251573
20
1257.161040
30
0.0
11
3148.251573
21
1254.528989
31
0.0
0
LINE
8
0
10
3148.251573
20
1254.528989
30
0.0
11
3140.551573
21
1254.528989
31
0.0
0
ARC
8
0
10
3140.551573
20
1254.228989
30
0.0
40
0.300000
50
90.000000
51
180.000000
0
LINE
8
0
10
3140.251573
20
1254.228989
30
0.0
11
3140.251573
21
1252.228989
31
0.0
0
ARC
8
0
10
3139.951573
20
1252.228989
30
0.0
40
0.300000
50
270.000000
51
0.000000
0
LINE
8
0
10
3139.951573
20
1251.928989
30
0.0
11
3110.251573
21
1251.928989
31
0.0
0
LINE
8
0
10
3110.251573
20
1251.928989
30
0.0
11
3110.251573
21
1261.628989
31
0.0
0
LINE
8
0
10
3110.251573
20
1261.628989
30
0.0
11
3145.498796
21
1261.628989
31
0.0
0
ARC
8
0
10
3110.810024
20
1248.226505
30
0.0
40
0.200000
50
303.039809
51
124.049592
0
LINE
8
0
10
3110.919068
20
1248.058847
30
0.0
11
3108.096155
21
1246.100809
31
0.0
0
ARC
8
0
10
3108.017239
20
1246.390243
30
0.0
40
0.300000
50
180.000000
51
285.251415
0
LINE
8
0
10
3107.717325
20
1246.397448
30
0.0
11
3107.742744
21
1247.455479
31
0.0
0
LINE
8
0
10
3107.742744
20
1247.455479
30
0.0
11
3107.951358
21
1247.507492
31
0.0
0
LINE
8
0
10
3107.951358
20
1247.507492
30
0.0
11
3108.527587
21
1247.935748
31
0.0
0
ARC
8
0
10
3107.931084
20
1248.738358
30
0.0
40
1.000000
50
306.619865
51
33.109098
0
LINE
8
0
10
3108.768716
20
1249.284593
30
0.0
11
3108.170389
21
1250.202107
31
0.0
0
ARC
8
0
10
3107.751573
20
1249.928989
30
0.0
40
0.500000
50
33.109098
51
90.000000
0
LINE
8
0
10
3107.751573
20
1250.428989
30
0.0
11
3107.751573
21
1251.228989
31
0.0
0
ARC
8
0
10
3108.251573
20
1251.228989
30
0.0
40
0.500000
50
90.000000
51
180.000000
0
LINE
8
0
10
3108.251573
20
1251.728989
30
0.0
11
3108.751573
21
1251.728989
31
0.0
0
LINE
8
0
10
3108.751573
20
1251.728989
30
0.0
11
3108.751573
21
1260.813795
31
0.0
0
ARC
8
0
10
3108.251573
20
1260.813795
30
0.0
40
0.500000
50
0.000000
51
88.285022
0
LINE
8
0
10
3108.266537
20
1261.313571
30
0.0
11
3097.731850
21
1261.628989
31
0.0
0
LINE
8
0
10
3097.731850
20
1261.628989
30
0.0
11
3084.692727
21
1261.628989
31
0.0
0
ARC
8
0
10
3084.692727
20
1261.328989
30
0.0
40
0.300000
50
90.000000
51
210.000000
0
LINE
8
0
10
3084.432920
20
1261.178989
30
0.0
11
3086.484586
21
1257.625399
31
0.0
0
ARC
8
0
10
3086.051573
20
1257.375399
30
0.0
40
0.500000
50
0.000000
51
30.000000
0
LINE
8
0
10
3086.551573
20
1257.375399
30
0.0
11
3086.551573
21
1255.928989
31
0.0
0
ARC
8
0
10
3086.051573
20
1255.928989
30
0.0
40
0.500000
50
270.000000
51
0.000000
0
LINE
8
0
10
3086.051573
20
1255.428989
30
0.0
11
3084.501573
21
1255.428989
31
0.0
0
ARC
8
0
10
3084.501573
20
1255.928989
30
0.0
40
0.500000
50
180.000000
51
270.000000
0
LINE
8
0
10
3084.001573
20
1255.928989
30
0.0
11
3084.001573
21
1256.628989
31
0.0
0
LINE
8
0
10
3084.001573
20
1256.628989
30
0.0
11
3085.251573
21
1256.628989
31
0.0
0
LINE
8
0
10
3085.251573
20
1256.628989
30
0.0
11
3085.251573
21
1257.161040
31
0.0
0
LINE
8
0
10
3085.251573
20
1257.161040
30
0.0
11
3082.758604
21
1261.478989
31
0.0
0
ARC
8
0
10
3082.498796
20
1261.328989
30
0.0
40
0.300000
50
30.000000
51
90.000000
0
LINE
8
0
10
3082.498796
20
1261.628989
30
0.0
11
3082.004350
21
1261.628989
31
0.0
0
ARC
8
0
10
3082.004350
20
1261.328989
30
0.0
40
0.300000
50
90.000000
51
150.000000
0
LINE
8
0
10
3081.744542
20
1261.478989
30
0.0
11
3079.251573
21
1257.161040
31
0.0
0
LINE
8
0
10
3079.251573
20
1257.161040
30
0.0
11
3079.251573
21
1256.628989
31
0.0
0
LINE
8
0
10
3079.251573
20
1256.628989
30
0.0
11
3080.501573
21
1256.628989
31
0.0
0
LINE
8
0
10
3080.501573
20
1256.628989
30
0.0
11
3080.501573
21
1255.928989
31
0.0
0
ARC
8
0
10
3080.001573
20
1255.928989
30
0.0
40
0.500000
50
270.000000
51
0.000000
0
LINE
8
0
10
3080.001573
20
1255.428989
30
0.0
11
3078.251573
21
1255.428989
31
0.0
0
ARC
8
0
10
3078.251573
20
1255.928989
30
0.0
40
0.500000
50
180.000000
51
270.000000
0
LINE
8
0
10
3077.751573
20
1255.928989
30
0.0
11
3077.751573
21
1257.428989
31
0.0
0
ARC
8
0
10
3078.251573
20
1257.428989
30
0.0
40
0.500000
50
150.000000
51
180.000000
0
LINE
8
0
10
3077.818560
20
1257.678989
30
0.0
11
3080.820782
21
1262.878989
31
0.0
0
ARC
8
0
10
3081.253794
20
1262.628989
30
0.0
40
0.500000
50
90.000000
51
150.000000
0
LINE
8
0
10
3081.253794
20
1263.128989
30
0.0
11
3146.249351
21
1263.128989
31
0.0
0
ARC
8
0
10
3146.249351
20
1262.628989
30
0.0
40
0.500000
50
30.000000
51
90.000000
0
LINE
8
0
10
3146.682364
20
1262.878989
30
0.0
11
3149.684586
21
1257.678989
31
0.0
0
ARC
8
0
10
3149.251573
20
1257.428989
30
0.0
40
0.500000
50
0.000000
51
30.000000
0
LINE
8
0
10
3149.751573
20
1257.428989
30
0.0
11
3149.751573
21
1253.128989
31
0.0
0
ARC
8
0
10
3149.251573
20
1253.128989
30
0.0
40
0.500000
50
270.000000
51
0.000000
0
LINE
8
0
10
3149.251573
20
1252.628989
30
0.0
11
3148.149318
21
1252.628989
31
0.0
0
LINE
8
0
10
3148.149318
20
1252.628989
30
0.0
11
3147.749318
21
1253.028989
31
0.0
0
LINE
8
0
10
3147.749318
20
1253.028989
30
0.0
11
3147.349318
21
1252.628989
31
0.0
0
LINE
8
0
10
3147.349318
20
1252.628989
30
0.0
11
3146.949318
21
1253.028989
31
0.0
0
LINE
8
0
10
3146.949318
20
1253.028989
30
0.0
11
3146.549318
21
1252.628989
31
0.0
0
LINE
8
0
10
3146.549318
20
1252.628989
30
0.0
11
3146.149318
21
1253.028989
31
0.0
0
LINE
8
0
10
3146.149318
20
1253.028989
30
0.0
11
3145.750446
21
1252.630117
31
0.0
0
LINE
8
0
10
3145.750446
20
1252.630117
30
0.0
11
3145.350446
21
1253.030117
31
0.0
0
LINE
8
0
10
3145.350446
20
1253.030117
30
0.0
11
3144.950446
21
1252.630117
31
0.0
0
LINE
8
0
10
3144.950446
20
1252.630117
30
0.0
11
3144.550446
21
1253.030117
31
0.0
0
LINE
8
0
10
3144.550446
20
1253.030117
30
0.0
11
3144.150446
21
1252.630117
31
0.0
0
LINE
8
0
10
3144.150446
20
1252.630117
30
0.0
11
3143.750446
21
1253.030117
31
0.0
0
LINE
8
0
10
3143.750446
20
1253.030117
30
0.0
11
3143.351573
21
1252.631244
31
0.0
0
LINE
8
0
10
3143.351573
20
1252.631244
30
0.0
11
3142.951573
21
1253.031244
31
0.0
0
LINE
8
0
10
3142.951573
20
1253.031244
30
0.0
11
3142.551573
21
1252.631244
31
0.0
0
LINE
8
0
10
3142.551573
20
1252.631244
30
0.0
11
3142.151573
21
1253.031244
31
0.0
0
LINE
8
0
10
3142.151573
20
1253.031244
30
0.0
11
3141.751573
21
1252.631244
31
0.0
0
LINE
8
0
10
3141.751573
20
1252.631244
30
0.0
11
3141.751573
21
1250.928989
31
0.0
0
ARC
8
0
10
3141.251573
20
1250.928989
30
0.0
40
0.500000
50
270.000000
51
0.000000
0
LINE
8
0
10
3141.251573
20
1250.428989
30
0.0
11
3127.751573
21
1250.428989
31
0.0
0
ARC
8
0
10
3127.751573
20
1249.928989
30
0.0
40
0.500000
50
90.000000
51
146.890902
0
LINE
8
0
10
3127.332757
20
1250.202107
30
0.0
11
3126.734430
21
1249.284593
31
0.0
0
ARC
8
0
10
3127.572062
20
1248.738358
30
0.0
40
1.000000
50
146.890902
51
233.380135
0
LINE
8
0
10
3126.975559
20
1247.935748
30
0.0
11
3127.551788
21
1247.507492
31
0.0
0
LINE
8
0
10
3127.551788
20
1247.507492
30
0.0
11
3127.760402
21
1247.455479
31
0.0
0
LINE
8
0
10
3127.760402
20
1247.455479
30
0.0
11
3127.785821
21
1246.397448
31
0.0
0
ARC
8
0
10
3127.485907
20
1246.390243
30
0.0
40
0.300000
50
254.748585
51
0.000000
0
LINE
8
0
10
3127.406991
20
1246.100809
30
0.0
11
3124.584078
21
1248.058847
31
0.0
0
ARC
8
0
10
3124.693122
20
1248.226505
30
0.0
40
0.200000
50
55.950408
51
236.960191
0
LINE
8
0
10
3124.805104
20
1248.392216
30
0.0
11
3125.886774
21
1249.991546
31
0.0
0
ARC
8
0
10
3126.022073
20
1250.259304
30
0.0
40
0.300000
50
243.192367
51
341.228879
0
LINE
8
0
10
3126.306116
20
1250.162768
30
0.0
11
3126.363786
21
1250.332453
31
0.0
0
ARC
8
0
10
3126.079743
20
1250.428989
30
0.0
40
0.300000
50
341.228879
51
180.000000
0
LINE
8
0
10
3125.779743
20
1250.428989
30
0.0
11
3121.279743
21
1250.428989
31
0.0
0
ARC
8
0
10
3121.279743
20
1250.228989
30
0.0
40
0.200000
50
90.000000
51
210.000000
0
LINE
8
0
10
3121.106538
20
1250.128989
30
0.0
11
3122.145824
21
1248.328892
31
0.0
0
ARC
8
0
10
3122.152046
20
1248.128989
30
0.0
40
0.200000
50
270.000000
51
90.000000
0
LINE
8
0
10
3122.152046
20
1247.928989
30
0.0
11
3120.760127
21
1247.928989
31
0.0
0
ARC
8
0
10
3120.760127
20
1248.128989
30
0.0
40
0.200000
50
210.000000
51
270.000000
0
LINE
8
0
10
3120.586922
20
1248.028989
30
0.0
11
3119.403354
21
1250.078989
31
0.0
0
ARC
8
0
10
3118.797137
20
1249.728989
30
0.0
40
0.700000
50
30.000000
51
90.000000
0
LINE
8
0
10
3118.797137
20
1250.428989
30
0.0
11
3116.706009
21
1250.428989
31
0.0
0
ARC
8
0
10
3116.706009
20
1249.728989
30
0.0
40
0.700000
50
90.000000
51
150.000000
0
LINE
8
0
10
3116.099791
20
1250.078989
30
0.0
11
3114.916223
21
1248.028989
31
0.0
0
ARC
8
0
10
3114.743018
20
1248.128989
30
0.0
40
0.200000
50
270.000000
51
330.000000
0
LINE
8
0
10
3114.743018
20
1247.928989
30
0.0
11
3113.351099
21
1247.928989
31
0.0
0
ARC
8
0
10
3113.351099
20
1248.128989
30
0.0
40
0.200000
50
90.000000
51
270.000000
0
LINE
8
0
10
3113.357322
20
1248.328892
30
0.0
11
3114.396608
21
1250.128989
31
0.0
0
ARC
8
0
10
3114.223403
20
1250.228989
30
0.0
40
0.200000
50
330.000000
51
90.000000
0
LINE
8
0
10
3114.223403
20
1250.428989
30
0.0
11
3109.723403
21
1250.428989
31
0.0
0
ARC
8
0
10
3109.423403
20
1250.428989
30
0.0
40
0.300000
50
0.000000
51
198.771121
0
LINE
8
0
10
3109.139360
20
1250.332453
30
0.0
11
3109.197030
21
1250.162768
31
0.0
0
ARC
8
0
10
3109.481073
20
1250.259304
30
0.0
40
0.300000
50
198.771121
51
296.807633
0
LINE
8
0
10
3109.616372
20
1249.991546
30
0.0
11
3110.698042
21
1248.392216
31
0.0
0
LINE
8
0
10
3110.744769
20
1225.428989
30
0.0
11
3110.173205
21
1226.000554
31
0.0
0
LINE
8
0
10
3112.851536
20
1225.567287
30
0.0
11
3112.736503
21
1225.682320
31
0.0
0
LINE
8
0
10
3111.783565
20
1226.635258
30
0.0
11
3110.967468
21
1227.451354
31
0.0
0
LINE
8
0
10
3113.599899
20
1227.063987
30
0.0
11
3108.073205
21
1232.590682
31
0.0
0
LINE
8
0
10
3109.673205
20
1233.235746
30
0.0
11
3108.073205
21
1234.835746
31
0.0
0
LINE
8
0
10
3109.874247
20
1235.279768
30
0.0
11
3108.073205
21
1237.080810
31
0.0
0
LINE
8
0
10
3112.020090
20
1235.378989
30
0.0
11
3110.920090
21
1236.478989
31
0.0
0
LINE
8
0
10
3109.673205
20
1237.725874
30
0.0
11
3108.073205
21
1239.325874
31
0.0
0
LINE
8
0
10
3114.265154
20
1235.378989
30
0.0
11
3113.165154
21
1236.478989
31
0.0
0
LINE
8
0
10
3109.673205
20
1239.970938
30
0.0
11
3108.073205
21
1241.570938
31
0.0
0
LINE
8
0
10
3116.510218
20
1235.378989
30
0.0
11
3115.410218
21
1236.478989
31
0.0
0
LINE
8
0
10
3109.673205
20
1242.216002
30
0.0
11
3108.073205
21
1243.816002
31
0.0
0
LINE
8
0
10
3118.755282
20
1235.378989
30
0.0
11
3117.655282
21
1236.478989
31
0.0
0
LINE
8
0
10
3109.920577
20
1244.213694
30
0.0
11
3108.383889
21
1245.750382
31
0.0
0
LINE
8
0
10
3121.000346
20
1235.378989
30
0.0
11
3119.900346
21
1236.478989
31
0.0
0
LINE
8
0
10
3111.190830
20
1245.188505
30
0.0
11
3109.745022
21
1246.634313
31
0.0
0
LINE
8
0
10
3123.245410
20
1235.378989
30
0.0
11
3122.145410
21
1236.478989
31
0.0
0
LINE
8
0
10
3112.551964
20
1246.072435
30
0.0
11
3111.058241
21
1247.566158
31
0.0
0
LINE
8
0
10
3125.205268
20
1235.664195
30
0.0
11
3124.390474
21
1236.478989
31
0.0
0
LINE
8
0
10
3113.273205
20
1247.596258
30
0.0
11
3110.457557
21
1250.411906
31
0.0
0
LINE
8
0
10
3113.866737
20
1249.247790
30
0.0
11
3112.834282
21
1250.280245
31
0.0
0
LINE
8
0
10
3125.046624
20
1236.373849
30
0.0
11
3124.051764
21
1235.378989
31
0.0
0
LINE
8
0
10
3122.906700
20
1236.478989
30
0.0
11
3121.806700
21
1235.378989
31
0.0
0
LINE
8
0
10
3113.559835
20
1227.132124
30
0.0
11
3112.754672
21
1226.326961
31
0.0
0
LINE
8
0
10
3120.661636
20
1236.478989
30
0.0
11
3119.561636
21
1235.378989
31
0.0
0
LINE
8
0
10
3113.215599
20
1229.032952
30
0.0
11
3110.173205
21
1225.990558
31
0.0
0
LINE
8
0
10
3118.416572
20
1236.478989
30
0.0
11
3117.316572
21
1235.378989
31
0.0
0
LINE
8
0
10
3112.049457
20
1230.111875
30
0.0
11
3110.603650
21
1228.666067
31
0.0
0
LINE
8
0
10
3116.171508
20
1236.478989
30
0.0
11
3115.071508
21
1235.378989
31
0.0
0
LINE
8
0
10
3110.688324
20
1230.995805
30
0.0
11
3109.242516
21
1229.549997
31
0.0
0
LINE
8
0
10
3113.926444
20
1236.478989
30
0.0
11
3112.826444
21
1235.378989
31
0.0
0
LINE
8
0
10
3109.690406
20
1232.242952
30
0.0
11
3108.073205
21
1230.625750
31
0.0
0
LINE
8
0
10
3111.681380
20
1236.478989
30
0.0
11
3110.581380
21
1235.378989
31
0.0
0
LINE
8
0
10
3109.673205
20
1234.470814
30
0.0
11
3108.073205
21
1232.870814
31
0.0
0
LINE
8
0
10
3109.721638
20
1236.764311
30
0.0
11
3108.073205
21
1235.115878
31
0.0
0
LINE
8
0
10
3109.673205
20
1238.960942
30
0.0
11
3108.073205
21
1237.360942
31
0.0
0
LINE
8
0
10
3109.673205
20
1241.206006
30
0.0
11
3108.073205
21
1239.606006
31
0.0
0
LINE
8
0
10
3113.263691
20
1247.041557
30
0.0
11
3111.817795
21
1245.595661
31
0.0
0
LINE
8
0
10
3109.674568
20
1243.452433
30
0.0
11
3108.073205
21
1241.851070
31
0.0
0
LINE
8
0
10
3114.147401
20
1250.170330
30
0.0
11
3108.073205
21
1244.096134
31
0.0
0
LINE
8
0
10
3111.605662
20
1249.873655
30
0.0
11
3110.665445
21
1248.933438
31
0.0
0
ARC
8
0
10
3114.473205
20
1247.911810
30
0.0
40
1.200000
50
149.088345
51
180.000000
0
LINE
8
0
10
3113.443653
20
1248.528268
30
0.0
11
3114.131811
21
1249.698592
31
0.0
0
ARC
8
0
10
3113.873205
20
1249.850654
30
0.0
40
0.300000
50
329.544173
51
0.000000
0
LINE
8
0
10
3114.173205
20
1249.850654
30
0.0
11
3114.173205
21
1250.028989
31
0.0
0
ARC
8
0
10
3113.773205
20
1250.028989
30
0.0
40
0.400000
50
0.000000
51
90.000000
0
LINE
8
0
10
3113.773205
20
1250.428989
30
0.0
11
3113.373205
21
1250.428989
31
0.0
0
ARC
8
0
10
3113.373205
20
1250.328989
30
0.0
40
0.100000
50
90.000000
51
180.000000
0
LINE
8
0
10
3113.273205
20
1250.328989
30
0.0
11
3112.998205
21
1250.328989
31
0.0
0
ARC
8
0
10
3112.998205
20
1250.028989
30
0.0
40
0.300000
50
90.000000
51
195.506434
0
ARC
8
0
10
3112.173205
20
1249.678989
30
0.0
40
0.600000
50
153.278126
51
26.721874
0
ARC
8
0
10
3111.348205
20
1250.028989
30
0.0
40
0.300000
50
344.493566
51
90.000000
0
LINE
8
0
10
3111.348205
20
1250.328989
30
0.0
11
3111.073205
21
1250.328989
31
0.0
0
ARC
8
0
10
3110.973205
20
1250.328989
30
0.0
40
0.100000
50
0.000000
51
90.000000
0
LINE
8
0
10
3110.973205
20
1250.428989
30
0.0
11
3110.573205
21
1250.428989
31
0.0
0
ARC
8
0
10
3110.573205
20
1250.028989
30
0.0
40
0.400000
50
90.000000
51
180.000000
0
LINE
8
0
10
3110.173205
20
1250.028989
30
0.0
11
3110.173205
21
1249.850788
31
0.0
0
ARC
8
0
10
3110.473205
20
1249.850788
30
0.0
40
0.300000
50
180.000000
51
210.503167
0
LINE
8
0
10
3110.214725
20
1249.698512
30
0.0
11
3110.907126
21
1248.523196
31
0.0
0
ARC
8
0
10
3109.873205
20
1247.914092
30
0.0
40
1.200000
50
0.000000
51
30.503167
0
LINE
8
0
10
3111.073205
20
1247.914092
30
0.0
11
3111.073205
21
1247.659723
31
0.0
0
ARC
8
0
10
3110.773205
20
1247.659723
30
0.0
40
0.300000
50
302.610000
51
0.000000
0
LINE
8
0
10
3110.934880
20
1247.407016
30
0.0
11
3108.300886
21
1245.696479
31
0.0
0
ARC
8
0
10
3108.573205
20
1245.277144
30
0.0
40
0.500000
50
123.000000
51
180.000000
0
LINE
8
0
10
3108.073205
20
1245.277144
30
0.0
11
3108.073205
21
1230.580834
31
0.0
0
ARC
8
0
10
3108.573205
20
1230.580834
30
0.0
40
0.500000
50
180.000000
51
237.000000
0
LINE
8
0
10
3108.300886
20
1230.161499
30
0.0
11
3110.934880
21
1228.450963
31
0.0
0
ARC
8
0
10
3110.773205
20
1228.198255
30
0.0
40
0.300000
50
0.000000
51
57.390000
0
LINE
8
0
10
3111.073205
20
1228.198255
30
0.0
11
3111.073205
21
1227.943886
31
0.0
0
ARC
8
0
10
3109.873205
20
1227.943886
30
0.0
40
1.200000
50
329.496833
51
0.000000
0
LINE
8
0
10
3110.907126
20
1227.334783
30
0.0
11
3110.214725
21
1226.159467
31
0.0
0
ARC
8
0
10
3110.473205
20
1226.007191
30
0.0
40
0.300000
50
149.496833
51
180.000000
0
LINE
8
0
10
3110.173205
20
1226.007191
30
0.0
11
3110.173205
21
1225.828989
31
0.0
0
ARC
8
0
10
3110.573205
20
1225.828989
30
0.0
40
0.400000
50
180.000000
51
270.000000
0
LINE
8
0
10
3110.573205
20
1225.428989
30
0.0
11
3110.973205
21
1225.428989
31
0.0
0
ARC
8
0
10
3110.973205
20
1225.528989
30
0.0
40
0.100000
50
270.000000
51
0.000000
0
LINE
8
0
10
3111.073205
20
1225.528989
30
0.0
11
3111.348205
21
1225.528989
31
0.0
0
ARC
8
0
10
3111.348205
20
1225.828989
30
0.0
40
0.300000
50
270.000000
51
15.506434
0
ARC
8
0
10
3112.173205
20
1226.178989
30
0.0
40
0.600000
50
333.278126
51
206.721874
0
ARC
8
0
10
3112.998205
20
1225.828989
30
0.0
40
0.300000
50
164.493566
51
270.000000
0
LINE
8
0
10
3112.998205
20
1225.528989
30
0.0
11
3113.273205
21
1225.528989
31
0.0
0
ARC
8
0
10
3113.373205
20
1225.528989
30
0.0
40
0.100000
50
180.000000
51
270.000000
0
LINE
8
0
10
3113.373205
20
1225.428989
30
0.0
11
3113.773205
21
1225.428989
31
0.0
0
ARC
8
0
10
3113.773205
20
1225.828989
30
0.0
40
0.400000
50
270.000000
51
0.000000
0
LINE
8
0
10
3114.173205
20
1225.828989
30
0.0
11
3114.173205
21
1226.007324
31
0.0
0
ARC
8
0
10
3113.873205
20
1226.007324
30
0.0
40
0.300000
50
0.000000
51
30.455827
0
LINE
8
0
10
3114.131811
20
1226.159386
30
0.0
11
3113.443653
21
1227.329710
31
0.0
0
ARC
8
0
10
3114.473205
20
1227.946169
30
0.0
40
1.200000
50
180.000000
51
210.911655
0
LINE
8
0
10
3113.273205
20
1227.946169
30
0.0
11
3113.273205
21
1228.665617
31
0.0
0
ARC
8
0
10
3112.073205
20
1228.665617
30
0.0
40
1.200000
50
0.000000
51
57.000000
0
LINE
8
0
10
3112.726772
20
1229.672021
30
0.0
11
3110.356246
21
1231.211459
31
0.0
0
ARC
8
0
10
3111.173205
20
1232.469465
30
0.0
40
1.500000
50
180.000000
51
237.000000
0
LINE
8
0
10
3109.673205
20
1232.469465
30
0.0
11
3109.673205
21
1234.878989
31
0.0
0
ARC
8
0
10
3110.173205
20
1234.878989
30
0.0
40
0.500000
50
90.000000
51
180.000000
0
LINE
8
0
10
3110.173205
20
1235.378989
30
0.0
11
3124.723205
21
1235.378989
31
0.0
0
ARC
8
0
10
3124.723205
20
1235.928989
30
0.0
40
0.550000
50
270.000000
51
90.000000
0
LINE
8
0
10
3124.723205
20
1236.478989
30
0.0
11
3110.173205
21
1236.478989
31
0.0
0
ARC
8
0
10
3110.173205
20
1236.978989
30
0.0
40
0.500000
50
180.000000
51
270.000000
0
LINE
8
0
10
3109.673205
20
1236.978989
30
0.0
11
3109.673205
21
1243.388514
31
0.0
0
ARC
8
0
10
3111.173205
20
1243.388514
30
0.0
40
1.500000
50
123.000000
51
180.000000
0
LINE
8
0
10
3110.356246
20
1244.646520
30
0.0
11
3112.726772
21
1246.185957
31
0.0
0
ARC
8
0
10
3112.073205
20
1247.192362
30
0.0
40
1.200000
50
303.000000
51
0.000000
0
LINE
8
0
10
3113.273205
20
1247.192362
30
0.0
11
3113.273205
21
1247.911810
31
0.0
0
ARC
8
0
10
3110.499727
20
1222.678989
30
0.0
40
1.250000
50
90.000000
51
180.000000
0
LINE
8
0
10
3109.249727
20
1222.678989
30
0.0
11
3109.249727
21
1222.603989
31
0.0
0
ARC
8
0
10
3108.949727
20
1222.603989
30
0.0
40
0.300000
50
270.000000
51
0.000000
0
LINE
8
0
10
3108.949727
20
1222.303989
30
0.0
11
3107.749727
21
1222.303989
31
0.0
0
LINE
8
0
10
3107.749727
20
1222.303989
30
0.0
11
3106.551573
21
1222.303989
31
0.0
0
LINE
8
0
10
3106.551573
20
1222.303989
30
0.0
11
3106.551573
21
1222.228989
31
0.0
0
LINE
8
0
10
3106.551573
20
1222.228989
30
0.0
11
3106.360578
21
1220.319039
31
0.0
0
ARC
8
0
10
3106.261074
20
1220.328989
30
0.0
40
0.100000
50
270.000000
51
0.000000
0
LINE
8
0
10
3106.261074
20
1220.228989
30
0.0
11
3105.851573
21
1220.228989
31
0.0
0
LINE
8
0
10
3105.851573
20
1220.228989
30
0.0
11
3105.117409
21
1220.446071
31
0.0
0
ARC
8
0
10
3105.251573
20
1220.714399
30
0.0
40
0.300000
50
180.000000
51
243.434949
0
LINE
8
0
10
3104.951573
20
1220.714399
30
0.0
11
3104.951573
21
1222.303989
31
0.0
0
LINE
8
0
10
3104.951573
20
1222.303989
30
0.0
11
3104.213150
21
1222.303989
31
0.0
0
ARC
8
0
10
3104.213150
20
1222.603989
30
0.0
40
0.300000
50
246.801409
51
270.000000
0
LINE
8
0
10
3104.094974
20
1222.328246
30
0.0
11
3102.872789
21
1222.852039
31
0.0
0
ARC
8
0
10
3102.951573
20
1223.035868
30
0.0
40
0.200000
50
180.000000
51
246.801409
0
LINE
8
0
10
3102.751573
20
1223.035868
30
0.0
11
3102.751573
21
1224.098989
31
0.0
0
LINE
8
0
10
3102.751573
20
1224.098989
30
0.0
11
3107.749727
21
1224.098989
31
0.0
0
LINE
8
0
10
3107.749727
20
1224.098989
30
0.0
11
3107.749727
21
1225.543652
31
0.0
0
ARC
8
0
10
3107.949727
20
1225.543652
30
0.0
40
0.200000
50
135.729847
51
180.000000
0
ARC
8
0
10
3106.374402
20
1227.079345
30
0.0
40
2.000000
50
315.729847
51
43.534275
0
ARC
8
0
10
3108.186808
20
1228.801316
30
0.0
40
0.500000
50
180.000000
51
223.534275
0
LINE
8
0
10
3107.686808
20
1228.801316
30
0.0
11
3107.686808
21
1229.490112
31
0.0
0
ARC
8
0
10
3107.986808
20
1229.490112
30
0.0
40
0.300000
50
59.502378
51
180.000000
0
LINE
8
0
10
3108.139059
20
1229.748607
30
0.0
11
3110.556258
21
1228.324904
31
0.0
0
LINE
8
0
10
3110.612323
20
1228.282290
30
0.0
11
3110.556258
21
1228.324904
31
0.0
0
LINE
8
0
10
3110.612323
20
1228.282290
30
0.0
11
3111.089204
21
1227.822122
31
0.0
0
ARC
8
0
10
3110.988087
20
1227.717333
30
0.0
40
0.145621
50
270.000000
51
46.021839
0
LINE
8
0
10
3110.978794
20
1227.572009
30
0.0
11
3110.823529
21
1227.581938
31
0.0
0
ARC
8
0
10
3110.810766
20
1227.382345
30
0.0
40
0.200000
50
86.341100
51
139.517123
0
LINE
8
0
10
3110.658646
20
1227.512190
30
0.0
11
3109.289357
21
1225.907987
31
0.0
0
ARC
8
0
10
3109.517537
20
1225.713221
30
0.0
40
0.300000
50
139.517123
51
161.341100
0
LINE
8
0
10
3109.233305
20
1225.809201
30
0.0
11
3109.137325
21
1225.524969
31
0.0
0
ARC
8
0
10
3109.421557
20
1225.428989
30
0.0
40
0.300000
50
161.341100
51
0.000000
0
LINE
8
0
10
3109.721557
20
1225.428989
30
0.0
11
3114.221557
21
1225.428989
31
0.0
0
ARC
8
0
10
3114.221557
20
1225.628989
30
0.0
40
0.200000
50
270.000000
51
0.000000
0
LINE
8
0
10
3114.421557
20
1225.628989
30
0.0
11
3114.421557
21
1225.696878
31
0.0
0
ARC
8
0
10
3114.121557
20
1225.696878
30
0.0
40
0.300000
50
0.000000
51
31.380132
0
LINE
8
0
10
3114.377676
20
1225.853092
30
0.0
11
3113.355443
21
1227.529085
31
0.0
0
ARC
8
0
10
3113.349253
20
1227.728989
30
0.0
40
0.200000
50
90.000000
51
270.000000
0
LINE
8
0
10
3113.349253
20
1227.928989
30
0.0
11
3114.052001
21
1227.928989
31
0.0
0
ARC
8
0
10
3117.750650
20
1227.828989
30
0.0
40
3.700000
50
129.728396
51
178.451277
0
ARC
8
0
10
3115.865160
20
1230.097784
30
0.0
40
0.750000
50
309.728396
51
129.728396
0
ARC
8
0
10
3117.750650
20
1227.828989
30
0.0
40
2.200000
50
129.728396
51
165.000000
0
LINE
8
0
10
3115.625613
20
1228.398391
30
0.0
11
3115.335835
21
1228.476037
31
0.0
0
ARC
8
0
10
3117.750650
20
1227.828989
30
0.0
40
2.500000
50
165.000000
51
195.000000
0
LINE
8
0
10
3115.335835
20
1227.181942
30
0.0
11
3115.625613
21
1227.259587
31
0.0
0
ARC
8
0
10
3117.750650
20
1227.828989
30
0.0
40
2.200000
50
195.000000
51
255.000000
0
LINE
8
0
10
3117.181248
20
1225.703952
30
0.0
11
3117.103602
21
1225.414175
31
0.0
0
ARC
8
0
10
3117.750650
20
1227.828989
30
0.0
40
2.500000
50
255.000000
51
285.000000
0
LINE
8
0
10
3118.397697
20
1225.414175
30
0.0
11
3118.320052
21
1225.703952
31
0.0
0
ARC
8
0
10
3117.750650
20
1227.828989
30
0.0
40
2.200000
50
285.000000
51
345.000000
0
LINE
8
0
10
3119.875687
20
1227.259587
30
0.0
11
3120.165464
21
1227.181942
31
0.0
0
ARC
8
0
10
3117.750650
20
1227.828989
30
0.0
40
2.500000
50
345.000000
51
15.000000
0
LINE
8
0
10
3120.165464
20
1228.476037
30
0.0
11
3119.875687
21
1228.398391
31
0.0
0
ARC
8
0
10
3117.750650
20
1227.828989
30
0.0
40
2.200000
50
15.000000
51
50.271604
0
ARC
8
0
10
3119.636139
20
1230.097784
30
0.0
40
0.750000
50
50.271604
51
230.271604
0
ARC
8
0
10
3117.750650
20
1227.828989
30
0.0
40
3.700000
50
1.548723
51
50.271604
0
LINE
8
0
10
3121.449298
20
1227.928989
30
0.0
11
3122.152046
21
1227.928989
31
0.0
0
ARC
8
0
10
3122.152046
20
1227.728989
30
0.0
40
0.200000
50
270.000000
51
90.000000
0
LINE
8
0
10
3122.145856
20
1227.529085
30
0.0
11
3121.123623
21
1225.853092
31
0.0
0
ARC
8
0
10
3121.379743
20
1225.696878
30
0.0
40
0.300000
50
148.619868
51
180.000000
0
LINE
8
0
10
3121.079743
20
1225.696878
30
0.0
11
3121.079743
21
1225.628989
31
0.0
0
ARC
8
0
10
3121.279743
20
1225.628989
30
0.0
40
0.200000
50
180.000000
51
270.000000
0
LINE
8
0
10
3121.279743
20
1225.428989
30
0.0
11
3125.779743
21
1225.428989
31
0.0
0
ARC
8
0
10
3126.079743
20
1225.428989
30
0.0
40
0.300000
50
180.000000
51
18.658900
0
LINE
8
0
10
3126.363975
20
1225.524969
30
0.0
11
3126.267995
21
1225.809201
31
0.0
0
ARC
8
0
10
3125.983763
20
1225.713221
30
0.0
40
0.300000
50
18.658900
51
40.482877
0
LINE
8
0
10
3126.211943
20
1225.907987
30
0.0
11
3124.842654
21
1227.512190
31
0.0
0
ARC
8
0
10
3124.690534
20
1227.382345
30
0.0
40
0.200000
50
40.482877
51
93.658900
0
LINE
8
0
10
3124.677770
20
1227.581938
30
0.0
11
3124.522506
21
1227.572009
31
0.0
0
ARC
8
0
10
3124.513213
20
1227.717333
30
0.0
40
0.145621
50
133.978161
51
270.000000
0
LINE
8
0
10
3124.412096
20
1227.822122
30
0.0
11
3124.888977
21
1228.282290
31
0.0
0
LINE
8
0
10
3124.945041
20
1228.324904
30
0.0
11
3124.888977
21
1228.282290
31
0.0
0
LINE
8
0
10
3124.945041
20
1228.324904
30
0.0
11
3127.362240
21
1229.748607
31
0.0
0
ARC
8
0
10
3127.514491
20
1229.490112
30
0.0
40
0.300000
50
0.000000
51
120.497622
0
LINE
8
0
10
3127.814491
20
1229.490112
30
0.0
11
3127.814491
21
1228.801316
31
0.0
0
ARC
8
0
10
3127.314491
20
1228.801316
30
0.0
40
0.500000
50
316.465725
51
0.000000
0
ARC
8
0
10
3129.126897
20
1227.079345
30
0.0
40
2.000000
50
136.465725
51
226.077973
0
ARC
8
0
10
3128.259799
20
1226.178989
30
0.0
40
0.750000
50
226.077973
51
270.000000
0
LINE
8
0
10
3128.259799
20
1225.428989
30
0.0
11
3136.251573
21
1225.428989
31
0.0
0
ARC
8
0
10
3136.251573
20
1224.928989
30
0.0
40
0.500000
50
0.000000
51
90.000000
0
LINE
8
0
10
3136.751573
20
1224.928989
30
0.0
11
3136.751573
21
1222.028989
31
0.0
0
LINE
8
0
10
3136.751573
20
1222.028989
30
0.0
11
3137.644466
21
1222.028989
31
0.0
0
ARC
8
0
10
3137.644466
20
1221.528989
30
0.0
40
0.500000
50
45.000000
51
90.000000
0
LINE
8
0
10
3137.998020
20
1221.882543
30
0.0
11
3138.305126
21
1221.575436
31
0.0
0
ARC
8
0
10
3137.951573
20
1221.221882
30
0.0
40
0.500000
50
0.000000
51
45.000000
0
LINE
8
0
10
3138.451573
20
1221.221882
30
0.0
11
3138.451573
21
1221.028989
31
0.0
0
ARC
8
0
10
3137.951573
20
1221.028989
30
0.0
40
0.500000
50
270.000000
51
0.000000
0
LINE
8
0
10
3137.951573
20
1220.528989
30
0.0
11
3136.751573
21
1220.528989
31
0.0
0
LINE
8
0
10
3136.751573
20
1220.528989
30
0.0
11
3136.751573
21
1207.728989
31
0.0
0
LINE
8
0
10
3136.751573
20
1207.728989
30
0.0
11
3137.951573
21
1207.728989
31
0.0
0
ARC
8
0
10
3137.951573
20
1207.228989
30
0.0
40
0.500000
50
0.000000
51
90.000000
0
LINE
8
0
10
3138.451573
20
1207.228989
30
0.0
11
3138.451573
21
1207.036096
31
0.0
0
ARC
8
0
10
3137.951573
20
1207.036096
30
0.0
40
0.500000
50
315.000000
51
0.000000
0
LINE
8
0
10
3138.305126
20
1206.682543
30
0.0
11
3137.998020
21
1206.375436
31
0.0
0
ARC
8
0
10
3137.644466
20
1206.728989
30
0.0
40
0.500000
50
270.000000
51
315.000000
0
LINE
8
0
10
3137.644466
20
1206.228989
30
0.0
11
3136.751573
21
1206.228989
31
0.0
0
LINE
8
0
10
3136.751573
20
1206.228989
30
0.0
11
3136.751573
21
1203.628989
31
0.0
0
ARC
8
0
10
3136.251573
20
1203.628989
30
0.0
40
0.500000
50
270.000000
51
0.000000
0
LINE
8
0
10
3136.251573
20
1203.128989
30
0.0
11
3103.051573
21
1203.128989
31
0.0
0
ARC
8
0
10
3103.051573
20
1203.428989
30
0.0
40
0.300000
50
180.000000
51
270.000000
0
LINE
8
0
10
3102.751573
20
1203.428989
30
0.0
11
3102.751573
21
1205.222110
31
0.0
0
ARC
8
0
10
3102.951573
20
1205.222110
30
0.0
40
0.200000
50
113.198591
51
180.000000
0
LINE
8
0
10
3102.872789
20
1205.405939
30
0.0
11
3104.094974
21
1205.929733
31
0.0
0
ARC
8
0
10
3104.213150
20
1205.653989
30
0.0
40
0.300000
50
90.000000
51
113.198591
0
LINE
8
0
10
3104.213150
20
1205.953989
30
0.0
11
3104.951573
21
1205.953989
31
0.0
0
LINE
8
0
10
3104.951573
20
1205.953989
30
0.0
11
3104.951573
21
1207.543579
31
0.0
0
ARC
8
0
10
3105.251573
20
1207.543579
30
0.0
40
0.300000
50
116.565051
51
180.000000
0
LINE
8
0
10
3105.117409
20
1207.811907
30
0.0
11
3105.851573
21
1208.028989
31
0.0
0
LINE
8
0
10
3105.851573
20
1208.028989
30
0.0
11
3106.261074
21
1208.028989
31
0.0
0
ARC
8
0
10
3106.261074
20
1207.928989
30
0.0
40
0.100000
50
0.000000
51
90.000000
0
LINE
8
0
10
3106.360578
20
1207.938940
30
0.0
11
3106.551573
21
1206.028989
31
0.0
0
LINE
8
0
10
3106.551573
20
1206.028989
30
0.0
11
3106.551573
21
1204.828989
31
0.0
0
LINE
8
0
10
3106.551573
20
1204.828989
30
0.0
11
3114.551573
21
1204.828989
31
0.0
0
LINE
8
0
10
3114.551573
20
1204.828989
30
0.0
11
3114.551573
21
1210.128989
31
0.0
0
LINE
8
0
10
3114.551573
20
1210.128989
30
0.0
11
3114.251573
21
1210.128989
31
0.0
0
LINE
8
0
10
3114.251573
20
1210.128989
30
0.0
11
3114.251573
21
1213.828989
31
0.0
0
LINE
8
0
10
3114.251573
20
1213.828989
30
0.0
11
3114.551573
21
1214.128989
31
0.0
0
LINE
8
0
10
3114.551573
20
1214.128989
30
0.0
11
3114.251573
21
1214.428989
31
0.0
0
LINE
8
0
10
3114.251573
20
1214.428989
30
0.0
11
3114.251573
21
1218.128989
31
0.0
0
LINE
8
0
10
3114.251573
20
1218.128989
30
0.0
11
3114.551573
21
1218.128989
31
0.0
0
LINE
8
0
10
3114.551573
20
1218.128989
30
0.0
11
3114.551573
21
1223.928989
31
0.0
0
LINE
8
0
10
3114.551573
20
1223.928989
30
0.0
11
3110.499727
21
1223.928989
31
0.0
0
LINE
8
0
10
3135.251573
20
1204.628989
30
0.0
11
3116.101573
21
1204.628989
31
0.0
0
LINE
8
0
10
3116.101573
20
1204.628989
30
0.0
11
3116.101573
21
1223.928989
31
0.0
0
LINE
8
0
10
3116.101573
20
1223.928989
30
0.0
11
3135.251573
21
1223.928989
31
0.0
0
LINE
8
0
10
3135.251573
20
1223.928989
30
0.0
11
3135.251573
21
1204.628989
31
0.0
0
ATTDEF
8
0
10
3149.751573
20
1263.128989
30
0.0
40
3.5
1

3

2
FRONT_VIEW
70
0
0
ATTDEF
8
0
10
3149.751573
20
1263.128989
30
0.0
40
3.5
1

3

2
OPTI:500.000000,1,0,3000.000000,6500.000000,500.000000,0,0.000000,0
70
0
0
ATTDEF
8
0
10
3149.751573
20
1263.128989
30
0.0
40
3.5
1

3

2
GLASS_MIN:0.000000
70
0
0
ATTDEF
8
0
10
3149.751573
20
1263.128989
30
0.0
40
3.5
1

3

2
GLASS_MAX:0.000000
70
0
0
ATTDEF
8
0
10
3102.751573
20
1223.567429
30
0.0
40
3.5
1

3

2
HC_START
70
0
0
ATTDEF
8
0
10
3136.751573
20
1214.128989
30
0.0
40
3.5
1

3

2
HC_END
70
0
0
ATTDEF
8
0
10
3149.751573
20
1263.128989
30
0.0
40
3.5
1

3

2
FP_LCS_ORIG
70
0
0
ATTDEF
8
0
10
3149.751573
20
1253.128989
30
0.0
40
3.5
1

3

2
FP_LCS_HOT
70
0
0
ATTDEF
8
0
10
3139.751573
20
1263.128989
30
0.0
40
3.5
1

3

2
FP_LCS_INTERN
70
0
0
ATTDEF
8
0
10
0.000000
20
0.000000
30
0.0
40
3.5
1

3

2
TDEV5:0
70
0
0
ATTDEF
8
0
10
0.000000
20
0.000000
30
0.0
40
3.5
1

3

2
PANE_WIDTH:0
70
0
0
ATTDEF
8
0
10
0.000000
20
0.000000
30
0.0
40
3.5
1

3

2
MIN_VETRO:0
70
0
0
ATTDEF
8
0
10
0.000000
20
0.000000
30
0.0
40
3.5
1

3

2
MAX_VETRO:0
70
0
0
ATTDEF
8
0
10
0.000000
20
0.000000
30
0.0
40
3.5
1

3

2
JX:0
70
0
0
ATTDEF
8
0
10
0.000000
20
0.000000
30
0.0
40
3.5
1

3

2
WX:0
70
0
0
ATTDEF
8
0
10
0.000000
20
0.000000
30
0.0
40
3.5
1

3

2
JY:0
70
0
0
ATTDEF
8
0
10
0.000000
20
0.000000
30
0.0
40
3.5
1

3

2
WY:0
70
0
0
ATTDEF
8
0
10
0.000000
20
0.000000
30
0.0
40
3.5
1

3

2
BL01:6500, ,1
70
0
0
ATTDEF
8
0
10
0.000000
20
0.000000
30
0.0
40
3.5
1

3

2
DESC:Inversor puerta apertura exterior
70
0
0
ATTDEF
8
0
10
0.000000
20
0.000000
30
0.0
40
3.5
1

3

2
DENS:1.486
70
0
0
ATTDEF
8
0
10
0.000000
20
0.000000
30
0.0
40
3.5
1

3

2
TDEV:59.71
70
0
0
ATTDEF
8
0
10
0.000000
20
0.000000
30
0.0
40
3.5
1

3

2
TDEV2:0
70
0
0
ATTDEF
8
0
10
0.000000
20
0.000000
30
0.0
40
3.5
1

3

2
TDEV3:0
70
0
0
ATTDEF
8
0
10
0.000000
20
0.000000
30
0.0
40
3.5
1

3

2
TDEV4:0
70
0
0
ATTDEF
8
0
10
0.000000
20
0.000000
30
0.0
40
3.5
1

3

2
TDEV5:0
70
0
0
ATTDEF
8
0
10
0.000000
20
0.000000
30
0.0
40
3.5
1

3

2
PANE_WIDTH:0
70
0
0
ATTDEF
8
0
10
0.000000
20
0.000000
30
0.0
40
3.5
1

3

2
MIN_VETRO:0
70
0
0
ATTDEF
8
0
10
0.000000
20
0.000000
30
0.0
40
3.5
1

3

2
MAX_VETRO:0
70
0
0
ATTDEF
8
0
10
0.000000
20
0.000000
30
0.0
40
3.5
1

3

2
JX:0
70
0
0
ATTDEF
8
0
10
0.000000
20
0.000000
30
0.0
40
3.5
1

3

2
WX:0
70
0
0
ATTDEF
8
0
10
0.000000
20
0.000000
30
0.0
40
3.5
1

3

2
JY:0
70
0
0
ATTDEF
8
0
10
0.000000
20
0.000000
30
0.0
40
3.5
1

3

2
WY:0
70
0
0
ATTDEF
8
0
10
0.000000
20
0.000000
30
0.0
40
3.5
1

3

2
BL01:6500, ,1
70
0
0
ENDSEC
0
EOF
