0
SECTION
2
ENTITIES
0
ARC
8
0
10
3199.413312
20
1225.238094
30
0.0
40
0.600000
50
0.000000
51
180.000000
0
ARC
8
0
10
3199.413312
20
1225.238094
30
0.0
40
0.600000
50
180.000000
51
0.000000
0
ARC
8
0
10
3210.642129
20
1225.238094
30
0.0
40
0.600000
50
0.000000
51
180.000000
0
ARC
8
0
10
3210.642129
20
1225.238094
30
0.0
40
0.600000
50
180.000000
51
0.000000
0
ARC
8
0
10
3210.642129
20
1248.738094
30
0.0
40
0.600000
50
0.000000
51
180.000000
0
ARC
8
0
10
3210.642129
20
1248.738094
30
0.0
40
0.600000
50
180.000000
51
0.000000
0
ARC
8
0
10
3199.413312
20
1248.738094
30
0.0
40
0.600000
50
0.000000
51
180.000000
0
ARC
8
0
10
3199.413312
20
1248.738094
30
0.0
40
0.600000
50
180.000000
51
0.000000
0
LINE
8
0
10
3198.867080
20
1225.486349
30
0.0
11
3198.077652
21
1226.275777
31
0.0
0
LINE
8
0
10
3191.865335
20
1232.488094
30
0.0
11
3190.313312
21
1234.040117
31
0.0
0
LINE
8
0
10
3201.360381
20
1225.238112
30
0.0
11
3195.313312
21
1231.285181
31
0.0
0
LINE
8
0
10
3192.313312
20
1234.285181
30
0.0
11
3191.274855
21
1235.323638
31
0.0
0
LINE
8
0
10
3194.110399
20
1232.488094
30
0.0
11
3192.610399
21
1233.988094
31
0.0
0
LINE
8
0
10
3196.913312
20
1231.930245
30
0.0
11
3194.855463
21
1233.988094
31
0.0
0
LINE
8
0
10
3196.913312
20
1234.175309
30
0.0
11
3195.313312
21
1235.775309
31
0.0
0
LINE
8
0
10
3192.313312
20
1238.775309
30
0.0
11
3190.313312
21
1240.775309
31
0.0
0
LINE
8
0
10
3197.051009
20
1236.282676
30
0.0
11
3195.313312
21
1238.020373
31
0.0
0
LINE
8
0
10
3193.345591
20
1239.988094
30
0.0
11
3191.845591
21
1241.488094
31
0.0
0
LINE
8
0
10
3199.140655
20
1236.438094
30
0.0
11
3198.040655
21
1237.538094
31
0.0
0
LINE
8
0
10
3196.913312
20
1238.665437
30
0.0
11
3194.090655
21
1241.488094
31
0.0
0
LINE
8
0
10
3201.385719
20
1236.438094
30
0.0
11
3200.285719
21
1237.538094
31
0.0
0
LINE
8
0
10
3196.913312
20
1240.910501
30
0.0
11
3195.313312
21
1242.510501
31
0.0
0
LINE
8
0
10
3203.630783
20
1236.438094
30
0.0
11
3202.530783
21
1237.538094
31
0.0
0
LINE
8
0
10
3197.033333
20
1243.035544
30
0.0
11
3195.421726
21
1244.647151
31
0.0
0
LINE
8
0
10
3205.875847
20
1236.438094
30
0.0
11
3204.775847
21
1237.538094
31
0.0
0
LINE
8
0
10
3198.209885
20
1244.104056
30
0.0
11
3196.764079
21
1245.549862
31
0.0
0
LINE
8
0
10
3208.120911
20
1236.438094
30
0.0
11
3207.020911
21
1237.538094
31
0.0
0
LINE
8
0
10
3199.571018
20
1244.987987
30
0.0
11
3198.125215
21
1246.433790
31
0.0
0
LINE
8
0
10
3210.365975
20
1236.438094
30
0.0
11
3209.265975
21
1237.538094
31
0.0
0
LINE
8
0
10
3200.513312
20
1246.290757
30
0.0
11
3197.486020
21
1249.318049
31
0.0
0
LINE
8
0
10
3212.497708
20
1236.551425
30
0.0
11
3211.511039
21
1237.538094
31
0.0
0
LINE
8
0
10
3200.971837
20
1248.077296
30
0.0
11
3199.939114
21
1249.110019
31
0.0
0
LINE
8
0
10
3212.013336
20
1237.538094
30
0.0
11
3210.913336
21
1236.438094
31
0.0
0
LINE
8
0
10
3200.750520
20
1226.275277
30
0.0
11
3199.960182
21
1225.484940
31
0.0
0
LINE
8
0
10
3209.768272
20
1237.538094
30
0.0
11
3208.668272
21
1236.438094
31
0.0
0
LINE
8
0
10
3200.419658
20
1228.189479
30
0.0
11
3197.463552
21
1225.233373
31
0.0
0
LINE
8
0
10
3207.523208
20
1237.538094
30
0.0
11
3206.423208
21
1236.438094
31
0.0
0
LINE
8
0
10
3199.208644
20
1229.223530
30
0.0
11
3197.762840
21
1227.777726
31
0.0
0
LINE
8
0
10
3205.278144
20
1237.538094
30
0.0
11
3204.178144
21
1236.438094
31
0.0
0
LINE
8
0
10
3197.847511
20
1230.107460
30
0.0
11
3196.401704
21
1228.661654
31
0.0
0
LINE
8
0
10
3203.033080
20
1237.538094
30
0.0
11
3201.933080
21
1236.438094
31
0.0
0
LINE
8
0
10
3196.917095
20
1231.422108
30
0.0
11
3195.313312
21
1229.818326
31
0.0
0
LINE
8
0
10
3200.788016
20
1237.538094
30
0.0
11
3199.688016
21
1236.438094
31
0.0
0
LINE
8
0
10
3196.913312
20
1233.663390
30
0.0
11
3195.313312
21
1232.063390
31
0.0
0
LINE
8
0
10
3198.542952
20
1237.538094
30
0.0
11
3197.442952
21
1236.438094
31
0.0
0
LINE
8
0
10
3194.992952
20
1233.988094
30
0.0
11
3193.492952
21
1232.488094
31
0.0
0
LINE
8
0
10
3196.913312
20
1235.908454
30
0.0
11
3195.313312
21
1234.308454
31
0.0
0
LINE
8
0
10
3196.913312
20
1238.153518
30
0.0
11
3195.313312
21
1236.553518
31
0.0
0
LINE
8
0
10
3192.747888
20
1233.988094
30
0.0
11
3191.247888
21
1232.488094
31
0.0
0
LINE
8
0
10
3196.913312
20
1240.398582
30
0.0
11
3195.313312
21
1238.798582
31
0.0
0
LINE
8
0
10
3191.902824
20
1235.388094
30
0.0
11
3190.313312
21
1233.798582
31
0.0
0
LINE
8
0
10
3200.513286
20
1246.243620
30
0.0
11
3198.677202
21
1244.407535
31
0.0
0
LINE
8
0
10
3196.928217
20
1242.658550
30
0.0
11
3194.257760
21
1239.988094
31
0.0
0
LINE
8
0
10
3201.341447
20
1249.316845
30
0.0
11
3195.313312
21
1243.288710
31
0.0
0
LINE
8
0
10
3193.512696
20
1241.488094
30
0.0
11
3190.963004
21
1238.938402
31
0.0
0
LINE
8
0
10
3198.887644
20
1249.108106
30
0.0
11
3197.856071
21
1248.076533
31
0.0
0
LINE
8
0
10
3191.267632
20
1241.488094
30
0.0
11
3190.313312
21
1240.533774
31
0.0
0
LINE
8
0
10
3201.013312
20
1224.488094
30
0.0
11
3200.613312
21
1224.488094
31
0.0
0
ARC
8
0
10
3200.613312
20
1224.588094
30
0.0
40
0.100000
50
180.000000
51
270.000000
0
LINE
8
0
10
3200.513312
20
1224.588094
30
0.0
11
3200.238312
21
1224.588094
31
0.0
0
ARC
8
0
10
3200.238312
20
1224.888094
30
0.0
40
0.300000
50
164.493566
51
270.000000
0
ARC
8
0
10
3199.413312
20
1225.238094
30
0.0
40
0.600000
50
333.278126
51
206.721874
0
ARC
8
0
10
3198.588312
20
1224.888094
30
0.0
40
0.300000
50
270.000000
51
15.506434
0
LINE
8
0
10
3198.588312
20
1224.588094
30
0.0
11
3198.313312
21
1224.588094
31
0.0
0
ARC
8
0
10
3198.213312
20
1224.588094
30
0.0
40
0.100000
50
270.000000
51
0.000000
0
LINE
8
0
10
3198.213312
20
1224.488094
30
0.0
11
3197.813312
21
1224.488094
31
0.0
0
ARC
8
0
10
3197.813312
20
1224.888094
30
0.0
40
0.400000
50
180.000000
51
270.000000
0
LINE
8
0
10
3197.413312
20
1224.888094
30
0.0
11
3197.413312
21
1225.066296
31
0.0
0
ARC
8
0
10
3197.713312
20
1225.066296
30
0.0
40
0.300000
50
149.496833
51
180.000000
0
LINE
8
0
10
3197.454832
20
1225.218571
30
0.0
11
3198.147233
21
1226.393888
31
0.0
0
ARC
8
0
10
3197.113312
20
1227.002991
30
0.0
40
1.200000
50
329.496833
51
0.000000
0
LINE
8
0
10
3198.313312
20
1227.002991
30
0.0
11
3198.313312
21
1227.257360
31
0.0
0
ARC
8
0
10
3198.013312
20
1227.257360
30
0.0
40
0.300000
50
0.000000
51
57.390000
0
LINE
8
0
10
3198.174987
20
1227.510067
30
0.0
11
3195.540993
21
1229.220604
31
0.0
0
ARC
8
0
10
3195.813312
20
1229.639939
30
0.0
40
0.500000
50
180.000000
51
237.000000
0
LINE
8
0
10
3195.313312
20
1229.639939
30
0.0
11
3195.313312
21
1232.188094
31
0.0
0
ARC
8
0
10
3195.013312
20
1232.188094
30
0.0
40
0.300000
50
0.000000
51
90.000000
0
LINE
8
0
10
3195.013312
20
1232.488094
30
0.0
11
3190.813312
21
1232.488094
31
0.0
0
ARC
8
0
10
3190.813312
20
1232.988094
30
0.0
40
0.500000
50
180.000000
51
270.000000
0
LINE
8
0
10
3190.313312
20
1232.988094
30
0.0
11
3190.313312
21
1234.180987
31
0.0
0
ARC
8
0
10
3190.813312
20
1234.180987
30
0.0
40
0.500000
50
135.000000
51
180.000000
0
LINE
8
0
10
3190.459759
20
1234.534540
30
0.0
11
3191.166865
21
1235.241647
31
0.0
0
ARC
8
0
10
3191.520419
20
1234.888094
30
0.0
40
0.500000
50
90.000000
51
135.000000
0
LINE
8
0
10
3191.520419
20
1235.388094
30
0.0
11
3192.313312
21
1235.388094
31
0.0
0
LINE
8
0
10
3192.313312
20
1235.388094
30
0.0
11
3192.313312
21
1233.988094
31
0.0
0
LINE
8
0
10
3192.313312
20
1233.988094
30
0.0
11
3195.013312
21
1233.988094
31
0.0
0
ARC
8
0
10
3195.013312
20
1234.288094
30
0.0
40
0.300000
50
270.000000
51
0.000000
0
LINE
8
0
10
3195.313312
20
1234.288094
30
0.0
11
3195.313312
21
1239.688094
31
0.0
0
ARC
8
0
10
3195.013312
20
1239.688094
30
0.0
40
0.300000
50
0.000000
51
90.000000
0
LINE
8
0
10
3195.013312
20
1239.988094
30
0.0
11
3192.313312
21
1239.988094
31
0.0
0
LINE
8
0
10
3192.313312
20
1239.988094
30
0.0
11
3192.313312
21
1238.588094
31
0.0
0
LINE
8
0
10
3192.313312
20
1238.588094
30
0.0
11
3191.520419
21
1238.588094
31
0.0
0
ARC
8
0
10
3191.520419
20
1239.088094
30
0.0
40
0.500000
50
225.000000
51
270.000000
0
LINE
8
0
10
3191.166865
20
1238.734540
30
0.0
11
3190.459759
21
1239.441647
31
0.0
0
ARC
8
0
10
3190.813312
20
1239.795201
30
0.0
40
0.500000
50
180.000000
51
225.000000
0
LINE
8
0
10
3190.313312
20
1239.795201
30
0.0
11
3190.313312
21
1240.988094
31
0.0
0
ARC
8
0
10
3190.813312
20
1240.988094
30
0.0
40
0.500000
50
90.000000
51
180.000000
0
LINE
8
0
10
3190.813312
20
1241.488094
30
0.0
11
3195.013312
21
1241.488094
31
0.0
0
ARC
8
0
10
3195.013312
20
1241.788094
30
0.0
40
0.300000
50
270.000000
51
0.000000
0
LINE
8
0
10
3195.313312
20
1241.788094
30
0.0
11
3195.313312
21
1244.336249
31
0.0
0
ARC
8
0
10
3195.813312
20
1244.336249
30
0.0
40
0.500000
50
123.000000
51
180.000000
0
LINE
8
0
10
3195.540993
20
1244.755584
30
0.0
11
3198.174987
21
1246.466120
31
0.0
0
ARC
8
0
10
3198.013312
20
1246.718828
30
0.0
40
0.300000
50
302.610000
51
0.000000
0
LINE
8
0
10
3198.313312
20
1246.718828
30
0.0
11
3198.313312
21
1246.973197
31
0.0
0
ARC
8
0
10
3197.113312
20
1246.973197
30
0.0
40
1.200000
50
0.000000
51
30.503167
0
LINE
8
0
10
3198.147233
20
1247.582300
30
0.0
11
3197.454832
21
1248.757616
31
0.0
0
ARC
8
0
10
3197.713312
20
1248.909892
30
0.0
40
0.300000
50
180.000000
51
210.503167
0
LINE
8
0
10
3197.413312
20
1248.909892
30
0.0
11
3197.413312
21
1249.088094
31
0.0
0
ARC
8
0
10
3197.813312
20
1249.088094
30
0.0
40
0.400000
50
90.000000
51
180.000000
0
LINE
8
0
10
3197.813312
20
1249.488094
30
0.0
11
3198.213312
21
1249.488094
31
0.0
0
ARC
8
0
10
3198.213312
20
1249.388094
30
0.0
40
0.100000
50
0.000000
51
90.000000
0
LINE
8
0
10
3198.313312
20
1249.388094
30
0.0
11
3198.588312
21
1249.388094
31
0.0
0
ARC
8
0
10
3198.588312
20
1249.088094
30
0.0
40
0.300000
50
344.493566
51
90.000000
0
ARC
8
0
10
3199.413312
20
1248.738094
30
0.0
40
0.600000
50
153.278126
51
26.721874
0
ARC
8
0
10
3200.238312
20
1249.088094
30
0.0
40
0.300000
50
90.000000
51
195.506434
0
LINE
8
0
10
3200.238312
20
1249.388094
30
0.0
11
3200.513312
21
1249.388094
31
0.0
0
ARC
8
0
10
3200.613312
20
1249.388094
30
0.0
40
0.100000
50
90.000000
51
180.000000
0
LINE
8
0
10
3200.613312
20
1249.488094
30
0.0
11
3201.013312
21
1249.488094
31
0.0
0
ARC
8
0
10
3201.013312
20
1249.088094
30
0.0
40
0.400000
50
0.000000
51
90.000000
0
LINE
8
0
10
3201.413312
20
1249.088094
30
0.0
11
3201.413312
21
1248.909759
31
0.0
0
ARC
8
0
10
3201.113312
20
1248.909759
30
0.0
40
0.300000
50
329.544173
51
0.000000
0
LINE
8
0
10
3201.371918
20
1248.757697
30
0.0
11
3200.683760
21
1247.587373
31
0.0
0
ARC
8
0
10
3201.713312
20
1246.970914
30
0.0
40
1.200000
50
149.088345
51
180.000000
0
LINE
8
0
10
3200.513312
20
1246.970914
30
0.0
11
3200.513312
21
1246.251466
31
0.0
0
ARC
8
0
10
3199.313312
20
1246.251466
30
0.0
40
1.200000
50
303.000000
51
0.000000
0
LINE
8
0
10
3199.966879
20
1245.245062
30
0.0
11
3197.596353
21
1243.705624
31
0.0
0
ARC
8
0
10
3198.413312
20
1242.447618
30
0.0
40
1.500000
50
123.000000
51
180.000000
0
LINE
8
0
10
3196.913312
20
1242.447618
30
0.0
11
3196.913312
21
1238.038094
31
0.0
0
ARC
8
0
10
3197.413312
20
1238.038094
30
0.0
40
0.500000
50
180.000000
51
270.000000
0
LINE
8
0
10
3197.413312
20
1237.538094
30
0.0
11
3212.163312
21
1237.538094
31
0.0
0
ARC
8
0
10
3212.163312
20
1236.988094
30
0.0
40
0.550000
50
270.000000
51
90.000000
0
LINE
8
0
10
3212.163312
20
1236.438094
30
0.0
11
3197.413312
21
1236.438094
31
0.0
0
ARC
8
0
10
3197.413312
20
1235.938094
30
0.0
40
0.500000
50
90.000000
51
180.000000
0
LINE
8
0
10
3196.913312
20
1235.938094
30
0.0
11
3196.913312
21
1231.528569
31
0.0
0
ARC
8
0
10
3198.413312
20
1231.528569
30
0.0
40
1.500000
50
180.000000
51
237.000000
0
LINE
8
0
10
3197.596353
20
1230.270563
30
0.0
11
3199.966879
21
1228.731126
31
0.0
0
ARC
8
0
10
3199.313312
20
1227.724721
30
0.0
40
1.200000
50
0.000000
51
57.000000
0
LINE
8
0
10
3200.513312
20
1227.724721
30
0.0
11
3200.513312
21
1227.005273
31
0.0
0
ARC
8
0
10
3201.713312
20
1227.005273
30
0.0
40
1.200000
50
180.000000
51
210.911655
0
LINE
8
0
10
3200.683760
20
1226.388815
30
0.0
11
3201.371918
21
1225.218491
31
0.0
0
ARC
8
0
10
3201.113312
20
1225.066429
30
0.0
40
0.300000
50
0.000000
51
30.455827
0
LINE
8
0
10
3201.413312
20
1225.066429
30
0.0
11
3201.413312
21
1224.888094
31
0.0
0
ARC
8
0
10
3201.013312
20
1224.888094
30
0.0
40
0.400000
50
270.000000
51
0.000000
0
LINE
8
0
10
3210.094809
20
1225.483940
30
0.0
11
3209.304384
21
1226.274365
31
0.0
0
LINE
8
0
10
3212.593968
20
1225.229845
30
0.0
11
3209.635355
21
1228.188458
31
0.0
0
LINE
8
0
10
3199.385719
20
1238.438094
30
0.0
11
3198.285719
21
1239.538094
31
0.0
0
LINE
8
0
10
3212.291722
20
1227.777155
30
0.0
11
3210.845918
21
1229.222959
31
0.0
0
LINE
8
0
10
3201.630783
20
1238.438094
30
0.0
11
3200.530783
21
1239.538094
31
0.0
0
LINE
8
0
10
3213.652858
20
1228.661083
30
0.0
11
3212.207052
21
1230.106889
31
0.0
0
LINE
8
0
10
3203.875847
20
1238.438094
30
0.0
11
3202.775847
21
1239.538094
31
0.0
0
LINE
8
0
10
3214.742129
20
1229.816876
30
0.0
11
3213.138250
21
1231.420755
31
0.0
0
LINE
8
0
10
3206.120911
20
1238.438094
30
0.0
11
3205.020911
21
1239.538094
31
0.0
0
LINE
8
0
10
3214.742129
20
1232.061940
30
0.0
11
3213.142129
21
1233.661940
31
0.0
0
LINE
8
0
10
3208.365975
20
1238.438094
30
0.0
11
3207.265975
21
1239.538094
31
0.0
0
LINE
8
0
10
3214.742129
20
1234.307004
30
0.0
11
3213.142129
21
1235.907004
31
0.0
0
LINE
8
0
10
3210.611039
20
1238.438094
30
0.0
11
3209.511039
21
1239.538094
31
0.0
0
LINE
8
0
10
3214.742129
20
1236.552068
30
0.0
11
3211.756103
21
1239.538094
31
0.0
0
LINE
8
0
10
3214.742129
20
1238.797132
30
0.0
11
3213.142129
21
1240.397132
31
0.0
0
LINE
8
0
10
3214.742129
20
1241.042196
30
0.0
11
3213.127463
21
1242.656862
31
0.0
0
LINE
8
0
10
3211.374104
20
1244.410221
30
0.0
11
3209.542165
21
1246.242160
31
0.0
0
LINE
8
0
10
3214.742129
20
1243.287260
30
0.0
11
3208.713399
21
1249.315990
31
0.0
0
LINE
8
0
10
3212.198833
20
1248.075621
30
0.0
11
3211.167709
21
1249.106744
31
0.0
0
LINE
8
0
10
3211.977252
20
1226.276689
30
0.0
11
3211.187908
21
1225.487345
31
0.0
0
LINE
8
0
10
3214.742129
20
1231.286630
30
0.0
11
3208.697130
21
1225.241631
31
0.0
0
LINE
8
0
10
3214.742129
20
1233.531694
30
0.0
11
3213.142129
21
1231.931694
31
0.0
0
LINE
8
0
10
3214.742129
20
1235.776758
30
0.0
11
3213.142129
21
1234.176758
31
0.0
0
LINE
8
0
10
3214.742129
20
1238.021822
30
0.0
11
3213.142129
21
1236.421822
31
0.0
0
LINE
8
0
10
3214.742129
20
1240.266887
30
0.0
11
3212.862268
21
1238.387025
31
0.0
0
LINE
8
0
10
3214.742129
20
1242.511951
30
0.0
11
3213.142129
21
1240.911951
31
0.0
0
LINE
8
0
10
3211.768272
20
1239.538094
30
0.0
11
3210.668272
21
1238.438094
31
0.0
0
LINE
8
0
10
3214.633073
20
1244.647958
30
0.0
11
3213.021675
21
1243.036561
31
0.0
0
LINE
8
0
10
3209.523208
20
1239.538094
30
0.0
11
3208.423208
21
1238.438094
31
0.0
0
LINE
8
0
10
3213.290483
20
1245.550433
30
0.0
11
3211.844678
21
1244.104627
31
0.0
0
LINE
8
0
10
3207.278144
20
1239.538094
30
0.0
11
3206.178144
21
1238.438094
31
0.0
0
LINE
8
0
10
3211.929347
20
1246.434360
30
0.0
11
3210.483544
21
1244.988557
31
0.0
0
LINE
8
0
10
3205.033080
20
1239.538094
30
0.0
11
3203.933080
21
1238.438094
31
0.0
0
LINE
8
0
10
3212.568822
20
1249.318900
30
0.0
11
3209.542129
21
1246.292207
31
0.0
0
LINE
8
0
10
3202.788016
20
1239.538094
30
0.0
11
3201.688016
21
1238.438094
31
0.0
0
LINE
8
0
10
3210.116225
20
1249.111367
30
0.0
11
3209.083067
21
1248.078209
31
0.0
0
LINE
8
0
10
3200.542952
20
1239.538094
30
0.0
11
3199.442952
21
1238.438094
31
0.0
0
LINE
8
0
10
3198.297888
20
1239.538094
30
0.0
11
3197.571262
21
1238.811467
31
0.0
0
LINE
8
0
10
3209.542129
20
1227.724721
30
0.0
11
3209.542129
21
1227.005273
31
0.0
0
ARC
8
0
10
3208.342129
20
1227.005273
30
0.0
40
1.200000
50
329.088345
51
0.000000
0
LINE
8
0
10
3209.371682
20
1226.388815
30
0.0
11
3208.683523
21
1225.218491
31
0.0
0
ARC
8
0
10
3208.942129
20
1225.066429
30
0.0
40
0.300000
50
149.544173
51
180.000000
0
LINE
8
0
10
3208.642129
20
1225.066429
30
0.0
11
3208.642129
21
1224.888094
31
0.0
0
ARC
8
0
10
3209.042129
20
1224.888094
30
0.0
40
0.400000
50
180.000000
51
270.000000
0
LINE
8
0
10
3209.042129
20
1224.488094
30
0.0
11
3209.442129
21
1224.488094
31
0.0
0
ARC
8
0
10
3209.442129
20
1224.588094
30
0.0
40
0.100000
50
270.000000
51
0.000000
0
LINE
8
0
10
3209.542129
20
1224.588094
30
0.0
11
3209.817129
21
1224.588094
31
0.0
0
ARC
8
0
10
3209.817129
20
1224.888094
30
0.0
40
0.300000
50
270.000000
51
15.506434
0
ARC
8
0
10
3210.642129
20
1225.238094
30
0.0
40
0.600000
50
333.278126
51
206.721874
0
ARC
8
0
10
3211.467129
20
1224.888094
30
0.0
40
0.300000
50
164.493566
51
270.000000
0
LINE
8
0
10
3211.467129
20
1224.588094
30
0.0
11
3211.742129
21
1224.588094
31
0.0
0
ARC
8
0
10
3211.842129
20
1224.588094
30
0.0
40
0.100000
50
180.000000
51
270.000000
0
LINE
8
0
10
3211.842129
20
1224.488094
30
0.0
11
3212.242129
21
1224.488094
31
0.0
0
ARC
8
0
10
3212.242129
20
1224.888094
30
0.0
40
0.400000
50
270.000000
51
0.000000
0
LINE
8
0
10
3212.642129
20
1224.888094
30
0.0
11
3212.642129
21
1225.066296
31
0.0
0
ARC
8
0
10
3212.342129
20
1225.066296
30
0.0
40
0.300000
50
0.000000
51
30.503167
0
LINE
8
0
10
3212.600610
20
1225.218571
30
0.0
11
3211.908208
21
1226.393888
31
0.0
0
ARC
8
0
10
3212.942129
20
1227.002991
30
0.0
40
1.200000
50
180.000000
51
210.503167
0
LINE
8
0
10
3211.742129
20
1227.002991
30
0.0
11
3211.742129
21
1227.257360
31
0.0
0
ARC
8
0
10
3212.042129
20
1227.257360
30
0.0
40
0.300000
50
122.610000
51
180.000000
0
LINE
8
0
10
3211.880454
20
1227.510067
30
0.0
11
3214.514449
21
1229.220604
31
0.0
0
ARC
8
0
10
3214.242129
20
1229.639939
30
0.0
40
0.500000
50
303.000000
51
0.000000
0
LINE
8
0
10
3214.742129
20
1229.639939
30
0.0
11
3214.742129
21
1244.336249
31
0.0
0
ARC
8
0
10
3214.242129
20
1244.336249
30
0.0
40
0.500000
50
0.000000
51
57.000000
0
LINE
8
0
10
3214.514449
20
1244.755584
30
0.0
11
3211.880454
21
1246.466120
31
0.0
0
ARC
8
0
10
3212.042129
20
1246.718828
30
0.0
40
0.300000
50
180.000000
51
237.390000
0
LINE
8
0
10
3211.742129
20
1246.718828
30
0.0
11
3211.742129
21
1246.973197
31
0.0
0
ARC
8
0
10
3212.942129
20
1246.973197
30
0.0
40
1.200000
50
149.496833
51
180.000000
0
LINE
8
0
10
3211.908208
20
1247.582300
30
0.0
11
3212.600610
21
1248.757616
31
0.0
0
ARC
8
0
10
3212.342129
20
1248.909892
30
0.0
40
0.300000
50
329.496833
51
0.000000
0
LINE
8
0
10
3212.642129
20
1248.909892
30
0.0
11
3212.642129
21
1249.088094
31
0.0
0
ARC
8
0
10
3212.242129
20
1249.088094
30
0.0
40
0.400000
50
0.000000
51
90.000000
0
LINE
8
0
10
3212.242129
20
1249.488094
30
0.0
11
3211.842129
21
1249.488094
31
0.0
0
ARC
8
0
10
3211.842129
20
1249.388094
30
0.0
40
0.100000
50
90.000000
51
180.000000
0
LINE
8
0
10
3211.742129
20
1249.388094
30
0.0
11
3211.467129
21
1249.388094
31
0.0
0
ARC
8
0
10
3211.467129
20
1249.088094
30
0.0
40
0.300000
50
90.000000
51
195.506434
0
ARC
8
0
10
3210.642129
20
1248.738094
30
0.0
40
0.600000
50
153.278126
51
26.721874
0
ARC
8
0
10
3209.817129
20
1249.088094
30
0.0
40
0.300000
50
344.493566
51
90.000000
0
LINE
8
0
10
3209.817129
20
1249.388094
30
0.0
11
3209.542129
21
1249.388094
31
0.0
0
ARC
8
0
10
3209.442129
20
1249.388094
30
0.0
40
0.100000
50
0.000000
51
90.000000
0
LINE
8
0
10
3209.442129
20
1249.488094
30
0.0
11
3209.042129
21
1249.488094
31
0.0
0
ARC
8
0
10
3209.042129
20
1249.088094
30
0.0
40
0.400000
50
90.000000
51
180.000000
0
LINE
8
0
10
3208.642129
20
1249.088094
30
0.0
11
3208.642129
21
1248.909759
31
0.0
0
ARC
8
0
10
3208.942129
20
1248.909759
30
0.0
40
0.300000
50
180.000000
51
210.455827
0
LINE
8
0
10
3208.683523
20
1248.757697
30
0.0
11
3209.371682
21
1247.587373
31
0.0
0
ARC
8
0
10
3208.342129
20
1246.970914
30
0.0
40
1.200000
50
0.000000
51
30.911655
0
LINE
8
0
10
3209.542129
20
1246.970914
30
0.0
11
3209.542129
21
1246.251466
31
0.0
0
ARC
8
0
10
3210.742129
20
1246.251466
30
0.0
40
1.200000
50
180.000000
51
237.000000
0
LINE
8
0
10
3210.088562
20
1245.245062
30
0.0
11
3212.459088
21
1243.705624
31
0.0
0
ARC
8
0
10
3211.642129
20
1242.447618
30
0.0
40
1.500000
50
0.000000
51
57.000000
0
LINE
8
0
10
3213.142129
20
1242.447618
30
0.0
11
3213.142129
21
1240.038094
31
0.0
0
ARC
8
0
10
3212.642129
20
1240.038094
30
0.0
40
0.500000
50
270.000000
51
0.000000
0
LINE
8
0
10
3212.642129
20
1239.538094
30
0.0
11
3198.092129
21
1239.538094
31
0.0
0
ARC
8
0
10
3198.092129
20
1238.988094
30
0.0
40
0.550000
50
90.000000
51
270.000000
0
LINE
8
0
10
3198.092129
20
1238.438094
30
0.0
11
3212.642129
21
1238.438094
31
0.0
0
ARC
8
0
10
3212.642129
20
1237.938094
30
0.0
40
0.500000
50
0.000000
51
90.000000
0
LINE
8
0
10
3213.142129
20
1237.938094
30
0.0
11
3213.142129
21
1231.528569
31
0.0
0
ARC
8
0
10
3211.642129
20
1231.528569
30
0.0
40
1.500000
50
303.000000
51
0.000000
0
LINE
8
0
10
3212.459088
20
1230.270563
30
0.0
11
3210.088562
21
1228.731126
31
0.0
0
ARC
8
0
10
3210.742129
20
1227.724721
30
0.0
40
1.200000
50
123.000000
51
180.000000
0
LINE
8
0
10
3203.341680
20
1203.688094
30
0.0
11
3203.341680
21
1222.988094
31
0.0
0
LINE
8
0
10
3203.341680
20
1222.988094
30
0.0
11
3222.491680
21
1222.988094
31
0.0
0
LINE
8
0
10
3222.491680
20
1222.988094
30
0.0
11
3222.491680
21
1203.688094
31
0.0
0
LINE
8
0
10
3222.491680
20
1203.688094
30
0.0
11
3203.341680
21
1203.688094
31
0.0
0
LINE
8
0
10
3231.692807
20
1250.988094
30
0.0
11
3197.491680
21
1250.988094
31
0.0
0
LINE
8
0
10
3197.491680
20
1250.988094
30
0.0
11
3197.491680
21
1260.688094
31
0.0
0
LINE
8
0
10
3197.491680
20
1260.688094
30
0.0
11
3232.738903
21
1260.688094
31
0.0
0
ARC
8
0
10
3232.738903
20
1260.388094
30
0.0
40
0.300000
50
30.000000
51
90.000000
0
LINE
8
0
10
3232.998711
20
1260.538094
30
0.0
11
3235.491680
21
1256.220145
31
0.0
0
LINE
8
0
10
3235.491680
20
1256.220145
30
0.0
11
3235.491680
21
1253.588094
31
0.0
0
LINE
8
0
10
3235.491680
20
1253.588094
30
0.0
11
3232.292807
21
1253.588094
31
0.0
0
ARC
8
0
10
3232.292807
20
1253.288094
30
0.0
40
0.300000
50
90.000000
51
180.000000
0
LINE
8
0
10
3231.992807
20
1253.288094
30
0.0
11
3231.992807
21
1251.288094
31
0.0
0
ARC
8
0
10
3231.692807
20
1251.288094
30
0.0
40
0.300000
50
270.000000
51
0.000000
0
LINE
8
0
10
3195.506644
20
1260.372675
30
0.0
11
3184.971957
21
1260.688094
31
0.0
0
LINE
8
0
10
3184.971957
20
1260.688094
30
0.0
11
3171.932834
21
1260.688094
31
0.0
0
ARC
8
0
10
3171.932834
20
1260.388094
30
0.0
40
0.300000
50
90.000000
51
210.000000
0
LINE
8
0
10
3171.673027
20
1260.238094
30
0.0
11
3173.724693
21
1256.684504
31
0.0
0
ARC
8
0
10
3173.291680
20
1256.434504
30
0.0
40
0.500000
50
0.000000
51
30.000000
0
LINE
8
0
10
3173.791680
20
1256.434504
30
0.0
11
3173.791680
21
1254.988094
31
0.0
0
ARC
8
0
10
3173.291680
20
1254.988094
30
0.0
40
0.500000
50
270.000000
51
0.000000
0
LINE
8
0
10
3173.291680
20
1254.488094
30
0.0
11
3171.741680
21
1254.488094
31
0.0
0
ARC
8
0
10
3171.741680
20
1254.988094
30
0.0
40
0.500000
50
180.000000
51
270.000000
0
LINE
8
0
10
3171.241680
20
1254.988094
30
0.0
11
3171.241680
21
1255.688094
31
0.0
0
LINE
8
0
10
3171.241680
20
1255.688094
30
0.0
11
3172.491680
21
1255.688094
31
0.0
0
LINE
8
0
10
3172.491680
20
1255.688094
30
0.0
11
3172.491680
21
1256.220145
31
0.0
0
LINE
8
0
10
3172.491680
20
1256.220145
30
0.0
11
3169.998711
21
1260.538094
31
0.0
0
ARC
8
0
10
3169.738903
20
1260.388094
30
0.0
40
0.300000
50
30.000000
51
90.000000
0
LINE
8
0
10
3169.738903
20
1260.688094
30
0.0
11
3169.244457
21
1260.688094
31
0.0
0
ARC
8
0
10
3169.244457
20
1260.388094
30
0.0
40
0.300000
50
90.000000
51
150.000000
0
LINE
8
0
10
3168.984649
20
1260.538094
30
0.0
11
3166.491680
21
1256.220145
31
0.0
0
LINE
8
0
10
3166.491680
20
1256.220145
30
0.0
11
3166.491680
21
1255.688094
31
0.0
0
LINE
8
0
10
3166.491680
20
1255.688094
30
0.0
11
3167.741680
21
1255.688094
31
0.0
0
LINE
8
0
10
3167.741680
20
1255.688094
30
0.0
11
3167.741680
21
1254.988094
31
0.0
0
ARC
8
0
10
3167.241680
20
1254.988094
30
0.0
40
0.500000
50
270.000000
51
0.000000
0
LINE
8
0
10
3167.241680
20
1254.488094
30
0.0
11
3165.491680
21
1254.488094
31
0.0
0
ARC
8
0
10
3165.491680
20
1254.988094
30
0.0
40
0.500000
50
180.000000
51
270.000000
0
LINE
8
0
10
3164.991680
20
1254.988094
30
0.0
11
3164.991680
21
1256.488094
31
0.0
0
ARC
8
0
10
3165.491680
20
1256.488094
30
0.0
40
0.500000
50
150.000000
51
180.000000
0
LINE
8
0
10
3165.058667
20
1256.738094
30
0.0
11
3168.060889
21
1261.938094
31
0.0
0
ARC
8
0
10
3168.493901
20
1261.688094
30
0.0
40
0.500000
50
90.000000
51
150.000000
0
LINE
8
0
10
3168.493901
20
1262.188094
30
0.0
11
3233.489459
21
1262.188094
31
0.0
0
ARC
8
0
10
3233.489459
20
1261.688094
30
0.0
40
0.500000
50
30.000000
51
90.000000
0
LINE
8
0
10
3233.922471
20
1261.938094
30
0.0
11
3236.924693
21
1256.738094
31
0.0
0
ARC
8
0
10
3236.491680
20
1256.488094
30
0.0
40
0.500000
50
0.000000
51
30.000000
0
LINE
8
0
10
3236.991680
20
1256.488094
30
0.0
11
3236.991680
21
1252.188094
31
0.0
0
ARC
8
0
10
3236.491680
20
1252.188094
30
0.0
40
0.500000
50
270.000000
51
0.000000
0
LINE
8
0
10
3236.491680
20
1251.688094
30
0.0
11
3235.891680
21
1251.688094
31
0.0
0
LINE
8
0
10
3235.891680
20
1251.688094
30
0.0
11
3235.491680
21
1252.088094
31
0.0
0
LINE
8
0
10
3235.491680
20
1252.088094
30
0.0
11
3235.091680
21
1251.688094
31
0.0
0
LINE
8
0
10
3235.091680
20
1251.688094
30
0.0
11
3234.691680
21
1252.088094
31
0.0
0
LINE
8
0
10
3234.691680
20
1252.088094
30
0.0
11
3234.291680
21
1251.688094
31
0.0
0
LINE
8
0
10
3234.291680
20
1251.688094
30
0.0
11
3233.891680
21
1252.088094
31
0.0
0
LINE
8
0
10
3233.891680
20
1252.088094
30
0.0
11
3233.492807
21
1251.689221
31
0.0
0
LINE
8
0
10
3233.492807
20
1251.689221
30
0.0
11
3233.492807
21
1249.988094
31
0.0
0
ARC
8
0
10
3232.992807
20
1249.988094
30
0.0
40
0.500000
50
270.000000
51
0.000000
0
LINE
8
0
10
3232.992807
20
1249.488094
30
0.0
11
3220.241680
21
1249.488094
31
0.0
0
LINE
8
0
10
3220.241680
20
1249.488094
30
0.0
11
3219.741680
21
1248.988094
31
0.0
0
LINE
8
0
10
3219.741680
20
1248.988094
30
0.0
11
3219.241680
21
1249.488094
31
0.0
0
LINE
8
0
10
3219.241680
20
1249.488094
30
0.0
11
3215.499906
21
1249.488094
31
0.0
0
ARC
8
0
10
3215.499906
20
1248.738094
30
0.0
40
0.750000
50
90.000000
51
133.922027
0
ARC
8
0
10
3216.367004
20
1247.837738
30
0.0
40
2.000000
50
133.922027
51
223.534275
0
ARC
8
0
10
3214.554598
20
1246.115767
30
0.0
40
0.500000
50
0.000000
51
43.534275
0
LINE
8
0
10
3215.054598
20
1246.115767
30
0.0
11
3215.054598
21
1245.426971
31
0.0
0
ARC
8
0
10
3214.754598
20
1245.426971
30
0.0
40
0.300000
50
239.502378
51
0.000000
0
LINE
8
0
10
3214.602347
20
1245.168476
30
0.0
11
3212.185148
21
1246.592180
31
0.0
0
LINE
8
0
10
3212.129084
20
1246.634793
30
0.0
11
3212.185148
21
1246.592180
31
0.0
0
LINE
8
0
10
3212.129084
20
1246.634793
30
0.0
11
3211.652203
21
1247.094961
31
0.0
0
ARC
8
0
10
3211.753320
20
1247.199750
30
0.0
40
0.145621
50
90.000000
51
226.021839
0
LINE
8
0
10
3211.762613
20
1247.345074
30
0.0
11
3211.917877
21
1247.335145
31
0.0
0
ARC
8
0
10
3211.930641
20
1247.534738
30
0.0
40
0.200000
50
266.341100
51
319.517123
0
LINE
8
0
10
3212.082761
20
1247.404893
30
0.0
11
3213.452050
21
1249.009096
31
0.0
0
ARC
8
0
10
3213.223870
20
1249.203862
30
0.0
40
0.300000
50
319.517123
51
341.341100
0
LINE
8
0
10
3213.508102
20
1249.107882
30
0.0
11
3213.604082
21
1249.392114
31
0.0
0
ARC
8
0
10
3213.319850
20
1249.488094
30
0.0
40
0.300000
50
341.341100
51
180.000000
0
LINE
8
0
10
3213.019850
20
1249.488094
30
0.0
11
3208.519850
21
1249.488094
31
0.0
0
ARC
8
0
10
3208.519850
20
1249.288094
30
0.0
40
0.200000
50
90.000000
51
180.000000
0
LINE
8
0
10
3208.319850
20
1249.288094
30
0.0
11
3208.319850
21
1249.220205
31
0.0
0
ARC
8
0
10
3208.619850
20
1249.220205
30
0.0
40
0.300000
50
180.000000
51
211.380132
0
LINE
8
0
10
3208.363730
20
1249.063991
30
0.0
11
3209.385963
21
1247.387998
31
0.0
0
ARC
8
0
10
3209.392153
20
1247.188094
30
0.0
40
0.200000
50
270.000000
51
90.000000
0
LINE
8
0
10
3209.392153
20
1246.988094
30
0.0
11
3207.985163
21
1246.988094
31
0.0
0
ARC
8
0
10
3207.985163
20
1247.188094
30
0.0
40
0.200000
50
211.380132
51
270.000000
0
LINE
8
0
10
3207.814417
20
1247.083951
30
0.0
11
3206.552696
21
1249.152593
31
0.0
0
ARC
8
0
10
3205.955084
20
1248.788094
30
0.0
40
0.700000
50
31.380132
51
90.000000
0
LINE
8
0
10
3205.955084
20
1249.488094
30
0.0
11
3204.028275
21
1249.488094
31
0.0
0
ARC
8
0
10
3204.028275
20
1248.788094
30
0.0
40
0.700000
50
90.000000
51
148.619868
0
LINE
8
0
10
3203.430663
20
1249.152593
30
0.0
11
3202.168943
21
1247.083951
31
0.0
0
ARC
8
0
10
3201.998197
20
1247.188094
30
0.0
40
0.200000
50
270.000000
51
328.619868
0
LINE
8
0
10
3201.998197
20
1246.988094
30
0.0
11
3200.591206
21
1246.988094
31
0.0
0
ARC
8
0
10
3200.591206
20
1247.188094
30
0.0
40
0.200000
50
90.000000
51
270.000000
0
LINE
8
0
10
3200.597397
20
1247.387998
30
0.0
11
3201.619630
21
1249.063991
31
0.0
0
ARC
8
0
10
3201.363510
20
1249.220205
30
0.0
40
0.300000
50
328.619868
51
0.000000
0
LINE
8
0
10
3201.663510
20
1249.220205
30
0.0
11
3201.663510
21
1249.288094
31
0.0
0
ARC
8
0
10
3201.463510
20
1249.288094
30
0.0
40
0.200000
50
0.000000
51
90.000000
0
LINE
8
0
10
3201.463510
20
1249.488094
30
0.0
11
3196.963510
21
1249.488094
31
0.0
0
ARC
8
0
10
3196.663510
20
1249.488094
30
0.0
40
0.300000
50
0.000000
51
198.658900
0
LINE
8
0
10
3196.379278
20
1249.392114
30
0.0
11
3196.475258
21
1249.107882
31
0.0
0
ARC
8
0
10
3196.759490
20
1249.203862
30
0.0
40
0.300000
50
198.658900
51
220.482877
0
LINE
8
0
10
3196.531310
20
1249.009096
30
0.0
11
3197.900599
21
1247.404893
31
0.0
0
ARC
8
0
10
3198.052719
20
1247.534738
30
0.0
40
0.200000
50
220.482877
51
273.658900
0
LINE
8
0
10
3198.065483
20
1247.335145
30
0.0
11
3198.220747
21
1247.345074
31
0.0
0
ARC
8
0
10
3198.230040
20
1247.199750
30
0.0
40
0.145621
50
313.978161
51
90.000000
0
LINE
8
0
10
3198.331157
20
1247.094961
30
0.0
11
3197.854276
21
1246.634793
31
0.0
0
LINE
8
0
10
3197.798211
20
1246.592180
30
0.0
11
3197.854276
21
1246.634793
31
0.0
0
LINE
8
0
10
3197.798211
20
1246.592180
30
0.0
11
3195.381013
21
1245.168476
31
0.0
0
ARC
8
0
10
3195.228762
20
1245.426971
30
0.0
40
0.300000
50
180.000000
51
300.497622
0
LINE
8
0
10
3194.928762
20
1245.426971
30
0.0
11
3194.928762
21
1246.115767
31
0.0
0
ARC
8
0
10
3195.428762
20
1246.115767
30
0.0
40
0.500000
50
136.465725
51
180.000000
0
ARC
8
0
10
3193.616356
20
1247.837738
30
0.0
40
2.000000
50
316.465725
51
44.270153
0
ARC
8
0
10
3195.191680
20
1249.373431
30
0.0
40
0.200000
50
180.000000
51
224.270153
0
LINE
8
0
10
3194.991680
20
1249.373431
30
0.0
11
3194.991680
21
1250.288094
31
0.0
0
ARC
8
0
10
3195.491680
20
1250.288094
30
0.0
40
0.500000
50
90.000000
51
180.000000
0
LINE
8
0
10
3195.491680
20
1250.788094
30
0.0
11
3195.991680
21
1250.788094
31
0.0
0
LINE
8
0
10
3195.991680
20
1250.788094
30
0.0
11
3195.991680
21
1259.872899
31
0.0
0
ARC
8
0
10
3195.491680
20
1259.872899
30
0.0
40
0.500000
50
0.000000
51
88.285022
0
ARC
8
0
10
3197.739834
20
1221.738094
30
0.0
40
1.250000
50
90.000000
51
180.000000
0
LINE
8
0
10
3196.489834
20
1221.738094
30
0.0
11
3196.489834
21
1221.663094
31
0.0
0
ARC
8
0
10
3196.189834
20
1221.663094
30
0.0
40
0.300000
50
270.000000
51
0.000000
0
LINE
8
0
10
3196.189834
20
1221.363094
30
0.0
11
3194.989834
21
1221.363094
31
0.0
0
LINE
8
0
10
3194.989834
20
1221.363094
30
0.0
11
3193.791680
21
1221.363094
31
0.0
0
LINE
8
0
10
3193.791680
20
1221.363094
30
0.0
11
3193.791680
21
1221.288094
31
0.0
0
LINE
8
0
10
3193.791680
20
1221.288094
30
0.0
11
3193.600685
21
1219.378143
31
0.0
0
ARC
8
0
10
3193.501181
20
1219.388094
30
0.0
40
0.100000
50
270.000000
51
0.000000
0
LINE
8
0
10
3193.501181
20
1219.288094
30
0.0
11
3193.091680
21
1219.288094
31
0.0
0
LINE
8
0
10
3193.091680
20
1219.288094
30
0.0
11
3192.357516
21
1219.505176
31
0.0
0
ARC
8
0
10
3192.491680
20
1219.773504
30
0.0
40
0.300000
50
180.000000
51
243.434949
0
LINE
8
0
10
3192.191680
20
1219.773504
30
0.0
11
3192.191680
21
1221.363094
31
0.0
0
LINE
8
0
10
3192.191680
20
1221.363094
30
0.0
11
3191.453257
21
1221.363094
31
0.0
0
ARC
8
0
10
3191.453257
20
1221.663094
30
0.0
40
0.300000
50
246.801409
51
270.000000
0
LINE
8
0
10
3191.335081
20
1221.387350
30
0.0
11
3190.112896
21
1221.911144
31
0.0
0
ARC
8
0
10
3190.191680
20
1222.094973
30
0.0
40
0.200000
50
180.000000
51
246.801409
0
LINE
8
0
10
3189.991680
20
1222.094973
30
0.0
11
3189.991680
21
1223.158094
31
0.0
0
LINE
8
0
10
3189.991680
20
1223.158094
30
0.0
11
3194.989834
21
1223.158094
31
0.0
0
LINE
8
0
10
3194.989834
20
1223.158094
30
0.0
11
3194.989834
21
1224.602756
31
0.0
0
ARC
8
0
10
3195.189834
20
1224.602756
30
0.0
40
0.200000
50
135.729847
51
180.000000
0
ARC
8
0
10
3193.614509
20
1226.138449
30
0.0
40
2.000000
50
315.729847
51
43.534275
0
ARC
8
0
10
3195.426915
20
1227.860420
30
0.0
40
0.500000
50
180.000000
51
223.534275
0
LINE
8
0
10
3194.926915
20
1227.860420
30
0.0
11
3194.926915
21
1228.549217
31
0.0
0
ARC
8
0
10
3195.226915
20
1228.549217
30
0.0
40
0.300000
50
59.502378
51
180.000000
0
LINE
8
0
10
3195.379166
20
1228.807712
30
0.0
11
3197.796365
21
1227.384008
31
0.0
0
LINE
8
0
10
3197.852430
20
1227.341394
30
0.0
11
3197.796365
21
1227.384008
31
0.0
0
LINE
8
0
10
3197.852430
20
1227.341394
30
0.0
11
3198.329311
21
1226.881227
31
0.0
0
ARC
8
0
10
3198.228194
20
1226.776438
30
0.0
40
0.145621
50
270.000000
51
46.021839
0
LINE
8
0
10
3198.218901
20
1226.631114
30
0.0
11
3198.063636
21
1226.641042
31
0.0
0
ARC
8
0
10
3198.050873
20
1226.441450
30
0.0
40
0.200000
50
86.341100
51
139.517123
0
LINE
8
0
10
3197.898753
20
1226.571294
30
0.0
11
3196.529464
21
1224.967092
31
0.0
0
ARC
8
0
10
3196.757644
20
1224.772326
30
0.0
40
0.300000
50
139.517123
51
161.341100
0
LINE
8
0
10
3196.473412
20
1224.868306
30
0.0
11
3196.377432
21
1224.584074
31
0.0
0
ARC
8
0
10
3196.661664
20
1224.488094
30
0.0
40
0.300000
50
161.341100
51
0.000000
0
LINE
8
0
10
3196.961664
20
1224.488094
30
0.0
11
3201.461664
21
1224.488094
31
0.0
0
ARC
8
0
10
3201.461664
20
1224.688094
30
0.0
40
0.200000
50
270.000000
51
0.000000
0
LINE
8
0
10
3201.661664
20
1224.688094
30
0.0
11
3201.661664
21
1224.755983
31
0.0
0
ARC
8
0
10
3201.361664
20
1224.755983
30
0.0
40
0.300000
50
0.000000
51
31.380132
0
LINE
8
0
10
3201.617783
20
1224.912197
30
0.0
11
3200.595550
21
1226.588190
31
0.0
0
ARC
8
0
10
3200.589360
20
1226.788094
30
0.0
40
0.200000
50
90.000000
51
270.000000
0
LINE
8
0
10
3200.589360
20
1226.988094
30
0.0
11
3201.292108
21
1226.988094
31
0.0
0
ARC
8
0
10
3204.990757
20
1226.888094
30
0.0
40
3.700000
50
129.728396
51
178.451277
0
ARC
8
0
10
3203.105267
20
1229.156888
30
0.0
40
0.750000
50
309.728396
51
129.728396
0
ARC
8
0
10
3204.990757
20
1226.888094
30
0.0
40
2.200000
50
129.728396
51
165.000000
0
LINE
8
0
10
3202.865720
20
1227.457496
30
0.0
11
3202.575942
21
1227.535141
31
0.0
0
ARC
8
0
10
3204.990757
20
1226.888094
30
0.0
40
2.500000
50
165.000000
51
195.000000
0
LINE
8
0
10
3202.575942
20
1226.241046
30
0.0
11
3202.865720
21
1226.318692
31
0.0
0
ARC
8
0
10
3204.990757
20
1226.888094
30
0.0
40
2.200000
50
195.000000
51
255.000000
0
LINE
8
0
10
3204.421355
20
1224.763057
30
0.0
11
3204.343709
21
1224.473279
31
0.0
0
ARC
8
0
10
3204.990757
20
1226.888094
30
0.0
40
2.500000
50
255.000000
51
285.000000
0
LINE
8
0
10
3205.637804
20
1224.473279
30
0.0
11
3205.560159
21
1224.763057
31
0.0
0
ARC
8
0
10
3204.990757
20
1226.888094
30
0.0
40
2.200000
50
285.000000
51
345.000000
0
LINE
8
0
10
3207.115794
20
1226.318692
30
0.0
11
3207.405571
21
1226.241046
31
0.0
0
ARC
8
0
10
3204.990757
20
1226.888094
30
0.0
40
2.500000
50
345.000000
51
15.000000
0
LINE
8
0
10
3207.405571
20
1227.535141
30
0.0
11
3207.115794
21
1227.457496
31
0.0
0
ARC
8
0
10
3204.990757
20
1226.888094
30
0.0
40
2.200000
50
15.000000
51
50.271604
0
ARC
8
0
10
3206.876246
20
1229.156888
30
0.0
40
0.750000
50
50.271604
51
230.271604
0
ARC
8
0
10
3204.990757
20
1226.888094
30
0.0
40
3.700000
50
1.548723
51
50.271604
0
LINE
8
0
10
3208.689405
20
1226.988094
30
0.0
11
3209.392153
21
1226.988094
31
0.0
0
ARC
8
0
10
3209.392153
20
1226.788094
30
0.0
40
0.200000
50
270.000000
51
90.000000
0
LINE
8
0
10
3209.385963
20
1226.588190
30
0.0
11
3208.363730
21
1224.912197
31
0.0
0
ARC
8
0
10
3208.619850
20
1224.755983
30
0.0
40
0.300000
50
148.619868
51
180.000000
0
LINE
8
0
10
3208.319850
20
1224.755983
30
0.0
11
3208.319850
21
1224.688094
31
0.0
0
ARC
8
0
10
3208.519850
20
1224.688094
30
0.0
40
0.200000
50
180.000000
51
270.000000
0
LINE
8
0
10
3208.519850
20
1224.488094
30
0.0
11
3213.019850
21
1224.488094
31
0.0
0
ARC
8
0
10
3213.319850
20
1224.488094
30
0.0
40
0.300000
50
180.000000
51
18.658900
0
LINE
8
0
10
3213.604082
20
1224.584074
30
0.0
11
3213.508102
21
1224.868306
31
0.0
0
ARC
8
0
10
3213.223870
20
1224.772326
30
0.0
40
0.300000
50
18.658900
51
40.482877
0
LINE
8
0
10
3213.452050
20
1224.967092
30
0.0
11
3212.082761
21
1226.571294
31
0.0
0
ARC
8
0
10
3211.930641
20
1226.441450
30
0.0
40
0.200000
50
40.482877
51
93.658900
0
LINE
8
0
10
3211.917877
20
1226.641042
30
0.0
11
3211.762613
21
1226.631114
31
0.0
0
ARC
8
0
10
3211.753320
20
1226.776438
30
0.0
40
0.145621
50
133.978161
51
270.000000
0
LINE
8
0
10
3211.652203
20
1226.881227
30
0.0
11
3212.129084
21
1227.341394
31
0.0
0
LINE
8
0
10
3212.185148
20
1227.384008
30
0.0
11
3212.129084
21
1227.341394
31
0.0
0
LINE
8
0
10
3212.185148
20
1227.384008
30
0.0
11
3214.602347
21
1228.807712
31
0.0
0
ARC
8
0
10
3214.754598
20
1228.549217
30
0.0
40
0.300000
50
0.000000
51
120.497622
0
LINE
8
0
10
3215.054598
20
1228.549217
30
0.0
11
3215.054598
21
1227.860420
31
0.0
0
ARC
8
0
10
3214.554598
20
1227.860420
30
0.0
40
0.500000
50
316.465725
51
0.000000
0
ARC
8
0
10
3216.367004
20
1226.138449
30
0.0
40
2.000000
50
136.465725
51
226.077973
0
ARC
8
0
10
3215.499906
20
1225.238094
30
0.0
40
0.750000
50
226.077973
51
270.000000
0
LINE
8
0
10
3215.499906
20
1224.488094
30
0.0
11
3223.491680
21
1224.488094
31
0.0
0
ARC
8
0
10
3223.491680
20
1223.988094
30
0.0
40
0.500000
50
0.000000
51
90.000000
0
LINE
8
0
10
3223.991680
20
1223.988094
30
0.0
11
3223.991680
21
1221.088094
31
0.0
0
LINE
8
0
10
3223.991680
20
1221.088094
30
0.0
11
3224.884573
21
1221.088094
31
0.0
0
ARC
8
0
10
3224.884573
20
1220.588094
30
0.0
40
0.500000
50
45.000000
51
90.000000
0
LINE
8
0
10
3225.238127
20
1220.941647
30
0.0
11
3225.545233
21
1220.634540
31
0.0
0
ARC
8
0
10
3225.191680
20
1220.280987
30
0.0
40
0.500000
50
0.000000
51
45.000000
0
LINE
8
0
10
3225.691680
20
1220.280987
30
0.0
11
3225.691680
21
1220.088094
31
0.0
0
ARC
8
0
10
3225.191680
20
1220.088094
30
0.0
40
0.500000
50
270.000000
51
0.000000
0
LINE
8
0
10
3225.191680
20
1219.588094
30
0.0
11
3223.991680
21
1219.588094
31
0.0
0
LINE
8
0
10
3223.991680
20
1219.588094
30
0.0
11
3223.991680
21
1206.788094
31
0.0
0
LINE
8
0
10
3223.991680
20
1206.788094
30
0.0
11
3225.191680
21
1206.788094
31
0.0
0
ARC
8
0
10
3225.191680
20
1206.288094
30
0.0
40
0.500000
50
0.000000
51
90.000000
0
LINE
8
0
10
3225.691680
20
1206.288094
30
0.0
11
3225.691680
21
1206.095201
31
0.0
0
ARC
8
0
10
3225.191680
20
1206.095201
30
0.0
40
0.500000
50
315.000000
51
0.000000
0
LINE
8
0
10
3225.545233
20
1205.741647
30
0.0
11
3225.238127
21
1205.434540
31
0.0
0
ARC
8
0
10
3224.884573
20
1205.788094
30
0.0
40
0.500000
50
270.000000
51
315.000000
0
LINE
8
0
10
3224.884573
20
1205.288094
30
0.0
11
3223.991680
21
1205.288094
31
0.0
0
LINE
8
0
10
3223.991680
20
1205.288094
30
0.0
11
3223.991680
21
1202.688094
31
0.0
0
ARC
8
0
10
3223.491680
20
1202.688094
30
0.0
40
0.500000
50
270.000000
51
0.000000
0
LINE
8
0
10
3223.491680
20
1202.188094
30
0.0
11
3190.291680
21
1202.188094
31
0.0
0
ARC
8
0
10
3190.291680
20
1202.488094
30
0.0
40
0.300000
50
180.000000
51
270.000000
0
LINE
8
0
10
3189.991680
20
1202.488094
30
0.0
11
3189.991680
21
1204.281215
31
0.0
0
ARC
8
0
10
3190.191680
20
1204.281215
30
0.0
40
0.200000
50
113.198591
51
180.000000
0
LINE
8
0
10
3190.112896
20
1204.465044
30
0.0
11
3191.335081
21
1204.988837
31
0.0
0
ARC
8
0
10
3191.453257
20
1204.713094
30
0.0
40
0.300000
50
90.000000
51
113.198591
0
LINE
8
0
10
3191.453257
20
1205.013094
30
0.0
11
3192.191680
21
1205.013094
31
0.0
0
LINE
8
0
10
3192.191680
20
1205.013094
30
0.0
11
3192.191680
21
1206.602684
31
0.0
0
ARC
8
0
10
3192.491680
20
1206.602684
30
0.0
40
0.300000
50
116.565051
51
180.000000
0
LINE
8
0
10
3192.357516
20
1206.871012
30
0.0
11
3193.091680
21
1207.088094
31
0.0
0
LINE
8
0
10
3193.091680
20
1207.088094
30
0.0
11
3193.501181
21
1207.088094
31
0.0
0
ARC
8
0
10
3193.501181
20
1206.988094
30
0.0
40
0.100000
50
0.000000
51
90.000000
0
LINE
8
0
10
3193.600685
20
1206.998044
30
0.0
11
3193.791680
21
1205.088094
31
0.0
0
LINE
8
0
10
3193.791680
20
1205.088094
30
0.0
11
3193.791680
21
1203.888094
31
0.0
0
LINE
8
0
10
3193.791680
20
1203.888094
30
0.0
11
3201.791680
21
1203.888094
31
0.0
0
LINE
8
0
10
3201.791680
20
1203.888094
30
0.0
11
3201.791680
21
1209.188094
31
0.0
0
LINE
8
0
10
3201.791680
20
1209.188094
30
0.0
11
3201.491680
21
1209.188094
31
0.0
0
LINE
8
0
10
3201.491680
20
1209.188094
30
0.0
11
3201.491680
21
1212.888094
31
0.0
0
LINE
8
0
10
3201.491680
20
1212.888094
30
0.0
11
3201.791680
21
1213.188094
31
0.0
0
LINE
8
0
10
3201.791680
20
1213.188094
30
0.0
11
3201.491680
21
1213.488094
31
0.0
0
LINE
8
0
10
3201.491680
20
1213.488094
30
0.0
11
3201.491680
21
1217.188094
31
0.0
0
LINE
8
0
10
3201.491680
20
1217.188094
30
0.0
11
3201.791680
21
1217.188094
31
0.0
0
LINE
8
0
10
3201.791680
20
1217.188094
30
0.0
11
3201.791680
21
1222.988094
31
0.0
0
LINE
8
0
10
3201.791680
20
1222.988094
30
0.0
11
3197.739834
21
1222.988094
31
0.0
0
ATTDEF
8
0
10
3164.991680
20
1262.188094
30
0.0
40
3.5
1

3

2
FRONT_VIEW
70
0
0
ATTDEF
8
0
10
3164.991680
20
1262.188094
30
0.0
40
3.5
1

3

2
OPTI:500.000000,1,0,3000.000000,6500.000000,500.000000,0,0.000000,0
70
0
0
ATTDEF
8
0
10
3164.991680
20
1262.188094
30
0.0
40
3.5
1

3

2
GLASS_MIN:0.000000
70
0
0
ATTDEF
8
0
10
3164.991680
20
1262.188094
30
0.0
40
3.5
1

3

2
GLASS_MAX:0.000000
70
0
0
ATTDEF
8
0
10
3189.991680
20
1222.626533
30
0.0
40
3.5
1

3

2
HC_START
70
0
0
ATTDEF
8
0
10
3223.991680
20
1213.188094
30
0.0
40
3.5
1

3

2
HC_END
70
0
0
ATTDEF
8
0
10
3236.991680
20
1262.188094
30
0.0
40
3.5
1

3

2
FP_LCS_ORIG
70
0
0
ATTDEF
8
0
10
3236.991680
20
1252.188094
30
0.0
40
3.5
1

3

2
FP_LCS_HOT
70
0
0
ATTDEF
8
0
10
3226.991680
20
1262.188094
30
0.0
40
3.5
1

3

2
FP_LCS_INTERN
70
0
0
ATTDEF
8
0
10
0.000000
20
0.000000
30
0.0
40
3.5
1

3

2
TDEV5:0
70
0
0
ATTDEF
8
0
10
0.000000
20
0.000000
30
0.0
40
3.5
1

3

2
PANE_WIDTH:62.3
70
0
0
ATTDEF
8
0
10
0.000000
20
0.000000
30
0.0
40
3.5
1

3

2
MIN_VETRO:0
70
0
0
ATTDEF
8
0
10
0.000000
20
0.000000
30
0.0
40
3.5
1

3

2
MAX_VETRO:0
70
0
0
ATTDEF
8
0
10
0.000000
20
0.000000
30
0.0
40
3.5
1

3

2
JX:0
70
0
0
ATTDEF
8
0
10
0.000000
20
0.000000
30
0.0
40
3.5
1

3

2
WX:0
70
0
0
ATTDEF
8
0
10
0.000000
20
0.000000
30
0.0
40
3.5
1

3

2
JY:0
70
0
0
ATTDEF
8
0
10
0.000000
20
0.000000
30
0.0
40
3.5
1

3

2
WY:0
70
0
0
ATTDEF
8
0
10
0.000000
20
0.000000
30
0.0
40
3.5
1

3

2
BL01:6500, ,1
70
0
0
ATTDEF
8
0
10
0.000000
20
0.000000
30
0.0
40
3.5
1

3

2
DESC:Inversor
70
0
0
ATTDEF
8
0
10
0.000000
20
0.000000
30
0.0
40
3.5
1

3

2
DENS:1.517
70
0
0
ATTDEF
8
0
10
0.000000
20
0.000000
30
0.0
40
3.5
1

3

2
TDEV:59.35
70
0
0
ATTDEF
8
0
10
0.000000
20
0.000000
30
0.0
40
3.5
1

3

2
TDEV2:0
70
0
0
ATTDEF
8
0
10
0.000000
20
0.000000
30
0.0
40
3.5
1

3

2
TDEV3:0
70
0
0
ATTDEF
8
0
10
0.000000
20
0.000000
30
0.0
40
3.5
1

3

2
TDEV4:0
70
0
0
ATTDEF
8
0
10
0.000000
20
0.000000
30
0.0
40
3.5
1

3

2
TDEV5:0
70
0
0
ATTDEF
8
0
10
0.000000
20
0.000000
30
0.0
40
3.5
1

3

2
PANE_WIDTH:62.3
70
0
0
ATTDEF
8
0
10
0.000000
20
0.000000
30
0.0
40
3.5
1

3

2
MIN_VETRO:0
70
0
0
ATTDEF
8
0
10
0.000000
20
0.000000
30
0.0
40
3.5
1

3

2
MAX_VETRO:0
70
0
0
ATTDEF
8
0
10
0.000000
20
0.000000
30
0.0
40
3.5
1

3

2
JX:0
70
0
0
ATTDEF
8
0
10
0.000000
20
0.000000
30
0.0
40
3.5
1

3

2
WX:0
70
0
0
ATTDEF
8
0
10
0.000000
20
0.000000
30
0.0
40
3.5
1

3

2
JY:0
70
0
0
ATTDEF
8
0
10
0.000000
20
0.000000
30
0.0
40
3.5
1

3

2
WY:0
70
0
0
ATTDEF
8
0
10
0.000000
20
0.000000
30
0.0
40
3.5
1

3

2
BL01:6500, ,1
70
0
0
ENDSEC
0
EOF
