0
SECTION
2
ENTITIES
0
ARC
8
0
10
9713.333146
20
1615.831271
30
0.0
40
0.600000
50
315.000000
51
30.000000
0
LINE
8
0
10
9713.757410
20
1615.407007
30
0.0
11
9713.371014
21
1615.020610
31
0.0
0
ARC
8
0
10
9713.583146
20
1614.808478
30
0.0
40
0.300000
50
135.000000
51
211.108002
0
LINE
8
0
10
9713.326287
20
1614.653483
30
0.0
11
9714.405048
21
1612.865764
31
0.0
0
ARC
8
0
10
9714.833146
20
1613.124091
30
0.0
40
0.500000
50
211.108002
51
0.000000
0
LINE
8
0
10
9715.333146
20
1613.124091
30
0.0
11
9715.333146
21
1616.324091
31
0.0
0
LINE
8
0
10
9715.333146
20
1616.324091
30
0.0
11
9749.633146
21
1616.324091
31
0.0
0
LINE
8
0
10
9749.633146
20
1616.324091
30
0.0
11
9749.633146
21
1613.124091
31
0.0
0
ARC
8
0
10
9750.133146
20
1613.124091
30
0.0
40
0.500000
50
180.000000
51
328.891999
0
LINE
8
0
10
9750.561243
20
1612.865764
30
0.0
11
9751.640004
21
1614.653483
31
0.0
0
ARC
8
0
10
9751.383146
20
1614.808478
30
0.0
40
0.300000
50
328.891999
51
45.000000
0
LINE
8
0
10
9751.595278
20
1615.020610
30
0.0
11
9751.208882
21
1615.407007
31
0.0
0
ARC
8
0
10
9751.633146
20
1615.831271
30
0.0
40
0.600000
50
150.000000
51
225.000000
0
LINE
8
0
10
9751.113531
20
1616.131271
30
0.0
11
9752.033146
21
1617.724091
31
0.0
0
LINE
8
0
10
9752.033146
20
1617.724091
30
0.0
11
9712.933146
21
1617.724091
31
0.0
0
LINE
8
0
10
9712.933146
20
1617.724091
30
0.0
11
9713.852761
21
1616.131271
31
0.0
0
ATTDEF
8
0
10
0.000000
20
0.000000
30
0.0
40
3.5
1

3

2
PANE_WIDTH:0
70
0
0
ATTDEF
8
0
10
0.000000
20
0.000000
30
0.0
40
3.5
1

3

2
MIN_VETRO:0
70
0
0
ATTDEF
8
0
10
0.000000
20
0.000000
30
0.0
40
3.5
1

3

2
MAX_VETRO:0
70
0
0
ATTDEF
8
0
10
0.000000
20
0.000000
30
0.0
40
3.5
1

3

2
JX:0
70
0
0
ATTDEF
8
0
10
0.000000
20
0.000000
30
0.0
40
3.5
1

3

2
WX:0
70
0
0
ATTDEF
8
0
10
0.000000
20
0.000000
30
0.0
40
3.5
1

3

2
JY:0
70
0
0
ATTDEF
8
0
10
0.000000
20
0.000000
30
0.0
40
3.5
1

3

2
WY:0
70
0
0
ATTDEF
8
0
10
0.000000
20
0.000000
30
0.0
40
3.5
1

3

2
DESC:Tapeta anclaje
70
0
0
ATTDEF
8
0
10
0.000000
20
0.000000
30
0.0
40
3.5
1

3

2
DENS:0.1755
70
0
0
ATTDEF
8
0
10
0.000000
20
0.000000
30
0.0
40
3.5
1

3

2
TDEV:9.37
70
0
0
ATTDEF
8
0
10
0.000000
20
0.000000
30
0.0
40
3.5
1

3

2
TDEV2:0
70
0
0
ATTDEF
8
0
10
0.000000
20
0.000000
30
0.0
40
3.5
1

3

2
TDEV3:0
70
0
0
ATTDEF
8
0
10
0.000000
20
0.000000
30
0.0
40
3.5
1

3

2
TDEV4:0
70
0
0
ATTDEF
8
0
10
0.000000
20
0.000000
30
0.0
40
3.5
1

3

2
TDEV5:0
70
0
0
ATTDEF
8
0
10
0.000000
20
0.000000
30
0.0
40
3.5
1

3

2
PANE_WIDTH:0
70
0
0
ATTDEF
8
0
10
0.000000
20
0.000000
30
0.0
40
3.5
1

3

2
MIN_VETRO:0
70
0
0
ATTDEF
8
0
10
0.000000
20
0.000000
30
0.0
40
3.5
1

3

2
MAX_VETRO:0
70
0
0
ATTDEF
8
0
10
0.000000
20
0.000000
30
0.0
40
3.5
1

3

2
JX:0
70
0
0
ATTDEF
8
0
10
0.000000
20
0.000000
30
0.0
40
3.5
1

3

2
WX:0
70
0
0
ATTDEF
8
0
10
0.000000
20
0.000000
30
0.0
40
3.5
1

3

2
JY:0
70
0
0
ATTDEF
8
0
10
0.000000
20
0.000000
30
0.0
40
3.5
1

3

2
WY:0
70
0
0
ENDSEC
0
EOF
